﻿[
  {
    "name": "ACHIEV_01",
    "defaultvalue": 0,
    "displayName": "Curiosity",
    "hidden": 1,
    "icon": "https://steamcdn-a.akamaihd.net/steamcommunity/public/images/apps/795110/ce80a2f632fcd908a5448b251d8e2f77b42c252b.jpg",
    "icongray": "https://steamcdn-a.akamaihd.net/steamcommunity/public/images/apps/795110/7094fc6a140b1a0524cadff574f2761da7533176.jpg"
  },
  {
    "name": "ACHIEV_02",
    "defaultvalue": 0,
    "displayName": "Cooperation",
    "hidden": 1,
    "icon": "https://steamcdn-a.akamaihd.net/steamcommunity/public/images/apps/795110/6e0da0a038bc72dfe01e2be181ba45461fe26c24.jpg",
    "icongray": "https://steamcdn-a.akamaihd.net/steamcommunity/public/images/apps/795110/eff0e85be60be5f478f10c51e5b12b8f34fbf839.jpg"
  },
  {
    "name": "ACHIEV_03",
    "defaultvalue": 0,
    "displayName": "Partnership",
    "hidden": 1,
    "icon": "https://steamcdn-a.akamaihd.net/steamcommunity/public/images/apps/795110/4e3fea405c8f59ac6dfa49296e343c36e5a23a02.jpg",
    "icongray": "https://steamcdn-a.akamaihd.net/steamcommunity/public/images/apps/795110/cfb1d005d6c608de43a04b6f1b5378bd672e915d.jpg"
  },
  {
    "name": "ACHIEV_04",
    "defaultvalue": 0,
    "displayName": "Transcendence",
    "hidden": 1,
    "icon": "https://steamcdn-a.akamaihd.net/steamcommunity/public/images/apps/795110/d6a1a88f4920a0d1fcf7e0e6060859b7e3391469.jpg",
    "icongray": "https://steamcdn-a.akamaihd.net/steamcommunity/public/images/apps/795110/758c6939b0cb40f0ea612b5ed5943ce39f586b1d.jpg"
  },
  {
    "name": "ACHIEV_05",
    "defaultvalue": 0,
    "displayName": "Master",
    "hidden": 1,
    "icon": "https://steamcdn-a.akamaihd.net/steamcommunity/public/images/apps/795110/9563e142910f6a647b947cfe06ec0948fd946acb.jpg",
    "icongray": "https://steamcdn-a.akamaihd.net/steamcommunity/public/images/apps/795110/5df4f092ec2be1002b71da5598cbe87a4d8315a8.jpg"
  },
  {
    "name": "ACHIEV_06",
    "defaultvalue": 0,
    "displayName": "Birth",
    "hidden": 1,
    "icon": "https://steamcdn-a.akamaihd.net/steamcommunity/public/images/apps/795110/7360573540fce1f8a9a9f9747baae15a4f16342d.jpg",
    "icongray": "https://steamcdn-a.akamaihd.net/steamcommunity/public/images/apps/795110/3e798ad6e383cdb3adc140d66accbceb1cecbe65.jpg"
  },
  {
    "name": "ACHIEV_07",
    "defaultvalue": 0,
    "displayName": "First Steps",
    "hidden": 1,
    "icon": "https://steamcdn-a.akamaihd.net/steamcommunity/public/images/apps/795110/d3e9f37f4c2ab65b9f55cdfdc9041602cc36e57b.jpg",
    "icongray": "https://steamcdn-a.akamaihd.net/steamcommunity/public/images/apps/795110/1d55412c6f8e80ecf99d438381a134134c0bcb27.jpg"
  },
  {
    "name": "ACHIEV_08",
    "defaultvalue": 0,
    "displayName": "Freedom",
    "hidden": 1,
    "icon": "https://steamcdn-a.akamaihd.net/steamcommunity/public/images/apps/795110/779ae5113c087de32a684873b15e9f28ca19c99d.jpg",
    "icongray": "https://steamcdn-a.akamaihd.net/steamcommunity/public/images/apps/795110/382e2dfdc2b93059abd12e34ea8d380fb530f152.jpg"
  },
  {
    "name": "ACHIEV_09",
    "defaultvalue": 0,
    "displayName": "Growth",
    "hidden": 1,
    "icon": "https://steamcdn-a.akamaihd.net/steamcommunity/public/images/apps/795110/fd26a481b6c636f1847206d7207f4ffb17c91c01.jpg",
    "icongray": "https://steamcdn-a.akamaihd.net/steamcommunity/public/images/apps/795110/6428b431b2d526f2a8c0f4f4c53cd4495a1ef2a7.jpg"
  },
  {
    "name": "ACHIEV_10",
    "defaultvalue": 0,
    "displayName": "Adversity",
    "hidden": 1,
    "icon": "https://steamcdn-a.akamaihd.net/steamcommunity/public/images/apps/795110/7dc6315e859f6451bd32fbf7d81ef9f03b75d4d1.jpg",
    "icongray": "https://steamcdn-a.akamaihd.net/steamcommunity/public/images/apps/795110/4b4843ad95dd7dd1fe2be3875932032020796241.jpg"
  },
  {
    "name": "ACHIEV_11",
    "defaultvalue": 0,
    "displayName": "Struggle",
    "hidden": 1,
    "icon": "https://steamcdn-a.akamaihd.net/steamcommunity/public/images/apps/795110/2007443f2c2491988193e2f8a0fbefa881ae1c59.jpg",
    "icongray": "https://steamcdn-a.akamaihd.net/steamcommunity/public/images/apps/795110/0cf76892d6272ccd30c79f347e1a689827da5e84.jpg"
  },
  {
    "name": "ACHIEV_12",
    "defaultvalue": 0,
    "displayName": "Last Steps",
    "hidden": 1,
    "icon": "https://steamcdn-a.akamaihd.net/steamcommunity/public/images/apps/795110/42e5cc15f3266bafd18687170ee29efdf57baa06.jpg",
    "icongray": "https://steamcdn-a.akamaihd.net/steamcommunity/public/images/apps/795110/3afec7a3e713057fcd010763e708bfe056b50b11.jpg"
  },
  {
    "name": "ACHIEV_13",
    "defaultvalue": 0,
    "displayName": "Journey",
    "hidden": 1,
    "icon": "https://steamcdn-a.akamaihd.net/steamcommunity/public/images/apps/795110/1405f1e81b2c8a8d14a1e63f3981478924ea3cda.jpg",
    "icongray": "https://steamcdn-a.akamaihd.net/steamcommunity/public/images/apps/795110/f963a62740fec017933f228c589d500910a1a107.jpg"
  },
  {
    "name": "ACHIEV_14",
    "defaultvalue": 0,
    "displayName": "Time Distortion",
    "hidden": 1,
    "icon": "https://steamcdn-a.akamaihd.net/steamcommunity/public/images/apps/795110/03f4e86825a79566ff476563660198968bfa234c.jpg",
    "icongray": "https://steamcdn-a.akamaihd.net/steamcommunity/public/images/apps/795110/79170ac2e16e3bd480c7817990567b65a5913dfb.jpg"
  },
  {
    "name": "ACHIEV_15",
    "defaultvalue": 0,
    "displayName": "Weightless",
    "hidden": 1,
    "icon": "https://steamcdn-a.akamaihd.net/steamcommunity/public/images/apps/795110/eb772e1e71ba828b82c91f8f70f500189ada9922.jpg",
    "icongray": "https://steamcdn-a.akamaihd.net/steamcommunity/public/images/apps/795110/3b62472c823e315e0504ff72242df6783a4956c8.jpg"
  },
  {
    "name": "ACHIEV_16",
    "defaultvalue": 0,
    "displayName": "Impervious",
    "hidden": 1,
    "icon": "https://steamcdn-a.akamaihd.net/steamcommunity/public/images/apps/795110/198ce6727fd6eedaedd181956a5d0b279a6d9606.jpg",
    "icongray": "https://steamcdn-a.akamaihd.net/steamcommunity/public/images/apps/795110/bf57743c45c283dcf21a6e066c9255e43ca15f3b.jpg"
  },
  {
    "name": "ACHIEV_17",
    "defaultvalue": 0,
    "displayName": "Lazarus",
    "hidden": 1,
    "icon": "https://steamcdn-a.akamaihd.net/steamcommunity/public/images/apps/795110/de1db44f9b977c8be6bbb9fa4953b0c512a6294b.jpg",
    "icongray": "https://steamcdn-a.akamaihd.net/steamcommunity/public/images/apps/795110/6721b1b004ab698057e9844d46b9884c61ac25c9.jpg"
  },
  {
    "name": "ACHIEV_18",
    "defaultvalue": 0,
    "displayName": "Resonance",
    "hidden": 1,
    "icon": "https://steamcdn-a.akamaihd.net/steamcommunity/public/images/apps/795110/1fa11a0767bed83051355e1c4ace7dec144980e7.jpg",
    "icongray": "https://steamcdn-a.akamaihd.net/steamcommunity/public/images/apps/795110/7c4ac9352b59202b5db5583f4f89a87344e99c15.jpg"
  },
  {
    "name": "ACHIEV_19",
    "defaultvalue": 0,
    "displayName": "Time Apprentice",
    "hidden": 1,
    "icon": "https://steamcdn-a.akamaihd.net/steamcommunity/public/images/apps/795110/862ecd80e689d24b1ec3338385b372d6399c9490.jpg",
    "icongray": "https://steamcdn-a.akamaihd.net/steamcommunity/public/images/apps/795110/e1276021f9da809946fe86a2f3a2952c73b98916.jpg"
  },
  {
    "name": "ACHIEV_20",
    "defaultvalue": 0,
    "displayName": "Time Scholar",
    "hidden": 1,
    "icon": "https://steamcdn-a.akamaihd.net/steamcommunity/public/images/apps/795110/d9a658e9b51344a866f466d458cf3d7e64eb3789.jpg",
    "icongray": "https://steamcdn-a.akamaihd.net/steamcommunity/public/images/apps/795110/a5f2c70368331d171c8b0b359984bba0f07c24f3.jpg"
  },
  {
    "name": "ACHIEV_21",
    "defaultvalue": 0,
    "displayName": "Time Master",
    "hidden": 1,
    "icon": "https://steamcdn-a.akamaihd.net/steamcommunity/public/images/apps/795110/d515fc42ecf559f7e487cc08216a05e73ab27229.jpg",
    "icongray": "https://steamcdn-a.akamaihd.net/steamcommunity/public/images/apps/795110/302a77c684f07e46f2f94310dd00a21548f9febf.jpg"
  },
  {
    "name": "ACHIEV_22",
    "defaultvalue": 0,
    "displayName": "Obstinate",
    "hidden": 0,
    "description": "Life's Worth",
    "icon": "https://steamcdn-a.akamaihd.net/steamcommunity/public/images/apps/795110/6dfba6d8baade0ae5df7b7f4dd042f3f59ec617a.jpg",
    "icongray": "https://steamcdn-a.akamaihd.net/steamcommunity/public/images/apps/795110/ebfe544405b48181094290bd436dc013e8a1be92.jpg"
  },
  {
    "name": "ACHIEV_23",
    "defaultvalue": 0,
    "displayName": "Perceptive",
    "hidden": 1,
    "icon": "https://steamcdn-a.akamaihd.net/steamcommunity/public/images/apps/795110/0cb9cacc9bac7cfe486f3174615f76e85543fbd9.jpg",
    "icongray": "https://steamcdn-a.akamaihd.net/steamcommunity/public/images/apps/795110/b97bcdc6e91348ab07eadb817ba3bf16c0812542.jpg"
  },
  {
    "name": "ACHIEV_24",
    "defaultvalue": 0,
    "displayName": "Precision",
    "hidden": 1,
    "icon": "https://steamcdn-a.akamaihd.net/steamcommunity/public/images/apps/795110/a293423cb4ab43ca2720a1aae0863d3ae39673ea.jpg",
    "icongray": "https://steamcdn-a.akamaihd.net/steamcommunity/public/images/apps/795110/f913d99b921cf8a3d88e4765a9699a6593a591e0.jpg"
  },
  {
    "name": "ACHIEV_25",
    "defaultvalue": 0,
    "displayName": "Divine",
    "hidden": 1,
    "icon": "https://steamcdn-a.akamaihd.net/steamcommunity/public/images/apps/795110/c21c51d90da66ae38df093150e22e85b37c4324d.jpg",
    "icongray": "https://steamcdn-a.akamaihd.net/steamcommunity/public/images/apps/795110/e4dee7df4f60e3f289cbd120bfe79ca74857832f.jpg"
  },
  {
    "name": "REWARD_G01_L01A",
    "defaultvalue": 0,
    "displayName": "LV01 Happy",
    "hidden": 1,
    "icon": "https://steamcdn-a.akamaihd.net/steamcommunity/public/images/apps/795110/1e06b3269fd0bf0864df3e13b286c311f8fae877.jpg",
    "icongray": "https://steamcdn-a.akamaihd.net/steamcommunity/public/images/apps/795110/0081395fc4aa10c4d520e3628e9db2d1693a0c01.jpg"
  },
  {
    "name": "REWARD_G01_L01B",
    "defaultvalue": 0,
    "displayName": "LV01 Happy",
    "hidden": 1,
    "icon": "https://steamcdn-a.akamaihd.net/steamcommunity/public/images/apps/795110/a044dcee1d4f1606143f1d30c06d378ca0f70260.jpg",
    "icongray": "https://steamcdn-a.akamaihd.net/steamcommunity/public/images/apps/795110/0081395fc4aa10c4d520e3628e9db2d1693a0c01.jpg"
  },
  {
    "name": "REWARD_G01_L02A",
    "defaultvalue": 0,
    "displayName": "LV02 Happy",
    "hidden": 1,
    "icon": "https://steamcdn-a.akamaihd.net/steamcommunity/public/images/apps/795110/938e4b62f4400e2bd5274d682e21b1b2ad5e036d.jpg",
    "icongray": "https://steamcdn-a.akamaihd.net/steamcommunity/public/images/apps/795110/81f1203fbc929839a8d2bd08da2de50d725ffe80.jpg"
  },
  {
    "name": "REWARD_G01_L02B",
    "defaultvalue": 0,
    "displayName": "LV02 Happy",
    "hidden": 1,
    "icon": "https://steamcdn-a.akamaihd.net/steamcommunity/public/images/apps/795110/feaac1e2be96a86668237cd7d6d83299d212ea33.jpg",
    "icongray": "https://steamcdn-a.akamaihd.net/steamcommunity/public/images/apps/795110/81f1203fbc929839a8d2bd08da2de50d725ffe80.jpg"
  },
  {
    "name": "REWARD_G01_L03A",
    "defaultvalue": 0,
    "displayName": "LV03 Happy",
    "hidden": 1,
    "icon": "https://steamcdn-a.akamaihd.net/steamcommunity/public/images/apps/795110/8ea2e45607b5f450342b8c16e209eb1f04d06d03.jpg",
    "icongray": "https://steamcdn-a.akamaihd.net/steamcommunity/public/images/apps/795110/8bba9c57ee70d2644741aec4a8ffa07af6da094b.jpg"
  },
  {
    "name": "REWARD_G01_L03B",
    "defaultvalue": 0,
    "displayName": "LV03 Happy",
    "hidden": 1,
    "icon": "https://steamcdn-a.akamaihd.net/steamcommunity/public/images/apps/795110/feaac1e2be96a86668237cd7d6d83299d212ea33.jpg",
    "icongray": "https://steamcdn-a.akamaihd.net/steamcommunity/public/images/apps/795110/81f1203fbc929839a8d2bd08da2de50d725ffe80.jpg"
  },
  {
    "name": "REWARD_G01_L04A",
    "defaultvalue": 0,
    "displayName": "LV04 Happy",
    "hidden": 1,
    "icon": "https://steamcdn-a.akamaihd.net/steamcommunity/public/images/apps/795110/2b0377d37ea0a9275afae2b00776d27ba3a062a6.jpg",
    "icongray": "https://steamcdn-a.akamaihd.net/steamcommunity/public/images/apps/795110/20ea5fe27153cf688128ae2d32bb3880f4f82299.jpg"
  },
  {
    "name": "REWARD_G01_L04B",
    "defaultvalue": 0,
    "displayName": "LV04 Happy",
    "hidden": 1,
    "icon": "https://steamcdn-a.akamaihd.net/steamcommunity/public/images/apps/795110/f5cda3bec0e11a99e266fade4de09bacb73afa31.jpg",
    "icongray": "https://steamcdn-a.akamaihd.net/steamcommunity/public/images/apps/795110/d4b362338e53e5c0b9cdf2c2e3daf621c4c1acdd.jpg"
  },
  {
    "name": "REWARD_G01_L05A",
    "defaultvalue": 0,
    "displayName": "LV05 Happy",
    "hidden": 1,
    "icon": "https://steamcdn-a.akamaihd.net/steamcommunity/public/images/apps/795110/fdc9cbfbcede70fc940899893faafc2d2a328d23.jpg",
    "icongray": "https://steamcdn-a.akamaihd.net/steamcommunity/public/images/apps/795110/22ec6f562fc2ba6e613f1ee40dfd09577bd602a0.jpg"
  },
  {
    "name": "REWARD_G01_L05b",
    "defaultvalue": 0,
    "displayName": "LV05 Happy",
    "hidden": 1,
    "icon": "https://steamcdn-a.akamaihd.net/steamcommunity/public/images/apps/795110/9c88582b2c614f3ca57e3268f5e6a46cc18bd137.jpg",
    "icongray": "https://steamcdn-a.akamaihd.net/steamcommunity/public/images/apps/795110/22ec6f562fc2ba6e613f1ee40dfd09577bd602a0.jpg"
  },
  {
    "name": "REWARD_G01_L06A",
    "defaultvalue": 0,
    "displayName": "LV06 Happy",
    "hidden": 1,
    "icon": "https://steamcdn-a.akamaihd.net/steamcommunity/public/images/apps/795110/bbfe40a824210e7b173ac454106104b0da4b2566.jpg",
    "icongray": "https://steamcdn-a.akamaihd.net/steamcommunity/public/images/apps/795110/d27f6ae8dabea7b66701023523335d232e110f7b.jpg"
  },
  {
    "name": "REWARD_G01_L06B",
    "defaultvalue": 0,
    "displayName": "LV06 Happy",
    "hidden": 1,
    "icon": "https://steamcdn-a.akamaihd.net/steamcommunity/public/images/apps/795110/3888d70424828393125f35dc76b48b24519e5ce2.jpg",
    "icongray": "https://steamcdn-a.akamaihd.net/steamcommunity/public/images/apps/795110/d27f6ae8dabea7b66701023523335d232e110f7b.jpg"
  },
  {
    "name": "REWARD_G01_L07A",
    "defaultvalue": 0,
    "displayName": "LV07 Happy",
    "hidden": 1,
    "icon": "https://steamcdn-a.akamaihd.net/steamcommunity/public/images/apps/795110/9a24ee68ea2fa904d7a63cff760f8e5f2b1365b3.jpg",
    "icongray": "https://steamcdn-a.akamaihd.net/steamcommunity/public/images/apps/795110/dba34afe0817ecc06e3e13891d4fdbc90b10768a.jpg"
  },
  {
    "name": "REWARD_G01_L07B",
    "defaultvalue": 0,
    "displayName": "LV07 Happy",
    "hidden": 1,
    "icon": "https://steamcdn-a.akamaihd.net/steamcommunity/public/images/apps/795110/3e9bc7bd28d3056378ff69c64050e0b08ead1de1.jpg",
    "icongray": "https://steamcdn-a.akamaihd.net/steamcommunity/public/images/apps/795110/dba34afe0817ecc06e3e13891d4fdbc90b10768a.jpg"
  },
  {
    "name": "REWARD_G01_L08A",
    "defaultvalue": 0,
    "displayName": "LV08 Happy",
    "hidden": 1,
    "icon": "https://steamcdn-a.akamaihd.net/steamcommunity/public/images/apps/795110/43c5c381ab962776d9c94c03b4633dfb201126a1.jpg",
    "icongray": "https://steamcdn-a.akamaihd.net/steamcommunity/public/images/apps/795110/a13041432a3016d806dfb05294ea0d90519a894c.jpg"
  },
  {
    "name": "REWARD_G01_L08B",
    "defaultvalue": 0,
    "displayName": "LV08 Happy",
    "hidden": 1,
    "icon": "https://steamcdn-a.akamaihd.net/steamcommunity/public/images/apps/795110/13901c63f7b83f81d60ae9c6bf28dee13f884297.jpg",
    "icongray": "https://steamcdn-a.akamaihd.net/steamcommunity/public/images/apps/795110/a13041432a3016d806dfb05294ea0d90519a894c.jpg"
  },
  {
    "name": "REWARD_G01_L09A",
    "defaultvalue": 0,
    "displayName": "LV09 Happy",
    "hidden": 1,
    "icon": "https://steamcdn-a.akamaihd.net/steamcommunity/public/images/apps/795110/7fc568f9df6d872dd8eeb429f0f5e4cbb2d99082.jpg",
    "icongray": "https://steamcdn-a.akamaihd.net/steamcommunity/public/images/apps/795110/fe7c3b8d5657daf830c8f1646d15d5927f92978e.jpg"
  },
  {
    "name": "REWARD_G01_L09B",
    "defaultvalue": 0,
    "displayName": "LV09 Happy",
    "hidden": 1,
    "icon": "https://steamcdn-a.akamaihd.net/steamcommunity/public/images/apps/795110/62f81d7c18a99da813ba89d61020cf00e52d8c1b.jpg",
    "icongray": "https://steamcdn-a.akamaihd.net/steamcommunity/public/images/apps/795110/fe7c3b8d5657daf830c8f1646d15d5927f92978e.jpg"
  },
  {
    "name": "REWARD_G02_L01A",
    "defaultvalue": 0,
    "displayName": "LV01 A",
    "hidden": 1,
    "icon": "https://steamcdn-a.akamaihd.net/steamcommunity/public/images/apps/795110/5fd80df79e3ab1d74183533965f1dcaa6ed2fabd.jpg",
    "icongray": "https://steamcdn-a.akamaihd.net/steamcommunity/public/images/apps/795110/c2a1ede5d3597c702b666c626e25858af0b00c82.jpg"
  },
  {
    "name": "REWARD_G02_L01B",
    "defaultvalue": 0,
    "displayName": "LV01 A",
    "hidden": 1,
    "icon": "https://steamcdn-a.akamaihd.net/steamcommunity/public/images/apps/795110/aedb576fb0bbe37df915540d81fe19d0745eac47.jpg",
    "icongray": "https://steamcdn-a.akamaihd.net/steamcommunity/public/images/apps/795110/c2a1ede5d3597c702b666c626e25858af0b00c82.jpg"
  },
  {
    "name": "REWARD_G02_L02A",
    "defaultvalue": 0,
    "displayName": "LV02 B",
    "hidden": 1,
    "icon": "https://steamcdn-a.akamaihd.net/steamcommunity/public/images/apps/795110/66ad22a18ce3c6546e29564c9c9683bb6c84393f.jpg",
    "icongray": "https://steamcdn-a.akamaihd.net/steamcommunity/public/images/apps/795110/051e917879b000a8ab8f7f086e0766a630dedc1c.jpg"
  },
  {
    "name": "REWARD_G02_L02B",
    "defaultvalue": 0,
    "displayName": "LV02 B",
    "hidden": 1,
    "icon": "https://steamcdn-a.akamaihd.net/steamcommunity/public/images/apps/795110/5d1538bbdfbbbf6b7bbeb418db15c697028400ad.jpg",
    "icongray": "https://steamcdn-a.akamaihd.net/steamcommunity/public/images/apps/795110/051e917879b000a8ab8f7f086e0766a630dedc1c.jpg"
  },
  {
    "name": "REWARD_G02_L03A",
    "defaultvalue": 0,
    "displayName": "LV03 C",
    "hidden": 1,
    "icon": "https://steamcdn-a.akamaihd.net/steamcommunity/public/images/apps/795110/a87bff06effaa4dd13d6ef15818db16e517f7708.jpg",
    "icongray": "https://steamcdn-a.akamaihd.net/steamcommunity/public/images/apps/795110/ae5a3641dc474aa838f0b5e8fc00e18118f37736.jpg"
  },
  {
    "name": "REWARD_G02_L03B",
    "defaultvalue": 0,
    "displayName": "LV03 C",
    "hidden": 1,
    "icon": "https://steamcdn-a.akamaihd.net/steamcommunity/public/images/apps/795110/8908fb542cc22f96a40e7988a1881810b7f8c2cf.jpg",
    "icongray": "https://steamcdn-a.akamaihd.net/steamcommunity/public/images/apps/795110/ae5a3641dc474aa838f0b5e8fc00e18118f37736.jpg"
  },
  {
    "name": "REWARD_G02_L04A",
    "defaultvalue": 0,
    "displayName": "LV04 D",
    "hidden": 1,
    "icon": "https://steamcdn-a.akamaihd.net/steamcommunity/public/images/apps/795110/c591d1fb1fe47a61085705cea78f3f767c526fc0.jpg",
    "icongray": "https://steamcdn-a.akamaihd.net/steamcommunity/public/images/apps/795110/13e889ab42f5f059d99347951f26e6a56218cd34.jpg"
  },
  {
    "name": "REWARD_G02_L04B",
    "defaultvalue": 0,
    "displayName": "LV04 D",
    "hidden": 1,
    "icon": "https://steamcdn-a.akamaihd.net/steamcommunity/public/images/apps/795110/48a3c61b3c8f91d0cb235adfc552fc88fb37707a.jpg",
    "icongray": "https://steamcdn-a.akamaihd.net/steamcommunity/public/images/apps/795110/13e889ab42f5f059d99347951f26e6a56218cd34.jpg"
  },
  {
    "name": "REWARD_G02_L05A",
    "defaultvalue": 0,
    "displayName": "LV05 E",
    "hidden": 1,
    "icon": "https://steamcdn-a.akamaihd.net/steamcommunity/public/images/apps/795110/207c9fd5fec2227510f252825f8f1d5f7558e4e1.jpg",
    "icongray": "https://steamcdn-a.akamaihd.net/steamcommunity/public/images/apps/795110/793ef5e393e7f23452c3a8851c9b48e4a9804f0b.jpg"
  },
  {
    "name": "REWARD_G02_L05B",
    "defaultvalue": 0,
    "displayName": "LV05 E",
    "hidden": 1,
    "icon": "https://steamcdn-a.akamaihd.net/steamcommunity/public/images/apps/795110/ace7b4640b562d042f92cada37ef1db8bbe5ebb8.jpg",
    "icongray": "https://steamcdn-a.akamaihd.net/steamcommunity/public/images/apps/795110/793ef5e393e7f23452c3a8851c9b48e4a9804f0b.jpg"
  },
  {
    "name": "REWARD_G02_L06A",
    "defaultvalue": 0,
    "displayName": "LV06 F",
    "hidden": 1,
    "icon": "https://steamcdn-a.akamaihd.net/steamcommunity/public/images/apps/795110/08d607be8c55626124e6ded4476b7d4aea45efce.jpg",
    "icongray": "https://steamcdn-a.akamaihd.net/steamcommunity/public/images/apps/795110/84e8af905943cfbfd2f853ff1fb12a7a53441e8e.jpg"
  },
  {
    "name": "REWARD_G02_L06B",
    "defaultvalue": 0,
    "displayName": "LV06 F",
    "hidden": 1,
    "icon": "https://steamcdn-a.akamaihd.net/steamcommunity/public/images/apps/795110/1717dcff5b32b397307df7b82ac3f3f5e79de83a.jpg",
    "icongray": "https://steamcdn-a.akamaihd.net/steamcommunity/public/images/apps/795110/84e8af905943cfbfd2f853ff1fb12a7a53441e8e.jpg"
  },
  {
    "name": "REWARD_G02_L07A",
    "defaultvalue": 0,
    "displayName": "LV07 G",
    "hidden": 1,
    "icon": "https://steamcdn-a.akamaihd.net/steamcommunity/public/images/apps/795110/e4e36c9f8f88553144d9ad1fc99cd20e521df45f.jpg",
    "icongray": "https://steamcdn-a.akamaihd.net/steamcommunity/public/images/apps/795110/c2ee8a983cbcf186963a3f6133949d9716b0c578.jpg"
  },
  {
    "name": "REWARD_G02_L07B",
    "defaultvalue": 0,
    "displayName": "LV07 G",
    "hidden": 1,
    "icon": "https://steamcdn-a.akamaihd.net/steamcommunity/public/images/apps/795110/be6d037dc1d6ae8bcff42f72275a9ec6c08ca6f1.jpg",
    "icongray": "https://steamcdn-a.akamaihd.net/steamcommunity/public/images/apps/795110/c2ee8a983cbcf186963a3f6133949d9716b0c578.jpg"
  },
  {
    "name": "REWARD_G02_L08A",
    "defaultvalue": 0,
    "displayName": "LV08 H",
    "hidden": 1,
    "icon": "https://steamcdn-a.akamaihd.net/steamcommunity/public/images/apps/795110/06f8441c8a7aeab119d7d280137628a845bf76d9.jpg",
    "icongray": "https://steamcdn-a.akamaihd.net/steamcommunity/public/images/apps/795110/2ff1ad9633ea9ffd3a4d10cfa0ef5cc23dadbd44.jpg"
  },
  {
    "name": "REWARD_G02_L08B",
    "defaultvalue": 0,
    "displayName": "LV08 H",
    "hidden": 1,
    "icon": "https://steamcdn-a.akamaihd.net/steamcommunity/public/images/apps/795110/6bd0545fced5d2af021e8c6ea503472acf3ba901.jpg",
    "icongray": "https://steamcdn-a.akamaihd.net/steamcommunity/public/images/apps/795110/2ff1ad9633ea9ffd3a4d10cfa0ef5cc23dadbd44.jpg"
  },
  {
    "name": "REWARD_G02_L09A",
    "defaultvalue": 0,
    "displayName": "LV09 I",
    "hidden": 1,
    "icon": "https://steamcdn-a.akamaihd.net/steamcommunity/public/images/apps/795110/bb521c3cdf6bd5bc4095a5125fd9afa10a409030.jpg",
    "icongray": "https://steamcdn-a.akamaihd.net/steamcommunity/public/images/apps/795110/7e58e25e4a5dcb5c666b74c6710f3cb5782a433d.jpg"
  },
  {
    "name": "REWARD_G02_L09B",
    "defaultvalue": 0,
    "displayName": "LV09 I",
    "hidden": 1,
    "icon": "https://steamcdn-a.akamaihd.net/steamcommunity/public/images/apps/795110/991e764a5f7a91eae62a26d214ae35cfa46d4c00.jpg",
    "icongray": "https://steamcdn-a.akamaihd.net/steamcommunity/public/images/apps/795110/7e58e25e4a5dcb5c666b74c6710f3cb5782a433d.jpg"
  },
  {
    "name": "REWARD_G03_L01A",
    "defaultvalue": 0,
    "displayName": "LV01 J",
    "hidden": 1,
    "icon": "https://steamcdn-a.akamaihd.net/steamcommunity/public/images/apps/795110/84dc3db8c96c1b0039cb044ad6d552e576573379.jpg",
    "icongray": "https://steamcdn-a.akamaihd.net/steamcommunity/public/images/apps/795110/8c1167c9bae91a4b1105b1972b9434937876ba1a.jpg"
  },
  {
    "name": "REWARD_G03_L01B",
    "defaultvalue": 0,
    "displayName": "LV01 J",
    "hidden": 1,
    "icon": "https://steamcdn-a.akamaihd.net/steamcommunity/public/images/apps/795110/221a0299edb86f42e500aef8ec9dea2f62c81308.jpg",
    "icongray": "https://steamcdn-a.akamaihd.net/steamcommunity/public/images/apps/795110/8c1167c9bae91a4b1105b1972b9434937876ba1a.jpg"
  },
  {
    "name": "REWARD_G03_L02A",
    "defaultvalue": 0,
    "displayName": "LV02 K",
    "hidden": 1,
    "icon": "https://steamcdn-a.akamaihd.net/steamcommunity/public/images/apps/795110/b261c3a13602194b7c4f21b7aebc11833a5ce39a.jpg",
    "icongray": "https://steamcdn-a.akamaihd.net/steamcommunity/public/images/apps/795110/276c5558b5df914f96e18b2f81fd2cef037981a9.jpg"
  },
  {
    "name": "REWARD_G03_L02B",
    "defaultvalue": 0,
    "displayName": "LV02 K",
    "hidden": 1,
    "icon": "https://steamcdn-a.akamaihd.net/steamcommunity/public/images/apps/795110/c1ae209b65d7b1dde23e98a90fda45f90e4c3b2a.jpg",
    "icongray": "https://steamcdn-a.akamaihd.net/steamcommunity/public/images/apps/795110/276c5558b5df914f96e18b2f81fd2cef037981a9.jpg"
  },
  {
    "name": "REWARD_G03_L03A",
    "defaultvalue": 0,
    "displayName": "LV03 L",
    "hidden": 1,
    "icon": "https://steamcdn-a.akamaihd.net/steamcommunity/public/images/apps/795110/a7ea11fada2355e7d40a30822544f2dbe89f5c22.jpg",
    "icongray": "https://steamcdn-a.akamaihd.net/steamcommunity/public/images/apps/795110/13bfd2b152566b7ff1a3a13ae3c25b3c0bbb20ff.jpg"
  },
  {
    "name": "REWARD_G03_L03B",
    "defaultvalue": 0,
    "displayName": "LV03 L",
    "hidden": 1,
    "icon": "https://steamcdn-a.akamaihd.net/steamcommunity/public/images/apps/795110/aab24713f67ede47bde81a7da51e8cd28a117b2f.jpg",
    "icongray": "https://steamcdn-a.akamaihd.net/steamcommunity/public/images/apps/795110/13bfd2b152566b7ff1a3a13ae3c25b3c0bbb20ff.jpg"
  },
  {
    "name": "REWARD_G03_L04A",
    "defaultvalue": 0,
    "displayName": "LV04 M",
    "hidden": 1,
    "icon": "https://steamcdn-a.akamaihd.net/steamcommunity/public/images/apps/795110/26d31e111065f4773c19c42e647f9b2122a77602.jpg",
    "icongray": "https://steamcdn-a.akamaihd.net/steamcommunity/public/images/apps/795110/8e97b9cc338386f423c5e9436808cccdbfeac9c6.jpg"
  },
  {
    "name": "REWARD_G03_L04B",
    "defaultvalue": 0,
    "displayName": "LV04 M",
    "hidden": 1,
    "icon": "https://steamcdn-a.akamaihd.net/steamcommunity/public/images/apps/795110/a7b7854910adda7aad128462a29e8364519457e3.jpg",
    "icongray": "https://steamcdn-a.akamaihd.net/steamcommunity/public/images/apps/795110/8e97b9cc338386f423c5e9436808cccdbfeac9c6.jpg"
  },
  {
    "name": "REWARD_G03_L05A",
    "defaultvalue": 0,
    "displayName": "LV05 N",
    "hidden": 1,
    "icon": "https://steamcdn-a.akamaihd.net/steamcommunity/public/images/apps/795110/dfef332ab29745aa44a9ca318861ec14839b46de.jpg",
    "icongray": "https://steamcdn-a.akamaihd.net/steamcommunity/public/images/apps/795110/b41ee034d1d04874ae22804326eedfcefbd4cf15.jpg"
  },
  {
    "name": "REWARD_G03_L05B",
    "defaultvalue": 0,
    "displayName": "LV05 N",
    "hidden": 1,
    "icon": "https://steamcdn-a.akamaihd.net/steamcommunity/public/images/apps/795110/b6fd474609830a766ec7ff3810d5c76318a5dcf2.jpg",
    "icongray": "https://steamcdn-a.akamaihd.net/steamcommunity/public/images/apps/795110/b41ee034d1d04874ae22804326eedfcefbd4cf15.jpg"
  },
  {
    "name": "REWARD_G03_L06A",
    "defaultvalue": 0,
    "displayName": "LV06 O",
    "hidden": 1,
    "icon": "https://steamcdn-a.akamaihd.net/steamcommunity/public/images/apps/795110/5d1843cb7ca892eeca30a41f6a727bfe1064dcfb.jpg",
    "icongray": "https://steamcdn-a.akamaihd.net/steamcommunity/public/images/apps/795110/3efb0445254d56aad219bfb9d6efd7a74549b337.jpg"
  },
  {
    "name": "REWARD_G03_L06B",
    "defaultvalue": 0,
    "displayName": "LV06 O",
    "hidden": 1,
    "icon": "https://steamcdn-a.akamaihd.net/steamcommunity/public/images/apps/795110/fdb639f2dd23323149ab798502833280641a51a2.jpg",
    "icongray": "https://steamcdn-a.akamaihd.net/steamcommunity/public/images/apps/795110/3efb0445254d56aad219bfb9d6efd7a74549b337.jpg"
  },
  {
    "name": "REWARD_G03_L07A",
    "defaultvalue": 0,
    "displayName": "LV07 P",
    "hidden": 1,
    "icon": "https://steamcdn-a.akamaihd.net/steamcommunity/public/images/apps/795110/02b60c32e1bc62ecde9106cab43a585b4acbb15c.jpg",
    "icongray": "https://steamcdn-a.akamaihd.net/steamcommunity/public/images/apps/795110/8afaed529fb751de2faaabddf794848a99efc50c.jpg"
  },
  {
    "name": "REWARD_G03_L07B",
    "defaultvalue": 0,
    "displayName": "LV07 P",
    "hidden": 1,
    "icon": "https://steamcdn-a.akamaihd.net/steamcommunity/public/images/apps/795110/d0efdcee53a569780aae35a0d9708c49d0831179.jpg",
    "icongray": "https://steamcdn-a.akamaihd.net/steamcommunity/public/images/apps/795110/8afaed529fb751de2faaabddf794848a99efc50c.jpg"
  },
  {
    "name": "REWARD_G03_L08A",
    "defaultvalue": 0,
    "displayName": "LV08 Q",
    "hidden": 1,
    "icon": "https://steamcdn-a.akamaihd.net/steamcommunity/public/images/apps/795110/95b93610dbde4278e527673276701dae4c2a92e6.jpg",
    "icongray": "https://steamcdn-a.akamaihd.net/steamcommunity/public/images/apps/795110/ea1c70e1db58f17a54a268b3812b7ba0cc65fe7f.jpg"
  },
  {
    "name": "REWARD_G03_L08B",
    "defaultvalue": 0,
    "displayName": "LV08 Q",
    "hidden": 1,
    "icon": "https://steamcdn-a.akamaihd.net/steamcommunity/public/images/apps/795110/dd7c7cfbeab79571991723dc4b79401472a28c9a.jpg",
    "icongray": "https://steamcdn-a.akamaihd.net/steamcommunity/public/images/apps/795110/ea1c70e1db58f17a54a268b3812b7ba0cc65fe7f.jpg"
  },
  {
    "name": "REWARD_G03_L09A",
    "defaultvalue": 0,
    "displayName": "LV09 R",
    "hidden": 1,
    "icon": "https://steamcdn-a.akamaihd.net/steamcommunity/public/images/apps/795110/b607e1aad9c33ce7d8c38507c13b736a07b2c86c.jpg",
    "icongray": "https://steamcdn-a.akamaihd.net/steamcommunity/public/images/apps/795110/af059561d292cbb4bde3588a097d3f880c39d869.jpg"
  },
  {
    "name": "REWARD_G03_L09B",
    "defaultvalue": 0,
    "displayName": "LV09 R",
    "hidden": 1,
    "icon": "https://steamcdn-a.akamaihd.net/steamcommunity/public/images/apps/795110/ef2de4aedfa27882811c50c8001e84614539079f.jpg",
    "icongray": "https://steamcdn-a.akamaihd.net/steamcommunity/public/images/apps/795110/af059561d292cbb4bde3588a097d3f880c39d869.jpg"
  },
  {
    "name": "REWARD_G04_L01A",
    "defaultvalue": 0,
    "displayName": "LV01 S",
    "hidden": 1,
    "icon": "https://steamcdn-a.akamaihd.net/steamcommunity/public/images/apps/795110/aba39c099ab2cce78cad29157a3454d955dafc7d.jpg",
    "icongray": "https://steamcdn-a.akamaihd.net/steamcommunity/public/images/apps/795110/90d52dafc7c322b4990c4c22d54bf79c9ab39d28.jpg"
  },
  {
    "name": "REWARD_G04_L01B",
    "defaultvalue": 0,
    "displayName": "LV01 S",
    "hidden": 1,
    "icon": "https://steamcdn-a.akamaihd.net/steamcommunity/public/images/apps/795110/dbedcf8afb1a42b8ce46c118ba395ddd1601807f.jpg",
    "icongray": "https://steamcdn-a.akamaihd.net/steamcommunity/public/images/apps/795110/90d52dafc7c322b4990c4c22d54bf79c9ab39d28.jpg"
  },
  {
    "name": "REWARD_G04_L02A",
    "defaultvalue": 0,
    "displayName": "LV02 T",
    "hidden": 1,
    "icon": "https://steamcdn-a.akamaihd.net/steamcommunity/public/images/apps/795110/1b73f8f7498530a08bda42b662a2436d86a04c20.jpg",
    "icongray": "https://steamcdn-a.akamaihd.net/steamcommunity/public/images/apps/795110/72585dfe88e241d7db2547a0d81ad509fcae9e35.jpg"
  },
  {
    "name": "REWARD_G04_L02B",
    "defaultvalue": 0,
    "displayName": "LV02 T",
    "hidden": 1,
    "icon": "https://steamcdn-a.akamaihd.net/steamcommunity/public/images/apps/795110/ff7ca0a387e3625bd0c9704428f870dcb99b8059.jpg",
    "icongray": "https://steamcdn-a.akamaihd.net/steamcommunity/public/images/apps/795110/72585dfe88e241d7db2547a0d81ad509fcae9e35.jpg"
  },
  {
    "name": "REWARD_G04_L03A",
    "defaultvalue": 0,
    "displayName": "LV03 U",
    "hidden": 1,
    "icon": "https://steamcdn-a.akamaihd.net/steamcommunity/public/images/apps/795110/38d25b2a623748ad0a657d04266373422f9bc315.jpg",
    "icongray": "https://steamcdn-a.akamaihd.net/steamcommunity/public/images/apps/795110/a253715ff3a4f3a57560118e93323955c1f51eea.jpg"
  },
  {
    "name": "REWARD_G04_L03B",
    "defaultvalue": 0,
    "displayName": "LV03 U",
    "hidden": 1,
    "icon": "https://steamcdn-a.akamaihd.net/steamcommunity/public/images/apps/795110/70bc7fe9dd5a9e6e206e662cf90b05eb897812ab.jpg",
    "icongray": "https://steamcdn-a.akamaihd.net/steamcommunity/public/images/apps/795110/a253715ff3a4f3a57560118e93323955c1f51eea.jpg"
  },
  {
    "name": "REWARD_G04_L04A",
    "defaultvalue": 0,
    "displayName": "LV04 V",
    "hidden": 1,
    "icon": "https://steamcdn-a.akamaihd.net/steamcommunity/public/images/apps/795110/99a6f44a7531df5a8fdb99d34b9778536fe7d5fb.jpg",
    "icongray": "https://steamcdn-a.akamaihd.net/steamcommunity/public/images/apps/795110/4269ca2c8f7f23b959730ba2985ff49389e12603.jpg"
  },
  {
    "name": "REWARD_G04_L04B",
    "defaultvalue": 0,
    "displayName": "LV04 V",
    "hidden": 1,
    "icon": "https://steamcdn-a.akamaihd.net/steamcommunity/public/images/apps/795110/1a4be00d288bb3971d876e6c24d4c16e6ecff2a0.jpg",
    "icongray": "https://steamcdn-a.akamaihd.net/steamcommunity/public/images/apps/795110/4269ca2c8f7f23b959730ba2985ff49389e12603.jpg"
  },
  {
    "name": "REWARD_G04_L05A",
    "defaultvalue": 0,
    "displayName": "LV05 W",
    "hidden": 1,
    "icon": "https://steamcdn-a.akamaihd.net/steamcommunity/public/images/apps/795110/e8ccbfd5c906e042d30b96b864a959a34cbd5e0f.jpg",
    "icongray": "https://steamcdn-a.akamaihd.net/steamcommunity/public/images/apps/795110/159c589a41f9f2f2a0f6eae78734138af446b76d.jpg"
  },
  {
    "name": "REWARD_G04_L05B",
    "defaultvalue": 0,
    "displayName": "LV05 W",
    "hidden": 1,
    "icon": "https://steamcdn-a.akamaihd.net/steamcommunity/public/images/apps/795110/836b5fb39514159810ea5516b13029bc7e78f68c.jpg",
    "icongray": "https://steamcdn-a.akamaihd.net/steamcommunity/public/images/apps/795110/159c589a41f9f2f2a0f6eae78734138af446b76d.jpg"
  },
  {
    "name": "REWARD_G04_L06A",
    "defaultvalue": 0,
    "displayName": "LV06 X",
    "hidden": 1,
    "icon": "https://steamcdn-a.akamaihd.net/steamcommunity/public/images/apps/795110/779b1434c10db739dd84c999ad1ab1608edecfec.jpg",
    "icongray": "https://steamcdn-a.akamaihd.net/steamcommunity/public/images/apps/795110/1bdce9ba4d44fa2b9edd82dd7c66d2f931249c7e.jpg"
  },
  {
    "name": "REWARD_G04_L06B",
    "defaultvalue": 0,
    "displayName": "LV06 X",
    "hidden": 1,
    "icon": "https://steamcdn-a.akamaihd.net/steamcommunity/public/images/apps/795110/e559967768080dfa1954054a6dd4b3fd5713931f.jpg",
    "icongray": "https://steamcdn-a.akamaihd.net/steamcommunity/public/images/apps/795110/1bdce9ba4d44fa2b9edd82dd7c66d2f931249c7e.jpg"
  },
  {
    "name": "REWARD_G04_L07A",
    "defaultvalue": 0,
    "displayName": "LV07 Y",
    "hidden": 1,
    "icon": "https://steamcdn-a.akamaihd.net/steamcommunity/public/images/apps/795110/d45dc3877c9c6ee6d3c6e9b2d3fa925309f53d15.jpg",
    "icongray": "https://steamcdn-a.akamaihd.net/steamcommunity/public/images/apps/795110/736e366778df96aab5f0850c64a04e9678e40366.jpg"
  },
  {
    "name": "REWARD_G04_L07B",
    "defaultvalue": 0,
    "displayName": "LV07 Y",
    "hidden": 1,
    "icon": "https://steamcdn-a.akamaihd.net/steamcommunity/public/images/apps/795110/3b334703a414aebc1dac00c8ed9958df567e642b.jpg",
    "icongray": "https://steamcdn-a.akamaihd.net/steamcommunity/public/images/apps/795110/736e366778df96aab5f0850c64a04e9678e40366.jpg"
  },
  {
    "name": "REWARD_G04_L08A",
    "defaultvalue": 0,
    "displayName": "LV08 Z",
    "hidden": 1,
    "icon": "https://steamcdn-a.akamaihd.net/steamcommunity/public/images/apps/795110/f8834d891b4968ae8703d61c07a1f767ec09197f.jpg",
    "icongray": "https://steamcdn-a.akamaihd.net/steamcommunity/public/images/apps/795110/e96b44bb98237f9308e1057b1dea05a255ff07e7.jpg"
  },
  {
    "name": "REWARD_G04_L08B",
    "defaultvalue": 0,
    "displayName": "LV08 Z",
    "hidden": 1,
    "icon": "https://steamcdn-a.akamaihd.net/steamcommunity/public/images/apps/795110/6059ab9c050d75b3232acf967b2b68e6ccb7c0f0.jpg",
    "icongray": "https://steamcdn-a.akamaihd.net/steamcommunity/public/images/apps/795110/e96b44bb98237f9308e1057b1dea05a255ff07e7.jpg"
  },
  {
    "name": "REWARD_G04_L09A",
    "defaultvalue": 0,
    "displayName": "LV09 ?",
    "hidden": 1,
    "icon": "https://steamcdn-a.akamaihd.net/steamcommunity/public/images/apps/795110/a4f7fa1dbfa62b7f7eddbd0090e6480efb209c47.jpg",
    "icongray": "https://steamcdn-a.akamaihd.net/steamcommunity/public/images/apps/795110/e5134dfe7511bca1b852348dbee36fcb6a4bee33.jpg"
  },
  {
    "name": "REWARD_G04_L09B",
    "defaultvalue": 0,
    "displayName": "LV09 ?",
    "hidden": 1,
    "icon": "https://steamcdn-a.akamaihd.net/steamcommunity/public/images/apps/795110/6f18f630fb5208e1ba838e6a5e06b1cc1fd193b9.jpg",
    "icongray": "https://steamcdn-a.akamaihd.net/steamcommunity/public/images/apps/795110/e5134dfe7511bca1b852348dbee36fcb6a4bee33.jpg"
  },
  {
    "name": "REWARD_G05_L01A",
    "defaultvalue": 0,
    "displayName": "LV01 .",
    "hidden": 1,
    "icon": "https://steamcdn-a.akamaihd.net/steamcommunity/public/images/apps/795110/7ac8b8478174dad4353ced9d4bbb42fb61df9a40.jpg",
    "icongray": "https://steamcdn-a.akamaihd.net/steamcommunity/public/images/apps/795110/4ef2ab63c2e2e16f4dc66754b37216dfc5973b3a.jpg"
  },
  {
    "name": "REWARD_G05_L01B",
    "defaultvalue": 0,
    "displayName": "LV01 .",
    "hidden": 1,
    "icon": "https://steamcdn-a.akamaihd.net/steamcommunity/public/images/apps/795110/262a94cd5aa1fc227a5f134323d34dc3cb826c56.jpg",
    "icongray": "https://steamcdn-a.akamaihd.net/steamcommunity/public/images/apps/795110/4ef2ab63c2e2e16f4dc66754b37216dfc5973b3a.jpg"
  },
  {
    "name": "REWARD_G05_L02A",
    "defaultvalue": 0,
    "displayName": "LV02 !",
    "hidden": 1,
    "icon": "https://steamcdn-a.akamaihd.net/steamcommunity/public/images/apps/795110/5c71f83659afb0db9d88f7738eca910d59e7bf83.jpg",
    "icongray": "https://steamcdn-a.akamaihd.net/steamcommunity/public/images/apps/795110/1afcffd47ccca1933899d6ae03960d3fc4bf0630.jpg"
  },
  {
    "name": "REWARD_G05_L02B",
    "defaultvalue": 0,
    "displayName": "LV02 !",
    "hidden": 1,
    "icon": "https://steamcdn-a.akamaihd.net/steamcommunity/public/images/apps/795110/af974a9d29cb2d27e10a079c239d698d1a838acc.jpg",
    "icongray": "https://steamcdn-a.akamaihd.net/steamcommunity/public/images/apps/795110/1afcffd47ccca1933899d6ae03960d3fc4bf0630.jpg"
  },
  {
    "name": "REWARD_G05_L03A",
    "defaultvalue": 0,
    "displayName": "LV03 @",
    "hidden": 1,
    "icon": "https://steamcdn-a.akamaihd.net/steamcommunity/public/images/apps/795110/28d822af66a3c8621680a8242ea24e934f1845a5.jpg",
    "icongray": "https://steamcdn-a.akamaihd.net/steamcommunity/public/images/apps/795110/697da18f57676a1bea5fcc54efe92045d8b466a3.jpg"
  },
  {
    "name": "REWARD_G05_L03B",
    "defaultvalue": 0,
    "displayName": "LV03 @",
    "hidden": 1,
    "icon": "https://steamcdn-a.akamaihd.net/steamcommunity/public/images/apps/795110/e701444d0aa465e174e3bb58b4c87061c4cd33f5.jpg",
    "icongray": "https://steamcdn-a.akamaihd.net/steamcommunity/public/images/apps/795110/697da18f57676a1bea5fcc54efe92045d8b466a3.jpg"
  },
  {
    "name": "REWARD_G05_L04A",
    "defaultvalue": 0,
    "displayName": "LV04 #",
    "hidden": 1,
    "icon": "https://steamcdn-a.akamaihd.net/steamcommunity/public/images/apps/795110/ba7238c297b16ab1bae177ca08991ad543df0e4a.jpg",
    "icongray": "https://steamcdn-a.akamaihd.net/steamcommunity/public/images/apps/795110/ddf146218dcc63ce23f9696109f11f8f92c8f59e.jpg"
  },
  {
    "name": "REWARD_G05_L04B",
    "defaultvalue": 0,
    "displayName": "LV04 #",
    "hidden": 1,
    "icon": "https://steamcdn-a.akamaihd.net/steamcommunity/public/images/apps/795110/2d63f8bbbb43069b21e111564cd81112de94c911.jpg",
    "icongray": "https://steamcdn-a.akamaihd.net/steamcommunity/public/images/apps/795110/ddf146218dcc63ce23f9696109f11f8f92c8f59e.jpg"
  },
  {
    "name": "REWARD_G05_L05A",
    "defaultvalue": 0,
    "displayName": "LV05 =",
    "hidden": 1,
    "icon": "https://steamcdn-a.akamaihd.net/steamcommunity/public/images/apps/795110/745486095cb6a71a879ecc61b90320bdecc5084a.jpg",
    "icongray": "https://steamcdn-a.akamaihd.net/steamcommunity/public/images/apps/795110/23f2fe38c5755c6e8c67adac828b7f37670b5e4a.jpg"
  },
  {
    "name": "REWARD_G05_L05B",
    "defaultvalue": 0,
    "displayName": "LV05 =",
    "hidden": 1,
    "icon": "https://steamcdn-a.akamaihd.net/steamcommunity/public/images/apps/795110/092c6700a6ae3479bc58cce626d97f478a6e87c7.jpg",
    "icongray": "https://steamcdn-a.akamaihd.net/steamcommunity/public/images/apps/795110/23f2fe38c5755c6e8c67adac828b7f37670b5e4a.jpg"
  },
  {
    "name": "REWARD_G05_L06A",
    "defaultvalue": 0,
    "displayName": "LV06 &",
    "hidden": 1,
    "icon": "https://steamcdn-a.akamaihd.net/steamcommunity/public/images/apps/795110/e52b1a8d1fa323fbf9c566844de434ad2fe4a269.jpg",
    "icongray": "https://steamcdn-a.akamaihd.net/steamcommunity/public/images/apps/795110/3148aab6af580bb84cd8009392f4e54efc4453c5.jpg"
  },
  {
    "name": "REWARD_G05_L06B",
    "defaultvalue": 0,
    "displayName": "LV06 &",
    "hidden": 1,
    "icon": "https://steamcdn-a.akamaihd.net/steamcommunity/public/images/apps/795110/cf36efd17f1bc0a1f0dab657ed3428df11188a0b.jpg",
    "icongray": "https://steamcdn-a.akamaihd.net/steamcommunity/public/images/apps/795110/3148aab6af580bb84cd8009392f4e54efc4453c5.jpg"
  },
  {
    "name": "REWARD_G05_L07A",
    "defaultvalue": 0,
    "displayName": "LV07 S2",
    "hidden": 1,
    "icon": "https://steamcdn-a.akamaihd.net/steamcommunity/public/images/apps/795110/5c62026bbd90087b67e7063ea139c60df256e448.jpg",
    "icongray": "https://steamcdn-a.akamaihd.net/steamcommunity/public/images/apps/795110/972afd27bd50ecb6f396a2959a1d2dd6234476fc.jpg"
  },
  {
    "name": "REWARD_G05_L07B",
    "defaultvalue": 0,
    "displayName": "LV07 S2",
    "hidden": 1,
    "icon": "https://steamcdn-a.akamaihd.net/steamcommunity/public/images/apps/795110/ebd9cebc4a6e870a96f75acdcd9c4bb50293232d.jpg",
    "icongray": "https://steamcdn-a.akamaihd.net/steamcommunity/public/images/apps/795110/972afd27bd50ecb6f396a2959a1d2dd6234476fc.jpg"
  },
  {
    "name": "REWARD_G05_L08A",
    "defaultvalue": 0,
    "displayName": "LV08 Scary",
    "hidden": 1,
    "icon": "https://steamcdn-a.akamaihd.net/steamcommunity/public/images/apps/795110/f07b1b9bd0ffab91c7f1f3eb4e4697a73121d969.jpg",
    "icongray": "https://steamcdn-a.akamaihd.net/steamcommunity/public/images/apps/795110/c210c328dd711ca30db79fcbbffacd3f7f4dec96.jpg"
  },
  {
    "name": "REWARD_G05_L08B",
    "defaultvalue": 0,
    "displayName": "LV08 Scary",
    "hidden": 1,
    "icon": "https://steamcdn-a.akamaihd.net/steamcommunity/public/images/apps/795110/bf4e206c99e5969ba29326adf9b262f6f4a2a4a9.jpg",
    "icongray": "https://steamcdn-a.akamaihd.net/steamcommunity/public/images/apps/795110/c210c328dd711ca30db79fcbbffacd3f7f4dec96.jpg"
  },
  {
    "name": "REWARD_G05_L09A",
    "defaultvalue": 0,
    "displayName": "LV09 Scary",
    "hidden": 1,
    "icon": "https://steamcdn-a.akamaihd.net/steamcommunity/public/images/apps/795110/5a8d669ca83d2cf9727e2957731c81ff16a8674e.jpg",
    "icongray": "https://steamcdn-a.akamaihd.net/steamcommunity/public/images/apps/795110/c7686eec4261e26638ec7d29cd7942c9dc433f30.jpg"
  },
  {
    "name": "REWARD_G05_L09B",
    "defaultvalue": 0,
    "displayName": "LV09 Scary",
    "hidden": 1,
    "icon": "https://steamcdn-a.akamaihd.net/steamcommunity/public/images/apps/795110/eba88b9021c34be4d35f05605a37d5be4c18bfe2.jpg",
    "icongray": "https://steamcdn-a.akamaihd.net/steamcommunity/public/images/apps/795110/778eefb91f9c34b50a108b8a1b937f7837311013.jpg"
  },
  {
    "name": "REWARD_G06_L01A",
    "defaultvalue": 0,
    "displayName": "LV01 1",
    "hidden": 1,
    "icon": "https://steamcdn-a.akamaihd.net/steamcommunity/public/images/apps/795110/dbaabfa58cbb9922bfc2a37b4ae8e87d2c38c055.jpg",
    "icongray": "https://steamcdn-a.akamaihd.net/steamcommunity/public/images/apps/795110/20ec160702595c7a6de0c22c9586a39041d4a5ce.jpg"
  },
  {
    "name": "REWARD_G06_L01B",
    "defaultvalue": 0,
    "displayName": "LV01 1",
    "hidden": 1,
    "icon": "https://steamcdn-a.akamaihd.net/steamcommunity/public/images/apps/795110/0127b29c5da946e6e713f41d3bb6f508fc8929ef.jpg",
    "icongray": "https://steamcdn-a.akamaihd.net/steamcommunity/public/images/apps/795110/20ec160702595c7a6de0c22c9586a39041d4a5ce.jpg"
  },
  {
    "name": "REWARD_G06_L02A",
    "defaultvalue": 0,
    "displayName": "LV02 2",
    "hidden": 1,
    "icon": "https://steamcdn-a.akamaihd.net/steamcommunity/public/images/apps/795110/cc1972d2d6576bb0ce67e2771e92addeb810a657.jpg",
    "icongray": "https://steamcdn-a.akamaihd.net/steamcommunity/public/images/apps/795110/d5fd3f43d2978bf5e36393a0b72fba6ec005a576.jpg"
  },
  {
    "name": "REWARD_G06_L02B",
    "defaultvalue": 0,
    "displayName": "LV02 2",
    "hidden": 1,
    "icon": "https://steamcdn-a.akamaihd.net/steamcommunity/public/images/apps/795110/1128dd61194d3a11dd9ee90577e2ffe8d63780de.jpg",
    "icongray": "https://steamcdn-a.akamaihd.net/steamcommunity/public/images/apps/795110/d5fd3f43d2978bf5e36393a0b72fba6ec005a576.jpg"
  },
  {
    "name": "REWARD_G06_L03A",
    "defaultvalue": 0,
    "displayName": "LV03 3",
    "hidden": 1,
    "icon": "https://steamcdn-a.akamaihd.net/steamcommunity/public/images/apps/795110/7893f2396265cb89b704a8e7885613a74f9f6e8c.jpg",
    "icongray": "https://steamcdn-a.akamaihd.net/steamcommunity/public/images/apps/795110/6fb0f153ab27a658d454e9ccf887922d0b7ea646.jpg"
  },
  {
    "name": "REWARD_G06_L03B",
    "defaultvalue": 0,
    "displayName": "LV03 3",
    "hidden": 1,
    "icon": "https://steamcdn-a.akamaihd.net/steamcommunity/public/images/apps/795110/8f225bf480820e1c17f89e25a2b41e3caff06227.jpg",
    "icongray": "https://steamcdn-a.akamaihd.net/steamcommunity/public/images/apps/795110/6fb0f153ab27a658d454e9ccf887922d0b7ea646.jpg"
  },
  {
    "name": "REWARD_G06_L04A",
    "defaultvalue": 0,
    "displayName": "LV04 4",
    "hidden": 1,
    "icon": "https://steamcdn-a.akamaihd.net/steamcommunity/public/images/apps/795110/18c3e4ee96a703a44180f271ac7c5220945064e4.jpg",
    "icongray": "https://steamcdn-a.akamaihd.net/steamcommunity/public/images/apps/795110/3ff3c2c1ddef3ab63279f8cec84cf6414faad59f.jpg"
  },
  {
    "name": "REWARD_G06_L04B",
    "defaultvalue": 0,
    "displayName": "LV04 4",
    "hidden": 1,
    "icon": "https://steamcdn-a.akamaihd.net/steamcommunity/public/images/apps/795110/5f235748aadfe9c78c44e8b2cbbfc436ed0972fa.jpg",
    "icongray": "https://steamcdn-a.akamaihd.net/steamcommunity/public/images/apps/795110/3ff3c2c1ddef3ab63279f8cec84cf6414faad59f.jpg"
  },
  {
    "name": "REWARD_G06_L05A",
    "defaultvalue": 0,
    "displayName": "LV05 5",
    "hidden": 1,
    "icon": "https://steamcdn-a.akamaihd.net/steamcommunity/public/images/apps/795110/4cec184e889e1869b3434aa204051562f63b6e9b.jpg",
    "icongray": "https://steamcdn-a.akamaihd.net/steamcommunity/public/images/apps/795110/761a113104ad1b1ee0a930d1a8fb09363ee9bb84.jpg"
  },
  {
    "name": "REWARD_G06_L05B",
    "defaultvalue": 0,
    "displayName": "LV05 5",
    "hidden": 1,
    "icon": "https://steamcdn-a.akamaihd.net/steamcommunity/public/images/apps/795110/9b9b80c103248414a5794470b5ab84ba32dfd1b6.jpg",
    "icongray": "https://steamcdn-a.akamaihd.net/steamcommunity/public/images/apps/795110/761a113104ad1b1ee0a930d1a8fb09363ee9bb84.jpg"
  },
  {
    "name": "REWARD_G06_L06A",
    "defaultvalue": 0,
    "displayName": "LV06 6",
    "hidden": 1,
    "icon": "https://steamcdn-a.akamaihd.net/steamcommunity/public/images/apps/795110/74475a49bd66f936852a9c7ad8d4607e36d22949.jpg",
    "icongray": "https://steamcdn-a.akamaihd.net/steamcommunity/public/images/apps/795110/f854ea633e41d35b5922393f7bbaef9332e10d3a.jpg"
  },
  {
    "name": "REWARD_G06_L06B",
    "defaultvalue": 0,
    "displayName": "LV06 6",
    "hidden": 1,
    "icon": "https://steamcdn-a.akamaihd.net/steamcommunity/public/images/apps/795110/ba1eb6ab3bfedf4616a4a9d66afc46989b4587de.jpg",
    "icongray": "https://steamcdn-a.akamaihd.net/steamcommunity/public/images/apps/795110/f854ea633e41d35b5922393f7bbaef9332e10d3a.jpg"
  },
  {
    "name": "REWARD_G06_L07A",
    "defaultvalue": 0,
    "displayName": "LV07 7",
    "hidden": 1,
    "icon": "https://steamcdn-a.akamaihd.net/steamcommunity/public/images/apps/795110/396cc9cf39eb6b44be127e8038cc7cfa140f1088.jpg",
    "icongray": "https://steamcdn-a.akamaihd.net/steamcommunity/public/images/apps/795110/a37a0aaffbfcc2b932d20775b78f301dc93706cd.jpg"
  },
  {
    "name": "REWARD_G06_L07B",
    "defaultvalue": 0,
    "displayName": "LV07 7",
    "hidden": 1,
    "icon": "https://steamcdn-a.akamaihd.net/steamcommunity/public/images/apps/795110/39c2e6be1a2d36283a58ef98aa6d4115fa175e17.jpg",
    "icongray": "https://steamcdn-a.akamaihd.net/steamcommunity/public/images/apps/795110/a37a0aaffbfcc2b932d20775b78f301dc93706cd.jpg"
  },
  {
    "name": "REWARD_G06_L08A",
    "defaultvalue": 0,
    "displayName": "LV08 8",
    "hidden": 1,
    "icon": "https://steamcdn-a.akamaihd.net/steamcommunity/public/images/apps/795110/1b40f5b607f27a2b768452ac8d69ef7a71e9a7ed.jpg",
    "icongray": "https://steamcdn-a.akamaihd.net/steamcommunity/public/images/apps/795110/2789f35361886acb8574911b419837779dc098d4.jpg"
  },
  {
    "name": "REWARD_G06_L08B",
    "defaultvalue": 0,
    "displayName": "LV08 8",
    "hidden": 1,
    "icon": "https://steamcdn-a.akamaihd.net/steamcommunity/public/images/apps/795110/eb899464e4303a51ac1a84e1692f7eced0955cd4.jpg",
    "icongray": "https://steamcdn-a.akamaihd.net/steamcommunity/public/images/apps/795110/2789f35361886acb8574911b419837779dc098d4.jpg"
  },
  {
    "name": "REWARD_G06_L09A",
    "defaultvalue": 0,
    "displayName": "LV09 9",
    "hidden": 1,
    "icon": "https://steamcdn-a.akamaihd.net/steamcommunity/public/images/apps/795110/89a1d0aedc64a5b45ac2f8dd3d3cf7664cc7f100.jpg",
    "icongray": "https://steamcdn-a.akamaihd.net/steamcommunity/public/images/apps/795110/c1806f88b7d2f0fb014f00b09e7d59e0aeeb62a8.jpg"
  },
  {
    "name": "REWARD_G06_L09B",
    "defaultvalue": 0,
    "displayName": "LV09 9",
    "hidden": 1,
    "icon": "https://steamcdn-a.akamaihd.net/steamcommunity/public/images/apps/795110/29818b0eeeb248fd5572fc9736c7b640d6749b26.jpg",
    "icongray": "https://steamcdn-a.akamaihd.net/steamcommunity/public/images/apps/795110/c1806f88b7d2f0fb014f00b09e7d59e0aeeb62a8.jpg"
  },
  {
    "name": "REWARD_G07_L01A",
    "defaultvalue": 0,
    "displayName": "LV01 0",
    "hidden": 1,
    "icon": "https://steamcdn-a.akamaihd.net/steamcommunity/public/images/apps/795110/42f95441d657b57a8ef27a822d4f6dbf57cccad0.jpg",
    "icongray": "https://steamcdn-a.akamaihd.net/steamcommunity/public/images/apps/795110/2ee188db33962a1293faadfb6523badc02e1d24a.jpg"
  },
  {
    "name": "REWARD_G07_L01B",
    "defaultvalue": 0,
    "displayName": "LV01 0",
    "hidden": 1,
    "icon": "https://steamcdn-a.akamaihd.net/steamcommunity/public/images/apps/795110/bb633966452a5667860ff8109cf6b0970b7bd8d2.jpg",
    "icongray": "https://steamcdn-a.akamaihd.net/steamcommunity/public/images/apps/795110/2ee188db33962a1293faadfb6523badc02e1d24a.jpg"
  },
  {
    "name": "REWARD_G07_L02A",
    "defaultvalue": 0,
    "displayName": "LV02 ANGRY",
    "hidden": 1,
    "icon": "https://steamcdn-a.akamaihd.net/steamcommunity/public/images/apps/795110/360e4eee78480ebaaa0233d778220e2b209e10c1.jpg",
    "icongray": "https://steamcdn-a.akamaihd.net/steamcommunity/public/images/apps/795110/a562ee15a51b4e804b94a00840f1d6b99920ff3e.jpg"
  },
  {
    "name": "REWARD_G07_L02B",
    "defaultvalue": 0,
    "displayName": "LV02 ANGRY",
    "hidden": 1,
    "icon": "https://steamcdn-a.akamaihd.net/steamcommunity/public/images/apps/795110/e9329fee19f3eb462ccebeb8d5d2fcc173435f2f.jpg",
    "icongray": "https://steamcdn-a.akamaihd.net/steamcommunity/public/images/apps/795110/a562ee15a51b4e804b94a00840f1d6b99920ff3e.jpg"
  },
  {
    "name": "REWARD_G07_L03A",
    "defaultvalue": 0,
    "displayName": "LV03 ANGRY",
    "hidden": 1,
    "icon": "https://steamcdn-a.akamaihd.net/steamcommunity/public/images/apps/795110/76245de2c6d9bde14dea90756a24a4d71365f3b6.jpg",
    "icongray": "https://steamcdn-a.akamaihd.net/steamcommunity/public/images/apps/795110/b888e8055324fec3c9e3b10b4ceb235a468723e5.jpg"
  },
  {
    "name": "REWARD_G07_L03B",
    "defaultvalue": 0,
    "displayName": "LV03 ANGRY",
    "hidden": 1,
    "icon": "https://steamcdn-a.akamaihd.net/steamcommunity/public/images/apps/795110/778473a60d03864f60a20d211ccc8738231dc3a3.jpg",
    "icongray": "https://steamcdn-a.akamaihd.net/steamcommunity/public/images/apps/795110/b888e8055324fec3c9e3b10b4ceb235a468723e5.jpg"
  },
  {
    "name": "REWARD_G07_L04A",
    "defaultvalue": 0,
    "displayName": "LV04 ANGRY",
    "hidden": 1,
    "icon": "https://steamcdn-a.akamaihd.net/steamcommunity/public/images/apps/795110/102250ffc9fbe708ea5d137c35fb698570951ff8.jpg",
    "icongray": "https://steamcdn-a.akamaihd.net/steamcommunity/public/images/apps/795110/86b31aa65e6bf3eb794334a118271254cfae6371.jpg"
  },
  {
    "name": "REWARD_G07_L04B",
    "defaultvalue": 0,
    "displayName": "LV04 ANGRY",
    "hidden": 1,
    "icon": "https://steamcdn-a.akamaihd.net/steamcommunity/public/images/apps/795110/e836173eb0972d49c17bd78fcdd9b771ccbb4258.jpg",
    "icongray": "https://steamcdn-a.akamaihd.net/steamcommunity/public/images/apps/795110/86b31aa65e6bf3eb794334a118271254cfae6371.jpg"
  },
  {
    "name": "REWARD_G07_L05A",
    "defaultvalue": 0,
    "displayName": "LV05 ANGRY",
    "hidden": 1,
    "icon": "https://steamcdn-a.akamaihd.net/steamcommunity/public/images/apps/795110/4dbabc604510e186db7223d526bccd5d6b044652.jpg",
    "icongray": "https://steamcdn-a.akamaihd.net/steamcommunity/public/images/apps/795110/c8ce4f58e8df5bfa7be071f5aae4ac771b814525.jpg"
  },
  {
    "name": "REWARD_G07_L05B",
    "defaultvalue": 0,
    "displayName": "LV05 ANGRY",
    "hidden": 1,
    "icon": "https://steamcdn-a.akamaihd.net/steamcommunity/public/images/apps/795110/5fcf4484eb4787538439aa372ff2eea6e28b00db.jpg",
    "icongray": "https://steamcdn-a.akamaihd.net/steamcommunity/public/images/apps/795110/c8ce4f58e8df5bfa7be071f5aae4ac771b814525.jpg"
  },
  {
    "name": "REWARD_G07_L06A",
    "defaultvalue": 0,
    "displayName": "LV06 ANGRY",
    "hidden": 1,
    "icon": "https://steamcdn-a.akamaihd.net/steamcommunity/public/images/apps/795110/55ab3c93a300e37eced8d1c00d66326b040df10e.jpg",
    "icongray": "https://steamcdn-a.akamaihd.net/steamcommunity/public/images/apps/795110/d69f9f4202e49879e02bffbf840a30589dbea2d1.jpg"
  },
  {
    "name": "REWARD_G07_L06B",
    "defaultvalue": 0,
    "displayName": "LV06 ANGRY",
    "hidden": 1,
    "icon": "https://steamcdn-a.akamaihd.net/steamcommunity/public/images/apps/795110/897c6493cf9869076428eda1434913e98c7ad311.jpg",
    "icongray": "https://steamcdn-a.akamaihd.net/steamcommunity/public/images/apps/795110/d69f9f4202e49879e02bffbf840a30589dbea2d1.jpg"
  },
  {
    "name": "REWARD_G07_L07A",
    "defaultvalue": 0,
    "displayName": "LV07 CRAZY",
    "hidden": 1,
    "icon": "https://steamcdn-a.akamaihd.net/steamcommunity/public/images/apps/795110/b61911ae33cb1bdff207728c8462e8931f649f0c.jpg",
    "icongray": "https://steamcdn-a.akamaihd.net/steamcommunity/public/images/apps/795110/ccb0ff23507485c5de1cf9dc6e619bf64bf9c9e5.jpg"
  },
  {
    "name": "REWARD_G07_L07B",
    "defaultvalue": 0,
    "displayName": "LV07 CRAZY",
    "hidden": 1,
    "icon": "https://steamcdn-a.akamaihd.net/steamcommunity/public/images/apps/795110/efa808ee6c60b09c4f22eccbca28d225147819f3.jpg",
    "icongray": "https://steamcdn-a.akamaihd.net/steamcommunity/public/images/apps/795110/ccb0ff23507485c5de1cf9dc6e619bf64bf9c9e5.jpg"
  },
  {
    "name": "REWARD_G07_L08A",
    "defaultvalue": 0,
    "displayName": "LV08 Fem",
    "hidden": 1,
    "icon": "https://steamcdn-a.akamaihd.net/steamcommunity/public/images/apps/795110/aba964e2860601f98c9470a523eb5f7b30077a05.jpg",
    "icongray": "https://steamcdn-a.akamaihd.net/steamcommunity/public/images/apps/795110/b7d98721831d49083f09655ae7c3d44151da297c.jpg"
  },
  {
    "name": "REWARD_G07_L08B",
    "defaultvalue": 0,
    "displayName": "LV08 Fem",
    "hidden": 1,
    "icon": "https://steamcdn-a.akamaihd.net/steamcommunity/public/images/apps/795110/9197a6d8a0b0422d5f34ea68296832ad9ce73851.jpg",
    "icongray": "https://steamcdn-a.akamaihd.net/steamcommunity/public/images/apps/795110/b7d98721831d49083f09655ae7c3d44151da297c.jpg"
  },
  {
    "name": "REWARD_G07_L09A",
    "defaultvalue": 0,
    "displayName": "LV09 Mas",
    "hidden": 1,
    "icon": "https://steamcdn-a.akamaihd.net/steamcommunity/public/images/apps/795110/0090c61a281d94a837c98c1e4fb1d8f02abd942f.jpg",
    "icongray": "https://steamcdn-a.akamaihd.net/steamcommunity/public/images/apps/795110/ba15918b9e31aa675da8fecdaf65ad07a020f769.jpg"
  },
  {
    "name": "REWARD_G07_L09B",
    "defaultvalue": 0,
    "displayName": "LV09 Mas",
    "hidden": 1,
    "icon": "https://steamcdn-a.akamaihd.net/steamcommunity/public/images/apps/795110/5b7d1602a85b66295816b663dfe4f41fbdab40b2.jpg",
    "icongray": "https://steamcdn-a.akamaihd.net/steamcommunity/public/images/apps/795110/ba15918b9e31aa675da8fecdaf65ad07a020f769.jpg"
  },
  {
    "name": "REWARD_G08_L01A",
    "defaultvalue": 0,
    "displayName": "LV01 SAD",
    "hidden": 1,
    "icon": "https://steamcdn-a.akamaihd.net/steamcommunity/public/images/apps/795110/7c5a4b1cb12ced22b72d181b84fb54e3e70fe4f9.jpg",
    "icongray": "https://steamcdn-a.akamaihd.net/steamcommunity/public/images/apps/795110/5b734b00d129e20f122f28146db8f442c525e351.jpg"
  },
  {
    "name": "REWARD_G08_L01B",
    "defaultvalue": 0,
    "displayName": "LV01 SAD",
    "hidden": 1,
    "icon": "https://steamcdn-a.akamaihd.net/steamcommunity/public/images/apps/795110/97665847a58fbbb586eeb8477838aac0c2fcc9a3.jpg",
    "icongray": "https://steamcdn-a.akamaihd.net/steamcommunity/public/images/apps/795110/5b734b00d129e20f122f28146db8f442c525e351.jpg"
  },
  {
    "name": "REWARD_G08_L02A",
    "defaultvalue": 0,
    "displayName": "LV02 SAD",
    "hidden": 1,
    "icon": "https://steamcdn-a.akamaihd.net/steamcommunity/public/images/apps/795110/8adc5d83e3d40730a40a99b029b3ac4aa0309a7d.jpg",
    "icongray": "https://steamcdn-a.akamaihd.net/steamcommunity/public/images/apps/795110/f52b900501d36292c42adb1413521d882db8963a.jpg"
  },
  {
    "name": "REWARD_G08_L02B",
    "defaultvalue": 0,
    "displayName": "LV02 SAD",
    "hidden": 1,
    "icon": "https://steamcdn-a.akamaihd.net/steamcommunity/public/images/apps/795110/8373b1058ab8fd24af2a29d68984a086c5ddfb7b.jpg",
    "icongray": "https://steamcdn-a.akamaihd.net/steamcommunity/public/images/apps/795110/f52b900501d36292c42adb1413521d882db8963a.jpg"
  },
  {
    "name": "REWARD_G08_L03A",
    "defaultvalue": 0,
    "displayName": "LV03 SAD",
    "hidden": 1,
    "icon": "https://steamcdn-a.akamaihd.net/steamcommunity/public/images/apps/795110/5f05efedef23ee75b53d7ad07658c3cedb89c2f0.jpg",
    "icongray": "https://steamcdn-a.akamaihd.net/steamcommunity/public/images/apps/795110/974be953e7067f3398e26ae23088a9a8db2b16d7.jpg"
  },
  {
    "name": "REWARD_G08_L03B",
    "defaultvalue": 0,
    "displayName": "LV03 SAD",
    "hidden": 1,
    "icon": "https://steamcdn-a.akamaihd.net/steamcommunity/public/images/apps/795110/3206539c639c7a86d0e4374dea27b111087ee4c9.jpg",
    "icongray": "https://steamcdn-a.akamaihd.net/steamcommunity/public/images/apps/795110/974be953e7067f3398e26ae23088a9a8db2b16d7.jpg"
  },
  {
    "name": "REWARD_G08_L04A",
    "defaultvalue": 0,
    "displayName": "LV04 SAD",
    "hidden": 1,
    "icon": "https://steamcdn-a.akamaihd.net/steamcommunity/public/images/apps/795110/7537bffebf1b462431c30376992e87a864865182.jpg",
    "icongray": "https://steamcdn-a.akamaihd.net/steamcommunity/public/images/apps/795110/640753c7230682d6ddccfda874ccd9a64dedc304.jpg"
  },
  {
    "name": "REWARD_G08_L04B",
    "defaultvalue": 0,
    "displayName": "LV04 SAD",
    "hidden": 1,
    "icon": "https://steamcdn-a.akamaihd.net/steamcommunity/public/images/apps/795110/e24c72d897381f5662224cbf2918227bc82b16f3.jpg",
    "icongray": "https://steamcdn-a.akamaihd.net/steamcommunity/public/images/apps/795110/5877f9c2ce2c71a2ae937df15ab0e0180016701d.jpg"
  },
  {
    "name": "REWARD_G08_L05A",
    "defaultvalue": 0,
    "displayName": "LV05 SAD",
    "hidden": 1,
    "icon": "https://steamcdn-a.akamaihd.net/steamcommunity/public/images/apps/795110/339da84879c78dcac3fdc4e548e22f8b41256e4a.jpg",
    "icongray": "https://steamcdn-a.akamaihd.net/steamcommunity/public/images/apps/795110/383fd4b8e3f56539d57fd17252a74c5ba8f56f53.jpg"
  },
  {
    "name": "REWARD_G08_L05B",
    "defaultvalue": 0,
    "displayName": "LV05 SAD",
    "hidden": 1,
    "icon": "https://steamcdn-a.akamaihd.net/steamcommunity/public/images/apps/795110/135eaba4ef99149727876c24acb531fdf5a2e041.jpg",
    "icongray": "https://steamcdn-a.akamaihd.net/steamcommunity/public/images/apps/795110/383fd4b8e3f56539d57fd17252a74c5ba8f56f53.jpg"
  },
  {
    "name": "REWARD_G08_L06A",
    "defaultvalue": 0,
    "displayName": "LV06 Winner",
    "hidden": 1,
    "icon": "https://steamcdn-a.akamaihd.net/steamcommunity/public/images/apps/795110/73b784f94417cbbb52caeba5add491ca7d5ea819.jpg",
    "icongray": "https://steamcdn-a.akamaihd.net/steamcommunity/public/images/apps/795110/ccd27985490feda70ba25fd5445493a745a5d6ee.jpg"
  },
  {
    "name": "REWARD_G08_L06B",
    "defaultvalue": 0,
    "displayName": "LV06 Winner",
    "hidden": 1,
    "icon": "https://steamcdn-a.akamaihd.net/steamcommunity/public/images/apps/795110/3194b1b37d5b2d3e11fdc47476f7fe9ba8b7d490.jpg",
    "icongray": "https://steamcdn-a.akamaihd.net/steamcommunity/public/images/apps/795110/ccd27985490feda70ba25fd5445493a745a5d6ee.jpg"
  },
  {
    "name": "REWARD_G08_L07A",
    "defaultvalue": 0,
    "displayName": "LV07 Winner",
    "hidden": 1,
    "icon": "https://steamcdn-a.akamaihd.net/steamcommunity/public/images/apps/795110/a26c4898334348fbaef815fe6b89ac9c13486f14.jpg",
    "icongray": "https://steamcdn-a.akamaihd.net/steamcommunity/public/images/apps/795110/ecbdab8af0c4c2df2f0119ca96968bd7bf3da580.jpg"
  },
  {
    "name": "REWARD_G08_L07B",
    "defaultvalue": 0,
    "displayName": "LV07 Winner",
    "hidden": 1,
    "icon": "https://steamcdn-a.akamaihd.net/steamcommunity/public/images/apps/795110/9f3648259e149942cd4fd80ca1a3b312df75e768.jpg",
    "icongray": "https://steamcdn-a.akamaihd.net/steamcommunity/public/images/apps/795110/ecbdab8af0c4c2df2f0119ca96968bd7bf3da580.jpg"
  },
  {
    "name": "REWARD_G08_L08A",
    "defaultvalue": 0,
    "displayName": "LV08 Winner",
    "hidden": 1,
    "icon": "https://steamcdn-a.akamaihd.net/steamcommunity/public/images/apps/795110/23a3707ff20f10ea874cba89128e790bb97dd84b.jpg",
    "icongray": "https://steamcdn-a.akamaihd.net/steamcommunity/public/images/apps/795110/880cde3045b4b420f180d9af2022e2e176259230.jpg"
  },
  {
    "name": "REWARD_G08_L08B",
    "defaultvalue": 0,
    "displayName": "LV08 Winner",
    "hidden": 1,
    "icon": "https://steamcdn-a.akamaihd.net/steamcommunity/public/images/apps/795110/efa094d251b3eb5dc254fc8f19c51317fe6b5d92.jpg",
    "icongray": "https://steamcdn-a.akamaihd.net/steamcommunity/public/images/apps/795110/880cde3045b4b420f180d9af2022e2e176259230.jpg"
  },
  {
    "name": "REWARD_G08_L09A",
    "defaultvalue": 0,
    "displayName": "LV09 Winner",
    "hidden": 1,
    "icon": "https://steamcdn-a.akamaihd.net/steamcommunity/public/images/apps/795110/04138bec48c6ef8a5a631f1f64045a463866ded7.jpg",
    "icongray": "https://steamcdn-a.akamaihd.net/steamcommunity/public/images/apps/795110/eea27586ac784e2e98f58c2cfb43497ed24cc78c.jpg"
  },
  {
    "name": "REWARD_G08_L09B",
    "defaultvalue": 0,
    "displayName": "LV09 Winner",
    "hidden": 1,
    "icon": "https://steamcdn-a.akamaihd.net/steamcommunity/public/images/apps/795110/6c8164318a1169ccc3b5cdc048a27707c4408e6a.jpg",
    "icongray": "https://steamcdn-a.akamaihd.net/steamcommunity/public/images/apps/795110/eea27586ac784e2e98f58c2cfb43497ed24cc78c.jpg"
  },
  {
    "name": "REWARD_G09_L01A",
    "defaultvalue": 0,
    "displayName": "LV01 Block",
    "hidden": 1,
    "icon": "https://steamcdn-a.akamaihd.net/steamcommunity/public/images/apps/795110/b1c3dcec1b27a808eff85529b0f1334d07d4b638.jpg",
    "icongray": "https://steamcdn-a.akamaihd.net/steamcommunity/public/images/apps/795110/5c4107488584ebf0dd892ba375fe8b6a367e24a7.jpg"
  },
  {
    "name": "REWARD_G09_L01B",
    "defaultvalue": 0,
    "displayName": "LV01 Block",
    "hidden": 1,
    "icon": "https://steamcdn-a.akamaihd.net/steamcommunity/public/images/apps/795110/74e6ecf4d408701ed0df2729e281bb79c6a05ea5.jpg",
    "icongray": "https://steamcdn-a.akamaihd.net/steamcommunity/public/images/apps/795110/5c4107488584ebf0dd892ba375fe8b6a367e24a7.jpg"
  },
  {
    "name": "REWARD_G09_L02A",
    "defaultvalue": 0,
    "displayName": "LV02 Right",
    "hidden": 1,
    "icon": "https://steamcdn-a.akamaihd.net/steamcommunity/public/images/apps/795110/a472b2d4ddbdcdef37cf4c4852bc7ac82675716d.jpg",
    "icongray": "https://steamcdn-a.akamaihd.net/steamcommunity/public/images/apps/795110/17d6752dcb0eecd6f2796f8104bcc40807efb32c.jpg"
  },
  {
    "name": "REWARD_G09_L02B",
    "defaultvalue": 0,
    "displayName": "LV02 Right",
    "hidden": 1,
    "icon": "https://steamcdn-a.akamaihd.net/steamcommunity/public/images/apps/795110/3d6e6dd0664349943fac10b092256aa753ff36fa.jpg",
    "icongray": "https://steamcdn-a.akamaihd.net/steamcommunity/public/images/apps/795110/17d6752dcb0eecd6f2796f8104bcc40807efb32c.jpg"
  },
  {
    "name": "REWARD_G09_L03A",
    "defaultvalue": 0,
    "displayName": "LV03 Left",
    "hidden": 1,
    "icon": "https://steamcdn-a.akamaihd.net/steamcommunity/public/images/apps/795110/463749bf391b4b507bbe410519f87e8ba457323f.jpg",
    "icongray": "https://steamcdn-a.akamaihd.net/steamcommunity/public/images/apps/795110/5df8c7f954ca502711556a255ab78cb299e54ab3.jpg"
  },
  {
    "name": "REWARD_G09_L03B",
    "defaultvalue": 0,
    "displayName": "LV03 Left",
    "hidden": 1,
    "icon": "https://steamcdn-a.akamaihd.net/steamcommunity/public/images/apps/795110/b9754b85d1bd6bce53345b8f3e8d87be22cdc45e.jpg",
    "icongray": "https://steamcdn-a.akamaihd.net/steamcommunity/public/images/apps/795110/5df8c7f954ca502711556a255ab78cb299e54ab3.jpg"
  },
  {
    "name": "REWARD_G09_L04A",
    "defaultvalue": 0,
    "displayName": "LV04 SUN",
    "hidden": 1,
    "icon": "https://steamcdn-a.akamaihd.net/steamcommunity/public/images/apps/795110/cb5d88a19fd09ca122235a5cb75d34d9f36dbcd3.jpg",
    "icongray": "https://steamcdn-a.akamaihd.net/steamcommunity/public/images/apps/795110/e507e7d39b3b876acb1ab169c9f623423acb3d3e.jpg"
  },
  {
    "name": "REWARD_G09_L04B",
    "defaultvalue": 0,
    "displayName": "LV04 SUN",
    "hidden": 1,
    "icon": "https://steamcdn-a.akamaihd.net/steamcommunity/public/images/apps/795110/baddfbfd19d4e46e536b86d6b2ec20a6b8b96030.jpg",
    "icongray": "https://steamcdn-a.akamaihd.net/steamcommunity/public/images/apps/795110/e507e7d39b3b876acb1ab169c9f623423acb3d3e.jpg"
  },
  {
    "name": "REWARD_G09_L05A",
    "defaultvalue": 0,
    "displayName": "LV05 MOON",
    "hidden": 1,
    "icon": "https://steamcdn-a.akamaihd.net/steamcommunity/public/images/apps/795110/49db9c882fb6d9980e2873ccce55c95fdfad9968.jpg",
    "icongray": "https://steamcdn-a.akamaihd.net/steamcommunity/public/images/apps/795110/8c259f955200fdfbd4537164c5398fc6154b871a.jpg"
  },
  {
    "name": "REWARD_G09_L05B",
    "defaultvalue": 0,
    "displayName": "LV05 MOON",
    "hidden": 1,
    "icon": "https://steamcdn-a.akamaihd.net/steamcommunity/public/images/apps/795110/8bbe794d21e581eb7c88f19b5744cce55ae6d574.jpg",
    "icongray": "https://steamcdn-a.akamaihd.net/steamcommunity/public/images/apps/795110/8c259f955200fdfbd4537164c5398fc6154b871a.jpg"
  },
  {
    "name": "REWARD_G09_L06A",
    "defaultvalue": 0,
    "displayName": "LV06 SONG",
    "hidden": 0,
    "description": "Level 6 Completed",
    "icon": "https://steamcdn-a.akamaihd.net/steamcommunity/public/images/apps/795110/b98ba8b85a3e00380cfd7fa25dfe63062fd9a5e3.jpg",
    "icongray": "https://steamcdn-a.akamaihd.net/steamcommunity/public/images/apps/795110/15de5c72042b7f111d213d62286e39cd97834ae8.jpg"
  },
  {
    "name": "REWARD_G09_L06B",
    "defaultvalue": 0,
    "displayName": "LV06 SONG",
    "hidden": 1,
    "icon": "https://steamcdn-a.akamaihd.net/steamcommunity/public/images/apps/795110/5ab62e61939ef23c798cc0a8f93a7f017731c9b3.jpg",
    "icongray": "https://steamcdn-a.akamaihd.net/steamcommunity/public/images/apps/795110/15de5c72042b7f111d213d62286e39cd97834ae8.jpg"
  },
  {
    "name": "REWARD_G09_L07A",
    "defaultvalue": 0,
    "displayName": "LV07 SONG",
    "hidden": 1,
    "icon": "https://steamcdn-a.akamaihd.net/steamcommunity/public/images/apps/795110/700cd336ecac543bbe04d81950b27a3df0195c39.jpg",
    "icongray": "https://steamcdn-a.akamaihd.net/steamcommunity/public/images/apps/795110/946413cb6c1bc97bbbcfbe366227ad4a65ed8554.jpg"
  },
  {
    "name": "REWARD_G09_L07B",
    "defaultvalue": 0,
    "displayName": "LV07 SONG",
    "hidden": 1,
    "icon": "https://steamcdn-a.akamaihd.net/steamcommunity/public/images/apps/795110/69ff2dc1ef1a28411e3cbcb1ad8a76d8e278aceb.jpg",
    "icongray": "https://steamcdn-a.akamaihd.net/steamcommunity/public/images/apps/795110/946413cb6c1bc97bbbcfbe366227ad4a65ed8554.jpg"
  },
  {
    "name": "REWARD_G09_L08A",
    "defaultvalue": 0,
    "displayName": "LV08 SONG",
    "hidden": 1,
    "icon": "https://steamcdn-a.akamaihd.net/steamcommunity/public/images/apps/795110/4c7447ee4306c06fde1f4476e8e00c6ebbcc4d8b.jpg",
    "icongray": "https://steamcdn-a.akamaihd.net/steamcommunity/public/images/apps/795110/63b3c46a310c589e22fb4686cd178fedf595ee12.jpg"
  },
  {
    "name": "REWARD_G09_L08B",
    "defaultvalue": 0,
    "displayName": "LV08 SONG",
    "hidden": 1,
    "icon": "https://steamcdn-a.akamaihd.net/steamcommunity/public/images/apps/795110/3e320f07a5f54471c31a3eb50500306026502ed0.jpg",
    "icongray": "https://steamcdn-a.akamaihd.net/steamcommunity/public/images/apps/795110/63b3c46a310c589e22fb4686cd178fedf595ee12.jpg"
  }
]