[
  {
    "name": "Ach_Death",
    "defaultvalue": 0,
    "displayName": "Not Like This",
    "hidden": 1,
    "icon": "https://steamcdn-a.akamaihd.net/steamcommunity/public/images/apps/1048600/ae8974af24d56a93bbee7604b74ea47f5f172ce3.jpg",
    "icongray": "https://steamcdn-a.akamaihd.net/steamcommunity/public/images/apps/1048600/76cc6df63e01c88c9c5c4d0574a0c614c8272001.jpg"
  },
  {
    "name": "Ach_WellComplete",
    "defaultvalue": 0,
    "displayName": "From the Depths",
    "hidden": 1,
    "icon": "https://steamcdn-a.akamaihd.net/steamcommunity/public/images/apps/1048600/7838311e4e957f1d70380c055f0771626a98bc78.jpg",
    "icongray": "https://steamcdn-a.akamaihd.net/steamcommunity/public/images/apps/1048600/99546bb80cdbc59d3102ae10794cb357fe220aa1.jpg"
  },
  {
    "name": "Ach_BarnDoor",
    "defaultvalue": 0,
    "displayName": "Plague of Beetles",
    "hidden": 1,
    "icon": "https://steamcdn-a.akamaihd.net/steamcommunity/public/images/apps/1048600/763e162d21673a4578212317cbdca227a84b4698.jpg",
    "icongray": "https://steamcdn-a.akamaihd.net/steamcommunity/public/images/apps/1048600/35e2689a993789da54cbdc14f3295e61f7ba6efe.jpg"
  },
  {
    "name": "Ach_BarnPuzzle",
    "defaultvalue": 0,
    "displayName": "Raised in a Barn",
    "hidden": 1,
    "icon": "https://steamcdn-a.akamaihd.net/steamcommunity/public/images/apps/1048600/61011da2646a216ffc5f0439e55acd8aaeb81511.jpg",
    "icongray": "https://steamcdn-a.akamaihd.net/steamcommunity/public/images/apps/1048600/a1e50f71895b75b0d56640a03202ddf6d2580a1e.jpg"
  },
  {
    "name": "Ach_BeetleQueen",
    "defaultvalue": 0,
    "displayName": "Beetle of Unusual Size",
    "hidden": 1,
    "icon": "https://steamcdn-a.akamaihd.net/steamcommunity/public/images/apps/1048600/75f32de7db87dfc234746d98ca100ca8a4282f96.jpg",
    "icongray": "https://steamcdn-a.akamaihd.net/steamcommunity/public/images/apps/1048600/bc18a2c18d6bfc105baa5178c466b87aeb2befea.jpg"
  },
  {
    "name": "Ach_FirstReaver",
    "defaultvalue": 0,
    "displayName": "In a Dark Wood",
    "hidden": 1,
    "icon": "https://steamcdn-a.akamaihd.net/steamcommunity/public/images/apps/1048600/7f3bfbde3ca100df030e8a1fb3ce225267f3c3d5.jpg",
    "icongray": "https://steamcdn-a.akamaihd.net/steamcommunity/public/images/apps/1048600/55116682a0494aa28657d9c0e2a77ad5243bbcf1.jpg"
  },
  {
    "name": "Ach_RockReaver",
    "defaultvalue": 0,
    "displayName": "What Lies Below",
    "hidden": 1,
    "icon": "https://steamcdn-a.akamaihd.net/steamcommunity/public/images/apps/1048600/83fd455f3b889ea32be1aa11696db8c728c909c6.jpg",
    "icongray": "https://steamcdn-a.akamaihd.net/steamcommunity/public/images/apps/1048600/059f46e3688bb78f2d2d1351780fc3fa83b3b2c3.jpg"
  },
  {
    "name": "Ach_ForestComplete",
    "defaultvalue": 0,
    "displayName": "Into the Flames",
    "hidden": 1,
    "icon": "https://steamcdn-a.akamaihd.net/steamcommunity/public/images/apps/1048600/8faac803af10b1064d8d0a933f6a3064e972f018.jpg",
    "icongray": "https://steamcdn-a.akamaihd.net/steamcommunity/public/images/apps/1048600/fbc0cbaaaa2a6a64fc520be86e0d84b01a82ccf7.jpg"
  },
  {
    "name": "Ach_FireArrows",
    "defaultvalue": 0,
    "displayName": "Rain of Fire",
    "hidden": 1,
    "icon": "https://steamcdn-a.akamaihd.net/steamcommunity/public/images/apps/1048600/46786bea178d44c5c0579f0370bb455ceeec3fcb.jpg",
    "icongray": "https://steamcdn-a.akamaihd.net/steamcommunity/public/images/apps/1048600/258d74b0c597d301a5f2d31446aecf2fa90f67b1.jpg"
  },
  {
    "name": "Ach_CrushTrap",
    "defaultvalue": 0,
    "displayName": "Narrow Escape",
    "hidden": 1,
    "icon": "https://steamcdn-a.akamaihd.net/steamcommunity/public/images/apps/1048600/a2aef5d4a044575d8bfe721cd321bb9e9949630e.jpg",
    "icongray": "https://steamcdn-a.akamaihd.net/steamcommunity/public/images/apps/1048600/39ec6ddb34ec8d87440f560b86f694e2e05560b2.jpg"
  },
  {
    "name": "Ach_LogTrap",
    "defaultvalue": 0,
    "displayName": "Gather No Moss",
    "hidden": 1,
    "icon": "https://steamcdn-a.akamaihd.net/steamcommunity/public/images/apps/1048600/c9419a969d8cc862dce5f31037f1f213f80c148a.jpg",
    "icongray": "https://steamcdn-a.akamaihd.net/steamcommunity/public/images/apps/1048600/0d58949a42295ef1ea9b7912c05d3c37f63c173d.jpg"
  },
  {
    "name": "Ach_WallTrap",
    "defaultvalue": 0,
    "displayName": "Rock and a Hard Place",
    "hidden": 1,
    "icon": "https://steamcdn-a.akamaihd.net/steamcommunity/public/images/apps/1048600/92085d9ff628cf05e443f9ceec45086f746e17b5.jpg",
    "icongray": "https://steamcdn-a.akamaihd.net/steamcommunity/public/images/apps/1048600/631fd6884ec464d9ded1107f07967ed92dde005d.jpg"
  },
  {
    "name": "Ach_ShadowPuzzle",
    "defaultvalue": 0,
    "displayName": "Shadow of Death",
    "hidden": 1,
    "icon": "https://steamcdn-a.akamaihd.net/steamcommunity/public/images/apps/1048600/3781637f4365456ebb3cda279083b931f48ec364.jpg",
    "icongray": "https://steamcdn-a.akamaihd.net/steamcommunity/public/images/apps/1048600/8f55f1504bd2af412326a81bf401429a1f1be2fd.jpg"
  },
  {
    "name": "Ach_TentaclesComplete",
    "defaultvalue": 0,
    "displayName": "Into the Light",
    "hidden": 1,
    "icon": "https://steamcdn-a.akamaihd.net/steamcommunity/public/images/apps/1048600/227e6c123d3416cafe530bbaa1ed08437ef0a895.jpg",
    "icongray": "https://steamcdn-a.akamaihd.net/steamcommunity/public/images/apps/1048600/8a02cb187c502d2061f6ace6721189cbd1d46797.jpg"
  },
  {
    "name": "Ach_FirstGong",
    "defaultvalue": 0,
    "displayName": "Do You Hear What I Hear?",
    "hidden": 1,
    "icon": "https://steamcdn-a.akamaihd.net/steamcommunity/public/images/apps/1048600/0ef78c059329878045d1adaa5f4688523ce044eb.jpg",
    "icongray": "https://steamcdn-a.akamaihd.net/steamcommunity/public/images/apps/1048600/c88c86fb518ac00afaaf5b6f2e06ca6baedc1462.jpg"
  },
  {
    "name": "Ach_SecondGong",
    "defaultvalue": 0,
    "displayName": "Gong But Not Forgotten",
    "hidden": 1,
    "icon": "https://steamcdn-a.akamaihd.net/steamcommunity/public/images/apps/1048600/a50cdaaa7e3adffb9c4c695a2be16e59805295f1.jpg",
    "icongray": "https://steamcdn-a.akamaihd.net/steamcommunity/public/images/apps/1048600/8823420040fa6e1ddbc5ee220bd43cbd70bf0214.jpg"
  },
  {
    "name": "Ach_BurrowerJump",
    "defaultvalue": 0,
    "displayName": "Leap of Faith",
    "hidden": 1,
    "icon": "https://steamcdn-a.akamaihd.net/steamcommunity/public/images/apps/1048600/018c6e6062a9127a285139620058a34e73a52666.jpg",
    "icongray": "https://steamcdn-a.akamaihd.net/steamcommunity/public/images/apps/1048600/96e76d5eda5e661f395996bde7045bcd71f94fb4.jpg"
  },
  {
    "name": "Ach_ThirdGong",
    "defaultvalue": 0,
    "displayName": "Third Chimes the Charm",
    "hidden": 1,
    "icon": "https://steamcdn-a.akamaihd.net/steamcommunity/public/images/apps/1048600/7b0842efd1a507038b3b95b83e0d289e0eebfc99.jpg",
    "icongray": "https://steamcdn-a.akamaihd.net/steamcommunity/public/images/apps/1048600/55d8eff3687661a534fa94c9cd9f1f06a970a925.jpg"
  },
  {
    "name": "Ach_SnowComplete",
    "defaultvalue": 0,
    "displayName": "Out From the Cold",
    "hidden": 1,
    "icon": "https://steamcdn-a.akamaihd.net/steamcommunity/public/images/apps/1048600/8e359f0ca90ba2c997f3538fa8e726b495c19b63.jpg",
    "icongray": "https://steamcdn-a.akamaihd.net/steamcommunity/public/images/apps/1048600/b151e975b775ec7960b73f542cf41e5dd939cac0.jpg"
  },
  {
    "name": "Ach_BurrowrerCage",
    "defaultvalue": 0,
    "displayName": "Enemy of my Enemy",
    "hidden": 1,
    "icon": "https://steamcdn-a.akamaihd.net/steamcommunity/public/images/apps/1048600/cad33bbc23583f790d3c9cf992576b4f796681b9.jpg",
    "icongray": "https://steamcdn-a.akamaihd.net/steamcommunity/public/images/apps/1048600/0502878269b979d432819f9fe9007a87cb5f95ca.jpg"
  },
  {
    "name": "Ach_CranePuzzle",
    "defaultvalue": 0,
    "displayName": "What Goes Around",
    "hidden": 1,
    "icon": "https://steamcdn-a.akamaihd.net/steamcommunity/public/images/apps/1048600/d6dabb81aa9d25b8579ff8a9f4cb31c10da257e4.jpg",
    "icongray": "https://steamcdn-a.akamaihd.net/steamcommunity/public/images/apps/1048600/63b627c7ab8e069d010fa1c07f097305f25b0a2a.jpg"
  },
  {
    "name": "Ach_ReaverChute",
    "defaultvalue": 0,
    "displayName": "Death from Above",
    "hidden": 1,
    "icon": "https://steamcdn-a.akamaihd.net/steamcommunity/public/images/apps/1048600/20dcefcda207856cb3212881997e7641a2cb4a5b.jpg",
    "icongray": "https://steamcdn-a.akamaihd.net/steamcommunity/public/images/apps/1048600/bc1a38119baca279283ced3d5c100992bae625ef.jpg"
  },
  {
    "name": "Ach_ElevatorComplete",
    "defaultvalue": 0,
    "displayName": "The Stelavator",
    "hidden": 1,
    "icon": "https://steamcdn-a.akamaihd.net/steamcommunity/public/images/apps/1048600/d39c00e025202d46bf60d3fe3a580555852719d8.jpg",
    "icongray": "https://steamcdn-a.akamaihd.net/steamcommunity/public/images/apps/1048600/747f97116a7d7d04cf3a45b93800f9335f15103e.jpg"
  },
  {
    "name": "Ach_MonasteryTorch",
    "defaultvalue": 0,
    "displayName": "Bats in the Belfry",
    "hidden": 1,
    "icon": "https://steamcdn-a.akamaihd.net/steamcommunity/public/images/apps/1048600/e0b74b2b3a65d4590fe11b053cac2eef6fb47254.jpg",
    "icongray": "https://steamcdn-a.akamaihd.net/steamcommunity/public/images/apps/1048600/7c204de7c71cdc1a5d41fcc1eca74a1e75bd4c10.jpg"
  },
  {
    "name": "Ach_Chandelier",
    "defaultvalue": 0,
    "displayName": "Down in Flames",
    "hidden": 1,
    "icon": "https://steamcdn-a.akamaihd.net/steamcommunity/public/images/apps/1048600/b9c4446c13d754649b59ba243971863a045f33e4.jpg",
    "icongray": "https://steamcdn-a.akamaihd.net/steamcommunity/public/images/apps/1048600/adaee69cf05e4964e62316899640ec51c38150a9.jpg"
  },
  {
    "name": "Ach_MonasteryComplete",
    "defaultvalue": 0,
    "displayName": "Sanctuary",
    "hidden": 1,
    "icon": "https://steamcdn-a.akamaihd.net/steamcommunity/public/images/apps/1048600/5743514619bd542c95f6f3cd14ac86f26131c8bb.jpg",
    "icongray": "https://steamcdn-a.akamaihd.net/steamcommunity/public/images/apps/1048600/f92b0b69ca4cf65786d6db41ab6769b07fa2abba.jpg"
  },
  {
    "name": "Ach_RingPuzzle",
    "defaultvalue": 0,
    "displayName": "Signs and Portents",
    "hidden": 1,
    "icon": "https://steamcdn-a.akamaihd.net/steamcommunity/public/images/apps/1048600/693758a9fe3e5bf1d802ea6e81886f19985c9815.jpg",
    "icongray": "https://steamcdn-a.akamaihd.net/steamcommunity/public/images/apps/1048600/7161e02435e8ff4531abe50649e701d09ccfc787.jpg"
  },
  {
    "name": "Ach_SpiritWorldBegin",
    "defaultvalue": 0,
    "displayName": "World's End",
    "hidden": 1,
    "icon": "https://steamcdn-a.akamaihd.net/steamcommunity/public/images/apps/1048600/cbdaf8b5de43fd56fde22256a5a9e6a6b8f8de65.jpg",
    "icongray": "https://steamcdn-a.akamaihd.net/steamcommunity/public/images/apps/1048600/e7987666e780564431d1997ad250104a83bc4218.jpg"
  },
  {
    "name": "Ach_StelaPuzzle",
    "defaultvalue": 0,
    "displayName": "Eureka!",
    "hidden": 1,
    "icon": "https://steamcdn-a.akamaihd.net/steamcommunity/public/images/apps/1048600/53774c92d59e299d58471e4ac194541546730f7d.jpg",
    "icongray": "https://steamcdn-a.akamaihd.net/steamcommunity/public/images/apps/1048600/d22e269c2410b54a8dbcb52b9505d255e0721c47.jpg"
  },
  {
    "name": "Ach_CreditsComplete",
    "defaultvalue": 0,
    "displayName": "Record Keeper",
    "hidden": 1,
    "icon": "https://steamcdn-a.akamaihd.net/steamcommunity/public/images/apps/1048600/d95e5053d2f92b5117e3a4431a280ea7cb3c87a2.jpg",
    "icongray": "https://steamcdn-a.akamaihd.net/steamcommunity/public/images/apps/1048600/c5e7ba45eb4d24885a44cba09ed622a1b06f311f.jpg"
  },
  {
    "name": "Ach_StelaEnd",
    "defaultvalue": 0,
    "displayName": "Final Destination",
    "hidden": 1,
    "icon": "https://steamcdn-a.akamaihd.net/steamcommunity/public/images/apps/1048600/1c48bba678709a76c17e712f3a858e3b856c2ec9.jpg",
    "icongray": "https://steamcdn-a.akamaihd.net/steamcommunity/public/images/apps/1048600/c6d7a81226dfdb291453de641f7ed97a1700c976.jpg"
  },
  {
    "name": "Ach_GameComplete",
    "defaultvalue": 0,
    "displayName": "Stela",
    "hidden": 0,
    "description": "Finished the game.",
    "icon": "https://steamcdn-a.akamaihd.net/steamcommunity/public/images/apps/1048600/0d27fa8f9061a0e4170fa57ead88716b517dd49a.jpg",
    "icongray": "https://steamcdn-a.akamaihd.net/steamcommunity/public/images/apps/1048600/1b3c44240cb9dc8527d8af4221807074499302c6.jpg"
  },
  {
    "name": "Ach_NoDeaths",
    "defaultvalue": 0,
    "displayName": "Immortal",
    "hidden": 0,
    "description": "Finished the game without dying.",
    "icon": "https://steamcdn-a.akamaihd.net/steamcommunity/public/images/apps/1048600/f238c8974ad58f42de2eec8c07d84c457068e3b6.jpg",
    "icongray": "https://steamcdn-a.akamaihd.net/steamcommunity/public/images/apps/1048600/6a0f0cc50a5e63e85052e2a08bba199c69554aee.jpg"
  },
  {
    "name": "Ach_TimedComplete",
    "defaultvalue": 0,
    "displayName": "One Minute to Midnight",
    "hidden": 0,
    "description": "Finished the game in under 90 minutes",
    "icon": "https://steamcdn-a.akamaihd.net/steamcommunity/public/images/apps/1048600/a73257a717bae5fdb51e3e9f49eb0039889dbb13.jpg",
    "icongray": "https://steamcdn-a.akamaihd.net/steamcommunity/public/images/apps/1048600/c770e56992b347edeaee041eb434c8f41c02f685.jpg"
  },
  {
    "name": "Ach_AllSecrets",
    "defaultvalue": 0,
    "displayName": "Last Rites",
    "hidden": 0,
    "description": "Collected all the secret flames",
    "icon": "https://steamcdn-a.akamaihd.net/steamcommunity/public/images/apps/1048600/4d7afef45cf30efc3710b6cd46d6f3c3bde06594.jpg",
    "icongray": "https://steamcdn-a.akamaihd.net/steamcommunity/public/images/apps/1048600/06823cb11ff22ce71ade21f9962725ba7e5cca2d.jpg"
  },
  {
    "name": "Ach_FirstSecret",
    "defaultvalue": 0,
    "displayName": "Rest in Peace",
    "hidden": 0,
    "description": "Discovered a secret",
    "icon": "https://steamcdn-a.akamaihd.net/steamcommunity/public/images/apps/1048600/ba70bcb60082b5c996151f65f52487827dd2f075.jpg",
    "icongray": "https://steamcdn-a.akamaihd.net/steamcommunity/public/images/apps/1048600/ca3df6848dc6c4a98078556bb8be3d0071143537.jpg"
  },
  {
    "name": "Ach_FiveSecrets",
    "defaultvalue": 0,
    "displayName": "Honor the Dead",
    "hidden": 0,
    "description": "Collected 5 secrets",
    "icon": "https://steamcdn-a.akamaihd.net/steamcommunity/public/images/apps/1048600/0d619937275ae102b12172d9a4c96991cd53d051.jpg",
    "icongray": "https://steamcdn-a.akamaihd.net/steamcommunity/public/images/apps/1048600/58e32a14bf0649d1f1b406cb59c63ad6c962e98e.jpg"
  },
  {
    "name": "Ach_TenSecrets",
    "defaultvalue": 0,
    "displayName": "Pray for the Dead",
    "hidden": 0,
    "description": "Collected 10 secrets",
    "icon": "https://steamcdn-a.akamaihd.net/steamcommunity/public/images/apps/1048600/947810188947d05c710a6f7da44a13e31c034243.jpg",
    "icongray": "https://steamcdn-a.akamaihd.net/steamcommunity/public/images/apps/1048600/b0670c2d631c805d6213250915836008cea4ece1.jpg"
  },
  {
    "name": "Ach_Beetles_NoDeath",
    "defaultvalue": 0,
    "displayName": "Don't Let The Bugs Bite",
    "hidden": 0,
    "description": "Escaped the farmhouse without dying.",
    "icon": "https://steamcdn-a.akamaihd.net/steamcommunity/public/images/apps/1048600/7546fe4e8a704cf93aca2f62721e2c9d60dceeaa.jpg",
    "icongray": "https://steamcdn-a.akamaihd.net/steamcommunity/public/images/apps/1048600/0c2c242f0b56e4dd3d1b3de3f287f96598fd6e3b.jpg"
  },
  {
    "name": "Ach_Forest_NoDeath",
    "defaultvalue": 0,
    "displayName": "A Shadow Among Shadows",
    "hidden": 0,
    "description": "Escaped the dark woods without dying.",
    "icon": "https://steamcdn-a.akamaihd.net/steamcommunity/public/images/apps/1048600/ff261f71083dfe753bb53be7684fcc4b737e4d15.jpg",
    "icongray": "https://steamcdn-a.akamaihd.net/steamcommunity/public/images/apps/1048600/bab3c7e637d50ca9f556a03c18da4228c28bcfe0.jpg"
  },
  {
    "name": "Ach_Arrows_NoDeath",
    "defaultvalue": 0,
    "displayName": "Fireproof",
    "hidden": 0,
    "description": "Crossed the battlefield without dying.",
    "icon": "https://steamcdn-a.akamaihd.net/steamcommunity/public/images/apps/1048600/dac15e486991914813d4eb3d13b83ef8c591e355.jpg",
    "icongray": "https://steamcdn-a.akamaihd.net/steamcommunity/public/images/apps/1048600/c276ae68385c6b218bee6451d7047ff7fc092f5b.jpg"
  },
  {
    "name": "Ach_Tentacle_NoDeath",
    "defaultvalue": 0,
    "displayName": "Untouchable",
    "hidden": 0,
    "description": "Escaped the abyss without dying.",
    "icon": "https://steamcdn-a.akamaihd.net/steamcommunity/public/images/apps/1048600/b859f3d630b44e788bf3c3164b62f492279cea2d.jpg",
    "icongray": "https://steamcdn-a.akamaihd.net/steamcommunity/public/images/apps/1048600/3b8ad407f6249221f0214e1a1e6e6f86eb330c4b.jpg"
  },
  {
    "name": "Ach_BurrowersNoDeath",
    "defaultvalue": 0,
    "displayName": "Can't Catch Me",
    "hidden": 0,
    "description": "Crossed the snowfields without dying.",
    "icon": "https://steamcdn-a.akamaihd.net/steamcommunity/public/images/apps/1048600/644c71f658f9c64ada05ae70521e5c84a8fb62cd.jpg",
    "icongray": "https://steamcdn-a.akamaihd.net/steamcommunity/public/images/apps/1048600/5dd53363d83eccd426f44ae9b62f0e705c86bba8.jpg"
  },
  {
    "name": "Ach_SwarmNoDeath",
    "defaultvalue": 0,
    "displayName": "Crossed the Streams",
    "hidden": 0,
    "description": "Avoided the dark swarm without dying.",
    "icon": "https://steamcdn-a.akamaihd.net/steamcommunity/public/images/apps/1048600/685eb38bb4fdb954eb95ce5ea3e5b5ced2e9e84d.jpg",
    "icongray": "https://steamcdn-a.akamaihd.net/steamcommunity/public/images/apps/1048600/3e904e811e56a1715c3665689fce40d4047623f4.jpg"
  },
  {
    "name": "Ach_FinaleBegin",
    "defaultvalue": 0,
    "displayName": "Beyond the Gate",
    "hidden": 1,
    "icon": "https://steamcdn-a.akamaihd.net/steamcommunity/public/images/apps/1048600/681378d00a012deee2da9de3b126e45ad0a2cb53.jpg",
    "icongray": "https://steamcdn-a.akamaihd.net/steamcommunity/public/images/apps/1048600/1ae26d56baa046571628cb4642ba1253f4136352.jpg"
  },
  {
    "name": "Ach_FinaleEnd",
    "defaultvalue": 0,
    "displayName": "I Am Become Death",
    "hidden": 1,
    "icon": "https://steamcdn-a.akamaihd.net/steamcommunity/public/images/apps/1048600/4389d51d9c7f25f1f6ad20dbb5f0a1b35872b90b.jpg",
    "icongray": "https://steamcdn-a.akamaihd.net/steamcommunity/public/images/apps/1048600/c001ab59deb65548abed5d5cb3a5af3d3ccb5faa.jpg"
  },
  {
    "name": "Ach_PostScene",
    "defaultvalue": 0,
    "displayName": "The Wheel Turns",
    "hidden": 1,
    "icon": "https://steamcdn-a.akamaihd.net/steamcommunity/public/images/apps/1048600/9db4bca5854b0498dfdf219ddf32893828cd6708.jpg",
    "icongray": "https://steamcdn-a.akamaihd.net/steamcommunity/public/images/apps/1048600/f7f7f155fa1f2189e54c5b3ad34e929234b545f6.jpg"
  }
]