﻿{
  "Dlcs": {},
  "Name": "Funanigans",
  "AppId": "1386330",
  "ImageUrl": "https://steamcdn-a.akamaihd.net/steam/apps/1386330/header.jpg?t=1600547430",
  "Languages": [
    "english"
  ],
  "Platforms": {
    "windows": true,
    "mac": true,
    "linux": true
  }
}