[
  {
    "name": "LEVEL_1_COMPLETED",
    "defaultvalue": 0,
    "displayName": "FIRST STEP",
    "hidden": 0,
    "description": "Completed first level!",
    "icon": "https://steamcdn-a.akamaihd.net/steamcommunity/public/images/apps/684170/e82b8fc0cd1c8d1138952b3cc7adc43f54c893b5.jpg",
    "icongray": "https://steamcdn-a.akamaihd.net/steamcommunity/public/images/apps/684170/40afc40c8a308595fec51c619f84dbd50e3cc5d3.jpg"
  },
  {
    "name": "ALL_LEVELS_COMPLETED",
    "defaultvalue": 0,
    "displayName": "COMPLETIONIST",
    "hidden": 0,
    "description": "All levels completed!",
    "icon": "https://steamcdn-a.akamaihd.net/steamcommunity/public/images/apps/684170/17076187001156fc8619c74092a9ac2d01227613.jpg",
    "icongray": "https://steamcdn-a.akamaihd.net/steamcommunity/public/images/apps/684170/947c8cbd2fbac237718f60ac565408c62aec352f.jpg"
  }
]