[
  {
    "name": "HasPlayedOnce",
    "defaultvalue": 0,
    "displayName": "Played Once?"
  },
  {
    "name": "TotalBirdies_TotalBirdies",
    "defaultvalue": 0,
    "displayName": "Total Birdies"
  },
  {
    "name": "TotalPars_TotalPars",
    "defaultvalue": 0,
    "displayName": "Total Pars"
  },
  {
    "name": "TotalAces_TotalAces",
    "defaultvalue": 0,
    "displayName": "Total Aces"
  },
  {
    "name": "TotalBogeys_TotalBogeys",
    "defaultvalue": 0,
    "displayName": "Total Bogeys"
  }
]