[
  {
    "name": "S_001",
    "defaultvalue": 0,
    "displayName": "Won Games"
  },
  {
    "name": "S_002",
    "defaultvalue": 0,
    "displayName": "Recruited Troops"
  },
  {
    "name": "S_003",
    "defaultvalue": 0,
    "displayName": "Built Cities"
  },
  {
    "name": "S_004",
    "defaultvalue": 0,
    "displayName": "Tiebreaks Wins"
  },
  {
    "name": "S_005",
    "defaultvalue": 0,
    "displayName": "Total Scored Points"
  },
  {
    "name": "S_006",
    "defaultvalue": 0,
    "displayName": "Wins in row"
  }
]