[
  {
    "name": "ACHIEVEMENT_DATA_1",
    "defaultvalue": 0,
    "displayName": "Welcome to New York"
  },
  {
    "name": "ACHIEVEMENT_DATA_2",
    "defaultvalue": 0,
    "displayName": "Forever"
  },
  {
    "name": "ACHIEVEMENT_DATA_3",
    "defaultvalue": 0,
    "displayName": "I'll Protect You"
  },
  {
    "name": "ACHIEVEMENT_DATA_4",
    "defaultvalue": 0,
    "displayName": "Precious To Me"
  },
  {
    "name": "ACHIEVEMENT_DATA_5",
    "defaultvalue": 0,
    "displayName": "I'm Yours"
  },
  {
    "name": "ACHIEVEMENT_DATA_6",
    "defaultvalue": 0,
    "displayName": "I'm Glad You're Alive"
  },
  {
    "name": "ACHIEVEMENT_DATA_7",
    "defaultvalue": 0,
    "displayName": "I'll Look After You"
  },
  {
    "name": "ACHIEVEMENT_DATA_8",
    "defaultvalue": 0,
    "displayName": "A Happy Future"
  },
  {
    "name": "ACHIEVEMENT_DATA_9",
    "defaultvalue": 0,
    "displayName": "It's Going To Be Okay"
  },
  {
    "name": "ACHIEVEMENT_DATA_10",
    "defaultvalue": 0,
    "displayName": "Lucky Guy"
  },
  {
    "name": "ACHIEVEMENT_DATA_11",
    "defaultvalue": 0,
    "displayName": "Strong Soul"
  },
  {
    "name": "ACHIEVEMENT_DATA_12",
    "defaultvalue": 0,
    "displayName": "Ending Master"
  },
  {
    "name": "ACHIEVEMENT_DATA_13",
    "defaultvalue": 0,
    "displayName": "Memories"
  },
  {
    "name": "ACHIEVEMENT_DATA_14",
    "defaultvalue": 0,
    "displayName": "Forever"
  },
  {
    "name": "ACHIEVEMENT_DATA_15",
    "defaultvalue": 0,
    "displayName": "I'll Protect You"
  },
  {
    "name": "ACHIEVEMENT_DATA_16",
    "defaultvalue": 0,
    "displayName": "Precious To Me"
  },
  {
    "name": "ACHIEVEMENT_DATA_17",
    "defaultvalue": 0,
    "displayName": "I'm Yours"
  },
  {
    "name": "ACHIEVEMENT_DATA_18",
    "defaultvalue": 0,
    "displayName": "I'm Glad You're Alive"
  },
  {
    "name": "ACHIEVEMENT_DATA_19",
    "defaultvalue": 0,
    "displayName": "I'll Look After You"
  }
]