{
  "Dlcs": {},
  "Name": "Volotic",
  "AppId": "807570",
  "ImageUrl": "https://steamcdn-a.akamaihd.net/steam/apps/807570/header.jpg?t=1520659337",
  "Languages": [
    "english"
  ],
  "Platforms": {
    "windows": true,
    "mac": false,
    "linux": false
  }
}