{
  "Dlcs": {},
  "Name": "Cosmodome",
  "AppId": "1305610",
  "ImageUrl": "https://steamcdn-a.akamaihd.net/steam/apps/1305610/header.jpg?t=1591132990",
  "Languages": [
    "english"
  ],
  "Platforms": {
    "windows": true,
    "mac": false,
    "linux": false
  }
}