[
  {
    "name": "ach_d0_series0_pf",
    "defaultvalue": 0,
    "displayName": "Puppy Trucker",
    "hidden": 0,
    "description": "Podium finish all races in Amateur Series 1 on Easy difficulty. ",
    "icon": "https://steamcdn-a.akamaihd.net/steamcommunity/public/images/apps/348570/40c403f72870b7d05edab09ffa2c0edf179c91b9.jpg",
    "icongray": "https://steamcdn-a.akamaihd.net/steamcommunity/public/images/apps/348570/443290f6b016efa0f73bbde220ad59bf8cb523d4.jpg"
  },
  {
    "name": "ach_d0_series1_pf",
    "defaultvalue": 0,
    "displayName": "Tenderfoot",
    "hidden": 0,
    "description": "Podium finish all races in Amateur Series 2 on Easy difficulty.",
    "icon": "https://steamcdn-a.akamaihd.net/steamcommunity/public/images/apps/348570/19bceb50c3e8d212bb4be143930c76325b3857eb.jpg",
    "icongray": "https://steamcdn-a.akamaihd.net/steamcommunity/public/images/apps/348570/4c44c503b43e83622a0f2e353098fbc309bd7528.jpg"
  },
  {
    "name": "ach_d0_series2_pf",
    "defaultvalue": 0,
    "displayName": "Greenhorn",
    "hidden": 0,
    "description": "Podium finish all races in Unreal Series 1 on Easy difficulty.",
    "icon": "https://steamcdn-a.akamaihd.net/steamcommunity/public/images/apps/348570/9e13af4a417867b5e116bc9ef34b08914b4a67b5.jpg",
    "icongray": "https://steamcdn-a.akamaihd.net/steamcommunity/public/images/apps/348570/7faa695069dac0d19d77b429e58ec3cb2d619a00.jpg"
  },
  {
    "name": "ach_d0_series3_pf",
    "defaultvalue": 0,
    "displayName": "Monster Novice",
    "hidden": 0,
    "description": "Podium finish all races in Unreal Series 2 on Easy difficulty.",
    "icon": "https://steamcdn-a.akamaihd.net/steamcommunity/public/images/apps/348570/3a828e9be207f8aed5b2067835ad49b87d0bb094.jpg",
    "icongray": "https://steamcdn-a.akamaihd.net/steamcommunity/public/images/apps/348570/2d2b7b8d2981ed3759a240d24626e47227bbbc68.jpg"
  },
  {
    "name": "ach_d0_series4_pf",
    "defaultvalue": 0,
    "displayName": "Apprentice Achiever",
    "hidden": 0,
    "description": "Podium finish all races in Pro Series 1 on Easy difficulty.",
    "icon": "https://steamcdn-a.akamaihd.net/steamcommunity/public/images/apps/348570/764cd17723808ea7ec693724ba5de76b456c6f43.jpg",
    "icongray": "https://steamcdn-a.akamaihd.net/steamcommunity/public/images/apps/348570/2f8a7343413fda7d7dbb67c5c733a50882cf3f50.jpg"
  },
  {
    "name": "ach_d0_series5_pf",
    "defaultvalue": 0,
    "displayName": "Dilettante Driver",
    "hidden": 0,
    "description": "Podium finish all races in Pro Series 2 on Easy difficulty.",
    "icon": "https://steamcdn-a.akamaihd.net/steamcommunity/public/images/apps/348570/1fa8b1012b6b7b803c4a8e8a20286dbdd7bf6c80.jpg",
    "icongray": "https://steamcdn-a.akamaihd.net/steamcommunity/public/images/apps/348570/89efb83d61d4b48c685ac03b33c3a75e579f0151.jpg"
  },
  {
    "name": "ach_d0_series6_pf",
    "defaultvalue": 0,
    "displayName": "Off-Road Rookie",
    "hidden": 0,
    "description": "Podium finish all races in Unreal Series 3 on Easy difficulty.",
    "icon": "https://steamcdn-a.akamaihd.net/steamcommunity/public/images/apps/348570/7a7d4d4cdcc934bdbab940f74bfa362852d8ceaa.jpg",
    "icongray": "https://steamcdn-a.akamaihd.net/steamcommunity/public/images/apps/348570/4d41b99d4712b2db2b6d5393565ddf7da02b9a64.jpg"
  },
  {
    "name": "ach_d0_series7_pf",
    "defaultvalue": 0,
    "displayName": "Racing Recruit",
    "hidden": 0,
    "description": "Podium finish all races in Unreal Series 4 on Easy difficulty.",
    "icon": "https://steamcdn-a.akamaihd.net/steamcommunity/public/images/apps/348570/20d4a1cce752873ce8d91f5d1155a95a547209ed.jpg",
    "icongray": "https://steamcdn-a.akamaihd.net/steamcommunity/public/images/apps/348570/85dd48f1af7bfd7011452b75aea8dfe0c01b937d.jpg"
  },
  {
    "name": "ach_d0_series8_pf",
    "defaultvalue": 0,
    "displayName": "Actual Aspirant",
    "hidden": 0,
    "description": "Podium finish all races in Superstar Series on Easy difficulty.",
    "icon": "https://steamcdn-a.akamaihd.net/steamcommunity/public/images/apps/348570/5801421af2a98b7f1d54127f9480a7a72b431a96.jpg",
    "icongray": "https://steamcdn-a.akamaihd.net/steamcommunity/public/images/apps/348570/5b42d67253d5c7400f821c39fac93112e467549d.jpg"
  },
  {
    "name": "ach_d0_series9_pf",
    "defaultvalue": 0,
    "displayName": "Fledgling Leadfoot",
    "hidden": 0,
    "description": "Podium finish all races in Unreal Series 5 on Easy difficulty.",
    "icon": "https://steamcdn-a.akamaihd.net/steamcommunity/public/images/apps/348570/29075db8df62dc79d55a7a8ef8651f80fe0efab5.jpg",
    "icongray": "https://steamcdn-a.akamaihd.net/steamcommunity/public/images/apps/348570/7cedcc4af602305f1d7456647754e26e33b9debc.jpg"
  },
  {
    "name": "ach_d0_series0_win",
    "defaultvalue": 0,
    "displayName": "Splendid Sport",
    "hidden": 0,
    "description": "Win all races in Amateur Series 1 on Easy difficulty.",
    "icon": "https://steamcdn-a.akamaihd.net/steamcommunity/public/images/apps/348570/41d4ccf7bb7c993e826fba57e686fdc1e6fec132.jpg",
    "icongray": "https://steamcdn-a.akamaihd.net/steamcommunity/public/images/apps/348570/da930c923601c2aabbd98dcb5ea24c5155def0b9.jpg"
  },
  {
    "name": "ach_d0_series1_win",
    "defaultvalue": 0,
    "displayName": "Noble Efforts",
    "hidden": 0,
    "description": "Win all races in Amateur Series 2 on Easy difficulty.",
    "icon": "https://steamcdn-a.akamaihd.net/steamcommunity/public/images/apps/348570/b2a765de26e86dd219d5be70a0bf5995339dcb1c.jpg",
    "icongray": "https://steamcdn-a.akamaihd.net/steamcommunity/public/images/apps/348570/ef40a013fe207c655737b1af9e98e0d7d43bcc2d.jpg"
  },
  {
    "name": "ach_d0_series2_win",
    "defaultvalue": 0,
    "displayName": "Illustrious",
    "hidden": 0,
    "description": "Win all races in Unreal Series 1 on Easy difficulty.",
    "icon": "https://steamcdn-a.akamaihd.net/steamcommunity/public/images/apps/348570/2d42f52cef2ac447e9aa32da45b6c7190c1ce220.jpg",
    "icongray": "https://steamcdn-a.akamaihd.net/steamcommunity/public/images/apps/348570/95bdee22570f21ea0913e87c08c4824717afe4e2.jpg"
  },
  {
    "name": "ach_d0_series3_win",
    "defaultvalue": 0,
    "displayName": "Remarkable Racer",
    "hidden": 0,
    "description": "Win all races in Unreal Series 2 on Easy difficulty.",
    "icon": "https://steamcdn-a.akamaihd.net/steamcommunity/public/images/apps/348570/49e6f2e5155eafe85c99c3be5177a9bf7562a451.jpg",
    "icongray": "https://steamcdn-a.akamaihd.net/steamcommunity/public/images/apps/348570/b334f0f19fa1ca99ae12b2eaf77b9e36b67460cf.jpg"
  },
  {
    "name": "ach_d0_series4_win",
    "defaultvalue": 0,
    "displayName": "Notable Competitor",
    "hidden": 0,
    "description": "Win all races in Pro Series 1 on Easy difficulty.",
    "icon": "https://steamcdn-a.akamaihd.net/steamcommunity/public/images/apps/348570/c7349077b6e0533a671b7ff8a50f5cf26c6cbe7b.jpg",
    "icongray": "https://steamcdn-a.akamaihd.net/steamcommunity/public/images/apps/348570/bd87d0e094a5a667847ecbe4a8059f3a52818928.jpg"
  },
  {
    "name": "ach_d0_series5_win",
    "defaultvalue": 0,
    "displayName": "Simply Sublime",
    "hidden": 0,
    "description": "Win all races in Pro Series 2 on Easy difficulty.",
    "icon": "https://steamcdn-a.akamaihd.net/steamcommunity/public/images/apps/348570/718681d63ff7ae500ffd2e700983150156f7303f.jpg",
    "icongray": "https://steamcdn-a.akamaihd.net/steamcommunity/public/images/apps/348570/f910232118c4d5e915b183bcaa81ae67301a9f21.jpg"
  },
  {
    "name": "ach_d0_series6_win",
    "defaultvalue": 0,
    "displayName": "Splendiferous",
    "hidden": 0,
    "description": "Win all races in Unreal Series 3 on Easy difficulty.",
    "icon": "https://steamcdn-a.akamaihd.net/steamcommunity/public/images/apps/348570/f0e79af098781ab3a75a63b45df13b942c5d7e7b.jpg",
    "icongray": "https://steamcdn-a.akamaihd.net/steamcommunity/public/images/apps/348570/671da2c39d60bfe950772c3138ed8087d9aaaa7e.jpg"
  },
  {
    "name": "ach_d0_series7_win",
    "defaultvalue": 0,
    "displayName": "Otherworldly",
    "hidden": 0,
    "description": "Win all races in Unreal Series 4 on Easy difficulty.",
    "icon": "https://steamcdn-a.akamaihd.net/steamcommunity/public/images/apps/348570/0c3d53230f39d08064d0eed8da778283557d98db.jpg",
    "icongray": "https://steamcdn-a.akamaihd.net/steamcommunity/public/images/apps/348570/4509de4fe5bf8a2fa4d431395514306179b75377.jpg"
  },
  {
    "name": "ach_d0_series8_win",
    "defaultvalue": 0,
    "displayName": "Special Superstar",
    "hidden": 0,
    "description": "Win all races in Superstar Series on Easy difficulty.",
    "icon": "https://steamcdn-a.akamaihd.net/steamcommunity/public/images/apps/348570/99937d674d7463f2a3f86a195d1a6bd9933401cc.jpg",
    "icongray": "https://steamcdn-a.akamaihd.net/steamcommunity/public/images/apps/348570/af2950cd9e6577c0eb10b6621752bd9b7f9a97a6.jpg"
  },
  {
    "name": "ach_d0_series9_win",
    "defaultvalue": 0,
    "displayName": "Transcendental",
    "hidden": 0,
    "description": "Win all races in Unreal Series 5 on Easy difficulty.",
    "icon": "https://steamcdn-a.akamaihd.net/steamcommunity/public/images/apps/348570/5114ba54ffefe26fb14a0dd1bf900cca7f4c3dca.jpg",
    "icongray": "https://steamcdn-a.akamaihd.net/steamcommunity/public/images/apps/348570/66402573afec2471c07ddcf949e75d4ce4f35874.jpg"
  },
  {
    "name": "ach_d1_series0_pf",
    "defaultvalue": 0,
    "displayName": "Maybe a Player",
    "hidden": 0,
    "description": "Podium finish all races in Amateur Series 1 on Normal difficulty.",
    "icon": "https://steamcdn-a.akamaihd.net/steamcommunity/public/images/apps/348570/835cd57d9654a52f3c832ce634d7cec53f492c91.jpg",
    "icongray": "https://steamcdn-a.akamaihd.net/steamcommunity/public/images/apps/348570/6df91d42f3878d6b6756138d8b599f542878df36.jpg"
  },
  {
    "name": "ach_d1_series1_pf",
    "defaultvalue": 0,
    "displayName": "Hopeful Bidder",
    "hidden": 0,
    "description": "Podium finish all races in Amateur Series 2 on Normal difficulty.",
    "icon": "https://steamcdn-a.akamaihd.net/steamcommunity/public/images/apps/348570/e429f59747899b35f4922014760d066ff1188ef0.jpg",
    "icongray": "https://steamcdn-a.akamaihd.net/steamcommunity/public/images/apps/348570/cce8a5a0818e56cdfa8f1c993e145b844a135a29.jpg"
  },
  {
    "name": "ach_d1_series2_pf",
    "defaultvalue": 0,
    "displayName": "Nascent Nominee",
    "hidden": 0,
    "description": "Podium finish all races in Unreal Series 1 on Normal difficulty.",
    "icon": "https://steamcdn-a.akamaihd.net/steamcommunity/public/images/apps/348570/dd83ab5aa1c49cf14011451e1960d6ff15e1f987.jpg",
    "icongray": "https://steamcdn-a.akamaihd.net/steamcommunity/public/images/apps/348570/20f1e8c2d6256aa28bfdb68588d93ea2e0ecb41b.jpg"
  },
  {
    "name": "ach_d1_series3_pf",
    "defaultvalue": 0,
    "displayName": "Aspiring Assailant",
    "hidden": 0,
    "description": "Podium finish all races in Unreal Series 2 on Normal difficulty.",
    "icon": "https://steamcdn-a.akamaihd.net/steamcommunity/public/images/apps/348570/76e354fc412a0450c57fefb229f80bbcb38049c6.jpg",
    "icongray": "https://steamcdn-a.akamaihd.net/steamcommunity/public/images/apps/348570/66f5a70e609c3316e83c6f191b65d01eef72b1da.jpg"
  },
  {
    "name": "ach_d1_series4_pf",
    "defaultvalue": 0,
    "displayName": "Collected Contestant",
    "hidden": 0,
    "description": "Podium finish all races in Pro Series 1 on Normal difficulty.",
    "icon": "https://steamcdn-a.akamaihd.net/steamcommunity/public/images/apps/348570/eac086082a3c0fd32a0d320c511e12c7116ebd9c.jpg",
    "icongray": "https://steamcdn-a.akamaihd.net/steamcommunity/public/images/apps/348570/ad9bd3f93bd3c3407e808771c44cdabadcd7ecfd.jpg"
  },
  {
    "name": "ach_d1_series5_pf",
    "defaultvalue": 0,
    "displayName": "Semi-Solicitant",
    "hidden": 0,
    "description": "Podium finish all races in Pro Series 2 on Normal difficulty.",
    "icon": "https://steamcdn-a.akamaihd.net/steamcommunity/public/images/apps/348570/40f1425acf1f185489c1984337947e3d07de4e18.jpg",
    "icongray": "https://steamcdn-a.akamaihd.net/steamcommunity/public/images/apps/348570/16e6ed831f50873bc02752324fdfd4207fb069b9.jpg"
  },
  {
    "name": "ach_d1_series6_pf",
    "defaultvalue": 0,
    "displayName": "Moderate Monster",
    "hidden": 0,
    "description": "Podium finish all races in Unreal Series 3 on Normal difficulty.",
    "icon": "https://steamcdn-a.akamaihd.net/steamcommunity/public/images/apps/348570/f06c6d12a6dd887405ddd57e2dad477572ce2680.jpg",
    "icongray": "https://steamcdn-a.akamaihd.net/steamcommunity/public/images/apps/348570/90aff74f59fced302aaed0e56f6a8b90a0e8f573.jpg"
  },
  {
    "name": "ach_d1_series7_pf",
    "defaultvalue": 0,
    "displayName": "Reasonable Racer",
    "hidden": 0,
    "description": "Podium finish all races in Unreal Series 4 on Normal difficulty.",
    "icon": "https://steamcdn-a.akamaihd.net/steamcommunity/public/images/apps/348570/e0036c01b223db2127bb4ff9fa8bafe024cbf4b0.jpg",
    "icongray": "https://steamcdn-a.akamaihd.net/steamcommunity/public/images/apps/348570/c22d27d6b1e31019613a94fc0a728acf3b44ebc0.jpg"
  },
  {
    "name": "ach_d1_series8_pf",
    "defaultvalue": 0,
    "displayName": "Somewhat Substantial",
    "hidden": 0,
    "description": "Podium finish all races in Superstar Series on Normal difficulty.",
    "icon": "https://steamcdn-a.akamaihd.net/steamcommunity/public/images/apps/348570/a490ef6acbb51b1f5252b075bbbed07384a9f92f.jpg",
    "icongray": "https://steamcdn-a.akamaihd.net/steamcommunity/public/images/apps/348570/2d49c409301f7b9823da122a96d86cfed600be4a.jpg"
  },
  {
    "name": "ach_d1_series9_pf",
    "defaultvalue": 0,
    "displayName": "Intermediate Maestro",
    "hidden": 0,
    "description": "Podium finish all races in Unreal Series 5 on Normal difficulty.",
    "icon": "https://steamcdn-a.akamaihd.net/steamcommunity/public/images/apps/348570/cebb2eeb436ea8dd0bce05f52ac3f75f279ff1aa.jpg",
    "icongray": "https://steamcdn-a.akamaihd.net/steamcommunity/public/images/apps/348570/7c522d51ceb5338620f5a8bb70d973df0fa70a61.jpg"
  },
  {
    "name": "ach_d1_series0_win",
    "defaultvalue": 0,
    "displayName": "Ostensibly Outstanding",
    "hidden": 0,
    "description": "Win all races in Amateur Series 1 on Normal difficulty.",
    "icon": "https://steamcdn-a.akamaihd.net/steamcommunity/public/images/apps/348570/a8cf1c060754ecc35e5256aff1189aa8368af1e8.jpg",
    "icongray": "https://steamcdn-a.akamaihd.net/steamcommunity/public/images/apps/348570/ed25b341604d1adb832d4c1fc55c8250a0085693.jpg"
  },
  {
    "name": "ach_d1_series1_win",
    "defaultvalue": 0,
    "displayName": "Choice Challenger",
    "hidden": 0,
    "description": "Win all races in Amateur Series 2 on Normal difficulty.",
    "icon": "https://steamcdn-a.akamaihd.net/steamcommunity/public/images/apps/348570/42ed04201c8fcb5f28d410095cee8880e1a1da4e.jpg",
    "icongray": "https://steamcdn-a.akamaihd.net/steamcommunity/public/images/apps/348570/f25d0fc5ae1ca009e93a3dd3b17cd055845abd10.jpg"
  },
  {
    "name": "ach_d1_series2_win",
    "defaultvalue": 0,
    "displayName": "Fabulous Force",
    "hidden": 0,
    "description": "Win all races in Unreal Series 1 on Normal difficulty.",
    "icon": "https://steamcdn-a.akamaihd.net/steamcommunity/public/images/apps/348570/a6cd385dfbb92022132b59828905039d96dbbbdc.jpg",
    "icongray": "https://steamcdn-a.akamaihd.net/steamcommunity/public/images/apps/348570/1e6ad67c4e32cfe9544261a700f2d343f5ede933.jpg"
  },
  {
    "name": "ach_d1_series3_win",
    "defaultvalue": 0,
    "displayName": "Abstruse Antagonist",
    "hidden": 0,
    "description": "Win all races in Unreal Series 2 on Normal difficulty.",
    "icon": "https://steamcdn-a.akamaihd.net/steamcommunity/public/images/apps/348570/e874623a5c885ebbac665c65d6508d095b47c151.jpg",
    "icongray": "https://steamcdn-a.akamaihd.net/steamcommunity/public/images/apps/348570/ae81916773e44f4e63677a0bdb45e4c6e501e143.jpg"
  },
  {
    "name": "ach_d1_series4_win",
    "defaultvalue": 0,
    "displayName": "Chief Candidate",
    "hidden": 0,
    "description": "Win all races in Pro Series 1 on Normal difficulty.",
    "icon": "https://steamcdn-a.akamaihd.net/steamcommunity/public/images/apps/348570/cce353d41247c0f9438615c7cac9265eac667fd6.jpg",
    "icongray": "https://steamcdn-a.akamaihd.net/steamcommunity/public/images/apps/348570/da7f118f6a94a0f8505c59326dc242ea7e77c7da.jpg"
  },
  {
    "name": "ach_d1_series5_win",
    "defaultvalue": 0,
    "displayName": "Capital Contestant",
    "hidden": 0,
    "description": "Win all races in Pro Series 2 on Normal difficulty.",
    "icon": "https://steamcdn-a.akamaihd.net/steamcommunity/public/images/apps/348570/6636d16e595595f431466fb331dcf3a67cf12daa.jpg",
    "icongray": "https://steamcdn-a.akamaihd.net/steamcommunity/public/images/apps/348570/62934bba4b81315ba7c202ccb24a53ae8a3b40f6.jpg"
  },
  {
    "name": "ach_d1_series6_win",
    "defaultvalue": 0,
    "displayName": "Vaporous Vanquisher",
    "hidden": 0,
    "description": "Win all races in Unreal Series 3 on Normal difficulty.",
    "icon": "https://steamcdn-a.akamaihd.net/steamcommunity/public/images/apps/348570/3837085e425de39c3ad8c8b2f9d81640c52c7810.jpg",
    "icongray": "https://steamcdn-a.akamaihd.net/steamcommunity/public/images/apps/348570/c973ad58e90644f25c8c028ee34924dedc5cbe6f.jpg"
  },
  {
    "name": "ach_d1_series7_win",
    "defaultvalue": 0,
    "displayName": "Ultimately Ethereal",
    "hidden": 0,
    "description": "Win all races in Unreal Series 4 on Normal difficulty.",
    "icon": "https://steamcdn-a.akamaihd.net/steamcommunity/public/images/apps/348570/d5510e2a0ba075f90d97fae2bc4c51d7d09787f8.jpg",
    "icongray": "https://steamcdn-a.akamaihd.net/steamcommunity/public/images/apps/348570/43365c009e7fa2238ac1d6b0c0ca43dcdbf69114.jpg"
  },
  {
    "name": "ach_d1_series8_win",
    "defaultvalue": 0,
    "displayName": "Supernal Adversary",
    "hidden": 0,
    "description": "Win all races in Superstar Series on Normal difficulty.",
    "icon": "https://steamcdn-a.akamaihd.net/steamcommunity/public/images/apps/348570/f95c20bc9e2d03b5fe4f920df51c089daea047ee.jpg",
    "icongray": "https://steamcdn-a.akamaihd.net/steamcommunity/public/images/apps/348570/68d8ff35f8b584d266c050187cabce444e1e169c.jpg"
  },
  {
    "name": "ach_d1_series9_win",
    "defaultvalue": 0,
    "displayName": "Legendary Lapper",
    "hidden": 0,
    "description": "Win all races in Unreal Series 5 on Normal difficulty.",
    "icon": "https://steamcdn-a.akamaihd.net/steamcommunity/public/images/apps/348570/f5a7476020f08cea8ac4ed95fcf41bad892e1207.jpg",
    "icongray": "https://steamcdn-a.akamaihd.net/steamcommunity/public/images/apps/348570/ab02271db796d005eca975c846e57699c888c29d.jpg"
  },
  {
    "name": "ach_d2_series0_win",
    "defaultvalue": 0,
    "displayName": "Deft Speedster",
    "hidden": 0,
    "description": "Win all races in Amateur Series 1 on Hard difficulty.",
    "icon": "https://steamcdn-a.akamaihd.net/steamcommunity/public/images/apps/348570/2d21ef7f5b2fb9ae9787cd25014b9fb37b1d00a6.jpg",
    "icongray": "https://steamcdn-a.akamaihd.net/steamcommunity/public/images/apps/348570/efc85d8caabbe3e207d04681ac672bae89ddc8a8.jpg"
  },
  {
    "name": "ach_d2_series1_win",
    "defaultvalue": 0,
    "displayName": "Certified Cruiser",
    "hidden": 0,
    "description": "Win all races in Amateur Series 2 on Hard difficulty.",
    "icon": "https://steamcdn-a.akamaihd.net/steamcommunity/public/images/apps/348570/94f08ad1cc32c50b35c440970f7e80cf7bb85489.jpg",
    "icongray": "https://steamcdn-a.akamaihd.net/steamcommunity/public/images/apps/348570/67811ce4663fb47591418e70aae89c6e07fa303f.jpg"
  },
  {
    "name": "ach_d2_series2_win",
    "defaultvalue": 0,
    "displayName": "Supposititiously Slippery",
    "hidden": 0,
    "description": "Win all races in Unreal Series 1 on Hard difficulty.",
    "icon": "https://steamcdn-a.akamaihd.net/steamcommunity/public/images/apps/348570/c66cabeec46a9f68108ea894d2613c58c5170f30.jpg",
    "icongray": "https://steamcdn-a.akamaihd.net/steamcommunity/public/images/apps/348570/b38407edb625b63ddae173e9fa5cfab96100a874.jpg"
  },
  {
    "name": "ach_d2_series3_win",
    "defaultvalue": 0,
    "displayName": "Phantasmagoric",
    "hidden": 0,
    "description": "Win all races in Unreal Series 2 on Hard difficulty.",
    "icon": "https://steamcdn-a.akamaihd.net/steamcommunity/public/images/apps/348570/140ad83828da01e0613c0b087a6765a26b4899f2.jpg",
    "icongray": "https://steamcdn-a.akamaihd.net/steamcommunity/public/images/apps/348570/20ffdb5c2d6fa15f2f17f75d3a83097cc2240565.jpg"
  },
  {
    "name": "ach_d2_series4_win",
    "defaultvalue": 0,
    "displayName": "Wicked Warhorse",
    "hidden": 0,
    "description": "Win all races in Pro Series 1 on Hard difficulty.",
    "icon": "https://steamcdn-a.akamaihd.net/steamcommunity/public/images/apps/348570/4e15e063f849910331daf35100d17ec867b9bd6c.jpg",
    "icongray": "https://steamcdn-a.akamaihd.net/steamcommunity/public/images/apps/348570/46c123438ee1fcfedf6bd73fbac8703ca9b08d9e.jpg"
  },
  {
    "name": "ach_d2_series5_win",
    "defaultvalue": 0,
    "displayName": "Gleaming Gearhead",
    "hidden": 0,
    "description": "Win all races in Pro Series 2 on Hard difficulty.",
    "icon": "https://steamcdn-a.akamaihd.net/steamcommunity/public/images/apps/348570/faf5b635df7cddcdff49600dea6bbefa932f5d1b.jpg",
    "icongray": "https://steamcdn-a.akamaihd.net/steamcommunity/public/images/apps/348570/ed264ec719598d2bd3659d75dd9e15a143d159de.jpg"
  },
  {
    "name": "ach_d2_series6_win",
    "defaultvalue": 0,
    "displayName": "Ostensibly Nebulous",
    "hidden": 0,
    "description": "Win all races in Unreal Series 3 on Hard difficulty.",
    "icon": "https://steamcdn-a.akamaihd.net/steamcommunity/public/images/apps/348570/e64ac30482ecd18ce12a4675076db04e4de8fb65.jpg",
    "icongray": "https://steamcdn-a.akamaihd.net/steamcommunity/public/images/apps/348570/0e06c1a8f5bc822bfefdfcd57e9dfc8af24e3da5.jpg"
  },
  {
    "name": "ach_d2_series7_win",
    "defaultvalue": 0,
    "displayName": "Ultimately Unreal",
    "hidden": 0,
    "description": "Win all races in Unreal Series 4 on Hard difficulty.",
    "icon": "https://steamcdn-a.akamaihd.net/steamcommunity/public/images/apps/348570/b1316356366df0053a985f297897f7c1700b3fba.jpg",
    "icongray": "https://steamcdn-a.akamaihd.net/steamcommunity/public/images/apps/348570/23a3ad63f0a67b59a39be3191d916242a31ae52f.jpg"
  },
  {
    "name": "ach_d2_series8_win",
    "defaultvalue": 0,
    "displayName": "Super Duper Superstar",
    "hidden": 0,
    "description": "Win all races in Superstar Series on Hard difficulty.",
    "icon": "https://steamcdn-a.akamaihd.net/steamcommunity/public/images/apps/348570/e7f71ba982ea55820cdb302f85df3d62b6d75f0e.jpg",
    "icongray": "https://steamcdn-a.akamaihd.net/steamcommunity/public/images/apps/348570/24d5699b421f58f7a093c7aacbee784ab9e9a49d.jpg"
  },
  {
    "name": "ach_d2_series9_win",
    "defaultvalue": 0,
    "displayName": "Chimerical Champion",
    "hidden": 0,
    "description": "Win all races in Unreal Series 5 on Hard difficulty.",
    "icon": "https://steamcdn-a.akamaihd.net/steamcommunity/public/images/apps/348570/c85dea0c3c9d6d57ad8d1f9e9867f3d362bdb6a5.jpg",
    "icongray": "https://steamcdn-a.akamaihd.net/steamcommunity/public/images/apps/348570/8d426ba3f34810082567046647cf3c441fc82b7f.jpg"
  },
  {
    "name": "ach_win_count_10",
    "defaultvalue": 0,
    "displayName": "Up-n-Coming Star",
    "hidden": 0,
    "description": "Win 10 races.",
    "icon": "https://steamcdn-a.akamaihd.net/steamcommunity/public/images/apps/348570/bd13339f144360c89d7579771012010406d8f884.jpg",
    "icongray": "https://steamcdn-a.akamaihd.net/steamcommunity/public/images/apps/348570/8a2a9744541fbfef358dfbf9591d69dd0d200f30.jpg"
  },
  {
    "name": "ach_win_count_25",
    "defaultvalue": 0,
    "displayName": "Work That Nitrous",
    "hidden": 0,
    "description": "Win 25 races.",
    "icon": "https://steamcdn-a.akamaihd.net/steamcommunity/public/images/apps/348570/392ad909c03b49032d8d228d276454d0f7734817.jpg",
    "icongray": "https://steamcdn-a.akamaihd.net/steamcommunity/public/images/apps/348570/5d612e5a509db5d7eb98340cf2b8fb0a8b9eef0e.jpg"
  },
  {
    "name": "ach_win_count_100",
    "defaultvalue": 0,
    "displayName": "YOU WILL LOSE!",
    "hidden": 0,
    "description": "Win 100 races.",
    "icon": "https://steamcdn-a.akamaihd.net/steamcommunity/public/images/apps/348570/f706943b9ecad377b7ab60b4a40192a78dfb676d.jpg",
    "icongray": "https://steamcdn-a.akamaihd.net/steamcommunity/public/images/apps/348570/ccdbd98aec41200ec764574a3099701640d8ab76.jpg"
  },
  {
    "name": "ach_arcade_complete_d1",
    "defaultvalue": 0,
    "displayName": "Phew I Did It!",
    "hidden": 0,
    "description": "Complete Arcade mode on Normal difficulty.",
    "icon": "https://steamcdn-a.akamaihd.net/steamcommunity/public/images/apps/348570/64278362cbff61b71aac201bfda7935d811a6ef3.jpg",
    "icongray": "https://steamcdn-a.akamaihd.net/steamcommunity/public/images/apps/348570/8ca58b90f88a283be7a861d7266ebe4cd9049543.jpg"
  },
  {
    "name": "ach_arcade_complete_d2",
    "defaultvalue": 0,
    "displayName": "Arcadus Maximus",
    "hidden": 0,
    "description": "Complete Arcade mode on Hard difficulty.",
    "icon": "https://steamcdn-a.akamaihd.net/steamcommunity/public/images/apps/348570/658e2f4a526d15980a4a02b87fe004ba3f7994ba.jpg",
    "icongray": "https://steamcdn-a.akamaihd.net/steamcommunity/public/images/apps/348570/ea99e0f5378cc19bf21ff59244ed1c36a7c8efd0.jpg"
  },
  {
    "name": "ach_competition_complete_d1",
    "defaultvalue": 0,
    "displayName": "Put Your Money Where Your Mouth Is",
    "hidden": 0,
    "description": "Complete Competition mode on Normal difficulty.",
    "icon": "https://steamcdn-a.akamaihd.net/steamcommunity/public/images/apps/348570/7844c06fdc1fadd12644e5390fbbc01c75d00ff0.jpg",
    "icongray": "https://steamcdn-a.akamaihd.net/steamcommunity/public/images/apps/348570/42338616cb4aa1a3e020a8ab0312110f4dcd09bc.jpg"
  },
  {
    "name": "ach_competition_complete_d2",
    "defaultvalue": 0,
    "displayName": "THERE CAN BE ONLY ONE",
    "hidden": 0,
    "description": "Complete Competition mode on Hard difficulty.",
    "icon": "https://steamcdn-a.akamaihd.net/steamcommunity/public/images/apps/348570/f40eb73d81e765d314b3b62c2e9d094b21153d72.jpg",
    "icongray": "https://steamcdn-a.akamaihd.net/steamcommunity/public/images/apps/348570/2c00d0f4a4213ec2470dc40c653f1172a7cb14c0.jpg"
  },
  {
    "name": "ach_clean_lap_count_10",
    "defaultvalue": 0,
    "displayName": "Housekeeper",
    "hidden": 0,
    "description": "Complete 10 clean laps.",
    "icon": "https://steamcdn-a.akamaihd.net/steamcommunity/public/images/apps/348570/6c9a4ef0d95546763250fc715ccf00eb8d085cac.jpg",
    "icongray": "https://steamcdn-a.akamaihd.net/steamcommunity/public/images/apps/348570/99512c0dcc370a67137d98a7672ffbe29bababea.jpg"
  },
  {
    "name": "ach_clean_lap_count_25",
    "defaultvalue": 0,
    "displayName": "Dust Buster",
    "hidden": 0,
    "description": "Complete 25 clean laps.",
    "icon": "https://steamcdn-a.akamaihd.net/steamcommunity/public/images/apps/348570/734e240a47f82c338ca13c1e3a762138e40386cd.jpg",
    "icongray": "https://steamcdn-a.akamaihd.net/steamcommunity/public/images/apps/348570/5e83ba576465fee87447eb46ec8aa2db3402f819.jpg"
  },
  {
    "name": "ach_clean_lap_count_100",
    "defaultvalue": 0,
    "displayName": "Clean Fanatic",
    "hidden": 0,
    "description": "Complete 100 clean laps.",
    "icon": "https://steamcdn-a.akamaihd.net/steamcommunity/public/images/apps/348570/a606cadc5cfa7e91494d886acaa87e9b81830144.jpg",
    "icongray": "https://steamcdn-a.akamaihd.net/steamcommunity/public/images/apps/348570/c3308280c4770c33e8b36bd3c3a8289efbbe1157.jpg"
  },
  {
    "name": "ach_clean_lap_count_300",
    "defaultvalue": 0,
    "displayName": "Germaphobe",
    "hidden": 0,
    "description": "Complete 300 clean laps.",
    "icon": "https://steamcdn-a.akamaihd.net/steamcommunity/public/images/apps/348570/d40a81f36df9df3c00c997b779bd0c56fa1e1cf4.jpg",
    "icongray": "https://steamcdn-a.akamaihd.net/steamcommunity/public/images/apps/348570/59e19e82f719a5775caae8509ca2ceabb78740e0.jpg"
  },
  {
    "name": "ach_bully_count_10",
    "defaultvalue": 0,
    "displayName": "Rubbin' Is Racing",
    "hidden": 0,
    "description": "10 Bully Truck incidents.",
    "icon": "https://steamcdn-a.akamaihd.net/steamcommunity/public/images/apps/348570/37eb868b84ed1db4545f417b2961b27e45175959.jpg",
    "icongray": "https://steamcdn-a.akamaihd.net/steamcommunity/public/images/apps/348570/e851496f91e506a2a7c325f248d5b088037fcf4d.jpg"
  },
  {
    "name": "ach_bully_count_50",
    "defaultvalue": 0,
    "displayName": "Playground Bully",
    "hidden": 0,
    "description": "50 Bully Truck incidents.",
    "icon": "https://steamcdn-a.akamaihd.net/steamcommunity/public/images/apps/348570/89f2f8a1424e608c538b87cd8351c3ff839eeecb.jpg",
    "icongray": "https://steamcdn-a.akamaihd.net/steamcommunity/public/images/apps/348570/ece184bf6f6aec55e63cdd33b8af5d6b4007ba1f.jpg"
  },
  {
    "name": "ach_bully_count_250",
    "defaultvalue": 0,
    "displayName": "Problem Child",
    "hidden": 0,
    "description": "250 Bully Truck incidents.",
    "icon": "https://steamcdn-a.akamaihd.net/steamcommunity/public/images/apps/348570/cbba5a1b051ab30024a3ac4b85e3be722755e0f6.jpg",
    "icongray": "https://steamcdn-a.akamaihd.net/steamcommunity/public/images/apps/348570/e54572adc4714b3446d2bf67d4fbe2ee005320ca.jpg"
  },
  {
    "name": "ach_bully_count_500",
    "defaultvalue": 0,
    "displayName": "I Know No Rules",
    "hidden": 0,
    "description": "500 Bully Truck incidents.",
    "icon": "https://steamcdn-a.akamaihd.net/steamcommunity/public/images/apps/348570/0a8abdd422f05452b68350a5966df5c901fc32f0.jpg",
    "icongray": "https://steamcdn-a.akamaihd.net/steamcommunity/public/images/apps/348570/b2b3d792aaf1b0b45065315280caeffd952e4200.jpg"
  },
  {
    "name": "ach_mph_1",
    "defaultvalue": 0,
    "displayName": "Pedal To The Metal",
    "hidden": 0,
    "description": "Reach 160 mph.",
    "icon": "https://steamcdn-a.akamaihd.net/steamcommunity/public/images/apps/348570/4741da5b7c56225b4d3b6a047c9558a0d73637a3.jpg",
    "icongray": "https://steamcdn-a.akamaihd.net/steamcommunity/public/images/apps/348570/4062461851cf5d0a0806416eee149c4d84fab7e1.jpg"
  },
  {
    "name": "ach_mph_2",
    "defaultvalue": 0,
    "displayName": "Lead Foot",
    "hidden": 0,
    "description": "Reach 190 mph.",
    "icon": "https://steamcdn-a.akamaihd.net/steamcommunity/public/images/apps/348570/c0c64fb9fb9dd3121bf6f7b8a7a435090ccea709.jpg",
    "icongray": "https://steamcdn-a.akamaihd.net/steamcommunity/public/images/apps/348570/a4d1d7478ac6b461e50276cee509c6f47c96778a.jpg"
  },
  {
    "name": "ach_mph_3",
    "defaultvalue": 0,
    "displayName": "Speed Demon",
    "hidden": 0,
    "description": "Reach 220 mph.",
    "icon": "https://steamcdn-a.akamaihd.net/steamcommunity/public/images/apps/348570/86f60eee2007d35bafc10d66305ad3e1914d05d0.jpg",
    "icongray": "https://steamcdn-a.akamaihd.net/steamcommunity/public/images/apps/348570/cafe30fb47939740d664893730736b77d64036d7.jpg"
  },
  {
    "name": "ach_led_lap_count_10",
    "defaultvalue": 0,
    "displayName": "Out In Front",
    "hidden": 0,
    "description": "Lead 10 laps.",
    "icon": "https://steamcdn-a.akamaihd.net/steamcommunity/public/images/apps/348570/0842420a5b27feb03cbb043d39434c2f494cbeac.jpg",
    "icongray": "https://steamcdn-a.akamaihd.net/steamcommunity/public/images/apps/348570/72df353ba527493f86dcb8bee97e24621e193104.jpg"
  },
  {
    "name": "ach_led_lap_count_25",
    "defaultvalue": 0,
    "displayName": "See You In My Rear View",
    "hidden": 0,
    "description": "Lead 25 laps.",
    "icon": "https://steamcdn-a.akamaihd.net/steamcommunity/public/images/apps/348570/d5e27f3c3dc6d0d37f79500093107e91a317512b.jpg",
    "icongray": "https://steamcdn-a.akamaihd.net/steamcommunity/public/images/apps/348570/c68e3dd1d55e9af8c27598aa8e847b79011090d7.jpg"
  },
  {
    "name": "ach_led_lap_count_100",
    "defaultvalue": 0,
    "displayName": "Eat My Dust",
    "hidden": 0,
    "description": "Lead 100 laps.",
    "icon": "https://steamcdn-a.akamaihd.net/steamcommunity/public/images/apps/348570/09f4d90d9e8ca9d29999bfb16bba0e0452544985.jpg",
    "icongray": "https://steamcdn-a.akamaihd.net/steamcommunity/public/images/apps/348570/64888c75ae7309bd0ab6c67b9034170314c9fac9.jpg"
  },
  {
    "name": "ach_led_lap_count_300",
    "defaultvalue": 0,
    "displayName": "Just Try And Catch Me",
    "hidden": 0,
    "description": "Lead 300 laps.",
    "icon": "https://steamcdn-a.akamaihd.net/steamcommunity/public/images/apps/348570/fcf0be7f1bba5caa48de40a88e07a04b8604c737.jpg",
    "icongray": "https://steamcdn-a.akamaihd.net/steamcommunity/public/images/apps/348570/b6529fcd14c4a2c417b385ab5dc37dd406a9792a.jpg"
  },
  {
    "name": "ach_win_by_1",
    "defaultvalue": 0,
    "displayName": "You ALMOST Had Me... NOT!",
    "hidden": 0,
    "description": "Win a race with more than a 5 second lead on Normal or Hard difficulty.",
    "icon": "https://steamcdn-a.akamaihd.net/steamcommunity/public/images/apps/348570/f31c06433381f76664e6162c30703b23ebf4ab49.jpg",
    "icongray": "https://steamcdn-a.akamaihd.net/steamcommunity/public/images/apps/348570/1a3ffc70012ba1fcb11a956c19d0bebeda1081fd.jpg"
  },
  {
    "name": "ach_win_by_2",
    "defaultvalue": 0,
    "displayName": "You ARE Gonna Finish, Right?",
    "hidden": 0,
    "description": "Win a race with more than a 10 second lead on Normal or Hard difficulty.",
    "icon": "https://steamcdn-a.akamaihd.net/steamcommunity/public/images/apps/348570/fac6d5cb030c2b121efef0c1b3f686d1db26ab93.jpg",
    "icongray": "https://steamcdn-a.akamaihd.net/steamcommunity/public/images/apps/348570/162fe92bcd2bc322b670fac519bbf43608215b11.jpg"
  },
  {
    "name": "ach_win_by_3",
    "defaultvalue": 0,
    "displayName": "I'll Leave The Light On For Ya",
    "hidden": 0,
    "description": "Win a race with more than a 20 second lead on Normal or Hard difficulty.",
    "icon": "https://steamcdn-a.akamaihd.net/steamcommunity/public/images/apps/348570/511cfd23fa5631d1294e308b850b00d3c678522f.jpg",
    "icongray": "https://steamcdn-a.akamaihd.net/steamcommunity/public/images/apps/348570/a5af96fed9bac9f536bda2a386f3a082a4af1bb1.jpg"
  }
]