[
  {
    "name": "Auto_FirstBlood",
    "defaultvalue": 0,
    "displayName": "First Blood",
    "hidden": 0,
    "description": "First Blood",
    "icon": "https://steamcdn-a.akamaihd.net/steamcommunity/public/images/apps/908270/685321366b64ff863556966cbc658d544ef48b59.jpg",
    "icongray": "https://steamcdn-a.akamaihd.net/steamcommunity/public/images/apps/908270/792d90bc3e7ec6a1e7e01d80ccc41c27af7c8292.jpg"
  },
  {
    "name": "HeroKiller",
    "defaultvalue": 0,
    "displayName": "Hero Killer!",
    "hidden": 0,
    "description": "Hero Killer!",
    "icon": "https://steamcdn-a.akamaihd.net/steamcommunity/public/images/apps/908270/6215f4985f82a64947393cd181debea5a9186acc.jpg",
    "icongray": "https://steamcdn-a.akamaihd.net/steamcommunity/public/images/apps/908270/28a560487436c487135557bf92e2ece60a51bab2.jpg"
  },
  {
    "name": "MageKiller",
    "defaultvalue": 0,
    "displayName": "Mage Killer!",
    "hidden": 0,
    "description": "Mage Killer!",
    "icon": "https://steamcdn-a.akamaihd.net/steamcommunity/public/images/apps/908270/6d319f8dc5bf7891de4f870a4c72e00e48f440bb.jpg",
    "icongray": "https://steamcdn-a.akamaihd.net/steamcommunity/public/images/apps/908270/6ca5ae2aa2c46134fddc02d898d71ca1aa702353.jpg"
  },
  {
    "name": "TotalKill",
    "defaultvalue": 0,
    "displayName": "Kill more & more",
    "hidden": 0,
    "description": "Kill more & more",
    "icon": "https://steamcdn-a.akamaihd.net/steamcommunity/public/images/apps/908270/e5b97c72ec239cc7aaf90118f69fd6556ad1f072.jpg",
    "icongray": "https://steamcdn-a.akamaihd.net/steamcommunity/public/images/apps/908270/761817ce1cd4beae396dffdac65a13f06151e5b4.jpg"
  },
  {
    "name": "ItemCollector",
    "defaultvalue": 0,
    "displayName": "Collector",
    "hidden": 0,
    "description": "You are such a collector!",
    "icon": "https://steamcdn-a.akamaihd.net/steamcommunity/public/images/apps/908270/4b60b8da4bce8d98d412b9f50b8b2cc4970fa0ae.jpg",
    "icongray": "https://steamcdn-a.akamaihd.net/steamcommunity/public/images/apps/908270/c109d9b996afcb7ea59c94b6f2638d7cec91c195.jpg"
  },
  {
    "name": "Auto_GoodGamer_44",
    "defaultvalue": 0,
    "displayName": "Cool Player",
    "hidden": 0,
    "description": "You have played so much times.",
    "icon": "https://steamcdn-a.akamaihd.net/steamcommunity/public/images/apps/908270/81807ef056dc89e1946d25aceef4a02a03f19de8.jpg",
    "icongray": "https://steamcdn-a.akamaihd.net/steamcommunity/public/images/apps/908270/31629a233d35f743201de7829133e11fee86724e.jpg"
  },
  {
    "name": "Auto_Pacificist_19",
    "defaultvalue": 0,
    "displayName": "Pacificist",
    "hidden": 0,
    "description": "How ???",
    "icon": "https://steamcdn-a.akamaihd.net/steamcommunity/public/images/apps/908270/7377fdc4dc21312f0292c1c671d9e359c65ef16e.jpg",
    "icongray": "https://steamcdn-a.akamaihd.net/steamcommunity/public/images/apps/908270/0d18be76a092a84b7679c435720b24787a883034.jpg"
  },
  {
    "name": "Auto_MapCreator",
    "defaultvalue": 0,
    "displayName": "Creator",
    "hidden": 0,
    "description": "You create a map!",
    "icon": "https://steamcdn-a.akamaihd.net/steamcommunity/public/images/apps/908270/a010c764500eafb94c8221a27787be6f42e7f579.jpg",
    "icongray": "https://steamcdn-a.akamaihd.net/steamcommunity/public/images/apps/908270/f1f040b7a4558fe164c6cb07606a757f783f98ab.jpg"
  },
  {
    "name": "MapEngineer",
    "defaultvalue": 0,
    "displayName": "Game Designer",
    "hidden": 0,
    "description": "Wow... Welcome to workshop",
    "icon": "https://steamcdn-a.akamaihd.net/steamcommunity/public/images/apps/908270/024926faf46c885235a8fbce5bff78c92549e4ce.jpg",
    "icongray": "https://steamcdn-a.akamaihd.net/steamcommunity/public/images/apps/908270/bb809f6816fd687fb7a71663f7c00a416732095f.jpg"
  },
  {
    "name": "Auto_DIY_Player",
    "defaultvalue": 0,
    "displayName": "DIY Player",
    "hidden": 0,
    "description": "Do it, play it",
    "icon": "https://steamcdn-a.akamaihd.net/steamcommunity/public/images/apps/908270/1061b67f4c399d91de280d257f9dae89661e8132.jpg",
    "icongray": "https://steamcdn-a.akamaihd.net/steamcommunity/public/images/apps/908270/8f21d7a828f3ea0ee2ada772dfb761942b4db630.jpg"
  },
  {
    "name": "DIY_Player",
    "defaultvalue": 0,
    "displayName": "Super DIY Player",
    "hidden": 1,
    "icon": "https://steamcdn-a.akamaihd.net/steamcommunity/public/images/apps/908270/d7cc6f5ee9432463a0e6afb71a110fd1cc4e516c.jpg",
    "icongray": "https://steamcdn-a.akamaihd.net/steamcommunity/public/images/apps/908270/2218582c50b5fa5d7b6f46406e79d8fc8d99b9f0.jpg"
  },
  {
    "name": "Cheater",
    "defaultvalue": 0,
    "displayName": "Jail Breaker",
    "hidden": 1,
    "icon": "https://steamcdn-a.akamaihd.net/steamcommunity/public/images/apps/908270/c261f1170a8e3a0a0206ef9f45338fb166f33314.jpg",
    "icongray": "https://steamcdn-a.akamaihd.net/steamcommunity/public/images/apps/908270/6011734f64cbc4e279ddaab21752a792bbd7de32.jpg"
  },
  {
    "name": "AlwaysDead",
    "defaultvalue": 0,
    "displayName": "I'm Death...",
    "hidden": 0,
    "description": "Slime died, again.",
    "icon": "https://steamcdn-a.akamaihd.net/steamcommunity/public/images/apps/908270/1ee6a1a1df467bdb22085cebee0e78338cf686a4.jpg",
    "icongray": "https://steamcdn-a.akamaihd.net/steamcommunity/public/images/apps/908270/814748b998c3b0d87035775ad69fbed0e82221c9.jpg"
  },
  {
    "name": "Auto_Coins_19",
    "defaultvalue": 0,
    "displayName": "Coin x19",
    "hidden": 0,
    "description": "Is that all you got?",
    "icon": "https://steamcdn-a.akamaihd.net/steamcommunity/public/images/apps/908270/b441cdf7328c11025fc6433dcc56b8812c884865.jpg",
    "icongray": "https://steamcdn-a.akamaihd.net/steamcommunity/public/images/apps/908270/af38395fbf9016315f70d0a0dc26c3788efed116.jpg"
  },
  {
    "name": "Auto_Coins_39",
    "defaultvalue": 0,
    "displayName": "Coin x39",
    "hidden": 0,
    "description": "Wow...",
    "icon": "https://steamcdn-a.akamaihd.net/steamcommunity/public/images/apps/908270/b441cdf7328c11025fc6433dcc56b8812c884865.jpg",
    "icongray": "https://steamcdn-a.akamaihd.net/steamcommunity/public/images/apps/908270/c611accc3727c72175d6026c5890f7e8d6716d57.jpg"
  },
  {
    "name": "Auto_Coins_99",
    "defaultvalue": 0,
    "displayName": "Coin x99",
    "hidden": 0,
    "description": "WOW!!! Greed is good!!!",
    "icon": "https://steamcdn-a.akamaihd.net/steamcommunity/public/images/apps/908270/b441cdf7328c11025fc6433dcc56b8812c884865.jpg",
    "icongray": "https://steamcdn-a.akamaihd.net/steamcommunity/public/images/apps/908270/c611accc3727c72175d6026c5890f7e8d6716d57.jpg"
  },
  {
    "name": "Auto_Coins_199",
    "defaultvalue": 0,
    "displayName": "So many coins",
    "hidden": 0,
    "description": "Emmm... You can get more!",
    "icon": "https://steamcdn-a.akamaihd.net/steamcommunity/public/images/apps/908270/b441cdf7328c11025fc6433dcc56b8812c884865.jpg",
    "icongray": "https://steamcdn-a.akamaihd.net/steamcommunity/public/images/apps/908270/af38395fbf9016315f70d0a0dc26c3788efed116.jpg"
  },
  {
    "name": "Auto_Coins_399",
    "defaultvalue": 0,
    "displayName": "Millionaire",
    "hidden": 0,
    "description": "Bravo!!! You got too much coins!!!",
    "icon": "https://steamcdn-a.akamaihd.net/steamcommunity/public/images/apps/908270/b441cdf7328c11025fc6433dcc56b8812c884865.jpg",
    "icongray": "https://steamcdn-a.akamaihd.net/steamcommunity/public/images/apps/908270/af38395fbf9016315f70d0a0dc26c3788efed116.jpg"
  },
  {
    "name": "CoinsTotal",
    "defaultvalue": 0,
    "displayName": "Coins Collector",
    "hidden": 0,
    "description": "You got some coins.",
    "icon": "https://steamcdn-a.akamaihd.net/steamcommunity/public/images/apps/908270/b441cdf7328c11025fc6433dcc56b8812c884865.jpg",
    "icongray": "https://steamcdn-a.akamaihd.net/steamcommunity/public/images/apps/908270/af38395fbf9016315f70d0a0dc26c3788efed116.jpg"
  },
  {
    "name": "Auto_Meats_10",
    "defaultvalue": 0,
    "displayName": "Food x10",
    "hidden": 0,
    "description": "You have got some food.",
    "icon": "https://steamcdn-a.akamaihd.net/steamcommunity/public/images/apps/908270/8b792b3871cb9bde8c57a762121cf5e8a0c2c674.jpg",
    "icongray": "https://steamcdn-a.akamaihd.net/steamcommunity/public/images/apps/908270/81297174e0117393af44ceecd135ffd6e6c0be97.jpg"
  },
  {
    "name": "Auto_Meats_25",
    "defaultvalue": 0,
    "displayName": "Food x25",
    "hidden": 0,
    "description": "Is that enough?",
    "icon": "https://steamcdn-a.akamaihd.net/steamcommunity/public/images/apps/908270/1782f00716ad9f6a5274f68ec7c23593537194b3.jpg",
    "icongray": "https://steamcdn-a.akamaihd.net/steamcommunity/public/images/apps/908270/81297174e0117393af44ceecd135ffd6e6c0be97.jpg"
  },
  {
    "name": "Auto_Meats_50",
    "defaultvalue": 0,
    "displayName": "Meat, meat, I love drumsticks!",
    "hidden": 0,
    "description": "Wow... I love drumstick",
    "icon": "https://steamcdn-a.akamaihd.net/steamcommunity/public/images/apps/908270/8b792b3871cb9bde8c57a762121cf5e8a0c2c674.jpg",
    "icongray": "https://steamcdn-a.akamaihd.net/steamcommunity/public/images/apps/908270/81297174e0117393af44ceecd135ffd6e6c0be97.jpg"
  },
  {
    "name": "Auto_Meats_99",
    "defaultvalue": 0,
    "displayName": "Food Merchant",
    "hidden": 0,
    "description": "You got so many food!!!",
    "icon": "https://steamcdn-a.akamaihd.net/steamcommunity/public/images/apps/908270/8b792b3871cb9bde8c57a762121cf5e8a0c2c674.jpg",
    "icongray": "https://steamcdn-a.akamaihd.net/steamcommunity/public/images/apps/908270/81297174e0117393af44ceecd135ffd6e6c0be97.jpg"
  },
  {
    "name": "AdOverWatcher_49",
    "defaultvalue": 0,
    "displayName": "Ad watcher?",
    "hidden": 1,
    "icon": "https://steamcdn-a.akamaihd.net/steamcommunity/public/images/apps/908270/8b792b3871cb9bde8c57a762121cf5e8a0c2c674.jpg",
    "icongray": "https://steamcdn-a.akamaihd.net/steamcommunity/public/images/apps/908270/81297174e0117393af44ceecd135ffd6e6c0be97.jpg"
  },
  {
    "name": "HiddenScene",
    "defaultvalue": 0,
    "displayName": "Game Hidden",
    "hidden": 1,
    "icon": "https://steamcdn-a.akamaihd.net/steamcommunity/public/images/apps/908270/",
    "icongray": "https://steamcdn-a.akamaihd.net/steamcommunity/public/images/apps/908270/"
  },
  {
    "name": "SlimeKiller",
    "defaultvalue": 0,
    "displayName": "Slime Killer",
    "hidden": 1,
    "icon": "https://steamcdn-a.akamaihd.net/steamcommunity/public/images/apps/908270/",
    "icongray": "https://steamcdn-a.akamaihd.net/steamcommunity/public/images/apps/908270/"
  },
  {
    "name": "HeroLevelUp_10",
    "defaultvalue": 0,
    "displayName": "Level 10!",
    "hidden": 1,
    "icon": "https://steamcdn-a.akamaihd.net/steamcommunity/public/images/apps/908270/",
    "icongray": "https://steamcdn-a.akamaihd.net/steamcommunity/public/images/apps/908270/"
  },
  {
    "name": "HeroLevelUp_20",
    "defaultvalue": 0,
    "displayName": "Level 20!",
    "hidden": 1,
    "icon": "https://steamcdn-a.akamaihd.net/steamcommunity/public/images/apps/908270/",
    "icongray": "https://steamcdn-a.akamaihd.net/steamcommunity/public/images/apps/908270/"
  },
  {
    "name": "SuperHeroLevel_30",
    "defaultvalue": 0,
    "displayName": "Level 30!!!",
    "hidden": 1,
    "icon": "https://steamcdn-a.akamaihd.net/steamcommunity/public/images/apps/908270/",
    "icongray": "https://steamcdn-a.akamaihd.net/steamcommunity/public/images/apps/908270/"
  },
  {
    "name": "LevelFantastist",
    "defaultvalue": 0,
    "displayName": "Level up again & again & again",
    "hidden": 1,
    "icon": "https://steamcdn-a.akamaihd.net/steamcommunity/public/images/apps/908270/",
    "icongray": "https://steamcdn-a.akamaihd.net/steamcommunity/public/images/apps/908270/"
  },
  {
    "name": "KindHearted",
    "defaultvalue": 0,
    "displayName": "Kindhearted",
    "hidden": 1,
    "icon": "https://steamcdn-a.akamaihd.net/steamcommunity/public/images/apps/908270/",
    "icongray": "https://steamcdn-a.akamaihd.net/steamcommunity/public/images/apps/908270/"
  }
]