[
  {
    "name": "ac_01",
    "defaultvalue": 0,
    "displayName": "Lumberjack!",
    "hidden": 0,
    "description": "Obtain 100 Wood",
    "icon": "https://steamcdn-a.akamaihd.net/steamcommunity/public/images/apps/1353050/7e64455b39e18680b27fdee8c5e9ff80cb70b0a7.jpg",
    "icongray": "https://steamcdn-a.akamaihd.net/steamcommunity/public/images/apps/1353050/f40f7f66bffd3e612dfd7679f714fec97b9cef1c.jpg"
  },
  {
    "name": "ac_02",
    "defaultvalue": 0,
    "displayName": "Scouting",
    "hidden": 0,
    "description": "Obtain 50 Food",
    "icon": "https://steamcdn-a.akamaihd.net/steamcommunity/public/images/apps/1353050/2fa5826d2e8ebc0bd4f8bca3780651ad78fd710d.jpg",
    "icongray": "https://steamcdn-a.akamaihd.net/steamcommunity/public/images/apps/1353050/4cdb691cb02e44fada98614763496d0a22370790.jpg"
  },
  {
    "name": "ac_03",
    "defaultvalue": 0,
    "displayName": " ",
    "hidden": 0,
    "description": "Complete 10 Battles",
    "icon": "https://steamcdn-a.akamaihd.net/steamcommunity/public/images/apps/1353050/e50f78e139e36f71bd832ddd63ef5b7a22bcaa83.jpg",
    "icongray": "https://steamcdn-a.akamaihd.net/steamcommunity/public/images/apps/1353050/94357e5820895a6df050f7750e5e204335d813bc.jpg"
  },
  {
    "name": "ac_04",
    "defaultvalue": 0,
    "displayName": "Friend, or foe?",
    "hidden": 0,
    "description": "Speak to all Goddesses",
    "icon": "https://steamcdn-a.akamaihd.net/steamcommunity/public/images/apps/1353050/2ae5015374d2d4e0cf179327adb088d6aba40f40.jpg",
    "icongray": "https://steamcdn-a.akamaihd.net/steamcommunity/public/images/apps/1353050/c24b8777528403f17c98d70bf6c899a7022d81b1.jpg"
  },
  {
    "name": "ac_05",
    "defaultvalue": 0,
    "displayName": "The Neetathon Continues",
    "hidden": 0,
    "description": "Obtain a house!",
    "icon": "https://steamcdn-a.akamaihd.net/steamcommunity/public/images/apps/1353050/57bcd86561a6d0976573d5954588ba550cbd5a55.jpg",
    "icongray": "https://steamcdn-a.akamaihd.net/steamcommunity/public/images/apps/1353050/b0e61bc6ee8edec69d55fa230319912d469d2d75.jpg"
  },
  {
    "name": "ac_06",
    "defaultvalue": 0,
    "displayName": "David",
    "hidden": 0,
    "description": "Obtain 100 Stone",
    "icon": "https://steamcdn-a.akamaihd.net/steamcommunity/public/images/apps/1353050/3e824bde3d85db34d8f407c6efa1472380d172be.jpg",
    "icongray": "https://steamcdn-a.akamaihd.net/steamcommunity/public/images/apps/1353050/3a149e4cc5462ba34eb88ef6f1e29df274ba0c57.jpg"
  },
  {
    "name": "ac_07",
    "defaultvalue": 0,
    "displayName": "Sea of These",
    "hidden": 0,
    "description": "Ride in the boat!",
    "icon": "https://steamcdn-a.akamaihd.net/steamcommunity/public/images/apps/1353050/94b500ca12876d71e98d515a689b6275fe8abd07.jpg",
    "icongray": "https://steamcdn-a.akamaihd.net/steamcommunity/public/images/apps/1353050/f71c5e2bda78ef5a5b3fd2fee1c8f6241b5e272e.jpg"
  },
  {
    "name": "ac_08",
    "defaultvalue": 0,
    "displayName": "You're a hairy Wizard!",
    "hidden": 0,
    "description": "Unlock a spell",
    "icon": "https://steamcdn-a.akamaihd.net/steamcommunity/public/images/apps/1353050/12f986d51580e7deab879c90760ed3a2a27dfb6b.jpg",
    "icongray": "https://steamcdn-a.akamaihd.net/steamcommunity/public/images/apps/1353050/029ab91b7bc8feee50432919d59612e614b65348.jpg"
  },
  {
    "name": "ac_09",
    "defaultvalue": 0,
    "displayName": "Fisherman",
    "hidden": 0,
    "description": "Go fishing",
    "icon": "https://steamcdn-a.akamaihd.net/steamcommunity/public/images/apps/1353050/a6c2778bcfa3a4a11c7690f515f7869b07c72a86.jpg",
    "icongray": "https://steamcdn-a.akamaihd.net/steamcommunity/public/images/apps/1353050/ef7c6169b3dcd6a37263e06d44328baf2575d107.jpg"
  },
  {
    "name": "ac_10",
    "defaultvalue": 0,
    "displayName": "Surprise!",
    "hidden": 0,
    "description": "Find a Present",
    "icon": "https://steamcdn-a.akamaihd.net/steamcommunity/public/images/apps/1353050/1602b19223fcb6a08dc1620c7387a84d90eb8c83.jpg",
    "icongray": "https://steamcdn-a.akamaihd.net/steamcommunity/public/images/apps/1353050/148a36bdc321deb51fd4764d123c48141a26ef9b.jpg"
  }
]