{
  "Dlcs": {},
  "Name": "Wild Cats of Wasteland",
  "AppId": "1044460",
  "ImageUrl": "https://steamcdn-a.akamaihd.net/steam/apps/1044460/header.jpg?t=1580418245",
  "Languages": [
    "english"
  ],
  "Platforms": {
    "windows": true,
    "mac": false,
    "linux": false
  }
}