{
  "Dlcs": {},
  "Name": "HereticOS MR Lab",
  "AppId": "1300140",
  "ImageUrl": "https://steamcdn-a.akamaihd.net/steam/apps/1300140/header.jpg?t=1597354103",
  "Languages": [
    "schinese"
  ],
  "Platforms": {
    "windows": true,
    "mac": false,
    "linux": false
  }
}