{
  "Dlcs": {},
  "Name": "MUSCLE POWER",
  "AppId": "1270440",
  "ImageUrl": "https://steamcdn-a.akamaihd.net/steam/apps/1270440/header.jpg?t=1587120313",
  "Languages": [
    "english"
  ],
  "Platforms": {
    "windows": true,
    "mac": false,
    "linux": false
  }
}