[
  {
    "name": "ACHIEVEMENT_JOKER_0",
    "defaultvalue": 0,
    "displayName": "Bronze Joker",
    "hidden": 0,
    "description": "Maximum combos made: 10",
    "icon": "https://steamcdn-a.akamaihd.net/steamcommunity/public/images/apps/1155790/4e14106c404eca11a0020b846279881c34c99ad9.jpg",
    "icongray": "https://steamcdn-a.akamaihd.net/steamcommunity/public/images/apps/1155790/e10205e0c3bc482187cb2c213057b347dff50ee9.jpg"
  },
  {
    "name": "ACHIEVEMENT_JOKER_1",
    "defaultvalue": 0,
    "displayName": "Silver Joker",
    "hidden": 0,
    "description": "Maximum combos made: 17",
    "icon": "https://steamcdn-a.akamaihd.net/steamcommunity/public/images/apps/1155790/7157b9d30a99f9f9fb370b10642a59fecc9b7dce.jpg",
    "icongray": "https://steamcdn-a.akamaihd.net/steamcommunity/public/images/apps/1155790/756c665d47d12f8af39f87849260700ca2d0c597.jpg"
  },
  {
    "name": "ACHIEVEMENT_JOKER_2",
    "defaultvalue": 0,
    "displayName": "Gold Joker",
    "hidden": 0,
    "description": "Maximum combos made: 22",
    "icon": "https://steamcdn-a.akamaihd.net/steamcommunity/public/images/apps/1155790/8d93a25e34c28f58b71dcbb470535d0efaeaeb98.jpg",
    "icongray": "https://steamcdn-a.akamaihd.net/steamcommunity/public/images/apps/1155790/939f9e3eeefe42881f39de1115959fffa7dbea64.jpg"
  },
  {
    "name": "ACHIEVEMENT_HERO_0",
    "defaultvalue": 0,
    "displayName": "Bronze Hero",
    "hidden": 0,
    "description": "150 stars collected",
    "icon": "https://steamcdn-a.akamaihd.net/steamcommunity/public/images/apps/1155790/6c7a6c403ab28ae891d045c1d27385ede747b06e.jpg",
    "icongray": "https://steamcdn-a.akamaihd.net/steamcommunity/public/images/apps/1155790/5ffc1bb5e2d7239300f57cb80c3728fcef69c3ec.jpg"
  },
  {
    "name": "ACHIEVEMENT_HERO_1",
    "defaultvalue": 0,
    "displayName": "Silver Hero",
    "hidden": 0,
    "description": "300 stars collected",
    "icon": "https://steamcdn-a.akamaihd.net/steamcommunity/public/images/apps/1155790/37c71727555a99da591cb115508e7930e216af41.jpg",
    "icongray": "https://steamcdn-a.akamaihd.net/steamcommunity/public/images/apps/1155790/a5c5256c4162a9d3f785e29329bb61becd08eba2.jpg"
  },
  {
    "name": "ACHIEVEMENT_HERO_2",
    "defaultvalue": 0,
    "displayName": "Gold Hero",
    "hidden": 0,
    "description": "500 stars collected",
    "icon": "https://steamcdn-a.akamaihd.net/steamcommunity/public/images/apps/1155790/2a4409f955f70cc3270bdeea0bcd7a89938a4008.jpg",
    "icongray": "https://steamcdn-a.akamaihd.net/steamcommunity/public/images/apps/1155790/8f8218dd548e51f3985601b652702179217012e3.jpg"
  },
  {
    "name": "ACHIEVEMENT_ICEAXE_0",
    "defaultvalue": 0,
    "displayName": "Bronze Ice Axe",
    "hidden": 0,
    "description": "50 cards defrosted",
    "icon": "https://steamcdn-a.akamaihd.net/steamcommunity/public/images/apps/1155790/0fcf1f7d1770aff2baf5fa1e6981369e50df4940.jpg",
    "icongray": "https://steamcdn-a.akamaihd.net/steamcommunity/public/images/apps/1155790/3d61010e27f369c525f0913d9dfc8b21a7df8a73.jpg"
  },
  {
    "name": "ACHIEVEMENT_ICEAXE_1",
    "defaultvalue": 0,
    "displayName": "Silver Ice Axe",
    "hidden": 0,
    "description": "300 cards defrosted",
    "icon": "https://steamcdn-a.akamaihd.net/steamcommunity/public/images/apps/1155790/d1f91063f35395ead7b78d0d9d6d51fb1aa7813c.jpg",
    "icongray": "https://steamcdn-a.akamaihd.net/steamcommunity/public/images/apps/1155790/87b8cf3b68f05f133bc51330eec20199574f49cb.jpg"
  },
  {
    "name": "ACHIEVEMENT_ICEAXE_2",
    "defaultvalue": 0,
    "displayName": "Gold Ice Axe",
    "hidden": 0,
    "description": "450 cards defrosted",
    "icon": "https://steamcdn-a.akamaihd.net/steamcommunity/public/images/apps/1155790/7cf083fcfb8d6e65dc07521cde990beb968b3698.jpg",
    "icongray": "https://steamcdn-a.akamaihd.net/steamcommunity/public/images/apps/1155790/87b8cf3b68f05f133bc51330eec20199574f49cb.jpg"
  },
  {
    "name": "ACHIEVEMENT_FIREFIGHTER_0",
    "defaultvalue": 0,
    "displayName": "Bronze Firefighter",
    "hidden": 0,
    "description": "10 cards extinguished",
    "icon": "https://steamcdn-a.akamaihd.net/steamcommunity/public/images/apps/1155790/a53c7cdb736c1f66e679ecc9f5926f6bc4645742.jpg",
    "icongray": "https://steamcdn-a.akamaihd.net/steamcommunity/public/images/apps/1155790/b63d6776d46c627ffa6694dfce80d5138864c083.jpg"
  },
  {
    "name": "ACHIEVEMENT_FIREFIGHTER_1",
    "defaultvalue": 0,
    "displayName": "Silver Firefighter",
    "hidden": 0,
    "description": "40 cards extinguished",
    "icon": "https://steamcdn-a.akamaihd.net/steamcommunity/public/images/apps/1155790/8146a8130e794524d734d73aa7c18639504585cb.jpg",
    "icongray": "https://steamcdn-a.akamaihd.net/steamcommunity/public/images/apps/1155790/04afe106d128f783681e2e0e75e5d5285ad6d71c.jpg"
  },
  {
    "name": "ACHIEVEMENT_FIREFIGHTER_2",
    "defaultvalue": 0,
    "displayName": "Gold Firefighter",
    "hidden": 0,
    "description": "70 cards extinguished",
    "icon": "https://steamcdn-a.akamaihd.net/steamcommunity/public/images/apps/1155790/217f8776e1c1fb3d1afd4df69372c48d4d4f93db.jpg",
    "icongray": "https://steamcdn-a.akamaihd.net/steamcommunity/public/images/apps/1155790/6ffbe88964b750fd379a14ba7792bb78ca8f49ad.jpg"
  },
  {
    "name": "ACHIEVEMENT_PLAYER_0",
    "defaultvalue": 0,
    "displayName": "Bronze Player",
    "hidden": 0,
    "description": "50 combos of five or more cards mades",
    "icon": "https://steamcdn-a.akamaihd.net/steamcommunity/public/images/apps/1155790/c738066262f486efdd4e9a06f0f25ce4ea411e2f.jpg",
    "icongray": "https://steamcdn-a.akamaihd.net/steamcommunity/public/images/apps/1155790/cc30ca8c08856e192c84c5a49440f4813886899f.jpg"
  },
  {
    "name": "ACHIEVEMENT_PLAYER_1",
    "defaultvalue": 0,
    "displayName": "Silver Player",
    "hidden": 0,
    "description": "200 combos of five or more cards mades",
    "icon": "https://steamcdn-a.akamaihd.net/steamcommunity/public/images/apps/1155790/7bef7f5cd103b10e69de023694f532d823bbdc8b.jpg",
    "icongray": "https://steamcdn-a.akamaihd.net/steamcommunity/public/images/apps/1155790/5cbc585cb650e2d1e3fcdf5cf11f1b19272b36e3.jpg"
  },
  {
    "name": "ACHIEVEMENT_PLAYER_2",
    "defaultvalue": 0,
    "displayName": "Gold Player",
    "hidden": 0,
    "description": "400 combos of five or more cards mades",
    "icon": "https://steamcdn-a.akamaihd.net/steamcommunity/public/images/apps/1155790/f64b01e4553d07e6dedaf64365698610956f257b.jpg",
    "icongray": "https://steamcdn-a.akamaihd.net/steamcommunity/public/images/apps/1155790/f0dc37b6219cb9f9db6c36be3dbf32b4d57789ad.jpg"
  },
  {
    "name": "ACHIEVEMENT_SORCERER_0",
    "defaultvalue": 0,
    "displayName": "Bronze Sorcerer",
    "hidden": 0,
    "description": "15 location upgrades built",
    "icon": "https://steamcdn-a.akamaihd.net/steamcommunity/public/images/apps/1155790/71ade69c2d1bc4034d9a8189ce9007107438ebe3.jpg",
    "icongray": "https://steamcdn-a.akamaihd.net/steamcommunity/public/images/apps/1155790/466283524a55a7a8a1b9bda80f46e0ded68da974.jpg"
  },
  {
    "name": "ACHIEVEMENT_SORCERER_1",
    "defaultvalue": 0,
    "displayName": "Silver Sorcerer",
    "hidden": 0,
    "description": "50 location upgrades built",
    "icon": "https://steamcdn-a.akamaihd.net/steamcommunity/public/images/apps/1155790/a40ddb1bc0ad448e8b8864427587b0e251c94a85.jpg",
    "icongray": "https://steamcdn-a.akamaihd.net/steamcommunity/public/images/apps/1155790/bec965cea9e8b78e06843c5328405b30e71c96e8.jpg"
  },
  {
    "name": "ACHIEVEMENT_SORCERER_2",
    "defaultvalue": 0,
    "displayName": "Gold Sorcerer",
    "hidden": 0,
    "description": "92 location upgrades built",
    "icon": "https://steamcdn-a.akamaihd.net/steamcommunity/public/images/apps/1155790/16ffc7d2c1a5551be8d6f167c752e9588df3d6b5.jpg",
    "icongray": "https://steamcdn-a.akamaihd.net/steamcommunity/public/images/apps/1155790/e5bb158de6c04efc919c2b5c90fcb8a14f9768c9.jpg"
  },
  {
    "name": "ACHIEVEMENT_ALCHEMIST_0",
    "defaultvalue": 0,
    "displayName": "Bronze Alchemist",
    "hidden": 0,
    "description": "100 mana collected",
    "icon": "https://steamcdn-a.akamaihd.net/steamcommunity/public/images/apps/1155790/a77ae0c80bf7beb4b4e63d389d469998c10855b6.jpg",
    "icongray": "https://steamcdn-a.akamaihd.net/steamcommunity/public/images/apps/1155790/3ac8172c5bb43e5b1750535d96564471eb4a333d.jpg"
  },
  {
    "name": "ACHIEVEMENT_ALCHEMIST_1",
    "defaultvalue": 0,
    "displayName": "Silver Alchemist",
    "hidden": 0,
    "description": "250 mana collected",
    "icon": "https://steamcdn-a.akamaihd.net/steamcommunity/public/images/apps/1155790/ed3565739dba71b6f57fe4789e6019aa5ee9d82a.jpg",
    "icongray": "https://steamcdn-a.akamaihd.net/steamcommunity/public/images/apps/1155790/4de5018606a3f9620cba8cc4e72a95756f5a3357.jpg"
  },
  {
    "name": "ACHIEVEMENT_ALCHEMIST_2",
    "defaultvalue": 0,
    "displayName": "Gold Alchemist",
    "hidden": 0,
    "description": "500 mana collected",
    "icon": "https://steamcdn-a.akamaihd.net/steamcommunity/public/images/apps/1155790/8aa7a7bc74e9b279277dcc6bf446273f56ba8ef0.jpg",
    "icongray": "https://steamcdn-a.akamaihd.net/steamcommunity/public/images/apps/1155790/79f43592a8e58404ba967e3c381bdcf14f54cf42.jpg"
  },
  {
    "name": "ACHIEVEMENT_GARDENER_0",
    "defaultvalue": 0,
    "displayName": "Bronze Gardener",
    "hidden": 0,
    "description": "10 cards freed from thorns",
    "icon": "https://steamcdn-a.akamaihd.net/steamcommunity/public/images/apps/1155790/45af8e2611fa5aaddd07e3733e9b2d4346fb54ee.jpg",
    "icongray": "https://steamcdn-a.akamaihd.net/steamcommunity/public/images/apps/1155790/d5ec895d570cbb589960eeee0fc9db302436cf75.jpg"
  },
  {
    "name": "ACHIEVEMENT_GARDENER_1",
    "defaultvalue": 0,
    "displayName": "Silver Gardener",
    "hidden": 0,
    "description": "30 cards freed from thorns",
    "icon": "https://steamcdn-a.akamaihd.net/steamcommunity/public/images/apps/1155790/d10017e99121def484b2ec6cfa4c17a889f1e375.jpg",
    "icongray": "https://steamcdn-a.akamaihd.net/steamcommunity/public/images/apps/1155790/c20f45f75b8b2a009a51a71f0999ea4dbf4d57ca.jpg"
  },
  {
    "name": "ACHIEVEMENT_GARDENER_2",
    "defaultvalue": 0,
    "displayName": "Gold Gardener",
    "hidden": 0,
    "description": "60 cards freed from thorns",
    "icon": "https://steamcdn-a.akamaihd.net/steamcommunity/public/images/apps/1155790/80877b7b8eed15d8d57457b7c75775a9e96730f2.jpg",
    "icongray": "https://steamcdn-a.akamaihd.net/steamcommunity/public/images/apps/1155790/1d609518e0376cc5a494c63f7704faeee764ff3a.jpg"
  },
  {
    "name": "ACHIEVEMENT_DESTROYER_0",
    "defaultvalue": 0,
    "displayName": "Bronze Destroyer",
    "hidden": 0,
    "description": "17 walls broken",
    "icon": "https://steamcdn-a.akamaihd.net/steamcommunity/public/images/apps/1155790/0bd035110234b54dc1cf8b4ecfb9199d1ff1cd78.jpg",
    "icongray": "https://steamcdn-a.akamaihd.net/steamcommunity/public/images/apps/1155790/0eb208adaff5d59ecc739eb59b0c4db46a483896.jpg"
  },
  {
    "name": "ACHIEVEMENT_DESTROYER_1",
    "defaultvalue": 0,
    "displayName": "Silver Destroyer",
    "hidden": 0,
    "description": "50 walls broken",
    "icon": "https://steamcdn-a.akamaihd.net/steamcommunity/public/images/apps/1155790/2b58e6f386ab13558b71707384233f9f866065b8.jpg",
    "icongray": "https://steamcdn-a.akamaihd.net/steamcommunity/public/images/apps/1155790/afbc19695823daf005396b40068eb0ee24f761f7.jpg"
  },
  {
    "name": "ACHIEVEMENT_DESTROYER_2",
    "defaultvalue": 0,
    "displayName": "Gold Destroyer",
    "hidden": 0,
    "description": "100 walls broken",
    "icon": "https://steamcdn-a.akamaihd.net/steamcommunity/public/images/apps/1155790/fa6c25d07a4f38d70fb3837e0c115116ef2ccb11.jpg",
    "icongray": "https://steamcdn-a.akamaihd.net/steamcommunity/public/images/apps/1155790/73578d24a1060186f5ba56cfd9e0522ace78d2ec.jpg"
  },
  {
    "name": "ACHIEVEMENT_WARRIOR_0",
    "defaultvalue": 0,
    "displayName": "Bronze Warrior",
    "hidden": 0,
    "description": "Use the fewest possible cards from the deck to complete level 41 or higher: 20",
    "icon": "https://steamcdn-a.akamaihd.net/steamcommunity/public/images/apps/1155790/b23ccf6b7349a032a74223452ae7df9298d79a6c.jpg",
    "icongray": "https://steamcdn-a.akamaihd.net/steamcommunity/public/images/apps/1155790/6f5e29509a0f1d9394442bd22443213324ac3be1.jpg"
  },
  {
    "name": "ACHIEVEMENT_WARRIOR_1",
    "defaultvalue": 0,
    "displayName": "Silver Warrior",
    "hidden": 0,
    "description": "Use the fewest possible cards from the deck to complete level 41 or higher: 14",
    "icon": "https://steamcdn-a.akamaihd.net/steamcommunity/public/images/apps/1155790/95407a6e2a9c80f582644b6475d21b049788baac.jpg",
    "icongray": "https://steamcdn-a.akamaihd.net/steamcommunity/public/images/apps/1155790/f52f9f9175e94d0cb7bcc50d3682fc02a80013f3.jpg"
  },
  {
    "name": "ACHIEVEMENT_WARRIOR_2",
    "defaultvalue": 0,
    "displayName": "Gold Warrior",
    "hidden": 0,
    "description": "Use the fewest possible cards from the deck to complete level 41 or higher: 7",
    "icon": "https://steamcdn-a.akamaihd.net/steamcommunity/public/images/apps/1155790/aea3c05fc61d6a8c701213fbdc5119574dbbf2d6.jpg",
    "icongray": "https://steamcdn-a.akamaihd.net/steamcommunity/public/images/apps/1155790/1fe7ea481177eeb46faf86c59bd0cd6fe280a7c9.jpg"
  }
]