﻿[
  {
    "name": "Ach_Kilobyte",
    "defaultvalue": 0,
    "displayName": "Kilobyte",
    "hidden": 0,
    "description": "Collect 8192 bits",
    "icon": "https://steamcdn-a.akamaihd.net/steamcommunity/public/images/apps/248550/4c85fc18a0b764ef42e3ec36c1fd82959d11a59c.jpg",
    "icongray": "https://steamcdn-a.akamaihd.net/steamcommunity/public/images/apps/248550/792bd26ef78a2d29dda8f05324e03a787f142574.jpg"
  },
  {
    "name": "Ach_Defeat_Bouldar",
    "defaultvalue": 0,
    "displayName": "Bouldar down!",
    "hidden": 0,
    "description": "Defeat Warlord Bouldar",
    "icon": "https://steamcdn-a.akamaihd.net/steamcommunity/public/images/apps/248550/a75a4eb0c64748d385bc10c15bb18280baf2d652.jpg",
    "icongray": "https://steamcdn-a.akamaihd.net/steamcommunity/public/images/apps/248550/c6dc81700869608f728b887d0777f03c5da852c2.jpg"
  },
  {
    "name": "Ach_Defeat_HB02",
    "defaultvalue": 0,
    "displayName": "General defeat!",
    "hidden": 0,
    "description": "Defeat General HB-02",
    "icon": "https://steamcdn-a.akamaihd.net/steamcommunity/public/images/apps/248550/0f4b55885d7824c4e7ca853f6c3a47f0ce50d118.jpg",
    "icongray": "https://steamcdn-a.akamaihd.net/steamcommunity/public/images/apps/248550/6cea8d1917cefd1892a5d78e7be71d148b71a41f.jpg"
  },
  {
    "name": "Ach_Defeat_Scarb",
    "defaultvalue": 0,
    "displayName": "No more Grand Khotep...",
    "hidden": 0,
    "description": "Defeat Grand Khotep Scarb",
    "icon": "https://steamcdn-a.akamaihd.net/steamcommunity/public/images/apps/248550/721cfc9e1ac71ad0e5bdbd2c76fb072bb557e54a.jpg",
    "icongray": "https://steamcdn-a.akamaihd.net/steamcommunity/public/images/apps/248550/e49e13a79423d6fc4120b10e7930c37bd55067d4.jpg"
  },
  {
    "name": "Ach_Defeat_Muer",
    "defaultvalue": 0,
    "displayName": "Subprogrammed!",
    "hidden": 0,
    "description": "Defeat Grand Khotep Muer",
    "icon": "https://steamcdn-a.akamaihd.net/steamcommunity/public/images/apps/248550/6729ad45960987afa522602f4762f4012f3de089.jpg",
    "icongray": "https://steamcdn-a.akamaihd.net/steamcommunity/public/images/apps/248550/65822a8ff28685c1ac67867c3e7c897bc623ae7c.jpg"
  },
  {
    "name": "Ach_Defeat_IceBeak",
    "defaultvalue": 0,
    "displayName": "Icessassinated!",
    "hidden": 0,
    "description": "Defeat the Ice-Beak Assassins",
    "icon": "https://steamcdn-a.akamaihd.net/steamcommunity/public/images/apps/248550/e896cc0cd519e25fba410505fabd6c6a3f7e2c9d.jpg",
    "icongray": "https://steamcdn-a.akamaihd.net/steamcommunity/public/images/apps/248550/751971165b0fe5a22b4a6c17f2d9b8bdf1b2226b.jpg"
  },
  {
    "name": "Ach_Defeat_HB03",
    "defaultvalue": 0,
    "displayName": "Down again!",
    "hidden": 0,
    "description": "Defeat General HB-03",
    "icon": "https://steamcdn-a.akamaihd.net/steamcommunity/public/images/apps/248550/10038188ffb4414436b8678c1a2b718698a3c9b8.jpg",
    "icongray": "https://steamcdn-a.akamaihd.net/steamcommunity/public/images/apps/248550/9ad659a136c404c23211fd12f82921dcb8e92eb2.jpg"
  },
  {
    "name": "Ach_Defeat_EmperorP1",
    "defaultvalue": 0,
    "displayName": "Is it over?",
    "hidden": 0,
    "description": "Defeat the Emperor",
    "icon": "https://steamcdn-a.akamaihd.net/steamcommunity/public/images/apps/248550/b3bb779b8b35d097d622e10996db535bc46e23a6.jpg",
    "icongray": "https://steamcdn-a.akamaihd.net/steamcommunity/public/images/apps/248550/20ea0876617432a35333bc82c358768bab0c1b92.jpg"
  },
  {
    "name": "Ach_Defeat_EmperorP2",
    "defaultvalue": 0,
    "displayName": "It is over!",
    "hidden": 0,
    "description": "Defeat the Emperor",
    "icon": "https://steamcdn-a.akamaihd.net/steamcommunity/public/images/apps/248550/34eb18c6e0c023c89f2451d0f77cd67465f4fcfb.jpg",
    "icongray": "https://steamcdn-a.akamaihd.net/steamcommunity/public/images/apps/248550/b7a290bcf1c821b8bbdec17d90cf7e99324e31d9.jpg"
  },
  {
    "name": "Ach_Win_Tournament",
    "defaultvalue": 0,
    "displayName": "Number 1!",
    "hidden": 0,
    "description": "Win the tournament",
    "icon": "https://steamcdn-a.akamaihd.net/steamcommunity/public/images/apps/248550/cdda3a6fc0fa5aa22d7ad86f24f8e03733964b10.jpg",
    "icongray": "https://steamcdn-a.akamaihd.net/steamcommunity/public/images/apps/248550/58fcc2f0af1ff1f02af3dddd72969c80cdc20c84.jpg"
  },
  {
    "name": "Ach_Win_Tournament_NoDeath",
    "defaultvalue": 0,
    "displayName": "Flawless victory!",
    "hidden": 0,
    "description": "Win the tournament without dying",
    "icon": "https://steamcdn-a.akamaihd.net/steamcommunity/public/images/apps/248550/bd044a6fbafe0c7b1c8f273f502b54fcfe155eb7.jpg",
    "icongray": "https://steamcdn-a.akamaihd.net/steamcommunity/public/images/apps/248550/23b31256f64b1064de6639881f3be66e4ea782cf.jpg"
  },
  {
    "name": "Ach_Complete_Adventure",
    "defaultvalue": 0,
    "displayName": "Adventure Complete!",
    "hidden": 0,
    "description": "Complete the adventure mode!",
    "icon": "https://steamcdn-a.akamaihd.net/steamcommunity/public/images/apps/248550/48448e3159e66fb7886dd1d9f290b4302a27e585.jpg",
    "icongray": "https://steamcdn-a.akamaihd.net/steamcommunity/public/images/apps/248550/2d144a2c636c5a1e18981ffa7d2ab7d9ed18cdc6.jpg"
  },
  {
    "name": "Ach_DefeatBoss_NoDeath",
    "defaultvalue": 0,
    "displayName": "Size doesn't matter!",
    "hidden": 0,
    "description": "Defeat the big boss without losing a life",
    "icon": "https://steamcdn-a.akamaihd.net/steamcommunity/public/images/apps/248550/1ddb54dcd6aab9dfc3ed1f4c07bbec7b64d7e35e.jpg",
    "icongray": "https://steamcdn-a.akamaihd.net/steamcommunity/public/images/apps/248550/373202c270adc02a3b5877226542e9c8192f3c2c.jpg"
  },
  {
    "name": "Ach_GetAllParts",
    "defaultvalue": 0,
    "displayName": "Part collector!",
    "hidden": 0,
    "description": "Collect all 150 parts",
    "icon": "https://steamcdn-a.akamaihd.net/steamcommunity/public/images/apps/248550/7ca443889fc91bd87c82c88bbc4c06dc36b15884.jpg",
    "icongray": "https://steamcdn-a.akamaihd.net/steamcommunity/public/images/apps/248550/ac63a8b012cc92cfb0f0f37358451eda84c2abf7.jpg"
  },
  {
    "name": "Ach_GetAllColors",
    "defaultvalue": 0,
    "displayName": "Color seeker!",
    "hidden": 0,
    "description": "Find all 30 hidden colors",
    "icon": "https://steamcdn-a.akamaihd.net/steamcommunity/public/images/apps/248550/eafa446c306f8353b68c6f265368ed5aa318e18a.jpg",
    "icongray": "https://steamcdn-a.akamaihd.net/steamcommunity/public/images/apps/248550/69b5196bcf0ac61d1880fdf5bd45d125c1813109.jpg"
  },
  {
    "name": "Ach_Get_MBPArm",
    "defaultvalue": 0,
    "displayName": "MEGABYTE PUUNNCHHHH!",
    "hidden": 0,
    "description": "Find the Megabyte Punch arm part",
    "icon": "https://steamcdn-a.akamaihd.net/steamcommunity/public/images/apps/248550/be1ce59234cf5cfc51e236ed081ce10234c15c08.jpg",
    "icongray": "https://steamcdn-a.akamaihd.net/steamcommunity/public/images/apps/248550/9344e81e8be1521aacb9d9a7042e71e0d3b59928.jpg"
  },
  {
    "name": "Ach_Find_FlyingRuins",
    "defaultvalue": 0,
    "displayName": "Ancient Heights",
    "hidden": 0,
    "description": "Find the flying ruins",
    "icon": "https://steamcdn-a.akamaihd.net/steamcommunity/public/images/apps/248550/691b732b93d4abb3260a3d1092233c180c9e3875.jpg",
    "icongray": "https://steamcdn-a.akamaihd.net/steamcommunity/public/images/apps/248550/37bf01b84619e244ab0b7bc2f28353820ccd6eaa.jpg"
  },
  {
    "name": "Ach_Complete_ChallengeLevel",
    "defaultvalue": 0,
    "displayName": "UP for a challenge!",
    "hidden": 0,
    "description": "Complete the frostbyte challenge level",
    "icon": "https://steamcdn-a.akamaihd.net/steamcommunity/public/images/apps/248550/b99cbd0276413ca28c5865525fe9c22130c8a200.jpg",
    "icongray": "https://steamcdn-a.akamaihd.net/steamcommunity/public/images/apps/248550/553401159c3be583d00307341e1ff4542d5feee7.jpg"
  },
  {
    "name": "Ach_BigSpender",
    "defaultvalue": 0,
    "displayName": "Spending it wisely",
    "hidden": 0,
    "description": "Spend over 5000 bits in the shop",
    "icon": "https://steamcdn-a.akamaihd.net/steamcommunity/public/images/apps/248550/f202e5f05975652f905a4ef0b7046ec7845b3d18.jpg",
    "icongray": "https://steamcdn-a.akamaihd.net/steamcommunity/public/images/apps/248550/5c3e4ea38dcf54c926aa37c8855f9e7f6191af69.jpg"
  },
  {
    "name": "Ach_Destroy_1000_enemies",
    "defaultvalue": 0,
    "displayName": "1000 Enemies down",
    "hidden": 0,
    "description": "Destroy 1000 enemies",
    "icon": "https://steamcdn-a.akamaihd.net/steamcommunity/public/images/apps/248550/1fade0684c62eb9ec60e123c6d438826e95fadf0.jpg",
    "icongray": "https://steamcdn-a.akamaihd.net/steamcommunity/public/images/apps/248550/ea1d1c5b54ed69faae582b5dfa6079507ad26f2f.jpg"
  },
  {
    "name": "Ach_Destroy_500_enemies",
    "defaultvalue": 0,
    "displayName": "500 Enemies down",
    "hidden": 0,
    "description": "Destroy 500 enemies",
    "icon": "https://steamcdn-a.akamaihd.net/steamcommunity/public/images/apps/248550/1eac9197df70e4ae1d4018b09c906f370f92e28c.jpg",
    "icongray": "https://steamcdn-a.akamaihd.net/steamcommunity/public/images/apps/248550/14ed50c3e5a7a9bdbe17523418c57918b59249b6.jpg"
  },
  {
    "name": "Ach_Destroy_100_enemies",
    "defaultvalue": 0,
    "displayName": "100 Enemies down",
    "hidden": 0,
    "description": "Destroy 100 enemies",
    "icon": "https://steamcdn-a.akamaihd.net/steamcommunity/public/images/apps/248550/b5fc24ad04f1d6819d055532fdc5019c82b7fabc.jpg",
    "icongray": "https://steamcdn-a.akamaihd.net/steamcommunity/public/images/apps/248550/17b82a6608b63c6753b50e7ffe307733ea2a0a91.jpg"
  },
  {
    "name": "Ach_Win_Tournament_NoAbility",
    "defaultvalue": 0,
    "displayName": "Bare fists",
    "hidden": 0,
    "description": "Win the tournament with no ability parts equipped",
    "icon": "https://steamcdn-a.akamaihd.net/steamcommunity/public/images/apps/248550/7728072f7213cde9b7febbbdcec81c893f11b8e3.jpg",
    "icongray": "https://steamcdn-a.akamaihd.net/steamcommunity/public/images/apps/248550/a9728875482e20c30d4b93afa2fc004659162a0e.jpg"
  },
  {
    "name": "Ach_Shield_Breaker",
    "defaultvalue": 0,
    "displayName": "Pelvic Thruster",
    "hidden": 0,
    "description": "Break 16 enemy shields with your pelvic thrust",
    "icon": "https://steamcdn-a.akamaihd.net/steamcommunity/public/images/apps/248550/5cae8b01769d33c0391983dfed91d12561fbc80b.jpg",
    "icongray": "https://steamcdn-a.akamaihd.net/steamcommunity/public/images/apps/248550/9a6eb7a790a3d7c13b363ae3f48300ae971b45fa.jpg"
  },
  {
    "name": "Ach_Bouncy_Bounce",
    "defaultvalue": 0,
    "displayName": "Bouncy Bounce House",
    "hidden": 0,
    "description": "Bounce from the hot plates 10 times in a row",
    "icon": "https://steamcdn-a.akamaihd.net/steamcommunity/public/images/apps/248550/c21631ff072281354ea5a587fa35fb4c08560ab7.jpg",
    "icongray": "https://steamcdn-a.akamaihd.net/steamcommunity/public/images/apps/248550/731e968334a251b85ba9c9a0153e51821a274c92.jpg"
  },
  {
    "name": "Ach_Air_Jumps",
    "defaultvalue": 0,
    "displayName": "I believe I can jump",
    "hidden": 0,
    "description": "Jump 5 times in a row",
    "icon": "https://steamcdn-a.akamaihd.net/steamcommunity/public/images/apps/248550/6d01e6ab3f094057702c2fd6132f947843870582.jpg",
    "icongray": "https://steamcdn-a.akamaihd.net/steamcommunity/public/images/apps/248550/f773db853112067d9f84dd6b515f9c2812036cbe.jpg"
  },
  {
    "name": "Ach_Speed_Run_Level1",
    "defaultvalue": 0,
    "displayName": "Thinking of fast",
    "hidden": 0,
    "description": "Clear the Electro Caves Stage 1 within 30 seconds",
    "icon": "https://steamcdn-a.akamaihd.net/steamcommunity/public/images/apps/248550/6a5bbbe91af98410e1daf51243681c96e8d30cfa.jpg",
    "icongray": "https://steamcdn-a.akamaihd.net/steamcommunity/public/images/apps/248550/84809d361dab8d64a170c4bf9874dca3b8eec552.jpg"
  },
  {
    "name": "Ach_Lethal_League",
    "defaultvalue": 0,
    "displayName": "Lethal League",
    "hidden": 0,
    "description": "Reflect a projectile 10 times in a row",
    "icon": "https://steamcdn-a.akamaihd.net/steamcommunity/public/images/apps/248550/7a5cf6a28dc918b3b0d5863b411175ed6c48cecd.jpg",
    "icongray": "https://steamcdn-a.akamaihd.net/steamcommunity/public/images/apps/248550/754d28fcfeb9a9abb42d3e78edfd5d050084b793.jpg"
  },
  {
    "name": "Ach_Find_Hidden_Level",
    "defaultvalue": 0,
    "displayName": "Three Flowers",
    "hidden": 0,
    "description": "Find the hidden level",
    "icon": "https://steamcdn-a.akamaihd.net/steamcommunity/public/images/apps/248550/6e706145597b5aea31802157982848e8a91e9bf1.jpg",
    "icongray": "https://steamcdn-a.akamaihd.net/steamcommunity/public/images/apps/248550/5b2586abd19557d3b007e311bd7f4ce6677f883d.jpg"
  },
  {
    "name": "Ach_All_Tournament_Parts",
    "defaultvalue": 0,
    "displayName": "No prizes left!",
    "hidden": 0,
    "description": "Win all the special parts from the tournament.",
    "icon": "https://steamcdn-a.akamaihd.net/steamcommunity/public/images/apps/248550/5c69aa2be6c88623e88f7188908e81a4b746694d.jpg",
    "icongray": "https://steamcdn-a.akamaihd.net/steamcommunity/public/images/apps/248550/b31d0bcc868c9a98174047c69981ecdda2506009.jpg"
  }
]