{
  "Dlcs": {},
  "Name": "Dropship Down",
  "AppId": "501740",
  "ImageUrl": "https://steamcdn-a.akamaihd.net/steam/apps/501740/header.jpg?t=1469173188",
  "Languages": [
    "english"
  ],
  "Platforms": {
    "windows": true,
    "mac": false,
    "linux": false
  }
}