[
  {
    "name": "ACH_KILL_100_CREEPS",
    "defaultvalue": 0,
    "displayName": "Gettin’ Warmed Up",
    "hidden": 0,
    "description": "Kill 100 creeps.",
    "icon": "https://steamcdn-a.akamaihd.net/steamcommunity/public/images/apps/501740/4f448d8adcb616ffcc57a4c7179947cc6da2b84e.jpg",
    "icongray": "https://steamcdn-a.akamaihd.net/steamcommunity/public/images/apps/501740/5eb2b9074f951b79c3f3dec6b000a94565ebf218.jpg"
  },
  {
    "name": "ACH_OVERHEAT_1_TIME",
    "defaultvalue": 0,
    "displayName": "Uh-Oh!",
    "hidden": 0,
    "description": "Overheat your weapon.",
    "icon": "https://steamcdn-a.akamaihd.net/steamcommunity/public/images/apps/501740/3b7a3064f6774c27050ee9d071e23c81302ffeea.jpg",
    "icongray": "https://steamcdn-a.akamaihd.net/steamcommunity/public/images/apps/501740/e79c54a58c3f4cac929a7acd9943fee8d7766da2.jpg"
  },
  {
    "name": "ACH_PLAY_1_GAME",
    "defaultvalue": 0,
    "displayName": "First Timer",
    "hidden": 0,
    "description": "Lose your first game.",
    "icon": "https://steamcdn-a.akamaihd.net/steamcommunity/public/images/apps/501740/a24f4a49ab84a2dc3f9d96c6459ddd47faa9f7bb.jpg",
    "icongray": "https://steamcdn-a.akamaihd.net/steamcommunity/public/images/apps/501740/e00966a1a17071f7b833057b9a37c16342337b4b.jpg"
  },
  {
    "name": "ACH_USE_1_PICKUP",
    "defaultvalue": 0,
    "displayName": "I Wonder What This Does...",
    "hidden": 0,
    "description": "Use a pickup.",
    "icon": "https://steamcdn-a.akamaihd.net/steamcommunity/public/images/apps/501740/d4e881f6cfe9c7ce425820445fc359d7546b3f05.jpg",
    "icongray": "https://steamcdn-a.akamaihd.net/steamcommunity/public/images/apps/501740/5637e1ead70f8567dfdcafed0fa8032d0a042610.jpg"
  },
  {
    "name": "ACH_EARN_10000_SCORE",
    "defaultvalue": 0,
    "displayName": "Bootcamp",
    "hidden": 0,
    "description": "Earn 10,000 score in total.",
    "icon": "https://steamcdn-a.akamaihd.net/steamcommunity/public/images/apps/501740/b51a13db32d16fdb05fb1ef5dd0ba5f796db3e4f.jpg",
    "icongray": "https://steamcdn-a.akamaihd.net/steamcommunity/public/images/apps/501740/6dd8ee209cdff642ca392b46fe55b0eb3f246d83.jpg"
  },
  {
    "name": "ACH_EARN_100000_SCORE",
    "defaultvalue": 0,
    "displayName": "Green No More",
    "hidden": 0,
    "description": "Earn 100,000 score in total.",
    "icon": "https://steamcdn-a.akamaihd.net/steamcommunity/public/images/apps/501740/77b8352692daac1cc9a517c531c9e28ed2427876.jpg",
    "icongray": "https://steamcdn-a.akamaihd.net/steamcommunity/public/images/apps/501740/ef3187da0862bcab20b86e6dadb879a058e0b2a6.jpg"
  },
  {
    "name": "ACH_EARN_500000_SCORE",
    "defaultvalue": 0,
    "displayName": "Seasoned Grunt",
    "hidden": 0,
    "description": "Earn 500,000 score in total.",
    "icon": "https://steamcdn-a.akamaihd.net/steamcommunity/public/images/apps/501740/abd3df1e7607697ac1861f96cd88416a0fc45e8a.jpg",
    "icongray": "https://steamcdn-a.akamaihd.net/steamcommunity/public/images/apps/501740/2671879fc905b5b5389a4f1f0fc8782781a7f10f.jpg"
  },
  {
    "name": "ACH_EARN_1000000_SCORE",
    "defaultvalue": 0,
    "displayName": "Grizzled Veteran",
    "hidden": 0,
    "description": "Earn 1,000,000 score in total.",
    "icon": "https://steamcdn-a.akamaihd.net/steamcommunity/public/images/apps/501740/8faed25cff1066a343803761fbd7de7753d4c8a3.jpg",
    "icongray": "https://steamcdn-a.akamaihd.net/steamcommunity/public/images/apps/501740/8c8f27dbd3e1394c04c8468e02e0dbfc0e2fcf5d.jpg"
  },
  {
    "name": "ACH_EARN_10000000_SCORE",
    "defaultvalue": 0,
    "displayName": "The Machine",
    "hidden": 0,
    "description": "Earn 10,000,000 score in total.",
    "icon": "https://steamcdn-a.akamaihd.net/steamcommunity/public/images/apps/501740/b65b3aab5a695b4fb02861e99955cb5e32c704c4.jpg",
    "icongray": "https://steamcdn-a.akamaihd.net/steamcommunity/public/images/apps/501740/e40702bf90ae52d668f2d20106a35e5724730cd0.jpg"
  },
  {
    "name": "ACH_SPEND_10000_CREDITS",
    "defaultvalue": 0,
    "displayName": "Private Savings",
    "hidden": 0,
    "description": "Spend 10,000 credits in total.",
    "icon": "https://steamcdn-a.akamaihd.net/steamcommunity/public/images/apps/501740/42cd7b37ca35f6fd6308eaa6af771d805231f909.jpg",
    "icongray": "https://steamcdn-a.akamaihd.net/steamcommunity/public/images/apps/501740/4b71f76c917e56ec4764320a920c433805d14332.jpg"
  },
  {
    "name": "ACH_SPEND_50000_CREDITS",
    "defaultvalue": 0,
    "displayName": "Major Investment",
    "hidden": 0,
    "description": "Spend 50,000 credits in total.",
    "icon": "https://steamcdn-a.akamaihd.net/steamcommunity/public/images/apps/501740/c02b8ec1ceada5214e1dd9242a4355b5f3bdc8fd.jpg",
    "icongray": "https://steamcdn-a.akamaihd.net/steamcommunity/public/images/apps/501740/e28a5fa498e8c26ad48738f551a85a05b8d89ef2.jpg"
  },
  {
    "name": "ACH_SPEND_100000_CREDITS",
    "defaultvalue": 0,
    "displayName": "General Bank",
    "hidden": 0,
    "description": "Spend 100,000 credits in total.",
    "icon": "https://steamcdn-a.akamaihd.net/steamcommunity/public/images/apps/501740/b3d6cb6a205777f164316cdcc873440f916177af.jpg",
    "icongray": "https://steamcdn-a.akamaihd.net/steamcommunity/public/images/apps/501740/1c09a91ca57d94aae9565c8afac29ff0b21c068c.jpg"
  },
  {
    "name": "ACH_SPEND_1000000_CREDITS",
    "defaultvalue": 0,
    "displayName": "Captain McRichpants",
    "hidden": 0,
    "description": "Spend 1,000,000 credits in total.",
    "icon": "https://steamcdn-a.akamaihd.net/steamcommunity/public/images/apps/501740/c00d226409887133fd1331e15731fb2b1bfd817a.jpg",
    "icongray": "https://steamcdn-a.akamaihd.net/steamcommunity/public/images/apps/501740/0edebef5b62e897b586253b90df2010f349a7205.jpg"
  },
  {
    "name": "ACH_USE_1000_PICKUPS",
    "defaultvalue": 0,
    "displayName": "Tech Blogger",
    "hidden": 0,
    "description": "Use 1,000 pickups.",
    "icon": "https://steamcdn-a.akamaihd.net/steamcommunity/public/images/apps/501740/e763dcb4112f722be1a5561c1e928bf00b74426f.jpg",
    "icongray": "https://steamcdn-a.akamaihd.net/steamcommunity/public/images/apps/501740/749dc6e9215489ab7df8d5ab1c79ec6018bb2fef.jpg"
  },
  {
    "name": "ACH_OVERHEAT_500_TIMES",
    "defaultvalue": 0,
    "displayName": "1-800-HEATSINK",
    "hidden": 0,
    "description": "Overheat your weapon 500 times.",
    "icon": "https://steamcdn-a.akamaihd.net/steamcommunity/public/images/apps/501740/2954b0a59b6f77ebe7700654b59e8747cf5f0540.jpg",
    "icongray": "https://steamcdn-a.akamaihd.net/steamcommunity/public/images/apps/501740/b706c0d8af0f598517034023d8c09d305e2b9ff5.jpg"
  },
  {
    "name": "ACH_TAKE_1000_HEALTH_DMG",
    "defaultvalue": 0,
    "displayName": "Broken In",
    "hidden": 0,
    "description": "Take 1,000 health damage in total.",
    "icon": "https://steamcdn-a.akamaihd.net/steamcommunity/public/images/apps/501740/6d4ae4956a39701541afdff3243e2756000d59f6.jpg",
    "icongray": "https://steamcdn-a.akamaihd.net/steamcommunity/public/images/apps/501740/925493bac5ac7aa9cced6825672a630c6be6fb1e.jpg"
  },
  {
    "name": "ACH_TAKE_10000_HEALTH_DMG",
    "defaultvalue": 0,
    "displayName": "Meatbag",
    "hidden": 0,
    "description": "Take 10,000 health damage in total.",
    "icon": "https://steamcdn-a.akamaihd.net/steamcommunity/public/images/apps/501740/deba0f6ae0ec6530cd421607b44ff8a1675b586b.jpg",
    "icongray": "https://steamcdn-a.akamaihd.net/steamcommunity/public/images/apps/501740/30eec0a5f9ba59857da55a67a6c87b9e661ffef4.jpg"
  },
  {
    "name": "ACH_TAKE_1000_FRIENDLY_DMG",
    "defaultvalue": 0,
    "displayName": "Sorry, Friend!",
    "hidden": 0,
    "description": "Take 1,000 damage from friendly fire.",
    "icon": "https://steamcdn-a.akamaihd.net/steamcommunity/public/images/apps/501740/22fe873d20751eecb56c448bd28e9ad72f0df794.jpg",
    "icongray": "https://steamcdn-a.akamaihd.net/steamcommunity/public/images/apps/501740/4144c6863fc0f796b563cdb5ff074b28cba93c13.jpg"
  },
  {
    "name": "ACH_TAKE_10000_FRIENDLY_DMG",
    "defaultvalue": 0,
    "displayName": "It's Just A Prank, Bro",
    "hidden": 0,
    "description": "Take 10,000 damage from friendly fire.",
    "icon": "https://steamcdn-a.akamaihd.net/steamcommunity/public/images/apps/501740/7b22ba11dce9a8bb747eff5ecac627afec8f5827.jpg",
    "icongray": "https://steamcdn-a.akamaihd.net/steamcommunity/public/images/apps/501740/3989ccbb9d1628812d9f3d6e4be3ed458c1d1484.jpg"
  },
  {
    "name": "ACH_DEAL_1000_FRIENDLY_FIRE",
    "defaultvalue": 0,
    "displayName": "Did I Do That?!",
    "hidden": 0,
    "description": "Deal 1,000 friendly fire damage.",
    "icon": "https://steamcdn-a.akamaihd.net/steamcommunity/public/images/apps/501740/23830014d796d567acedac700a876db57841a6ae.jpg",
    "icongray": "https://steamcdn-a.akamaihd.net/steamcommunity/public/images/apps/501740/6120fc1442ca279eb3691d60ad85f73d260fea24.jpg"
  },
  {
    "name": "ACH_DEAL_10000_FRIENDLY_FIRE",
    "defaultvalue": 0,
    "displayName": "Collateral Damager",
    "hidden": 0,
    "description": "Deal 10,000 friendly fire damage.",
    "icon": "https://steamcdn-a.akamaihd.net/steamcommunity/public/images/apps/501740/9ad932c7edae6990a87f2aa8bf2313c15f285a5f.jpg",
    "icongray": "https://steamcdn-a.akamaihd.net/steamcommunity/public/images/apps/501740/1c1398b9d65d294ba7aa5c945c16dfe12237738e.jpg"
  },
  {
    "name": "ACH_KILL_1000_WITH_SIDEARM",
    "defaultvalue": 0,
    "displayName": "Stick To The Classics",
    "hidden": 0,
    "description": "Kill 1,000 creeps with the Sidearm.",
    "icon": "https://steamcdn-a.akamaihd.net/steamcommunity/public/images/apps/501740/402adc7370ac9357bcc4f02ca30b7ad35040ee21.jpg",
    "icongray": "https://steamcdn-a.akamaihd.net/steamcommunity/public/images/apps/501740/c1faac4d14d8b3b7f66e43c9f002561c14437caf.jpg"
  },
  {
    "name": "ACH_KILL_1000_WITH_SMG",
    "defaultvalue": 0,
    "displayName": "Spray And Pray",
    "hidden": 0,
    "description": "Kill 1,000 creeps with the Submachine Gun.",
    "icon": "https://steamcdn-a.akamaihd.net/steamcommunity/public/images/apps/501740/34aa723c3c2fa33e1164c77cd2a2bee99f3226be.jpg",
    "icongray": "https://steamcdn-a.akamaihd.net/steamcommunity/public/images/apps/501740/5a0a87fae9b8d9b53bc764fd77a488219a252008.jpg"
  },
  {
    "name": "ACH_KILL_1000_WITH_PUMPACTION",
    "defaultvalue": 0,
    "displayName": "Like A Surgeon",
    "hidden": 0,
    "description": "Kill 1,000 creeps with the Pump-Action Shotgun.",
    "icon": "https://steamcdn-a.akamaihd.net/steamcommunity/public/images/apps/501740/d9161fc7f2876360913b04c0969f5b19fc8d9941.jpg",
    "icongray": "https://steamcdn-a.akamaihd.net/steamcommunity/public/images/apps/501740/a6054fe2b4fe01c04cbd1d8f7fb4518b42ff9d19.jpg"
  },
  {
    "name": "ACH_KILL_1000_WITH_SNIPERRIFLE",
    "defaultvalue": 0,
    "displayName": "The Calculated Approach",
    "hidden": 0,
    "description": "Kill 1,000 creeps with the Sniper Rifle.",
    "icon": "https://steamcdn-a.akamaihd.net/steamcommunity/public/images/apps/501740/cf19e61f9e519fc15c6a29de6cb1962ac513923a.jpg",
    "icongray": "https://steamcdn-a.akamaihd.net/steamcommunity/public/images/apps/501740/97ace1114b98f54c9d2b8adef774fd8ab61c5628.jpg"
  },
  {
    "name": "ACH_KILL_1000_WITH_FLAMETHROWER",
    "defaultvalue": 0,
    "displayName": "The Exterminator",
    "hidden": 0,
    "description": "Kill 1,000 creeps with the Flamethrower.",
    "icon": "https://steamcdn-a.akamaihd.net/steamcommunity/public/images/apps/501740/ceae062d8f4e15255e108e06fecded09ca722f57.jpg",
    "icongray": "https://steamcdn-a.akamaihd.net/steamcommunity/public/images/apps/501740/835a4f3c159d262b94d7aba9fa0b870e75e6c1b3.jpg"
  },
  {
    "name": "ACH_KILL_1000_WITH_ROCKETLAUNCHER",
    "defaultvalue": 0,
    "displayName": "Rocket Science",
    "hidden": 0,
    "description": "Kill 1,000 creeps with the Rocket Launcher.",
    "icon": "https://steamcdn-a.akamaihd.net/steamcommunity/public/images/apps/501740/764d174e8914be3f0a26b40321eff0e0fa5e9413.jpg",
    "icongray": "https://steamcdn-a.akamaihd.net/steamcommunity/public/images/apps/501740/671b45b93beccc41df12c04aec829031a38318d1.jpg"
  },
  {
    "name": "ACH_KILL_1_BOSS_MONSTER",
    "defaultvalue": 0,
    "displayName": "If It Bleeds",
    "hidden": 0,
    "description": "Kill a boss monster.",
    "icon": "https://steamcdn-a.akamaihd.net/steamcommunity/public/images/apps/501740/edb923a7c1256f8da505d2a5682155560463821b.jpg",
    "icongray": "https://steamcdn-a.akamaihd.net/steamcommunity/public/images/apps/501740/4d1fe5be4b5dd55cb1ddff3a75d1e04ad1234c8c.jpg"
  },
  {
    "name": "ACH_KILL_10_BOSS_MONSTERS",
    "defaultvalue": 0,
    "displayName": "Trophy Hunter",
    "hidden": 0,
    "description": "Kill 10 boss monsters.",
    "icon": "https://steamcdn-a.akamaihd.net/steamcommunity/public/images/apps/501740/96e36ea0bcc49fbfaa51e8eca30b7dca423ab2f3.jpg",
    "icongray": "https://steamcdn-a.akamaihd.net/steamcommunity/public/images/apps/501740/4c5176b70d4030283e4bf87ef7de765b2161f15e.jpg"
  },
  {
    "name": "ACH_1PGAME_20000_SCORE",
    "defaultvalue": 0,
    "displayName": "Lone Wolf",
    "hidden": 0,
    "description": "Reach 20,000 score in a 1-player game.",
    "icon": "https://steamcdn-a.akamaihd.net/steamcommunity/public/images/apps/501740/0f15c44cbdd4ac66a3dd4d10a7859d90045bbcd7.jpg",
    "icongray": "https://steamcdn-a.akamaihd.net/steamcommunity/public/images/apps/501740/8b40d085fa5457f89616de38d00b74e780e7187e.jpg"
  },
  {
    "name": "ACH_1PGAME_50000_SCORE",
    "defaultvalue": 0,
    "displayName": "Power of One",
    "hidden": 0,
    "description": "Reach 50,000 score in a 1-player game.",
    "icon": "https://steamcdn-a.akamaihd.net/steamcommunity/public/images/apps/501740/a6d4c3a23c064dff44118ffbaf29abdfef2c8e57.jpg",
    "icongray": "https://steamcdn-a.akamaihd.net/steamcommunity/public/images/apps/501740/0a0305c44a4aa0240f2b4826f4a4153c63ef114e.jpg"
  },
  {
    "name": "ACH_1PGAME_100000_SCORE",
    "defaultvalue": 0,
    "displayName": "Unstoppable Force",
    "hidden": 0,
    "description": "Reach 100,000 score in a 1-player game.",
    "icon": "https://steamcdn-a.akamaihd.net/steamcommunity/public/images/apps/501740/3b8d14954edb03dd8500096584baec0d11d5b6d9.jpg",
    "icongray": "https://steamcdn-a.akamaihd.net/steamcommunity/public/images/apps/501740/72a7cbd710095a5707c29d1ac2c0194eb2b4ff66.jpg"
  },
  {
    "name": "ACH_2PGAME_20000_SCORE",
    "defaultvalue": 0,
    "displayName": "Tag Team",
    "hidden": 0,
    "description": "Reach 20,000 score in a 2-player game.",
    "icon": "https://steamcdn-a.akamaihd.net/steamcommunity/public/images/apps/501740/9f491cc2172abf76e4d60565ce80b8678e91ef2d.jpg",
    "icongray": "https://steamcdn-a.akamaihd.net/steamcommunity/public/images/apps/501740/7f50a7feba2e2253dd46a4a405077084f759847a.jpg"
  },
  {
    "name": "ACH_2PGAME_50000_SCORE",
    "defaultvalue": 0,
    "displayName": "Dynamic Duo",
    "hidden": 0,
    "description": "Reach 50,000 score in a 2-player game.",
    "icon": "https://steamcdn-a.akamaihd.net/steamcommunity/public/images/apps/501740/d13b274907e73c0ad998987f0c9ae5b3f465f2f6.jpg",
    "icongray": "https://steamcdn-a.akamaihd.net/steamcommunity/public/images/apps/501740/7bb2b4de82d61fe94e60d301a76dba2175190264.jpg"
  },
  {
    "name": "ACH_2PGAME_100000_SCORE",
    "defaultvalue": 0,
    "displayName": "BFFs",
    "hidden": 0,
    "description": "Reach 100,000 score in a 2-player game.",
    "icon": "https://steamcdn-a.akamaihd.net/steamcommunity/public/images/apps/501740/fafbab42998d7c9aff902caf0642ce88ed21980e.jpg",
    "icongray": "https://steamcdn-a.akamaihd.net/steamcommunity/public/images/apps/501740/cb4ad365371b28d8808d695daec698df126e8348.jpg"
  },
  {
    "name": "ACH_3PGAME_20000_SCORE",
    "defaultvalue": 0,
    "displayName": "Three's A Crowd",
    "hidden": 0,
    "description": "Reach 20,000 score in a 3-player game.",
    "icon": "https://steamcdn-a.akamaihd.net/steamcommunity/public/images/apps/501740/a306e043a5c7402bac393109f7a979d5a6c31a9c.jpg",
    "icongray": "https://steamcdn-a.akamaihd.net/steamcommunity/public/images/apps/501740/3978c85374a738364021a8c0b6e1729af494aea9.jpg"
  },
  {
    "name": "ACH_3PGAME_50000_SCORE",
    "defaultvalue": 0,
    "displayName": "Triple Threat",
    "hidden": 0,
    "description": "Reach 50,000 score in a 3-player game.",
    "icon": "https://steamcdn-a.akamaihd.net/steamcommunity/public/images/apps/501740/a2f0020b597344b50e4290f621396196a08df765.jpg",
    "icongray": "https://steamcdn-a.akamaihd.net/steamcommunity/public/images/apps/501740/8d873519b4b91fb2624aaea3dd6a0a127e2e6e31.jpg"
  },
  {
    "name": "ACH_3PGAME_100000_SCORE",
    "defaultvalue": 0,
    "displayName": "Holy Trinity",
    "hidden": 0,
    "description": "Reach 100,000 score in a 3-player game.",
    "icon": "https://steamcdn-a.akamaihd.net/steamcommunity/public/images/apps/501740/6ded5576ee52c9eaf1a6058a70f34a47342affae.jpg",
    "icongray": "https://steamcdn-a.akamaihd.net/steamcommunity/public/images/apps/501740/25803883e57b568dd575e6f2e484a888dc3b81b6.jpg"
  },
  {
    "name": "ACH_4PGAME_20000_SCORE",
    "defaultvalue": 0,
    "displayName": "There's No I In Team",
    "hidden": 0,
    "description": "Reach 20,000 score in a 4-player game.",
    "icon": "https://steamcdn-a.akamaihd.net/steamcommunity/public/images/apps/501740/3db78cc11e2e7680228a1e615a6414a68097542a.jpg",
    "icongray": "https://steamcdn-a.akamaihd.net/steamcommunity/public/images/apps/501740/185eebf098964e4edf0bae8aa0b0e338aff14f1d.jpg"
  },
  {
    "name": "ACH_4PGAME_50000_SCORE",
    "defaultvalue": 0,
    "displayName": "Veteran Squad",
    "hidden": 0,
    "description": "Reach 50,000 score in a 4-player game.",
    "icon": "https://steamcdn-a.akamaihd.net/steamcommunity/public/images/apps/501740/7ca324a6875b2533403a3a946ca1b10a74c18ed3.jpg",
    "icongray": "https://steamcdn-a.akamaihd.net/steamcommunity/public/images/apps/501740/0dca054d2ff815d62916f20a427217aa4569039a.jpg"
  },
  {
    "name": "ACH_4PGAME_100000_SCORE",
    "defaultvalue": 0,
    "displayName": "The Elite",
    "hidden": 0,
    "description": "Reach 100,000 score in a 4-player game.",
    "icon": "https://steamcdn-a.akamaihd.net/steamcommunity/public/images/apps/501740/f86be85689c1314f0027949a9c688367f20e5ef4.jpg",
    "icongray": "https://steamcdn-a.akamaihd.net/steamcommunity/public/images/apps/501740/39578dc2b4b8d182ad96c1d65bbb34326fee9b3d.jpg"
  }
]