{
  "Dlcs": {
    "1252310": {
      "Name": "Insurgence - Second Assault Early Bird Package",
      "ImageUrl": "https://steamcdn-a.akamaihd.net/steam/apps/1252310/header.jpg?t=1582815810"
    }
  },
  "Name": "Insurgence - Second Assault",
  "AppId": "1081100",
  "ImageUrl": "https://steamcdn-a.akamaihd.net/steam/apps/1081100/header.jpg?t=1597543273",
  "Languages": [
    "english"
  ],
  "Platforms": {
    "windows": true,
    "mac": false,
    "linux": false
  }
}