[
  {
    "name": "ACH_LVL_1ST",
    "defaultvalue": 0,
    "displayName": "1st Time",
    "hidden": 0,
    "description": "Complete the First level in the Level mode.",
    "icon": "https://steamcdn-a.akamaihd.net/steamcommunity/public/images/apps/1059840/6c257ee00b6457dbf8e3d4a72a9f5775e484c8b6.jpg",
    "icongray": "https://steamcdn-a.akamaihd.net/steamcommunity/public/images/apps/1059840/180b142ec1069879237614421f090e5794bf2a9e.jpg"
  },
  {
    "name": "ACH_LVL_4TH",
    "defaultvalue": 0,
    "displayName": "Lucky 4th",
    "hidden": 0,
    "description": "Complete 4th fourth level in the Level mode.",
    "icon": "https://steamcdn-a.akamaihd.net/steamcommunity/public/images/apps/1059840/291c0f84832891dc6b5dcd096988f960d097a8e9.jpg",
    "icongray": "https://steamcdn-a.akamaihd.net/steamcommunity/public/images/apps/1059840/73f9573d07d6c52d04ffab74ef10d87bf4ca6d51.jpg"
  },
  {
    "name": "ACH_LVL_12TH",
    "defaultvalue": 0,
    "displayName": "A Dozen",
    "hidden": 0,
    "description": "Complete the 12th level in the Level mode.",
    "icon": "https://steamcdn-a.akamaihd.net/steamcommunity/public/images/apps/1059840/f210992e727d0e445d739c368a5ba68dd3379a95.jpg",
    "icongray": "https://steamcdn-a.akamaihd.net/steamcommunity/public/images/apps/1059840/ab8cd1157619710c2e08e555f11bd0ccb866329b.jpg"
  },
  {
    "name": "ACH_LVL_20TH",
    "defaultvalue": 0,
    "displayName": "20th Time",
    "hidden": 0,
    "description": "Complete the 20th level in the Level mode.",
    "icon": "https://steamcdn-a.akamaihd.net/steamcommunity/public/images/apps/1059840/77e16d10cd5e810bf6b7b0e99652d83513f67d97.jpg",
    "icongray": "https://steamcdn-a.akamaihd.net/steamcommunity/public/images/apps/1059840/144a2cb02e9972a3eb73454307a738c83597497a.jpg"
  },
  {
    "name": "ACH_LVL_50TH",
    "defaultvalue": 0,
    "displayName": "Swiftly Fifty",
    "hidden": 0,
    "description": "Complete the 50th level in the Level mode.",
    "icon": "https://steamcdn-a.akamaihd.net/steamcommunity/public/images/apps/1059840/272e53c894754508656d0b203b99e9e510eb158f.jpg",
    "icongray": "https://steamcdn-a.akamaihd.net/steamcommunity/public/images/apps/1059840/788fbeb2a3c9e5ed4abddcf1493a5937433c19aa.jpg"
  },
  {
    "name": "ACH_LVL_100TH",
    "defaultvalue": 0,
    "displayName": "Hundredth Master",
    "hidden": 0,
    "description": "Complete the 100th level in the Level mode.",
    "icon": "https://steamcdn-a.akamaihd.net/steamcommunity/public/images/apps/1059840/cc657afb337347dd362024ba7a2ff25ad6b37254.jpg",
    "icongray": "https://steamcdn-a.akamaihd.net/steamcommunity/public/images/apps/1059840/707057e8c39055ca028f3113d981fb5b6feccceb.jpg"
  },
  {
    "name": "ACH_LVL_ONETRY",
    "defaultvalue": 0,
    "displayName": "One Try",
    "hidden": 0,
    "description": "Complete any level without dying.",
    "icon": "https://steamcdn-a.akamaihd.net/steamcommunity/public/images/apps/1059840/e146e4aae32655c42310cd913ad35fed14261513.jpg",
    "icongray": "https://steamcdn-a.akamaihd.net/steamcommunity/public/images/apps/1059840/0d7297affadc6dc84f115ffe0af31dfe3f99fb39.jpg"
  },
  {
    "name": "ACH_LVL_ELEMENTO",
    "defaultvalue": 0,
    "displayName": "Elemento",
    "hidden": 0,
    "description": "Unlock all the level features in the Level mode.",
    "icon": "https://steamcdn-a.akamaihd.net/steamcommunity/public/images/apps/1059840/9ec722b1ab6813bf0bb3f4a952b693fd0268b638.jpg",
    "icongray": "https://steamcdn-a.akamaihd.net/steamcommunity/public/images/apps/1059840/f7747abeff7f6e140e8a2e045d7a21868dce607f.jpg"
  },
  {
    "name": "ACH_END_E10",
    "defaultvalue": 0,
    "displayName": "First 10",
    "hidden": 0,
    "description": "Reach the high score of 10 in the Endless mode.",
    "icon": "https://steamcdn-a.akamaihd.net/steamcommunity/public/images/apps/1059840/0ba0bbd9ade0fb49430aa7a237cf7f451b5affce.jpg",
    "icongray": "https://steamcdn-a.akamaihd.net/steamcommunity/public/images/apps/1059840/5db89a5737e4e51153503c0944d683a34ff2650a.jpg"
  },
  {
    "name": "ACH_END_E20",
    "defaultvalue": 0,
    "displayName": "20 Points",
    "hidden": 0,
    "description": "Reach the high score of 20 in the Endless mode.",
    "icon": "https://steamcdn-a.akamaihd.net/steamcommunity/public/images/apps/1059840/b71fd216814754704ab4a83f222d5a3df88efec3.jpg",
    "icongray": "https://steamcdn-a.akamaihd.net/steamcommunity/public/images/apps/1059840/5e59aa9993c32e42b9277984c86d0bc805909ace.jpg"
  },
  {
    "name": "ACH_END_E50",
    "defaultvalue": 0,
    "displayName": "I’m 50",
    "hidden": 0,
    "description": "Reach the high score of 50 in the Endless mode.",
    "icon": "https://steamcdn-a.akamaihd.net/steamcommunity/public/images/apps/1059840/62c4d4e3b041ba2df3fade145c5a8cf4c9f189e2.jpg",
    "icongray": "https://steamcdn-a.akamaihd.net/steamcommunity/public/images/apps/1059840/f699582d055e4e6d5ba47817f4704fe2796654d3.jpg"
  },
  {
    "name": "ACH_END_E100",
    "defaultvalue": 0,
    "displayName": "100 Points",
    "hidden": 0,
    "description": "Reach the high score of 100 in the Endless mode.",
    "icon": "https://steamcdn-a.akamaihd.net/steamcommunity/public/images/apps/1059840/51ed987cbcf801e61127ffbe48b7aad728b04502.jpg",
    "icongray": "https://steamcdn-a.akamaihd.net/steamcommunity/public/images/apps/1059840/58b26273bae5f8c03d728cc23152e324aeed08a6.jpg"
  },
  {
    "name": "ACH_END_E200",
    "defaultvalue": 0,
    "displayName": "On Your Way",
    "hidden": 0,
    "description": "Reach the high score of 200 in the Endless mode.",
    "icon": "https://steamcdn-a.akamaihd.net/steamcommunity/public/images/apps/1059840/7f4d8f3930b225c75dbea59078faffe56ce31803.jpg",
    "icongray": "https://steamcdn-a.akamaihd.net/steamcommunity/public/images/apps/1059840/21068b470d0d506357fd2e687dfa70884b0fdefc.jpg"
  },
  {
    "name": "ACH_END_BIG-LEAP",
    "defaultvalue": 0,
    "displayName": "A Big Leap",
    "hidden": 0,
    "description": "Surpass your high score by 40 or more in one take in the Endless mode.",
    "icon": "https://steamcdn-a.akamaihd.net/steamcommunity/public/images/apps/1059840/3bc5a53eac719f34419a8812b4b686dfed49b9c6.jpg",
    "icongray": "https://steamcdn-a.akamaihd.net/steamcommunity/public/images/apps/1059840/5c3e054500ad475a4f431e643e0511518a6ab96d.jpg"
  },
  {
    "name": "ACH_END_ENERGON",
    "defaultvalue": 0,
    "displayName": "Energon !",
    "hidden": 0,
    "description": "Reach the high score of 20 in the Energon mode.",
    "icon": "https://steamcdn-a.akamaihd.net/steamcommunity/public/images/apps/1059840/33ce31f4155bf8efb2cc118b80a8e387dcdbecd5.jpg",
    "icongray": "https://steamcdn-a.akamaihd.net/steamcommunity/public/images/apps/1059840/61c2c731cee38de66b19bdcd33c5a1dd4c6b4fe9.jpg"
  },
  {
    "name": "ACH_END_CONSUMER",
    "defaultvalue": 0,
    "displayName": "Consumer",
    "hidden": 0,
    "description": "Consume 40 energons in one round in the Energon mode.",
    "icon": "https://steamcdn-a.akamaihd.net/steamcommunity/public/images/apps/1059840/0041058238d1bb9ee37c0c7d325d47e7ec0f3db8.jpg",
    "icongray": "https://steamcdn-a.akamaihd.net/steamcommunity/public/images/apps/1059840/768c8b2cfe79ace6ae188089d175fa72ff4228e1.jpg"
  },
  {
    "name": "ACH_END_1ENCOUNTER",
    "defaultvalue": 0,
    "displayName": "First Encounter",
    "hidden": 0,
    "description": "Reach the high score of 20 in the Enforcers mode.",
    "icon": "https://steamcdn-a.akamaihd.net/steamcommunity/public/images/apps/1059840/c260d2bd73d1618cc05c483e4bb3d6ce67df19bf.jpg",
    "icongray": "https://steamcdn-a.akamaihd.net/steamcommunity/public/images/apps/1059840/ea081ecc46888a0cc14eb8524d64b54b2603d839.jpg"
  },
  {
    "name": "ACH_END_MED",
    "defaultvalue": 0,
    "displayName": "Meditator",
    "hidden": 0,
    "description": "Play the Zen mode for 5 minutes straight.",
    "icon": "https://steamcdn-a.akamaihd.net/steamcommunity/public/images/apps/1059840/cffc5af515dc7b1fbd1b9a649dd783a8963363aa.jpg",
    "icongray": "https://steamcdn-a.akamaihd.net/steamcommunity/public/images/apps/1059840/503bb932082d7e26023d713927de4f928988b861.jpg"
  },
  {
    "name": "ACH_END_EFC",
    "defaultvalue": 0,
    "displayName": "Hands of Enforcers",
    "hidden": 0,
    "description": "Reach the high score of 100 in the Enforcers mode.",
    "icon": "https://steamcdn-a.akamaihd.net/steamcommunity/public/images/apps/1059840/3115d014570bc8e184fdf09de8ac4a75030b6ede.jpg",
    "icongray": "https://steamcdn-a.akamaihd.net/steamcommunity/public/images/apps/1059840/62cf0fe26bad9c319bdfd6cfbed0950acb6f490d.jpg"
  },
  {
    "name": "ACH_MSC_DTH",
    "defaultvalue": 0,
    "displayName": "First Death",
    "hidden": 0,
    "description": "Die for once.",
    "icon": "https://steamcdn-a.akamaihd.net/steamcommunity/public/images/apps/1059840/9fe2280c46484b2ad231aa244051c9cd3e311552.jpg",
    "icongray": "https://steamcdn-a.akamaihd.net/steamcommunity/public/images/apps/1059840/81d9439e810f32e5a8401a28524f34d70a319105.jpg"
  },
  {
    "name": "ACH_MSC_RKE",
    "defaultvalue": 0,
    "displayName": "Rookie",
    "hidden": 0,
    "description": "Die for 50 times.",
    "icon": "https://steamcdn-a.akamaihd.net/steamcommunity/public/images/apps/1059840/f2beef8e3922f95b484c5b8745632dd043510764.jpg",
    "icongray": "https://steamcdn-a.akamaihd.net/steamcommunity/public/images/apps/1059840/84598c686ac69a3578125e3d82351e281d8b1658.jpg"
  },
  {
    "name": "ACH_MSC_VTR",
    "defaultvalue": 0,
    "displayName": "Veteran",
    "hidden": 0,
    "description": "Die for 100 times.",
    "icon": "https://steamcdn-a.akamaihd.net/steamcommunity/public/images/apps/1059840/98e50dc5c2459a26e901075baf4db62f930edb48.jpg",
    "icongray": "https://steamcdn-a.akamaihd.net/steamcommunity/public/images/apps/1059840/ff26f666c5f49ebe92d81dfc39060321563c4629.jpg"
  },
  {
    "name": "ACH_MSC_INV",
    "defaultvalue": 0,
    "displayName": "Invincible",
    "hidden": 0,
    "description": "Die for 500 times.",
    "icon": "https://steamcdn-a.akamaihd.net/steamcommunity/public/images/apps/1059840/1936c70ff2c722a058b0e05dd3f50c6576b13ed3.jpg",
    "icongray": "https://steamcdn-a.akamaihd.net/steamcommunity/public/images/apps/1059840/80ab8d2c1bfbd8899f11ac023a47411707a94211.jpg"
  },
  {
    "name": "ACH_MSC_TUT",
    "defaultvalue": 0,
    "displayName": "I know...",
    "hidden": 0,
    "description": "Complete the tutorial.",
    "icon": "https://steamcdn-a.akamaihd.net/steamcommunity/public/images/apps/1059840/e101d41d7e9b3205460607d59cf7b4fcbb3b6da6.jpg",
    "icongray": "https://steamcdn-a.akamaihd.net/steamcommunity/public/images/apps/1059840/5e4b66a046f30ed14cef63bd3138015bb4e7b6d5.jpg"
  }
]