{
  "Dlcs": {},
  "Name": "Doctor Flow",
  "AppId": "836700",
  "ImageUrl": "https://steamcdn-a.akamaihd.net/steam/apps/836700/header.jpg?t=1530111632",
  "Languages": [
    "english",
    "dutch"
  ],
  "Platforms": {
    "windows": true,
    "mac": true,
    "linux": false
  }
}