{
  "Dlcs": {},
  "Name": "Bomber Fox",
  "AppId": "1193160",
  "ImageUrl": "https://steamcdn-a.akamaihd.net/steam/apps/1193160/header.jpg?t=1599848340",
  "Languages": [
    "english",
    "italian",
    "spanish",
    "polish"
  ],
  "Platforms": {
    "windows": true,
    "mac": false,
    "linux": false
  }
}