{
  "Dlcs": {},
  "Name": "Cart Racer",
  "AppId": "587420",
  "ImageUrl": "https://steamcdn-a.akamaihd.net/steam/apps/587420/header.jpg?t=1539186282",
  "Languages": [
    "english"
  ],
  "Platforms": {
    "windows": true,
    "mac": false,
    "linux": false
  }
}