{
  "Dlcs": {},
  "Name": "Iron Reckoning",
  "AppId": "1281920",
  "ImageUrl": "https://steamcdn-a.akamaihd.net/steam/apps/1281920/header.jpg?t=1599926665",
  "Languages": [
    "english"
  ],
  "Platforms": {
    "windows": true,
    "mac": true,
    "linux": true
  }
}