[
  {
    "name": "CIFRAO1",
    "defaultvalue": 0,
    "displayName": "CIFRAO"
  },
  {
    "name": "STARS30",
    "defaultvalue": 0,
    "displayName": "STARS"
  },
  {
    "name": "stat_6",
    "defaultvalue": 0,
    "displayName": ""
  },
  {
    "name": "stat_7",
    "defaultvalue": 0,
    "displayName": ""
  },
  {
    "name": "stat_8",
    "defaultvalue": 0,
    "displayName": ""
  },
  {
    "name": "stat_9",
    "defaultvalue": 0,
    "displayName": ""
  },
  {
    "name": "stat_10",
    "defaultvalue": 0,
    "displayName": ""
  },
  {
    "name": "stat_11",
    "defaultvalue": 0,
    "displayName": "k"
  },
  {
    "name": "stat_12",
    "defaultvalue": 0,
    "displayName": ""
  },
  {
    "name": "stat_13",
    "defaultvalue": 0,
    "displayName": ""
  },
  {
    "name": "stat_14",
    "defaultvalue": 0,
    "displayName": ""
  },
  {
    "name": "123",
    "defaultvalue": 0,
    "displayName": ""
  }
]