{
  "Dlcs": {
    "830740": {
      "Name": "Zhmyshenko Valery Albertovich - OST",
      "ImageUrl": "https://steamcdn-a.akamaihd.net/steam/apps/830740/header.jpg?t=1524758255"
    }
  },
  "Name": "Zhmyshenko Valery Albertovich",
  "AppId": "816180",
  "ImageUrl": "https://steamcdn-a.akamaihd.net/steam/apps/816180/header.jpg?t=1524758120",
  "Languages": [
    "english",
    "russian"
  ],
  "Platforms": {
    "windows": true,
    "mac": false,
    "linux": false
  }
}