{
  "Dlcs": {},
  "Name": "Orbitality",
  "AppId": "753100",
  "ImageUrl": "https://steamcdn-a.akamaihd.net/steam/apps/753100/header.jpg?t=1593664677",
  "Languages": [
    "english",
    "german",
    "schinese",
    "russian",
    "french",
    "italian",
    "spanish",
    "korean"
  ],
  "Platforms": {
    "windows": true,
    "mac": true,
    "linux": false
  }
}