[
  {
    "name": "Complete",
    "defaultvalue": 0,
    "displayName": "Enlightening Culminations",
    "hidden": 0,
    "description": "At long last...",
    "icon": "https://steamcdn-a.akamaihd.net/steamcommunity/public/images/apps/305780/aafa3a17d08781296f1c0f0b79486cfb97b3dd7d.jpg",
    "icongray": "https://steamcdn-a.akamaihd.net/steamcommunity/public/images/apps/305780/70eedba435c7d60014a633b242c4cdbba3d2bafc.jpg"
  },
  {
    "name": "Lost",
    "defaultvalue": 0,
    "displayName": "Lostening Adriftations",
    "hidden": 0,
    "description": "In the moonic place beyond Wilds... what dark pact have I done?",
    "icon": "https://steamcdn-a.akamaihd.net/steamcommunity/public/images/apps/305780/e98f1a995fdcc1f9d240ede8c63f5cf39b9cf869.jpg",
    "icongray": "https://steamcdn-a.akamaihd.net/steamcommunity/public/images/apps/305780/fbcf0d9f79b5e733c9f169423aeedfb39016c1f3.jpg"
  },
  {
    "name": "Mixer",
    "defaultvalue": 0,
    "displayName": "Master Mixery Extraordinaire",
    "hidden": 0,
    "description": "Mix up a batch of every mixery recipe, in a single game.",
    "icon": "https://steamcdn-a.akamaihd.net/steamcommunity/public/images/apps/305780/3509286cbb72ec394f709c0500e88ecada6fa8d5.jpg",
    "icongray": "https://steamcdn-a.akamaihd.net/steamcommunity/public/images/apps/305780/70eedba435c7d60014a633b242c4cdbba3d2bafc.jpg"
  },
  {
    "name": "Diary",
    "defaultvalue": 0,
    "displayName": "Founding of Forsaken Tales",
    "hidden": 0,
    "description": "Find and unify all lost diary entries.",
    "icon": "https://steamcdn-a.akamaihd.net/steamcommunity/public/images/apps/305780/1218a653e1efd32babfd81fdea7e10b4d5371a54.jpg",
    "icongray": "https://steamcdn-a.akamaihd.net/steamcommunity/public/images/apps/305780/70eedba435c7d60014a633b242c4cdbba3d2bafc.jpg"
  },
  {
    "name": "Talisman_Jungles",
    "defaultvalue": 0,
    "displayName": "Talismanic Piece Collator",
    "hidden": 0,
    "description": "You feel... moxie? Don't you?",
    "icon": "https://steamcdn-a.akamaihd.net/steamcommunity/public/images/apps/305780/2090890897c370478847629bd7e562017216aba1.jpg",
    "icongray": "https://steamcdn-a.akamaihd.net/steamcommunity/public/images/apps/305780/70eedba435c7d60014a633b242c4cdbba3d2bafc.jpg"
  },
  {
    "name": "Talisman_Rockies",
    "defaultvalue": 0,
    "displayName": "Talismanic Piece Collator",
    "hidden": 0,
    "description": "You feel... insightful? Don't you?",
    "icon": "https://steamcdn-a.akamaihd.net/steamcommunity/public/images/apps/305780/2daf9795a4ab577d4b502e2bdc6feca4d50a4547.jpg",
    "icongray": "https://steamcdn-a.akamaihd.net/steamcommunity/public/images/apps/305780/70eedba435c7d60014a633b242c4cdbba3d2bafc.jpg"
  },
  {
    "name": "Talisman_Caverns",
    "defaultvalue": 0,
    "displayName": "Talismanic Piece Collator",
    "hidden": 0,
    "description": "You feel... ardent? Don't you?",
    "icon": "https://steamcdn-a.akamaihd.net/steamcommunity/public/images/apps/305780/4502c108516d5b2b197a6c5f1bf310e29ac94b44.jpg",
    "icongray": "https://steamcdn-a.akamaihd.net/steamcommunity/public/images/apps/305780/70eedba435c7d60014a633b242c4cdbba3d2bafc.jpg"
  },
  {
    "name": "Talisman_Plains",
    "defaultvalue": 0,
    "displayName": "Talismanic Piece Collator",
    "hidden": 0,
    "description": "You feel... spirited? Don't you?",
    "icon": "https://steamcdn-a.akamaihd.net/steamcommunity/public/images/apps/305780/38d28ad134311e3402ed7e3ef8b420b4e0f26100.jpg",
    "icongray": "https://steamcdn-a.akamaihd.net/steamcommunity/public/images/apps/305780/70eedba435c7d60014a633b242c4cdbba3d2bafc.jpg"
  },
  {
    "name": "Summer",
    "defaultvalue": 0,
    "displayName": "Summer Steamings",
    "hidden": 0,
    "description": "Gosh, I made it to Summer...",
    "icon": "https://steamcdn-a.akamaihd.net/steamcommunity/public/images/apps/305780/d3e17e6730410130aae0dde3e0a4d47d2d2e0e64.jpg",
    "icongray": "https://steamcdn-a.akamaihd.net/steamcommunity/public/images/apps/305780/fbcf0d9f79b5e733c9f169423aeedfb39016c1f3.jpg"
  },
  {
    "name": "Autumn",
    "defaultvalue": 0,
    "displayName": "Autumn Fall",
    "hidden": 0,
    "description": "Golly, I made it to Autumn...",
    "icon": "https://steamcdn-a.akamaihd.net/steamcommunity/public/images/apps/305780/234bba9883207df146f937557ea516f70c88f79d.jpg",
    "icongray": "https://steamcdn-a.akamaihd.net/steamcommunity/public/images/apps/305780/70eedba435c7d60014a633b242c4cdbba3d2bafc.jpg"
  },
  {
    "name": "Winter",
    "defaultvalue": 0,
    "displayName": "Winter Wonderland",
    "hidden": 0,
    "description": "Golly gosh, I made it to Winter...",
    "icon": "https://steamcdn-a.akamaihd.net/steamcommunity/public/images/apps/305780/52f191c8cb49d66b0a8a5b6b0421e117468c473a.jpg",
    "icongray": "https://steamcdn-a.akamaihd.net/steamcommunity/public/images/apps/305780/70eedba435c7d60014a633b242c4cdbba3d2bafc.jpg"
  },
  {
    "name": "Gateway_Jungles",
    "defaultvalue": 0,
    "displayName": "Releasing Gateway",
    "hidden": 0,
    "description": "Unlock the jungles gateway.",
    "icon": "https://steamcdn-a.akamaihd.net/steamcommunity/public/images/apps/305780/ae633c6be24dd39cf2c00cc6a90d2504b1bed0b7.jpg",
    "icongray": "https://steamcdn-a.akamaihd.net/steamcommunity/public/images/apps/305780/70eedba435c7d60014a633b242c4cdbba3d2bafc.jpg"
  },
  {
    "name": "Gateway_Rockies",
    "defaultvalue": 0,
    "displayName": "Releasing Gateway",
    "hidden": 0,
    "description": "Unlock the rockies gateway.",
    "icon": "https://steamcdn-a.akamaihd.net/steamcommunity/public/images/apps/305780/c941ef472313ed0d32ce5f40bcb014b3b8af5c3a.jpg",
    "icongray": "https://steamcdn-a.akamaihd.net/steamcommunity/public/images/apps/305780/70eedba435c7d60014a633b242c4cdbba3d2bafc.jpg"
  },
  {
    "name": "Gateway_Plains",
    "defaultvalue": 0,
    "displayName": "Releasing Gateway",
    "hidden": 0,
    "description": "Unlock the plains gateway.",
    "icon": "https://steamcdn-a.akamaihd.net/steamcommunity/public/images/apps/305780/53644192e3b8d292ca05dbdd73155f43e94f6c22.jpg",
    "icongray": "https://steamcdn-a.akamaihd.net/steamcommunity/public/images/apps/305780/70eedba435c7d60014a633b242c4cdbba3d2bafc.jpg"
  },
  {
    "name": "Gateway_Caverns",
    "defaultvalue": 0,
    "displayName": "Releasing Gateway",
    "hidden": 0,
    "description": "Unlock the caverns gateway.",
    "icon": "https://steamcdn-a.akamaihd.net/steamcommunity/public/images/apps/305780/ea553252219c262ebba838f7ba1fddc53aeb2b71.jpg",
    "icongray": "https://steamcdn-a.akamaihd.net/steamcommunity/public/images/apps/305780/70eedba435c7d60014a633b242c4cdbba3d2bafc.jpg"
  },
  {
    "name": "Fashion",
    "defaultvalue": 0,
    "displayName": "Absolutely Fabulous",
    "hidden": 0,
    "description": "Strutt the wilds wearing all regalia, in a single game.",
    "icon": "https://steamcdn-a.akamaihd.net/steamcommunity/public/images/apps/305780/3c1db48f348952bdfb68d24967637125b69db7ac.jpg",
    "icongray": "https://steamcdn-a.akamaihd.net/steamcommunity/public/images/apps/305780/70eedba435c7d60014a633b242c4cdbba3d2bafc.jpg"
  },
  {
    "name": "It_Begins",
    "defaultvalue": 0,
    "displayName": "It Begins",
    "hidden": 0,
    "description": "I actually played the game for more than 5 minutes...",
    "icon": "https://steamcdn-a.akamaihd.net/steamcommunity/public/images/apps/305780/348748885d11c073be34f985d2f07eb55d0facdf.jpg",
    "icongray": "https://steamcdn-a.akamaihd.net/steamcommunity/public/images/apps/305780/70eedba435c7d60014a633b242c4cdbba3d2bafc.jpg"
  },
  {
    "name": "Full_Map",
    "defaultvalue": 0,
    "displayName": "Scouting Fulfilment",
    "hidden": 0,
    "description": "Discover every wildly area, in a single game.",
    "icon": "https://steamcdn-a.akamaihd.net/steamcommunity/public/images/apps/305780/830aee59709136b1ddee87efa3d92c53e57a9316.jpg",
    "icongray": "https://steamcdn-a.akamaihd.net/steamcommunity/public/images/apps/305780/70eedba435c7d60014a633b242c4cdbba3d2bafc.jpg"
  },
  {
    "name": "IKEA",
    "defaultvalue": 0,
    "displayName": "IKEA Junkie",
    "hidden": 0,
    "description": "Build all camp upgrades, in a single game.",
    "icon": "https://steamcdn-a.akamaihd.net/steamcommunity/public/images/apps/305780/afe89cb6c41620ded17b3226f943c097cb42fbf3.jpg",
    "icongray": "https://steamcdn-a.akamaihd.net/steamcommunity/public/images/apps/305780/70eedba435c7d60014a633b242c4cdbba3d2bafc.jpg"
  },
  {
    "name": "Talisman_Head",
    "defaultvalue": 0,
    "displayName": "Talismanic Piece Collator",
    "hidden": 0,
    "description": "You feel... hearty? Don't you?",
    "icon": "https://steamcdn-a.akamaihd.net/steamcommunity/public/images/apps/305780/5ee5e9b9e5643f946796dfed957888fd42bfeaa8.jpg",
    "icongray": "https://steamcdn-a.akamaihd.net/steamcommunity/public/images/apps/305780/70eedba435c7d60014a633b242c4cdbba3d2bafc.jpg"
  },
  {
    "name": "Loop",
    "defaultvalue": 0,
    "displayName": "Frayed Ends",
    "hidden": 0,
    "description": "Discover the disremembered loop...",
    "icon": "https://steamcdn-a.akamaihd.net/steamcommunity/public/images/apps/305780/14bc03c08e6cca267b82af9634d834d6107329b4.jpg",
    "icongray": "https://steamcdn-a.akamaihd.net/steamcommunity/public/images/apps/305780/70eedba435c7d60014a633b242c4cdbba3d2bafc.jpg"
  },
  {
    "name": "Purpose",
    "defaultvalue": 0,
    "displayName": "Shattered Collations",
    "hidden": 0,
    "description": "Discover the means to unseal your salvation...",
    "icon": "https://steamcdn-a.akamaihd.net/steamcommunity/public/images/apps/305780/a65e9049325726b4e044155589052f63731111b5.jpg",
    "icongray": "https://steamcdn-a.akamaihd.net/steamcommunity/public/images/apps/305780/70eedba435c7d60014a633b242c4cdbba3d2bafc.jpg"
  },
  {
    "name": "Truth",
    "defaultvalue": 0,
    "displayName": "Reality's Fabric",
    "hidden": 0,
    "description": "Discover the nature of yourself...",
    "icon": "https://steamcdn-a.akamaihd.net/steamcommunity/public/images/apps/305780/783a1b03653df148c6bbb42e650fc9d78f126cce.jpg",
    "icongray": "https://steamcdn-a.akamaihd.net/steamcommunity/public/images/apps/305780/70eedba435c7d60014a633b242c4cdbba3d2bafc.jpg"
  },
  {
    "name": "Tool",
    "defaultvalue": 0,
    "displayName": "Craftily Altars",
    "hidden": 0,
    "description": "Discover survival beginnings...",
    "icon": "https://steamcdn-a.akamaihd.net/steamcommunity/public/images/apps/305780/d4ddc233365583d36ff7ab10881b8433a24492da.jpg",
    "icongray": "https://steamcdn-a.akamaihd.net/steamcommunity/public/images/apps/305780/fbcf0d9f79b5e733c9f169423aeedfb39016c1f3.jpg"
  },
  {
    "name": "Extent",
    "defaultvalue": 0,
    "displayName": "Graves End",
    "hidden": 0,
    "description": "Discover the true extent of your wanderings...",
    "icon": "https://steamcdn-a.akamaihd.net/steamcommunity/public/images/apps/305780/691949ce4ac60ce8c1fd26daa05a303c2300e613.jpg",
    "icongray": "https://steamcdn-a.akamaihd.net/steamcommunity/public/images/apps/305780/70eedba435c7d60014a633b242c4cdbba3d2bafc.jpg"
  },
  {
    "name": "Past",
    "defaultvalue": 0,
    "displayName": "Homely Forgottens",
    "hidden": 0,
    "description": "Discover the purposeful mists of past...",
    "icon": "https://steamcdn-a.akamaihd.net/steamcommunity/public/images/apps/305780/52913cd09179021c7a90efb0f7807553ce59aa4b.jpg",
    "icongray": "https://steamcdn-a.akamaihd.net/steamcommunity/public/images/apps/305780/fbcf0d9f79b5e733c9f169423aeedfb39016c1f3.jpg"
  },
  {
    "name": "Alone",
    "defaultvalue": 0,
    "displayName": "Strands Alone",
    "hidden": 0,
    "description": "Discover the hallucinary reality...",
    "icon": "https://steamcdn-a.akamaihd.net/steamcommunity/public/images/apps/305780/7387da1af9bd692e867424aee47d17aa0cd30fd1.jpg",
    "icongray": "https://steamcdn-a.akamaihd.net/steamcommunity/public/images/apps/305780/70eedba435c7d60014a633b242c4cdbba3d2bafc.jpg"
  },
  {
    "name": "Carnal",
    "defaultvalue": 0,
    "displayName": "Blood for the Bloodied Wilds",
    "hidden": 0,
    "description": "Butcher the most majestic of forested creatures... you monster!",
    "icon": "https://steamcdn-a.akamaihd.net/steamcommunity/public/images/apps/305780/7e9bed71b76c726b1162482cfc0a1b29153b7edb.jpg",
    "icongray": "https://steamcdn-a.akamaihd.net/steamcommunity/public/images/apps/305780/70eedba435c7d60014a633b242c4cdbba3d2bafc.jpg"
  },
  {
    "name": "Fish",
    "defaultvalue": 0,
    "displayName": "Most Blinging of Catches",
    "hidden": 0,
    "description": "Catch a glimmering goldilicious gargantuan gulper.",
    "icon": "https://steamcdn-a.akamaihd.net/steamcommunity/public/images/apps/305780/cf960bef0e40768f990f753bf07ac3d445da47b6.jpg",
    "icongray": "https://steamcdn-a.akamaihd.net/steamcommunity/public/images/apps/305780/70eedba435c7d60014a633b242c4cdbba3d2bafc.jpg"
  },
  {
    "name": "SaltLake",
    "defaultvalue": 0,
    "displayName": "Salts Glimmering",
    "hidden": 0,
    "description": "Consume the precious fruit of the incandescent oasis.",
    "icon": "https://steamcdn-a.akamaihd.net/steamcommunity/public/images/apps/305780/5f45f09887e7705cb360240d090388ce03705b57.jpg",
    "icongray": "https://steamcdn-a.akamaihd.net/steamcommunity/public/images/apps/305780/70eedba435c7d60014a633b242c4cdbba3d2bafc.jpg"
  },
  {
    "name": "Shrubbery",
    "defaultvalue": 0,
    "displayName": "Brambly Goldiful",
    "hidden": 0,
    "description": "Materialise a fully sated flock of precious crop.",
    "icon": "https://steamcdn-a.akamaihd.net/steamcommunity/public/images/apps/305780/5ce032341021922dadd47c7759ec70f310c58d6a.jpg",
    "icongray": "https://steamcdn-a.akamaihd.net/steamcommunity/public/images/apps/305780/70eedba435c7d60014a633b242c4cdbba3d2bafc.jpg"
  },
  {
    "name": "Appley",
    "defaultvalue": 0,
    "displayName": "Fertile Delighting",
    "hidden": 0,
    "description": "Cultivate the heartified fruits of the barren tree curiosity.",
    "icon": "https://steamcdn-a.akamaihd.net/steamcommunity/public/images/apps/305780/f429b32f6b6214778ab53515a29504f1bbe4c9b1.jpg",
    "icongray": "https://steamcdn-a.akamaihd.net/steamcommunity/public/images/apps/305780/70eedba435c7d60014a633b242c4cdbba3d2bafc.jpg"
  },
  {
    "name": "Borehole",
    "defaultvalue": 0,
    "displayName": "Unfamished Release",
    "hidden": 0,
    "description": "Learn of the demise of the trapped unstarving strand.",
    "icon": "https://steamcdn-a.akamaihd.net/steamcommunity/public/images/apps/305780/167d7c5a4c76fa98283ee20cff2e44c73d0ee22d.jpg",
    "icongray": "https://steamcdn-a.akamaihd.net/steamcommunity/public/images/apps/305780/70eedba435c7d60014a633b242c4cdbba3d2bafc.jpg"
  },
  {
    "name": "Witch",
    "defaultvalue": 0,
    "displayName": "Powdered Wonders",
    "hidden": 0,
    "description": "Witness the magicas of the transformaityalious!",
    "icon": "https://steamcdn-a.akamaihd.net/steamcommunity/public/images/apps/305780/d71c56ee063cb3efb966a05c4cb13a1a644e7d9a.jpg",
    "icongray": "https://steamcdn-a.akamaihd.net/steamcommunity/public/images/apps/305780/70eedba435c7d60014a633b242c4cdbba3d2bafc.jpg"
  },
  {
    "name": "Apartment",
    "defaultvalue": 0,
    "displayName": "Oddity Journey",
    "hidden": 0,
    "description": "Return from a homely trip clutching a tasty souvenir.",
    "icon": "https://steamcdn-a.akamaihd.net/steamcommunity/public/images/apps/305780/d502e2beb5d97079fdfc4c1f4dce85a9d79a33f7.jpg",
    "icongray": "https://steamcdn-a.akamaihd.net/steamcommunity/public/images/apps/305780/70eedba435c7d60014a633b242c4cdbba3d2bafc.jpg"
  },
  {
    "name": "Treasure",
    "defaultvalue": 0,
    "displayName": "Doubloon Bow",
    "hidden": 0,
    "description": "Ooo arrr shiver me timbers, the ol treasure be all mine me hearties!",
    "icon": "https://steamcdn-a.akamaihd.net/steamcommunity/public/images/apps/305780/0b76d387d4e5c7c00be512b866c70a751cd1b475.jpg",
    "icongray": "https://steamcdn-a.akamaihd.net/steamcommunity/public/images/apps/305780/70eedba435c7d60014a633b242c4cdbba3d2bafc.jpg"
  },
  {
    "name": "Orbicular",
    "defaultvalue": 0,
    "displayName": "Anomaly Transit",
    "hidden": 0,
    "description": "Dare reach for aqueous teleportative caress.",
    "icon": "https://steamcdn-a.akamaihd.net/steamcommunity/public/images/apps/305780/ba006c7c277bbb42d04530ec54a042b697ca3d2a.jpg",
    "icongray": "https://steamcdn-a.akamaihd.net/steamcommunity/public/images/apps/305780/70eedba435c7d60014a633b242c4cdbba3d2bafc.jpg"
  },
  {
    "name": "Sculpture",
    "defaultvalue": 0,
    "displayName": "Ashed Purpose",
    "hidden": 0,
    "description": "Enact the strangely sooty sculptural guidance.",
    "icon": "https://steamcdn-a.akamaihd.net/steamcommunity/public/images/apps/305780/8d5cecfbc0616c99a426603af9d27f7d58f97962.jpg",
    "icongray": "https://steamcdn-a.akamaihd.net/steamcommunity/public/images/apps/305780/70eedba435c7d60014a633b242c4cdbba3d2bafc.jpg"
  },
  {
    "name": "WinterAltar",
    "defaultvalue": 0,
    "displayName": "Snowy Rebuiltation",
    "hidden": 0,
    "description": "Rebuild the demolished shrine devotive of Winter Craft.",
    "icon": "https://steamcdn-a.akamaihd.net/steamcommunity/public/images/apps/305780/0f26c1103a9eb4c90d029669871481660a8e2ce3.jpg",
    "icongray": "https://steamcdn-a.akamaihd.net/steamcommunity/public/images/apps/305780/70eedba435c7d60014a633b242c4cdbba3d2bafc.jpg"
  }
]