[
  {
    "name": "ACH_SURVIVE_5_DAYS",
    "defaultvalue": 0,
    "displayName": "Prepper",
    "hidden": 0,
    "description": "Survive 5 days in your fallout shelter.",
    "icon": "https://steamcdn-a.akamaihd.net/steamcommunity/public/images/apps/1012880/f69d452417b80e57ea9a58ab5f2e9bc7e359a07a.jpg",
    "icongray": "https://steamcdn-a.akamaihd.net/steamcommunity/public/images/apps/1012880/6b14e10e3bb556761ece7a08b9bb069e47bf6b99.jpg"
  },
  {
    "name": "ACH_SURVIVE_10_DAYS",
    "defaultvalue": 0,
    "displayName": "I will survive!",
    "hidden": 0,
    "description": "Last for 10 days in your fallout shelter.",
    "icon": "https://steamcdn-a.akamaihd.net/steamcommunity/public/images/apps/1012880/144ee4ed3541a20fd98e553788ab94a7440b40dd.jpg",
    "icongray": "https://steamcdn-a.akamaihd.net/steamcommunity/public/images/apps/1012880/6b14e10e3bb556761ece7a08b9bb069e47bf6b99.jpg"
  },
  {
    "name": "ACH_SURVIVE_20_DAYS",
    "defaultvalue": 0,
    "displayName": "Survivalist",
    "hidden": 0,
    "description": "Stay in your fallout shelter for 20 days.",
    "icon": "https://steamcdn-a.akamaihd.net/steamcommunity/public/images/apps/1012880/40d9d2e979a9dc63aede8aaafe4505c08c2ad093.jpg",
    "icongray": "https://steamcdn-a.akamaihd.net/steamcommunity/public/images/apps/1012880/6b14e10e3bb556761ece7a08b9bb069e47bf6b99.jpg"
  },
  {
    "name": "ACH_SURVIVE_40_DAYS",
    "defaultvalue": 0,
    "displayName": "Last man standing",
    "hidden": 0,
    "description": "Stay alive in your fallout shelter for 40 days.",
    "icon": "https://steamcdn-a.akamaihd.net/steamcommunity/public/images/apps/1012880/889fa79cb2469709ce6294dd41ab2f9d44007192.jpg",
    "icongray": "https://steamcdn-a.akamaihd.net/steamcommunity/public/images/apps/1012880/6b14e10e3bb556761ece7a08b9bb069e47bf6b99.jpg"
  },
  {
    "name": "ACH_SURVIVE_111_DAYS",
    "defaultvalue": 0,
    "displayName": "Konrad style!",
    "hidden": 0,
    "description": "Beat the fallout shelter survival record.",
    "icon": "https://steamcdn-a.akamaihd.net/steamcommunity/public/images/apps/1012880/4c1c8a02ad87bf1e1494408df0ec611441ae95d1.jpg",
    "icongray": "https://steamcdn-a.akamaihd.net/steamcommunity/public/images/apps/1012880/6b14e10e3bb556761ece7a08b9bb069e47bf6b99.jpg"
  },
  {
    "name": "ACH_10_SOUP",
    "defaultvalue": 0,
    "displayName": "Souper!",
    "hidden": 0,
    "description": "Collect 10 soup cans from your house.",
    "icon": "https://steamcdn-a.akamaihd.net/steamcommunity/public/images/apps/1012880/e2a8bd90c2be13cfe8d429ad5c3e7b5727d29eac.jpg",
    "icongray": "https://steamcdn-a.akamaihd.net/steamcommunity/public/images/apps/1012880/6b14e10e3bb556761ece7a08b9bb069e47bf6b99.jpg"
  },
  {
    "name": "ACH_10_WATER",
    "defaultvalue": 0,
    "displayName": "2-1-6",
    "hidden": 0,
    "description": "Collect 10 water bottles from your house.",
    "icon": "https://steamcdn-a.akamaihd.net/steamcommunity/public/images/apps/1012880/eebe9c2b95cffcec18b4d0fdfd6f6bb13e763227.jpg",
    "icongray": "https://steamcdn-a.akamaihd.net/steamcommunity/public/images/apps/1012880/6b14e10e3bb556761ece7a08b9bb069e47bf6b99.jpg"
  },
  {
    "name": "ACH_ALL_BROKEN",
    "defaultvalue": 0,
    "displayName": "Danger zone",
    "hidden": 0,
    "description": "Break or use everything possible in your shelter.",
    "icon": "https://steamcdn-a.akamaihd.net/steamcommunity/public/images/apps/1012880/57d319a243e55ad187d0b8bce02ec2211fd8bd2c.jpg",
    "icongray": "https://steamcdn-a.akamaihd.net/steamcommunity/public/images/apps/1012880/6b14e10e3bb556761ece7a08b9bb069e47bf6b99.jpg"
  },
  {
    "name": "ACH_BROKEN",
    "defaultvalue": 0,
    "displayName": "All thumbs",
    "hidden": 0,
    "description": "Break or use something in your fallout shelter.",
    "icon": "https://steamcdn-a.akamaihd.net/steamcommunity/public/images/apps/1012880/5aa98a96acfc38973c716860a552f78677ccc46c.jpg",
    "icongray": "https://steamcdn-a.akamaihd.net/steamcommunity/public/images/apps/1012880/6b14e10e3bb556761ece7a08b9bb069e47bf6b99.jpg"
  },
  {
    "name": "ACH_ALL_CRAZY",
    "defaultvalue": 0,
    "displayName": "Cuckoo's nest",
    "hidden": 0,
    "description": "Turn your fallout shelter into a madhouse.",
    "icon": "https://steamcdn-a.akamaihd.net/steamcommunity/public/images/apps/1012880/d76d50cfa5275e19eb839abffe55299db4a2fccd.jpg",
    "icongray": "https://steamcdn-a.akamaihd.net/steamcommunity/public/images/apps/1012880/6b14e10e3bb556761ece7a08b9bb069e47bf6b99.jpg"
  },
  {
    "name": "ACH_ALL_ITEMS",
    "defaultvalue": 0,
    "displayName": "Gotta get 'em all",
    "hidden": 0,
    "description": "Scavenge each item at least once.",
    "icon": "https://steamcdn-a.akamaihd.net/steamcommunity/public/images/apps/1012880/fa78150209d365eb763ecb59abbbb5cf8142addd.jpg",
    "icongray": "https://steamcdn-a.akamaihd.net/steamcommunity/public/images/apps/1012880/164ca5865bc209fcd4cae730f8f91c0696b957d9.jpg"
  },
  {
    "name": "ACH_ATOMIC_DRILL",
    "defaultvalue": 0,
    "displayName": "Atomic drill",
    "hidden": 0,
    "description": "Complete the government endorsed fallout drill.",
    "icon": "https://steamcdn-a.akamaihd.net/steamcommunity/public/images/apps/1012880/03eb7e66ebb6a484d40710282841b1de8d2db951.jpg",
    "icongray": "https://steamcdn-a.akamaihd.net/steamcommunity/public/images/apps/1012880/6b14e10e3bb556761ece7a08b9bb069e47bf6b99.jpg"
  },
  {
    "name": "ACH_BAD_ENDING",
    "defaultvalue": 0,
    "displayName": "This is the end",
    "hidden": 0,
    "description": "It's all over.",
    "icon": "https://steamcdn-a.akamaihd.net/steamcommunity/public/images/apps/1012880/bf5a10d0b1f42220a4e3bc67e1d76297ce036828.jpg",
    "icongray": "https://steamcdn-a.akamaihd.net/steamcommunity/public/images/apps/1012880/6b14e10e3bb556761ece7a08b9bb069e47bf6b99.jpg"
  },
  {
    "name": "ACH_GOOD_ENDING",
    "defaultvalue": 0,
    "displayName": "Rescue time!",
    "hidden": 0,
    "description": "Get rescued by the military.",
    "icon": "https://steamcdn-a.akamaihd.net/steamcommunity/public/images/apps/1012880/de8a62655437ac342084a247d952fd0b45d94af2.jpg",
    "icongray": "https://steamcdn-a.akamaihd.net/steamcommunity/public/images/apps/1012880/6b14e10e3bb556761ece7a08b9bb069e47bf6b99.jpg"
  },
  {
    "name": "ACH_BUG_KILLER",
    "defaultvalue": 0,
    "displayName": " Bughunter",
    "hidden": 0,
    "description": "Show those mutant roaches who is in charge.",
    "icon": "https://steamcdn-a.akamaihd.net/steamcommunity/public/images/apps/1012880/224c65293b27c81199c56a715151cec7bc3f1ba4.jpg",
    "icongray": "https://steamcdn-a.akamaihd.net/steamcommunity/public/images/apps/1012880/6b14e10e3bb556761ece7a08b9bb069e47bf6b99.jpg"
  },
  {
    "name": "ACH_DEAD",
    "defaultvalue": 0,
    "displayName": "One way ticket",
    "hidden": 0,
    "description": "Die in your fallout shelter.",
    "icon": "https://steamcdn-a.akamaihd.net/steamcommunity/public/images/apps/1012880/40ae14f63aba8a027048b66477d633c8dde0a204.jpg",
    "icongray": "https://steamcdn-a.akamaihd.net/steamcommunity/public/images/apps/1012880/6b14e10e3bb556761ece7a08b9bb069e47bf6b99.jpg"
  },
  {
    "name": "ACH_DOGE",
    "defaultvalue": 0,
    "displayName": "Friend in need",
    "hidden": 0,
    "description": "Find a new friend.",
    "icon": "https://steamcdn-a.akamaihd.net/steamcommunity/public/images/apps/1012880/84ce8b147b6c38ad454f56e9aa4066928121e28d.jpg",
    "icongray": "https://steamcdn-a.akamaihd.net/steamcommunity/public/images/apps/1012880/6b14e10e3bb556761ece7a08b9bb069e47bf6b99.jpg"
  },
  {
    "name": "ACH_FAMILY_GUY",
    "defaultvalue": 0,
    "displayName": "Family guy",
    "hidden": 0,
    "description": "Rescue the whole family.",
    "icon": "https://steamcdn-a.akamaihd.net/steamcommunity/public/images/apps/1012880/c1158fd60ca3fa156edf0bc4894bd8938ae54801.jpg",
    "icongray": "https://steamcdn-a.akamaihd.net/steamcommunity/public/images/apps/1012880/6b14e10e3bb556761ece7a08b9bb069e47bf6b99.jpg"
  },
  {
    "name": "ACH_KAMIKAZE",
    "defaultvalue": 0,
    "displayName": "Tora! Tora! Tora!",
    "hidden": 0,
    "description": "Ram 1337 obstacles in your house.",
    "icon": "https://steamcdn-a.akamaihd.net/steamcommunity/public/images/apps/1012880/053ba958413830ab23890eeadc7cf35db7cf5949.jpg",
    "icongray": "https://steamcdn-a.akamaihd.net/steamcommunity/public/images/apps/1012880/6b14e10e3bb556761ece7a08b9bb069e47bf6b99.jpg"
  },
  {
    "name": "ACH_LUMBERSEXUAL",
    "defaultvalue": 0,
    "displayName": "Lumbersexual",
    "hidden": 0,
    "description": "Trim Ted's beard the trendy way.",
    "icon": "https://steamcdn-a.akamaihd.net/steamcommunity/public/images/apps/1012880/431affea8b63e35bc8768bb0e42f8c5208255e46.jpg",
    "icongray": "https://steamcdn-a.akamaihd.net/steamcommunity/public/images/apps/1012880/6b14e10e3bb556761ece7a08b9bb069e47bf6b99.jpg"
  },
  {
    "name": "ACH_MADE_IT",
    "defaultvalue": 0,
    "displayName": "Home, sweet home",
    "hidden": 0,
    "description": "Get to the shelter before the bomb hits.",
    "icon": "https://steamcdn-a.akamaihd.net/steamcommunity/public/images/apps/1012880/d9d08e67573323e9fb302b08e582aa177b4e6ccb.jpg",
    "icongray": "https://steamcdn-a.akamaihd.net/steamcommunity/public/images/apps/1012880/6b14e10e3bb556761ece7a08b9bb069e47bf6b99.jpg"
  },
  {
    "name": "ACH_MUTANT",
    "defaultvalue": 0,
    "displayName": "New species",
    "hidden": 0,
    "description": "Mutant!!!",
    "icon": "https://steamcdn-a.akamaihd.net/steamcommunity/public/images/apps/1012880/12a6df4bf2712988da57f16a76500c142f56f135.jpg",
    "icongray": "https://steamcdn-a.akamaihd.net/steamcommunity/public/images/apps/1012880/6b14e10e3bb556761ece7a08b9bb069e47bf6b99.jpg"
  },
  {
    "name": "ACH_NOT_MADE_IT",
    "defaultvalue": 0,
    "displayName": "Duck and cover!",
    "hidden": 0,
    "description": "Survival is overrated. Stay to see the fireworks!",
    "icon": "https://steamcdn-a.akamaihd.net/steamcommunity/public/images/apps/1012880/fec70db93b17a13917b7ba93d5873a7189a517c0.jpg",
    "icongray": "https://steamcdn-a.akamaihd.net/steamcommunity/public/images/apps/1012880/6b14e10e3bb556761ece7a08b9bb069e47bf6b99.jpg"
  },
  {
    "name": "ACH_PAN_KROWA",
    "defaultvalue": 0,
    "displayName": "Miracle",
    "hidden": 0,
    "description": "Listen to the voices from beyond.",
    "icon": "https://steamcdn-a.akamaihd.net/steamcommunity/public/images/apps/1012880/2a3cde90deb652f6a8c31a3727bf6bdfbd3ef3f2.jpg",
    "icongray": "https://steamcdn-a.akamaihd.net/steamcommunity/public/images/apps/1012880/6b14e10e3bb556761ece7a08b9bb069e47bf6b99.jpg"
  },
  {
    "name": "ACH_FIRE_POLICE",
    "defaultvalue": 0,
    "displayName": "New order",
    "hidden": 0,
    "description": "Meet the local 'law-enforcement'.",
    "icon": "https://steamcdn-a.akamaihd.net/steamcommunity/public/images/apps/1012880/c7a57ea602e6d83cc0f4096634ff301174265537.jpg",
    "icongray": "https://steamcdn-a.akamaihd.net/steamcommunity/public/images/apps/1012880/6b14e10e3bb556761ece7a08b9bb069e47bf6b99.jpg"
  },
  {
    "name": "ACH_PRO_GAMER",
    "defaultvalue": 0,
    "displayName": "Pro gamer",
    "hidden": 0,
    "description": "In Apocalypse mode grab only what a real gamer needs.",
    "icon": "https://steamcdn-a.akamaihd.net/steamcommunity/public/images/apps/1012880/9fa8ba4248267de3b582d4335896608cd4b2f5a5.jpg",
    "icongray": "https://steamcdn-a.akamaihd.net/steamcommunity/public/images/apps/1012880/6b14e10e3bb556761ece7a08b9bb069e47bf6b99.jpg"
  },
  {
    "name": "ACH_TOILET_BUSTER",
    "defaultvalue": 0,
    "displayName": "Unplugged",
    "hidden": 0,
    "description": "Ram a toilet.",
    "icon": "https://steamcdn-a.akamaihd.net/steamcommunity/public/images/apps/1012880/af65771615aba14154809e2908f3d490953793e9.jpg",
    "icongray": "https://steamcdn-a.akamaihd.net/steamcommunity/public/images/apps/1012880/6b14e10e3bb556761ece7a08b9bb069e47bf6b99.jpg"
  },
  {
    "name": "ACH_EASY",
    "defaultvalue": 0,
    "displayName": "Enola Gay",
    "hidden": 0,
    "description": "Win a game in every mode on Little Boy difficulty.",
    "icon": "https://steamcdn-a.akamaihd.net/steamcommunity/public/images/apps/1012880/afe2894fdb4714d86025e5a145f096494fd2ee03.jpg",
    "icongray": "https://steamcdn-a.akamaihd.net/steamcommunity/public/images/apps/1012880/6b14e10e3bb556761ece7a08b9bb069e47bf6b99.jpg"
  },
  {
    "name": "ACH_NORMAL",
    "defaultvalue": 0,
    "displayName": "Manhattan Project",
    "hidden": 0,
    "description": "Win a game in every mode on Fat Man difficulty.",
    "icon": "https://steamcdn-a.akamaihd.net/steamcommunity/public/images/apps/1012880/fc043f33beb3c0eb99e936d5038e294a390b5773.jpg",
    "icongray": "https://steamcdn-a.akamaihd.net/steamcommunity/public/images/apps/1012880/6b14e10e3bb556761ece7a08b9bb069e47bf6b99.jpg"
  },
  {
    "name": "ACH_HARD",
    "defaultvalue": 0,
    "displayName": "Dead Hand",
    "hidden": 0,
    "description": "Win a game in every mode on Tsar Bomba difficulty.",
    "icon": "https://steamcdn-a.akamaihd.net/steamcommunity/public/images/apps/1012880/6d195cbe5dd9d24730480177124882f2114b4df1.jpg",
    "icongray": "https://steamcdn-a.akamaihd.net/steamcommunity/public/images/apps/1012880/6b14e10e3bb556761ece7a08b9bb069e47bf6b99.jpg"
  },
  {
    "name": "ACH_BE_PREPARED",
    "defaultvalue": 0,
    "displayName": "Be Prepared",
    "hidden": 0,
    "description": "Don't forget to stock your shelter.",
    "icon": "https://steamcdn-a.akamaihd.net/steamcommunity/public/images/apps/1012880/d0cbb1f21dabed11c5c41d65ab7cb854b7a26714.jpg",
    "icongray": "https://steamcdn-a.akamaihd.net/steamcommunity/public/images/apps/1012880/6b14e10e3bb556761ece7a08b9bb069e47bf6b99.jpg"
  },
  {
    "name": "ACH_BLUE_HARVEST",
    "defaultvalue": 0,
    "displayName": "A New Hope",
    "hidden": 0,
    "description": "Ally with other wastelanders.",
    "icon": "https://steamcdn-a.akamaihd.net/steamcommunity/public/images/apps/1012880/f76f357281b7267551e760cf1d57327681156baf.jpg",
    "icongray": "https://steamcdn-a.akamaihd.net/steamcommunity/public/images/apps/1012880/6b14e10e3bb556761ece7a08b9bb069e47bf6b99.jpg"
  },
  {
    "name": "ACH_DEFEND",
    "defaultvalue": 0,
    "displayName": "Pacifist",
    "hidden": 0,
    "description": "Defend yourself without a weapon.",
    "icon": "https://steamcdn-a.akamaihd.net/steamcommunity/public/images/apps/1012880/a8b7cc9ddc41c943fcb206591733ad05fd41fb1f.jpg",
    "icongray": "https://steamcdn-a.akamaihd.net/steamcommunity/public/images/apps/1012880/6b14e10e3bb556761ece7a08b9bb069e47bf6b99.jpg"
  },
  {
    "name": "ACH_DEFEND_THREE",
    "defaultvalue": 0,
    "displayName": "Unbreakable",
    "hidden": 0,
    "description": "Defeat three bandit attacks in one game.",
    "icon": "https://steamcdn-a.akamaihd.net/steamcommunity/public/images/apps/1012880/d5ed8c5edfd90d8d901967ef7aa0acbdeb61a537.jpg",
    "icongray": "https://steamcdn-a.akamaihd.net/steamcommunity/public/images/apps/1012880/6b14e10e3bb556761ece7a08b9bb069e47bf6b99.jpg"
  },
  {
    "name": "ACH_EXPLORE_SHELTER",
    "defaultvalue": 0,
    "displayName": "No stone unturned",
    "hidden": 0,
    "description": "Fully explore your shelter.",
    "icon": "https://steamcdn-a.akamaihd.net/steamcommunity/public/images/apps/1012880/733dd4ba5cd45b738eb789846dee5cacd30921f1.jpg",
    "icongray": "https://steamcdn-a.akamaihd.net/steamcommunity/public/images/apps/1012880/6b14e10e3bb556761ece7a08b9bb069e47bf6b99.jpg"
  },
  {
    "name": "ACH_HELP",
    "defaultvalue": 0,
    "displayName": "What goes around...",
    "hidden": 0,
    "description": "Give and get back.",
    "icon": "https://steamcdn-a.akamaihd.net/steamcommunity/public/images/apps/1012880/5700764500d1bf3ed322280a77f39db679c7d272.jpg",
    "icongray": "https://steamcdn-a.akamaihd.net/steamcommunity/public/images/apps/1012880/6b14e10e3bb556761ece7a08b9bb069e47bf6b99.jpg"
  },
  {
    "name": "ACH_NAYSAYER",
    "defaultvalue": 0,
    "displayName": "Naysayer",
    "hidden": 0,
    "description": "Always say NO and win.",
    "icon": "https://steamcdn-a.akamaihd.net/steamcommunity/public/images/apps/1012880/7cff861edc4840017a494661932fa05ff5964784.jpg",
    "icongray": "https://steamcdn-a.akamaihd.net/steamcommunity/public/images/apps/1012880/6b14e10e3bb556761ece7a08b9bb069e47bf6b99.jpg"
  },
  {
    "name": "ACH_YESMAN",
    "defaultvalue": 0,
    "displayName": "Yes Man",
    "hidden": 0,
    "description": "Always say YES and win.",
    "icon": "https://steamcdn-a.akamaihd.net/steamcommunity/public/images/apps/1012880/437683049630635a3605ae42f5f4c991366e6b4d.jpg",
    "icongray": "https://steamcdn-a.akamaihd.net/steamcommunity/public/images/apps/1012880/6b14e10e3bb556761ece7a08b9bb069e47bf6b99.jpg"
  },
  {
    "name": "ACH_PRESENT",
    "defaultvalue": 0,
    "displayName": "A gift",
    "hidden": 0,
    "description": "Receive a gift.",
    "icon": "https://steamcdn-a.akamaihd.net/steamcommunity/public/images/apps/1012880/b272a767a23f1ae80e2c32d5661f14c39c3370a1.jpg",
    "icongray": "https://steamcdn-a.akamaihd.net/steamcommunity/public/images/apps/1012880/6b14e10e3bb556761ece7a08b9bb069e47bf6b99.jpg"
  },
  {
    "name": "ACH_RESCUE",
    "defaultvalue": 0,
    "displayName": "Liberation",
    "hidden": 0,
    "description": "Rescue someone from the bandits.",
    "icon": "https://steamcdn-a.akamaihd.net/steamcommunity/public/images/apps/1012880/bf5ebc9527c088203e6741fa69a4fd41b9b21093.jpg",
    "icongray": "https://steamcdn-a.akamaihd.net/steamcommunity/public/images/apps/1012880/164ca5865bc209fcd4cae730f8f91c0696b957d9.jpg"
  },
  {
    "name": "ACH_ROBBERY",
    "defaultvalue": 0,
    "displayName": "The Dark Side",
    "hidden": 0,
    "description": "Show your evil self.",
    "icon": "https://steamcdn-a.akamaihd.net/steamcommunity/public/images/apps/1012880/a1ea8a63c371624af2978dffc678afb9946bccc9.jpg",
    "icongray": "https://steamcdn-a.akamaihd.net/steamcommunity/public/images/apps/1012880/6b14e10e3bb556761ece7a08b9bb069e47bf6b99.jpg"
  },
  {
    "name": "ACH_TRADER",
    "defaultvalue": 0,
    "displayName": "Fair Exchange",
    "hidden": 0,
    "description": "Perform 30 successful trades.",
    "icon": "https://steamcdn-a.akamaihd.net/steamcommunity/public/images/apps/1012880/dd00642eb524ecfc41bc7a1b375a3fc8f23ef639.jpg",
    "icongray": "https://steamcdn-a.akamaihd.net/steamcommunity/public/images/apps/1012880/6b14e10e3bb556761ece7a08b9bb069e47bf6b99.jpg"
  },
  {
    "name": "ACH_HOLIDAYS",
    "defaultvalue": 0,
    "displayName": "Holidays!",
    "hidden": 0,
    "description": "Complete the Holidays! scavenge challenge.",
    "icon": "https://steamcdn-a.akamaihd.net/steamcommunity/public/images/apps/1012880/1a5152a257130597588e5823835bdaea68a05481.jpg",
    "icongray": "https://steamcdn-a.akamaihd.net/steamcommunity/public/images/apps/1012880/6b14e10e3bb556761ece7a08b9bb069e47bf6b99.jpg"
  },
  {
    "name": "ACH_CHALLENGER",
    "defaultvalue": 0,
    "displayName": "Challenger",
    "hidden": 0,
    "description": "Complete one scavenge challenge.",
    "icon": "https://steamcdn-a.akamaihd.net/steamcommunity/public/images/apps/1012880/5ca3fd73832d114209c0b45f9cf40f8004bfb6dc.jpg",
    "icongray": "https://steamcdn-a.akamaihd.net/steamcommunity/public/images/apps/1012880/6b14e10e3bb556761ece7a08b9bb069e47bf6b99.jpg"
  },
  {
    "name": "ACH_MADHATTER",
    "defaultvalue": 0,
    "displayName": "Mad Hatter",
    "hidden": 0,
    "description": "Put on a stylish hat.",
    "icon": "https://steamcdn-a.akamaihd.net/steamcommunity/public/images/apps/1012880/34ebc7fde10961e0c2d23086cdfaeb3fdf9e70b4.jpg",
    "icongray": "https://steamcdn-a.akamaihd.net/steamcommunity/public/images/apps/1012880/6b14e10e3bb556761ece7a08b9bb069e47bf6b99.jpg"
  },
  {
    "name": "ACH_CAT",
    "defaultvalue": 0,
    "displayName": "Out of the Bag",
    "hidden": 0,
    "description": "Find a new companion.",
    "icon": "https://steamcdn-a.akamaihd.net/steamcommunity/public/images/apps/1012880/a71bd96f7c2d090f3638b80cc9668da37ed31bd4.jpg",
    "icongray": "https://steamcdn-a.akamaihd.net/steamcommunity/public/images/apps/1012880/6b14e10e3bb556761ece7a08b9bb069e47bf6b99.jpg"
  },
  {
    "name": "ACH_CATVSDOG",
    "defaultvalue": 0,
    "displayName": "Raining Cats and Dogs",
    "hidden": 0,
    "description": "There can only be one.",
    "icon": "https://steamcdn-a.akamaihd.net/steamcommunity/public/images/apps/1012880/188fafc67fc1b7aa0877d1f8e8517c501a70a329.jpg",
    "icongray": "https://steamcdn-a.akamaihd.net/steamcommunity/public/images/apps/1012880/6b14e10e3bb556761ece7a08b9bb069e47bf6b99.jpg"
  },
  {
    "name": "ACH_DOCEND",
    "defaultvalue": 0,
    "displayName": "Soup Can into Space",
    "hidden": 0,
    "description": "Reach for the stars.",
    "icon": "https://steamcdn-a.akamaihd.net/steamcommunity/public/images/apps/1012880/b76c0e4b9465d83376d0655fa48c964f41206f12.jpg",
    "icongray": "https://steamcdn-a.akamaihd.net/steamcommunity/public/images/apps/1012880/6b14e10e3bb556761ece7a08b9bb069e47bf6b99.jpg"
  },
  {
    "name": "ACH_MIB",
    "defaultvalue": 0,
    "displayName": "Men in Black",
    "hidden": 0,
    "description": "Find your way into the VIP bunker.",
    "icon": "https://steamcdn-a.akamaihd.net/steamcommunity/public/images/apps/1012880/90b199d38f8ce6b66725cad12b79369246215be5.jpg",
    "icongray": "https://steamcdn-a.akamaihd.net/steamcommunity/public/images/apps/1012880/6b14e10e3bb556761ece7a08b9bb069e47bf6b99.jpg"
  },
  {
    "name": "ACH_CATLADY",
    "defaultvalue": 0,
    "displayName": "Cat Lady",
    "hidden": 0,
    "description": "Learn to serve and obey the new masters.",
    "icon": "https://steamcdn-a.akamaihd.net/steamcommunity/public/images/apps/1012880/f1a770c68a684d2383beb15f6cf7a7740f88e5a8.jpg",
    "icongray": "https://steamcdn-a.akamaihd.net/steamcommunity/public/images/apps/1012880/6b14e10e3bb556761ece7a08b9bb069e47bf6b99.jpg"
  },
  {
    "name": "ACH_CATDOM",
    "defaultvalue": 0,
    "displayName": "Feline Domination",
    "hidden": 0,
    "description": "Look at me. I'm the captain, meow.",
    "icon": "https://steamcdn-a.akamaihd.net/steamcommunity/public/images/apps/1012880/7b60dbe9826c011e17cc05392e6a24f50add9c09.jpg",
    "icongray": "https://steamcdn-a.akamaihd.net/steamcommunity/public/images/apps/1012880/6b14e10e3bb556761ece7a08b9bb069e47bf6b99.jpg"
  },
  {
    "name": "ACH_DOLORES",
    "defaultvalue": 0,
    "displayName": "Girl Power",
    "hidden": 0,
    "description": "Live through the nuclear blast as Dolores.",
    "icon": "https://steamcdn-a.akamaihd.net/steamcommunity/public/images/apps/1012880/b502e0c3eb4718e0d8c41b7129af42d5860d0907.jpg",
    "icongray": "https://steamcdn-a.akamaihd.net/steamcommunity/public/images/apps/1012880/164ca5865bc209fcd4cae730f8f91c0696b957d9.jpg"
  },
  {
    "name": "ACH_DISCO",
    "defaultvalue": 0,
    "displayName": "Disco Roach",
    "hidden": 0,
    "description": "Make them dance.",
    "icon": "https://steamcdn-a.akamaihd.net/steamcommunity/public/images/apps/1012880/5d2e091de6fe5164f2dd7b7c48634f573133c2a9.jpg",
    "icongray": "https://steamcdn-a.akamaihd.net/steamcommunity/public/images/apps/1012880/6b14e10e3bb556761ece7a08b9bb069e47bf6b99.jpg"
  },
  {
    "name": "ACH_ENIGMA",
    "defaultvalue": 0,
    "displayName": "Enigma",
    "hidden": 0,
    "description": "Reconnect with old friends.",
    "icon": "https://steamcdn-a.akamaihd.net/steamcommunity/public/images/apps/1012880/c31c8bb2a41ea860cb35ee867acfedef480dd079.jpg",
    "icongray": "https://steamcdn-a.akamaihd.net/steamcommunity/public/images/apps/1012880/6b14e10e3bb556761ece7a08b9bb069e47bf6b99.jpg"
  },
  {
    "name": "ACH_DEEDEE",
    "defaultvalue": 0,
    "displayName": "Dawkins Residence",
    "hidden": 0,
    "description": "Find Deedee's apartment.",
    "icon": "https://steamcdn-a.akamaihd.net/steamcommunity/public/images/apps/1012880/d66fd173886e42a151a9ccfb31115065e6c8a918.jpg",
    "icongray": "https://steamcdn-a.akamaihd.net/steamcommunity/public/images/apps/1012880/6b14e10e3bb556761ece7a08b9bb069e47bf6b99.jpg"
  },
  {
    "name": "ACH_RICK",
    "defaultvalue": 0,
    "displayName": "Not Alone",
    "hidden": 0,
    "description": "If you play it, they will come.",
    "icon": "https://steamcdn-a.akamaihd.net/steamcommunity/public/images/apps/1012880/a2dd723e06bf580ad965e5cac52acc95ec0ba41b.jpg",
    "icongray": "https://steamcdn-a.akamaihd.net/steamcommunity/public/images/apps/1012880/6b14e10e3bb556761ece7a08b9bb069e47bf6b99.jpg"
  },
  {
    "name": "ACH_FLY",
    "defaultvalue": 0,
    "displayName": "Take that, Brundlefly!",
    "hidden": 0,
    "description": "Swat it real good.",
    "icon": "https://steamcdn-a.akamaihd.net/steamcommunity/public/images/apps/1012880/0fdecd2beccac866a015e5168fbc665cbf8d6227.jpg",
    "icongray": "https://steamcdn-a.akamaihd.net/steamcommunity/public/images/apps/1012880/cdf5da7e39137e17c6a56684a32b7bac8f362ef5.jpg"
  },
  {
    "name": "ACH_ROGUE",
    "defaultvalue": 0,
    "displayName": "Rogue One",
    "hidden": 0,
    "description": "Complete one survival challenge.",
    "icon": "https://steamcdn-a.akamaihd.net/steamcommunity/public/images/apps/1012880/f03e790c095a4043d140c8b6571f0bbbaa797388.jpg",
    "icongray": "https://steamcdn-a.akamaihd.net/steamcommunity/public/images/apps/1012880/cdf5da7e39137e17c6a56684a32b7bac8f362ef5.jpg"
  },
  {
    "name": "ACH_PANZER",
    "defaultvalue": 0,
    "displayName": "Panzer",
    "hidden": 0,
    "description": "Okay: three, two, one, let's jam!",
    "icon": "https://steamcdn-a.akamaihd.net/steamcommunity/public/images/apps/1012880/8f5e8144e1bb3c6bc07c21c5603afe476f1b7e24.jpg",
    "icongray": "https://steamcdn-a.akamaihd.net/steamcommunity/public/images/apps/1012880/cdf5da7e39137e17c6a56684a32b7bac8f362ef5.jpg"
  },
  {
    "name": "ACH_FROSTY",
    "defaultvalue": 0,
    "displayName": "Stay frosty",
    "hidden": 0,
    "description": "A cool escape.",
    "icon": "https://steamcdn-a.akamaihd.net/steamcommunity/public/images/apps/1012880/eb47f21bdba77d8b4e2694190b9e10fbe5e1fd26.jpg",
    "icongray": "https://steamcdn-a.akamaihd.net/steamcommunity/public/images/apps/1012880/cdf5da7e39137e17c6a56684a32b7bac8f362ef5.jpg"
  }
]