﻿{
  "Dlcs": {},
  "Name": "Possessed",
  "AppId": "607210",
  "ImageUrl": "https://steamcdn-a.akamaihd.net/steam/apps/607210/header.jpg?t=1497089406",
  "Languages": [
    "english",
    "french",
    "italian",
    "german",
    "spanish",
    "czech",
    "danish",
    "dutch",
    "finnish",
    "hungarian",
    "norwegian",
    "polish",
    "portuguese",
    "romanian",
    "swedish",
    "turkish"
  ],
  "Platforms": {
    "windows": true,
    "mac": false,
    "linux": false
  }
}