{
  "Dlcs": {},
  "Name": "It comes from hell (Survive)",
  "AppId": "1032420",
  "ImageUrl": "https://steamcdn-a.akamaihd.net/steam/apps/1032420/header.jpg?t=1598174056",
  "Languages": [
    "english"
  ],
  "Platforms": {
    "windows": true,
    "mac": false,
    "linux": false
  }
}