{
  "Dlcs": {},
  "Name": "Skin Witch",
  "AppId": "1164990",
  "ImageUrl": "https://steamcdn-a.akamaihd.net/steam/apps/1164990/header.jpg?t=1594314142",
  "Languages": [
    "english",
    "french",
    "italian",
    "german",
    "spanish",
    "portuguese",
    "russian",
    "schinese"
  ],
  "Platforms": {
    "windows": true,
    "mac": false,
    "linux": false
  }
}