{
  "Dlcs": {},
  "Name": "9Dragons",
  "AppId": "390100",
  "ImageUrl": "https://steamcdn-a.akamaihd.net/steam/apps/390100/header.jpg?t=1571089362",
  "Languages": [
    "english"
  ],
  "Platforms": {
    "windows": true,
    "mac": false,
    "linux": false
  }
}