[
  {
    "name": "TEN_RACES",
    "defaultvalue": 0,
    "displayName": "Rookie",
    "hidden": 0,
    "description": "Race 10 races",
    "icon": "https://steamcdn-a.akamaihd.net/steamcommunity/public/images/apps/670900/d4996a818377bd9f765143e63c3ada5e5696f16a.jpg",
    "icongray": "https://steamcdn-a.akamaihd.net/steamcommunity/public/images/apps/670900/8f561a395adb08f661ad63874beb586f5c442b21.jpg"
  },
  {
    "name": "TWENTY_FIVE_RACES",
    "defaultvalue": 0,
    "displayName": "Pro",
    "hidden": 0,
    "description": "Raced 25 races",
    "icon": "https://steamcdn-a.akamaihd.net/steamcommunity/public/images/apps/670900/d84ec918429d2b86f5bd1fd2bbe1bbc90583686c.jpg",
    "icongray": "https://steamcdn-a.akamaihd.net/steamcommunity/public/images/apps/670900/5fe407c8999b4511d34285d9e38ef643197836df.jpg"
  },
  {
    "name": "FIFTY_RACES",
    "defaultvalue": 0,
    "displayName": "Veteran",
    "hidden": 0,
    "description": "Raced 50 races",
    "icon": "https://steamcdn-a.akamaihd.net/steamcommunity/public/images/apps/670900/08a251fbabc8fbfc5c0f9f372e4b841f2e90fc9f.jpg",
    "icongray": "https://steamcdn-a.akamaihd.net/steamcommunity/public/images/apps/670900/dca9026d6c6babe00252befd4689594257500210.jpg"
  },
  {
    "name": "ONE_HUNDRED_RACES",
    "defaultvalue": 0,
    "displayName": "Hall of Famer",
    "hidden": 0,
    "description": "Raced 100 races",
    "icon": "https://steamcdn-a.akamaihd.net/steamcommunity/public/images/apps/670900/8ef3ebb214da39478bc9d2115e95a1a7599203a1.jpg",
    "icongray": "https://steamcdn-a.akamaihd.net/steamcommunity/public/images/apps/670900/e0e03ea7d2d20a8bb44bfbb2689eb882c5f64c83.jpg"
  },
  {
    "name": "TWO_HUNDRED_RACES",
    "defaultvalue": 0,
    "displayName": "Legend",
    "hidden": 0,
    "description": "Raced 200 races",
    "icon": "https://steamcdn-a.akamaihd.net/steamcommunity/public/images/apps/670900/f60ecb3ba8ea14c8b53e36855ca4436f5362d482.jpg",
    "icongray": "https://steamcdn-a.akamaihd.net/steamcommunity/public/images/apps/670900/a231101039891467e6d959395a07342a61c77c7f.jpg"
  },
  {
    "name": "WIN_RACE",
    "defaultvalue": 0,
    "displayName": "Checkered Flag",
    "hidden": 0,
    "description": "Won a race",
    "icon": "https://steamcdn-a.akamaihd.net/steamcommunity/public/images/apps/670900/347a6512a4237cf6ee14445cf1f0ea27d3a52e2c.jpg",
    "icongray": "https://steamcdn-a.akamaihd.net/steamcommunity/public/images/apps/670900/14af7b296b7b2c567b75077c006d68f8106c0fd1.jpg"
  },
  {
    "name": "WIN_TEN_RACES",
    "defaultvalue": 0,
    "displayName": "Perfect 10",
    "hidden": 0,
    "description": "Won 10 races",
    "icon": "https://steamcdn-a.akamaihd.net/steamcommunity/public/images/apps/670900/de3c9588178064467637216b80874d5fa7ef265a.jpg",
    "icongray": "https://steamcdn-a.akamaihd.net/steamcommunity/public/images/apps/670900/e2e5432b155731f5947003ad096bb4d4878bb93a.jpg"
  },
  {
    "name": "WIN_TWENTY_FIVE_RACES",
    "defaultvalue": 0,
    "displayName": "All I Do is Win",
    "hidden": 0,
    "description": "Won 25 races",
    "icon": "https://steamcdn-a.akamaihd.net/steamcommunity/public/images/apps/670900/7bbc1e72d09da0e349a3c5dd74a02f031913e2a2.jpg",
    "icongray": "https://steamcdn-a.akamaihd.net/steamcommunity/public/images/apps/670900/d13e88fb2c1d8535ed796dbafce8f36c587c71da.jpg"
  },
  {
    "name": "WIN_FIFTY_SIX_RACES",
    "defaultvalue": 0,
    "displayName": "No Longer Rusty",
    "hidden": 0,
    "description": "Won 56 races",
    "icon": "https://steamcdn-a.akamaihd.net/steamcommunity/public/images/apps/670900/36f5b6bcc77e3278767a8c8e14213652b824b921.jpg",
    "icongray": "https://steamcdn-a.akamaihd.net/steamcommunity/public/images/apps/670900/ec956771e90fc67fd61cdae2da3a60b7e2362601.jpg"
  },
  {
    "name": "WIN_SEVENTY_SEVEN_RACES",
    "defaultvalue": 0,
    "displayName": "Not Intimidated",
    "hidden": 0,
    "description": "Won 77 races",
    "icon": "https://steamcdn-a.akamaihd.net/steamcommunity/public/images/apps/670900/6aabf4d25e65594a0f2a891ad7f3029a67f35763.jpg",
    "icongray": "https://steamcdn-a.akamaihd.net/steamcommunity/public/images/apps/670900/90b5cfa916a17cd349b48e110bb28b99a6840156.jpg"
  },
  {
    "name": "WIN_NINETY_FOUR_RACES",
    "defaultvalue": 0,
    "displayName": "Over The Rainbow",
    "hidden": 0,
    "description": "Won 94 races",
    "icon": "https://steamcdn-a.akamaihd.net/steamcommunity/public/images/apps/670900/590f8e2c80f4d8aa54e22051239a27db49a109ee.jpg",
    "icongray": "https://steamcdn-a.akamaihd.net/steamcommunity/public/images/apps/670900/2f2b8075f404c93eb35ce16019d02834ef019523.jpg"
  },
  {
    "name": "WIN_TWO_HUNDRED_RACES",
    "defaultvalue": 0,
    "displayName": "Long Live the King",
    "hidden": 0,
    "description": "Won 200 races",
    "icon": "https://steamcdn-a.akamaihd.net/steamcommunity/public/images/apps/670900/342af73e4655fc66fee4330966175a35c6851c2f.jpg",
    "icongray": "https://steamcdn-a.akamaihd.net/steamcommunity/public/images/apps/670900/ecad59dce950cbfdef559f6637a267db5c36f0d3.jpg"
  },
  {
    "name": "TEN_THOUSAND_SPEED_POINTS",
    "defaultvalue": 0,
    "displayName": "Points Fan",
    "hidden": 0,
    "description": "Earned 10,000 speed points",
    "icon": "https://steamcdn-a.akamaihd.net/steamcommunity/public/images/apps/670900/41320eb8720c99ab9e2ca8cb511ad943e2e859d3.jpg",
    "icongray": "https://steamcdn-a.akamaihd.net/steamcommunity/public/images/apps/670900/41b061a96786024324b43733ad891524063f57a6.jpg"
  },
  {
    "name": "ONE_HUNDRED_THOUSAND_SPEED_POINTS",
    "defaultvalue": 0,
    "displayName": "Points Collector",
    "hidden": 0,
    "description": "Earned 100,000 speed points",
    "icon": "https://steamcdn-a.akamaihd.net/steamcommunity/public/images/apps/670900/c3325ee25aef17961074faedc99392030a27df8c.jpg",
    "icongray": "https://steamcdn-a.akamaihd.net/steamcommunity/public/images/apps/670900/5eb77d5cef07c59d06affa2b7b303f115a9f60f9.jpg"
  },
  {
    "name": "FIVE_HUNDRED_THOUSAND_SPEED_POINTS",
    "defaultvalue": 0,
    "displayName": "Points Aficionado",
    "hidden": 0,
    "description": "Earned 500,000 speed points",
    "icon": "https://steamcdn-a.akamaihd.net/steamcommunity/public/images/apps/670900/2e984d4d98e318db92e06c7309dc77534fda61b0.jpg",
    "icongray": "https://steamcdn-a.akamaihd.net/steamcommunity/public/images/apps/670900/373b6d834208579bc5b78c51673bea4a3f835fd9.jpg"
  },
  {
    "name": "COMPLETE_FULL_RACE",
    "defaultvalue": 0,
    "displayName": "Test Of Endurance",
    "hidden": 0,
    "description": "Completed a race with a 100% race length",
    "icon": "https://steamcdn-a.akamaihd.net/steamcommunity/public/images/apps/670900/336cf6e8a62b5193bb8d7322a6ed0734a485b995.jpg",
    "icongray": "https://steamcdn-a.akamaihd.net/steamcommunity/public/images/apps/670900/162f8c5ffd18efadc505bf04a1282fc1866b1352.jpg"
  },
  {
    "name": "WIN_FULL_RACE",
    "defaultvalue": 0,
    "displayName": "Endurance Champion",
    "hidden": 0,
    "description": "Won a race with a 100% race length",
    "icon": "https://steamcdn-a.akamaihd.net/steamcommunity/public/images/apps/670900/eaedc2872e27b54e31bd7fad147a92f57c019cb3.jpg",
    "icongray": "https://steamcdn-a.akamaihd.net/steamcommunity/public/images/apps/670900/24996009512a07268f18a39f54919b0cafdafad9.jpg"
  },
  {
    "name": "RACE_ALL_TRACKS",
    "defaultvalue": 0,
    "displayName": "Tour The Tracks",
    "hidden": 0,
    "description": "Raced at every track",
    "icon": "https://steamcdn-a.akamaihd.net/steamcommunity/public/images/apps/670900/01057d18849460c70f5e272accd545e78278c18b.jpg",
    "icongray": "https://steamcdn-a.akamaihd.net/steamcommunity/public/images/apps/670900/5f963372d5d28586c23b572139ed46cde5a10489.jpg"
  },
  {
    "name": "WIN_ALL_ROAD_TRACKS",
    "defaultvalue": 0,
    "displayName": "Road Warrior",
    "hidden": 0,
    "description": "Won a race at every road track",
    "icon": "https://steamcdn-a.akamaihd.net/steamcommunity/public/images/apps/670900/f76edb7f2be3da957c388658aee5313b86c4a515.jpg",
    "icongray": "https://steamcdn-a.akamaihd.net/steamcommunity/public/images/apps/670900/3fa18cd55eeb36203a9ddba99d6a71d781d86232.jpg"
  },
  {
    "name": "WIN_ALL_SHORT_TRACKS",
    "defaultvalue": 0,
    "displayName": "Short and Sweet",
    "hidden": 0,
    "description": "Won a race at every short track",
    "icon": "https://steamcdn-a.akamaihd.net/steamcommunity/public/images/apps/670900/ad17ae67b09b6b29cdcf93fffe7cbab0d2b07ccb.jpg",
    "icongray": "https://steamcdn-a.akamaihd.net/steamcommunity/public/images/apps/670900/4459e3b2b9bf48d33721559e16d24a45a302dde3.jpg"
  },
  {
    "name": "WIN_ALL_NORMAL_TRACKS",
    "defaultvalue": 0,
    "displayName": "Best at All the Rest",
    "hidden": 0,
    "description": "Won a race at every speedway track",
    "icon": "https://steamcdn-a.akamaihd.net/steamcommunity/public/images/apps/670900/cb670e9ac4d82680839c1243116295b714f44a64.jpg",
    "icongray": "https://steamcdn-a.akamaihd.net/steamcommunity/public/images/apps/670900/276c2bfce6ab562e8e572e6e4cb7ddc4f926e2ca.jpg"
  },
  {
    "name": "WIN_ALL_SPEEDWAY_TRACKS",
    "defaultvalue": 0,
    "displayName": "Super Speedster",
    "hidden": 0,
    "description": "Won a race at every super speedway track",
    "icon": "https://steamcdn-a.akamaihd.net/steamcommunity/public/images/apps/670900/c42e31eb2c1c90e3d51bbb409daaed4a519f4de6.jpg",
    "icongray": "https://steamcdn-a.akamaihd.net/steamcommunity/public/images/apps/670900/ef106b7cde400da01a15ee9eeae435b0a01ba038.jpg"
  },
  {
    "name": "START_SEASON",
    "defaultvalue": 0,
    "displayName": "Small Step",
    "hidden": 0,
    "description": "Started a season",
    "icon": "https://steamcdn-a.akamaihd.net/steamcommunity/public/images/apps/670900/10b649b5e5b09bf35bc51bd9f86b4ab1ea859286.jpg",
    "icongray": "https://steamcdn-a.akamaihd.net/steamcommunity/public/images/apps/670900/efa48699cf7675f2000d1b1c2e921fa21c51ac66.jpg"
  },
  {
    "name": "CREATE_CHARACTER",
    "defaultvalue": 0,
    "displayName": "Who Am I",
    "hidden": 0,
    "description": "Created a character",
    "icon": "https://steamcdn-a.akamaihd.net/steamcommunity/public/images/apps/670900/8d519b3e255fa9d4638336567745a940b8e4a094.jpg",
    "icongray": "https://steamcdn-a.akamaihd.net/steamcommunity/public/images/apps/670900/4c5699ad310fdac3a5d38ba4947c2b16b5e4fd01.jpg"
  },
  {
    "name": "CHAMP_FINISH_TRUCK_SEASON",
    "defaultvalue": 0,
    "displayName": "Truck'n",
    "hidden": 0,
    "description": "Complete a full NASCAR Camping World Truck Series season",
    "icon": "https://steamcdn-a.akamaihd.net/steamcommunity/public/images/apps/670900/70e943782873777bf446eda04805dd7da8ab0bda.jpg",
    "icongray": "https://steamcdn-a.akamaihd.net/steamcommunity/public/images/apps/670900/70d2da10b8f51989dd947b87c691dcc0c26f48f3.jpg"
  },
  {
    "name": "CHAMP_FINISH_XFINITY_SEASON",
    "defaultvalue": 0,
    "displayName": "Journeyman",
    "hidden": 0,
    "description": "Complete a full NASCAR Xfinity Series season",
    "icon": "https://steamcdn-a.akamaihd.net/steamcommunity/public/images/apps/670900/f4c1860b8d9ee86a5e082d043c2eb9a9b1623b8d.jpg",
    "icongray": "https://steamcdn-a.akamaihd.net/steamcommunity/public/images/apps/670900/fc4aa46b7c26f2b7dd76a85fe36f55638b70bd4f.jpg"
  },
  {
    "name": "CHAMP_FINISH_CUP_SEASON",
    "defaultvalue": 0,
    "displayName": "No More Yellow Stripes",
    "hidden": 0,
    "description": "Complete a full Monster Energy NASCAR Cup Series season",
    "icon": "https://steamcdn-a.akamaihd.net/steamcommunity/public/images/apps/670900/41e48a4174601f0f434bb7f8a1e99a2f7c1ede0f.jpg",
    "icongray": "https://steamcdn-a.akamaihd.net/steamcommunity/public/images/apps/670900/d42d876cfdc350f5eba4bfc4c37eadc546c89a5f.jpg"
  },
  {
    "name": "CHAMP_WIN_TRUCK_SEASON",
    "defaultvalue": 0,
    "displayName": "V is for Victory",
    "hidden": 0,
    "description": "Win a NASCAR Camping World Truck Series championship",
    "icon": "https://steamcdn-a.akamaihd.net/steamcommunity/public/images/apps/670900/ec3e17f4d26eb0d5e642e6a485c0370b71edbf76.jpg",
    "icongray": "https://steamcdn-a.akamaihd.net/steamcommunity/public/images/apps/670900/09bba21196817ef95e153b32eba7fbce0c580fff.jpg"
  },
  {
    "name": "CHAMP_WIN_XFINITY_SEASON",
    "defaultvalue": 0,
    "displayName": "Unstoppable",
    "hidden": 0,
    "description": "Win a NASCAR Xfinity Series championship",
    "icon": "https://steamcdn-a.akamaihd.net/steamcommunity/public/images/apps/670900/94218d83734c85366e23939c582e4a9f3709c1d6.jpg",
    "icongray": "https://steamcdn-a.akamaihd.net/steamcommunity/public/images/apps/670900/dc2f00f4b05e90797532bc78961400087a234685.jpg"
  },
  {
    "name": "CHAMP_WIN_CUP_SEASON",
    "defaultvalue": 0,
    "displayName": "The Peak",
    "hidden": 0,
    "description": "Win a Monster Energy NASCAR Cup Series championship",
    "icon": "https://steamcdn-a.akamaihd.net/steamcommunity/public/images/apps/670900/e15a7a8ffbfd721c157f0d68961a6b405cbfb462.jpg",
    "icongray": "https://steamcdn-a.akamaihd.net/steamcommunity/public/images/apps/670900/2823c221df00aca1456075f786ad6b971bb94cfe.jpg"
  },
  {
    "name": "CAREER_GOT_RIVAL",
    "defaultvalue": 0,
    "displayName": "Rubbing is Racing",
    "hidden": 0,
    "description": "Get a rival",
    "icon": "https://steamcdn-a.akamaihd.net/steamcommunity/public/images/apps/670900/deaa72efbca0d323fde553feef81d3335025bfb1.jpg",
    "icongray": "https://steamcdn-a.akamaihd.net/steamcommunity/public/images/apps/670900/950aefd001c729ca6e991661aa5390da7ad9fa5f.jpg"
  },
  {
    "name": "CAREER_FINISH_ONE_SEASON",
    "defaultvalue": 0,
    "displayName": "Just Getting Started",
    "hidden": 0,
    "description": "Complete one career season",
    "icon": "https://steamcdn-a.akamaihd.net/steamcommunity/public/images/apps/670900/707c5dfc17065e8079b5bd0b3395f582bf6375f9.jpg",
    "icongray": "https://steamcdn-a.akamaihd.net/steamcommunity/public/images/apps/670900/01dd7bd0046a648a5e811f81791545207477a42f.jpg"
  },
  {
    "name": "CAREER_FINISH_FIVE_SEASONS",
    "defaultvalue": 0,
    "displayName": "Seasoned Driver",
    "hidden": 0,
    "description": "Complete 5 career seasons",
    "icon": "https://steamcdn-a.akamaihd.net/steamcommunity/public/images/apps/670900/552d69d4a2d9fa541ba77e28ef4e09edcc1f990e.jpg",
    "icongray": "https://steamcdn-a.akamaihd.net/steamcommunity/public/images/apps/670900/a713d5d46e445764eb02ea9692d20316071e985c.jpg"
  },
  {
    "name": "CAREER_FINISH_TEN_SEASONS",
    "defaultvalue": 0,
    "displayName": "Grizzled Veteran",
    "hidden": 0,
    "description": "Complete 10 career seasons",
    "icon": "https://steamcdn-a.akamaihd.net/steamcommunity/public/images/apps/670900/4056de93b4132ae50bec5193dd5453598989baeb.jpg",
    "icongray": "https://steamcdn-a.akamaihd.net/steamcommunity/public/images/apps/670900/dfd8a553398cb8c807aca85a0b19b40aafb78289.jpg"
  },
  {
    "name": "CAREER_FINISH_TRUCK_SEASON",
    "defaultvalue": 0,
    "displayName": "Hauling",
    "hidden": 0,
    "description": "Finish a NASCAR Camping World Truck Series season in career",
    "icon": "https://steamcdn-a.akamaihd.net/steamcommunity/public/images/apps/670900/777bc8eb74455ebf270745e4357724892063eef5.jpg",
    "icongray": "https://steamcdn-a.akamaihd.net/steamcommunity/public/images/apps/670900/e264e3fa770bb75d4d1f50b91cbefa691d1c55cf.jpg"
  },
  {
    "name": "CAREER_FINISH_XFINITY_SEASON",
    "defaultvalue": 0,
    "displayName": "One Down",
    "hidden": 0,
    "description": "Finish a NASCAR Xfinity Series season in career",
    "icon": "https://steamcdn-a.akamaihd.net/steamcommunity/public/images/apps/670900/42a4aa18d8cf4ef24dd64c98c8af247039285aec.jpg",
    "icongray": "https://steamcdn-a.akamaihd.net/steamcommunity/public/images/apps/670900/b483c0abda9d0fd64297c5cf70a7170d4cfc657a.jpg"
  },
  {
    "name": "CAREER_FINISH_CUP_SEASON",
    "defaultvalue": 0,
    "displayName": "Start of Something Great",
    "hidden": 0,
    "description": "Finish a Monster Energy NASCAR season in career",
    "icon": "https://steamcdn-a.akamaihd.net/steamcommunity/public/images/apps/670900/8c254c57a12d098b39198b33c8826ea1772d647a.jpg",
    "icongray": "https://steamcdn-a.akamaihd.net/steamcommunity/public/images/apps/670900/f01700284a986e7a6b722c5d4b5665f55ce5d4f5.jpg"
  },
  {
    "name": "CAREER_TRUCK_PLAYOFFS",
    "defaultvalue": 0,
    "displayName": "Getting Somewhere",
    "hidden": 0,
    "description": "Earn a spot in The NASCAR Camping World Truck playoffs",
    "icon": "https://steamcdn-a.akamaihd.net/steamcommunity/public/images/apps/670900/db2e945efffbcd74ba4605f917c8c3fdac4e7d92.jpg",
    "icongray": "https://steamcdn-a.akamaihd.net/steamcommunity/public/images/apps/670900/75c842e0385a46560cbb6148954bdcb81ec54bec.jpg"
  },
  {
    "name": "CAREER_XFINITY_PLAYOFFS",
    "defaultvalue": 0,
    "displayName": "Time to Shine",
    "hidden": 0,
    "description": "Earn a spot in the NASCAR Xfinity playoffs",
    "icon": "https://steamcdn-a.akamaihd.net/steamcommunity/public/images/apps/670900/9b9d27d5f5381a39d01010020becddbe9ddb8908.jpg",
    "icongray": "https://steamcdn-a.akamaihd.net/steamcommunity/public/images/apps/670900/b4c8f42b71263f54d87efb085c7b40c265fb527f.jpg"
  },
  {
    "name": "CAREER_CUP_PLAYOFFS",
    "defaultvalue": 0,
    "displayName": "Playing with the Big Boys",
    "hidden": 0,
    "description": "Earn a spot in the Monster Energy NASCAR Cup Series playoffs",
    "icon": "https://steamcdn-a.akamaihd.net/steamcommunity/public/images/apps/670900/e7b67e0604e0f9c29f296fd1b367e516c7609e69.jpg",
    "icongray": "https://steamcdn-a.akamaihd.net/steamcommunity/public/images/apps/670900/3333168e4cd44b2a18f28612652718821edd3994.jpg"
  },
  {
    "name": "CAREER_WIN_TRUCK_CHAMPIONSHIP",
    "defaultvalue": 0,
    "displayName": "First Big Step",
    "hidden": 0,
    "description": "Win NASCAR Camping World Truck Series championship in career",
    "icon": "https://steamcdn-a.akamaihd.net/steamcommunity/public/images/apps/670900/4d958e86fb14e061c8212eeca10981a988de94e1.jpg",
    "icongray": "https://steamcdn-a.akamaihd.net/steamcommunity/public/images/apps/670900/b524f37a37c80e59885dd0bbd1cab180f57600ad.jpg"
  },
  {
    "name": "CAREER_WIN_XFINITY_CHAMPIONSHIP",
    "defaultvalue": 0,
    "displayName": "Who's Next",
    "hidden": 0,
    "description": "Win a NASCAR Xfinity Series championship in career",
    "icon": "https://steamcdn-a.akamaihd.net/steamcommunity/public/images/apps/670900/aaee2257c58c4130c0eeef5e4bf3a32e22a3a068.jpg",
    "icongray": "https://steamcdn-a.akamaihd.net/steamcommunity/public/images/apps/670900/4de13c9b59075d2d6be024bce622aea1f2684b37.jpg"
  },
  {
    "name": "CAREER_WIN_CUP_CHAMPIONSHIP",
    "defaultvalue": 0,
    "displayName": "Best of the Best",
    "hidden": 0,
    "description": "Win  the Monster Energy NASCAR Cup Series championship in career",
    "icon": "https://steamcdn-a.akamaihd.net/steamcommunity/public/images/apps/670900/6de3042269ccd6c78f8593561a6a82f950a6719d.jpg",
    "icongray": "https://steamcdn-a.akamaihd.net/steamcommunity/public/images/apps/670900/533511d4aba06d2c08510d81dc88ce28821d7790.jpg"
  },
  {
    "name": "CAREER_SIGN_WITH_TRUCK",
    "defaultvalue": 0,
    "displayName": "So it Begins",
    "hidden": 0,
    "description": "Sign with a NASCAR Camping World Truck Series team",
    "icon": "https://steamcdn-a.akamaihd.net/steamcommunity/public/images/apps/670900/0763acc0789a069257dc03890705a76c0bf1902e.jpg",
    "icongray": "https://steamcdn-a.akamaihd.net/steamcommunity/public/images/apps/670900/ad782755b0f7f4add1bc3a10cd19349f8340e594.jpg"
  },
  {
    "name": "CAREER_SIGN_WITH_XFINITY",
    "defaultvalue": 0,
    "displayName": "Moving on Up",
    "hidden": 0,
    "description": "Sign with a NASCAR Xfinity Series team",
    "icon": "https://steamcdn-a.akamaihd.net/steamcommunity/public/images/apps/670900/91726bede243ccb4ed4b8d43f8eff2416a03145a.jpg",
    "icongray": "https://steamcdn-a.akamaihd.net/steamcommunity/public/images/apps/670900/62fe1d3e98641dde24fbad524861418c9edf1d42.jpg"
  },
  {
    "name": "CAREER_SIGN_WITH_CUP",
    "defaultvalue": 0,
    "displayName": "A Seat at the Table",
    "hidden": 0,
    "description": "Sign with a Monster Energy NASCAR Cup Series team",
    "icon": "https://steamcdn-a.akamaihd.net/steamcommunity/public/images/apps/670900/f7fd184305c37cdffd8b7b0004d2b9da5f88d3fe.jpg",
    "icongray": "https://steamcdn-a.akamaihd.net/steamcommunity/public/images/apps/670900/afa199a7c273665e1056b68a61e9a92dfb003a71.jpg"
  },
  {
    "name": "FIRST_CAREER_WIN",
    "defaultvalue": 0,
    "displayName": "Established Competitor",
    "hidden": 0,
    "description": "Won a race in Career",
    "icon": "https://steamcdn-a.akamaihd.net/steamcommunity/public/images/apps/670900/0721c3806574fd9b304ed43d721dcf2116de2607.jpg",
    "icongray": "https://steamcdn-a.akamaihd.net/steamcommunity/public/images/apps/670900/f2f6e9ecbb97e5c51db8ce13a1216371f9c17741.jpg"
  },
  {
    "name": "EAR_TWENTY_FIVE_MILLION_DOLLARS",
    "defaultvalue": 0,
    "displayName": "Rolling in the Dough",
    "hidden": 0,
    "description": "Earn 25 million dollars",
    "icon": "https://steamcdn-a.akamaihd.net/steamcommunity/public/images/apps/670900/be30d96c97db52dcc239cf92be2f3e8adc799aee.jpg",
    "icongray": "https://steamcdn-a.akamaihd.net/steamcommunity/public/images/apps/670900/a0113a2656242215bac6f55033a29afde96b1e28.jpg"
  },
  {
    "name": "COMPLETE_FIRST_CHALLENGE",
    "defaultvalue": 0,
    "displayName": "Challenge Accomplished",
    "hidden": 0,
    "description": "Completed a challenge",
    "icon": "https://steamcdn-a.akamaihd.net/steamcommunity/public/images/apps/670900/730b905cacb96d83fa64198fdfe80365cda295a7.jpg",
    "icongray": "https://steamcdn-a.akamaihd.net/steamcommunity/public/images/apps/670900/6be632dfdd85aa97c546ca2e5d4cfb15ad67e074.jpg"
  },
  {
    "name": "COMPLETE_HALF_CHALLENGES",
    "defaultvalue": 0,
    "displayName": "Force to be Reckoned With",
    "hidden": 0,
    "description": "Completed half of the challenges",
    "icon": "https://steamcdn-a.akamaihd.net/steamcommunity/public/images/apps/670900/9813c73389de25274f81d9421e2257bac790866f.jpg",
    "icongray": "https://steamcdn-a.akamaihd.net/steamcommunity/public/images/apps/670900/3583ce344cbad74e286f020f7f116d125f4992f1.jpg"
  },
  {
    "name": "COMPLETE_ALL_CHALLENGES",
    "defaultvalue": 0,
    "displayName": "King of the Hill",
    "hidden": 0,
    "description": "Completed all challenges",
    "icon": "https://steamcdn-a.akamaihd.net/steamcommunity/public/images/apps/670900/c6e9601bde41da2e092a39664dd1ac409b2e5a5e.jpg",
    "icongray": "https://steamcdn-a.akamaihd.net/steamcommunity/public/images/apps/670900/2734f1843916e84ffc1099316de35b427216d936.jpg"
  },
  {
    "name": "RACE_MULTIPLAYER",
    "defaultvalue": 0,
    "displayName": "Online Racer",
    "hidden": 0,
    "description": "Completed a Multiplayer race",
    "icon": "https://steamcdn-a.akamaihd.net/steamcommunity/public/images/apps/670900/4f1ba68e2de34711ccdf0fc832a158ae5b45e4b2.jpg",
    "icongray": "https://steamcdn-a.akamaihd.net/steamcommunity/public/images/apps/670900/e1aeeb44715a164a981bdd0dca556005b7d49675.jpg"
  },
  {
    "name": "WIN_MULTIPLAYER_RACE",
    "defaultvalue": 0,
    "displayName": "Online Victory",
    "hidden": 0,
    "description": "Won a Multiplayer race",
    "icon": "https://steamcdn-a.akamaihd.net/steamcommunity/public/images/apps/670900/1a435d4c66de377d136c32307959b3e38a82d4da.jpg",
    "icongray": "https://steamcdn-a.akamaihd.net/steamcommunity/public/images/apps/670900/6183fbe98c1fbf904ea6c95bf8a2cd96283cd404.jpg"
  }
]