{
  "Dlcs": {},
  "Name": "Actua Golf 3",
  "AppId": "399180",
  "ImageUrl": "https://steamcdn-a.akamaihd.net/steam/apps/399180/header.jpg?t=1447377779",
  "Languages": [
    "english"
  ],
  "Platforms": {
    "windows": true,
    "mac": false,
    "linux": false
  }
}