{
  "Dlcs": {
    "1383600": {
      "Name": "One Shell Straight to Hell X Layers of Fear",
      "ImageUrl": "https://steamcdn-a.akamaihd.net/steam/apps/1383600/header.jpg?t=1600947519"
    }
  },
  "Name": "One Shell Straight to Hell",
  "AppId": "1330370",
  "ImageUrl": "https://steamcdn-a.akamaihd.net/steam/apps/1330370/header.jpg?t=1599311591",
  "Languages": [
    "english",
    "french",
    "italian",
    "german",
    "spanish"
  ],
  "Platforms": {
    "windows": true,
    "mac": false,
    "linux": false
  }
}