[
  {
    "name": "NEW_ACHIEVEMENT_1_0",
    "defaultvalue": 0,
    "displayName": "Achivement 1",
    "hidden": 0,
    "description": "Pass The First Level",
    "icon": "https://steamcdn-a.akamaihd.net/steamcommunity/public/images/apps/765530/d053d9f7ee077e80db6e30f6d9ecf652a077c674.jpg",
    "icongray": "https://steamcdn-a.akamaihd.net/steamcommunity/public/images/apps/765530/6a9756d222cc9ba9c80a6fa08028a664e87e1801.jpg"
  },
  {
    "name": "NEW_ACHIEVEMENT_1_1",
    "defaultvalue": 0,
    "displayName": "Achivement 2",
    "hidden": 0,
    "description": "Pass The First Level",
    "icon": "https://steamcdn-a.akamaihd.net/steamcommunity/public/images/apps/765530/782e1b0b2d1832e81bf33c0c2e51ac87617ce254.jpg",
    "icongray": "https://steamcdn-a.akamaihd.net/steamcommunity/public/images/apps/765530/485f3f957692fc44a9c4635ccc68af6680799afc.jpg"
  },
  {
    "name": "NEW_ACHIEVEMENT_1_2",
    "defaultvalue": 0,
    "displayName": "Achivement 3",
    "hidden": 0,
    "description": "Pass the Second  level",
    "icon": "https://steamcdn-a.akamaihd.net/steamcommunity/public/images/apps/765530/21edf8c02b74e71fe2a645cf7332c44ad42e2df6.jpg",
    "icongray": "https://steamcdn-a.akamaihd.net/steamcommunity/public/images/apps/765530/98950653fa42db9a396ba7287772f0804fb42626.jpg"
  },
  {
    "name": "NEW_ACHIEVEMENT_1_3",
    "defaultvalue": 0,
    "displayName": "Achivement 4",
    "hidden": 0,
    "description": "Pass The Second  Level",
    "icon": "https://steamcdn-a.akamaihd.net/steamcommunity/public/images/apps/765530/dd4b77b0f070f31a53e7bed0277c51f889ef2d26.jpg",
    "icongray": "https://steamcdn-a.akamaihd.net/steamcommunity/public/images/apps/765530/f301302c5c85e82956489f4674c377e12d0ced16.jpg"
  },
  {
    "name": "NEW_ACHIEVEMENT_1_4",
    "defaultvalue": 0,
    "displayName": "Achivement 5",
    "hidden": 0,
    "description": "Pass The Third Level",
    "icon": "https://steamcdn-a.akamaihd.net/steamcommunity/public/images/apps/765530/6b7c469ecc51e971129ea04ab4dea408688bc97d.jpg",
    "icongray": "https://steamcdn-a.akamaihd.net/steamcommunity/public/images/apps/765530/1c8074ac20fc38ce1e1ca7211cb07da31f067b14.jpg"
  },
  {
    "name": "NEW_ACHIEVEMENT_1_5",
    "defaultvalue": 0,
    "displayName": "Achivement 6",
    "hidden": 0,
    "description": "Pass The Third Level",
    "icon": "https://steamcdn-a.akamaihd.net/steamcommunity/public/images/apps/765530/a5bcd700d29270ec3dd3de1934b77fe259a3a4cf.jpg",
    "icongray": "https://steamcdn-a.akamaihd.net/steamcommunity/public/images/apps/765530/dabcab796ab5e8f69072acc0cb95115fcef2391b.jpg"
  },
  {
    "name": "NEW_ACHIEVEMENT_1_6",
    "defaultvalue": 0,
    "displayName": "Achivement 7",
    "hidden": 0,
    "description": "Pass The Fourth Level",
    "icon": "https://steamcdn-a.akamaihd.net/steamcommunity/public/images/apps/765530/c6c253035b221b2e8f2894f4331f70ee0f20af73.jpg",
    "icongray": "https://steamcdn-a.akamaihd.net/steamcommunity/public/images/apps/765530/cdd0a2286f8e34286c4816b7fa7f4e6eb868ca21.jpg"
  },
  {
    "name": "NEW_ACHIEVEMENT_1_7",
    "defaultvalue": 0,
    "displayName": "Achivement 8",
    "hidden": 0,
    "description": "Pass The Fourth Level",
    "icon": "https://steamcdn-a.akamaihd.net/steamcommunity/public/images/apps/765530/d422bf67676f8591ecc42d86c2feb9d7bd96159d.jpg",
    "icongray": "https://steamcdn-a.akamaihd.net/steamcommunity/public/images/apps/765530/b64f0212fc81a1cbbf89408b947bbf78ea42f719.jpg"
  },
  {
    "name": "NEW_ACHIEVEMENT_1_8",
    "defaultvalue": 0,
    "displayName": "Achivement 9",
    "hidden": 0,
    "description": "Pass The Fifth Level",
    "icon": "https://steamcdn-a.akamaihd.net/steamcommunity/public/images/apps/765530/c6a595bbeecb979801f618a620b94ce9216cbb25.jpg",
    "icongray": "https://steamcdn-a.akamaihd.net/steamcommunity/public/images/apps/765530/066114e9f586d5fe7beab0e040343eae7ce43626.jpg"
  },
  {
    "name": "NEW_ACHIEVEMENT_1_9",
    "defaultvalue": 0,
    "displayName": "Achivement 10",
    "hidden": 0,
    "description": "Pass The Fifth Level",
    "icon": "https://steamcdn-a.akamaihd.net/steamcommunity/public/images/apps/765530/1f3b3819649aac5723cc23c8b624f1c724f5b45a.jpg",
    "icongray": "https://steamcdn-a.akamaihd.net/steamcommunity/public/images/apps/765530/0cdf339548ede8ea58bce1c58ad7e29a24e7071e.jpg"
  },
  {
    "name": "NEW_ACHIEVEMENT_1_10",
    "defaultvalue": 0,
    "displayName": "Achivement 11",
    "hidden": 0,
    "description": "Pass The Sixth Level",
    "icon": "https://steamcdn-a.akamaihd.net/steamcommunity/public/images/apps/765530/906f74334f955e478dd4567d2cce1cc4a4a11e6b.jpg",
    "icongray": "https://steamcdn-a.akamaihd.net/steamcommunity/public/images/apps/765530/6334af0bcbb7652214502bf34b305e37dc904e30.jpg"
  },
  {
    "name": "NEW_ACHIEVEMENT_1_11",
    "defaultvalue": 0,
    "displayName": "Achivement 12",
    "hidden": 0,
    "description": "Pass The Sixth Level",
    "icon": "https://steamcdn-a.akamaihd.net/steamcommunity/public/images/apps/765530/b86911373504de8228fa4f1f6f3c8ca4f64477b9.jpg",
    "icongray": "https://steamcdn-a.akamaihd.net/steamcommunity/public/images/apps/765530/f662f6a13483e6d408c466d3da2b66297f70dc36.jpg"
  },
  {
    "name": "NEW_ACHIEVEMENT_1_12",
    "defaultvalue": 0,
    "displayName": "Achivement 13",
    "hidden": 0,
    "description": "Pass The Seventh Level",
    "icon": "https://steamcdn-a.akamaihd.net/steamcommunity/public/images/apps/765530/1f17f33c369debf7be1efa3a9e587695c2499101.jpg",
    "icongray": "https://steamcdn-a.akamaihd.net/steamcommunity/public/images/apps/765530/b6b1fdff2e324e4cec8d7f83dbd3f4859a267006.jpg"
  },
  {
    "name": "NEW_ACHIEVEMENT_1_13",
    "defaultvalue": 0,
    "displayName": "Achivement 14",
    "hidden": 0,
    "description": "Pass The Seventh Level",
    "icon": "https://steamcdn-a.akamaihd.net/steamcommunity/public/images/apps/765530/1e3763ba7df480684b780866b33692d20fb12984.jpg",
    "icongray": "https://steamcdn-a.akamaihd.net/steamcommunity/public/images/apps/765530/db60d19dd76865080d9e8a970a708467a24e7b97.jpg"
  },
  {
    "name": "NEW_ACHIEVEMENT_1_14",
    "defaultvalue": 0,
    "displayName": "Achivement 15",
    "hidden": 0,
    "description": "Pass The Eighth Level",
    "icon": "https://steamcdn-a.akamaihd.net/steamcommunity/public/images/apps/765530/fcb02d4100fe0fc41aeaf6221fdd8f55e8030754.jpg",
    "icongray": "https://steamcdn-a.akamaihd.net/steamcommunity/public/images/apps/765530/b3bbb8cd4ea93c0e66412278e7859d08d3d5590b.jpg"
  },
  {
    "name": "NEW_ACHIEVEMENT_1_15",
    "defaultvalue": 0,
    "displayName": "Achivement 16",
    "hidden": 0,
    "description": "Pass The Eighth LeveL",
    "icon": "https://steamcdn-a.akamaihd.net/steamcommunity/public/images/apps/765530/93db4803d3f813407bf48a3b27f6c953796ef7e0.jpg",
    "icongray": "https://steamcdn-a.akamaihd.net/steamcommunity/public/images/apps/765530/3391b2e0d2baba2a9e431f876e0e483d24561f35.jpg"
  },
  {
    "name": "NEW_ACHIEVEMENT_1_16",
    "defaultvalue": 0,
    "displayName": "Achivement 17",
    "hidden": 0,
    "description": "Pass The Ninth Level",
    "icon": "https://steamcdn-a.akamaihd.net/steamcommunity/public/images/apps/765530/d29d6c8acb70f1038cb399d23287452445f63e99.jpg",
    "icongray": "https://steamcdn-a.akamaihd.net/steamcommunity/public/images/apps/765530/c485b4087c08af8b31423a16c783da5809f5c53b.jpg"
  },
  {
    "name": "NEW_ACHIEVEMENT_1_17",
    "defaultvalue": 0,
    "displayName": "Achivement 18",
    "hidden": 0,
    "description": "Pass The Ninth Level",
    "icon": "https://steamcdn-a.akamaihd.net/steamcommunity/public/images/apps/765530/320ed02b59abeb8103fbdc5fa63af548a491f1ad.jpg",
    "icongray": "https://steamcdn-a.akamaihd.net/steamcommunity/public/images/apps/765530/4a6be4ad60fe30b7378a0cd27fbe1032046ad980.jpg"
  },
  {
    "name": "NEW_ACHIEVEMENT_1_18",
    "defaultvalue": 0,
    "displayName": "Achivement 19",
    "hidden": 0,
    "description": "Pass The Tenth Level",
    "icon": "https://steamcdn-a.akamaihd.net/steamcommunity/public/images/apps/765530/750e126fe10b3a317dbea3e9567d0d407ec506a9.jpg",
    "icongray": "https://steamcdn-a.akamaihd.net/steamcommunity/public/images/apps/765530/f38722bdd503bc4d84a4b39f96bae2fe23a21fd0.jpg"
  },
  {
    "name": "NEW_ACHIEVEMENT_1_19",
    "defaultvalue": 0,
    "displayName": "Achivement 20",
    "hidden": 0,
    "description": "Pass The Tenth Level",
    "icon": "https://steamcdn-a.akamaihd.net/steamcommunity/public/images/apps/765530/ae9558ca5df7435e2f49e2d9e3f3f0b7f29e112e.jpg",
    "icongray": "https://steamcdn-a.akamaihd.net/steamcommunity/public/images/apps/765530/6812a354b59eb4bf759c28dfd934afe009d39cca.jpg"
  },
  {
    "name": "NEW_ACHIEVEMENT_1_20",
    "defaultvalue": 0,
    "displayName": "Achivement 21",
    "hidden": 0,
    "description": "Pass The Eleventh Levels",
    "icon": "https://steamcdn-a.akamaihd.net/steamcommunity/public/images/apps/765530/3583a2379855e493fb4fff7857d9220b813fcac5.jpg",
    "icongray": "https://steamcdn-a.akamaihd.net/steamcommunity/public/images/apps/765530/c47c40b9a9a58aa3bbd4e1f232edeab3cdb67469.jpg"
  },
  {
    "name": "NEW_ACHIEVEMENT_1_21",
    "defaultvalue": 0,
    "displayName": "Achivement 22",
    "hidden": 0,
    "description": "Pass The Eleventh Level",
    "icon": "https://steamcdn-a.akamaihd.net/steamcommunity/public/images/apps/765530/bc2c6a94763ed78cf621af0887bf3af89940f8d2.jpg",
    "icongray": "https://steamcdn-a.akamaihd.net/steamcommunity/public/images/apps/765530/b877cfe0aa7a8777c72b5bd13577d28455183e08.jpg"
  },
  {
    "name": "NEW_ACHIEVEMENT_1_22",
    "defaultvalue": 0,
    "displayName": "Achivement 23",
    "hidden": 0,
    "description": "Pass The Twelfth Level",
    "icon": "https://steamcdn-a.akamaihd.net/steamcommunity/public/images/apps/765530/0c827a073a7befb31063dfed64587d8de552a4f4.jpg",
    "icongray": "https://steamcdn-a.akamaihd.net/steamcommunity/public/images/apps/765530/7c3a92773bee6730a5a4a66dbce8164c373423b7.jpg"
  },
  {
    "name": "NEW_ACHIEVEMENT_1_23",
    "defaultvalue": 0,
    "displayName": "Achivement 24",
    "hidden": 0,
    "description": "Pass The Twelfth Level",
    "icon": "https://steamcdn-a.akamaihd.net/steamcommunity/public/images/apps/765530/dadab02cb27f8df5cf5153efdaded7e44703dea0.jpg",
    "icongray": "https://steamcdn-a.akamaihd.net/steamcommunity/public/images/apps/765530/ca0ddfb31bf558b0cfe8a81037671457313b9060.jpg"
  },
  {
    "name": "NEW_ACHIEVEMENT_1_24",
    "defaultvalue": 0,
    "displayName": "Achivement 25",
    "hidden": 0,
    "description": "Pass The Thirteenth Level",
    "icon": "https://steamcdn-a.akamaihd.net/steamcommunity/public/images/apps/765530/60e44302f1e44d1ea9afc0e9f90e0e34eb4585a8.jpg",
    "icongray": "https://steamcdn-a.akamaihd.net/steamcommunity/public/images/apps/765530/5b61f7c8bf1b551bdceb29ef041478b7a3c4d4a1.jpg"
  },
  {
    "name": "NEW_ACHIEVEMENT_1_25",
    "defaultvalue": 0,
    "displayName": "Achivement 26",
    "hidden": 0,
    "description": "Pass The Tirtheenth Level",
    "icon": "https://steamcdn-a.akamaihd.net/steamcommunity/public/images/apps/765530/cc35388dfdd9737f9687e165d6607113bfad0c80.jpg",
    "icongray": "https://steamcdn-a.akamaihd.net/steamcommunity/public/images/apps/765530/cfce8fbf45ad21985a29ead75b3d878156cc5483.jpg"
  },
  {
    "name": "NEW_ACHIEVEMENT_1_26",
    "defaultvalue": 0,
    "displayName": "Achivement 27",
    "hidden": 0,
    "description": "Pas The Fourteenth Level",
    "icon": "https://steamcdn-a.akamaihd.net/steamcommunity/public/images/apps/765530/e97b041b8641195aa10c195bd023d710db69ebbb.jpg",
    "icongray": "https://steamcdn-a.akamaihd.net/steamcommunity/public/images/apps/765530/f68b086ea243dc7da1c14d11bc7566ca4f0b878b.jpg"
  },
  {
    "name": "NEW_ACHIEVEMENT_1_27",
    "defaultvalue": 0,
    "displayName": "Achivement 28",
    "hidden": 0,
    "description": "Pass The Fourteenth Level",
    "icon": "https://steamcdn-a.akamaihd.net/steamcommunity/public/images/apps/765530/66f795d211c0dfe513a38415b7f4a3717ecb08f8.jpg",
    "icongray": "https://steamcdn-a.akamaihd.net/steamcommunity/public/images/apps/765530/8db5b9d7428b2360eda37046e04bfeeedddc033f.jpg"
  },
  {
    "name": "NEW_ACHIEVEMENT_1_28",
    "defaultvalue": 0,
    "displayName": "Achivement 29",
    "hidden": 0,
    "description": "Pass The Fifteenth Level",
    "icon": "https://steamcdn-a.akamaihd.net/steamcommunity/public/images/apps/765530/2ccf4b3a753caf0b89379c88d87ae56dffdf7281.jpg",
    "icongray": "https://steamcdn-a.akamaihd.net/steamcommunity/public/images/apps/765530/80e5ff11d91dfca369ed4047a89364c50bb17643.jpg"
  },
  {
    "name": "NEW_ACHIEVEMENT_1_29",
    "defaultvalue": 0,
    "displayName": "Achivement 30",
    "hidden": 0,
    "description": "Pass The Fifteenth Level",
    "icon": "https://steamcdn-a.akamaihd.net/steamcommunity/public/images/apps/765530/b4a632af434db2cd21f97fca1485403cec46fe98.jpg",
    "icongray": "https://steamcdn-a.akamaihd.net/steamcommunity/public/images/apps/765530/7a16c826fb55e679bff19cffb21e9f613b4a219a.jpg"
  },
  {
    "name": "NEW_ACHIEVEMENT_1_30",
    "defaultvalue": 0,
    "displayName": "Achivement 31",
    "hidden": 0,
    "description": "Pass The Sixteenth Level",
    "icon": "https://steamcdn-a.akamaihd.net/steamcommunity/public/images/apps/765530/e5de24a93985735c0aedbec5732aabdbaef45c13.jpg",
    "icongray": "https://steamcdn-a.akamaihd.net/steamcommunity/public/images/apps/765530/c70b899f345dec1e08fc56710dce1005b84d26e0.jpg"
  },
  {
    "name": "NEW_ACHIEVEMENT_1_31",
    "defaultvalue": 0,
    "displayName": "Achivement 32",
    "hidden": 0,
    "description": "Pass The Sixteenth Level",
    "icon": "https://steamcdn-a.akamaihd.net/steamcommunity/public/images/apps/765530/f063ef3c1d2b9d88b900e0b391e6b46f09909d22.jpg",
    "icongray": "https://steamcdn-a.akamaihd.net/steamcommunity/public/images/apps/765530/facfa2c493d56964cf745cd56da320330bb235eb.jpg"
  },
  {
    "name": "NEW_ACHIEVEMENT_2_0",
    "defaultvalue": 0,
    "displayName": "Achivement 33",
    "hidden": 0,
    "description": "Pass The Seventeenth Level",
    "icon": "https://steamcdn-a.akamaihd.net/steamcommunity/public/images/apps/765530/90a1ae067947bf2ff16d5679865bb2707ef9bac6.jpg",
    "icongray": "https://steamcdn-a.akamaihd.net/steamcommunity/public/images/apps/765530/83589811cd4f89b5ed728c86a1f5cea857e931d0.jpg"
  },
  {
    "name": "NEW_ACHIEVEMENT_2_1",
    "defaultvalue": 0,
    "displayName": "Achivement 34",
    "hidden": 0,
    "description": "Pass The Seventeenth Level",
    "icon": "https://steamcdn-a.akamaihd.net/steamcommunity/public/images/apps/765530/5d6bdd35e32fee5387683545b9efd5257392fce8.jpg",
    "icongray": "https://steamcdn-a.akamaihd.net/steamcommunity/public/images/apps/765530/c61c851ab9ee9e69502fea9d585efc745be59378.jpg"
  },
  {
    "name": "NEW_ACHIEVEMENT_2_2",
    "defaultvalue": 0,
    "displayName": "Achivement 35",
    "hidden": 0,
    "description": "Pass The Eighteenth Level",
    "icon": "https://steamcdn-a.akamaihd.net/steamcommunity/public/images/apps/765530/6f95d717e175fb5438f6677c2c6db0204b07f3d6.jpg",
    "icongray": "https://steamcdn-a.akamaihd.net/steamcommunity/public/images/apps/765530/fe60cab7461052f19381081503d4e1979c100b00.jpg"
  },
  {
    "name": "NEW_ACHIEVEMENT_2_3",
    "defaultvalue": 0,
    "displayName": "Achivement 36",
    "hidden": 0,
    "description": "Pass The Eighteenth Level",
    "icon": "https://steamcdn-a.akamaihd.net/steamcommunity/public/images/apps/765530/b076332d13ba58c72471e6b4f34426f528c55b07.jpg",
    "icongray": "https://steamcdn-a.akamaihd.net/steamcommunity/public/images/apps/765530/5cbafeb63ecf2ca1fc46b4977cb92e6a5cceabed.jpg"
  },
  {
    "name": "NEW_ACHIEVEMENT_2_4",
    "defaultvalue": 0,
    "displayName": "Achivement 37",
    "hidden": 0,
    "description": "Pass The Nineteenth Levels",
    "icon": "https://steamcdn-a.akamaihd.net/steamcommunity/public/images/apps/765530/5b9b2057385938a81fac357628727464da4d1150.jpg",
    "icongray": "https://steamcdn-a.akamaihd.net/steamcommunity/public/images/apps/765530/8ff377caea5c6d19cca28ef2daa2ece1be7fd660.jpg"
  },
  {
    "name": "NEW_ACHIEVEMENT_2_5",
    "defaultvalue": 0,
    "displayName": "Achivement 38",
    "hidden": 0,
    "description": "Pass The Nineteenth Level",
    "icon": "https://steamcdn-a.akamaihd.net/steamcommunity/public/images/apps/765530/90fc9a4b7b0be5b8367d052f3650dfc09773808b.jpg",
    "icongray": "https://steamcdn-a.akamaihd.net/steamcommunity/public/images/apps/765530/5d3a04ce1cd77857b6cc1a8e50a57fd4d83eebc4.jpg"
  },
  {
    "name": "NEW_ACHIEVEMENT_2_6",
    "defaultvalue": 0,
    "displayName": "Achivement 39",
    "hidden": 0,
    "description": "Pass The Twentieth Level",
    "icon": "https://steamcdn-a.akamaihd.net/steamcommunity/public/images/apps/765530/e9d7738f123ef07ad061d5e9b980937351813403.jpg",
    "icongray": "https://steamcdn-a.akamaihd.net/steamcommunity/public/images/apps/765530/057e48193ce9fb57de8cc17a956d72a6ba78aaba.jpg"
  },
  {
    "name": "NEW_ACHIEVEMENT_2_7",
    "defaultvalue": 0,
    "displayName": "Achivement 40",
    "hidden": 0,
    "description": "Pass The Twentieth Level",
    "icon": "https://steamcdn-a.akamaihd.net/steamcommunity/public/images/apps/765530/ea0c72e7aa24094ded12dcf2ba437c4a319fe4da.jpg",
    "icongray": "https://steamcdn-a.akamaihd.net/steamcommunity/public/images/apps/765530/4ca2397f3fec44b301a91265b7ac89e6689ece2a.jpg"
  },
  {
    "name": "NEW_ACHIEVEMENT_2_8",
    "defaultvalue": 0,
    "displayName": "Achivement 41",
    "hidden": 0,
    "description": "Pass The Twenty First Level",
    "icon": "https://steamcdn-a.akamaihd.net/steamcommunity/public/images/apps/765530/fc22442de5b360ab8cd12a78648893b44dc67f7f.jpg",
    "icongray": "https://steamcdn-a.akamaihd.net/steamcommunity/public/images/apps/765530/d8393899c1248ae3b44d9d1dba038145dc32a4ed.jpg"
  },
  {
    "name": "NEW_ACHIEVEMENT_2_9",
    "defaultvalue": 0,
    "displayName": "Achivement 42",
    "hidden": 0,
    "description": "Pass The Twenty First Level",
    "icon": "https://steamcdn-a.akamaihd.net/steamcommunity/public/images/apps/765530/4a4a1064f9ccef4571a92dc2646c9257cf7cdcc0.jpg",
    "icongray": "https://steamcdn-a.akamaihd.net/steamcommunity/public/images/apps/765530/d38659c259a4e834041a04c983e1eb2f85ca1c98.jpg"
  },
  {
    "name": "NEW_ACHIEVEMENT_2_10",
    "defaultvalue": 0,
    "displayName": "Achivement 43",
    "hidden": 0,
    "description": "Pass The Twenty Second Level",
    "icon": "https://steamcdn-a.akamaihd.net/steamcommunity/public/images/apps/765530/d98f72884d1566bda7f923cd7fd77e002438ee60.jpg",
    "icongray": "https://steamcdn-a.akamaihd.net/steamcommunity/public/images/apps/765530/ca78db70d5d77ac81e40d4209089f4c1849abf6e.jpg"
  },
  {
    "name": "NEW_ACHIEVEMENT_2_11",
    "defaultvalue": 0,
    "displayName": "Achivement 44",
    "hidden": 0,
    "description": "Pass The Twenty Second Level",
    "icon": "https://steamcdn-a.akamaihd.net/steamcommunity/public/images/apps/765530/36d8a53578ba63e5aea0a90abc4c4867815129c2.jpg",
    "icongray": "https://steamcdn-a.akamaihd.net/steamcommunity/public/images/apps/765530/280dfa9289b0295cddc2b9e90f22acb1a3e05ea3.jpg"
  },
  {
    "name": "NEW_ACHIEVEMENT_2_12",
    "defaultvalue": 0,
    "displayName": "Achivement 45",
    "hidden": 0,
    "description": "Pass The Twenty Third Level",
    "icon": "https://steamcdn-a.akamaihd.net/steamcommunity/public/images/apps/765530/6b9bf177d1a10c3942e3480a22dfec027c50201d.jpg",
    "icongray": "https://steamcdn-a.akamaihd.net/steamcommunity/public/images/apps/765530/9816db314f8b63af480d38b17c46c0b73130c681.jpg"
  },
  {
    "name": "NEW_ACHIEVEMENT_2_13",
    "defaultvalue": 0,
    "displayName": "Achivement 46",
    "hidden": 0,
    "description": "Pass The Twenty Third Level",
    "icon": "https://steamcdn-a.akamaihd.net/steamcommunity/public/images/apps/765530/e9ab100d800aaab341f1bf72888bd1d36889cbbc.jpg",
    "icongray": "https://steamcdn-a.akamaihd.net/steamcommunity/public/images/apps/765530/c65026dc52d52bedd24d2c817961e67936fa60ea.jpg"
  },
  {
    "name": "NEW_ACHIEVEMENT_2_14",
    "defaultvalue": 0,
    "displayName": "Achivement 47",
    "hidden": 0,
    "description": "Pass The Twenty Fourth Level",
    "icon": "https://steamcdn-a.akamaihd.net/steamcommunity/public/images/apps/765530/f99ab86323e34c8ae0434cee91a6e315c04e79a9.jpg",
    "icongray": "https://steamcdn-a.akamaihd.net/steamcommunity/public/images/apps/765530/8511baf76d54bbdd1c8d4fac63c5ad96d93f3774.jpg"
  },
  {
    "name": "NEW_ACHIEVEMENT_2_15",
    "defaultvalue": 0,
    "displayName": "Achivement 48",
    "hidden": 0,
    "description": "Pass The Twenty Fourth Level",
    "icon": "https://steamcdn-a.akamaihd.net/steamcommunity/public/images/apps/765530/b5f35b705a336a83ad767f78b3bf019df25817dd.jpg",
    "icongray": "https://steamcdn-a.akamaihd.net/steamcommunity/public/images/apps/765530/997adec98cebbf94bb6935197d02ab34eab11ded.jpg"
  },
  {
    "name": "NEW_ACHIEVEMENT_2_16",
    "defaultvalue": 0,
    "displayName": "Achivement 49",
    "hidden": 0,
    "description": "Pass The Twenty Fifth Level",
    "icon": "https://steamcdn-a.akamaihd.net/steamcommunity/public/images/apps/765530/c6dc01b60fa4a36ba1f53e9eb14be4e9b19bb0a7.jpg",
    "icongray": "https://steamcdn-a.akamaihd.net/steamcommunity/public/images/apps/765530/5785c6a5a4e1d347f88f6fed29ba3e83586f9099.jpg"
  },
  {
    "name": "NEW_ACHIEVEMENT_2_17",
    "defaultvalue": 0,
    "displayName": "Achivement 50",
    "hidden": 0,
    "description": "Pass The Twenty Fifth Level",
    "icon": "https://steamcdn-a.akamaihd.net/steamcommunity/public/images/apps/765530/d6fac6e526186f038ba1d4345a5582fdf0a1b595.jpg",
    "icongray": "https://steamcdn-a.akamaihd.net/steamcommunity/public/images/apps/765530/f783a140f9a299a9b640148c416b8885c38b65df.jpg"
  },
  {
    "name": "NEW_ACHIEVEMENT_2_18",
    "defaultvalue": 0,
    "displayName": "Achivement 51",
    "hidden": 0,
    "description": "Pass The Twenty Sixth Level",
    "icon": "https://steamcdn-a.akamaihd.net/steamcommunity/public/images/apps/765530/376b1ca98e10f33e36f189d103d03d1c61a2d89a.jpg",
    "icongray": "https://steamcdn-a.akamaihd.net/steamcommunity/public/images/apps/765530/72dd7e379bf093a9d2a5d24ed1a82c9629ab65d3.jpg"
  },
  {
    "name": "NEW_ACHIEVEMENT_2_19",
    "defaultvalue": 0,
    "displayName": "Achivement 52",
    "hidden": 0,
    "description": "Pass The Twenty Sixth Level",
    "icon": "https://steamcdn-a.akamaihd.net/steamcommunity/public/images/apps/765530/bea7665061fb5881f8fc6061333f7f99b7b05244.jpg",
    "icongray": "https://steamcdn-a.akamaihd.net/steamcommunity/public/images/apps/765530/23e79700d8feebd4d26f8997b70a1ab6b2211ee5.jpg"
  },
  {
    "name": "NEW_ACHIEVEMENT_2_20",
    "defaultvalue": 0,
    "displayName": "Achivement 53",
    "hidden": 0,
    "description": "Pass The Twenty Seventh Level",
    "icon": "https://steamcdn-a.akamaihd.net/steamcommunity/public/images/apps/765530/40e2b6851fc52c8a69025e4f72de9ecf73f56488.jpg",
    "icongray": "https://steamcdn-a.akamaihd.net/steamcommunity/public/images/apps/765530/dccba78fe1a6e6610c80cba39aa617ae43a255eb.jpg"
  },
  {
    "name": "NEW_ACHIEVEMENT_2_21",
    "defaultvalue": 0,
    "displayName": "Achivement 54",
    "hidden": 0,
    "description": "Pass The Twenty Seventh Level",
    "icon": "https://steamcdn-a.akamaihd.net/steamcommunity/public/images/apps/765530/b00467c3b6f85cf23e5bc3c2e0cd3c15b9f314d8.jpg",
    "icongray": "https://steamcdn-a.akamaihd.net/steamcommunity/public/images/apps/765530/799d874ad3d0f63572899868f6fb289b7b378b35.jpg"
  },
  {
    "name": "NEW_ACHIEVEMENT_2_22",
    "defaultvalue": 0,
    "displayName": "Achivement 55",
    "hidden": 0,
    "description": "Pass The Twenty Eighth Level",
    "icon": "https://steamcdn-a.akamaihd.net/steamcommunity/public/images/apps/765530/0779f190293322c674750c355425f9cf647cea14.jpg",
    "icongray": "https://steamcdn-a.akamaihd.net/steamcommunity/public/images/apps/765530/e95533368c59dbf47f3a3e82412b46d0cf44a3c3.jpg"
  },
  {
    "name": "NEW_ACHIEVEMENT_2_23",
    "defaultvalue": 0,
    "displayName": "Achivement 56",
    "hidden": 0,
    "description": "Pass The Twenty Eighth Level",
    "icon": "https://steamcdn-a.akamaihd.net/steamcommunity/public/images/apps/765530/5d6938d150b2e7d8af164b2dfa20fc3a37644e1d.jpg",
    "icongray": "https://steamcdn-a.akamaihd.net/steamcommunity/public/images/apps/765530/adf9c13f66fce6d860734cf4dca001662793be13.jpg"
  },
  {
    "name": "NEW_ACHIEVEMENT_2_24",
    "defaultvalue": 0,
    "displayName": "Achivement 57",
    "hidden": 0,
    "description": "Pass The Twenty Nineth Level",
    "icon": "https://steamcdn-a.akamaihd.net/steamcommunity/public/images/apps/765530/6d5aafec7adcd7d06d13b23894dbd07593533eeb.jpg",
    "icongray": "https://steamcdn-a.akamaihd.net/steamcommunity/public/images/apps/765530/39b57646074012df08249277bb1e8dcb6db2580d.jpg"
  },
  {
    "name": "NEW_ACHIEVEMENT_2_25",
    "defaultvalue": 0,
    "displayName": "Achivement 58",
    "hidden": 0,
    "description": "Pass The Twenty Nineth Level",
    "icon": "https://steamcdn-a.akamaihd.net/steamcommunity/public/images/apps/765530/92bae419524972ca3f8c312fb65b5f86a25db8c4.jpg",
    "icongray": "https://steamcdn-a.akamaihd.net/steamcommunity/public/images/apps/765530/1f3a06f1bcb909acc82f7c557f9e8fc8442d9fad.jpg"
  },
  {
    "name": "NEW_ACHIEVEMENT_2_26",
    "defaultvalue": 0,
    "displayName": "Achivement 59",
    "hidden": 0,
    "description": "Pass The Thirtieth Level",
    "icon": "https://steamcdn-a.akamaihd.net/steamcommunity/public/images/apps/765530/5de7fc0e814925ed92fc1c9724156f59bb12ff95.jpg",
    "icongray": "https://steamcdn-a.akamaihd.net/steamcommunity/public/images/apps/765530/b21ee930c994aa777fc0fd79ebf9a74b3687fec7.jpg"
  },
  {
    "name": "NEW_ACHIEVEMENT_2_27",
    "defaultvalue": 0,
    "displayName": "Achivement 60",
    "hidden": 0,
    "description": "Pass The Thirtieth Level",
    "icon": "https://steamcdn-a.akamaihd.net/steamcommunity/public/images/apps/765530/e187b5c5572a416adead65f6ddcafed6bc016541.jpg",
    "icongray": "https://steamcdn-a.akamaihd.net/steamcommunity/public/images/apps/765530/11fa9cd6e599def7d57705989a3aa875c5c3c2fa.jpg"
  }
]