{
  "Dlcs": {},
  "Name": "aerofly RC 7",
  "AppId": "322930",
  "ImageUrl": "https://steamcdn-a.akamaihd.net/steam/apps/322930/header.jpg?t=1447363622",
  "Languages": [
    "english",
    "french",
    "german"
  ],
  "Platforms": {
    "windows": true,
    "mac": false,
    "linux": false
  }
}