{
  "Name": "WorldEnd: What Do You Do at the End of the World? Are You Busy? Will You Save Us?: from dawn till dusk",
  "ImageUrl": "https://steamcdn-a.akamaihd.net/steam/apps/683010/header.jpg?t=1553554043",
  "Type": "episode"
}