﻿{
  "Dlcs": {},
  "Name": "Space Drifters 2D",
  "AppId": "377570",
  "ImageUrl": "https://steamcdn-a.akamaihd.net/steam/apps/377570/header.jpg?t=1479563685",
  "Languages": [
    "english"
  ],
  "Platforms": {
    "windows": true,
    "mac": true,
    "linux": true
  }
}