{
  "Dlcs": {},
  "Name": "HENTAI Ahegao",
  "AppId": "962850",
  "ImageUrl": "https://steamcdn-a.akamaihd.net/steam/apps/962850/header.jpg?t=1544395219",
  "Languages": [
    "english"
  ],
  "Platforms": {
    "windows": true,
    "mac": false,
    "linux": false
  }
}