﻿[
  {
    "name": "ACHIEVEMENT_0",
    "defaultvalue": 0,
    "displayName": "Nascentes Morimur",
    "hidden": 0,
    "description": "Promoted to Airman",
    "icon": "https://steamcdn-a.akamaihd.net/steamcommunity/public/images/apps/606730/9292c69129c2a5af83d76bb7b9f45520020263e3.jpg",
    "icongray": "https://steamcdn-a.akamaihd.net/steamcommunity/public/images/apps/606730/55211922d880bcd497eb8c14fd6320e490ec1ddb.jpg"
  },
  {
    "name": "ACHIEVEMENT_1",
    "defaultvalue": 0,
    "displayName": "Lex Talionis",
    "hidden": 0,
    "description": "Promoted to Sergeant",
    "icon": "https://steamcdn-a.akamaihd.net/steamcommunity/public/images/apps/606730/cf1548f9c525bc97a0b417780635e5abeddedf8a.jpg",
    "icongray": "https://steamcdn-a.akamaihd.net/steamcommunity/public/images/apps/606730/6cc5c54fa5b733b6af75f99c5457bbb18a4e69f2.jpg"
  },
  {
    "name": "ACHIEVEMENT_2",
    "defaultvalue": 0,
    "displayName": "Tempus Neminem Manet",
    "hidden": 0,
    "description": "Promoted to Master Sergeant",
    "icon": "https://steamcdn-a.akamaihd.net/steamcommunity/public/images/apps/606730/9eec9d3607371f438a0098c3e690472d4de7e9b7.jpg",
    "icongray": "https://steamcdn-a.akamaihd.net/steamcommunity/public/images/apps/606730/263184dbb0a67c22fc1345989427e258b4c9ff92.jpg"
  },
  {
    "name": "ACHIEVEMENT_3",
    "defaultvalue": 0,
    "displayName": "Salva Veritate",
    "hidden": 0,
    "description": "Promoted to Lieutenant",
    "icon": "https://steamcdn-a.akamaihd.net/steamcommunity/public/images/apps/606730/97a2202a8b00318eeacf1fa5283dc8970b19481c.jpg",
    "icongray": "https://steamcdn-a.akamaihd.net/steamcommunity/public/images/apps/606730/67eed098350ad752b5b075dc7fd9781f3ffbac0d.jpg"
  },
  {
    "name": "ACHIEVEMENT_4",
    "defaultvalue": 0,
    "displayName": "Repetitio Est Mater Memoriae",
    "hidden": 0,
    "description": "Promoted to First Lieutenant",
    "icon": "https://steamcdn-a.akamaihd.net/steamcommunity/public/images/apps/606730/d4c5db1860eae3e13fcc1b18cd2f95700a3d4934.jpg",
    "icongray": "https://steamcdn-a.akamaihd.net/steamcommunity/public/images/apps/606730/326c03126cec5771ad2ded7ed7340aa2a9021f6c.jpg"
  },
  {
    "name": "ACHIEVEMENT_5",
    "defaultvalue": 0,
    "displayName": "Inter Caecos Regnat Strabo",
    "hidden": 0,
    "description": "Promoted to Captain",
    "icon": "https://steamcdn-a.akamaihd.net/steamcommunity/public/images/apps/606730/1aef0faa9397c3f407f637782ceaa61608363556.jpg",
    "icongray": "https://steamcdn-a.akamaihd.net/steamcommunity/public/images/apps/606730/e07ed141a01b6fbf6efa8d02f3abc6c7f4b65d1c.jpg"
  },
  {
    "name": "ACHIEVEMENT_6",
    "defaultvalue": 0,
    "displayName": "Melius Frangi Quam Flecti",
    "hidden": 0,
    "description": "Promoted to Major",
    "icon": "https://steamcdn-a.akamaihd.net/steamcommunity/public/images/apps/606730/2ce35351bb27e1bc04323199911eaf8ca62bdd45.jpg",
    "icongray": "https://steamcdn-a.akamaihd.net/steamcommunity/public/images/apps/606730/7b2c816a40358de1ab16b58b658d349a6e6682f9.jpg"
  },
  {
    "name": "ACHIEVEMENT_7",
    "defaultvalue": 0,
    "displayName": "Suaviter In Modo",
    "hidden": 0,
    "description": "Promoted to Colonel",
    "icon": "https://steamcdn-a.akamaihd.net/steamcommunity/public/images/apps/606730/c51cef0c1fa0309957757ea2e27dd8264f506fcb.jpg",
    "icongray": "https://steamcdn-a.akamaihd.net/steamcommunity/public/images/apps/606730/dc45bedfe398b8032749baf07e31201eb9bf4d97.jpg"
  },
  {
    "name": "ACHIEVEMENT_10",
    "defaultvalue": 0,
    "displayName": "Stercus Accidit",
    "hidden": 0,
    "description": "Fail the Prologue",
    "icon": "https://steamcdn-a.akamaihd.net/steamcommunity/public/images/apps/606730/e2b4f03135c2d7cb9162aba566444d18c9199d8e.jpg",
    "icongray": "https://steamcdn-a.akamaihd.net/steamcommunity/public/images/apps/606730/f3a1f4362c8d5b9540077db24820d2508b21a5b0.jpg"
  },
  {
    "name": "ACHIEVEMENT_11",
    "defaultvalue": 0,
    "displayName": "Sine Mora",
    "hidden": 0,
    "description": "Destroy everything in the Prologue and remain unharmed",
    "icon": "https://steamcdn-a.akamaihd.net/steamcommunity/public/images/apps/606730/9502ec1587f3a52b81fa89898f5b4582c8bcc5b3.jpg",
    "icongray": "https://steamcdn-a.akamaihd.net/steamcommunity/public/images/apps/606730/a4321dd0da87023f688003c822a807a073c05d99.jpg"
  },
  {
    "name": "ACHIEVEMENT_8",
    "defaultvalue": 0,
    "displayName": "Fortiter Fideliter Feliciter",
    "hidden": 0,
    "description": "Promoted to Major General",
    "icon": "https://steamcdn-a.akamaihd.net/steamcommunity/public/images/apps/606730/1fda6628ca389ffa883ad7039f656dce8b2c253e.jpg",
    "icongray": "https://steamcdn-a.akamaihd.net/steamcommunity/public/images/apps/606730/9177ff3d201a6b191ae8f09e86dcb841b4f99d7e.jpg"
  },
  {
    "name": "ACHIEVEMENT_9",
    "defaultvalue": 0,
    "displayName": "Dies Irae",
    "hidden": 0,
    "description": "Promoted to General of the Air Force",
    "icon": "https://steamcdn-a.akamaihd.net/steamcommunity/public/images/apps/606730/4280e8c6ecb970b504ba7ada7489dd79e3aac88d.jpg",
    "icongray": "https://steamcdn-a.akamaihd.net/steamcommunity/public/images/apps/606730/c4a899a4beddd5b7e77381f0cad782eaeb30e9ec.jpg"
  }
]