[
  {
    "name": "teleports_count",
    "defaultvalue": 0,
    "displayName": "Number of teleports"
  },
  {
    "name": "game_started",
    "defaultvalue": 0,
    "displayName": "Game starts count"
  },
  {
    "name": "enemies_killed",
    "defaultvalue": 0,
    "displayName": "Enemies killed"
  },
  {
    "name": "dungeon_chests_found",
    "defaultvalue": 0,
    "displayName": "Dungeon chests found"
  },
  {
    "name": "steel_collected",
    "defaultvalue": 0,
    "displayName": "Steel collected"
  },
  {
    "name": "gold_collected",
    "defaultvalue": 0,
    "displayName": "Gold collected"
  },
  {
    "name": "sapphire_collected",
    "defaultvalue": 0,
    "displayName": "Sapphire collected"
  },
  {
    "name": "damage_inflicted",
    "defaultvalue": 0,
    "displayName": "Damage inflicted"
  },
  {
    "name": "damage_endured",
    "defaultvalue": 0,
    "displayName": "Damage endured"
  },
  {
    "name": "potions_shattered",
    "defaultvalue": 0,
    "displayName": "Potions shattered"
  }
]