﻿{
  "Dlcs": {},
  "Name": "【SCP】器関ノ彷徨 -The will of a single Tale-【DEMOver.】",
  "AppId": "836940",
  "ImageUrl": "https://steamcdn-a.akamaihd.net/steam/apps/836940/header.jpg?t=1556538302",
  "Languages": [
    "japanese",
    "schinese",
    "english"
  ],
  "Platforms": {
    "windows": true,
    "mac": false,
    "linux": false
  }
}