﻿{
  "Dlcs": {},
  "Name": "FPV Drone Simulator",
  "AppId": "691730",
  "ImageUrl": "https://steamcdn-a.akamaihd.net/steam/apps/691730/header.jpg?t=1527942308",
  "Languages": [
    "english"
  ],
  "Platforms": {
    "windows": true,
    "mac": false,
    "linux": false
  }
}