﻿{
  "Dlcs": {
    "942980": {
      "Name": "",
      "ImageUrl": ""
    }
  },
  "Name": "My Big Sister",
  "AppId": "733300",
  "ImageUrl": "https://steamcdn-a.akamaihd.net/steam/apps/733300/header.jpg?t=1598962615",
  "Languages": [
    "english",
    "spanish",
    "portuguese",
    "french",
    "german"
  ],
  "Platforms": {
    "windows": true,
    "mac": false,
    "linux": false
  }
}