{
  "Dlcs": {},
  "Name": "Jajazinho e as Delicias de Cristais",
  "AppId": "1401130",
  "ImageUrl": "https://steamcdn-a.akamaihd.net/steam/apps/1401130/header.jpg?t=1601486760",
  "Languages": [
    "portuguese"
  ],
  "Platforms": {
    "windows": true,
    "mac": false,
    "linux": false
  }
}