[
  {
    "name": "firstbox",
    "defaultvalue": 0,
    "displayName": "First Hit",
    "hidden": 0,
    "description": "Obtained your first lootbox.",
    "icon": "https://steamcdn-a.akamaihd.net/steamcommunity/public/images/apps/1033780/9be72aefa994af37c2dedc56da1b326b861289a2.jpg",
    "icongray": "https://steamcdn-a.akamaihd.net/steamcommunity/public/images/apps/1033780/8da423b7629b9ecefe9c0e38ba9d8158c9c4c848.jpg"
  },
  {
    "name": "shotinface",
    "defaultvalue": 0,
    "displayName": "Shot in the Face",
    "hidden": 0,
    "description": "You got Liam shot in the face (not that they have any other body part).",
    "icon": "https://steamcdn-a.akamaihd.net/steamcommunity/public/images/apps/1033780/1e14d7625326a9de749e3e3f87d6a45a708a0a3c.jpg",
    "icongray": "https://steamcdn-a.akamaihd.net/steamcommunity/public/images/apps/1033780/8be729d282c9935c649fa362701f4ca0495b0857.jpg"
  },
  {
    "name": "darkworld",
    "defaultvalue": 0,
    "displayName": "Entered a Dark World",
    "hidden": 0,
    "description": "You jumped into a scary looking portal without remorse.",
    "icon": "https://steamcdn-a.akamaihd.net/steamcommunity/public/images/apps/1033780/17ccd84680ca81d7e64a8c71b561911b11667854.jpg",
    "icongray": "https://steamcdn-a.akamaihd.net/steamcommunity/public/images/apps/1033780/dfde5580488de630fd1df4e2efc2c8b50003aad7.jpg"
  },
  {
    "name": "shadycave",
    "defaultvalue": 0,
    "displayName": "Found the Shady Cave",
    "hidden": 0,
    "description": "I heard that this is where all those sketchy dudes hang out.",
    "icon": "https://steamcdn-a.akamaihd.net/steamcommunity/public/images/apps/1033780/858508bc52b45ac98255b18ca70c6e3ab4581313.jpg",
    "icongray": "https://steamcdn-a.akamaihd.net/steamcommunity/public/images/apps/1033780/1d4f7645576b42c10db13ecb76c4a78296599d60.jpg"
  },
  {
    "name": "hitrock",
    "defaultvalue": 0,
    "displayName": "Got Rocked",
    "hidden": 0,
    "description": "A queen fan just burst into song.",
    "icon": "https://steamcdn-a.akamaihd.net/steamcommunity/public/images/apps/1033780/0cc9b90a5d8b69e958d753847e7579d4fdc8e6db.jpg",
    "icongray": "https://steamcdn-a.akamaihd.net/steamcommunity/public/images/apps/1033780/f3b228c51c4761896ceedf02be3b31135efb5526.jpg"
  },
  {
    "name": "sign",
    "defaultvalue": 0,
    "displayName": "Read a Sign",
    "hidden": 0,
    "description": "You just proved you're literate.",
    "icon": "https://steamcdn-a.akamaihd.net/steamcommunity/public/images/apps/1033780/c8f9d8226c838df632691f69ae8c04c8841f5049.jpg",
    "icongray": "https://steamcdn-a.akamaihd.net/steamcommunity/public/images/apps/1033780/609a6a89dbe76980b9fc55456999bd73db9ea050.jpg"
  },
  {
    "name": "gotonecoin",
    "defaultvalue": 0,
    "displayName": "Got a Coin",
    "hidden": 0,
    "description": "You are now the proud owner of a generic collectible.",
    "icon": "https://steamcdn-a.akamaihd.net/steamcommunity/public/images/apps/1033780/08d7a3652d36e9c8a7e5c0ac66f71533bebb7de1.jpg",
    "icongray": "https://steamcdn-a.akamaihd.net/steamcommunity/public/images/apps/1033780/9750bc43274f92e3019ed721aef12cefc8ad047a.jpg"
  },
  {
    "name": "veryshadycave",
    "defaultvalue": 0,
    "displayName": "Found the Very Shady Cave",
    "hidden": 0,
    "description": "I heard that this is where all those very sketchy dudes hang out.",
    "icon": "https://steamcdn-a.akamaihd.net/steamcommunity/public/images/apps/1033780/5195bdf04193dfd36ffaaa34376e9c0f3e13b51a.jpg",
    "icongray": "https://steamcdn-a.akamaihd.net/steamcommunity/public/images/apps/1033780/32fe74d273150402a66a7ccb67544aae2c3cb2ba.jpg"
  },
  {
    "name": "died1",
    "defaultvalue": 0,
    "displayName": "First Blood",
    "hidden": 0,
    "description": "First of many.",
    "icon": "https://steamcdn-a.akamaihd.net/steamcommunity/public/images/apps/1033780/289e3b753c93e2f7d301953d8b3840a7a47c5834.jpg",
    "icongray": "https://steamcdn-a.akamaihd.net/steamcommunity/public/images/apps/1033780/5694cc8383c67509a2388eca4f29c2e85f666ba6.jpg"
  },
  {
    "name": "gemdash",
    "defaultvalue": 0,
    "displayName": "Obtained the Gem Dash",
    "hidden": 0,
    "description": "Go climb a mountain!",
    "icon": "https://steamcdn-a.akamaihd.net/steamcommunity/public/images/apps/1033780/884287e63451e551d9dc3b01c261792f26118385.jpg",
    "icongray": "https://steamcdn-a.akamaihd.net/steamcommunity/public/images/apps/1033780/493369f2c40ec970f2028579ee83decc152c28dd.jpg"
  },
  {
    "name": "darkliam",
    "defaultvalue": 0,
    "displayName": "Sketchy Sighting",
    "hidden": 0,
    "description": "Saw a sketchy dude for the first time.",
    "icon": "https://steamcdn-a.akamaihd.net/steamcommunity/public/images/apps/1033780/43269474207d690a307436efbe601fe6b6554dfb.jpg",
    "icongray": "https://steamcdn-a.akamaihd.net/steamcommunity/public/images/apps/1033780/e1602f454715f1bfc0d57a44e0a8227363c18239.jpg"
  },
  {
    "name": "checkpoint",
    "defaultvalue": 0,
    "displayName": "Found a Checkpoint",
    "hidden": 0,
    "description": "Now you can die in peace.",
    "icon": "https://steamcdn-a.akamaihd.net/steamcommunity/public/images/apps/1033780/99f615073650e53056ddd1328c3bc6054afcda87.jpg",
    "icongray": "https://steamcdn-a.akamaihd.net/steamcommunity/public/images/apps/1033780/4aa8396ec78afaf9fe9bdd20c0a973411cdbb7d5.jpg"
  },
  {
    "name": "xoob",
    "defaultvalue": 0,
    "displayName": "Found Xoob's Bridge",
    "hidden": 0,
    "description": "What a wonderful name for a bridge.",
    "icon": "https://steamcdn-a.akamaihd.net/steamcommunity/public/images/apps/1033780/c3530fb7c2129e2814ee1525456411610a0f0f95.jpg",
    "icongray": "https://steamcdn-a.akamaihd.net/steamcommunity/public/images/apps/1033780/a488fbb02079330f981f0036dfdf9c0b6190425b.jpg"
  },
  {
    "name": "died10",
    "defaultvalue": 0,
    "displayName": "Died 10 Times",
    "hidden": 0,
    "description": "It's getting hard.",
    "icon": "https://steamcdn-a.akamaihd.net/steamcommunity/public/images/apps/1033780/de9e25d889a6e62b866625d023e58424fcc05c45.jpg",
    "icongray": "https://steamcdn-a.akamaihd.net/steamcommunity/public/images/apps/1033780/1372bdc32abc91d8824fcea00eada9347847a2cb.jpg"
  },
  {
    "name": "died50",
    "defaultvalue": 0,
    "displayName": "Died 50 Times",
    "hidden": 0,
    "description": "You're getting good at dying.",
    "icon": "https://steamcdn-a.akamaihd.net/steamcommunity/public/images/apps/1033780/f388a710ccef5d8eeadbe21c39a3f3c95cd4ee1e.jpg",
    "icongray": "https://steamcdn-a.akamaihd.net/steamcommunity/public/images/apps/1033780/89fc5b6177ce1affeb7b192923843b15e9a31971.jpg"
  },
  {
    "name": "died100",
    "defaultvalue": 0,
    "displayName": "Died 100 Times",
    "hidden": 0,
    "description": "It almost seems intentional.",
    "icon": "https://steamcdn-a.akamaihd.net/steamcommunity/public/images/apps/1033780/3a4651c34edda420734d37987636a38de1b32680.jpg",
    "icongray": "https://steamcdn-a.akamaihd.net/steamcommunity/public/images/apps/1033780/5375565c7a4003497bef67a7141b0fad513d5e64.jpg"
  },
  {
    "name": "died500",
    "defaultvalue": 0,
    "displayName": "Died 500 Times",
    "hidden": 0,
    "description": "You're a masochist it seems.",
    "icon": "https://steamcdn-a.akamaihd.net/steamcommunity/public/images/apps/1033780/bf5317558cf5bd62792d77ecf51fdd30384d231c.jpg",
    "icongray": "https://steamcdn-a.akamaihd.net/steamcommunity/public/images/apps/1033780/41a47d2b918adba5306d6e70f2fea765f0e51aa9.jpg"
  },
  {
    "name": "died1000",
    "defaultvalue": 0,
    "displayName": "Died 1000 Times",
    "hidden": 0,
    "description": "Had to make the font size smaller for this achievement icon to compensate for your incompetence.",
    "icon": "https://steamcdn-a.akamaihd.net/steamcommunity/public/images/apps/1033780/fd80dbbfe855720ed8c9cd441f134b996b5cb139.jpg",
    "icongray": "https://steamcdn-a.akamaihd.net/steamcommunity/public/images/apps/1033780/d27ebbcd024082f4e0f7a09aa1cf9cfd22c80788.jpg"
  },
  {
    "name": "lootbox50",
    "defaultvalue": 0,
    "displayName": "Got 50% of all Lootboxes",
    "hidden": 0,
    "description": "At least in this game they're free.",
    "icon": "https://steamcdn-a.akamaihd.net/steamcommunity/public/images/apps/1033780/4768b99cdd9ee18e31164a888bff0f08d9f1b622.jpg",
    "icongray": "https://steamcdn-a.akamaihd.net/steamcommunity/public/images/apps/1033780/d6fff2a43697dd05e89796de6020bb48b166bb58.jpg"
  },
  {
    "name": "lootbox100",
    "defaultvalue": 0,
    "displayName": "Get All Lootboxes",
    "hidden": 0,
    "description": "You're definitely addicted to these.",
    "icon": "https://steamcdn-a.akamaihd.net/steamcommunity/public/images/apps/1033780/f9ab092ebea6161cb218ac60bf1feae87454e2cd.jpg",
    "icongray": "https://steamcdn-a.akamaihd.net/steamcommunity/public/images/apps/1033780/c45862f0e886c00c7b0cf0d6011c86c24923f82e.jpg"
  },
  {
    "name": "hat1",
    "defaultvalue": 0,
    "displayName": "Buy a Hat",
    "hidden": 0,
    "description": "Gotta make Liam look their best.",
    "icon": "https://steamcdn-a.akamaihd.net/steamcommunity/public/images/apps/1033780/24f78f57948de5a414006d8798db31a6271c67f4.jpg",
    "icongray": "https://steamcdn-a.akamaihd.net/steamcommunity/public/images/apps/1033780/74dfa304cc1750a52891a37c770bf8ddfb49eccb.jpg"
  },
  {
    "name": "hatall",
    "defaultvalue": 0,
    "displayName": "Buy All Hats",
    "hidden": 0,
    "description": "Not only are you addicted to buying lootboxes, but you're a shopaholic too!",
    "icon": "https://steamcdn-a.akamaihd.net/steamcommunity/public/images/apps/1033780/880ed7787872f0eb033a22cf8db6077b16bb822c.jpg",
    "icongray": "https://steamcdn-a.akamaihd.net/steamcommunity/public/images/apps/1033780/2ced182a9f292838a986cf65d8fa89c6dbcbe007.jpg"
  },
  {
    "name": "juice1",
    "defaultvalue": 0,
    "displayName": "Get a Juice Syringe",
    "hidden": 0,
    "description": "This is definitely safe to use.",
    "icon": "https://steamcdn-a.akamaihd.net/steamcommunity/public/images/apps/1033780/4efc6a200eb702672a4098de06e83059953c4029.jpg",
    "icongray": "https://steamcdn-a.akamaihd.net/steamcommunity/public/images/apps/1033780/090234bc859b0c0eb7e35058f31499d1ca8fd688.jpg"
  },
  {
    "name": "juiceall",
    "defaultvalue": 0,
    "displayName": "Get All Juice Syringes",
    "hidden": 0,
    "description": "It makes you look cool, so why does it matter what's in it?",
    "icon": "https://steamcdn-a.akamaihd.net/steamcommunity/public/images/apps/1033780/dc5bb587f4cc2dbb7c5aec9fd6387b92eebf5506.jpg",
    "icongray": "https://steamcdn-a.akamaihd.net/steamcommunity/public/images/apps/1033780/82f54a55735fdb5eddac03fe8aa4a5150bfb45e9.jpg"
  },
  {
    "name": "locationgarden",
    "defaultvalue": 0,
    "displayName": "Made it to the Garden",
    "hidden": 0,
    "description": "Looks like a fever dream.",
    "icon": "https://steamcdn-a.akamaihd.net/steamcommunity/public/images/apps/1033780/2854131e3d4f3f220ccb9aaa0ebbe228449bdd60.jpg",
    "icongray": "https://steamcdn-a.akamaihd.net/steamcommunity/public/images/apps/1033780/43122546aad4484d7fb42caa8a5557f8f3c64137.jpg"
  },
  {
    "name": "locationravine",
    "defaultvalue": 0,
    "displayName": "Made it to the Unnamed Ravine",
    "hidden": 0,
    "description": "It's unnamed because someone was forgetful.",
    "icon": "https://steamcdn-a.akamaihd.net/steamcommunity/public/images/apps/1033780/304567cf6fbc2ee5d0621c1b1e2f1e4a8a277770.jpg",
    "icongray": "https://steamcdn-a.akamaihd.net/steamcommunity/public/images/apps/1033780/8b2d1a482b0d1961437544e9b9835e138ae29583.jpg"
  },
  {
    "name": "locationbase",
    "defaultvalue": 0,
    "displayName": "Made it to the Mountain Base",
    "hidden": 0,
    "description": "The center of the world (not really).",
    "icon": "https://steamcdn-a.akamaihd.net/steamcommunity/public/images/apps/1033780/2f9ee92e88b152e2f712e6e36c3776b28f6893af.jpg",
    "icongray": "https://steamcdn-a.akamaihd.net/steamcommunity/public/images/apps/1033780/bca678ac4e3cc94899c3ac7b9944d1f1ee852bfb.jpg"
  },
  {
    "name": "locationcima",
    "defaultvalue": 0,
    "displayName": "Made it to the Cima",
    "hidden": 0,
    "description": "Too bad balls can't put on jackets.",
    "icon": "https://steamcdn-a.akamaihd.net/steamcommunity/public/images/apps/1033780/02c41e3e8084d644c7902a0780c516de1ba515a6.jpg",
    "icongray": "https://steamcdn-a.akamaihd.net/steamcommunity/public/images/apps/1033780/38baffa16a4212aee131bd83e09b972780f57c60.jpg"
  },
  {
    "name": "locationruins",
    "defaultvalue": 0,
    "displayName": "Made it to the Ruins",
    "hidden": 0,
    "description": "These look awfully nice for being abandoned.",
    "icon": "https://steamcdn-a.akamaihd.net/steamcommunity/public/images/apps/1033780/32b9a79a85070653933c202d5bb7ebeb4f965353.jpg",
    "icongray": "https://steamcdn-a.akamaihd.net/steamcommunity/public/images/apps/1033780/cca87b816e0de8d0a0957443014c7d3aa11b3243.jpg"
  },
  {
    "name": "facepeel",
    "defaultvalue": 0,
    "displayName": "Find the Peeled Xoobotl",
    "hidden": 1,
    "icon": "https://steamcdn-a.akamaihd.net/steamcommunity/public/images/apps/1033780/d9aff04650e741a1641d9d4e29b854aa7a0448b0.jpg",
    "icongray": "https://steamcdn-a.akamaihd.net/steamcommunity/public/images/apps/1033780/f2a05347e101c22bdb41769a19175a31363f051e.jpg"
  },
  {
    "name": "corecaveskip",
    "defaultvalue": 0,
    "displayName": "Skip the Slam Powerup",
    "hidden": 1,
    "icon": "https://steamcdn-a.akamaihd.net/steamcommunity/public/images/apps/1033780/5402af77ebde790453309a09c3b7b61add7b97b2.jpg",
    "icongray": "https://steamcdn-a.akamaihd.net/steamcommunity/public/images/apps/1033780/1e80d1047eb909270a7f33dd144b1a465455197b.jpg"
  },
  {
    "name": "shadowlair",
    "defaultvalue": 0,
    "displayName": "Made it to the Shadow Lair",
    "hidden": 0,
    "description": "Now these dudes are *really* sketchy.",
    "icon": "https://steamcdn-a.akamaihd.net/steamcommunity/public/images/apps/1033780/89d8cca6656c3202f92b081ae8ea53b2c34151d0.jpg",
    "icongray": "https://steamcdn-a.akamaihd.net/steamcommunity/public/images/apps/1033780/4e56367da4905119a9b84ca0a7f1419993c30272.jpg"
  },
  {
    "name": "diamondlootbox",
    "defaultvalue": 0,
    "displayName": "Get the Diamond Lootbox",
    "hidden": 1,
    "icon": "https://steamcdn-a.akamaihd.net/steamcommunity/public/images/apps/1033780/0f8f39dd320c7956a7f4e8497f98d286aae560a3.jpg",
    "icongray": "https://steamcdn-a.akamaihd.net/steamcommunity/public/images/apps/1033780/194dd7e884dad46c4a4eef872b61efd40185684e.jpg"
  },
  {
    "name": "egg",
    "defaultvalue": 0,
    "displayName": "Talk to the Egg",
    "hidden": 0,
    "description": "Egg.",
    "icon": "https://steamcdn-a.akamaihd.net/steamcommunity/public/images/apps/1033780/c37c03e8ac48e7103a49af74030244f8c902d4f1.jpg",
    "icongray": "https://steamcdn-a.akamaihd.net/steamcommunity/public/images/apps/1033780/61c093a38b64916f7c41322e49ced4b093d7a97b.jpg"
  },
  {
    "name": "coinsall",
    "defaultvalue": 0,
    "displayName": "Get all Coins",
    "hidden": 0,
    "description": "You're rich (but there's always someone richer than you).",
    "icon": "https://steamcdn-a.akamaihd.net/steamcommunity/public/images/apps/1033780/22c345959ec722297a96828064d1451f57147215.jpg",
    "icongray": "https://steamcdn-a.akamaihd.net/steamcommunity/public/images/apps/1033780/880b62018e222d716e29d516e72757f340a77f3b.jpg"
  },
  {
    "name": "foundpurp",
    "defaultvalue": 0,
    "displayName": "Found Purp",
    "hidden": 0,
    "description": "Hard to tell whether this one's sketchy or not.",
    "icon": "https://steamcdn-a.akamaihd.net/steamcommunity/public/images/apps/1033780/37ae3ed4c0cea21a44c227df56fd869545b96d35.jpg",
    "icongray": "https://steamcdn-a.akamaihd.net/steamcommunity/public/images/apps/1033780/de424e4b70104621cbb8dae620e3f4395e6de33a.jpg"
  },
  {
    "name": "foundgren",
    "defaultvalue": 0,
    "displayName": "Found Gren",
    "hidden": 0,
    "description": "It's got to be said, it's an original name.",
    "icon": "https://steamcdn-a.akamaihd.net/steamcommunity/public/images/apps/1033780/f1275e29a21e009c03500a7ec9df7ebc5963417f.jpg",
    "icongray": "https://steamcdn-a.akamaihd.net/steamcommunity/public/images/apps/1033780/d1181aed947990fd59955a5cac6caea31f103d9f.jpg"
  },
  {
    "name": "goodending",
    "defaultvalue": 0,
    "displayName": "Got a Good Ending",
    "hidden": 1,
    "icon": "https://steamcdn-a.akamaihd.net/steamcommunity/public/images/apps/1033780/328b4aa39dc4684d326a13e0408c58469175c06f.jpg",
    "icongray": "https://steamcdn-a.akamaihd.net/steamcommunity/public/images/apps/1033780/55b5a24d498f6de0003ca724d7c9aaf4ccdae2f2.jpg"
  },
  {
    "name": "okending",
    "defaultvalue": 0,
    "displayName": "Got an Ok Ending",
    "hidden": 1,
    "icon": "https://steamcdn-a.akamaihd.net/steamcommunity/public/images/apps/1033780/0d7ceb4bf684a328a0bfe0c600a3560a663a7a95.jpg",
    "icongray": "https://steamcdn-a.akamaihd.net/steamcommunity/public/images/apps/1033780/f636ec0e354cec882e5aa8dc2b95fce3351369b1.jpg"
  },
  {
    "name": "bestending",
    "defaultvalue": 0,
    "displayName": "Got the Best Ending",
    "hidden": 1,
    "icon": "https://steamcdn-a.akamaihd.net/steamcommunity/public/images/apps/1033780/c72b7135c04ab6e0f50b283d05e816d83355c407.jpg",
    "icongray": "https://steamcdn-a.akamaihd.net/steamcommunity/public/images/apps/1033780/bbc564b3230383d59f4d114c4c29b89cd520b889.jpg"
  },
  {
    "name": "allcutscenes",
    "defaultvalue": 0,
    "displayName": "Seen All Cutscenes",
    "hidden": 0,
    "description": "What an emotional story.",
    "icon": "https://steamcdn-a.akamaihd.net/steamcommunity/public/images/apps/1033780/67bdd7c4034ebcede939807a83fb1269a8b144d1.jpg",
    "icongray": "https://steamcdn-a.akamaihd.net/steamcommunity/public/images/apps/1033780/f48664301ad3043e4efa2f124b4b62f94e45a110.jpg"
  },
  {
    "name": "speedrun1h",
    "defaultvalue": 0,
    "displayName": "Ultimate Speed Demon",
    "hidden": 0,
    "description": "Beat the game in Speedrun Mode in under 1h.",
    "icon": "https://steamcdn-a.akamaihd.net/steamcommunity/public/images/apps/1033780/7581b42ce62c263492dd55966d435f00819b820d.jpg",
    "icongray": "https://steamcdn-a.akamaihd.net/steamcommunity/public/images/apps/1033780/47699c37b7c5597fc6c6917aa38ddd2876b625c1.jpg"
  },
  {
    "name": "freeroam",
    "defaultvalue": 0,
    "displayName": "Exploring Machine",
    "hidden": 0,
    "description": "Beat the game in Free Roam Mode.",
    "icon": "https://steamcdn-a.akamaihd.net/steamcommunity/public/images/apps/1033780/18dba5409d406a3e65329bc4c57f4d23c6d46947.jpg",
    "icongray": "https://steamcdn-a.akamaihd.net/steamcommunity/public/images/apps/1033780/22a65d2445b83cb872ed4347ccf5c2db628e03f2.jpg"
  },
  {
    "name": "masochist",
    "defaultvalue": 0,
    "displayName": "Masochist",
    "hidden": 0,
    "description": "Beat the game with 1 heart and 2 checkpoints.",
    "icon": "https://steamcdn-a.akamaihd.net/steamcommunity/public/images/apps/1033780/9bc7584b6186865abd810b562f6ecb1d8c3cc912.jpg",
    "icongray": "https://steamcdn-a.akamaihd.net/steamcommunity/public/images/apps/1033780/8f052d8b665965fa2eeca0156950412462277337.jpg"
  },
  {
    "name": "absolutemaniac",
    "defaultvalue": 0,
    "displayName": "Absolute Maniac",
    "hidden": 0,
    "description": "Beat the game with 1 heart and 1 checkpoint.",
    "icon": "https://steamcdn-a.akamaihd.net/steamcommunity/public/images/apps/1033780/1e33b7391d301f2229039db36339fadf308510b4.jpg",
    "icongray": "https://steamcdn-a.akamaihd.net/steamcommunity/public/images/apps/1033780/59d306af7ab1a1ccff512975327514c8f167e9b2.jpg"
  },
  {
    "name": "classic",
    "defaultvalue": 0,
    "displayName": "Play Lootbox Lyfe Classic",
    "hidden": 1,
    "icon": "https://steamcdn-a.akamaihd.net/steamcommunity/public/images/apps/1033780/4392db024bb50aaf1b8b9b966e6227ac7e2f9ede.jpg",
    "icongray": "https://steamcdn-a.akamaihd.net/steamcommunity/public/images/apps/1033780/bc71d945fb15c61b8b61b7b520b73a58b294fb39.jpg"
  }
]