{
  "Dlcs": {},
  "Name": "Glitchbuster",
  "AppId": "661360",
  "ImageUrl": "https://steamcdn-a.akamaihd.net/steam/apps/661360/header.jpg?t=1511225688",
  "Languages": [
    "english"
  ],
  "Platforms": {
    "windows": true,
    "mac": true,
    "linux": true
  }
}