[
  {
    "name": "ACH_CRASH_1",
    "defaultvalue": 0,
    "displayName": "Don't Do That",
    "hidden": 0,
    "description": "Crash an aircraft.",
    "icon": "https://steamcdn-a.akamaihd.net/steamcommunity/public/images/apps/862390/e4c3139604c0db90a1490ddeeb30631994be8f4f.jpg",
    "icongray": "https://steamcdn-a.akamaihd.net/steamcommunity/public/images/apps/862390/caef51dd0c492e36e85256dc0783d64c88ffdf67.jpg"
  },
  {
    "name": "ACH_SOUNDBARRIER_1",
    "defaultvalue": 0,
    "displayName": "Supersonic",
    "hidden": 0,
    "description": "Break the sound barrier.",
    "icon": "https://steamcdn-a.akamaihd.net/steamcommunity/public/images/apps/862390/5b3413b4e285817aa037efea89cbd55b2d796b17.jpg",
    "icongray": "https://steamcdn-a.akamaihd.net/steamcommunity/public/images/apps/862390/43d4ee3c3e67435019dd2734156004f33be7a726.jpg"
  },
  {
    "name": "ACH_CRASH_10",
    "defaultvalue": 0,
    "displayName": "Go Back To Flight School",
    "hidden": 0,
    "description": "Crash an aircraft 10 times.",
    "icon": "https://steamcdn-a.akamaihd.net/steamcommunity/public/images/apps/862390/5b3de7b602c080901585a3c67f461a6b71db4371.jpg",
    "icongray": "https://steamcdn-a.akamaihd.net/steamcommunity/public/images/apps/862390/bb7f1d3b04fb27116060907f6a9b4d6c15e96d81.jpg"
  },
  {
    "name": "ACH_TAKEOFF_1",
    "defaultvalue": 0,
    "displayName": "First Takeoff",
    "hidden": 0,
    "description": "Take off for the first time.",
    "icon": "https://steamcdn-a.akamaihd.net/steamcommunity/public/images/apps/862390/ac9f7d6dc69919a79b424655facd6af052f63bc4.jpg",
    "icongray": "https://steamcdn-a.akamaihd.net/steamcommunity/public/images/apps/862390/771ae3c45fecd7b2a7ceb539d9c87a41d6459b97.jpg"
  },
  {
    "name": "ACH_LANDING_1",
    "defaultvalue": 0,
    "displayName": "First Landing",
    "hidden": 0,
    "description": "Land for the first time.",
    "icon": "https://steamcdn-a.akamaihd.net/steamcommunity/public/images/apps/862390/f0d3ee94a2a77504a37ca484f5a1af5dc8418297.jpg",
    "icongray": "https://steamcdn-a.akamaihd.net/steamcommunity/public/images/apps/862390/c8e6ab3fb71e54c3ccd8d93e0e796cc9857d52c3.jpg"
  },
  {
    "name": "ACH_VERTICAL_1",
    "defaultvalue": 0,
    "displayName": "Aerobatic",
    "hidden": 0,
    "description": "Pitch a plane straight up (90 degrees).",
    "icon": "https://steamcdn-a.akamaihd.net/steamcommunity/public/images/apps/862390/e82a07b7f53b93bef2c2f1b41c5a45bc4a60caf2.jpg",
    "icongray": "https://steamcdn-a.akamaihd.net/steamcommunity/public/images/apps/862390/e27bd303da95e3d6f42a392e2e729f5487ef739c.jpg"
  },
  {
    "name": "ACH_STALL_1",
    "defaultvalue": 0,
    "displayName": "Warning!",
    "hidden": 0,
    "description": "Stall an aircraft.",
    "icon": "https://steamcdn-a.akamaihd.net/steamcommunity/public/images/apps/862390/f8008e69e9f6c6c15b3d9e6fdc7dcddbcfb6164c.jpg",
    "icongray": "https://steamcdn-a.akamaihd.net/steamcommunity/public/images/apps/862390/09afd72487c24c7350d105742e17e51589566be8.jpg"
  },
  {
    "name": "ACH_CRUISE_1",
    "defaultvalue": 0,
    "displayName": "Cruising",
    "hidden": 0,
    "description": "Reach an altitude of 30000 feet.",
    "icon": "https://steamcdn-a.akamaihd.net/steamcommunity/public/images/apps/862390/a2a6ddb1774f737ed9af762656786143193d0285.jpg",
    "icongray": "https://steamcdn-a.akamaihd.net/steamcommunity/public/images/apps/862390/a914fd0397fb196b8ce07019d211f0a5952a3397.jpg"
  },
  {
    "name": "ACH_AFTERBURNER_1",
    "defaultvalue": 0,
    "displayName": "Maximum Power",
    "hidden": 0,
    "description": "Activate both afterburners in the T-38.",
    "icon": "https://steamcdn-a.akamaihd.net/steamcommunity/public/images/apps/862390/d1869ca52a9936e3f0d0fa0ef50760a43aa6fded.jpg",
    "icongray": "https://steamcdn-a.akamaihd.net/steamcommunity/public/images/apps/862390/0bad116fab7e02ca31f9a9be057e735136b7e445.jpg"
  },
  {
    "name": "ACH_ZEROAIRSPEED_1",
    "defaultvalue": 0,
    "displayName": "Danger!!",
    "hidden": 0,
    "description": "Reach an airspeed of 0 knots while airborne.",
    "icon": "https://steamcdn-a.akamaihd.net/steamcommunity/public/images/apps/862390/5799bf33617566030bfb6d386a414ad20376ed7a.jpg",
    "icongray": "https://steamcdn-a.akamaihd.net/steamcommunity/public/images/apps/862390/a70ffa1c314875eedb1ff0bd16eb02322b27cf96.jpg"
  }
]