﻿[
  {
    "appid": "995310",
    "itemdefid": "20000",
    "Timestamp": "2020-03-03T20:57:48Z",
    "modified": "20200303T205748Z",
    "date_created": "20190104T013608Z",
    "type": "item",
    "display_type": "Marble Skin",
    "name": "Odie",
    "quantity": 0,
    "description": "The classic, orange glass twist.",
    "background_color": "040009",
    "icon_url": "https://dotproductgames.uk/marbleodyssey/steam_inventory/Avatar_Odie_SMALL.png",
    "icon_url_large": "https://dotproductgames.uk/marbleodyssey/steam_inventory/Avatar_Odie_LARGE.png",
    "name_color": "ffffff",
    "store_tags": "marble;skin;glass;twist",
    "tradable": false,
    "marketable": false,
    "commodity": false,
    "item_quality": "1"
  },
  {
    "appid": "995310",
    "itemdefid": "20100",
    "Timestamp": "2020-03-03T20:56:45Z",
    "modified": "20200303T205645Z",
    "date_created": "20190104T013608Z",
    "type": "item",
    "display_type": "Marble Skin",
    "name": "Cats Eye - Green",
    "price_category": "1;VLV75",
    "quantity": 0,
    "description": "The classic glass marble, with a green glass twist.",
    "background_color": "040009",
    "icon_url": "https://dotproductgames.uk/marbleodyssey/steam_inventory/Avatar_GreenGrass_SMALL.png",
    "icon_url_large": "https://dotproductgames.uk/marbleodyssey/steam_inventory/Avatar_GreenGrass_LARGE.png",
    "name_color": "ffffff",
    "store_tags": "marble;skin;glass;twist;green",
    "tradable": false,
    "marketable": false,
    "commodity": false,
    "item_quality": "1"
  },
  {
    "appid": "995310",
    "itemdefid": "10000",
    "Timestamp": "2020-01-28T01:33:26Z",
    "modified": "20200128T013326Z",
    "date_created": "20191122T023344Z",
    "type": "item",
    "display_type": "Currency",
    "name": "Coins",
    "quantity": 0,
    "description": "A coin, of some lustrous metal",
    "background_color": "040009",
    "icon_url": "https://dotproductgames.uk/marbleodyssey/steam_inventory/coins/CoinGold_SMALL.png",
    "icon_url_large": "https://dotproductgames.uk/marbleodyssey/steam_inventory/coins/CoinGold_LARGE.png",
    "name_color": "ffffff",
    "store_tags": "coin;token;currency",
    "tradable": false,
    "marketable": false,
    "commodity": false,
    "store_hidden": true
  },
  {
    "appid": "995310",
    "itemdefid": "10100",
    "Timestamp": "2020-01-18T01:15:37Z",
    "modified": "20200118T011537Z",
    "date_created": "20191122T023344Z",
    "type": "item",
    "display_type": "Currency",
    "name": "Silver Coins",
    "quantity": 0,
    "description": "A medium value token",
    "background_color": "040009",
    "icon_url": "https://dotproductgames.uk/marbleodyssey/steam_inventory/coins/CoinSilver_SMALL.png",
    "icon_url_large": "https://dotproductgames.uk/marbleodyssey/steam_inventory/coins/CoinSilver_LARGE.png",
    "name_color": "ffffff",
    "store_tags": "coin;token;currency;silver",
    "tradable": false,
    "marketable": false,
    "commodity": false,
    "store_hidden": true
  },
  {
    "appid": "995310",
    "itemdefid": "10200",
    "Timestamp": "2020-01-18T01:15:23Z",
    "modified": "20200118T011523Z",
    "date_created": "20191122T023344Z",
    "type": "item",
    "display_type": "Currency",
    "name": "Gold Coins",
    "quantity": 0,
    "description": "A high value token",
    "background_color": "040009",
    "icon_url": "https://dotproductgames.uk/marbleodyssey/steam_inventory/coins/CoinGold_SMALL.png",
    "icon_url_large": "https://dotproductgames.uk/marbleodyssey/steam_inventory/coins/CoinGold_LARGE.png",
    "name_color": "ffffff",
    "store_tags": "coin;token;currency;gold",
    "tradable": false,
    "marketable": false,
    "commodity": false,
    "store_hidden": true
  },
  {
    "appid": "995310",
    "itemdefid": "18000",
    "Timestamp": "2020-03-03T20:52:10Z",
    "modified": "20200303T205210Z",
    "date_created": "20191122T150857Z",
    "type": "item",
    "display_type": "Marble Skin",
    "name": "Cats Eye - Bronze",
    "quantity": 0,
    "description": "A rare marble, with a bronze glass twist.",
    "background_color": "040009",
    "icon_url": "https://dotproductgames.uk/marbleodyssey/steam_inventory/Avatar_Twist_Bronze_SMALL.png",
    "icon_url_large": "https://dotproductgames.uk/marbleodyssey/steam_inventory/Avatar_Twist_Bronze_LARGE.png",
    "name_color": "ffffff",
    "store_tags": "marble;skin;glass;twist;bronze",
    "tradable": false,
    "marketable": false,
    "commodity": false,
    "item_quality": "10"
  },
  {
    "appid": "995310",
    "itemdefid": "18010",
    "Timestamp": "2020-03-03T20:52:03Z",
    "modified": "20200303T205203Z",
    "date_created": "20191122T150857Z",
    "type": "item",
    "display_type": "Marble Skin",
    "name": "Cats Eye - Silver",
    "quantity": 0,
    "description": "A rare marble, with a silver glass twist.",
    "background_color": "040009",
    "icon_url": "https://dotproductgames.uk/marbleodyssey/steam_inventory/Avatar_Twist_Silver_SMALL.png",
    "icon_url_large": "https://dotproductgames.uk/marbleodyssey/steam_inventory/Avatar_Twist_Silver_LARGE.png",
    "name_color": "ffffff",
    "store_tags": "marble;skin;glass;twist;silver",
    "tradable": false,
    "marketable": false,
    "commodity": false,
    "item_quality": "10"
  },
  {
    "appid": "995310",
    "itemdefid": "1000",
    "Timestamp": "2020-07-26T10:45:12Z",
    "modified": "20200726T104512Z",
    "date_created": "20191123T032210Z",
    "type": "item",
    "display_type": "Level Pack",
    "name": "Game Demo Key",
    "quantity": 0,
    "description": "This Key gives access to the games Demo",
    "background_color": "0600A8",
    "icon_url": "https://dotproductgames.uk/marbleodyssey/steam_inventory/Key_Demo_A_0_SMALL.png",
    "icon_url_large": "https://dotproductgames.uk/marbleodyssey/steam_inventory/Key_Demo_A_0_LARGE.png",
    "name_color": "ffEEEE",
    "promo": "manual",
    "store_tags": "levels;pack;collection;chapter",
    "tradable": false,
    "marketable": false,
    "commodity": false,
    "store_hidden": true,
    "item_slot": "Level Pack"
  },
  {
    "appid": "995310",
    "itemdefid": "50000",
    "Timestamp": "2020-01-15T00:17:31Z",
    "modified": "20200115T001731Z",
    "date_created": "20191123T183207Z",
    "type": "bundle",
    "display_type": "",
    "name": "Bundle: 3 Copper Coins",
    "bundle": "10000;10000;10000;",
    "quantity": 0,
    "description": "",
    "tradable": false,
    "marketable": false,
    "commodity": false
  },
  {
    "appid": "995310",
    "itemdefid": "1001",
    "Timestamp": "2020-01-11T12:13:45Z",
    "modified": "20200111T121345Z",
    "date_created": "20191123T032210Z",
    "type": "item",
    "display_type": "Level Pack",
    "name": "Chapter 1 Key",
    "quantity": 0,
    "description": "This Key starts your journey",
    "background_color": "040009",
    "icon_url": "https://dotproductgames.uk/marbleodyssey/steam_inventory/Key_Chapter_A_0_SMALL.png",
    "icon_url_large": "https://dotproductgames.uk/marbleodyssey/steam_inventory/Key_Chapter_A_0_LARGE.png",
    "name_color": "ffEEEE",
    "promo": "manual",
    "store_tags": "levels;pack;collection;chapter",
    "tradable": false,
    "marketable": false,
    "commodity": false,
    "store_hidden": true,
    "item_slot": "Level Pack"
  },
  {
    "appid": "995310",
    "itemdefid": "50002",
    "Timestamp": "2020-01-14T22:28:06Z",
    "modified": "20200114T222806Z",
    "date_created": "20191124T173445Z",
    "type": "bundle",
    "display_type": "",
    "name": "Bundle: 1 Copper Coin",
    "bundle": "10000;",
    "quantity": 0,
    "description": "",
    "tradable": false,
    "marketable": false,
    "commodity": false
  },
  {
    "appid": "995310",
    "itemdefid": "1200",
    "Timestamp": "2020-01-28T17:56:14Z",
    "modified": "20200128T175614Z",
    "date_created": "20191124T203454Z",
    "type": "bundle",
    "display_type": "",
    "name": "Drop 1 Coin",
    "bundle": "10000x1",
    "quantity": 0,
    "description": "",
    "tradable": false,
    "marketable": false,
    "commodity": false
  },
  {
    "appid": "995310",
    "itemdefid": "1201",
    "Timestamp": "2020-01-28T17:57:15Z",
    "modified": "20200128T175715Z",
    "date_created": "20191124T203454Z",
    "type": "bundle",
    "display_type": "",
    "name": "Drop 2 Coins",
    "bundle": "10000x2",
    "quantity": 0,
    "description": "",
    "tradable": false,
    "marketable": false,
    "commodity": false
  },
  {
    "appid": "995310",
    "itemdefid": "1301",
    "Timestamp": "2020-01-11T12:00:12Z",
    "modified": "20200111T120012Z",
    "date_created": "20200108T015746Z",
    "type": "item",
    "display_type": "Level Pack",
    "name": "xxx---Chapter 5 Key - Early Access",
    "quantity": 0,
    "description": "This key unlocks Chapter 5. In-Game, use the Level Selector, select this chapter and play on!",
    "background_color": "050009",
    "icon_url": "https://dotproductgames.uk/marbleodyssey/steam_inventory/Key_Chapter_B_SMALL.png",
    "icon_url_large": "https://dotproductgames.uk/marbleodyssey/steam_inventory/Key_Chapter_B_LARGE.png",
    "name_color": "ffEEEE",
    "promo": "manual",
    "store_tags": "levels;pack;collection;chapter",
    "tradable": false,
    "marketable": false,
    "commodity": false,
    "store_hidden": true,
    "item_slot": "Level Pack"
  },
  {
    "appid": "995310",
    "itemdefid": "1401",
    "Timestamp": "2020-01-11T12:00:24Z",
    "modified": "20200111T120024Z",
    "date_created": "20200108T015746Z",
    "type": "item",
    "display_type": "Level Pack",
    "name": "xxx---Chapter 6 Key - Early Access",
    "quantity": 0,
    "description": "This key unlocks Chapter 6. In-Game, use the Level Selector, select this chapter and play on!",
    "background_color": "050009",
    "icon_url": "https://dotproductgames.uk/marbleodyssey/steam_inventory/Key_Chapter_B_SMALL.png",
    "icon_url_large": "https://dotproductgames.uk/marbleodyssey/steam_inventory/Key_Chapter_B_LARGE.png",
    "name_color": "ffEEEE",
    "promo": "manual",
    "store_tags": "levels;pack;collection;chapter",
    "tradable": false,
    "marketable": false,
    "commodity": false,
    "store_hidden": true,
    "item_slot": "Level Pack"
  },
  {
    "appid": "995310",
    "itemdefid": "1300",
    "Timestamp": "2020-01-28T18:04:03Z",
    "modified": "20200128T180403Z",
    "date_created": "20200108T015901Z",
    "type": "bundle",
    "display_type": "",
    "name": "Drop 50 Coins",
    "bundle": "10000x50",
    "quantity": 0,
    "description": "",
    "tradable": false,
    "marketable": false,
    "commodity": false
  },
  {
    "appid": "995310",
    "itemdefid": "1400",
    "Timestamp": "2020-01-28T17:56:42Z",
    "modified": "20200128T175642Z",
    "date_created": "20200108T015901Z",
    "type": "bundle",
    "display_type": "",
    "name": "Drop 10 Coins",
    "bundle": "10000x10",
    "quantity": 0,
    "description": "",
    "tradable": false,
    "marketable": false,
    "commodity": false
  },
  {
    "appid": "995310",
    "itemdefid": "1006",
    "Timestamp": "2020-01-11T12:17:25Z",
    "modified": "20200111T121725Z",
    "date_created": "20200111T114817Z",
    "type": "item",
    "display_type": "Level Pack",
    "name": "Chapter 6 Key",
    "price_category": "1;VLV500",
    "quantity": 0,
    "description": "This key unlocks Chapter 6. Once purchased, this chapter can be selected via the in-game Level Selector Panel.",
    "background_color": "050009",
    "icon_url": "https://dotproductgames.uk/marbleodyssey/steam_inventory/Key_Chapter_B_SMALL.png",
    "icon_url_large": "https://dotproductgames.uk/marbleodyssey/steam_inventory/Key_Chapter_B_LARGE.png",
    "name_color": "ffEEEE",
    "store_tags": "levels;pack;collection;chapter",
    "tradable": false,
    "marketable": false,
    "commodity": false,
    "store_hidden": true,
    "item_slot": "Level Pack"
  },
  {
    "appid": "995310",
    "itemdefid": "1005",
    "Timestamp": "2020-01-11T12:17:10Z",
    "modified": "20200111T121710Z",
    "date_created": "20200111T114828Z",
    "type": "item",
    "display_type": "Level Pack",
    "name": "Chapter 5 Key",
    "price_category": "1;VLV500",
    "quantity": 0,
    "description": "This key unlocks Chapter 5. Once purchased, this chapter can be selected via the in-game Level Selector Panel.",
    "background_color": "050009",
    "icon_url": "https://dotproductgames.uk/marbleodyssey/steam_inventory/Key_Chapter_B_SMALL.png",
    "icon_url_large": "https://dotproductgames.uk/marbleodyssey/steam_inventory/Key_Chapter_B_LARGE.png",
    "name_color": "ffEEEE",
    "store_tags": "levels;pack;collection;chapter",
    "tradable": false,
    "marketable": false,
    "commodity": false,
    "store_hidden": true,
    "item_slot": "Level Pack"
  },
  {
    "appid": "995310",
    "itemdefid": "1004",
    "Timestamp": "2020-01-11T12:17:00Z",
    "modified": "20200111T121700Z",
    "date_created": "20200111T114840Z",
    "type": "item",
    "display_type": "Level Pack",
    "name": "Chapter 4 Key",
    "price_category": "1;VLV500",
    "quantity": 0,
    "description": "This key unlocks Chatper 4. Once purchased, this chapter can be selected via the in-game Level Selector Panel.",
    "background_color": "060009",
    "icon_url": "https://dotproductgames.uk/marbleodyssey/steam_inventory/Key_Chapter_B_SMALL.png",
    "icon_url_large": "https://dotproductgames.uk/marbleodyssey/steam_inventory/Key_Chapter_B_LARGE.png",
    "name_color": "ffEEEE",
    "store_tags": "levels;pack;collection;chapter",
    "tradable": false,
    "marketable": false,
    "commodity": false,
    "store_hidden": true,
    "item_slot": "Level Pack"
  },
  {
    "appid": "995310",
    "itemdefid": "1003",
    "Timestamp": "2020-01-11T12:16:35Z",
    "modified": "20200111T121635Z",
    "date_created": "20200111T114850Z",
    "type": "item",
    "display_type": "Level Pack",
    "name": "Chapter 3 Key",
    "price_category": "1;VLV500",
    "quantity": 0,
    "description": "This key unlocks Chapter 3. Once purchased, this chapter can be selected via the in-game Level Selector Panel.",
    "background_color": "060009",
    "icon_url": "https://dotproductgames.uk/marbleodyssey/steam_inventory/Key_Chapter_B_SMALL.png",
    "icon_url_large": "https://dotproductgames.uk/marbleodyssey/steam_inventory/Key_Chapter_B_LARGE.png",
    "name_color": "ffEEEE",
    "store_tags": "levels;pack;collection;chapter",
    "tradable": false,
    "marketable": false,
    "commodity": false,
    "store_hidden": true,
    "item_slot": "Level Pack"
  },
  {
    "appid": "995310",
    "itemdefid": "1002",
    "Timestamp": "2020-01-11T12:14:29Z",
    "modified": "20200111T121429Z",
    "date_created": "20200111T114858Z",
    "type": "item",
    "display_type": "Level Pack",
    "name": "Chapter 2 Key",
    "quantity": 0,
    "description": "This key unlocks Chapter 2",
    "background_color": "040009",
    "icon_url": "https://dotproductgames.uk/marbleodyssey/steam_inventory/Key_Chapter_A_0_SMALL.png",
    "icon_url_large": "https://dotproductgames.uk/marbleodyssey/steam_inventory/Key_Chapter_A_0_LARGE.png",
    "name_color": "ffEEEE",
    "promo": "manual",
    "store_tags": "levels;pack;collection;chapter",
    "tradable": false,
    "marketable": false,
    "commodity": false,
    "store_hidden": true,
    "item_slot": "Level Pack"
  },
  {
    "appid": "995310",
    "itemdefid": "1103",
    "Timestamp": "2020-01-16T21:21:34Z",
    "modified": "20200116T212134Z",
    "date_created": "20200111T114920Z",
    "type": "item",
    "display_type": "Level Pack",
    "name": "Chapter 3 Key - Early Access",
    "quantity": 0,
    "description": "This key unlocks Chatper 3",
    "background_color": "050009",
    "icon_url": "https://dotproductgames.uk/marbleodyssey/steam_inventory/Key_Chapter_B_SMALL.png",
    "icon_url_large": "https://dotproductgames.uk/marbleodyssey/steam_inventory/Key_Chapter_B_LARGE.png",
    "name_color": "ffEEEE",
    "promo": "manual",
    "store_tags": "levels;pack;collection;chapter",
    "tradable": false,
    "marketable": false,
    "commodity": false,
    "item_slot": "Level Pack"
  },
  {
    "appid": "995310",
    "itemdefid": "1104",
    "Timestamp": "2020-01-16T21:21:43Z",
    "modified": "20200116T212143Z",
    "date_created": "20200111T114930Z",
    "type": "item",
    "display_type": "Level Pack",
    "name": "Chapter 4 Key - Early Access",
    "quantity": 0,
    "description": "This key unlocks Chatper 4",
    "background_color": "050009",
    "icon_url": "https://dotproductgames.uk/marbleodyssey/steam_inventory/Key_Chapter_B_SMALL.png",
    "icon_url_large": "https://dotproductgames.uk/marbleodyssey/steam_inventory/Key_Chapter_B_LARGE.png",
    "name_color": "ffEEEE",
    "promo": "manual",
    "store_tags": "levels;pack;collection;chapter",
    "tradable": false,
    "marketable": false,
    "commodity": false,
    "store_hidden": true,
    "item_slot": "Level Pack"
  },
  {
    "appid": "995310",
    "itemdefid": "1105",
    "Timestamp": "2020-01-11T11:49:41Z",
    "modified": "20200111T114941Z",
    "date_created": "20200111T114941Z",
    "type": "item",
    "display_type": "Level Pack",
    "name": "Chapter 5 Key - Early Access",
    "quantity": 0,
    "description": "This key unlocks Chapter 5. In-Game, use the Level Selector, select this chapter and play on!",
    "background_color": "050009",
    "icon_url": "https://dotproductgames.uk/marbleodyssey/steam_inventory/Key_Chapter_B_SMALL.png",
    "icon_url_large": "https://dotproductgames.uk/marbleodyssey/steam_inventory/Key_Chapter_B_LARGE.png",
    "name_color": "ffEEEE",
    "promo": "manual",
    "store_tags": "levels;pack;collection;chapter",
    "tradable": false,
    "marketable": false,
    "commodity": false,
    "store_hidden": true,
    "item_slot": "Level Pack"
  },
  {
    "appid": "995310",
    "itemdefid": "1106",
    "Timestamp": "2020-01-11T11:49:52Z",
    "modified": "20200111T114952Z",
    "date_created": "20200111T114952Z",
    "type": "item",
    "display_type": "Level Pack",
    "name": "Chapter 6 Key - Early Access",
    "quantity": 0,
    "description": "This key unlocks Chapter 6. In-Game, use the Level Selector, select this chapter and play on!",
    "background_color": "050009",
    "icon_url": "https://dotproductgames.uk/marbleodyssey/steam_inventory/Key_Chapter_B_SMALL.png",
    "icon_url_large": "https://dotproductgames.uk/marbleodyssey/steam_inventory/Key_Chapter_B_LARGE.png",
    "name_color": "ffEEEE",
    "promo": "manual",
    "store_tags": "levels;pack;collection;chapter",
    "tradable": false,
    "marketable": false,
    "commodity": false,
    "store_hidden": true,
    "item_slot": "Level Pack"
  },
  {
    "appid": "995310",
    "itemdefid": "30001",
    "Timestamp": "2020-03-03T21:02:18Z",
    "modified": "20200303T210218Z",
    "date_created": "20190104T013608Z",
    "type": "item",
    "display_type": "Marble Skin",
    "name": "China - Black",
    "price_category": "1;VLV100",
    "quantity": 0,
    "description": "A black translucent ceramic (China), marble.",
    "background_color": "040009",
    "icon_url": "https://dotproductgames.uk/marbleodyssey/steam_inventory/Avatar_China_Black_SMALL.png",
    "icon_url_large": "https://dotproductgames.uk/marbleodyssey/steam_inventory/Avatar_China_Black_LARGE.png",
    "name_color": "ffffff",
    "store_tags": "marble;skin;china;black",
    "tradable": true,
    "marketable": false,
    "commodity": false,
    "item_quality": "2"
  },
  {
    "appid": "995310",
    "itemdefid": "30002",
    "Timestamp": "2020-03-03T21:02:27Z",
    "modified": "20200303T210227Z",
    "date_created": "20190104T013608Z",
    "type": "item",
    "display_type": "Marble Skin",
    "name": "China - Blue",
    "price_category": "1;VLV100",
    "quantity": 0,
    "description": "A blue translucent ceramic (China), marble.",
    "background_color": "040009",
    "icon_url": "https://dotproductgames.uk/marbleodyssey/steam_inventory/Avatar_China_Blue_SMALL.png",
    "icon_url_large": "https://dotproductgames.uk/marbleodyssey/steam_inventory/Avatar_China_Blue_LARGE.png",
    "name_color": "ffffff",
    "store_tags": "marble;skin;china;blue",
    "tradable": true,
    "marketable": false,
    "commodity": false,
    "item_quality": "2"
  },
  {
    "appid": "995310",
    "itemdefid": "50500",
    "Timestamp": "2020-01-14T22:38:49Z",
    "modified": "20200114T223849Z",
    "date_created": "20200114T223754Z",
    "type": "generator",
    "display_type": "",
    "name": "Generate: 1-3 Copper Coins",
    "quantity": 0,
    "description": "",
    "tradable": false,
    "marketable": false,
    "commodity": false
  },
  {
    "appid": "995310",
    "itemdefid": "20110",
    "Timestamp": "2020-03-03T20:57:07Z",
    "modified": "20200303T205707Z",
    "date_created": "20200118T223615Z",
    "type": "item",
    "display_type": "Marble Skin",
    "name": "Cats Eye - Blue",
    "price_category": "1;VLV75",
    "quantity": 0,
    "description": "The classic glass marble, with a blue glass twist.",
    "background_color": "040009",
    "icon_url": "https://dotproductgames.uk/marbleodyssey/steam_inventory/Avatar_Blue_SMALL.png",
    "icon_url_large": "https://dotproductgames.uk/marbleodyssey/steam_inventory/Avatar_Blue_LARGE.png",
    "name_color": "ffffff",
    "exchange": "10000x10",
    "store_tags": "marble;skin;glass;twist;blue",
    "tradable": false,
    "marketable": false,
    "commodity": false,
    "item_quality": "1"
  },
  {
    "appid": "995310",
    "itemdefid": "20120",
    "Timestamp": "2020-03-03T20:57:22Z",
    "modified": "20200303T205722Z",
    "date_created": "20200118T224132Z",
    "type": "item",
    "display_type": "Marble Skin",
    "name": "Cats Eye - Purple",
    "price_category": "1;VLV75",
    "quantity": 0,
    "description": "The classic glass marble, with a purple glass twist.",
    "background_color": "040009",
    "icon_url": "https://dotproductgames.uk/marbleodyssey/steam_inventory/Avatar_Purple_SMALL.png",
    "icon_url_large": "https://dotproductgames.uk/marbleodyssey/steam_inventory/Avatar_Purple_LARGE.png",
    "name_color": "ffffff",
    "store_tags": "marble;skin;glass;twist;purple",
    "tradable": false,
    "marketable": false,
    "commodity": false,
    "item_quality": "1"
  },
  {
    "appid": "995310",
    "itemdefid": "20130",
    "Timestamp": "2020-03-03T20:57:34Z",
    "modified": "20200303T205734Z",
    "date_created": "20200120T192914Z",
    "type": "item",
    "display_type": "Marble Skin",
    "name": "Cats Eye - Red",
    "price_category": "1;VLV75",
    "quantity": 0,
    "description": "The classic glass marble, with a red glass twist.",
    "background_color": "040009",
    "icon_url": "https://dotproductgames.uk/marbleodyssey/steam_inventory/Avatar_Twist_Red_SMALL.png",
    "icon_url_large": "https://dotproductgames.uk/marbleodyssey/steam_inventory/Avatar_Twist_Red_LARGE.png",
    "name_color": "ffffff",
    "store_tags": "marble;skin;glass;twist;red",
    "tradable": false,
    "marketable": false,
    "commodity": false,
    "item_quality": "1"
  },
  {
    "appid": "995310",
    "itemdefid": "20140",
    "Timestamp": "2020-03-03T20:56:38Z",
    "modified": "20200303T205638Z",
    "date_created": "20200120T193059Z",
    "type": "item",
    "display_type": "Marble Skin",
    "name": "Cats Eye - Red, White & Blue",
    "price_category": "1;VLV75",
    "quantity": 0,
    "description": "Classic glass marble, with a red, white and blue glass twist.",
    "background_color": "040009",
    "icon_url": "https://dotproductgames.uk/marbleodyssey/steam_inventory/Avatar_Twist_RedWhiteBlue_SMALL.png",
    "icon_url_large": "https://dotproductgames.uk/marbleodyssey/steam_inventory/Avatar_Twist_RedWhiteBlue_LARGE.png",
    "name_color": "ffffff",
    "store_tags": "marble;skin;glass;twist;red;white;blue",
    "tradable": false,
    "marketable": false,
    "commodity": false,
    "item_quality": "1"
  },
  {
    "appid": "995310",
    "itemdefid": "18020",
    "Timestamp": "2020-03-03T20:52:24Z",
    "modified": "20200303T205224Z",
    "date_created": "20200120T193720Z",
    "type": "item",
    "display_type": "Marble Skin",
    "name": "Cats Eye - Gold",
    "quantity": 0,
    "description": "A rare marble, with a gold glass twist.",
    "background_color": "040009",
    "icon_url": "https://dotproductgames.uk/marbleodyssey/steam_inventory/Avatar_Twist_Gold_SMALL.png",
    "icon_url_large": "https://dotproductgames.uk/marbleodyssey/steam_inventory/Avatar_Twist_Gold_LARGE.png",
    "name_color": "ffffff",
    "store_tags": "marble;skin;glass;twist;gold",
    "tradable": false,
    "marketable": false,
    "commodity": false,
    "item_quality": "10"
  },
  {
    "appid": "995310",
    "itemdefid": "5120",
    "Timestamp": "2020-01-27T01:33:35Z",
    "modified": "20200127T013335Z",
    "date_created": "20200127T011849Z",
    "type": "bundle",
    "display_type": "",
    "name": "Exchange, 10 Coins = Purple Twist Marble",
    "bundle": "20120",
    "quantity": 0,
    "description": "",
    "exchange": "10000x10",
    "tradable": false,
    "marketable": false,
    "commodity": false
  },
  {
    "appid": "995310",
    "itemdefid": "5110",
    "Timestamp": "2020-01-27T18:21:58Z",
    "modified": "20200127T182158Z",
    "date_created": "20200127T182158Z",
    "type": "bundle",
    "display_type": "",
    "name": "Exchange, 10 Coins = Blue Twist Marble",
    "bundle": "20110",
    "quantity": 0,
    "description": "",
    "exchange": "10000x10",
    "tradable": false,
    "marketable": false,
    "commodity": false
  },
  {
    "appid": "995310",
    "itemdefid": "5100",
    "Timestamp": "2020-01-27T18:23:15Z",
    "modified": "20200127T182315Z",
    "date_created": "20200127T182315Z",
    "type": "bundle",
    "display_type": "",
    "name": "Exchange, 10 Coins = Green Twist Marble",
    "bundle": "20100",
    "quantity": 0,
    "description": "",
    "exchange": "10000x10",
    "tradable": false,
    "marketable": false,
    "commodity": false
  },
  {
    "appid": "995310",
    "itemdefid": "1202",
    "Timestamp": "2020-01-28T18:04:09Z",
    "modified": "20200128T180409Z",
    "date_created": "20200128T175734Z",
    "type": "bundle",
    "display_type": "",
    "name": "Drop 3 Coins",
    "bundle": "10000x3",
    "quantity": 0,
    "description": "",
    "tradable": false,
    "marketable": false,
    "commodity": false
  },
  {
    "appid": "995310",
    "itemdefid": "1203",
    "Timestamp": "2020-01-28T18:03:43Z",
    "modified": "20200128T180343Z",
    "date_created": "20200128T175803Z",
    "type": "bundle",
    "display_type": "",
    "name": "Drop 4 Coins",
    "bundle": "10000x4",
    "quantity": 0,
    "description": "",
    "tradable": false,
    "marketable": false,
    "commodity": false
  },
  {
    "appid": "995310",
    "itemdefid": "1204",
    "Timestamp": "2020-01-28T18:03:50Z",
    "modified": "20200128T180350Z",
    "date_created": "20200128T175819Z",
    "type": "bundle",
    "display_type": "",
    "name": "Drop 5 Coins",
    "bundle": "10000x5",
    "quantity": 0,
    "description": "",
    "tradable": false,
    "marketable": false,
    "commodity": false
  },
  {
    "appid": "995310",
    "itemdefid": "1205",
    "Timestamp": "2020-01-28T18:03:38Z",
    "modified": "20200128T180338Z",
    "date_created": "20200128T180202Z",
    "type": "bundle",
    "display_type": "",
    "name": "Drop 6 Coins",
    "bundle": "10000x6",
    "quantity": 0,
    "description": "",
    "tradable": false,
    "marketable": false,
    "commodity": false
  },
  {
    "appid": "995310",
    "itemdefid": "1206",
    "Timestamp": "2020-01-28T18:04:16Z",
    "modified": "20200128T180416Z",
    "date_created": "20200128T180217Z",
    "type": "bundle",
    "display_type": "",
    "name": "Drop 7 Coins",
    "bundle": "10000x7",
    "quantity": 0,
    "description": "",
    "tradable": false,
    "marketable": false,
    "commodity": false
  },
  {
    "appid": "995310",
    "itemdefid": "1207",
    "Timestamp": "2020-01-28T18:03:33Z",
    "modified": "20200128T180333Z",
    "date_created": "20200128T180333Z",
    "type": "bundle",
    "display_type": "",
    "name": "Drop 8 Coins",
    "bundle": "10000x8",
    "quantity": 0,
    "description": "",
    "tradable": false,
    "marketable": false,
    "commodity": false
  },
  {
    "appid": "995310",
    "itemdefid": "1208",
    "Timestamp": "2020-01-28T18:04:46Z",
    "modified": "20200128T180446Z",
    "date_created": "20200128T180446Z",
    "type": "bundle",
    "display_type": "",
    "name": "Drop 9 Coins",
    "bundle": "10000x9",
    "quantity": 0,
    "description": "",
    "tradable": false,
    "marketable": false,
    "commodity": false
  },
  {
    "appid": "995310",
    "itemdefid": "30003",
    "Timestamp": "2020-03-03T21:02:01Z",
    "modified": "20200303T210201Z",
    "date_created": "20200203T003555Z",
    "type": "item",
    "display_type": "Marble Skin",
    "name": "China - Brown",
    "price_category": "1;VLV150",
    "quantity": 0,
    "description": "A brown translucent ceramic (China), marble.",
    "background_color": "040009",
    "icon_url": "https://dotproductgames.uk/marbleodyssey/steam_inventory/Avatar_China_Brown_SMALL.png",
    "icon_url_large": "https://dotproductgames.uk/marbleodyssey/steam_inventory/Avatar_China_Brown_LARGE.png",
    "name_color": "ffffff",
    "store_tags": "marble;skin;china;brown",
    "tradable": true,
    "marketable": false,
    "commodity": false,
    "item_quality": "2"
  },
  {
    "appid": "995310",
    "itemdefid": "30004",
    "Timestamp": "2020-03-03T21:02:34Z",
    "modified": "20200303T210234Z",
    "date_created": "20200203T003640Z",
    "type": "item",
    "display_type": "Marble Skin",
    "name": "China - Green",
    "price_category": "1;VLV100",
    "quantity": 0,
    "description": "A green translucent ceramic (China), marble.",
    "background_color": "040009",
    "icon_url": "https://dotproductgames.uk/marbleodyssey/steam_inventory/Avatar_China_Green_SMALL.png",
    "icon_url_large": "https://dotproductgames.uk/marbleodyssey/steam_inventory/Avatar_China_Green_LARGE.png",
    "name_color": "ffffff",
    "store_tags": "marble;skin;china;green",
    "tradable": true,
    "marketable": false,
    "commodity": false,
    "item_quality": "2"
  },
  {
    "appid": "995310",
    "itemdefid": "30005",
    "Timestamp": "2020-03-03T21:03:24Z",
    "modified": "20200303T210324Z",
    "date_created": "20200203T004841Z",
    "type": "item",
    "display_type": "Marble Skin",
    "name": "China - Olive",
    "price_category": "1;VLV150",
    "quantity": 0,
    "description": "A olive translucent ceramic (China), marble.",
    "background_color": "040009",
    "icon_url": "https://dotproductgames.uk/marbleodyssey/steam_inventory/Avatar_China_Olive_SMALL.png",
    "icon_url_large": "https://dotproductgames.uk/marbleodyssey/steam_inventory/Avatar_China_Olive_LARGE.png",
    "name_color": "ffffff",
    "store_tags": "marble;skin;china;olive",
    "tradable": true,
    "marketable": false,
    "commodity": false,
    "item_quality": "2"
  },
  {
    "appid": "995310",
    "itemdefid": "30006",
    "Timestamp": "2020-03-03T21:02:49Z",
    "modified": "20200303T210249Z",
    "date_created": "20200203T004947Z",
    "type": "item",
    "display_type": "Marble Skin",
    "name": "China - Orange",
    "price_category": "1;VLV100",
    "quantity": 0,
    "description": "A orange translucent ceramic (China), marble.",
    "background_color": "040009",
    "icon_url": "https://dotproductgames.uk/marbleodyssey/steam_inventory/Avatar_China_Orange_SMALL.png",
    "icon_url_large": "https://dotproductgames.uk/marbleodyssey/steam_inventory/Avatar_China_Orange_LARGE.png",
    "name_color": "ffffff",
    "store_tags": "marble;skin;china;orange",
    "tradable": true,
    "marketable": false,
    "commodity": false,
    "item_quality": "2"
  },
  {
    "appid": "995310",
    "itemdefid": "30007",
    "Timestamp": "2020-03-03T21:02:10Z",
    "modified": "20200303T210210Z",
    "date_created": "20200203T005019Z",
    "type": "item",
    "display_type": "Marble Skin",
    "name": "China - Purple",
    "price_category": "1;VLV150",
    "quantity": 0,
    "description": "A purple translucent ceramic (China), marble.",
    "background_color": "040009",
    "icon_url": "https://dotproductgames.uk/marbleodyssey/steam_inventory/Avatar_China_Purple_SMALL.png",
    "icon_url_large": "https://dotproductgames.uk/marbleodyssey/steam_inventory/Avatar_China_Purple_LARGE.png",
    "name_color": "ffffff",
    "store_tags": "marble;skin;china;purple",
    "tradable": true,
    "marketable": false,
    "commodity": false,
    "item_quality": "2"
  },
  {
    "appid": "995310",
    "itemdefid": "30008",
    "Timestamp": "2020-03-03T21:02:58Z",
    "modified": "20200303T210258Z",
    "date_created": "20200203T005040Z",
    "type": "item",
    "display_type": "Marble Skin",
    "name": "China - Red",
    "price_category": "1;VLV100",
    "quantity": 0,
    "description": "A red translucent ceramic (China), marble.",
    "background_color": "040009",
    "icon_url": "https://dotproductgames.uk/marbleodyssey/steam_inventory/Avatar_China_Red_LARGE.png",
    "icon_url_large": "https://dotproductgames.uk/marbleodyssey/steam_inventory/Avatar_China_Red_LARGE.png",
    "name_color": "ffffff",
    "store_tags": "marble;skin;china;red",
    "tradable": true,
    "marketable": false,
    "commodity": false,
    "item_quality": "2"
  },
  {
    "appid": "995310",
    "itemdefid": "30009",
    "Timestamp": "2020-03-03T21:03:06Z",
    "modified": "20200303T210306Z",
    "date_created": "20200203T005111Z",
    "type": "item",
    "display_type": "Marble Skin",
    "name": "China - White",
    "price_category": "1;VLV100",
    "quantity": 0,
    "description": "A white translucent ceramic (China), marble.",
    "background_color": "040009",
    "icon_url": "https://dotproductgames.uk/marbleodyssey/steam_inventory/Avatar_China_White_SMALL.png",
    "icon_url_large": "https://dotproductgames.uk/marbleodyssey/steam_inventory/Avatar_China_White_LARGE.png",
    "name_color": "ffffff",
    "store_tags": "marble;skin;china;white",
    "tradable": true,
    "marketable": false,
    "commodity": false,
    "item_quality": "2"
  },
  {
    "appid": "995310",
    "itemdefid": "30010",
    "Timestamp": "2020-03-03T21:01:49Z",
    "modified": "20200303T210149Z",
    "date_created": "20200203T005142Z",
    "type": "item",
    "display_type": "Marble Skin",
    "name": "China - Yellow",
    "price_category": "1;VLV100",
    "quantity": 0,
    "description": "A yellow translucent ceramic (China), marble.",
    "background_color": "040009",
    "icon_url": "https://dotproductgames.uk/marbleodyssey/steam_inventory/Avatar_China_Yellow_SMALL.png",
    "icon_url_large": "https://dotproductgames.uk/marbleodyssey/steam_inventory/Avatar_China_Yellow_LARGE",
    "name_color": "ffffff",
    "store_tags": "marble;skin;china;yellow",
    "tradable": true,
    "marketable": false,
    "commodity": false,
    "item_quality": "2"
  },
  {
    "appid": "995310",
    "itemdefid": "30901",
    "Timestamp": "2020-02-03T01:18:19Z",
    "modified": "20200203T011819Z",
    "date_created": "20200203T011210Z",
    "type": "bundle",
    "display_type": "",
    "name": "Exchange, 60 Coins = Black China Marble",
    "bundle": "30001",
    "quantity": 0,
    "description": "",
    "exchange": "10000x60",
    "tradable": false,
    "marketable": false,
    "commodity": false
  },
  {
    "appid": "995310",
    "itemdefid": "30902",
    "Timestamp": "2020-02-03T01:12:36Z",
    "modified": "20200203T011236Z",
    "date_created": "20200203T011236Z",
    "type": "bundle",
    "display_type": "",
    "name": "Exchange, 40 Coins = Blue China Marble",
    "bundle": "30002",
    "quantity": 0,
    "description": "",
    "exchange": "10000x40",
    "tradable": false,
    "marketable": false,
    "commodity": false
  },
  {
    "appid": "995310",
    "itemdefid": "30903",
    "Timestamp": "2020-02-03T01:12:55Z",
    "modified": "20200203T011255Z",
    "date_created": "20200203T011255Z",
    "type": "bundle",
    "display_type": "",
    "name": "Exchange, 40 Coins = Brown China Marble",
    "bundle": "30003",
    "quantity": 0,
    "description": "",
    "exchange": "10000x40",
    "tradable": false,
    "marketable": false,
    "commodity": false
  },
  {
    "appid": "995310",
    "itemdefid": "30904",
    "Timestamp": "2020-02-03T01:13:16Z",
    "modified": "20200203T011316Z",
    "date_created": "20200203T011316Z",
    "type": "bundle",
    "display_type": "",
    "name": "Exchange, 40 Coins = Green China Marble",
    "bundle": "30004",
    "quantity": 0,
    "description": "",
    "exchange": "10000x40",
    "tradable": false,
    "marketable": false,
    "commodity": false
  },
  {
    "appid": "995310",
    "itemdefid": "30905",
    "Timestamp": "2020-02-03T01:18:35Z",
    "modified": "20200203T011835Z",
    "date_created": "20200203T011332Z",
    "type": "bundle",
    "display_type": "",
    "name": "Exchange, 60 Coins = Olive China Marble",
    "bundle": "30005",
    "quantity": 0,
    "description": "",
    "exchange": "10000x60",
    "tradable": false,
    "marketable": false,
    "commodity": false
  },
  {
    "appid": "995310",
    "itemdefid": "30906",
    "Timestamp": "2020-02-03T01:18:57Z",
    "modified": "20200203T011857Z",
    "date_created": "20200203T011347Z",
    "type": "bundle",
    "display_type": "",
    "name": "Exchange, 60 Coins = Orange China Marble",
    "bundle": "30006",
    "quantity": 0,
    "description": "",
    "exchange": "10000x60",
    "tradable": false,
    "marketable": false,
    "commodity": false
  },
  {
    "appid": "995310",
    "itemdefid": "30907",
    "Timestamp": "2020-02-03T01:19:07Z",
    "modified": "20200203T011907Z",
    "date_created": "20200203T011416Z",
    "type": "bundle",
    "display_type": "",
    "name": "Exchange, 60 Coins = Purple China Marble",
    "bundle": "30007",
    "quantity": 0,
    "description": "",
    "exchange": "10000x60",
    "tradable": false,
    "marketable": false,
    "commodity": false
  },
  {
    "appid": "995310",
    "itemdefid": "30908",
    "Timestamp": "2020-02-03T01:14:29Z",
    "modified": "20200203T011429Z",
    "date_created": "20200203T011429Z",
    "type": "bundle",
    "display_type": "",
    "name": "Exchange, 40 Coins = Red China Marble",
    "bundle": "30008",
    "quantity": 0,
    "description": "",
    "exchange": "10000x40",
    "tradable": false,
    "marketable": false,
    "commodity": false
  },
  {
    "appid": "995310",
    "itemdefid": "30909",
    "Timestamp": "2020-02-03T01:14:48Z",
    "modified": "20200203T011448Z",
    "date_created": "20200203T011448Z",
    "type": "bundle",
    "display_type": "",
    "name": "Exchange, 40 Coins = WhiteChina Marble",
    "bundle": "30009",
    "quantity": 0,
    "description": "",
    "exchange": "10000x40",
    "tradable": false,
    "marketable": false,
    "commodity": false
  },
  {
    "appid": "995310",
    "itemdefid": "30910",
    "Timestamp": "2020-02-03T01:15:02Z",
    "modified": "20200203T011502Z",
    "date_created": "20200203T011502Z",
    "type": "bundle",
    "display_type": "",
    "name": "Exchange, 40 Coins = Yellow China Marble",
    "bundle": "30010",
    "quantity": 0,
    "description": "",
    "exchange": "10000x40",
    "tradable": false,
    "marketable": false,
    "commodity": false
  },
  {
    "appid": "995310",
    "itemdefid": "31001",
    "Timestamp": "2020-03-17T01:46:52Z",
    "modified": "20200317T014652Z",
    "date_created": "20200317T011231Z",
    "type": "item",
    "display_type": "Marble Skin",
    "name": "Colored Glass - Red",
    "price_category": "1;VLV150",
    "quantity": 0,
    "description": "A transparent red glass, marble.",
    "background_color": "040009",
    "icon_url": "https://dotproductgames.uk/marbleodyssey/steam_inventory/Avatar_ClearGlass_Red_SMALL.png",
    "icon_url_large": "https://dotproductgames.uk/marbleodyssey/steam_inventory/Avatar_ClearGlass_Red_LARGE.png",
    "name_color": "ffffff",
    "store_tags": "marble;skin;glass;red",
    "tradable": true,
    "marketable": false,
    "commodity": false,
    "item_quality": "3"
  },
  {
    "appid": "995310",
    "itemdefid": "31002",
    "Timestamp": "2020-03-17T01:47:21Z",
    "modified": "20200317T014721Z",
    "date_created": "20200317T011410Z",
    "type": "item",
    "display_type": "Marble Skin",
    "name": "Colored Glass - Green",
    "price_category": "1;VLV150",
    "quantity": 0,
    "description": "A transparent green glass, marble.",
    "background_color": "040009",
    "icon_url": "https://dotproductgames.uk/marbleodyssey/steam_inventory/Avatar_ClearGlass_Green_SMALL.png",
    "icon_url_large": "https://dotproductgames.uk/marbleodyssey/steam_inventory/Avatar_ClearGlass_Green_LARGE.png",
    "name_color": "ffffff",
    "store_tags": "marble;skin;glass;green",
    "tradable": true,
    "marketable": false,
    "commodity": false,
    "item_quality": "3"
  },
  {
    "appid": "995310",
    "itemdefid": "31003",
    "Timestamp": "2020-03-17T01:46:22Z",
    "modified": "20200317T014622Z",
    "date_created": "20200317T011527Z",
    "type": "item",
    "display_type": "Marble Skin",
    "name": "Colored Glass - Blue",
    "price_category": "1;VLV150",
    "quantity": 0,
    "description": "A transparent blue glass, marble.",
    "background_color": "040009",
    "icon_url": "https://dotproductgames.uk/marbleodyssey/steam_inventory/Avatar_ClearGlass_Blue_SMALL.png",
    "icon_url_large": "https://dotproductgames.uk/marbleodyssey/steam_inventory/Avatar_ClearGlass_Blue_LARGE.png",
    "name_color": "ffffff",
    "store_tags": "marble;skin;glass;blue",
    "tradable": true,
    "marketable": false,
    "commodity": false,
    "item_quality": "3"
  },
  {
    "appid": "995310",
    "itemdefid": "31503",
    "Timestamp": "2020-03-17T01:21:27Z",
    "modified": "20200317T012127Z",
    "date_created": "20200317T011741Z",
    "type": "bundle",
    "display_type": "",
    "name": "Exchange, 100 Coins = Transparent Blue Glass Marble",
    "bundle": "31003",
    "quantity": 0,
    "description": "",
    "exchange": "10000x100",
    "tradable": false,
    "marketable": false,
    "commodity": false
  },
  {
    "appid": "995310",
    "itemdefid": "31501",
    "Timestamp": "2020-03-17T01:21:53Z",
    "modified": "20200317T012153Z",
    "date_created": "20200317T011807Z",
    "type": "bundle",
    "display_type": "",
    "name": "Exchange, 100 Coins = Transparent Red Glass Marble",
    "bundle": "31001",
    "quantity": 0,
    "description": "",
    "exchange": "10000x100",
    "tradable": false,
    "marketable": false,
    "commodity": false
  },
  {
    "appid": "995310",
    "itemdefid": "31502",
    "Timestamp": "2020-03-17T01:21:39Z",
    "modified": "20200317T012139Z",
    "date_created": "20200317T011825Z",
    "type": "bundle",
    "display_type": "",
    "name": "Exchange, 100 Coins = Transparent Green Glass Marble",
    "bundle": "31002",
    "quantity": 0,
    "description": "",
    "exchange": "10000x100",
    "tradable": false,
    "marketable": false,
    "commodity": false
  }
]