﻿[
  {
    "name": "ACH_10000",
    "defaultvalue": 0,
    "displayName": "One Putt Master",
    "hidden": 0,
    "description": "Succeed in one putting 30 times",
    "icon": "https://steamcdn-a.akamaihd.net/steamcommunity/public/images/apps/458960/5c7ead393df62d8db698290b1ab6ae5b3a72944a.jpg",
    "icongray": "https://steamcdn-a.akamaihd.net/steamcommunity/public/images/apps/458960/2ee443e56dd393e2e816200cf23133085fe30145.jpg"
  },
  {
    "name": "ACH_10100",
    "defaultvalue": 0,
    "displayName": "Golfer's Dream",
    "hidden": 0,
    "description": "Score a Hole-in-one",
    "icon": "https://steamcdn-a.akamaihd.net/steamcommunity/public/images/apps/458960/32cc7ac41d03ecc4c9c85fde9f5559fdb1506d91.jpg",
    "icongray": "https://steamcdn-a.akamaihd.net/steamcommunity/public/images/apps/458960/0786229e6f52045d35f9760ca18e20965cfdc232.jpg"
  },
  {
    "name": "ACH_10200",
    "defaultvalue": 0,
    "displayName": "Eagle Hunting",
    "hidden": 0,
    "description": "Score an Eagle",
    "icon": "https://steamcdn-a.akamaihd.net/steamcommunity/public/images/apps/458960/847bc96e04fc125b48a08d2b424f03a0e505e43f.jpg",
    "icongray": "https://steamcdn-a.akamaihd.net/steamcommunity/public/images/apps/458960/92c65536c6d496857db2aa1e36176da26c0ead8c.jpg"
  },
  {
    "name": "ACH_10300",
    "defaultvalue": 0,
    "displayName": "A Bird in the Hand",
    "hidden": 0,
    "description": "Score a Birdie",
    "icon": "https://steamcdn-a.akamaihd.net/steamcommunity/public/images/apps/458960/26c74bbd9bfd9b902d9b76181ebe3eea9baf04af.jpg",
    "icongray": "https://steamcdn-a.akamaihd.net/steamcommunity/public/images/apps/458960/129362f5875580205b22cd479be4137ad9ba7971.jpg"
  },
  {
    "name": "ACH_10400",
    "defaultvalue": 0,
    "displayName": "Bogus",
    "hidden": 0,
    "description": "Score 30 Bogeys",
    "icon": "https://steamcdn-a.akamaihd.net/steamcommunity/public/images/apps/458960/a8cfec89322fc7130a67be836a3020e7cf548b10.jpg",
    "icongray": "https://steamcdn-a.akamaihd.net/steamcommunity/public/images/apps/458960/185d576b81470fbdb35afabe60d59b82a504e54c.jpg"
  },
  {
    "name": "ACH_10500",
    "defaultvalue": 0,
    "displayName": "Fairway Attacker",
    "hidden": 0,
    "description": "Land on the Fairway from the tee 100 times",
    "icon": "https://steamcdn-a.akamaihd.net/steamcommunity/public/images/apps/458960/fddfb1283aac0dd9066d17e0538ae7c303411367.jpg",
    "icongray": "https://steamcdn-a.akamaihd.net/steamcommunity/public/images/apps/458960/bbe7457c02742490fdd218eba18d9796d4395819.jpg"
  },
  {
    "name": "ACH_10600",
    "defaultvalue": 0,
    "displayName": "Chipper",
    "hidden": 0,
    "description": "Perform 10 Chip in Shots",
    "icon": "https://steamcdn-a.akamaihd.net/steamcommunity/public/images/apps/458960/12425dadb0c0367bdedb14dc625d32c5f21edc49.jpg",
    "icongray": "https://steamcdn-a.akamaihd.net/steamcommunity/public/images/apps/458960/32776eb3c5c2ebcfcc6cc4713a6c4978308c03e7.jpg"
  },
  {
    "name": "ACH_10700",
    "defaultvalue": 0,
    "displayName": "Chipping Birds",
    "hidden": 0,
    "description": "Perform 10 Chip-in birdies",
    "icon": "https://steamcdn-a.akamaihd.net/steamcommunity/public/images/apps/458960/ce80889db2d3118bf1834e0f700bba80790a8ee0.jpg",
    "icongray": "https://steamcdn-a.akamaihd.net/steamcommunity/public/images/apps/458960/f0c030b87c512e26a97a705ece21ccad27232878.jpg"
  },
  {
    "name": "ACH_10800",
    "defaultvalue": 0,
    "displayName": "Sand Chipper",
    "hidden": 0,
    "description": "Perform 5 Chip-ins from the Bunker",
    "icon": "https://steamcdn-a.akamaihd.net/steamcommunity/public/images/apps/458960/825287bf0bbd8f5dc136118c30f57a54d336bd0e.jpg",
    "icongray": "https://steamcdn-a.akamaihd.net/steamcommunity/public/images/apps/458960/90f37e432eab2542dd5e434a741b0a1e50d7e561.jpg"
  },
  {
    "name": "ACH_10900",
    "defaultvalue": 0,
    "displayName": "Rough Chipper",
    "hidden": 0,
    "description": "Perform 5 Chip-ins from the rough",
    "icon": "https://steamcdn-a.akamaihd.net/steamcommunity/public/images/apps/458960/88f6052e81845a6cf0b8c4e6c4528e21495e2f85.jpg",
    "icongray": "https://steamcdn-a.akamaihd.net/steamcommunity/public/images/apps/458960/ce60f2ead49906a6145315bbdb5f4f6e3ab47e48.jpg"
  },
  {
    "name": "ACH_11000",
    "defaultvalue": 0,
    "displayName": "Sandbagger",
    "hidden": 0,
    "description": "Win 10 Betting Rounds",
    "icon": "https://steamcdn-a.akamaihd.net/steamcommunity/public/images/apps/458960/eb2b8a64bf01d7211db4313c0d50436a06db366b.jpg",
    "icongray": "https://steamcdn-a.akamaihd.net/steamcommunity/public/images/apps/458960/b754d82a3d8d59603f70fde3f589d4ed88515134.jpg"
  },
  {
    "name": "ACH_20000",
    "defaultvalue": 0,
    "displayName": "Top of the Class",
    "hidden": 0,
    "description": "Scored 3 stars on all academy tests",
    "icon": "https://steamcdn-a.akamaihd.net/steamcommunity/public/images/apps/458960/5a86077c57d510c733402b39248f244ef3bc717a.jpg",
    "icongray": "https://steamcdn-a.akamaihd.net/steamcommunity/public/images/apps/458960/036323fe4b2abd7b3e40ce1bbccec6c8af60ba5f.jpg"
  },
  {
    "name": "ACH_20100",
    "defaultvalue": 0,
    "displayName": "Around the World",
    "hidden": 0,
    "description": "Hit golf balls for a total distance of 52,626,768 yards",
    "icon": "https://steamcdn-a.akamaihd.net/steamcommunity/public/images/apps/458960/ede399edbd9a4dc0fbc1aed77a857eeacbf88f19.jpg",
    "icongray": "https://steamcdn-a.akamaihd.net/steamcommunity/public/images/apps/458960/f378eaa577f5a8869c94f234dd6df02873e8714b.jpg"
  },
  {
    "name": "ACH_20200",
    "defaultvalue": 0,
    "displayName": "Challenger",
    "hidden": 0,
    "description": "Complete a Challenge Round",
    "icon": "https://steamcdn-a.akamaihd.net/steamcommunity/public/images/apps/458960/9168601739f1a98a4a1d459987db0d723f677f9a.jpg",
    "icongray": "https://steamcdn-a.akamaihd.net/steamcommunity/public/images/apps/458960/a0a287355b3d8386262ded6baabb01b460d79892.jpg"
  },
  {
    "name": "ACH_20300",
    "defaultvalue": 0,
    "displayName": "Victor",
    "hidden": 0,
    "description": "Win a Challenge Round",
    "icon": "https://steamcdn-a.akamaihd.net/steamcommunity/public/images/apps/458960/aec7b1a9dec3c2de7b37552b02f71f39cc7e64fb.jpg",
    "icongray": "https://steamcdn-a.akamaihd.net/steamcommunity/public/images/apps/458960/6a48e1477a6e6cac63135125548b4877c55ae41c.jpg"
  },
  {
    "name": "ACH_20301",
    "defaultvalue": 0,
    "displayName": "Champion",
    "hidden": 0,
    "description": "Win 10 Challenge Rounds",
    "icon": "https://steamcdn-a.akamaihd.net/steamcommunity/public/images/apps/458960/c2e458edb20e24f7832aa2bd0acc96ea575e555b.jpg",
    "icongray": "https://steamcdn-a.akamaihd.net/steamcommunity/public/images/apps/458960/0e67a8887a3a4031bc2c0276b8fce92c5a2a5074.jpg"
  },
  {
    "name": "ACH_20400",
    "defaultvalue": 0,
    "displayName": "Try Hard",
    "hidden": 0,
    "description": "Lose 10 Challenge Rounds",
    "icon": "https://steamcdn-a.akamaihd.net/steamcommunity/public/images/apps/458960/16db9893134f396178c4a66b7b80458c1177340b.jpg",
    "icongray": "https://steamcdn-a.akamaihd.net/steamcommunity/public/images/apps/458960/7dc8b91d45373621b1b2eec667ee2f9408aa1fb3.jpg"
  },
  {
    "name": "ACH_20500",
    "defaultvalue": 0,
    "displayName": "Novice Gambler",
    "hidden": 0,
    "description": "Compete in a Betting Round",
    "icon": "https://steamcdn-a.akamaihd.net/steamcommunity/public/images/apps/458960/736fdf4df8d1f1f79cd2f69448f0d6b07592a976.jpg",
    "icongray": "https://steamcdn-a.akamaihd.net/steamcommunity/public/images/apps/458960/037d1076c6137ab84a01d29aa39aff6ed83104ba.jpg"
  },
  {
    "name": "ACH_20600",
    "defaultvalue": 0,
    "displayName": "Tournament Participant",
    "hidden": 0,
    "description": "Participate in a tournament",
    "icon": "https://steamcdn-a.akamaihd.net/steamcommunity/public/images/apps/458960/26299b58f658aa34c24b9841be46c2354da652b0.jpg",
    "icongray": "https://steamcdn-a.akamaihd.net/steamcommunity/public/images/apps/458960/5b15752fca45967772494397e440dd7c5956a50e.jpg"
  },
  {
    "name": "ACH_30000",
    "defaultvalue": 0,
    "displayName": "Novice Golfer",
    "hidden": 0,
    "description": "Reached Level 5 in Winning Putt",
    "icon": "https://steamcdn-a.akamaihd.net/steamcommunity/public/images/apps/458960/efaae0b47a4222c13f3e434a910b2552ff52ca01.jpg",
    "icongray": "https://steamcdn-a.akamaihd.net/steamcommunity/public/images/apps/458960/955911061c0abf226278a7461957eede089aaf68.jpg"
  },
  {
    "name": "ACH_30001",
    "defaultvalue": 0,
    "displayName": "Junior Pro",
    "hidden": 0,
    "description": "Reach Level 10 in Winning Putt, and pass the Junior Pro Qualifying Test",
    "icon": "https://steamcdn-a.akamaihd.net/steamcommunity/public/images/apps/458960/c038a27bfa03c73876593ec7b2267b73fa7ed5cd.jpg",
    "icongray": "https://steamcdn-a.akamaihd.net/steamcommunity/public/images/apps/458960/4d4c52fc47b5165408b1cb5b458324ef9a121f8f.jpg"
  },
  {
    "name": "ACH_30002",
    "defaultvalue": 0,
    "displayName": "Semi Pro",
    "hidden": 0,
    "description": "Reach Level 15 in Winning Putt, and pass the Semi Pro Qualifying Test",
    "icon": "https://steamcdn-a.akamaihd.net/steamcommunity/public/images/apps/458960/80437bf5bf314615332cf86ea57e64ac3325c5a9.jpg",
    "icongray": "https://steamcdn-a.akamaihd.net/steamcommunity/public/images/apps/458960/14b6aec37ec683cec5bedc771d35f2cbc47e5b31.jpg"
  },
  {
    "name": "ACH_30003",
    "defaultvalue": 0,
    "displayName": "Dedicated",
    "hidden": 0,
    "description": "Reach Level 20 in Winning Putt",
    "icon": "https://steamcdn-a.akamaihd.net/steamcommunity/public/images/apps/458960/94b7b4a72119ad3089d00056a63d19cdeaf95013.jpg",
    "icongray": "https://steamcdn-a.akamaihd.net/steamcommunity/public/images/apps/458960/942929719a14dce5249b5e4137547c5142a25369.jpg"
  },
  {
    "name": "ACH_30004",
    "defaultvalue": 0,
    "displayName": "Golf Fanatic",
    "hidden": 0,
    "description": "Reach Level 25 in Winning Putt",
    "icon": "https://steamcdn-a.akamaihd.net/steamcommunity/public/images/apps/458960/3f2d50ae6be66657d24a8ff53ef15a81e0307032.jpg",
    "icongray": "https://steamcdn-a.akamaihd.net/steamcommunity/public/images/apps/458960/273d37c51a488bace1f7b0748f124ad268b0c01b.jpg"
  },
  {
    "name": "ACH_30005",
    "defaultvalue": 0,
    "displayName": "Professional Golfer",
    "hidden": 0,
    "description": "Reach Level 30 in Winning Putt",
    "icon": "https://steamcdn-a.akamaihd.net/steamcommunity/public/images/apps/458960/49fdcbfd3973d2751b4a3fae1610f8dcd2cbc184.jpg",
    "icongray": "https://steamcdn-a.akamaihd.net/steamcommunity/public/images/apps/458960/c3372aabeddd5a17c55e3173aee52cb4125b4cb5.jpg"
  },
  {
    "name": "ACH_30100",
    "defaultvalue": 0,
    "displayName": "Tour Pro",
    "hidden": 0,
    "description": "Pass the Tour Pro Qualifying Test",
    "icon": "https://steamcdn-a.akamaihd.net/steamcommunity/public/images/apps/458960/425a538d393d5da4dbaf072446a20475591e858b.jpg",
    "icongray": "https://steamcdn-a.akamaihd.net/steamcommunity/public/images/apps/458960/a6ece153e5824ffdf97026fe64e489c80309ed21.jpg"
  },
  {
    "name": "ACH_30101",
    "defaultvalue": 0,
    "displayName": "Master Pro",
    "hidden": 0,
    "description": "Pass the Master Pro Qualifying Test",
    "icon": "https://steamcdn-a.akamaihd.net/steamcommunity/public/images/apps/458960/18cc4c557df97d308bfe9f5b58ec24c07d493bab.jpg",
    "icongray": "https://steamcdn-a.akamaihd.net/steamcommunity/public/images/apps/458960/95651f3d879df10750ce5b50453f9368177dfc9f.jpg"
  },
  {
    "name": "ACH_30102",
    "defaultvalue": 0,
    "displayName": "National Champion",
    "hidden": 0,
    "description": "Pass the National Champion Qualifying Test",
    "icon": "https://steamcdn-a.akamaihd.net/steamcommunity/public/images/apps/458960/1cb24193419c7e4f01becf051e819947e505c191.jpg",
    "icongray": "https://steamcdn-a.akamaihd.net/steamcommunity/public/images/apps/458960/110d0371c51e797612a5de53cf79f23e02fffb1b.jpg"
  },
  {
    "name": "ACH_30103",
    "defaultvalue": 0,
    "displayName": "World Champion",
    "hidden": 0,
    "description": "Pass the World Champion Qualifying Test",
    "icon": "https://steamcdn-a.akamaihd.net/steamcommunity/public/images/apps/458960/02ee174eee30ea9febc452911165f5a74d180218.jpg",
    "icongray": "https://steamcdn-a.akamaihd.net/steamcommunity/public/images/apps/458960/3549cc6166c9a3ccab3b43f1711aec1ab371e5d1.jpg"
  },
  {
    "name": "ACH_30306",
    "defaultvalue": 0,
    "displayName": "Master of Memorial",
    "hidden": 0,
    "description": "Unlock Memorial's Very Hard difficulty",
    "icon": "https://steamcdn-a.akamaihd.net/steamcommunity/public/images/apps/458960/47169ba46dccbca5e873cff4916be0dd2d6b2d8b.jpg",
    "icongray": "https://steamcdn-a.akamaihd.net/steamcommunity/public/images/apps/458960/bd03a222e5b3419ba189110df371833156469ee3.jpg"
  },
  {
    "name": "ACH_30307",
    "defaultvalue": 0,
    "displayName": "Master of Breezy Hill",
    "hidden": 0,
    "description": "Unlock Breezy Hill's Very Hard difficulty",
    "icon": "https://steamcdn-a.akamaihd.net/steamcommunity/public/images/apps/458960/11fd7910758737ac6a772cd6d9af8d55bc459989.jpg",
    "icongray": "https://steamcdn-a.akamaihd.net/steamcommunity/public/images/apps/458960/af57a7739a18aa29505678576c1a9833c31b9a65.jpg"
  },
  {
    "name": "ACH_30301",
    "defaultvalue": 0,
    "displayName": "Master of Helena",
    "hidden": 0,
    "description": "Unlock Helena's Very Hard difficulty",
    "icon": "https://steamcdn-a.akamaihd.net/steamcommunity/public/images/apps/458960/77a8f99af5bae401dc64f0d31e1bd0f6f136f2d4.jpg",
    "icongray": "https://steamcdn-a.akamaihd.net/steamcommunity/public/images/apps/458960/e2df67b52004bdc09091a281c69ddbe9f7df6cf7.jpg"
  },
  {
    "name": "ACH_30302",
    "defaultvalue": 0,
    "displayName": "Master of Plumeria",
    "hidden": 0,
    "description": "Unlock Plumeria's Very Hard difficulty",
    "icon": "https://steamcdn-a.akamaihd.net/steamcommunity/public/images/apps/458960/c54547da777071c3c6f959dbb92a5828ebbb877f.jpg",
    "icongray": "https://steamcdn-a.akamaihd.net/steamcommunity/public/images/apps/458960/f8bec552a1c3ed34f4e0184b037ae13697ab57c1.jpg"
  },
  {
    "name": "ACH_30304",
    "defaultvalue": 0,
    "displayName": "Master of Wildstone",
    "hidden": 0,
    "description": "Unlock Wildstone's Very Hard difficulty",
    "icon": "https://steamcdn-a.akamaihd.net/steamcommunity/public/images/apps/458960/47948b17fb212f98663036585004fa812a40c39e.jpg",
    "icongray": "https://steamcdn-a.akamaihd.net/steamcommunity/public/images/apps/458960/2c0255b0eb140145627f6189a167600575f7416b.jpg"
  },
  {
    "name": "ACH_30303",
    "defaultvalue": 0,
    "displayName": "Master of Seven Angels",
    "hidden": 0,
    "description": "Unlock Seven Angels' Very Hard difficulty",
    "icon": "https://steamcdn-a.akamaihd.net/steamcommunity/public/images/apps/458960/a4e994ff55fe601323e8a6449587ea35f27f5cea.jpg",
    "icongray": "https://steamcdn-a.akamaihd.net/steamcommunity/public/images/apps/458960/ab95a13a0ff18828a7ea902400f5e94d69b94c3a.jpg"
  },
  {
    "name": "ACH_30305",
    "defaultvalue": 0,
    "displayName": "Master of Edelweiss",
    "hidden": 0,
    "description": "Unlock Edelweiss' Very Hard difficulty",
    "icon": "https://steamcdn-a.akamaihd.net/steamcommunity/public/images/apps/458960/8a80ad121fb3390f08569128d1845d363b763c30.jpg",
    "icongray": "https://steamcdn-a.akamaihd.net/steamcommunity/public/images/apps/458960/e138a6fbcb8f7c1e4d1e527bd58cef03137f1bb2.jpg"
  },
  {
    "name": "ACH_30312",
    "defaultvalue": 0,
    "displayName": "Master of Starglen",
    "hidden": 0,
    "description": "Unlock Starglen's Very Hard difficulty",
    "icon": "https://steamcdn-a.akamaihd.net/steamcommunity/public/images/apps/458960/7edeca2942c09873963a2017318456a9c2bdf326.jpg",
    "icongray": "https://steamcdn-a.akamaihd.net/steamcommunity/public/images/apps/458960/cab69522b3dbbd051241749cc208bc74b3f5e3a8.jpg"
  }
]