{
  "Dlcs": {
    "1069450": {
      "Name": "KumaKuma - Custom Pose Evolution",
      "ImageUrl": "https://steamcdn-a.akamaihd.net/steam/apps/1069450/header.jpg?t=1556175733"
    },
    "1116160": {
      "Name": "KumaKuma - Adventure Dungeon",
      "ImageUrl": "https://steamcdn-a.akamaihd.net/steam/apps/1116160/header.jpg?t=1562816455"
    },
    "1123950": {
      "Name": "KumaKuma – National Costumes",
      "ImageUrl": "https://steamcdn-a.akamaihd.net/steam/apps/1123950/header.jpg?t=1564642701"
    }
  },
  "Name": "KumaKuma Manga Editor",
  "AppId": "1020820",
  "ImageUrl": "https://steamcdn-a.akamaihd.net/steam/apps/1020820/header.jpg?t=1568862208",
  "Languages": [
    "english",
    "tchinese",
    "schinese",
    "italian",
    "spanish",
    "latam"
  ],
  "Platforms": {
    "windows": true,
    "mac": false,
    "linux": false
  }
}