{
  "Dlcs": {},
  "Name": "Brocat: the B Game",
  "AppId": "559360",
  "ImageUrl": "https://steamcdn-a.akamaihd.net/steam/apps/559360/header.jpg?t=1541879902",
  "Languages": [
    "english",
    "russian"
  ],
  "Platforms": {
    "windows": true,
    "mac": false,
    "linux": false
  }
}