{
  "Dlcs": {},
  "Name": "HyperQ: The 4Dimensional Roguelike",
  "AppId": "1045730",
  "ImageUrl": "https://steamcdn-a.akamaihd.net/steam/apps/1045730/header.jpg?t=1573747823",
  "Languages": [
    "english"
  ],
  "Platforms": {
    "windows": true,
    "mac": false,
    "linux": false
  }
}