{
  "Dlcs": {},
  "Name": "Hooklings",
  "AppId": "1018240",
  "ImageUrl": "https://steamcdn-a.akamaihd.net/steam/apps/1018240/header.jpg?t=1600465743",
  "Languages": [
    "english"
  ],
  "Platforms": {
    "windows": true,
    "mac": false,
    "linux": false
  }
}