{
  "Dlcs": {},
  "Name": "Exit From",
  "AppId": "1092140",
  "ImageUrl": "https://steamcdn-a.akamaihd.net/steam/apps/1092140/header.jpg?t=1596782111",
  "Languages": [
    "english",
    "russian",
    "french",
    "italian",
    "german",
    "spanish",
    "schinese",
    "korean",
    "japanese",
    "greek",
    "ukrainian"
  ],
  "Platforms": {
    "windows": true,
    "mac": false,
    "linux": true
  }
}