﻿{
  "Dlcs": {},
  "Name": "From the Depths",
  "AppId": "268650",
  "ImageUrl": "https://steamcdn-a.akamaihd.net/steam/apps/268650/header.jpg?t=1584360331",
  "Languages": [
    "english"
  ],
  "Platforms": {
    "windows": true,
    "mac": true,
    "linux": true
  }
}