[
  {
    "name": "BOSS_1_ACHIEVEMENT",
    "defaultvalue": 0,
    "displayName": "Boss 1",
    "hidden": 0,
    "description": "Defeat the first Boss",
    "icon": "https://steamcdn-a.akamaihd.net/steamcommunity/public/images/apps/971280/864e22c9079ae6e0d5a911b227d0d500f9a593cb.jpg",
    "icongray": "https://steamcdn-a.akamaihd.net/steamcommunity/public/images/apps/971280/b769b86241a7bbb8f688eb276577e8ccc930765b.jpg"
  },
  {
    "name": "BOSS_2_ACHIEVEMENT",
    "defaultvalue": 0,
    "displayName": "Boss 2",
    "hidden": 0,
    "description": "Defeat the second Boss",
    "icon": "https://steamcdn-a.akamaihd.net/steamcommunity/public/images/apps/971280/5e4e090a8da0d25375a8ce785be7b7c4365e72eb.jpg",
    "icongray": "https://steamcdn-a.akamaihd.net/steamcommunity/public/images/apps/971280/5764b42beba611820f9fa46ce1ee86ec53da5fe8.jpg"
  },
  {
    "name": "BOSS_3_ACHIEVEMENT",
    "defaultvalue": 0,
    "displayName": "Boss 3",
    "hidden": 0,
    "description": "Defeat the third Boss",
    "icon": "https://steamcdn-a.akamaihd.net/steamcommunity/public/images/apps/971280/20c9ad4098ba2eb11047c69b1db79139ccd7902f.jpg",
    "icongray": "https://steamcdn-a.akamaihd.net/steamcommunity/public/images/apps/971280/b01dadf0e08330cc08b26bd053ffdfb7725becd3.jpg"
  },
  {
    "name": "BOSS_4_ACHIEVEMENT",
    "defaultvalue": 0,
    "displayName": "Boss 4",
    "hidden": 0,
    "description": "Defeat the fourth Boss",
    "icon": "https://steamcdn-a.akamaihd.net/steamcommunity/public/images/apps/971280/5615a6cbf02e968b25b9f40056fe6daaa1551662.jpg",
    "icongray": "https://steamcdn-a.akamaihd.net/steamcommunity/public/images/apps/971280/87b94525d1a2d21d970879a3659990a17e3844e4.jpg"
  },
  {
    "name": "BOSS_5_ACHIEVEMENT",
    "defaultvalue": 0,
    "displayName": "Boss 5",
    "hidden": 0,
    "description": "Defeat the fifth Boss",
    "icon": "https://steamcdn-a.akamaihd.net/steamcommunity/public/images/apps/971280/84ed46a1699e4bb4ed1766a937c4b1c0069441f3.jpg",
    "icongray": "https://steamcdn-a.akamaihd.net/steamcommunity/public/images/apps/971280/5fa4f5802bccadb14af293d65471943ee0ba760d.jpg"
  },
  {
    "name": "BOSS_6_ACHIEVEMENT",
    "defaultvalue": 0,
    "displayName": "Boss Final",
    "hidden": 0,
    "description": "Defeat the final Boss",
    "icon": "https://steamcdn-a.akamaihd.net/steamcommunity/public/images/apps/971280/fc67a46693d572eb520d94fc8a138dae5ad01ef2.jpg",
    "icongray": "https://steamcdn-a.akamaihd.net/steamcommunity/public/images/apps/971280/9b7e2ef726f2781876c6fd769247cd4723974038.jpg"
  },
  {
    "name": "HARD_MODE_ACHIEVEMENT",
    "defaultvalue": 0,
    "displayName": "Mastering the game",
    "hidden": 0,
    "description": "Finish the game on Hard Mode",
    "icon": "https://steamcdn-a.akamaihd.net/steamcommunity/public/images/apps/971280/c4b52a3ea39a2927841315211db233c1b4f49e49.jpg",
    "icongray": "https://steamcdn-a.akamaihd.net/steamcommunity/public/images/apps/971280/110112bcf97405760b6924a1c79b594ced7aee68.jpg"
  },
  {
    "name": "BOMB_SPIKE_ACHIEVEMENT",
    "defaultvalue": 0,
    "displayName": "Spike Bomb",
    "hidden": 0,
    "description": "Find the Spike Bomb",
    "icon": "https://steamcdn-a.akamaihd.net/steamcommunity/public/images/apps/971280/661696f55e89a35d90fbf00b4e7b869f6681a4ad.jpg",
    "icongray": "https://steamcdn-a.akamaihd.net/steamcommunity/public/images/apps/971280/a89f9a8cbcd54924cdd0df19a577ad2d3ebda6d6.jpg"
  },
  {
    "name": "BOMB_MINE_ACHIEVEMENT",
    "defaultvalue": 0,
    "displayName": "Mine Bomb",
    "hidden": 0,
    "description": "Find the Mine Bomb",
    "icon": "https://steamcdn-a.akamaihd.net/steamcommunity/public/images/apps/971280/f57f5a9b8ff1729373a13c810707835d7a740b8e.jpg",
    "icongray": "https://steamcdn-a.akamaihd.net/steamcommunity/public/images/apps/971280/dbbcf973c29fec20c25d6a888c9f0094edf3e9ef.jpg"
  },
  {
    "name": "DONT_GIVEUP_ACHIEVEMENT",
    "defaultvalue": 0,
    "displayName": "Don't give up",
    "hidden": 0,
    "description": "Use the button continue",
    "icon": "https://steamcdn-a.akamaihd.net/steamcommunity/public/images/apps/971280/081a48a28447509634625fc8733ad2fa75a0d41c.jpg",
    "icongray": "https://steamcdn-a.akamaihd.net/steamcommunity/public/images/apps/971280/322ae6abec110b3e83b4873bceefca4486d6ff97.jpg"
  },
  {
    "name": "PASSWORD_ACHIEVEMENT",
    "defaultvalue": 0,
    "displayName": "Password",
    "hidden": 0,
    "description": "Use a password",
    "icon": "https://steamcdn-a.akamaihd.net/steamcommunity/public/images/apps/971280/f9c0e29532fadd11db0efe825ac1204a514c0e82.jpg",
    "icongray": "https://steamcdn-a.akamaihd.net/steamcommunity/public/images/apps/971280/806bbc57ed996f7e58ec8dcd9d1954a3ea7304cd.jpg"
  },
  {
    "name": "BOSS_PLAYER_ACHIEVEMENT",
    "defaultvalue": 0,
    "displayName": "You around here?",
    "hidden": 0,
    "description": "Finish the game with the bad guy",
    "icon": "https://steamcdn-a.akamaihd.net/steamcommunity/public/images/apps/971280/f03e121c91f6c22d55b785c988762b7e314c154d.jpg",
    "icongray": "https://steamcdn-a.akamaihd.net/steamcommunity/public/images/apps/971280/a68a149cdf42550c87f55e9fdd6026b6870af8ba.jpg"
  },
  {
    "name": "FIRST_PLACE_ACHIEVEMENT",
    "defaultvalue": 0,
    "displayName": "Player number one",
    "hidden": 0,
    "description": "Take the first place in the Leaderboard",
    "icon": "https://steamcdn-a.akamaihd.net/steamcommunity/public/images/apps/971280/9ae90474f702f1a02a9a2ecb9982d42ca4dd7d96.jpg",
    "icongray": "https://steamcdn-a.akamaihd.net/steamcommunity/public/images/apps/971280/0606351a3ab19e9400321950ecdd93a49da551b3.jpg"
  },
  {
    "name": "HIDDEN_PASSWORD_ACHIEVEMENT",
    "defaultvalue": 0,
    "displayName": "Gunter",
    "hidden": 1,
    "icon": "https://steamcdn-a.akamaihd.net/steamcommunity/public/images/apps/971280/ec214c1d5e7fd5beaf4a1aa969e558c15b0835f7.jpg",
    "icongray": "https://steamcdn-a.akamaihd.net/steamcommunity/public/images/apps/971280/f7cc4ed5133b88e637af021d6da7bd644e964848.jpg"
  }
]