﻿[
  {
    "name": "ACH_LEVEL_2_T",
    "defaultvalue": 0,
    "displayName": "Finish level 1 ",
    "hidden": 0,
    "description": "finish level 1",
    "icon": "https://steamcdn-a.akamaihd.net/steamcommunity/public/images/apps/1412040/0fdd8ebdcf97c3fe7a93b9a9c7c4f7b63f2cd5d8.jpg",
    "icongray": "https://steamcdn-a.akamaihd.net/steamcommunity/public/images/apps/1412040/22b54dea167d7687b331b05af2f67b9509d3e9b7.jpg"
  },
  {
    "name": "ACH_LEVEL_4_T",
    "defaultvalue": 0,
    "displayName": "Finish level 2",
    "hidden": 0,
    "description": "Finish level 2",
    "icon": "https://steamcdn-a.akamaihd.net/steamcommunity/public/images/apps/1412040/15d139cdd7ec2de0e6aa979909a673a9ad17ac2d.jpg",
    "icongray": "https://steamcdn-a.akamaihd.net/steamcommunity/public/images/apps/1412040/07862bba2421c40be4a49fbc099327640a6a8b80.jpg"
  },
  {
    "name": "ACH_LEVEL_6_T",
    "defaultvalue": 0,
    "displayName": "Finish level 3",
    "hidden": 0,
    "description": "finish level 3",
    "icon": "https://steamcdn-a.akamaihd.net/steamcommunity/public/images/apps/1412040/b234c0ced17d98025c5cf5dc4f5f3949f7a290b1.jpg",
    "icongray": "https://steamcdn-a.akamaihd.net/steamcommunity/public/images/apps/1412040/07862bba2421c40be4a49fbc099327640a6a8b80.jpg"
  },
  {
    "name": "ACH_LEVEL_8_T",
    "defaultvalue": 0,
    "displayName": "Finish level 4",
    "hidden": 0,
    "description": "Finish level 4",
    "icon": "https://steamcdn-a.akamaihd.net/steamcommunity/public/images/apps/1412040/5392028efba8cb7d5113a47c21460563da3464a9.jpg",
    "icongray": "https://steamcdn-a.akamaihd.net/steamcommunity/public/images/apps/1412040/22b54dea167d7687b331b05af2f67b9509d3e9b7.jpg"
  },
  {
    "name": "ACH_LEVEL_10_T",
    "defaultvalue": 0,
    "displayName": "Finish level 5",
    "hidden": 0,
    "description": "Finish level 5",
    "icon": "https://steamcdn-a.akamaihd.net/steamcommunity/public/images/apps/1412040/5ca822066eb1234e02848a64f105116591abd434.jpg",
    "icongray": "https://steamcdn-a.akamaihd.net/steamcommunity/public/images/apps/1412040/22b54dea167d7687b331b05af2f67b9509d3e9b7.jpg"
  },
  {
    "name": "ACH_LEVEL_12_T",
    "defaultvalue": 0,
    "displayName": "Finish level 6",
    "hidden": 0,
    "description": "Finish level 6",
    "icon": "https://steamcdn-a.akamaihd.net/steamcommunity/public/images/apps/1412040/b034d6ebcbda376f04aeb4553951e6d15e277bfe.jpg",
    "icongray": "https://steamcdn-a.akamaihd.net/steamcommunity/public/images/apps/1412040/22b54dea167d7687b331b05af2f67b9509d3e9b7.jpg"
  },
  {
    "name": "ACH_LEVEL_14_T",
    "defaultvalue": 0,
    "displayName": "Finish level 7 ",
    "hidden": 0,
    "description": "Finish level 7",
    "icon": "https://steamcdn-a.akamaihd.net/steamcommunity/public/images/apps/1412040/6fe1a87e1b0032f347b8b11c77643f9a68796abc.jpg",
    "icongray": "https://steamcdn-a.akamaihd.net/steamcommunity/public/images/apps/1412040/22b54dea167d7687b331b05af2f67b9509d3e9b7.jpg"
  },
  {
    "name": "ACH_LEVEL_16_T",
    "defaultvalue": 0,
    "displayName": "Finish level 8",
    "hidden": 0,
    "description": "Finish level 8",
    "icon": "https://steamcdn-a.akamaihd.net/steamcommunity/public/images/apps/1412040/aeb27e214b9cae25e79504bf30d85eae1a6f267c.jpg",
    "icongray": "https://steamcdn-a.akamaihd.net/steamcommunity/public/images/apps/1412040/07862bba2421c40be4a49fbc099327640a6a8b80.jpg"
  },
  {
    "name": "ACH_LEVEL_18_T",
    "defaultvalue": 0,
    "displayName": "Finish level 9",
    "hidden": 0,
    "description": "Finish level 9",
    "icon": "https://steamcdn-a.akamaihd.net/steamcommunity/public/images/apps/1412040/59cb9a4c91e1d1d6ba73af8542fc96e7a7d4a48e.jpg",
    "icongray": "https://steamcdn-a.akamaihd.net/steamcommunity/public/images/apps/1412040/07862bba2421c40be4a49fbc099327640a6a8b80.jpg"
  },
  {
    "name": "ACH_LEVEL_19_T",
    "defaultvalue": 0,
    "displayName": "Find battery object in Level 8",
    "hidden": 0,
    "description": "level 8 battery object",
    "icon": "https://steamcdn-a.akamaihd.net/steamcommunity/public/images/apps/1412040/a26ff806f8398744a082aecb038916b37624db7e.jpg",
    "icongray": "https://steamcdn-a.akamaihd.net/steamcommunity/public/images/apps/1412040/22b54dea167d7687b331b05af2f67b9509d3e9b7.jpg"
  },
  {
    "name": "ACH_LEVEL_20_T",
    "defaultvalue": 0,
    "displayName": "Find Skull bones in Level 9",
    "hidden": 0,
    "description": "level 9 skull bones object",
    "icon": "https://steamcdn-a.akamaihd.net/steamcommunity/public/images/apps/1412040/898ae200fe45d9ae6f249f87f2ea29c2998784f4.jpg",
    "icongray": "https://steamcdn-a.akamaihd.net/steamcommunity/public/images/apps/1412040/07862bba2421c40be4a49fbc099327640a6a8b80.jpg"
  },
  {
    "name": "ACH_LEVEL_22_T",
    "defaultvalue": 0,
    "displayName": "Finish level 10",
    "hidden": 0,
    "description": "Finish level 10",
    "icon": "https://steamcdn-a.akamaihd.net/steamcommunity/public/images/apps/1412040/e1015e8fe4dd0f20760e02a821ba17595246ad98.jpg",
    "icongray": "https://steamcdn-a.akamaihd.net/steamcommunity/public/images/apps/1412040/22b54dea167d7687b331b05af2f67b9509d3e9b7.jpg"
  },
  {
    "name": "ACH_LEVEL_23_T",
    "defaultvalue": 0,
    "displayName": "Find Armor suit in level 10",
    "hidden": 0,
    "description": "Level 10 armor suit object",
    "icon": "https://steamcdn-a.akamaihd.net/steamcommunity/public/images/apps/1412040/237d1110f4eb8ed13d9b55c46f3d9c0c99efd07b.jpg",
    "icongray": "https://steamcdn-a.akamaihd.net/steamcommunity/public/images/apps/1412040/22b54dea167d7687b331b05af2f67b9509d3e9b7.jpg"
  }
]