[
  {
    "name": "ACHIEVEMENT_WELCOME",
    "defaultvalue": 0,
    "displayName": "Welcome",
    "hidden": 0,
    "description": "Started game for the first time",
    "icon": "https://steamcdn-a.akamaihd.net/steamcommunity/public/images/apps/837850/201a46e4bcec73980371e8450df8b2fab66450cd.jpg",
    "icongray": "https://steamcdn-a.akamaihd.net/steamcommunity/public/images/apps/837850/48700ce3ad584e57b786f0710d2e355446d3e08a.jpg"
  },
  {
    "name": "ACHIEVEMENT_JUMPS_500",
    "defaultvalue": 0,
    "displayName": "QWOP",
    "hidden": 0,
    "description": "Jump 500 Times",
    "icon": "https://steamcdn-a.akamaihd.net/steamcommunity/public/images/apps/837850/cd6074500850bcec15a99bbec81c3099e6381554.jpg",
    "icongray": "https://steamcdn-a.akamaihd.net/steamcommunity/public/images/apps/837850/2b63aebb9e725ca9e36f867ea6069770522e13c3.jpg"
  },
  {
    "name": "ACHIEVEMENT_JUMPS_1000",
    "defaultvalue": 0,
    "displayName": "Grasshopper",
    "hidden": 0,
    "description": "Jump 1000 Times",
    "icon": "https://steamcdn-a.akamaihd.net/steamcommunity/public/images/apps/837850/e9fb00e0c356c071b808cfcff31e1a0c7846c000.jpg",
    "icongray": "https://steamcdn-a.akamaihd.net/steamcommunity/public/images/apps/837850/70f0016fa21ed68365826f61b00b07e2369017c3.jpg"
  },
  {
    "name": "ACHIEVEMENT_JUMPS_1500",
    "defaultvalue": 0,
    "displayName": "Rabbit",
    "hidden": 0,
    "description": "Jump 1500 Times",
    "icon": "https://steamcdn-a.akamaihd.net/steamcommunity/public/images/apps/837850/575dfa031e310eb6256b3803f1f0a5532647a260.jpg",
    "icongray": "https://steamcdn-a.akamaihd.net/steamcommunity/public/images/apps/837850/6ba5a37dd1061fc0b308a21f88e10e035d783251.jpg"
  },
  {
    "name": "ACHIEVEMENT_SCANS_100",
    "defaultvalue": 0,
    "displayName": "Xray",
    "hidden": 0,
    "description": "Scanning 100 Times",
    "icon": "https://steamcdn-a.akamaihd.net/steamcommunity/public/images/apps/837850/6c4b0ade094b4313234437b25b204dfb3f7f5441.jpg",
    "icongray": "https://steamcdn-a.akamaihd.net/steamcommunity/public/images/apps/837850/b0c8849b7f473ee9fee2be871abc031a29c3bbaa.jpg"
  },
  {
    "name": "ACHIEVEMENT_SCANS_500",
    "defaultvalue": 0,
    "displayName": "Cancer",
    "hidden": 0,
    "description": "Scanning 500 Times",
    "icon": "https://steamcdn-a.akamaihd.net/steamcommunity/public/images/apps/837850/0f542b50a63fdd68e28e3819fcff53bbd8b85c48.jpg",
    "icongray": "https://steamcdn-a.akamaihd.net/steamcommunity/public/images/apps/837850/37ca684623b8db46c09dae1e964bd5cc22ecd958.jpg"
  },
  {
    "name": "ACHIEVEMENT_SCANS_1000",
    "defaultvalue": 0,
    "displayName": "Radioactive",
    "hidden": 0,
    "description": "Scanning 1000 Times",
    "icon": "https://steamcdn-a.akamaihd.net/steamcommunity/public/images/apps/837850/edd4e474cbcffdbf3cd35272c920d1af476e0240.jpg",
    "icongray": "https://steamcdn-a.akamaihd.net/steamcommunity/public/images/apps/837850/b92256f4e384440f2c86f0520702374a97837b3d.jpg"
  },
  {
    "name": "ACHIEVEMENT_DYING_1",
    "defaultvalue": 0,
    "displayName": "Better luck next time!",
    "hidden": 0,
    "description": "Dying the first Time",
    "icon": "https://steamcdn-a.akamaihd.net/steamcommunity/public/images/apps/837850/476200a2f83660c8b2d725d347262e4b82aacc1c.jpg",
    "icongray": "https://steamcdn-a.akamaihd.net/steamcommunity/public/images/apps/837850/a6bef3668899e72e6b6515eba789e5b08d942945.jpg"
  },
  {
    "name": "ACHIEVEMENT_SHOOTS_10k",
    "defaultvalue": 0,
    "displayName": "Waster",
    "hidden": 0,
    "description": "Spent 10000 Photons",
    "icon": "https://steamcdn-a.akamaihd.net/steamcommunity/public/images/apps/837850/4eb4ccb0c617414d3b1170a9b5d18d0601bf1217.jpg",
    "icongray": "https://steamcdn-a.akamaihd.net/steamcommunity/public/images/apps/837850/34b3e08dbe0ed91e6c3cfcec7fa5e67655a75b24.jpg"
  },
  {
    "name": "ACHIEVEMENT_SHOOTS_50k",
    "defaultvalue": 0,
    "displayName": "Uneconomical",
    "hidden": 0,
    "description": "Spent 50000 Photons",
    "icon": "https://steamcdn-a.akamaihd.net/steamcommunity/public/images/apps/837850/17fe5be71348ea46d9abd1113b88853126da5c1e.jpg",
    "icongray": "https://steamcdn-a.akamaihd.net/steamcommunity/public/images/apps/837850/93705beb7cd5bca9a3c1f3f9aacfd9409f72bc5a.jpg"
  },
  {
    "name": "ACHIEVEMENT_SHOOTS_100k",
    "defaultvalue": 0,
    "displayName": "Polluter",
    "hidden": 0,
    "description": "Spent 100000 Photons",
    "icon": "https://steamcdn-a.akamaihd.net/steamcommunity/public/images/apps/837850/8617421533399f5187e7d12933f10f31c23ad5b9.jpg",
    "icongray": "https://steamcdn-a.akamaihd.net/steamcommunity/public/images/apps/837850/d3cd2b4258e3b48c2c7185df3c351ee9cf15607a.jpg"
  },
  {
    "name": "ACHIEVEMENT_SPIN_1k",
    "defaultvalue": 0,
    "displayName": "Spin Doctor",
    "hidden": 0,
    "description": "Spin Crank 1000x",
    "icon": "https://steamcdn-a.akamaihd.net/steamcommunity/public/images/apps/837850/18eac5bf8999add40c94ea9b1a6f225f36695066.jpg",
    "icongray": "https://steamcdn-a.akamaihd.net/steamcommunity/public/images/apps/837850/e69792ca68264446462d0bb3ba48645c3a29e88d.jpg"
  },
  {
    "name": "ACHIEVEMENT_SPIN_5k",
    "defaultvalue": 0,
    "displayName": "DJ",
    "hidden": 0,
    "description": "Spin Crank 5.000x",
    "icon": "https://steamcdn-a.akamaihd.net/steamcommunity/public/images/apps/837850/cf3e7e08c3ae4dd61d92aeaf10b4d2b439571147.jpg",
    "icongray": "https://steamcdn-a.akamaihd.net/steamcommunity/public/images/apps/837850/0e48f5ed93bc904479f3f696c283d904467683c6.jpg"
  },
  {
    "name": "ACHIEVEMENT_SPIN_10k",
    "defaultvalue": 0,
    "displayName": "Turntablist",
    "hidden": 0,
    "description": "Spin Crank 10.000x",
    "icon": "https://steamcdn-a.akamaihd.net/steamcommunity/public/images/apps/837850/3c279c632fe2db1f57c1953923ca1b9375822f80.jpg",
    "icongray": "https://steamcdn-a.akamaihd.net/steamcommunity/public/images/apps/837850/cd481482bf7ac3c4d247a9b67c6d6d3d2c55e97f.jpg"
  },
  {
    "name": "ACHIEVEMENT_TOURIST",
    "defaultvalue": 0,
    "displayName": "Tourist",
    "hidden": 0,
    "description": "Visit all Rooms",
    "icon": "https://steamcdn-a.akamaihd.net/steamcommunity/public/images/apps/837850/0d7e8e100df4deb9d858b588fa180b8e617e4522.jpg",
    "icongray": "https://steamcdn-a.akamaihd.net/steamcommunity/public/images/apps/837850/08e49177a186f9bdcd3fd80b5cde00bc74423e4d.jpg"
  },
  {
    "name": "ACHIEVEMENT_Lammbock",
    "defaultvalue": 0,
    "displayName": "Lammbock",
    "hidden": 0,
    "description": "Find Pizza Box",
    "icon": "https://steamcdn-a.akamaihd.net/steamcommunity/public/images/apps/837850/5a54421b05af9f7dd3d06641721536d3313fc81d.jpg",
    "icongray": "https://steamcdn-a.akamaihd.net/steamcommunity/public/images/apps/837850/b73f6c27a5cedd658103694ca3ab8ac00a316656.jpg"
  },
  {
    "name": "ACHIEVEMENT_SUPPORTER",
    "defaultvalue": 0,
    "displayName": "Supporter",
    "hidden": 0,
    "description": "Finish the game on Easy/Medium",
    "icon": "https://steamcdn-a.akamaihd.net/steamcommunity/public/images/apps/837850/0a49b4aa949391d4f6506c08a7e0de8e01f34687.jpg",
    "icongray": "https://steamcdn-a.akamaihd.net/steamcommunity/public/images/apps/837850/d39a1e8be1f3e7bcfd63fbf03cdb2c85e83335b2.jpg"
  },
  {
    "name": "ACHIEVEMENT_FAN",
    "defaultvalue": 0,
    "displayName": "Fan",
    "hidden": 0,
    "description": "Finish the game on Hard",
    "icon": "https://steamcdn-a.akamaihd.net/steamcommunity/public/images/apps/837850/bbf7fd00b8440a6b62ebe223cad58e05b2b77eb9.jpg",
    "icongray": "https://steamcdn-a.akamaihd.net/steamcommunity/public/images/apps/837850/fdbb6f54ef9e9cdb6e16895b75725ad72d8e232a.jpg"
  },
  {
    "name": "ACHIEVEMENT_GAMER",
    "defaultvalue": 0,
    "displayName": "Gamer",
    "hidden": 0,
    "description": "Finish the game on Impossible",
    "icon": "https://steamcdn-a.akamaihd.net/steamcommunity/public/images/apps/837850/6e54f578c75684c22dcc9b1c796d3ac50646eb19.jpg",
    "icongray": "https://steamcdn-a.akamaihd.net/steamcommunity/public/images/apps/837850/7c73995678c4cdf091546c31fad7cfb156059ae6.jpg"
  },
  {
    "name": "ACHIEVEMENT_POPE",
    "defaultvalue": 0,
    "displayName": "Pope",
    "hidden": 0,
    "description": "Temple 1 - 5 enabled",
    "icon": "https://steamcdn-a.akamaihd.net/steamcommunity/public/images/apps/837850/b356e1bb833f5ceff3eebcb58d5ae9eccaaa337b.jpg",
    "icongray": "https://steamcdn-a.akamaihd.net/steamcommunity/public/images/apps/837850/6294bd0b740c7c03b460cb3d68d89b873bd09a4a.jpg"
  },
  {
    "name": "ACHIEVEMENT_TOTEKI",
    "defaultvalue": 0,
    "displayName": "Toteki Fan",
    "hidden": 0,
    "description": "Heard every Music track once during the same play session!",
    "icon": "https://steamcdn-a.akamaihd.net/steamcommunity/public/images/apps/837850/0364309c59e8eb0fb0f9ff3b5d63cf7adf23203c.jpg",
    "icongray": "https://steamcdn-a.akamaihd.net/steamcommunity/public/images/apps/837850/a49c187f4d0fa3c1eb2e17361d4e5a4b072ba589.jpg"
  },
  {
    "name": "ACHIEVEMENT_ELECTRO_10",
    "defaultvalue": 0,
    "displayName": "I love Electro",
    "hidden": 0,
    "description": "Hit a Electricty Trap 10x",
    "icon": "https://steamcdn-a.akamaihd.net/steamcommunity/public/images/apps/837850/34093b242bdba1fcf59756280888b303ff91bc6f.jpg",
    "icongray": "https://steamcdn-a.akamaihd.net/steamcommunity/public/images/apps/837850/231558b3213cac2436d6dc36c3e89d0c20450503.jpg"
  },
  {
    "name": "ACHIEVEMENT_ELECTRO_50",
    "defaultvalue": 0,
    "displayName": "Not sure about Electro",
    "hidden": 0,
    "description": "Hit a Electricty Trap 50x",
    "icon": "https://steamcdn-a.akamaihd.net/steamcommunity/public/images/apps/837850/e081fdee5fd1f2d64a885c88c157570b2d136e04.jpg",
    "icongray": "https://steamcdn-a.akamaihd.net/steamcommunity/public/images/apps/837850/31c0716dcfae58fe22792d5fdf5946c9e1d72613.jpg"
  },
  {
    "name": "ACHIEVEMENT_ELECTRO_100",
    "defaultvalue": 0,
    "displayName": "I hate Electro",
    "hidden": 0,
    "description": "Hit a Electricty Trap 100x",
    "icon": "https://steamcdn-a.akamaihd.net/steamcommunity/public/images/apps/837850/4ebcc38209a32334a0466cf3cec5de9edfc8f1b2.jpg",
    "icongray": "https://steamcdn-a.akamaihd.net/steamcommunity/public/images/apps/837850/c8f38358b18867c680c31d5e0ed55c1af2b0cbaa.jpg"
  },
  {
    "name": "ACHIEVEMENT_ScanOnly",
    "defaultvalue": 0,
    "displayName": "Stevie Wonder",
    "hidden": 0,
    "description": "Run a level without any Light",
    "icon": "https://steamcdn-a.akamaihd.net/steamcommunity/public/images/apps/837850/505724eb3ebf74fb4ac7223ca17dd451549bc79a.jpg",
    "icongray": "https://steamcdn-a.akamaihd.net/steamcommunity/public/images/apps/837850/16d633637ad7d2277d382b9b628f60ca311b759b.jpg"
  }
]