{
  "Dlcs": {},
  "Name": "时间卡牌  TimelineCard",
  "AppId": "1308800",
  "ImageUrl": "https://steamcdn-a.akamaihd.net/steam/apps/1308800/header.jpg?t=1590478198",
  "Languages": [
    "english",
    "schinese"
  ],
  "Platforms": {
    "windows": true,
    "mac": false,
    "linux": false
  }
}