{
  "Dlcs": {},
  "Name": "YOOMURJAK'S RING",
  "AppId": "774151",
  "ImageUrl": "https://steamcdn-a.akamaihd.net/steam/apps/774151/header.jpg?t=1569926017",
  "Languages": [
    "english"
  ],
  "Platforms": {
    "windows": true,
    "mac": false,
    "linux": false
  }
}