[
  {
    "name": "first_mission_done",
    "defaultvalue": 0,
    "displayName": "And So it Begins...",
    "hidden": 0,
    "description": "A Unknown Pirate Patrol is destroyed",
    "icon": "https://steamcdn-a.akamaihd.net/steamcommunity/public/images/apps/355810/62814f3895fde7f05c7c576f42dcec5d4b171a93.jpg",
    "icongray": "https://steamcdn-a.akamaihd.net/steamcommunity/public/images/apps/355810/ef6fc2637ef943858091beef6a266d76f8665fa3.jpg"
  },
  {
    "name": "lieutenant_achieve",
    "defaultvalue": 0,
    "displayName": "Lieutenant",
    "hidden": 0,
    "description": "Reach the rank of Lieutenant ",
    "icon": "https://steamcdn-a.akamaihd.net/steamcommunity/public/images/apps/355810/e141a11c82e5dfe05029e717b0166056a7dbfc9f.jpg",
    "icongray": "https://steamcdn-a.akamaihd.net/steamcommunity/public/images/apps/355810/d3f9a6fc09300ea2693f1035eb2357be4b49c69d.jpg"
  },
  {
    "name": "escort_1",
    "defaultvalue": 0,
    "displayName": "Strength in numbers",
    "hidden": 0,
    "description": "Acquire an escort ship",
    "icon": "https://steamcdn-a.akamaihd.net/steamcommunity/public/images/apps/355810/03978818f92db4d8c0c5de2a46dcc67c84733b27.jpg",
    "icongray": "https://steamcdn-a.akamaihd.net/steamcommunity/public/images/apps/355810/c130f91fec8bae8539f2e1bb5c09c028c71bb1c5.jpg"
  },
  {
    "name": "ground_mission_1",
    "defaultvalue": 0,
    "displayName": "Ground Control I",
    "hidden": 0,
    "description": "Complete the first ground mission",
    "icon": "https://steamcdn-a.akamaihd.net/steamcommunity/public/images/apps/355810/00b586300907b439e340061d1aa5308675ab6d80.jpg",
    "icongray": "https://steamcdn-a.akamaihd.net/steamcommunity/public/images/apps/355810/44deb388fb0e88ec0b348f49d1ee60407373f5cc.jpg"
  },
  {
    "name": "base_defender",
    "defaultvalue": 0,
    "displayName": "Station Defense",
    "hidden": 0,
    "description": "Participate in the defense of a space station",
    "icon": "https://steamcdn-a.akamaihd.net/steamcommunity/public/images/apps/355810/0d68e0c89b477cd7862d40f9aeee2fa5f0f414d7.jpg",
    "icongray": "https://steamcdn-a.akamaihd.net/steamcommunity/public/images/apps/355810/2a9198e90138d7dd7774fa4da31f119b5226979c.jpg"
  },
  {
    "name": "elite_rank",
    "defaultvalue": 0,
    "displayName": "Elite",
    "hidden": 0,
    "description": "Complete 10 missions in a row",
    "icon": "https://steamcdn-a.akamaihd.net/steamcommunity/public/images/apps/355810/bc291ec34fe566fd543ca5a48ecca20e57545b53.jpg",
    "icongray": "https://steamcdn-a.akamaihd.net/steamcommunity/public/images/apps/355810/247e98629e0507ce0fe8ab2b3cdb5f24908848a2.jpg"
  },
  {
    "name": "fleet_lost_1",
    "defaultvalue": 0,
    "displayName": "Death is only the beginning",
    "hidden": 0,
    "description": "Lose your fleet",
    "icon": "https://steamcdn-a.akamaihd.net/steamcommunity/public/images/apps/355810/fe1cebbe4a354f72e940fdc81c09944fff5dcbc7.jpg",
    "icongray": "https://steamcdn-a.akamaihd.net/steamcommunity/public/images/apps/355810/809328602a1f8b2e0392384e4d518e60aa54726a.jpg"
  },
  {
    "name": "loose_game",
    "defaultvalue": 0,
    "displayName": "Lost in Space",
    "hidden": 0,
    "description": "Lose the game",
    "icon": "https://steamcdn-a.akamaihd.net/steamcommunity/public/images/apps/355810/8a765a94aae3e875eb6179f0db107917107f5810.jpg",
    "icongray": "https://steamcdn-a.akamaihd.net/steamcommunity/public/images/apps/355810/680fa78436f4d4121d2e0a86210197f06a6d5bb2.jpg"
  },
  {
    "name": "credits",
    "defaultvalue": 0,
    "displayName": "Who made this game?",
    "hidden": 0,
    "description": "Check out the credits page",
    "icon": "https://steamcdn-a.akamaihd.net/steamcommunity/public/images/apps/355810/e93d480e0b22c2ed0594119db421cd8ea8f05ad3.jpg",
    "icongray": "https://steamcdn-a.akamaihd.net/steamcommunity/public/images/apps/355810/f4663170d647d26adc7bd17191d12f089c47c119.jpg"
  },
  {
    "name": "bug_submit",
    "defaultvalue": 0,
    "displayName": "Bug Hunter",
    "hidden": 0,
    "description": "Submit a Bug/Feedback",
    "icon": "https://steamcdn-a.akamaihd.net/steamcommunity/public/images/apps/355810/6394aa0812719eae2cbb9e10957c11a14de3ceda.jpg",
    "icongray": "https://steamcdn-a.akamaihd.net/steamcommunity/public/images/apps/355810/222760fd221d97a2e86b1eae4179a5a24440a682.jpg"
  },
  {
    "name": "5000_prestige",
    "defaultvalue": 0,
    "displayName": "Shopping Time!",
    "hidden": 0,
    "description": "Acquire 5000 prestige",
    "icon": "https://steamcdn-a.akamaihd.net/steamcommunity/public/images/apps/355810/2a5692c7683304a6cf09a62853233746d6b84f9d.jpg",
    "icongray": "https://steamcdn-a.akamaihd.net/steamcommunity/public/images/apps/355810/b82d924ce1baad98f616fcc410346782325e6b2d.jpg"
  },
  {
    "name": "ltcommander",
    "defaultvalue": 0,
    "displayName": "Lt.Commander",
    "hidden": 0,
    "description": "Reach the rank of Lt.Commander",
    "icon": "https://steamcdn-a.akamaihd.net/steamcommunity/public/images/apps/355810/c6d7a38934efd8fc0bb54707b91ba8fb61ec875d.jpg",
    "icongray": "https://steamcdn-a.akamaihd.net/steamcommunity/public/images/apps/355810/273aa3324a33b9a889cfde455e034031d857da45.jpg"
  },
  {
    "name": "commander",
    "defaultvalue": 0,
    "displayName": "Commander",
    "hidden": 0,
    "description": "Reach the rank of Commander",
    "icon": "https://steamcdn-a.akamaihd.net/steamcommunity/public/images/apps/355810/daab8da6a7bcd0ee0b79672f7dbc3a05bbceec1a.jpg",
    "icongray": "https://steamcdn-a.akamaihd.net/steamcommunity/public/images/apps/355810/0538145d8d91ed9e5055864b71d354a56a43bceb.jpg"
  },
  {
    "name": "vendetta_r",
    "defaultvalue": 0,
    "displayName": "Vendetta",
    "hidden": 0,
    "description": "Lose your fleet 3 times in a row",
    "icon": "https://steamcdn-a.akamaihd.net/steamcommunity/public/images/apps/355810/35ba68ec45d15b5527d0e6f414ca6753d61deb5a.jpg",
    "icongray": "https://steamcdn-a.akamaihd.net/steamcommunity/public/images/apps/355810/533d5c30205b776be6ca35c9b0601052c2ab91bc.jpg"
  },
  {
    "name": "sardaukar",
    "defaultvalue": 0,
    "displayName": "Sardaukar",
    "hidden": 0,
    "description": "100 Pirate ships destroyed",
    "icon": "https://steamcdn-a.akamaihd.net/steamcommunity/public/images/apps/355810/f959474d31529cf343f9d0ae2e87f17afba4ad80.jpg",
    "icongray": "https://steamcdn-a.akamaihd.net/steamcommunity/public/images/apps/355810/0e834f590df5abb9dde1638b968eef0bf00acf85.jpg"
  },
  {
    "name": "prestigious",
    "defaultvalue": 0,
    "displayName": "Prestigious",
    "hidden": 0,
    "description": "Acquire 10000 prestige",
    "icon": "https://steamcdn-a.akamaihd.net/steamcommunity/public/images/apps/355810/9a817b16f1fc7a5e3574f60fcb5ec619fd47fd2a.jpg",
    "icongray": "https://steamcdn-a.akamaihd.net/steamcommunity/public/images/apps/355810/84be763dbf1dfdeb67cfa31a020fdba2ca3dec39.jpg"
  },
  {
    "name": "destroyer",
    "defaultvalue": 0,
    "displayName": "Destroyer Command",
    "hidden": 0,
    "description": "Acquire a Destroyer",
    "icon": "https://steamcdn-a.akamaihd.net/steamcommunity/public/images/apps/355810/f991421d5c1400104b78ce39c9e2aac9c3b21ea6.jpg",
    "icongray": "https://steamcdn-a.akamaihd.net/steamcommunity/public/images/apps/355810/868d2053ea3c651f7899a60d505893f466eec5cd.jpg"
  },
  {
    "name": "ground_mission_2",
    "defaultvalue": 0,
    "displayName": "Ground Control II",
    "hidden": 0,
    "description": "Complete the second ground mission",
    "icon": "https://steamcdn-a.akamaihd.net/steamcommunity/public/images/apps/355810/566561b2df41126e5f7ae5c0b53b6c62cb6a62e4.jpg",
    "icongray": "https://steamcdn-a.akamaihd.net/steamcommunity/public/images/apps/355810/62358a2688f78501496fdbce9a8738a00f450532.jpg"
  },
  {
    "name": "ground_mission_3",
    "defaultvalue": 0,
    "displayName": "Ground Control III",
    "hidden": 0,
    "description": "Complete the third ground mission",
    "icon": "https://steamcdn-a.akamaihd.net/steamcommunity/public/images/apps/355810/1d2c06c6074dfaec546a024fe35163aabad41213.jpg",
    "icongray": "https://steamcdn-a.akamaihd.net/steamcommunity/public/images/apps/355810/5a9cc010ac0a53cfc4ac3d77b341577490ad8c0c.jpg"
  },
  {
    "name": "ground_mission_4",
    "defaultvalue": 0,
    "displayName": "Ground Control IV",
    "hidden": 0,
    "description": "Complete the fourth ground mission",
    "icon": "https://steamcdn-a.akamaihd.net/steamcommunity/public/images/apps/355810/90e9b25427753cca314786f2ff3f3be70247aac6.jpg",
    "icongray": "https://steamcdn-a.akamaihd.net/steamcommunity/public/images/apps/355810/22fb0ddd1946cb25317fde6b58e443dd1de91468.jpg"
  },
  {
    "name": "escorts_2",
    "defaultvalue": 0,
    "displayName": "Vanguard",
    "hidden": 0,
    "description": "Acquire 2 escort ships",
    "icon": "https://steamcdn-a.akamaihd.net/steamcommunity/public/images/apps/355810/142a891d52c317618286baa9b5f443c4d9c14aac.jpg",
    "icongray": "https://steamcdn-a.akamaihd.net/steamcommunity/public/images/apps/355810/b02725562d357a9de6380df9d9402f87ae32b169.jpg"
  },
  {
    "name": "won_game",
    "defaultvalue": 0,
    "displayName": "Tabula Rasa Commander",
    "hidden": 0,
    "description": "Win the game",
    "icon": "https://steamcdn-a.akamaihd.net/steamcommunity/public/images/apps/355810/317b0d107939186cc6a3fb85eea0e77b4e73d031.jpg",
    "icongray": "https://steamcdn-a.akamaihd.net/steamcommunity/public/images/apps/355810/40a3d8d552f5d34aa946bc420ca94e8ebbe6689f.jpg"
  }
]