{
  "Dlcs": {},
  "Name": "Serpent Fusion",
  "AppId": "1126260",
  "ImageUrl": "https://steamcdn-a.akamaihd.net/steam/apps/1126260/header.jpg?t=1569694715",
  "Languages": [
    "english"
  ],
  "Platforms": {
    "windows": true,
    "mac": true,
    "linux": false
  }
}