{
  "Dlcs": {},
  "Name": "Shadow Force",
  "AppId": "883750",
  "ImageUrl": "https://steamcdn-a.akamaihd.net/steam/apps/883750/header.jpg?t=1563435144",
  "Languages": [
    "english"
  ],
  "Platforms": {
    "windows": true,
    "mac": false,
    "linux": false
  }
}