{
  "Dlcs": {},
  "Name": "Powerless",
  "AppId": "775200",
  "ImageUrl": "https://steamcdn-a.akamaihd.net/steam/apps/775200/header.jpg?t=1516367909",
  "Languages": [
    "english"
  ],
  "Platforms": {
    "windows": true,
    "mac": true,
    "linux": true
  }
}