[
  {
    "name": "chapter1_clear",
    "defaultvalue": 0,
    "displayName": "Chapter 01",
    "hidden": 0,
    "description": "Finish the first chapter with less than ten deaths.",
    "icon": "https://steamcdn-a.akamaihd.net/steamcommunity/public/images/apps/759220/8a577f841e80bc449dbe908f4ce78aae9f5346a8.jpg",
    "icongray": "https://steamcdn-a.akamaihd.net/steamcommunity/public/images/apps/759220/99008b5c3edd7f5fa47bf2fa90ea0f4bc9c73b37.jpg"
  },
  {
    "name": "chapter2_clear",
    "defaultvalue": 0,
    "displayName": "Chapter 02",
    "hidden": 0,
    "description": "Finish the second chapter with less than ten deaths.",
    "icon": "https://steamcdn-a.akamaihd.net/steamcommunity/public/images/apps/759220/f0193ec7e128ac39194fc189e18fff474e41bb0f.jpg",
    "icongray": "https://steamcdn-a.akamaihd.net/steamcommunity/public/images/apps/759220/39d91fbc69e190d6c4ff657c3ca0b371815297bb.jpg"
  },
  {
    "name": "chapter3_clear",
    "defaultvalue": 0,
    "displayName": " Chapter 03",
    "hidden": 0,
    "description": "Finish the third chapter with less than ten deaths.",
    "icon": "https://steamcdn-a.akamaihd.net/steamcommunity/public/images/apps/759220/d47b246045a573a8f8b43f1f945ca0e1b90d7429.jpg",
    "icongray": "https://steamcdn-a.akamaihd.net/steamcommunity/public/images/apps/759220/023117101d678d29f5a8f691fe0fa60976a2f1d9.jpg"
  },
  {
    "name": "chapter4_clear",
    "defaultvalue": 0,
    "displayName": "Chapter 04",
    "hidden": 0,
    "description": "Finish the fourth chapter with less than ten deaths.",
    "icon": "https://steamcdn-a.akamaihd.net/steamcommunity/public/images/apps/759220/72a5f7deeacf7539545aa7aa30f3d41e5fe163f3.jpg",
    "icongray": "https://steamcdn-a.akamaihd.net/steamcommunity/public/images/apps/759220/d1be819cf02507ab5eefec4c45cb7e2de330ae3c.jpg"
  },
  {
    "name": "chapter5_clear",
    "defaultvalue": 0,
    "displayName": "Chapter 05",
    "hidden": 0,
    "description": "Finish the fifth chapter with less than ten deaths.",
    "icon": "https://steamcdn-a.akamaihd.net/steamcommunity/public/images/apps/759220/75b4c704b9c58aca89401b2082ab1cf3d3bba8fd.jpg",
    "icongray": "https://steamcdn-a.akamaihd.net/steamcommunity/public/images/apps/759220/facb24cd7e2faf671b58099050d54ca73ecd659d.jpg"
  },
  {
    "name": "chapter6_clear",
    "defaultvalue": 0,
    "displayName": "Chapter 06",
    "hidden": 0,
    "description": "Finish the sixth chapter with less than ten deaths.",
    "icon": "https://steamcdn-a.akamaihd.net/steamcommunity/public/images/apps/759220/2f110ca485f5b708b0632d52d9f73f20ad0abab8.jpg",
    "icongray": "https://steamcdn-a.akamaihd.net/steamcommunity/public/images/apps/759220/7ea5dfbcf6934ca9b4ffafd49eb8a03be375875b.jpg"
  },
  {
    "name": "chapter7_clear",
    "defaultvalue": 0,
    "displayName": "Chapter 07",
    "hidden": 0,
    "description": "Finish the seventh chapter with less than ten deaths.",
    "icon": "https://steamcdn-a.akamaihd.net/steamcommunity/public/images/apps/759220/2487ed37aa4023df479c1ec02549789c931a2f70.jpg",
    "icongray": "https://steamcdn-a.akamaihd.net/steamcommunity/public/images/apps/759220/9e783e0cc4e382060f68112d196f7dcf62bdd615.jpg"
  },
  {
    "name": "chapter8_clear",
    "defaultvalue": 0,
    "displayName": "Chapter 08",
    "hidden": 0,
    "description": "Finish the eighth chapter with less than ten deaths.",
    "icon": "https://steamcdn-a.akamaihd.net/steamcommunity/public/images/apps/759220/f77c5f452821c61cab5cd5e18892a4bd78ff7303.jpg",
    "icongray": "https://steamcdn-a.akamaihd.net/steamcommunity/public/images/apps/759220/3cda066083b4f014b0a4fd26e4be09e48e2a5835.jpg"
  },
  {
    "name": "chapter9_clear",
    "defaultvalue": 0,
    "displayName": "Chapter 09",
    "hidden": 0,
    "description": "Finish the ninth chapter with less than ten deaths.",
    "icon": "https://steamcdn-a.akamaihd.net/steamcommunity/public/images/apps/759220/5122be29d7732aa558fce340861d844ef77f74b1.jpg",
    "icongray": "https://steamcdn-a.akamaihd.net/steamcommunity/public/images/apps/759220/b520a5a5c64147c956d09a3555b6af57d6217749.jpg"
  },
  {
    "name": "chapter10_clear",
    "defaultvalue": 0,
    "displayName": "Chapter 10",
    "hidden": 0,
    "description": "Finish the tenth chapter with less than ten deaths.",
    "icon": "https://steamcdn-a.akamaihd.net/steamcommunity/public/images/apps/759220/96887d1d30930285fb0c30c3faa4f3f4d0e0f32c.jpg",
    "icongray": "https://steamcdn-a.akamaihd.net/steamcommunity/public/images/apps/759220/637c227377d5bae3113380f3a3a5b19d279a7a5d.jpg"
  },
  {
    "name": "chapter11_clear",
    "defaultvalue": 0,
    "displayName": "Chapter 11",
    "hidden": 0,
    "description": "Finish the eleventh chapter with less than ten deaths.",
    "icon": "https://steamcdn-a.akamaihd.net/steamcommunity/public/images/apps/759220/6d7430d14742ab162d6e318d96320baf6f11fa1c.jpg",
    "icongray": "https://steamcdn-a.akamaihd.net/steamcommunity/public/images/apps/759220/0ec4bf4f99a1f6f57a91bc376569cb94effc8b74.jpg"
  }
]