{
  "Dlcs": {},
  "Name": "Life Redemption",
  "AppId": "1157360",
  "ImageUrl": "https://steamcdn-a.akamaihd.net/steam/apps/1157360/header.jpg?t=1581083863",
  "Languages": [
    "english",
    "schinese"
  ],
  "Platforms": {
    "windows": true,
    "mac": false,
    "linux": false
  }
}