[
  {
    "name": "Presence",
    "defaultvalue": 0,
    "displayName": "Presence",
    "hidden": 0,
    "description": "Step into the battlecruiser Saratoga",
    "icon": "https://steamcdn-a.akamaihd.net/steamcommunity/public/images/apps/465240/ba0d5f9b1f7146635e8f240f793b5888e406bae5.jpg",
    "icongray": "https://steamcdn-a.akamaihd.net/steamcommunity/public/images/apps/465240/065c049862cd984309a37ec06440fbb683082c6e.jpg"
  },
  {
    "name": "ChopChop",
    "defaultvalue": 0,
    "displayName": "Chop Chop",
    "hidden": 0,
    "description": "First wood medal",
    "icon": "https://steamcdn-a.akamaihd.net/steamcommunity/public/images/apps/465240/58e4315dddacbbe8beb758c5982b8ebf9968d695.jpg",
    "icongray": "https://steamcdn-a.akamaihd.net/steamcommunity/public/images/apps/465240/6dad71241d2239c793b3c96f811976af8fef4614.jpg"
  },
  {
    "name": "BabySteps",
    "defaultvalue": 0,
    "displayName": "Baby Steps",
    "hidden": 0,
    "description": "First bronze medal",
    "icon": "https://steamcdn-a.akamaihd.net/steamcommunity/public/images/apps/465240/ccb8f6a42f57a36a66426f0970afd6dadb11eed7.jpg",
    "icongray": "https://steamcdn-a.akamaihd.net/steamcommunity/public/images/apps/465240/7ae3c8f8c01ed67e8847deb39b96f25b7016c4ba.jpg"
  },
  {
    "name": "PieceOfCake",
    "defaultvalue": 0,
    "displayName": "Piece of Cake",
    "hidden": 0,
    "description": "First silver medal",
    "icon": "https://steamcdn-a.akamaihd.net/steamcommunity/public/images/apps/465240/b5bfefce76ef379e480825994b5909ca4e0fbac3.jpg",
    "icongray": "https://steamcdn-a.akamaihd.net/steamcommunity/public/images/apps/465240/6bf95ed439306ddb4bd9b99464f7b1871b719b38.jpg"
  },
  {
    "name": "Shiny",
    "defaultvalue": 0,
    "displayName": "Shiny",
    "hidden": 0,
    "description": "First gold medal",
    "icon": "https://steamcdn-a.akamaihd.net/steamcommunity/public/images/apps/465240/0f6abf424c0916180708738d5de28eee766eff36.jpg",
    "icongray": "https://steamcdn-a.akamaihd.net/steamcommunity/public/images/apps/465240/4e4d8cd45a01589108528d77211e8e4c635ceb38.jpg"
  },
  {
    "name": "Brilliant",
    "defaultvalue": 0,
    "displayName": "Brilliant",
    "hidden": 0,
    "description": "First platinum medal",
    "icon": "https://steamcdn-a.akamaihd.net/steamcommunity/public/images/apps/465240/83f01af6d52ccc1ddfda5ccba6a3c8d906dad1a0.jpg",
    "icongray": "https://steamcdn-a.akamaihd.net/steamcommunity/public/images/apps/465240/448b059f61b391319e6d47d237e0f7268c6a93bc.jpg"
  },
  {
    "name": "PlzNoKill",
    "defaultvalue": 0,
    "displayName": "Plz No Kill",
    "hidden": 0,
    "description": "First perfect tourist",
    "icon": "https://steamcdn-a.akamaihd.net/steamcommunity/public/images/apps/465240/3441506b862c9998b754d87630cd91c3cd1b6827.jpg",
    "icongray": "https://steamcdn-a.akamaihd.net/steamcommunity/public/images/apps/465240/f765429722bc91df138b99479043dde4e5447f5f.jpg"
  },
  {
    "name": "StillAlive",
    "defaultvalue": 0,
    "displayName": "Still Alive",
    "hidden": 0,
    "description": "First perfect easy",
    "icon": "https://steamcdn-a.akamaihd.net/steamcommunity/public/images/apps/465240/6345cd0e3e75638a6dc06c57c3cf1e4c9b7c8e35.jpg",
    "icongray": "https://steamcdn-a.akamaihd.net/steamcommunity/public/images/apps/465240/71fd2f1c9960dea3485bb21d11c050843c60e920.jpg"
  },
  {
    "name": "Perfection",
    "defaultvalue": 0,
    "displayName": "Perfection",
    "hidden": 0,
    "description": "First perfect normal",
    "icon": "https://steamcdn-a.akamaihd.net/steamcommunity/public/images/apps/465240/8d5990b0a13cd7b179d2b4f0bd4d043ace4a0078.jpg",
    "icongray": "https://steamcdn-a.akamaihd.net/steamcommunity/public/images/apps/465240/7a95e95dde643cafd13a8b41c6163cfaad31d3ed.jpg"
  },
  {
    "name": "Undying",
    "defaultvalue": 0,
    "displayName": "Undying",
    "hidden": 0,
    "description": "First perfect hard",
    "icon": "https://steamcdn-a.akamaihd.net/steamcommunity/public/images/apps/465240/9caa5ade608d32d07c63c84eb2b334ef5ee28d81.jpg",
    "icongray": "https://steamcdn-a.akamaihd.net/steamcommunity/public/images/apps/465240/a56186468227a1b7bde1bd95880c9b5c6e418566.jpg"
  },
  {
    "name": "Indestructible",
    "defaultvalue": 0,
    "displayName": "Indestructible",
    "hidden": 0,
    "description": "First perfect serious",
    "icon": "https://steamcdn-a.akamaihd.net/steamcommunity/public/images/apps/465240/ec85d932c95ed64f912b64228a06c669077611fa.jpg",
    "icongray": "https://steamcdn-a.akamaihd.net/steamcommunity/public/images/apps/465240/1881c9eb19961e27410838340712b0202f5de7ba.jpg"
  },
  {
    "name": "Lumberjack",
    "defaultvalue": 0,
    "displayName": "Lumberjack",
    "hidden": 0,
    "description": "All 5 wood medals",
    "icon": "https://steamcdn-a.akamaihd.net/steamcommunity/public/images/apps/465240/ba5a3c2d837f8c6ec183c344974927fefc75167c.jpg",
    "icongray": "https://steamcdn-a.akamaihd.net/steamcommunity/public/images/apps/465240/f2500d7ef604a97b28c09ea51167167ccdd37b97.jpg"
  },
  {
    "name": "LookMaISavedTheGalaxy",
    "defaultvalue": 0,
    "displayName": "Look Ma, I Saved The Galaxy!",
    "hidden": 0,
    "description": "All 5 bronze medals",
    "icon": "https://steamcdn-a.akamaihd.net/steamcommunity/public/images/apps/465240/9adc18d971faccfa1df8403c7a46d0982c3e4ff1.jpg",
    "icongray": "https://steamcdn-a.akamaihd.net/steamcommunity/public/images/apps/465240/335b3b24e0c65c516fa83ae17911c959c7ffd9e7.jpg"
  },
  {
    "name": "HeroThisGalaxyNeeds",
    "defaultvalue": 0,
    "displayName": "Hero This Galaxy Needs",
    "hidden": 0,
    "description": "All 5 silver medals",
    "icon": "https://steamcdn-a.akamaihd.net/steamcommunity/public/images/apps/465240/6c4bd2b0175ac79f75d6737acd13185598befa5b.jpg",
    "icongray": "https://steamcdn-a.akamaihd.net/steamcommunity/public/images/apps/465240/482125b31c58981032f5a5702c3236de1684ec3c.jpg"
  },
  {
    "name": "HeroThisGalaxyDeserves",
    "defaultvalue": 0,
    "displayName": "Hero This Galaxy Deserves",
    "hidden": 0,
    "description": "All 5 gold medals",
    "icon": "https://steamcdn-a.akamaihd.net/steamcommunity/public/images/apps/465240/2e653d95e8247d44274d0a6c94737135b87d7718.jpg",
    "icongray": "https://steamcdn-a.akamaihd.net/steamcommunity/public/images/apps/465240/0f6dca8d2aa829a7e4414fdfdc7a5499305cc893.jpg"
  },
  {
    "name": "HeroThisGalaxyCantAfford",
    "defaultvalue": 0,
    "displayName": "Hero This Galaxy Can't Afford",
    "hidden": 0,
    "description": "All 5 platinum medals",
    "icon": "https://steamcdn-a.akamaihd.net/steamcommunity/public/images/apps/465240/8377694accbdc21f3b81f6c42888aef02747ec14.jpg",
    "icongray": "https://steamcdn-a.akamaihd.net/steamcommunity/public/images/apps/465240/31035ab16f1e986d8538ff2e41dd7e18e23b18a0.jpg"
  },
  {
    "name": "BarelyAlive",
    "defaultvalue": 0,
    "displayName": "Barely Alive",
    "hidden": 0,
    "description": "All perfect tourist",
    "icon": "https://steamcdn-a.akamaihd.net/steamcommunity/public/images/apps/465240/2469019ab3129c9cd3464ebdb62db91d97204fcf.jpg",
    "icongray": "https://steamcdn-a.akamaihd.net/steamcommunity/public/images/apps/465240/55a080d0cfafa838875d9e870848a218c96212bd.jpg"
  },
  {
    "name": "Survivor",
    "defaultvalue": 0,
    "displayName": "Survivor",
    "hidden": 0,
    "description": "All perfect easy",
    "icon": "https://steamcdn-a.akamaihd.net/steamcommunity/public/images/apps/465240/85b08e9728adbc9044e96561347fcd1d30a7a7e7.jpg",
    "icongray": "https://steamcdn-a.akamaihd.net/steamcommunity/public/images/apps/465240/e7893e044c077a17d95500c03a184947f84a0ac9.jpg"
  },
  {
    "name": "Hardcore",
    "defaultvalue": 0,
    "displayName": "Hardcore",
    "hidden": 0,
    "description": "All perfect normal",
    "icon": "https://steamcdn-a.akamaihd.net/steamcommunity/public/images/apps/465240/893d1ee1aa8c84b4f0e1ad27a1056c8a0fa541c6.jpg",
    "icongray": "https://steamcdn-a.akamaihd.net/steamcommunity/public/images/apps/465240/9f28a17ac7b1886a9f07dba49a2e9a934ed8a1b0.jpg"
  },
  {
    "name": "Immortal",
    "defaultvalue": 0,
    "displayName": "Immortal",
    "hidden": 0,
    "description": "All perfect hard",
    "icon": "https://steamcdn-a.akamaihd.net/steamcommunity/public/images/apps/465240/05302e317f3b5a6b4df1904a34cafa912d2bd6d9.jpg",
    "icongray": "https://steamcdn-a.akamaihd.net/steamcommunity/public/images/apps/465240/33ac497052440250a1e3d7dfbda74f899e730883.jpg"
  },
  {
    "name": "Eternal",
    "defaultvalue": 0,
    "displayName": "Eternal",
    "hidden": 0,
    "description": "All perfect serious",
    "icon": "https://steamcdn-a.akamaihd.net/steamcommunity/public/images/apps/465240/42f0b395debf815c0464416e7fbc891e5b4154e4.jpg",
    "icongray": "https://steamcdn-a.akamaihd.net/steamcommunity/public/images/apps/465240/c2ee14e3bfcd71fac7dc5265701e93d332d99706.jpg"
  },
  {
    "name": "Skilled",
    "defaultvalue": 0,
    "displayName": "Skilled",
    "hidden": 0,
    "description": "Unlocked a skill",
    "icon": "https://steamcdn-a.akamaihd.net/steamcommunity/public/images/apps/465240/b1461d14e397104950bb4cad9311f30be512e7f7.jpg",
    "icongray": "https://steamcdn-a.akamaihd.net/steamcommunity/public/images/apps/465240/58145e25b26a8a84988250727906590a4017462e.jpg"
  },
  {
    "name": "Skillful",
    "defaultvalue": 0,
    "displayName": "Skillful",
    "hidden": 0,
    "description": "Unlocked the entire skill tree",
    "icon": "https://steamcdn-a.akamaihd.net/steamcommunity/public/images/apps/465240/470c2063f62944460baa4b86540ba84074020138.jpg",
    "icongray": "https://steamcdn-a.akamaihd.net/steamcommunity/public/images/apps/465240/baf0b49e0e05b5dcafbf817ae59a8cf7974f5ef5.jpg"
  },
  {
    "name": "NobodyStepsOnMe",
    "defaultvalue": 0,
    "displayName": "Nobody Steps On Me",
    "hidden": 0,
    "description": "Defeat the giant mummy",
    "icon": "https://steamcdn-a.akamaihd.net/steamcommunity/public/images/apps/465240/10178a873bba5e2e9eb6fa4338f54371884d9c35.jpg",
    "icongray": "https://steamcdn-a.akamaihd.net/steamcommunity/public/images/apps/465240/57fa9fbb6ed79bc90a2acfd8bfc003554b70feda.jpg"
  },
  {
    "name": "MentalBreakdown",
    "defaultvalue": 0,
    "displayName": "Mental Breakdown",
    "hidden": 0,
    "description": "Defeat the giant anomaly",
    "icon": "https://steamcdn-a.akamaihd.net/steamcommunity/public/images/apps/465240/1db87596642aba6cfc7dda4d1fcf51a3ec223d9f.jpg",
    "icongray": "https://steamcdn-a.akamaihd.net/steamcommunity/public/images/apps/465240/be71d19e9fc1fb4dec8f8f35de0dfa71a09a2c44.jpg"
  },
  {
    "name": "PoultryConnoisseur",
    "defaultvalue": 0,
    "displayName": "Poultry Connoisseur",
    "hidden": 0,
    "description": "Defeat the Shaanti dragon",
    "icon": "https://steamcdn-a.akamaihd.net/steamcommunity/public/images/apps/465240/43d7c23d9649e95dc0d3e3b9a8a964388307e446.jpg",
    "icongray": "https://steamcdn-a.akamaihd.net/steamcommunity/public/images/apps/465240/2cdc81eae4b5c65e3a7f60ba008e197b9d19294d.jpg"
  },
  {
    "name": "RemoteDebugger",
    "defaultvalue": 0,
    "displayName": "Remote Debugger",
    "hidden": 0,
    "description": "Defeat the giant Swamp Hive",
    "icon": "https://steamcdn-a.akamaihd.net/steamcommunity/public/images/apps/465240/aa9ce7473148007c8e6c7e4541987b942288f1a7.jpg",
    "icongray": "https://steamcdn-a.akamaihd.net/steamcommunity/public/images/apps/465240/1f9e6bd9c582d7bb8c4de0465e7dd52f78f7f8d1.jpg"
  },
  {
    "name": "EarthlyPleasures",
    "defaultvalue": 0,
    "displayName": "Earthly Pleasures",
    "hidden": 0,
    "description": "Defeat the Earth giant",
    "icon": "https://steamcdn-a.akamaihd.net/steamcommunity/public/images/apps/465240/ffb2f489d107e148085cf69c96e209cac6b04ad0.jpg",
    "icongray": "https://steamcdn-a.akamaihd.net/steamcommunity/public/images/apps/465240/db92195521f7d7bc307443709863c8e72e341934.jpg"
  },
  {
    "name": "JustAFleshWound",
    "defaultvalue": 0,
    "displayName": "Just a Flesh Wound",
    "hidden": 0,
    "description": "Complete a planet without healing",
    "icon": "https://steamcdn-a.akamaihd.net/steamcommunity/public/images/apps/465240/047b282ef5ffebc73707979f60eae6eb4bae9997.jpg",
    "icongray": "https://steamcdn-a.akamaihd.net/steamcommunity/public/images/apps/465240/d098c7e6839551521055b6d03775359e7c3b662d.jpg"
  },
  {
    "name": "WithoutAScratch",
    "defaultvalue": 0,
    "displayName": "Without a Scratch",
    "hidden": 0,
    "description": "Complete a mission on hard without taking any damage",
    "icon": "https://steamcdn-a.akamaihd.net/steamcommunity/public/images/apps/465240/4826d2c804d1b1de7382bbb92612e78f6db15354.jpg",
    "icongray": "https://steamcdn-a.akamaihd.net/steamcommunity/public/images/apps/465240/7d516fd966a9cf1174ec372a125e76f929750128.jpg"
  },
  {
    "name": "AnythingGoes",
    "defaultvalue": 0,
    "displayName": "Anything Goes",
    "hidden": 0,
    "description": "Step into the arena",
    "icon": "https://steamcdn-a.akamaihd.net/steamcommunity/public/images/apps/465240/ae544ccb5b394cb93ddaebe301b2298b3f65182f.jpg",
    "icongray": "https://steamcdn-a.akamaihd.net/steamcommunity/public/images/apps/465240/7cad7cc34cf1470f2ff8f296f3fe44c6a2b77271.jpg"
  },
  {
    "name": "Soldier",
    "defaultvalue": 0,
    "displayName": "Soldier",
    "hidden": 0,
    "description": "Complete a level 5 arena",
    "icon": "https://steamcdn-a.akamaihd.net/steamcommunity/public/images/apps/465240/7a58b2e3bf908b935739dd98dc3594a3240c5f23.jpg",
    "icongray": "https://steamcdn-a.akamaihd.net/steamcommunity/public/images/apps/465240/5cfb9a0e7ef98e50ba98908c21263d928a28eff3.jpg"
  },
  {
    "name": "Challenger",
    "defaultvalue": 0,
    "displayName": "Challenger",
    "hidden": 0,
    "description": "Complete a level 10 arena",
    "icon": "https://steamcdn-a.akamaihd.net/steamcommunity/public/images/apps/465240/c925bf92f8a0a26dd1fb85cf8dd9f5f46f00a650.jpg",
    "icongray": "https://steamcdn-a.akamaihd.net/steamcommunity/public/images/apps/465240/85aa362521ef1146f0a02eba99b80b4216c4bef5.jpg"
  },
  {
    "name": "Gladiator",
    "defaultvalue": 0,
    "displayName": "Gladiator",
    "hidden": 0,
    "description": "Complete a level 15 arena",
    "icon": "https://steamcdn-a.akamaihd.net/steamcommunity/public/images/apps/465240/dcd7c42f4fe104d9ac500ee931dbe5500e8d7675.jpg",
    "icongray": "https://steamcdn-a.akamaihd.net/steamcommunity/public/images/apps/465240/f754498a6ea36d32d8ff4c76fcd886cac4f64ba3.jpg"
  },
  {
    "name": "Champion",
    "defaultvalue": 0,
    "displayName": "Champion",
    "hidden": 0,
    "description": "Complete a level 20 arena",
    "icon": "https://steamcdn-a.akamaihd.net/steamcommunity/public/images/apps/465240/bf75ecc69f85db4700221495c9713304c0e5eaf8.jpg",
    "icongray": "https://steamcdn-a.akamaihd.net/steamcommunity/public/images/apps/465240/556978d2c11b77d85572ce150e2fb350264ebb6a.jpg"
  },
  {
    "name": "Spartan",
    "defaultvalue": 0,
    "displayName": "Spartan",
    "hidden": 0,
    "description": "Complete all level 5 arenas",
    "icon": "https://steamcdn-a.akamaihd.net/steamcommunity/public/images/apps/465240/91ec1b4505ed455c05f1897d6f101f6c4e159775.jpg",
    "icongray": "https://steamcdn-a.akamaihd.net/steamcommunity/public/images/apps/465240/e6ffa86e50c16e10ba4723a9cd9c523be1fa996c.jpg"
  },
  {
    "name": "Hoplite",
    "defaultvalue": 0,
    "displayName": "Hoplite",
    "hidden": 0,
    "description": "Complete all level 10 arenas",
    "icon": "https://steamcdn-a.akamaihd.net/steamcommunity/public/images/apps/465240/6992e225cb6c5faa344da6c4c778215b9f32f27c.jpg",
    "icongray": "https://steamcdn-a.akamaihd.net/steamcommunity/public/images/apps/465240/c8a9f07139fee54098afaedbc41de3f7400287ab.jpg"
  },
  {
    "name": "Leonidas",
    "defaultvalue": 0,
    "displayName": "Leonidas",
    "hidden": 0,
    "description": "Complete all level 15 arenas",
    "icon": "https://steamcdn-a.akamaihd.net/steamcommunity/public/images/apps/465240/c9d6258d82656ba9e502cf69180f42ae454cb968.jpg",
    "icongray": "https://steamcdn-a.akamaihd.net/steamcommunity/public/images/apps/465240/50981fd4bf21b882feebeb6284154f29022f61eb.jpg"
  },
  {
    "name": "Ares",
    "defaultvalue": 0,
    "displayName": "Ares",
    "hidden": 0,
    "description": "Complete all level 20 arenas",
    "icon": "https://steamcdn-a.akamaihd.net/steamcommunity/public/images/apps/465240/cc3af88a31c342f14a8c6addaef1d951b0265601.jpg",
    "icongray": "https://steamcdn-a.akamaihd.net/steamcommunity/public/images/apps/465240/6b559a6d10e5f61d323f33b369225f5f9f631ca5.jpg"
  },
  {
    "name": "StrengthInNumbers",
    "defaultvalue": 0,
    "displayName": "Strength in Numbers",
    "hidden": 0,
    "description": "Complete a co-op game",
    "icon": "https://steamcdn-a.akamaihd.net/steamcommunity/public/images/apps/465240/b6c5bf5e8e489c6b0768e56b14896ef5eb029404.jpg",
    "icongray": "https://steamcdn-a.akamaihd.net/steamcommunity/public/images/apps/465240/7e89b367bfae670a9475f288cd857f558f25d9b0.jpg"
  },
  {
    "name": "WithALittleHelpFromSaratoga",
    "defaultvalue": 0,
    "displayName": "With a Little Help from Saratoga",
    "hidden": 0,
    "description": "Fire an orbital laser strike",
    "icon": "https://steamcdn-a.akamaihd.net/steamcommunity/public/images/apps/465240/228bb5e4609acba348c3ee42da1c1fdeb47f2b88.jpg",
    "icongray": "https://steamcdn-a.akamaihd.net/steamcommunity/public/images/apps/465240/fc5ca5a742c6efc10d2b7923f9991dd51780cc2b.jpg"
  },
  {
    "name": "GettingCaughtInALaserStorm",
    "defaultvalue": 0,
    "displayName": "Getting Caught in a Laser Storm",
    "hidden": 0,
    "description": "Fire an orbital laser storm",
    "icon": "https://steamcdn-a.akamaihd.net/steamcommunity/public/images/apps/465240/f3289e1af5bee0ed83fca829e75b77b4982f8596.jpg",
    "icongray": "https://steamcdn-a.akamaihd.net/steamcommunity/public/images/apps/465240/6c7b542385900e6c43a01ab87cc493ff15242641.jpg"
  },
  {
    "name": "Mesmerising",
    "defaultvalue": 0,
    "displayName": "Mesmerising",
    "hidden": 0,
    "description": "Fire the orbital psi laser",
    "icon": "https://steamcdn-a.akamaihd.net/steamcommunity/public/images/apps/465240/7ea1720b58916b922f10c99643a6cfaa07862eb5.jpg",
    "icongray": "https://steamcdn-a.akamaihd.net/steamcommunity/public/images/apps/465240/20275d9419efbfbc59612c446232c9d8010a8686.jpg"
  },
  {
    "name": "Stunning",
    "defaultvalue": 0,
    "displayName": "Stunning",
    "hidden": 0,
    "description": "Fire the orbital stun field",
    "icon": "https://steamcdn-a.akamaihd.net/steamcommunity/public/images/apps/465240/7026cc9757c3e42963d5272e1e6f7c5bd6018f23.jpg",
    "icongray": "https://steamcdn-a.akamaihd.net/steamcommunity/public/images/apps/465240/2d03a2a6bfe5e78086cea87f3107009502813869.jpg"
  },
  {
    "name": "GoodForYourHealth",
    "defaultvalue": 0,
    "displayName": "Good for Your Health",
    "hidden": 0,
    "description": "Use the portable medkit",
    "icon": "https://steamcdn-a.akamaihd.net/steamcommunity/public/images/apps/465240/cdca9d310247d9dcf47353fdcbbb24a35d9b5c98.jpg",
    "icongray": "https://steamcdn-a.akamaihd.net/steamcommunity/public/images/apps/465240/55e49d274d7d4441f6d452093f6260e9eb030bb4.jpg"
  },
  {
    "name": "CantTouchThis",
    "defaultvalue": 0,
    "displayName": "Can't Touch This",
    "hidden": 0,
    "description": "Activate invulnerability",
    "icon": "https://steamcdn-a.akamaihd.net/steamcommunity/public/images/apps/465240/714e65a5071a4fa9d5119ba474a62d71405c0591.jpg",
    "icongray": "https://steamcdn-a.akamaihd.net/steamcommunity/public/images/apps/465240/9b8c1250187d8c53d1543f37dedaa256c1084120.jpg"
  },
  {
    "name": "PleaseJustDieAlready",
    "defaultvalue": 0,
    "displayName": "Please Just Die Already",
    "hidden": 0,
    "description": "Activate serious damage",
    "icon": "https://steamcdn-a.akamaihd.net/steamcommunity/public/images/apps/465240/ca26a8f944a2d426995427a4f39425e8ee06ce4c.jpg",
    "icongray": "https://steamcdn-a.akamaihd.net/steamcommunity/public/images/apps/465240/f40c9fdb3bba374dd1c3ad557c7b841263653325.jpg"
  },
  {
    "name": "IShouldBuyABoat",
    "defaultvalue": 0,
    "displayName": "I Should Buy a Boat",
    "hidden": 0,
    "description": "Activate money time",
    "icon": "https://steamcdn-a.akamaihd.net/steamcommunity/public/images/apps/465240/cc10db59222c22e587708d730ca21c661d11f8ad.jpg",
    "icongray": "https://steamcdn-a.akamaihd.net/steamcommunity/public/images/apps/465240/c438a8ddadcb5ebe88c5d9cd6aaab264ea42d209.jpg"
  },
  {
    "name": "OverTheTop",
    "defaultvalue": 0,
    "displayName": "Over the Top",
    "hidden": 0,
    "description": "Activate rage",
    "icon": "https://steamcdn-a.akamaihd.net/steamcommunity/public/images/apps/465240/5bcedd6d22b22c51be69c14d750bda1b14cefc33.jpg",
    "icongray": "https://steamcdn-a.akamaihd.net/steamcommunity/public/images/apps/465240/005c3212f297f312b99f74fae021be194835ed2d.jpg"
  },
  {
    "name": "GiveMeABreak",
    "defaultvalue": 0,
    "displayName": "Give Me a Break",
    "hidden": 0,
    "description": "Activate time stop",
    "icon": "https://steamcdn-a.akamaihd.net/steamcommunity/public/images/apps/465240/ea22a6cb87539c3fc5986e46716bb26e122e82f0.jpg",
    "icongray": "https://steamcdn-a.akamaihd.net/steamcommunity/public/images/apps/465240/42de9c9bcf5ebad7e691818fe18903bae117b74c.jpg"
  },
  {
    "name": "OneOrderOfDeadEnemies",
    "defaultvalue": 0,
    "displayName": "One Order of Dead Enemies",
    "hidden": 0,
    "description": "Detonate a serious bomb",
    "icon": "https://steamcdn-a.akamaihd.net/steamcommunity/public/images/apps/465240/3996cebac86fb6733daaa848386e03882fa22e19.jpg",
    "icongray": "https://steamcdn-a.akamaihd.net/steamcommunity/public/images/apps/465240/5d59735724b766923a1f3dd3d07d1ff657a5fc33.jpg"
  },
  {
    "name": "WhenTwoMinigunsArentEnough",
    "defaultvalue": 0,
    "displayName": "When Two Miniguns Aren't Enough",
    "hidden": 0,
    "description": "Deploy a defense turret",
    "icon": "https://steamcdn-a.akamaihd.net/steamcommunity/public/images/apps/465240/0d1013582e7c066ae61959fb05d6a175c5cd15d1.jpg",
    "icongray": "https://steamcdn-a.akamaihd.net/steamcommunity/public/images/apps/465240/0cb1cd2b42103c533a1720fd1667e1c1606c3e5b.jpg"
  },
  {
    "name": "QuadcoptersAreIn",
    "defaultvalue": 0,
    "displayName": "Quadcopters are In",
    "hidden": 0,
    "description": "Deploy a drone squad",
    "icon": "https://steamcdn-a.akamaihd.net/steamcommunity/public/images/apps/465240/d1e3cd703084aa125938524730dd7eaa57593b3b.jpg",
    "icongray": "https://steamcdn-a.akamaihd.net/steamcommunity/public/images/apps/465240/ccdd327797930cf9619b9b0469dfe0437f828335.jpg"
  },
  {
    "name": "Misdirection",
    "defaultvalue": 0,
    "displayName": "Misdirection",
    "hidden": 0,
    "description": "Deploy a dummy decoy",
    "icon": "https://steamcdn-a.akamaihd.net/steamcommunity/public/images/apps/465240/2f0de311fd25f44acd39cd18922166724cd7c599.jpg",
    "icongray": "https://steamcdn-a.akamaihd.net/steamcommunity/public/images/apps/465240/92739804cc5922c5a4d3b2374ebbb0d2597a6c1c.jpg"
  },
  {
    "name": "Arachnofarming",
    "defaultvalue": 0,
    "displayName": "Arachnofarming",
    "hidden": 0,
    "description": "Unleash an army of domestic spiders",
    "icon": "https://steamcdn-a.akamaihd.net/steamcommunity/public/images/apps/465240/5b7f380ea7a0809e943072033bdb1a41b6a7659f.jpg",
    "icongray": "https://steamcdn-a.akamaihd.net/steamcommunity/public/images/apps/465240/29d0cfee1890dc2a64bd5cc79fced7094fc57cd9.jpg"
  }
]