{
  "Dlcs": {},
  "Name": "Thrillville®: Off the Rails™",
  "AppId": "6080",
  "ImageUrl": "https://steamcdn-a.akamaihd.net/steam/apps/6080/header.jpg?t=1542756729",
  "Languages": [
    "english",
    "french",
    "german",
    "italian",
    "spanish"
  ],
  "Platforms": {
    "windows": true,
    "mac": false,
    "linux": false
  }
}