{
  "Dlcs": {},
  "Name": "Beautiful Light",
  "AppId": "1313230",
  "ImageUrl": "https://steamcdn-a.akamaihd.net/steam/apps/1313230/header.jpg?t=1593162252",
  "Languages": [
    "english",
    "french"
  ],
  "Platforms": {
    "windows": true,
    "mac": false,
    "linux": false
  }
}