{
  "Dlcs": {},
  "Name": "逗国科举 | Douguo Keju",
  "AppId": "978200",
  "ImageUrl": "https://steamcdn-a.akamaihd.net/steam/apps/978200/header.jpg?t=1544770871",
  "Languages": [
    "schinese"
  ],
  "Platforms": {
    "windows": true,
    "mac": false,
    "linux": false
  }
}