{
  "Dlcs": {},
  "Name": "House of 1000 Doors: Serpent Flame",
  "AppId": "1090390",
  "ImageUrl": "https://steamcdn-a.akamaihd.net/steam/apps/1090390/header.jpg?t=1595332190",
  "Languages": [
    "english",
    "french",
    "italian",
    "german",
    "spanish",
    "korean",
    "dutch",
    "russian"
  ],
  "Platforms": {
    "windows": true,
    "mac": true,
    "linux": false
  }
}