[
  {
    "name": "ACH_DEATH_JUMP",
    "defaultvalue": 0,
    "displayName": "I BELIEVED I CAN FLY!",
    "hidden": 1,
    "icon": "https://steamcdn-a.akamaihd.net/steamcommunity/public/images/apps/792670/",
    "icongray": "https://steamcdn-a.akamaihd.net/steamcommunity/public/images/apps/792670/0672479911f55916dc7f5e5d335bde9b7c25f83d.jpg"
  },
  {
    "name": "ACH_FALL_TREE",
    "defaultvalue": 0,
    "displayName": "NEW_ACHIEVEMENT_NAME_8_1",
    "hidden": 1,
    "icon": "https://steamcdn-a.akamaihd.net/steamcommunity/public/images/apps/792670/",
    "icongray": "https://steamcdn-a.akamaihd.net/steamcommunity/public/images/apps/792670/0672479911f55916dc7f5e5d335bde9b7c25f83d.jpg"
  },
  {
    "name": "ACH_DEATH_BLOOD",
    "defaultvalue": 0,
    "displayName": "Blood Transplantation",
    "hidden": 0,
    "description": "Die of blood loss",
    "icon": "https://steamcdn-a.akamaihd.net/steamcommunity/public/images/apps/792670/e6b88a0192ddc298c6ad2f99cfb881cb051dda16.jpg",
    "icongray": "https://steamcdn-a.akamaihd.net/steamcommunity/public/images/apps/792670/794ead816a97e20bf945b02ef0728564ffa66ccc.jpg"
  },
  {
    "name": "ACH_DEATH_COLD",
    "defaultvalue": 0,
    "displayName": "Baby, it is cold outside!",
    "hidden": 0,
    "description": "Freeze to death",
    "icon": "https://steamcdn-a.akamaihd.net/steamcommunity/public/images/apps/792670/55e7e98ac6a09a02011e1a3ca8745a175b235e26.jpg",
    "icongray": "https://steamcdn-a.akamaihd.net/steamcommunity/public/images/apps/792670/794ead816a97e20bf945b02ef0728564ffa66ccc.jpg"
  },
  {
    "name": "ACH_LOCK_PICK",
    "defaultvalue": 0,
    "displayName": "Break and Entering",
    "hidden": 0,
    "description": "Pick a lock",
    "icon": "https://steamcdn-a.akamaihd.net/steamcommunity/public/images/apps/792670/2d3506c5eb23c0295656dffbdb93445ee99ddf6c.jpg",
    "icongray": "https://steamcdn-a.akamaihd.net/steamcommunity/public/images/apps/792670/794ead816a97e20bf945b02ef0728564ffa66ccc.jpg"
  },
  {
    "name": "ACH_LOCK_PICK_ALL",
    "defaultvalue": 0,
    "displayName": "Master Thief",
    "hidden": 0,
    "description": "Pick all locks",
    "icon": "https://steamcdn-a.akamaihd.net/steamcommunity/public/images/apps/792670/ab92cc423a7b61deb5bf6a039c9e59bc1a72e294.jpg",
    "icongray": "https://steamcdn-a.akamaihd.net/steamcommunity/public/images/apps/792670/794ead816a97e20bf945b02ef0728564ffa66ccc.jpg"
  },
  {
    "name": "ACH_DEATH_WOLF",
    "defaultvalue": 0,
    "displayName": "Dinnertime",
    "hidden": 0,
    "description": "Get eaten by a wolf",
    "icon": "https://steamcdn-a.akamaihd.net/steamcommunity/public/images/apps/792670/8e27308e433f212a56521cbd8e144000f050d571.jpg",
    "icongray": "https://steamcdn-a.akamaihd.net/steamcommunity/public/images/apps/792670/794ead816a97e20bf945b02ef0728564ffa66ccc.jpg"
  },
  {
    "name": "ACH_PICK_ITEM",
    "defaultvalue": 0,
    "displayName": "May be useful!",
    "hidden": 0,
    "description": "Pick up every item type at least once in a single round",
    "icon": "https://steamcdn-a.akamaihd.net/steamcommunity/public/images/apps/792670/b4d5e0739edd254400ab3ff91d82a71fea20e63e.jpg",
    "icongray": "https://steamcdn-a.akamaihd.net/steamcommunity/public/images/apps/792670/794ead816a97e20bf945b02ef0728564ffa66ccc.jpg"
  },
  {
    "name": "ACH_ART_ALL",
    "defaultvalue": 0,
    "displayName": "Journalist",
    "hidden": 0,
    "description": "Find all articles",
    "icon": "https://steamcdn-a.akamaihd.net/steamcommunity/public/images/apps/792670/4e91fa7d2c74fc3d4aa576955ba3af2c1cabb949.jpg",
    "icongray": "https://steamcdn-a.akamaihd.net/steamcommunity/public/images/apps/792670/794ead816a97e20bf945b02ef0728564ffa66ccc.jpg"
  },
  {
    "name": "ACH_OBJ_LOOK",
    "defaultvalue": 0,
    "displayName": "Inspector",
    "hidden": 0,
    "description": "Pick up and look at every interactable object",
    "icon": "https://steamcdn-a.akamaihd.net/steamcommunity/public/images/apps/792670/",
    "icongray": "https://steamcdn-a.akamaihd.net/steamcommunity/public/images/apps/792670/0672479911f55916dc7f5e5d335bde9b7c25f83d.jpg"
  },
  {
    "name": "ACH_OBJ_CLUES",
    "defaultvalue": 0,
    "displayName": "Detective",
    "hidden": 1,
    "icon": "https://steamcdn-a.akamaihd.net/steamcommunity/public/images/apps/792670/58366054e88010f88e7d5287cfc8f92587ab850a.jpg",
    "icongray": "https://steamcdn-a.akamaihd.net/steamcommunity/public/images/apps/792670/794ead816a97e20bf945b02ef0728564ffa66ccc.jpg"
  },
  {
    "name": "ACH_WALK_MILE",
    "defaultvalue": 0,
    "displayName": "Wandering around",
    "hidden": 0,
    "description": "Walk 1 mile!",
    "icon": "https://steamcdn-a.akamaihd.net/steamcommunity/public/images/apps/792670/84b22bbeecd3814043db0eee8c1a660fe9fda246.jpg",
    "icongray": "https://steamcdn-a.akamaihd.net/steamcommunity/public/images/apps/792670/794ead816a97e20bf945b02ef0728564ffa66ccc.jpg"
  },
  {
    "name": "ACH_WALK_MILES",
    "defaultvalue": 0,
    "displayName": "Marathon",
    "hidden": 0,
    "description": "Walk 100 miles",
    "icon": "https://steamcdn-a.akamaihd.net/steamcommunity/public/images/apps/792670/",
    "icongray": "https://steamcdn-a.akamaihd.net/steamcommunity/public/images/apps/792670/0672479911f55916dc7f5e5d335bde9b7c25f83d.jpg"
  },
  {
    "name": "ACH_CAP_ONE",
    "defaultvalue": 0,
    "displayName": "New friend",
    "hidden": 0,
    "description": "Get captured by the killer",
    "icon": "https://steamcdn-a.akamaihd.net/steamcommunity/public/images/apps/792670/",
    "icongray": "https://steamcdn-a.akamaihd.net/steamcommunity/public/images/apps/792670/0672479911f55916dc7f5e5d335bde9b7c25f83d.jpg"
  },
  {
    "name": "ACH_HALL",
    "defaultvalue": 0,
    "displayName": "Was it real?!",
    "hidden": 1,
    "icon": "https://steamcdn-a.akamaihd.net/steamcommunity/public/images/apps/792670/",
    "icongray": "https://steamcdn-a.akamaihd.net/steamcommunity/public/images/apps/792670/bcda68cce1ecdbc0ca5c2feddf469be5eacb2a53.jpg"
  },
  {
    "name": "ACH_COMB_ANNIE",
    "defaultvalue": 0,
    "displayName": "Hit me one more time!",
    "hidden": 0,
    "description": "Land a hit at the killer",
    "icon": "https://steamcdn-a.akamaihd.net/steamcommunity/public/images/apps/792670/",
    "icongray": "https://steamcdn-a.akamaihd.net/steamcommunity/public/images/apps/792670/0672479911f55916dc7f5e5d335bde9b7c25f83d.jpg"
  },
  {
    "name": "ACH_DEATH_CAR",
    "defaultvalue": 0,
    "displayName": "Hope for rescue?",
    "hidden": 1,
    "icon": "https://steamcdn-a.akamaihd.net/steamcommunity/public/images/apps/792670/",
    "icongray": "https://steamcdn-a.akamaihd.net/steamcommunity/public/images/apps/792670/0672479911f55916dc7f5e5d335bde9b7c25f83d.jpg"
  },
  {
    "name": "ACH_PSYCH_FINAL",
    "defaultvalue": 0,
    "displayName": "Hello Darkness, my old friend!",
    "hidden": 1,
    "icon": "https://steamcdn-a.akamaihd.net/steamcommunity/public/images/apps/792670/",
    "icongray": "https://steamcdn-a.akamaihd.net/steamcommunity/public/images/apps/792670/0672479911f55916dc7f5e5d335bde9b7c25f83d.jpg"
  },
  {
    "name": "ACH_ALMOST_OUT",
    "defaultvalue": 0,
    "displayName": "Almost Out!",
    "hidden": 1,
    "icon": "https://steamcdn-a.akamaihd.net/steamcommunity/public/images/apps/792670/",
    "icongray": "https://steamcdn-a.akamaihd.net/steamcommunity/public/images/apps/792670/0672479911f55916dc7f5e5d335bde9b7c25f83d.jpg"
  },
  {
    "name": "ACH_YOURSELF_KILL",
    "defaultvalue": 0,
    "displayName": "Die alone, live alone!",
    "hidden": 1,
    "icon": "https://steamcdn-a.akamaihd.net/steamcommunity/public/images/apps/792670/",
    "icongray": "https://steamcdn-a.akamaihd.net/steamcommunity/public/images/apps/792670/0672479911f55916dc7f5e5d335bde9b7c25f83d.jpg"
  },
  {
    "name": "ACH_DEC_ALL",
    "defaultvalue": 0,
    "displayName": "Follow the Path",
    "hidden": 1,
    "icon": "https://steamcdn-a.akamaihd.net/steamcommunity/public/images/apps/792670/",
    "icongray": "https://steamcdn-a.akamaihd.net/steamcommunity/public/images/apps/792670/0672479911f55916dc7f5e5d335bde9b7c25f83d.jpg"
  },
  {
    "name": "ACH_DEC_KILL",
    "defaultvalue": 0,
    "displayName": "If I could turn back time",
    "hidden": 1,
    "icon": "https://steamcdn-a.akamaihd.net/steamcommunity/public/images/apps/792670/",
    "icongray": "https://steamcdn-a.akamaihd.net/steamcommunity/public/images/apps/792670/0672479911f55916dc7f5e5d335bde9b7c25f83d.jpg"
  },
  {
    "name": "ACH_END_ONE",
    "defaultvalue": 0,
    "displayName": "Home,Sweet Home!",
    "hidden": 0,
    "description": "Get out of the woods alive",
    "icon": "https://steamcdn-a.akamaihd.net/steamcommunity/public/images/apps/792670/",
    "icongray": "https://steamcdn-a.akamaihd.net/steamcommunity/public/images/apps/792670/0672479911f55916dc7f5e5d335bde9b7c25f83d.jpg"
  },
  {
    "name": "ACH_GUN_YES",
    "defaultvalue": 0,
    "displayName": "Psycho",
    "hidden": 1,
    "icon": "https://steamcdn-a.akamaihd.net/steamcommunity/public/images/apps/792670/",
    "icongray": "https://steamcdn-a.akamaihd.net/steamcommunity/public/images/apps/792670/0672479911f55916dc7f5e5d335bde9b7c25f83d.jpg"
  },
  {
    "name": "ACH_GUN_NO",
    "defaultvalue": 0,
    "displayName": "Road to Recovery",
    "hidden": 1,
    "icon": "https://steamcdn-a.akamaihd.net/steamcommunity/public/images/apps/792670/",
    "icongray": "https://steamcdn-a.akamaihd.net/steamcommunity/public/images/apps/792670/0672479911f55916dc7f5e5d335bde9b7c25f83d.jpg"
  },
  {
    "name": "ACH_POST_CREDITS",
    "defaultvalue": 0,
    "displayName": "Daddy Issues!",
    "hidden": 1,
    "icon": "https://steamcdn-a.akamaihd.net/steamcommunity/public/images/apps/792670/",
    "icongray": "https://steamcdn-a.akamaihd.net/steamcommunity/public/images/apps/792670/0672479911f55916dc7f5e5d335bde9b7c25f83d.jpg"
  },
  {
    "name": "ACH_DEATH_ANNIE",
    "defaultvalue": 0,
    "displayName": "",
    "hidden": 0,
    "description": "Get killed by the killer",
    "icon": "https://steamcdn-a.akamaihd.net/steamcommunity/public/images/apps/792670/",
    "icongray": "https://steamcdn-a.akamaihd.net/steamcommunity/public/images/apps/792670/0672479911f55916dc7f5e5d335bde9b7c25f83d.jpg"
  },
  {
    "name": "ACH_KILL_ANNIE",
    "defaultvalue": 0,
    "displayName": "NEW_ACHIEVEMENT_NAME_8_28",
    "hidden": 0,
    "description": "Kill the killer once!",
    "icon": "https://steamcdn-a.akamaihd.net/steamcommunity/public/images/apps/792670/",
    "icongray": "https://steamcdn-a.akamaihd.net/steamcommunity/public/images/apps/792670/0672479911f55916dc7f5e5d335bde9b7c25f83d.jpg"
  },
  {
    "name": "ACH_ANNIE_STAGES",
    "defaultvalue": 0,
    "displayName": "Let's Rage!",
    "hidden": 1,
    "icon": "https://steamcdn-a.akamaihd.net/steamcommunity/public/images/apps/792670/",
    "icongray": "https://steamcdn-a.akamaihd.net/steamcommunity/public/images/apps/792670/0672479911f55916dc7f5e5d335bde9b7c25f83d.jpg"
  },
  {
    "name": "ACH_END_KILLED",
    "defaultvalue": 0,
    "displayName": "Don't play with the Death",
    "hidden": 1,
    "icon": "https://steamcdn-a.akamaihd.net/steamcommunity/public/images/apps/792670/",
    "icongray": "https://steamcdn-a.akamaihd.net/steamcommunity/public/images/apps/792670/0672479911f55916dc7f5e5d335bde9b7c25f83d.jpg"
  },
  {
    "name": "ACH_FAIL_QTE",
    "defaultvalue": 0,
    "displayName": "Not fast enough!",
    "hidden": 0,
    "description": "Fail a quick time event",
    "icon": "https://steamcdn-a.akamaihd.net/steamcommunity/public/images/apps/792670/",
    "icongray": "https://steamcdn-a.akamaihd.net/steamcommunity/public/images/apps/792670/0672479911f55916dc7f5e5d335bde9b7c25f83d.jpg"
  },
  {
    "name": "ACH_CAR_CRASH",
    "defaultvalue": 0,
    "displayName": "Did it really happen?",
    "hidden": 1,
    "icon": "https://steamcdn-a.akamaihd.net/steamcommunity/public/images/apps/792670/",
    "icongray": "https://steamcdn-a.akamaihd.net/steamcommunity/public/images/apps/792670/0672479911f55916dc7f5e5d335bde9b7c25f83d.jpg"
  },
  {
    "name": "ACH_BREAK_AXE",
    "defaultvalue": 0,
    "displayName": "Always a way out!",
    "hidden": 1,
    "icon": "https://steamcdn-a.akamaihd.net/steamcommunity/public/images/apps/792670/",
    "icongray": "https://steamcdn-a.akamaihd.net/steamcommunity/public/images/apps/792670/0672479911f55916dc7f5e5d335bde9b7c25f83d.jpg"
  },
  {
    "name": "ACH_BREAK_CROW",
    "defaultvalue": 0,
    "displayName": "Open sesame!",
    "hidden": 1,
    "icon": "https://steamcdn-a.akamaihd.net/steamcommunity/public/images/apps/792670/",
    "icongray": "https://steamcdn-a.akamaihd.net/steamcommunity/public/images/apps/792670/0672479911f55916dc7f5e5d335bde9b7c25f83d.jpg"
  },
  {
    "name": "ACH_YOURSELF_HELP",
    "defaultvalue": 0,
    "displayName": "Subconcious",
    "hidden": 1,
    "icon": "https://steamcdn-a.akamaihd.net/steamcommunity/public/images/apps/792670/",
    "icongray": "https://steamcdn-a.akamaihd.net/steamcommunity/public/images/apps/792670/0672479911f55916dc7f5e5d335bde9b7c25f83d.jpg"
  },
  {
    "name": "ACH_END_SUICIDE",
    "defaultvalue": 0,
    "displayName": "Time to say goodbye!",
    "hidden": 1,
    "icon": "https://steamcdn-a.akamaihd.net/steamcommunity/public/images/apps/792670/",
    "icongray": "https://steamcdn-a.akamaihd.net/steamcommunity/public/images/apps/792670/0672479911f55916dc7f5e5d335bde9b7c25f83d.jpg"
  },
  {
    "name": "ACH_END_PSYCH",
    "defaultvalue": 0,
    "displayName": "Mad Man",
    "hidden": 1,
    "icon": "https://steamcdn-a.akamaihd.net/steamcommunity/public/images/apps/792670/",
    "icongray": "https://steamcdn-a.akamaihd.net/steamcommunity/public/images/apps/792670/0672479911f55916dc7f5e5d335bde9b7c25f83d.jpg"
  }
]