[
  {
    "name": "NEW_ACHIEVEMENT_3_0",
    "defaultvalue": 0,
    "displayName": "NEW_ACHIEVEMENT_NAME_3_0",
    "hidden": 0,
    "description": "NEW_ACHIEVEMENT_DESC_3_0",
    "icon": "https://steamcdn-a.akamaihd.net/steamcommunity/public/images/apps/576370/",
    "icongray": "https://steamcdn-a.akamaihd.net/steamcommunity/public/images/apps/576370/"
  }
]