[
  {
    "name": "SLOP_E3_LIKEBUTTEREDTOAST",
    "defaultvalue": 0,
    "displayName": "Like buttered toast",
    "hidden": 1,
    "icon": "https://steamcdn-a.akamaihd.net/steamcommunity/public/images/apps/336730/257b5875214febeae7cae6407e2c3013dff288ed.jpg",
    "icongray": "https://steamcdn-a.akamaihd.net/steamcommunity/public/images/apps/336730/595fe9f3d135b10fe23dcabaaf06f27768bec8e0.jpg"
  },
  {
    "name": "SLOP_E3_APURPOSEINLIFE",
    "defaultvalue": 0,
    "displayName": "A purpose in life",
    "hidden": 1,
    "icon": "https://steamcdn-a.akamaihd.net/steamcommunity/public/images/apps/336730/257b5875214febeae7cae6407e2c3013dff288ed.jpg",
    "icongray": "https://steamcdn-a.akamaihd.net/steamcommunity/public/images/apps/336730/595fe9f3d135b10fe23dcabaaf06f27768bec8e0.jpg"
  },
  {
    "name": "SLOP_E3_RUSSIANAROUND",
    "defaultvalue": 0,
    "displayName": "Russian around",
    "hidden": 1,
    "icon": "https://steamcdn-a.akamaihd.net/steamcommunity/public/images/apps/336730/e8923daf482c29652080852c94800eff06f5e4f8.jpg",
    "icongray": "https://steamcdn-a.akamaihd.net/steamcommunity/public/images/apps/336730/8e83a10942c10a3a70c03b3c4760a8fa18a41440.jpg"
  },
  {
    "name": "SLOP_E3_THEOLDERWOMAN",
    "defaultvalue": 0,
    "displayName": "The older woman",
    "hidden": 1,
    "icon": "https://steamcdn-a.akamaihd.net/steamcommunity/public/images/apps/336730/e8923daf482c29652080852c94800eff06f5e4f8.jpg",
    "icongray": "https://steamcdn-a.akamaihd.net/steamcommunity/public/images/apps/336730/8e83a10942c10a3a70c03b3c4760a8fa18a41440.jpg"
  },
  {
    "name": "SLOP_E3_SCOPINGTHINGSOUT",
    "defaultvalue": 0,
    "displayName": "Scoping things out",
    "hidden": 1,
    "icon": "https://steamcdn-a.akamaihd.net/steamcommunity/public/images/apps/336730/f3ef69d6cf55f3a04592724c28a1c3f4eff07bdb.jpg",
    "icongray": "https://steamcdn-a.akamaihd.net/steamcommunity/public/images/apps/336730/107dc184ff6c8a2b939e8e76dae07fba4efdd6e2.jpg"
  },
  {
    "name": "SLOP_E3_NOTBACON",
    "defaultvalue": 0,
    "displayName": "Not bacon",
    "hidden": 1,
    "icon": "https://steamcdn-a.akamaihd.net/steamcommunity/public/images/apps/336730/ba21f21fe710cdd59a0ccf44b9e311854d16dc6e.jpg",
    "icongray": "https://steamcdn-a.akamaihd.net/steamcommunity/public/images/apps/336730/19b23315523cf2870963013879e5a3f6fcb26182.jpg"
  },
  {
    "name": "SLOP_E3_DEALINGWITHTHINGS",
    "defaultvalue": 0,
    "displayName": "Dealing with things",
    "hidden": 1,
    "icon": "https://steamcdn-a.akamaihd.net/steamcommunity/public/images/apps/336730/ba21f21fe710cdd59a0ccf44b9e311854d16dc6e.jpg",
    "icongray": "https://steamcdn-a.akamaihd.net/steamcommunity/public/images/apps/336730/19b23315523cf2870963013879e5a3f6fcb26182.jpg"
  },
  {
    "name": "SLOP_E3_WEARAWHITEHAT",
    "defaultvalue": 0,
    "displayName": "Wear a white hat",
    "hidden": 1,
    "icon": "https://steamcdn-a.akamaihd.net/steamcommunity/public/images/apps/336730/18785252ca53cc42cfdd4e06f2f37bf5329063cc.jpg",
    "icongray": "https://steamcdn-a.akamaihd.net/steamcommunity/public/images/apps/336730/e775555ac9c5a34da7ccd6153471c51a4159f90b.jpg"
  },
  {
    "name": "SLOP_E3_SURPRISEATTACK",
    "defaultvalue": 0,
    "displayName": "Surprise attack",
    "hidden": 1,
    "icon": "https://steamcdn-a.akamaihd.net/steamcommunity/public/images/apps/336730/f3ef69d6cf55f3a04592724c28a1c3f4eff07bdb.jpg",
    "icongray": "https://steamcdn-a.akamaihd.net/steamcommunity/public/images/apps/336730/107dc184ff6c8a2b939e8e76dae07fba4efdd6e2.jpg"
  },
  {
    "name": "SLOP_E3_SMACKDOWN",
    "defaultvalue": 0,
    "displayName": "Smackdown!",
    "hidden": 1,
    "icon": "https://steamcdn-a.akamaihd.net/steamcommunity/public/images/apps/336730/257b5875214febeae7cae6407e2c3013dff288ed.jpg",
    "icongray": "https://steamcdn-a.akamaihd.net/steamcommunity/public/images/apps/336730/595fe9f3d135b10fe23dcabaaf06f27768bec8e0.jpg"
  },
  {
    "name": "SLOP_E3_ITSGETTINGHOTINHERE",
    "defaultvalue": 0,
    "displayName": "It's getting hot in here!",
    "hidden": 1,
    "icon": "https://steamcdn-a.akamaihd.net/steamcommunity/public/images/apps/336730/257b5875214febeae7cae6407e2c3013dff288ed.jpg",
    "icongray": "https://steamcdn-a.akamaihd.net/steamcommunity/public/images/apps/336730/595fe9f3d135b10fe23dcabaaf06f27768bec8e0.jpg"
  },
  {
    "name": "SLOP_E3_ELASTICFANTASTIC",
    "defaultvalue": 0,
    "displayName": "Elastic fantastic",
    "hidden": 1,
    "icon": "https://steamcdn-a.akamaihd.net/steamcommunity/public/images/apps/336730/257b5875214febeae7cae6407e2c3013dff288ed.jpg",
    "icongray": "https://steamcdn-a.akamaihd.net/steamcommunity/public/images/apps/336730/595fe9f3d135b10fe23dcabaaf06f27768bec8e0.jpg"
  },
  {
    "name": "SLOP_E3_YIPPEEKIYAY",
    "defaultvalue": 0,
    "displayName": "Yippee ki yay",
    "hidden": 1,
    "icon": "https://steamcdn-a.akamaihd.net/steamcommunity/public/images/apps/336730/18785252ca53cc42cfdd4e06f2f37bf5329063cc.jpg",
    "icongray": "https://steamcdn-a.akamaihd.net/steamcommunity/public/images/apps/336730/e775555ac9c5a34da7ccd6153471c51a4159f90b.jpg"
  },
  {
    "name": "SLOP_E3_MIXEDSIGNALS",
    "defaultvalue": 0,
    "displayName": "Mixed signals",
    "hidden": 1,
    "icon": "https://steamcdn-a.akamaihd.net/steamcommunity/public/images/apps/336730/257b5875214febeae7cae6407e2c3013dff288ed.jpg",
    "icongray": "https://steamcdn-a.akamaihd.net/steamcommunity/public/images/apps/336730/595fe9f3d135b10fe23dcabaaf06f27768bec8e0.jpg"
  },
  {
    "name": "SLOP_E3_MAKINGFRIENDS",
    "defaultvalue": 0,
    "displayName": "Making friends",
    "hidden": 1,
    "icon": "https://steamcdn-a.akamaihd.net/steamcommunity/public/images/apps/336730/e8923daf482c29652080852c94800eff06f5e4f8.jpg",
    "icongray": "https://steamcdn-a.akamaihd.net/steamcommunity/public/images/apps/336730/8e83a10942c10a3a70c03b3c4760a8fa18a41440.jpg"
  },
  {
    "name": "SLOP_E3_HEISTSOCIETY",
    "defaultvalue": 0,
    "displayName": "Heist society",
    "hidden": 1,
    "icon": "https://steamcdn-a.akamaihd.net/steamcommunity/public/images/apps/336730/257b5875214febeae7cae6407e2c3013dff288ed.jpg",
    "icongray": "https://steamcdn-a.akamaihd.net/steamcommunity/public/images/apps/336730/595fe9f3d135b10fe23dcabaaf06f27768bec8e0.jpg"
  },
  {
    "name": "SLOP_E3_ICECOLDINELLIS",
    "defaultvalue": 0,
    "displayName": "Ice Cold in Ellis",
    "hidden": 1,
    "icon": "https://steamcdn-a.akamaihd.net/steamcommunity/public/images/apps/336730/aa4d19df9a78ac46214c8ee0edca94b0dbbdbbfa.jpg",
    "icongray": "https://steamcdn-a.akamaihd.net/steamcommunity/public/images/apps/336730/58209b70bc9462526bc6f458089ed893e68f43d2.jpg"
  },
  {
    "name": "SLOP_E3_FREEFALLING",
    "defaultvalue": 0,
    "displayName": "Freefalling...",
    "hidden": 1,
    "icon": "https://steamcdn-a.akamaihd.net/steamcommunity/public/images/apps/336730/aa4d19df9a78ac46214c8ee0edca94b0dbbdbbfa.jpg",
    "icongray": "https://steamcdn-a.akamaihd.net/steamcommunity/public/images/apps/336730/58209b70bc9462526bc6f458089ed893e68f43d2.jpg"
  },
  {
    "name": "SLOP_E3_YEOFLITTLEBRAIN",
    "defaultvalue": 0,
    "displayName": "Ye of little brain",
    "hidden": 1,
    "icon": "https://steamcdn-a.akamaihd.net/steamcommunity/public/images/apps/336730/aa4d19df9a78ac46214c8ee0edca94b0dbbdbbfa.jpg",
    "icongray": "https://steamcdn-a.akamaihd.net/steamcommunity/public/images/apps/336730/58209b70bc9462526bc6f458089ed893e68f43d2.jpg"
  },
  {
    "name": "SLOP_E3_OFNONHUMANBONDAGE",
    "defaultvalue": 0,
    "displayName": "Of non-human bondage",
    "hidden": 1,
    "icon": "https://steamcdn-a.akamaihd.net/steamcommunity/public/images/apps/336730/257b5875214febeae7cae6407e2c3013dff288ed.jpg",
    "icongray": "https://steamcdn-a.akamaihd.net/steamcommunity/public/images/apps/336730/595fe9f3d135b10fe23dcabaaf06f27768bec8e0.jpg"
  },
  {
    "name": "SLOP_E3_WITHALITTLEHELPFROMMYFRIENDS",
    "defaultvalue": 0,
    "displayName": "With a little help from my friends",
    "hidden": 1,
    "icon": "https://steamcdn-a.akamaihd.net/steamcommunity/public/images/apps/336730/18785252ca53cc42cfdd4e06f2f37bf5329063cc.jpg",
    "icongray": "https://steamcdn-a.akamaihd.net/steamcommunity/public/images/apps/336730/e775555ac9c5a34da7ccd6153471c51a4159f90b.jpg"
  },
  {
    "name": "SLOP_E3_WITHPREJUDICE",
    "defaultvalue": 0,
    "displayName": "With prejudice",
    "hidden": 1,
    "icon": "https://steamcdn-a.akamaihd.net/steamcommunity/public/images/apps/336730/257b5875214febeae7cae6407e2c3013dff288ed.jpg",
    "icongray": "https://steamcdn-a.akamaihd.net/steamcommunity/public/images/apps/336730/595fe9f3d135b10fe23dcabaaf06f27768bec8e0.jpg"
  }
]