{
  "Dlcs": {},
  "Name": "Survival Planet",
  "AppId": "807870",
  "ImageUrl": "https://steamcdn-a.akamaihd.net/steam/apps/807870/header.jpg?t=1530346008",
  "Languages": [
    "english"
  ],
  "Platforms": {
    "windows": true,
    "mac": false,
    "linux": false
  }
}