{
  "Name": "Blender Character Rigging for Beginners HD: Bones with Constraints - Part 8",
  "ImageUrl": "https://steamcdn-a.akamaihd.net/steam/apps/831226/header.jpg?t=1522185428",
  "Type": "episode"
}