﻿[
  {
    "name": "100Moves",
    "defaultvalue": 0,
    "displayName": "Warm-Up",
    "hidden": 0,
    "description": "Make 100 moves",
    "icon": "https://steamcdn-a.akamaihd.net/steamcommunity/public/images/apps/631660/eed1fe2bd0cf3e4ef7f2903cb7e31e7ad5ac83b4.jpg",
    "icongray": "https://steamcdn-a.akamaihd.net/steamcommunity/public/images/apps/631660/d540a728d0a99fbd2b977e1c6c1a39d4c2b60aaf.jpg"
  },
  {
    "name": "1000Moves",
    "defaultvalue": 0,
    "displayName": "Walker",
    "hidden": 0,
    "description": "Make 1000 moves",
    "icon": "https://steamcdn-a.akamaihd.net/steamcommunity/public/images/apps/631660/a60b49e90365c0eea87da6b85605801699a2f4c3.jpg",
    "icongray": "https://steamcdn-a.akamaihd.net/steamcommunity/public/images/apps/631660/fb7af935d755484a5a4cea42d66800debc4850ba.jpg"
  },
  {
    "name": "10000Moves",
    "defaultvalue": 0,
    "displayName": "Wanderer",
    "hidden": 0,
    "description": "Make 10 000 moves",
    "icon": "https://steamcdn-a.akamaihd.net/steamcommunity/public/images/apps/631660/990eff80ad10e9c5c2f4532ee4a93dab2d7b19bd.jpg",
    "icongray": "https://steamcdn-a.akamaihd.net/steamcommunity/public/images/apps/631660/0abc52876f7d2de89d3e89adca1fc0baa652bfd6.jpg"
  },
  {
    "name": "Promotion",
    "defaultvalue": 0,
    "displayName": "Brave Pawn",
    "hidden": 0,
    "description": "Advance a pawn to the last rank",
    "icon": "https://steamcdn-a.akamaihd.net/steamcommunity/public/images/apps/631660/b6d1a097dc5e14b091a48d631423b616b59324dc.jpg",
    "icongray": "https://steamcdn-a.akamaihd.net/steamcommunity/public/images/apps/631660/9b5e842610d4a4b47d5881caf611d5539e3387f9.jpg"
  },
  {
    "name": "EnPassant",
    "defaultvalue": 0,
    "displayName": "En Passant",
    "hidden": 0,
    "description": "Make an en passant capture",
    "icon": "https://steamcdn-a.akamaihd.net/steamcommunity/public/images/apps/631660/fa7597dfe36ab8c04e78703dfbf85c40194d73e5.jpg",
    "icongray": "https://steamcdn-a.akamaihd.net/steamcommunity/public/images/apps/631660/3c3729276c7db0016b52fa0fe41093d5470446ad.jpg"
  },
  {
    "name": "1stOnlineGame",
    "defaultvalue": 0,
    "displayName": "Online Player",
    "hidden": 0,
    "description": "First multiplayer game",
    "icon": "https://steamcdn-a.akamaihd.net/steamcommunity/public/images/apps/631660/46f63bdf48c1b60df07c2da4f539b68aeb3440fd.jpg",
    "icongray": "https://steamcdn-a.akamaihd.net/steamcommunity/public/images/apps/631660/53ee1c6b8383ef4ce6a48664c4929707745a7341.jpg"
  },
  {
    "name": "10OnlineGames",
    "defaultvalue": 0,
    "displayName": "Competitive",
    "hidden": 0,
    "description": "Finish 10 Online Games",
    "icon": "https://steamcdn-a.akamaihd.net/steamcommunity/public/images/apps/631660/e305767e70f88d6cfbfb5453be27dc99acf2902a.jpg",
    "icongray": "https://steamcdn-a.akamaihd.net/steamcommunity/public/images/apps/631660/4f40dcda52ecbfa438fb93cc4061493642aa3c97.jpg"
  },
  {
    "name": "100OnlineGames",
    "defaultvalue": 0,
    "displayName": "Spider's Web",
    "hidden": 0,
    "description": "Finish 100 Online Games",
    "icon": "https://steamcdn-a.akamaihd.net/steamcommunity/public/images/apps/631660/c88ec7158ff9faf2e3f3b621cb08f2ef597b7d0a.jpg",
    "icongray": "https://steamcdn-a.akamaihd.net/steamcommunity/public/images/apps/631660/07a834ca74765aa15e23d0c1b43b056313abcc9c.jpg"
  },
  {
    "name": "lvl1",
    "defaultvalue": 0,
    "displayName": "First Step",
    "hidden": 0,
    "description": "Defeat level 1 AI",
    "icon": "https://steamcdn-a.akamaihd.net/steamcommunity/public/images/apps/631660/a98b6a69d0cd96eef1403dbe259749e478164f81.jpg",
    "icongray": "https://steamcdn-a.akamaihd.net/steamcommunity/public/images/apps/631660/6f4621e913800eb735ee830df9307f5a6984b7c8.jpg"
  },
  {
    "name": "lvl2",
    "defaultvalue": 0,
    "displayName": "Basic Understanding",
    "hidden": 0,
    "description": "Defeat level 2 AI",
    "icon": "https://steamcdn-a.akamaihd.net/steamcommunity/public/images/apps/631660/4e88a3c541d1b6918a3972d48159cf52b66ffc05.jpg",
    "icongray": "https://steamcdn-a.akamaihd.net/steamcommunity/public/images/apps/631660/aecb195d20078fd3b5aece049e5d463e12ddf32a.jpg"
  },
  {
    "name": "lvl3",
    "defaultvalue": 0,
    "displayName": "Progression",
    "hidden": 0,
    "description": "Defeat level 3 AI",
    "icon": "https://steamcdn-a.akamaihd.net/steamcommunity/public/images/apps/631660/527c54c5b9aef4abb64f7ee3b62c2910b1cca8b9.jpg",
    "icongray": "https://steamcdn-a.akamaihd.net/steamcommunity/public/images/apps/631660/2b3c495d3225ea2495b8bdf108e871fbc2067b52.jpg"
  },
  {
    "name": "lvl4",
    "defaultvalue": 0,
    "displayName": "Bigger Gun",
    "hidden": 0,
    "description": "Defeat level 4 AI",
    "icon": "https://steamcdn-a.akamaihd.net/steamcommunity/public/images/apps/631660/ddeb7d610274b81e2a603d5995c3ac9b93be0a7f.jpg",
    "icongray": "https://steamcdn-a.akamaihd.net/steamcommunity/public/images/apps/631660/327dfdde5d1ddffd0ef0818669d63d95e2116d80.jpg"
  },
  {
    "name": "lvl5",
    "defaultvalue": 0,
    "displayName": "Scholar",
    "hidden": 0,
    "description": "Defeat level 5 AI",
    "icon": "https://steamcdn-a.akamaihd.net/steamcommunity/public/images/apps/631660/51c8ec787a25aec5522ac7e1a854971b797588c8.jpg",
    "icongray": "https://steamcdn-a.akamaihd.net/steamcommunity/public/images/apps/631660/f80f97329d01d9a6375fa3e0a28724e39c297c2d.jpg"
  },
  {
    "name": "lvl6",
    "defaultvalue": 0,
    "displayName": "Brainiac",
    "hidden": 0,
    "description": "Defeat level 6 AI",
    "icon": "https://steamcdn-a.akamaihd.net/steamcommunity/public/images/apps/631660/6618a40a570385cdf52b006dd45e7bd4e71524a3.jpg",
    "icongray": "https://steamcdn-a.akamaihd.net/steamcommunity/public/images/apps/631660/63670be4234ea4af946a514cb942e76507ebdb06.jpg"
  },
  {
    "name": "lvl7",
    "defaultvalue": 0,
    "displayName": "Master Candidate",
    "hidden": 0,
    "description": "Defeat level 7 AI",
    "icon": "https://steamcdn-a.akamaihd.net/steamcommunity/public/images/apps/631660/f3ff4e82cad0c0f87b1f32113a7de7662f41ce56.jpg",
    "icongray": "https://steamcdn-a.akamaihd.net/steamcommunity/public/images/apps/631660/90990a465de450371c632175c03bb5b3b924cd07.jpg"
  },
  {
    "name": "lvl8",
    "defaultvalue": 0,
    "displayName": "Machine Breaker",
    "hidden": 0,
    "description": "Defeat level 8 AI",
    "icon": "https://steamcdn-a.akamaihd.net/steamcommunity/public/images/apps/631660/2aadf1499a5f2bb6d025afd9ac0f353d26ef298e.jpg",
    "icongray": "https://steamcdn-a.akamaihd.net/steamcommunity/public/images/apps/631660/4eb1322db7eaadc8190a6934bb92a932404d989d.jpg"
  },
  {
    "name": "lvl9",
    "defaultvalue": 0,
    "displayName": "Cyborg",
    "hidden": 0,
    "description": "Defeat level 9 AI",
    "icon": "https://steamcdn-a.akamaihd.net/steamcommunity/public/images/apps/631660/d83b7b3de1be43ecfa96f6b0f9ce9eedc2251881.jpg",
    "icongray": "https://steamcdn-a.akamaihd.net/steamcommunity/public/images/apps/631660/b918d2b4298aada2833d12214b3a8afd2c8eb72f.jpg"
  },
  {
    "name": "lvl10",
    "defaultvalue": 0,
    "displayName": "The Greatest Mind",
    "hidden": 0,
    "description": "Defeat level 10 AI",
    "icon": "https://steamcdn-a.akamaihd.net/steamcommunity/public/images/apps/631660/dbf395b1a49b792da65d5019f3a703a935990d4e.jpg",
    "icongray": "https://steamcdn-a.akamaihd.net/steamcommunity/public/images/apps/631660/a3d12a6d148013bed8fa9910632f5799f3ad30fa.jpg"
  },
  {
    "name": "DrawAgreed",
    "defaultvalue": 0,
    "displayName": "Peace Maker",
    "hidden": 0,
    "description": "Draw by an agreement",
    "icon": "https://steamcdn-a.akamaihd.net/steamcommunity/public/images/apps/631660/3ba5b6e8cb2db18fa0eb0e25264484c8a818cdd6.jpg",
    "icongray": "https://steamcdn-a.akamaihd.net/steamcommunity/public/images/apps/631660/3b3f6cbd35b340cbb868b48c79e6a6ad3fc2b245.jpg"
  },
  {
    "name": "10Mates",
    "defaultvalue": 0,
    "displayName": "Hunter",
    "hidden": 0,
    "description": "Achieve 10 Checkmates",
    "icon": "https://steamcdn-a.akamaihd.net/steamcommunity/public/images/apps/631660/6d5e3f145310201b1cd43d61c5b35d4108f93588.jpg",
    "icongray": "https://steamcdn-a.akamaihd.net/steamcommunity/public/images/apps/631660/3affafab2f438b7ea1d82ffba38a3cd7f171b2b3.jpg"
  },
  {
    "name": "FiveSurrenders",
    "defaultvalue": 0,
    "displayName": "Terror",
    "hidden": 0,
    "description": "Force at least five opponents to surrender",
    "icon": "https://steamcdn-a.akamaihd.net/steamcommunity/public/images/apps/631660/da9a04d59e65b85075e5e86adaba67d21f92b224.jpg",
    "icongray": "https://steamcdn-a.akamaihd.net/steamcommunity/public/images/apps/631660/2e60d8b6c19a247b02c8de13efa6244573870a96.jpg"
  },
  {
    "name": "WinOnTime",
    "defaultvalue": 0,
    "displayName": "Watchmaker",
    "hidden": 0,
    "description": "Win a game on time",
    "icon": "https://steamcdn-a.akamaihd.net/steamcommunity/public/images/apps/631660/dc65838d433c0f27a62a9ca9e6c87ff99128cfc0.jpg",
    "icongray": "https://steamcdn-a.akamaihd.net/steamcommunity/public/images/apps/631660/9b4064e2b60a724e20cb63277014ed4e584d0029.jpg"
  },
  {
    "name": "MateByKing",
    "defaultvalue": 0,
    "displayName": "Surprise",
    "hidden": 0,
    "description": "Achive checkmate after moving King",
    "icon": "https://steamcdn-a.akamaihd.net/steamcommunity/public/images/apps/631660/b290d3a7ee15dfde37a41a25f6ccb5d24f6486e9.jpg",
    "icongray": "https://steamcdn-a.akamaihd.net/steamcommunity/public/images/apps/631660/31b28e443b1cd648d9b66a916da4af6347c0c9fa.jpg"
  },
  {
    "name": "MateByBishop",
    "defaultvalue": 0,
    "displayName": "Archer",
    "hidden": 0,
    "description": "Achieve checkmate after moving bishop",
    "icon": "https://steamcdn-a.akamaihd.net/steamcommunity/public/images/apps/631660/5ed97ada9ca7f4e9100b4364e5061734bde5fb1f.jpg",
    "icongray": "https://steamcdn-a.akamaihd.net/steamcommunity/public/images/apps/631660/8cdd7bda49191ae8c5bde5c63b96aac7e0ae5ad2.jpg"
  },
  {
    "name": "MateByKnight",
    "defaultvalue": 0,
    "displayName": "Trojan Horse",
    "hidden": 0,
    "description": "Achieve checkmate after moving Knight",
    "icon": "https://steamcdn-a.akamaihd.net/steamcommunity/public/images/apps/631660/ed51c8a3e05cc301bd8ee3ab407ed20c14825b39.jpg",
    "icongray": "https://steamcdn-a.akamaihd.net/steamcommunity/public/images/apps/631660/5a815bfd8eaaf061d54620100269fadc18518f72.jpg"
  },
  {
    "name": "MateByPawn",
    "defaultvalue": 0,
    "displayName": "Little Warrior",
    "hidden": 0,
    "description": "Achieve checkmate after moving pawn",
    "icon": "https://steamcdn-a.akamaihd.net/steamcommunity/public/images/apps/631660/8a607e2799b24e22f4e08858acb3d35ecc794789.jpg",
    "icongray": "https://steamcdn-a.akamaihd.net/steamcommunity/public/images/apps/631660/058883b3d76a56984ccec1cde75fc37b00ba8822.jpg"
  },
  {
    "name": "Butcher",
    "defaultvalue": 0,
    "displayName": "Butcher",
    "hidden": 0,
    "description": "Capture 100 knights",
    "icon": "https://steamcdn-a.akamaihd.net/steamcommunity/public/images/apps/631660/c96cc0c179342bd3cad72eed22156834d3c98f9c.jpg",
    "icongray": "https://steamcdn-a.akamaihd.net/steamcommunity/public/images/apps/631660/caf0f43bd2f76d97c5d03287598bbc4b75931c34.jpg"
  },
  {
    "name": "KnightAllSquares",
    "defaultvalue": 0,
    "displayName": "Knight Globtroter",
    "hidden": 0,
    "description": "Visit all squares using Knights",
    "icon": "https://steamcdn-a.akamaihd.net/steamcommunity/public/images/apps/631660/01feeffeb1f63df34cfa8b1ca7120b542584b1d3.jpg",
    "icongray": "https://steamcdn-a.akamaihd.net/steamcommunity/public/images/apps/631660/bdfc3f34af247a86980f9194855dab44daeee18c.jpg"
  },
  {
    "name": "KingAllSquares",
    "defaultvalue": 0,
    "displayName": "King Globtroter",
    "hidden": 0,
    "description": "Visit all squares using King",
    "icon": "https://steamcdn-a.akamaihd.net/steamcommunity/public/images/apps/631660/6d64825647bfdadbcbf657c80bba5895982c21fa.jpg",
    "icongray": "https://steamcdn-a.akamaihd.net/steamcommunity/public/images/apps/631660/c2f84a74e0984605a0941d8504902643029a4817.jpg"
  }
]