[
  {
    "name": "ach_beginner_guide",
    "defaultvalue": 0,
    "displayName": "Beginner's Guide to Scientific Method",
    "hidden": 1,
    "icon": "https://steamcdn-a.akamaihd.net/steamcommunity/public/images/apps/352210/a49fe90fba74cc8cdb39055154115fb4c4b67f72.jpg",
    "icongray": "https://steamcdn-a.akamaihd.net/steamcommunity/public/images/apps/352210/8814321d2ffba0f81ace8701e0fbf285581e64b8.jpg"
  },
  {
    "name": "ach_safety_rules",
    "defaultvalue": 0,
    "displayName": "Lab Safety Rules",
    "hidden": 0,
    "description": "Detonate 5 White cells",
    "icon": "https://steamcdn-a.akamaihd.net/steamcommunity/public/images/apps/352210/fa14b01668bb4080510fae6c3bf73d4f23cd741e.jpg",
    "icongray": "https://steamcdn-a.akamaihd.net/steamcommunity/public/images/apps/352210/29dbbc7f55e1e36ff30027a33b1717714988d8ba.jpg"
  },
  {
    "name": "ach_leucocyte_keeper",
    "defaultvalue": 0,
    "displayName": "Leucocyte Keeper",
    "hidden": 1,
    "icon": "https://steamcdn-a.akamaihd.net/steamcommunity/public/images/apps/352210/5da389c4b710c653136a153c6a78b8d917a2987d.jpg",
    "icongray": "https://steamcdn-a.akamaihd.net/steamcommunity/public/images/apps/352210/9c7ed86a85557c4370c9fb66680ffa2439c436ad.jpg"
  },
  {
    "name": "ach_double_proof",
    "defaultvalue": 0,
    "displayName": "Quintuple Proof",
    "hidden": 0,
    "description": "Reach a x9 multiplier 5 times during a single game",
    "icon": "https://steamcdn-a.akamaihd.net/steamcommunity/public/images/apps/352210/d139018222a95b4fedc3590f23d2283d691a06de.jpg",
    "icongray": "https://steamcdn-a.akamaihd.net/steamcommunity/public/images/apps/352210/e7463fe9cbdfc0ce990772da8d690407dae9e931.jpg"
  },
  {
    "name": "ach_junior_scientist",
    "defaultvalue": 0,
    "displayName": "Junior Scientist",
    "hidden": 0,
    "description": "Play 10 games",
    "icon": "https://steamcdn-a.akamaihd.net/steamcommunity/public/images/apps/352210/6cbc59b9ae1a4b604e58f72187036516b8014ea0.jpg",
    "icongray": "https://steamcdn-a.akamaihd.net/steamcommunity/public/images/apps/352210/e800569a9ad1be8fbdb8b47c0f1726643814a188.jpg"
  },
  {
    "name": "ach_scientific_commitment",
    "defaultvalue": 0,
    "displayName": "Scientific Commitment",
    "hidden": 0,
    "description": "Play 100 games",
    "icon": "https://steamcdn-a.akamaihd.net/steamcommunity/public/images/apps/352210/85f7889f614b33baa807e60f162deeb556b61583.jpg",
    "icongray": "https://steamcdn-a.akamaihd.net/steamcommunity/public/images/apps/352210/c2c8e02ff21652126d7b1c221e1a039737669523.jpg"
  },
  {
    "name": "ach_over_9000",
    "defaultvalue": 0,
    "displayName": "It's Over 9000",
    "hidden": 0,
    "description": "Reach 9 000 points in a single game",
    "icon": "https://steamcdn-a.akamaihd.net/steamcommunity/public/images/apps/352210/683a107ff1050341ba46dc87d108c578e6685d3d.jpg",
    "icongray": "https://steamcdn-a.akamaihd.net/steamcommunity/public/images/apps/352210/e8e67bda64273aa50764d968a0d4f568f230c4fe.jpg"
  },
  {
    "name": "ach_scrubs_on",
    "defaultvalue": 0,
    "displayName": "Put Your Scrubs On",
    "hidden": 0,
    "description": "Score 5000 points between two White cell uses",
    "icon": "https://steamcdn-a.akamaihd.net/steamcommunity/public/images/apps/352210/56fb7ef50666d92a74280d7abc8525e0d2999d5b.jpg",
    "icongray": "https://steamcdn-a.akamaihd.net/steamcommunity/public/images/apps/352210/184ca56891bf922d984ff2d49c38f7d664bf170a.jpg"
  },
  {
    "name": "ach_blue",
    "defaultvalue": 0,
    "displayName": "Blue Like a T1Cu",
    "hidden": 0,
    "description": "Kill 0000FF Blue cells",
    "icon": "https://steamcdn-a.akamaihd.net/steamcommunity/public/images/apps/352210/f60aa87571ba43e27402565d9677df2f652182ba.jpg",
    "icongray": "https://steamcdn-a.akamaihd.net/steamcommunity/public/images/apps/352210/2f1be382cb0f58531b9c030ddb789046e9df80a5.jpg"
  },
  {
    "name": "ach_charm_quark",
    "defaultvalue": 0,
    "displayName": "Charm Quark",
    "hidden": 0,
    "description": "Kill 1974 Dark cells",
    "icon": "https://steamcdn-a.akamaihd.net/steamcommunity/public/images/apps/352210/ecbe6b198f75eaf261259544332f40e88c5875fd.jpg",
    "icongray": "https://steamcdn-a.akamaihd.net/steamcommunity/public/images/apps/352210/35549baedf45b585e7561101d24fe272bf9966b9.jpg"
  },
  {
    "name": "ach_white_wizard",
    "defaultvalue": 0,
    "displayName": "White Wizard",
    "hidden": 0,
    "description": "Create 1954 White cells",
    "icon": "https://steamcdn-a.akamaihd.net/steamcommunity/public/images/apps/352210/6047370bc04c36f6849788c7924923f7b70c5912.jpg",
    "icongray": "https://steamcdn-a.akamaihd.net/steamcommunity/public/images/apps/352210/5429312cd4c75f0d41fc50debd36fff917f97f3f.jpg"
  },
  {
    "name": "ach_180000",
    "defaultvalue": 0,
    "displayName": "Captain Ginyu’s Reading",
    "hidden": 0,
    "description": "Accumulate 180 000 points",
    "icon": "https://steamcdn-a.akamaihd.net/steamcommunity/public/images/apps/352210/adb7060a7dc6df7e1bcfcad46c9e311c61c9a330.jpg",
    "icongray": "https://steamcdn-a.akamaihd.net/steamcommunity/public/images/apps/352210/86a1bb27c161daeef39d79bab39c9f8fd14400a4.jpg"
  },
  {
    "name": "ach_lab_coat",
    "defaultvalue": 0,
    "displayName": "Lab Coat",
    "hidden": 0,
    "description": "Clear the screen 5 times in a single game",
    "icon": "https://steamcdn-a.akamaihd.net/steamcommunity/public/images/apps/352210/d4f3653af9c4c49acd40b209d34fbbffdcec27ea.jpg",
    "icongray": "https://steamcdn-a.akamaihd.net/steamcommunity/public/images/apps/352210/26b920bfa1ac4adda536765e6936b23fd581bae6.jpg"
  },
  {
    "name": "ach_bad_experiment",
    "defaultvalue": 0,
    "displayName": "Bad Experiment",
    "hidden": 1,
    "icon": "https://steamcdn-a.akamaihd.net/steamcommunity/public/images/apps/352210/4651947588afe0453ed1cc4b7c78ab1128c861a8.jpg",
    "icongray": "https://steamcdn-a.akamaihd.net/steamcommunity/public/images/apps/352210/92155fa70764e9f3575155ecab9453bd48b3c3f3.jpg"
  },
  {
    "name": "ach_no_grey_matter",
    "defaultvalue": 0,
    "displayName": "No Grey Matter",
    "hidden": 1,
    "icon": "https://steamcdn-a.akamaihd.net/steamcommunity/public/images/apps/352210/c8b1b7a497bcca9e10873673483531c2178a6e88.jpg",
    "icongray": "https://steamcdn-a.akamaihd.net/steamcommunity/public/images/apps/352210/9504be396cc816a50d77c007d864085138c3fc58.jpg"
  }
]