{
  "Dlcs": {},
  "Name": "学院英雄梦 HeroDreamOfSchool",
  "AppId": "1003530",
  "ImageUrl": "https://steamcdn-a.akamaihd.net/steam/apps/1003530/header.jpg?t=1548581902",
  "Languages": [
    "schinese"
  ],
  "Platforms": {
    "windows": true,
    "mac": false,
    "linux": false
  }
}