{
  "Dlcs": {},
  "Name": "Mirage of Dragon",
  "AppId": "782380",
  "ImageUrl": "https://steamcdn-a.akamaihd.net/steam/apps/782380/header.jpg?t=1568804056",
  "Languages": [
    "english"
  ],
  "Platforms": {
    "windows": true,
    "mac": false,
    "linux": false
  }
}