[
  {
    "name": "tvpuzzlecomplete",
    "defaultvalue": 0,
    "displayName": "Brushes Complete",
    "hidden": 0,
    "description": "Complete Brushes",
    "icon": "https://steamcdn-a.akamaihd.net/steamcommunity/public/images/apps/1052870/5e5e02f7ecbff320aa13bdb6fc35ad515d3baa92.jpg",
    "icongray": "https://steamcdn-a.akamaihd.net/steamcommunity/public/images/apps/1052870/c5b7a6e65f83e9c546ed3aaaefbe9aac873f2bd2.jpg"
  },
  {
    "name": "completeallpuzzles",
    "defaultvalue": 0,
    "displayName": "All Puzzles Complete",
    "hidden": 0,
    "description": "Complete All Puzzles",
    "icon": "https://steamcdn-a.akamaihd.net/steamcommunity/public/images/apps/1052870/40f547efa5243cced061ad709ac3250f5c6fced6.jpg",
    "icongray": "https://steamcdn-a.akamaihd.net/steamcommunity/public/images/apps/1052870/5578bb54bbadefb748ab036a088dbc175c984dd0.jpg"
  },
  {
    "name": "completepuzzle1",
    "defaultvalue": 0,
    "displayName": "Complete Puzzle Bison",
    "hidden": 0,
    "description": "Bison Puzzle Complete!",
    "icon": "https://steamcdn-a.akamaihd.net/steamcommunity/public/images/apps/1052870/408f3b73f7d2b33a8943c62b5c33384f8398baa8.jpg",
    "icongray": "https://steamcdn-a.akamaihd.net/steamcommunity/public/images/apps/1052870/ba2a6a29456a2e29b821a72adac573b5cd61eadc.jpg"
  },
  {
    "name": "completepuzzle2",
    "defaultvalue": 0,
    "displayName": "Complete Puzzle Niagara Falls",
    "hidden": 0,
    "description": "Niagara Falls Puzzle Complete!",
    "icon": "https://steamcdn-a.akamaihd.net/steamcommunity/public/images/apps/1052870/919c67f5458cc9060fb0a6eaa51586ccd626f8da.jpg",
    "icongray": "https://steamcdn-a.akamaihd.net/steamcommunity/public/images/apps/1052870/48b419d7b99831c2c0558fe563e5cff629b48a7b.jpg"
  },
  {
    "name": "completepuzzle3",
    "defaultvalue": 0,
    "displayName": "Complete Puzzle Fall of Icarus",
    "hidden": 0,
    "description": "Fall of Icarus Puzzle Complete!",
    "icon": "https://steamcdn-a.akamaihd.net/steamcommunity/public/images/apps/1052870/4e59fd0b0b018302c1ac1c1eef4cd2336586ed4f.jpg",
    "icongray": "https://steamcdn-a.akamaihd.net/steamcommunity/public/images/apps/1052870/7a126d44f601e0b92be15d57977c65d135824f56.jpg"
  },
  {
    "name": "completepuzzle4",
    "defaultvalue": 0,
    "displayName": "Complete Puzzle Mad Meg",
    "hidden": 0,
    "description": "Mad Meg Puzzle Complete!",
    "icon": "https://steamcdn-a.akamaihd.net/steamcommunity/public/images/apps/1052870/7b67f8623cff8a108dc505b8e1108f9933ee3e3f.jpg",
    "icongray": "https://steamcdn-a.akamaihd.net/steamcommunity/public/images/apps/1052870/73124c22e4018dacdd8ba228090e54a5f806a18a.jpg"
  },
  {
    "name": "completepuzzle5",
    "defaultvalue": 0,
    "displayName": "Complete Puzzle Pope Pius VII",
    "hidden": 0,
    "description": "Pope Pius VII Puzzle Complete!",
    "icon": "https://steamcdn-a.akamaihd.net/steamcommunity/public/images/apps/1052870/16c5017d98a3cc3e9ff0ad28bf2f1e9d45be5290.jpg",
    "icongray": "https://steamcdn-a.akamaihd.net/steamcommunity/public/images/apps/1052870/d9961edd23d9d52c6aa16d9f750a42339d89d957.jpg"
  },
  {
    "name": "completepuzzle6",
    "defaultvalue": 0,
    "displayName": "Complete Puzzle Battle Scene",
    "hidden": 0,
    "description": "Battle Scene Puzzle Complete!",
    "icon": "https://steamcdn-a.akamaihd.net/steamcommunity/public/images/apps/1052870/fb219cd6421fc4668da9c237152f95b8dc64e00c.jpg",
    "icongray": "https://steamcdn-a.akamaihd.net/steamcommunity/public/images/apps/1052870/21b0f0216825f74a3def70e4d875441f2b9bcfe1.jpg"
  },
  {
    "name": "completepuzzle7",
    "defaultvalue": 0,
    "displayName": "Complete Puzzle Massacre of the Innocents",
    "hidden": 0,
    "description": "Massacre of the Innocents Puzzle Complete!",
    "icon": "https://steamcdn-a.akamaihd.net/steamcommunity/public/images/apps/1052870/e480ffb0a813ceb455b744e4619d67abe93e09ef.jpg",
    "icongray": "https://steamcdn-a.akamaihd.net/steamcommunity/public/images/apps/1052870/428925e3c15dd87e1d2d0bbba001afd595adc247.jpg"
  },
  {
    "name": "completepuzzle8",
    "defaultvalue": 0,
    "displayName": "Complete Puzzle Italian Brigands Surprised",
    "hidden": 0,
    "description": "Italian Brigands Surprised Puzzle Complete!",
    "icon": "https://steamcdn-a.akamaihd.net/steamcommunity/public/images/apps/1052870/0905ed1f7926bcc74945d9026ed621a41bbd8583.jpg",
    "icongray": "https://steamcdn-a.akamaihd.net/steamcommunity/public/images/apps/1052870/6598e2f5776df0213e9c90c7f3aec9b37158c0b9.jpg"
  },
  {
    "name": "completepuzzle9",
    "defaultvalue": 0,
    "displayName": "Complete Puzzle Battle of Crecy Froissart",
    "hidden": 0,
    "description": "Battle of Crecy Froissart Puzzle Complete!",
    "icon": "https://steamcdn-a.akamaihd.net/steamcommunity/public/images/apps/1052870/c1a42a4698c6a05a67b247b901663799e3de114e.jpg",
    "icongray": "https://steamcdn-a.akamaihd.net/steamcommunity/public/images/apps/1052870/dff447d0201c3346beb9831e17b5a50a0b35654b.jpg"
  },
  {
    "name": "completepuzzle11",
    "defaultvalue": 0,
    "displayName": "Complete Puzzle Spring",
    "hidden": 0,
    "description": "Spring Puzzle Complete!",
    "icon": "https://steamcdn-a.akamaihd.net/steamcommunity/public/images/apps/1052870/60a3efbfbed104a3388234675a98011114822bda.jpg",
    "icongray": "https://steamcdn-a.akamaihd.net/steamcommunity/public/images/apps/1052870/eb48b45e4a248c2fee9bce0d22ab595d71ac9f80.jpg"
  },
  {
    "name": "completepuzzle12",
    "defaultvalue": 0,
    "displayName": "Complete Puzzle Battle Before a Walled City",
    "hidden": 0,
    "description": "Battle Before a Walled City Puzzle Complete!",
    "icon": "https://steamcdn-a.akamaihd.net/steamcommunity/public/images/apps/1052870/820f75cacc16f1b2ec0d4fe1c65cb655ab9818ff.jpg",
    "icongray": "https://steamcdn-a.akamaihd.net/steamcommunity/public/images/apps/1052870/38fd2fad1937ad8a2d6e5ff2859d01c07be950bd.jpg"
  },
  {
    "name": "completepuzzle13",
    "defaultvalue": 0,
    "displayName": "Complete Puzzle Bacchanalian",
    "hidden": 0,
    "description": "Bacchanalian Puzzle Complete!",
    "icon": "https://steamcdn-a.akamaihd.net/steamcommunity/public/images/apps/1052870/f5048031a71ff72eedcd8cf07e3d5ce8054cb4b5.jpg",
    "icongray": "https://steamcdn-a.akamaihd.net/steamcommunity/public/images/apps/1052870/d7594c42f30d9a67f8a8bfe5424fb373c50af05c.jpg"
  },
  {
    "name": "completepuzzle14",
    "defaultvalue": 0,
    "displayName": "Complete Puzzle American Gothic",
    "hidden": 0,
    "description": "American Gothic Puzzle Complete!",
    "icon": "https://steamcdn-a.akamaihd.net/steamcommunity/public/images/apps/1052870/a382a1503a5e21e1dfe9d38b25562ab1dd5b0118.jpg",
    "icongray": "https://steamcdn-a.akamaihd.net/steamcommunity/public/images/apps/1052870/98c46128a92a086bdcc85893f9d621ea6399b1b1.jpg"
  },
  {
    "name": "completepuzzle15",
    "defaultvalue": 0,
    "displayName": "Complete Puzzle Death of Nessus ",
    "hidden": 0,
    "description": "Death of Nessus Puzzle Complete!",
    "icon": "https://steamcdn-a.akamaihd.net/steamcommunity/public/images/apps/1052870/6114bb02037bb61a079b2945211c3234ccc6ff9b.jpg",
    "icongray": "https://steamcdn-a.akamaihd.net/steamcommunity/public/images/apps/1052870/26ae5bea9f12a45b64bb530f8e132ea62d789dba.jpg"
  },
  {
    "name": "completepuzzle16",
    "defaultvalue": 0,
    "displayName": "Complete Puzzle Daniel in the Lion's Den",
    "hidden": 0,
    "description": "Daniel in the Lion's Den Puzzle Complete!",
    "icon": "https://steamcdn-a.akamaihd.net/steamcommunity/public/images/apps/1052870/d3340a8132ad6cd2add9149ab48590bd829263eb.jpg",
    "icongray": "https://steamcdn-a.akamaihd.net/steamcommunity/public/images/apps/1052870/ebc622c6771f9e55227dca842e6d5d89fe47b2f4.jpg"
  },
  {
    "name": "completepuzzle17",
    "defaultvalue": 0,
    "displayName": "Complete Puzzle Poker Game",
    "hidden": 0,
    "description": "Poker Game Puzzle Complete!",
    "icon": "https://steamcdn-a.akamaihd.net/steamcommunity/public/images/apps/1052870/1234edebd160a3971c2efc019b065b76d2183c22.jpg",
    "icongray": "https://steamcdn-a.akamaihd.net/steamcommunity/public/images/apps/1052870/1ba4316ee7a4cd44952796e59b32fb87262f1daa.jpg"
  },
  {
    "name": "completepuzzle18",
    "defaultvalue": 0,
    "displayName": "Complete Puzzle The Bird Catchers",
    "hidden": 0,
    "description": "The Bird Catchers Puzzle Complete!",
    "icon": "https://steamcdn-a.akamaihd.net/steamcommunity/public/images/apps/1052870/b26b6b4315a8016783ca6d8865891198a9d91126.jpg",
    "icongray": "https://steamcdn-a.akamaihd.net/steamcommunity/public/images/apps/1052870/bf824697b633e91bb54df427b467bfa99686d939.jpg"
  },
  {
    "name": "completepuzzle19",
    "defaultvalue": 0,
    "displayName": "Complete Puzzle Netherlandish Proverbs",
    "hidden": 0,
    "description": "Netherlandish Proverbs Puzzle Complete!",
    "icon": "https://steamcdn-a.akamaihd.net/steamcommunity/public/images/apps/1052870/49fbf5dbe3668328bb20b88148a6079e46efc512.jpg",
    "icongray": "https://steamcdn-a.akamaihd.net/steamcommunity/public/images/apps/1052870/6a630af4d3849a191cf9f733d54da69d5777e435.jpg"
  },
  {
    "name": "completepuzzle20",
    "defaultvalue": 0,
    "displayName": "Complete Puzzle The Suicide of Saul",
    "hidden": 0,
    "description": "The Suicide of Saul Puzzle Complete!",
    "icon": "https://steamcdn-a.akamaihd.net/steamcommunity/public/images/apps/1052870/859c036411ecd11238414e889af550720cd3d7c1.jpg",
    "icongray": "https://steamcdn-a.akamaihd.net/steamcommunity/public/images/apps/1052870/6634c5a637e56049fdde8bddec32a2fa567c0e4b.jpg"
  },
  {
    "name": "completepuzzle21",
    "defaultvalue": 0,
    "displayName": "Complete Puzzle The Fall of Phaeton",
    "hidden": 0,
    "description": "The Fall of Phaeton Puzzle Complete!",
    "icon": "https://steamcdn-a.akamaihd.net/steamcommunity/public/images/apps/1052870/0468e45019e7a2966917ce903217f93e60d1078f.jpg",
    "icongray": "https://steamcdn-a.akamaihd.net/steamcommunity/public/images/apps/1052870/918bcfbf9bec95a942b471d914607246f4f4a6e8.jpg"
  },
  {
    "name": "completepuzzle22",
    "defaultvalue": 0,
    "displayName": "Complete Puzzle Our Banner in the Sky",
    "hidden": 0,
    "description": "Our Banner in the Sky Puzzle Complete!",
    "icon": "https://steamcdn-a.akamaihd.net/steamcommunity/public/images/apps/1052870/d922911feae81a7ffdfa218c843613acbbf88f6a.jpg",
    "icongray": "https://steamcdn-a.akamaihd.net/steamcommunity/public/images/apps/1052870/b2ecf1119359bca86f57979e4bb93d2413769f27.jpg"
  },
  {
    "name": "completepuzzle23",
    "defaultvalue": 0,
    "displayName": "Complete Puzzle Retreat in Russia",
    "hidden": 0,
    "description": "Retreat in Russia Puzzle Complete!",
    "icon": "https://steamcdn-a.akamaihd.net/steamcommunity/public/images/apps/1052870/2f3673c4061478d56320e862da49e6810e252051.jpg",
    "icongray": "https://steamcdn-a.akamaihd.net/steamcommunity/public/images/apps/1052870/7932cb1d68575125e7f21d869c0cfcfa2afaee20.jpg"
  },
  {
    "name": "completepuzzle24",
    "defaultvalue": 0,
    "displayName": "Complete Puzzle A Sunday Afternoon",
    "hidden": 0,
    "description": "A Sunday Afternoon Puzzle Complete!",
    "icon": "https://steamcdn-a.akamaihd.net/steamcommunity/public/images/apps/1052870/fe9b7b7575ab4ed037f56b3fb1ed9e4bd63d13fb.jpg",
    "icongray": "https://steamcdn-a.akamaihd.net/steamcommunity/public/images/apps/1052870/4c0b0bdcced4b267d3f7bf929e78e8bfceff9687.jpg"
  },
  {
    "name": "completepuzzle25",
    "defaultvalue": 0,
    "displayName": "Complete Puzzle Battle of Gettysburg",
    "hidden": 0,
    "description": "Battle of Gettysburg Puzzle Complete!",
    "icon": "https://steamcdn-a.akamaihd.net/steamcommunity/public/images/apps/1052870/e9131129776e79edf5f35f0ab75a8643709656e7.jpg",
    "icongray": "https://steamcdn-a.akamaihd.net/steamcommunity/public/images/apps/1052870/9b28ee11281288082322e7feca7e75b2c270779a.jpg"
  },
  {
    "name": "completepuzzle10",
    "defaultvalue": 0,
    "displayName": "Complete Puzzle School of Athens",
    "hidden": 0,
    "description": "School of Athens Puzzle Complete!",
    "icon": "https://steamcdn-a.akamaihd.net/steamcommunity/public/images/apps/1052870/8c8292041190e8e66c4b169a80a7a8a6611c26dd.jpg",
    "icongray": "https://steamcdn-a.akamaihd.net/steamcommunity/public/images/apps/1052870/146b5716381653634d4e3c2198459c47f5b15205.jpg"
  }
]