{
  "Dlcs": {},
  "Name": "Caelum: Into the Sky",
  "AppId": "631950",
  "ImageUrl": "https://steamcdn-a.akamaihd.net/steam/apps/631950/header.jpg?t=1503495572",
  "Languages": [
    "english"
  ],
  "Platforms": {
    "windows": true,
    "mac": false,
    "linux": false
  }
}