{
  "Dlcs": {},
  "Name": "Gravity Tunnel VR",
  "AppId": "678750",
  "ImageUrl": "https://steamcdn-a.akamaihd.net/steam/apps/678750/header.jpg?t=1505212200",
  "Languages": [
    "english"
  ],
  "Platforms": {
    "windows": true,
    "mac": false,
    "linux": false
  }
}