{
  "Dlcs": {},
  "Name": "ROBOTICS;NOTES ELITE",
  "AppId": "1111380",
  "ImageUrl": "https://steamcdn-a.akamaihd.net/steam/apps/1111380/header.jpg?t=1600053110",
  "Languages": [
    "english",
    "japanese"
  ],
  "Platforms": {
    "windows": true,
    "mac": false,
    "linux": false
  }
}