{
  "Dlcs": {},
  "Name": "Running Rogue",
  "AppId": "989350",
  "ImageUrl": "https://steamcdn-a.akamaihd.net/steam/apps/989350/header.jpg?t=1600182856",
  "Languages": [
    "english",
    "russian"
  ],
  "Platforms": {
    "windows": true,
    "mac": false,
    "linux": false
  }
}