{
  "Dlcs": {},
  "Name": "Army of Squirrels",
  "AppId": "793260",
  "ImageUrl": "https://steamcdn-a.akamaihd.net/steam/apps/793260/header.jpg?t=1519733149",
  "Languages": [
    "english"
  ],
  "Platforms": {
    "windows": true,
    "mac": false,
    "linux": false
  }
}