{
  "Dlcs": {
    "805060": {
      "Name": "DESOLATE - Original Soundtrack",
      "ImageUrl": "https://steamcdn-a.akamaihd.net/steam/apps/805060/header.jpg?t=1518682195"
    }
  },
  "Name": "DESOLATE",
  "AppId": "671510",
  "ImageUrl": "https://steamcdn-a.akamaihd.net/steam/apps/671510/header.jpg?t=1593180995",
  "Languages": [
    "english",
    "russian",
    "french",
    "german",
    "spanish",
    "japanese",
    "korean",
    "schinese",
    "portuguese"
  ],
  "Platforms": {
    "windows": true,
    "mac": false,
    "linux": false
  }
}