﻿{
  "Dlcs": {},
  "Name": "Fill Up!",
  "AppId": "405050",
  "ImageUrl": "https://steamcdn-a.akamaihd.net/steam/apps/405050/header.jpg?t=1478536941",
  "Languages": [
    "english"
  ],
  "Platforms": {
    "windows": true,
    "mac": false,
    "linux": false
  }
}