{
  "Dlcs": {},
  "Name": "Cute Triplets",
  "AppId": "1296680",
  "ImageUrl": "https://steamcdn-a.akamaihd.net/steam/apps/1296680/header.jpg?t=1592409687",
  "Languages": [
    "english"
  ],
  "Platforms": {
    "windows": true,
    "mac": false,
    "linux": false
  }
}