{
  "Dlcs": {},
  "Name": "电视台模拟国 Entertainment Simulator",
  "AppId": "1338030",
  "ImageUrl": "https://steamcdn-a.akamaihd.net/steam/apps/1338030/header.jpg?t=1599202566",
  "Languages": [
    "schinese"
  ],
  "Platforms": {
    "windows": true,
    "mac": false,
    "linux": false
  }
}