﻿[
  {
    "name": "ach_1",
    "defaultvalue": 0,
    "displayName": "SURVIVOR",
    "hidden": 0,
    "description": "SURVIVE 7 EVENTS",
    "icon": "https://steamcdn-a.akamaihd.net/steamcommunity/public/images/apps/357070/ff12f6559986c6d64699398ac66960c617b50d9f.jpg",
    "icongray": "https://steamcdn-a.akamaihd.net/steamcommunity/public/images/apps/357070/88cea70716fd1d937cc247c81425df62fdc47e63.jpg"
  },
  {
    "name": "ach_2",
    "defaultvalue": 0,
    "displayName": "SKILL BEFORE LUCK",
    "hidden": 0,
    "description": "SCORE 200+ 7 TIMES",
    "icon": "https://steamcdn-a.akamaihd.net/steamcommunity/public/images/apps/357070/efd760de9885502f4c4c412ba389a97a7652e6f4.jpg",
    "icongray": "https://steamcdn-a.akamaihd.net/steamcommunity/public/images/apps/357070/5785b1cb07f89dea3f6e58988e2beeef2b997292.jpg"
  },
  {
    "name": "ach_3",
    "defaultvalue": 0,
    "displayName": "GREEN´S MASTERY",
    "hidden": 0,
    "description": "SCORE 150+ NO CLASS MODS",
    "icon": "https://steamcdn-a.akamaihd.net/steamcommunity/public/images/apps/357070/2ec855f169b83fd4f0f3094df0c00e0f00aa8ca0.jpg",
    "icongray": "https://steamcdn-a.akamaihd.net/steamcommunity/public/images/apps/357070/76e009a6e3897a61690d7618c696a1d3489778fa.jpg"
  },
  {
    "name": "ach_4",
    "defaultvalue": 0,
    "displayName": "WARLOCK MASTERY",
    "hidden": 0,
    "description": "SCORE 150+ WARLOCK CLASS MOD",
    "icon": "https://steamcdn-a.akamaihd.net/steamcommunity/public/images/apps/357070/79965d08580c9ac02fb758a8acca210bfb48f67d.jpg",
    "icongray": "https://steamcdn-a.akamaihd.net/steamcommunity/public/images/apps/357070/d76e9154f485e60b144132cca52ed198d15efcd3.jpg"
  },
  {
    "name": "ach_5",
    "defaultvalue": 0,
    "displayName": "GUNNER MASTERY",
    "hidden": 0,
    "description": "SCORE 150+ GUNNER CLASS MOD",
    "icon": "https://steamcdn-a.akamaihd.net/steamcommunity/public/images/apps/357070/41ee33f05bb7bd8a85de0e83774e791ba463b552.jpg",
    "icongray": "https://steamcdn-a.akamaihd.net/steamcommunity/public/images/apps/357070/c30b5c2b3855d515ee5f870ad4449c1c810b05fd.jpg"
  },
  {
    "name": "ach_6",
    "defaultvalue": 0,
    "displayName": "KENSAI MASTERY",
    "hidden": 0,
    "description": "SCORE 150+ KENSAI CLASS MOD",
    "icon": "https://steamcdn-a.akamaihd.net/steamcommunity/public/images/apps/357070/07349fbb7a780ffa09a5c7e0d4466894168b3e38.jpg",
    "icongray": "https://steamcdn-a.akamaihd.net/steamcommunity/public/images/apps/357070/fa44da7c5aa7b08fb08a90dfb38208d6ed5e76ff.jpg"
  },
  {
    "name": "ach_7",
    "defaultvalue": 0,
    "displayName": "HARDBOILED",
    "hidden": 0,
    "description": "CHANGE GAME MODE",
    "icon": "https://steamcdn-a.akamaihd.net/steamcommunity/public/images/apps/357070/576652a490f62fdb89bc12448731218ca0af065c.jpg",
    "icongray": "https://steamcdn-a.akamaihd.net/steamcommunity/public/images/apps/357070/83e54e7cd959705771e79948415afe6f9e9c411a.jpg"
  }
]