{
  "Dlcs": {},
  "Name": "Burning Knight",
  "AppId": "851150",
  "ImageUrl": "https://steamcdn-a.akamaihd.net/steam/apps/851150/header.jpg?t=1599672381",
  "Languages": [
    "english",
    "french",
    "german",
    "polish",
    "russian",
    "portuguese",
    "italian"
  ],
  "Platforms": {
    "windows": true,
    "mac": true,
    "linux": true
  }
}