{
  "Dlcs": {},
  "Name": "Monty Kong",
  "AppId": "1414380",
  "ImageUrl": "https://steamcdn-a.akamaihd.net/steam/apps/1414380/header.jpg?t=1601075214",
  "Languages": [
    "english",
    "japanese"
  ],
  "Platforms": {
    "windows": true,
    "mac": false,
    "linux": false
  }
}