[
  {
    "name": "Best Friends",
    "defaultvalue": 0,
    "displayName": "Best Friends",
    "hidden": 0,
    "description": "Find your best friend Ralph",
    "icon": "https://steamcdn-a.akamaihd.net/steamcommunity/public/images/apps/413350/7ad028763f88da512f4113c30bdfa8752bbc4cbe.jpg",
    "icongray": "https://steamcdn-a.akamaihd.net/steamcommunity/public/images/apps/413350/0eb7d98757391995280c3a7db2228cb34562de3e.jpg"
  },
  {
    "name": "Learning the Ropes",
    "defaultvalue": 0,
    "displayName": "Learning the Ropes",
    "hidden": 0,
    "description": "Craft your first item",
    "icon": "https://steamcdn-a.akamaihd.net/steamcommunity/public/images/apps/413350/7a9e367abf8b566cfad61f63af2bbcc931731fbf.jpg",
    "icongray": "https://steamcdn-a.akamaihd.net/steamcommunity/public/images/apps/413350/3154a9ae4e939d31ef0896905bdb3c6a1a5602ea.jpg"
  },
  {
    "name": "Ralph the Fish",
    "defaultvalue": 0,
    "displayName": "Ralph the Fish",
    "hidden": 0,
    "description": "Catch a Goldfish",
    "icon": "https://steamcdn-a.akamaihd.net/steamcommunity/public/images/apps/413350/2c3d8c67a3f638dc006524e05615159f0af92e0c.jpg",
    "icongray": "https://steamcdn-a.akamaihd.net/steamcommunity/public/images/apps/413350/f323ce556584070cf86a8d3456e38de14b578b32.jpg"
  },
  {
    "name": "Nice Shot",
    "defaultvalue": 0,
    "displayName": "Nice Shot",
    "hidden": 0,
    "description": "Get a hole-in-one in golf",
    "icon": "https://steamcdn-a.akamaihd.net/steamcommunity/public/images/apps/413350/39f2894aa3360eaee41d5e66619a12216dcef50a.jpg",
    "icongray": "https://steamcdn-a.akamaihd.net/steamcommunity/public/images/apps/413350/021afe62cbbd9a5ad518f31b6535a0817292c0cb.jpg"
  },
  {
    "name": "Dance Party",
    "defaultvalue": 0,
    "displayName": "Dance Party",
    "hidden": 0,
    "description": "Robots can dance if they want to...",
    "icon": "https://steamcdn-a.akamaihd.net/steamcommunity/public/images/apps/413350/2fc30ead14b5ccd49caacb1d1eca3cce05c77968.jpg",
    "icongray": "https://steamcdn-a.akamaihd.net/steamcommunity/public/images/apps/413350/f82320b7d94ead9e5fb45523a25f6fad413049b2.jpg"
  },
  {
    "name": "Gamer",
    "defaultvalue": 0,
    "displayName": "Gamer",
    "hidden": 0,
    "description": "Play every game",
    "icon": "https://steamcdn-a.akamaihd.net/steamcommunity/public/images/apps/413350/6324335f75611e2bc96e33d044f246458693bae7.jpg",
    "icongray": "https://steamcdn-a.akamaihd.net/steamcommunity/public/images/apps/413350/f22fcc80ac2a143ae923a6663a8dc9d4e96a71b3.jpg"
  },
  {
    "name": "Scout",
    "defaultvalue": 0,
    "displayName": "Scout",
    "hidden": 0,
    "description": "Collect all three badges of a set",
    "icon": "https://steamcdn-a.akamaihd.net/steamcommunity/public/images/apps/413350/2454f36b98f9a8cd118ae847bdbd5f29ead9b327.jpg",
    "icongray": "https://steamcdn-a.akamaihd.net/steamcommunity/public/images/apps/413350/9fea8aa00779ed6e6e4dee7c53f52e8449f8cd89.jpg"
  },
  {
    "name": "Master Scout",
    "defaultvalue": 0,
    "displayName": "Master Scout",
    "hidden": 0,
    "description": "Collect ten Badges",
    "icon": "https://steamcdn-a.akamaihd.net/steamcommunity/public/images/apps/413350/1b8d821ab31ff1159771f49ca238b37ecfb3706d.jpg",
    "icongray": "https://steamcdn-a.akamaihd.net/steamcommunity/public/images/apps/413350/b2d03d2417b3cc429a6aef04bb078d1d944e1dd5.jpg"
  },
  {
    "name": "Genius Scout",
    "defaultvalue": 0,
    "displayName": "Genius Scout",
    "hidden": 0,
    "description": "Collect all three special Badges",
    "icon": "https://steamcdn-a.akamaihd.net/steamcommunity/public/images/apps/413350/7c2f2dec0464e8e0178cb7e90931a28e2b0ebea3.jpg",
    "icongray": "https://steamcdn-a.akamaihd.net/steamcommunity/public/images/apps/413350/6eea92a7a24dc7b552f928de6d40e1b196b33814.jpg"
  },
  {
    "name": "Completionist",
    "defaultvalue": 0,
    "displayName": "Completionist",
    "hidden": 0,
    "description": "Collect all 24 badges",
    "icon": "https://steamcdn-a.akamaihd.net/steamcommunity/public/images/apps/413350/c138c0a54bbee77d24e58b50c3e9284cd35c6fb0.jpg",
    "icongray": "https://steamcdn-a.akamaihd.net/steamcommunity/public/images/apps/413350/f668e5c04dfe6c97529bbc623309708bd7b80682.jpg"
  }
]