{
  "Dlcs": {},
  "Name": "POSTAL",
  "AppId": "232770",
  "ImageUrl": "https://steamcdn-a.akamaihd.net/steam/apps/232770/header.jpg?t=1591681697",
  "Languages": [
    "english"
  ],
  "Platforms": {
    "windows": true,
    "mac": true,
    "linux": true
  }
}