{
  "Dlcs": {},
  "Name": "Criminal Bundle",
  "AppId": "777040",
  "ImageUrl": "https://steamcdn-a.akamaihd.net/steam/apps/777040/header.jpg?t=1518717671",
  "Languages": [
    "english"
  ],
  "Platforms": {
    "windows": true,
    "mac": false,
    "linux": false
  }
}