[
  {
    "name": "stat_progress",
    "defaultvalue": 0,
    "displayName": "Progress"
  },
  {
    "name": "stat_dcount",
    "defaultvalue": 0,
    "displayName": "Death Count"
  },
  {
    "name": "stat_enemy",
    "defaultvalue": 0,
    "displayName": "Enemies Destroyed"
  },
  {
    "name": "stat_power",
    "defaultvalue": 0,
    "displayName": "Power-Ups Collected"
  }
]