{
  "Dlcs": {},
  "Name": "The Long Sky VR",
  "AppId": "1263720",
  "ImageUrl": "https://steamcdn-a.akamaihd.net/steam/apps/1263720/header.jpg?t=1585001023",
  "Languages": [
    "english",
    "french",
    "german",
    "spanish",
    "russian",
    "polish",
    "schinese",
    "portuguese",
    "korean"
  ],
  "Platforms": {
    "windows": true,
    "mac": false,
    "linux": false
  }
}