{
  "Dlcs": {},
  "Name": "INSPACE 2980",
  "AppId": "760580",
  "ImageUrl": "https://steamcdn-a.akamaihd.net/steam/apps/760580/header.jpg?t=1582574725",
  "Languages": [
    "english",
    "russian"
  ],
  "Platforms": {
    "windows": true,
    "mac": true,
    "linux": false
  }
}