{
  "Dlcs": {},
  "Name": "The Cat and the Coup (4K Remaster)",
  "AppId": "907890",
  "ImageUrl": "https://steamcdn-a.akamaihd.net/steam/apps/907890/header.jpg?t=1553695381",
  "Languages": [
    "english",
    "french",
    "spanish"
  ],
  "Platforms": {
    "windows": true,
    "mac": true,
    "linux": false
  }
}