﻿{
  "WinCount": {
    "description": "",
    "value": 0
  },
  "TournamentIndex": {
    "description": "",
    "value": 0
  },
  "MaxBounty": {
    "description": "",
    "value": 0
  },
  "Bounced": {
    "description": "",
    "value": 0
  },
  "MapCompletion": {
    "description": "",
    "value": 0
  },
  "DefeaterCount": {
    "description": "",
    "value": 0
  },
  "UnlockedSkinCount": {
    "description": "",
    "value": 0
  },
  "RingOutCompletion": {
    "description": "",
    "value": 0
  },
  "Champion": {
    "description": "",
    "value": 0
  },
  "GoldFighter": {
    "description": "",
    "value": 0
  },
  "TutoDone": {
    "description": "",
    "value": 0
  },
  "LawLess": {
    "description": "",
    "value": 0
  },
  "OutLaw": {
    "description": "",
    "value": 0
  },
  "Map_Tower": {
    "description": "",
    "value": 0
  },
  "Map_ruins": {
    "description": "",
    "value": 0
  },
  "Map_Forest": {
    "description": "",
    "value": 0
  },
  "Map_arcade": {
    "description": "",
    "value": 0
  },
  "Map_Owlboy": {
    "description": "",
    "value": 0
  },
  "Map_Flinthook": {
    "description": "",
    "value": 0
  },
  "Map_Dungeon": {
    "description": "",
    "value": 0
  },
  "Map_Guaca": {
    "description": "",
    "value": 0
  },
  "Map_Dead": {
    "description": "",
    "value": 0
  },
  "Map_Bug": {
    "description": "",
    "value": 0
  },
  "Map_Hermetic": {
    "description": "",
    "value": 0
  },
  "Map_Fish": {
    "description": "",
    "value": 0
  },
  "Map_Trace": {
    "description": "",
    "value": 0
  },
  "Map_Awesomenauts": {
    "description": "",
    "value": 0
  },
  "Map_Tetrobot": {
    "description": "",
    "value": 0
  },
  "Map_Oddmar": {
    "description": "",
    "value": 0
  }
}