{
  "Dlcs": {},
  "Name": "Academia : School Simulator",
  "AppId": "672630",
  "ImageUrl": "https://steamcdn-a.akamaihd.net/steam/apps/672630/header.jpg?t=1596812990",
  "Languages": [
    "english",
    "japanese",
    "german",
    "russian",
    "french",
    "spanish",
    "turkish",
    "schinese"
  ],
  "Platforms": {
    "windows": true,
    "mac": true,
    "linux": false
  }
}