{
  "Dlcs": {},
  "Name": "Drift86",
  "AppId": "1070580",
  "ImageUrl": "https://steamcdn-a.akamaihd.net/steam/apps/1070580/header.jpg?t=1599310521",
  "Languages": [
    "english"
  ],
  "Platforms": {
    "windows": true,
    "mac": false,
    "linux": false
  }
}