[
  {
    "name": "w1l1",
    "defaultvalue": 0,
    "displayName": "World 1 Level 1 Complete",
    "hidden": 0,
    "description": "World 1 Level 1 Complete",
    "icon": "https://steamcdn-a.akamaihd.net/steamcommunity/public/images/apps/1152020/162ebe374bb1013726a0187be1815b13acb687e5.jpg",
    "icongray": "https://steamcdn-a.akamaihd.net/steamcommunity/public/images/apps/1152020/f46cb48640f8952b249c623f4e4420aad4f12b90.jpg"
  },
  {
    "name": "w1l2",
    "defaultvalue": 0,
    "displayName": "World 1 Level 2 Complete",
    "hidden": 0,
    "description": "World 1 Level 2 Complete",
    "icon": "https://steamcdn-a.akamaihd.net/steamcommunity/public/images/apps/1152020/b7c000a9e7992a1f10cbb4133193a2fae1bc65a3.jpg",
    "icongray": "https://steamcdn-a.akamaihd.net/steamcommunity/public/images/apps/1152020/d468660cc452a67bd4d55dfdae6d05eb21878d92.jpg"
  },
  {
    "name": "w1l6",
    "defaultvalue": 0,
    "displayName": "World 1 Level 6 Complete",
    "hidden": 0,
    "description": "World 1 Level 6 Complete",
    "icon": "https://steamcdn-a.akamaihd.net/steamcommunity/public/images/apps/1152020/a8a50c4029551b189e79ddcb7c9db8c5ecb13ef9.jpg",
    "icongray": "https://steamcdn-a.akamaihd.net/steamcommunity/public/images/apps/1152020/f46cb48640f8952b249c623f4e4420aad4f12b90.jpg"
  },
  {
    "name": "w1l7",
    "defaultvalue": 0,
    "displayName": "World 1 Level 7 Complete",
    "hidden": 0,
    "description": "World 1 Level 7 Complete",
    "icon": "https://steamcdn-a.akamaihd.net/steamcommunity/public/images/apps/1152020/9c8447a18a03ad41a3ccdf56e03c17bc7600e998.jpg",
    "icongray": "https://steamcdn-a.akamaihd.net/steamcommunity/public/images/apps/1152020/f46cb48640f8952b249c623f4e4420aad4f12b90.jpg"
  },
  {
    "name": "w1L9",
    "defaultvalue": 0,
    "displayName": "World 1 Level 9 Complete",
    "hidden": 0,
    "description": "World 1 Level 9 Complete",
    "icon": "https://steamcdn-a.akamaihd.net/steamcommunity/public/images/apps/1152020/17768aa9b0303a1cb4f7922ec0c46ed93a24f4ff.jpg",
    "icongray": "https://steamcdn-a.akamaihd.net/steamcommunity/public/images/apps/1152020/f46cb48640f8952b249c623f4e4420aad4f12b90.jpg"
  },
  {
    "name": "w1l10",
    "defaultvalue": 0,
    "displayName": "World 1 Level 10 Complete",
    "hidden": 0,
    "description": "World 1 Level 10 Complete",
    "icon": "https://steamcdn-a.akamaihd.net/steamcommunity/public/images/apps/1152020/b08c19c2044b1fef637754f1e6b5776af675fe9f.jpg",
    "icongray": "https://steamcdn-a.akamaihd.net/steamcommunity/public/images/apps/1152020/f46cb48640f8952b249c623f4e4420aad4f12b90.jpg"
  },
  {
    "name": "w1l11",
    "defaultvalue": 0,
    "displayName": "World 1 Level 11 Complete",
    "hidden": 0,
    "description": "World 1 Level 11 Complete",
    "icon": "https://steamcdn-a.akamaihd.net/steamcommunity/public/images/apps/1152020/64ade961765a7a58e928f18720055cb9bd353e2d.jpg",
    "icongray": "https://steamcdn-a.akamaihd.net/steamcommunity/public/images/apps/1152020/f46cb48640f8952b249c623f4e4420aad4f12b90.jpg"
  },
  {
    "name": "w2l1",
    "defaultvalue": 0,
    "displayName": "World 2 Level 1 Complete",
    "hidden": 0,
    "description": "World 2 Level 1 Complete",
    "icon": "https://steamcdn-a.akamaihd.net/steamcommunity/public/images/apps/1152020/163dead7ec8b158eaa341ef0b28542b652857770.jpg",
    "icongray": "https://steamcdn-a.akamaihd.net/steamcommunity/public/images/apps/1152020/f46cb48640f8952b249c623f4e4420aad4f12b90.jpg"
  },
  {
    "name": "w1l4",
    "defaultvalue": 0,
    "displayName": "World 1 Level 4 Complete",
    "hidden": 0,
    "description": "World 1 Level 4 Complete",
    "icon": "https://steamcdn-a.akamaihd.net/steamcommunity/public/images/apps/1152020/a2a7b13e512c3a9869d777fb9e6345065ab70d1b.jpg",
    "icongray": "https://steamcdn-a.akamaihd.net/steamcommunity/public/images/apps/1152020/f46cb48640f8952b249c623f4e4420aad4f12b90.jpg"
  },
  {
    "name": "w2l2",
    "defaultvalue": 0,
    "displayName": "World 2 Level 2 Complete",
    "hidden": 0,
    "description": "World 2 Level 2 Complete",
    "icon": "https://steamcdn-a.akamaihd.net/steamcommunity/public/images/apps/1152020/85fed7d59598ab50daf4c055566edcda77f198bb.jpg",
    "icongray": "https://steamcdn-a.akamaihd.net/steamcommunity/public/images/apps/1152020/f46cb48640f8952b249c623f4e4420aad4f12b90.jpg"
  },
  {
    "name": "w2l3",
    "defaultvalue": 0,
    "displayName": "World 2 Level 3 Complete",
    "hidden": 0,
    "description": "World 2 Level 3 Complete",
    "icon": "https://steamcdn-a.akamaihd.net/steamcommunity/public/images/apps/1152020/693558086a6e8cc56508c50f1a7548e089a91421.jpg",
    "icongray": "https://steamcdn-a.akamaihd.net/steamcommunity/public/images/apps/1152020/f46cb48640f8952b249c623f4e4420aad4f12b90.jpg"
  },
  {
    "name": "w2l6",
    "defaultvalue": 0,
    "displayName": "World 2 Level 6 Complete",
    "hidden": 0,
    "description": "World 2 Level 6 Complete",
    "icon": "https://steamcdn-a.akamaihd.net/steamcommunity/public/images/apps/1152020/8ea503a7a759bd5e2693fa6c6a56f88a43f2f1dd.jpg",
    "icongray": "https://steamcdn-a.akamaihd.net/steamcommunity/public/images/apps/1152020/f46cb48640f8952b249c623f4e4420aad4f12b90.jpg"
  },
  {
    "name": "w2l8",
    "defaultvalue": 0,
    "displayName": "World 2 Level 8 Complete",
    "hidden": 0,
    "description": "World 2 Level 8 Complete",
    "icon": "https://steamcdn-a.akamaihd.net/steamcommunity/public/images/apps/1152020/e21b43ec61cd2bbf3b988ec930e31b9f61fd95db.jpg",
    "icongray": "https://steamcdn-a.akamaihd.net/steamcommunity/public/images/apps/1152020/f46cb48640f8952b249c623f4e4420aad4f12b90.jpg"
  },
  {
    "name": "w2l9",
    "defaultvalue": 0,
    "displayName": "World 2 Level 9 Complete",
    "hidden": 0,
    "description": "World 2 Level 9 Complete",
    "icon": "https://steamcdn-a.akamaihd.net/steamcommunity/public/images/apps/1152020/8c1433957db6257649e5dc8fa8d26cebf2c853b4.jpg",
    "icongray": "https://steamcdn-a.akamaihd.net/steamcommunity/public/images/apps/1152020/f46cb48640f8952b249c623f4e4420aad4f12b90.jpg"
  },
  {
    "name": "w2l10",
    "defaultvalue": 0,
    "displayName": "World 2 Level 10 Complete",
    "hidden": 0,
    "description": "World 2 Level 10 Complete",
    "icon": "https://steamcdn-a.akamaihd.net/steamcommunity/public/images/apps/1152020/f39dbc2319b3c1e8ae341b464d225dd425e83445.jpg",
    "icongray": "https://steamcdn-a.akamaihd.net/steamcommunity/public/images/apps/1152020/f46cb48640f8952b249c623f4e4420aad4f12b90.jpg"
  },
  {
    "name": "w2l11",
    "defaultvalue": 0,
    "displayName": "World 2 Level 11 Complete",
    "hidden": 0,
    "description": "World 2 Level 11 Complete",
    "icon": "https://steamcdn-a.akamaihd.net/steamcommunity/public/images/apps/1152020/a3523b7cc9fcff4264482f9d9c59dbdc3f372140.jpg",
    "icongray": "https://steamcdn-a.akamaihd.net/steamcommunity/public/images/apps/1152020/f46cb48640f8952b249c623f4e4420aad4f12b90.jpg"
  },
  {
    "name": "w3l1",
    "defaultvalue": 0,
    "displayName": "World 3 Level 1 Complete",
    "hidden": 0,
    "description": "World 3 Level 1 Complete",
    "icon": "https://steamcdn-a.akamaihd.net/steamcommunity/public/images/apps/1152020/90f4033ee40ba1304e15df2e0c4249ea8ce7ed54.jpg",
    "icongray": "https://steamcdn-a.akamaihd.net/steamcommunity/public/images/apps/1152020/f46cb48640f8952b249c623f4e4420aad4f12b90.jpg"
  },
  {
    "name": "w3l2",
    "defaultvalue": 0,
    "displayName": "World 3 Level 2 Complete",
    "hidden": 0,
    "description": "World 3 Level 2 Complete",
    "icon": "https://steamcdn-a.akamaihd.net/steamcommunity/public/images/apps/1152020/911ff6502df489561020da26d3c45971decbea24.jpg",
    "icongray": "https://steamcdn-a.akamaihd.net/steamcommunity/public/images/apps/1152020/d468660cc452a67bd4d55dfdae6d05eb21878d92.jpg"
  },
  {
    "name": "w3l4",
    "defaultvalue": 0,
    "displayName": "World 3 Level 4 Complete",
    "hidden": 0,
    "description": "World 3 Level 4 Complete",
    "icon": "https://steamcdn-a.akamaihd.net/steamcommunity/public/images/apps/1152020/75e261b0c41db66622e7afb37fa47c6bf6e01dd5.jpg",
    "icongray": "https://steamcdn-a.akamaihd.net/steamcommunity/public/images/apps/1152020/f46cb48640f8952b249c623f4e4420aad4f12b90.jpg"
  },
  {
    "name": "w3l5",
    "defaultvalue": 0,
    "displayName": "World 3 Level 5 Complete",
    "hidden": 0,
    "description": "World 3 Level 5 Complete",
    "icon": "https://steamcdn-a.akamaihd.net/steamcommunity/public/images/apps/1152020/4edfe544e2a8ed531455823621449d9b1280b8ea.jpg",
    "icongray": "https://steamcdn-a.akamaihd.net/steamcommunity/public/images/apps/1152020/f46cb48640f8952b249c623f4e4420aad4f12b90.jpg"
  },
  {
    "name": "w3l6",
    "defaultvalue": 0,
    "displayName": "World 3 Level 6 Complete",
    "hidden": 0,
    "description": "World 3 Level 6 Complete",
    "icon": "https://steamcdn-a.akamaihd.net/steamcommunity/public/images/apps/1152020/48e2dc6c666e46e4844f550e0d49ff6390c1176c.jpg",
    "icongray": "https://steamcdn-a.akamaihd.net/steamcommunity/public/images/apps/1152020/f46cb48640f8952b249c623f4e4420aad4f12b90.jpg"
  },
  {
    "name": "w3l8",
    "defaultvalue": 0,
    "displayName": "World 3 Level 8 Complete",
    "hidden": 0,
    "description": "World 3 Level 8 Complete",
    "icon": "https://steamcdn-a.akamaihd.net/steamcommunity/public/images/apps/1152020/af22b1f0ff47f72c799b209ac2687ef7dfab8e26.jpg",
    "icongray": "https://steamcdn-a.akamaihd.net/steamcommunity/public/images/apps/1152020/f46cb48640f8952b249c623f4e4420aad4f12b90.jpg"
  },
  {
    "name": "w3l9",
    "defaultvalue": 0,
    "displayName": "World 3 Level 9 Complete",
    "hidden": 0,
    "description": "World 3 Level 9 Complete",
    "icon": "https://steamcdn-a.akamaihd.net/steamcommunity/public/images/apps/1152020/92f9bb4dd2323240812cfd14d643322b44d293d7.jpg",
    "icongray": "https://steamcdn-a.akamaihd.net/steamcommunity/public/images/apps/1152020/f46cb48640f8952b249c623f4e4420aad4f12b90.jpg"
  },
  {
    "name": "w3l10",
    "defaultvalue": 0,
    "displayName": "World 3 Level 10 Complete",
    "hidden": 0,
    "description": "World 3 Level 10 Complete",
    "icon": "https://steamcdn-a.akamaihd.net/steamcommunity/public/images/apps/1152020/dd020245b9df62d411fa3364fa4e3b835a9b3c7e.jpg",
    "icongray": "https://steamcdn-a.akamaihd.net/steamcommunity/public/images/apps/1152020/f46cb48640f8952b249c623f4e4420aad4f12b90.jpg"
  },
  {
    "name": "w3l11",
    "defaultvalue": 0,
    "displayName": "World 3 Level 11 Complete",
    "hidden": 0,
    "description": "World 3 Level 11 Complete",
    "icon": "https://steamcdn-a.akamaihd.net/steamcommunity/public/images/apps/1152020/3df97c192e0c36d99a2352d1cf40cb7d4d058f81.jpg",
    "icongray": "https://steamcdn-a.akamaihd.net/steamcommunity/public/images/apps/1152020/f46cb48640f8952b249c623f4e4420aad4f12b90.jpg"
  },
  {
    "name": "w4l1",
    "defaultvalue": 0,
    "displayName": "World 4 Level 1 Complete",
    "hidden": 0,
    "description": "World 4 Level 1 Complete",
    "icon": "https://steamcdn-a.akamaihd.net/steamcommunity/public/images/apps/1152020/a25e75755e4e1524a06c53a63666ed05b285fa86.jpg",
    "icongray": "https://steamcdn-a.akamaihd.net/steamcommunity/public/images/apps/1152020/f46cb48640f8952b249c623f4e4420aad4f12b90.jpg"
  },
  {
    "name": "w4l2",
    "defaultvalue": 0,
    "displayName": "World 4 Level 2 Complete",
    "hidden": 0,
    "description": "World 4 Level 2 Complete",
    "icon": "https://steamcdn-a.akamaihd.net/steamcommunity/public/images/apps/1152020/4703b1d019b41d13d461c04877fd9dc054d04960.jpg",
    "icongray": "https://steamcdn-a.akamaihd.net/steamcommunity/public/images/apps/1152020/f46cb48640f8952b249c623f4e4420aad4f12b90.jpg"
  },
  {
    "name": "w4l4",
    "defaultvalue": 0,
    "displayName": "World 4 Level 4 Complete",
    "hidden": 0,
    "description": "World 4 Level 4 Complete",
    "icon": "https://steamcdn-a.akamaihd.net/steamcommunity/public/images/apps/1152020/c8a96048744520636fbb2f20552df14f9008c75d.jpg",
    "icongray": "https://steamcdn-a.akamaihd.net/steamcommunity/public/images/apps/1152020/f46cb48640f8952b249c623f4e4420aad4f12b90.jpg"
  },
  {
    "name": "w4l5",
    "defaultvalue": 0,
    "displayName": "World 4 Level 5 Complete",
    "hidden": 0,
    "description": "World 4 Level 5 Complete",
    "icon": "https://steamcdn-a.akamaihd.net/steamcommunity/public/images/apps/1152020/2f6b5c8cf304553aaaee2f11714736a13deeda6e.jpg",
    "icongray": "https://steamcdn-a.akamaihd.net/steamcommunity/public/images/apps/1152020/f46cb48640f8952b249c623f4e4420aad4f12b90.jpg"
  },
  {
    "name": "w4l7",
    "defaultvalue": 0,
    "displayName": "World 4 Level 7 Complete",
    "hidden": 0,
    "description": "World 4 Level 7 Complete",
    "icon": "https://steamcdn-a.akamaihd.net/steamcommunity/public/images/apps/1152020/b3301807187b6d1cfb485ce8bc1b59b1c733b563.jpg",
    "icongray": "https://steamcdn-a.akamaihd.net/steamcommunity/public/images/apps/1152020/f46cb48640f8952b249c623f4e4420aad4f12b90.jpg"
  },
  {
    "name": "w4l8",
    "defaultvalue": 0,
    "displayName": "World 4 Level 8 Complete",
    "hidden": 0,
    "description": "World 4 Level 8 Complete",
    "icon": "https://steamcdn-a.akamaihd.net/steamcommunity/public/images/apps/1152020/9b720d0e65ed57aa8c6fbe42cbe5cfb48f6626a7.jpg",
    "icongray": "https://steamcdn-a.akamaihd.net/steamcommunity/public/images/apps/1152020/f46cb48640f8952b249c623f4e4420aad4f12b90.jpg"
  },
  {
    "name": "w4l9",
    "defaultvalue": 0,
    "displayName": "World 4 Level 9 Complete",
    "hidden": 0,
    "description": "World 4 Level 9 Complete",
    "icon": "https://steamcdn-a.akamaihd.net/steamcommunity/public/images/apps/1152020/aa9341bda6a090ddcdd43df1173e31be113413ea.jpg",
    "icongray": "https://steamcdn-a.akamaihd.net/steamcommunity/public/images/apps/1152020/f46cb48640f8952b249c623f4e4420aad4f12b90.jpg"
  },
  {
    "name": "w4l10",
    "defaultvalue": 0,
    "displayName": "World 4 Level 10 Complete",
    "hidden": 0,
    "description": "World 4 Level 10 Complete",
    "icon": "https://steamcdn-a.akamaihd.net/steamcommunity/public/images/apps/1152020/be6a1c7b64114741637ef3487c3d7a60054afc3e.jpg",
    "icongray": "https://steamcdn-a.akamaihd.net/steamcommunity/public/images/apps/1152020/f46cb48640f8952b249c623f4e4420aad4f12b90.jpg"
  },
  {
    "name": "w4l11",
    "defaultvalue": 0,
    "displayName": "World 4 Level 11 Complete",
    "hidden": 0,
    "description": "World 4 Level 11 Complete",
    "icon": "https://steamcdn-a.akamaihd.net/steamcommunity/public/images/apps/1152020/e044c232324b351008f8ecf36ca8d3ced8d8b46d.jpg",
    "icongray": "https://steamcdn-a.akamaihd.net/steamcommunity/public/images/apps/1152020/f46cb48640f8952b249c623f4e4420aad4f12b90.jpg"
  },
  {
    "name": "w5l1",
    "defaultvalue": 0,
    "displayName": "World 5 Level 1 Complete",
    "hidden": 0,
    "description": "World 5 Level 1 Complete",
    "icon": "https://steamcdn-a.akamaihd.net/steamcommunity/public/images/apps/1152020/d427507f203e37eb20381fc25e5405c87af6fab5.jpg",
    "icongray": "https://steamcdn-a.akamaihd.net/steamcommunity/public/images/apps/1152020/f46cb48640f8952b249c623f4e4420aad4f12b90.jpg"
  },
  {
    "name": "w5l2",
    "defaultvalue": 0,
    "displayName": "World 5 Level 2 Complete",
    "hidden": 0,
    "description": "World 5 Level 2 Complete",
    "icon": "https://steamcdn-a.akamaihd.net/steamcommunity/public/images/apps/1152020/13d1e9b09fb1a01132f83664909ed6961161b649.jpg",
    "icongray": "https://steamcdn-a.akamaihd.net/steamcommunity/public/images/apps/1152020/f46cb48640f8952b249c623f4e4420aad4f12b90.jpg"
  },
  {
    "name": "w5l3",
    "defaultvalue": 0,
    "displayName": "World 5 Level 3 Complete",
    "hidden": 0,
    "description": "World 5 Level 3 Complete",
    "icon": "https://steamcdn-a.akamaihd.net/steamcommunity/public/images/apps/1152020/7301d544d1adf8fa16a2350465357db4eeb37bbb.jpg",
    "icongray": "https://steamcdn-a.akamaihd.net/steamcommunity/public/images/apps/1152020/f46cb48640f8952b249c623f4e4420aad4f12b90.jpg"
  },
  {
    "name": "w5l4",
    "defaultvalue": 0,
    "displayName": "World 5 Level 4 Complete",
    "hidden": 0,
    "description": "World 5 Level 4 Complete",
    "icon": "https://steamcdn-a.akamaihd.net/steamcommunity/public/images/apps/1152020/8f9237266d3ffd8fd3d631a562b4a09e0a54f10e.jpg",
    "icongray": "https://steamcdn-a.akamaihd.net/steamcommunity/public/images/apps/1152020/f46cb48640f8952b249c623f4e4420aad4f12b90.jpg"
  },
  {
    "name": "w5l7",
    "defaultvalue": 0,
    "displayName": "World 5 Level 7 Complete",
    "hidden": 0,
    "description": "World 5 Level 7 Complete",
    "icon": "https://steamcdn-a.akamaihd.net/steamcommunity/public/images/apps/1152020/4525e3bd275ff8d46404587470c3cb3be6851681.jpg",
    "icongray": "https://steamcdn-a.akamaihd.net/steamcommunity/public/images/apps/1152020/f46cb48640f8952b249c623f4e4420aad4f12b90.jpg"
  },
  {
    "name": "w5l8",
    "defaultvalue": 0,
    "displayName": "World 5 Level 8 Complete",
    "hidden": 0,
    "description": "World 5 Level 8 Complete",
    "icon": "https://steamcdn-a.akamaihd.net/steamcommunity/public/images/apps/1152020/1d0b8159f96c1ace6bc8b6d05e9b7723dd8f3323.jpg",
    "icongray": "https://steamcdn-a.akamaihd.net/steamcommunity/public/images/apps/1152020/f46cb48640f8952b249c623f4e4420aad4f12b90.jpg"
  },
  {
    "name": "w5l9",
    "defaultvalue": 0,
    "displayName": "World 5 Level 9 Complete",
    "hidden": 0,
    "description": "World 5 Level 9 Complete",
    "icon": "https://steamcdn-a.akamaihd.net/steamcommunity/public/images/apps/1152020/2c978d7428a3f600ee398c1d33941139a3c36ab6.jpg",
    "icongray": "https://steamcdn-a.akamaihd.net/steamcommunity/public/images/apps/1152020/f46cb48640f8952b249c623f4e4420aad4f12b90.jpg"
  },
  {
    "name": "w5l10",
    "defaultvalue": 0,
    "displayName": "World 5 Level 10 Complete",
    "hidden": 0,
    "description": "World 5 Level 10 Complete",
    "icon": "https://steamcdn-a.akamaihd.net/steamcommunity/public/images/apps/1152020/0fce247717e7f3d0b0dd9b2d4568780bf8d05258.jpg",
    "icongray": "https://steamcdn-a.akamaihd.net/steamcommunity/public/images/apps/1152020/f46cb48640f8952b249c623f4e4420aad4f12b90.jpg"
  },
  {
    "name": "w5l11",
    "defaultvalue": 0,
    "displayName": "World 5 Level 11 Complete",
    "hidden": 0,
    "description": "World 5 Level 11 Complete",
    "icon": "https://steamcdn-a.akamaihd.net/steamcommunity/public/images/apps/1152020/aa3b4f8c2620724b6d8d0ec88717546a0ee79c82.jpg",
    "icongray": "https://steamcdn-a.akamaihd.net/steamcommunity/public/images/apps/1152020/f46cb48640f8952b249c623f4e4420aad4f12b90.jpg"
  },
  {
    "name": "w6l1",
    "defaultvalue": 0,
    "displayName": "World 6 Level 1 Complete",
    "hidden": 0,
    "description": "World 6 Level 1 Complete",
    "icon": "https://steamcdn-a.akamaihd.net/steamcommunity/public/images/apps/1152020/e11ec6ca22694dfb0e1c5d59800e479f02dce94e.jpg",
    "icongray": "https://steamcdn-a.akamaihd.net/steamcommunity/public/images/apps/1152020/f46cb48640f8952b249c623f4e4420aad4f12b90.jpg"
  },
  {
    "name": "w6l2",
    "defaultvalue": 0,
    "displayName": "World 6 Level 2 Complete",
    "hidden": 0,
    "description": "World 6 Level 2 Complete",
    "icon": "https://steamcdn-a.akamaihd.net/steamcommunity/public/images/apps/1152020/137b1c62f82444d800e2381030c4ecaaf1b6169c.jpg",
    "icongray": "https://steamcdn-a.akamaihd.net/steamcommunity/public/images/apps/1152020/f46cb48640f8952b249c623f4e4420aad4f12b90.jpg"
  },
  {
    "name": "w6l3",
    "defaultvalue": 0,
    "displayName": "World 6 Level 3 Complete",
    "hidden": 0,
    "description": "World 6 Level 3 Complete",
    "icon": "https://steamcdn-a.akamaihd.net/steamcommunity/public/images/apps/1152020/4c24b16b4f599c257b1eda6049d30f2a211a446a.jpg",
    "icongray": "https://steamcdn-a.akamaihd.net/steamcommunity/public/images/apps/1152020/f46cb48640f8952b249c623f4e4420aad4f12b90.jpg"
  },
  {
    "name": "w6l4",
    "defaultvalue": 0,
    "displayName": "World 6 Level 4 Complete",
    "hidden": 0,
    "description": "World 6 Level 4 Complete",
    "icon": "https://steamcdn-a.akamaihd.net/steamcommunity/public/images/apps/1152020/d2e563bb6b1ee29359c6769f98b9b75e670a77f6.jpg",
    "icongray": "https://steamcdn-a.akamaihd.net/steamcommunity/public/images/apps/1152020/d468660cc452a67bd4d55dfdae6d05eb21878d92.jpg"
  },
  {
    "name": "w6l5",
    "defaultvalue": 0,
    "displayName": "World 6 Level 5 Complete",
    "hidden": 0,
    "description": "World 6 Level 6 Complete",
    "icon": "https://steamcdn-a.akamaihd.net/steamcommunity/public/images/apps/1152020/069d9953e999720db4681e52374abed1833b6f02.jpg",
    "icongray": "https://steamcdn-a.akamaihd.net/steamcommunity/public/images/apps/1152020/f46cb48640f8952b249c623f4e4420aad4f12b90.jpg"
  },
  {
    "name": "w6l7",
    "defaultvalue": 0,
    "displayName": "World 6 Level 7 Complete",
    "hidden": 0,
    "description": "World 6 Level 7 Complete",
    "icon": "https://steamcdn-a.akamaihd.net/steamcommunity/public/images/apps/1152020/dcaf91616ac96c195cd5d354d354f3e39e07518a.jpg",
    "icongray": "https://steamcdn-a.akamaihd.net/steamcommunity/public/images/apps/1152020/f46cb48640f8952b249c623f4e4420aad4f12b90.jpg"
  },
  {
    "name": "w6l8",
    "defaultvalue": 0,
    "displayName": "World 6 Level 8 Complete",
    "hidden": 0,
    "description": "World 6 Level 8 Complete",
    "icon": "https://steamcdn-a.akamaihd.net/steamcommunity/public/images/apps/1152020/c7bc7bb771c464c54a5fe53bc35753e1b0fc8949.jpg",
    "icongray": "https://steamcdn-a.akamaihd.net/steamcommunity/public/images/apps/1152020/f46cb48640f8952b249c623f4e4420aad4f12b90.jpg"
  },
  {
    "name": "w6l9",
    "defaultvalue": 0,
    "displayName": "World 6 Level 9 Complete",
    "hidden": 0,
    "description": "World 6 Level 9 Complete",
    "icon": "https://steamcdn-a.akamaihd.net/steamcommunity/public/images/apps/1152020/3e20c9347b7cad75c2ad63eec3b8e1a70f4f71d7.jpg",
    "icongray": "https://steamcdn-a.akamaihd.net/steamcommunity/public/images/apps/1152020/f46cb48640f8952b249c623f4e4420aad4f12b90.jpg"
  },
  {
    "name": "w6l10",
    "defaultvalue": 0,
    "displayName": "World 6 Level 10 Complete",
    "hidden": 0,
    "description": "World 6 Level 10 Complete",
    "icon": "https://steamcdn-a.akamaihd.net/steamcommunity/public/images/apps/1152020/a90bc88cfc19bb5deb5d987b2541b1d0cb9f4f7f.jpg",
    "icongray": "https://steamcdn-a.akamaihd.net/steamcommunity/public/images/apps/1152020/f46cb48640f8952b249c623f4e4420aad4f12b90.jpg"
  },
  {
    "name": "w6l11",
    "defaultvalue": 0,
    "displayName": "World 6 Level 11 Complete",
    "hidden": 0,
    "description": "World 6 Level 11 Complete",
    "icon": "https://steamcdn-a.akamaihd.net/steamcommunity/public/images/apps/1152020/3b741272d70bcef33846806988d35ec0f9cd52d3.jpg",
    "icongray": "https://steamcdn-a.akamaihd.net/steamcommunity/public/images/apps/1152020/f46cb48640f8952b249c623f4e4420aad4f12b90.jpg"
  },
  {
    "name": "w7l1",
    "defaultvalue": 0,
    "displayName": "World 7 Level 1 Complete",
    "hidden": 0,
    "description": "World 7 Level 1 Complete",
    "icon": "https://steamcdn-a.akamaihd.net/steamcommunity/public/images/apps/1152020/c7d6f09ce4ef81f75841b908b5000ea845fccad1.jpg",
    "icongray": "https://steamcdn-a.akamaihd.net/steamcommunity/public/images/apps/1152020/f46cb48640f8952b249c623f4e4420aad4f12b90.jpg"
  },
  {
    "name": "w7l2",
    "defaultvalue": 0,
    "displayName": "World 7 Level 2 Complete",
    "hidden": 0,
    "description": "World 7 Level 2 Complete",
    "icon": "https://steamcdn-a.akamaihd.net/steamcommunity/public/images/apps/1152020/817214419af212c9674c3a4aaa03c77e5b435974.jpg",
    "icongray": "https://steamcdn-a.akamaihd.net/steamcommunity/public/images/apps/1152020/d468660cc452a67bd4d55dfdae6d05eb21878d92.jpg"
  },
  {
    "name": "w7l3",
    "defaultvalue": 0,
    "displayName": "World 7 Level 3 Complete",
    "hidden": 0,
    "description": "World 7 Level 3 Complete",
    "icon": "https://steamcdn-a.akamaihd.net/steamcommunity/public/images/apps/1152020/4ca123cd2b4d6bdb26938de9df9679153b1e0b5b.jpg",
    "icongray": "https://steamcdn-a.akamaihd.net/steamcommunity/public/images/apps/1152020/f46cb48640f8952b249c623f4e4420aad4f12b90.jpg"
  },
  {
    "name": "w7l4",
    "defaultvalue": 0,
    "displayName": "World 7 Level 4 Complete",
    "hidden": 0,
    "description": "World 7 Level 4 Complete",
    "icon": "https://steamcdn-a.akamaihd.net/steamcommunity/public/images/apps/1152020/c48c8c8bf0dedc5d670bfe37619a398e6692eb80.jpg",
    "icongray": "https://steamcdn-a.akamaihd.net/steamcommunity/public/images/apps/1152020/f46cb48640f8952b249c623f4e4420aad4f12b90.jpg"
  },
  {
    "name": "w7l6",
    "defaultvalue": 0,
    "displayName": "World 7 Level 6 Complete",
    "hidden": 0,
    "description": "World 7 Level 6 Complete",
    "icon": "https://steamcdn-a.akamaihd.net/steamcommunity/public/images/apps/1152020/ffc7965a09c8d438ae298177c7840f1c2ad87e67.jpg",
    "icongray": "https://steamcdn-a.akamaihd.net/steamcommunity/public/images/apps/1152020/f46cb48640f8952b249c623f4e4420aad4f12b90.jpg"
  },
  {
    "name": "w7l7",
    "defaultvalue": 0,
    "displayName": "World 7 Level 7 Complete",
    "hidden": 0,
    "description": "World 7 Level 7 Complete",
    "icon": "https://steamcdn-a.akamaihd.net/steamcommunity/public/images/apps/1152020/4d7fbf35b04cdc6750d6d546a0116efe31b29594.jpg",
    "icongray": "https://steamcdn-a.akamaihd.net/steamcommunity/public/images/apps/1152020/f46cb48640f8952b249c623f4e4420aad4f12b90.jpg"
  },
  {
    "name": "w7l8",
    "defaultvalue": 0,
    "displayName": "World 7 Level 8 Complete",
    "hidden": 0,
    "description": "World 7 Level 8 Complete",
    "icon": "https://steamcdn-a.akamaihd.net/steamcommunity/public/images/apps/1152020/b3eceb1e4b99a2d4911fc284b953214f9a06fa1f.jpg",
    "icongray": "https://steamcdn-a.akamaihd.net/steamcommunity/public/images/apps/1152020/f46cb48640f8952b249c623f4e4420aad4f12b90.jpg"
  },
  {
    "name": "w7l9",
    "defaultvalue": 0,
    "displayName": "World 7 Level 9 Complete",
    "hidden": 0,
    "description": "World 7 Level 9 Complete",
    "icon": "https://steamcdn-a.akamaihd.net/steamcommunity/public/images/apps/1152020/743d03fd0c6301d014da7983ce393eb396d8a9e1.jpg",
    "icongray": "https://steamcdn-a.akamaihd.net/steamcommunity/public/images/apps/1152020/f46cb48640f8952b249c623f4e4420aad4f12b90.jpg"
  },
  {
    "name": "w7l10",
    "defaultvalue": 0,
    "displayName": "World 7 Level 10 Complete",
    "hidden": 0,
    "description": "World 7 Level 10 Complete",
    "icon": "https://steamcdn-a.akamaihd.net/steamcommunity/public/images/apps/1152020/cbb710af48c845a52f8b2c03a7785c0f8b1682e3.jpg",
    "icongray": "https://steamcdn-a.akamaihd.net/steamcommunity/public/images/apps/1152020/f46cb48640f8952b249c623f4e4420aad4f12b90.jpg"
  },
  {
    "name": "w7l11",
    "defaultvalue": 0,
    "displayName": "World 7 Level 11 Complete",
    "hidden": 0,
    "description": "World 7 Level 11 Complete",
    "icon": "https://steamcdn-a.akamaihd.net/steamcommunity/public/images/apps/1152020/b3492239fe2e412432f75a9e6af0d9a90a281d00.jpg",
    "icongray": "https://steamcdn-a.akamaihd.net/steamcommunity/public/images/apps/1152020/f46cb48640f8952b249c623f4e4420aad4f12b90.jpg"
  },
  {
    "name": "w8l1",
    "defaultvalue": 0,
    "displayName": "World 8 Level 1 Complete",
    "hidden": 0,
    "description": "World 8 Level 1 Complete",
    "icon": "https://steamcdn-a.akamaihd.net/steamcommunity/public/images/apps/1152020/336bd72415e7087ffe2a9fd10988ad44a5770d78.jpg",
    "icongray": "https://steamcdn-a.akamaihd.net/steamcommunity/public/images/apps/1152020/f46cb48640f8952b249c623f4e4420aad4f12b90.jpg"
  },
  {
    "name": "w8l2",
    "defaultvalue": 0,
    "displayName": "World 8 Level 2 Complete",
    "hidden": 0,
    "description": "World 8 Level 2 Complete",
    "icon": "https://steamcdn-a.akamaihd.net/steamcommunity/public/images/apps/1152020/6e08aa1315c477a67fe241e10f9038b41a9fe610.jpg",
    "icongray": "https://steamcdn-a.akamaihd.net/steamcommunity/public/images/apps/1152020/f46cb48640f8952b249c623f4e4420aad4f12b90.jpg"
  },
  {
    "name": "w8l3",
    "defaultvalue": 0,
    "displayName": "World 8 Level 3 Complete",
    "hidden": 0,
    "description": "World 8 Level 3 Complete",
    "icon": "https://steamcdn-a.akamaihd.net/steamcommunity/public/images/apps/1152020/fff42328a22e9fced0b44f95f3f5c013ee9ff3ce.jpg",
    "icongray": "https://steamcdn-a.akamaihd.net/steamcommunity/public/images/apps/1152020/f46cb48640f8952b249c623f4e4420aad4f12b90.jpg"
  },
  {
    "name": "w8l4",
    "defaultvalue": 0,
    "displayName": "World 8 Level 4 Complete",
    "hidden": 0,
    "description": "World 8 Level 4 Complete",
    "icon": "https://steamcdn-a.akamaihd.net/steamcommunity/public/images/apps/1152020/4d9d4be09df0b34a17bf2f77f4d3a5832c7f0c1d.jpg",
    "icongray": "https://steamcdn-a.akamaihd.net/steamcommunity/public/images/apps/1152020/f46cb48640f8952b249c623f4e4420aad4f12b90.jpg"
  },
  {
    "name": "w8l6",
    "defaultvalue": 0,
    "displayName": "World 8 Level 5 Complete",
    "hidden": 0,
    "description": "World 8 Level 5 Complete",
    "icon": "https://steamcdn-a.akamaihd.net/steamcommunity/public/images/apps/1152020/ae93ba3540434d1e8a1dd57146d5abaca96cacbb.jpg",
    "icongray": "https://steamcdn-a.akamaihd.net/steamcommunity/public/images/apps/1152020/f46cb48640f8952b249c623f4e4420aad4f12b90.jpg"
  },
  {
    "name": "w8l8",
    "defaultvalue": 0,
    "displayName": "World 8 Level 8 Complete",
    "hidden": 0,
    "description": "World 8 Level 8 Complete",
    "icon": "https://steamcdn-a.akamaihd.net/steamcommunity/public/images/apps/1152020/048ac5d6010f4f13097936421c4dd0d9cbc4729e.jpg",
    "icongray": "https://steamcdn-a.akamaihd.net/steamcommunity/public/images/apps/1152020/f46cb48640f8952b249c623f4e4420aad4f12b90.jpg"
  },
  {
    "name": "w8l9",
    "defaultvalue": 0,
    "displayName": "World 8 Level 9 Complete",
    "hidden": 0,
    "description": "World 8 Level 9 Complete",
    "icon": "https://steamcdn-a.akamaihd.net/steamcommunity/public/images/apps/1152020/10fbf5d5b7e512ed970bcc205844f2dc91d8e820.jpg",
    "icongray": "https://steamcdn-a.akamaihd.net/steamcommunity/public/images/apps/1152020/d468660cc452a67bd4d55dfdae6d05eb21878d92.jpg"
  },
  {
    "name": "w8l10",
    "defaultvalue": 0,
    "displayName": "World 8 Level 10 Complete",
    "hidden": 0,
    "description": "World 8 Level 10 Complete",
    "icon": "https://steamcdn-a.akamaihd.net/steamcommunity/public/images/apps/1152020/27b1688185cdca588d81609aa8456fa35a2342bd.jpg",
    "icongray": "https://steamcdn-a.akamaihd.net/steamcommunity/public/images/apps/1152020/f46cb48640f8952b249c623f4e4420aad4f12b90.jpg"
  },
  {
    "name": "w8l11",
    "defaultvalue": 0,
    "displayName": "World 8 Level 11 Complete",
    "hidden": 0,
    "description": "World 8 Level 11 Complete",
    "icon": "https://steamcdn-a.akamaihd.net/steamcommunity/public/images/apps/1152020/f3dcc7d988d78b28679ae7f053457365d35c8272.jpg",
    "icongray": "https://steamcdn-a.akamaihd.net/steamcommunity/public/images/apps/1152020/f46cb48640f8952b249c623f4e4420aad4f12b90.jpg"
  },
  {
    "name": "w9l1",
    "defaultvalue": 0,
    "displayName": "World 9 Level 1 Complete",
    "hidden": 0,
    "description": "World 9 Level 1 Complete",
    "icon": "https://steamcdn-a.akamaihd.net/steamcommunity/public/images/apps/1152020/a3e4727b3f53415eb669b3915fbc9ca6c209064a.jpg",
    "icongray": "https://steamcdn-a.akamaihd.net/steamcommunity/public/images/apps/1152020/f46cb48640f8952b249c623f4e4420aad4f12b90.jpg"
  },
  {
    "name": "w9l2",
    "defaultvalue": 0,
    "displayName": "World 9 Level 2 Complete",
    "hidden": 0,
    "description": "World 9 Level 2 Complete",
    "icon": "https://steamcdn-a.akamaihd.net/steamcommunity/public/images/apps/1152020/e4f340cf347a4f83857678f16d31d7d0a2938c85.jpg",
    "icongray": "https://steamcdn-a.akamaihd.net/steamcommunity/public/images/apps/1152020/f46cb48640f8952b249c623f4e4420aad4f12b90.jpg"
  },
  {
    "name": "w9l3",
    "defaultvalue": 0,
    "displayName": "World 9 Level 3 Complete",
    "hidden": 0,
    "description": "World 9 Level 3 Complete",
    "icon": "https://steamcdn-a.akamaihd.net/steamcommunity/public/images/apps/1152020/a600984eaedd274880e8c1eff57bc6965d3c4e8a.jpg",
    "icongray": "https://steamcdn-a.akamaihd.net/steamcommunity/public/images/apps/1152020/f46cb48640f8952b249c623f4e4420aad4f12b90.jpg"
  },
  {
    "name": "w9l4",
    "defaultvalue": 0,
    "displayName": "World 9 Level 4 Complete",
    "hidden": 0,
    "description": "World 9 Level 4 Complete",
    "icon": "https://steamcdn-a.akamaihd.net/steamcommunity/public/images/apps/1152020/a8fe755eb13038215c46ed6ed5ce160df25ff329.jpg",
    "icongray": "https://steamcdn-a.akamaihd.net/steamcommunity/public/images/apps/1152020/f46cb48640f8952b249c623f4e4420aad4f12b90.jpg"
  },
  {
    "name": "w9l5",
    "defaultvalue": 0,
    "displayName": "World 9 Level 5 Complete",
    "hidden": 0,
    "description": "World 9 Level 5 Complete",
    "icon": "https://steamcdn-a.akamaihd.net/steamcommunity/public/images/apps/1152020/36505683658fb55ff13f50b9247573c985c99c9d.jpg",
    "icongray": "https://steamcdn-a.akamaihd.net/steamcommunity/public/images/apps/1152020/f46cb48640f8952b249c623f4e4420aad4f12b90.jpg"
  },
  {
    "name": "w9l7",
    "defaultvalue": 0,
    "displayName": "World 9 Level 7 Complete",
    "hidden": 0,
    "description": "World 9 Level 7 Complete",
    "icon": "https://steamcdn-a.akamaihd.net/steamcommunity/public/images/apps/1152020/3ac078f124115c86db96c5ac834adc4909a3f6b1.jpg",
    "icongray": "https://steamcdn-a.akamaihd.net/steamcommunity/public/images/apps/1152020/f46cb48640f8952b249c623f4e4420aad4f12b90.jpg"
  },
  {
    "name": "w9l8",
    "defaultvalue": 0,
    "displayName": "World 9 Level 8 Complete",
    "hidden": 0,
    "description": "World 9 Level 8 Complete",
    "icon": "https://steamcdn-a.akamaihd.net/steamcommunity/public/images/apps/1152020/c27becfc5c0db9c8e38f9aac2af503a1af18dfa1.jpg",
    "icongray": "https://steamcdn-a.akamaihd.net/steamcommunity/public/images/apps/1152020/f46cb48640f8952b249c623f4e4420aad4f12b90.jpg"
  },
  {
    "name": "w9l9",
    "defaultvalue": 0,
    "displayName": "World 9 Level 9 Complete",
    "hidden": 0,
    "description": "World 9 Level 9 Complete",
    "icon": "https://steamcdn-a.akamaihd.net/steamcommunity/public/images/apps/1152020/663803be57faa3ed19d013342343d12b7a81392d.jpg",
    "icongray": "https://steamcdn-a.akamaihd.net/steamcommunity/public/images/apps/1152020/f46cb48640f8952b249c623f4e4420aad4f12b90.jpg"
  },
  {
    "name": "w9l10",
    "defaultvalue": 0,
    "displayName": "World 9 Level 10 Complete",
    "hidden": 0,
    "description": "World 9 Level 10 Complete",
    "icon": "https://steamcdn-a.akamaihd.net/steamcommunity/public/images/apps/1152020/7021c78436b999558cbf5dcab9cd674d3dbd9a41.jpg",
    "icongray": "https://steamcdn-a.akamaihd.net/steamcommunity/public/images/apps/1152020/f46cb48640f8952b249c623f4e4420aad4f12b90.jpg"
  },
  {
    "name": "w9l11",
    "defaultvalue": 0,
    "displayName": "World 9 Level 11 Complete",
    "hidden": 0,
    "description": "World 9 Level 11 Complete",
    "icon": "https://steamcdn-a.akamaihd.net/steamcommunity/public/images/apps/1152020/3b4ce5ede758e14be47c852c1803783aca74bbd9.jpg",
    "icongray": "https://steamcdn-a.akamaihd.net/steamcommunity/public/images/apps/1152020/f46cb48640f8952b249c623f4e4420aad4f12b90.jpg"
  },
  {
    "name": "w10l1",
    "defaultvalue": 0,
    "displayName": "World 10 Level 1 Complete",
    "hidden": 0,
    "description": "World 10 Level 1 Complete",
    "icon": "https://steamcdn-a.akamaihd.net/steamcommunity/public/images/apps/1152020/8e39cbbcdbdcfee84659024823e11980c446edaa.jpg",
    "icongray": "https://steamcdn-a.akamaihd.net/steamcommunity/public/images/apps/1152020/f46cb48640f8952b249c623f4e4420aad4f12b90.jpg"
  },
  {
    "name": "w10l2",
    "defaultvalue": 0,
    "displayName": "World 10 Level 2 Complete",
    "hidden": 0,
    "description": "World 10 Level 2 Complete",
    "icon": "https://steamcdn-a.akamaihd.net/steamcommunity/public/images/apps/1152020/61bad7bc54dd2bf76cb9e3bee0ade2daa0165632.jpg",
    "icongray": "https://steamcdn-a.akamaihd.net/steamcommunity/public/images/apps/1152020/f46cb48640f8952b249c623f4e4420aad4f12b90.jpg"
  },
  {
    "name": "w10l3",
    "defaultvalue": 0,
    "displayName": "World 10 Level 3 Complete",
    "hidden": 0,
    "description": "World 10 Level 3 Complete",
    "icon": "https://steamcdn-a.akamaihd.net/steamcommunity/public/images/apps/1152020/367c1b2979fc996c7e2a5dd465f2c3770490cc80.jpg",
    "icongray": "https://steamcdn-a.akamaihd.net/steamcommunity/public/images/apps/1152020/d468660cc452a67bd4d55dfdae6d05eb21878d92.jpg"
  },
  {
    "name": "w10l4",
    "defaultvalue": 0,
    "displayName": "World 10 Level 4 Complete",
    "hidden": 0,
    "description": "World 10 Level 4 Complete",
    "icon": "https://steamcdn-a.akamaihd.net/steamcommunity/public/images/apps/1152020/1ab1d60fe8f46bf746a2c2a6503055a0100e2645.jpg",
    "icongray": "https://steamcdn-a.akamaihd.net/steamcommunity/public/images/apps/1152020/f46cb48640f8952b249c623f4e4420aad4f12b90.jpg"
  },
  {
    "name": "w10l5",
    "defaultvalue": 0,
    "displayName": "World 10 Level 5 Complete",
    "hidden": 0,
    "description": "World 10 Level 5 Complete",
    "icon": "https://steamcdn-a.akamaihd.net/steamcommunity/public/images/apps/1152020/4c61065555c468255fd3e801cadab61f63a531f4.jpg",
    "icongray": "https://steamcdn-a.akamaihd.net/steamcommunity/public/images/apps/1152020/f46cb48640f8952b249c623f4e4420aad4f12b90.jpg"
  },
  {
    "name": "w10l6",
    "defaultvalue": 0,
    "displayName": "World 10 Level 6 Complete",
    "hidden": 0,
    "description": "World 10 Level 6 Complete",
    "icon": "https://steamcdn-a.akamaihd.net/steamcommunity/public/images/apps/1152020/eb8ade0574152ca26b3d658529dff89d4113a953.jpg",
    "icongray": "https://steamcdn-a.akamaihd.net/steamcommunity/public/images/apps/1152020/f46cb48640f8952b249c623f4e4420aad4f12b90.jpg"
  },
  {
    "name": "w10l7",
    "defaultvalue": 0,
    "displayName": "World 10 Level 7 Complete",
    "hidden": 0,
    "description": "World 10 Level 7 Complete",
    "icon": "https://steamcdn-a.akamaihd.net/steamcommunity/public/images/apps/1152020/87bf643bac5c7a53022be967552d430bbce8c3d0.jpg",
    "icongray": "https://steamcdn-a.akamaihd.net/steamcommunity/public/images/apps/1152020/f46cb48640f8952b249c623f4e4420aad4f12b90.jpg"
  },
  {
    "name": "w10l8",
    "defaultvalue": 0,
    "displayName": "World 10 Level 8 Complete",
    "hidden": 0,
    "description": "World 10 Level 8 Complete",
    "icon": "https://steamcdn-a.akamaihd.net/steamcommunity/public/images/apps/1152020/1a1381f89673a7d78dcc4f816b74f1e90ac98667.jpg",
    "icongray": "https://steamcdn-a.akamaihd.net/steamcommunity/public/images/apps/1152020/f46cb48640f8952b249c623f4e4420aad4f12b90.jpg"
  },
  {
    "name": "w10l9",
    "defaultvalue": 0,
    "displayName": "World 10 Level 9 Complete",
    "hidden": 0,
    "description": "World 10 Level 9 Complete",
    "icon": "https://steamcdn-a.akamaihd.net/steamcommunity/public/images/apps/1152020/a33e77e39cf4138060f07a73bacc264a32282e45.jpg",
    "icongray": "https://steamcdn-a.akamaihd.net/steamcommunity/public/images/apps/1152020/f46cb48640f8952b249c623f4e4420aad4f12b90.jpg"
  },
  {
    "name": "w10l10",
    "defaultvalue": 0,
    "displayName": "World 10 Level 10 Complete",
    "hidden": 0,
    "description": "World 10 Level 10 Complete",
    "icon": "https://steamcdn-a.akamaihd.net/steamcommunity/public/images/apps/1152020/52a43a6479b9af5bff669b3ee14aa788a5d41ceb.jpg",
    "icongray": "https://steamcdn-a.akamaihd.net/steamcommunity/public/images/apps/1152020/f46cb48640f8952b249c623f4e4420aad4f12b90.jpg"
  },
  {
    "name": "w10l11",
    "defaultvalue": 0,
    "displayName": "World 10 Level 11 Complete",
    "hidden": 0,
    "description": "World 10 Level 11 Complete",
    "icon": "https://steamcdn-a.akamaihd.net/steamcommunity/public/images/apps/1152020/312bfd9b0c7a36f2e1ba24be11fc4aacf28fb33a.jpg",
    "icongray": "https://steamcdn-a.akamaihd.net/steamcommunity/public/images/apps/1152020/f46cb48640f8952b249c623f4e4420aad4f12b90.jpg"
  },
  {
    "name": "skill_no_eyes",
    "defaultvalue": 0,
    "displayName": "Spectocular",
    "hidden": 0,
    "description": "Beat the game without eyes",
    "icon": "https://steamcdn-a.akamaihd.net/steamcommunity/public/images/apps/1152020/c7455d03d8b1fd728d138c52593bf1327c230cb7.jpg",
    "icongray": "https://steamcdn-a.akamaihd.net/steamcommunity/public/images/apps/1152020/f46cb48640f8952b249c623f4e4420aad4f12b90.jpg"
  },
  {
    "name": "skill_no_ears",
    "defaultvalue": 0,
    "displayName": "Plauditory",
    "hidden": 0,
    "description": "Beat the game without ears",
    "icon": "https://steamcdn-a.akamaihd.net/steamcommunity/public/images/apps/1152020/39a5fc6f5c4a0c9a7c91e88b0ffa725e68e7847a.jpg",
    "icongray": "https://steamcdn-a.akamaihd.net/steamcommunity/public/images/apps/1152020/d468660cc452a67bd4d55dfdae6d05eb21878d92.jpg"
  },
  {
    "name": "skill_die_10",
    "defaultvalue": 0,
    "displayName": "10 Deaths",
    "hidden": 0,
    "description": "Die 10 Times",
    "icon": "https://steamcdn-a.akamaihd.net/steamcommunity/public/images/apps/1152020/43f63136cbf774e71033f57ce7e94f8a36e1b45f.jpg",
    "icongray": "https://steamcdn-a.akamaihd.net/steamcommunity/public/images/apps/1152020/f46cb48640f8952b249c623f4e4420aad4f12b90.jpg"
  },
  {
    "name": "skill_die_100",
    "defaultvalue": 0,
    "displayName": "100 Deaths",
    "hidden": 0,
    "description": "Die 100 Times",
    "icon": "https://steamcdn-a.akamaihd.net/steamcommunity/public/images/apps/1152020/ea379155efb6109be61b30fbfab57734339f2716.jpg",
    "icongray": "https://steamcdn-a.akamaihd.net/steamcommunity/public/images/apps/1152020/f46cb48640f8952b249c623f4e4420aad4f12b90.jpg"
  },
  {
    "name": "skill_kill_1000",
    "defaultvalue": 0,
    "displayName": "1000 Kills",
    "hidden": 0,
    "description": "Kill 1000 Enemies",
    "icon": "https://steamcdn-a.akamaihd.net/steamcommunity/public/images/apps/1152020/549d0676b6e09017117fe2f6f70f73a3d5c7bb72.jpg",
    "icongray": "https://steamcdn-a.akamaihd.net/steamcommunity/public/images/apps/1152020/d468660cc452a67bd4d55dfdae6d05eb21878d92.jpg"
  },
  {
    "name": "skill_credits",
    "defaultvalue": 0,
    "displayName": "They worked hard",
    "hidden": 0,
    "description": "Review the game's credits",
    "icon": "https://steamcdn-a.akamaihd.net/steamcommunity/public/images/apps/1152020/74c10c68240bc0a6fee56e39fea0a33b36f06d4e.jpg",
    "icongray": "https://steamcdn-a.akamaihd.net/steamcommunity/public/images/apps/1152020/f46cb48640f8952b249c623f4e4420aad4f12b90.jpg"
  },
  {
    "name": "skill_runner",
    "defaultvalue": 0,
    "displayName": "100K Runner",
    "hidden": 0,
    "description": "Run more than 100,000 meters",
    "icon": "https://steamcdn-a.akamaihd.net/steamcommunity/public/images/apps/1152020/9c356915b25691bdd9b391b16073336a792ee7cb.jpg",
    "icongray": "https://steamcdn-a.akamaihd.net/steamcommunity/public/images/apps/1152020/f46cb48640f8952b249c623f4e4420aad4f12b90.jpg"
  }
]