[
  {
    "name": "ACH_WIN_ONE_GAME",
    "defaultvalue": 0,
    "displayName": "完美开局",
    "hidden": 0,
    "description": "第一关获得三星",
    "icon": "https://steamcdn-a.akamaihd.net/steamcommunity/public/images/apps/753920/4141111b61dd708a6d77d85b9ee4b6020505fd6b.jpg",
    "icongray": "https://steamcdn-a.akamaihd.net/steamcommunity/public/images/apps/753920/795f2568b55b234cb1f8c3c2051485620bd3d122.jpg"
  },
  {
    "name": "ACH_GET_AKM",
    "defaultvalue": 0,
    "displayName": "传奇枪械",
    "hidden": 0,
    "description": "拥有AKM",
    "icon": "https://steamcdn-a.akamaihd.net/steamcommunity/public/images/apps/753920/8897865295ce8448e340f7ef733eb6e65ee737d6.jpg",
    "icongray": "https://steamcdn-a.akamaihd.net/steamcommunity/public/images/apps/753920/c8d35deb59236bdf26e8385f81d4e98a276d93eb.jpg"
  },
  {
    "name": "ACH_TO_SPEND_MONEY",
    "defaultvalue": 0,
    "displayName": "一掷千金",
    "hidden": 0,
    "description": "花费金额到达10000",
    "icon": "https://steamcdn-a.akamaihd.net/steamcommunity/public/images/apps/753920/721276fbaae01fddb67cca2f6b9a3f4fb27fe401.jpg",
    "icongray": "https://steamcdn-a.akamaihd.net/steamcommunity/public/images/apps/753920/2a39c36359cd224ad737b75b9d6fc122346e557e.jpg"
  },
  {
    "name": "ACH_EAT_CHICKEN_THREE",
    "defaultvalue": 0,
    "displayName": "大腹便便",
    "hidden": 0,
    "description": "吃鸡次数达到3次",
    "icon": "https://steamcdn-a.akamaihd.net/steamcommunity/public/images/apps/753920/38668b173968c03317ea63d616fbf58f31d85ce2.jpg",
    "icongray": "https://steamcdn-a.akamaihd.net/steamcommunity/public/images/apps/753920/6d53902354f7f26d87a5497ec0eb2b124dbf1173.jpg"
  },
  {
    "name": "ACH_GET_PISTOL",
    "defaultvalue": 0,
    "displayName": "旅程起始",
    "hidden": 0,
    "description": "购买了p92",
    "icon": "https://steamcdn-a.akamaihd.net/steamcommunity/public/images/apps/753920/21dea3d3b2f54aec223919711651746202223211.jpg",
    "icongray": "https://steamcdn-a.akamaihd.net/steamcommunity/public/images/apps/753920/1af288c8c91cc10e918148cb66465ed03fd5a1c4.jpg"
  },
  {
    "name": "ACH_GET_SUBMACHINE_GUN",
    "defaultvalue": 0,
    "displayName": "兄弟们冲啊！",
    "hidden": 0,
    "description": "购买了第一把冲锋枪",
    "icon": "https://steamcdn-a.akamaihd.net/steamcommunity/public/images/apps/753920/4639de59da15e57436591afd8601d7f8a2394b73.jpg",
    "icongray": "https://steamcdn-a.akamaihd.net/steamcommunity/public/images/apps/753920/e1438baab4e5d3593825d91da52d7ae483981d22.jpg"
  },
  {
    "name": "ACH_GET_ASSAULT_RIFLE",
    "defaultvalue": 0,
    "displayName": "突~突~突",
    "hidden": 0,
    "description": "购买了第一把突击步枪",
    "icon": "https://steamcdn-a.akamaihd.net/steamcommunity/public/images/apps/753920/3134c049a797f76da09a31d90d8aee71291273af.jpg",
    "icongray": "https://steamcdn-a.akamaihd.net/steamcommunity/public/images/apps/753920/f1a7fb4199f332859ffc47bc477ace37881c9885.jpg"
  },
  {
    "name": "ACH_GET_SNIPER_RIFLE",
    "defaultvalue": 0,
    "displayName": "神秘杀手",
    "hidden": 0,
    "description": "购买了第一把狙击枪",
    "icon": "https://steamcdn-a.akamaihd.net/steamcommunity/public/images/apps/753920/d21de9ff4156979edea137b803824b40d1d42091.jpg",
    "icongray": "https://steamcdn-a.akamaihd.net/steamcommunity/public/images/apps/753920/3b2bb675bb61087f93f7227a1d89ff49f98f7788.jpg"
  },
  {
    "name": "ACH_GET_M249_GUN",
    "defaultvalue": 0,
    "displayName": "这是弹幕游戏",
    "hidden": 0,
    "description": "购买了m249",
    "icon": "https://steamcdn-a.akamaihd.net/steamcommunity/public/images/apps/753920/2a1c4ac06c27172612814f1954cac3a3830d78b6.jpg",
    "icongray": "https://steamcdn-a.akamaihd.net/steamcommunity/public/images/apps/753920/4d61b8cfe04b3b776486e0774c9426aa6f29b912.jpg"
  },
  {
    "name": "ACH_GET_PAN",
    "defaultvalue": 0,
    "displayName": "家庭主妇的神器",
    "hidden": 0,
    "description": "购买了平底锅",
    "icon": "https://steamcdn-a.akamaihd.net/steamcommunity/public/images/apps/753920/d319040478c788c3f498c613a40dd9be9082388d.jpg",
    "icongray": "https://steamcdn-a.akamaihd.net/steamcommunity/public/images/apps/753920/ebf5f91917b970ae83d7a1c6b94035cefed29730.jpg"
  },
  {
    "name": "ACH_GET_SNIPER_MIRROR_EIGHT",
    "defaultvalue": 0,
    "displayName": "目光敏锐",
    "hidden": 0,
    "description": "购买了8倍瞄准器",
    "icon": "https://steamcdn-a.akamaihd.net/steamcommunity/public/images/apps/753920/b58627ce539e886cf7bd574f03105b95421feb08.jpg",
    "icongray": "https://steamcdn-a.akamaihd.net/steamcommunity/public/images/apps/753920/cd0f6d5065aa8bd0265c5dc1a07379ed50436fa0.jpg"
  },
  {
    "name": "ACH_GET_SNIPER_MIRROR_FIFTEEN",
    "defaultvalue": 0,
    "displayName": "鹰之视角",
    "hidden": 0,
    "description": "购买了15倍瞄准器",
    "icon": "https://steamcdn-a.akamaihd.net/steamcommunity/public/images/apps/753920/44dccae3b317b132ef2239176d9b0f74ead5abe8.jpg",
    "icongray": "https://steamcdn-a.akamaihd.net/steamcommunity/public/images/apps/753920/98ce4ecc997068155f89e75deda317cb40b158d3.jpg"
  },
  {
    "name": "ACH_WIN_ALL_GAME",
    "defaultvalue": 0,
    "displayName": "剩者为王",
    "hidden": 0,
    "description": "通关所有关卡",
    "icon": "https://steamcdn-a.akamaihd.net/steamcommunity/public/images/apps/753920/5b823c0cab11d50d489e450668e2db1c16332726.jpg",
    "icongray": "https://steamcdn-a.akamaihd.net/steamcommunity/public/images/apps/753920/0ae26fee676720662ecabcfefb9331d997ba1c60.jpg"
  },
  {
    "name": "ACH_ALL_THREE_STAR",
    "defaultvalue": 0,
    "displayName": "完美之旅",
    "hidden": 0,
    "description": "所有关卡获得3颗星",
    "icon": "https://steamcdn-a.akamaihd.net/steamcommunity/public/images/apps/753920/612f87038cceff8923559e8b94bba732b967805a.jpg",
    "icongray": "https://steamcdn-a.akamaihd.net/steamcommunity/public/images/apps/753920/b1ec04e02ddfc50cb6255bc2880b1094d42cd365.jpg"
  },
  {
    "name": "ACH_BOOM",
    "defaultvalue": 0,
    "displayName": "爆炸才是艺术",
    "hidden": 0,
    "description": "用手雷一次性杀死2个敌人",
    "icon": "https://steamcdn-a.akamaihd.net/steamcommunity/public/images/apps/753920/c794b33f7c4629130b3974401761784ff598f783.jpg",
    "icongray": "https://steamcdn-a.akamaihd.net/steamcommunity/public/images/apps/753920/4a44f1d244a8b855a679807953515aeb476beb98.jpg"
  },
  {
    "name": "ACH_HEADSHOT_ONE",
    "defaultvalue": 0,
    "displayName": "一击必杀",
    "hidden": 0,
    "description": "第一次爆头",
    "icon": "https://steamcdn-a.akamaihd.net/steamcommunity/public/images/apps/753920/006570e27346efa4782c5d5941e4efb826e58600.jpg",
    "icongray": "https://steamcdn-a.akamaihd.net/steamcommunity/public/images/apps/753920/edeee145a5b5a673ee56e75eeb36a0230c43c0cc.jpg"
  },
  {
    "name": "ACH_HEADSHOT_TWENTY_FIVE",
    "defaultvalue": 0,
    "displayName": "枪枪致命",
    "hidden": 0,
    "description": "爆头杀死25个敌人",
    "icon": "https://steamcdn-a.akamaihd.net/steamcommunity/public/images/apps/753920/0491c86640e45a8b2230e51f62b12a23c1a7b418.jpg",
    "icongray": "https://steamcdn-a.akamaihd.net/steamcommunity/public/images/apps/753920/abe61b2b77686a519e7cb192fb15a38f3812fe9b.jpg"
  },
  {
    "name": "ACH_HEADSHOT_HUNDRED",
    "defaultvalue": 0,
    "displayName": "死神再临",
    "hidden": 0,
    "description": "爆头击杀100个敌人",
    "icon": "https://steamcdn-a.akamaihd.net/steamcommunity/public/images/apps/753920/e6cd2995f4e33c7da8f5d3444a72e6b6cde7a297.jpg",
    "icongray": "https://steamcdn-a.akamaihd.net/steamcommunity/public/images/apps/753920/17041a1f117884a849f11ea48d916c856c13660a.jpg"
  },
  {
    "name": "ACH_RESURRECTION_TEN",
    "defaultvalue": 0,
    "displayName": "不死之躯",
    "hidden": 0,
    "description": "从濒死状态复活次数到达10次",
    "icon": "https://steamcdn-a.akamaihd.net/steamcommunity/public/images/apps/753920/9cd56e334688c17b5ca295b69d3f596b059ed9ea.jpg",
    "icongray": "https://steamcdn-a.akamaihd.net/steamcommunity/public/images/apps/753920/b3267e133691729bdeb359845490e155a45b9148.jpg"
  },
  {
    "name": "ACH_DAMAGE_CAR_TEN",
    "defaultvalue": 0,
    "displayName": "破坏之王",
    "hidden": 0,
    "description": "破坏摩托车和汽车数量大于10次",
    "icon": "https://steamcdn-a.akamaihd.net/steamcommunity/public/images/apps/753920/d78ff4b9f213e5947499c936ad29b30055592364.jpg",
    "icongray": "https://steamcdn-a.akamaihd.net/steamcommunity/public/images/apps/753920/57133b5bc547b6710019dfb1a56df2c5d33227ad.jpg"
  },
  {
    "name": "ACH_OPEN_BOX_TWICE",
    "defaultvalue": 0,
    "displayName": "充足补给",
    "hidden": 0,
    "description": "打开箱子两次",
    "icon": "https://steamcdn-a.akamaihd.net/steamcommunity/public/images/apps/753920/af0868c7b12dc516514a6b5d537bacfa69500384.jpg",
    "icongray": "https://steamcdn-a.akamaihd.net/steamcommunity/public/images/apps/753920/b8c00c6b50db440dd12cff0b95c6cb250bb197fb.jpg"
  }
]