﻿{
  "Dlcs": {
    "660250": {
      "Name": "MultiVR.se All Scenes",
      "ImageUrl": "https://steamcdn-a.akamaihd.net/steam/apps/660250/header.jpg?t=1497962116"
    }
  },
  "Name": "MultiVR.se",
  "AppId": "584200",
  "ImageUrl": "https://steamcdn-a.akamaihd.net/steam/apps/584200/header.jpg?t=1497962191",
  "Languages": [
    "english"
  ],
  "Platforms": {
    "windows": true,
    "mac": false,
    "linux": false
  }
}