{
  "Dlcs": {},
  "Name": "MegaGlest",
  "AppId": "578870",
  "ImageUrl": "https://steamcdn-a.akamaihd.net/steam/apps/578870/header.jpg?t=1572396304",
  "Languages": [
    "english",
    "french",
    "italian",
    "german",
    "spanish",
    "danish",
    "polish"
  ],
  "Platforms": {
    "windows": true,
    "mac": false,
    "linux": true
  }
}