{
  "Dlcs": {
    "969620": {
      "Name": "Seven days with the Ghost - Original Soundtrack",
      "ImageUrl": "https://steamcdn-a.akamaihd.net/steam/apps/969620/header.jpg?t=1580430896"
    }
  },
  "Name": "Seven days with the Ghost",
  "AppId": "946460",
  "ImageUrl": "https://steamcdn-a.akamaihd.net/steam/apps/946460/header.jpg?t=1580430641",
  "Languages": [
    "english"
  ],
  "Platforms": {
    "windows": true,
    "mac": false,
    "linux": false
  }
}