[
  {
    "name": "ACHIEVEMENT_0",
    "defaultvalue": 0,
    "displayName": "Welcome To Drawland ",
    "hidden": 0,
    "description": "Finish the first season",
    "icon": "https://steamcdn-a.akamaihd.net/steamcommunity/public/images/apps/677880/f936895ae5cf1ce99b5aaec221ee457a5e773cb2.jpg",
    "icongray": "https://steamcdn-a.akamaihd.net/steamcommunity/public/images/apps/677880/2f70b331d59b14fde8b5e22cf2fb8bf0f653de90.jpg"
  },
  {
    "name": "ACHIEVEMENT_1",
    "defaultvalue": 0,
    "displayName": "Drawlywood Boulevard ",
    "hidden": 0,
    "description": "Finish the first level of the Adventure Mode with 3 stars",
    "icon": "https://steamcdn-a.akamaihd.net/steamcommunity/public/images/apps/677880/e803184d62060b6aff5441fece2561f41f25c7ec.jpg",
    "icongray": "https://steamcdn-a.akamaihd.net/steamcommunity/public/images/apps/677880/2f70b331d59b14fde8b5e22cf2fb8bf0f653de90.jpg"
  },
  {
    "name": "ACHIEVEMENT_2",
    "defaultvalue": 0,
    "displayName": "I'm The Stickman! ",
    "hidden": 0,
    "description": "Play with the fabulous Stickman",
    "icon": "https://steamcdn-a.akamaihd.net/steamcommunity/public/images/apps/677880/719909bbd36282004f29a74412aef7e20df06421.jpg",
    "icongray": "https://steamcdn-a.akamaihd.net/steamcommunity/public/images/apps/677880/2f70b331d59b14fde8b5e22cf2fb8bf0f653de90.jpg"
  },
  {
    "name": "ACHIEVEMENT_3",
    "defaultvalue": 0,
    "displayName": "Paperworld",
    "hidden": 0,
    "description": "Finish the second season",
    "icon": "https://steamcdn-a.akamaihd.net/steamcommunity/public/images/apps/677880/d3ee92918844d447f589bad0ba39062d527ab074.jpg",
    "icongray": "https://steamcdn-a.akamaihd.net/steamcommunity/public/images/apps/677880/2f70b331d59b14fde8b5e22cf2fb8bf0f653de90.jpg"
  },
  {
    "name": "ACHIEVEMENT_4",
    "defaultvalue": 0,
    "displayName": "Draw Draw Land",
    "hidden": 0,
    "description": "Finish the third season",
    "icon": "https://steamcdn-a.akamaihd.net/steamcommunity/public/images/apps/677880/fc7e21a1c3fce1255b6bd412e1ebe3cabf1e55d0.jpg",
    "icongray": "https://steamcdn-a.akamaihd.net/steamcommunity/public/images/apps/677880/2f70b331d59b14fde8b5e22cf2fb8bf0f653de90.jpg"
  },
  {
    "name": "ACHIEVEMENT_5",
    "defaultvalue": 0,
    "displayName": "Brave New Paperworld",
    "hidden": 0,
    "description": "Finish the fourth season",
    "icon": "https://steamcdn-a.akamaihd.net/steamcommunity/public/images/apps/677880/512017f124cae84854efaddec5ba37310d1f2c61.jpg",
    "icongray": "https://steamcdn-a.akamaihd.net/steamcommunity/public/images/apps/677880/2f70b331d59b14fde8b5e22cf2fb8bf0f653de90.jpg"
  },
  {
    "name": "ACHIEVEMENT_6",
    "defaultvalue": 0,
    "displayName": "Drawer Simulator",
    "hidden": 0,
    "description": "Finish the sixth season",
    "icon": "https://steamcdn-a.akamaihd.net/steamcommunity/public/images/apps/677880/589881b9cb867b9ad2902d658f1cc7431b281252.jpg",
    "icongray": "https://steamcdn-a.akamaihd.net/steamcommunity/public/images/apps/677880/2f70b331d59b14fde8b5e22cf2fb8bf0f653de90.jpg"
  },
  {
    "name": "ACHIEVEMENT_7",
    "defaultvalue": 0,
    "displayName": "Two Draws To Drawland",
    "hidden": 0,
    "description": "Finish the eighth season",
    "icon": "https://steamcdn-a.akamaihd.net/steamcommunity/public/images/apps/677880/8aa44579b47605b22384b6b3d1437eda1ff22c86.jpg",
    "icongray": "https://steamcdn-a.akamaihd.net/steamcommunity/public/images/apps/677880/2f70b331d59b14fde8b5e22cf2fb8bf0f653de90.jpg"
  },
  {
    "name": "ACHIEVEMENT_8",
    "defaultvalue": 0,
    "displayName": "00000001",
    "hidden": 0,
    "description": "Finish 10th season",
    "icon": "https://steamcdn-a.akamaihd.net/steamcommunity/public/images/apps/677880/cb0504ded0a3331769605b0141999d431634b528.jpg",
    "icongray": "https://steamcdn-a.akamaihd.net/steamcommunity/public/images/apps/677880/2f70b331d59b14fde8b5e22cf2fb8bf0f653de90.jpg"
  },
  {
    "name": "ACHIEVEMENT_9",
    "defaultvalue": 0,
    "displayName": "Pen Runner",
    "hidden": 0,
    "description": "Finish the 12th season",
    "icon": "https://steamcdn-a.akamaihd.net/steamcommunity/public/images/apps/677880/a185a8611ad7b0aba07e429c828c32e0e54ba008.jpg",
    "icongray": "https://steamcdn-a.akamaihd.net/steamcommunity/public/images/apps/677880/2f70b331d59b14fde8b5e22cf2fb8bf0f653de90.jpg"
  },
  {
    "name": "ACHIEVEMENT_10",
    "defaultvalue": 0,
    "displayName": "Is it Kenneth or Arnold?",
    "hidden": 0,
    "description": "Finish 14th season",
    "icon": "https://steamcdn-a.akamaihd.net/steamcommunity/public/images/apps/677880/8d57805cd6ffc4828cb262130a833cf996a0ffdc.jpg",
    "icongray": "https://steamcdn-a.akamaihd.net/steamcommunity/public/images/apps/677880/2f70b331d59b14fde8b5e22cf2fb8bf0f653de90.jpg"
  },
  {
    "name": "ACHIEVEMENT_11",
    "defaultvalue": 0,
    "displayName": "Grand Master Drawer",
    "hidden": 0,
    "description": "Finish the game",
    "icon": "https://steamcdn-a.akamaihd.net/steamcommunity/public/images/apps/677880/11d472462d388bccb44df5ed567075516734809a.jpg",
    "icongray": "https://steamcdn-a.akamaihd.net/steamcommunity/public/images/apps/677880/2f70b331d59b14fde8b5e22cf2fb8bf0f653de90.jpg"
  },
  {
    "name": "ACHIEVEMENT_12",
    "defaultvalue": 0,
    "displayName": "Volcano Insurance",
    "hidden": 0,
    "description": "Finish 4th level of 8th season",
    "icon": "https://steamcdn-a.akamaihd.net/steamcommunity/public/images/apps/677880/5b49d9b60938671b63d90d6bf0a0283039e2b983.jpg",
    "icongray": "https://steamcdn-a.akamaihd.net/steamcommunity/public/images/apps/677880/2f70b331d59b14fde8b5e22cf2fb8bf0f653de90.jpg"
  },
  {
    "name": "ACHIEVEMENT_13",
    "defaultvalue": 0,
    "displayName": "I Believe I Can Draw",
    "hidden": 0,
    "description": "Finish 3rd level of 4th season",
    "icon": "https://steamcdn-a.akamaihd.net/steamcommunity/public/images/apps/677880/4fb7dfc9e0f0c44f0dd0f4429c5feb7fae4f1999.jpg",
    "icongray": "https://steamcdn-a.akamaihd.net/steamcommunity/public/images/apps/677880/2f70b331d59b14fde8b5e22cf2fb8bf0f653de90.jpg"
  },
  {
    "name": "ACHIEVEMENT_14",
    "defaultvalue": 0,
    "displayName": "Icarus Was Here",
    "hidden": 0,
    "description": "Finish 4th level of 4th season",
    "icon": "https://steamcdn-a.akamaihd.net/steamcommunity/public/images/apps/677880/be44b92585cceb9f294c2557bbea0d7e238787ff.jpg",
    "icongray": "https://steamcdn-a.akamaihd.net/steamcommunity/public/images/apps/677880/2f70b331d59b14fde8b5e22cf2fb8bf0f653de90.jpg"
  },
  {
    "name": "ACHIEVEMENT_15",
    "defaultvalue": 0,
    "displayName": "Family Business",
    "hidden": 0,
    "description": "Finish 6th level of 4th season",
    "icon": "https://steamcdn-a.akamaihd.net/steamcommunity/public/images/apps/677880/edd73ce9bbcea2d8ac8277af34a297cac23bd72d.jpg",
    "icongray": "https://steamcdn-a.akamaihd.net/steamcommunity/public/images/apps/677880/2f70b331d59b14fde8b5e22cf2fb8bf0f653de90.jpg"
  },
  {
    "name": "ACHIEVEMENT_16",
    "defaultvalue": 0,
    "displayName": "Draw Me A River",
    "hidden": 0,
    "description": "Finish 4th level of 5th season",
    "icon": "https://steamcdn-a.akamaihd.net/steamcommunity/public/images/apps/677880/a28150ce9791f6980e32fa7c85526852ea797a8b.jpg",
    "icongray": "https://steamcdn-a.akamaihd.net/steamcommunity/public/images/apps/677880/2f70b331d59b14fde8b5e22cf2fb8bf0f653de90.jpg"
  },
  {
    "name": "ACHIEVEMENT_17",
    "defaultvalue": 0,
    "displayName": "You Drawn Raptors?",
    "hidden": 0,
    "description": "Finish 5th level of 6th season?",
    "icon": "https://steamcdn-a.akamaihd.net/steamcommunity/public/images/apps/677880/40dccc1c0631048068e3fdc71991c311318eb369.jpg",
    "icongray": "https://steamcdn-a.akamaihd.net/steamcommunity/public/images/apps/677880/2f70b331d59b14fde8b5e22cf2fb8bf0f653de90.jpg"
  },
  {
    "name": "ACHIEVEMENT_18",
    "defaultvalue": 0,
    "displayName": "Je Vous Aime",
    "hidden": 0,
    "description": "Finish 2nd level of 7th season",
    "icon": "https://steamcdn-a.akamaihd.net/steamcommunity/public/images/apps/677880/2c53734f5b89dfb00caa03441fa1f82bbea9bfc6.jpg",
    "icongray": "https://steamcdn-a.akamaihd.net/steamcommunity/public/images/apps/677880/2f70b331d59b14fde8b5e22cf2fb8bf0f653de90.jpg"
  },
  {
    "name": "ACHIEVEMENT_19",
    "defaultvalue": 0,
    "displayName": "Moon In A Bottle",
    "hidden": 0,
    "description": "Finish 5th level of 7th season",
    "icon": "https://steamcdn-a.akamaihd.net/steamcommunity/public/images/apps/677880/4e97950f263fc19e1b40e43333f6bac65fe867f8.jpg",
    "icongray": "https://steamcdn-a.akamaihd.net/steamcommunity/public/images/apps/677880/2f70b331d59b14fde8b5e22cf2fb8bf0f653de90.jpg"
  },
  {
    "name": "ACHIEVEMENT_20",
    "defaultvalue": 0,
    "displayName": "372844 pancakes in the morning",
    "hidden": 0,
    "description": "Finish 5th level of 9th season",
    "icon": "https://steamcdn-a.akamaihd.net/steamcommunity/public/images/apps/677880/ce65a66ece98327943888477b0a344f93865744a.jpg",
    "icongray": "https://steamcdn-a.akamaihd.net/steamcommunity/public/images/apps/677880/2f70b331d59b14fde8b5e22cf2fb8bf0f653de90.jpg"
  },
  {
    "name": "ACHIEVEMENT_21",
    "defaultvalue": 0,
    "displayName": "Lonely Labyrinth Level",
    "hidden": 0,
    "description": "Finish last level of 10th season",
    "icon": "https://steamcdn-a.akamaihd.net/steamcommunity/public/images/apps/677880/d289102e9808aef048926f897eb6c9e6579e33d9.jpg",
    "icongray": "https://steamcdn-a.akamaihd.net/steamcommunity/public/images/apps/677880/2f70b331d59b14fde8b5e22cf2fb8bf0f653de90.jpg"
  },
  {
    "name": "ACHIEVEMENT_22",
    "defaultvalue": 0,
    "displayName": "We're equipping boats too",
    "hidden": 0,
    "description": "Finish 2nd level of 11th season",
    "icon": "https://steamcdn-a.akamaihd.net/steamcommunity/public/images/apps/677880/987d8e59dbcdb6bfecbd00c735904c4eeba6842f.jpg",
    "icongray": "https://steamcdn-a.akamaihd.net/steamcommunity/public/images/apps/677880/2f70b331d59b14fde8b5e22cf2fb8bf0f653de90.jpg"
  },
  {
    "name": "ACHIEVEMENT_23",
    "defaultvalue": 0,
    "displayName": "Those Crooked Penguins",
    "hidden": 0,
    "description": "Finish last level of 12th season",
    "icon": "https://steamcdn-a.akamaihd.net/steamcommunity/public/images/apps/677880/f2b81372d7f0fa8e57d65fddadf4b3c4190b6a08.jpg",
    "icongray": "https://steamcdn-a.akamaihd.net/steamcommunity/public/images/apps/677880/2f70b331d59b14fde8b5e22cf2fb8bf0f653de90.jpg"
  },
  {
    "name": "ACHIEVEMENT_24",
    "defaultvalue": 0,
    "displayName": "May With Flowers",
    "hidden": 0,
    "description": "Finish 4th level of 13th season",
    "icon": "https://steamcdn-a.akamaihd.net/steamcommunity/public/images/apps/677880/b89b3a747e636969bd897e53404fbc43cfe3992a.jpg",
    "icongray": "https://steamcdn-a.akamaihd.net/steamcommunity/public/images/apps/677880/2f70b331d59b14fde8b5e22cf2fb8bf0f653de90.jpg"
  },
  {
    "name": "ACHIEVEMENT_25",
    "defaultvalue": 0,
    "displayName": "Paper Dungeon",
    "hidden": 0,
    "description": "Finish 6th level of 13th season",
    "icon": "https://steamcdn-a.akamaihd.net/steamcommunity/public/images/apps/677880/4db3c614383627e8b669a1f338acca46d66b5906.jpg",
    "icongray": "https://steamcdn-a.akamaihd.net/steamcommunity/public/images/apps/677880/2f70b331d59b14fde8b5e22cf2fb8bf0f653de90.jpg"
  },
  {
    "name": "ACHIEVEMENT_26",
    "defaultvalue": 0,
    "displayName": "Klaatu Barada Nikto!",
    "hidden": 0,
    "description": "Play with the Droid",
    "icon": "https://steamcdn-a.akamaihd.net/steamcommunity/public/images/apps/677880/6c92b0f706e5298bd3c72b7009cd2f8d8ada6740.jpg",
    "icongray": "https://steamcdn-a.akamaihd.net/steamcommunity/public/images/apps/677880/2f70b331d59b14fde8b5e22cf2fb8bf0f653de90.jpg"
  },
  {
    "name": "ACHIEVEMENT_27",
    "defaultvalue": 0,
    "displayName": "The Number Of The Drawer",
    "hidden": 0,
    "description": "Finish level 6 of 6th season",
    "icon": "https://steamcdn-a.akamaihd.net/steamcommunity/public/images/apps/677880/eb351ec455fd4b71339769bffed33f36dc2eb112.jpg",
    "icongray": "https://steamcdn-a.akamaihd.net/steamcommunity/public/images/apps/677880/2f70b331d59b14fde8b5e22cf2fb8bf0f653de90.jpg"
  },
  {
    "name": "ACHIEVEMENT_28",
    "defaultvalue": 0,
    "displayName": "The Spooky Lord",
    "hidden": 0,
    "description": "Finish 7th level of 2nd season",
    "icon": "https://steamcdn-a.akamaihd.net/steamcommunity/public/images/apps/677880/992d2acef881638c11e2a5eedbe116834cd71331.jpg",
    "icongray": "https://steamcdn-a.akamaihd.net/steamcommunity/public/images/apps/677880/2f70b331d59b14fde8b5e22cf2fb8bf0f653de90.jpg"
  },
  {
    "name": "ACHIEVEMENT_29",
    "defaultvalue": 0,
    "displayName": "Guess Who's Back In Town?",
    "hidden": 0,
    "description": "Play with the boy",
    "icon": "https://steamcdn-a.akamaihd.net/steamcommunity/public/images/apps/677880/d2aa511da5fe2c6906584e6a7af6d6af7b267b61.jpg",
    "icongray": "https://steamcdn-a.akamaihd.net/steamcommunity/public/images/apps/677880/2f70b331d59b14fde8b5e22cf2fb8bf0f653de90.jpg"
  },
  {
    "name": "ACHIEVEMENT_30",
    "defaultvalue": 0,
    "displayName": "When You're 17…",
    "hidden": 0,
    "description": "Finish the 17th level of the Adventure Mode",
    "icon": "https://steamcdn-a.akamaihd.net/steamcommunity/public/images/apps/677880/514e37d3f0f561d036fa46d00e31f16867b3631b.jpg",
    "icongray": "https://steamcdn-a.akamaihd.net/steamcommunity/public/images/apps/677880/2f70b331d59b14fde8b5e22cf2fb8bf0f653de90.jpg"
  },
  {
    "name": "ACHIEVEMENT_31",
    "defaultvalue": 0,
    "displayName": "Draw Hard",
    "hidden": 0,
    "description": "Finish a hard mode level",
    "icon": "https://steamcdn-a.akamaihd.net/steamcommunity/public/images/apps/677880/ad2e54d695e61602f335458533b10986b6c7d40e.jpg",
    "icongray": "https://steamcdn-a.akamaihd.net/steamcommunity/public/images/apps/677880/2f70b331d59b14fde8b5e22cf2fb8bf0f653de90.jpg"
  },
  {
    "name": "ACHIEVEMENT_32",
    "defaultvalue": 0,
    "displayName": "Paperomi Plaza ",
    "hidden": 0,
    "description": "Get 3 stars in a hard mode level",
    "icon": "https://steamcdn-a.akamaihd.net/steamcommunity/public/images/apps/677880/ecc7a122d0b28521c9dd17ea480b9ef9c583ee9e.jpg",
    "icongray": "https://steamcdn-a.akamaihd.net/steamcommunity/public/images/apps/677880/2f70b331d59b14fde8b5e22cf2fb8bf0f653de90.jpg"
  },
  {
    "name": "ACHIEVEMENT_33",
    "defaultvalue": 0,
    "displayName": "Dungeon Dice Drawer",
    "hidden": 0,
    "description": "Play a random level",
    "icon": "https://steamcdn-a.akamaihd.net/steamcommunity/public/images/apps/677880/a4bf3e1bae2906a3085f64f777c0e7847b062c92.jpg",
    "icongray": "https://steamcdn-a.akamaihd.net/steamcommunity/public/images/apps/677880/2f70b331d59b14fde8b5e22cf2fb8bf0f653de90.jpg"
  },
  {
    "name": "ACHIEVEMENT_34",
    "defaultvalue": 0,
    "displayName": "Little Pen",
    "hidden": 0,
    "description": "Create your first level",
    "icon": "https://steamcdn-a.akamaihd.net/steamcommunity/public/images/apps/677880/201fb783ce094be834b56c3cddd13f6d4f7823e0.jpg",
    "icongray": "https://steamcdn-a.akamaihd.net/steamcommunity/public/images/apps/677880/2f70b331d59b14fde8b5e22cf2fb8bf0f653de90.jpg"
  },
  {
    "name": "ACHIEVEMENT_35",
    "defaultvalue": 0,
    "displayName": "Pens. Pens Everywhere.",
    "hidden": 0,
    "description": "Create 5 levels",
    "icon": "https://steamcdn-a.akamaihd.net/steamcommunity/public/images/apps/677880/d4e41d5d0ed127fee697e76861a33fca8164e005.jpg",
    "icongray": "https://steamcdn-a.akamaihd.net/steamcommunity/public/images/apps/677880/2f70b331d59b14fde8b5e22cf2fb8bf0f653de90.jpg"
  },
  {
    "name": "ACHIEVEMENT_36",
    "defaultvalue": 0,
    "displayName": "Dragon Heart",
    "hidden": 0,
    "description": "Play with the Dragon",
    "icon": "https://steamcdn-a.akamaihd.net/steamcommunity/public/images/apps/677880/83d739ecb303fb8a02ac2fd1a605e53559b54253.jpg",
    "icongray": "https://steamcdn-a.akamaihd.net/steamcommunity/public/images/apps/677880/2f70b331d59b14fde8b5e22cf2fb8bf0f653de90.jpg"
  },
  {
    "name": "ACHIEVEMENT_37",
    "defaultvalue": 0,
    "displayName": "Troubles in Little Draw ",
    "hidden": 0,
    "description": "Play with the Panda",
    "icon": "https://steamcdn-a.akamaihd.net/steamcommunity/public/images/apps/677880/4565ece0f06ad40cc3fff84e086b6308cc434bb1.jpg",
    "icongray": "https://steamcdn-a.akamaihd.net/steamcommunity/public/images/apps/677880/2f70b331d59b14fde8b5e22cf2fb8bf0f653de90.jpg"
  },
  {
    "name": "ACHIEVEMENT_38",
    "defaultvalue": 0,
    "displayName": "24 Hours Of Le Crayon ",
    "hidden": 0,
    "description": "Finish 2nd level of 2nd season",
    "icon": "https://steamcdn-a.akamaihd.net/steamcommunity/public/images/apps/677880/61df82419d36d1d263f8a427d5d3cb2d74ee4fb2.jpg",
    "icongray": "https://steamcdn-a.akamaihd.net/steamcommunity/public/images/apps/677880/2f70b331d59b14fde8b5e22cf2fb8bf0f653de90.jpg"
  },
  {
    "name": "ACHIEVEMENT_39",
    "defaultvalue": 0,
    "displayName": "Love My Pet",
    "hidden": 0,
    "description": "Play with the cat",
    "icon": "https://steamcdn-a.akamaihd.net/steamcommunity/public/images/apps/677880/53f48408eefc9fb65c21c6763e262e98da7dcb39.jpg",
    "icongray": "https://steamcdn-a.akamaihd.net/steamcommunity/public/images/apps/677880/2f70b331d59b14fde8b5e22cf2fb8bf0f653de90.jpg"
  },
  {
    "name": "ACHIEVEMENT_40",
    "defaultvalue": 0,
    "displayName": "Unicorn Legend",
    "hidden": 0,
    "description": "Mark 10 levels as favorite",
    "icon": "https://steamcdn-a.akamaihd.net/steamcommunity/public/images/apps/677880/3e7a74b8130c802a8932eacc5decf6036c4d8c96.jpg",
    "icongray": "https://steamcdn-a.akamaihd.net/steamcommunity/public/images/apps/677880/2f70b331d59b14fde8b5e22cf2fb8bf0f653de90.jpg"
  },
  {
    "name": "ACHIEVEMENT_41",
    "defaultvalue": 0,
    "displayName": "Under My Dragon Skin",
    "hidden": 0,
    "description": "Unlock a skin",
    "icon": "https://steamcdn-a.akamaihd.net/steamcommunity/public/images/apps/677880/f97169068ceebe9dbda598112dfb3d71b33606d7.jpg",
    "icongray": "https://steamcdn-a.akamaihd.net/steamcommunity/public/images/apps/677880/2f70b331d59b14fde8b5e22cf2fb8bf0f653de90.jpg"
  },
  {
    "name": "ACHIEVEMENT_42",
    "defaultvalue": 0,
    "displayName": "That's The Power Of Draw",
    "hidden": 0,
    "description": "Unlock a power",
    "icon": "https://steamcdn-a.akamaihd.net/steamcommunity/public/images/apps/677880/e754dcef3139409d75b88c8139d804d610433b6d.jpg",
    "icongray": "https://steamcdn-a.akamaihd.net/steamcommunity/public/images/apps/677880/2f70b331d59b14fde8b5e22cf2fb8bf0f653de90.jpg"
  }
]