{
  "Dlcs": {
    "1080810": {
      "Name": "bitDungeon III OST",
      "ImageUrl": "https://steamcdn-a.akamaihd.net/steam/apps/1080810/header.jpg?t=1565616193"
    }
  },
  "Name": "bit Dungeon III",
  "AppId": "856210",
  "ImageUrl": "https://steamcdn-a.akamaihd.net/steam/apps/856210/header.jpg?t=1586381745",
  "Languages": [
    "english"
  ],
  "Platforms": {
    "windows": true,
    "mac": false,
    "linux": false
  }
}