[
  {
    "name": "WINE_GOD",
    "defaultvalue": 0,
    "displayName": "千杯不倒",
    "hidden": 0,
    "description": "在蓝天使饮酒",
    "icon": "https://steamcdn-a.akamaihd.net/steamcommunity/public/images/apps/682670/184bcd7a1101447350dc71629ada6793d3ca5b15.jpg",
    "icongray": "https://steamcdn-a.akamaihd.net/steamcommunity/public/images/apps/682670/8334510bdac60e43e0953aa9ad502b4e30f42f66.jpg"
  },
  {
    "name": "FLOWER",
    "defaultvalue": 0,
    "displayName": "女人心",
    "hidden": 0,
    "description": "送林初花束",
    "icon": "https://steamcdn-a.akamaihd.net/steamcommunity/public/images/apps/682670/e6f0d9abec3dd806a52873541848ffc975886852.jpg",
    "icongray": "https://steamcdn-a.akamaihd.net/steamcommunity/public/images/apps/682670/c9dadda19f430c50aa2360ebae846e6449b54aed.jpg"
  },
  {
    "name": "PROF_MEMORY",
    "defaultvalue": 0,
    "displayName": "“雁行”",
    "hidden": 0,
    "description": "解锁教授的回忆",
    "icon": "https://steamcdn-a.akamaihd.net/steamcommunity/public/images/apps/682670/9c3a99c1f0295500242933d7083e18b1bb3c2d76.jpg",
    "icongray": "https://steamcdn-a.akamaihd.net/steamcommunity/public/images/apps/682670/6f9d7d485a3da033047bb9b2976b69edc228f422.jpg"
  },
  {
    "name": "SONNY_KIT",
    "defaultvalue": 0,
    "displayName": "老七和阿云",
    "hidden": 0,
    "description": "解锁老七的回忆",
    "icon": "https://steamcdn-a.akamaihd.net/steamcommunity/public/images/apps/682670/029186b8391653086e36b7040f60a34128a84dc1.jpg",
    "icongray": "https://steamcdn-a.akamaihd.net/steamcommunity/public/images/apps/682670/0e91a5d7f8a61be3ba695ae8cef4ed6c0475581d.jpg"
  },
  {
    "name": "BREAKFAST",
    "defaultvalue": 0,
    "displayName": "心宽体胖",
    "hidden": 0,
    "description": "在恩惠早点铺用餐",
    "icon": "https://steamcdn-a.akamaihd.net/steamcommunity/public/images/apps/682670/d9c6ba6609a89e7dc8c4380fe0e6bdf4dcf137d4.jpg",
    "icongray": "https://steamcdn-a.akamaihd.net/steamcommunity/public/images/apps/682670/30b19ba510c5bf25f1775c62f153fe6f698e7477.jpg"
  },
  {
    "name": "SANGRIA",
    "defaultvalue": 0,
    "displayName": "桑格利亚",
    "hidden": 0,
    "description": "送中间人他爱喝的酒",
    "icon": "https://steamcdn-a.akamaihd.net/steamcommunity/public/images/apps/682670/9f74fa1e44e69cf28f707105f481caf746c9c6eb.jpg",
    "icongray": "https://steamcdn-a.akamaihd.net/steamcommunity/public/images/apps/682670/5c411037d4a4dc1c5a859e67215e0791f9179cf5.jpg"
  },
  {
    "name": "WC",
    "defaultvalue": 0,
    "displayName": "人有三急",
    "hidden": 0,
    "description": "在卫生间Game Over",
    "icon": "https://steamcdn-a.akamaihd.net/steamcommunity/public/images/apps/682670/eace112d182bf7319c16220b35ec59dbc5fa69de.jpg",
    "icongray": "https://steamcdn-a.akamaihd.net/steamcommunity/public/images/apps/682670/32cd3ffafe7bc7f2dc845b64e945f5da3073a607.jpg"
  },
  {
    "name": "WC2",
    "defaultvalue": 0,
    "displayName": "心里有梦",
    "hidden": 0,
    "description": "进女厕所超过三次",
    "icon": "https://steamcdn-a.akamaihd.net/steamcommunity/public/images/apps/682670/37d9bba59ae12554c655365f13d9cb02a3dbe5c0.jpg",
    "icongray": "https://steamcdn-a.akamaihd.net/steamcommunity/public/images/apps/682670/bb19097deec99a915cec0f8462abde25d2d8c5fa.jpg"
  },
  {
    "name": "AYAN",
    "defaultvalue": 0,
    "displayName": "真正的粉丝",
    "hidden": 0,
    "description": "购买阿妍精选集",
    "icon": "https://steamcdn-a.akamaihd.net/steamcommunity/public/images/apps/682670/f1504375e1da23e66cae7c923c6c2411d84e57dd.jpg",
    "icongray": "https://steamcdn-a.akamaihd.net/steamcommunity/public/images/apps/682670/e0e584f48731f365572ad47bb6090929b9e33de1.jpg"
  },
  {
    "name": "WRATH",
    "defaultvalue": 0,
    "displayName": "布衣之怒",
    "hidden": 0,
    "description": "使用限制级语言",
    "icon": "https://steamcdn-a.akamaihd.net/steamcommunity/public/images/apps/682670/eb5d54c875229de4861159c706cf527247596e38.jpg",
    "icongray": "https://steamcdn-a.akamaihd.net/steamcommunity/public/images/apps/682670/745c53cb775ad35b6cb4f898271f9008dce6fc7f.jpg"
  },
  {
    "name": "NOXXOO",
    "defaultvalue": 0,
    "displayName": "清心寡欲",
    "hidden": 0,
    "description": "做一个冷漠无情的男人",
    "icon": "https://steamcdn-a.akamaihd.net/steamcommunity/public/images/apps/682670/8aac8cf045dfc5025f6a2e3680c7b1a6f38f34fa.jpg",
    "icongray": "https://steamcdn-a.akamaihd.net/steamcommunity/public/images/apps/682670/ec0d2743c3521eb3f8c64208d0f708b1302ac0bd.jpg"
  },
  {
    "name": "CHINATOWN",
    "defaultvalue": 0,
    "displayName": "飞跃中国城",
    "hidden": 0,
    "description": "在中国城甩掉枪手",
    "icon": "https://steamcdn-a.akamaihd.net/steamcommunity/public/images/apps/682670/5d0b643b440c50a4ef16fdcadabcfb1df783dfc7.jpg",
    "icongray": "https://steamcdn-a.akamaihd.net/steamcommunity/public/images/apps/682670/a31c6be7bbd8f065a2632ccd950b4652c3fa507a.jpg"
  },
  {
    "name": "PERSISTENCE",
    "defaultvalue": 0,
    "displayName": "坚持不懈",
    "hidden": 0,
    "description": "单次推理对战出示错误证物十次以上",
    "icon": "https://steamcdn-a.akamaihd.net/steamcommunity/public/images/apps/682670/6184375b2a43f79494dc13896f37321c4a798d8c.jpg",
    "icongray": "https://steamcdn-a.akamaihd.net/steamcommunity/public/images/apps/682670/37392ff43de524ac57b755096f415e261ce83482.jpg"
  }
]