﻿{
  "Dlcs": {
    "1375590": {
      "Name": "",
      "ImageUrl": ""
    }
  },
  "Name": "Ary and the Secret of Seasons",
  "AppId": "935570",
  "ImageUrl": "https://steamcdn-a.akamaihd.net/steam/apps/935570/header.jpg?t=1598975993",
  "Languages": [
    "english",
    "french",
    "german",
    "spanish",
    "dutch",
    "japanese",
    "korean",
    "schinese",
    "tchinese",
    "italian"
  ],
  "Platforms": {
    "windows": true,
    "mac": false,
    "linux": false
  }
}