{
  "Dlcs": {},
  "Name": "Off the Record: The Italian Affair Collector's Edition",
  "AppId": "503070",
  "ImageUrl": "https://steamcdn-a.akamaihd.net/steam/apps/503070/header.jpg?t=1531504242",
  "Languages": [
    "english"
  ],
  "Platforms": {
    "windows": true,
    "mac": false,
    "linux": false
  }
}