{
  "Dlcs": {
    "1006350": {
      "Name": "Hack the Core (Extra)",
      "ImageUrl": "https://steamcdn-a.akamaihd.net/steam/apps/1006350/header.jpg?t=1568667803"
    },
    "1027580": {
      "Name": "Hack the Core (Ebook)",
      "ImageUrl": "https://steamcdn-a.akamaihd.net/steam/apps/1027580/header.jpg?t=1568667791"
    },
    "921460": {
      "Name": "Hack the Core (Dev Support Donation)",
      "ImageUrl": "https://steamcdn-a.akamaihd.net/steam/apps/921460/header.jpg?t=1568667786"
    }
  },
  "Name": "Hack the Core",
  "AppId": "918140",
  "ImageUrl": "https://steamcdn-a.akamaihd.net/steam/apps/918140/header.jpg?t=1594319066",
  "Languages": [
    "english",
    "french"
  ],
  "Platforms": {
    "windows": true,
    "mac": true,
    "linux": true
  }
}