{
  "Dlcs": {},
  "Name": "Higurashi When They Cry Hou - Ch.7 Minagoroshi",
  "AppId": "1034940",
  "ImageUrl": "https://steamcdn-a.akamaihd.net/steam/apps/1034940/header.jpg?t=1568835218",
  "Languages": [
    "english",
    "japanese"
  ],
  "Platforms": {
    "windows": true,
    "mac": true,
    "linux": true
  }
}