{
  "Dlcs": {},
  "Name": "MOLC's Daily Life of S.P.R.I.T.E.S.",
  "AppId": "1136690",
  "ImageUrl": "https://steamcdn-a.akamaihd.net/steam/apps/1136690/header.jpg?t=1598900835",
  "Languages": [
    "english"
  ],
  "Platforms": {
    "windows": true,
    "mac": false,
    "linux": false
  }
}