[
  {
    "name": "chivo_sasami",
    "defaultvalue": 0,
    "displayName": "Moral Compass",
    "hidden": 0,
    "description": "Fully level up Sasami's center abilities",
    "icon": "https://steamcdn-a.akamaihd.net/steamcommunity/public/images/apps/1215200/4b42093bee650ee9420dfd37b4223cb16d117fa7.jpg",
    "icongray": "https://steamcdn-a.akamaihd.net/steamcommunity/public/images/apps/1215200/1f2082cc0837dfbfc9d8ea8f2b9b50acd23df5d2.jpg"
  },
  {
    "name": "chivo_aki",
    "defaultvalue": 0,
    "displayName": "Drill Sergeant",
    "hidden": 0,
    "description": "Fully level up Aki's center abilities",
    "icon": "https://steamcdn-a.akamaihd.net/steamcommunity/public/images/apps/1215200/4aa6035e85449e32f6f8887f8e0ecdb4a1a9df50.jpg",
    "icongray": "https://steamcdn-a.akamaihd.net/steamcommunity/public/images/apps/1215200/3264c7be0f9a96ca2456756430c8e1daacf7a73a.jpg"
  },
  {
    "name": "chivo_mariya",
    "defaultvalue": 0,
    "displayName": "Elder Songstress",
    "hidden": 0,
    "description": "Fully level up Mariya's center abilities",
    "icon": "https://steamcdn-a.akamaihd.net/steamcommunity/public/images/apps/1215200/a3d8f25c854825d09560fc6379f373cb911cfd63.jpg",
    "icongray": "https://steamcdn-a.akamaihd.net/steamcommunity/public/images/apps/1215200/ebdb62c987785773367c55b0cba46724f38ff416.jpg"
  },
  {
    "name": "chivo_julie",
    "defaultvalue": 0,
    "displayName": "Instapound Queen",
    "hidden": 0,
    "description": "Fully level up Julie's center abilities",
    "icon": "https://steamcdn-a.akamaihd.net/steamcommunity/public/images/apps/1215200/f75f5f0bc1c655318257c2a761007a82dcae4580.jpg",
    "icongray": "https://steamcdn-a.akamaihd.net/steamcommunity/public/images/apps/1215200/a86bd2211ed5e8f84fa44303767ecd3be95cd554.jpg"
  },
  {
    "name": "chivo_natsuki",
    "defaultvalue": 0,
    "displayName": "Country Girl",
    "hidden": 0,
    "description": "Fully level up Natsuki's center abilities",
    "icon": "https://steamcdn-a.akamaihd.net/steamcommunity/public/images/apps/1215200/bd5757ff483affd6ebb2cd46853f02b6d70dfc18.jpg",
    "icongray": "https://steamcdn-a.akamaihd.net/steamcommunity/public/images/apps/1215200/729dca351bed1ca85285790bb336a54270e8cfe6.jpg"
  },
  {
    "name": "chivo_mika",
    "defaultvalue": 0,
    "displayName": "Otaku Dream",
    "hidden": 0,
    "description": "Fully level up Mika's center abilities",
    "icon": "https://steamcdn-a.akamaihd.net/steamcommunity/public/images/apps/1215200/b34f53850f2f49e45dc1c7d1ed43a2c846fe2568.jpg",
    "icongray": "https://steamcdn-a.akamaihd.net/steamcommunity/public/images/apps/1215200/fbf78a8a8c2f3b7fd9fee84b02de27724c62a9ff.jpg"
  },
  {
    "name": "chivo_nemu",
    "defaultvalue": 0,
    "displayName": "Heiress",
    "hidden": 0,
    "description": "Fully level up Nemu's center abilities",
    "icon": "https://steamcdn-a.akamaihd.net/steamcommunity/public/images/apps/1215200/ebaf62055de1a78b51c26c9d68f2e7e47f70f8c0.jpg",
    "icongray": "https://steamcdn-a.akamaihd.net/steamcommunity/public/images/apps/1215200/27bcc802171109cf130fd14c563fcd8a568917dc.jpg"
  },
  {
    "name": "chivo_shiro",
    "defaultvalue": 0,
    "displayName": "The Master",
    "hidden": 0,
    "description": "Fully level up Shiro's center abilities",
    "icon": "https://steamcdn-a.akamaihd.net/steamcommunity/public/images/apps/1215200/def0215d5259cbe7fecf95bd1ef34fe525fa1c85.jpg",
    "icongray": "https://steamcdn-a.akamaihd.net/steamcommunity/public/images/apps/1215200/d4579c6ebd82d691ef5ca738a4ffcba211e78588.jpg"
  },
  {
    "name": "chivo_kaori",
    "defaultvalue": 0,
    "displayName": "Girl Next Door",
    "hidden": 0,
    "description": "Fully level up Kaori's center abilities",
    "icon": "https://steamcdn-a.akamaihd.net/steamcommunity/public/images/apps/1215200/ea04ddac17d92d0a89e6138f84f8a1c259ee1995.jpg",
    "icongray": "https://steamcdn-a.akamaihd.net/steamcommunity/public/images/apps/1215200/3e0c26f355a5318676754bd8aba6818e2af58d27.jpg"
  },
  {
    "name": "chivo_stella",
    "defaultvalue": 0,
    "displayName": "World's First",
    "hidden": 0,
    "description": "Fully level up Stella's center abilities",
    "icon": "https://steamcdn-a.akamaihd.net/steamcommunity/public/images/apps/1215200/fc61677ece8e4c3b98846d9c94c26dd8482c0a8d.jpg",
    "icongray": "https://steamcdn-a.akamaihd.net/steamcommunity/public/images/apps/1215200/b086205c835f00379557e0b83e809a3f0eada702.jpg"
  },
  {
    "name": "chivo_mako",
    "defaultvalue": 0,
    "displayName": "Well Connected",
    "hidden": 0,
    "description": "Fully level up Mako's center abilities",
    "icon": "https://steamcdn-a.akamaihd.net/steamcommunity/public/images/apps/1215200/74564a84fdd28b10c9c49dc5820423cc7a23a7e3.jpg",
    "icongray": "https://steamcdn-a.akamaihd.net/steamcommunity/public/images/apps/1215200/18aef0cbdf1e2ef8f508245f8b209748c1e5738f.jpg"
  },
  {
    "name": "chivo_furuya",
    "defaultvalue": 0,
    "displayName": "Pious Shrine Maiden",
    "hidden": 0,
    "description": "Fully level up Furuya's center abilities",
    "icon": "https://steamcdn-a.akamaihd.net/steamcommunity/public/images/apps/1215200/7d4dc7ffd329bd4dd3c2b0f20a7f352c6c6ed7c6.jpg",
    "icongray": "https://steamcdn-a.akamaihd.net/steamcommunity/public/images/apps/1215200/8723b69ba726b0138cf7046d60a64d8fb36fe3d9.jpg"
  },
  {
    "name": "chivo_katana",
    "defaultvalue": 0,
    "displayName": "Stalkers Beware",
    "hidden": 0,
    "description": "Place a display katana in your office",
    "icon": "https://steamcdn-a.akamaihd.net/steamcommunity/public/images/apps/1215200/c11b1ecc5fd3d8097a9819b58a83bfa4817a55a0.jpg",
    "icongray": "https://steamcdn-a.akamaihd.net/steamcommunity/public/images/apps/1215200/81bc359fdb6c6fa9b575c5566f2c239117b8665b.jpg"
  },
  {
    "name": "chivo_karaoke",
    "defaultvalue": 0,
    "displayName": "Karaoke Machine",
    "hidden": 0,
    "description": "Place a karaoke machine in your office",
    "icon": "https://steamcdn-a.akamaihd.net/steamcommunity/public/images/apps/1215200/5ee3a1de78aaf1f8d0579e16d3b3a43add7ae02b.jpg",
    "icongray": "https://steamcdn-a.akamaihd.net/steamcommunity/public/images/apps/1215200/0fe690d3588466a23efd0525d680aa5cb944e52e.jpg"
  },
  {
    "name": "chivo_kotatsu",
    "defaultvalue": 0,
    "displayName": "Warm and Toasty",
    "hidden": 0,
    "description": "Place a kotatsu in your office",
    "icon": "https://steamcdn-a.akamaihd.net/steamcommunity/public/images/apps/1215200/c75c67480ae628bf3f2af5eda3d954c6c79a1b5f.jpg",
    "icongray": "https://steamcdn-a.akamaihd.net/steamcommunity/public/images/apps/1215200/82bbc61a1b8c845454ef2b0783b58f8d4cd9138b.jpg"
  },
  {
    "name": "chivo_espresso",
    "defaultvalue": 0,
    "displayName": "Coffee Break",
    "hidden": 0,
    "description": "Place a espresso machine in your office",
    "icon": "https://steamcdn-a.akamaihd.net/steamcommunity/public/images/apps/1215200/e8142f326f2464ca66588802887b29ebb570a2ca.jpg",
    "icongray": "https://steamcdn-a.akamaihd.net/steamcommunity/public/images/apps/1215200/bd0680bdd66a5d9f5ad136c52bcd213e3591a702.jpg"
  },
  {
    "name": "chivo_bonsai",
    "defaultvalue": 0,
    "displayName": "Peace and Serenity",
    "hidden": 0,
    "description": "Place a bonsai plant in your office",
    "icon": "https://steamcdn-a.akamaihd.net/steamcommunity/public/images/apps/1215200/ccd2763c3be0414da12efda489f8c8066db2bce6.jpg",
    "icongray": "https://steamcdn-a.akamaihd.net/steamcommunity/public/images/apps/1215200/8e9490811eb204e2f93040e5d2dfa01aa9e217e8.jpg"
  },
  {
    "name": "chivo_drone",
    "defaultvalue": 0,
    "displayName": "Security State",
    "hidden": 0,
    "description": "Place a drone in your office",
    "icon": "https://steamcdn-a.akamaihd.net/steamcommunity/public/images/apps/1215200/281667d5e548ce0df48d9d7c7a5ef90f80c0b9fc.jpg",
    "icongray": "https://steamcdn-a.akamaihd.net/steamcommunity/public/images/apps/1215200/c4a005580fd0fb4677b3222a0b4fb7b808dfe1af.jpg"
  },
  {
    "name": "chivo_cat",
    "defaultvalue": 0,
    "displayName": "Money Cat",
    "hidden": 0,
    "description": "Place a beckoning cat in your office",
    "icon": "https://steamcdn-a.akamaihd.net/steamcommunity/public/images/apps/1215200/0c21dd047efc56367cc160a6887dc10cb2967990.jpg",
    "icongray": "https://steamcdn-a.akamaihd.net/steamcommunity/public/images/apps/1215200/26f5c6095bb4a09d46a4c7a3a885f4dcc210f4a0.jpg"
  },
  {
    "name": "chivo_sunrider",
    "defaultvalue": 0,
    "displayName": "Captain of the Ship",
    "hidden": 0,
    "description": "Place a model Sunrider in your office",
    "icon": "https://steamcdn-a.akamaihd.net/steamcommunity/public/images/apps/1215200/fe0875ffcba26cbd81db08cad0bd918b3da05ed3.jpg",
    "icongray": "https://steamcdn-a.akamaihd.net/steamcommunity/public/images/apps/1215200/5d0191a6750ad01ad1bda5c669b48f52c906997d.jpg"
  },
  {
    "name": "chivo_punchingbag",
    "defaultvalue": 0,
    "displayName": "Stress Busting",
    "hidden": 0,
    "description": "Place a punching bag in your office",
    "icon": "https://steamcdn-a.akamaihd.net/steamcommunity/public/images/apps/1215200/13ebfebb4f51acb82619121d2d0c714ac7c18404.jpg",
    "icongray": "https://steamcdn-a.akamaihd.net/steamcommunity/public/images/apps/1215200/61031a88c2570215f319c4401e0f737efff16040.jpg"
  },
  {
    "name": "chivo_memento",
    "defaultvalue": 0,
    "displayName": "Memento",
    "hidden": 0,
    "description": "Place a memento in your office",
    "icon": "https://steamcdn-a.akamaihd.net/steamcommunity/public/images/apps/1215200/71a02c2905abeab2758cd9e0a30f91bac772b290.jpg",
    "icongray": "https://steamcdn-a.akamaihd.net/steamcommunity/public/images/apps/1215200/ad6cab753562636315480ea3773df618cdc1aed4.jpg"
  },
  {
    "name": "chivo_alpaca",
    "defaultvalue": 0,
    "displayName": "Giddiyap Alpaca-kun!",
    "hidden": 0,
    "description": "Place an alpaca in your office",
    "icon": "https://steamcdn-a.akamaihd.net/steamcommunity/public/images/apps/1215200/79721082023315eef7c9e52204810e0d27e51247.jpg",
    "icongray": "https://steamcdn-a.akamaihd.net/steamcommunity/public/images/apps/1215200/79544882dcc08cd1439ec561eb8386d109901d1f.jpg"
  },
  {
    "name": "chivo_whale",
    "defaultvalue": 0,
    "displayName": "A Whale of a Time",
    "hidden": 0,
    "description": "Place a golden space whale in your office",
    "icon": "https://steamcdn-a.akamaihd.net/steamcommunity/public/images/apps/1215200/96b8ff78394e00728e79fa99078d30ba23188d22.jpg",
    "icongray": "https://steamcdn-a.akamaihd.net/steamcommunity/public/images/apps/1215200/9786223b464fca14535c488aba7df9a2cae37392.jpg"
  },
  {
    "name": "chivo_blackjack",
    "defaultvalue": 0,
    "displayName": "Black Jack Reporting",
    "hidden": 0,
    "description": "Place a model Black Jack in your office",
    "icon": "https://steamcdn-a.akamaihd.net/steamcommunity/public/images/apps/1215200/a51bebc5df37ef0efd5157dd4a237b289f630db2.jpg",
    "icongray": "https://steamcdn-a.akamaihd.net/steamcommunity/public/images/apps/1215200/7dc0c7b324ddc8a278bed1438ac9c30144949a85.jpg"
  },
  {
    "name": "chivo_goldrecord",
    "defaultvalue": 0,
    "displayName": "Gold Record",
    "hidden": 0,
    "description": "Place a gold record in your office",
    "icon": "https://steamcdn-a.akamaihd.net/steamcommunity/public/images/apps/1215200/c4bc1e00eae5df971c61247f01f96ba4929f1e37.jpg",
    "icongray": "https://steamcdn-a.akamaihd.net/steamcommunity/public/images/apps/1215200/cfaaa56ad95017eb11812e3c5ee3724df4773b11.jpg"
  },
  {
    "name": "chivo_treadmill",
    "defaultvalue": 0,
    "displayName": "Exercise Machine",
    "hidden": 0,
    "description": "Place a treadmill in your office",
    "icon": "https://steamcdn-a.akamaihd.net/steamcommunity/public/images/apps/1215200/ab6213661b948b338840057b9f619a825d287107.jpg",
    "icongray": "https://steamcdn-a.akamaihd.net/steamcommunity/public/images/apps/1215200/cdea013b6b2c0bb04bde4d9f4d2efc32761ac790.jpg"
  },
  {
    "name": "chivo_grandfatherclock",
    "defaultvalue": 0,
    "displayName": "Tick Tock",
    "hidden": 0,
    "description": "Place a grand father clock in your office",
    "icon": "https://steamcdn-a.akamaihd.net/steamcommunity/public/images/apps/1215200/d05c69660698fd1a6e97368b42b4ae44aaa0d79e.jpg",
    "icongray": "https://steamcdn-a.akamaihd.net/steamcommunity/public/images/apps/1215200/1eccea3b6db1ecc0db6d4f386e067ee1380d0cd4.jpg"
  },
  {
    "name": "chivo_daruma",
    "defaultvalue": 0,
    "displayName": "Daruma",
    "hidden": 0,
    "description": "Place a daruma in your office",
    "icon": "https://steamcdn-a.akamaihd.net/steamcommunity/public/images/apps/1215200/a9cb58a36baa3f4f48d9781e245e096cad9a8248.jpg",
    "icongray": "https://steamcdn-a.akamaihd.net/steamcommunity/public/images/apps/1215200/9dd16c99cb44782f27171a07d4e7027f31313fb7.jpg"
  },
  {
    "name": "chivo_goldbuddha",
    "defaultvalue": 0,
    "displayName": "Pious Prayer",
    "hidden": 0,
    "description": "Place a golden Buddha in your office",
    "icon": "https://steamcdn-a.akamaihd.net/steamcommunity/public/images/apps/1215200/ab9ddb5c4b0a449490b8e9ef7d3c7b526cbe1743.jpg",
    "icongray": "https://steamcdn-a.akamaihd.net/steamcommunity/public/images/apps/1215200/45b84a38413281b42bfc5d597a054479ae9d1841.jpg"
  },
  {
    "name": "chivo_romanfountain",
    "defaultvalue": 0,
    "displayName": "Baroque",
    "hidden": 0,
    "description": "Place a Roman fountain in your office",
    "icon": "https://steamcdn-a.akamaihd.net/steamcommunity/public/images/apps/1215200/b7bc211b0e664579f54e9c1a50f2a2e865d63f30.jpg",
    "icongray": "https://steamcdn-a.akamaihd.net/steamcommunity/public/images/apps/1215200/997ca146cf3cb96f45670a5866fca7efa5f153ba.jpg"
  },
  {
    "name": "chivo_gainfuruya",
    "defaultvalue": 0,
    "displayName": "Shrine Maiden Acquired",
    "hidden": 0,
    "description": "Unlock Furuya in the story mode",
    "icon": "https://steamcdn-a.akamaihd.net/steamcommunity/public/images/apps/1215200/c4133e894179a325f4f9430504c612019a7d3531.jpg",
    "icongray": "https://steamcdn-a.akamaihd.net/steamcommunity/public/images/apps/1215200/14570971e3e81a45f7c87658cffeadc9b475c7f2.jpg"
  },
  {
    "name": "chivo_gainkaori",
    "defaultvalue": 0,
    "displayName": "Kaori Joins",
    "hidden": 0,
    "description": "Unlock Kaori in the story mode",
    "icon": "https://steamcdn-a.akamaihd.net/steamcommunity/public/images/apps/1215200/85c5814d1fb4ce1c3ed1142535888b7163799712.jpg",
    "icongray": "https://steamcdn-a.akamaihd.net/steamcommunity/public/images/apps/1215200/478235246b54ff381494503fa9b451bf84c2af83.jpg"
  },
  {
    "name": "chivo_gainmako",
    "defaultvalue": 0,
    "displayName": "Mako Joins",
    "hidden": 0,
    "description": "Unlock Mako in the story mode",
    "icon": "https://steamcdn-a.akamaihd.net/steamcommunity/public/images/apps/1215200/cb3ffecc5f980b2e655c670fa78e865ffe88ad6e.jpg",
    "icongray": "https://steamcdn-a.akamaihd.net/steamcommunity/public/images/apps/1215200/f1861ef8ce247a9569645c1d1976c2c5d9388f77.jpg"
  },
  {
    "name": "chivo_gainstella",
    "defaultvalue": 0,
    "displayName": "Stella Joins",
    "hidden": 0,
    "description": "Unlock Stella in the story mode",
    "icon": "https://steamcdn-a.akamaihd.net/steamcommunity/public/images/apps/1215200/1ff4b57bfcaead188397fdf1261d3ada6704042d.jpg",
    "icongray": "https://steamcdn-a.akamaihd.net/steamcommunity/public/images/apps/1215200/ac5ec1b87aeacb9bbd515a41b818d4dc0460bb5a.jpg"
  },
  {
    "name": "chivo_gainshiro",
    "defaultvalue": 0,
    "displayName": "Shiro Joins",
    "hidden": 0,
    "description": "Unlock Shiro in the story mode",
    "icon": "https://steamcdn-a.akamaihd.net/steamcommunity/public/images/apps/1215200/956af2564dfec553f201478ba2795d9c68c3c542.jpg",
    "icongray": "https://steamcdn-a.akamaihd.net/steamcommunity/public/images/apps/1215200/a94512674342f5aa9e3722a9187f896c5a23fe8e.jpg"
  },
  {
    "name": "chivo_generations",
    "defaultvalue": 0,
    "displayName": "Their Songs Echo Eternal",
    "hidden": 0,
    "description": "An idol gains over 5000 popularity in Generations Mode",
    "icon": "https://steamcdn-a.akamaihd.net/steamcommunity/public/images/apps/1215200/40b0c81045cd68c146d5109421f903d8792be44f.jpg",
    "icongray": "https://steamcdn-a.akamaihd.net/steamcommunity/public/images/apps/1215200/195f0c96d080d799cce7e67b2f52a3d789268657.jpg"
  },
  {
    "name": "chivo_old",
    "defaultvalue": 0,
    "displayName": "Shouldn't you retire by now?",
    "hidden": 0,
    "description": "An idol reaches the age of 30 in Generations Mode",
    "icon": "https://steamcdn-a.akamaihd.net/steamcommunity/public/images/apps/1215200/0de1b656c2257f64deab1a20a8cb4c9a96e74f3e.jpg",
    "icongray": "https://steamcdn-a.akamaihd.net/steamcommunity/public/images/apps/1215200/926d687abe18b33aeb98e67a52d6c0386f884c30.jpg"
  },
  {
    "name": "chivo_quasarbattle",
    "defaultvalue": 0,
    "displayName": "Actually Kamijou, I Can Do That.",
    "hidden": 0,
    "description": "Defeat Quasar consecutively 8 times in Quasar Battle Mode",
    "icon": "https://steamcdn-a.akamaihd.net/steamcommunity/public/images/apps/1215200/ca043ce505db1a64d2fa4689748e253bdb811b4d.jpg",
    "icongray": "https://steamcdn-a.akamaihd.net/steamcommunity/public/images/apps/1215200/c95633d4e89c46b21e6346072c9fbe038b0c5997.jpg"
  },
  {
    "name": "chivo_emperor",
    "defaultvalue": 0,
    "displayName": "Idol Emperor",
    "hidden": 0,
    "description": "Complete all stages of the Story Mode",
    "icon": "https://steamcdn-a.akamaihd.net/steamcommunity/public/images/apps/1215200/de4f56fdb1aeda1079b77377a8a2cba65f046de0.jpg",
    "icongray": "https://steamcdn-a.akamaihd.net/steamcommunity/public/images/apps/1215200/6e3f656f2adc5a46cd175b2ae4b3cc0bd0c2317d.jpg"
  }
]