{
  "Dlcs": {},
  "Name": "Car Trader Simulator - Welcome to the Business",
  "AppId": "1296280",
  "ImageUrl": "https://steamcdn-a.akamaihd.net/steam/apps/1296280/header.jpg?t=1601025843",
  "Languages": [
    "english",
    "french",
    "italian",
    "german",
    "spanish",
    "schinese",
    "japanese",
    "polish",
    "russian"
  ],
  "Platforms": {
    "windows": true,
    "mac": false,
    "linux": false
  }
}