{
  "Dlcs": {
    "1238530": {
      "Name": "",
      "ImageUrl": ""
    }
  },
  "Name": "Koo & Yuu",
  "AppId": "1203460",
  "ImageUrl": "https://steamcdn-a.akamaihd.net/steam/apps/1203460/header.jpg?t=1582587482",
  "Languages": [
    "english",
    "french",
    "italian",
    "german",
    "spanish",
    "schinese",
    "japanese",
    "portuguese",
    "portuguese"
  ],
  "Platforms": {
    "windows": true,
    "mac": true,
    "linux": true
  }
}