[
  {
    "name": "RIN_STAT_00",
    "defaultvalue": 0,
    "displayName": "RIN_STAT_DISP_00"
  },
  {
    "name": "RIN_STAT_01",
    "defaultvalue": 0,
    "displayName": "RIN_STAT_DISP_01"
  },
  {
    "name": "RIN_STAT_02",
    "defaultvalue": 0,
    "displayName": "RIN_STAT_DISP_02"
  },
  {
    "name": "RIN_STAT_03",
    "defaultvalue": 0,
    "displayName": "RIN_STAT_DISP_03"
  },
  {
    "name": "RIN_STAT_04",
    "defaultvalue": 0,
    "displayName": "RIN_STAT_DISP_04"
  },
  {
    "name": "RIN_STAT_05",
    "defaultvalue": 0,
    "displayName": "RIN_STAT_DISP_05"
  },
  {
    "name": "RIN_STAT_06",
    "defaultvalue": 0,
    "displayName": "RIN_STAT_DISP_06"
  },
  {
    "name": "RIN_STAT_07",
    "defaultvalue": 0,
    "displayName": "RIN_STAT_DISP_07"
  },
  {
    "name": "RIN_STAT_08",
    "defaultvalue": 0,
    "displayName": "RIN_STAT_DISP_08"
  },
  {
    "name": "RIN_STAT_09",
    "defaultvalue": 0,
    "displayName": "RIN_STAT_DISP_09"
  },
  {
    "name": "RIN_STAT_10",
    "defaultvalue": 0,
    "displayName": "RIN_STAT_DISP_10"
  },
  {
    "name": "RIN_STAT_11",
    "defaultvalue": 0,
    "displayName": "RIN_STAT_DISP_11"
  },
  {
    "name": "RIN_STAT_12",
    "defaultvalue": 0,
    "displayName": "RIN_STAT_DISP_12"
  },
  {
    "name": "RIN_STAT_13",
    "defaultvalue": 0,
    "displayName": "RIN_STAT_DISP_13"
  },
  {
    "name": "RIN_STAT_14",
    "defaultvalue": 0,
    "displayName": "RIN_STAT_DISP_14"
  },
  {
    "name": "RIN_STAT_15",
    "defaultvalue": 0,
    "displayName": "RIN_STAT_DISP_15"
  },
  {
    "name": "RIN_STAT_16",
    "defaultvalue": 0,
    "displayName": "RIN_STAT_DISP_16"
  },
  {
    "name": "RIN_STAT_17",
    "defaultvalue": 0,
    "displayName": "RIN_STAT_DISP_17"
  },
  {
    "name": "RIN_STAT_18",
    "defaultvalue": 0,
    "displayName": "RIN_STAT_DISP_18"
  },
  {
    "name": "RIN_STAT_19",
    "defaultvalue": 0,
    "displayName": "RIN_STAT_DISP_19"
  },
  {
    "name": "RIN_STAT_20",
    "defaultvalue": 0,
    "displayName": "RIN_STAT_DISP_20"
  },
  {
    "name": "RIN_STAT_21",
    "defaultvalue": 0,
    "displayName": "RIN_STAT_DISP_21"
  },
  {
    "name": "RIN_STAT_22",
    "defaultvalue": 0,
    "displayName": "RIN_STAT_DISP_22"
  },
  {
    "name": "RIN_STAT_23",
    "defaultvalue": 0,
    "displayName": "RIN_STAT_DISP_23"
  },
  {
    "name": "RIN_STAT_24",
    "defaultvalue": 0,
    "displayName": "RIN_STAT_DISP_24"
  },
  {
    "name": "RIN_STAT_25",
    "defaultvalue": 0,
    "displayName": "RIN_STAT_DISP_25"
  },
  {
    "name": "RIN_STAT_26",
    "defaultvalue": 0,
    "displayName": "RIN_STAT_DISP_26"
  },
  {
    "name": "RIN_STAT_27",
    "defaultvalue": 0,
    "displayName": "RIN_STAT_DISP_27"
  },
  {
    "name": "RIN_STAT_28",
    "defaultvalue": 0,
    "displayName": "RIN_STAT_DISP_28"
  },
  {
    "name": "RIN_STAT_29",
    "defaultvalue": 0,
    "displayName": "RIN_STAT_DISP_29"
  },
  {
    "name": "RIN_STAT_30",
    "defaultvalue": 0,
    "displayName": "RIN_STAT_DISP_30"
  },
  {
    "name": "RIN_STAT_31",
    "defaultvalue": 0,
    "displayName": "RIN_STAT_DISP_31"
  },
  {
    "name": "RIN_STAT_32",
    "defaultvalue": 0,
    "displayName": "RIN_STAT_DISP_32"
  },
  {
    "name": "RIN_STAT_33",
    "defaultvalue": 0,
    "displayName": "RIN_STAT_DISP_33"
  },
  {
    "name": "RIN_STAT_34",
    "defaultvalue": 0,
    "displayName": "RIN_STAT_DISP_34"
  },
  {
    "name": "RIN_STAT_35",
    "defaultvalue": 0,
    "displayName": "RIN_STAT_DISP_35"
  },
  {
    "name": "RIN_STAT_36",
    "defaultvalue": 0,
    "displayName": "RIN_STAT_DISP_36"
  },
  {
    "name": "RIN_STAT_37",
    "defaultvalue": 0,
    "displayName": "RIN_STAT_DISP_37"
  },
  {
    "name": "RIN_STAT_38",
    "defaultvalue": 0,
    "displayName": "RIN_STAT_DISP_38"
  },
  {
    "name": "RIN_STAT_39",
    "defaultvalue": 0,
    "displayName": "RIN_STAT_DISP_39"
  },
  {
    "name": "RIN_STAT_40",
    "defaultvalue": 0,
    "displayName": "RIN_STAT_DISP_40"
  },
  {
    "name": "RIN_STAT_41",
    "defaultvalue": 0,
    "displayName": "RIN_STAT_DISP_41"
  },
  {
    "name": "RIN_STAT_42",
    "defaultvalue": 0,
    "displayName": "RIN_STAT_DISP_42"
  },
  {
    "name": "RIN_STAT_43",
    "defaultvalue": 0,
    "displayName": "RIN_STAT_DISP_43"
  },
  {
    "name": "RIN_STAT_44",
    "defaultvalue": 0,
    "displayName": "RIN_STAT_DISP_44"
  }
]