[
  {
    "name": "Achievement_0",
    "defaultvalue": 0,
    "displayName": "Out of a Jam ",
    "hidden": 0,
    "description": "Complete the First Puzzle",
    "icon": "https://steamcdn-a.akamaihd.net/steamcommunity/public/images/apps/308180/38cac097dffc2d2532be16f4022c91177cc9ecba.jpg",
    "icongray": "https://steamcdn-a.akamaihd.net/steamcommunity/public/images/apps/308180/38cac097dffc2d2532be16f4022c91177cc9ecba.jpg"
  },
  {
    "name": "Achievement_1",
    "defaultvalue": 0,
    "displayName": "Dam Buster",
    "hidden": 0,
    "description": "Find the Secret Soda can at the Dam",
    "icon": "https://steamcdn-a.akamaihd.net/steamcommunity/public/images/apps/308180/38cac097dffc2d2532be16f4022c91177cc9ecba.jpg",
    "icongray": "https://steamcdn-a.akamaihd.net/steamcommunity/public/images/apps/308180/38cac097dffc2d2532be16f4022c91177cc9ecba.jpg"
  },
  {
    "name": "Achievement_2",
    "defaultvalue": 0,
    "displayName": "Path Finder",
    "hidden": 0,
    "description": "Open the gate between the FireBreak Creek and the Mill",
    "icon": "https://steamcdn-a.akamaihd.net/steamcommunity/public/images/apps/308180/38cac097dffc2d2532be16f4022c91177cc9ecba.jpg",
    "icongray": "https://steamcdn-a.akamaihd.net/steamcommunity/public/images/apps/308180/38cac097dffc2d2532be16f4022c91177cc9ecba.jpg"
  },
  {
    "name": "Achievement_3",
    "defaultvalue": 0,
    "displayName": "You've Got Mail",
    "hidden": 0,
    "description": "Find the Secret soda can in the mail box",
    "icon": "https://steamcdn-a.akamaihd.net/steamcommunity/public/images/apps/308180/38cac097dffc2d2532be16f4022c91177cc9ecba.jpg",
    "icongray": "https://steamcdn-a.akamaihd.net/steamcommunity/public/images/apps/308180/38cac097dffc2d2532be16f4022c91177cc9ecba.jpg"
  },
  {
    "name": "Achievement_4",
    "defaultvalue": 0,
    "displayName": "LumberJack",
    "hidden": 0,
    "description": "Find the secret soda cans behind some logs",
    "icon": "https://steamcdn-a.akamaihd.net/steamcommunity/public/images/apps/308180/38cac097dffc2d2532be16f4022c91177cc9ecba.jpg",
    "icongray": "https://steamcdn-a.akamaihd.net/steamcommunity/public/images/apps/308180/38cac097dffc2d2532be16f4022c91177cc9ecba.jpg"
  },
  {
    "name": "Achievement_5",
    "defaultvalue": 0,
    "displayName": "Feed Me Seymour",
    "hidden": 0,
    "description": "Find the hidden cans in the potted plants",
    "icon": "https://steamcdn-a.akamaihd.net/steamcommunity/public/images/apps/308180/38cac097dffc2d2532be16f4022c91177cc9ecba.jpg",
    "icongray": "https://steamcdn-a.akamaihd.net/steamcommunity/public/images/apps/308180/38cac097dffc2d2532be16f4022c91177cc9ecba.jpg"
  },
  {
    "name": "Achievement_6",
    "defaultvalue": 0,
    "displayName": "A Bridge Too Far",
    "hidden": 0,
    "description": "Construct the bridge",
    "icon": "https://steamcdn-a.akamaihd.net/steamcommunity/public/images/apps/308180/38cac097dffc2d2532be16f4022c91177cc9ecba.jpg",
    "icongray": "https://steamcdn-a.akamaihd.net/steamcommunity/public/images/apps/308180/38cac097dffc2d2532be16f4022c91177cc9ecba.jpg"
  },
  {
    "name": "Achievement_7",
    "defaultvalue": 0,
    "displayName": "For You No Charge",
    "hidden": 0,
    "description": "Help the Beavers",
    "icon": "https://steamcdn-a.akamaihd.net/steamcommunity/public/images/apps/308180/38cac097dffc2d2532be16f4022c91177cc9ecba.jpg",
    "icongray": "https://steamcdn-a.akamaihd.net/steamcommunity/public/images/apps/308180/38cac097dffc2d2532be16f4022c91177cc9ecba.jpg"
  },
  {
    "name": "Achievement_8",
    "defaultvalue": 0,
    "displayName": "Friends Reunited",
    "hidden": 0,
    "description": "Help Jeremiah complete his lifes work",
    "icon": "https://steamcdn-a.akamaihd.net/steamcommunity/public/images/apps/308180/38cac097dffc2d2532be16f4022c91177cc9ecba.jpg",
    "icongray": "https://steamcdn-a.akamaihd.net/steamcommunity/public/images/apps/308180/38cac097dffc2d2532be16f4022c91177cc9ecba.jpg"
  },
  {
    "name": "Achievement_9",
    "defaultvalue": 0,
    "displayName": "Conundrum Continued",
    "hidden": 0,
    "description": "Complete Episode 2",
    "icon": "https://steamcdn-a.akamaihd.net/steamcommunity/public/images/apps/308180/38cac097dffc2d2532be16f4022c91177cc9ecba.jpg",
    "icongray": "https://steamcdn-a.akamaihd.net/steamcommunity/public/images/apps/308180/38cac097dffc2d2532be16f4022c91177cc9ecba.jpg"
  },
  {
    "name": "Achievement_10",
    "defaultvalue": 0,
    "displayName": "It's a Magic Number",
    "hidden": 0,
    "description": "Complete 7 Puzzles",
    "icon": "https://steamcdn-a.akamaihd.net/steamcommunity/public/images/apps/308180/38cac097dffc2d2532be16f4022c91177cc9ecba.jpg",
    "icongray": "https://steamcdn-a.akamaihd.net/steamcommunity/public/images/apps/308180/38cac097dffc2d2532be16f4022c91177cc9ecba.jpg"
  },
  {
    "name": "Achievement_11",
    "defaultvalue": 0,
    "displayName": "Dr Puzzler ",
    "hidden": 0,
    "description": "Complete all the puzzles in Episode 2",
    "icon": "https://steamcdn-a.akamaihd.net/steamcommunity/public/images/apps/308180/38cac097dffc2d2532be16f4022c91177cc9ecba.jpg",
    "icongray": "https://steamcdn-a.akamaihd.net/steamcommunity/public/images/apps/308180/38cac097dffc2d2532be16f4022c91177cc9ecba.jpg"
  },
  {
    "name": "Achievement_12",
    "defaultvalue": 0,
    "displayName": "Every Lil' Helps",
    "hidden": 0,
    "description": "Collect 15 soda cans",
    "icon": "https://steamcdn-a.akamaihd.net/steamcommunity/public/images/apps/308180/38cac097dffc2d2532be16f4022c91177cc9ecba.jpg",
    "icongray": "https://steamcdn-a.akamaihd.net/steamcommunity/public/images/apps/308180/38cac097dffc2d2532be16f4022c91177cc9ecba.jpg"
  },
  {
    "name": "Achievement_13",
    "defaultvalue": 0,
    "displayName": "Radical Recycler",
    "hidden": 0,
    "description": "Collect 50 soda cans",
    "icon": "https://steamcdn-a.akamaihd.net/steamcommunity/public/images/apps/308180/38cac097dffc2d2532be16f4022c91177cc9ecba.jpg",
    "icongray": "https://steamcdn-a.akamaihd.net/steamcommunity/public/images/apps/308180/38cac097dffc2d2532be16f4022c91177cc9ecba.jpg"
  },
  {
    "name": "Achievement_14",
    "defaultvalue": 0,
    "displayName": "Without Merit",
    "hidden": 0,
    "description": "Earn 30000 merits",
    "icon": "https://steamcdn-a.akamaihd.net/steamcommunity/public/images/apps/308180/38cac097dffc2d2532be16f4022c91177cc9ecba.jpg",
    "icongray": "https://steamcdn-a.akamaihd.net/steamcommunity/public/images/apps/308180/38cac097dffc2d2532be16f4022c91177cc9ecba.jpg"
  },
  {
    "name": "Achievement_15",
    "defaultvalue": 0,
    "displayName": "A Helping Hans",
    "hidden": 0,
    "description": "Collect All 10 Gophers",
    "icon": "https://steamcdn-a.akamaihd.net/steamcommunity/public/images/apps/308180/38cac097dffc2d2532be16f4022c91177cc9ecba.jpg",
    "icongray": "https://steamcdn-a.akamaihd.net/steamcommunity/public/images/apps/308180/38cac097dffc2d2532be16f4022c91177cc9ecba.jpg"
  },
  {
    "name": "Achievement_16",
    "defaultvalue": 0,
    "displayName": "Hen Party",
    "hidden": 0,
    "description": "Collect all 13 Gnatnobblers",
    "icon": "https://steamcdn-a.akamaihd.net/steamcommunity/public/images/apps/308180/38cac097dffc2d2532be16f4022c91177cc9ecba.jpg",
    "icongray": "https://steamcdn-a.akamaihd.net/steamcommunity/public/images/apps/308180/38cac097dffc2d2532be16f4022c91177cc9ecba.jpg"
  },
  {
    "name": "Achievement_17",
    "defaultvalue": 0,
    "displayName": "Never Ending Story",
    "hidden": 0,
    "description": "Complete 'Happily Ever Rafter' in 56 moves or less",
    "icon": "https://steamcdn-a.akamaihd.net/steamcommunity/public/images/apps/308180/38cac097dffc2d2532be16f4022c91177cc9ecba.jpg",
    "icongray": "https://steamcdn-a.akamaihd.net/steamcommunity/public/images/apps/308180/38cac097dffc2d2532be16f4022c91177cc9ecba.jpg"
  },
  {
    "name": "Achievement_18",
    "defaultvalue": 0,
    "displayName": "Planks Alot",
    "hidden": 0,
    "description": "Complete 'A Pair of Planks' in 12 moves or less",
    "icon": "https://steamcdn-a.akamaihd.net/steamcommunity/public/images/apps/308180/38cac097dffc2d2532be16f4022c91177cc9ecba.jpg",
    "icongray": "https://steamcdn-a.akamaihd.net/steamcommunity/public/images/apps/308180/38cac097dffc2d2532be16f4022c91177cc9ecba.jpg"
  },
  {
    "name": "Achievement_19",
    "defaultvalue": 0,
    "displayName": "Jammy Dodger",
    "hidden": 0,
    "description": "Complete 'JamtasticBore' in 9 moves or less",
    "icon": "https://steamcdn-a.akamaihd.net/steamcommunity/public/images/apps/308180/38cac097dffc2d2532be16f4022c91177cc9ecba.jpg",
    "icongray": "https://steamcdn-a.akamaihd.net/steamcommunity/public/images/apps/308180/38cac097dffc2d2532be16f4022c91177cc9ecba.jpg"
  },
  {
    "name": "Achievement_20",
    "defaultvalue": 0,
    "displayName": "Finished Symphony",
    "hidden": 0,
    "description": "Complete 'Symphony of Stone' in 5 moves or less",
    "icon": "https://steamcdn-a.akamaihd.net/steamcommunity/public/images/apps/308180/38cac097dffc2d2532be16f4022c91177cc9ecba.jpg",
    "icongray": "https://steamcdn-a.akamaihd.net/steamcommunity/public/images/apps/308180/38cac097dffc2d2532be16f4022c91177cc9ecba.jpg"
  }
]