{
  "Dlcs": {
    "877500": {
      "Name": "",
      "ImageUrl": ""
    }
  },
  "Name": "QuestEvent",
  "AppId": "357910",
  "ImageUrl": "https://steamcdn-a.akamaihd.net/steam/apps/357910/header.jpg?t=1529450155",
  "Languages": [
    "english"
  ],
  "Platforms": {
    "windows": true,
    "mac": false,
    "linux": false
  }
}