{
  "Dlcs": {
    "399460": {
      "Name": "Snik - Soundtrack",
      "ImageUrl": "https://steamcdn-a.akamaihd.net/steam/apps/399460/header.jpg?t=1447377792"
    }
  },
  "Name": "Snik",
  "AppId": "388050",
  "ImageUrl": "https://steamcdn-a.akamaihd.net/steam/apps/388050/header.jpg?t=1478260553",
  "Languages": [
    "english"
  ],
  "Platforms": {
    "windows": true,
    "mac": true,
    "linux": true
  }
}