{
  "Dlcs": {},
  "Name": "Forgotten Fields",
  "AppId": "1296980",
  "ImageUrl": "https://steamcdn-a.akamaihd.net/steam/apps/1296980/header.jpg?t=1599642018",
  "Languages": [
    "english"
  ],
  "Platforms": {
    "windows": true,
    "mac": true,
    "linux": true
  }
}