[
  {
    "name": "NumGames",
    "defaultvalue": 0,
    "displayName": "总游戏次数"
  },
  {
    "name": "NumWins",
    "defaultvalue": 0,
    "displayName": "总获胜次数"
  },
  {
    "name": "NumLosses",
    "defaultvalue": 0,
    "displayName": "总失败次数"
  },
  {
    "name": "NumBooks",
    "defaultvalue": 0,
    "displayName": "拯救妖魔书总数"
  },
  {
    "name": "NumIceBars",
    "defaultvalue": 0,
    "displayName": "使用冰棒总数"
  },
  {
    "name": "NumSukimas",
    "defaultvalue": 0,
    "displayName": "穿过隙间总数"
  },
  {
    "name": "NumCompletedGames",
    "defaultvalue": 0,
    "displayName": "三星通关次数"
  }
]