{
  "Dlcs": {
    "872250": {
      "Name": "Nick Beard: The Fedora of Destiny - Literally Nothing",
      "ImageUrl": "https://steamcdn-a.akamaihd.net/steam/apps/872250/header.jpg?t=1531352840"
    }
  },
  "Name": "Nick Beard: The Fedora of Destiny",
  "AppId": "872240",
  "ImageUrl": "https://steamcdn-a.akamaihd.net/steam/apps/872240/header.jpg?t=1531110994",
  "Languages": [
    "english"
  ],
  "Platforms": {
    "windows": true,
    "mac": false,
    "linux": false
  }
}