[
  {
    "name": "ACH_CAUGHT_TUGGIN",
    "defaultvalue": 0,
    "displayName": "CAUGHT TUGGIN",
    "hidden": 0,
    "description": "Get caught tuggin again.",
    "icon": "https://steamcdn-a.akamaihd.net/steamcommunity/public/images/apps/1290620/60ed276ab626a8374ecad9f2ae9d2064d0206f40.jpg",
    "icongray": "https://steamcdn-a.akamaihd.net/steamcommunity/public/images/apps/1290620/b35d8ad89bc957a8df42bafd4cdfe544060c86c0.jpg"
  },
  {
    "name": "ACH_SPANISH_FLU",
    "defaultvalue": 0,
    "displayName": "SPANISH FLU",
    "hidden": 0,
    "description": "Kill 100 healthy enemy soldiers.",
    "icon": "https://steamcdn-a.akamaihd.net/steamcommunity/public/images/apps/1290620/38369d4ae044856fcb2cb1c246b6a03a8bff8ac1.jpg",
    "icongray": "https://steamcdn-a.akamaihd.net/steamcommunity/public/images/apps/1290620/8d23b2534abc32f649eff2e7d854906ba6684b1b.jpg"
  },
  {
    "name": "ACH_YALL_NEED_JESUS",
    "defaultvalue": 0,
    "displayName": "YALL NEED JESUS",
    "hidden": 0,
    "description": "Repent now sinner.",
    "icon": "https://steamcdn-a.akamaihd.net/steamcommunity/public/images/apps/1290620/a560678f6c25d8dc788889226827f9f0d80c35b1.jpg",
    "icongray": "https://steamcdn-a.akamaihd.net/steamcommunity/public/images/apps/1290620/9d2bdd6fbf8f97004739badebbf6b6e64bc93bf0.jpg"
  },
  {
    "name": "ACH_SCIENCE_RULES",
    "defaultvalue": 0,
    "displayName": "DO YOU QUESTION SCIENCE?",
    "hidden": 0,
    "description": "SCIENCE!",
    "icon": "https://steamcdn-a.akamaihd.net/steamcommunity/public/images/apps/1290620/6eb0ff970cd63332736cb97275441f62b5369803.jpg",
    "icongray": "https://steamcdn-a.akamaihd.net/steamcommunity/public/images/apps/1290620/45354eb6861be9a4a57b12e91d8195043f084941.jpg"
  },
  {
    "name": "ACH_WELCOME_TO_TEXAS",
    "defaultvalue": 0,
    "displayName": "WELCOME TO TEXAS!",
    "hidden": 0,
    "description": "Yeehaw!",
    "icon": "https://steamcdn-a.akamaihd.net/steamcommunity/public/images/apps/1290620/817728aa4155ee022ab82aa1a3315c4bc128a9f1.jpg",
    "icongray": "https://steamcdn-a.akamaihd.net/steamcommunity/public/images/apps/1290620/5570d007760b5961aea7ed6d70527715051dc948.jpg"
  },
  {
    "name": "ACH_FEDERAL_RESERVE",
    "defaultvalue": 0,
    "displayName": "LEARNED WHERE MONEY COMES FROM!",
    "hidden": 0,
    "description": "Now get back to work citizen!",
    "icon": "https://steamcdn-a.akamaihd.net/steamcommunity/public/images/apps/1290620/40b2b86c9452e5e6eaac990eb1bbf67dd854397a.jpg",
    "icongray": "https://steamcdn-a.akamaihd.net/steamcommunity/public/images/apps/1290620/64ea0032fb3f5b1217ed6f2eafc719b6224699c0.jpg"
  },
  {
    "name": "ACH_UNPUKABLE",
    "defaultvalue": 0,
    "displayName": "UNPUKABLE!",
    "hidden": 0,
    "description": "You puked over 25 times! Awesome!",
    "icon": "https://steamcdn-a.akamaihd.net/steamcommunity/public/images/apps/1290620/575e0d1b160b230605c5340c10cfd4187aa159c5.jpg",
    "icongray": "https://steamcdn-a.akamaihd.net/steamcommunity/public/images/apps/1290620/1958713bd77a415561085a6df96d2e36393733bb.jpg"
  },
  {
    "name": "ACH_HEART",
    "defaultvalue": 0,
    "displayName": "DR. GHOZ IN THE HOUSE",
    "hidden": 0,
    "description": "Bring your allies back to life over 20 times!",
    "icon": "https://steamcdn-a.akamaihd.net/steamcommunity/public/images/apps/1290620/6bc29f21874a682932b3b5aa46c6cca0bd4d0a9d.jpg",
    "icongray": "https://steamcdn-a.akamaihd.net/steamcommunity/public/images/apps/1290620/d3ee627ffacb304981813ebc29ad0933965be957.jpg"
  },
  {
    "name": "ACH_SUPER_UNPUKABLE",
    "defaultvalue": 0,
    "displayName": "SUPER UNPUKABLE!",
    "hidden": 0,
    "description": "You are the puke master! Gross!",
    "icon": "https://steamcdn-a.akamaihd.net/steamcommunity/public/images/apps/1290620/f510f255cf814eaeee5edaf17d3911e80d1180e6.jpg",
    "icongray": "https://steamcdn-a.akamaihd.net/steamcommunity/public/images/apps/1290620/1958713bd77a415561085a6df96d2e36393733bb.jpg"
  },
  {
    "name": "ACH_DONT_MESS_WITH_TEXAS",
    "defaultvalue": 0,
    "displayName": "DON'T MESS WITH TEXAS!",
    "hidden": 0,
    "description": "Died on Texas soil, pack your stuff and get back to California.",
    "icon": "https://steamcdn-a.akamaihd.net/steamcommunity/public/images/apps/1290620/b0c0007cc70141217e1cdc708560db3186a5e436.jpg",
    "icongray": "https://steamcdn-a.akamaihd.net/steamcommunity/public/images/apps/1290620/2296043b6b3786cb61aa0e096ad6811dedc5450c.jpg"
  }
]