{
  "Dlcs": {},
  "Name": "Chesnakisnak",
  "AppId": "1433770",
  "ImageUrl": "https://steamcdn-a.akamaihd.net/steam/apps/1433770/header.jpg?t=1601418086",
  "Languages": [
    "english"
  ],
  "Platforms": {
    "windows": true,
    "mac": false,
    "linux": false
  }
}