﻿{
  "Dlcs": {
    "546140": {
      "Name": "PHAT PHROG UNCAGED",
      "ImageUrl": "https://steamcdn-a.akamaihd.net/steam/apps/546140/header.jpg?t=1591982385"
    },
    "1303150": {
      "Name": "PHAT PHROG - ALL PIGMENTS UNLOCKED",
      "ImageUrl": "https://steamcdn-a.akamaihd.net/steam/apps/1303150/header.jpg?t=1589130056"
    },
    "1304590": {
      "Name": "PHAT PHROG - PHLAI CHARACTER UNLOCK",
      "ImageUrl": "https://steamcdn-a.akamaihd.net/steam/apps/1304590/header.jpg?t=1589130112"
    },
    "1304591": {
      "Name": "PHAT PHROG - PHLAN CHARACTER UNLOCK",
      "ImageUrl": "https://steamcdn-a.akamaihd.net/steam/apps/1304591/header.jpg?t=1589130123"
    },
    "1345560": {
      "Name": "PHAT PHROG - CHEST CHARACTER UNLOCK",
      "ImageUrl": "https://steamcdn-a.akamaihd.net/steam/apps/1345560/header.jpg?t=1593036343"
    },
    "1346060": {
      "Name": "PHAT PHROG - BOMB CHARACTER UNLOCK",
      "ImageUrl": "https://steamcdn-a.akamaihd.net/steam/apps/1346060/header.jpg?t=1593036357"
    },
    "1349520": {
      "Name": "PHAT PHROG - BEE PHLAI COSTUME",
      "ImageUrl": "https://steamcdn-a.akamaihd.net/steam/apps/1349520/header.jpg?t=1593036372"
    },
    "1349521": {
      "Name": "PHAT PHROG - ZOMBIE PHLAI COSTUME",
      "ImageUrl": "https://steamcdn-a.akamaihd.net/steam/apps/1349521/header.jpg?t=1593036785"
    },
    "1349522": {
      "Name": "PHAT PHROG - CARNIVAL PHLAI COSTUME",
      "ImageUrl": "https://steamcdn-a.akamaihd.net/steam/apps/1349522/header.jpg?t=1593036395"
    },
    "1349523": {
      "Name": "PHAT PHROG - COWBOY PHLAI COSTUME",
      "ImageUrl": "https://steamcdn-a.akamaihd.net/steam/apps/1349523/header.jpg?t=1593036409"
    },
    "1351600": {
      "Name": "PHAT PHROG - 25 TREASURE CHESTS",
      "ImageUrl": "https://steamcdn-a.akamaihd.net/steam/apps/1351600/header.jpg?t=1593036558"
    },
    "1351601": {
      "Name": "PHAT PHROG - 50 TREASURE CHESTS",
      "ImageUrl": "https://steamcdn-a.akamaihd.net/steam/apps/1351601/header.jpg?t=1593036568"
    },
    "1351602": {
      "Name": "PHAT PHROG - 100 TREASURE CHESTS",
      "ImageUrl": "https://steamcdn-a.akamaihd.net/steam/apps/1351602/header.jpg?t=1593036578"
    },
    "1351603": {
      "Name": "PHAT PHROG - 250 TREASURE CHESTS",
      "ImageUrl": "https://steamcdn-a.akamaihd.net/steam/apps/1351603/header.jpg?t=1593036595"
    },
    "1351604": {
      "Name": "PHAT PHROG - 500 TREASURE CHESTS",
      "ImageUrl": "https://steamcdn-a.akamaihd.net/steam/apps/1351604/header.jpg?t=1593036615"
    },
    "1352170": {
      "Name": "PHAT PHROG - GEISHA PHLAN COSTUME",
      "ImageUrl": "https://steamcdn-a.akamaihd.net/steam/apps/1352170/header.jpg?t=1593036659"
    },
    "1352171": {
      "Name": "PHAT PHROG - PUMPKIN PHLAN COSTUME",
      "ImageUrl": "https://steamcdn-a.akamaihd.net/steam/apps/1352171/header.jpg?t=1593036668"
    },
    "1352172": {
      "Name": "PHAT PHROG - VIKING PHLAN COSTUME",
      "ImageUrl": "https://steamcdn-a.akamaihd.net/steam/apps/1352172/header.jpg?t=1593036782"
    },
    "1352173": {
      "Name": "PHAT PHROG - CHEROKEE PHLAN COSTUME",
      "ImageUrl": "https://steamcdn-a.akamaihd.net/steam/apps/1352173/header.jpg?t=1593036683"
    }
  },
  "Name": "PHAT PHROG",
  "AppId": "545570",
  "ImageUrl": "https://steamcdn-a.akamaihd.net/steam/apps/545570/header.jpg?t=1593038062",
  "Languages": [
    "english"
  ],
  "Platforms": {
    "windows": true,
    "mac": false,
    "linux": false
  }
}