{
  "Dlcs": {},
  "Name": "Back To Life 3",
  "AppId": "335570",
  "ImageUrl": "https://steamcdn-a.akamaihd.net/steam/apps/335570/header.jpg?t=1574194501",
  "Languages": [
    "english"
  ],
  "Platforms": {
    "windows": true,
    "mac": false,
    "linux": false
  }
}