{
  "Dlcs": {},
  "Name": "Heroes of the Earth: inVasion",
  "AppId": "1015120",
  "ImageUrl": "https://steamcdn-a.akamaihd.net/steam/apps/1015120/header.jpg?t=1559067532",
  "Languages": [
    "english",
    "russian"
  ],
  "Platforms": {
    "windows": true,
    "mac": false,
    "linux": false
  }
}