{
  "Dlcs": {},
  "Name": "Drunkn Bar Fight on Halloween",
  "AppId": "933140",
  "ImageUrl": "https://steamcdn-a.akamaihd.net/steam/apps/933140/header.jpg?t=1550531050",
  "Languages": [
    "english"
  ],
  "Platforms": {
    "windows": true,
    "mac": false,
    "linux": false
  }
}