{
  "Dlcs": {
    "503800": {
      "Name": "",
      "ImageUrl": ""
    }
  },
  "Name": "Fractal Space",
  "AppId": "435410",
  "ImageUrl": "https://steamcdn-a.akamaihd.net/steam/apps/435410/header.jpg?t=1599339544",
  "Languages": [
    "english",
    "french",
    "german",
    "spanish",
    "hungarian",
    "italian",
    "czech",
    "danish",
    "polish",
    "russian",
    "swedish",
    "schinese",
    "portuguese",
    "turkish",
    "portuguese",
    "ukrainian"
  ],
  "Platforms": {
    "windows": true,
    "mac": true,
    "linux": true
  }
}