{
  "Dlcs": {
    "748080": {
      "Name": "God Of Light: Remastered - OST",
      "ImageUrl": "https://steamcdn-a.akamaihd.net/steam/apps/748080/header.jpg?t=1510162516"
    }
  },
  "Name": "God of Light: Remastered",
  "AppId": "711130",
  "ImageUrl": "https://steamcdn-a.akamaihd.net/steam/apps/711130/header.jpg?t=1592994679",
  "Languages": [
    "english",
    "french",
    "italian",
    "german",
    "spanish",
    "portuguese",
    "schinese",
    "korean",
    "portuguese",
    "russian",
    "japanese"
  ],
  "Platforms": {
    "windows": true,
    "mac": false,
    "linux": false
  }
}