﻿[
  {
    "name": "METAL_WALTZ_001",
    "defaultvalue": 0,
    "displayName": "First salary!",
    "hidden": 0,
    "description": "Collect 30000 silver coins",
    "icon": "https://steamcdn-a.akamaihd.net/steamcommunity/public/images/apps/581130/f61513980c63a9683cd08cde0a3f4926da3c34c5.jpg",
    "icongray": "https://steamcdn-a.akamaihd.net/steamcommunity/public/images/apps/581130/f0f02e9a19e372675edc8ae6d6117940952fc7da.jpg"
  },
  {
    "name": "METAL_WALTZ_002",
    "defaultvalue": 0,
    "displayName": "The easiest",
    "hidden": 0,
    "description": "The first victory in the |Story| mode",
    "icon": "https://steamcdn-a.akamaihd.net/steamcommunity/public/images/apps/581130/4f52630d1c47bb771048cef0e90feb02e8dc597c.jpg",
    "icongray": "https://steamcdn-a.akamaihd.net/steamcommunity/public/images/apps/581130/9d7485406060749872fb0de4f5bb11f6ae548a36.jpg"
  },
  {
    "name": "METAL_WALTZ_003",
    "defaultvalue": 0,
    "displayName": "Not bad!",
    "hidden": 0,
    "description": "The first victory in the |Clash| mode",
    "icon": "https://steamcdn-a.akamaihd.net/steamcommunity/public/images/apps/581130/7244e9aad541d701dcc02be2ebb756b7226cdcda.jpg",
    "icongray": "https://steamcdn-a.akamaihd.net/steamcommunity/public/images/apps/581130/278684e5c106309466298b6f10b8747a206ae8c3.jpg"
  },
  {
    "name": "METAL_WALTZ_004",
    "defaultvalue": 0,
    "displayName": "Squad formed",
    "hidden": 0,
    "description": "4 members in the squad",
    "icon": "https://steamcdn-a.akamaihd.net/steamcommunity/public/images/apps/581130/2c96e6ae98ea6544f7cd1e11fe96b8f6cf308cc3.jpg",
    "icongray": "https://steamcdn-a.akamaihd.net/steamcommunity/public/images/apps/581130/b9a43304d43d7a4bf1e113d2681394f96c256bb9.jpg"
  },
  {
    "name": "METAL_WALTZ_005",
    "defaultvalue": 0,
    "displayName": "Well...is that better?",
    "hidden": 0,
    "description": "Commander reached up to 10th level",
    "icon": "https://steamcdn-a.akamaihd.net/steamcommunity/public/images/apps/581130/7262e5cba35f2233c89c647758dc5627c543802e.jpg",
    "icongray": "https://steamcdn-a.akamaihd.net/steamcommunity/public/images/apps/581130/6368d00bdb98ca2229da672726828d0b549ad230.jpg"
  },
  {
    "name": "METAL_WALTZ_006",
    "defaultvalue": 0,
    "displayName": "I'm your fan",
    "hidden": 0,
    "description": "You get \"Chaffee Mic\" emblem",
    "icon": "https://steamcdn-a.akamaihd.net/steamcommunity/public/images/apps/581130/f1d83c9506b14ca12e8a7026fb31ba6584df0e55.jpg",
    "icongray": "https://steamcdn-a.akamaihd.net/steamcommunity/public/images/apps/581130/2256a9e47deba26b39e598721e3059cef0bb9c36.jpg"
  },
  {
    "name": "METAL_WALTZ_007",
    "defaultvalue": 0,
    "displayName": "O...Orange?",
    "hidden": 0,
    "description": "The first transport",
    "icon": "https://steamcdn-a.akamaihd.net/steamcommunity/public/images/apps/581130/6fc6cb228c0e5751c4fcf62d83e04f0706857816.jpg",
    "icongray": "https://steamcdn-a.akamaihd.net/steamcommunity/public/images/apps/581130/533f4937bc2c074e24a83a10988fe0e635f20916.jpg"
  },
  {
    "name": "METAL_WALTZ_008",
    "defaultvalue": 0,
    "displayName": "Becoming stronger?",
    "hidden": 0,
    "description": "First time upgrading Metall-maiden",
    "icon": "https://steamcdn-a.akamaihd.net/steamcommunity/public/images/apps/581130/8fd16c6c7b79db34ba7aea50466dd94032d337a1.jpg",
    "icongray": "https://steamcdn-a.akamaihd.net/steamcommunity/public/images/apps/581130/15e92054cf935201bdb75545ca15fa16a8a86d81.jpg"
  },
  {
    "name": "METAL_WALTZ_009",
    "defaultvalue": 0,
    "displayName": "In the future you will become a General!",
    "hidden": 0,
    "description": "The first upgrading maiden up to two stars",
    "icon": "https://steamcdn-a.akamaihd.net/steamcommunity/public/images/apps/581130/8decdc0906ce483b0d9492ec8f7d9e795999317c.jpg",
    "icongray": "https://steamcdn-a.akamaihd.net/steamcommunity/public/images/apps/581130/8720d874fdfd2b329fd5151ac1c65a0553f7e3d2.jpg"
  },
  {
    "name": "METAL_WALTZ_010",
    "defaultvalue": 0,
    "displayName": "Strengthening",
    "hidden": 0,
    "description": "First enhance",
    "icon": "https://steamcdn-a.akamaihd.net/steamcommunity/public/images/apps/581130/57856c152c9d38d5ca5dba5e79f59f21c21f9756.jpg",
    "icongray": "https://steamcdn-a.akamaihd.net/steamcommunity/public/images/apps/581130/e451fc307e77fb36f8e2904069c7656aafdfce0f.jpg"
  },
  {
    "name": "METAL_WALTZ_011",
    "defaultvalue": 0,
    "displayName": "Sweet army life",
    "hidden": 0,
    "description": "First awarding",
    "icon": "https://steamcdn-a.akamaihd.net/steamcommunity/public/images/apps/581130/ec5e02ef5760bb759e90b517bb1fc6eef2f931e5.jpg",
    "icongray": "https://steamcdn-a.akamaihd.net/steamcommunity/public/images/apps/581130/b7fa07c5661cfc6f6598c5230ca7e7ccb9b72943.jpg"
  },
  {
    "name": "METAL_WALTZ_012",
    "defaultvalue": 0,
    "displayName": "The initial modernization of equipment",
    "hidden": 0,
    "description": "The first modernization of equipment",
    "icon": "https://steamcdn-a.akamaihd.net/steamcommunity/public/images/apps/581130/34eb65aebd985164567f2d1e5cb4d55685171499.jpg",
    "icongray": "https://steamcdn-a.akamaihd.net/steamcommunity/public/images/apps/581130/35e466fdedfa80bbae79cc34d9d099c47cf26667.jpg"
  },
  {
    "name": "METAL_WALTZ_013",
    "defaultvalue": 0,
    "displayName": "First steps in science",
    "hidden": 0,
    "description": "The first advance in science and technology",
    "icon": "https://steamcdn-a.akamaihd.net/steamcommunity/public/images/apps/581130/029924ba4bbecab213a1c7405265235df19b3ed3.jpg",
    "icongray": "https://steamcdn-a.akamaihd.net/steamcommunity/public/images/apps/581130/686866c0537c12704c3b0b61f499313d1168a2fe.jpg"
  },
  {
    "name": "METAL_WALTZ_014",
    "defaultvalue": 0,
    "displayName": "That`s much better!",
    "hidden": 0,
    "description": "The first equipment installation",
    "icon": "https://steamcdn-a.akamaihd.net/steamcommunity/public/images/apps/581130/0256c5e0c8962a57f08f5eb7685e837aa9ede8a0.jpg",
    "icongray": "https://steamcdn-a.akamaihd.net/steamcommunity/public/images/apps/581130/ecd59429b730f390d3fc3bdaebe93ed1b8e80947.jpg"
  },
  {
    "name": "METAL_WALTZ_015",
    "defaultvalue": 0,
    "displayName": "Size is also very important!",
    "hidden": 0,
    "description": "The first installation of gun",
    "icon": "https://steamcdn-a.akamaihd.net/steamcommunity/public/images/apps/581130/8086b4bc4afe84f87e70e848b033309c7a1b4f7e.jpg",
    "icongray": "https://steamcdn-a.akamaihd.net/steamcommunity/public/images/apps/581130/00a083f1696d84dd69c26b95a4c58157eaf03827.jpg"
  },
  {
    "name": "METAL_WALTZ_016",
    "defaultvalue": 0,
    "displayName": "Am I the new Lord?",
    "hidden": 0,
    "description": "3 wins in \"Clash\"",
    "icon": "https://steamcdn-a.akamaihd.net/steamcommunity/public/images/apps/581130/7244e9aad541d701dcc02be2ebb756b7226cdcda.jpg",
    "icongray": "https://steamcdn-a.akamaihd.net/steamcommunity/public/images/apps/581130/278684e5c106309466298b6f10b8747a206ae8c3.jpg"
  },
  {
    "name": "METAL_WALTZ_017",
    "defaultvalue": 0,
    "displayName": "A great winning streak",
    "hidden": 0,
    "description": "5 wins in \"Clash\"",
    "icon": "https://steamcdn-a.akamaihd.net/steamcommunity/public/images/apps/581130/7244e9aad541d701dcc02be2ebb756b7226cdcda.jpg",
    "icongray": "https://steamcdn-a.akamaihd.net/steamcommunity/public/images/apps/581130/278684e5c106309466298b6f10b8747a206ae8c3.jpg"
  },
  {
    "name": "METAL_WALTZ_018",
    "defaultvalue": 0,
    "displayName": "10 wins",
    "hidden": 0,
    "description": "10 wins in \"Clash\"",
    "icon": "https://steamcdn-a.akamaihd.net/steamcommunity/public/images/apps/581130/7244e9aad541d701dcc02be2ebb756b7226cdcda.jpg",
    "icongray": "https://steamcdn-a.akamaihd.net/steamcommunity/public/images/apps/581130/278684e5c106309466298b6f10b8747a206ae8c3.jpg"
  },
  {
    "name": "METAL_WALTZ_019",
    "defaultvalue": 0,
    "displayName": "Another victory! You are superb!",
    "hidden": 0,
    "description": "20 wins in \"Clash\"",
    "icon": "https://steamcdn-a.akamaihd.net/steamcommunity/public/images/apps/581130/cf0ded2f1331fb8c9816a3d950398b56c7158cb1.jpg",
    "icongray": "https://steamcdn-a.akamaihd.net/steamcommunity/public/images/apps/581130/278684e5c106309466298b6f10b8747a206ae8c3.jpg"
  },
  {
    "name": "METAL_WALTZ_020",
    "defaultvalue": 0,
    "displayName": "Your silver is mine!",
    "hidden": 0,
    "description": "30 wins in \"Clash\"",
    "icon": "https://steamcdn-a.akamaihd.net/steamcommunity/public/images/apps/581130/cf0ded2f1331fb8c9816a3d950398b56c7158cb1.jpg",
    "icongray": "https://steamcdn-a.akamaihd.net/steamcommunity/public/images/apps/581130/278684e5c106309466298b6f10b8747a206ae8c3.jpg"
  },
  {
    "name": "METAL_WALTZ_021",
    "defaultvalue": 0,
    "displayName": "Became more power?",
    "hidden": 0,
    "description": "40 wins in \"Clash\"",
    "icon": "https://steamcdn-a.akamaihd.net/steamcommunity/public/images/apps/581130/cf0ded2f1331fb8c9816a3d950398b56c7158cb1.jpg",
    "icongray": "https://steamcdn-a.akamaihd.net/steamcommunity/public/images/apps/581130/278684e5c106309466298b6f10b8747a206ae8c3.jpg"
  },
  {
    "name": "METAL_WALTZ_022",
    "defaultvalue": 0,
    "displayName": "Invincible General",
    "hidden": 0,
    "description": "50 wins in \"Clash\"",
    "icon": "https://steamcdn-a.akamaihd.net/steamcommunity/public/images/apps/581130/a2345877420ccb687869b621955e50467f51d217.jpg",
    "icongray": "https://steamcdn-a.akamaihd.net/steamcommunity/public/images/apps/581130/278684e5c106309466298b6f10b8747a206ae8c3.jpg"
  },
  {
    "name": "METAL_WALTZ_023",
    "defaultvalue": 0,
    "displayName": "Unstoppable",
    "hidden": 0,
    "description": "60 wins in \"Clash\"",
    "icon": "https://steamcdn-a.akamaihd.net/steamcommunity/public/images/apps/581130/a2345877420ccb687869b621955e50467f51d217.jpg",
    "icongray": "https://steamcdn-a.akamaihd.net/steamcommunity/public/images/apps/581130/278684e5c106309466298b6f10b8747a206ae8c3.jpg"
  },
  {
    "name": "METAL_WALTZ_024",
    "defaultvalue": 0,
    "displayName": "Not the limit",
    "hidden": 0,
    "description": "5 members in the squad",
    "icon": "https://steamcdn-a.akamaihd.net/steamcommunity/public/images/apps/581130/ee2f905992dd87495ed40a20d977d3a2791ceb49.jpg",
    "icongray": "https://steamcdn-a.akamaihd.net/steamcommunity/public/images/apps/581130/b9a43304d43d7a4bf1e113d2681394f96c256bb9.jpg"
  },
  {
    "name": "METAL_WALTZ_025",
    "defaultvalue": 0,
    "displayName": "The squad is ready",
    "hidden": 0,
    "description": "6 members in the squad",
    "icon": "https://steamcdn-a.akamaihd.net/steamcommunity/public/images/apps/581130/a544bd7d5940b34aebd44766ff5559b505e17024.jpg",
    "icongray": "https://steamcdn-a.akamaihd.net/steamcommunity/public/images/apps/581130/b9a43304d43d7a4bf1e113d2681394f96c256bb9.jpg"
  },
  {
    "name": "METAL_WALTZ_026",
    "defaultvalue": 0,
    "displayName": "A thousand journey takes every step",
    "hidden": 0,
    "description": "To collect 100000 silver coins",
    "icon": "https://steamcdn-a.akamaihd.net/steamcommunity/public/images/apps/581130/f61513980c63a9683cd08cde0a3f4926da3c34c5.jpg",
    "icongray": "https://steamcdn-a.akamaihd.net/steamcommunity/public/images/apps/581130/f0f02e9a19e372675edc8ae6d6117940952fc7da.jpg"
  },
  {
    "name": "METAL_WALTZ_027",
    "defaultvalue": 0,
    "displayName": "More! I need more silver!",
    "hidden": 0,
    "description": "To collect 500000 silver coins",
    "icon": "https://steamcdn-a.akamaihd.net/steamcommunity/public/images/apps/581130/a22a10a37403b911bde234b33bbe2b8a8696ef18.jpg",
    "icongray": "https://steamcdn-a.akamaihd.net/steamcommunity/public/images/apps/581130/f0f02e9a19e372675edc8ae6d6117940952fc7da.jpg"
  },
  {
    "name": "METAL_WALTZ_028",
    "defaultvalue": 0,
    "displayName": "I'm rich!",
    "hidden": 0,
    "description": "To collect 1000000 silver coins",
    "icon": "https://steamcdn-a.akamaihd.net/steamcommunity/public/images/apps/581130/a22a10a37403b911bde234b33bbe2b8a8696ef18.jpg",
    "icongray": "https://steamcdn-a.akamaihd.net/steamcommunity/public/images/apps/581130/f0f02e9a19e372675edc8ae6d6117940952fc7da.jpg"
  },
  {
    "name": "METAL_WALTZ_029",
    "defaultvalue": 0,
    "displayName": "Rich man",
    "hidden": 0,
    "description": "To collect 5000000 silver coins",
    "icon": "https://steamcdn-a.akamaihd.net/steamcommunity/public/images/apps/581130/d79152b30300c011150e8820419a5ce7db9f7da0.jpg",
    "icongray": "https://steamcdn-a.akamaihd.net/steamcommunity/public/images/apps/581130/f0f02e9a19e372675edc8ae6d6117940952fc7da.jpg"
  },
  {
    "name": "STEAM_ACHIEVEMENT_STORY_SPECIAL_001",
    "defaultvalue": 0,
    "displayName": "Gorgeous debut",
    "hidden": 0,
    "description": "The launch \"Panzer waltz",
    "icon": "https://steamcdn-a.akamaihd.net/steamcommunity/public/images/apps/581130/7262e5cba35f2233c89c647758dc5627c543802e.jpg",
    "icongray": "https://steamcdn-a.akamaihd.net/steamcommunity/public/images/apps/581130/6368d00bdb98ca2229da672726828d0b549ad230.jpg"
  },
  {
    "name": "STEAM_ACHIEVEMENT_STORY_SPECIAL_002",
    "defaultvalue": 0,
    "displayName": "To plunging into the world of fantasy",
    "hidden": 0,
    "description": "Click to view the squad",
    "icon": "https://steamcdn-a.akamaihd.net/steamcommunity/public/images/apps/581130/7262e5cba35f2233c89c647758dc5627c543802e.jpg",
    "icongray": "https://steamcdn-a.akamaihd.net/steamcommunity/public/images/apps/581130/6368d00bdb98ca2229da672726828d0b549ad230.jpg"
  },
  {
    "name": "STEAM_ACHIEVEMENT_STORY_001",
    "defaultvalue": 0,
    "displayName": "Secret",
    "hidden": 0,
    "description": "Clear \"Story\" mode`s volume 1 chapter 4",
    "icon": "https://steamcdn-a.akamaihd.net/steamcommunity/public/images/apps/581130/b193ab8d80d2bf13b43da17a85a6e8fd3ea68196.jpg",
    "icongray": "https://steamcdn-a.akamaihd.net/steamcommunity/public/images/apps/581130/2f26b693659f5efc714cb85b3040b43c99273f30.jpg"
  },
  {
    "name": "STEAM_ACHIEVEMENT_STORY_002",
    "defaultvalue": 0,
    "displayName": "Mystical humanoid",
    "hidden": 0,
    "description": "Clear \"Story\" mode`s volume 2 chapter 4",
    "icon": "https://steamcdn-a.akamaihd.net/steamcommunity/public/images/apps/581130/b193ab8d80d2bf13b43da17a85a6e8fd3ea68196.jpg",
    "icongray": "https://steamcdn-a.akamaihd.net/steamcommunity/public/images/apps/581130/2f26b693659f5efc714cb85b3040b43c99273f30.jpg"
  },
  {
    "name": "STEAM_ACHIEVEMENT_STORY_003",
    "defaultvalue": 0,
    "displayName": "Demonic instructor Sofia",
    "hidden": 0,
    "description": "Clear \"Story\" mode`s volume 3 chapter 2",
    "icon": "https://steamcdn-a.akamaihd.net/steamcommunity/public/images/apps/581130/b193ab8d80d2bf13b43da17a85a6e8fd3ea68196.jpg",
    "icongray": "https://steamcdn-a.akamaihd.net/steamcommunity/public/images/apps/581130/2f26b693659f5efc714cb85b3040b43c99273f30.jpg"
  },
  {
    "name": "STEAM_ACHIEVEMENT_STORY_004",
    "defaultvalue": 0,
    "displayName": "Hunter and Fox",
    "hidden": 0,
    "description": "Clear \"Story\" mode`s volume 4 chapter 4",
    "icon": "https://steamcdn-a.akamaihd.net/steamcommunity/public/images/apps/581130/b193ab8d80d2bf13b43da17a85a6e8fd3ea68196.jpg",
    "icongray": "https://steamcdn-a.akamaihd.net/steamcommunity/public/images/apps/581130/2f26b693659f5efc714cb85b3040b43c99273f30.jpg"
  },
  {
    "name": "STEAM_ACHIEVEMENT_STORY_005",
    "defaultvalue": 0,
    "displayName": "What a horrible thought, stop it!",
    "hidden": 0,
    "description": "Clear \"Story\" mode`s volume 5 chapter 4",
    "icon": "https://steamcdn-a.akamaihd.net/steamcommunity/public/images/apps/581130/7262e5cba35f2233c89c647758dc5627c543802e.jpg",
    "icongray": "https://steamcdn-a.akamaihd.net/steamcommunity/public/images/apps/581130/6368d00bdb98ca2229da672726828d0b549ad230.jpg"
  },
  {
    "name": "STEAM_ACHIEVEMENT_STORY_006",
    "defaultvalue": 0,
    "displayName": "The tournament between the academies",
    "hidden": 0,
    "description": "Clear \"Story\" mode`s volume 6 chapter 2",
    "icon": "https://steamcdn-a.akamaihd.net/steamcommunity/public/images/apps/581130/7262e5cba35f2233c89c647758dc5627c543802e.jpg",
    "icongray": "https://steamcdn-a.akamaihd.net/steamcommunity/public/images/apps/581130/6368d00bdb98ca2229da672726828d0b549ad230.jpg"
  },
  {
    "name": "STEAM_ACHIEVEMENT_STORY_007",
    "defaultvalue": 0,
    "displayName": "Never give up!",
    "hidden": 0,
    "description": "Clear \"Story\" mode`s volume 7 chapter 4",
    "icon": "https://steamcdn-a.akamaihd.net/steamcommunity/public/images/apps/581130/7262e5cba35f2233c89c647758dc5627c543802e.jpg",
    "icongray": "https://steamcdn-a.akamaihd.net/steamcommunity/public/images/apps/581130/6368d00bdb98ca2229da672726828d0b549ad230.jpg"
  },
  {
    "name": "STEAM_ACHIEVEMENT_STORY_008",
    "defaultvalue": 0,
    "displayName": "Temporary way",
    "hidden": 0,
    "description": "Clear \"Story\" mode`s volume 8 chapter 4",
    "icon": "https://steamcdn-a.akamaihd.net/steamcommunity/public/images/apps/581130/7262e5cba35f2233c89c647758dc5627c543802e.jpg",
    "icongray": "https://steamcdn-a.akamaihd.net/steamcommunity/public/images/apps/581130/6368d00bdb98ca2229da672726828d0b549ad230.jpg"
  },
  {
    "name": "STEAM_ACHIEVEMENT_STORY_009",
    "defaultvalue": 0,
    "displayName": "The occupation of the Institute",
    "hidden": 0,
    "description": "Clear \"Story\" mode`s volume 9 chapter 4",
    "icon": "https://steamcdn-a.akamaihd.net/steamcommunity/public/images/apps/581130/08452579fdb3c2d37cfcac2abebbb722f54e8b24.jpg",
    "icongray": "https://steamcdn-a.akamaihd.net/steamcommunity/public/images/apps/581130/2f26b693659f5efc714cb85b3040b43c99273f30.jpg"
  },
  {
    "name": "STEAM_ACHIEVEMENT_STORY_010",
    "defaultvalue": 0,
    "displayName": "L-protein",
    "hidden": 0,
    "description": "Clear \"Story\" mode`s volume 10 chapter 3",
    "icon": "https://steamcdn-a.akamaihd.net/steamcommunity/public/images/apps/581130/08452579fdb3c2d37cfcac2abebbb722f54e8b24.jpg",
    "icongray": "https://steamcdn-a.akamaihd.net/steamcommunity/public/images/apps/581130/2f26b693659f5efc714cb85b3040b43c99273f30.jpg"
  },
  {
    "name": "STEAM_ACHIEVEMENT_STORY_011",
    "defaultvalue": 0,
    "displayName": "The quick victory",
    "hidden": 0,
    "description": "Clear \"Story\" mode`s volume 11 chapter 4",
    "icon": "https://steamcdn-a.akamaihd.net/steamcommunity/public/images/apps/581130/08452579fdb3c2d37cfcac2abebbb722f54e8b24.jpg",
    "icongray": "https://steamcdn-a.akamaihd.net/steamcommunity/public/images/apps/581130/2f26b693659f5efc714cb85b3040b43c99273f30.jpg"
  },
  {
    "name": "STEAM_ACHIEVEMENT_STORY_012",
    "defaultvalue": 0,
    "displayName": "Join the BWMG",
    "hidden": 0,
    "description": "Clear \"Story\" mode`s volume 12 chapter 3",
    "icon": "https://steamcdn-a.akamaihd.net/steamcommunity/public/images/apps/581130/08452579fdb3c2d37cfcac2abebbb722f54e8b24.jpg",
    "icongray": "https://steamcdn-a.akamaihd.net/steamcommunity/public/images/apps/581130/2f26b693659f5efc714cb85b3040b43c99273f30.jpg"
  },
  {
    "name": "STEAM_ACHIEVEMENT_STORY_013",
    "defaultvalue": 0,
    "displayName": "Charming hero",
    "hidden": 0,
    "description": "Clear \"Story\" mode`s volume 13 chapter 3",
    "icon": "https://steamcdn-a.akamaihd.net/steamcommunity/public/images/apps/581130/e78dad8caf6230c597bce5500a8184986f0e6e44.jpg",
    "icongray": "https://steamcdn-a.akamaihd.net/steamcommunity/public/images/apps/581130/6368d00bdb98ca2229da672726828d0b549ad230.jpg"
  },
  {
    "name": "STEAM_ACHIEVEMENT_STORY_014",
    "defaultvalue": 0,
    "displayName": "The reward of 100 million? You can quickly get rich!",
    "hidden": 0,
    "description": "Clear \"Story\" mode`s volume 14 chapter 4",
    "icon": "https://steamcdn-a.akamaihd.net/steamcommunity/public/images/apps/581130/e78dad8caf6230c597bce5500a8184986f0e6e44.jpg",
    "icongray": "https://steamcdn-a.akamaihd.net/steamcommunity/public/images/apps/581130/6368d00bdb98ca2229da672726828d0b549ad230.jpg"
  },
  {
    "name": "STEAM_ACHIEVEMENT_STORY_015",
    "defaultvalue": 0,
    "displayName": "Sandhurst",
    "hidden": 0,
    "description": "Clear \"Story\" mode`s volume 15 chapter 4",
    "icon": "https://steamcdn-a.akamaihd.net/steamcommunity/public/images/apps/581130/e78dad8caf6230c597bce5500a8184986f0e6e44.jpg",
    "icongray": "https://steamcdn-a.akamaihd.net/steamcommunity/public/images/apps/581130/6368d00bdb98ca2229da672726828d0b549ad230.jpg"
  },
  {
    "name": "STEAM_ACHIEVEMENT_STORY_016",
    "defaultvalue": 0,
    "displayName": "Together with the traveler?!",
    "hidden": 0,
    "description": "Clear \"Story\" mode`s volume 16 chapter 4",
    "icon": "https://steamcdn-a.akamaihd.net/steamcommunity/public/images/apps/581130/e78dad8caf6230c597bce5500a8184986f0e6e44.jpg",
    "icongray": "https://steamcdn-a.akamaihd.net/steamcommunity/public/images/apps/581130/6368d00bdb98ca2229da672726828d0b549ad230.jpg"
  },
  {
    "name": "STEAM_ACHIEVEMENT_STORY_017",
    "defaultvalue": 0,
    "displayName": "Sterope",
    "hidden": 0,
    "description": "Clear \"Story\" mode`s volume 17 chapter 3",
    "icon": "https://steamcdn-a.akamaihd.net/steamcommunity/public/images/apps/581130/488a017e71e6cd82c25e7b457095ee38b6d5d86f.jpg",
    "icongray": "https://steamcdn-a.akamaihd.net/steamcommunity/public/images/apps/581130/2f26b693659f5efc714cb85b3040b43c99273f30.jpg"
  },
  {
    "name": "STEAM_ACHIEVEMENT_STORY_018",
    "defaultvalue": 0,
    "displayName": "A strange cooperation",
    "hidden": 0,
    "description": "Clear \"Story\" mode`s volume 18 chapter 4",
    "icon": "https://steamcdn-a.akamaihd.net/steamcommunity/public/images/apps/581130/488a017e71e6cd82c25e7b457095ee38b6d5d86f.jpg",
    "icongray": "https://steamcdn-a.akamaihd.net/steamcommunity/public/images/apps/581130/2f26b693659f5efc714cb85b3040b43c99273f30.jpg"
  },
  {
    "name": "STEAM_ACHIEVEMENT_STORY_019",
    "defaultvalue": 0,
    "displayName": "The secret service",
    "hidden": 0,
    "description": "Clear \"Story\" mode`s volume 19 chapter 4",
    "icon": "https://steamcdn-a.akamaihd.net/steamcommunity/public/images/apps/581130/488a017e71e6cd82c25e7b457095ee38b6d5d86f.jpg",
    "icongray": "https://steamcdn-a.akamaihd.net/steamcommunity/public/images/apps/581130/2f26b693659f5efc714cb85b3040b43c99273f30.jpg"
  },
  {
    "name": "STEAM_ACHIEVEMENT_STORY_020",
    "defaultvalue": 0,
    "displayName": "BWMG",
    "hidden": 0,
    "description": "Clear \"Story\" mode`s volume 20 chapter 2",
    "icon": "https://steamcdn-a.akamaihd.net/steamcommunity/public/images/apps/581130/488a017e71e6cd82c25e7b457095ee38b6d5d86f.jpg",
    "icongray": "https://steamcdn-a.akamaihd.net/steamcommunity/public/images/apps/581130/2f26b693659f5efc714cb85b3040b43c99273f30.jpg"
  },
  {
    "name": "STEAM_ACHIEVEMENT_STORY_021",
    "defaultvalue": 0,
    "displayName": "Uninvited guest",
    "hidden": 0,
    "description": "Clear \"Story\" mode`s volume 21 chapter 1",
    "icon": "https://steamcdn-a.akamaihd.net/steamcommunity/public/images/apps/581130/0286c23626fa501970445caec743eb48bd5a3c5e.jpg",
    "icongray": "https://steamcdn-a.akamaihd.net/steamcommunity/public/images/apps/581130/6368d00bdb98ca2229da672726828d0b549ad230.jpg"
  },
  {
    "name": "METAL_WALTZ_030",
    "defaultvalue": 0,
    "displayName": "Not bad for a newbie",
    "hidden": 0,
    "description": "Headquarters has achieved a 5-level",
    "icon": "https://steamcdn-a.akamaihd.net/steamcommunity/public/images/apps/581130/8d3b6d7481b94e5093091d4008f8fdc0be6376df.jpg",
    "icongray": "https://steamcdn-a.akamaihd.net/steamcommunity/public/images/apps/581130/8b98fb4590dd6dced5674e2899cdaad34252bdfc.jpg"
  },
  {
    "name": "METAL_WALTZ_031",
    "defaultvalue": 0,
    "displayName": "The improvement of staff increases opportunities",
    "hidden": 0,
    "description": "Headquarters has achieved a 10-level",
    "icon": "https://steamcdn-a.akamaihd.net/steamcommunity/public/images/apps/581130/01ae6db44180957f138af612406a74f76b03baf8.jpg",
    "icongray": "https://steamcdn-a.akamaihd.net/steamcommunity/public/images/apps/581130/8b98fb4590dd6dced5674e2899cdaad34252bdfc.jpg"
  },
  {
    "name": "METAL_WALTZ_032",
    "defaultvalue": 0,
    "displayName": "This is the beginning of a very long journey",
    "hidden": 0,
    "description": "Headquarters has achieved a 15-level",
    "icon": "https://steamcdn-a.akamaihd.net/steamcommunity/public/images/apps/581130/01ae6db44180957f138af612406a74f76b03baf8.jpg",
    "icongray": "https://steamcdn-a.akamaihd.net/steamcommunity/public/images/apps/581130/8b98fb4590dd6dced5674e2899cdaad34252bdfc.jpg"
  },
  {
    "name": "METAL_WALTZ_033",
    "defaultvalue": 0,
    "displayName": "The Headquarters is above all",
    "hidden": 0,
    "description": "Headquarters has achieved a 20-level",
    "icon": "https://steamcdn-a.akamaihd.net/steamcommunity/public/images/apps/581130/b2fef7bf4db2948a51cf3e2559292fe35e3871cf.jpg",
    "icongray": "https://steamcdn-a.akamaihd.net/steamcommunity/public/images/apps/581130/8b98fb4590dd6dced5674e2899cdaad34252bdfc.jpg"
  },
  {
    "name": "METAL_WALTZ_034",
    "defaultvalue": 0,
    "displayName": "The opening of the naval port",
    "hidden": 0,
    "description": "The achievement of the 1st level \"Naval port\"",
    "icon": "https://steamcdn-a.akamaihd.net/steamcommunity/public/images/apps/581130/8d3b6d7481b94e5093091d4008f8fdc0be6376df.jpg",
    "icongray": "https://steamcdn-a.akamaihd.net/steamcommunity/public/images/apps/581130/8b98fb4590dd6dced5674e2899cdaad34252bdfc.jpg"
  },
  {
    "name": "METAL_WALTZ_035",
    "defaultvalue": 0,
    "displayName": "The production of new mechanisms",
    "hidden": 0,
    "description": "The achievement of the 1st level \"BWMG Depot\"",
    "icon": "https://steamcdn-a.akamaihd.net/steamcommunity/public/images/apps/581130/8d3b6d7481b94e5093091d4008f8fdc0be6376df.jpg",
    "icongray": "https://steamcdn-a.akamaihd.net/steamcommunity/public/images/apps/581130/8b98fb4590dd6dced5674e2899cdaad34252bdfc.jpg"
  },
  {
    "name": "METAL_WALTZ_036",
    "defaultvalue": 0,
    "displayName": "Accumulation of silver",
    "hidden": 0,
    "description": "The achievement of the 1st level \"Склад серебра\"",
    "icon": "https://steamcdn-a.akamaihd.net/steamcommunity/public/images/apps/581130/8d3b6d7481b94e5093091d4008f8fdc0be6376df.jpg",
    "icongray": "https://steamcdn-a.akamaihd.net/steamcommunity/public/images/apps/581130/8b98fb4590dd6dced5674e2899cdaad34252bdfc.jpg"
  },
  {
    "name": "METAL_WALTZ_037",
    "defaultvalue": 0,
    "displayName": "Excavator",
    "hidden": 0,
    "description": "The achievement of the 1st level \"Excavator\"",
    "icon": "https://steamcdn-a.akamaihd.net/steamcommunity/public/images/apps/581130/8d3b6d7481b94e5093091d4008f8fdc0be6376df.jpg",
    "icongray": "https://steamcdn-a.akamaihd.net/steamcommunity/public/images/apps/581130/8b98fb4590dd6dced5674e2899cdaad34252bdfc.jpg"
  },
  {
    "name": "METAL_WALTZ_038",
    "defaultvalue": 0,
    "displayName": "Famous brand high-heeled shoes",
    "hidden": 0,
    "description": "Sd.Kfz.234/3 reached level 90",
    "icon": "https://steamcdn-a.akamaihd.net/steamcommunity/public/images/apps/581130/1dedda79a4bc6b2642549e0dbbcf7a73688e1761.jpg",
    "icongray": "https://steamcdn-a.akamaihd.net/steamcommunity/public/images/apps/581130/b7fa07c5661cfc6f6598c5230ca7e7ccb9b72943.jpg"
  },
  {
    "name": "METAL_WALTZ_039",
    "defaultvalue": 0,
    "displayName": "White parrot",
    "hidden": 0,
    "description": "B.Châtillon 25t reached level 90",
    "icon": "https://steamcdn-a.akamaihd.net/steamcommunity/public/images/apps/581130/1dedda79a4bc6b2642549e0dbbcf7a73688e1761.jpg",
    "icongray": "https://steamcdn-a.akamaihd.net/steamcommunity/public/images/apps/581130/b7fa07c5661cfc6f6598c5230ca7e7ccb9b72943.jpg"
  },
  {
    "name": "METAL_WALTZ_040",
    "defaultvalue": 0,
    "displayName": "Faith in the heat shells",
    "hidden": 0,
    "description": "Heat shells reached 10th level",
    "icon": "https://steamcdn-a.akamaihd.net/steamcommunity/public/images/apps/581130/029924ba4bbecab213a1c7405265235df19b3ed3.jpg",
    "icongray": "https://steamcdn-a.akamaihd.net/steamcommunity/public/images/apps/581130/686866c0537c12704c3b0b61f499313d1168a2fe.jpg"
  },
  {
    "name": "METAL_WALTZ_041",
    "defaultvalue": 0,
    "displayName": "Faith in the rockets",
    "hidden": 0,
    "description": "Rocket-Propelled reached the 10th level",
    "icon": "https://steamcdn-a.akamaihd.net/steamcommunity/public/images/apps/581130/029924ba4bbecab213a1c7405265235df19b3ed3.jpg",
    "icongray": "https://steamcdn-a.akamaihd.net/steamcommunity/public/images/apps/581130/686866c0537c12704c3b0b61f499313d1168a2fe.jpg"
  },
  {
    "name": "METAL_WALTZ_042",
    "defaultvalue": 0,
    "displayName": "Special high-heeled shoes",
    "hidden": 0,
    "description": "Sd.Kfz.234/1 reached level 90",
    "icon": "https://steamcdn-a.akamaihd.net/steamcommunity/public/images/apps/581130/1dedda79a4bc6b2642549e0dbbcf7a73688e1761.jpg",
    "icongray": "https://steamcdn-a.akamaihd.net/steamcommunity/public/images/apps/581130/b7fa07c5661cfc6f6598c5230ca7e7ccb9b72943.jpg"
  },
  {
    "name": "METAL_WALTZ_043",
    "defaultvalue": 0,
    "displayName": "Sequence number 2997",
    "hidden": 0,
    "description": "To use this recipe 999x3 in the \"Depot BWMG\"",
    "icon": "https://steamcdn-a.akamaihd.net/steamcommunity/public/images/apps/581130/a5d0e848c3978c4bb21044e80e285362b86329e1.jpg",
    "icongray": "https://steamcdn-a.akamaihd.net/steamcommunity/public/images/apps/581130/a9e68b174c4cf8101e64b688c054d2fd7f4b176c.jpg"
  },
  {
    "name": "METAL_WALTZ_044",
    "defaultvalue": 0,
    "displayName": "Star of tomorrow",
    "hidden": 0,
    "description": "Assemble a squad (T-44-100，M24，T-60)",
    "icon": "https://steamcdn-a.akamaihd.net/steamcommunity/public/images/apps/581130/6d7404010c2d7e16ba5ad0858aa4458aec283742.jpg",
    "icongray": "https://steamcdn-a.akamaihd.net/steamcommunity/public/images/apps/581130/2256a9e47deba26b39e598721e3059cef0bb9c36.jpg"
  },
  {
    "name": "METAL_WALTZ_045",
    "defaultvalue": 0,
    "displayName": "Arrow of fate",
    "hidden": 0,
    "description": "Assemble a squad (ПТ-САУ Archer，САУ Birch Gun，StuG III Ausf. F)",
    "icon": "https://steamcdn-a.akamaihd.net/steamcommunity/public/images/apps/581130/f1d83c9506b14ca12e8a7026fb31ba6584df0e55.jpg",
    "icongray": "https://steamcdn-a.akamaihd.net/steamcommunity/public/images/apps/581130/2256a9e47deba26b39e598721e3059cef0bb9c36.jpg"
  },
  {
    "name": "METAL_WALTZ_046",
    "defaultvalue": 0,
    "displayName": "Black lightning",
    "hidden": 0,
    "description": "Assemble a squad (Tiger mod. E，Panther mod. A，Panther mod. G)",
    "icon": "https://steamcdn-a.akamaihd.net/steamcommunity/public/images/apps/581130/6d7404010c2d7e16ba5ad0858aa4458aec283742.jpg",
    "icongray": "https://steamcdn-a.akamaihd.net/steamcommunity/public/images/apps/581130/2256a9e47deba26b39e598721e3059cef0bb9c36.jpg"
  },
  {
    "name": "METAL_WALTZ_047",
    "defaultvalue": 0,
    "displayName": "Tulip",
    "hidden": 0,
    "description": "Assemble a squad ( B.Châtillon 25t，БТР-50ПА，SdKfz251-9)",
    "icon": "https://steamcdn-a.akamaihd.net/steamcommunity/public/images/apps/581130/6d7404010c2d7e16ba5ad0858aa4458aec283742.jpg",
    "icongray": "https://steamcdn-a.akamaihd.net/steamcommunity/public/images/apps/581130/2256a9e47deba26b39e598721e3059cef0bb9c36.jpg"
  },
  {
    "name": "METAL_WALTZ_048",
    "defaultvalue": 0,
    "displayName": "Instructors of 3 academies",
    "hidden": 0,
    "description": "Assemble a squad (IS-2М，Churchill AVRE，M26 Pershing)",
    "icon": "https://steamcdn-a.akamaihd.net/steamcommunity/public/images/apps/581130/6d7404010c2d7e16ba5ad0858aa4458aec283742.jpg",
    "icongray": "https://steamcdn-a.akamaihd.net/steamcommunity/public/images/apps/581130/2256a9e47deba26b39e598721e3059cef0bb9c36.jpg"
  },
  {
    "name": "METAL_WALTZ_049",
    "defaultvalue": 0,
    "displayName": "\"Watchman\" squad",
    "hidden": 0,
    "description": "Assemble a squad (PzKpfw III mod. L，ISU-122，SPIC)",
    "icon": "https://steamcdn-a.akamaihd.net/steamcommunity/public/images/apps/581130/f1d83c9506b14ca12e8a7026fb31ba6584df0e55.jpg",
    "icongray": "https://steamcdn-a.akamaihd.net/steamcommunity/public/images/apps/581130/2256a9e47deba26b39e598721e3059cef0bb9c36.jpg"
  },
  {
    "name": "METAL_WALTZ_050",
    "defaultvalue": 0,
    "displayName": "Death comet",
    "hidden": 0,
    "description": "Assemble a squad (A34 Comet，T-46，Grant Mk-VII)",
    "icon": "https://steamcdn-a.akamaihd.net/steamcommunity/public/images/apps/581130/6d7404010c2d7e16ba5ad0858aa4458aec283742.jpg",
    "icongray": "https://steamcdn-a.akamaihd.net/steamcommunity/public/images/apps/581130/2256a9e47deba26b39e598721e3059cef0bb9c36.jpg"
  },
  {
    "name": "METAL_WALTZ_051",
    "defaultvalue": 0,
    "displayName": "\"Moscow\" border group",
    "hidden": 0,
    "description": "Assemble a squad(KV-1B，KV-2，KV-5，KV-85)",
    "icon": "https://steamcdn-a.akamaihd.net/steamcommunity/public/images/apps/581130/6d7404010c2d7e16ba5ad0858aa4458aec283742.jpg",
    "icongray": "https://steamcdn-a.akamaihd.net/steamcommunity/public/images/apps/581130/2256a9e47deba26b39e598721e3059cef0bb9c36.jpg"
  },
  {
    "name": "METAL_WALTZ_052",
    "defaultvalue": 0,
    "displayName": "\"Citrus\" squad",
    "hidden": 0,
    "description": "Assemble a squad(T-34M，T-43，СТ T-28)",
    "icon": "https://steamcdn-a.akamaihd.net/steamcommunity/public/images/apps/581130/f1d83c9506b14ca12e8a7026fb31ba6584df0e55.jpg",
    "icongray": "https://steamcdn-a.akamaihd.net/steamcommunity/public/images/apps/581130/2256a9e47deba26b39e598721e3059cef0bb9c36.jpg"
  },
  {
    "name": "METAL_WALTZ_053",
    "defaultvalue": 0,
    "displayName": "\"Frost\" squad",
    "hidden": 0,
    "description": "Assemble a squad (ASU-85，М40，T-60/BM-8-24)",
    "icon": "https://steamcdn-a.akamaihd.net/steamcommunity/public/images/apps/581130/6d7404010c2d7e16ba5ad0858aa4458aec283742.jpg",
    "icongray": "https://steamcdn-a.akamaihd.net/steamcommunity/public/images/apps/581130/2256a9e47deba26b39e598721e3059cef0bb9c36.jpg"
  },
  {
    "name": "METAL_WALTZ_054",
    "defaultvalue": 0,
    "displayName": "\"Rangers\" squad",
    "hidden": 0,
    "description": "Assemble a squad (M103A2，M6A1，SPG M37)",
    "icon": "https://steamcdn-a.akamaihd.net/steamcommunity/public/images/apps/581130/6d7404010c2d7e16ba5ad0858aa4458aec283742.jpg",
    "icongray": "https://steamcdn-a.akamaihd.net/steamcommunity/public/images/apps/581130/2256a9e47deba26b39e598721e3059cef0bb9c36.jpg"
  },
  {
    "name": "METAL_WALTZ_055",
    "defaultvalue": 0,
    "displayName": "Victorious",
    "hidden": 0,
    "description": "Assemble a squad (Churchill Mk-IV，Churchill Mk-VII，Churchill Mk-VIII)",
    "icon": "https://steamcdn-a.akamaihd.net/steamcommunity/public/images/apps/581130/f1d83c9506b14ca12e8a7026fb31ba6584df0e55.jpg",
    "icongray": "https://steamcdn-a.akamaihd.net/steamcommunity/public/images/apps/581130/2256a9e47deba26b39e598721e3059cef0bb9c36.jpg"
  },
  {
    "name": "METAL_WALTZ_056",
    "defaultvalue": 0,
    "displayName": "\"Unwavering\" squad",
    "hidden": 0,
    "description": "Assemble a squad(T95，M36 Jackson，T17E1 Staghound \"Mk-I\")",
    "icon": "https://steamcdn-a.akamaihd.net/steamcommunity/public/images/apps/581130/f1d83c9506b14ca12e8a7026fb31ba6584df0e55.jpg",
    "icongray": "https://steamcdn-a.akamaihd.net/steamcommunity/public/images/apps/581130/2256a9e47deba26b39e598721e3059cef0bb9c36.jpg"
  },
  {
    "name": "METAL_WALTZ_057",
    "defaultvalue": 0,
    "displayName": "Achieving 3 stars",
    "hidden": 0,
    "description": "The first improvement of Metall-maiden up to 3 stars",
    "icon": "https://steamcdn-a.akamaihd.net/steamcommunity/public/images/apps/581130/3773b8211df97031eb423ada58ddba5ecb06c62f.jpg",
    "icongray": "https://steamcdn-a.akamaihd.net/steamcommunity/public/images/apps/581130/7458697e7f664bb43e5b0bdaf47fb576a13f5ff5.jpg"
  },
  {
    "name": "METAL_WALTZ_058",
    "defaultvalue": 0,
    "displayName": "50! Collector!",
    "hidden": 0,
    "description": "Collect 50 maidens",
    "icon": "https://steamcdn-a.akamaihd.net/steamcommunity/public/images/apps/581130/b98d5e7526788f3f3758d62eb74638bb2ccdf486.jpg",
    "icongray": "https://steamcdn-a.akamaihd.net/steamcommunity/public/images/apps/581130/533f4937bc2c074e24a83a10988fe0e635f20916.jpg"
  },
  {
    "name": "METAL_WALTZ_059",
    "defaultvalue": 0,
    "displayName": "100! Expert collector",
    "hidden": 0,
    "description": "Collect 100 maidens",
    "icon": "https://steamcdn-a.akamaihd.net/steamcommunity/public/images/apps/581130/0f07fdd011360bc7b901fdda9ce8226dddfa619d.jpg",
    "icongray": "https://steamcdn-a.akamaihd.net/steamcommunity/public/images/apps/581130/533f4937bc2c074e24a83a10988fe0e635f20916.jpg"
  },
  {
    "name": "METAL_WALTZ_060",
    "defaultvalue": 0,
    "displayName": "150! The eminent collector",
    "hidden": 0,
    "description": "Collect 150 maidens",
    "icon": "https://steamcdn-a.akamaihd.net/steamcommunity/public/images/apps/581130/0f07fdd011360bc7b901fdda9ce8226dddfa619d.jpg",
    "icongray": "https://steamcdn-a.akamaihd.net/steamcommunity/public/images/apps/581130/533f4937bc2c074e24a83a10988fe0e635f20916.jpg"
  },
  {
    "name": "METAL_WALTZ_061",
    "defaultvalue": 0,
    "displayName": "200! The genius!",
    "hidden": 0,
    "description": "Collect 200 maidens",
    "icon": "https://steamcdn-a.akamaihd.net/steamcommunity/public/images/apps/581130/6fc6cb228c0e5751c4fcf62d83e04f0706857816.jpg",
    "icongray": "https://steamcdn-a.akamaihd.net/steamcommunity/public/images/apps/581130/533f4937bc2c074e24a83a10988fe0e635f20916.jpg"
  }
]