﻿[
  {
    "name": "COMPLETE_TUTORIAL",
    "defaultvalue": 0,
    "displayName": "Apprentice",
    "hidden": 0,
    "description": "Complete the tutorial",
    "icon": "https://steamcdn-a.akamaihd.net/steamcommunity/public/images/apps/1301720/cdd03ff282639e9d88a7650e9706c4f4ae4191ee.jpg",
    "icongray": "https://steamcdn-a.akamaihd.net/steamcommunity/public/images/apps/1301720/40ac70c64396baa8384b5816b48d7010a88c5097.jpg"
  },
  {
    "name": "OPEN_GOLDEN_LOCK",
    "defaultvalue": 0,
    "displayName": "Knower of the alphabet",
    "hidden": 0,
    "description": "Open the golden lock",
    "icon": "https://steamcdn-a.akamaihd.net/steamcommunity/public/images/apps/1301720/e0cc0562d14d1ff44b63a82cffb86e5333f1ab93.jpg",
    "icongray": "https://steamcdn-a.akamaihd.net/steamcommunity/public/images/apps/1301720/6dbc6f56e6485ff79b43d8e732358617a0ffc7a4.jpg"
  },
  {
    "name": "OPEN_RED_LOCK",
    "defaultvalue": 0,
    "displayName": "Lover of order",
    "hidden": 0,
    "description": "Open the red lock",
    "icon": "https://steamcdn-a.akamaihd.net/steamcommunity/public/images/apps/1301720/8051dd58cd262db63e384b5e30587b271881f3e7.jpg",
    "icongray": "https://steamcdn-a.akamaihd.net/steamcommunity/public/images/apps/1301720/1984486799ada4813e121e9a8f6958221ee921b0.jpg"
  },
  {
    "name": "OPEN_SAFE",
    "defaultvalue": 0,
    "displayName": "Safecracker",
    "hidden": 0,
    "description": "Open the safe",
    "icon": "https://steamcdn-a.akamaihd.net/steamcommunity/public/images/apps/1301720/c8942b44d381670b8e4a9349fd083647a73b3a3b.jpg",
    "icongray": "https://steamcdn-a.akamaihd.net/steamcommunity/public/images/apps/1301720/f37a8ce31b4597f4a121034cc8842a49efee8144.jpg"
  },
  {
    "name": "WATCH_BARBARA",
    "defaultvalue": 0,
    "displayName": "Stalker",
    "hidden": 0,
    "description": "Watch Barbara by video",
    "icon": "https://steamcdn-a.akamaihd.net/steamcommunity/public/images/apps/1301720/ee301c11e05736128f73778ea081d3132f20e8ad.jpg",
    "icongray": "https://steamcdn-a.akamaihd.net/steamcommunity/public/images/apps/1301720/9bfc1206e0a20a6872f45d0d1116009c00e336ed.jpg"
  },
  {
    "name": "KNOW_CHESSPIECES",
    "defaultvalue": 0,
    "displayName": "Grandmaster",
    "hidden": 0,
    "description": "Know your chess pieces",
    "icon": "https://steamcdn-a.akamaihd.net/steamcommunity/public/images/apps/1301720/9746aee9b020adca2ec925ed63138bbb3e0fd39c.jpg",
    "icongray": "https://steamcdn-a.akamaihd.net/steamcommunity/public/images/apps/1301720/735a49be5ecb8674fa5ef29129d9f758c0b5a4aa.jpg"
  },
  {
    "name": "OPEN_TOOLBOX",
    "defaultvalue": 0,
    "displayName": "Handyman",
    "hidden": 0,
    "description": "Open the toolbox",
    "icon": "https://steamcdn-a.akamaihd.net/steamcommunity/public/images/apps/1301720/1772b562d060a5aa7f3423ff4096a535e0dd383b.jpg",
    "icongray": "https://steamcdn-a.akamaihd.net/steamcommunity/public/images/apps/1301720/1738c733b141a0dd710a0280e3154b245d1acb75.jpg"
  },
  {
    "name": "DISCOVER_SECRET",
    "defaultvalue": 0,
    "displayName": "Detective",
    "hidden": 0,
    "description": "Discover the secret",
    "icon": "https://steamcdn-a.akamaihd.net/steamcommunity/public/images/apps/1301720/e4cad1ae3b35f6964ef8ccd3125ad47381d70ea3.jpg",
    "icongray": "https://steamcdn-a.akamaihd.net/steamcommunity/public/images/apps/1301720/d465e29536258662d9a74ce1410478656fc946ed.jpg"
  },
  {
    "name": "OPEN_LETTER_LOCK",
    "defaultvalue": 0,
    "displayName": "Illuminator",
    "hidden": 0,
    "description": "Open the lock with the letters",
    "icon": "https://steamcdn-a.akamaihd.net/steamcommunity/public/images/apps/1301720/047941d22c8f0a86ab901027f2956ce2891e1803.jpg",
    "icongray": "https://steamcdn-a.akamaihd.net/steamcommunity/public/images/apps/1301720/8acf9ffc70a82463fa5f0243f056565865052760.jpg"
  },
  {
    "name": "OPEN_BRIEFCASE",
    "defaultvalue": 0,
    "displayName": "File clerk",
    "hidden": 0,
    "description": "Open the briefcase",
    "icon": "https://steamcdn-a.akamaihd.net/steamcommunity/public/images/apps/1301720/2846693c0a4a9fffdffe96372b821d1c1a99bb56.jpg",
    "icongray": "https://steamcdn-a.akamaihd.net/steamcommunity/public/images/apps/1301720/40d2e8343582a472ec572fd3a0686d9e4babb13d.jpg"
  },
  {
    "name": "LIGHT_LEDS",
    "defaultvalue": 0,
    "displayName": "Electrician",
    "hidden": 0,
    "description": "Make the LEDs work",
    "icon": "https://steamcdn-a.akamaihd.net/steamcommunity/public/images/apps/1301720/99914f5a341e44382085f0e1f3f752f7b985c891.jpg",
    "icongray": "https://steamcdn-a.akamaihd.net/steamcommunity/public/images/apps/1301720/5567d74fe7a0ffc3bc2a77f5ff90c474f2e9943f.jpg"
  },
  {
    "name": "OPEN_AMMO_BOX",
    "defaultvalue": 0,
    "displayName": "Map reader",
    "hidden": 0,
    "description": "Open the ammo box",
    "icon": "https://steamcdn-a.akamaihd.net/steamcommunity/public/images/apps/1301720/416969bb75450e47c340394a5e6f6ccf9b882567.jpg",
    "icongray": "https://steamcdn-a.akamaihd.net/steamcommunity/public/images/apps/1301720/d3e91485cab80cbaaa16c3fed5f1f7602c758eb1.jpg"
  },
  {
    "name": "HERO_OF_THE_DAY",
    "defaultvalue": 0,
    "displayName": "Hero of the day",
    "hidden": 0,
    "description": "Save Barbara",
    "icon": "https://steamcdn-a.akamaihd.net/steamcommunity/public/images/apps/1301720/85f18a552350e94ff68d0dc3ae77823db8ed401a.jpg",
    "icongray": "https://steamcdn-a.akamaihd.net/steamcommunity/public/images/apps/1301720/4675f38b36af531f6424c0b9e4450d4c2e81f273.jpg"
  }
]