[
  {
    "name": "ACHIEVEMENT_LAUNCH",
    "defaultvalue": 0,
    "displayName": "Hello M.R.S.!",
    "hidden": 0,
    "description": "Started the game.",
    "icon": "https://steamcdn-a.akamaihd.net/steamcommunity/public/images/apps/435970/8869de946befcc2c9104d0fa63149edec167433a.jpg",
    "icongray": "https://steamcdn-a.akamaihd.net/steamcommunity/public/images/apps/435970/b0bdb27409f3cf7f4371bb5439ca75b862897d20.jpg"
  },
  {
    "name": "ACHIEVEMENT_EXIT",
    "defaultvalue": 0,
    "displayName": "See Ya! ",
    "hidden": 0,
    "description": "Exited the game from the title screen.",
    "icon": "https://steamcdn-a.akamaihd.net/steamcommunity/public/images/apps/435970/e60a3b6e7c9d0c03263021bed8334e988a9fe5f3.jpg",
    "icongray": "https://steamcdn-a.akamaihd.net/steamcommunity/public/images/apps/435970/ed100ffd25291293c4be35791efd28cbd953b46b.jpg"
  },
  {
    "name": "ACHIEVEMENT_TUTORIAL",
    "defaultvalue": 0,
    "displayName": "The First Step",
    "hidden": 0,
    "description": "Cleared the tutorial.",
    "icon": "https://steamcdn-a.akamaihd.net/steamcommunity/public/images/apps/435970/a867668c5e6332361cc60c933a1bba72040536d6.jpg",
    "icongray": "https://steamcdn-a.akamaihd.net/steamcommunity/public/images/apps/435970/86551825765266c4992bb2d532f120de73e7f165.jpg"
  },
  {
    "name": "ACHIEVEMENT_TEE",
    "defaultvalue": 0,
    "displayName": "Precious Friends",
    "hidden": 0,
    "description": "Played as Tee.",
    "icon": "https://steamcdn-a.akamaihd.net/steamcommunity/public/images/apps/435970/4fbe26cf72f26f244fdc70f050e709ebac3f6e99.jpg",
    "icongray": "https://steamcdn-a.akamaihd.net/steamcommunity/public/images/apps/435970/c03d61987ff7dc53ba94073e2586116ff6ab9273.jpg"
  },
  {
    "name": "ACHIEVEMENT_MEWS",
    "defaultvalue": 0,
    "displayName": "Unknown World",
    "hidden": 0,
    "description": "Played as Mews.",
    "icon": "https://steamcdn-a.akamaihd.net/steamcommunity/public/images/apps/435970/d6bb9d056a096f0ee7f06bb7e70323e0ad878995.jpg",
    "icongray": "https://steamcdn-a.akamaihd.net/steamcommunity/public/images/apps/435970/11c1c27e11f74585b5bdc91725e877341f8d629e.jpg"
  },
  {
    "name": "ACHIEVEMENT_LOG_ARCHIVE",
    "defaultvalue": 0,
    "displayName": "You’ve Got Mail",
    "hidden": 0,
    "description": "Displayed the log archive.",
    "icon": "https://steamcdn-a.akamaihd.net/steamcommunity/public/images/apps/435970/06483db0c6999414e818cdd533cbde85d28eaaba.jpg",
    "icongray": "https://steamcdn-a.akamaihd.net/steamcommunity/public/images/apps/435970/93bd9214d552237d380fd72365d2afdddae0239a.jpg"
  },
  {
    "name": "ACHIEVEMENT_MUSIC",
    "defaultvalue": 0,
    "displayName": "Playing With Light Changes the World",
    "hidden": 0,
    "description": "Displayed the music room.",
    "icon": "https://steamcdn-a.akamaihd.net/steamcommunity/public/images/apps/435970/145bc9f5c4eaa997efdb67c94956f7c5fc07c7af.jpg",
    "icongray": "https://steamcdn-a.akamaihd.net/steamcommunity/public/images/apps/435970/87d32400c6dc1c137a6509a5df2e61522735ee1c.jpg"
  },
  {
    "name": "ACHIEVEMENT_DANCING",
    "defaultvalue": 0,
    "displayName": "Let's Dance!",
    "hidden": 0,
    "description": "Made the bear dance on Tee's desktop.",
    "icon": "https://steamcdn-a.akamaihd.net/steamcommunity/public/images/apps/435970/3bcfd80fc01d858c72b3782aa2e93cfb0c9f5c91.jpg",
    "icongray": "https://steamcdn-a.akamaihd.net/steamcommunity/public/images/apps/435970/b4a0dccac1de96e158abd61fbc98e6834750675f.jpg"
  },
  {
    "name": "ACHIEVEMENT_CENTRAL1",
    "defaultvalue": 0,
    "displayName": "Ultimate Fairy Lifeform",
    "hidden": 0,
    "description": "Cleared Central 1.",
    "icon": "https://steamcdn-a.akamaihd.net/steamcommunity/public/images/apps/435970/21ad3fa72361ec11ea48b927ffc5cf6235eda386.jpg",
    "icongray": "https://steamcdn-a.akamaihd.net/steamcommunity/public/images/apps/435970/d82b806be54fa4a8d1fc530f555ceb415d50022a.jpg"
  },
  {
    "name": "ACHIEVEMENT_CENTRAL2",
    "defaultvalue": 0,
    "displayName": "Mistress of the Memory Circuit",
    "hidden": 0,
    "description": "Cleared Central 2.",
    "icon": "https://steamcdn-a.akamaihd.net/steamcommunity/public/images/apps/435970/15ca3312b584536d8a82824f979c2156d7cf003d.jpg",
    "icongray": "https://steamcdn-a.akamaihd.net/steamcommunity/public/images/apps/435970/6a5b9ccc15c82dbafca1b3e621b4f848674e1f3e.jpg"
  },
  {
    "name": "ACHIEVEMENT_CENTRAL3",
    "defaultvalue": 0,
    "displayName": "Magician of the VR World",
    "hidden": 0,
    "description": "Cleared Central 3.",
    "icon": "https://steamcdn-a.akamaihd.net/steamcommunity/public/images/apps/435970/9d481ddb0d3f3b4981dcf1eb1745398f4bced101.jpg",
    "icongray": "https://steamcdn-a.akamaihd.net/steamcommunity/public/images/apps/435970/2ca1c57473df2a024a6e22e3474b486300f77daf.jpg"
  },
  {
    "name": "ACHIEVEMENT_CENTRAL4",
    "defaultvalue": 0,
    "displayName": "Enduring Twin Knights for the Mission's Sake",
    "hidden": 0,
    "description": "Cleared Central 4.",
    "icon": "https://steamcdn-a.akamaihd.net/steamcommunity/public/images/apps/435970/180f16fd1ad61f462296da9271d0f952e7c92ebf.jpg",
    "icongray": "https://steamcdn-a.akamaihd.net/steamcommunity/public/images/apps/435970/852cfdfcdaddf7c3b70a465caba1a5e5c2548e31.jpg"
  },
  {
    "name": "ACHIEVEMENT_CENTRAL5",
    "defaultvalue": 0,
    "displayName": "Empress of Illusion",
    "hidden": 0,
    "description": "Cleared Central 5.",
    "icon": "https://steamcdn-a.akamaihd.net/steamcommunity/public/images/apps/435970/c28ed7ee9f759716b8331eb2b5db29990b2d335e.jpg",
    "icongray": "https://steamcdn-a.akamaihd.net/steamcommunity/public/images/apps/435970/6f8f3f8bdcea782174a1e71af9e8f040158e5c90.jpg"
  },
  {
    "name": "ACHIEVEMENT_EASY_CLEAR",
    "defaultvalue": 0,
    "displayName": "Preliminary Trial",
    "hidden": 0,
    "description": "Cleared Central 4 on the Easy difficulty level.",
    "icon": "https://steamcdn-a.akamaihd.net/steamcommunity/public/images/apps/435970/11c0a353f2b56a38a37a745b72fcaef66470fcdc.jpg",
    "icongray": "https://steamcdn-a.akamaihd.net/steamcommunity/public/images/apps/435970/85521e39f86728246783fcf06e7cbbdb6553054b.jpg"
  },
  {
    "name": "ACHIEVEMENT_NORMAL_CLEAR",
    "defaultvalue": 0,
    "displayName": "Central Seized",
    "hidden": 0,
    "description": "Cleared Central 5 on the Normal difficulty level.",
    "icon": "https://steamcdn-a.akamaihd.net/steamcommunity/public/images/apps/435970/26fb0a712c8c86d0a075dd1a4de485aac8908568.jpg",
    "icongray": "https://steamcdn-a.akamaihd.net/steamcommunity/public/images/apps/435970/0480af6f5864fceebc276935f20e2d20e35f3515.jpg"
  },
  {
    "name": "ACHIEVEMENT_ADVANCED_CLEAR",
    "defaultvalue": 0,
    "displayName": "Prism Adept",
    "hidden": 0,
    "description": "Cleared Central 5 on the Advanced difficulty level.",
    "icon": "https://steamcdn-a.akamaihd.net/steamcommunity/public/images/apps/435970/43d33001966f702f8726e855f8f3143b137085da.jpg",
    "icongray": "https://steamcdn-a.akamaihd.net/steamcommunity/public/images/apps/435970/3fcaf5d88b0938b4810591daa99aa7707a2dffbb.jpg"
  },
  {
    "name": "ACHIEVEMENT_EXTREME_CLEAR",
    "defaultvalue": 0,
    "displayName": "M.R.S. Killer",
    "hidden": 0,
    "description": "Cleared Central 5 on the Extreme difficulty level.",
    "icon": "https://steamcdn-a.akamaihd.net/steamcommunity/public/images/apps/435970/d20a48bb11da6af072b460ba789471c3d2c6d311.jpg",
    "icongray": "https://steamcdn-a.akamaihd.net/steamcommunity/public/images/apps/435970/74dc12843eb1705bd67ab208c01b98c0b2595134.jpg"
  },
  {
    "name": "ACHIEVEMENT_RE_NORMAL_CLEAR",
    "defaultvalue": 0,
    "displayName": "Central Keeper Rank",
    "hidden": 0,
    "description": "Cleared Central 5 on the Re:Normal difficulty level.",
    "icon": "https://steamcdn-a.akamaihd.net/steamcommunity/public/images/apps/435970/ff50ff57bb9688312a5e9324bf74cdaf17369ec1.jpg",
    "icongray": "https://steamcdn-a.akamaihd.net/steamcommunity/public/images/apps/435970/219a62d8c117244dd505b758dc3dbc1eab5c6063.jpg"
  },
  {
    "name": "ACHIEVEMENT_RE_ADVANCED_CLEAR",
    "defaultvalue": 0,
    "displayName": "Central Breaker",
    "hidden": 0,
    "description": "Cleared Central 5 on the Re:Advanced difficulty level.",
    "icon": "https://steamcdn-a.akamaihd.net/steamcommunity/public/images/apps/435970/564c2c588642c8a9e5055e2b5418a7af1a92c2ae.jpg",
    "icongray": "https://steamcdn-a.akamaihd.net/steamcommunity/public/images/apps/435970/86d51cda8accd5dd72aeca20e94d1aef387fe78a.jpg"
  },
  {
    "name": "ACHIEVEMENT_RE_EXTREME_CLEAR",
    "defaultvalue": 0,
    "displayName": "Nightmare of M.R.S.",
    "hidden": 0,
    "description": "Cleared Central 5 on the Re:Extreme difficulty level.",
    "icon": "https://steamcdn-a.akamaihd.net/steamcommunity/public/images/apps/435970/a46bb160567980a972715e20ddcccf3d78cd71cb.jpg",
    "icongray": "https://steamcdn-a.akamaihd.net/steamcommunity/public/images/apps/435970/512463023000a8d31cb98da98afd6d8e1d54c86d.jpg"
  },
  {
    "name": "ACHIEVEMENT_CLEAR_ALL_CHAR",
    "defaultvalue": 0,
    "displayName": "Repeated World",
    "hidden": 0,
    "description": "Cleared Central 5 with Miria, Tee, and Mews.",
    "icon": "https://steamcdn-a.akamaihd.net/steamcommunity/public/images/apps/435970/d3c70953188ccf6aabea6a946728b06504e3dc1d.jpg",
    "icongray": "https://steamcdn-a.akamaihd.net/steamcommunity/public/images/apps/435970/d2d8b6de28a76f870e9b4b2e4224b937be4b06bd.jpg"
  },
  {
    "name": "ACHIEVEMENT_RE_CLEAR_ALL_CHAR",
    "defaultvalue": 0,
    "displayName": "Prism Memories",
    "hidden": 0,
    "description": "Cleared two laps of Central 5 with Miria, Tee, and Mews.",
    "icon": "https://steamcdn-a.akamaihd.net/steamcommunity/public/images/apps/435970/dfbb203215dd4b53971361eb76f09166147623a7.jpg",
    "icongray": "https://steamcdn-a.akamaihd.net/steamcommunity/public/images/apps/435970/d20520c693036c154b1164aeda7629cf86b6c492.jpg"
  },
  {
    "name": "ACHIEVEMENT_NORMAL_ENDING",
    "defaultvalue": 0,
    "displayName": "This Memory is--",
    "hidden": 0,
    "description": "Saw the normal ending.",
    "icon": "https://steamcdn-a.akamaihd.net/steamcommunity/public/images/apps/435970/fa80e720334b671a10f6de10ee511129174096d7.jpg",
    "icongray": "https://steamcdn-a.akamaihd.net/steamcommunity/public/images/apps/435970/8a65fffd0ef2acae54de90ffd612e5c7cdffea1b.jpg"
  },
  {
    "name": "ACHIEVEMENT_GOOD_ENDING_MIRIA",
    "defaultvalue": 0,
    "displayName": "With a Shooting Star",
    "hidden": 0,
    "description": "Saw Miria's good ending.",
    "icon": "https://steamcdn-a.akamaihd.net/steamcommunity/public/images/apps/435970/2da5d258de883c0b226c6fbb7b1eecd6429603e5.jpg",
    "icongray": "https://steamcdn-a.akamaihd.net/steamcommunity/public/images/apps/435970/57405e4b5d079bc03745e7fc8b846b752bbf9276.jpg"
  },
  {
    "name": "ACHIEVEMENT_GOOD_ENDING_TEE",
    "defaultvalue": 0,
    "displayName": "Welcome Back",
    "hidden": 0,
    "description": "Saw Tee's good ending.",
    "icon": "https://steamcdn-a.akamaihd.net/steamcommunity/public/images/apps/435970/bcc28cbc67905ec3bb205b5a15437c65d7844c3e.jpg",
    "icongray": "https://steamcdn-a.akamaihd.net/steamcommunity/public/images/apps/435970/485e1a37cb5b56da38a893736ee1eadd012c5117.jpg"
  },
  {
    "name": "ACHIEVEMENT_GOOD_ENDING_MEWS",
    "defaultvalue": 0,
    "displayName": "Noisy Days",
    "hidden": 0,
    "description": "Saw Mews's good ending.",
    "icon": "https://steamcdn-a.akamaihd.net/steamcommunity/public/images/apps/435970/db04dfd9c517a8c6e44c901cc01173e8fd2b90f6.jpg",
    "icongray": "https://steamcdn-a.akamaihd.net/steamcommunity/public/images/apps/435970/06c326f48483728aabbccc0a5665aacd3d1eaba7.jpg"
  },
  {
    "name": "ACHIEVEMENT_PRISM_100K",
    "defaultvalue": 0,
    "displayName": "Prism Collector",
    "hidden": 0,
    "description": "Acquire 100,000 Prisms in a single game.",
    "icon": "https://steamcdn-a.akamaihd.net/steamcommunity/public/images/apps/435970/6e498921c20d0ae1d6a814c95494c6268bf5ce60.jpg",
    "icongray": "https://steamcdn-a.akamaihd.net/steamcommunity/public/images/apps/435970/e5eb7d86ab342935ff38ad8442e9e83be42afa45.jpg"
  },
  {
    "name": "ACHIEVEMENT_PRISM_COUNTER_STOP",
    "defaultvalue": 0,
    "displayName": "Criticality",
    "hidden": 0,
    "description": "Acquire 999,999 Prisms in a single game.",
    "icon": "https://steamcdn-a.akamaihd.net/steamcommunity/public/images/apps/435970/29db94759e76cfcda85e5f45005526abf95859e9.jpg",
    "icongray": "https://steamcdn-a.akamaihd.net/steamcommunity/public/images/apps/435970/83b488a5190f5a2a1b126a689e6664f6bd0896bf.jpg"
  },
  {
    "name": "ACHIEVEMENT_SWEEPER",
    "defaultvalue": 0,
    "displayName": "Sweeper",
    "hidden": 0,
    "description": "Destroy 10,000 enemies and bullets in a single game.",
    "icon": "https://steamcdn-a.akamaihd.net/steamcommunity/public/images/apps/435970/cb3528ecc27daf47e889a43919ccb66f591fd305.jpg",
    "icongray": "https://steamcdn-a.akamaihd.net/steamcommunity/public/images/apps/435970/a030a7625c24151c43dd81c3a5e124f18c0b918f.jpg"
  },
  {
    "name": "ACHIEVEMENT_CONVERT",
    "defaultvalue": 0,
    "displayName": "Concept Reactor Deployment Complete",
    "hidden": 0,
    "description": "Convert 1,800 or more bullets with a single Concept Reactor",
    "icon": "https://steamcdn-a.akamaihd.net/steamcommunity/public/images/apps/435970/02f95800d0ecc330273bd86d3292675713c8ca55.jpg",
    "icongray": "https://steamcdn-a.akamaihd.net/steamcommunity/public/images/apps/435970/3f09931f4dd5ac76ac8b914bcc07a6403410fc8e.jpg"
  },
  {
    "name": "ACHIEVEMENT_SCORE_50M",
    "defaultvalue": 0,
    "displayName": "RefRain Primary",
    "hidden": 0,
    "description": "Reach a score of 50,000,000 or more.",
    "icon": "https://steamcdn-a.akamaihd.net/steamcommunity/public/images/apps/435970/6c2f75969bfedceabe4d6bfe54e09857d45ba984.jpg",
    "icongray": "https://steamcdn-a.akamaihd.net/steamcommunity/public/images/apps/435970/e25e47f631430efaf79e687e06623d885eec4653.jpg"
  },
  {
    "name": "ACHIEVEMENT_SCORE_500M",
    "defaultvalue": 0,
    "displayName": "RefRain Intermediate",
    "hidden": 0,
    "description": "Reach a score of 500,000,000 or more.",
    "icon": "https://steamcdn-a.akamaihd.net/steamcommunity/public/images/apps/435970/63b93f079a6358257b69e8d423674adf84dba45b.jpg",
    "icongray": "https://steamcdn-a.akamaihd.net/steamcommunity/public/images/apps/435970/a2d432d8ecd3eafd3e487fd36be7aaadc64960ce.jpg"
  },
  {
    "name": "ACHIEVEMENT_SCORE_2500M",
    "defaultvalue": 0,
    "displayName": "RefRain Advanced",
    "hidden": 0,
    "description": "Reach a score of 2,500,000,000 or more.",
    "icon": "https://steamcdn-a.akamaihd.net/steamcommunity/public/images/apps/435970/b070df4745315021fc887d9789c19b17741277ba.jpg",
    "icongray": "https://steamcdn-a.akamaihd.net/steamcommunity/public/images/apps/435970/a44df96b8121f0f6eff32de1d432a023eb0d7c53.jpg"
  },
  {
    "name": "ACHIEVEMENT_SCORE_5000M",
    "defaultvalue": 0,
    "displayName": "Master of Central",
    "hidden": 0,
    "description": "Reach a score of 5,000,000,000 or more.",
    "icon": "https://steamcdn-a.akamaihd.net/steamcommunity/public/images/apps/435970/8f151a9e82c5a6666f8e262309262ff55fcec4e5.jpg",
    "icongray": "https://steamcdn-a.akamaihd.net/steamcommunity/public/images/apps/435970/4a28005e8941ff8bc30e8fd7b2269f585c37b31d.jpg"
  },
  {
    "name": "ACHIEVEMENT_X16",
    "defaultvalue": 0,
    "displayName": "Master of M.E.F.A2 Cycle",
    "hidden": 0,
    "description": "Defeat a boss while it's knocked back with a 4-stage multiplier M.E.F.A2.",
    "icon": "https://steamcdn-a.akamaihd.net/steamcommunity/public/images/apps/435970/d72ecdb54945df4be3341d3eacee2a21a6f41ff4.jpg",
    "icongray": "https://steamcdn-a.akamaihd.net/steamcommunity/public/images/apps/435970/b2a41a1c1892d6a762c631bc400f7823edd71997.jpg"
  },
  {
    "name": "ACHIEVEMENT_NOMISS_ADVANCED",
    "defaultvalue": 0,
    "displayName": "M.R.S. Survivor",
    "hidden": 0,
    "description": "Clear the Advanced difficulty without losing a ship.",
    "icon": "https://steamcdn-a.akamaihd.net/steamcommunity/public/images/apps/435970/6453c9d6e7b7d45dfb52300fdcfd46c5dc8d6954.jpg",
    "icongray": "https://steamcdn-a.akamaihd.net/steamcommunity/public/images/apps/435970/20888c8547ffb5727560b451ea1fe46896321697.jpg"
  },
  {
    "name": "ACHIEVEMENT_NOMISS_EXTREME",
    "defaultvalue": 0,
    "displayName": "Not a Normal Human",
    "hidden": 0,
    "description": "Clear the Extreme difficulty without losing a ship.",
    "icon": "https://steamcdn-a.akamaihd.net/steamcommunity/public/images/apps/435970/721df98dfff16087e909340d4c8e924246fec9e1.jpg",
    "icongray": "https://steamcdn-a.akamaihd.net/steamcommunity/public/images/apps/435970/cde426e4bf55c18489f32dfa657fe14a1359b429.jpg"
  },
  {
    "name": "ACHIEVEMENT_NOMISS_RE_ADVANCED",
    "defaultvalue": 0,
    "displayName": "｜ω゜)",
    "hidden": 0,
    "description": "Clear the Re:Advanced difficulty without losing a ship.",
    "icon": "https://steamcdn-a.akamaihd.net/steamcommunity/public/images/apps/435970/5b5136f35e0e70425473cbf1bdf618975e39ebdb.jpg",
    "icongray": "https://steamcdn-a.akamaihd.net/steamcommunity/public/images/apps/435970/ad7cdefed5fb6fe7d7c80b3f4119cbd89f67af66.jpg"
  },
  {
    "name": "ACHIEVEMENT_NOMISS_RE_EXTREME",
    "defaultvalue": 0,
    "displayName": "Surpassing Humanity",
    "hidden": 0,
    "description": "Clear the Re:Extreme difficulty without losing a ship.",
    "icon": "https://steamcdn-a.akamaihd.net/steamcommunity/public/images/apps/435970/c21c691a0f2f38bd2d9b5fc866dad95639679db2.jpg",
    "icongray": "https://steamcdn-a.akamaihd.net/steamcommunity/public/images/apps/435970/11f38075ce3398aa2a0f25cf48dbc27d205f8afb.jpg"
  },
  {
    "name": "ACHIEVEMENT_STAT_DESTROY",
    "defaultvalue": 0,
    "displayName": "Destroyer",
    "hidden": 0,
    "description": "Destroy a total of 200,000 or more enemies and bullets.",
    "icon": "https://steamcdn-a.akamaihd.net/steamcommunity/public/images/apps/435970/a592b03f43d80081ab13a324584e9d12358cde55.jpg",
    "icongray": "https://steamcdn-a.akamaihd.net/steamcommunity/public/images/apps/435970/229f6c66659fa8a2ac01fa941d3104613bc02441.jpg"
  },
  {
    "name": "ACHIEVEMENT_STAT_ITEM",
    "defaultvalue": 0,
    "displayName": "Item Mania",
    "hidden": 0,
    "description": "Acquire a total of 200,000 or more items.",
    "icon": "https://steamcdn-a.akamaihd.net/steamcommunity/public/images/apps/435970/be30b9a76676abfe6a2ab3b2009b88f94f890717.jpg",
    "icongray": "https://steamcdn-a.akamaihd.net/steamcommunity/public/images/apps/435970/85171fd05af93e57e153c7503e000ed7e621b34b.jpg"
  },
  {
    "name": "ACHIEVEMENT_STAT_PRISM",
    "defaultvalue": 0,
    "displayName": "Prism Mania",
    "hidden": 0,
    "description": "Acquire a total of 6,000,000 or more Prisms.",
    "icon": "https://steamcdn-a.akamaihd.net/steamcommunity/public/images/apps/435970/986a4647ad91ef400854d4a613a1d9b26bd264fe.jpg",
    "icongray": "https://steamcdn-a.akamaihd.net/steamcommunity/public/images/apps/435970/0b22a9a6caefe66a3b78107c7abd72ccd7f55989.jpg"
  },
  {
    "name": "ACHIEVEMENT_STAT_CONVERT",
    "defaultvalue": 0,
    "displayName": "Bullet Hell Collector",
    "hidden": 0,
    "description": "Convert a total of 300,000 or more bullets with a Concept Reactor",
    "icon": "https://steamcdn-a.akamaihd.net/steamcommunity/public/images/apps/435970/923edb9e71d6001076c2b2a0b7dd9ecbe11de2fd.jpg",
    "icongray": "https://steamcdn-a.akamaihd.net/steamcommunity/public/images/apps/435970/509c03bc4b79efff0485f28794cd87390b5dff27.jpg"
  },
  {
    "name": "ACHIEVEMENT_STAT_PLAYTIME",
    "defaultvalue": 0,
    "displayName": "Resident of M.R.S.",
    "hidden": 0,
    "description": "Exceed ten hours (36,000 seconds) of Dive Time.",
    "icon": "https://steamcdn-a.akamaihd.net/steamcommunity/public/images/apps/435970/413184cdc5fbc4be95e35e073ae4fb6d0b0a6065.jpg",
    "icongray": "https://steamcdn-a.akamaihd.net/steamcommunity/public/images/apps/435970/7d661be909a9d8b77837f13be67fa989429ea4df.jpg"
  }
]