﻿[
  {
    "name": "ACH_TUT_GRAD",
    "defaultvalue": 0,
    "displayName": "Graduation",
    "hidden": 0,
    "description": "Graduate from business school",
    "icon": "https://steamcdn-a.akamaihd.net/steamcommunity/public/images/apps/410670/7eacbcc03b01bd9263f17aad3c742ef5bf9cf97c.jpg",
    "icongray": "https://steamcdn-a.akamaihd.net/steamcommunity/public/images/apps/410670/5cc5c692d4bd2bb3e71ae67290e61b05f3632b00.jpg"
  },
  {
    "name": "ACH_OFF_JEROME",
    "defaultvalue": 0,
    "displayName": "Jerome's Not Home",
    "hidden": 0,
    "description": "Get Jerome",
    "icon": "https://steamcdn-a.akamaihd.net/steamcommunity/public/images/apps/410670/171c59e60fc09a04369f74ba6e33375a12cf8bde.jpg",
    "icongray": "https://steamcdn-a.akamaihd.net/steamcommunity/public/images/apps/410670/5cc5c692d4bd2bb3e71ae67290e61b05f3632b00.jpg"
  },
  {
    "name": "ACH_OFF_WIFE",
    "defaultvalue": 0,
    "displayName": "WifeBeater Peter",
    "hidden": 0,
    "description": "Beater Peter",
    "icon": "https://steamcdn-a.akamaihd.net/steamcommunity/public/images/apps/410670/06a9515839f85d59cc02fd36bd4d99c2fe607298.jpg",
    "icongray": "https://steamcdn-a.akamaihd.net/steamcommunity/public/images/apps/410670/5cc5c692d4bd2bb3e71ae67290e61b05f3632b00.jpg"
  },
  {
    "name": "ACH_OFF_GOGO",
    "defaultvalue": 0,
    "displayName": "Castle GoGo 7",
    "hidden": 0,
    "description": "Go To Castle GoGo and Fight GoGo Runny Man",
    "icon": "https://steamcdn-a.akamaihd.net/steamcommunity/public/images/apps/410670/72e7ab2a7c86012002df6965ac2837b95c19bf25.jpg",
    "icongray": "https://steamcdn-a.akamaihd.net/steamcommunity/public/images/apps/410670/5cc5c692d4bd2bb3e71ae67290e61b05f3632b00.jpg"
  },
  {
    "name": "ACH_OFF_RAT",
    "defaultvalue": 0,
    "displayName": "Bad For The Environment",
    "hidden": 0,
    "description": "Defeat The Rat King",
    "icon": "https://steamcdn-a.akamaihd.net/steamcommunity/public/images/apps/410670/83ccab7b719b47075642d3579e29da444d100c15.jpg",
    "icongray": "https://steamcdn-a.akamaihd.net/steamcommunity/public/images/apps/410670/5cc5c692d4bd2bb3e71ae67290e61b05f3632b00.jpg"
  },
  {
    "name": "ACH_OFF_BURN",
    "defaultvalue": 0,
    "displayName": "Burn Out",
    "hidden": 0,
    "description": "Take Fraudulent Documents To Furnace",
    "icon": "https://steamcdn-a.akamaihd.net/steamcommunity/public/images/apps/410670/8358c0dd493cac4d930effc43860ab5666b6b277.jpg",
    "icongray": "https://steamcdn-a.akamaihd.net/steamcommunity/public/images/apps/410670/5cc5c692d4bd2bb3e71ae67290e61b05f3632b00.jpg"
  },
  {
    "name": "ACH_OFF_JUDY",
    "defaultvalue": 0,
    "displayName": "Kiss of Judy",
    "hidden": 0,
    "description": "It's a Blessing",
    "icon": "https://steamcdn-a.akamaihd.net/steamcommunity/public/images/apps/410670/6aea4132b2a58092de1e98ad9a96361be4892419.jpg",
    "icongray": "https://steamcdn-a.akamaihd.net/steamcommunity/public/images/apps/410670/5cc5c692d4bd2bb3e71ae67290e61b05f3632b00.jpg"
  },
  {
    "name": "ACH_LAW_DRUG",
    "defaultvalue": 0,
    "displayName": "2 Tablets To Paradise",
    "hidden": 0,
    "description": "Take the Good Stuff",
    "icon": "https://steamcdn-a.akamaihd.net/steamcommunity/public/images/apps/410670/3ab24c7cad12081b0d52f1d955308b55c5e0eee8.jpg",
    "icongray": "https://steamcdn-a.akamaihd.net/steamcommunity/public/images/apps/410670/5cc5c692d4bd2bb3e71ae67290e61b05f3632b00.jpg"
  },
  {
    "name": "ACH_LAW_GOP",
    "defaultvalue": 0,
    "displayName": "A District Divided...",
    "hidden": 0,
    "description": "Help the Liberals and Conservatives",
    "icon": "https://steamcdn-a.akamaihd.net/steamcommunity/public/images/apps/410670/3ee842bf576f5846437f63b7c87afbfa0cb4b4cc.jpg",
    "icongray": "https://steamcdn-a.akamaihd.net/steamcommunity/public/images/apps/410670/5cc5c692d4bd2bb3e71ae67290e61b05f3632b00.jpg"
  },
  {
    "name": "ACH_LAW_TOILET",
    "defaultvalue": 0,
    "displayName": "Toilet Paper Hero",
    "hidden": 0,
    "description": "Get some guy some Toilet Paper",
    "icon": "https://steamcdn-a.akamaihd.net/steamcommunity/public/images/apps/410670/0cc663f5152ba3ac0efd368a489e29847f036fd3.jpg",
    "icongray": "https://steamcdn-a.akamaihd.net/steamcommunity/public/images/apps/410670/5cc5c692d4bd2bb3e71ae67290e61b05f3632b00.jpg"
  },
  {
    "name": "ACH_LAW_MIKE",
    "defaultvalue": 0,
    "displayName": "Supreme Court",
    "hidden": 0,
    "description": "Pass The Rock To Mike J.",
    "icon": "https://steamcdn-a.akamaihd.net/steamcommunity/public/images/apps/410670/611289670e2dfe1c912af7308082e95d7e006ca5.jpg",
    "icongray": "https://steamcdn-a.akamaihd.net/steamcommunity/public/images/apps/410670/5cc5c692d4bd2bb3e71ae67290e61b05f3632b00.jpg"
  },
  {
    "name": "ACH_LAW_PVZ",
    "defaultvalue": 0,
    "displayName": "Plant Vs. Zombie",
    "hidden": 0,
    "description": "Attend The Revolutionary Courtcase",
    "icon": "https://steamcdn-a.akamaihd.net/steamcommunity/public/images/apps/410670/c8f0bab2a2dc9d57eec2138ec34828428ce1771d.jpg",
    "icongray": "https://steamcdn-a.akamaihd.net/steamcommunity/public/images/apps/410670/5cc5c692d4bd2bb3e71ae67290e61b05f3632b00.jpg"
  },
  {
    "name": "ACH_FIN_SIGN",
    "defaultvalue": 0,
    "displayName": "Mystical Relic",
    "hidden": 0,
    "description": "Get Them To Sign The Contract",
    "icon": "https://steamcdn-a.akamaihd.net/steamcommunity/public/images/apps/410670/b6890876edce7cc1a70f6f048214ee2a25845cac.jpg",
    "icongray": "https://steamcdn-a.akamaihd.net/steamcommunity/public/images/apps/410670/5cc5c692d4bd2bb3e71ae67290e61b05f3632b00.jpg"
  },
  {
    "name": "ACH_FIN_NUMB",
    "defaultvalue": 0,
    "displayName": "Crunch The Numbers",
    "hidden": 0,
    "description": "Defeat Infinity",
    "icon": "https://steamcdn-a.akamaihd.net/steamcommunity/public/images/apps/410670/553b7aed6d0172781cb759cfa252f2adfb010c95.jpg",
    "icongray": "https://steamcdn-a.akamaihd.net/steamcommunity/public/images/apps/410670/5cc5c692d4bd2bb3e71ae67290e61b05f3632b00.jpg"
  },
  {
    "name": "ACH_FIN_PAYDAY",
    "defaultvalue": 0,
    "displayName": "It's Pay Day",
    "hidden": 0,
    "description": "Become The Next Drillionaire",
    "icon": "https://steamcdn-a.akamaihd.net/steamcommunity/public/images/apps/410670/34585875c33071c9c8b072d8eb43f3f1e9522845.jpg",
    "icongray": "https://steamcdn-a.akamaihd.net/steamcommunity/public/images/apps/410670/5cc5c692d4bd2bb3e71ae67290e61b05f3632b00.jpg"
  },
  {
    "name": "ACH_FIN_LORD",
    "defaultvalue": 0,
    "displayName": "Appraise The Lord",
    "hidden": 0,
    "description": "Collect Tithe From The \"Selfish\" Homeless Shelter",
    "icon": "https://steamcdn-a.akamaihd.net/steamcommunity/public/images/apps/410670/e728b8de3fc8079f271806b1fcea9dc082ebd507.jpg",
    "icongray": "https://steamcdn-a.akamaihd.net/steamcommunity/public/images/apps/410670/5cc5c692d4bd2bb3e71ae67290e61b05f3632b00.jpg"
  },
  {
    "name": "ACH_FIN_TRUMP",
    "defaultvalue": 0,
    "displayName": "Trump The Aliens",
    "hidden": 0,
    "description": "Defeat The Tax Evader",
    "icon": "https://steamcdn-a.akamaihd.net/steamcommunity/public/images/apps/410670/a36da932a7622473ea0a7604a9ec379184cd59b0.jpg",
    "icongray": "https://steamcdn-a.akamaihd.net/steamcommunity/public/images/apps/410670/5cc5c692d4bd2bb3e71ae67290e61b05f3632b00.jpg"
  },
  {
    "name": "ACH_UNDER_SHARK",
    "defaultvalue": 0,
    "displayName": "Shark Weak",
    "hidden": 0,
    "description": "Kill All The Loan Sharks",
    "icon": "https://steamcdn-a.akamaihd.net/steamcommunity/public/images/apps/410670/1ec20ed0e391e97f55385fef1cb76546460c54a4.jpg",
    "icongray": "https://steamcdn-a.akamaihd.net/steamcommunity/public/images/apps/410670/5cc5c692d4bd2bb3e71ae67290e61b05f3632b00.jpg"
  },
  {
    "name": "ACH_UNDER_NARK",
    "defaultvalue": 0,
    "displayName": "Triassic Nark",
    "hidden": 0,
    "description": "Open The Door Sh*t On The Floor, Look Out It's A Dinosaur",
    "icon": "https://steamcdn-a.akamaihd.net/steamcommunity/public/images/apps/410670/c336aacebdb3b90dbb54ed7bf438a1d39178eb26.jpg",
    "icongray": "https://steamcdn-a.akamaihd.net/steamcommunity/public/images/apps/410670/5cc5c692d4bd2bb3e71ae67290e61b05f3632b00.jpg"
  },
  {
    "name": "ACH_UNDER_HUGE",
    "defaultvalue": 0,
    "displayName": "It's Gonna Be Huge",
    "hidden": 0,
    "description": "Fight The Ex-Car Salesman",
    "icon": "https://steamcdn-a.akamaihd.net/steamcommunity/public/images/apps/410670/3a43917c4c7e752c32392deecbfeb7ed19826d4d.jpg",
    "icongray": "https://steamcdn-a.akamaihd.net/steamcommunity/public/images/apps/410670/5cc5c692d4bd2bb3e71ae67290e61b05f3632b00.jpg"
  },
  {
    "name": "ACH_UNDER_REVO",
    "defaultvalue": 0,
    "displayName": "Revolution",
    "hidden": 0,
    "description": "Meat The Leader",
    "icon": "https://steamcdn-a.akamaihd.net/steamcommunity/public/images/apps/410670/4b9d4f4f40e0467d93f145496a5e58c57ac4fd3b.jpg",
    "icongray": "https://steamcdn-a.akamaihd.net/steamcommunity/public/images/apps/410670/5cc5c692d4bd2bb3e71ae67290e61b05f3632b00.jpg"
  },
  {
    "name": "ACH_FACT_HELI",
    "defaultvalue": 0,
    "displayName": "Change of Plans",
    "hidden": 0,
    "description": "Heli-Carrier Crash",
    "icon": "https://steamcdn-a.akamaihd.net/steamcommunity/public/images/apps/410670/38cffd78294edefbc164610842a0562599c874c1.jpg",
    "icongray": "https://steamcdn-a.akamaihd.net/steamcommunity/public/images/apps/410670/5cc5c692d4bd2bb3e71ae67290e61b05f3632b00.jpg"
  },
  {
    "name": "ACH_FACT_MEAT",
    "defaultvalue": 0,
    "displayName": "Final Solution",
    "hidden": 0,
    "description": "Exterminate The Meat Men",
    "icon": "https://steamcdn-a.akamaihd.net/steamcommunity/public/images/apps/410670/4ca160eddf2c9314cd998cab8568efbae54c3d65.jpg",
    "icongray": "https://steamcdn-a.akamaihd.net/steamcommunity/public/images/apps/410670/5cc5c692d4bd2bb3e71ae67290e61b05f3632b00.jpg"
  },
  {
    "name": "ACH_FACT_BODIES",
    "defaultvalue": 0,
    "displayName": "Redact, Reuse, Recycle",
    "hidden": 0,
    "description": "Kill The Pile of Bodies",
    "icon": "https://steamcdn-a.akamaihd.net/steamcommunity/public/images/apps/410670/1496a223dd471db5d0a3d8a1c5cfd0215bfba7da.jpg",
    "icongray": "https://steamcdn-a.akamaihd.net/steamcommunity/public/images/apps/410670/5cc5c692d4bd2bb3e71ae67290e61b05f3632b00.jpg"
  },
  {
    "name": "ACH_FOOD_ARTY",
    "defaultvalue": 0,
    "displayName": "Chef Boy Arty",
    "hidden": 0,
    "description": "Bring The Soup To Boy Arty",
    "icon": "https://steamcdn-a.akamaihd.net/steamcommunity/public/images/apps/410670/8ca85a26d661b66bae5a0eb7f1b9c400723b8529.jpg",
    "icongray": "https://steamcdn-a.akamaihd.net/steamcommunity/public/images/apps/410670/5cc5c692d4bd2bb3e71ae67290e61b05f3632b00.jpg"
  },
  {
    "name": "ACH_FOOD_KID",
    "defaultvalue": 0,
    "displayName": "The Meat Kid",
    "hidden": 0,
    "description": "Meat Kid Want Linguini",
    "icon": "https://steamcdn-a.akamaihd.net/steamcommunity/public/images/apps/410670/a42c69a95a5efd32ef809ecbfd8edfbdf4f5e252.jpg",
    "icongray": "https://steamcdn-a.akamaihd.net/steamcommunity/public/images/apps/410670/5cc5c692d4bd2bb3e71ae67290e61b05f3632b00.jpg"
  },
  {
    "name": "ACH_FOOD_FOOD",
    "defaultvalue": 0,
    "displayName": "Soup Or Salad?",
    "hidden": 0,
    "description": "Defeat The Food Force",
    "icon": "https://steamcdn-a.akamaihd.net/steamcommunity/public/images/apps/410670/6bfc1b9f81d4608a0c15d26dc20f7511830d8f5d.jpg",
    "icongray": "https://steamcdn-a.akamaihd.net/steamcommunity/public/images/apps/410670/5cc5c692d4bd2bb3e71ae67290e61b05f3632b00.jpg"
  },
  {
    "name": "ACH_FOOD_RAMZ",
    "defaultvalue": 0,
    "displayName": "Hell's Cocina",
    "hidden": 0,
    "description": "This Linguini Is Ling- A F*CKING DISGRACE!",
    "icon": "https://steamcdn-a.akamaihd.net/steamcommunity/public/images/apps/410670/d22aeda05df68a82682e9e883c167596b02188dc.jpg",
    "icongray": "https://steamcdn-a.akamaihd.net/steamcommunity/public/images/apps/410670/5cc5c692d4bd2bb3e71ae67290e61b05f3632b00.jpg"
  },
  {
    "name": "ACH_FOOD_GANG",
    "defaultvalue": 0,
    "displayName": "East Side, West Side",
    "hidden": 0,
    "description": "Yeast Side Weast Side Gang Fight",
    "icon": "https://steamcdn-a.akamaihd.net/steamcommunity/public/images/apps/410670/12129e72cedc1f1bfeb939364e489e2fe4e24a3e.jpg",
    "icongray": "https://steamcdn-a.akamaihd.net/steamcommunity/public/images/apps/410670/5cc5c692d4bd2bb3e71ae67290e61b05f3632b00.jpg"
  },
  {
    "name": "ACH_MEDIA_VIRUS",
    "defaultvalue": 0,
    "displayName": "Virus Hunter",
    "hidden": 0,
    "description": "Enter The Grid And Kill The Viruses",
    "icon": "https://steamcdn-a.akamaihd.net/steamcommunity/public/images/apps/410670/11e600e7443ffa327aa0f3412250493926ce2f83.jpg",
    "icongray": "https://steamcdn-a.akamaihd.net/steamcommunity/public/images/apps/410670/5cc5c692d4bd2bb3e71ae67290e61b05f3632b00.jpg"
  },
  {
    "name": "ACH_MEDIA_GOOB",
    "defaultvalue": 0,
    "displayName": "GoobTube Forever",
    "hidden": 0,
    "description": "Euthanize The Enslaved GoobTuber's",
    "icon": "https://steamcdn-a.akamaihd.net/steamcommunity/public/images/apps/410670/2cc6d174bdb15dead7841f4a281ca691365f0c7e.jpg",
    "icongray": "https://steamcdn-a.akamaihd.net/steamcommunity/public/images/apps/410670/5cc5c692d4bd2bb3e71ae67290e61b05f3632b00.jpg"
  },
  {
    "name": "ACH_MEDIA_CNT",
    "defaultvalue": 0,
    "displayName": "C-NT: Corporate",
    "hidden": 0,
    "description": "Cancel The Huge Boom Hypothesis",
    "icon": "https://steamcdn-a.akamaihd.net/steamcommunity/public/images/apps/410670/28defd1ee6508887f6486f574dad5a148263c9e6.jpg",
    "icongray": "https://steamcdn-a.akamaihd.net/steamcommunity/public/images/apps/410670/5cc5c692d4bd2bb3e71ae67290e61b05f3632b00.jpg"
  },
  {
    "name": "ACH_MEDIA_FREE",
    "defaultvalue": 0,
    "displayName": "Free Quincy",
    "hidden": 0,
    "description": "Free the Rap Sensation Quincy \"62 cents\" Jones",
    "icon": "https://steamcdn-a.akamaihd.net/steamcommunity/public/images/apps/410670/a6d301800b01ee4dce7e8faf93b82a2e4efe7615.jpg",
    "icongray": "https://steamcdn-a.akamaihd.net/steamcommunity/public/images/apps/410670/5cc5c692d4bd2bb3e71ae67290e61b05f3632b00.jpg"
  },
  {
    "name": "ACH_MEDIA_EXE",
    "defaultvalue": 0,
    "displayName": "Executable",
    "hidden": 0,
    "description": "Deafeat The Creators",
    "icon": "https://steamcdn-a.akamaihd.net/steamcommunity/public/images/apps/410670/8ded7a16e927ebdf85efcd3e977c0f773d0c30dc.jpg",
    "icongray": "https://steamcdn-a.akamaihd.net/steamcommunity/public/images/apps/410670/5cc5c692d4bd2bb3e71ae67290e61b05f3632b00.jpg"
  },
  {
    "name": "ACH_MEDIA_KING",
    "defaultvalue": 0,
    "displayName": "Kingdom Commerce",
    "hidden": 0,
    "description": "Become The CEO",
    "icon": "https://steamcdn-a.akamaihd.net/steamcommunity/public/images/apps/410670/7ca62e9535c026199c8c3bd24beac130ac89d661.jpg",
    "icongray": "https://steamcdn-a.akamaihd.net/steamcommunity/public/images/apps/410670/5cc5c692d4bd2bb3e71ae67290e61b05f3632b00.jpg"
  }
]