[
  {
    "name": "overworld.multikill",
    "defaultvalue": 0,
    "displayName": "Multi-Kill",
    "hidden": 0,
    "description": "Destroy 3 units in one turn.",
    "icon": "https://steamcdn-a.akamaihd.net/steamcommunity/public/images/apps/324400/4fe1b8426cd32a72b50f247777d6c132000a4626.jpg",
    "icongray": "https://steamcdn-a.akamaihd.net/steamcommunity/public/images/apps/324400/7c191263f39b9e1123f6453efd5dc8c2054caaff.jpg"
  },
  {
    "name": "overworld.ultrakill",
    "defaultvalue": 0,
    "displayName": "Ultra-Kill",
    "hidden": 0,
    "description": "Destroy 4 units in one turn.",
    "icon": "https://steamcdn-a.akamaihd.net/steamcommunity/public/images/apps/324400/a30f175665a63c61a59b61e1c7a58e6d3005d3ea.jpg",
    "icongray": "https://steamcdn-a.akamaihd.net/steamcommunity/public/images/apps/324400/c3d815a257d555d77ee5ab35a428e91ba6eff689.jpg"
  },
  {
    "name": "overworld.megakill",
    "defaultvalue": 0,
    "displayName": "Mega-Kill",
    "hidden": 0,
    "description": "Destroy 5 units in one turn.",
    "icon": "https://steamcdn-a.akamaihd.net/steamcommunity/public/images/apps/324400/f3566acf5b8835e6ae193d627b924afa98cf61ce.jpg",
    "icongray": "https://steamcdn-a.akamaihd.net/steamcommunity/public/images/apps/324400/faeb8375e7360823b753e1389a47dbb88dd8fd50.jpg"
  },
  {
    "name": "skirmish.beat.ai",
    "defaultvalue": 0,
    "displayName": "Human Intelligence",
    "hidden": 0,
    "description": "Beat the AI in a skirmish match.",
    "icon": "https://steamcdn-a.akamaihd.net/steamcommunity/public/images/apps/324400/80fa995b2617332c47ef2f19b203aa9a20632d60.jpg",
    "icongray": "https://steamcdn-a.akamaihd.net/steamcommunity/public/images/apps/324400/5d163c98b839141ebe16ae6ccf7910eeae8cd2c7.jpg"
  },
  {
    "name": "multiplayer.played.once",
    "defaultvalue": 0,
    "displayName": "Online Participation",
    "hidden": 0,
    "description": "Played an online match.",
    "icon": "https://steamcdn-a.akamaihd.net/steamcommunity/public/images/apps/324400/a7c4d5ef94b7c0b8ccc7de3afd54bfb865cb9fe6.jpg",
    "icongray": "https://steamcdn-a.akamaihd.net/steamcommunity/public/images/apps/324400/fc69ddc52b8a969783c73f930af33c0316c4c7c4.jpg"
  },
  {
    "name": "multiplayer.won.once",
    "defaultvalue": 0,
    "displayName": "Online Victory",
    "hidden": 0,
    "description": "Win an online match.",
    "icon": "https://steamcdn-a.akamaihd.net/steamcommunity/public/images/apps/324400/c6a6899ce4a91f349a9ca563de11ef12489bad74.jpg",
    "icongray": "https://steamcdn-a.akamaihd.net/steamcommunity/public/images/apps/324400/7453c3ccf2b38294dde32680580ec43fe59e79ff.jpg"
  },
  {
    "name": "multiplayer.won.5",
    "defaultvalue": 0,
    "displayName": "Battlefield Leader",
    "hidden": 0,
    "description": "Win 5 online matches.",
    "icon": "https://steamcdn-a.akamaihd.net/steamcommunity/public/images/apps/324400/c5ccf1edae2a2332b408861a11cc197dae629ebf.jpg",
    "icongray": "https://steamcdn-a.akamaihd.net/steamcommunity/public/images/apps/324400/09a13f6951dc77914b315baea3dc49a4a69d0068.jpg"
  },
  {
    "name": "multiplayer.levelup",
    "defaultvalue": 0,
    "displayName": "Ding!",
    "hidden": 0,
    "description": "Level-Up in multiplayer stats.",
    "icon": "https://steamcdn-a.akamaihd.net/steamcommunity/public/images/apps/324400/4d14c08e224dba22e0501617ac192fe0162962db.jpg",
    "icongray": "https://steamcdn-a.akamaihd.net/steamcommunity/public/images/apps/324400/b3692eece444db93fab58f9717487ffcd846af8a.jpg"
  }
]