{
  "Dlcs": {
    "959790": {
      "Name": "SCUOS OST",
      "ImageUrl": "https://steamcdn-a.akamaihd.net/steam/apps/959790/header.jpg?t=1554371297"
    }
  },
  "Name": "SCUOS",
  "AppId": "955120",
  "ImageUrl": "https://steamcdn-a.akamaihd.net/steam/apps/955120/header.jpg?t=1553711181",
  "Languages": [
    "english",
    "french",
    "italian",
    "german",
    "spanish",
    "arabic",
    "bulgarian",
    "portuguese",
    "hungarian",
    "vietnamese",
    "greek",
    "danish",
    "latam",
    "tchinese",
    "schinese",
    "korean",
    "dutch",
    "norwegian",
    "polish",
    "portuguese",
    "romanian",
    "russian",
    "thai",
    "turkish",
    "ukrainian",
    "finnish",
    "czech",
    "swedish",
    "japanese"
  ],
  "Platforms": {
    "windows": true,
    "mac": false,
    "linux": true
  }
}