{
  "Dlcs": {},
  "Name": "立方杀阵（Cubic Kill Array）",
  "AppId": "898090",
  "ImageUrl": "https://steamcdn-a.akamaihd.net/steam/apps/898090/header.jpg?t=1533193269",
  "Languages": [
    "english",
    "schinese"
  ],
  "Platforms": {
    "windows": true,
    "mac": false,
    "linux": false
  }
}