{
  "Dlcs": {},
  "Name": "The Amulet of AmunRuuUUUN",
  "AppId": "1393580",
  "ImageUrl": "https://steamcdn-a.akamaihd.net/steam/apps/1393580/header.jpg?t=1599225245",
  "Languages": [
    "english"
  ],
  "Platforms": {
    "windows": true,
    "mac": false,
    "linux": false
  }
}