[
  {
    "name": "ACH_EA_ACHIEVE",
    "defaultvalue": 0,
    "displayName": "Early Supporter",
    "hidden": 0,
    "description": "Because you're supporting us early and you're amazing",
    "icon": "https://steamcdn-a.akamaihd.net/steamcommunity/public/images/apps/268970/934d40a291bc709b186c2efd8748c71568e73520.jpg",
    "icongray": "https://steamcdn-a.akamaihd.net/steamcommunity/public/images/apps/268970/46f561997b2fca354ff0441dd16e5651b359f6ba.jpg"
  },
  {
    "name": "ACH_CH1_5STARS",
    "defaultvalue": 0,
    "displayName": "Chapter 1 Superstar",
    "hidden": 0,
    "description": "Achieved 5 stars in Hearth Village",
    "icon": "https://steamcdn-a.akamaihd.net/steamcommunity/public/images/apps/268970/934d40a291bc709b186c2efd8748c71568e73520.jpg",
    "icongray": "https://steamcdn-a.akamaihd.net/steamcommunity/public/images/apps/268970/46f561997b2fca354ff0441dd16e5651b359f6ba.jpg"
  },
  {
    "name": "ACH_CH2_5STARS",
    "defaultvalue": 0,
    "displayName": "Chapter 2 Superstar",
    "hidden": 0,
    "description": "Achieved 5 stars exiting the train",
    "icon": "https://steamcdn-a.akamaihd.net/steamcommunity/public/images/apps/268970/934d40a291bc709b186c2efd8748c71568e73520.jpg",
    "icongray": "https://steamcdn-a.akamaihd.net/steamcommunity/public/images/apps/268970/46f561997b2fca354ff0441dd16e5651b359f6ba.jpg"
  },
  {
    "name": "ACH_ZEPH_WAIT",
    "defaultvalue": 0,
    "displayName": "Good Things...",
    "hidden": 1,
    "icon": "https://steamcdn-a.akamaihd.net/steamcommunity/public/images/apps/268970/6a8e2869284712eeaf2af0480df5c6121c7e60b0.jpg",
    "icongray": "https://steamcdn-a.akamaihd.net/steamcommunity/public/images/apps/268970/398b2355640cc9735ccaf4e11a1079eb77f3b2ee.jpg"
  },
  {
    "name": "ACH_COUCH_POTATO",
    "defaultvalue": 0,
    "displayName": "Couch Potato",
    "hidden": 1,
    "icon": "https://steamcdn-a.akamaihd.net/steamcommunity/public/images/apps/268970/6a8e2869284712eeaf2af0480df5c6121c7e60b0.jpg",
    "icongray": "https://steamcdn-a.akamaihd.net/steamcommunity/public/images/apps/268970/398b2355640cc9735ccaf4e11a1079eb77f3b2ee.jpg"
  },
  {
    "name": "ACH_STAY_HEARTH",
    "defaultvalue": 0,
    "displayName": "Don't Bother Me, I'm Sleeping",
    "hidden": 1,
    "icon": "https://steamcdn-a.akamaihd.net/steamcommunity/public/images/apps/268970/6a8e2869284712eeaf2af0480df5c6121c7e60b0.jpg",
    "icongray": "https://steamcdn-a.akamaihd.net/steamcommunity/public/images/apps/268970/398b2355640cc9735ccaf4e11a1079eb77f3b2ee.jpg"
  },
  {
    "name": "ACH_BECOME_TITAN",
    "defaultvalue": 0,
    "displayName": "Petula Like Big Boom",
    "hidden": 1,
    "icon": "https://steamcdn-a.akamaihd.net/steamcommunity/public/images/apps/268970/6a8e2869284712eeaf2af0480df5c6121c7e60b0.jpg",
    "icongray": "https://steamcdn-a.akamaihd.net/steamcommunity/public/images/apps/268970/398b2355640cc9735ccaf4e11a1079eb77f3b2ee.jpg"
  }
]