{
  "Releases": [
    "Windows"
  ],
  "Name": "Railway Empire",
  "AppId": "8cf7c6b964514532ad8284a376a517bf",
  "Namespace": "93b333eb973b45b582f3bdf68dfc1dc9",
  "ItemId": "cf1bbc6abcba4eb5a71387f66732a23c",
  "ImageUrl": "https://cdn1.epicgames.com/93b333eb973b45b582f3bdf68dfc1dc9/item/EGS_RailwayEmpire_GamingMindsStudios_S1-2560x1440-917cc700b5437febee4981a1d40ebefc-2560x1440-917cc700b5437febee4981a1d40ebefc.jpg",
  "Dlcs": {
    "Railway Empire Northern Europe Audience": {
      "Name": "Railway Empire Northern Europe Audience",
      "ItemId": "169d5056c7834d2c8c75dea90db50906"
    },
    "Railway Empire France Audience": {
      "Name": "Railway Empire France Audience",
      "ItemId": "04fcea3158b6465a816431f105b1198c"
    },
    "Railway Empire Germany Audience": {
      "Name": "Railway Empire Germany Audience",
      "ItemId": "1b6f8fc33995487a98c0524f51c8bd6c"
    },
    "Railway Empire South America Audience": {
      "Name": "Railway Empire South America Audience",
      "ItemId": "25abab16fc274721b983f513d49b5896"
    },
    "Railway Empire Great Britain & Ireland Audience": {
      "Name": "Railway Empire Great Britain & Ireland Audience",
      "ItemId": "6467061be52f4765a24670daeed71884"
    },
    "Railway Empire Down Under Audience": {
      "Name": "Railway Empire Down Under Audience",
      "ItemId": "8d924b151532482991f4f966e3dd071f"
    },
    "Railway Empire Great Lakes Audience": {
      "Name": "Railway Empire Great Lakes Audience",
      "ItemId": "25f58434252e4a9fb1294fdc5b1d2dfc"
    },
    "Railway Empire Mexico Audience": {
      "Name": "Railway Empire Mexico Audience",
      "ItemId": "afc448bfca37435faf3fe4cae83475b8"
    }
  }
}