[
  {
    "name": "stage1",
    "defaultvalue": 0,
    "displayName": "The Beginning",
    "hidden": 0,
    "description": "Complete the first stage",
    "icon": "https://steamcdn-a.akamaihd.net/steamcommunity/public/images/apps/314250/e5db99eeab2973ad2f835182cb9a201431ed5095.jpg",
    "icongray": "https://steamcdn-a.akamaihd.net/steamcommunity/public/images/apps/314250/fc563620e71ef1eff63ef5a6ee02d31075333ac3.jpg"
  },
  {
    "name": "stage2",
    "defaultvalue": 0,
    "displayName": "Jungle Fever",
    "hidden": 0,
    "description": "Complete the second stage.",
    "icon": "https://steamcdn-a.akamaihd.net/steamcommunity/public/images/apps/314250/d960b04ce098eecd9de7c9747373f738ea582283.jpg",
    "icongray": "https://steamcdn-a.akamaihd.net/steamcommunity/public/images/apps/314250/13987a34d5dc9f380f73c974dd8a945e6734d79f.jpg"
  },
  {
    "name": "stage3",
    "defaultvalue": 0,
    "displayName": "Robot Cop",
    "hidden": 0,
    "description": "Complete the third stage",
    "icon": "https://steamcdn-a.akamaihd.net/steamcommunity/public/images/apps/314250/93aa45c72d615d9279e1f77475b2890bad15b0c5.jpg",
    "icongray": "https://steamcdn-a.akamaihd.net/steamcommunity/public/images/apps/314250/5b0d9ba85dc6ecbc56ffe015a8efae3336100fc6.jpg"
  },
  {
    "name": "stage4",
    "defaultvalue": 0,
    "displayName": "Battle Blimps",
    "hidden": 0,
    "description": "Complete the forth stage",
    "icon": "https://steamcdn-a.akamaihd.net/steamcommunity/public/images/apps/314250/ca5120978a76bb194524aab52bfb47a17e0c44ba.jpg",
    "icongray": "https://steamcdn-a.akamaihd.net/steamcommunity/public/images/apps/314250/701bbc9904634129c070fc327e7bfede76f5a372.jpg"
  },
  {
    "name": "stage5",
    "defaultvalue": 0,
    "displayName": "Space Race",
    "hidden": 0,
    "description": "Complete the fifth stage",
    "icon": "https://steamcdn-a.akamaihd.net/steamcommunity/public/images/apps/314250/3bbf51d14f14a01de4af1aae13b8ebed14a0b44e.jpg",
    "icongray": "https://steamcdn-a.akamaihd.net/steamcommunity/public/images/apps/314250/a8db30747e8f9516a283a8d651a2c7aa43d6d6fd.jpg"
  },
  {
    "name": "stage6",
    "defaultvalue": 0,
    "displayName": "Mother Brain",
    "hidden": 0,
    "description": "Complete the final stage",
    "icon": "https://steamcdn-a.akamaihd.net/steamcommunity/public/images/apps/314250/a84315fb133fb3b277b5eb5e4657921fc67703cd.jpg",
    "icongray": "https://steamcdn-a.akamaihd.net/steamcommunity/public/images/apps/314250/8ae59fd958841ceeb5967b520ee774c6e6feaeb7.jpg"
  },
  {
    "name": "chal11",
    "defaultvalue": 0,
    "displayName": "Getting Started",
    "hidden": 0,
    "description": "Complete challenge 1-1",
    "icon": "https://steamcdn-a.akamaihd.net/steamcommunity/public/images/apps/314250/01d715773d038e22e7c65c9451c67f32eca99e2b.jpg",
    "icongray": "https://steamcdn-a.akamaihd.net/steamcommunity/public/images/apps/314250/5d4f719e4fb7c00104edc166a69caaffcc44538b.jpg"
  },
  {
    "name": "chal12",
    "defaultvalue": 0,
    "displayName": "Beat That Timer",
    "hidden": 0,
    "description": "Complete challenge 1-2",
    "icon": "https://steamcdn-a.akamaihd.net/steamcommunity/public/images/apps/314250/55b8553b79e3c986a0c885eb00b5bce5cd387187.jpg",
    "icongray": "https://steamcdn-a.akamaihd.net/steamcommunity/public/images/apps/314250/5d4f719e4fb7c00104edc166a69caaffcc44538b.jpg"
  },
  {
    "name": "chal13",
    "defaultvalue": 0,
    "displayName": "Bad For Your Health",
    "hidden": 0,
    "description": "Complete challenge 1-3",
    "icon": "https://steamcdn-a.akamaihd.net/steamcommunity/public/images/apps/314250/c179f5da6f036aa489b272e73aa67b0d0a9f8de4.jpg",
    "icongray": "https://steamcdn-a.akamaihd.net/steamcommunity/public/images/apps/314250/5d4f719e4fb7c00104edc166a69caaffcc44538b.jpg"
  },
  {
    "name": "chal14",
    "defaultvalue": 0,
    "displayName": "Contra Style ",
    "hidden": 0,
    "description": "Complete challenge 1-4",
    "icon": "https://steamcdn-a.akamaihd.net/steamcommunity/public/images/apps/314250/1f4d7bdfc80004884ccc26c1a90e6b32f66d201d.jpg",
    "icongray": "https://steamcdn-a.akamaihd.net/steamcommunity/public/images/apps/314250/5d4f719e4fb7c00104edc166a69caaffcc44538b.jpg"
  },
  {
    "name": "chal15",
    "defaultvalue": 0,
    "displayName": "Limited Flight",
    "hidden": 0,
    "description": "Complete challenge 1-5",
    "icon": "https://steamcdn-a.akamaihd.net/steamcommunity/public/images/apps/314250/5e78f669a50ccbfb766f54998694816a4ae694d2.jpg",
    "icongray": "https://steamcdn-a.akamaihd.net/steamcommunity/public/images/apps/314250/5d4f719e4fb7c00104edc166a69caaffcc44538b.jpg"
  },
  {
    "name": "chal21",
    "defaultvalue": 0,
    "displayName": "Jungle Gauntlet ",
    "hidden": 0,
    "description": "Complete challenge 2-1",
    "icon": "https://steamcdn-a.akamaihd.net/steamcommunity/public/images/apps/314250/6e5582ed42579272f71cd9dacb39838cc57118a8.jpg",
    "icongray": "https://steamcdn-a.akamaihd.net/steamcommunity/public/images/apps/314250/5d4f719e4fb7c00104edc166a69caaffcc44538b.jpg"
  },
  {
    "name": "chal22",
    "defaultvalue": 0,
    "displayName": "Collapsing Path",
    "hidden": 0,
    "description": "Complete challenge 2-2",
    "icon": "https://steamcdn-a.akamaihd.net/steamcommunity/public/images/apps/314250/0c38604b1254dc7427867024b977d0a4cafb2734.jpg",
    "icongray": "https://steamcdn-a.akamaihd.net/steamcommunity/public/images/apps/314250/5d4f719e4fb7c00104edc166a69caaffcc44538b.jpg"
  },
  {
    "name": "chal23",
    "defaultvalue": 0,
    "displayName": "Don't Hit Your Head",
    "hidden": 0,
    "description": "Complete challenge 2-3",
    "icon": "https://steamcdn-a.akamaihd.net/steamcommunity/public/images/apps/314250/77cfaf82b8e6b6de58b879770184b2a03238c91b.jpg",
    "icongray": "https://steamcdn-a.akamaihd.net/steamcommunity/public/images/apps/314250/5d4f719e4fb7c00104edc166a69caaffcc44538b.jpg"
  },
  {
    "name": "chal24",
    "defaultvalue": 0,
    "displayName": "Time To Race",
    "hidden": 0,
    "description": "Complete challenge 2-4",
    "icon": "https://steamcdn-a.akamaihd.net/steamcommunity/public/images/apps/314250/f05695e3d691645f4a5418519649f5353017a04e.jpg",
    "icongray": "https://steamcdn-a.akamaihd.net/steamcommunity/public/images/apps/314250/5d4f719e4fb7c00104edc166a69caaffcc44538b.jpg"
  },
  {
    "name": "chal25",
    "defaultvalue": 0,
    "displayName": "Bridge Over The River Doom",
    "hidden": 0,
    "description": "Complete challenge 2-5",
    "icon": "https://steamcdn-a.akamaihd.net/steamcommunity/public/images/apps/314250/b11bd96d28eb554be7537294abb3bfe1642ca756.jpg",
    "icongray": "https://steamcdn-a.akamaihd.net/steamcommunity/public/images/apps/314250/5d4f719e4fb7c00104edc166a69caaffcc44538b.jpg"
  },
  {
    "name": "chal31",
    "defaultvalue": 0,
    "displayName": "Fire Gauntlet",
    "hidden": 0,
    "description": "Complete challenge 3-1",
    "icon": "https://steamcdn-a.akamaihd.net/steamcommunity/public/images/apps/314250/1cfed365e8a721c969afae87c2090489ea74c5d0.jpg",
    "icongray": "https://steamcdn-a.akamaihd.net/steamcommunity/public/images/apps/314250/5d4f719e4fb7c00104edc166a69caaffcc44538b.jpg"
  },
  {
    "name": "chal32",
    "defaultvalue": 0,
    "displayName": "Fire Walker",
    "hidden": 0,
    "description": "Complete challenge 3-2",
    "icon": "https://steamcdn-a.akamaihd.net/steamcommunity/public/images/apps/314250/c782b1de34d15e00c0bbfed34deb41ae1338ea1c.jpg",
    "icongray": "https://steamcdn-a.akamaihd.net/steamcommunity/public/images/apps/314250/5d4f719e4fb7c00104edc166a69caaffcc44538b.jpg"
  },
  {
    "name": "chal33",
    "defaultvalue": 0,
    "displayName": "Pushed For Time",
    "hidden": 0,
    "description": "Complete challenge 3-3",
    "icon": "https://steamcdn-a.akamaihd.net/steamcommunity/public/images/apps/314250/07ecd933575ed712a9bb37ccc3537f97b3b4594a.jpg",
    "icongray": "https://steamcdn-a.akamaihd.net/steamcommunity/public/images/apps/314250/5d4f719e4fb7c00104edc166a69caaffcc44538b.jpg"
  },
  {
    "name": "chal34",
    "defaultvalue": 0,
    "displayName": "Rolling Around",
    "hidden": 0,
    "description": "Complete challenge 3-4",
    "icon": "https://steamcdn-a.akamaihd.net/steamcommunity/public/images/apps/314250/25666e3f6d01a9f29da975fd8dd6deabc90d7fc9.jpg",
    "icongray": "https://steamcdn-a.akamaihd.net/steamcommunity/public/images/apps/314250/5d4f719e4fb7c00104edc166a69caaffcc44538b.jpg"
  },
  {
    "name": "chal35",
    "defaultvalue": 0,
    "displayName": "When Robots Attack",
    "hidden": 0,
    "description": "Complete challenge 3-5",
    "icon": "https://steamcdn-a.akamaihd.net/steamcommunity/public/images/apps/314250/a97ed64973572871b6adbb03cf00cfaa78d68d70.jpg",
    "icongray": "https://steamcdn-a.akamaihd.net/steamcommunity/public/images/apps/314250/5d4f719e4fb7c00104edc166a69caaffcc44538b.jpg"
  },
  {
    "name": "chal41",
    "defaultvalue": 0,
    "displayName": "Flying Gauntlet ",
    "hidden": 0,
    "description": "Complete challenge 4-1",
    "icon": "https://steamcdn-a.akamaihd.net/steamcommunity/public/images/apps/314250/07921d63bafed15eba6d4f2ba4b282fb8df65aed.jpg",
    "icongray": "https://steamcdn-a.akamaihd.net/steamcommunity/public/images/apps/314250/5d4f719e4fb7c00104edc166a69caaffcc44538b.jpg"
  },
  {
    "name": "chal42",
    "defaultvalue": 0,
    "displayName": "Platform Peril ",
    "hidden": 0,
    "description": "Complete challenge 4-2",
    "icon": "https://steamcdn-a.akamaihd.net/steamcommunity/public/images/apps/314250/ecf4f511ea697ed450a6225d4d93f71353493fb1.jpg",
    "icongray": "https://steamcdn-a.akamaihd.net/steamcommunity/public/images/apps/314250/5d4f719e4fb7c00104edc166a69caaffcc44538b.jpg"
  },
  {
    "name": "chal43",
    "defaultvalue": 0,
    "displayName": "Grounded Flight",
    "hidden": 0,
    "description": "Complete challenge 4-3",
    "icon": "https://steamcdn-a.akamaihd.net/steamcommunity/public/images/apps/314250/e3f7f3263334513e043976d892c0275a318a4bae.jpg",
    "icongray": "https://steamcdn-a.akamaihd.net/steamcommunity/public/images/apps/314250/5d4f719e4fb7c00104edc166a69caaffcc44538b.jpg"
  },
  {
    "name": "chal44",
    "defaultvalue": 0,
    "displayName": "Time Flies",
    "hidden": 0,
    "description": "Complete challenge 4-4",
    "icon": "https://steamcdn-a.akamaihd.net/steamcommunity/public/images/apps/314250/2620f2f35e712c3a404ded8bfa6b03ec2692fb85.jpg",
    "icongray": "https://steamcdn-a.akamaihd.net/steamcommunity/public/images/apps/314250/5d4f719e4fb7c00104edc166a69caaffcc44538b.jpg"
  },
  {
    "name": "chal45",
    "defaultvalue": 0,
    "displayName": "Bullet Hell",
    "hidden": 0,
    "description": "Complete challenge 4-5",
    "icon": "https://steamcdn-a.akamaihd.net/steamcommunity/public/images/apps/314250/8366bd53c21a09c1afaf805d10378e6db4df5a2c.jpg",
    "icongray": "https://steamcdn-a.akamaihd.net/steamcommunity/public/images/apps/314250/5d4f719e4fb7c00104edc166a69caaffcc44538b.jpg"
  },
  {
    "name": "chal51",
    "defaultvalue": 0,
    "displayName": "Spike Gauntlet ",
    "hidden": 0,
    "description": "Complete challenge 5-1",
    "icon": "https://steamcdn-a.akamaihd.net/steamcommunity/public/images/apps/314250/9b0d016bf39b0a62b4e12955eced1391c4eefeca.jpg",
    "icongray": "https://steamcdn-a.akamaihd.net/steamcommunity/public/images/apps/314250/5d4f719e4fb7c00104edc166a69caaffcc44538b.jpg"
  },
  {
    "name": "chal52",
    "defaultvalue": 0,
    "displayName": "Spike 'N' Speed",
    "hidden": 0,
    "description": "Complete challenge 5-2",
    "icon": "https://steamcdn-a.akamaihd.net/steamcommunity/public/images/apps/314250/fc5b37d5b72a088a2d0baaac3d1d29faebdcfb1f.jpg",
    "icongray": "https://steamcdn-a.akamaihd.net/steamcommunity/public/images/apps/314250/5d4f719e4fb7c00104edc166a69caaffcc44538b.jpg"
  },
  {
    "name": "chal53",
    "defaultvalue": 0,
    "displayName": "Death Trap",
    "hidden": 0,
    "description": "Complete challenge 5-3",
    "icon": "https://steamcdn-a.akamaihd.net/steamcommunity/public/images/apps/314250/cbdd664638fcb7d60a80dfb209e2f142376df006.jpg",
    "icongray": "https://steamcdn-a.akamaihd.net/steamcommunity/public/images/apps/314250/5d4f719e4fb7c00104edc166a69caaffcc44538b.jpg"
  },
  {
    "name": "chal54",
    "defaultvalue": 0,
    "displayName": "Laser Bombardment ",
    "hidden": 0,
    "description": "Complete challenge 5-4",
    "icon": "https://steamcdn-a.akamaihd.net/steamcommunity/public/images/apps/314250/adfc28aa741280fd703611cec6659a6b9d48ea3d.jpg",
    "icongray": "https://steamcdn-a.akamaihd.net/steamcommunity/public/images/apps/314250/5d4f719e4fb7c00104edc166a69caaffcc44538b.jpg"
  },
  {
    "name": "chal55",
    "defaultvalue": 0,
    "displayName": "The Final Challenge",
    "hidden": 0,
    "description": "Complete challenge 5-5",
    "icon": "https://steamcdn-a.akamaihd.net/steamcommunity/public/images/apps/314250/72cf244fc28106fff08344c67bb159e35a8f3e1d.jpg",
    "icongray": "https://steamcdn-a.akamaihd.net/steamcommunity/public/images/apps/314250/5d4f719e4fb7c00104edc166a69caaffcc44538b.jpg"
  },
  {
    "name": "hardcore1",
    "defaultvalue": 0,
    "displayName": "Hard As Nails",
    "hidden": 0,
    "description": "Complete stage 1 under HARDCORE mode",
    "icon": "https://steamcdn-a.akamaihd.net/steamcommunity/public/images/apps/314250/3fe90b24282a0360f47b1ca3a7745b258c1f270c.jpg",
    "icongray": "https://steamcdn-a.akamaihd.net/steamcommunity/public/images/apps/314250/e1a625ea29173399ab52426420e884153b726fe9.jpg"
  },
  {
    "name": "hardcore2",
    "defaultvalue": 0,
    "displayName": "Super Hard",
    "hidden": 0,
    "description": "Complete stage 2 under HARDCORE mode",
    "icon": "https://steamcdn-a.akamaihd.net/steamcommunity/public/images/apps/314250/b4954d7943a57224c6d764e8f6f25294d16f46fe.jpg",
    "icongray": "https://steamcdn-a.akamaihd.net/steamcommunity/public/images/apps/314250/e1a625ea29173399ab52426420e884153b726fe9.jpg"
  },
  {
    "name": "hardcore3",
    "defaultvalue": 0,
    "displayName": "Hard On",
    "hidden": 0,
    "description": "Complete stage 3 under HARDCORE mode",
    "icon": "https://steamcdn-a.akamaihd.net/steamcommunity/public/images/apps/314250/785a3206f65984e92ae4b0c8a6db1f46559cb4b4.jpg",
    "icongray": "https://steamcdn-a.akamaihd.net/steamcommunity/public/images/apps/314250/e1a625ea29173399ab52426420e884153b726fe9.jpg"
  },
  {
    "name": "hardcore4",
    "defaultvalue": 0,
    "displayName": "Die Hard",
    "hidden": 0,
    "description": "Complete stage 4 under HARDCORE mode",
    "icon": "https://steamcdn-a.akamaihd.net/steamcommunity/public/images/apps/314250/063331e893ea9037d8cbaea916ebd9d0c0294ffe.jpg",
    "icongray": "https://steamcdn-a.akamaihd.net/steamcommunity/public/images/apps/314250/e1a625ea29173399ab52426420e884153b726fe9.jpg"
  },
  {
    "name": "hardcore5",
    "defaultvalue": 0,
    "displayName": "I'm So Hard",
    "hidden": 0,
    "description": "Complete stage 5 under HARDCORE mode",
    "icon": "https://steamcdn-a.akamaihd.net/steamcommunity/public/images/apps/314250/0c9e398cacd1c82950a860c10eacdfa0e8d32338.jpg",
    "icongray": "https://steamcdn-a.akamaihd.net/steamcommunity/public/images/apps/314250/e1a625ea29173399ab52426420e884153b726fe9.jpg"
  },
  {
    "name": "hardcore6",
    "defaultvalue": 0,
    "displayName": "TOTALLY HARDCORE!",
    "hidden": 0,
    "description": "Complete the game under HARDCORE mode",
    "icon": "https://steamcdn-a.akamaihd.net/steamcommunity/public/images/apps/314250/1503338c542b34e0cdce2e520ce0d6b02bd27dee.jpg",
    "icongray": "https://steamcdn-a.akamaihd.net/steamcommunity/public/images/apps/314250/e1a625ea29173399ab52426420e884153b726fe9.jpg"
  }
]