{
  "Dlcs": {
    "378620": {
      "Name": "Chicken Invaders 3 - Christmas Edition",
      "ImageUrl": "https://steamcdn-a.akamaihd.net/steam/apps/378620/header.jpg?t=1511295409"
    },
    "378621": {
      "Name": "Chicken Invaders 3 - Easter Edition",
      "ImageUrl": "https://steamcdn-a.akamaihd.net/steam/apps/378621/header.jpg?t=1447376245"
    }
  },
  "Name": "Chicken Invaders 3",
  "AppId": "377460",
  "ImageUrl": "https://steamcdn-a.akamaihd.net/steam/apps/377460/header.jpg?t=1562014970",
  "Languages": [
    "english",
    "french",
    "italian",
    "german",
    "spanish",
    "polish"
  ],
  "Platforms": {
    "windows": true,
    "mac": true,
    "linux": true
  }
}