{
  "Dlcs": {},
  "Name": "Super GTR Racing",
  "AppId": "848260",
  "ImageUrl": "https://steamcdn-a.akamaihd.net/steam/apps/848260/header.jpg?t=1526666516",
  "Languages": [
    "english"
  ],
  "Platforms": {
    "windows": true,
    "mac": true,
    "linux": true
  }
}