{
  "Dlcs": {},
  "Name": "Last Heroes 4",
  "AppId": "607020",
  "ImageUrl": "https://steamcdn-a.akamaihd.net/steam/apps/607020/header.jpg?t=1535991834",
  "Languages": [
    "english"
  ],
  "Platforms": {
    "windows": true,
    "mac": false,
    "linux": false
  }
}