[
  {
    "name": "POWER_OVERWHELMING",
    "defaultvalue": 0,
    "displayName": "Power Overwhelming",
    "hidden": 0,
    "description": "Beat the game losing 8 souls total at most.",
    "icon": "https://steamcdn-a.akamaihd.net/steamcommunity/public/images/apps/623640/6b0faf441813323047e74392482777be184ce79f.jpg",
    "icongray": "https://steamcdn-a.akamaihd.net/steamcommunity/public/images/apps/623640/5aa360571d4ee7bdbfd02796394a113de8bfbd09.jpg"
  },
  {
    "name": "FROM_THE_TOP",
    "defaultvalue": 0,
    "displayName": "From the Top",
    "hidden": 0,
    "description": "Beat the game",
    "icon": "https://steamcdn-a.akamaihd.net/steamcommunity/public/images/apps/623640/0830d5e24d6bb5eb4576c41a81b4a440a71cdc44.jpg",
    "icongray": "https://steamcdn-a.akamaihd.net/steamcommunity/public/images/apps/623640/6accfe6be81f54d1f3781d40b19c7d02f9527073.jpg"
  },
  {
    "name": "MASTER_SUKURUAME",
    "defaultvalue": 0,
    "displayName": "Master Sukurúame",
    "hidden": 0,
    "description": "Purchase All Upgrades",
    "icon": "https://steamcdn-a.akamaihd.net/steamcommunity/public/images/apps/623640/12e605fb4caefa52b01420ea6c1085102414b052.jpg",
    "icongray": "https://steamcdn-a.akamaihd.net/steamcommunity/public/images/apps/623640/fd769e4c996d3f59027dc4f495ac5f748b1286ec.jpg"
  },
  {
    "name": "FRIENDLY_FIRE",
    "defaultvalue": 0,
    "displayName": "Friendly Fire",
    "hidden": 0,
    "description": "Make an enemy kill another one by accident",
    "icon": "https://steamcdn-a.akamaihd.net/steamcommunity/public/images/apps/623640/110f9586a0235e600dbf3e31dcaa779394bbda87.jpg",
    "icongray": "https://steamcdn-a.akamaihd.net/steamcommunity/public/images/apps/623640/076561955bb44d0009ca0265f3944f9b0d58f48e.jpg"
  },
  {
    "name": "SWIFT_LANCER",
    "defaultvalue": 0,
    "displayName": "Swift Lancer",
    "hidden": 0,
    "description": "Use all combos at least once",
    "icon": "https://steamcdn-a.akamaihd.net/steamcommunity/public/images/apps/623640/e48177e121b07e38bae45351347ca9305b09b758.jpg",
    "icongray": "https://steamcdn-a.akamaihd.net/steamcommunity/public/images/apps/623640/f6d11e0715a0d9ea5d9dc1085b9fbadfdabb051c.jpg"
  },
  {
    "name": "LINK_BETWEEN_WORLDS",
    "defaultvalue": 0,
    "displayName": "A link between worlds",
    "hidden": 0,
    "description": "Interact with every ghost in the game",
    "icon": "https://steamcdn-a.akamaihd.net/steamcommunity/public/images/apps/623640/48d885a2bf245989b28bbdfaba8feb6f6e117f85.jpg",
    "icongray": "https://steamcdn-a.akamaihd.net/steamcommunity/public/images/apps/623640/140726890bc7bfe62b2f4ac1433c03066f572f2f.jpg"
  },
  {
    "name": "ONE_WITH_NATURE",
    "defaultvalue": 0,
    "displayName": "One with nature",
    "hidden": 0,
    "description": "Use each potion at least 20 times.",
    "icon": "https://steamcdn-a.akamaihd.net/steamcommunity/public/images/apps/623640/47bafc491a7ebdae45f0709709c376d5c792ea05.jpg",
    "icongray": "https://steamcdn-a.akamaihd.net/steamcommunity/public/images/apps/623640/40a9461232ce9cf0ca12aff5456412df2985110b.jpg"
  },
  {
    "name": "FINISH_HIM",
    "defaultvalue": 0,
    "displayName": "FINISH HIM!!",
    "hidden": 0,
    "description": "Defeat 50 enemies using the finisher.",
    "icon": "https://steamcdn-a.akamaihd.net/steamcommunity/public/images/apps/623640/b40443cb9063c58b452aa7e0087a46bb45c1b3a5.jpg",
    "icongray": "https://steamcdn-a.akamaihd.net/steamcommunity/public/images/apps/623640/326dda4a51e1aa853e3d4924a35147444735232e.jpg"
  },
  {
    "name": "WARRIOR",
    "defaultvalue": 0,
    "displayName": "Warrior",
    "hidden": 0,
    "description": "Defeat 200 enemies",
    "icon": "https://steamcdn-a.akamaihd.net/steamcommunity/public/images/apps/623640/12073994d38c42a0226947fbf0e65a39b019d832.jpg",
    "icongray": "https://steamcdn-a.akamaihd.net/steamcommunity/public/images/apps/623640/d2130d4178324483be4e89c4a45b010745c50f6f.jpg"
  },
  {
    "name": "BEAR_STARE",
    "defaultvalue": 0,
    "displayName": "Bear Stare",
    "hidden": 0,
    "description": "Use the Bear transformation to defeat a Boss",
    "icon": "https://steamcdn-a.akamaihd.net/steamcommunity/public/images/apps/623640/03de4bf39efb9b551914901aee239211c85dca5a.jpg",
    "icongray": "https://steamcdn-a.akamaihd.net/steamcommunity/public/images/apps/623640/d4563754eed6a88b3fae08b479ba08b657cd4cb8.jpg"
  },
  {
    "name": "PROPERTY_DAMAGE",
    "defaultvalue": 0,
    "displayName": "Property Damage",
    "hidden": 1,
    "icon": "https://steamcdn-a.akamaihd.net/steamcommunity/public/images/apps/623640/14976a8447de1d0b7c1b1863ace35b41dce0c6a1.jpg",
    "icongray": "https://steamcdn-a.akamaihd.net/steamcommunity/public/images/apps/623640/959d3033268a59e1bde48f5e60fe707d564879b2.jpg"
  },
  {
    "name": "PETA_INFORMED_PHEASANT",
    "defaultvalue": 0,
    "displayName": "PETA's been informed of your behaviour",
    "hidden": 1,
    "icon": "https://steamcdn-a.akamaihd.net/steamcommunity/public/images/apps/623640/7d21c8f35519dc13612ec0794c91ca51b36ece4f.jpg",
    "icongray": "https://steamcdn-a.akamaihd.net/steamcommunity/public/images/apps/623640/24f9b9edaf0e5ef8f219c7eecc2c3e4e1c408c4c.jpg"
  },
  {
    "name": "HIT_PAQUIME",
    "defaultvalue": 0,
    "displayName": "This is not Zel..that game",
    "hidden": 1,
    "icon": "https://steamcdn-a.akamaihd.net/steamcommunity/public/images/apps/623640/11d6155cbe7cc8c9bf214f1022c65cbddf90bb77.jpg",
    "icongray": "https://steamcdn-a.akamaihd.net/steamcommunity/public/images/apps/623640/8f36f38378951b42d37240045fb5d746ea9a6900.jpg"
  },
  {
    "name": "LIGHT_FEET",
    "defaultvalue": 0,
    "displayName": "Light Feet",
    "hidden": 1,
    "icon": "https://steamcdn-a.akamaihd.net/steamcommunity/public/images/apps/623640/4b5c13e6f15438faae0065f22909f7259bd50e60.jpg",
    "icongray": "https://steamcdn-a.akamaihd.net/steamcommunity/public/images/apps/623640/468384b82e403e7de1d8ad4d052f94f961d840ca.jpg"
  }
]