{
  "Dlcs": {},
  "Name": "RADARjAM",
  "AppId": "1258000",
  "ImageUrl": "https://steamcdn-a.akamaihd.net/steam/apps/1258000/header.jpg?t=1599805853",
  "Languages": [
    "english"
  ],
  "Platforms": {
    "windows": true,
    "mac": false,
    "linux": false
  }
}