{
  "Dlcs": {},
  "Name": "Sporadic Spire",
  "AppId": "1346240",
  "ImageUrl": "https://steamcdn-a.akamaihd.net/steam/apps/1346240/header.jpg?t=1596842409",
  "Languages": [
    "english"
  ],
  "Platforms": {
    "windows": true,
    "mac": false,
    "linux": false
  }
}