﻿{
  "Dlcs": {
    "385520": {
      "Name": "The Kickstarter Avoidance Album",
      "ImageUrl": "https://steamcdn-a.akamaihd.net/steam/apps/385520/header.jpg?t=1524327542"
    }
  },
  "Name": "NotTheNameWeWanted",
  "AppId": "369580",
  "ImageUrl": "https://steamcdn-a.akamaihd.net/steam/apps/369580/header.jpg?t=1524327505",
  "Languages": [
    "english"
  ],
  "Platforms": {
    "windows": true,
    "mac": true,
    "linux": true
  }
}