{
  "Dlcs": {},
  "Name": "Space Bound",
  "AppId": "1031370",
  "ImageUrl": "https://steamcdn-a.akamaihd.net/steam/apps/1031370/header.jpg?t=1571224618",
  "Languages": [
    "english"
  ],
  "Platforms": {
    "windows": true,
    "mac": false,
    "linux": false
  }
}