{
  "Dlcs": {},
  "Name": "Quartermaster",
  "AppId": "1046460",
  "ImageUrl": "https://steamcdn-a.akamaihd.net/steam/apps/1046460/header.jpg?t=1568387091",
  "Languages": [
    "english",
    "polish",
    "french",
    "italian",
    "german",
    "spanish",
    "japanese",
    "russian",
    "schinese",
    "turkish"
  ],
  "Platforms": {
    "windows": true,
    "mac": false,
    "linux": false
  }
}