﻿{
  "Dlcs": {},
  "Name": "Bionic Commando",
  "AppId": "21670",
  "ImageUrl": "https://steamcdn-a.akamaihd.net/steam/apps/21670/header.jpg?t=1582596024",
  "Languages": [
    "english",
    "french",
    "spanish",
    "italian",
    "german;",
    "russian",
    "polish",
    "japanese",
    "german",
    "korean"
  ],
  "Platforms": {
    "windows": true,
    "mac": false,
    "linux": false
  }
}