[
  {
    "name": "Rookie",
    "defaultvalue": 0,
    "displayName": "Rookie",
    "hidden": 0,
    "description": " Survive a wave of enemies",
    "icon": "https://steamcdn-a.akamaihd.net/steamcommunity/public/images/apps/1046750/349692336e2af05acdef38036efd9cf54c56ea82.jpg",
    "icongray": "https://steamcdn-a.akamaihd.net/steamcommunity/public/images/apps/1046750/a808856bc94fb8b06c4eda21d2335d1feb653694.jpg"
  },
  {
    "name": "Beginner_Soldier",
    "defaultvalue": 0,
    "displayName": "Beginner Soldier",
    "hidden": 0,
    "description": "Survive ten waves in a row",
    "icon": "https://steamcdn-a.akamaihd.net/steamcommunity/public/images/apps/1046750/39b1df513a8995906d0ff951a6b210efcb1819ce.jpg",
    "icongray": "https://steamcdn-a.akamaihd.net/steamcommunity/public/images/apps/1046750/775133235e6038eb3fe5c9e0ff33557b5cbc40b8.jpg"
  },
  {
    "name": "Professional_Soldier",
    "defaultvalue": 0,
    "displayName": "Professional Soldier",
    "hidden": 0,
    "description": "Survive twenty-five waves in a row",
    "icon": "https://steamcdn-a.akamaihd.net/steamcommunity/public/images/apps/1046750/ae1e32393e536e542419ea42e15eb360b1d12266.jpg",
    "icongray": "https://steamcdn-a.akamaihd.net/steamcommunity/public/images/apps/1046750/e75cee04eb227eee365ab3fa1e89ecbddc8132c5.jpg"
  },
  {
    "name": "Legendary_Soldier",
    "defaultvalue": 0,
    "displayName": "Legendary Soldier",
    "hidden": 0,
    "description": "Survive fifty waves in a row",
    "icon": "https://steamcdn-a.akamaihd.net/steamcommunity/public/images/apps/1046750/1ada82ec9fac50869248bd6888c58ab31b80c768.jpg",
    "icongray": "https://steamcdn-a.akamaihd.net/steamcommunity/public/images/apps/1046750/aacbbc64c12138cf1a393fbe54656f2165ad9908.jpg"
  },
  {
    "name": "They_explode",
    "defaultvalue": 0,
    "displayName": "They explode ?!",
    "hidden": 0,
    "description": "Open a box",
    "icon": "https://steamcdn-a.akamaihd.net/steamcommunity/public/images/apps/1046750/da5245025e2397551533b173b4a3771343b7d01e.jpg",
    "icongray": "https://steamcdn-a.akamaihd.net/steamcommunity/public/images/apps/1046750/7d5161695fb98bc86e32d8b355af22ef25942ba2.jpg"
  },
  {
    "name": "Payday",
    "defaultvalue": 0,
    "displayName": "Payday ",
    "hidden": 0,
    "description": "Open ten boxes",
    "icon": "https://steamcdn-a.akamaihd.net/steamcommunity/public/images/apps/1046750/39e5929b24c4b3049509b4ff9975e0535615df6e.jpg",
    "icongray": "https://steamcdn-a.akamaihd.net/steamcommunity/public/images/apps/1046750/d66e91050ea84be39eb05b7a75adf8d890d615b8.jpg"
  },
  {
    "name": "Soldier_of_Fortune",
    "defaultvalue": 0,
    "displayName": "Soldier of Fortune",
    "hidden": 0,
    "description": "Open twenty-five boxex",
    "icon": "https://steamcdn-a.akamaihd.net/steamcommunity/public/images/apps/1046750/6643994b78aeae93428202f839d46227a7175a3c.jpg",
    "icongray": "https://steamcdn-a.akamaihd.net/steamcommunity/public/images/apps/1046750/c9d3e4cad0c23c09dab4b13b97b28ba4b240ae45.jpg"
  },
  {
    "name": "Buy_your_first_MOD",
    "defaultvalue": 0,
    "displayName": "MOD",
    "hidden": 0,
    "description": "Buy a mod",
    "icon": "https://steamcdn-a.akamaihd.net/steamcommunity/public/images/apps/1046750/83bfb4dcad2f53a7a14a7d3749bd562d46025bcb.jpg",
    "icongray": "https://steamcdn-a.akamaihd.net/steamcommunity/public/images/apps/1046750/a64149d965faa08110d10f2f7379fc9ef1d78774.jpg"
  },
  {
    "name": "Mod_fan",
    "defaultvalue": 0,
    "displayName": "Mod fan",
    "hidden": 0,
    "description": "Buy five mods",
    "icon": "https://steamcdn-a.akamaihd.net/steamcommunity/public/images/apps/1046750/1f3be49e2d5d246bd43b0baf862e18e1155377e5.jpg",
    "icongray": "https://steamcdn-a.akamaihd.net/steamcommunity/public/images/apps/1046750/d69182b305379bc2f377fa96a64380a2d038d2d6.jpg"
  },
  {
    "name": "Mod_collector",
    "defaultvalue": 0,
    "displayName": "Mod collector",
    "hidden": 0,
    "description": "Buy ten mods",
    "icon": "https://steamcdn-a.akamaihd.net/steamcommunity/public/images/apps/1046750/7eda4de9c696df2efca971615ee7416ccd07826f.jpg",
    "icongray": "https://steamcdn-a.akamaihd.net/steamcommunity/public/images/apps/1046750/922820104d2e175c2c2629bf98ff5e834f74aa25.jpg"
  },
  {
    "name": "Hardcore_soldier",
    "defaultvalue": 0,
    "displayName": "Hardcore soldier",
    "hidden": 0,
    "description": "Got more than 50% extra xp using mods",
    "icon": "https://steamcdn-a.akamaihd.net/steamcommunity/public/images/apps/1046750/2929d1289a085af800b0f771ef95f903cac300f0.jpg",
    "icongray": "https://steamcdn-a.akamaihd.net/steamcommunity/public/images/apps/1046750/65e8a6251955108945df258edf318ba9bc3c9483.jpg"
  },
  {
    "name": "Weapon_Collector",
    "defaultvalue": 0,
    "displayName": "Weapon Collector",
    "hidden": 0,
    "description": "Get at least one weapon of each type",
    "icon": "https://steamcdn-a.akamaihd.net/steamcommunity/public/images/apps/1046750/2a111fa3f47e69057d53942edcb343d6311720c7.jpg",
    "icongray": "https://steamcdn-a.akamaihd.net/steamcommunity/public/images/apps/1046750/850043640fa0957dd53411aa03fa2e09b3b47aa1.jpg"
  },
  {
    "name": "An_human_win",
    "defaultvalue": 0,
    "displayName": "An human win",
    "hidden": 0,
    "description": "Win any horde stage",
    "icon": "https://steamcdn-a.akamaihd.net/steamcommunity/public/images/apps/1046750/0e99275dbf5e21efc63a082fbd741ce72189f94d.jpg",
    "icongray": "https://steamcdn-a.akamaihd.net/steamcommunity/public/images/apps/1046750/06452cd1744e2c0d902a73382d48ffac0775ea13.jpg"
  },
  {
    "name": "War_hero",
    "defaultvalue": 0,
    "displayName": "War hero",
    "hidden": 0,
    "description": "Win two horde stages",
    "icon": "https://steamcdn-a.akamaihd.net/steamcommunity/public/images/apps/1046750/c59d59fee6a094f86f94ee8a7d757804a9fa7d8b.jpg",
    "icongray": "https://steamcdn-a.akamaihd.net/steamcommunity/public/images/apps/1046750/06452cd1744e2c0d902a73382d48ffac0775ea13.jpg"
  },
  {
    "name": "Savior",
    "defaultvalue": 0,
    "displayName": "Savior ",
    "hidden": 0,
    "description": "Win all horde maps",
    "icon": "https://steamcdn-a.akamaihd.net/steamcommunity/public/images/apps/1046750/856d3a2e31f3716889a012c5092adbc2412ad3c2.jpg",
    "icongray": "https://steamcdn-a.akamaihd.net/steamcommunity/public/images/apps/1046750/06452cd1744e2c0d902a73382d48ffac0775ea13.jpg"
  },
  {
    "name": "Make_over_1000_points",
    "defaultvalue": 0,
    "displayName": "Skillful",
    "hidden": 0,
    "description": "Make over 50.000 points in any horde stage",
    "icon": "https://steamcdn-a.akamaihd.net/steamcommunity/public/images/apps/1046750/d0c95fcd03e4663b07e48da7fac9c82d99632169.jpg",
    "icongray": "https://steamcdn-a.akamaihd.net/steamcommunity/public/images/apps/1046750/ce18031cc41a6c078e397363f5db50a6378580cb.jpg"
  },
  {
    "name": "From_Greek_strateegia",
    "defaultvalue": 0,
    "displayName": "From Greek strateegia",
    "hidden": 0,
    "description": "Equip three skills ",
    "icon": "https://steamcdn-a.akamaihd.net/steamcommunity/public/images/apps/1046750/e38cbed7d65087843fe5e9b6aed1700be76eea95.jpg",
    "icongray": "https://steamcdn-a.akamaihd.net/steamcommunity/public/images/apps/1046750/b63cc759b7e22ce1fcb6d67675c0e4a29d2e17a7.jpg"
  },
  {
    "name": "Rich",
    "defaultvalue": 0,
    "displayName": "Rich",
    "hidden": 0,
    "description": "Get more than 10.000 gold in horde mode",
    "icon": "https://steamcdn-a.akamaihd.net/steamcommunity/public/images/apps/1046750/8984683c07af7b6211089c9d2d8a3ddc486b3a6f.jpg",
    "icongray": "https://steamcdn-a.akamaihd.net/steamcommunity/public/images/apps/1046750/29edeff8bfcd133f83a98eb43002406a4ce9b10e.jpg"
  },
  {
    "name": "Mission_01",
    "defaultvalue": 0,
    "displayName": "Just getting started",
    "hidden": 0,
    "description": "Complete the first challenge",
    "icon": "https://steamcdn-a.akamaihd.net/steamcommunity/public/images/apps/1046750/7ca90b2527a66277144d076159b0d96f628dd4a1.jpg",
    "icongray": "https://steamcdn-a.akamaihd.net/steamcommunity/public/images/apps/1046750/03d15fe915c43b274af0417aea6781eee7033439.jpg"
  },
  {
    "name": "Mission_02",
    "defaultvalue": 0,
    "displayName": "They are nasty",
    "hidden": 0,
    "description": "Complete the second challenge",
    "icon": "https://steamcdn-a.akamaihd.net/steamcommunity/public/images/apps/1046750/042016835a1bc25f7f8ea095b3adbd8fb9f44650.jpg",
    "icongray": "https://steamcdn-a.akamaihd.net/steamcommunity/public/images/apps/1046750/d98bba23fec4374d7fd6f9b477310504ff01d18b.jpg"
  },
  {
    "name": "Mission_03",
    "defaultvalue": 0,
    "displayName": "They shoot ?!",
    "hidden": 0,
    "description": "Complete the third challenge",
    "icon": "https://steamcdn-a.akamaihd.net/steamcommunity/public/images/apps/1046750/7257ebc0322d256365d5c958a99cedcbb49a508b.jpg",
    "icongray": "https://steamcdn-a.akamaihd.net/steamcommunity/public/images/apps/1046750/2e21f2b7aa9ce4be432126b594ab2949071b45aa.jpg"
  },
  {
    "name": "Mission_04",
    "defaultvalue": 0,
    "displayName": "Oh, the big one",
    "hidden": 0,
    "description": "Complete the fourth challenge",
    "icon": "https://steamcdn-a.akamaihd.net/steamcommunity/public/images/apps/1046750/59d88ae95e4d6e1dd047297acc069e5bb7d306ba.jpg",
    "icongray": "https://steamcdn-a.akamaihd.net/steamcommunity/public/images/apps/1046750/af020a232080f774cea189944928a7db542a65cc.jpg"
  },
  {
    "name": "Mission_05",
    "defaultvalue": 0,
    "displayName": "Alien extinction",
    "hidden": 0,
    "description": "Complete the fifth challenge",
    "icon": "https://steamcdn-a.akamaihd.net/steamcommunity/public/images/apps/1046750/ec688c128c4d51de28cd76769eb78ce0f56cd4df.jpg",
    "icongray": "https://steamcdn-a.akamaihd.net/steamcommunity/public/images/apps/1046750/7d8d05da7bd8dc47d25a409e4362c05d1732f9b7.jpg"
  }
]