[
  {
    "name": "SECTOR_ACHIEVEMENT",
    "defaultvalue": 0,
    "displayName": "Sector Clear!",
    "hidden": 0,
    "description": "Reach Sector 2",
    "icon": "https://steamcdn-a.akamaihd.net/steamcommunity/public/images/apps/371000/8f6c1ebd856bcaf52b3ba17118a79fa5ed6a2f87.jpg",
    "icongray": "https://steamcdn-a.akamaihd.net/steamcommunity/public/images/apps/371000/b3e42e03487ccba25ea867be90222ea5876d2073.jpg"
  },
  {
    "name": "DEATH_ACHIEVEMENT",
    "defaultvalue": 0,
    "displayName": "A Place to Rest",
    "hidden": 0,
    "description": "End the game between 1200 and 1300 meters",
    "icon": "https://steamcdn-a.akamaihd.net/steamcommunity/public/images/apps/371000/35a30b6c6424201bc42f51d7029038d0de3d680d.jpg",
    "icongray": "https://steamcdn-a.akamaihd.net/steamcommunity/public/images/apps/371000/24d96f47e9735f40e80906348463457c6e2ce0c5.jpg"
  },
  {
    "name": "ROPES_ACHIEVEMENT",
    "defaultvalue": 0,
    "displayName": "I'm the King of the Jungle",
    "hidden": 0,
    "description": "Grab 8 Ropes in a single run",
    "icon": "https://steamcdn-a.akamaihd.net/steamcommunity/public/images/apps/371000/a07cd25dfe07501b8b12f4c7120cf4f4f374a123.jpg",
    "icongray": "https://steamcdn-a.akamaihd.net/steamcommunity/public/images/apps/371000/7a21d5ea3baedca15b2e7d2237c2ae6084b0a1ec.jpg"
  },
  {
    "name": "GUYS_ACHIEVEMENT",
    "defaultvalue": 0,
    "displayName": "Where the hood at?",
    "hidden": 0,
    "description": "Rescue 10 miners in a single run",
    "icon": "https://steamcdn-a.akamaihd.net/steamcommunity/public/images/apps/371000/fa39136f5e662865c29b7f15f339cc607bc04e1a.jpg",
    "icongray": "https://steamcdn-a.akamaihd.net/steamcommunity/public/images/apps/371000/bfbd5ef5f6d7f6e1c48da2e3d0be6eb1a8ec6935.jpg"
  },
  {
    "name": "RUN_ACHIEVEMENT",
    "defaultvalue": 0,
    "displayName": "Best Friends 4 Ever",
    "hidden": 0,
    "description": "Run 2000m with the minecart fully loaded",
    "icon": "https://steamcdn-a.akamaihd.net/steamcommunity/public/images/apps/371000/7f2e8ace95de9c9d8126f8ef47352a385d9479ef.jpg",
    "icongray": "https://steamcdn-a.akamaihd.net/steamcommunity/public/images/apps/371000/573ab03bf1ad792cff6d1bd0c1e126e4c6b16bea.jpg"
  },
  {
    "name": "RICH_ACHIEVEMENT",
    "defaultvalue": 0,
    "displayName": "Get rich or die trying",
    "hidden": 0,
    "description": "Collect 1500 stones in a single run",
    "icon": "https://steamcdn-a.akamaihd.net/steamcommunity/public/images/apps/371000/4586cb5504e08ec5b7c51bf96b1d99226351a84a.jpg",
    "icongray": "https://steamcdn-a.akamaihd.net/steamcommunity/public/images/apps/371000/7da9479aca5bfac7f5551fd02726fea1b5f8b378.jpg"
  }
]