﻿[
  {
    "name": "cre_attack_orange",
    "defaultvalue": 0,
    "displayName": "The Ol' Citrus Changeup",
    "hidden": 0,
    "description": "Hit the creature with an orange",
    "icon": "https://steamcdn-a.akamaihd.net/steamcommunity/public/images/apps/223510/40328d973e302e7ef6ce8d7ce413a8df63123895.jpg",
    "icongray": "https://steamcdn-a.akamaihd.net/steamcommunity/public/images/apps/223510/6d2a629e04df182343e3acae1dbfa15b727d5e07.jpg"
  },
  {
    "name": "cre_attack_banana",
    "defaultvalue": 0,
    "displayName": "The Banana Bammer",
    "hidden": 0,
    "description": "Hit the creature with a banana",
    "icon": "https://steamcdn-a.akamaihd.net/steamcommunity/public/images/apps/223510/eb46d10e127c11266280a360bba557548d719a6c.jpg",
    "icongray": "https://steamcdn-a.akamaihd.net/steamcommunity/public/images/apps/223510/e1f57d9bf91340027fc55fc350d95deec2258d00.jpg"
  },
  {
    "name": "cre_attack_apple",
    "defaultvalue": 0,
    "displayName": "An Apple Assault",
    "hidden": 0,
    "description": "Hit the creature with an apple",
    "icon": "https://steamcdn-a.akamaihd.net/steamcommunity/public/images/apps/223510/ee69f8020f7a5c4bafc62f34458530883de39927.jpg",
    "icongray": "https://steamcdn-a.akamaihd.net/steamcommunity/public/images/apps/223510/ad527751a13fdf4abfd194f6cf4cf45e1b4dc66c.jpg"
  },
  {
    "name": "cre_attack_can",
    "defaultvalue": 0,
    "displayName": "The ol' Tin Can TKO",
    "hidden": 0,
    "description": "Hit the creature with a tin can",
    "icon": "https://steamcdn-a.akamaihd.net/steamcommunity/public/images/apps/223510/0c26a0193920571b549b3155e72a698de2cd0c7a.jpg",
    "icongray": "https://steamcdn-a.akamaihd.net/steamcommunity/public/images/apps/223510/16ac2fb2325c2cea5a54faef1ae265e1d96e2f67.jpg"
  },
  {
    "name": "victory_3days",
    "defaultvalue": 0,
    "displayName": "In 3 days? Yeah right!",
    "hidden": 0,
    "description": "Beat the game in 3 days or less",
    "icon": "https://steamcdn-a.akamaihd.net/steamcommunity/public/images/apps/223510/a8536f7b720d92754ef684de43646f36d1f8cb75.jpg",
    "icongray": "https://steamcdn-a.akamaihd.net/steamcommunity/public/images/apps/223510/ce12605b8a3bd3a4fab395e219610d3140eb01f4.jpg"
  },
  {
    "name": "victory_7days",
    "defaultvalue": 0,
    "displayName": "In under a week? Can't be done!",
    "hidden": 0,
    "description": "Beat the game in 7 days or less",
    "icon": "https://steamcdn-a.akamaihd.net/steamcommunity/public/images/apps/223510/feca45b160ada7c82ad84bc5b5d33d646b7687a5.jpg",
    "icongray": "https://steamcdn-a.akamaihd.net/steamcommunity/public/images/apps/223510/95b0130303299b4b3d261f753876c692c7370f92.jpg"
  },
  {
    "name": "death_drowning",
    "defaultvalue": 0,
    "displayName": "I told you to wait 30 minutes",
    "hidden": 0,
    "description": "Die from drowning",
    "icon": "https://steamcdn-a.akamaihd.net/steamcommunity/public/images/apps/223510/9be54928832d86f1efd76c20dd11b0809c714d3b.jpg",
    "icongray": "https://steamcdn-a.akamaihd.net/steamcommunity/public/images/apps/223510/dedb24a2b14ed39a879bb68d25e18539349d3e2f.jpg"
  },
  {
    "name": "journal_allnotes",
    "defaultvalue": 0,
    "displayName": "Just doing some light reading?",
    "hidden": 0,
    "description": "Collect every note",
    "icon": "https://steamcdn-a.akamaihd.net/steamcommunity/public/images/apps/223510/c33f418a87debea59ace4bcd369ca8e94a3f8269.jpg",
    "icongray": "https://steamcdn-a.akamaihd.net/steamcommunity/public/images/apps/223510/d0f9ad401792275df400f298178a27244144275b.jpg"
  },
  {
    "name": "journal_allplants",
    "defaultvalue": 0,
    "displayName": "Botanical Bad A**",
    "hidden": 0,
    "description": "collect 32 unique plant/fungi",
    "icon": "https://steamcdn-a.akamaihd.net/steamcommunity/public/images/apps/223510/0ab2a3f87b0a61a23072d1c605e128083619a5c8.jpg",
    "icongray": "https://steamcdn-a.akamaihd.net/steamcommunity/public/images/apps/223510/092f162a8e3c2082cf102abe212cfc0eb95ab1db.jpg"
  },
  {
    "name": "use_all_drugs",
    "defaultvalue": 0,
    "displayName": "It may be time for an intervention",
    "hidden": 0,
    "description": "Use every medicine",
    "icon": "https://steamcdn-a.akamaihd.net/steamcommunity/public/images/apps/223510/ccb4d0e24f384f6c00007e993e3d3786b4af25b8.jpg",
    "icongray": "https://steamcdn-a.akamaihd.net/steamcommunity/public/images/apps/223510/fe383aa88811c2a7e0e7fa8df0c124d930c0f589.jpg"
  },
  {
    "name": "activate_all_urns",
    "defaultvalue": 0,
    "displayName": "Pyro",
    "hidden": 0,
    "description": "Light every urn on the island",
    "icon": "https://steamcdn-a.akamaihd.net/steamcommunity/public/images/apps/223510/8f03808e9e9e48b7d12d617d9138e6173bec29b2.jpg",
    "icongray": "https://steamcdn-a.akamaihd.net/steamcommunity/public/images/apps/223510/099c79669d657bc03ec36bd6230bbcad84fdb48e.jpg"
  },
  {
    "name": "map_coastline",
    "defaultvalue": 0,
    "displayName": "The Bored Cartographer",
    "hidden": 0,
    "description": "Map the entire mainland coastline",
    "icon": "https://steamcdn-a.akamaihd.net/steamcommunity/public/images/apps/223510/11a657cbcdc1e3be124e5a786a96d6e7935e6d6c.jpg",
    "icongray": "https://steamcdn-a.akamaihd.net/steamcommunity/public/images/apps/223510/9129271abb7521a8a3275834038b0b2c8a266b5e.jpg"
  },
  {
    "name": "highest_point",
    "defaultvalue": 0,
    "displayName": "Crazy Climber",
    "hidden": 0,
    "description": "Go to the island's highest point",
    "icon": "https://steamcdn-a.akamaihd.net/steamcommunity/public/images/apps/223510/8b5d454a1dfff178d01d53a1fd1a0394e09fe61b.jpg",
    "icongray": "https://steamcdn-a.akamaihd.net/steamcommunity/public/images/apps/223510/db395af0cb50abb58c971235d9e9ae0cecf07ce1.jpg"
  },
  {
    "name": "basic_medicine",
    "defaultvalue": 0,
    "displayName": "Tylenol Tommy",
    "hidden": 0,
    "description": "Synthesize Basic Medicine",
    "icon": "https://steamcdn-a.akamaihd.net/steamcommunity/public/images/apps/223510/299733795a4dd4f32cd8cdedac388a0ebe7758b1.jpg",
    "icongray": "https://steamcdn-a.akamaihd.net/steamcommunity/public/images/apps/223510/1f1da860150aee4e5c81137581024d6619bcef9e.jpg"
  },
  {
    "name": "strong_medicine",
    "defaultvalue": 0,
    "displayName": "Make it Strong",
    "hidden": 0,
    "description": "Synthesize Extra Strength Medicine",
    "icon": "https://steamcdn-a.akamaihd.net/steamcommunity/public/images/apps/223510/6f4af6b6a6cdff6ca9bec274d01c6fd3ade5c041.jpg",
    "icongray": "https://steamcdn-a.akamaihd.net/steamcommunity/public/images/apps/223510/14553555efb06de30a298a7533471aa848499224.jpg"
  },
  {
    "name": "mental_stimulant",
    "defaultvalue": 0,
    "displayName": "Oh, my glorious brain...",
    "hidden": 0,
    "description": "Synthesize a Mental Stimulant",
    "icon": "https://steamcdn-a.akamaihd.net/steamcommunity/public/images/apps/223510/ff214e6a09a7a8d73ce2e0f2ae41373520158509.jpg",
    "icongray": "https://steamcdn-a.akamaihd.net/steamcommunity/public/images/apps/223510/e333afbbfde8d3dd9ecc6c155b9f6998d8d6481c.jpg"
  },
  {
    "name": "energy_stimulant",
    "defaultvalue": 0,
    "displayName": "It takes just seconds to eat",
    "hidden": 0,
    "description": "Synthesize an Energy Stimulant",
    "icon": "https://steamcdn-a.akamaihd.net/steamcommunity/public/images/apps/223510/32e4154f798a165988689719caa3ec8fbfbdbb9e.jpg",
    "icongray": "https://steamcdn-a.akamaihd.net/steamcommunity/public/images/apps/223510/18f026fc2ab32c606948c1a52409badc76c88297.jpg"
  },
  {
    "name": "clarity_tonic",
    "defaultvalue": 0,
    "displayName": "I can like... see man",
    "hidden": 0,
    "description": "Synthesize a Clarity Tonic",
    "icon": "https://steamcdn-a.akamaihd.net/steamcommunity/public/images/apps/223510/b27e119d63ba56886c37b77f9ee9f7b116dfad55.jpg",
    "icongray": "https://steamcdn-a.akamaihd.net/steamcommunity/public/images/apps/223510/986feb123ed7485027d9f1002cac3277b667b5ac.jpg"
  },
  {
    "name": "herculean_tonic",
    "defaultvalue": 0,
    "displayName": "A Sorbo Smoothie",
    "hidden": 0,
    "description": "Synthesize a Herculean Tonic",
    "icon": "https://steamcdn-a.akamaihd.net/steamcommunity/public/images/apps/223510/c58ee5bde946f74a43cfd235612dbd1201a668aa.jpg",
    "icongray": "https://steamcdn-a.akamaihd.net/steamcommunity/public/images/apps/223510/8ffca2b6445a27aa3fff671fdbe66a47dce453d7.jpg"
  },
  {
    "name": "endurance_emphasis",
    "defaultvalue": 0,
    "displayName": "Stick it",
    "hidden": 0,
    "description": "Synthesize Endurance Emphasis",
    "icon": "https://steamcdn-a.akamaihd.net/steamcommunity/public/images/apps/223510/4a1a786c4e266c35c6f968033b0cb1c5efc5545c.jpg",
    "icongray": "https://steamcdn-a.akamaihd.net/steamcommunity/public/images/apps/223510/56e99a75d49bce6d5c530f50c748271670d5b041.jpg"
  },
  {
    "name": "muscle_emphasis",
    "defaultvalue": 0,
    "displayName": "Pump it up",
    "hidden": 0,
    "description": "Synthesize Muscle Emphasis",
    "icon": "https://steamcdn-a.akamaihd.net/steamcommunity/public/images/apps/223510/4f15ee31c0d9df04b097e4b93ea47dfeed8ea470.jpg",
    "icongray": "https://steamcdn-a.akamaihd.net/steamcommunity/public/images/apps/223510/180ebe29b2151b83f51c844834a81007d3d1449a.jpg"
  },
  {
    "name": "brain_emphasis",
    "defaultvalue": 0,
    "displayName": "I think therfore I am",
    "hidden": 0,
    "description": "Synthesize Brain Emphasis",
    "icon": "https://steamcdn-a.akamaihd.net/steamcommunity/public/images/apps/223510/fc76652a371b440cf7ee589dcfb6f5573baaa1ff.jpg",
    "icongray": "https://steamcdn-a.akamaihd.net/steamcommunity/public/images/apps/223510/73089670e8ffabfd612ef034f1b324131dcac079.jpg"
  },
  {
    "name": "triangulate_yourself",
    "defaultvalue": 0,
    "displayName": "You are here",
    "hidden": 0,
    "description": "Triangulate your location",
    "icon": "https://steamcdn-a.akamaihd.net/steamcommunity/public/images/apps/223510/80732237c4219040b5b6a1d80364551867e7eb92.jpg",
    "icongray": "https://steamcdn-a.akamaihd.net/steamcommunity/public/images/apps/223510/3a2b8cb70ed4814741dbae6840b03999e07d8028.jpg"
  },
  {
    "name": "triangulate_landmark",
    "defaultvalue": 0,
    "displayName": "It is there",
    "hidden": 0,
    "description": "Triangulate a distant landmark",
    "icon": "https://steamcdn-a.akamaihd.net/steamcommunity/public/images/apps/223510/9f1c9e8e47bddce215f32f90ef0fa6cff64e5861.jpg",
    "icongray": "https://steamcdn-a.akamaihd.net/steamcommunity/public/images/apps/223510/2d8da3536a0a25431637bbfe01ef23a353283fff.jpg"
  },
  {
    "name": "hide_success",
    "defaultvalue": 0,
    "displayName": "Duck and cover!",
    "hidden": 0,
    "description": "Successfully hide from the creature",
    "icon": "https://steamcdn-a.akamaihd.net/steamcommunity/public/images/apps/223510/139f91b3640a57024f0af6e828c8a5676d42db39.jpg",
    "icongray": "https://steamcdn-a.akamaihd.net/steamcommunity/public/images/apps/223510/013abdbc7039c2d6fe28a9680f3d04836a2282c2.jpg"
  },
  {
    "name": "distract_creature",
    "defaultvalue": 0,
    "displayName": "Fetch!",
    "hidden": 0,
    "description": "Distract the creature",
    "icon": "https://steamcdn-a.akamaihd.net/steamcommunity/public/images/apps/223510/bb14ac4a2d511c845ef94ab9279194180dd9c5ce.jpg",
    "icongray": "https://steamcdn-a.akamaihd.net/steamcommunity/public/images/apps/223510/ca4f08469c3c74dbfcfaf6b98eff0a9434dc7df1.jpg"
  },
  {
    "name": "map_heads",
    "defaultvalue": 0,
    "displayName": "That's a lot of head statues",
    "hidden": 0,
    "description": "Add all head statues to the map",
    "icon": "https://steamcdn-a.akamaihd.net/steamcommunity/public/images/apps/223510/1efa5a9dc322aadcf0d4c94bb685e4c039d541c6.jpg",
    "icongray": "https://steamcdn-a.akamaihd.net/steamcommunity/public/images/apps/223510/5eef2b755e76b50950ee5235807382dc87638416.jpg"
  }
]