[
  {
    "name": "Morse_Morse",
    "defaultvalue": 0,
    "displayName": "Morse"
  },
  {
    "name": "Gold_Gold",
    "defaultvalue": 0,
    "displayName": "Gold"
  },
  {
    "name": "Silver_Silver",
    "defaultvalue": 0,
    "displayName": "Silver"
  },
  {
    "name": "Bronze_Bronze",
    "defaultvalue": 0,
    "displayName": "Bronze"
  },
  {
    "name": "Perfect_Perfect",
    "defaultvalue": 0,
    "displayName": "Perfect"
  },
  {
    "name": "Fan_Fan",
    "defaultvalue": 0,
    "displayName": "Fan"
  },
  {
    "name": "Goku_Goku",
    "defaultvalue": 0,
    "displayName": "Goku"
  }
]