{
  "Dlcs": {},
  "Name": "Eldritch University",
  "AppId": "1132290",
  "ImageUrl": "https://steamcdn-a.akamaihd.net/steam/apps/1132290/header.jpg?t=1591938296",
  "Languages": [
    "english"
  ],
  "Platforms": {
    "windows": true,
    "mac": true,
    "linux": true
  }
}