﻿[
  {
    "name": "CC1_CP_1to5",
    "defaultvalue": 0,
    "displayName": "First Five",
    "hidden": 0,
    "description": "Completed all the levels between 1 & 5",
    "icon": "https://steamcdn-a.akamaihd.net/steamcommunity/public/images/apps/346850/fb132ea81e7a4869546d10f6dc102e10711a6cff.jpg",
    "icongray": "https://steamcdn-a.akamaihd.net/steamcommunity/public/images/apps/346850/6cb22c5b69b5b7b10a8654861fadc124dfe0d53b.jpg"
  },
  {
    "name": "CC1_CP_1to20",
    "defaultvalue": 0,
    "displayName": "Completed 1 to 20",
    "hidden": 0,
    "description": "Completed all the levels between 1 & 20",
    "icon": "https://steamcdn-a.akamaihd.net/steamcommunity/public/images/apps/346850/a00b646ad3efc4cfae9aebb72dfca6c076e22513.jpg",
    "icongray": "https://steamcdn-a.akamaihd.net/steamcommunity/public/images/apps/346850/571fee48c6eae05b4376c3a427dbbc13d28d91e7.jpg"
  },
  {
    "name": "CC1_CP_21to40",
    "defaultvalue": 0,
    "displayName": "Completed 21 to 40",
    "hidden": 0,
    "description": "Completed all the levels between 21 & 40",
    "icon": "https://steamcdn-a.akamaihd.net/steamcommunity/public/images/apps/346850/fb322a805f358daa25dfe88f9a871ddc0738bdd3.jpg",
    "icongray": "https://steamcdn-a.akamaihd.net/steamcommunity/public/images/apps/346850/bc0bba57857f7a57cac806279a0fb99fa7f59c38.jpg"
  },
  {
    "name": "CC1_CP_41to60",
    "defaultvalue": 0,
    "displayName": "Completed 41 to 60",
    "hidden": 0,
    "description": "Completed all the levels between 41 & 60",
    "icon": "https://steamcdn-a.akamaihd.net/steamcommunity/public/images/apps/346850/ed4b562c681d59b77421c327ade0a0faa1693b06.jpg",
    "icongray": "https://steamcdn-a.akamaihd.net/steamcommunity/public/images/apps/346850/9016cd122400002d5625905cf4b34047d6e5bc94.jpg"
  },
  {
    "name": "CC1_CP_61to80",
    "defaultvalue": 0,
    "displayName": "Completed 61 to 80",
    "hidden": 0,
    "description": "Completed all the levels between 61 & 80",
    "icon": "https://steamcdn-a.akamaihd.net/steamcommunity/public/images/apps/346850/e10cb7c1923faa4086e5d6c966538c7c77bfe399.jpg",
    "icongray": "https://steamcdn-a.akamaihd.net/steamcommunity/public/images/apps/346850/759710c72d2638a919c90f330f0a068fbc4a7126.jpg"
  },
  {
    "name": "CC1_CP_81to100",
    "defaultvalue": 0,
    "displayName": "Completed 81 to 100",
    "hidden": 0,
    "description": "Completed all the levels between 81 & 100",
    "icon": "https://steamcdn-a.akamaihd.net/steamcommunity/public/images/apps/346850/b4b8e383425de5cb8dbb0f752948197ae05e26b0.jpg",
    "icongray": "https://steamcdn-a.akamaihd.net/steamcommunity/public/images/apps/346850/891cdc806875853328315207a05910e32cf9f955.jpg"
  },
  {
    "name": "CC1_CP_101to120",
    "defaultvalue": 0,
    "displayName": "Completed 101 to 120",
    "hidden": 0,
    "description": "Completed all the levels between 101 & 120",
    "icon": "https://steamcdn-a.akamaihd.net/steamcommunity/public/images/apps/346850/cb30c30fe01f364055463d9921237764da2e3e95.jpg",
    "icongray": "https://steamcdn-a.akamaihd.net/steamcommunity/public/images/apps/346850/6e23d27579c8f57596b20425d022477b7e584841.jpg"
  },
  {
    "name": "CC1_CP_121to140",
    "defaultvalue": 0,
    "displayName": "Completed 121 to 140",
    "hidden": 0,
    "description": "Completed all the levels between 121 & 140",
    "icon": "https://steamcdn-a.akamaihd.net/steamcommunity/public/images/apps/346850/0a8fe1a9225f021835c1e3398fe174a5c189cf70.jpg",
    "icongray": "https://steamcdn-a.akamaihd.net/steamcommunity/public/images/apps/346850/8c0ba776579ef2c40002d998f88151bcfd6bb74d.jpg"
  },
  {
    "name": "CC1_CP_141to149",
    "defaultvalue": 0,
    "displayName": "Final Nine",
    "hidden": 0,
    "description": "Completed all the levels between 141 & 149",
    "icon": "https://steamcdn-a.akamaihd.net/steamcommunity/public/images/apps/346850/339bd4f4eb0ac6e839d92ac7f31c55180722fe4e.jpg",
    "icongray": "https://steamcdn-a.akamaihd.net/steamcommunity/public/images/apps/346850/81de375b623103ad7c1a7213c34e50cfc19af36c.jpg"
  },
  {
    "name": "CC1_CP_0.5",
    "defaultvalue": 0,
    "displayName": "Just In Time",
    "hidden": 0,
    "description": "Completed a level with only 0.5 seconds to go",
    "icon": "https://steamcdn-a.akamaihd.net/steamcommunity/public/images/apps/346850/1ef69a8b3b7166ae12fdaca6ee83827469ed8f5f.jpg",
    "icongray": "https://steamcdn-a.akamaihd.net/steamcommunity/public/images/apps/346850/6248512eb4ac26d2cfde68b0e5a9c31aa21903e7.jpg"
  },
  {
    "name": "CC1_CP_20Yowsers",
    "defaultvalue": 0,
    "displayName": "Yowser",
    "hidden": 0,
    "description": "Completed 20 levels on first try",
    "icon": "https://steamcdn-a.akamaihd.net/steamcommunity/public/images/apps/346850/3bb8e85c54b137222d446f798579c9048d63f249.jpg",
    "icongray": "https://steamcdn-a.akamaihd.net/steamcommunity/public/images/apps/346850/785c84d174535ee6bfaab20b00883b2c085581db.jpg"
  },
  {
    "name": "CC1_CP_20Boots",
    "defaultvalue": 0,
    "displayName": "Cobbler ",
    "hidden": 0,
    "description": "Completed 20 levels still wearing boots",
    "icon": "https://steamcdn-a.akamaihd.net/steamcommunity/public/images/apps/346850/bdbde0b81be7382a277e4b27a9283da8f77e9d6c.jpg",
    "icongray": "https://steamcdn-a.akamaihd.net/steamcommunity/public/images/apps/346850/7213d2160221428491f0002f3c3071025127cefa.jpg"
  },
  {
    "name": "CC1_CP_20Keys",
    "defaultvalue": 0,
    "displayName": "Key Keeper",
    "hidden": 0,
    "description": "Completed 20 levels still carrying keys",
    "icon": "https://steamcdn-a.akamaihd.net/steamcommunity/public/images/apps/346850/91671d40b5016c706298735de45a4f2725072888.jpg",
    "icongray": "https://steamcdn-a.akamaihd.net/steamcommunity/public/images/apps/346850/8561b2ad2ddfd7914cf67b77999fe68c8ee00f8f.jpg"
  },
  {
    "name": "CC1_CP_1to149",
    "defaultvalue": 0,
    "displayName": "Completer Finisher",
    "hidden": 0,
    "description": "Completed all the levels",
    "icon": "https://steamcdn-a.akamaihd.net/steamcommunity/public/images/apps/346850/1bc7e557feeb831401e3967fa820df26ae87d49b.jpg",
    "icongray": "https://steamcdn-a.akamaihd.net/steamcommunity/public/images/apps/346850/14b0dc00ca8c3e810450d65bc8845d7261ec8f29.jpg"
  },
  {
    "name": "CC1_CP_23",
    "defaultvalue": 0,
    "displayName": "Blobnet",
    "hidden": 0,
    "description": "Completed Blobnet",
    "icon": "https://steamcdn-a.akamaihd.net/steamcommunity/public/images/apps/346850/28d9b98b10af4005be4d0afa199575797f47fe21.jpg",
    "icongray": "https://steamcdn-a.akamaihd.net/steamcommunity/public/images/apps/346850/cf19538e231a50f0225d0cb3c5f19b313dc0c980.jpg"
  },
  {
    "name": "CC1_CP_33",
    "defaultvalue": 0,
    "displayName": "On The Rocks",
    "hidden": 0,
    "description": "Completed On The Rocks",
    "icon": "https://steamcdn-a.akamaihd.net/steamcommunity/public/images/apps/346850/257af0de7d19acd05d6ec6d6724e8151a753d06d.jpg",
    "icongray": "https://steamcdn-a.akamaihd.net/steamcommunity/public/images/apps/346850/6324bbaff55e0959a2f1a95d5ded2abfd5af70f2.jpg"
  },
  {
    "name": "CC1_CP_52",
    "defaultvalue": 0,
    "displayName": "The Last Laugh",
    "hidden": 0,
    "description": "Completed The Last Laugh",
    "icon": "https://steamcdn-a.akamaihd.net/steamcommunity/public/images/apps/346850/21423cba8af1c7f275402b09c53a67d61c6b77d5.jpg",
    "icongray": "https://steamcdn-a.akamaihd.net/steamcommunity/public/images/apps/346850/35dae3620c965e653fe106cf04928bfdf5e3bcf6.jpg"
  },
  {
    "name": "CC1_CP_61",
    "defaultvalue": 0,
    "displayName": "Rink",
    "hidden": 0,
    "description": "Completed Rink",
    "icon": "https://steamcdn-a.akamaihd.net/steamcommunity/public/images/apps/346850/fb109829a776c63fc07373c92fd48cd4c9292d5b.jpg",
    "icongray": "https://steamcdn-a.akamaihd.net/steamcommunity/public/images/apps/346850/2dc63c1999cca3abc1d6e2a1f4d29aa57f0ed6a1.jpg"
  },
  {
    "name": "CC1_CP_87",
    "defaultvalue": 0,
    "displayName": "Cityblock",
    "hidden": 0,
    "description": "Completed Cityblock",
    "icon": "https://steamcdn-a.akamaihd.net/steamcommunity/public/images/apps/346850/d9c351d03dbb5370427dcbbb9d90e18b3f5e2cf9.jpg",
    "icongray": "https://steamcdn-a.akamaihd.net/steamcommunity/public/images/apps/346850/c869778ee49deb816ef0377ec86b22c333f82f1a.jpg"
  },
  {
    "name": "CC1_CP_91",
    "defaultvalue": 0,
    "displayName": "Jumping Swarm",
    "hidden": 0,
    "description": "Completed Jumping Swarm",
    "icon": "https://steamcdn-a.akamaihd.net/steamcommunity/public/images/apps/346850/3af2547bb0659b8dce4ea817b87c0fcfa1a83161.jpg",
    "icongray": "https://steamcdn-a.akamaihd.net/steamcommunity/public/images/apps/346850/86749096d669232d3059e524e9bbccdc154d7f26.jpg"
  },
  {
    "name": "CC1_CP_131",
    "defaultvalue": 0,
    "displayName": "Totally Unfair",
    "hidden": 0,
    "description": "Completed Totally Unfair",
    "icon": "https://steamcdn-a.akamaihd.net/steamcommunity/public/images/apps/346850/a786951e95220b2784b9573f3330c400e87bca3d.jpg",
    "icongray": "https://steamcdn-a.akamaihd.net/steamcommunity/public/images/apps/346850/4592c3f03dc0b18b6799bcee00375e0ed66c0af4.jpg"
  },
  {
    "name": "CC1_CP_133",
    "defaultvalue": 0,
    "displayName": "Blobdance",
    "hidden": 0,
    "description": "Completed Blobdance",
    "icon": "https://steamcdn-a.akamaihd.net/steamcommunity/public/images/apps/346850/389894a409152e8c29451691e2586cc2f877d7af.jpg",
    "icongray": "https://steamcdn-a.akamaihd.net/steamcommunity/public/images/apps/346850/692d1efcba214aa179c9ed5cfc9a158c5b194387.jpg"
  },
  {
    "name": "CC1_CP_140",
    "defaultvalue": 0,
    "displayName": "Icedeath",
    "hidden": 0,
    "description": "Completed Icedeath",
    "icon": "https://steamcdn-a.akamaihd.net/steamcommunity/public/images/apps/346850/8ae1353803f3f3362763944917cb79ab80418cda.jpg",
    "icongray": "https://steamcdn-a.akamaihd.net/steamcommunity/public/images/apps/346850/64ea5dc2ccd8e35530976d133c1d7cafb2b12d29.jpg"
  },
  {
    "name": "CC1_CP_147",
    "defaultvalue": 0,
    "displayName": "Force Field",
    "hidden": 0,
    "description": "Completed Force Field",
    "icon": "https://steamcdn-a.akamaihd.net/steamcommunity/public/images/apps/346850/c8be45ea89fec380d197125012024545c8dfdcc4.jpg",
    "icongray": "https://steamcdn-a.akamaihd.net/steamcommunity/public/images/apps/346850/491921e6ab22f8d6dbfd67129731377167411422.jpg"
  }
]