{
  "Dlcs": {},
  "Name": "VikingJourney",
  "AppId": "859860",
  "ImageUrl": "https://steamcdn-a.akamaihd.net/steam/apps/859860/header.jpg?t=1545231629",
  "Languages": [
    "english",
    "german"
  ],
  "Platforms": {
    "windows": true,
    "mac": false,
    "linux": false
  }
}