﻿[
  {
    "name": "trophy-ID001",
    "defaultvalue": 0,
    "displayName": "Hit The Dojo",
    "hidden": 0,
    "description": "Komplete all Basics Tutorials",
    "icon": "https://steamcdn-a.akamaihd.net/steamcommunity/public/images/apps/976310/6e76725f6471c0cb4ff55f0adaeae86746a10e91.jpg",
    "icongray": "https://steamcdn-a.akamaihd.net/steamcommunity/public/images/apps/976310/6f9163033e9738c1ca9226c58726c300e40efb45.jpg"
  },
  {
    "name": "trophy-ID002",
    "defaultvalue": 0,
    "displayName": "Ready To Kompete",
    "hidden": 0,
    "description": "Komplete all Advanced Tutorials",
    "icon": "https://steamcdn-a.akamaihd.net/steamcommunity/public/images/apps/976310/f3c2708f6dc35b15086c6fefba4139610399806d.jpg",
    "icongray": "https://steamcdn-a.akamaihd.net/steamcommunity/public/images/apps/976310/6f9163033e9738c1ca9226c58726c300e40efb45.jpg"
  },
  {
    "name": "trophy-ID003",
    "defaultvalue": 0,
    "displayName": "No Bad Match Ups",
    "hidden": 0,
    "description": "Komplete all Strategy Tutorials",
    "icon": "https://steamcdn-a.akamaihd.net/steamcommunity/public/images/apps/976310/b2be5bd54d453ca7f554a8fd172e33fb7a3488ca.jpg",
    "icongray": "https://steamcdn-a.akamaihd.net/steamcommunity/public/images/apps/976310/6f9163033e9738c1ca9226c58726c300e40efb45.jpg"
  },
  {
    "name": "trophy-ID004",
    "defaultvalue": 0,
    "displayName": "Blood In The Water",
    "hidden": 0,
    "description": "Spill 10,000 pints of blood",
    "icon": "https://steamcdn-a.akamaihd.net/steamcommunity/public/images/apps/976310/91e9243172bc4eb96d8fb35698a59a04565ab8e8.jpg",
    "icongray": "https://steamcdn-a.akamaihd.net/steamcommunity/public/images/apps/976310/6f9163033e9738c1ca9226c58726c300e40efb45.jpg"
  },
  {
    "name": "trophy-ID005",
    "defaultvalue": 0,
    "displayName": "Deadly Encounter",
    "hidden": 0,
    "description": "Perform 15 different FATALITIES",
    "icon": "https://steamcdn-a.akamaihd.net/steamcommunity/public/images/apps/976310/c86f30f784a184e45c6b8958e316f1c64a9caa0a.jpg",
    "icongray": "https://steamcdn-a.akamaihd.net/steamcommunity/public/images/apps/976310/6f9163033e9738c1ca9226c58726c300e40efb45.jpg"
  },
  {
    "name": "trophy-ID006",
    "defaultvalue": 0,
    "displayName": "MURDER!!!",
    "hidden": 0,
    "description": "Perform 30 different FATALITIES",
    "icon": "https://steamcdn-a.akamaihd.net/steamcommunity/public/images/apps/976310/a465f3ae583acb6fe9656e5513f8f171034ec8fd.jpg",
    "icongray": "https://steamcdn-a.akamaihd.net/steamcommunity/public/images/apps/976310/6f9163033e9738c1ca9226c58726c300e40efb45.jpg"
  },
  {
    "name": "trophy-ID007",
    "defaultvalue": 0,
    "displayName": "Brutal End",
    "hidden": 0,
    "description": "Perform 25 BRUTALITIES",
    "icon": "https://steamcdn-a.akamaihd.net/steamcommunity/public/images/apps/976310/8ded753f20a01e5fed2c4f91e36a7a09ff8e3a45.jpg",
    "icongray": "https://steamcdn-a.akamaihd.net/steamcommunity/public/images/apps/976310/6f9163033e9738c1ca9226c58726c300e40efb45.jpg"
  },
  {
    "name": "trophy-ID008",
    "defaultvalue": 0,
    "displayName": "Psychopath",
    "hidden": 0,
    "description": "Perform 100 BRUTALITIES",
    "icon": "https://steamcdn-a.akamaihd.net/steamcommunity/public/images/apps/976310/c0a2cc4f182486300dd108d4f4cdffc7152a3650.jpg",
    "icongray": "https://steamcdn-a.akamaihd.net/steamcommunity/public/images/apps/976310/6f9163033e9738c1ca9226c58726c300e40efb45.jpg"
  },
  {
    "name": "trophy-ID009",
    "defaultvalue": 0,
    "displayName": "Not Dead Yet",
    "hidden": 0,
    "description": "Show MERCY 10 times",
    "icon": "https://steamcdn-a.akamaihd.net/steamcommunity/public/images/apps/976310/1e9507c28f75c11552c89748be6a3642267a6057.jpg",
    "icongray": "https://steamcdn-a.akamaihd.net/steamcommunity/public/images/apps/976310/6f9163033e9738c1ca9226c58726c300e40efb45.jpg"
  },
  {
    "name": "trophy-ID010",
    "defaultvalue": 0,
    "displayName": "Grave Robber",
    "hidden": 0,
    "description": "Open 200 Krypt chests",
    "icon": "https://steamcdn-a.akamaihd.net/steamcommunity/public/images/apps/976310/3111381c90b70a5bf3b9c08cdcb36447f198039a.jpg",
    "icongray": "https://steamcdn-a.akamaihd.net/steamcommunity/public/images/apps/976310/6f9163033e9738c1ca9226c58726c300e40efb45.jpg"
  },
  {
    "name": "trophy-ID011",
    "defaultvalue": 0,
    "displayName": "Kompetitor",
    "hidden": 0,
    "description": "Play 50 Kasual Versus matches",
    "icon": "https://steamcdn-a.akamaihd.net/steamcommunity/public/images/apps/976310/3d5f204a0e43eafbdd78481b687e9a320484c1bc.jpg",
    "icongray": "https://steamcdn-a.akamaihd.net/steamcommunity/public/images/apps/976310/03035902128d1a816c79a5e65add01ae065735b6.jpg"
  },
  {
    "name": "trophy-ID012",
    "defaultvalue": 0,
    "displayName": "Half Way There",
    "hidden": 0,
    "description": "Komplete 50% of Story Mode",
    "icon": "https://steamcdn-a.akamaihd.net/steamcommunity/public/images/apps/976310/50214f60ee4070d3b5a3d6ea367299b48d6d5d79.jpg",
    "icongray": "https://steamcdn-a.akamaihd.net/steamcommunity/public/images/apps/976310/6f9163033e9738c1ca9226c58726c300e40efb45.jpg"
  },
  {
    "name": "trophy-ID013",
    "defaultvalue": 0,
    "displayName": "What's Next?",
    "hidden": 0,
    "description": "Komplete Story Mode",
    "icon": "https://steamcdn-a.akamaihd.net/steamcommunity/public/images/apps/976310/3faba3ed79aac9bace5c741bb01ebbca470627d2.jpg",
    "icongray": "https://steamcdn-a.akamaihd.net/steamcommunity/public/images/apps/976310/6f9163033e9738c1ca9226c58726c300e40efb45.jpg"
  },
  {
    "name": "trophy-ID014",
    "defaultvalue": 0,
    "displayName": "R-E-S-P-E-C-T",
    "hidden": 0,
    "description": "Pay 100 total respect points in King of the Hill",
    "icon": "https://steamcdn-a.akamaihd.net/steamcommunity/public/images/apps/976310/4884a0939c7ceae18462e8760878b87d4ff6c09d.jpg",
    "icongray": "https://steamcdn-a.akamaihd.net/steamcommunity/public/images/apps/976310/6f9163033e9738c1ca9226c58726c300e40efb45.jpg"
  },
  {
    "name": "trophy-ID015",
    "defaultvalue": 0,
    "displayName": "Klassic",
    "hidden": 0,
    "description": "Komplete a Novice, Warrior, or Champion Klassic Tower once",
    "icon": "https://steamcdn-a.akamaihd.net/steamcommunity/public/images/apps/976310/50c6fe53c73539bf75917561f314b5d718d86781.jpg",
    "icongray": "https://steamcdn-a.akamaihd.net/steamcommunity/public/images/apps/976310/6f9163033e9738c1ca9226c58726c300e40efb45.jpg"
  },
  {
    "name": "trophy-ID016",
    "defaultvalue": 0,
    "displayName": "I Want It All",
    "hidden": 0,
    "description": "Komplete the Novice, Warrior, or Champion Klassic Towers with 10 different kharacters",
    "icon": "https://steamcdn-a.akamaihd.net/steamcommunity/public/images/apps/976310/433db8a756c4d344f1f4f5c3576c03ae7c97cacb.jpg",
    "icongray": "https://steamcdn-a.akamaihd.net/steamcommunity/public/images/apps/976310/6f9163033e9738c1ca9226c58726c300e40efb45.jpg"
  },
  {
    "name": "trophy-ID017",
    "defaultvalue": 0,
    "displayName": "Enough Already",
    "hidden": 0,
    "description": "Hit the Gong in the Krypt",
    "icon": "https://steamcdn-a.akamaihd.net/steamcommunity/public/images/apps/976310/4a51c811b8067e080afefa89a9d7ca98afa6fd82.jpg",
    "icongray": "https://steamcdn-a.akamaihd.net/steamcommunity/public/images/apps/976310/6f9163033e9738c1ca9226c58726c300e40efb45.jpg"
  },
  {
    "name": "trophy-ID018",
    "defaultvalue": 0,
    "displayName": "Tower Champion",
    "hidden": 0,
    "description": "Komplete 125 Towers",
    "icon": "https://steamcdn-a.akamaihd.net/steamcommunity/public/images/apps/976310/7843e45f76509e9665b688aa1b1631ba4ffccfd9.jpg",
    "icongray": "https://steamcdn-a.akamaihd.net/steamcommunity/public/images/apps/976310/6f9163033e9738c1ca9226c58726c300e40efb45.jpg"
  },
  {
    "name": "trophy-ID019",
    "defaultvalue": 0,
    "displayName": "Master of Time",
    "hidden": 0,
    "description": "Komplete 250 Towers",
    "icon": "https://steamcdn-a.akamaihd.net/steamcommunity/public/images/apps/976310/32684445d4cf01674db46bf55263759aaff9c87c.jpg",
    "icongray": "https://steamcdn-a.akamaihd.net/steamcommunity/public/images/apps/976310/03035902128d1a816c79a5e65add01ae065735b6.jpg"
  },
  {
    "name": "trophy-ID020",
    "defaultvalue": 0,
    "displayName": "Disco's Not Dead",
    "hidden": 0,
    "description": "Flip Stance 50 times during a match",
    "icon": "https://steamcdn-a.akamaihd.net/steamcommunity/public/images/apps/976310/e2c7a89c6afaa686303f81ea090417422d813786.jpg",
    "icongray": "https://steamcdn-a.akamaihd.net/steamcommunity/public/images/apps/976310/6f9163033e9738c1ca9226c58726c300e40efb45.jpg"
  },
  {
    "name": "trophy-ID021",
    "defaultvalue": 0,
    "displayName": "Teamwork",
    "hidden": 0,
    "description": "Play a Group Battle with 2 other players",
    "icon": "https://steamcdn-a.akamaihd.net/steamcommunity/public/images/apps/976310/2dcf69608ce78430120a30ebcd550680cd638353.jpg",
    "icongray": "https://steamcdn-a.akamaihd.net/steamcommunity/public/images/apps/976310/6f9163033e9738c1ca9226c58726c300e40efb45.jpg"
  },
  {
    "name": "trophy-ID022",
    "defaultvalue": 0,
    "displayName": "Thrashed",
    "hidden": 0,
    "description": "Perform 2 different FATALITIES with Baraka",
    "icon": "https://steamcdn-a.akamaihd.net/steamcommunity/public/images/apps/976310/b8251635b61b2fd83853e07863fec7e57d3ff9dd.jpg",
    "icongray": "https://steamcdn-a.akamaihd.net/steamcommunity/public/images/apps/976310/6f9163033e9738c1ca9226c58726c300e40efb45.jpg"
  },
  {
    "name": "trophy-ID023",
    "defaultvalue": 0,
    "displayName": "Family Values",
    "hidden": 0,
    "description": "Perform 2 different FATALITIES with Cassie Cage",
    "icon": "https://steamcdn-a.akamaihd.net/steamcommunity/public/images/apps/976310/a56090d570f34d91c6a1a0ea3e4954b02e4e5351.jpg",
    "icongray": "https://steamcdn-a.akamaihd.net/steamcommunity/public/images/apps/976310/6f9163033e9738c1ca9226c58726c300e40efb45.jpg"
  },
  {
    "name": "trophy-ID024",
    "defaultvalue": 0,
    "displayName": "Balanced",
    "hidden": 0,
    "description": "Perform 2 different FATALITIES with Cetrion",
    "icon": "https://steamcdn-a.akamaihd.net/steamcommunity/public/images/apps/976310/00b39958ce0d5d4078571015e59c8715b8bd3a34.jpg",
    "icongray": "https://steamcdn-a.akamaihd.net/steamcommunity/public/images/apps/976310/6f9163033e9738c1ca9226c58726c300e40efb45.jpg"
  },
  {
    "name": "trophy-ID025",
    "defaultvalue": 0,
    "displayName": "Cyber Initiative",
    "hidden": 0,
    "description": "Perform 2 different FATALITIES with Frost",
    "icon": "https://steamcdn-a.akamaihd.net/steamcommunity/public/images/apps/976310/1d0caea7c97f1bdd7661961b806d8ee1a6b77212.jpg",
    "icongray": "https://steamcdn-a.akamaihd.net/steamcommunity/public/images/apps/976310/6f9163033e9738c1ca9226c58726c300e40efb45.jpg"
  },
  {
    "name": "trophy-ID026",
    "defaultvalue": 0,
    "displayName": "Bugging Out",
    "hidden": 0,
    "description": "Perform 2 different FATALITIES with D'Vorah",
    "icon": "https://steamcdn-a.akamaihd.net/steamcommunity/public/images/apps/976310/f7c233d2be7c0d22725a468c42c62b7ddc0e8943.jpg",
    "icongray": "https://steamcdn-a.akamaihd.net/steamcommunity/public/images/apps/976310/6f9163033e9738c1ca9226c58726c300e40efb45.jpg"
  },
  {
    "name": "trophy-ID027",
    "defaultvalue": 0,
    "displayName": "Kollecting Bounties",
    "hidden": 0,
    "description": "Perform 2 different FATALITIES with Erron Black",
    "icon": "https://steamcdn-a.akamaihd.net/steamcommunity/public/images/apps/976310/bf56fdf2b42dd13b0d1e995843d9490260706d11.jpg",
    "icongray": "https://steamcdn-a.akamaihd.net/steamcommunity/public/images/apps/976310/6f9163033e9738c1ca9226c58726c300e40efb45.jpg"
  },
  {
    "name": "trophy-ID028",
    "defaultvalue": 0,
    "displayName": "Pound Town",
    "hidden": 0,
    "description": "Perform 2 different FATALITIES with Jacqui Briggs",
    "icon": "https://steamcdn-a.akamaihd.net/steamcommunity/public/images/apps/976310/9b2838ddd9a769922a1f01bc540ce7ee08a36401.jpg",
    "icongray": "https://steamcdn-a.akamaihd.net/steamcommunity/public/images/apps/976310/6f9163033e9738c1ca9226c58726c300e40efb45.jpg"
  },
  {
    "name": "trophy-ID029",
    "defaultvalue": 0,
    "displayName": "Royal Guard",
    "hidden": 0,
    "description": "Perform 2 different FATALITIES with Jade",
    "icon": "https://steamcdn-a.akamaihd.net/steamcommunity/public/images/apps/976310/1bafe512908f63213f969c1ac32b87f728426218.jpg",
    "icongray": "https://steamcdn-a.akamaihd.net/steamcommunity/public/images/apps/976310/6f9163033e9738c1ca9226c58726c300e40efb45.jpg"
  },
  {
    "name": "trophy-ID030",
    "defaultvalue": 0,
    "displayName": "Get Some",
    "hidden": 0,
    "description": "Perform 2 different FATALITIES with Jax",
    "icon": "https://steamcdn-a.akamaihd.net/steamcommunity/public/images/apps/976310/f001067dd3b6a6832035cce3833e8a6e589818e8.jpg",
    "icongray": "https://steamcdn-a.akamaihd.net/steamcommunity/public/images/apps/976310/6f9163033e9738c1ca9226c58726c300e40efb45.jpg"
  },
  {
    "name": "trophy-ID031",
    "defaultvalue": 0,
    "displayName": "Caged",
    "hidden": 0,
    "description": "Perform 2 different FATALITIES with Johnny Cage",
    "icon": "https://steamcdn-a.akamaihd.net/steamcommunity/public/images/apps/976310/466880b994c25f5c0f30ffc4c18ea698885b430d.jpg",
    "icongray": "https://steamcdn-a.akamaihd.net/steamcommunity/public/images/apps/976310/6f9163033e9738c1ca9226c58726c300e40efb45.jpg"
  },
  {
    "name": "trophy-ID032",
    "defaultvalue": 0,
    "displayName": "Ka-Ballin",
    "hidden": 0,
    "description": "Perform 2 different FATALITIES with Kabal",
    "icon": "https://steamcdn-a.akamaihd.net/steamcommunity/public/images/apps/976310/661047ce3bb0661e8ddf74a4a1486adc0a0d4637.jpg",
    "icongray": "https://steamcdn-a.akamaihd.net/steamcommunity/public/images/apps/976310/6f9163033e9738c1ca9226c58726c300e40efb45.jpg"
  },
  {
    "name": "trophy-ID033",
    "defaultvalue": 0,
    "displayName": "Bonzer Bog",
    "hidden": 0,
    "description": "Perform 2 different FATALITIES with Kano",
    "icon": "https://steamcdn-a.akamaihd.net/steamcommunity/public/images/apps/976310/885de035bdcdb3aecf540cc88cfad99907a37709.jpg",
    "icongray": "https://steamcdn-a.akamaihd.net/steamcommunity/public/images/apps/976310/6f9163033e9738c1ca9226c58726c300e40efb45.jpg"
  },
  {
    "name": "trophy-ID034",
    "defaultvalue": 0,
    "displayName": "Princess Power",
    "hidden": 0,
    "description": "Perform 2 different FATALITIES with Kitana",
    "icon": "https://steamcdn-a.akamaihd.net/steamcommunity/public/images/apps/976310/17fcf25b65a3ff24cdeda734ad6ee0d260761453.jpg",
    "icongray": "https://steamcdn-a.akamaihd.net/steamcommunity/public/images/apps/976310/6f9163033e9738c1ca9226c58726c300e40efb45.jpg"
  },
  {
    "name": "trophy-ID035",
    "defaultvalue": 0,
    "displayName": "Kollected",
    "hidden": 0,
    "description": "Perform 2 different FATALITIES with Kollector",
    "icon": "https://steamcdn-a.akamaihd.net/steamcommunity/public/images/apps/976310/7d0d07ee877438e8fd5f1df7b3ade1e5eabf8942.jpg",
    "icongray": "https://steamcdn-a.akamaihd.net/steamcommunity/public/images/apps/976310/6f9163033e9738c1ca9226c58726c300e40efb45.jpg"
  },
  {
    "name": "trophy-ID036",
    "defaultvalue": 0,
    "displayName": "Sacrifice",
    "hidden": 0,
    "description": "Perform 2 different FATALITIES with Kotal Kahn",
    "icon": "https://steamcdn-a.akamaihd.net/steamcommunity/public/images/apps/976310/aab0e74392c1acd6c32e75908c559495297d7582.jpg",
    "icongray": "https://steamcdn-a.akamaihd.net/steamcommunity/public/images/apps/976310/6f9163033e9738c1ca9226c58726c300e40efb45.jpg"
  },
  {
    "name": "trophy-ID037",
    "defaultvalue": 0,
    "displayName": "Hat Trick",
    "hidden": 0,
    "description": "Perform 2 different FATALITIES with Kung Lao",
    "icon": "https://steamcdn-a.akamaihd.net/steamcommunity/public/images/apps/976310/fd2fb3d63d0fd4d82506f2c1449dd3e65fd8d0da.jpg",
    "icongray": "https://steamcdn-a.akamaihd.net/steamcommunity/public/images/apps/976310/03035902128d1a816c79a5e65add01ae065735b6.jpg"
  },
  {
    "name": "trophy-ID038",
    "defaultvalue": 0,
    "displayName": "No Bag Boy",
    "hidden": 0,
    "description": "Perform 2 different FATALITIES with Liu Kang",
    "icon": "https://steamcdn-a.akamaihd.net/steamcommunity/public/images/apps/976310/b6d9112e53e16671dd1b943fed0e23764c91513a.jpg",
    "icongray": "https://steamcdn-a.akamaihd.net/steamcommunity/public/images/apps/976310/6f9163033e9738c1ca9226c58726c300e40efb45.jpg"
  },
  {
    "name": "trophy-ID039",
    "defaultvalue": 0,
    "displayName": "Double Dose Of Deadly",
    "hidden": 0,
    "description": "Perform 2 different FATALITIES with Noob",
    "icon": "https://steamcdn-a.akamaihd.net/steamcommunity/public/images/apps/976310/d2139cde5c2bd32c3f868b4b2e66993b2b19e3cd.jpg",
    "icongray": "https://steamcdn-a.akamaihd.net/steamcommunity/public/images/apps/976310/6f9163033e9738c1ca9226c58726c300e40efb45.jpg"
  },
  {
    "name": "trophy-ID040",
    "defaultvalue": 0,
    "displayName": "Struck Down",
    "hidden": 0,
    "description": "Perform 2 different FATALITIES with Raiden",
    "icon": "https://steamcdn-a.akamaihd.net/steamcommunity/public/images/apps/976310/81522d4c03c40917e95e19b9438fb8e38a1874ab.jpg",
    "icongray": "https://steamcdn-a.akamaihd.net/steamcommunity/public/images/apps/976310/6f9163033e9738c1ca9226c58726c300e40efb45.jpg"
  },
  {
    "name": "trophy-ID041",
    "defaultvalue": 0,
    "displayName": "Never Ends",
    "hidden": 0,
    "description": "Perform 2 different FATALITIES with Scorpion",
    "icon": "https://steamcdn-a.akamaihd.net/steamcommunity/public/images/apps/976310/5d146a48a372466bf26d90311102f268644446f0.jpg",
    "icongray": "https://steamcdn-a.akamaihd.net/steamcommunity/public/images/apps/976310/6f9163033e9738c1ca9226c58726c300e40efb45.jpg"
  },
  {
    "name": "trophy-ID042",
    "defaultvalue": 0,
    "displayName": "Blood Bath",
    "hidden": 0,
    "description": "Perform 2 different FATALITIES with Skarlet",
    "icon": "https://steamcdn-a.akamaihd.net/steamcommunity/public/images/apps/976310/09c3052510efe8928682e2aedbaea6b7c44d03a2.jpg",
    "icongray": "https://steamcdn-a.akamaihd.net/steamcommunity/public/images/apps/976310/03035902128d1a816c79a5e65add01ae065735b6.jpg"
  },
  {
    "name": "trophy-ID043",
    "defaultvalue": 0,
    "displayName": "Target Eliminated",
    "hidden": 0,
    "description": "Perform 2 different FATALITIES with Sonya",
    "icon": "https://steamcdn-a.akamaihd.net/steamcommunity/public/images/apps/976310/75ba0a455ea0eb44a34c95ce7f743010fa996f7e.jpg",
    "icongray": "https://steamcdn-a.akamaihd.net/steamcommunity/public/images/apps/976310/6f9163033e9738c1ca9226c58726c300e40efb45.jpg"
  },
  {
    "name": "trophy-ID044",
    "defaultvalue": 0,
    "displayName": "On Ice",
    "hidden": 0,
    "description": "Perform 2 different FATALITIES with Sub-Zero",
    "icon": "https://steamcdn-a.akamaihd.net/steamcommunity/public/images/apps/976310/49d73fad2590ad7225daa41d933c687dbbca9149.jpg",
    "icongray": "https://steamcdn-a.akamaihd.net/steamcommunity/public/images/apps/976310/6f9163033e9738c1ca9226c58726c300e40efb45.jpg"
  },
  {
    "name": "trophy-ID045",
    "defaultvalue": 0,
    "displayName": "Turn Back Time",
    "hidden": 0,
    "description": "Perform 2 different FATALITIES with Geras",
    "icon": "https://steamcdn-a.akamaihd.net/steamcommunity/public/images/apps/976310/a382a7803d754590d922f5b11961d66153d558d2.jpg",
    "icongray": "https://steamcdn-a.akamaihd.net/steamcommunity/public/images/apps/976310/6f9163033e9738c1ca9226c58726c300e40efb45.jpg"
  },
  {
    "name": "trophy-ID046",
    "defaultvalue": 0,
    "displayName": "Total Disrespect",
    "hidden": 0,
    "description": "Defeat an opponent as Bug-Vorah",
    "icon": "https://steamcdn-a.akamaihd.net/steamcommunity/public/images/apps/976310/0d0940ce829aed117b67810697de090a63ce072d.jpg",
    "icongray": "https://steamcdn-a.akamaihd.net/steamcommunity/public/images/apps/976310/6f9163033e9738c1ca9226c58726c300e40efb45.jpg"
  },
  {
    "name": "trophy-ID047",
    "defaultvalue": 0,
    "displayName": "Oh My Days",
    "hidden": 0,
    "description": "Duck 100 times during a match",
    "icon": "https://steamcdn-a.akamaihd.net/steamcommunity/public/images/apps/976310/c98f0df7ad1d613772aa8a391ec5f72a29bb463c.jpg",
    "icongray": "https://steamcdn-a.akamaihd.net/steamcommunity/public/images/apps/976310/6f9163033e9738c1ca9226c58726c300e40efb45.jpg"
  },
  {
    "name": "trophy-ID048",
    "defaultvalue": 0,
    "displayName": "My AI Can Do It",
    "hidden": 0,
    "description": "Play 10 AI Battle Simulator sets",
    "icon": "https://steamcdn-a.akamaihd.net/steamcommunity/public/images/apps/976310/b70aba575f3824e96530b165645821a374563f8a.jpg",
    "icongray": "https://steamcdn-a.akamaihd.net/steamcommunity/public/images/apps/976310/6f9163033e9738c1ca9226c58726c300e40efb45.jpg"
  },
  {
    "name": "trophy-ID049",
    "defaultvalue": 0,
    "displayName": "Puppet Master",
    "hidden": 0,
    "description": "Play 25 AI Battle Simulator sets",
    "icon": "https://steamcdn-a.akamaihd.net/steamcommunity/public/images/apps/976310/f30a7c0092a380148d648376ea242d26c8fce9a0.jpg",
    "icongray": "https://steamcdn-a.akamaihd.net/steamcommunity/public/images/apps/976310/6f9163033e9738c1ca9226c58726c300e40efb45.jpg"
  },
  {
    "name": "trophy-ID050",
    "defaultvalue": 0,
    "displayName": "My Magic Shoes",
    "hidden": 0,
    "description": "Run 5 miles in the Krypt",
    "icon": "https://steamcdn-a.akamaihd.net/steamcommunity/public/images/apps/976310/1a936ab34ee64de71ac0ed95dd06e3c71a24e468.jpg",
    "icongray": "https://steamcdn-a.akamaihd.net/steamcommunity/public/images/apps/976310/6f9163033e9738c1ca9226c58726c300e40efb45.jpg"
  },
  {
    "name": "trophy-ID051",
    "defaultvalue": 0,
    "displayName": "Have We Met",
    "hidden": 0,
    "description": "Equip 5 different character intros",
    "icon": "https://steamcdn-a.akamaihd.net/steamcommunity/public/images/apps/976310/f64e305b2a516882bcb5b2baef85cf18097ce000.jpg",
    "icongray": "https://steamcdn-a.akamaihd.net/steamcommunity/public/images/apps/976310/6f9163033e9738c1ca9226c58726c300e40efb45.jpg"
  },
  {
    "name": "trophy-ID052",
    "defaultvalue": 0,
    "displayName": "Victorious",
    "hidden": 0,
    "description": "Equip 5 different character victories",
    "icon": "https://steamcdn-a.akamaihd.net/steamcommunity/public/images/apps/976310/6c51e86bed9e9d4f4ca4e269a0df7d0abb4cf7f6.jpg",
    "icongray": "https://steamcdn-a.akamaihd.net/steamcommunity/public/images/apps/976310/6f9163033e9738c1ca9226c58726c300e40efb45.jpg"
  },
  {
    "name": "trophy-ID053",
    "defaultvalue": 0,
    "displayName": "More Power",
    "hidden": 0,
    "description": "Use 50 Konsumables",
    "icon": "https://steamcdn-a.akamaihd.net/steamcommunity/public/images/apps/976310/90ffb41c2ad30909221ef3ab80565130f11c19e2.jpg",
    "icongray": "https://steamcdn-a.akamaihd.net/steamcommunity/public/images/apps/976310/6f9163033e9738c1ca9226c58726c300e40efb45.jpg"
  },
  {
    "name": "trophy-ID054",
    "defaultvalue": 0,
    "displayName": "Konsumed",
    "hidden": 0,
    "description": "Use 100 konsumables",
    "icon": "https://steamcdn-a.akamaihd.net/steamcommunity/public/images/apps/976310/13d188a656a9f3872892f467b2c422a1ef6a7986.jpg",
    "icongray": "https://steamcdn-a.akamaihd.net/steamcommunity/public/images/apps/976310/6f9163033e9738c1ca9226c58726c300e40efb45.jpg"
  },
  {
    "name": "trophy-ID055",
    "defaultvalue": 0,
    "displayName": "Get Over Here",
    "hidden": 0,
    "description": "Spear 50 hanging bodies in the Krypt",
    "icon": "https://steamcdn-a.akamaihd.net/steamcommunity/public/images/apps/976310/5cbcfc4d24c18bb0733a750d471bd52eeb10275c.jpg",
    "icongray": "https://steamcdn-a.akamaihd.net/steamcommunity/public/images/apps/976310/03035902128d1a816c79a5e65add01ae065735b6.jpg"
  },
  {
    "name": "trophy-ID056",
    "defaultvalue": 0,
    "displayName": "Skull Kabob",
    "hidden": 0,
    "description": "Impale a head in the warrior shrine",
    "icon": "https://steamcdn-a.akamaihd.net/steamcommunity/public/images/apps/976310/5a4783933adb84edb3ecbf8a0fdae16ce9e21e2d.jpg",
    "icongray": "https://steamcdn-a.akamaihd.net/steamcommunity/public/images/apps/976310/03035902128d1a816c79a5e65add01ae065735b6.jpg"
  },
  {
    "name": "trophy-ID057",
    "defaultvalue": 0,
    "displayName": "Gimme Dat Money",
    "hidden": 0,
    "description": "Spend 50,000 koins in the Naknadan shrine",
    "icon": "https://steamcdn-a.akamaihd.net/steamcommunity/public/images/apps/976310/036746c41e662d39825cbd99fde0683f0e065a13.jpg",
    "icongray": "https://steamcdn-a.akamaihd.net/steamcommunity/public/images/apps/976310/6f9163033e9738c1ca9226c58726c300e40efb45.jpg"
  },
  {
    "name": "trophy-ID058",
    "defaultvalue": 0,
    "displayName": "Thank You For Being A Fan",
    "hidden": 0,
    "description": "Reach The Kredits",
    "icon": "https://steamcdn-a.akamaihd.net/steamcommunity/public/images/apps/976310/b2bb3d1832caa5c13dd31734c7b6fe64f9cf5bdc.jpg",
    "icongray": "https://steamcdn-a.akamaihd.net/steamcommunity/public/images/apps/976310/6f9163033e9738c1ca9226c58726c300e40efb45.jpg"
  }
]