{
  "Dlcs": {},
  "Name": "Anno Domini Godfather",
  "AppId": "960680",
  "ImageUrl": "https://steamcdn-a.akamaihd.net/steam/apps/960680/header.jpg?t=1568298771",
  "Languages": [
    "english"
  ],
  "Platforms": {
    "windows": true,
    "mac": true,
    "linux": false
  }
}