[
  {
    "name": "MIAEND",
    "defaultvalue": 0,
    "displayName": "The Adventuress",
    "hidden": 0,
    "description": "Reached Mia's END",
    "icon": "https://steamcdn-a.akamaihd.net/steamcommunity/public/images/apps/1052640/7e0556f1550768e728705668490dd2a6391d5c49.jpg",
    "icongray": "https://steamcdn-a.akamaihd.net/steamcommunity/public/images/apps/1052640/364dad1fbce078720857b5273832dae417f67610.jpg"
  },
  {
    "name": "OWENEND",
    "defaultvalue": 0,
    "displayName": "The Courageous",
    "hidden": 0,
    "description": "Reached Owen's END",
    "icon": "https://steamcdn-a.akamaihd.net/steamcommunity/public/images/apps/1052640/7516312228b4e5252f42ded4840948c70fe17ce3.jpg",
    "icongray": "https://steamcdn-a.akamaihd.net/steamcommunity/public/images/apps/1052640/f0680f65053872fa2729ba195158557f7ab00390.jpg"
  },
  {
    "name": "LUCASEND",
    "defaultvalue": 0,
    "displayName": "The Detective",
    "hidden": 0,
    "description": "Reached Lucas' END",
    "icon": "https://steamcdn-a.akamaihd.net/steamcommunity/public/images/apps/1052640/1a01742b038bc5a6ca3abecdfffbe7922ec1d0f2.jpg",
    "icongray": "https://steamcdn-a.akamaihd.net/steamcommunity/public/images/apps/1052640/43c95ababfd3b96cc96947c74fb6475c8844bf59.jpg"
  },
  {
    "name": "RETRACED",
    "defaultvalue": 0,
    "displayName": "Retraced Days",
    "hidden": 0,
    "description": "Returned to the beginning",
    "icon": "https://steamcdn-a.akamaihd.net/steamcommunity/public/images/apps/1052640/6b59545211fcfa3c0c2b6098166242f68d7a9705.jpg",
    "icongray": "https://steamcdn-a.akamaihd.net/steamcommunity/public/images/apps/1052640/641dd5492d583de8d33f4e3b4bcd398b0648a9d2.jpg"
  },
  {
    "name": "CLAIREEND",
    "defaultvalue": 0,
    "displayName": "The Damsel",
    "hidden": 0,
    "description": "Reached Claire's END",
    "icon": "https://steamcdn-a.akamaihd.net/steamcommunity/public/images/apps/1052640/0595243814d92213bc0f78bdc0e1ae5111c25e97.jpg",
    "icongray": "https://steamcdn-a.akamaihd.net/steamcommunity/public/images/apps/1052640/dfa0bf229bd01a3c52aeff078d9a8c44a1fcff8f.jpg"
  },
  {
    "name": "MERRYBADEND",
    "defaultvalue": 0,
    "displayName": "Merry Bad END",
    "hidden": 0,
    "description": "Reached all unique bad ENDs",
    "icon": "https://steamcdn-a.akamaihd.net/steamcommunity/public/images/apps/1052640/bc6299439296f2e8a29521891d252e505a9db320.jpg",
    "icongray": "https://steamcdn-a.akamaihd.net/steamcommunity/public/images/apps/1052640/01098c8a4a43640e97ce25c4083455386b65b558.jpg"
  },
  {
    "name": "WHITEEND",
    "defaultvalue": 0,
    "displayName": "Falling Snow",
    "hidden": 0,
    "description": "Reached the White End",
    "icon": "https://steamcdn-a.akamaihd.net/steamcommunity/public/images/apps/1052640/6d14ea41ec226028ae6bfe5d93c2bf7f7467e516.jpg",
    "icongray": "https://steamcdn-a.akamaihd.net/steamcommunity/public/images/apps/1052640/ad9a119baa01761e1cdc96ec36e8c7b192540d7e.jpg"
  },
  {
    "name": "GOLDEND",
    "defaultvalue": 0,
    "displayName": "The Victory March",
    "hidden": 0,
    "description": "Reached the Gold End",
    "icon": "https://steamcdn-a.akamaihd.net/steamcommunity/public/images/apps/1052640/06d377a3e557fc84ee07b943187fe8df96d4e8ab.jpg",
    "icongray": "https://steamcdn-a.akamaihd.net/steamcommunity/public/images/apps/1052640/b257cba5061ad308a4b44d03a918e0c7060158a3.jpg"
  },
  {
    "name": "ACT1END",
    "defaultvalue": 0,
    "displayName": "Until I Return",
    "hidden": 0,
    "description": "Completed the true puzzle",
    "icon": "https://steamcdn-a.akamaihd.net/steamcommunity/public/images/apps/1052640/cd3eb1bf57f7e1e8ffb3a56dfd47751469658184.jpg",
    "icongray": "https://steamcdn-a.akamaihd.net/steamcommunity/public/images/apps/1052640/f7efd88dc6c6b6491e4a41bcc49159850757af34.jpg"
  },
  {
    "name": "LUMIAEND",
    "defaultvalue": 0,
    "displayName": "Back to Black",
    "hidden": 0,
    "description": "Reached an END with Mia and Lucas",
    "icon": "https://steamcdn-a.akamaihd.net/steamcommunity/public/images/apps/1052640/880b322cf8e247e1e7184e95570480ee5ec3785c.jpg",
    "icongray": "https://steamcdn-a.akamaihd.net/steamcommunity/public/images/apps/1052640/d8202344f5067ff33bf42be845b0a0bf00bf8c91.jpg"
  },
  {
    "name": "LUCENEND",
    "defaultvalue": 0,
    "displayName": "I Think We're Alone Now",
    "hidden": 0,
    "description": "Reached an END with Lucas and Owen",
    "icon": "https://steamcdn-a.akamaihd.net/steamcommunity/public/images/apps/1052640/778b738692cecae028c49a5c8b80738e032005aa.jpg",
    "icongray": "https://steamcdn-a.akamaihd.net/steamcommunity/public/images/apps/1052640/34cc23cf6263087a55602715d211994a9fb1b231.jpg"
  },
  {
    "name": "MIOWENEND",
    "defaultvalue": 0,
    "displayName": "Heavy Cross",
    "hidden": 0,
    "description": "Reached an END with Mia and Owen",
    "icon": "https://steamcdn-a.akamaihd.net/steamcommunity/public/images/apps/1052640/2a7ba76903331cbbe6ba80b6fd974cc19e0fce8d.jpg",
    "icongray": "https://steamcdn-a.akamaihd.net/steamcommunity/public/images/apps/1052640/763335dac84b9f6be97a3fb64b3edfe202b16b89.jpg"
  }
]