﻿[
  {
    "name": "Kills",
    "defaultvalue": 0,
    "displayName": "Kills"
  },
  {
    "name": "Deaths",
    "defaultvalue": 0,
    "displayName": "Deaths"
  },
  {
    "name": "Bot_Kills",
    "defaultvalue": 0,
    "displayName": "Bot Kills"
  },
  {
    "name": "Bot_Deaths",
    "defaultvalue": 0,
    "displayName": "Bot Deaths"
  },
  {
    "name": "Brains",
    "defaultvalue": 0,
    "displayName": "Brains"
  },
  {
    "name": "Melee",
    "defaultvalue": 0,
    "displayName": "Melee Kills"
  },
  {
    "name": "As_King",
    "defaultvalue": 0,
    "displayName": "Kill As King"
  },
  {
    "name": "Distance_Travelled",
    "defaultvalue": 0,
    "displayName": "Distance Travelled"
  },
  {
    "name": "Kills_Combined",
    "defaultvalue": 0,
    "displayName": "Total Kills"
  }
]