[
  {
    "name": "SECRET",
    "defaultvalue": 0,
    "displayName": "SECRET PUZZLE",
    "hidden": 0,
    "description": "Solve the secret puzzle.",
    "icon": "https://steamcdn-a.akamaihd.net/steamcommunity/public/images/apps/504210/afa03caa2fb134f893780f70fd788dacb95b5c2e.jpg",
    "icongray": "https://steamcdn-a.akamaihd.net/steamcommunity/public/images/apps/504210/0a9a5a5828e18e44cb035119cedf919b35ebe8b1.jpg"
  },
  {
    "name": "SOLITAIRE_1",
    "defaultvalue": 0,
    "displayName": "CLIMB THE MOUNTAIN",
    "hidden": 0,
    "description": "Win a game of solitaire.",
    "icon": "https://steamcdn-a.akamaihd.net/steamcommunity/public/images/apps/504210/79c6e43211d0bde5117beec883d0c34889c6a81b.jpg",
    "icongray": "https://steamcdn-a.akamaihd.net/steamcommunity/public/images/apps/504210/2739b73a4d5558a8a8f229ea313ac557afa6ba40.jpg"
  },
  {
    "name": "SOLITAIRE_2",
    "defaultvalue": 0,
    "displayName": "MEET THE DRAGON",
    "hidden": 0,
    "description": "Win 10 games of solitaire.",
    "icon": "https://steamcdn-a.akamaihd.net/steamcommunity/public/images/apps/504210/305814c9382dbc74e0bb9ec9f775bcf962cbe738.jpg",
    "icongray": "https://steamcdn-a.akamaihd.net/steamcommunity/public/images/apps/504210/b73a1c6b5ec1a3cfff7e0857e4d45cb6e7b9edfa.jpg"
  },
  {
    "name": "SOLITAIRE_3",
    "defaultvalue": 0,
    "displayName": "BECOME IMMORTAL",
    "hidden": 0,
    "description": "Win 100 games of solitaire.",
    "icon": "https://steamcdn-a.akamaihd.net/steamcommunity/public/images/apps/504210/866b39267823f415ccf4419cad34b775a1086f15.jpg",
    "icongray": "https://steamcdn-a.akamaihd.net/steamcommunity/public/images/apps/504210/795900568558e6fb2d07f986d14690012d74aa18.jpg"
  },
  {
    "name": "ALL_SHENZHEN",
    "defaultvalue": 0,
    "displayName": "EMPLOYEE OF THE MONTH",
    "hidden": 0,
    "description": "Solve every puzzle in the main campaign.",
    "icon": "https://steamcdn-a.akamaihd.net/steamcommunity/public/images/apps/504210/e02dc1364c9726f0399e26a7c16e5765c3e959c7.jpg",
    "icongray": "https://steamcdn-a.akamaihd.net/steamcommunity/public/images/apps/504210/baecb8f7890deb9152d1fb0f0424c80deb316137.jpg"
  },
  {
    "name": "ALL_AVALON",
    "defaultvalue": 0,
    "displayName": "TURBOCHARGE YOUR BRAIN!",
    "hidden": 0,
    "description": "Solve every puzzle in the bonus campaign.",
    "icon": "https://steamcdn-a.akamaihd.net/steamcommunity/public/images/apps/504210/355364ecfe52260f850c37281ab6260edd2db0fa.jpg",
    "icongray": "https://steamcdn-a.akamaihd.net/steamcommunity/public/images/apps/504210/0a31f9cc82687838493eb23d1508516d2b7ab7c1.jpg"
  }
]