[
  {
    "name": "SPECIAL",
    "defaultvalue": 0,
    "displayName": "Introducing the \"Special\"",
    "hidden": 0,
    "description": "Use your Special for the first time",
    "icon": "https://steamcdn-a.akamaihd.net/steamcommunity/public/images/apps/897900/e83d155f423062951e194d863f9179605bc3966d.jpg",
    "icongray": "https://steamcdn-a.akamaihd.net/steamcommunity/public/images/apps/897900/0b39074f6d1d8ae493f83da4ed0f0a5a61a8c6fe.jpg"
  },
  {
    "name": "SPECIAL_10",
    "defaultvalue": 0,
    "displayName": "Special is my favorite",
    "hidden": 0,
    "description": "Use your Special 10 times",
    "icon": "https://steamcdn-a.akamaihd.net/steamcommunity/public/images/apps/897900/f3d98ab78ae98d4ae022aca21485cc048e6f3069.jpg",
    "icongray": "https://steamcdn-a.akamaihd.net/steamcommunity/public/images/apps/897900/0b39074f6d1d8ae493f83da4ed0f0a5a61a8c6fe.jpg"
  },
  {
    "name": "SPECIAL_100",
    "defaultvalue": 0,
    "displayName": "Special Mastery",
    "hidden": 0,
    "description": "Use your Special 100 times",
    "icon": "https://steamcdn-a.akamaihd.net/steamcommunity/public/images/apps/897900/3505f901ff2590061f44a0b726345e7623a169a5.jpg",
    "icongray": "https://steamcdn-a.akamaihd.net/steamcommunity/public/images/apps/897900/0b39074f6d1d8ae493f83da4ed0f0a5a61a8c6fe.jpg"
  },
  {
    "name": "WAVE_10",
    "defaultvalue": 0,
    "displayName": "Off to a good start",
    "hidden": 0,
    "description": "Defend your location for 10 waves",
    "icon": "https://steamcdn-a.akamaihd.net/steamcommunity/public/images/apps/897900/002545356e30b5c00cdd33af5657544876cb0c46.jpg",
    "icongray": "https://steamcdn-a.akamaihd.net/steamcommunity/public/images/apps/897900/24dadef094ed839181f900168de4d41d216f8a67.jpg"
  },
  {
    "name": "WAVE_20",
    "defaultvalue": 0,
    "displayName": "This is where we fight",
    "hidden": 0,
    "description": "Defend your location for 20 waves",
    "icon": "https://steamcdn-a.akamaihd.net/steamcommunity/public/images/apps/897900/fbd7e5fec0542c5ec74d5c579787855288872345.jpg",
    "icongray": "https://steamcdn-a.akamaihd.net/steamcommunity/public/images/apps/897900/24dadef094ed839181f900168de4d41d216f8a67.jpg"
  },
  {
    "name": "WAVE_30",
    "defaultvalue": 0,
    "displayName": "Home is, where the heart is",
    "hidden": 0,
    "description": "Defend your location for 30 waves",
    "icon": "https://steamcdn-a.akamaihd.net/steamcommunity/public/images/apps/897900/3fdef3804aeb297ed53444ab9229ec86c8adbae2.jpg",
    "icongray": "https://steamcdn-a.akamaihd.net/steamcommunity/public/images/apps/897900/24dadef094ed839181f900168de4d41d216f8a67.jpg"
  },
  {
    "name": "WAVE_40",
    "defaultvalue": 0,
    "displayName": "We came to stay",
    "hidden": 0,
    "description": "Defend your location for 40 waves",
    "icon": "https://steamcdn-a.akamaihd.net/steamcommunity/public/images/apps/897900/25e9e04d1648ae988e89493429a1ad8aed12beab.jpg",
    "icongray": "https://steamcdn-a.akamaihd.net/steamcommunity/public/images/apps/897900/24dadef094ed839181f900168de4d41d216f8a67.jpg"
  },
  {
    "name": "WAVE_50",
    "defaultvalue": 0,
    "displayName": "We take this seriously",
    "hidden": 0,
    "description": "Defend your location for 50 waves",
    "icon": "https://steamcdn-a.akamaihd.net/steamcommunity/public/images/apps/897900/4e0b86cdcf9103d85d1651d11af10d4cf6fa7726.jpg",
    "icongray": "https://steamcdn-a.akamaihd.net/steamcommunity/public/images/apps/897900/24dadef094ed839181f900168de4d41d216f8a67.jpg"
  },
  {
    "name": "WAVE_100",
    "defaultvalue": 0,
    "displayName": "We are Professionals",
    "hidden": 0,
    "description": "Defend your location for 100 waves",
    "icon": "https://steamcdn-a.akamaihd.net/steamcommunity/public/images/apps/897900/1b618b265e62b48a90736e3bba98937a25d323a8.jpg",
    "icongray": "https://steamcdn-a.akamaihd.net/steamcommunity/public/images/apps/897900/24dadef094ed839181f900168de4d41d216f8a67.jpg"
  },
  {
    "name": "DIE_1",
    "defaultvalue": 0,
    "displayName": "Death's Cold Hand",
    "hidden": 0,
    "description": "Die.",
    "icon": "https://steamcdn-a.akamaihd.net/steamcommunity/public/images/apps/897900/a75fd1beccbef587cda117969ed47877094c8751.jpg",
    "icongray": "https://steamcdn-a.akamaihd.net/steamcommunity/public/images/apps/897900/4b6e7401f69cec040d07d0595a9fe35257aee66f.jpg"
  },
  {
    "name": "DIE_10",
    "defaultvalue": 0,
    "displayName": "Death? Yeah I know him!",
    "hidden": 0,
    "description": "Die 10 times",
    "icon": "https://steamcdn-a.akamaihd.net/steamcommunity/public/images/apps/897900/b5e4ac256ba1881f8d4428115cb55fbe18c315ce.jpg",
    "icongray": "https://steamcdn-a.akamaihd.net/steamcommunity/public/images/apps/897900/4b6e7401f69cec040d07d0595a9fe35257aee66f.jpg"
  },
  {
    "name": "DIE_50",
    "defaultvalue": 0,
    "displayName": "Death is a cousin of mine",
    "hidden": 0,
    "description": " Die 50 times",
    "icon": "https://steamcdn-a.akamaihd.net/steamcommunity/public/images/apps/897900/cf7025d68ad38c8829245c19fc293d3d29c1255a.jpg",
    "icongray": "https://steamcdn-a.akamaihd.net/steamcommunity/public/images/apps/897900/4b6e7401f69cec040d07d0595a9fe35257aee66f.jpg"
  },
  {
    "name": "DIE_100",
    "defaultvalue": 0,
    "displayName": "We forget to reload",
    "hidden": 0,
    "description": " Die 100 times",
    "icon": "https://steamcdn-a.akamaihd.net/steamcommunity/public/images/apps/897900/cd069c25e564960bdbd8280c571b917ccebb0e8a.jpg",
    "icongray": "https://steamcdn-a.akamaihd.net/steamcommunity/public/images/apps/897900/4b6e7401f69cec040d07d0595a9fe35257aee66f.jpg"
  },
  {
    "name": "KILL_1",
    "defaultvalue": 0,
    "displayName": "First Blood",
    "hidden": 0,
    "description": "Kill your first Zombie",
    "icon": "https://steamcdn-a.akamaihd.net/steamcommunity/public/images/apps/897900/26f8fabaacf23dd3c0ca7c5e6f464606dabe4875.jpg",
    "icongray": "https://steamcdn-a.akamaihd.net/steamcommunity/public/images/apps/897900/0295f9c87b2e529a76e1d10f7c68f0c022836986.jpg"
  },
  {
    "name": "KILL_100",
    "defaultvalue": 0,
    "displayName": "Zombie Hater",
    "hidden": 0,
    "description": " Kill 100 Zombies",
    "icon": "https://steamcdn-a.akamaihd.net/steamcommunity/public/images/apps/897900/942f3a602a4dbf4722f67e5f7d26ff66b77987a6.jpg",
    "icongray": "https://steamcdn-a.akamaihd.net/steamcommunity/public/images/apps/897900/165d0d5cb3253f3f4d8fc140e0be7fca7dfb1393.jpg"
  },
  {
    "name": "KILL_300",
    "defaultvalue": 0,
    "displayName": "Zombie Cleaner",
    "hidden": 0,
    "description": " Kill 300 Zombies",
    "icon": "https://steamcdn-a.akamaihd.net/steamcommunity/public/images/apps/897900/55fe95737ac73a4434f61ff92179afb592274be6.jpg",
    "icongray": "https://steamcdn-a.akamaihd.net/steamcommunity/public/images/apps/897900/024e6180807fe3d16d6de898f414226435fa26bc.jpg"
  },
  {
    "name": "KILL_500",
    "defaultvalue": 0,
    "displayName": "They Smell Bad!",
    "hidden": 0,
    "description": " Kill 500 Zombies",
    "icon": "https://steamcdn-a.akamaihd.net/steamcommunity/public/images/apps/897900/aef12854e4bd81bc298fec3091857c124a1263d8.jpg",
    "icongray": "https://steamcdn-a.akamaihd.net/steamcommunity/public/images/apps/897900/227c8f048de99b2af2655929af5b64fac4996ba6.jpg"
  },
  {
    "name": "KILL_750",
    "defaultvalue": 0,
    "displayName": "Zombie Destroyer",
    "hidden": 0,
    "description": " Kill 750 Zombies",
    "icon": "https://steamcdn-a.akamaihd.net/steamcommunity/public/images/apps/897900/6afbe65cda7086d88fa59ec402e9abc6914d6df0.jpg",
    "icongray": "https://steamcdn-a.akamaihd.net/steamcommunity/public/images/apps/897900/c6b9a2b5b612aefa54b8d223a501b48d8321883e.jpg"
  },
  {
    "name": "KILL_1000",
    "defaultvalue": 0,
    "displayName": "Zombie Slayer",
    "hidden": 0,
    "description": " Kill 1000 Zombies",
    "icon": "https://steamcdn-a.akamaihd.net/steamcommunity/public/images/apps/897900/5bd90f6f0ef0b99bc0176c3b91d2ad05e923da5a.jpg",
    "icongray": "https://steamcdn-a.akamaihd.net/steamcommunity/public/images/apps/897900/9f08e686752074d94d8c6bb096cf1db230006935.jpg"
  },
  {
    "name": "HEADSHOT",
    "defaultvalue": 0,
    "displayName": "Headshot!",
    "hidden": 0,
    "description": "Do a Headshot!",
    "icon": "https://steamcdn-a.akamaihd.net/steamcommunity/public/images/apps/897900/6a34b497fc1e2cecbe2e4bdc3d03f1022350d898.jpg",
    "icongray": "https://steamcdn-a.akamaihd.net/steamcommunity/public/images/apps/897900/e37f9a9ad3e834c7b442e9a252bd63751e256c7c.jpg"
  },
  {
    "name": "SECRET_GIFT",
    "defaultvalue": 0,
    "displayName": "Secret Gift",
    "hidden": 0,
    "description": "Find yourself a Secret Gift!",
    "icon": "https://steamcdn-a.akamaihd.net/steamcommunity/public/images/apps/897900/77f67573f621696f861ea4e9bf0824ab6aac5a88.jpg",
    "icongray": "https://steamcdn-a.akamaihd.net/steamcommunity/public/images/apps/897900/9fc213c9e81391f31903777402a669982ef3ca6f.jpg"
  },
  {
    "name": "TROPHY",
    "defaultvalue": 0,
    "displayName": "Trophy",
    "hidden": 0,
    "description": "Get yourself a Trophy!",
    "icon": "https://steamcdn-a.akamaihd.net/steamcommunity/public/images/apps/897900/a7797c4990fc249e450f55c6b94506dc0e3e8da2.jpg",
    "icongray": "https://steamcdn-a.akamaihd.net/steamcommunity/public/images/apps/897900/857716f6b38a7c7bf877c6a3deabee0cdaf0b2cc.jpg"
  }
]