[
  {
    "name": "PacifistAgent",
    "defaultvalue": 0,
    "displayName": "Pacifist Agent",
    "hidden": 0,
    "description": "Was has been averted.",
    "icon": "https://steamcdn-a.akamaihd.net/steamcommunity/public/images/apps/1144060/7912b24ddfe93b5c921e98e584528a23fcbe0585.jpg",
    "icongray": "https://steamcdn-a.akamaihd.net/steamcommunity/public/images/apps/1144060/9f8c1772cb4cae405774e1fd308f793ae199881a.jpg"
  },
  {
    "name": "LoyalAgent",
    "defaultvalue": 0,
    "displayName": "Loyal Agent",
    "hidden": 0,
    "description": "Follow every order.",
    "icon": "https://steamcdn-a.akamaihd.net/steamcommunity/public/images/apps/1144060/fa449896f7d6f4725cb797000929d9734280784d.jpg",
    "icongray": "https://steamcdn-a.akamaihd.net/steamcommunity/public/images/apps/1144060/eb4c52f051ac821b532b258aca6cc27c3b053ed7.jpg"
  },
  {
    "name": "TriedAndFailed",
    "defaultvalue": 0,
    "displayName": "Tried and Failed",
    "hidden": 0,
    "description": "Unsuccessfully avoid war.",
    "icon": "https://steamcdn-a.akamaihd.net/steamcommunity/public/images/apps/1144060/fc187097d11175055a8946a73b772b2da19bed2c.jpg",
    "icongray": "https://steamcdn-a.akamaihd.net/steamcommunity/public/images/apps/1144060/b214d8881e0c42a605b93ab3f3ec38fcf2c10e3d.jpg"
  },
  {
    "name": "UnitCompromised",
    "defaultvalue": 0,
    "displayName": "Unit Compromised",
    "hidden": 1,
    "icon": "https://steamcdn-a.akamaihd.net/steamcommunity/public/images/apps/1144060/1c1d8637a325e84e8f58961db6cde1db48ee0244.jpg",
    "icongray": "https://steamcdn-a.akamaihd.net/steamcommunity/public/images/apps/1144060/ccd16d34c9f9df3b96c9aaabfe19fdc31d63eb76.jpg"
  },
  {
    "name": "RecklessManagement",
    "defaultvalue": 0,
    "displayName": "Reckless Management",
    "hidden": 0,
    "description": "Lose too many agents on the field.",
    "icon": "https://steamcdn-a.akamaihd.net/steamcommunity/public/images/apps/1144060/30586f74ff2546f1e65c7bdcd127e7fcd3544563.jpg",
    "icongray": "https://steamcdn-a.akamaihd.net/steamcommunity/public/images/apps/1144060/f5f4124955c5b3766f7a6de69561aa2581db57a2.jpg"
  },
  {
    "name": "LazyManagement",
    "defaultvalue": 0,
    "displayName": "Lazy Management",
    "hidden": 0,
    "description": "Fail to execute enough missions.",
    "icon": "https://steamcdn-a.akamaihd.net/steamcommunity/public/images/apps/1144060/0af0e7d7bc5512d22aa149dff52f3b93a49e01ba.jpg",
    "icongray": "https://steamcdn-a.akamaihd.net/steamcommunity/public/images/apps/1144060/cfa9f24cae6a04415233d14a14794b06836dfe63.jpg"
  },
  {
    "name": "RogueCommander",
    "defaultvalue": 0,
    "displayName": "Rogue Commander",
    "hidden": 0,
    "description": "Disobey an order.",
    "icon": "https://steamcdn-a.akamaihd.net/steamcommunity/public/images/apps/1144060/7b35e23138cd0f6f842ffed009b13cf2e9a92512.jpg",
    "icongray": "https://steamcdn-a.akamaihd.net/steamcommunity/public/images/apps/1144060/019fcc7a21352a91c5bb8803f1d5d1c4cfff48fe.jpg"
  },
  {
    "name": "CaughtInTheCrossfire",
    "defaultvalue": 0,
    "displayName": "Caught In The Crossfire",
    "hidden": 0,
    "description": "Accidentally kill four civilians.",
    "icon": "https://steamcdn-a.akamaihd.net/steamcommunity/public/images/apps/1144060/aa76b8b0248b0c68d1ecc2af4e23b69e4725a8b5.jpg",
    "icongray": "https://steamcdn-a.akamaihd.net/steamcommunity/public/images/apps/1144060/3edfaa850ced9bdea4d763d1bd030b4ef44ec7e7.jpg"
  },
  {
    "name": "MassCasualties",
    "defaultvalue": 0,
    "displayName": "Mass Casualties",
    "hidden": 0,
    "description": "Accidentally kill eight civilians.",
    "icon": "https://steamcdn-a.akamaihd.net/steamcommunity/public/images/apps/1144060/0172033f0b612896f9cd32caf949a1ba286538e2.jpg",
    "icongray": "https://steamcdn-a.akamaihd.net/steamcommunity/public/images/apps/1144060/722d554bd3cf21c777ae52ce9ac6379089b4cf4d.jpg"
  },
  {
    "name": "BackupNeeded",
    "defaultvalue": 0,
    "displayName": "Backup Needed",
    "hidden": 1,
    "icon": "https://steamcdn-a.akamaihd.net/steamcommunity/public/images/apps/1144060/ca594f2e3018fc2c08de803ad1db1d52f055b9e8.jpg",
    "icongray": "https://steamcdn-a.akamaihd.net/steamcommunity/public/images/apps/1144060/227556f1ad1e68f543c085b697585a4301e836be.jpg"
  },
  {
    "name": "MIA",
    "defaultvalue": 0,
    "displayName": "M.I.A.",
    "hidden": 1,
    "icon": "https://steamcdn-a.akamaihd.net/steamcommunity/public/images/apps/1144060/d1351a560513d4fe25b7c736791f09a54f215555.jpg",
    "icongray": "https://steamcdn-a.akamaihd.net/steamcommunity/public/images/apps/1144060/91c46b9f3f38fe4f38f5de15b0c2a065fbc99f19.jpg"
  },
  {
    "name": "KIA",
    "defaultvalue": 0,
    "displayName": "K.I.A.",
    "hidden": 0,
    "description": "Lose an agent while on a mission.",
    "icon": "https://steamcdn-a.akamaihd.net/steamcommunity/public/images/apps/1144060/607a2eb44be7236588f77cae5799ecbd6c3aa8cb.jpg",
    "icongray": "https://steamcdn-a.akamaihd.net/steamcommunity/public/images/apps/1144060/80f62225a3ecff323cac27a7927e12c0a13ff4a9.jpg"
  },
  {
    "name": "LearningLeader",
    "defaultvalue": 0,
    "displayName": "Learning Leader",
    "hidden": 0,
    "description": "Inquire about the assassin's job.",
    "icon": "https://steamcdn-a.akamaihd.net/steamcommunity/public/images/apps/1144060/501257430d8f11d03eafa0af6415d3ddb4220933.jpg",
    "icongray": "https://steamcdn-a.akamaihd.net/steamcommunity/public/images/apps/1144060/8ff463d0258b82e7aff101f90782b76e103a2797.jpg"
  }
]