{
  "Dlcs": {
    "1026640": {
      "Name": "Lighter - 角色个人线DLC包",
      "ImageUrl": "https://steamcdn-a.akamaihd.net/steam/apps/1026640/header.jpg?t=1549801334"
    }
  },
  "Name": "Lighter",
  "AppId": "992700",
  "ImageUrl": "https://steamcdn-a.akamaihd.net/steam/apps/992700/header.jpg?t=1583911867",
  "Languages": [
    "schinese"
  ],
  "Platforms": {
    "windows": true,
    "mac": true,
    "linux": false
  }
}