{
  "Dlcs": {},
  "Name": "A Fold Apart",
  "AppId": "451310",
  "ImageUrl": "https://steamcdn-a.akamaihd.net/steam/apps/451310/header.jpg?t=1600142916",
  "Languages": [
    "english",
    "french",
    "italian",
    "german",
    "spanish",
    "arabic",
    "dutch",
    "japanese",
    "korean",
    "portuguese",
    "russian",
    "schinese",
    "tchinese",
    "turkish"
  ],
  "Platforms": {
    "windows": true,
    "mac": false,
    "linux": false
  }
}