{
  "Dlcs": {},
  "Name": "Pistol Dancer",
  "AppId": "1274730",
  "ImageUrl": "https://steamcdn-a.akamaihd.net/steam/apps/1274730/header.jpg?t=1600693180",
  "Languages": [
    "english"
  ],
  "Platforms": {
    "windows": true,
    "mac": false,
    "linux": false
  }
}