[
  {
    "name": "Unintended_Destruction",
    "defaultvalue": 0,
    "displayName": "Unintended Destruction",
    "hidden": 0,
    "description": "Accidentally destroy the winter globe and freeze everyone.",
    "icon": "https://steamcdn-a.akamaihd.net/steamcommunity/public/images/apps/814660/87ba1d9a965e62293eab348a6b7a5d8efa0376dd.jpg",
    "icongray": "https://steamcdn-a.akamaihd.net/steamcommunity/public/images/apps/814660/87ba1d9a965e62293eab348a6b7a5d8efa0376dd.jpg"
  },
  {
    "name": "Unintended_House01",
    "defaultvalue": 0,
    "displayName": "Leaving the nest",
    "hidden": 0,
    "description": "Eat your breakfast and leave your home.",
    "icon": "https://steamcdn-a.akamaihd.net/steamcommunity/public/images/apps/814660/87ba1d9a965e62293eab348a6b7a5d8efa0376dd.jpg",
    "icongray": "https://steamcdn-a.akamaihd.net/steamcommunity/public/images/apps/814660/87ba1d9a965e62293eab348a6b7a5d8efa0376dd.jpg"
  },
  {
    "name": "Unintended_Gold",
    "defaultvalue": 0,
    "displayName": "Gold Digger.",
    "hidden": 0,
    "description": "Collect 50 gold pieces.",
    "icon": "https://steamcdn-a.akamaihd.net/steamcommunity/public/images/apps/814660/87ba1d9a965e62293eab348a6b7a5d8efa0376dd.jpg",
    "icongray": "https://steamcdn-a.akamaihd.net/steamcommunity/public/images/apps/814660/87ba1d9a965e62293eab348a6b7a5d8efa0376dd.jpg"
  },
  {
    "name": "Unintended_BreakRocks",
    "defaultvalue": 0,
    "displayName": "Prospector Gadget",
    "hidden": 0,
    "description": "Break 25 rocks.",
    "icon": "https://steamcdn-a.akamaihd.net/steamcommunity/public/images/apps/814660/87ba1d9a965e62293eab348a6b7a5d8efa0376dd.jpg",
    "icongray": "https://steamcdn-a.akamaihd.net/steamcommunity/public/images/apps/814660/87ba1d9a965e62293eab348a6b7a5d8efa0376dd.jpg"
  },
  {
    "name": "Unintended_TriLock",
    "defaultvalue": 0,
    "displayName": "Open Sesame!",
    "hidden": 0,
    "description": "Open the door with three locks.",
    "icon": "https://steamcdn-a.akamaihd.net/steamcommunity/public/images/apps/814660/87ba1d9a965e62293eab348a6b7a5d8efa0376dd.jpg",
    "icongray": "https://steamcdn-a.akamaihd.net/steamcommunity/public/images/apps/814660/87ba1d9a965e62293eab348a6b7a5d8efa0376dd.jpg"
  },
  {
    "name": "Unintended_Mokok",
    "defaultvalue": 0,
    "displayName": "No mo' mo-kok!",
    "hidden": 0,
    "description": "Defeat the evil monster of the mud-caves called Mokok.",
    "icon": "https://steamcdn-a.akamaihd.net/steamcommunity/public/images/apps/814660/87ba1d9a965e62293eab348a6b7a5d8efa0376dd.jpg",
    "icongray": "https://steamcdn-a.akamaihd.net/steamcommunity/public/images/apps/814660/db75cb21e9a899d9beb6396a09c0ff930ed38c3d.jpg"
  },
  {
    "name": "Unintended_Wabbits",
    "defaultvalue": 0,
    "displayName": "Wabbit season!",
    "hidden": 0,
    "description": "Hunt 10 bunnies.",
    "icon": "https://steamcdn-a.akamaihd.net/steamcommunity/public/images/apps/814660/87ba1d9a965e62293eab348a6b7a5d8efa0376dd.jpg",
    "icongray": "https://steamcdn-a.akamaihd.net/steamcommunity/public/images/apps/814660/87ba1d9a965e62293eab348a6b7a5d8efa0376dd.jpg"
  },
  {
    "name": "Unintended_DarkenMudCaves",
    "defaultvalue": 0,
    "displayName": "Who left the lights on?",
    "hidden": 0,
    "description": "Turn off all the lights in the mud caves.",
    "icon": "https://steamcdn-a.akamaihd.net/steamcommunity/public/images/apps/814660/87ba1d9a965e62293eab348a6b7a5d8efa0376dd.jpg",
    "icongray": "https://steamcdn-a.akamaihd.net/steamcommunity/public/images/apps/814660/87ba1d9a965e62293eab348a6b7a5d8efa0376dd.jpg"
  },
  {
    "name": "Unintended_TheEnd",
    "defaultvalue": 0,
    "displayName": "Element of fire.",
    "hidden": 0,
    "description": "Save your town.",
    "icon": "https://steamcdn-a.akamaihd.net/steamcommunity/public/images/apps/814660/87ba1d9a965e62293eab348a6b7a5d8efa0376dd.jpg",
    "icongray": "https://steamcdn-a.akamaihd.net/steamcommunity/public/images/apps/814660/87ba1d9a965e62293eab348a6b7a5d8efa0376dd.jpg"
  },
  {
    "name": "Unintended_Torlok",
    "defaultvalue": 0,
    "displayName": "You shall not lead, no more!",
    "hidden": 0,
    "description": "Defeat Torlok and free the Mud city",
    "icon": "https://steamcdn-a.akamaihd.net/steamcommunity/public/images/apps/814660/87ba1d9a965e62293eab348a6b7a5d8efa0376dd.jpg",
    "icongray": "https://steamcdn-a.akamaihd.net/steamcommunity/public/images/apps/814660/87ba1d9a965e62293eab348a6b7a5d8efa0376dd.jpg"
  },
  {
    "name": "Unintended_Gold100",
    "defaultvalue": 0,
    "displayName": "I want it all!",
    "hidden": 0,
    "description": "Collect 100 gold pieces",
    "icon": "https://steamcdn-a.akamaihd.net/steamcommunity/public/images/apps/814660/87ba1d9a965e62293eab348a6b7a5d8efa0376dd.jpg",
    "icongray": "https://steamcdn-a.akamaihd.net/steamcommunity/public/images/apps/814660/87ba1d9a965e62293eab348a6b7a5d8efa0376dd.jpg"
  },
  {
    "name": "Unintended_eggs",
    "defaultvalue": 0,
    "displayName": "No I did not, I did not.",
    "hidden": 0,
    "description": "Deliver The Eggs",
    "icon": "https://steamcdn-a.akamaihd.net/steamcommunity/public/images/apps/814660/db75cb21e9a899d9beb6396a09c0ff930ed38c3d.jpg",
    "icongray": "https://steamcdn-a.akamaihd.net/steamcommunity/public/images/apps/814660/87ba1d9a965e62293eab348a6b7a5d8efa0376dd.jpg"
  },
  {
    "name": "Unintended_Explode",
    "defaultvalue": 0,
    "displayName": "Exploder",
    "hidden": 0,
    "description": "Find a secret place by using dynamites.",
    "icon": "https://steamcdn-a.akamaihd.net/steamcommunity/public/images/apps/814660/87ba1d9a965e62293eab348a6b7a5d8efa0376dd.jpg",
    "icongray": "https://steamcdn-a.akamaihd.net/steamcommunity/public/images/apps/814660/db75cb21e9a899d9beb6396a09c0ff930ed38c3d.jpg"
  }
]