{
  "Dlcs": {},
  "Name": "魔光",
  "AppId": "723540",
  "ImageUrl": "https://steamcdn-a.akamaihd.net/steam/apps/723540/header.jpg?t=1512386493",
  "Languages": [
    "schinese"
  ],
  "Platforms": {
    "windows": true,
    "mac": false,
    "linux": false
  }
}