[
  {
    "name": "INSOMNIA",
    "defaultvalue": 0,
    "displayName": "Insomnia",
    "hidden": 0,
    "description": "Habitual sleeplessness",
    "icon": "https://steamcdn-a.akamaihd.net/steamcommunity/public/images/apps/1250870/1121acf283db10d7742178be05a7840ddc08fcf9.jpg",
    "icongray": "https://steamcdn-a.akamaihd.net/steamcommunity/public/images/apps/1250870/543d7f9896dcb43e09ddd65f27cda78c252d850b.jpg"
  },
  {
    "name": "EUPHORIA",
    "defaultvalue": 0,
    "displayName": "Euphoria",
    "hidden": 0,
    "description": "A state of intense joy",
    "icon": "https://steamcdn-a.akamaihd.net/steamcommunity/public/images/apps/1250870/c36566e4dc52af1b84c2b4da75d8943acd30565e.jpg",
    "icongray": "https://steamcdn-a.akamaihd.net/steamcommunity/public/images/apps/1250870/ecc8b447bfd060c1e9ccdaea0c20936290d15bee.jpg"
  },
  {
    "name": "PARANOIA",
    "defaultvalue": 0,
    "displayName": "Paranoia",
    "hidden": 0,
    "description": "Irrational suspicion",
    "icon": "https://steamcdn-a.akamaihd.net/steamcommunity/public/images/apps/1250870/51602de178fe4ad1c9656536692199b3d4d7f689.jpg",
    "icongray": "https://steamcdn-a.akamaihd.net/steamcommunity/public/images/apps/1250870/463341858d298a12e9a652d029213b60ba2c9440.jpg"
  },
  {
    "name": "PARACUSIA",
    "defaultvalue": 0,
    "displayName": "Paracusia",
    "hidden": 0,
    "description": "Auditory hallucination",
    "icon": "https://steamcdn-a.akamaihd.net/steamcommunity/public/images/apps/1250870/a05e69b900fa4f6855109d4b08d0f5b110846832.jpg",
    "icongray": "https://steamcdn-a.akamaihd.net/steamcommunity/public/images/apps/1250870/d854da1165c105f39c7d5809678a2e0757501ace.jpg"
  },
  {
    "name": "XENOLALIA",
    "defaultvalue": 0,
    "displayName": "Xenolalia",
    "hidden": 0,
    "description": "Paranormal language skills",
    "icon": "https://steamcdn-a.akamaihd.net/steamcommunity/public/images/apps/1250870/c9d4bc788661c2f2abe08fa44c1a29259ca19f51.jpg",
    "icongray": "https://steamcdn-a.akamaihd.net/steamcommunity/public/images/apps/1250870/1e0a49f8961d236b57790fbde8d2ed623b5a8f5d.jpg"
  },
  {
    "name": "TRAUMA",
    "defaultvalue": 0,
    "displayName": "Trauma",
    "hidden": 0,
    "description": "A distressing experience",
    "icon": "https://steamcdn-a.akamaihd.net/steamcommunity/public/images/apps/1250870/523de9db4753ffcbd514bc732be301b2e022ddce.jpg",
    "icongray": "https://steamcdn-a.akamaihd.net/steamcommunity/public/images/apps/1250870/050c08f962b68123133d9c7e0f81b8d28f6a995f.jpg"
  },
  {
    "name": "ANGER_THE_GODS",
    "defaultvalue": 0,
    "displayName": "Anger the Gods",
    "hidden": 0,
    "description": "You have chosen poorly",
    "icon": "https://steamcdn-a.akamaihd.net/steamcommunity/public/images/apps/1250870/9e8015402e7abffb0975ec1b1e05ab38fa8c0a3d.jpg",
    "icongray": "https://steamcdn-a.akamaihd.net/steamcommunity/public/images/apps/1250870/1476e71767c5a5779fc21ca649a723179a2f822d.jpg"
  },
  {
    "name": "TRIED_EVERYTHING",
    "defaultvalue": 0,
    "displayName": "Tried Everything",
    "hidden": 0,
    "description": "Type 50 wrong answers",
    "icon": "https://steamcdn-a.akamaihd.net/steamcommunity/public/images/apps/1250870/870577e1379ff3d593d8c67d6927cea60136549e.jpg",
    "icongray": "https://steamcdn-a.akamaihd.net/steamcommunity/public/images/apps/1250870/393cac437bc4db9d2514aa0a8f29a9c2396d40cb.jpg"
  },
  {
    "name": "CHRONOPHOBIA",
    "defaultvalue": 0,
    "displayName": "Chronophobia",
    "hidden": 0,
    "description": "Finish the game in 79 seconds",
    "icon": "https://steamcdn-a.akamaihd.net/steamcommunity/public/images/apps/1250870/23a76e5936bdc79749628cbd9aa3701cd7dc258b.jpg",
    "icongray": "https://steamcdn-a.akamaihd.net/steamcommunity/public/images/apps/1250870/dca2d65da42cfc73a6f8bd92ea0db87da3fec779.jpg"
  },
  {
    "name": "INSANITY",
    "defaultvalue": 0,
    "displayName": "Insanity",
    "hidden": 0,
    "description": "Finish the game 7 times",
    "icon": "https://steamcdn-a.akamaihd.net/steamcommunity/public/images/apps/1250870/41faa42e700274ad6fda4a4e14fb42b4535ab957.jpg",
    "icongray": "https://steamcdn-a.akamaihd.net/steamcommunity/public/images/apps/1250870/ad4690927abac10a2e2d7f9bdfce0153a56c1922.jpg"
  },
  {
    "name": "HALLOWEEN",
    "defaultvalue": 0,
    "displayName": "Halloween",
    "hidden": 0,
    "description": "Finish the game on Halloween",
    "icon": "https://steamcdn-a.akamaihd.net/steamcommunity/public/images/apps/1250870/aa5a4920295c535829ba422644fa11979c7c2cc4.jpg",
    "icongray": "https://steamcdn-a.akamaihd.net/steamcommunity/public/images/apps/1250870/b4106963daab56865e59e021d9f734e2f5517737.jpg"
  },
  {
    "name": "TIME_CAPSULE",
    "defaultvalue": 0,
    "displayName": "Time Capsule",
    "hidden": 0,
    "description": "Feeling nostalgic",
    "icon": "https://steamcdn-a.akamaihd.net/steamcommunity/public/images/apps/1250870/107d0e4e17b4a06c74ac89e7db3992d3c271d474.jpg",
    "icongray": "https://steamcdn-a.akamaihd.net/steamcommunity/public/images/apps/1250870/c040dac2704d5ffae6a260c57262192be9fda30d.jpg"
  },
  {
    "name": "MANTICORE",
    "defaultvalue": 0,
    "displayName": "Merthykhuwar",
    "hidden": 0,
    "description": "Securing The Future and Improving The Present",
    "icon": "https://steamcdn-a.akamaihd.net/steamcommunity/public/images/apps/1250870/b47ba49d8c1e5e2df12d7ec14abdcf9dc1518a41.jpg",
    "icongray": "https://steamcdn-a.akamaihd.net/steamcommunity/public/images/apps/1250870/8196f4b792aa27cd21e3fd4c77164c6e270493e3.jpg"
  }
]