{
  "Dlcs": {},
  "Name": "LOVE Obsession",
  "AppId": "816580",
  "ImageUrl": "https://steamcdn-a.akamaihd.net/steam/apps/816580/header.jpg?t=1525645211",
  "Languages": [
    "english"
  ],
  "Platforms": {
    "windows": true,
    "mac": false,
    "linux": false
  }
}