{
  "Dlcs": {},
  "Name": "Voodoo Garden",
  "AppId": "502770",
  "ImageUrl": "https://steamcdn-a.akamaihd.net/steam/apps/502770/header.jpg?t=1572399393",
  "Languages": [
    "english",
    "french",
    "german",
    "russian",
    "schinese"
  ],
  "Platforms": {
    "windows": true,
    "mac": false,
    "linux": false
  }
}