[
  {
    "name": "ACH_DOUBLED_UP",
    "defaultvalue": 0,
    "displayName": "Doubled Up",
    "hidden": 0,
    "description": "Used 2 buttons to reach 0.",
    "icon": "https://steamcdn-a.akamaihd.net/steamcommunity/public/images/apps/993200/c2f9b51f8dc793b1e6b8d87fdef1705ac4d68c6a.jpg",
    "icongray": "https://steamcdn-a.akamaihd.net/steamcommunity/public/images/apps/993200/501815dd0ab2f113316dce018ecc8758f37ed4ee.jpg"
  },
  {
    "name": "ACH_TRIPLED_UP",
    "defaultvalue": 0,
    "displayName": "Tripled Up",
    "hidden": 0,
    "description": "Used 3 buttons to reach 0.",
    "icon": "https://steamcdn-a.akamaihd.net/steamcommunity/public/images/apps/993200/c972c299922b011ed42b8eba72af09fef84f41a3.jpg",
    "icongray": "https://steamcdn-a.akamaihd.net/steamcommunity/public/images/apps/993200/a9e19ff2814d1c120c87471e4811dff16498d037.jpg"
  },
  {
    "name": "ACH_QUADRUPLED",
    "defaultvalue": 0,
    "displayName": "Quadrupled",
    "hidden": 0,
    "description": "Used 4 buttons to reach 0.",
    "icon": "https://steamcdn-a.akamaihd.net/steamcommunity/public/images/apps/993200/21424ccdf08800d578fd52f4497321ab04cef350.jpg",
    "icongray": "https://steamcdn-a.akamaihd.net/steamcommunity/public/images/apps/993200/fc2691882f5444c85e027249e55de7f8ab98b2fe.jpg"
  },
  {
    "name": "ACH_QUINTUPLED",
    "defaultvalue": 0,
    "displayName": "Quintupled",
    "hidden": 0,
    "description": "Used 5 buttons to reach 0.",
    "icon": "https://steamcdn-a.akamaihd.net/steamcommunity/public/images/apps/993200/be4e6ce54cbee7e398e8a394039f2cba0a97a912.jpg",
    "icongray": "https://steamcdn-a.akamaihd.net/steamcommunity/public/images/apps/993200/1cc4c15a65ca7ce3b1e46bb202cca8a4f4808c54.jpg"
  },
  {
    "name": "ACH_CALCUL8TED",
    "defaultvalue": 0,
    "displayName": "Calcul8ted",
    "hidden": 0,
    "description": "Used 6 or more buttons to reach 0.",
    "icon": "https://steamcdn-a.akamaihd.net/steamcommunity/public/images/apps/993200/d362c946198c0c85b2e28ec1a22e8428961f7193.jpg",
    "icongray": "https://steamcdn-a.akamaihd.net/steamcommunity/public/images/apps/993200/1c8673bd700ed0b43443f741a8290c4932a98327.jpg"
  },
  {
    "name": "ACH_ROLL",
    "defaultvalue": 0,
    "displayName": "On a roll...",
    "hidden": 0,
    "description": "Won more than 25 times in a row.",
    "icon": "https://steamcdn-a.akamaihd.net/steamcommunity/public/images/apps/993200/155325afc52a0c3311be3c7a62abd46cff48d3ec.jpg",
    "icongray": "https://steamcdn-a.akamaihd.net/steamcommunity/public/images/apps/993200/db052da5ddf55005fd199b29bdae80f1cd51c917.jpg"
  },
  {
    "name": "ACH_WINNING",
    "defaultvalue": 0,
    "displayName": "#winning!",
    "hidden": 0,
    "description": "Won more than 50 times in a row.",
    "icon": "https://steamcdn-a.akamaihd.net/steamcommunity/public/images/apps/993200/83e63fa170465cb61430a535d7bfe0fd85c7f31e.jpg",
    "icongray": "https://steamcdn-a.akamaihd.net/steamcommunity/public/images/apps/993200/3c5e6638ba6d502c8300de7a45859e97deeb3fbf.jpg"
  },
  {
    "name": "ACH_MASH",
    "defaultvalue": 0,
    "displayName": "Mash 'em",
    "hidden": 0,
    "description": "Lose more than 5 times in a row.",
    "icon": "https://steamcdn-a.akamaihd.net/steamcommunity/public/images/apps/993200/38d46dbea9bfb1c4dcbb733d4486f4cd621ce27d.jpg",
    "icongray": "https://steamcdn-a.akamaihd.net/steamcommunity/public/images/apps/993200/af12cabff88c2cee71103d760134343a0cbfd3b6.jpg"
  },
  {
    "name": "ACH_UNDO",
    "defaultvalue": 0,
    "displayName": "Undo.",
    "hidden": 0,
    "description": "Cleared your selection using 'C'",
    "icon": "https://steamcdn-a.akamaihd.net/steamcommunity/public/images/apps/993200/4dc4a795edfceeed0256c8b509d94700f4e0c5f2.jpg",
    "icongray": "https://steamcdn-a.akamaihd.net/steamcommunity/public/images/apps/993200/723c0a1c3f93b261c22234aba4f47bbbb6766d61.jpg"
  },
  {
    "name": "ACH_RND",
    "defaultvalue": 0,
    "displayName": "Rnd()",
    "hidden": 0,
    "description": "Reset the current goal using 'CE'",
    "icon": "https://steamcdn-a.akamaihd.net/steamcommunity/public/images/apps/993200/ef2281f909a664de48719bda432669c97870546d.jpg",
    "icongray": "https://steamcdn-a.akamaihd.net/steamcommunity/public/images/apps/993200/869ebd0cdaa8c59db382ed836980384cb4731a9f.jpg"
  },
  {
    "name": "ACH_QUICKSAVE",
    "defaultvalue": 0,
    "displayName": "Quicksaved",
    "hidden": 0,
    "description": "Quicksaved the game using '💾'",
    "icon": "https://steamcdn-a.akamaihd.net/steamcommunity/public/images/apps/993200/84bbe830a7cab6ec0c0b5f7f1773a9aa5b39e707.jpg",
    "icongray": "https://steamcdn-a.akamaihd.net/steamcommunity/public/images/apps/993200/3595344fe1477d2a71282e85198d2257abb03dbc.jpg"
  },
  {
    "name": "ACH_QUICKLOAD",
    "defaultvalue": 0,
    "displayName": "Reloaded",
    "hidden": 0,
    "description": "Reoaded the game using '📁'",
    "icon": "https://steamcdn-a.akamaihd.net/steamcommunity/public/images/apps/993200/4a6ded427e4526eccf0b6b81f28ec09fbfe9db24.jpg",
    "icongray": "https://steamcdn-a.akamaihd.net/steamcommunity/public/images/apps/993200/290e61d832e92b31c6422f333f64819e609a0488.jpg"
  },
  {
    "name": "ACH_1000",
    "defaultvalue": 0,
    "displayName": "Getting started...",
    "hidden": 0,
    "description": "Scored over 1,000 in a single run.",
    "icon": "https://steamcdn-a.akamaihd.net/steamcommunity/public/images/apps/993200/6efba0daa0f385bc97cf24b3b5a6e7bc2f6eaddf.jpg",
    "icongray": "https://steamcdn-a.akamaihd.net/steamcommunity/public/images/apps/993200/ccf0ea6db2d20a848a2a09affa02b72b2c3eb472.jpg"
  },
  {
    "name": "ACH_10000",
    "defaultvalue": 0,
    "displayName": "Getting into it!",
    "hidden": 0,
    "description": "Scored over 10,000 in a single run.",
    "icon": "https://steamcdn-a.akamaihd.net/steamcommunity/public/images/apps/993200/f356f1503c26267f75df65dd5bafc65d2be6b4c7.jpg",
    "icongray": "https://steamcdn-a.akamaihd.net/steamcommunity/public/images/apps/993200/e71c52a513bb4409d8842ad57bfad6d1792fae9f.jpg"
  },
  {
    "name": "ACH_100000",
    "defaultvalue": 0,
    "displayName": "Number Cruncher!",
    "hidden": 0,
    "description": "Scored over 100,000 in a single run.",
    "icon": "https://steamcdn-a.akamaihd.net/steamcommunity/public/images/apps/993200/8f1757b088ad2e99813cf6e2ddd5175234bad06e.jpg",
    "icongray": "https://steamcdn-a.akamaihd.net/steamcommunity/public/images/apps/993200/23440c012fbd180d63666302702edb464bc53644.jpg"
  }
]