{
  "Dlcs": {},
  "Name": "Seeds of Chaos",
  "AppId": "1205950",
  "ImageUrl": "https://steamcdn-a.akamaihd.net/steam/apps/1205950/header_alt_assets_1.jpg?t=1600428708",
  "Languages": [
    "english"
  ],
  "Platforms": {
    "windows": true,
    "mac": false,
    "linux": true
  }
}