{
  "Dlcs": {},
  "Name": "Nancy Drew® Dossier: Resorting to Danger!",
  "AppId": "42200",
  "ImageUrl": "https://steamcdn-a.akamaihd.net/steam/apps/42200/header.jpg?t=1573090344",
  "Languages": [
    "english"
  ],
  "Platforms": {
    "windows": true,
    "mac": false,
    "linux": false
  }
}