{
  "Dlcs": {
    "1187760": {
      "Name": "Anomaly Zone - Starter Kit",
      "ImageUrl": "https://steamcdn-a.akamaihd.net/steam/apps/1187760/header.jpg?t=1572605804"
    },
    "1187820": {
      "Name": "Anomaly Zone - Hockey Mask",
      "ImageUrl": "https://steamcdn-a.akamaihd.net/steam/apps/1187820/header.jpg?t=1572605674"
    },
    "1187821": {
      "Name": "Anomaly Zone - Pumpkin Helmet",
      "ImageUrl": "https://steamcdn-a.akamaihd.net/steam/apps/1187821/header.jpg?t=1572605728"
    },
    "1205110": {
      "Name": "Anomaly Zone - Cat Mask",
      "ImageUrl": "https://steamcdn-a.akamaihd.net/steam/apps/1205110/header.jpg?t=1576132788"
    },
    "1205111": {
      "Name": "Anomaly Zone - Bear Mask",
      "ImageUrl": "https://steamcdn-a.akamaihd.net/steam/apps/1205111/header.jpg?t=1576132883"
    },
    "1205112": {
      "Name": "Anomaly Zone - Rabbit Mask",
      "ImageUrl": "https://steamcdn-a.akamaihd.net/steam/apps/1205112/header.jpg?t=1576049727"
    },
    "1205113": {
      "Name": "Anomaly Zone - Evil Rabbit",
      "ImageUrl": "https://steamcdn-a.akamaihd.net/steam/apps/1205113/header.jpg?t=1576230605"
    },
    "1205114": {
      "Name": "Anomaly Zone - Imperial Hat",
      "ImageUrl": "https://steamcdn-a.akamaihd.net/steam/apps/1205114/header.jpg?t=1576230700"
    },
    "1205115": {
      "Name": "Anomaly Zone - Cheburashka Mask",
      "ImageUrl": "https://steamcdn-a.akamaihd.net/steam/apps/1205115/header.jpg?t=1576230775"
    }
  },
  "Name": "Anomaly Zone",
  "AppId": "1157250",
  "ImageUrl": "https://steamcdn-a.akamaihd.net/steam/apps/1157250/header.jpg?t=1576231018",
  "Languages": [
    "english",
    "russian"
  ],
  "Platforms": {
    "windows": true,
    "mac": false,
    "linux": false
  }
}