﻿[
  {
    "name": "ACHIEVEMENT_0",
    "defaultvalue": 0,
    "displayName": "By the Power of Gray-Skill...",
    "hidden": 0,
    "description": "Wield the fire sword",
    "icon": "https://steamcdn-a.akamaihd.net/steamcommunity/public/images/apps/247240/ec60b440a3f69c2e0cd11a7a21e1168d5e08fe7b.jpg",
    "icongray": "https://steamcdn-a.akamaihd.net/steamcommunity/public/images/apps/247240/5c623439f6bc4e0ea96bcd569993cda780f1f95e.jpg"
  },
  {
    "name": "ACHIEVEMENT_1",
    "defaultvalue": 0,
    "displayName": "Thor's Blessing",
    "hidden": 0,
    "description": "Unlock Mjolnir's power",
    "icon": "https://steamcdn-a.akamaihd.net/steamcommunity/public/images/apps/247240/bb35417efa60b8eb9412dd786d866535e1bad16f.jpg",
    "icongray": "https://steamcdn-a.akamaihd.net/steamcommunity/public/images/apps/247240/5c623439f6bc4e0ea96bcd569993cda780f1f95e.jpg"
  },
  {
    "name": "ACHIEVEMENT_2",
    "defaultvalue": 0,
    "displayName": "I Will Have My Vengeance!",
    "hidden": 0,
    "description": "Defeat the Lizardmen King",
    "icon": "https://steamcdn-a.akamaihd.net/steamcommunity/public/images/apps/247240/25adde173cfc30df0ae9c56b5833f29426048b5a.jpg",
    "icongray": "https://steamcdn-a.akamaihd.net/steamcommunity/public/images/apps/247240/5c623439f6bc4e0ea96bcd569993cda780f1f95e.jpg"
  },
  {
    "name": "ACHIEVEMENT_3",
    "defaultvalue": 0,
    "displayName": "Sock It to Me Nakatomi",
    "hidden": 0,
    "description": "Break the Magic Seal on Fafnir's Tower",
    "icon": "https://steamcdn-a.akamaihd.net/steamcommunity/public/images/apps/247240/056c26f6c64801430d6b2467eaed56402f328066.jpg",
    "icongray": "https://steamcdn-a.akamaihd.net/steamcommunity/public/images/apps/247240/5c623439f6bc4e0ea96bcd569993cda780f1f95e.jpg"
  },
  {
    "name": "ACHIEVEMENT_4",
    "defaultvalue": 0,
    "displayName": "If It Bleeds, You Can Kill It",
    "hidden": 0,
    "description": "Complete the game and earn Ending C",
    "icon": "https://steamcdn-a.akamaihd.net/steamcommunity/public/images/apps/247240/63c066f32a0c4526b017291cd0e584c280536f96.jpg",
    "icongray": "https://steamcdn-a.akamaihd.net/steamcommunity/public/images/apps/247240/5c623439f6bc4e0ea96bcd569993cda780f1f95e.jpg"
  },
  {
    "name": "ACHIEVEMENT_5",
    "defaultvalue": 0,
    "displayName": "On the Wings of Glory",
    "hidden": 0,
    "description": "Complete the game and earn Ending B",
    "icon": "https://steamcdn-a.akamaihd.net/steamcommunity/public/images/apps/247240/1e102f66f94bd20532f90c08dc6c586166f68ac4.jpg",
    "icongray": "https://steamcdn-a.akamaihd.net/steamcommunity/public/images/apps/247240/5c623439f6bc4e0ea96bcd569993cda780f1f95e.jpg"
  },
  {
    "name": "ACHIEVEMENT_6",
    "defaultvalue": 0,
    "displayName": "Red Means Dead",
    "hidden": 0,
    "description": "Complete the game and earn Ending A",
    "icon": "https://steamcdn-a.akamaihd.net/steamcommunity/public/images/apps/247240/6fd22a4ac8b5225312c4258f9833c68793a44a27.jpg",
    "icongray": "https://steamcdn-a.akamaihd.net/steamcommunity/public/images/apps/247240/5c623439f6bc4e0ea96bcd569993cda780f1f95e.jpg"
  },
  {
    "name": "ACHIEVEMENT_7",
    "defaultvalue": 0,
    "displayName": "Shield Gots My Back",
    "hidden": 1,
    "icon": "https://steamcdn-a.akamaihd.net/steamcommunity/public/images/apps/247240/0a046762a5cb55feb15baa83dbc2080ec42b5247.jpg",
    "icongray": "https://steamcdn-a.akamaihd.net/steamcommunity/public/images/apps/247240/5c623439f6bc4e0ea96bcd569993cda780f1f95e.jpg"
  },
  {
    "name": "ACHIEVEMENT_8",
    "defaultvalue": 0,
    "displayName": "Let Off Some Steam, Bennett",
    "hidden": 0,
    "description": "Kill 4 enemies with a single charged spear attack",
    "icon": "https://steamcdn-a.akamaihd.net/steamcommunity/public/images/apps/247240/410ffcb8c56a904d9beb653d1ebaa231f551a3cb.jpg",
    "icongray": "https://steamcdn-a.akamaihd.net/steamcommunity/public/images/apps/247240/5c623439f6bc4e0ea96bcd569993cda780f1f95e.jpg"
  },
  {
    "name": "ACHIEVEMENT_9",
    "defaultvalue": 0,
    "displayName": "On the Highway to Hel",
    "hidden": 1,
    "icon": "https://steamcdn-a.akamaihd.net/steamcommunity/public/images/apps/247240/1ef4d23aa31cf9a146af71768083b83750084d4b.jpg",
    "icongray": "https://steamcdn-a.akamaihd.net/steamcommunity/public/images/apps/247240/5c623439f6bc4e0ea96bcd569993cda780f1f95e.jpg"
  },
  {
    "name": "ACHIEVEMENT_10",
    "defaultvalue": 0,
    "displayName": "Nothing Can Stop Me",
    "hidden": 0,
    "description": "Block a projectile with the shield while in the air",
    "icon": "https://steamcdn-a.akamaihd.net/steamcommunity/public/images/apps/247240/c2847b2708b2d1f3ab93c2258aa446250e6e6405.jpg",
    "icongray": "https://steamcdn-a.akamaihd.net/steamcommunity/public/images/apps/247240/5c623439f6bc4e0ea96bcd569993cda780f1f95e.jpg"
  },
  {
    "name": "ACHIEVEMENT_11",
    "defaultvalue": 0,
    "displayName": "You've Got the Touch, You've Got the Powah!",
    "hidden": 0,
    "description": "Obtain a Warrior Spirit",
    "icon": "https://steamcdn-a.akamaihd.net/steamcommunity/public/images/apps/247240/874669713ab72a10cafbe299cd02dc49babbc9e3.jpg",
    "icongray": "https://steamcdn-a.akamaihd.net/steamcommunity/public/images/apps/247240/5c623439f6bc4e0ea96bcd569993cda780f1f95e.jpg"
  },
  {
    "name": "ACHIEVEMENT_12",
    "defaultvalue": 0,
    "displayName": "Wealthier than the King of Sweden",
    "hidden": 0,
    "description": "Collect a golden walrus statue",
    "icon": "https://steamcdn-a.akamaihd.net/steamcommunity/public/images/apps/247240/a12485bbf8a0cc8b53e6f5062f183b1f23c790f5.jpg",
    "icongray": "https://steamcdn-a.akamaihd.net/steamcommunity/public/images/apps/247240/5c623439f6bc4e0ea96bcd569993cda780f1f95e.jpg"
  },
  {
    "name": "ACHIEVEMENT_13",
    "defaultvalue": 0,
    "displayName": "What the Hel is \"Nar-Nee-Yah\"",
    "hidden": 1,
    "icon": "https://steamcdn-a.akamaihd.net/steamcommunity/public/images/apps/247240/5265c4f9b5b094d49d02e956427e60d1f3c12337.jpg",
    "icongray": "https://steamcdn-a.akamaihd.net/steamcommunity/public/images/apps/247240/5c623439f6bc4e0ea96bcd569993cda780f1f95e.jpg"
  },
  {
    "name": "ACHIEVEMENT_14",
    "defaultvalue": 0,
    "displayName": "Volgarr...You're Sooo Smooth",
    "hidden": 1,
    "icon": "https://steamcdn-a.akamaihd.net/steamcommunity/public/images/apps/247240/265482a4a13a335313754e36914b5bc0fe378c89.jpg",
    "icongray": "https://steamcdn-a.akamaihd.net/steamcommunity/public/images/apps/247240/5c623439f6bc4e0ea96bcd569993cda780f1f95e.jpg"
  },
  {
    "name": "ACHIEVEMENT_15",
    "defaultvalue": 0,
    "displayName": "That Was...Unexpected",
    "hidden": 1,
    "icon": "https://steamcdn-a.akamaihd.net/steamcommunity/public/images/apps/247240/30c945976f30bb7c6be74bfa48fcd254aa56241d.jpg",
    "icongray": "https://steamcdn-a.akamaihd.net/steamcommunity/public/images/apps/247240/5c623439f6bc4e0ea96bcd569993cda780f1f95e.jpg"
  },
  {
    "name": "ACHIEVEMENT_16",
    "defaultvalue": 0,
    "displayName": "Don't Nidhoggr All the Ale",
    "hidden": 1,
    "icon": "https://steamcdn-a.akamaihd.net/steamcommunity/public/images/apps/247240/ce734cefc5e83a37bf957901da6c3c327f013fe3.jpg",
    "icongray": "https://steamcdn-a.akamaihd.net/steamcommunity/public/images/apps/247240/5c623439f6bc4e0ea96bcd569993cda780f1f95e.jpg"
  },
  {
    "name": "ACHIEVEMENT_17",
    "defaultvalue": 0,
    "displayName": "Viking Nipples of Steel",
    "hidden": 0,
    "description": "Complete any world without ever losing any equipment",
    "icon": "https://steamcdn-a.akamaihd.net/steamcommunity/public/images/apps/247240/602901fbce0bac2595e61afccca373a0d0613d92.jpg",
    "icongray": "https://steamcdn-a.akamaihd.net/steamcommunity/public/images/apps/247240/5c623439f6bc4e0ea96bcd569993cda780f1f95e.jpg"
  },
  {
    "name": "ACHIEVEMENT_18",
    "defaultvalue": 0,
    "displayName": "4-Minute Abs",
    "hidden": 0,
    "description": "Complete any world in 4 minutes or less",
    "icon": "https://steamcdn-a.akamaihd.net/steamcommunity/public/images/apps/247240/295f34d605ac17d6d2eb81f7cf5b4cf43d6fb86b.jpg",
    "icongray": "https://steamcdn-a.akamaihd.net/steamcommunity/public/images/apps/247240/5c623439f6bc4e0ea96bcd569993cda780f1f95e.jpg"
  },
  {
    "name": "ACHIEVEMENT_19",
    "defaultvalue": 0,
    "displayName": "Viking Legend",
    "hidden": 0,
    "description": "Complete the game with 10 or less retries (deaths)",
    "icon": "https://steamcdn-a.akamaihd.net/steamcommunity/public/images/apps/247240/5ee2f94dbcedb2206684c6f9897ea745413d57a3.jpg",
    "icongray": "https://steamcdn-a.akamaihd.net/steamcommunity/public/images/apps/247240/5c623439f6bc4e0ea96bcd569993cda780f1f95e.jpg"
  }
]