﻿{
  "Dlcs": {},
  "Name": "FlatOut 2™",
  "AppId": "2990",
  "ImageUrl": "https://steamcdn-a.akamaihd.net/steam/apps/2990/header.jpg?t=1570210036",
  "Languages": [
    "english",
    "french",
    "german",
    "italian",
    "spanish",
    "dutch"
  ],
  "Platforms": {
    "windows": true,
    "mac": false,
    "linux": false
  }
}