{
  "Dlcs": {},
  "Name": "Sailor Simulator",
  "AppId": "1103610",
  "ImageUrl": "https://steamcdn-a.akamaihd.net/steam/apps/1103610/header.jpg?t=1595836544",
  "Languages": [
    "english",
    "french",
    "german",
    "spanish",
    "schinese",
    "russian"
  ],
  "Platforms": {
    "windows": true,
    "mac": false,
    "linux": false
  }
}