{
  "Dlcs": {},
  "Name": "The Last Element: Looking For Tomorrow",
  "AppId": "1422260",
  "ImageUrl": "https://steamcdn-a.akamaihd.net/steam/apps/1422260/header.jpg?t=1600499465",
  "Languages": [
    "english",
    "french",
    "italian",
    "german",
    "spanish",
    "portuguese",
    "tchinese",
    "schinese",
    "korean",
    "polish",
    "russian",
    "turkish",
    "japanese"
  ],
  "Platforms": {
    "windows": true,
    "mac": false,
    "linux": false
  }
}