{
  "Dlcs": {},
  "Name": "SpaceMerc",
  "AppId": "662610",
  "ImageUrl": "https://steamcdn-a.akamaihd.net/steam/apps/662610/header.jpg?t=1504691118",
  "Languages": [
    "english"
  ],
  "Platforms": {
    "windows": true,
    "mac": false,
    "linux": true
  }
}