{
  "Dlcs": {
    "1234740": {
      "Name": "Efflorescence of Lust DLC18",
      "ImageUrl": "https://steamcdn-a.akamaihd.net/steam/apps/1234740/header.jpg?t=1580392275"
    }
  },
  "Name": "Efflorescence of Lust",
  "AppId": "1215260",
  "ImageUrl": "https://steamcdn-a.akamaihd.net/steam/apps/1215260/header.jpg?t=1596662755",
  "Languages": [
    "schinese",
    "english"
  ],
  "Platforms": {
    "windows": true,
    "mac": false,
    "linux": false
  }
}