{
  "Dlcs": {},
  "Name": "SYSTEM32",
  "AppId": "1360880",
  "ImageUrl": "https://steamcdn-a.akamaihd.net/steam/apps/1360880/header.jpg?t=1598872755",
  "Languages": [
    "english"
  ],
  "Platforms": {
    "windows": true,
    "mac": false,
    "linux": true
  }
}