[
  {
    "name": "ACH_DARK_REGIMENTS",
    "defaultvalue": 0,
    "displayName": "Sun's Gettin' Real Low",
    "hidden": 0,
    "description": "Defeat the Dark Regiments.",
    "icon": "https://steamcdn-a.akamaihd.net/steamcommunity/public/images/apps/766630/54ec7b44954b620e688ada83bd3bbb10903d7510.jpg",
    "icongray": "https://steamcdn-a.akamaihd.net/steamcommunity/public/images/apps/766630/b670c617fc44752b7a870f10bedda8a2b906d244.jpg"
  },
  {
    "name": "ACH_OAKLEAF",
    "defaultvalue": 0,
    "displayName": "Spellbreaker",
    "hidden": 0,
    "description": "Gain Oakleaf’s support.",
    "icon": "https://steamcdn-a.akamaihd.net/steamcommunity/public/images/apps/766630/55cad54a9fbcd26b43cb884d8ab56152f5a427af.jpg",
    "icongray": "https://steamcdn-a.akamaihd.net/steamcommunity/public/images/apps/766630/b670c617fc44752b7a870f10bedda8a2b906d244.jpg"
  },
  {
    "name": "ACH_DEFEAT_IKARION",
    "defaultvalue": 0,
    "displayName": "There Can Be Only One",
    "hidden": 0,
    "description": "Deal with a challenge to your leadership.",
    "icon": "https://steamcdn-a.akamaihd.net/steamcommunity/public/images/apps/766630/4cb29380bd4d199dc747d7fa8a7a6924171a1d87.jpg",
    "icongray": "https://steamcdn-a.akamaihd.net/steamcommunity/public/images/apps/766630/b670c617fc44752b7a870f10bedda8a2b906d244.jpg"
  },
  {
    "name": "ACH_OFFHAND_SWORD",
    "defaultvalue": 0,
    "displayName": "Hack 'N Slash",
    "hidden": 0,
    "description": "Complete the game with a Sword off-hand weapon.",
    "icon": "https://steamcdn-a.akamaihd.net/steamcommunity/public/images/apps/766630/4ebc88796dbd6babc70fbd42c36cc1e63fd530af.jpg",
    "icongray": "https://steamcdn-a.akamaihd.net/steamcommunity/public/images/apps/766630/b670c617fc44752b7a870f10bedda8a2b906d244.jpg"
  },
  {
    "name": "ACH_OFFHAND_HAMMER",
    "defaultvalue": 0,
    "displayName": "Hammer Time",
    "hidden": 0,
    "description": "Complete the game with a Hammer off-hand weapon.",
    "icon": "https://steamcdn-a.akamaihd.net/steamcommunity/public/images/apps/766630/48b3d33ee94c3f1d03aa6436d1661d1915c77b81.jpg",
    "icongray": "https://steamcdn-a.akamaihd.net/steamcommunity/public/images/apps/766630/b670c617fc44752b7a870f10bedda8a2b906d244.jpg"
  },
  {
    "name": "ACH_OFFHAND_DAGGER",
    "defaultvalue": 0,
    "displayName": "Sting Like a Bee",
    "hidden": 0,
    "description": "Complete the game with a Dagger off-hand weapon.",
    "icon": "https://steamcdn-a.akamaihd.net/steamcommunity/public/images/apps/766630/c9e2ad43d5a34207eeb6d791f23e65e20850a799.jpg",
    "icongray": "https://steamcdn-a.akamaihd.net/steamcommunity/public/images/apps/766630/b670c617fc44752b7a870f10bedda8a2b906d244.jpg"
  },
  {
    "name": "ACH_FLEET_BELLA",
    "defaultvalue": 0,
    "displayName": "A Rose by Any Other Name",
    "hidden": 0,
    "description": "Reaffirm your affections for Bella.",
    "icon": "https://steamcdn-a.akamaihd.net/steamcommunity/public/images/apps/766630/2c5bbc168e8ab3ba56f93e1d2340546563cf5fef.jpg",
    "icongray": "https://steamcdn-a.akamaihd.net/steamcommunity/public/images/apps/766630/b670c617fc44752b7a870f10bedda8a2b906d244.jpg"
  },
  {
    "name": "ACH_FLEET_SLAVES",
    "defaultvalue": 0,
    "displayName": "Means to an End",
    "hidden": 0,
    "description": "Exploit other people’s misery to reach your goal.",
    "icon": "https://steamcdn-a.akamaihd.net/steamcommunity/public/images/apps/766630/ba0d5cf53d5dc65f7871d63a8e1c7adff3746ede.jpg",
    "icongray": "https://steamcdn-a.akamaihd.net/steamcommunity/public/images/apps/766630/b670c617fc44752b7a870f10bedda8a2b906d244.jpg"
  },
  {
    "name": "ACH_FLEET_CORSAIRS",
    "defaultvalue": 0,
    "displayName": "They Do Not Sow",
    "hidden": 0,
    "description": "Enlist unscrupulous help against an unscrupulous foe.",
    "icon": "https://steamcdn-a.akamaihd.net/steamcommunity/public/images/apps/766630/0c0c7ca74d3e7921e78abbb517a867714e308ec8.jpg",
    "icongray": "https://steamcdn-a.akamaihd.net/steamcommunity/public/images/apps/766630/b670c617fc44752b7a870f10bedda8a2b906d244.jpg"
  },
  {
    "name": "ACH_EXECUTOR",
    "defaultvalue": 0,
    "displayName": "The Hand That Swings the Sword",
    "hidden": 0,
    "description": "Execute 3 people.",
    "icon": "https://steamcdn-a.akamaihd.net/steamcommunity/public/images/apps/766630/764bf739a3369504963a3e80ad14ff622ebf568b.jpg",
    "icongray": "https://steamcdn-a.akamaihd.net/steamcommunity/public/images/apps/766630/b670c617fc44752b7a870f10bedda8a2b906d244.jpg"
  },
  {
    "name": "ACH_UNTOUCHABLE",
    "defaultvalue": 0,
    "displayName": "Untouchable",
    "hidden": 0,
    "description": "Complete the game without losing more than 2 Health.",
    "icon": "https://steamcdn-a.akamaihd.net/steamcommunity/public/images/apps/766630/4af18df6c888298b1beecf763014b91e2fec30f3.jpg",
    "icongray": "https://steamcdn-a.akamaihd.net/steamcommunity/public/images/apps/766630/b670c617fc44752b7a870f10bedda8a2b906d244.jpg"
  },
  {
    "name": "ACH_FIRE_TRAP",
    "defaultvalue": 0,
    "displayName": "Ashes to Ashes",
    "hidden": 0,
    "description": "Defeat the Steppe riders without entering battle.",
    "icon": "https://steamcdn-a.akamaihd.net/steamcommunity/public/images/apps/766630/9d31da17f1b01f84fdae3e783ad7c29ebdd98a7e.jpg",
    "icongray": "https://steamcdn-a.akamaihd.net/steamcommunity/public/images/apps/766630/b670c617fc44752b7a870f10bedda8a2b906d244.jpg"
  },
  {
    "name": "ACH_DIPLOMACY",
    "defaultvalue": 0,
    "displayName": "Speak Softly...",
    "hidden": 0,
    "description": "Chose diplomacy over brute force.",
    "icon": "https://steamcdn-a.akamaihd.net/steamcommunity/public/images/apps/766630/c97211332213ca8bd8e4f2f2576dca1243562cec.jpg",
    "icongray": "https://steamcdn-a.akamaihd.net/steamcommunity/public/images/apps/766630/b670c617fc44752b7a870f10bedda8a2b906d244.jpg"
  },
  {
    "name": "ACH_BIG_STICK",
    "defaultvalue": 0,
    "displayName": "...But Carry a Big Stick",
    "hidden": 0,
    "description": "Chose brute force over diplomacy.",
    "icon": "https://steamcdn-a.akamaihd.net/steamcommunity/public/images/apps/766630/c62bf3397175e16a5b721b97ecce104dc4af4cb1.jpg",
    "icongray": "https://steamcdn-a.akamaihd.net/steamcommunity/public/images/apps/766630/9c3b2bbcd237facb8dff82a973de6613e00ba8ee.jpg"
  },
  {
    "name": "ACH_WARLORD",
    "defaultvalue": 0,
    "displayName": "Wayward the Warlord",
    "hidden": 0,
    "description": "Complete the game by winning all battles.",
    "icon": "https://steamcdn-a.akamaihd.net/steamcommunity/public/images/apps/766630/a08261662e37a1950b7c32d2245bebe9706cc34f.jpg",
    "icongray": "https://steamcdn-a.akamaihd.net/steamcommunity/public/images/apps/766630/b670c617fc44752b7a870f10bedda8a2b906d244.jpg"
  },
  {
    "name": "ACH_NOBLE_SAVAGE",
    "defaultvalue": 0,
    "displayName": "Noble Savage",
    "hidden": 0,
    "description": "Complete the game without losing any Glory.",
    "icon": "https://steamcdn-a.akamaihd.net/steamcommunity/public/images/apps/766630/eb7345af81e58e891fc44787a622fdc5f74c370f.jpg",
    "icongray": "https://steamcdn-a.akamaihd.net/steamcommunity/public/images/apps/766630/b670c617fc44752b7a870f10bedda8a2b906d244.jpg"
  },
  {
    "name": "ACH_PARAGON",
    "defaultvalue": 0,
    "displayName": "Paragon",
    "hidden": 0,
    "description": "Complete the game with MAX Glory.",
    "icon": "https://steamcdn-a.akamaihd.net/steamcommunity/public/images/apps/766630/a000e334b546c0593754daf80e293f239dcdbae9.jpg",
    "icongray": "https://steamcdn-a.akamaihd.net/steamcommunity/public/images/apps/766630/9c3b2bbcd237facb8dff82a973de6613e00ba8ee.jpg"
  },
  {
    "name": "ACH_SKILL_STRENGTH",
    "defaultvalue": 0,
    "displayName": "Bear's Strength",
    "hidden": 0,
    "description": "Complete the game after using the Strength skill at least once.",
    "icon": "https://steamcdn-a.akamaihd.net/steamcommunity/public/images/apps/766630/bf8028fe4670b6ab8fe0dec746b5f4db4fcd1de9.jpg",
    "icongray": "https://steamcdn-a.akamaihd.net/steamcommunity/public/images/apps/766630/9c3b2bbcd237facb8dff82a973de6613e00ba8ee.jpg"
  },
  {
    "name": "ACH_SKILL_AGILITY",
    "defaultvalue": 0,
    "displayName": "Deer's Swiftness",
    "hidden": 0,
    "description": "Complete the game after using the Agility skill at least once.",
    "icon": "https://steamcdn-a.akamaihd.net/steamcommunity/public/images/apps/766630/7aa33505125bd32485ba6de10344c295ea325eb9.jpg",
    "icongray": "https://steamcdn-a.akamaihd.net/steamcommunity/public/images/apps/766630/b670c617fc44752b7a870f10bedda8a2b906d244.jpg"
  },
  {
    "name": "ACH_SKILL_SPEECH",
    "defaultvalue": 0,
    "displayName": "Fox's Craftiness",
    "hidden": 0,
    "description": "Complete the game after using the Speech skill at least once.",
    "icon": "https://steamcdn-a.akamaihd.net/steamcommunity/public/images/apps/766630/157de7cb3d60d6e5bffc670e981b1fe308e4c1d4.jpg",
    "icongray": "https://steamcdn-a.akamaihd.net/steamcommunity/public/images/apps/766630/9c3b2bbcd237facb8dff82a973de6613e00ba8ee.jpg"
  },
  {
    "name": "ACH_SKILL_SCIENCE",
    "defaultvalue": 0,
    "displayName": "And Yet It Moves",
    "hidden": 0,
    "description": "Complete the game after using the Science skill at least once.",
    "icon": "https://steamcdn-a.akamaihd.net/steamcommunity/public/images/apps/766630/809da01098c8ad2da722b5eb137cd0665038a0c2.jpg",
    "icongray": "https://steamcdn-a.akamaihd.net/steamcommunity/public/images/apps/766630/b670c617fc44752b7a870f10bedda8a2b906d244.jpg"
  },
  {
    "name": "ACH_SKILL_INSIGHT",
    "defaultvalue": 0,
    "displayName": "Wolf's Cunning",
    "hidden": 0,
    "description": "Complete the game after using the Insight skill at least once.",
    "icon": "https://steamcdn-a.akamaihd.net/steamcommunity/public/images/apps/766630/9c5fcaf355b61a4580d3f4af2aad931e624b59ea.jpg",
    "icongray": "https://steamcdn-a.akamaihd.net/steamcommunity/public/images/apps/766630/b670c617fc44752b7a870f10bedda8a2b906d244.jpg"
  },
  {
    "name": "ACH_SKILL_SELF_CONTROL",
    "defaultvalue": 0,
    "displayName": "Mind over Matter",
    "hidden": 0,
    "description": "Complete the game after using the Self-control skill at least once.",
    "icon": "https://steamcdn-a.akamaihd.net/steamcommunity/public/images/apps/766630/449e35186e102bf6c384a5ac3fd275d653d94d67.jpg",
    "icongray": "https://steamcdn-a.akamaihd.net/steamcommunity/public/images/apps/766630/b670c617fc44752b7a870f10bedda8a2b906d244.jpg"
  },
  {
    "name": "ACH_TROOPS",
    "defaultvalue": 0,
    "displayName": "Diversify and Conquer",
    "hidden": 0,
    "description": "Collect all troops in the game.",
    "icon": "https://steamcdn-a.akamaihd.net/steamcommunity/public/images/apps/766630/56daef4910fd8a76b0ac37075cc9182843275db1.jpg",
    "icongray": "https://steamcdn-a.akamaihd.net/steamcommunity/public/images/apps/766630/9c3b2bbcd237facb8dff82a973de6613e00ba8ee.jpg"
  },
  {
    "name": "ACH_OUTREMER_BARAZEI",
    "defaultvalue": 0,
    "displayName": "A Wayward Son",
    "hidden": 0,
    "description": " Prevent a coup.",
    "icon": "https://steamcdn-a.akamaihd.net/steamcommunity/public/images/apps/766630/556c254e756124c52417f0db0e79d871993413c2.jpg",
    "icongray": "https://steamcdn-a.akamaihd.net/steamcommunity/public/images/apps/766630/b670c617fc44752b7a870f10bedda8a2b906d244.jpg"
  },
  {
    "name": "ACH_OUTREMER_ZIN",
    "defaultvalue": 0,
    "displayName": "Ba-Zin-ga!",
    "hidden": 0,
    "description": "Depose a madman.",
    "icon": "https://steamcdn-a.akamaihd.net/steamcommunity/public/images/apps/766630/c7a7b5f31df36903ab1364a969dff153ab5562cf.jpg",
    "icongray": "https://steamcdn-a.akamaihd.net/steamcommunity/public/images/apps/766630/b670c617fc44752b7a870f10bedda8a2b906d244.jpg"
  },
  {
    "name": "ACH_COALHORN_PITMEN",
    "defaultvalue": 0,
    "displayName": "Breaker of Chains",
    "hidden": 0,
    "description": "Liberate the downtrodden.",
    "icon": "https://steamcdn-a.akamaihd.net/steamcommunity/public/images/apps/766630/83762b1c1ac3eb5c3e77c37880c7b507cfb3e6d4.jpg",
    "icongray": "https://steamcdn-a.akamaihd.net/steamcommunity/public/images/apps/766630/b670c617fc44752b7a870f10bedda8a2b906d244.jpg"
  },
  {
    "name": "ACH_COALHORN_HORNED",
    "defaultvalue": 0,
    "displayName": "Les Miserables",
    "hidden": 0,
    "description": "Crush a popular uprising.",
    "icon": "https://steamcdn-a.akamaihd.net/steamcommunity/public/images/apps/766630/445a7005c3931df31cedbb0524ddca362b0d5d3e.jpg",
    "icongray": "https://steamcdn-a.akamaihd.net/steamcommunity/public/images/apps/766630/b670c617fc44752b7a870f10bedda8a2b906d244.jpg"
  },
  {
    "name": "ACH_POWDER_KEG",
    "defaultvalue": 0,
    "displayName": "Powder Keg",
    "hidden": 0,
    "description": "Provoke or get provoked into a fight 3 times in one game.",
    "icon": "https://steamcdn-a.akamaihd.net/steamcommunity/public/images/apps/766630/4d0c16eea1e0f584c376bd6ea274ab7ce82722af.jpg",
    "icongray": "https://steamcdn-a.akamaihd.net/steamcommunity/public/images/apps/766630/b670c617fc44752b7a870f10bedda8a2b906d244.jpg"
  }
]