[
  {
    "name": "TOGETHER",
    "defaultvalue": 0,
    "displayName": "Better Together",
    "hidden": 1,
    "icon": "https://steamcdn-a.akamaihd.net/steamcommunity/public/images/apps/459130/70d9b5d50d815639aebbb1f36fce114fb6ec7754.jpg",
    "icongray": "https://steamcdn-a.akamaihd.net/steamcommunity/public/images/apps/459130/b4375c6c29aed64ba6135eef9bb659fa03081790.jpg"
  },
  {
    "name": "FAILED",
    "defaultvalue": 0,
    "displayName": "Failed the Interview",
    "hidden": 1,
    "icon": "https://steamcdn-a.akamaihd.net/steamcommunity/public/images/apps/459130/ae524ac19019bdc006906858bc2d6b8f11941fa5.jpg",
    "icongray": "https://steamcdn-a.akamaihd.net/steamcommunity/public/images/apps/459130/6d7dc5ce610807294c925556f6afddee5a0426e3.jpg"
  },
  {
    "name": "REUNITED",
    "defaultvalue": 0,
    "displayName": "Reunited in Ålesund",
    "hidden": 1,
    "icon": "https://steamcdn-a.akamaihd.net/steamcommunity/public/images/apps/459130/dd20a4e3e950806e3fbf363f8922eb81436725ff.jpg",
    "icongray": "https://steamcdn-a.akamaihd.net/steamcommunity/public/images/apps/459130/65fae8947bf09974e0ae25871d2451ceb160888b.jpg"
  },
  {
    "name": "WINED",
    "defaultvalue": 0,
    "displayName": "Days of Wine and Roses",
    "hidden": 1,
    "icon": "https://steamcdn-a.akamaihd.net/steamcommunity/public/images/apps/459130/48acbe5e98b9c28b49c2efadcc77f1d9d8e174bc.jpg",
    "icongray": "https://steamcdn-a.akamaihd.net/steamcommunity/public/images/apps/459130/e31287d828324fb52c54bc164e5623539a2708b6.jpg"
  },
  {
    "name": "COUGAR",
    "defaultvalue": 0,
    "displayName": "Cougar Love",
    "hidden": 1,
    "icon": "https://steamcdn-a.akamaihd.net/steamcommunity/public/images/apps/459130/3f933714209ffcb4bea6e8ddd40a6fffe4f5c13e.jpg",
    "icongray": "https://steamcdn-a.akamaihd.net/steamcommunity/public/images/apps/459130/fbbb30b2d5be473dd5cb73f25be43f7e619d7c99.jpg"
  },
  {
    "name": "DOCTOR",
    "defaultvalue": 0,
    "displayName": "Dr. Mimura, I presume",
    "hidden": 1,
    "icon": "https://steamcdn-a.akamaihd.net/steamcommunity/public/images/apps/459130/0e935d0eed68d69518d0fff496b1bccdf6689b62.jpg",
    "icongray": "https://steamcdn-a.akamaihd.net/steamcommunity/public/images/apps/459130/2500d78d597b4c150b782fda14cf4b5394352a48.jpg"
  },
  {
    "name": "LOSER",
    "defaultvalue": 0,
    "displayName": "Independant Woman",
    "hidden": 1,
    "icon": "https://steamcdn-a.akamaihd.net/steamcommunity/public/images/apps/459130/1c4226d9323ebea8a7ce4da3601175c679cc9afa.jpg",
    "icongray": "https://steamcdn-a.akamaihd.net/steamcommunity/public/images/apps/459130/e5b4dd332807e72faf0d1001cabae16b1651aa6b.jpg"
  },
  {
    "name": "ALL",
    "defaultvalue": 0,
    "displayName": "Better to have loved and lost.",
    "hidden": 1,
    "icon": "https://steamcdn-a.akamaihd.net/steamcommunity/public/images/apps/459130/eecfc80bbc1601af88bf2e81db1c28b8217f05e5.jpg",
    "icongray": "https://steamcdn-a.akamaihd.net/steamcommunity/public/images/apps/459130/67239b980604734c332e38ce53053d0798ec684b.jpg"
  }
]