{
  "Dlcs": {},
  "Name": "Wet Dog Corp",
  "AppId": "1033960",
  "ImageUrl": "https://steamcdn-a.akamaihd.net/steam/apps/1033960/header.jpg?t=1588592105",
  "Languages": [
    "english"
  ],
  "Platforms": {
    "windows": true,
    "mac": false,
    "linux": false
  }
}