{
  "Dlcs": {},
  "Name": "Jarheads",
  "AppId": "661250",
  "ImageUrl": "https://steamcdn-a.akamaihd.net/steam/apps/661250/header.jpg?t=1592399951",
  "Languages": [
    "english"
  ],
  "Platforms": {
    "windows": true,
    "mac": true,
    "linux": true
  }
}