{
  "Dlcs": {},
  "Name": "Prison Test",
  "AppId": "862150",
  "ImageUrl": "https://steamcdn-a.akamaihd.net/steam/apps/862150/header.jpg?t=1527582150",
  "Languages": [
    "english",
    "russian"
  ],
  "Platforms": {
    "windows": true,
    "mac": false,
    "linux": false
  }
}