[
  {
    "name": "A_GENUINE_ACT_OF_LOVE",
    "defaultvalue": 0,
    "displayName": "A Genuine Act of Love",
    "hidden": 0,
    "description": "Complete the game",
    "icon": "https://steamcdn-a.akamaihd.net/steamcommunity/public/images/apps/1317310/cbedfbed8b339cc4a74b0a754bd7b3e99820308a.jpg",
    "icongray": "https://steamcdn-a.akamaihd.net/steamcommunity/public/images/apps/1317310/6c625e999d88e39038ae0ff35645c11e2e0bbd53.jpg"
  },
  {
    "name": "SLIME_BABY",
    "defaultvalue": 0,
    "displayName": "A Friendly Entity",
    "hidden": 0,
    "description": "Witness the birth of Slime Baby",
    "icon": "https://steamcdn-a.akamaihd.net/steamcommunity/public/images/apps/1317310/fdb876dcce453111993b738bcb5f49312d630e62.jpg",
    "icongray": "https://steamcdn-a.akamaihd.net/steamcommunity/public/images/apps/1317310/0db25ca79ea8e4e29ae190951bd89c86b8dd2af0.jpg"
  }
]