{
  "Dlcs": {},
  "Name": "Refactor",
  "AppId": "342730",
  "ImageUrl": "https://steamcdn-a.akamaihd.net/steam/apps/342730/header.jpg?t=1592499061",
  "Languages": [
    "english"
  ],
  "Platforms": {
    "windows": true,
    "mac": true,
    "linux": true
  }
}