[
  {
    "name": "unlock_girl_2",
    "defaultvalue": 0,
    "displayName": "Unlock the character #2",
    "hidden": 0,
    "description": "Unlock the character #2",
    "icon": "https://steamcdn-a.akamaihd.net/steamcommunity/public/images/apps/987590/60f6056f0f4d42f270f1ef94b5c3283e3d247722.jpg",
    "icongray": "https://steamcdn-a.akamaihd.net/steamcommunity/public/images/apps/987590/7c0002fa11478c3096436c94fbaae52a3f8bd18c.jpg"
  },
  {
    "name": "unlock_girl_3",
    "defaultvalue": 0,
    "displayName": "Unlock the character #3",
    "hidden": 0,
    "description": "Unlock the character #3",
    "icon": "https://steamcdn-a.akamaihd.net/steamcommunity/public/images/apps/987590/274f753b00318cead29e37e757e1947a8a10a92b.jpg",
    "icongray": "https://steamcdn-a.akamaihd.net/steamcommunity/public/images/apps/987590/25090bf1e39c356156cb5b726ac431b2540cc2f3.jpg"
  },
  {
    "name": "unlock_girl_4",
    "defaultvalue": 0,
    "displayName": "Unlock the character #4",
    "hidden": 0,
    "description": "Unlock the character #4",
    "icon": "https://steamcdn-a.akamaihd.net/steamcommunity/public/images/apps/987590/828ff9519fc5c9307b019d9cdf244103d3ca0708.jpg",
    "icongray": "https://steamcdn-a.akamaihd.net/steamcommunity/public/images/apps/987590/d9c43ef39166eea827709782d7c969cacc777e9c.jpg"
  },
  {
    "name": "unlock_girl_5",
    "defaultvalue": 0,
    "displayName": "Unlock the character #5",
    "hidden": 0,
    "description": "Unlock the character #5",
    "icon": "https://steamcdn-a.akamaihd.net/steamcommunity/public/images/apps/987590/27d9a79af27dc61118c609a1f714345eff10151a.jpg",
    "icongray": "https://steamcdn-a.akamaihd.net/steamcommunity/public/images/apps/987590/4abd3ad83fc11ec773984c0355e3af115648cefb.jpg"
  },
  {
    "name": "unlock_girl_6",
    "defaultvalue": 0,
    "displayName": "Unlock the character #6",
    "hidden": 0,
    "description": "Unlock the character #6",
    "icon": "https://steamcdn-a.akamaihd.net/steamcommunity/public/images/apps/987590/e52d3ed7d2d8360792aa3427d6d27ad28079c329.jpg",
    "icongray": "https://steamcdn-a.akamaihd.net/steamcommunity/public/images/apps/987590/f923666bd6c736853d9e6fa1f0333b6bcd3a3cbe.jpg"
  },
  {
    "name": "unlock_girl_7",
    "defaultvalue": 0,
    "displayName": "Unlock the character #7",
    "hidden": 0,
    "description": "Unlock the character #7",
    "icon": "https://steamcdn-a.akamaihd.net/steamcommunity/public/images/apps/987590/9f54da9bc7c6a3d4e17cb893e319787613407fc7.jpg",
    "icongray": "https://steamcdn-a.akamaihd.net/steamcommunity/public/images/apps/987590/de425e12f58811cd9a26d5ee8f417c91097486cf.jpg"
  },
  {
    "name": "unlock_girl_8",
    "defaultvalue": 0,
    "displayName": "Unlock the character #8",
    "hidden": 0,
    "description": "Unlock the character #8",
    "icon": "https://steamcdn-a.akamaihd.net/steamcommunity/public/images/apps/987590/bdcfb1489184de66f2f974d83ca4130dc6e5461d.jpg",
    "icongray": "https://steamcdn-a.akamaihd.net/steamcommunity/public/images/apps/987590/c00f715ee0ec4135212c38fab4e67bdad7cd8bc3.jpg"
  },
  {
    "name": "unlock_girl_1_outfits",
    "defaultvalue": 0,
    "displayName": "Unlock all the outfits of the character #1",
    "hidden": 0,
    "description": "Unlock all the outfits of the character #1",
    "icon": "https://steamcdn-a.akamaihd.net/steamcommunity/public/images/apps/987590/9b07cc072dc8bea98119da5bfd73d5bf89cffa6a.jpg",
    "icongray": "https://steamcdn-a.akamaihd.net/steamcommunity/public/images/apps/987590/2882fa5a684524c696cd09abb4dbe223a14e2d4f.jpg"
  },
  {
    "name": "unlock_girl_2_outfits",
    "defaultvalue": 0,
    "displayName": "Unlock all the outfits of the character #",
    "hidden": 0,
    "description": "Unlock all the outfits of the character #2",
    "icon": "https://steamcdn-a.akamaihd.net/steamcommunity/public/images/apps/987590/3e9b2a14862a4e3168c5b18c64ad2109e45e8bff.jpg",
    "icongray": "https://steamcdn-a.akamaihd.net/steamcommunity/public/images/apps/987590/b4fa1cbd5a517b17a5363d1f939f1afceaa1acae.jpg"
  },
  {
    "name": "unlock_girl_3_outfits",
    "defaultvalue": 0,
    "displayName": "Unlock all the outfits of the character #3",
    "hidden": 0,
    "description": "Unlock all the outfits of the character #3",
    "icon": "https://steamcdn-a.akamaihd.net/steamcommunity/public/images/apps/987590/2fd67796feac200f03ff0269eb335987ecbbdee1.jpg",
    "icongray": "https://steamcdn-a.akamaihd.net/steamcommunity/public/images/apps/987590/65f2580ec175a24704d1d1dbfbf5a62e857059f8.jpg"
  },
  {
    "name": "unlock_girl_4_outfits",
    "defaultvalue": 0,
    "displayName": "Unlock all the outfits of the character #4",
    "hidden": 0,
    "description": "Unlock all the outfits of the character #4",
    "icon": "https://steamcdn-a.akamaihd.net/steamcommunity/public/images/apps/987590/4883223870e098954a93f81445084542ad515c52.jpg",
    "icongray": "https://steamcdn-a.akamaihd.net/steamcommunity/public/images/apps/987590/72d709bd5a0f5113d4dc679aa19c6ef5381d4afe.jpg"
  },
  {
    "name": "unlock_girl_5_outfits",
    "defaultvalue": 0,
    "displayName": "Unlock all the outfits of the character #5",
    "hidden": 0,
    "description": "Unlock all the outfits of the character #5",
    "icon": "https://steamcdn-a.akamaihd.net/steamcommunity/public/images/apps/987590/08a52ef8f541b2ba32c04c96d1fd57034eac9072.jpg",
    "icongray": "https://steamcdn-a.akamaihd.net/steamcommunity/public/images/apps/987590/d4f6d6daec53f190d9cba94d6ce6eed4ed4fd4b4.jpg"
  },
  {
    "name": "unlock_girl_6_outfits",
    "defaultvalue": 0,
    "displayName": "Unlock all the outfits of the character #6",
    "hidden": 0,
    "description": "Unlock all the outfits of the character #6",
    "icon": "https://steamcdn-a.akamaihd.net/steamcommunity/public/images/apps/987590/fcf0d8d464d0bc7c451cb0a36ed20bdf4970e15b.jpg",
    "icongray": "https://steamcdn-a.akamaihd.net/steamcommunity/public/images/apps/987590/9cc90a7f3e69e67f62919bdc36b89aa5ad52d94b.jpg"
  },
  {
    "name": "unlock_girl_7_outfits",
    "defaultvalue": 0,
    "displayName": "Unlock all the outfits of the character #7",
    "hidden": 0,
    "description": "Unlock all the outfits of the character #7",
    "icon": "https://steamcdn-a.akamaihd.net/steamcommunity/public/images/apps/987590/3da9c740ab1d62b1a4da8575af80fb3d3c0decec.jpg",
    "icongray": "https://steamcdn-a.akamaihd.net/steamcommunity/public/images/apps/987590/0f3972a349c03aaa3909d74e95dfe083376bc920.jpg"
  },
  {
    "name": "unlock_girl_8_outfits",
    "defaultvalue": 0,
    "displayName": "Unlock all the outfits of the character #8",
    "hidden": 0,
    "description": "Unlock all the outfits of the character #8",
    "icon": "https://steamcdn-a.akamaihd.net/steamcommunity/public/images/apps/987590/cbf042d977dc32979ae0debfe98ce34c5b3c989d.jpg",
    "icongray": "https://steamcdn-a.akamaihd.net/steamcommunity/public/images/apps/987590/c4f4e7f7a76ae53c0eef25d891d73f41d3f2da01.jpg"
  },
  {
    "name": "win_game_10",
    "defaultvalue": 0,
    "displayName": "Win 10 games",
    "hidden": 0,
    "description": "Win 10 games",
    "icon": "https://steamcdn-a.akamaihd.net/steamcommunity/public/images/apps/987590/e41c6e1b52b97e55bf488c8e5eb6241bcdb29872.jpg",
    "icongray": "https://steamcdn-a.akamaihd.net/steamcommunity/public/images/apps/987590/6e37990ea6b0e35b47d103448c724ed2d090fc47.jpg"
  },
  {
    "name": "win_game_20",
    "defaultvalue": 0,
    "displayName": "Win 20 games",
    "hidden": 0,
    "description": "Win 20 games",
    "icon": "https://steamcdn-a.akamaihd.net/steamcommunity/public/images/apps/987590/12e9c6338d3eebcd40d0df4602626ab1c99c3e0b.jpg",
    "icongray": "https://steamcdn-a.akamaihd.net/steamcommunity/public/images/apps/987590/ccaa778d9a5564a163d3c6b5e791a95a528dae97.jpg"
  },
  {
    "name": "win_game_50",
    "defaultvalue": 0,
    "displayName": "Win 50 games",
    "hidden": 0,
    "description": "Win 50 games",
    "icon": "https://steamcdn-a.akamaihd.net/steamcommunity/public/images/apps/987590/22d95f5e93fbdb3eb8bc10a7e8c081481e924c60.jpg",
    "icongray": "https://steamcdn-a.akamaihd.net/steamcommunity/public/images/apps/987590/7e52fd738aaeeccdb5aa0c7db31bca789793aec4.jpg"
  }
]