{
  "Dlcs": {},
  "Name": "Green: An Orc's Life",
  "AppId": "1208810",
  "ImageUrl": "https://steamcdn-a.akamaihd.net/steam/apps/1208810/header.jpg?t=1589211089",
  "Languages": [
    "english"
  ],
  "Platforms": {
    "windows": true,
    "mac": false,
    "linux": true
  }
}