{
  "Dlcs": {},
  "Name": "X-17",
  "AppId": "448060",
  "ImageUrl": "https://steamcdn-a.akamaihd.net/steam/apps/448060/header.jpg?t=1507122030",
  "Languages": [
    "english"
  ],
  "Platforms": {
    "windows": true,
    "mac": false,
    "linux": false
  }
}