{
  "Dlcs": {},
  "Name": "Color Symphony 2",
  "AppId": "403780",
  "ImageUrl": "https://steamcdn-a.akamaihd.net/steam/apps/403780/header.jpg?t=1516059302",
  "Languages": [
    "english",
    "french",
    "italian",
    "german",
    "spanish",
    "japanese"
  ],
  "Platforms": {
    "windows": true,
    "mac": true,
    "linux": true
  }
}