{
  "Dlcs": {},
  "Name": "Fall of Gyes",
  "AppId": "440100",
  "ImageUrl": "https://steamcdn-a.akamaihd.net/steam/apps/440100/header.jpg?t=1458294147",
  "Languages": [
    "english"
  ],
  "Platforms": {
    "windows": true,
    "mac": true,
    "linux": true
  }
}