{
  "Dlcs": {},
  "Name": "豆腐脑模拟器 Tofu Pudding Simulator",
  "AppId": "1020840",
  "ImageUrl": "https://steamcdn-a.akamaihd.net/steam/apps/1020840/header.jpg?t=1557403679",
  "Languages": [
    "schinese"
  ],
  "Platforms": {
    "windows": true,
    "mac": true,
    "linux": false
  }
}