{
  "Dlcs": {},
  "Name": "InnoEdu",
  "AppId": "1197460",
  "ImageUrl": "https://steamcdn-a.akamaihd.net/steam/apps/1197460/header.jpg?t=1600356135",
  "Languages": [
    "vietnamese"
  ],
  "Platforms": {
    "windows": true,
    "mac": false,
    "linux": false
  }
}