{
  "Dlcs": {},
  "Name": "Meditation Journey: VR Zen Garden",
  "AppId": "1338140",
  "ImageUrl": "https://steamcdn-a.akamaihd.net/steam/apps/1338140/header.jpg?t=1597351090",
  "Languages": [
    "english"
  ],
  "Platforms": {
    "windows": true,
    "mac": false,
    "linux": false
  }
}