[
  {
    "name": "ACH_TIARA",
    "defaultvalue": 0,
    "displayName": "Royal Tiara",
    "hidden": 0,
    "description": "Become the queen",
    "icon": "https://steamcdn-a.akamaihd.net/steamcommunity/public/images/apps/293680/dec3fb1aae60a2fd873ee9ede8c2e23fbefda2d2.jpg",
    "icongray": "https://steamcdn-a.akamaihd.net/steamcommunity/public/images/apps/293680/dd4517b254d2c72a9fc7d374bb0d98691e602772.jpg"
  },
  {
    "name": "ACH_CANDLE",
    "defaultvalue": 0,
    "displayName": "Candle of Wisdom",
    "hidden": 0,
    "description": "Discover Carmosa's secret",
    "icon": "https://steamcdn-a.akamaihd.net/steamcommunity/public/images/apps/293680/d5091435d25d931208c1ee69ab17f724b70f7b11.jpg",
    "icongray": "https://steamcdn-a.akamaihd.net/steamcommunity/public/images/apps/293680/30998a7bf89ae78a9c6352d4b919fc0a60b11c96.jpg"
  },
  {
    "name": "ACH_DRESS",
    "defaultvalue": 0,
    "displayName": "Ball Gown",
    "hidden": 0,
    "description": "Look killer on the Grand Ball",
    "icon": "https://steamcdn-a.akamaihd.net/steamcommunity/public/images/apps/293680/d4067ca7247d7c1b4323f9ee13253d52f24310cf.jpg",
    "icongray": "https://steamcdn-a.akamaihd.net/steamcommunity/public/images/apps/293680/ca19106d386df99dcb0865e30e5d055dcb5afabd.jpg"
  },
  {
    "name": "ACH_FLOWER",
    "defaultvalue": 0,
    "displayName": "Red Rose",
    "hidden": 0,
    "description": "Make your first meaningful choice",
    "icon": "https://steamcdn-a.akamaihd.net/steamcommunity/public/images/apps/293680/6a46d9893acbf7c4ec594eb4e1fa6d6628da28b5.jpg",
    "icongray": "https://steamcdn-a.akamaihd.net/steamcommunity/public/images/apps/293680/c42209b20e0e9bb27a50820bfbe7e12fdb6b2d55.jpg"
  },
  {
    "name": "ACH_NECKLACE",
    "defaultvalue": 0,
    "displayName": "Family Necklace",
    "hidden": 0,
    "description": "Gain control of your inheritance",
    "icon": "https://steamcdn-a.akamaihd.net/steamcommunity/public/images/apps/293680/9655995d530d60b8721088e64a5a264944d0cb94.jpg",
    "icongray": "https://steamcdn-a.akamaihd.net/steamcommunity/public/images/apps/293680/33d6f1bfa23d11580d6991afbabd3560e700577a.jpg"
  },
  {
    "name": "ACH_POISON",
    "defaultvalue": 0,
    "displayName": "Phial of Venom",
    "hidden": 0,
    "description": "Do something really bad",
    "icon": "https://steamcdn-a.akamaihd.net/steamcommunity/public/images/apps/293680/d110467411a14a81a93b31905f20a69d03dc387e.jpg",
    "icongray": "https://steamcdn-a.akamaihd.net/steamcommunity/public/images/apps/293680/8db220c9fbea33c60387e8c822de27846d9de95d.jpg"
  },
  {
    "name": "ACH_SHOE",
    "defaultvalue": 0,
    "displayName": "Glass Slipper",
    "hidden": 0,
    "description": "Leave everything behind",
    "icon": "https://steamcdn-a.akamaihd.net/steamcommunity/public/images/apps/293680/e1558dbebeabb4ba24e14f8ecc24e97fa918a282.jpg",
    "icongray": "https://steamcdn-a.akamaihd.net/steamcommunity/public/images/apps/293680/bf5cae8498863247842bef773cbed04d97db377b.jpg"
  },
  {
    "name": "ACH_SKULL",
    "defaultvalue": 0,
    "displayName": "Grim Skull",
    "hidden": 0,
    "description": "Die a miserable death",
    "icon": "https://steamcdn-a.akamaihd.net/steamcommunity/public/images/apps/293680/54066c8e168750f403c55a9865bdcaf76ba613eb.jpg",
    "icongray": "https://steamcdn-a.akamaihd.net/steamcommunity/public/images/apps/293680/a872342dc5573a112e5a21fdbf67b86317a79809.jpg"
  }
]