[
  {
    "name": "Medal Collector 30",
    "defaultvalue": 0,
    "displayName": "Medal Collector 30",
    "hidden": 0,
    "description": "Earned 30 Scud medals",
    "icon": "https://steamcdn-a.akamaihd.net/steamcommunity/public/images/apps/864510/5a51f89de30381b2d31bacbe0bc8af1ce8fd6e84.jpg",
    "icongray": "https://steamcdn-a.akamaihd.net/steamcommunity/public/images/apps/864510/43cde77b53a3eca5345ac6f354c7ae57b8d27f34.jpg"
  },
  {
    "name": "Medal Collector 60",
    "defaultvalue": 0,
    "displayName": "Medal Collector 60",
    "hidden": 0,
    "description": "Earned 60 Scud medals",
    "icon": "https://steamcdn-a.akamaihd.net/steamcommunity/public/images/apps/864510/1e3a17a7a786f475cc880d755e4b074fb9e50ea6.jpg",
    "icongray": "https://steamcdn-a.akamaihd.net/steamcommunity/public/images/apps/864510/d22167c1815888a085449a8c8b48d5262d79e62b.jpg"
  },
  {
    "name": "Medal Collector 90",
    "defaultvalue": 0,
    "displayName": "Medal Collector 90",
    "hidden": 0,
    "description": "Earned 90 Scud medals",
    "icon": "https://steamcdn-a.akamaihd.net/steamcommunity/public/images/apps/864510/c3a1f50d923ecd9ce272550952f9a677443baaf0.jpg",
    "icongray": "https://steamcdn-a.akamaihd.net/steamcommunity/public/images/apps/864510/fe9bea00fcdefd0e1aa09659e74624a125eafbe5.jpg"
  },
  {
    "name": "Medal Collector 120",
    "defaultvalue": 0,
    "displayName": "Medal Collector 120",
    "hidden": 0,
    "description": "Earned 120 Scud medals",
    "icon": "https://steamcdn-a.akamaihd.net/steamcommunity/public/images/apps/864510/e56546265bdd9ebe5d1332c0016131ac71811f58.jpg",
    "icongray": "https://steamcdn-a.akamaihd.net/steamcommunity/public/images/apps/864510/c9b79ced2cb4b2d800edfa34f12d7d63d6b9ec22.jpg"
  },
  {
    "name": "Medal Collector 168",
    "defaultvalue": 0,
    "displayName": "Medal Collector 168",
    "hidden": 0,
    "description": "Earned 168 Scud medals",
    "icon": "https://steamcdn-a.akamaihd.net/steamcommunity/public/images/apps/864510/e512a801683ee9144a8dad8d5014f5a9c0714f76.jpg",
    "icongray": "https://steamcdn-a.akamaihd.net/steamcommunity/public/images/apps/864510/b47d79f697fc60b3c624dad6cad6c876ef6620e9.jpg"
  },
  {
    "name": "Getting Ahead",
    "defaultvalue": 0,
    "displayName": "Getting Ahead",
    "hidden": 0,
    "description": "Unlocked all Scud heads",
    "icon": "https://steamcdn-a.akamaihd.net/steamcommunity/public/images/apps/864510/fde5a8ed7dcce6ff018d45aeb669fea34620597e.jpg",
    "icongray": "https://steamcdn-a.akamaihd.net/steamcommunity/public/images/apps/864510/55b1443f4c3085b2285d9fbdffb0d7849416bc1f.jpg"
  },
  {
    "name": "Flying High",
    "defaultvalue": 0,
    "displayName": "Flying High",
    "hidden": 0,
    "description": "Unlocked all Jets",
    "icon": "https://steamcdn-a.akamaihd.net/steamcommunity/public/images/apps/864510/4c1715d24b0b1d2a475998c69d70c94d2e207e62.jpg",
    "icongray": "https://steamcdn-a.akamaihd.net/steamcommunity/public/images/apps/864510/f7a3ba5ee5d5123c017300353afb11b33d649974.jpg"
  },
  {
    "name": "Explosive Entertainment",
    "defaultvalue": 0,
    "displayName": "Explosive Entertainment",
    "hidden": 0,
    "description": "Destroy 1000 explosive crates",
    "icon": "https://steamcdn-a.akamaihd.net/steamcommunity/public/images/apps/864510/7269f72c828cb46a86055d7d7f1378b09529a43f.jpg",
    "icongray": "https://steamcdn-a.akamaihd.net/steamcommunity/public/images/apps/864510/15c5fe9ff90e08c0bc07e2a6fdafc24c07cbfa0c.jpg"
  },
  {
    "name": "Hoarder",
    "defaultvalue": 0,
    "displayName": "Hoarder",
    "hidden": 0,
    "description": "Collect 2500 items",
    "icon": "https://steamcdn-a.akamaihd.net/steamcommunity/public/images/apps/864510/f8bd86e4fc230fe48086c07696d39a23c7f53396.jpg",
    "icongray": "https://steamcdn-a.akamaihd.net/steamcommunity/public/images/apps/864510/5859c9394e8259a1218b46f6064e9074a01f0956.jpg"
  },
  {
    "name": "Rising Star",
    "defaultvalue": 0,
    "displayName": "Rising Star",
    "hidden": 0,
    "description": "Destroy 1000 star crates",
    "icon": "https://steamcdn-a.akamaihd.net/steamcommunity/public/images/apps/864510/302d46a9bcacdfef624698527900e2290a1943d1.jpg",
    "icongray": "https://steamcdn-a.akamaihd.net/steamcommunity/public/images/apps/864510/c0c3776279ff04d982fe1f9ead3ad0b518e42f77.jpg"
  },
  {
    "name": "Gun Crazy",
    "defaultvalue": 0,
    "displayName": "Gun Crazy",
    "hidden": 0,
    "description": "Collect 100 guns",
    "icon": "https://steamcdn-a.akamaihd.net/steamcommunity/public/images/apps/864510/8f6285bd3bc53942ab2ff4f4161a7eaae2d8f0b7.jpg",
    "icongray": "https://steamcdn-a.akamaihd.net/steamcommunity/public/images/apps/864510/ebfdfac1f283e17af8dc4e99d508fdc320d3e608.jpg"
  },
  {
    "name": "Vend over",
    "defaultvalue": 0,
    "displayName": "Vend over",
    "hidden": 0,
    "description": "Destroy 250 vending/arcade machines",
    "icon": "https://steamcdn-a.akamaihd.net/steamcommunity/public/images/apps/864510/97c84add07301175fd476a2eab81161e70d55cde.jpg",
    "icongray": "https://steamcdn-a.akamaihd.net/steamcommunity/public/images/apps/864510/ca44021e83d8bffa110c37f73cbf201db2b042f0.jpg"
  },
  {
    "name": "Time Killer",
    "defaultvalue": 0,
    "displayName": "Time Killer",
    "hidden": 0,
    "description": "Add 5 minutes to the clock",
    "icon": "https://steamcdn-a.akamaihd.net/steamcommunity/public/images/apps/864510/a795ae0b1300da9fed485a3ddef1a17fbf471cd5.jpg",
    "icongray": "https://steamcdn-a.akamaihd.net/steamcommunity/public/images/apps/864510/003ef5b3a1cfe07c687d9a360037c71ddfad5e43.jpg"
  },
  {
    "name": "Cloud Bound",
    "defaultvalue": 0,
    "displayName": "Cloud Bound",
    "hidden": 0,
    "description": "Jet around a lot",
    "icon": "https://steamcdn-a.akamaihd.net/steamcommunity/public/images/apps/864510/40e98fa70971dce8b8485152084fb06efec7af4a.jpg",
    "icongray": "https://steamcdn-a.akamaihd.net/steamcommunity/public/images/apps/864510/6ec0dc5eac5e9373dc28954a89632b8d3ace4008.jpg"
  },
  {
    "name": "Angel",
    "defaultvalue": 0,
    "displayName": "Angel",
    "hidden": 0,
    "description": "Get 10,000 points without touching the ground",
    "icon": "https://steamcdn-a.akamaihd.net/steamcommunity/public/images/apps/864510/dbe4d408d20b92e21d208a381c296dcc241c75e8.jpg",
    "icongray": "https://steamcdn-a.akamaihd.net/steamcommunity/public/images/apps/864510/93c485ddc12c6ec13422f9f93590becb901712c5.jpg"
  },
  {
    "name": "Shred Some Cheese",
    "defaultvalue": 0,
    "displayName": "Shred Some Cheese",
    "hidden": 0,
    "description": "Kill 100 Zimzons",
    "icon": "https://steamcdn-a.akamaihd.net/steamcommunity/public/images/apps/864510/524784d071226da122ccaf9e9dfc09416c6a0e22.jpg",
    "icongray": "https://steamcdn-a.akamaihd.net/steamcommunity/public/images/apps/864510/e271ed36b5a41226a39e203e470a6e39431b7255.jpg"
  },
  {
    "name": "Monster Mash",
    "defaultvalue": 0,
    "displayName": "Monster Mash",
    "hidden": 0,
    "description": "Kill 1000 Monsters",
    "icon": "https://steamcdn-a.akamaihd.net/steamcommunity/public/images/apps/864510/6854a0b1f47b07fe6927983e98835119ec6b8449.jpg",
    "icongray": "https://steamcdn-a.akamaihd.net/steamcommunity/public/images/apps/864510/e2a4441ed8335958034156f977d6dd6b2ac29af8.jpg"
  },
  {
    "name": "Crusty Fat Thing",
    "defaultvalue": 0,
    "displayName": "Crusty Fat Thing",
    "hidden": 0,
    "description": "Shoot 500 bullets at the crust of a fat thing",
    "icon": "https://steamcdn-a.akamaihd.net/steamcommunity/public/images/apps/864510/5348d100b9d0e3103c37ab3880ae3742dbd7ac6c.jpg",
    "icongray": "https://steamcdn-a.akamaihd.net/steamcommunity/public/images/apps/864510/8f1c5da304005608211e29269d5c4a3c55b5252a.jpg"
  },
  {
    "name": "Dream Salt",
    "defaultvalue": 0,
    "displayName": "Dream Salt",
    "hidden": 0,
    "description": "Collect 300 Dreamstones",
    "icon": "https://steamcdn-a.akamaihd.net/steamcommunity/public/images/apps/864510/ff47ea64dba4730d5cb4332ad23053af06bfb2ed.jpg",
    "icongray": "https://steamcdn-a.akamaihd.net/steamcommunity/public/images/apps/864510/3911614b6cc0c32b227b70ece89cd5c3d20f79f9.jpg"
  }
]