[
  {
    "name": "hiddenident",
    "defaultvalue": 0,
    "displayName": "Undercover Princess",
    "hidden": 0,
    "description": "You have hidden your true identity.",
    "icon": "https://steamcdn-a.akamaihd.net/steamcommunity/public/images/apps/352740/65ee2e0ca438ff3cb5ebd3aeeefa7af2e452344f.jpg",
    "icongray": "https://steamcdn-a.akamaihd.net/steamcommunity/public/images/apps/352740/f4b4c9af1551f64762176c148e203462263a920b.jpg"
  },
  {
    "name": "marryprince",
    "defaultvalue": 0,
    "displayName": "Royal Wedding",
    "hidden": 0,
    "description": "You have married a prince.",
    "icon": "https://steamcdn-a.akamaihd.net/steamcommunity/public/images/apps/352740/f9384bb1d59a8b9ad8d26216504a7306dd337dc7.jpg",
    "icongray": "https://steamcdn-a.akamaihd.net/steamcommunity/public/images/apps/352740/789b9e61172eaab203b2f065d510c151347b98b3.jpg"
  },
  {
    "name": "elopewithg",
    "defaultvalue": 0,
    "displayName": "Into the Night",
    "hidden": 0,
    "description": "You have eloped with a commoner.",
    "icon": "https://steamcdn-a.akamaihd.net/steamcommunity/public/images/apps/352740/453aa5c2c2133b2124ad5457163f20d3e9deb559.jpg",
    "icongray": "https://steamcdn-a.akamaihd.net/steamcommunity/public/images/apps/352740/eb8d2464d98c49471e7ddfe14731bbc58ede3053.jpg"
  },
  {
    "name": "startschool",
    "defaultvalue": 0,
    "displayName": "Career Change",
    "hidden": 0,
    "description": "You have opened a school.",
    "icon": "https://steamcdn-a.akamaihd.net/steamcommunity/public/images/apps/352740/65ee2e0ca438ff3cb5ebd3aeeefa7af2e452344f.jpg",
    "icongray": "https://steamcdn-a.akamaihd.net/steamcommunity/public/images/apps/352740/f4b4c9af1551f64762176c148e203462263a920b.jpg"
  },
  {
    "name": "defeatolivia",
    "defaultvalue": 0,
    "displayName": "Archenemy Down",
    "hidden": 0,
    "description": "You have won against Olivia.",
    "icon": "https://steamcdn-a.akamaihd.net/steamcommunity/public/images/apps/352740/d445e12795d44f07e9c774aecdace6fcbf6b4579.jpg",
    "icongray": "https://steamcdn-a.akamaihd.net/steamcommunity/public/images/apps/352740/27231a8a5fde720b7bb12b5816e4cac4fb054020.jpg"
  },
  {
    "name": "queen",
    "defaultvalue": 0,
    "displayName": "Queen",
    "hidden": 0,
    "description": "You have ascended the throne.",
    "icon": "https://steamcdn-a.akamaihd.net/steamcommunity/public/images/apps/352740/f9384bb1d59a8b9ad8d26216504a7306dd337dc7.jpg",
    "icongray": "https://steamcdn-a.akamaihd.net/steamcommunity/public/images/apps/352740/789b9e61172eaab203b2f065d510c151347b98b3.jpg"
  },
  {
    "name": "wonagainstamaryllis",
    "defaultvalue": 0,
    "displayName": "Princess of Darkness",
    "hidden": 0,
    "description": "You have faced a demon princess and won.",
    "icon": "https://steamcdn-a.akamaihd.net/steamcommunity/public/images/apps/352740/d445e12795d44f07e9c774aecdace6fcbf6b4579.jpg",
    "icongray": "https://steamcdn-a.akamaihd.net/steamcommunity/public/images/apps/352740/27231a8a5fde720b7bb12b5816e4cac4fb054020.jpg"
  },
  {
    "name": "oliviasbg",
    "defaultvalue": 0,
    "displayName": "Unusual Upbringing",
    "hidden": 0,
    "description": "You have learned about Olivia's past.",
    "icon": "https://steamcdn-a.akamaihd.net/steamcommunity/public/images/apps/352740/0855fcfe622731763514201cbeb9be1194bb5371.jpg",
    "icongray": "https://steamcdn-a.akamaihd.net/steamcommunity/public/images/apps/352740/42b28567cfa931b5a8bd1dcb7fbb453e205980a5.jpg"
  },
  {
    "name": "cyra",
    "defaultvalue": 0,
    "displayName": "Tough Lady",
    "hidden": 0,
    "description": "You have fought a bounty hunter.",
    "icon": "https://steamcdn-a.akamaihd.net/steamcommunity/public/images/apps/352740/d445e12795d44f07e9c774aecdace6fcbf6b4579.jpg",
    "icongray": "https://steamcdn-a.akamaihd.net/steamcommunity/public/images/apps/352740/27231a8a5fde720b7bb12b5816e4cac4fb054020.jpg"
  },
  {
    "name": "audrey",
    "defaultvalue": 0,
    "displayName": "Compliment or Insult?",
    "hidden": 0,
    "description": "You have fought a visitor from the North.",
    "icon": "https://steamcdn-a.akamaihd.net/steamcommunity/public/images/apps/352740/d445e12795d44f07e9c774aecdace6fcbf6b4579.jpg",
    "icongray": "https://steamcdn-a.akamaihd.net/steamcommunity/public/images/apps/352740/27231a8a5fde720b7bb12b5816e4cac4fb054020.jpg"
  },
  {
    "name": "leonine",
    "defaultvalue": 0,
    "displayName": "Not One of Those Girls",
    "hidden": 0,
    "description": "You have  fought a general's daughter.",
    "icon": "https://steamcdn-a.akamaihd.net/steamcommunity/public/images/apps/352740/d445e12795d44f07e9c774aecdace6fcbf6b4579.jpg",
    "icongray": "https://steamcdn-a.akamaihd.net/steamcommunity/public/images/apps/352740/27231a8a5fde720b7bb12b5816e4cac4fb054020.jpg"
  },
  {
    "name": "kiss",
    "defaultvalue": 0,
    "displayName": "Make it Clear",
    "hidden": 0,
    "description": "You have kissed a commoner.",
    "icon": "https://steamcdn-a.akamaihd.net/steamcommunity/public/images/apps/352740/453aa5c2c2133b2124ad5457163f20d3e9deb559.jpg",
    "icongray": "https://steamcdn-a.akamaihd.net/steamcommunity/public/images/apps/352740/eb8d2464d98c49471e7ddfe14731bbc58ede3053.jpg"
  },
  {
    "name": "marrycommoner",
    "defaultvalue": 0,
    "displayName": "Morganatic Wedding",
    "hidden": 0,
    "description": "You have married a commoner.",
    "icon": "https://steamcdn-a.akamaihd.net/steamcommunity/public/images/apps/352740/453aa5c2c2133b2124ad5457163f20d3e9deb559.jpg",
    "icongray": "https://steamcdn-a.akamaihd.net/steamcommunity/public/images/apps/352740/eb8d2464d98c49471e7ddfe14731bbc58ede3053.jpg"
  },
  {
    "name": "dossier",
    "defaultvalue": 0,
    "displayName": "Good Understanding",
    "hidden": 0,
    "description": "You have learned that somebody has been gathering information about you.",
    "icon": "https://steamcdn-a.akamaihd.net/steamcommunity/public/images/apps/352740/0855fcfe622731763514201cbeb9be1194bb5371.jpg",
    "icongray": "https://steamcdn-a.akamaihd.net/steamcommunity/public/images/apps/352740/42b28567cfa931b5a8bd1dcb7fbb453e205980a5.jpg"
  },
  {
    "name": "aureliasecret",
    "defaultvalue": 0,
    "displayName": "A Conspiracy of One",
    "hidden": 0,
    "description": "You have kept secrets from Aurelia.",
    "icon": "https://steamcdn-a.akamaihd.net/steamcommunity/public/images/apps/352740/0855fcfe622731763514201cbeb9be1194bb5371.jpg",
    "icongray": "https://steamcdn-a.akamaihd.net/steamcommunity/public/images/apps/352740/42b28567cfa931b5a8bd1dcb7fbb453e205980a5.jpg"
  },
  {
    "name": "journal",
    "defaultvalue": 0,
    "displayName": "Keeping Record",
    "hidden": 0,
    "description": "You have learned that somebody has been keeping track of your progress.",
    "icon": "https://steamcdn-a.akamaihd.net/steamcommunity/public/images/apps/352740/0855fcfe622731763514201cbeb9be1194bb5371.jpg",
    "icongray": "https://steamcdn-a.akamaihd.net/steamcommunity/public/images/apps/352740/42b28567cfa931b5a8bd1dcb7fbb453e205980a5.jpg"
  },
  {
    "name": "refusedtwice",
    "defaultvalue": 0,
    "displayName": "Just No",
    "hidden": 0,
    "description": "You have refused a marriage proposal twice.",
    "icon": "https://steamcdn-a.akamaihd.net/steamcommunity/public/images/apps/352740/453aa5c2c2133b2124ad5457163f20d3e9deb559.jpg",
    "icongray": "https://steamcdn-a.akamaihd.net/steamcommunity/public/images/apps/352740/eb8d2464d98c49471e7ddfe14731bbc58ede3053.jpg"
  },
  {
    "name": "geraldpast",
    "defaultvalue": 0,
    "displayName": "Troublemaker",
    "hidden": 0,
    "description": "You have learned about Gerald's past.",
    "icon": "https://steamcdn-a.akamaihd.net/steamcommunity/public/images/apps/352740/0855fcfe622731763514201cbeb9be1194bb5371.jpg",
    "icongray": "https://steamcdn-a.akamaihd.net/steamcommunity/public/images/apps/352740/42b28567cfa931b5a8bd1dcb7fbb453e205980a5.jpg"
  },
  {
    "name": "lenasmotives",
    "defaultvalue": 0,
    "displayName": "I Had a Reason",
    "hidden": 0,
    "description": "You have learned about Lena's motives.",
    "icon": "https://steamcdn-a.akamaihd.net/steamcommunity/public/images/apps/352740/0855fcfe622731763514201cbeb9be1194bb5371.jpg",
    "icongray": "https://steamcdn-a.akamaihd.net/steamcommunity/public/images/apps/352740/42b28567cfa931b5a8bd1dcb7fbb453e205980a5.jpg"
  },
  {
    "name": "goodruler",
    "defaultvalue": 0,
    "displayName": "Watch Those Stats",
    "hidden": 0,
    "description": "You have become a good ruler.",
    "icon": "https://steamcdn-a.akamaihd.net/steamcommunity/public/images/apps/352740/f9384bb1d59a8b9ad8d26216504a7306dd337dc7.jpg",
    "icongray": "https://steamcdn-a.akamaihd.net/steamcommunity/public/images/apps/352740/789b9e61172eaab203b2f065d510c151347b98b3.jpg"
  },
  {
    "name": "tradedcards",
    "defaultvalue": 0,
    "displayName": "Unfair Exchange",
    "hidden": 0,
    "description": "You have traded cards on the black market.",
    "icon": "https://steamcdn-a.akamaihd.net/steamcommunity/public/images/apps/352740/d445e12795d44f07e9c774aecdace6fcbf6b4579.jpg",
    "icongray": "https://steamcdn-a.akamaihd.net/steamcommunity/public/images/apps/352740/27231a8a5fde720b7bb12b5816e4cac4fb054020.jpg"
  },
  {
    "name": "freeplay",
    "defaultvalue": 0,
    "displayName": "More Fun",
    "hidden": 0,
    "description": "You have unlocked the Freeplay Mode!",
    "icon": "https://steamcdn-a.akamaihd.net/steamcommunity/public/images/apps/352740/d445e12795d44f07e9c774aecdace6fcbf6b4579.jpg",
    "icongray": "https://steamcdn-a.akamaihd.net/steamcommunity/public/images/apps/352740/27231a8a5fde720b7bb12b5816e4cac4fb054020.jpg"
  },
  {
    "name": "alterduel",
    "defaultvalue": 0,
    "displayName": "Alternative Duel",
    "hidden": 0,
    "description": "You have won a different kind of card game.",
    "icon": "https://steamcdn-a.akamaihd.net/steamcommunity/public/images/apps/352740/d445e12795d44f07e9c774aecdace6fcbf6b4579.jpg",
    "icongray": "https://steamcdn-a.akamaihd.net/steamcommunity/public/images/apps/352740/27231a8a5fde720b7bb12b5816e4cac4fb054020.jpg"
  },
  {
    "name": "employrival",
    "defaultvalue": 0,
    "displayName": "Conquer and Employ",
    "hidden": 0,
    "description": "You have put a rival to good use.",
    "icon": "https://steamcdn-a.akamaihd.net/steamcommunity/public/images/apps/352740/65ee2e0ca438ff3cb5ebd3aeeefa7af2e452344f.jpg",
    "icongray": "https://steamcdn-a.akamaihd.net/steamcommunity/public/images/apps/352740/f4b4c9af1551f64762176c148e203462263a920b.jpg"
  },
  {
    "name": "lifeascommoner",
    "defaultvalue": 0,
    "displayName": "The Other Side",
    "hidden": 0,
    "description": "You have experienced life as a commoner.",
    "icon": "https://steamcdn-a.akamaihd.net/steamcommunity/public/images/apps/352740/65ee2e0ca438ff3cb5ebd3aeeefa7af2e452344f.jpg",
    "icongray": "https://steamcdn-a.akamaihd.net/steamcommunity/public/images/apps/352740/f4b4c9af1551f64762176c148e203462263a920b.jpg"
  },
  {
    "name": "defendschool",
    "defaultvalue": 0,
    "displayName": "There Can Be Only One",
    "hidden": 0,
    "description": "You have defended your territory.",
    "icon": "https://steamcdn-a.akamaihd.net/steamcommunity/public/images/apps/352740/65ee2e0ca438ff3cb5ebd3aeeefa7af2e452344f.jpg",
    "icongray": "https://steamcdn-a.akamaihd.net/steamcommunity/public/images/apps/352740/f4b4c9af1551f64762176c148e203462263a920b.jpg"
  },
  {
    "name": "reconciliation",
    "defaultvalue": 0,
    "displayName": "Reconciliation",
    "hidden": 0,
    "description": "You have improved your relationship.",
    "icon": "https://steamcdn-a.akamaihd.net/steamcommunity/public/images/apps/352740/453aa5c2c2133b2124ad5457163f20d3e9deb559.jpg",
    "icongray": "https://steamcdn-a.akamaihd.net/steamcommunity/public/images/apps/352740/eb8d2464d98c49471e7ddfe14731bbc58ede3053.jpg"
  },
  {
    "name": "demon",
    "defaultvalue": 0,
    "displayName": "Is that you?",
    "hidden": 0,
    "description": "You have seen somebody's true form.",
    "icon": "https://steamcdn-a.akamaihd.net/steamcommunity/public/images/apps/352740/0855fcfe622731763514201cbeb9be1194bb5371.jpg",
    "icongray": "https://steamcdn-a.akamaihd.net/steamcommunity/public/images/apps/352740/42b28567cfa931b5a8bd1dcb7fbb453e205980a5.jpg"
  }
]