{
  "Dlcs": {},
  "Name": "Buzz Kill Zero",
  "AppId": "1082480",
  "ImageUrl": "https://steamcdn-a.akamaihd.net/steam/apps/1082480/header.jpg?t=1579141296",
  "Languages": [
    "english"
  ],
  "Platforms": {
    "windows": true,
    "mac": false,
    "linux": false
  }
}