{
  "Dlcs": {},
  "Name": "Made to Order: The Party Game",
  "AppId": "860770",
  "ImageUrl": "https://steamcdn-a.akamaihd.net/steam/apps/860770/header.jpg?t=1560437805",
  "Languages": [
    "english"
  ],
  "Platforms": {
    "windows": true,
    "mac": true,
    "linux": false
  }
}