{
  "Dlcs": {},
  "Name": "Glory by Example",
  "AppId": "516450",
  "ImageUrl": "https://steamcdn-a.akamaihd.net/steam/apps/516450/header.jpg?t=1488941464",
  "Languages": [
    "english"
  ],
  "Platforms": {
    "windows": true,
    "mac": false,
    "linux": false
  }
}