{
  "Dlcs": {},
  "Name": "Bookend",
  "AppId": "990720",
  "ImageUrl": "https://steamcdn-a.akamaihd.net/steam/apps/990720/header.jpg?t=1569694852",
  "Languages": [
    "english"
  ],
  "Platforms": {
    "windows": true,
    "mac": false,
    "linux": false
  }
}