{
  "Dlcs": {},
  "Name": "Shadow Ops: Red Mercury",
  "AppId": "286770",
  "ImageUrl": "https://steamcdn-a.akamaihd.net/steam/apps/286770/header.jpg?t=1488330294",
  "Languages": [
    "english"
  ],
  "Platforms": {
    "windows": true,
    "mac": false,
    "linux": false
  }
}