{
  "Dlcs": {},
  "Name": "Standball",
  "AppId": "1129810",
  "ImageUrl": "https://steamcdn-a.akamaihd.net/steam/apps/1129810/header.jpg?t=1567446984",
  "Languages": [
    "english",
    "russian"
  ],
  "Platforms": {
    "windows": true,
    "mac": false,
    "linux": false
  }
}