{
  "Dlcs": {},
  "Name": "Nights of Azure",
  "AppId": "527280",
  "ImageUrl": "https://steamcdn-a.akamaihd.net/steam/apps/527280/header.jpg?t=1583477779",
  "Languages": [
    "english",
    "japanese"
  ],
  "Platforms": {
    "windows": true,
    "mac": false,
    "linux": false
  }
}