[
  {
    "name": "StarCompleteLevel1",
    "defaultvalue": 0,
    "displayName": "Complete Night 1 with 3 Stars",
    "hidden": 0,
    "description": "Complete Night 1 with 3 Stars",
    "icon": "https://steamcdn-a.akamaihd.net/steamcommunity/public/images/apps/1143780/82112ef3e3523ca2bfd041eedadb8b5f8270940f.jpg",
    "icongray": "https://steamcdn-a.akamaihd.net/steamcommunity/public/images/apps/1143780/a73d77ade6ef63ea4509c6f7ecf37472b6f49952.jpg"
  },
  {
    "name": "StarCompleteLevel2",
    "defaultvalue": 0,
    "displayName": "Complete Night 2 with 3 Stars",
    "hidden": 0,
    "description": "Complete Night 2 with 3 Stars",
    "icon": "https://steamcdn-a.akamaihd.net/steamcommunity/public/images/apps/1143780/fae0c41a3bb5dc030d2f0d202d18b444b03134a7.jpg",
    "icongray": "https://steamcdn-a.akamaihd.net/steamcommunity/public/images/apps/1143780/06358fa1f0d2124498834d4f1d892a527009c6c7.jpg"
  },
  {
    "name": "StarCompleteLevel3",
    "defaultvalue": 0,
    "displayName": "Complete Night 3 with 3 Stars",
    "hidden": 0,
    "description": "Complete Night 3 with 3 Stars",
    "icon": "https://steamcdn-a.akamaihd.net/steamcommunity/public/images/apps/1143780/abad9baf4867e64043bdda261a72682a025e3503.jpg",
    "icongray": "https://steamcdn-a.akamaihd.net/steamcommunity/public/images/apps/1143780/3daca50ff94e8ad952a68588245020ea67e43f18.jpg"
  },
  {
    "name": "StarCompleteLevel4",
    "defaultvalue": 0,
    "displayName": "Complete Night 4 with 3 Stars",
    "hidden": 0,
    "description": "Complete Night 4 with 3 Stars",
    "icon": "https://steamcdn-a.akamaihd.net/steamcommunity/public/images/apps/1143780/fd09b1f13bf002c4c84595ed76818edf2a1da6f0.jpg",
    "icongray": "https://steamcdn-a.akamaihd.net/steamcommunity/public/images/apps/1143780/526ddf481fe5caec2bc6a143394be1cf3aebd8f2.jpg"
  },
  {
    "name": "StarCompleteLevel5",
    "defaultvalue": 0,
    "displayName": "Complete Night 5 with 3 Stars",
    "hidden": 0,
    "description": "Complete Night 5 with 3 Stars",
    "icon": "https://steamcdn-a.akamaihd.net/steamcommunity/public/images/apps/1143780/a19f01d2f68a0c2c5855a796b50f5e5517b441b5.jpg",
    "icongray": "https://steamcdn-a.akamaihd.net/steamcommunity/public/images/apps/1143780/34ad321e4503a524bb185c1601858096cc1e5dcd.jpg"
  },
  {
    "name": "StarCompleteLevel6",
    "defaultvalue": 0,
    "displayName": "Complete Night 6 with 3 Stars",
    "hidden": 0,
    "description": "Complete Night 6 with 3 Stars",
    "icon": "https://steamcdn-a.akamaihd.net/steamcommunity/public/images/apps/1143780/624b9df5bf267978c34fd54e978a892544c4814e.jpg",
    "icongray": "https://steamcdn-a.akamaihd.net/steamcommunity/public/images/apps/1143780/332417d5f0481ad285fbeb08aec6efa325173ab1.jpg"
  },
  {
    "name": "StarCompleteLevel7",
    "defaultvalue": 0,
    "displayName": "Complete Night 7 with 3 Stars",
    "hidden": 0,
    "description": "Complete Night 7 with 3 Stars",
    "icon": "https://steamcdn-a.akamaihd.net/steamcommunity/public/images/apps/1143780/1780adb7eae16d5a3e2074a5e4ef4373239faa40.jpg",
    "icongray": "https://steamcdn-a.akamaihd.net/steamcommunity/public/images/apps/1143780/92f0f70f4c8fa35e4f565832377f77a53b2f3aaf.jpg"
  },
  {
    "name": "StarCompleteLevel8",
    "defaultvalue": 0,
    "displayName": "Complete Night 8 with 3 Stars",
    "hidden": 0,
    "description": "Complete Night 8 with 3 Stars",
    "icon": "https://steamcdn-a.akamaihd.net/steamcommunity/public/images/apps/1143780/2c2e81ce239fdc071633c2c044b3fe3d1f47c914.jpg",
    "icongray": "https://steamcdn-a.akamaihd.net/steamcommunity/public/images/apps/1143780/22d53f7e39a29f5e3573ad6f8c5f43983664c85b.jpg"
  },
  {
    "name": "StarCompleteLevel9",
    "defaultvalue": 0,
    "displayName": "Complete Night 9 with 3 Stars",
    "hidden": 0,
    "description": "Complete Night 9 with 3 Stars",
    "icon": "https://steamcdn-a.akamaihd.net/steamcommunity/public/images/apps/1143780/79ee062cf1286183381cced59aa71412d23e8e48.jpg",
    "icongray": "https://steamcdn-a.akamaihd.net/steamcommunity/public/images/apps/1143780/5edbb99e2e0dcf24f8892caf6d24428de71e838a.jpg"
  },
  {
    "name": "StarCompleteLevel10",
    "defaultvalue": 0,
    "displayName": "Complete Night 10 with 3 Stars",
    "hidden": 0,
    "description": "Complete Night 10 with 3 Stars",
    "icon": "https://steamcdn-a.akamaihd.net/steamcommunity/public/images/apps/1143780/50b19fd1384169ca56fcf93af1e7354f6f8f50cd.jpg",
    "icongray": "https://steamcdn-a.akamaihd.net/steamcommunity/public/images/apps/1143780/fa51a4162385737f74b9b1abd9452b4ce3ec9ac2.jpg"
  },
  {
    "name": "StarCompleteLevel11",
    "defaultvalue": 0,
    "displayName": "Complete Night 11 with 3 Stars",
    "hidden": 0,
    "description": "Complete Night 11 with 3 Stars",
    "icon": "https://steamcdn-a.akamaihd.net/steamcommunity/public/images/apps/1143780/d18eef4b9231f2882a765076f880986009165dd3.jpg",
    "icongray": "https://steamcdn-a.akamaihd.net/steamcommunity/public/images/apps/1143780/ed306abc7ca87fe3a054d5020f612c9bf0ac1018.jpg"
  },
  {
    "name": "StarCompleteLevel12",
    "defaultvalue": 0,
    "displayName": "Complete Night 12 with 3 Stars",
    "hidden": 0,
    "description": "Complete Night 12 with 3 Stars",
    "icon": "https://steamcdn-a.akamaihd.net/steamcommunity/public/images/apps/1143780/ebe0fc50830ffb7270be2b5bc5653fa372762243.jpg",
    "icongray": "https://steamcdn-a.akamaihd.net/steamcommunity/public/images/apps/1143780/2b86f2c6d6b8401ca2e50d3c495e48348a3629b7.jpg"
  },
  {
    "name": "StarCompleteLevel13",
    "defaultvalue": 0,
    "displayName": "Complete Night 13 with 3 Stars",
    "hidden": 0,
    "description": "Complete Night 13 with 3 Stars",
    "icon": "https://steamcdn-a.akamaihd.net/steamcommunity/public/images/apps/1143780/d4a33921c16d63b5f0e193486bc19a30f0b18413.jpg",
    "icongray": "https://steamcdn-a.akamaihd.net/steamcommunity/public/images/apps/1143780/1b182ea9c53d85d3cf22e9f6b1feff1c2f9b90b7.jpg"
  }
]