﻿[
  {
    "name": "GOOD_ENDING",
    "defaultvalue": 0,
    "displayName": "Welcome to the Army",
    "hidden": 0,
    "description": "Spooky believes in your potential!",
    "icon": "https://steamcdn-a.akamaihd.net/steamcommunity/public/images/apps/577690/496b678e9413319468aaeefb42f2d2045df761cf.jpg",
    "icongray": "https://steamcdn-a.akamaihd.net/steamcommunity/public/images/apps/577690/5c92182f69cd21550803fd11a84bddce5f7b162a.jpg"
  },
  {
    "name": "OBTAINED_AXE",
    "defaultvalue": 0,
    "displayName": "New AXEuisition",
    "hidden": 0,
    "description": "Extra-dimensionally choppy",
    "icon": "https://steamcdn-a.akamaihd.net/steamcommunity/public/images/apps/577690/ce77f70659e2294651a8b526b8dd1f2487e0235e.jpg",
    "icongray": "https://steamcdn-a.akamaihd.net/steamcommunity/public/images/apps/577690/37178a99c49658fa69f3d3978bab1f1c3b1b0be5.jpg"
  },
  {
    "name": "BAD_ENDING",
    "defaultvalue": 0,
    "displayName": "It Was Never A Mask",
    "hidden": 0,
    "description": "Who is the real monster?",
    "icon": "https://steamcdn-a.akamaihd.net/steamcommunity/public/images/apps/577690/59e8761198f523739d11468e9f414bed2a575aee.jpg",
    "icongray": "https://steamcdn-a.akamaihd.net/steamcommunity/public/images/apps/577690/2e2097a809dc5491baaab30cc8792134f8d0c6e6.jpg"
  },
  {
    "name": "DEATH_WISH",
    "defaultvalue": 0,
    "displayName": "Game Over and Over",
    "hidden": 1,
    "icon": "https://steamcdn-a.akamaihd.net/steamcommunity/public/images/apps/577690/c05b484ba23f0bf898e01d0e64ace9dfb2081195.jpg",
    "icongray": "https://steamcdn-a.akamaihd.net/steamcommunity/public/images/apps/577690/3305efee84d851adf9324891c894559c6f35a7ca.jpg"
  },
  {
    "name": "ROOM_0",
    "defaultvalue": 0,
    "displayName": "Welcome!",
    "hidden": 0,
    "description": "I'm glad you're here.",
    "icon": "https://steamcdn-a.akamaihd.net/steamcommunity/public/images/apps/577690/2f6674a386656715a2e5465c971c4011f5901e1a.jpg",
    "icongray": "https://steamcdn-a.akamaihd.net/steamcommunity/public/images/apps/577690/9f8da02e314522d24aa38ff7ee2fde67d4b23b22.jpg"
  },
  {
    "name": "ROOM_250",
    "defaultvalue": 0,
    "displayName": "Surprise!",
    "hidden": 0,
    "description": "You made it this far!",
    "icon": "https://steamcdn-a.akamaihd.net/steamcommunity/public/images/apps/577690/b257ed5353b0a227dc2a3267ab2541425fae1178.jpg",
    "icongray": "https://steamcdn-a.akamaihd.net/steamcommunity/public/images/apps/577690/ab5342991dd144667e1c0c64686b27d9938f4178.jpg"
  },
  {
    "name": "ROOM_500",
    "defaultvalue": 0,
    "displayName": "Halfway There",
    "hidden": 0,
    "description": "Always forward, never back.",
    "icon": "https://steamcdn-a.akamaihd.net/steamcommunity/public/images/apps/577690/9c48267dbe1e4aaf8f1b3a88f9fbc9ba2057c742.jpg",
    "icongray": "https://steamcdn-a.akamaihd.net/steamcommunity/public/images/apps/577690/f9a4425df2f5a0401eeb353fb42d99454e93e0a1.jpg"
  },
  {
    "name": "ROOM_750",
    "defaultvalue": 0,
    "displayName": "The Final Stretch",
    "hidden": 0,
    "description": "You'll need unlimited stamina to race to the end!",
    "icon": "https://steamcdn-a.akamaihd.net/steamcommunity/public/images/apps/577690/770c821e2ab3e13b3093d28aff329cd24dafe4d8.jpg",
    "icongray": "https://steamcdn-a.akamaihd.net/steamcommunity/public/images/apps/577690/f210068b2fd6c6d77aaad09d7092aa4b2f687306.jpg"
  },
  {
    "name": "ROOM_1000",
    "defaultvalue": 0,
    "displayName": "You Did It!",
    "hidden": 0,
    "description": "Just go towards the light!",
    "icon": "https://steamcdn-a.akamaihd.net/steamcommunity/public/images/apps/577690/e3d5842e20b54823cfee35ea60d9e08c4715179b.jpg",
    "icongray": "https://steamcdn-a.akamaihd.net/steamcommunity/public/images/apps/577690/5ed12bdedf0ff2e66a9be67ee5ffdbb618ab6fc3.jpg"
  },
  {
    "name": "LOVE_FAILED",
    "defaultvalue": 0,
    "displayName": "LOVE FAILED!",
    "hidden": 1,
    "icon": "https://steamcdn-a.akamaihd.net/steamcommunity/public/images/apps/577690/6d5000ab3a7848752a0e591aea9db64b5aa0f9a5.jpg",
    "icongray": "https://steamcdn-a.akamaihd.net/steamcommunity/public/images/apps/577690/90efada99433af7c05a81a3ae88dcf12bdaae839.jpg"
  },
  {
    "name": "META_GAMER",
    "defaultvalue": 0,
    "displayName": "Meta-Gamer",
    "hidden": 0,
    "description": "Spooky inception!",
    "icon": "https://steamcdn-a.akamaihd.net/steamcommunity/public/images/apps/577690/d776e486f22127747831992f16dedf7228c17bba.jpg",
    "icongray": "https://steamcdn-a.akamaihd.net/steamcommunity/public/images/apps/577690/30de18051833d7c727afcc6481869ed110261e1b.jpg"
  },
  {
    "name": "AVID_READER",
    "defaultvalue": 0,
    "displayName": "Avid Reader",
    "hidden": 0,
    "description": "These are their stories.",
    "icon": "https://steamcdn-a.akamaihd.net/steamcommunity/public/images/apps/577690/30791048f11b12b0002e7dd9e4438d9a5ce21e46.jpg",
    "icongray": "https://steamcdn-a.akamaihd.net/steamcommunity/public/images/apps/577690/7fa86b7217bf3902ced62c3847ebee05575f0522.jpg"
  },
  {
    "name": "PACIFISM",
    "defaultvalue": 0,
    "displayName": "Pacifism",
    "hidden": 1,
    "icon": "https://steamcdn-a.akamaihd.net/steamcommunity/public/images/apps/577690/77217eebaa27c043225b4040c67b5b615d83ac13.jpg",
    "icongray": "https://steamcdn-a.akamaihd.net/steamcommunity/public/images/apps/577690/f09136144802c9f61299d4b52bffcbffc8c79d61.jpg"
  },
  {
    "name": "BRAIN_POWER",
    "defaultvalue": 0,
    "displayName": "Brain Power",
    "hidden": 1,
    "icon": "https://steamcdn-a.akamaihd.net/steamcommunity/public/images/apps/577690/d3e28a5a82d74a144a6799f46714f6e7a520c621.jpg",
    "icongray": "https://steamcdn-a.akamaihd.net/steamcommunity/public/images/apps/577690/c15a1bc87c478d0c7efcd9e6759363608a0d7abc.jpg"
  },
  {
    "name": "MARATHON",
    "defaultvalue": 0,
    "displayName": "Marathon",
    "hidden": 0,
    "description": "Just keep moving",
    "icon": "https://steamcdn-a.akamaihd.net/steamcommunity/public/images/apps/577690/f642249b62f9e6a81b6adbb8e0b28b24345ee385.jpg",
    "icongray": "https://steamcdn-a.akamaihd.net/steamcommunity/public/images/apps/577690/fe0c9fa6b4cb6fc406fb2730821ea8eda715d33c.jpg"
  },
  {
    "name": "CLONE_WARS",
    "defaultvalue": 0,
    "displayName": "Seeing Double",
    "hidden": 1,
    "icon": "https://steamcdn-a.akamaihd.net/steamcommunity/public/images/apps/577690/11cd6b77f98da5be401c100f8148bec8f4012171.jpg",
    "icongray": "https://steamcdn-a.akamaihd.net/steamcommunity/public/images/apps/577690/4af6835cc13c0d314e70a732075178bb67c328fd.jpg"
  },
  {
    "name": "SPECIMEN_RESEARCHER",
    "defaultvalue": 0,
    "displayName": "Specimen Researcher",
    "hidden": 0,
    "description": "Were you taking notes?",
    "icon": "https://steamcdn-a.akamaihd.net/steamcommunity/public/images/apps/577690/56dd0f45654f75ef6999ab92cdea1a2b8cfbbfe0.jpg",
    "icongray": "https://steamcdn-a.akamaihd.net/steamcommunity/public/images/apps/577690/4b2b6834a88f2f5823393e8a54ed517402fd57ac.jpg"
  },
  {
    "name": "NEAR_DEATH_EXPERIENCE",
    "defaultvalue": 0,
    "displayName": "Near-Death Experience",
    "hidden": 0,
    "description": "Almost got you!",
    "icon": "https://steamcdn-a.akamaihd.net/steamcommunity/public/images/apps/577690/70755379aa7e4fa14a872599eb6684abbf23504a.jpg",
    "icongray": "https://steamcdn-a.akamaihd.net/steamcommunity/public/images/apps/577690/3f8c89b5604ec288a2ee5d50bd828b28e969f2fb.jpg"
  },
  {
    "name": "KNIFE_TO_MEET_YOU",
    "defaultvalue": 0,
    "displayName": "Knife To Meet You",
    "hidden": 1,
    "icon": "https://steamcdn-a.akamaihd.net/steamcommunity/public/images/apps/577690/7180430d6cdf2ecc4705c2e21eec524a3336278a.jpg",
    "icongray": "https://steamcdn-a.akamaihd.net/steamcommunity/public/images/apps/577690/cb147a962daef1f704e65d25cec0c2ea1d634ed7.jpg"
  },
  {
    "name": "VISITING_HOUR",
    "defaultvalue": 0,
    "displayName": "Visiting Hour",
    "hidden": 0,
    "description": "Welcome to Karamari Hospital!",
    "icon": "https://steamcdn-a.akamaihd.net/steamcommunity/public/images/apps/577690/acdf11ce41d2eb0bb402c2e184aad8e88cd21cab.jpg",
    "icongray": "https://steamcdn-a.akamaihd.net/steamcommunity/public/images/apps/577690/3fc8ca7ead0debfe3eb9d1123bfd9988665ff9a4.jpg"
  },
  {
    "name": "BACKSEAT_GAMER",
    "defaultvalue": 0,
    "displayName": "Backseat Gamer",
    "hidden": 1,
    "icon": "https://steamcdn-a.akamaihd.net/steamcommunity/public/images/apps/577690/fef20b2233d81374991c820328340bedc523aed8.jpg",
    "icongray": "https://steamcdn-a.akamaihd.net/steamcommunity/public/images/apps/577690/299fc6138c4e7be0416f85e987a7d876232c2372.jpg"
  },
  {
    "name": "YOU_SHOULD_GO_NOW",
    "defaultvalue": 0,
    "displayName": "You Should Go Now",
    "hidden": 0,
    "description": "This place should be shut down...",
    "icon": "https://steamcdn-a.akamaihd.net/steamcommunity/public/images/apps/577690/54dcce51add35c878e9703106d1f5e954edf4730.jpg",
    "icongray": "https://steamcdn-a.akamaihd.net/steamcommunity/public/images/apps/577690/ecb84736845f2ebf2bfce174c3ada5cfebe12290.jpg"
  },
  {
    "name": "SHE_FEARS_YOU",
    "defaultvalue": 0,
    "displayName": "She Fears You",
    "hidden": 0,
    "description": "Please don't hurt me.",
    "icon": "https://steamcdn-a.akamaihd.net/steamcommunity/public/images/apps/577690/4d6574173afb1a0c15f1b6da76a2ff385fc1d5ef.jpg",
    "icongray": "https://steamcdn-a.akamaihd.net/steamcommunity/public/images/apps/577690/ecb84736845f2ebf2bfce174c3ada5cfebe12290.jpg"
  },
  {
    "name": "YOLO",
    "defaultvalue": 0,
    "displayName": "Speedrun Strats",
    "hidden": 0,
    "description": "I admire your confidence!",
    "icon": "https://steamcdn-a.akamaihd.net/steamcommunity/public/images/apps/577690/6674189958c5ecae2c48e33d8fb7fe7d3344650d.jpg",
    "icongray": "https://steamcdn-a.akamaihd.net/steamcommunity/public/images/apps/577690/3358ee19fd50af3c5e519ccb263010d1ceda8dab.jpg"
  },
  {
    "name": "THIS_ISNT_THE_END",
    "defaultvalue": 0,
    "displayName": "This Isn't The End?!",
    "hidden": 1,
    "icon": "https://steamcdn-a.akamaihd.net/steamcommunity/public/images/apps/577690/c285ed9aeeb36f65cc95c08866b2ee3c904d6efd.jpg",
    "icongray": "https://steamcdn-a.akamaihd.net/steamcommunity/public/images/apps/577690/0060ea8c32eaad568c5c383f5ff971b26323b74e.jpg"
  },
  {
    "name": "A_RIVAL_MODE",
    "defaultvalue": 0,
    "displayName": "A_Rival Mode!",
    "hidden": 1,
    "icon": "https://steamcdn-a.akamaihd.net/steamcommunity/public/images/apps/577690/4712b4bc883698fea05683afa5a62e41b87c77d7.jpg",
    "icongray": "https://steamcdn-a.akamaihd.net/steamcommunity/public/images/apps/577690/f30ea53e559f201e84da00a5d167f160d1b06a19.jpg"
  }
]