{
  "Dlcs": {},
  "Name": "Vixens From Outer Space",
  "AppId": "855970",
  "ImageUrl": "https://steamcdn-a.akamaihd.net/steam/apps/855970/header.jpg?t=1594357027",
  "Languages": [
    "english",
    "spanish",
    "german",
    "japanese"
  ],
  "Platforms": {
    "windows": true,
    "mac": false,
    "linux": false
  }
}