{
  "Dlcs": {
    "697210": {
      "Name": "Super Puzzle Galaxy - Boost Ball DLC Pack",
      "ImageUrl": "https://steamcdn-a.akamaihd.net/steam/apps/697210/header.jpg?t=1530755605"
    },
    "866980": {
      "Name": "Super Puzzle Galaxy: Warp Ball DLC Pack",
      "ImageUrl": "https://steamcdn-a.akamaihd.net/steam/apps/866980/header.jpg?t=1530799709"
    }
  },
  "Name": "Super Puzzle Galaxy",
  "AppId": "464020",
  "ImageUrl": "https://steamcdn-a.akamaihd.net/steam/apps/464020/header.jpg?t=1558334437",
  "Languages": [
    "english",
    "japanese",
    "schinese",
    "tchinese"
  ],
  "Platforms": {
    "windows": true,
    "mac": false,
    "linux": false
  }
}