{
  "Dlcs": {},
  "Name": "Foxfall",
  "AppId": "1208470",
  "ImageUrl": "https://steamcdn-a.akamaihd.net/steam/apps/1208470/header.jpg?t=1580831427",
  "Languages": [
    "english"
  ],
  "Platforms": {
    "windows": true,
    "mac": false,
    "linux": false
  }
}