{
  "Dlcs": {},
  "Name": "Rex Rocket",
  "AppId": "288020",
  "ImageUrl": "https://steamcdn-a.akamaihd.net/steam/apps/288020/header.jpg?t=1450818358",
  "Languages": [
    "english"
  ],
  "Platforms": {
    "windows": true,
    "mac": true,
    "linux": true
  }
}