{
  "Dlcs": {},
  "Name": "WarBox: Camouflage",
  "AppId": "894200",
  "ImageUrl": "https://steamcdn-a.akamaihd.net/steam/apps/894200/header.jpg?t=1535839613",
  "Languages": [
    "english"
  ],
  "Platforms": {
    "windows": true,
    "mac": false,
    "linux": false
  }
}