{
  "Dlcs": {
    "1351270": {
      "Name": "The Catch: Carp & Coarse - Jezioro Bestii",
      "ImageUrl": "https://steamcdn-a.akamaihd.net/steam/apps/1351270/header.jpg?t=1596186343"
    },
    "1351271": {
      "Name": "The Catch: Carp & Coarse - Lake Beasts Equipment Pack",
      "ImageUrl": "https://steamcdn-a.akamaihd.net/steam/apps/1351271/header.jpg?t=1598518776"
    }
  },
  "Name": "The Catch: Carp & Coarse",
  "AppId": "1237610",
  "ImageUrl": "https://steamcdn-a.akamaihd.net/steam/apps/1237610/header.jpg?t=1593507649",
  "Languages": [
    "english",
    "french",
    "german",
    "spanish",
    "polish",
    "russian",
    "schinese"
  ],
  "Platforms": {
    "windows": true,
    "mac": false,
    "linux": false
  }
}