{
  "Dlcs": {},
  "Name": "Zombie Clicker Defense",
  "AppId": "790230",
  "ImageUrl": "https://steamcdn-a.akamaihd.net/steam/apps/790230/header.jpg?t=1517566628",
  "Languages": [
    "english"
  ],
  "Platforms": {
    "windows": true,
    "mac": false,
    "linux": false
  }
}