{
  "Dlcs": {
    "1170270": {
      "Name": "Beyond Enemy Lines 2 Online - Weapon Pass",
      "ImageUrl": "https://steamcdn-a.akamaihd.net/steam/apps/1170270/header.jpg?t=1594105306"
    },
    "1184630": {
      "Name": "Beyond Enemy Lines 2 Online - Battle Pass",
      "ImageUrl": "https://steamcdn-a.akamaihd.net/steam/apps/1184630/header.jpg?t=1594105307"
    },
    "1189760": {
      "Name": "Beyond Enemy Lines 2 Online - XP Boost",
      "ImageUrl": "https://steamcdn-a.akamaihd.net/steam/apps/1189760/header.jpg?t=1594105305"
    }
  },
  "Name": "Beyond Enemy Lines 2 Online",
  "AppId": "1165720",
  "ImageUrl": "https://steamcdn-a.akamaihd.net/steam/apps/1165720/header.jpg?t=1594105291",
  "Languages": [
    "english",
    "german",
    "turkish",
    "french",
    "italian",
    "spanish",
    "portuguese",
    "russian",
    "schinese"
  ],
  "Platforms": {
    "windows": true,
    "mac": false,
    "linux": false
  }
}