{
  "Dlcs": {},
  "Name": "No Longer Home",
  "AppId": "651490",
  "ImageUrl": "https://steamcdn-a.akamaihd.net/steam/apps/651490/header.jpg?t=1596596900",
  "Languages": [
    "english"
  ],
  "Platforms": {
    "windows": true,
    "mac": true,
    "linux": false
  }
}