﻿{
  "Dlcs": {},
  "Name": "Isles of Adalar",
  "AppId": "1112620",
  "ImageUrl": "https://steamcdn-a.akamaihd.net/steam/apps/1112620/header.jpg?t=1600448047",
  "Languages": [
    "english"
  ],
  "Platforms": {
    "windows": true,
    "mac": false,
    "linux": false
  }
}