{
  "Name": "Blender Character Rigging for Beginners HD: Intro to Weight Paint Tools - Part 1",
  "ImageUrl": "https://steamcdn-a.akamaihd.net/steam/apps/829999/header.jpg?t=1522184516",
  "Type": "episode"
}