﻿[
  {
    "name": "GAM_BRK1",
    "defaultvalue": 0,
    "displayName": "Attack!",
    "hidden": 0,
    "description": "Hit the attack button and join the breakaway",
    "icon": "https://steamcdn-a.akamaihd.net/steamcommunity/public/images/apps/704230/b935fd900757133a3e21935fce91b653425883d5.jpg",
    "icongray": "https://steamcdn-a.akamaihd.net/steamcommunity/public/images/apps/704230/c70148acc83e293d2282d8d0c677dbdb754d9fb1.jpg"
  },
  {
    "name": "GAM_BRK2",
    "defaultvalue": 0,
    "displayName": "Baroudeur I",
    "hidden": 0,
    "description": "Be in the breakaway for 20 km",
    "icon": "https://steamcdn-a.akamaihd.net/steamcommunity/public/images/apps/704230/b935fd900757133a3e21935fce91b653425883d5.jpg",
    "icongray": "https://steamcdn-a.akamaihd.net/steamcommunity/public/images/apps/704230/c70148acc83e293d2282d8d0c677dbdb754d9fb1.jpg"
  },
  {
    "name": "GAM_BRK3",
    "defaultvalue": 0,
    "displayName": "Baroudeur II",
    "hidden": 0,
    "description": "Be in the breakaway for 100 km",
    "icon": "https://steamcdn-a.akamaihd.net/steamcommunity/public/images/apps/704230/b935fd900757133a3e21935fce91b653425883d5.jpg",
    "icongray": "https://steamcdn-a.akamaihd.net/steamcommunity/public/images/apps/704230/20d70763d6dd68a676da5d10da0b9143baed781c.jpg"
  },
  {
    "name": "GAM_BRK4",
    "defaultvalue": 0,
    "displayName": "Baroudeur III",
    "hidden": 0,
    "description": "Be in the breakaway for 150 km",
    "icon": "https://steamcdn-a.akamaihd.net/steamcommunity/public/images/apps/704230/b935fd900757133a3e21935fce91b653425883d5.jpg",
    "icongray": "https://steamcdn-a.akamaihd.net/steamcommunity/public/images/apps/704230/c70148acc83e293d2282d8d0c677dbdb754d9fb1.jpg"
  },
  {
    "name": "GAM_BAPT",
    "defaultvalue": 0,
    "displayName": "Baptism of fire",
    "hidden": 0,
    "description": "Finish your first race",
    "icon": "https://steamcdn-a.akamaihd.net/steamcommunity/public/images/apps/704230/b935fd900757133a3e21935fce91b653425883d5.jpg",
    "icongray": "https://steamcdn-a.akamaihd.net/steamcommunity/public/images/apps/704230/c70148acc83e293d2282d8d0c677dbdb754d9fb1.jpg"
  },
  {
    "name": "GAM_TDFLEAD",
    "defaultvalue": 0,
    "displayName": "Yellow jersey",
    "hidden": 0,
    "description": "Wear the Tour de France yellow jersey",
    "icon": "https://steamcdn-a.akamaihd.net/steamcommunity/public/images/apps/704230/9f4b8ebae20e53656048c0c8b25c8bfa9b8ba909.jpg",
    "icongray": "https://steamcdn-a.akamaihd.net/steamcommunity/public/images/apps/704230/c70148acc83e293d2282d8d0c677dbdb754d9fb1.jpg"
  },
  {
    "name": "GAM_WINFLAT",
    "defaultvalue": 0,
    "displayName": "Sprinter",
    "hidden": 0,
    "description": "Win a flat stage (not TT)",
    "icon": "https://steamcdn-a.akamaihd.net/steamcommunity/public/images/apps/704230/9f4b8ebae20e53656048c0c8b25c8bfa9b8ba909.jpg",
    "icongray": "https://steamcdn-a.akamaihd.net/steamcommunity/public/images/apps/704230/c70148acc83e293d2282d8d0c677dbdb754d9fb1.jpg"
  },
  {
    "name": "GAM_WINHILL",
    "defaultvalue": 0,
    "displayName": "Puncher",
    "hidden": 0,
    "description": "Win a hilly stage (not TT)",
    "icon": "https://steamcdn-a.akamaihd.net/steamcommunity/public/images/apps/704230/9f4b8ebae20e53656048c0c8b25c8bfa9b8ba909.jpg",
    "icongray": "https://steamcdn-a.akamaihd.net/steamcommunity/public/images/apps/704230/c70148acc83e293d2282d8d0c677dbdb754d9fb1.jpg"
  },
  {
    "name": "GAM_WINMONT",
    "defaultvalue": 0,
    "displayName": "Climber",
    "hidden": 0,
    "description": "Win a mountain stage (not TT)",
    "icon": "https://steamcdn-a.akamaihd.net/steamcommunity/public/images/apps/704230/9f4b8ebae20e53656048c0c8b25c8bfa9b8ba909.jpg",
    "icongray": "https://steamcdn-a.akamaihd.net/steamcommunity/public/images/apps/704230/c70148acc83e293d2282d8d0c677dbdb754d9fb1.jpg"
  },
  {
    "name": "GAM_WINITT",
    "defaultvalue": 0,
    "displayName": "Rouleur",
    "hidden": 0,
    "description": "Win an Individual TT",
    "icon": "https://steamcdn-a.akamaihd.net/steamcommunity/public/images/apps/704230/9f4b8ebae20e53656048c0c8b25c8bfa9b8ba909.jpg",
    "icongray": "https://steamcdn-a.akamaihd.net/steamcommunity/public/images/apps/704230/c70148acc83e293d2282d8d0c677dbdb754d9fb1.jpg"
  },
  {
    "name": "GAM_WINTTT",
    "defaultvalue": 0,
    "displayName": "Rouleurs",
    "hidden": 0,
    "description": "Win a Team TT",
    "icon": "https://steamcdn-a.akamaihd.net/steamcommunity/public/images/apps/704230/9f4b8ebae20e53656048c0c8b25c8bfa9b8ba909.jpg",
    "icongray": "https://steamcdn-a.akamaihd.net/steamcommunity/public/images/apps/704230/c70148acc83e293d2282d8d0c677dbdb754d9fb1.jpg"
  },
  {
    "name": "GAM_WINBADDAY",
    "defaultvalue": 0,
    "displayName": "Unforeseen",
    "hidden": 0,
    "description": "Win a race with a negative race-day condition",
    "icon": "https://steamcdn-a.akamaihd.net/steamcommunity/public/images/apps/704230/9f4b8ebae20e53656048c0c8b25c8bfa9b8ba909.jpg",
    "icongray": "https://steamcdn-a.akamaihd.net/steamcommunity/public/images/apps/704230/c70148acc83e293d2282d8d0c677dbdb754d9fb1.jpg"
  },
  {
    "name": "GAM_WINNOGEL",
    "defaultvalue": 0,
    "displayName": "Leeway",
    "hidden": 0,
    "description": "Win without using energy gel",
    "icon": "https://steamcdn-a.akamaihd.net/steamcommunity/public/images/apps/704230/9f4b8ebae20e53656048c0c8b25c8bfa9b8ba909.jpg",
    "icongray": "https://steamcdn-a.akamaihd.net/steamcommunity/public/images/apps/704230/c70148acc83e293d2282d8d0c677dbdb754d9fb1.jpg"
  },
  {
    "name": "GAM_WINSPR100",
    "defaultvalue": 0,
    "displayName": "Big thighs",
    "hidden": 0,
    "description": "Win a race in a mass sprint (+100 riders in the peloton)",
    "icon": "https://steamcdn-a.akamaihd.net/steamcommunity/public/images/apps/704230/9f4b8ebae20e53656048c0c8b25c8bfa9b8ba909.jpg",
    "icongray": "https://steamcdn-a.akamaihd.net/steamcommunity/public/images/apps/704230/c70148acc83e293d2282d8d0c677dbdb754d9fb1.jpg"
  },
  {
    "name": "GAM_LEADT_RACE",
    "defaultvalue": 0,
    "displayName": "General I",
    "hidden": 0,
    "description": "Win the general classification of a stage race",
    "icon": "https://steamcdn-a.akamaihd.net/steamcommunity/public/images/apps/704230/9f4b8ebae20e53656048c0c8b25c8bfa9b8ba909.jpg",
    "icongray": "https://steamcdn-a.akamaihd.net/steamcommunity/public/images/apps/704230/c70148acc83e293d2282d8d0c677dbdb754d9fb1.jpg"
  },
  {
    "name": "GAM_LEADP_RACE",
    "defaultvalue": 0,
    "displayName": "Points I",
    "hidden": 0,
    "description": "Win the points classification of a stage race",
    "icon": "https://steamcdn-a.akamaihd.net/steamcommunity/public/images/apps/704230/9f4b8ebae20e53656048c0c8b25c8bfa9b8ba909.jpg",
    "icongray": "https://steamcdn-a.akamaihd.net/steamcommunity/public/images/apps/704230/c70148acc83e293d2282d8d0c677dbdb754d9fb1.jpg"
  },
  {
    "name": "GAM_LEADM_RACE",
    "defaultvalue": 0,
    "displayName": "Mountain I",
    "hidden": 0,
    "description": "Win the mountain classification of a stage race",
    "icon": "https://steamcdn-a.akamaihd.net/steamcommunity/public/images/apps/704230/9f4b8ebae20e53656048c0c8b25c8bfa9b8ba909.jpg",
    "icongray": "https://steamcdn-a.akamaihd.net/steamcommunity/public/images/apps/704230/c70148acc83e293d2282d8d0c677dbdb754d9fb1.jpg"
  },
  {
    "name": "GAM_LEADY_RACE",
    "defaultvalue": 0,
    "displayName": "Young rider I",
    "hidden": 0,
    "description": "Win the young rider classification of a stage race",
    "icon": "https://steamcdn-a.akamaihd.net/steamcommunity/public/images/apps/704230/9f4b8ebae20e53656048c0c8b25c8bfa9b8ba909.jpg",
    "icongray": "https://steamcdn-a.akamaihd.net/steamcommunity/public/images/apps/704230/c70148acc83e293d2282d8d0c677dbdb754d9fb1.jpg"
  },
  {
    "name": "GAM_LEADE_RACE",
    "defaultvalue": 0,
    "displayName": "Team I",
    "hidden": 0,
    "description": "Win the team classification of a stage race",
    "icon": "https://steamcdn-a.akamaihd.net/steamcommunity/public/images/apps/704230/9f4b8ebae20e53656048c0c8b25c8bfa9b8ba909.jpg",
    "icongray": "https://steamcdn-a.akamaihd.net/steamcommunity/public/images/apps/704230/c70148acc83e293d2282d8d0c677dbdb754d9fb1.jpg"
  },
  {
    "name": "GAM_LEADT_GT",
    "defaultvalue": 0,
    "displayName": "General II",
    "hidden": 0,
    "description": "Win the general classification of one of the 3 Grand Tours (France, Vuelta or SuperGiro)",
    "icon": "https://steamcdn-a.akamaihd.net/steamcommunity/public/images/apps/704230/25b5a5650f513ae8929b6dee47843d97156a4169.jpg",
    "icongray": "https://steamcdn-a.akamaihd.net/steamcommunity/public/images/apps/704230/c70148acc83e293d2282d8d0c677dbdb754d9fb1.jpg"
  },
  {
    "name": "GAM_LEADP_GT",
    "defaultvalue": 0,
    "displayName": "Points II",
    "hidden": 0,
    "description": "Win the points classification of one of the 3 Grand Tours (France, Vuelta or SuperGiro)",
    "icon": "https://steamcdn-a.akamaihd.net/steamcommunity/public/images/apps/704230/25b5a5650f513ae8929b6dee47843d97156a4169.jpg",
    "icongray": "https://steamcdn-a.akamaihd.net/steamcommunity/public/images/apps/704230/c70148acc83e293d2282d8d0c677dbdb754d9fb1.jpg"
  },
  {
    "name": "GAM_LEADM_GT",
    "defaultvalue": 0,
    "displayName": "Mountain II",
    "hidden": 0,
    "description": "Win the mountain classification of one of the 3 Grand Tours (France, Vuelta or SuperGiro)",
    "icon": "https://steamcdn-a.akamaihd.net/steamcommunity/public/images/apps/704230/25b5a5650f513ae8929b6dee47843d97156a4169.jpg",
    "icongray": "https://steamcdn-a.akamaihd.net/steamcommunity/public/images/apps/704230/c70148acc83e293d2282d8d0c677dbdb754d9fb1.jpg"
  },
  {
    "name": "GAM_LEADY_GT",
    "defaultvalue": 0,
    "displayName": "Young rider II",
    "hidden": 0,
    "description": "Win the young rider classification of one of the 3 Grand Tours (France, Vuelta or SuperGiro)",
    "icon": "https://steamcdn-a.akamaihd.net/steamcommunity/public/images/apps/704230/25b5a5650f513ae8929b6dee47843d97156a4169.jpg",
    "icongray": "https://steamcdn-a.akamaihd.net/steamcommunity/public/images/apps/704230/20d70763d6dd68a676da5d10da0b9143baed781c.jpg"
  },
  {
    "name": "GAM_LEADE_GT",
    "defaultvalue": 0,
    "displayName": "Team II",
    "hidden": 0,
    "description": "Win the team classification of one of the 3 Grand Tours (France, Vuelta or SuperGiro)",
    "icon": "https://steamcdn-a.akamaihd.net/steamcommunity/public/images/apps/704230/25b5a5650f513ae8929b6dee47843d97156a4169.jpg",
    "icongray": "https://steamcdn-a.akamaihd.net/steamcommunity/public/images/apps/704230/c70148acc83e293d2282d8d0c677dbdb754d9fb1.jpg"
  },
  {
    "name": "GAM_JACKY",
    "defaultvalue": 0,
    "displayName": "Monsieur Durand",
    "hidden": 0,
    "description": "Ride at least 200 kms at the head of a race and win it",
    "icon": "https://steamcdn-a.akamaihd.net/steamcommunity/public/images/apps/704230/25b5a5650f513ae8929b6dee47843d97156a4169.jpg",
    "icongray": "https://steamcdn-a.akamaihd.net/steamcommunity/public/images/apps/704230/c70148acc83e293d2282d8d0c677dbdb754d9fb1.jpg"
  },
  {
    "name": "CAR_PREPSTAGE",
    "defaultvalue": 0,
    "displayName": "Preparation",
    "hidden": 0,
    "description": "Organise a training camp",
    "icon": "https://steamcdn-a.akamaihd.net/steamcommunity/public/images/apps/704230/3d3d20ffe99e5c40e74b8568a25b500f0ee85358.jpg",
    "icongray": "https://steamcdn-a.akamaihd.net/steamcommunity/public/images/apps/704230/c70148acc83e293d2282d8d0c677dbdb754d9fb1.jpg"
  },
  {
    "name": "CAR_SCOUT",
    "defaultvalue": 0,
    "displayName": "Future",
    "hidden": 0,
    "description": "Scout a rider",
    "icon": "https://steamcdn-a.akamaihd.net/steamcommunity/public/images/apps/704230/3d3d20ffe99e5c40e74b8568a25b500f0ee85358.jpg",
    "icongray": "https://steamcdn-a.akamaihd.net/steamcommunity/public/images/apps/704230/c70148acc83e293d2282d8d0c677dbdb754d9fb1.jpg"
  },
  {
    "name": "CAR_ONEWEEK",
    "defaultvalue": 0,
    "displayName": "Already one weak",
    "hidden": 0,
    "description": "Pass the 1st week",
    "icon": "https://steamcdn-a.akamaihd.net/steamcommunity/public/images/apps/704230/3d3d20ffe99e5c40e74b8568a25b500f0ee85358.jpg",
    "icongray": "https://steamcdn-a.akamaihd.net/steamcommunity/public/images/apps/704230/c70148acc83e293d2282d8d0c677dbdb754d9fb1.jpg"
  },
  {
    "name": "CAR_SIGNCONTRACT",
    "defaultvalue": 0,
    "displayName": "Sign a rider",
    "hidden": 0,
    "description": "You must sign a contract with a new rider",
    "icon": "https://steamcdn-a.akamaihd.net/steamcommunity/public/images/apps/704230/3d3d20ffe99e5c40e74b8568a25b500f0ee85358.jpg",
    "icongray": "https://steamcdn-a.akamaihd.net/steamcommunity/public/images/apps/704230/c70148acc83e293d2282d8d0c677dbdb754d9fb1.jpg"
  },
  {
    "name": "CAR_WILDCARD",
    "defaultvalue": 0,
    "displayName": "Wild-Card",
    "hidden": 0,
    "description": "Receive a Wild Card to take part in a Cya World Tour race with a Continental team",
    "icon": "https://steamcdn-a.akamaihd.net/steamcommunity/public/images/apps/704230/3d3d20ffe99e5c40e74b8568a25b500f0ee85358.jpg",
    "icongray": "https://steamcdn-a.akamaihd.net/steamcommunity/public/images/apps/704230/c70148acc83e293d2282d8d0c677dbdb754d9fb1.jpg"
  },
  {
    "name": "CAR_OBJ3",
    "defaultvalue": 0,
    "displayName": "3 Objectives",
    "hidden": 0,
    "description": "Fulfil 3 objectives with the same sponsor in the same year",
    "icon": "https://steamcdn-a.akamaihd.net/steamcommunity/public/images/apps/704230/3d3d20ffe99e5c40e74b8568a25b500f0ee85358.jpg",
    "icongray": "https://steamcdn-a.akamaihd.net/steamcommunity/public/images/apps/704230/c70148acc83e293d2282d8d0c677dbdb754d9fb1.jpg"
  },
  {
    "name": "CAR_SEASON",
    "defaultvalue": 0,
    "displayName": "Assessment",
    "hidden": 0,
    "description": "Finish a 1st season",
    "icon": "https://steamcdn-a.akamaihd.net/steamcommunity/public/images/apps/704230/c6655bfbb8192f3e42bd50dd90496c8ef9325240.jpg",
    "icongray": "https://steamcdn-a.akamaihd.net/steamcommunity/public/images/apps/704230/c70148acc83e293d2282d8d0c677dbdb754d9fb1.jpg"
  },
  {
    "name": "CAR_SIGNSPONSOR",
    "defaultvalue": 0,
    "displayName": "Businessman",
    "hidden": 0,
    "description": "Signer a contract with a sponsor",
    "icon": "https://steamcdn-a.akamaihd.net/steamcommunity/public/images/apps/704230/c6655bfbb8192f3e42bd50dd90496c8ef9325240.jpg",
    "icongray": "https://steamcdn-a.akamaihd.net/steamcommunity/public/images/apps/704230/c70148acc83e293d2282d8d0c677dbdb754d9fb1.jpg"
  },
  {
    "name": "CAR_OBJ5",
    "defaultvalue": 0,
    "displayName": "5 Objectives",
    "hidden": 0,
    "description": "Fulfil 5 objectives with the same sponsor in the same year",
    "icon": "https://steamcdn-a.akamaihd.net/steamcommunity/public/images/apps/704230/2f26be794212f7537ec872c568d0e6168b791315.jpg",
    "icongray": "https://steamcdn-a.akamaihd.net/steamcommunity/public/images/apps/704230/c70148acc83e293d2282d8d0c677dbdb754d9fb1.jpg"
  },
  {
    "name": "CAR_WINWORLD",
    "defaultvalue": 0,
    "displayName": "Rainbow",
    "hidden": 0,
    "description": "Win the world road champion title with your national team",
    "icon": "https://steamcdn-a.akamaihd.net/steamcommunity/public/images/apps/704230/c6655bfbb8192f3e42bd50dd90496c8ef9325240.jpg",
    "icongray": "https://steamcdn-a.akamaihd.net/steamcommunity/public/images/apps/704230/c70148acc83e293d2282d8d0c677dbdb754d9fb1.jpg"
  },
  {
    "name": "CAR_PROMOTION",
    "defaultvalue": 0,
    "displayName": "Top Level",
    "hidden": 0,
    "description": "Reach the Cya World Tour with a Continental team",
    "icon": "https://steamcdn-a.akamaihd.net/steamcommunity/public/images/apps/704230/c6655bfbb8192f3e42bd50dd90496c8ef9325240.jpg",
    "icongray": "https://steamcdn-a.akamaihd.net/steamcommunity/public/images/apps/704230/c70148acc83e293d2282d8d0c677dbdb754d9fb1.jpg"
  },
  {
    "name": "CAR_SATIS90",
    "defaultvalue": 0,
    "displayName": "Unanimity",
    "hidden": 0,
    "description": "Have all your leaders with an evaluation of objectives > 90%",
    "icon": "https://steamcdn-a.akamaihd.net/steamcommunity/public/images/apps/704230/60410bc6ef177b7e1a23b57bd5a567107fe1fc4e.jpg",
    "icongray": "https://steamcdn-a.akamaihd.net/steamcommunity/public/images/apps/704230/c70148acc83e293d2282d8d0c677dbdb754d9fb1.jpg"
  },
  {
    "name": "CAR_OBJ10",
    "defaultvalue": 0,
    "displayName": "10 Objectives",
    "hidden": 0,
    "description": "Fulfil 10 objectives with the same sponsor in the same year",
    "icon": "https://steamcdn-a.akamaihd.net/steamcommunity/public/images/apps/704230/60410bc6ef177b7e1a23b57bd5a567107fe1fc4e.jpg",
    "icongray": "https://steamcdn-a.akamaihd.net/steamcommunity/public/images/apps/704230/c70148acc83e293d2282d8d0c677dbdb754d9fb1.jpg"
  },
  {
    "name": "CAR_CYATROPHY",
    "defaultvalue": 0,
    "displayName": "Cyanide Trophy",
    "hidden": 0,
    "description": "One of your riders has received the Cyanide Trophy",
    "icon": "https://steamcdn-a.akamaihd.net/steamcommunity/public/images/apps/704230/60410bc6ef177b7e1a23b57bd5a567107fe1fc4e.jpg",
    "icongray": "https://steamcdn-a.akamaihd.net/steamcommunity/public/images/apps/704230/20d70763d6dd68a676da5d10da0b9143baed781c.jpg"
  },
  {
    "name": "CAR_PANTHEON",
    "defaultvalue": 0,
    "displayName": "Pantheon",
    "hidden": 0,
    "description": "Win the 5 Monuments in the same season",
    "icon": "https://steamcdn-a.akamaihd.net/steamcommunity/public/images/apps/704230/60410bc6ef177b7e1a23b57bd5a567107fe1fc4e.jpg",
    "icongray": "https://steamcdn-a.akamaihd.net/steamcommunity/public/images/apps/704230/c70148acc83e293d2282d8d0c677dbdb754d9fb1.jpg"
  },
  {
    "name": "CAR_GDCHELEM",
    "defaultvalue": 0,
    "displayName": "Grand Slam",
    "hidden": 0,
    "description": "Win the 3 Grand Tours in the same season",
    "icon": "https://steamcdn-a.akamaihd.net/steamcommunity/public/images/apps/704230/60410bc6ef177b7e1a23b57bd5a567107fe1fc4e.jpg",
    "icongray": "https://steamcdn-a.akamaihd.net/steamcommunity/public/images/apps/704230/c70148acc83e293d2282d8d0c677dbdb754d9fb1.jpg"
  },
  {
    "name": "CAR_DREAMTEAM",
    "defaultvalue": 0,
    "displayName": "Dream Team",
    "hidden": 0,
    "description": "Have 3 riders in your squad with an Average of 80 or above",
    "icon": "https://steamcdn-a.akamaihd.net/steamcommunity/public/images/apps/704230/60410bc6ef177b7e1a23b57bd5a567107fe1fc4e.jpg",
    "icongray": "https://steamcdn-a.akamaihd.net/steamcommunity/public/images/apps/704230/c70148acc83e293d2282d8d0c677dbdb754d9fb1.jpg"
  },
  {
    "name": "CAR_PEAK",
    "defaultvalue": 0,
    "displayName": "Fitness peak",
    "hidden": 0,
    "description": "Trigger a fitness peak",
    "icon": "https://steamcdn-a.akamaihd.net/steamcommunity/public/images/apps/704230/50f689ec10e2caf6916969ed94ccc4f3b84e194b.jpg",
    "icongray": "https://steamcdn-a.akamaihd.net/steamcommunity/public/images/apps/704230/c70148acc83e293d2282d8d0c677dbdb754d9fb1.jpg"
  },
  {
    "name": "PCY_TEAMMATE",
    "defaultvalue": 0,
    "displayName": "Responsibilities",
    "hidden": 0,
    "description": "Confirm a request for a team member",
    "icon": "https://steamcdn-a.akamaihd.net/steamcommunity/public/images/apps/704230/50f689ec10e2caf6916969ed94ccc4f3b84e194b.jpg",
    "icongray": "https://steamcdn-a.akamaihd.net/steamcommunity/public/images/apps/704230/c70148acc83e293d2282d8d0c677dbdb754d9fb1.jpg"
  },
  {
    "name": "PCY_CALENDAR",
    "defaultvalue": 0,
    "displayName": "I do as I please!",
    "hidden": 0,
    "description": "Confirm a change of schedule",
    "icon": "https://steamcdn-a.akamaihd.net/steamcommunity/public/images/apps/704230/50f689ec10e2caf6916969ed94ccc4f3b84e194b.jpg",
    "icongray": "https://steamcdn-a.akamaihd.net/steamcommunity/public/images/apps/704230/c70148acc83e293d2282d8d0c677dbdb754d9fb1.jpg"
  },
  {
    "name": "PCY_LVL12",
    "defaultvalue": 0,
    "displayName": "Budding champion",
    "hidden": 0,
    "description": "Reach level 12",
    "icon": "https://steamcdn-a.akamaihd.net/steamcommunity/public/images/apps/704230/50f689ec10e2caf6916969ed94ccc4f3b84e194b.jpg",
    "icongray": "https://steamcdn-a.akamaihd.net/steamcommunity/public/images/apps/704230/c70148acc83e293d2282d8d0c677dbdb754d9fb1.jpg"
  },
  {
    "name": "PCY_LVL13",
    "defaultvalue": 0,
    "displayName": "Getting better",
    "hidden": 0,
    "description": "Reach level 13",
    "icon": "https://steamcdn-a.akamaihd.net/steamcommunity/public/images/apps/704230/50f689ec10e2caf6916969ed94ccc4f3b84e194b.jpg",
    "icongray": "https://steamcdn-a.akamaihd.net/steamcommunity/public/images/apps/704230/c70148acc83e293d2282d8d0c677dbdb754d9fb1.jpg"
  },
  {
    "name": "PCY_SEASON",
    "defaultvalue": 0,
    "displayName": "Journey",
    "hidden": 0,
    "description": "Finish a first season",
    "icon": "https://steamcdn-a.akamaihd.net/steamcommunity/public/images/apps/704230/7ee95e7876547206a43e381660711bc400cdb568.jpg",
    "icongray": "https://steamcdn-a.akamaihd.net/steamcommunity/public/images/apps/704230/c70148acc83e293d2282d8d0c677dbdb754d9fb1.jpg"
  },
  {
    "name": "PCY_LVL14",
    "defaultvalue": 0,
    "displayName": "Potential",
    "hidden": 0,
    "description": "Reach level 14",
    "icon": "https://steamcdn-a.akamaihd.net/steamcommunity/public/images/apps/704230/7ee95e7876547206a43e381660711bc400cdb568.jpg",
    "icongray": "https://steamcdn-a.akamaihd.net/steamcommunity/public/images/apps/704230/c70148acc83e293d2282d8d0c677dbdb754d9fb1.jpg"
  },
  {
    "name": "PCY_LVL15",
    "defaultvalue": 0,
    "displayName": "Resilient",
    "hidden": 0,
    "description": "Reach level 15",
    "icon": "https://steamcdn-a.akamaihd.net/steamcommunity/public/images/apps/704230/7ee95e7876547206a43e381660711bc400cdb568.jpg",
    "icongray": "https://steamcdn-a.akamaihd.net/steamcommunity/public/images/apps/704230/c70148acc83e293d2282d8d0c677dbdb754d9fb1.jpg"
  },
  {
    "name": "PCY_WIN_CLA",
    "defaultvalue": 0,
    "displayName": "Achievements I",
    "hidden": 0,
    "description": "Win a one day race",
    "icon": "https://steamcdn-a.akamaihd.net/steamcommunity/public/images/apps/704230/7ee95e7876547206a43e381660711bc400cdb568.jpg",
    "icongray": "https://steamcdn-a.akamaihd.net/steamcommunity/public/images/apps/704230/c70148acc83e293d2282d8d0c677dbdb754d9fb1.jpg"
  },
  {
    "name": "PCY_WIN_SR",
    "defaultvalue": 0,
    "displayName": "Achievements II",
    "hidden": 0,
    "description": "Win a stage race",
    "icon": "https://steamcdn-a.akamaihd.net/steamcommunity/public/images/apps/704230/7ee95e7876547206a43e381660711bc400cdb568.jpg",
    "icongray": "https://steamcdn-a.akamaihd.net/steamcommunity/public/images/apps/704230/c70148acc83e293d2282d8d0c677dbdb754d9fb1.jpg"
  },
  {
    "name": "PCY_NEWTEAM",
    "defaultvalue": 0,
    "displayName": "Transfer",
    "hidden": 0,
    "description": "Change team",
    "icon": "https://steamcdn-a.akamaihd.net/steamcommunity/public/images/apps/704230/7ee95e7876547206a43e381660711bc400cdb568.jpg",
    "icongray": "https://steamcdn-a.akamaihd.net/steamcommunity/public/images/apps/704230/c70148acc83e293d2282d8d0c677dbdb754d9fb1.jpg"
  },
  {
    "name": "PCY_SATISMAX",
    "defaultvalue": 0,
    "displayName": "Flawless",
    "hidden": 0,
    "description": "Finish a season with a Manager Satisfaction score of 100%",
    "icon": "https://steamcdn-a.akamaihd.net/steamcommunity/public/images/apps/704230/7ee95e7876547206a43e381660711bc400cdb568.jpg",
    "icongray": "https://steamcdn-a.akamaihd.net/steamcommunity/public/images/apps/704230/c70148acc83e293d2282d8d0c677dbdb754d9fb1.jpg"
  },
  {
    "name": "PCY_WTTEAM",
    "defaultvalue": 0,
    "displayName": "High Level",
    "hidden": 0,
    "description": "Sign for a Cya World Tour team",
    "icon": "https://steamcdn-a.akamaihd.net/steamcommunity/public/images/apps/704230/5d7e41affc4b75a8175fe6b569a0d54ced9ff3f7.jpg",
    "icongray": "https://steamcdn-a.akamaihd.net/steamcommunity/public/images/apps/704230/c70148acc83e293d2282d8d0c677dbdb754d9fb1.jpg"
  },
  {
    "name": "PCY_LVL16",
    "defaultvalue": 0,
    "displayName": "Ever upwards",
    "hidden": 0,
    "description": "Reach level 16",
    "icon": "https://steamcdn-a.akamaihd.net/steamcommunity/public/images/apps/704230/5d7e41affc4b75a8175fe6b569a0d54ced9ff3f7.jpg",
    "icongray": "https://steamcdn-a.akamaihd.net/steamcommunity/public/images/apps/704230/c70148acc83e293d2282d8d0c677dbdb754d9fb1.jpg"
  },
  {
    "name": "PCY_LVL17",
    "defaultvalue": 0,
    "displayName": "World's elite",
    "hidden": 0,
    "description": "Reach level 17",
    "icon": "https://steamcdn-a.akamaihd.net/steamcommunity/public/images/apps/704230/5d7e41affc4b75a8175fe6b569a0d54ced9ff3f7.jpg",
    "icongray": "https://steamcdn-a.akamaihd.net/steamcommunity/public/images/apps/704230/c70148acc83e293d2282d8d0c677dbdb754d9fb1.jpg"
  },
  {
    "name": "PCY_WIN_MON",
    "defaultvalue": 0,
    "displayName": "Historic I",
    "hidden": 0,
    "description": "Win a Monument",
    "icon": "https://steamcdn-a.akamaihd.net/steamcommunity/public/images/apps/704230/5d7e41affc4b75a8175fe6b569a0d54ced9ff3f7.jpg",
    "icongray": "https://steamcdn-a.akamaihd.net/steamcommunity/public/images/apps/704230/c70148acc83e293d2282d8d0c677dbdb754d9fb1.jpg"
  },
  {
    "name": "PCY_WIN_GT",
    "defaultvalue": 0,
    "displayName": "Historic II",
    "hidden": 0,
    "description": "Win a Grand Tour",
    "icon": "https://steamcdn-a.akamaihd.net/steamcommunity/public/images/apps/704230/5d7e41affc4b75a8175fe6b569a0d54ced9ff3f7.jpg",
    "icongray": "https://steamcdn-a.akamaihd.net/steamcommunity/public/images/apps/704230/c70148acc83e293d2282d8d0c677dbdb754d9fb1.jpg"
  },
  {
    "name": "PCY_WIN_WORLD",
    "defaultvalue": 0,
    "displayName": "Stripe",
    "hidden": 0,
    "description": "Win the World Championships (Road or TT)",
    "icon": "https://steamcdn-a.akamaihd.net/steamcommunity/public/images/apps/704230/5d7e41affc4b75a8175fe6b569a0d54ced9ff3f7.jpg",
    "icongray": "https://steamcdn-a.akamaihd.net/steamcommunity/public/images/apps/704230/c70148acc83e293d2282d8d0c677dbdb754d9fb1.jpg"
  },
  {
    "name": "PCY_FIRSTGT",
    "defaultvalue": 0,
    "displayName": "A true rider",
    "hidden": 0,
    "description": "Take part in a Grand Tour for the first time",
    "icon": "https://steamcdn-a.akamaihd.net/steamcommunity/public/images/apps/704230/7ee95e7876547206a43e381660711bc400cdb568.jpg",
    "icongray": "https://steamcdn-a.akamaihd.net/steamcommunity/public/images/apps/704230/c70148acc83e293d2282d8d0c677dbdb754d9fb1.jpg"
  },
  {
    "name": "MUL_FIRSTGAME",
    "defaultvalue": 0,
    "displayName": "On-line",
    "hidden": 0,
    "description": "Finish your first multiplayer race",
    "icon": "https://steamcdn-a.akamaihd.net/steamcommunity/public/images/apps/704230/9ea5e628161fa940af4ab062b1a20e4cbe396c94.jpg",
    "icongray": "https://steamcdn-a.akamaihd.net/steamcommunity/public/images/apps/704230/c70148acc83e293d2282d8d0c677dbdb754d9fb1.jpg"
  },
  {
    "name": "MUL_JOINCLAN",
    "defaultvalue": 0,
    "displayName": "Clanisphere",
    "hidden": 0,
    "description": "Join a clan",
    "icon": "https://steamcdn-a.akamaihd.net/steamcommunity/public/images/apps/704230/9ea5e628161fa940af4ab062b1a20e4cbe396c94.jpg",
    "icongray": "https://steamcdn-a.akamaihd.net/steamcommunity/public/images/apps/704230/c70148acc83e293d2282d8d0c677dbdb754d9fb1.jpg"
  },
  {
    "name": "MUL_WINLADDER",
    "defaultvalue": 0,
    "displayName": "Boss",
    "hidden": 0,
    "description": "Win a ranked race",
    "icon": "https://steamcdn-a.akamaihd.net/steamcommunity/public/images/apps/704230/e5a210ef3d4dfc6390d62f8242ea4785df0dd92e.jpg",
    "icongray": "https://steamcdn-a.akamaihd.net/steamcommunity/public/images/apps/704230/c70148acc83e293d2282d8d0c677dbdb754d9fb1.jpg"
  }
]