{
  "Dlcs": {},
  "Name": "Let's Eat! Seaside Cafe",
  "AppId": "444950",
  "ImageUrl": "https://steamcdn-a.akamaihd.net/steam/apps/444950/header.jpg?t=1474867096",
  "Languages": [
    "english"
  ],
  "Platforms": {
    "windows": true,
    "mac": false,
    "linux": false
  }
}