[
  {
    "name": "Careless",
    "defaultvalue": 0,
    "displayName": "Careless",
    "hidden": 0,
    "description": "Fall down one hundred times.",
    "icon": "https://steamcdn-a.akamaihd.net/steamcommunity/public/images/apps/375710/d83b9de275fbe4b5a670296a2fdb91699f89b9ed.jpg",
    "icongray": "https://steamcdn-a.akamaihd.net/steamcommunity/public/images/apps/375710/f54e4e7d9652ac3d1d28e94e48937e36d8404cc5.jpg"
  },
  {
    "name": "Clumsy",
    "defaultvalue": 0,
    "displayName": "Clumsy",
    "hidden": 0,
    "description": "Fall down three hundred times.",
    "icon": "https://steamcdn-a.akamaihd.net/steamcommunity/public/images/apps/375710/f302fd8f7e4152d0ac62423917ce609ee12bcb55.jpg",
    "icongray": "https://steamcdn-a.akamaihd.net/steamcommunity/public/images/apps/375710/d1096fe67a9e0fdd0e54cbecb6ecb0a79306466b.jpg"
  },
  {
    "name": "Indiana Jones",
    "defaultvalue": 0,
    "displayName": "Indiana Jones",
    "hidden": 0,
    "description": "Escape the “boulder“ without getting crushed.",
    "icon": "https://steamcdn-a.akamaihd.net/steamcommunity/public/images/apps/375710/0c1e445ca86900104693219ba60d4050723542d7.jpg",
    "icongray": "https://steamcdn-a.akamaihd.net/steamcommunity/public/images/apps/375710/6e95eb983ab3cc5daf4d3241a672b9b16cb39f47.jpg"
  },
  {
    "name": "Houdini",
    "defaultvalue": 0,
    "displayName": "Houdini",
    "hidden": 0,
    "description": "Solve the maze on first try.",
    "icon": "https://steamcdn-a.akamaihd.net/steamcommunity/public/images/apps/375710/b4774e30935dd0ed82b9d94a182158919d985a55.jpg",
    "icongray": "https://steamcdn-a.akamaihd.net/steamcommunity/public/images/apps/375710/aa97902361242cc1e40a64431b0a37251cf04817.jpg"
  },
  {
    "name": "Maradona",
    "defaultvalue": 0,
    "displayName": "Maradona",
    "hidden": 0,
    "description": "Clean score in the soccer game.",
    "icon": "https://steamcdn-a.akamaihd.net/steamcommunity/public/images/apps/375710/735f288bd030c0faac2261f2a86a4a00167b284a.jpg",
    "icongray": "https://steamcdn-a.akamaihd.net/steamcommunity/public/images/apps/375710/96707ea7ef76e6b4dcbd03a71aa06a16d71e4310.jpg"
  },
  {
    "name": "Cliffhanger",
    "defaultvalue": 0,
    "displayName": "Cliffhanger",
    "hidden": 0,
    "description": "Don't fall down in refinery level.",
    "icon": "https://steamcdn-a.akamaihd.net/steamcommunity/public/images/apps/375710/0e3850d6f63f12a0fdfc5422d623b9744c07f5bc.jpg",
    "icongray": "https://steamcdn-a.akamaihd.net/steamcommunity/public/images/apps/375710/ec7b43e2e8d9171d13c86314a55c7015314a88f7.jpg"
  },
  {
    "name": "Traffic safety",
    "defaultvalue": 0,
    "displayName": "Traffic safety",
    "hidden": 0,
    "description": "Don't get run down by car in the final level.",
    "icon": "https://steamcdn-a.akamaihd.net/steamcommunity/public/images/apps/375710/912a61bd3d2221b4c96e1509b6a96630e63a0c84.jpg",
    "icongray": "https://steamcdn-a.akamaihd.net/steamcommunity/public/images/apps/375710/8006f5cc373942ea4ced74a15c1dbbf344f4218b.jpg"
  },
  {
    "name": "Game completed",
    "defaultvalue": 0,
    "displayName": "Game completed",
    "hidden": 0,
    "description": "Finish the game",
    "icon": "https://steamcdn-a.akamaihd.net/steamcommunity/public/images/apps/375710/3330fecc4ba6228e6b14f345a526082fea24c13a.jpg",
    "icongray": "https://steamcdn-a.akamaihd.net/steamcommunity/public/images/apps/375710/24f430e4485374a40790f19466b18916a8733b17.jpg"
  }
]