﻿[
  {
    "name": "ACHIEVEMENT_DISCOVER_TRAITOR",
    "defaultvalue": 0,
    "displayName": "Just Call Me Detective",
    "hidden": 0,
    "description": "Discover the identity of the traitor",
    "icon": "https://steamcdn-a.akamaihd.net/steamcommunity/public/images/apps/264240/5630ffcf345862d73795c732f8435b887ba1cf5e.jpg",
    "icongray": "https://steamcdn-a.akamaihd.net/steamcommunity/public/images/apps/264240/f0750e649e362d27732562356c8f329889043a89.jpg"
  },
  {
    "name": "ACHIEVEMENT_FAREWELL_LOVELY",
    "defaultvalue": 0,
    "displayName": "It Was A Blonde",
    "hidden": 0,
    "description": "Discover what is Farewell, My Lovely",
    "icon": "https://steamcdn-a.akamaihd.net/steamcommunity/public/images/apps/264240/c7bd77ac80390f00eca7b690e2cf1a8e7db74da5.jpg",
    "icongray": "https://steamcdn-a.akamaihd.net/steamcommunity/public/images/apps/264240/aba8a9e5370130d06cfdeac9a595f301db45372d.jpg"
  },
  {
    "name": "ACHIEVEMENT_INCAP_ALL_F35S",
    "defaultvalue": 0,
    "displayName": "It’s Raining Men!",
    "hidden": 0,
    "description": "Incapacitate all attacking F-35s",
    "icon": "https://steamcdn-a.akamaihd.net/steamcommunity/public/images/apps/264240/a896a0cb5bd17c39d4d452a0217c5796dcc3a50b.jpg",
    "icongray": "https://steamcdn-a.akamaihd.net/steamcommunity/public/images/apps/264240/2f3e3d254f63e7e1ee7d91c237a6d02da1900439.jpg"
  },
  {
    "name": "ACHIEVEMENT_DESTROY_ALL_F35S",
    "defaultvalue": 0,
    "displayName": "In the Pie, Five by Five",
    "hidden": 0,
    "description": "Destroy all attacking F-35s",
    "icon": "https://steamcdn-a.akamaihd.net/steamcommunity/public/images/apps/264240/61d3fdd7ad8abcc376187fb47de6daabf841b0e5.jpg",
    "icongray": "https://steamcdn-a.akamaihd.net/steamcommunity/public/images/apps/264240/051a2fbcb0d5f2f3153b8b29c00e155772e02017.jpg"
  },
  {
    "name": "ACHIEVEMENT_JOHN_WILCONSON",
    "defaultvalue": 0,
    "displayName": "Lost in the Stream",
    "hidden": 0,
    "description": "Address the John Wilconson conundrum",
    "icon": "https://steamcdn-a.akamaihd.net/steamcommunity/public/images/apps/264240/656515aa0b892ad63dd23a3961cb68ed7badfa4e.jpg",
    "icongray": "https://steamcdn-a.akamaihd.net/steamcommunity/public/images/apps/264240/d6312cd9896e13a69a5eb5419c2a10eb765a3d0f.jpg"
  },
  {
    "name": "ACHIEVEMENT_CAPTURE_KIRIL",
    "defaultvalue": 0,
    "displayName": "What’s that Smell?",
    "hidden": 0,
    "description": "Capture Kiril Angelov through subterfuge",
    "icon": "https://steamcdn-a.akamaihd.net/steamcommunity/public/images/apps/264240/e20cb9eab1e36bc84695c7b32457e78b41d4d7c2.jpg",
    "icongray": "https://steamcdn-a.akamaihd.net/steamcommunity/public/images/apps/264240/f9af74f28ba9dc5df98068d67be21e2cf5a18614.jpg"
  },
  {
    "name": "ACHIEVEMENT_KILL_TRAITOR",
    "defaultvalue": 0,
    "displayName": "Revenge, Cold as Ice",
    "hidden": 0,
    "description": "Kill the traitor",
    "icon": "https://steamcdn-a.akamaihd.net/steamcommunity/public/images/apps/264240/ab7d32ccc1835374fff7e61b3dd2dd60aecddf8c.jpg",
    "icongray": "https://steamcdn-a.akamaihd.net/steamcommunity/public/images/apps/264240/05af5b2e0ecbed1987d0fe8293fb6822810cb191.jpg"
  },
  {
    "name": "ACHIEVEMENT_CAPTURE_TRAITOR",
    "defaultvalue": 0,
    "displayName": "Pray Another Day",
    "hidden": 0,
    "description": "Capture the traitor",
    "icon": "https://steamcdn-a.akamaihd.net/steamcommunity/public/images/apps/264240/5ded73d4b04d5b06e0a4ea7c7cd27113a2afc7ed.jpg",
    "icongray": "https://steamcdn-a.akamaihd.net/steamcommunity/public/images/apps/264240/53d0a1ef004b2e827d7dadb1204f300779cfc0d9.jpg"
  },
  {
    "name": "ACHIEVEMENT_TRAITOR_AT_LARGE",
    "defaultvalue": 0,
    "displayName": "He Chose... Poorly\t",
    "hidden": 0,
    "description": "Never discover who the traitor is",
    "icon": "https://steamcdn-a.akamaihd.net/steamcommunity/public/images/apps/264240/64427a464615cd6c7503fb31f37cbaafaf8cba35.jpg",
    "icongray": "https://steamcdn-a.akamaihd.net/steamcommunity/public/images/apps/264240/22283acc0d0755c17d5a06c2f24aa8aa812ce2ae.jpg"
  },
  {
    "name": "ACHIEVEMENT_TRAITOR_SUICIDE",
    "defaultvalue": 0,
    "displayName": "Now You See Me...",
    "hidden": 0,
    "description": "Have the traitor take the easy way out",
    "icon": "https://steamcdn-a.akamaihd.net/steamcommunity/public/images/apps/264240/7606ac6915817ba425dc57d2c05e9b9b6d2090b3.jpg",
    "icongray": "https://steamcdn-a.akamaihd.net/steamcommunity/public/images/apps/264240/17f0e96d6fe74712778a6f05eab22631391a85ee.jpg"
  },
  {
    "name": "ACHIEVEMENT_SAVE_GARY",
    "defaultvalue": 0,
    "displayName": "Bishop 1, Mercs 0",
    "hidden": 1,
    "icon": "https://steamcdn-a.akamaihd.net/steamcommunity/public/images/apps/264240/a55c1621189bd6b7d1a85f16d31c5e0aeae69d50.jpg",
    "icongray": "https://steamcdn-a.akamaihd.net/steamcommunity/public/images/apps/264240/95466eb3102d3d44eced7266bac70b7dd913107e.jpg"
  },
  {
    "name": "ACHIEVEMENT_EXPOSE_SELF",
    "defaultvalue": 0,
    "displayName": "Who, Me?",
    "hidden": 0,
    "description": "Allow proof of your origin to be discovered",
    "icon": "https://steamcdn-a.akamaihd.net/steamcommunity/public/images/apps/264240/ca7f7229d743b5f67144e5ba81e69fa7eb81db4b.jpg",
    "icongray": "https://steamcdn-a.akamaihd.net/steamcommunity/public/images/apps/264240/8f78098641fe10474f7da6b790a58cb17cb2d176.jpg"
  },
  {
    "name": "ACHIEVEMENT_BISHOP_RELEASED",
    "defaultvalue": 0,
    "displayName": "I’ll Join Your Enemies!",
    "hidden": 0,
    "description": "Get released from the Consortium",
    "icon": "https://steamcdn-a.akamaihd.net/steamcommunity/public/images/apps/264240/a46e083cb654dc2c1e441e371366b76ce62396f3.jpg",
    "icongray": "https://steamcdn-a.akamaihd.net/steamcommunity/public/images/apps/264240/66aae5b30003bf2fb49da5b3c66c93a1310198a3.jpg"
  },
  {
    "name": "ACHIEVEMENT_PAWN64_DEAD",
    "defaultvalue": 0,
    "displayName": "Whistle Blower Down",
    "hidden": 1,
    "icon": "https://steamcdn-a.akamaihd.net/steamcommunity/public/images/apps/264240/504889723d603f1027b24daf4e446105fe3b9cdb.jpg",
    "icongray": "https://steamcdn-a.akamaihd.net/steamcommunity/public/images/apps/264240/9276fa9281940ae6bc12082375c7d178ddfab865.jpg"
  },
  {
    "name": "ACHIEVEMENT_PAWN64_ALIVE",
    "defaultvalue": 0,
    "displayName": "Longer Than Others!",
    "hidden": 1,
    "icon": "https://steamcdn-a.akamaihd.net/steamcommunity/public/images/apps/264240/3166ef2e6a90820175316c8e3c18d5592d45ebac.jpg",
    "icongray": "https://steamcdn-a.akamaihd.net/steamcommunity/public/images/apps/264240/b067fc73692c3deeb3d9e500b51925941cf21673.jpg"
  },
  {
    "name": "ACHIEVEMENT_SAVE_WADE",
    "defaultvalue": 0,
    "displayName": "Hit the Turps",
    "hidden": 1,
    "icon": "https://steamcdn-a.akamaihd.net/steamcommunity/public/images/apps/264240/9cbb85a77985086763493076bfa7f3968e1e8395.jpg",
    "icongray": "https://steamcdn-a.akamaihd.net/steamcommunity/public/images/apps/264240/23138c6e8534c5ba27d099d2d53d314fa400acc1.jpg"
  },
  {
    "name": "ACHIEVEMENT_DONT_SAVE_WADE",
    "defaultvalue": 0,
    "displayName": "Drink with the Flies",
    "hidden": 1,
    "icon": "https://steamcdn-a.akamaihd.net/steamcommunity/public/images/apps/264240/37cf5646bae58d01bc7d6deae1af9268c4b8cc0f.jpg",
    "icongray": "https://steamcdn-a.akamaihd.net/steamcommunity/public/images/apps/264240/640d132d1747c555cae38d279a4fd72cf6a73151.jpg"
  },
  {
    "name": "ACHIEVEMENT_PAWN4_JAILED",
    "defaultvalue": 0,
    "displayName": "Fine. Screw You Guys!",
    "hidden": 0,
    "description": "Have Pawn 4 end up in the Brig",
    "icon": "https://steamcdn-a.akamaihd.net/steamcommunity/public/images/apps/264240/eb349d8b0af9efeea9a19aedcf62373a5b3884fb.jpg",
    "icongray": "https://steamcdn-a.akamaihd.net/steamcommunity/public/images/apps/264240/25eb816ccf5ce66a58feb070168fae052c685188.jpg"
  },
  {
    "name": "ACHIEVEMENT_STEVE_WAKE",
    "defaultvalue": 0,
    "displayName": "Farewell, Steve",
    "hidden": 1,
    "icon": "https://steamcdn-a.akamaihd.net/steamcommunity/public/images/apps/264240/f4fe58a3185073bd0c02ee1f20b24bffd249b3bd.jpg",
    "icongray": "https://steamcdn-a.akamaihd.net/steamcommunity/public/images/apps/264240/b21bcd8271b026258630928c6ee0e77d350fcb45.jpg"
  },
  {
    "name": "ACHIEVEMENT_LUCA_WAKE",
    "defaultvalue": 0,
    "displayName": "Farewell, Luca",
    "hidden": 1,
    "icon": "https://steamcdn-a.akamaihd.net/steamcommunity/public/images/apps/264240/f4fe58a3185073bd0c02ee1f20b24bffd249b3bd.jpg",
    "icongray": "https://steamcdn-a.akamaihd.net/steamcommunity/public/images/apps/264240/b21bcd8271b026258630928c6ee0e77d350fcb45.jpg"
  },
  {
    "name": "ACHIEVEMENT_CARLA_WAKE",
    "defaultvalue": 0,
    "displayName": "Farewell, Carla",
    "hidden": 1,
    "icon": "https://steamcdn-a.akamaihd.net/steamcommunity/public/images/apps/264240/f4fe58a3185073bd0c02ee1f20b24bffd249b3bd.jpg",
    "icongray": "https://steamcdn-a.akamaihd.net/steamcommunity/public/images/apps/264240/b21bcd8271b026258630928c6ee0e77d350fcb45.jpg"
  },
  {
    "name": "ACHIEVEMENT_FLYING_LESSONS",
    "defaultvalue": 0,
    "displayName": "Cannonball!",
    "hidden": 0,
    "description": "Throw yourself off Zenlil",
    "icon": "https://steamcdn-a.akamaihd.net/steamcommunity/public/images/apps/264240/1575290d55f941c9c7c17d7deb3d535e7a274aea.jpg",
    "icongray": "https://steamcdn-a.akamaihd.net/steamcommunity/public/images/apps/264240/4d080afdd0123452afcff36c86d2d1b558c04d51.jpg"
  },
  {
    "name": "ACHIEVEMENT_STOWAWAY_FOUND",
    "defaultvalue": 0,
    "displayName": "Ubezhishte!",
    "hidden": 0,
    "description": "Discover a stowaway",
    "icon": "https://steamcdn-a.akamaihd.net/steamcommunity/public/images/apps/264240/6fe13fc8376de0e3cafcfb1e0930429685bb4eb4.jpg",
    "icongray": "https://steamcdn-a.akamaihd.net/steamcommunity/public/images/apps/264240/7005d909904df8e1ce03c913ae86a6ff32863e13.jpg"
  },
  {
    "name": "ACHIEVEMENT_FALL_ASLEEP",
    "defaultvalue": 0,
    "displayName": "Nighty Night, Bishop",
    "hidden": 0,
    "description": "Fall asleep again",
    "icon": "https://steamcdn-a.akamaihd.net/steamcommunity/public/images/apps/264240/fe0fbc9d17a578c949ffd1200f5325708981d7c3.jpg",
    "icongray": "https://steamcdn-a.akamaihd.net/steamcommunity/public/images/apps/264240/91aede6f7b49f334fbec6e8cc25d5b4e17ad2cc1.jpg"
  },
  {
    "name": "ACHIEVEMENT_ANGELOVS_EMPLOYER",
    "defaultvalue": 0,
    "displayName": "Enemy in Orbit",
    "hidden": 0,
    "description": "Discover who hired Angelov",
    "icon": "https://steamcdn-a.akamaihd.net/steamcommunity/public/images/apps/264240/f3a450386ea858ce7b9acf99a362019c283cdb6e.jpg",
    "icongray": "https://steamcdn-a.akamaihd.net/steamcommunity/public/images/apps/264240/af8ea24b029e365cf2e6b5a79a3d6fa29b0aa2be.jpg"
  },
  {
    "name": "ACHIEVEMENT_BISHOP_DISCOVERED",
    "defaultvalue": 0,
    "displayName": "Controlling Dolus",
    "hidden": 0,
    "description": "Discover the truth about Bishop Six before you joined with him",
    "icon": "https://steamcdn-a.akamaihd.net/steamcommunity/public/images/apps/264240/1aeeb8f5a7b4964230cdb916cd95cc79a424c4af.jpg",
    "icongray": "https://steamcdn-a.akamaihd.net/steamcommunity/public/images/apps/264240/6e5c4e6d708fb9d256a4dc0d14fea77d747e7086.jpg"
  },
  {
    "name": "ACHIEVEMENT_SOULE_MUSIC",
    "defaultvalue": 0,
    "displayName": "Soule Music",
    "hidden": 0,
    "description": "Is that Jeremy Soule they’re hearing?",
    "icon": "https://steamcdn-a.akamaihd.net/steamcommunity/public/images/apps/264240/c4b5b71a19028114b28ce02872acc19873f50d0d.jpg",
    "icongray": "https://steamcdn-a.akamaihd.net/steamcommunity/public/images/apps/264240/d3577eb55cf1ae0d8dec0a9f1f24df6a6f878e1b.jpg"
  },
  {
    "name": "ACHIEVEMENT_TELL_KIRIL_ABOUT_SELF",
    "defaultvalue": 0,
    "displayName": "Enemy Mine",
    "hidden": 0,
    "description": "Tell Kiril Angelov who you really are",
    "icon": "https://steamcdn-a.akamaihd.net/steamcommunity/public/images/apps/264240/b1605d10de42244e176ea1942ca5e2703b35395f.jpg",
    "icongray": "https://steamcdn-a.akamaihd.net/steamcommunity/public/images/apps/264240/b4cfae14d124a3f8546aadfeb6471319acc0bd92.jpg"
  },
  {
    "name": "ACHIEVEMENT_AIRLOCK_FUN",
    "defaultvalue": 0,
    "displayName": "Airlock Fun",
    "hidden": 0,
    "description": "Discover who is William Taylor?",
    "icon": "https://steamcdn-a.akamaihd.net/steamcommunity/public/images/apps/264240/40c4b0a2dc6732e918cf13ef88a47f017a34b3a9.jpg",
    "icongray": "https://steamcdn-a.akamaihd.net/steamcommunity/public/images/apps/264240/25270146626161b5fadd027011c743a2e16c34cc.jpg"
  },
  {
    "name": "ACHIEVEMENT_KILL_KIRIL",
    "defaultvalue": 0,
    "displayName": "Kill Me, Will You?!",
    "hidden": 0,
    "description": "Kill Kiril Angelov",
    "icon": "https://steamcdn-a.akamaihd.net/steamcommunity/public/images/apps/264240/1a208aecf01819547ad1385bd56e3baf5c070e44.jpg",
    "icongray": "https://steamcdn-a.akamaihd.net/steamcommunity/public/images/apps/264240/05af5b2e0ecbed1987d0fe8293fb6822810cb191.jpg"
  },
  {
    "name": "ACHIEVEMENT_CAPTURE_KIRIL_COMBAT",
    "defaultvalue": 0,
    "displayName": "Mercy for the Merciless",
    "hidden": 0,
    "description": "Capture Kiril Angelov through combat",
    "icon": "https://steamcdn-a.akamaihd.net/steamcommunity/public/images/apps/264240/5f93e84fdbc3ca5ffaccf5f4f2ed5cd6bad88a04.jpg",
    "icongray": "https://steamcdn-a.akamaihd.net/steamcommunity/public/images/apps/264240/1b34b90341ed92fa6f97bf13a2b45bfe7a5095ff.jpg"
  },
  {
    "name": "ACHIEVEMENT_END_ALL_NEGATIVE_ALIGNMENT",
    "defaultvalue": 0,
    "displayName": "Mister UnCongeniality",
    "hidden": 0,
    "description": "End the experience with negative alignment from every person you meet",
    "icon": "https://steamcdn-a.akamaihd.net/steamcommunity/public/images/apps/264240/9bfd537c47c902a56edfe5b5c6dc77d161c406a0.jpg",
    "icongray": "https://steamcdn-a.akamaihd.net/steamcommunity/public/images/apps/264240/e12c1b281cf7f74ee6af7fa00f1b24fbcb8e77ff.jpg"
  },
  {
    "name": "ACHIEVEMENT_END_ALL_POSITIVE_ALIGNMENT",
    "defaultvalue": 0,
    "displayName": "Everyone’s a Fan!",
    "hidden": 0,
    "description": "End the experience with positive alignment from every person you meet",
    "icon": "https://steamcdn-a.akamaihd.net/steamcommunity/public/images/apps/264240/32d438feeab799c97e50904d0c6bb0fe889845fc.jpg",
    "icongray": "https://steamcdn-a.akamaihd.net/steamcommunity/public/images/apps/264240/3473cf13b7f35f18e1538a5eb94292c3bfd0787a.jpg"
  },
  {
    "name": "ACHIEVEMENT_21_CIVDEF",
    "defaultvalue": 0,
    "displayName": "Wirehead",
    "hidden": 0,
    "description": "Completed 21 levels of the Civilian Defence Scenario",
    "icon": "https://steamcdn-a.akamaihd.net/steamcommunity/public/images/apps/264240/2d1283e1a011e7ef49a63df584d30b726b225b5e.jpg",
    "icongray": "https://steamcdn-a.akamaihd.net/steamcommunity/public/images/apps/264240/4b954caedc2f110d1e3dc4e4dcef8ed1dcfefae1.jpg"
  },
  {
    "name": "ACHIEVEMENT_21_CIVDEF_ALIVE_CIVS",
    "defaultvalue": 0,
    "displayName": "You’re So Strong!",
    "hidden": 0,
    "description": "Completed 21 levels of the Civilian Defence Scenario and kept all V.T. Civilians alive",
    "icon": "https://steamcdn-a.akamaihd.net/steamcommunity/public/images/apps/264240/943f4f25c8f6ef2da3c5e1891950a2c76b6468db.jpg",
    "icongray": "https://steamcdn-a.akamaihd.net/steamcommunity/public/images/apps/264240/6bc1159a9755595ef22472d0b134c9e80e1c9ae3.jpg"
  },
  {
    "name": "ACHIEVEMENT_21_CIVDEF_DEAD_CIVS",
    "defaultvalue": 0,
    "displayName": "But They KEPT TALKING!",
    "hidden": 0,
    "description": "Completed 21 levels of the Civilian Defence Scenario and let all V.T. Civilians die",
    "icon": "https://steamcdn-a.akamaihd.net/steamcommunity/public/images/apps/264240/63d4444e01c69afbf3ece1ef17439944a799ceac.jpg",
    "icongray": "https://steamcdn-a.akamaihd.net/steamcommunity/public/images/apps/264240/b3425a4c19763fc2c68c0ab08d2673cb0897a86a.jpg"
  },
  {
    "name": "ACHIEVEMENT_INCAP_ALL_HOMELESS",
    "defaultvalue": 0,
    "displayName": "Homeless, But Alive",
    "hidden": 0,
    "description": "Incapacitate all attacking Homeless Mercenaries in combat, not including F-35s",
    "icon": "https://steamcdn-a.akamaihd.net/steamcommunity/public/images/apps/264240/19939d0cf42a3e926ee515bf43819d603f4503cb.jpg",
    "icongray": "https://steamcdn-a.akamaihd.net/steamcommunity/public/images/apps/264240/38543eb463b50f1d2816a45c40886f1b46cd7441.jpg"
  },
  {
    "name": "ACHIEVEMENT_KILL_ALL_HOMELESS",
    "defaultvalue": 0,
    "displayName": "Anti-Bishop",
    "hidden": 0,
    "description": "Kill all attacking Homeless Mercenaries in combat, not including F35s",
    "icon": "https://steamcdn-a.akamaihd.net/steamcommunity/public/images/apps/264240/811c3b2798140bfdbb968ad5eb114b3520c5a7f5.jpg",
    "icongray": "https://steamcdn-a.akamaihd.net/steamcommunity/public/images/apps/264240/9ab1e1fbd4267f26a9d6f5348e7f64353689f56a.jpg"
  },
  {
    "name": "ACHIEVEMENT_END_ALL_ZERO_ALIGNMENT",
    "defaultvalue": 0,
    "displayName": "True Neutral",
    "hidden": 0,
    "description": "End the experience with neutral alignment from every person you meet",
    "icon": "https://steamcdn-a.akamaihd.net/steamcommunity/public/images/apps/264240/a037d8dbbf806c21f74dbbf1b71247064991a52b.jpg",
    "icongray": "https://steamcdn-a.akamaihd.net/steamcommunity/public/images/apps/264240/b5c067aa96d2c033ecaff784f902252fc58fe2e7.jpg"
  }
]