[
  {
    "name": "partyking",
    "defaultvalue": 0,
    "displayName": "Party King",
    "hidden": 0,
    "description": "Purchase Re-Shot drone. (+ 25k coins)",
    "icon": "https://steamcdn-a.akamaihd.net/steamcommunity/public/images/apps/1085150/3449af08cfcf64e8334553257518b174c537e8e1.jpg",
    "icongray": "https://steamcdn-a.akamaihd.net/steamcommunity/public/images/apps/1085150/0c5827c07b9379c5867cac5e9bbe1897cd346eca.jpg"
  },
  {
    "name": "battleroyale",
    "defaultvalue": 0,
    "displayName": "Battle Royale",
    "hidden": 0,
    "description": "Complete the arena match using Re-Shot against other Re-Shots. (+ 15k coins)",
    "icon": "https://steamcdn-a.akamaihd.net/steamcommunity/public/images/apps/1085150/3449af08cfcf64e8334553257518b174c537e8e1.jpg",
    "icongray": "https://steamcdn-a.akamaihd.net/steamcommunity/public/images/apps/1085150/0c5827c07b9379c5867cac5e9bbe1897cd346eca.jpg"
  },
  {
    "name": "recruit",
    "defaultvalue": 0,
    "displayName": "Arena: Recruit",
    "hidden": 0,
    "description": "Complete ten Arena matches. (+ 25k coins)",
    "icon": "https://steamcdn-a.akamaihd.net/steamcommunity/public/images/apps/1085150/3449af08cfcf64e8334553257518b174c537e8e1.jpg",
    "icongray": "https://steamcdn-a.akamaihd.net/steamcommunity/public/images/apps/1085150/0c5827c07b9379c5867cac5e9bbe1897cd346eca.jpg"
  },
  {
    "name": "warrior",
    "defaultvalue": 0,
    "displayName": "Arena: Warrior",
    "hidden": 0,
    "description": "Complete 15 Arena matches at first place. (+ 35k coins)",
    "icon": "https://steamcdn-a.akamaihd.net/steamcommunity/public/images/apps/1085150/3449af08cfcf64e8334553257518b174c537e8e1.jpg",
    "icongray": "https://steamcdn-a.akamaihd.net/steamcommunity/public/images/apps/1085150/0c5827c07b9379c5867cac5e9bbe1897cd346eca.jpg"
  },
  {
    "name": "winstreak",
    "defaultvalue": 0,
    "displayName": "Arena: Leader",
    "hidden": 0,
    "description": "Win 5 times in a row in the Arena. (+ 35k coins)",
    "icon": "https://steamcdn-a.akamaihd.net/steamcommunity/public/images/apps/1085150/3449af08cfcf64e8334553257518b174c537e8e1.jpg",
    "icongray": "https://steamcdn-a.akamaihd.net/steamcommunity/public/images/apps/1085150/0c5827c07b9379c5867cac5e9bbe1897cd346eca.jpg"
  },
  {
    "name": "emperor",
    "defaultvalue": 0,
    "displayName": "Arena: The emperor",
    "hidden": 0,
    "description": "Earn a total of 250,000 coins from betting when playing in the Arena. (+ 40k coins)",
    "icon": "https://steamcdn-a.akamaihd.net/steamcommunity/public/images/apps/1085150/3449af08cfcf64e8334553257518b174c537e8e1.jpg",
    "icongray": "https://steamcdn-a.akamaihd.net/steamcommunity/public/images/apps/1085150/0c5827c07b9379c5867cac5e9bbe1897cd346eca.jpg"
  },
  {
    "name": "favourite",
    "defaultvalue": 0,
    "displayName": "Favourite",
    "hidden": 0,
    "description": "Get all the colors for any drone except for the Chameleon. (+ 10k coins)",
    "icon": "https://steamcdn-a.akamaihd.net/steamcommunity/public/images/apps/1085150/3449af08cfcf64e8334553257518b174c537e8e1.jpg",
    "icongray": "https://steamcdn-a.akamaihd.net/steamcommunity/public/images/apps/1085150/0c5827c07b9379c5867cac5e9bbe1897cd346eca.jpg"
  },
  {
    "name": "collector",
    "defaultvalue": 0,
    "displayName": "Collector",
    "hidden": 0,
    "description": "Purchase at least 30 colors for drones. (+ 35k coins)",
    "icon": "https://steamcdn-a.akamaihd.net/steamcommunity/public/images/apps/1085150/3449af08cfcf64e8334553257518b174c537e8e1.jpg",
    "icongray": "https://steamcdn-a.akamaihd.net/steamcommunity/public/images/apps/1085150/0c5827c07b9379c5867cac5e9bbe1897cd346eca.jpg"
  },
  {
    "name": "sniperLvl3",
    "defaultvalue": 0,
    "displayName": "Sniper: Level 3",
    "hidden": 0,
    "description": "Pass level 3 with less than 2 shots. (+ 25k coins)",
    "icon": "https://steamcdn-a.akamaihd.net/steamcommunity/public/images/apps/1085150/3449af08cfcf64e8334553257518b174c537e8e1.jpg",
    "icongray": "https://steamcdn-a.akamaihd.net/steamcommunity/public/images/apps/1085150/0c5827c07b9379c5867cac5e9bbe1897cd346eca.jpg"
  },
  {
    "name": "sniperLvl10",
    "defaultvalue": 0,
    "displayName": "Sniper: Level 10",
    "hidden": 0,
    "description": "Pass level 10 with less than 30 shots. (+30k coins)",
    "icon": "https://steamcdn-a.akamaihd.net/steamcommunity/public/images/apps/1085150/3449af08cfcf64e8334553257518b174c537e8e1.jpg",
    "icongray": "https://steamcdn-a.akamaihd.net/steamcommunity/public/images/apps/1085150/0c5827c07b9379c5867cac5e9bbe1897cd346eca.jpg"
  },
  {
    "name": "sniperLvl19",
    "defaultvalue": 0,
    "displayName": "Sniper: Level 19",
    "hidden": 0,
    "description": "Pass level 19 with less than 40 shots. (+35k coins)",
    "icon": "https://steamcdn-a.akamaihd.net/steamcommunity/public/images/apps/1085150/3449af08cfcf64e8334553257518b174c537e8e1.jpg",
    "icongray": "https://steamcdn-a.akamaihd.net/steamcommunity/public/images/apps/1085150/0c5827c07b9379c5867cac5e9bbe1897cd346eca.jpg"
  },
  {
    "name": "sniperLvl23",
    "defaultvalue": 0,
    "displayName": "Sniper: Level 23",
    "hidden": 0,
    "description": "Pass level 23 with less than 42 shots. (+40k coins)",
    "icon": "https://steamcdn-a.akamaihd.net/steamcommunity/public/images/apps/1085150/3449af08cfcf64e8334553257518b174c537e8e1.jpg",
    "icongray": "https://steamcdn-a.akamaihd.net/steamcommunity/public/images/apps/1085150/0c5827c07b9379c5867cac5e9bbe1897cd346eca.jpg"
  },
  {
    "name": "racerLvl8",
    "defaultvalue": 0,
    "displayName": "Racer: Level 8",
    "hidden": 0,
    "description": "Complete level 8 in less than 1 minute 45 seconds. (+ 25k coins)",
    "icon": "https://steamcdn-a.akamaihd.net/steamcommunity/public/images/apps/1085150/3449af08cfcf64e8334553257518b174c537e8e1.jpg",
    "icongray": "https://steamcdn-a.akamaihd.net/steamcommunity/public/images/apps/1085150/0c5827c07b9379c5867cac5e9bbe1897cd346eca.jpg"
  },
  {
    "name": "racerLvl13",
    "defaultvalue": 0,
    "displayName": "Racer: Level 13",
    "hidden": 0,
    "description": "Complete level 13 in less than 3 minute 20 seconds. (+ 30k coins)",
    "icon": "https://steamcdn-a.akamaihd.net/steamcommunity/public/images/apps/1085150/3449af08cfcf64e8334553257518b174c537e8e1.jpg",
    "icongray": "https://steamcdn-a.akamaihd.net/steamcommunity/public/images/apps/1085150/0c5827c07b9379c5867cac5e9bbe1897cd346eca.jpg"
  },
  {
    "name": "racerLvl18",
    "defaultvalue": 0,
    "displayName": "Racer: Level 18",
    "hidden": 0,
    "description": "Complete level 18 in less than 3 minute 45 seconds. (+ 35k coins)",
    "icon": "https://steamcdn-a.akamaihd.net/steamcommunity/public/images/apps/1085150/3449af08cfcf64e8334553257518b174c537e8e1.jpg",
    "icongray": "https://steamcdn-a.akamaihd.net/steamcommunity/public/images/apps/1085150/0c5827c07b9379c5867cac5e9bbe1897cd346eca.jpg"
  },
  {
    "name": "racerLvl22",
    "defaultvalue": 0,
    "displayName": "Racer: Level 22",
    "hidden": 0,
    "description": "Complete level 22 in less than 2 minute 20 seconds. (+ 40k coins)",
    "icon": "https://steamcdn-a.akamaihd.net/steamcommunity/public/images/apps/1085150/3449af08cfcf64e8334553257518b174c537e8e1.jpg",
    "icongray": "https://steamcdn-a.akamaihd.net/steamcommunity/public/images/apps/1085150/0c5827c07b9379c5867cac5e9bbe1897cd346eca.jpg"
  },
  {
    "name": "immortalLvl7",
    "defaultvalue": 0,
    "displayName": "Immortal: Level 7",
    "hidden": 0,
    "description": "Complete level 7 without falling outside the track. (+ 25k coins)",
    "icon": "https://steamcdn-a.akamaihd.net/steamcommunity/public/images/apps/1085150/3449af08cfcf64e8334553257518b174c537e8e1.jpg",
    "icongray": "https://steamcdn-a.akamaihd.net/steamcommunity/public/images/apps/1085150/0c5827c07b9379c5867cac5e9bbe1897cd346eca.jpg"
  },
  {
    "name": "immortalLvl12",
    "defaultvalue": 0,
    "displayName": "Immortal: Level 12",
    "hidden": 0,
    "description": "Complete level 12 without falling outside the track. (+ 30k coins)",
    "icon": "https://steamcdn-a.akamaihd.net/steamcommunity/public/images/apps/1085150/3449af08cfcf64e8334553257518b174c537e8e1.jpg",
    "icongray": "https://steamcdn-a.akamaihd.net/steamcommunity/public/images/apps/1085150/0c5827c07b9379c5867cac5e9bbe1897cd346eca.jpg"
  },
  {
    "name": "immortalLvl14",
    "defaultvalue": 0,
    "displayName": "Immortal: Level 14",
    "hidden": 0,
    "description": "Complete level 14 without falling outside the track. (+ 35k coins)",
    "icon": "https://steamcdn-a.akamaihd.net/steamcommunity/public/images/apps/1085150/3449af08cfcf64e8334553257518b174c537e8e1.jpg",
    "icongray": "https://steamcdn-a.akamaihd.net/steamcommunity/public/images/apps/1085150/0c5827c07b9379c5867cac5e9bbe1897cd346eca.jpg"
  },
  {
    "name": "immortalLvl16",
    "defaultvalue": 0,
    "displayName": "Immortal: Level 16",
    "hidden": 0,
    "description": "Complete level 16 without ever falling off the track. (+ 40k coins)",
    "icon": "https://steamcdn-a.akamaihd.net/steamcommunity/public/images/apps/1085150/3449af08cfcf64e8334553257518b174c537e8e1.jpg",
    "icongray": "https://steamcdn-a.akamaihd.net/steamcommunity/public/images/apps/1085150/0c5827c07b9379c5867cac5e9bbe1897cd346eca.jpg"
  },
  {
    "name": "compleat",
    "defaultvalue": 0,
    "displayName": "Training Completed",
    "hidden": 0,
    "description": "Complete all levels. (+ 50k coins and endless shots)",
    "icon": "https://steamcdn-a.akamaihd.net/steamcommunity/public/images/apps/1085150/3449af08cfcf64e8334553257518b174c537e8e1.jpg",
    "icongray": "https://steamcdn-a.akamaihd.net/steamcommunity/public/images/apps/1085150/0c5827c07b9379c5867cac5e9bbe1897cd346eca.jpg"
  },
  {
    "name": "dollars",
    "defaultvalue": 0,
    "displayName": "Mr. Dollar",
    "hidden": 0,
    "description": "Collect 1 million coins. (+ 35k coins)",
    "icon": "https://steamcdn-a.akamaihd.net/steamcommunity/public/images/apps/1085150/3449af08cfcf64e8334553257518b174c537e8e1.jpg",
    "icongray": "https://steamcdn-a.akamaihd.net/steamcommunity/public/images/apps/1085150/0c5827c07b9379c5867cac5e9bbe1897cd346eca.jpg"
  },
  {
    "name": "genious",
    "defaultvalue": 0,
    "displayName": "Genious!",
    "hidden": 0,
    "description": "Get to the finish hole bypassing the control holes. (+ 50k coins)",
    "icon": "https://steamcdn-a.akamaihd.net/steamcommunity/public/images/apps/1085150/3449af08cfcf64e8334553257518b174c537e8e1.jpg",
    "icongray": "https://steamcdn-a.akamaihd.net/steamcommunity/public/images/apps/1085150/0c5827c07b9379c5867cac5e9bbe1897cd346eca.jpg"
  },
  {
    "name": "dodge",
    "defaultvalue": 0,
    "displayName": "Unexplained dodge",
    "hidden": 0,
    "description": "Complete level 20 without being hit by a laser. (+ 50k coins)",
    "icon": "https://steamcdn-a.akamaihd.net/steamcommunity/public/images/apps/1085150/3449af08cfcf64e8334553257518b174c537e8e1.jpg",
    "icongray": "https://steamcdn-a.akamaihd.net/steamcommunity/public/images/apps/1085150/0c5827c07b9379c5867cac5e9bbe1897cd346eca.jpg"
  },
  {
    "name": "ouch",
    "defaultvalue": 0,
    "displayName": "Golf Ouch!",
    "hidden": 0,
    "description": "Fly out of the track 1 thousand times. (+ 20k coins)",
    "icon": "https://steamcdn-a.akamaihd.net/steamcommunity/public/images/apps/1085150/3449af08cfcf64e8334553257518b174c537e8e1.jpg",
    "icongray": "https://steamcdn-a.akamaihd.net/steamcommunity/public/images/apps/1085150/0c5827c07b9379c5867cac5e9bbe1897cd346eca.jpg"
  },
  {
    "name": "original",
    "defaultvalue": 0,
    "displayName": "Original!",
    "hidden": 0,
    "description": "Get into the control hole, the path to which is closed by the gate. (+ 35k coins)",
    "icon": "https://steamcdn-a.akamaihd.net/steamcommunity/public/images/apps/1085150/3449af08cfcf64e8334553257518b174c537e8e1.jpg",
    "icongray": "https://steamcdn-a.akamaihd.net/steamcommunity/public/images/apps/1085150/0c5827c07b9379c5867cac5e9bbe1897cd346eca.jpg"
  },
  {
    "name": "ofigenious",
    "defaultvalue": 0,
    "displayName": "Fantastic!",
    "hidden": 0,
    "description": "Complete level 26 in less than 3 minutes. (+ 100k coins)",
    "icon": "https://steamcdn-a.akamaihd.net/steamcommunity/public/images/apps/1085150/3449af08cfcf64e8334553257518b174c537e8e1.jpg",
    "icongray": "https://steamcdn-a.akamaihd.net/steamcommunity/public/images/apps/1085150/0c5827c07b9379c5867cac5e9bbe1897cd346eca.jpg"
  }
]