{
  "Dlcs": {
    "704730": {
      "Name": "Neofeud - Soundtrack",
      "ImageUrl": "https://steamcdn-a.akamaihd.net/steam/apps/704730/header.jpg?t=1506374934"
    }
  },
  "Name": "Neofeud",
  "AppId": "673850",
  "ImageUrl": "https://steamcdn-a.akamaihd.net/steam/apps/673850/header.jpg?t=1573117542",
  "Languages": [
    "english"
  ],
  "Platforms": {
    "windows": true,
    "mac": false,
    "linux": false
  }
}