{
  "Dlcs": {},
  "Name": "Shogo: Mobile Armor Division",
  "AppId": "610860",
  "ImageUrl": "https://steamcdn-a.akamaihd.net/steam/apps/610860/header.jpg?t=1575943357",
  "Languages": [
    "english"
  ],
  "Platforms": {
    "windows": true,
    "mac": false,
    "linux": false
  }
}