[
  {
    "name": "ACH_Complete_Tut_LVL",
    "defaultvalue": 0,
    "displayName": "It Begins",
    "hidden": 0,
    "description": "Complete the Tutorial",
    "icon": "https://steamcdn-a.akamaihd.net/steamcommunity/public/images/apps/434960/c3715ed2f30fbd76ca42cd9e7f0f0d97be092841.jpg",
    "icongray": "https://steamcdn-a.akamaihd.net/steamcommunity/public/images/apps/434960/37ad52ebaf5a8c1ad17c8d9769aed33a135672dd.jpg"
  },
  {
    "name": "ACH_skip_a_lvl",
    "defaultvalue": 0,
    "displayName": "I'll come back later",
    "hidden": 0,
    "description": "Skip a Level",
    "icon": "https://steamcdn-a.akamaihd.net/steamcommunity/public/images/apps/434960/ff814ed959ce2e6f99e106af4c8cfd3f75d21c26.jpg",
    "icongray": "https://steamcdn-a.akamaihd.net/steamcommunity/public/images/apps/434960/6b4d8b489834b92b08bcdf387fe301209e96d204.jpg"
  },
  {
    "name": "ACH_Complete_LVL_5",
    "defaultvalue": 0,
    "displayName": "Which way do i go",
    "hidden": 0,
    "description": "Left Right or Middle",
    "icon": "https://steamcdn-a.akamaihd.net/steamcommunity/public/images/apps/434960/8ae43b7b56000800d89ae1f0afbe72cad6a43647.jpg",
    "icongray": "https://steamcdn-a.akamaihd.net/steamcommunity/public/images/apps/434960/5cc4d27e4209f9134f403f831e46c18b285f5768.jpg"
  },
  {
    "name": "Ach_halfway_There",
    "defaultvalue": 0,
    "displayName": "Halfway There",
    "hidden": 0,
    "description": "Complete Level 20",
    "icon": "https://steamcdn-a.akamaihd.net/steamcommunity/public/images/apps/434960/fbc0d38dde65e459cbd75bec00ea79ca926d857e.jpg",
    "icongray": "https://steamcdn-a.akamaihd.net/steamcommunity/public/images/apps/434960/da74a977fd65ed1fec6e0acbd6b95beb6ffa827c.jpg"
  },
  {
    "name": "Ach_No_Death",
    "defaultvalue": 0,
    "displayName": "No Death Run",
    "hidden": 0,
    "description": "Complete a level without falling off",
    "icon": "https://steamcdn-a.akamaihd.net/steamcommunity/public/images/apps/434960/373cb1e538d93376909ca0fd70a77c356e278491.jpg",
    "icongray": "https://steamcdn-a.akamaihd.net/steamcommunity/public/images/apps/434960/1dcbb06eaba35100085efa41e99404868dda4bde.jpg"
  },
  {
    "name": "Ach_Complete_LvL_40",
    "defaultvalue": 0,
    "displayName": "The Last One",
    "hidden": 0,
    "description": "Complete Level 40",
    "icon": "https://steamcdn-a.akamaihd.net/steamcommunity/public/images/apps/434960/cf02f0735926e273f8767851d2b1edf294901d22.jpg",
    "icongray": "https://steamcdn-a.akamaihd.net/steamcommunity/public/images/apps/434960/ecb2be0fceebc77f897609357393171616d3f99e.jpg"
  }
]