[
  {
    "name": "EPISODE_1_START",
    "defaultvalue": 0,
    "displayName": "Welcome to Watson's Watch",
    "hidden": 0,
    "description": "Start Episode One",
    "icon": "https://steamcdn-a.akamaihd.net/steamcommunity/public/images/apps/445550/0c7591db3482fc7c190fc0c5d4531de2ff932d76.jpg",
    "icongray": "https://steamcdn-a.akamaihd.net/steamcommunity/public/images/apps/445550/3f73c9d0bc6acd3b734aff46c2ef5b00c988e98a.jpg"
  },
  {
    "name": "EPISODE_1_END",
    "defaultvalue": 0,
    "displayName": "It's not over yet...",
    "hidden": 0,
    "description": "Finish Episode One",
    "icon": "https://steamcdn-a.akamaihd.net/steamcommunity/public/images/apps/445550/0c7591db3482fc7c190fc0c5d4531de2ff932d76.jpg",
    "icongray": "https://steamcdn-a.akamaihd.net/steamcommunity/public/images/apps/445550/3f73c9d0bc6acd3b734aff46c2ef5b00c988e98a.jpg"
  },
  {
    "name": "EPISODE_1_WEAPONS",
    "defaultvalue": 0,
    "displayName": "Elite Weapons User",
    "hidden": 0,
    "description": "Open the secret weapons cache",
    "icon": "https://steamcdn-a.akamaihd.net/steamcommunity/public/images/apps/445550/0c7591db3482fc7c190fc0c5d4531de2ff932d76.jpg",
    "icongray": "https://steamcdn-a.akamaihd.net/steamcommunity/public/images/apps/445550/3f73c9d0bc6acd3b734aff46c2ef5b00c988e98a.jpg"
  },
  {
    "name": "EPISODE_1_RAGEQUIT",
    "defaultvalue": 0,
    "displayName": "Excellent Service",
    "hidden": 0,
    "description": "Annoy someone into quitting their job",
    "icon": "https://steamcdn-a.akamaihd.net/steamcommunity/public/images/apps/445550/0c7591db3482fc7c190fc0c5d4531de2ff932d76.jpg",
    "icongray": "https://steamcdn-a.akamaihd.net/steamcommunity/public/images/apps/445550/3f73c9d0bc6acd3b734aff46c2ef5b00c988e98a.jpg"
  },
  {
    "name": "EPISODE_1_SPEEDRUN",
    "defaultvalue": 0,
    "displayName": "Episode 1 Speedrunner",
    "hidden": 0,
    "description": "Complete Episode 1 in under 40 minutes!",
    "icon": "https://steamcdn-a.akamaihd.net/steamcommunity/public/images/apps/445550/0c7591db3482fc7c190fc0c5d4531de2ff932d76.jpg",
    "icongray": "https://steamcdn-a.akamaihd.net/steamcommunity/public/images/apps/445550/3f73c9d0bc6acd3b734aff46c2ef5b00c988e98a.jpg"
  },
  {
    "name": "EPISODE_1_TALKATIVE",
    "defaultvalue": 0,
    "displayName": "Talkative",
    "hidden": 0,
    "description": "Hear at least 3 unique stories from Chad",
    "icon": "https://steamcdn-a.akamaihd.net/steamcommunity/public/images/apps/445550/0c7591db3482fc7c190fc0c5d4531de2ff932d76.jpg",
    "icongray": "https://steamcdn-a.akamaihd.net/steamcommunity/public/images/apps/445550/3f73c9d0bc6acd3b734aff46c2ef5b00c988e98a.jpg"
  },
  {
    "name": "EPISODE_1_EXTRATALKATIVE",
    "defaultvalue": 0,
    "displayName": "Extra Talkative",
    "hidden": 0,
    "description": "Hear ALL of Chad's stories",
    "icon": "https://steamcdn-a.akamaihd.net/steamcommunity/public/images/apps/445550/0c7591db3482fc7c190fc0c5d4531de2ff932d76.jpg",
    "icongray": "https://steamcdn-a.akamaihd.net/steamcommunity/public/images/apps/445550/3f73c9d0bc6acd3b734aff46c2ef5b00c988e98a.jpg"
  }
]