[
  {
    "name": "UNLOCK_CROSSFIRE",
    "defaultvalue": 0,
    "displayName": "Twice the fun",
    "hidden": 0,
    "description": "Unlock the Crossfire dual crossbow. ",
    "icon": "https://steamcdn-a.akamaihd.net/steamcommunity/public/images/apps/512220/6f50db6fffa9945685f49a6d90120b3e463e1129.jpg",
    "icongray": "https://steamcdn-a.akamaihd.net/steamcommunity/public/images/apps/512220/bb9e63ee76c5936e5e705f88123d248dd2a2fd20.jpg"
  },
  {
    "name": "UNLOCK_GREATSWORD",
    "defaultvalue": 0,
    "displayName": "Look how big it is!",
    "hidden": 0,
    "description": "Unlock the Red Band two handed sword. ",
    "icon": "https://steamcdn-a.akamaihd.net/steamcommunity/public/images/apps/512220/011dbd2fde2f7a6d6fd6bd03fd484efbcece34f3.jpg",
    "icongray": "https://steamcdn-a.akamaihd.net/steamcommunity/public/images/apps/512220/599821cc2c207fba4ad5593d444d3c36ba030f45.jpg"
  },
  {
    "name": "COMPLETE_SNOW_LEVEL",
    "defaultvalue": 0,
    "displayName": "All that's missing is a dragon. ",
    "hidden": 0,
    "description": "Complete an adventure level in Nordhall. ",
    "icon": "https://steamcdn-a.akamaihd.net/steamcommunity/public/images/apps/512220/54b50a91e6be5cfab5b6b36403d7943f5d7572e2.jpg",
    "icongray": "https://steamcdn-a.akamaihd.net/steamcommunity/public/images/apps/512220/ee9e91ef72013fc5c7fa26f35da53028bca900f5.jpg"
  },
  {
    "name": "COMPLETE_FIRE_LEVEL",
    "defaultvalue": 0,
    "displayName": "That's my favourite vacation spot. ",
    "hidden": 0,
    "description": "Complete an adventure level in Fellbrann. ",
    "icon": "https://steamcdn-a.akamaihd.net/steamcommunity/public/images/apps/512220/eb83d57aa329f0fe0fc6178801eb57b0b57a706e.jpg",
    "icongray": "https://steamcdn-a.akamaihd.net/steamcommunity/public/images/apps/512220/27fe963ad39415b850df523ae1664555abf13403.jpg"
  },
  {
    "name": "KILL_KEEPER",
    "defaultvalue": 0,
    "displayName": "Eat more veggies next time. ",
    "hidden": 0,
    "description": "Kill the Keeper in a singleplayer game on Brave difficulty or higher. ",
    "icon": "https://steamcdn-a.akamaihd.net/steamcommunity/public/images/apps/512220/46dd9b946b4196d020e7da3c6d7d579f8d81015a.jpg",
    "icongray": "https://steamcdn-a.akamaihd.net/steamcommunity/public/images/apps/512220/2e449d476228d5fe6b27f5ad3788bbcbe3a68859.jpg"
  },
  {
    "name": "KILL_FORGE",
    "defaultvalue": 0,
    "displayName": "Nice forge you have there. ",
    "hidden": 0,
    "description": "Kill the Forgemaster in a singleplayer game on Brave difficulty or higher. ",
    "icon": "https://steamcdn-a.akamaihd.net/steamcommunity/public/images/apps/512220/fdb1fa88cc3a6c377cafbb0ded234da89ec86b3e.jpg",
    "icongray": "https://steamcdn-a.akamaihd.net/steamcommunity/public/images/apps/512220/095dce22c8252e4b066f17e3db8fec9bca18c7c0.jpg"
  },
  {
    "name": "MAX_RANGED",
    "defaultvalue": 0,
    "displayName": "Master Bow Shooter Person ",
    "hidden": 0,
    "description": "Level up a ranged weapon to level 20.",
    "icon": "https://steamcdn-a.akamaihd.net/steamcommunity/public/images/apps/512220/b331e4fffa084aa2bd591d904b76245c4ed439b1.jpg",
    "icongray": "https://steamcdn-a.akamaihd.net/steamcommunity/public/images/apps/512220/a54c36e3ecfddb4b74accf4c89927feb39b372ce.jpg"
  },
  {
    "name": "MAX_MELEE",
    "defaultvalue": 0,
    "displayName": "I like this pointy bit. ",
    "hidden": 0,
    "description": "Level up a melee weapon to level 20. ",
    "icon": "https://steamcdn-a.akamaihd.net/steamcommunity/public/images/apps/512220/2b683d9a86f545e9f2486f9c40484603ec97662a.jpg",
    "icongray": "https://steamcdn-a.akamaihd.net/steamcommunity/public/images/apps/512220/a2dec1f12b51cb834a7cd311fea27399603ecee2.jpg"
  },
  {
    "name": "COMPLETE_LEGENDARY_LEVEL",
    "defaultvalue": 0,
    "displayName": "Am I a hero now?",
    "hidden": 0,
    "description": "Complete an adventure game on Legendary difficulty. ",
    "icon": "https://steamcdn-a.akamaihd.net/steamcommunity/public/images/apps/512220/c8e2b260b192778ed2cde3ce4846c072f02d4c84.jpg",
    "icongray": "https://steamcdn-a.akamaihd.net/steamcommunity/public/images/apps/512220/f664feb9d90ea3d6066be85f27a99e80addbbb6a.jpg"
  },
  {
    "name": "KNIFE_HIT_RANGE",
    "defaultvalue": 0,
    "displayName": "Mom, get the camera! ",
    "hidden": 0,
    "description": "Hit an enemy with a throwing knife from 50 meters away. ",
    "icon": "https://steamcdn-a.akamaihd.net/steamcommunity/public/images/apps/512220/9a81817d9bbfff8e842e25873178db8a6a6afb5f.jpg",
    "icongray": "https://steamcdn-a.akamaihd.net/steamcommunity/public/images/apps/512220/69d7467c9b0aeb71a44d759edf611dd2cdda20b9.jpg"
  },
  {
    "name": "HUNDRED_KILLS",
    "defaultvalue": 0,
    "displayName": "Better than a gym. ",
    "hidden": 0,
    "description": "Get over 100 kills in one game, on Brave difficulty or higher.",
    "icon": "https://steamcdn-a.akamaihd.net/steamcommunity/public/images/apps/512220/2fd11dcc59ffd6a702d9210a1ac3fdbc93e31620.jpg",
    "icongray": "https://steamcdn-a.akamaihd.net/steamcommunity/public/images/apps/512220/b5bc0efb14f705eec7e723c3f3e8e777fd6c9fcf.jpg"
  },
  {
    "name": "COMPLETE_ALL_LEVELS",
    "defaultvalue": 0,
    "displayName": "Been there, done that. ",
    "hidden": 0,
    "description": "Complete all adventure levels",
    "icon": "https://steamcdn-a.akamaihd.net/steamcommunity/public/images/apps/512220/cdab3ad886100ee2e3ab522128f62f0ce50cd7ec.jpg",
    "icongray": "https://steamcdn-a.akamaihd.net/steamcommunity/public/images/apps/512220/955cbf82f88eebaab617bab77b57992b163c8df2.jpg"
  },
  {
    "name": "KILL_STORMCHASER",
    "defaultvalue": 0,
    "displayName": "Ride the Storm",
    "hidden": 0,
    "description": "Beat Ulfric the Stormchaser",
    "icon": "https://steamcdn-a.akamaihd.net/steamcommunity/public/images/apps/512220/21a2cc47383e042aafbb7938582e588afd7f0bdf.jpg",
    "icongray": "https://steamcdn-a.akamaihd.net/steamcommunity/public/images/apps/512220/c0cd6dcae0ac685ca1e58347642ccd28fcfab173.jpg"
  }
]