[
  {
    "name": "1",
    "defaultvalue": 0,
    "displayName": "One-Handed Sword Master",
    "hidden": 0,
    "description": "Reach max rank in one-handed sword mastery",
    "icon": "https://steamcdn-a.akamaihd.net/steamcommunity/public/images/apps/995240/15a6e1db574c46fcc57a7528fb259b0e357d22a5.jpg",
    "icongray": "https://steamcdn-a.akamaihd.net/steamcommunity/public/images/apps/995240/96baec42d1b09cf54976caabc3df42f040fe1cc7.jpg"
  },
  {
    "name": "2",
    "defaultvalue": 0,
    "displayName": "Two-Handed Sword Master",
    "hidden": 0,
    "description": "Reach max rank in two-handed sword mastery",
    "icon": "https://steamcdn-a.akamaihd.net/steamcommunity/public/images/apps/995240/be0bd91ce89ce409ad2402118c2d07f65a18e9f3.jpg",
    "icongray": "https://steamcdn-a.akamaihd.net/steamcommunity/public/images/apps/995240/b5d6c1134be2af99ae1ce3cb8bd65671fb630331.jpg"
  },
  {
    "name": "3",
    "defaultvalue": 0,
    "displayName": "Hammer Master",
    "hidden": 0,
    "description": "Reach max rank in hammer mastery",
    "icon": "https://steamcdn-a.akamaihd.net/steamcommunity/public/images/apps/995240/ade810dd88c72e83ab84f23ad25b9c2898c2847a.jpg",
    "icongray": "https://steamcdn-a.akamaihd.net/steamcommunity/public/images/apps/995240/941a62520266882ba87c80bd95dce2111afc5962.jpg"
  },
  {
    "name": "4",
    "defaultvalue": 0,
    "displayName": "Gauntlets Master",
    "hidden": 0,
    "description": "Reach max rank in gauntlets mastery",
    "icon": "https://steamcdn-a.akamaihd.net/steamcommunity/public/images/apps/995240/540d44d4f8ab1d017109258c424371e10a681348.jpg",
    "icongray": "https://steamcdn-a.akamaihd.net/steamcommunity/public/images/apps/995240/134435ab2a651bee0888fd9c392ea367d476cd78.jpg"
  },
  {
    "name": "5",
    "defaultvalue": 0,
    "displayName": "Dual Blades Master",
    "hidden": 0,
    "description": "Reach max rank in dual blades mastery",
    "icon": "https://steamcdn-a.akamaihd.net/steamcommunity/public/images/apps/995240/a9b83efd2bbc12f7d925a52735feb015b52f8b45.jpg",
    "icongray": "https://steamcdn-a.akamaihd.net/steamcommunity/public/images/apps/995240/9cc8699387dcdf2320e3d714cbfbb88e961604a7.jpg"
  },
  {
    "name": "6",
    "defaultvalue": 0,
    "displayName": "Staff Master",
    "hidden": 0,
    "description": "Reach max rank in staff mastery",
    "icon": "https://steamcdn-a.akamaihd.net/steamcommunity/public/images/apps/995240/034b003d5af69f8889f8f3982a04f8265ccc6f93.jpg",
    "icongray": "https://steamcdn-a.akamaihd.net/steamcommunity/public/images/apps/995240/be87fe71065bd0bddc801837baea2befce821634.jpg"
  },
  {
    "name": "7",
    "defaultvalue": 0,
    "displayName": "One-Handed Sword Collector",
    "hidden": 0,
    "description": "Discover all one-handed swords",
    "icon": "https://steamcdn-a.akamaihd.net/steamcommunity/public/images/apps/995240/65f642e28987f91a6b6e4c5596ce142177faf4ad.jpg",
    "icongray": "https://steamcdn-a.akamaihd.net/steamcommunity/public/images/apps/995240/7e90b5ea0d6a18fcbfee7c1a629897215ff52a02.jpg"
  },
  {
    "name": "8",
    "defaultvalue": 0,
    "displayName": "Two-Handed Sword Collector",
    "hidden": 0,
    "description": "Discover all two-handed swords",
    "icon": "https://steamcdn-a.akamaihd.net/steamcommunity/public/images/apps/995240/62558219544d22b2bf7add409968d96dd1bc7ce5.jpg",
    "icongray": "https://steamcdn-a.akamaihd.net/steamcommunity/public/images/apps/995240/6e7e7d5fe4bba99cdd788b3925341c9fec2c2ca1.jpg"
  },
  {
    "name": "9",
    "defaultvalue": 0,
    "displayName": "Hammer Collector",
    "hidden": 0,
    "description": "Discover all hammers",
    "icon": "https://steamcdn-a.akamaihd.net/steamcommunity/public/images/apps/995240/ecc8a6c00ad1790cd95afbff4baf1b107f3cbdc2.jpg",
    "icongray": "https://steamcdn-a.akamaihd.net/steamcommunity/public/images/apps/995240/8c8f9a5248ea91ca09fec8856a0181e639d9e865.jpg"
  },
  {
    "name": "10",
    "defaultvalue": 0,
    "displayName": "Gauntlets Collector",
    "hidden": 0,
    "description": "Discover all gauntlets",
    "icon": "https://steamcdn-a.akamaihd.net/steamcommunity/public/images/apps/995240/1fd82ebfbaea08394d309e637805719a0e68e280.jpg",
    "icongray": "https://steamcdn-a.akamaihd.net/steamcommunity/public/images/apps/995240/477110e48da90a5f0954259fd62c3c53a409d886.jpg"
  },
  {
    "name": "11",
    "defaultvalue": 0,
    "displayName": "Dual Blades Collector",
    "hidden": 0,
    "description": "Discover all dual blades",
    "icon": "https://steamcdn-a.akamaihd.net/steamcommunity/public/images/apps/995240/9201831a3be5128e87a3da0128e8d7f60d2edb52.jpg",
    "icongray": "https://steamcdn-a.akamaihd.net/steamcommunity/public/images/apps/995240/0ffad7025a43a50d57706e5e97ef1b4b9d3dd15a.jpg"
  },
  {
    "name": "12",
    "defaultvalue": 0,
    "displayName": "Staff Collector",
    "hidden": 0,
    "description": "Discover all staves",
    "icon": "https://steamcdn-a.akamaihd.net/steamcommunity/public/images/apps/995240/3d9f30237b3b3096fe1282d1fa01169eaa05fbc6.jpg",
    "icongray": "https://steamcdn-a.akamaihd.net/steamcommunity/public/images/apps/995240/48a9f5de99e9bc9072fe6d8078539ec15efe1fc0.jpg"
  },
  {
    "name": "13",
    "defaultvalue": 0,
    "displayName": "Grand Weapons Collector",
    "hidden": 0,
    "description": "Discover all weapons",
    "icon": "https://steamcdn-a.akamaihd.net/steamcommunity/public/images/apps/995240/30f77f5d2e106ba409e6d80536854ebf17895550.jpg",
    "icongray": "https://steamcdn-a.akamaihd.net/steamcommunity/public/images/apps/995240/d63874da9d1ad11a0676a76035dcfbbf7cb5432f.jpg"
  },
  {
    "name": "14",
    "defaultvalue": 0,
    "displayName": "Grand Weapons Master",
    "hidden": 0,
    "description": "Reach max rank for all weapons mastery",
    "icon": "https://steamcdn-a.akamaihd.net/steamcommunity/public/images/apps/995240/0e42d0332267966371309c74f0c62ed210bab561.jpg",
    "icongray": "https://steamcdn-a.akamaihd.net/steamcommunity/public/images/apps/995240/336fcee86fee71245ef1991414a87a091f9f9e30.jpg"
  },
  {
    "name": "15",
    "defaultvalue": 0,
    "displayName": "Spellmaster",
    "hidden": 0,
    "description": "Reach max rank for all of Lore's spells",
    "icon": "https://steamcdn-a.akamaihd.net/steamcommunity/public/images/apps/995240/7fe81bc8858b0c78f279a5cf7fab76374efc228c.jpg",
    "icongray": "https://steamcdn-a.akamaihd.net/steamcommunity/public/images/apps/995240/d1defda0e9d65629a9f741d88bf5396b4ab6ef78.jpg"
  },
  {
    "name": "16",
    "defaultvalue": 0,
    "displayName": "Desserts!",
    "hidden": 0,
    "description": "Accumulate more than 100,000 Dessert Points",
    "icon": "https://steamcdn-a.akamaihd.net/steamcommunity/public/images/apps/995240/184178373cd12fb8e628dae05258a1a96ba75592.jpg",
    "icongray": "https://steamcdn-a.akamaihd.net/steamcommunity/public/images/apps/995240/43a8d0011b68ef76f453ab1b4e34511d50094044.jpg"
  },
  {
    "name": "17",
    "defaultvalue": 0,
    "displayName": "A New Friend",
    "hidden": 1,
    "icon": "https://steamcdn-a.akamaihd.net/steamcommunity/public/images/apps/995240/22ccba017dca67226142489058284fbef626c824.jpg",
    "icongray": "https://steamcdn-a.akamaihd.net/steamcommunity/public/images/apps/995240/1cbfd1d4775edc6dccafb58e82f945e40cb6d715.jpg"
  },
  {
    "name": "18",
    "defaultvalue": 0,
    "displayName": "Rank B Master",
    "hidden": 0,
    "description": "Finish the game with an average rank of B or better",
    "icon": "https://steamcdn-a.akamaihd.net/steamcommunity/public/images/apps/995240/5ef2aede274dac9f5e435e13ee506d4da99fa96d.jpg",
    "icongray": "https://steamcdn-a.akamaihd.net/steamcommunity/public/images/apps/995240/59f69e5089413c7a7cf52db71925cff5705ca470.jpg"
  },
  {
    "name": "19",
    "defaultvalue": 0,
    "displayName": "Rank A Master",
    "hidden": 0,
    "description": "Finish the game with an average rank of A or better",
    "icon": "https://steamcdn-a.akamaihd.net/steamcommunity/public/images/apps/995240/f077e003cc523261a5a8a9004335629f0563c2bf.jpg",
    "icongray": "https://steamcdn-a.akamaihd.net/steamcommunity/public/images/apps/995240/ac4ddfee4674eb8c353ee5065e416b91afe35364.jpg"
  },
  {
    "name": "20",
    "defaultvalue": 0,
    "displayName": "Rank S Master",
    "hidden": 0,
    "description": "Finish the game with an average rank of S",
    "icon": "https://steamcdn-a.akamaihd.net/steamcommunity/public/images/apps/995240/0093d922533220c5c51d37c7f3cc879cc176fecb.jpg",
    "icongray": "https://steamcdn-a.akamaihd.net/steamcommunity/public/images/apps/995240/3c0dcf4062493be8b36d3b97135aebc40f938b36.jpg"
  },
  {
    "name": "21",
    "defaultvalue": 0,
    "displayName": "One-Handed Sword Enthusiast",
    "hidden": 0,
    "description": "Finish the game using only one-handed swords",
    "icon": "https://steamcdn-a.akamaihd.net/steamcommunity/public/images/apps/995240/a12eb8b5a80acbe1f4c30d3b61b8bb271c8fad69.jpg",
    "icongray": "https://steamcdn-a.akamaihd.net/steamcommunity/public/images/apps/995240/6be94b8b9afa1e2af1bc526a9deab322dbcf8579.jpg"
  },
  {
    "name": "22",
    "defaultvalue": 0,
    "displayName": "Two-Handed Sword Enthusiast",
    "hidden": 0,
    "description": "Finish the game using only two-handed swords",
    "icon": "https://steamcdn-a.akamaihd.net/steamcommunity/public/images/apps/995240/8727dd7b9f212531110c09adb032b162d777a9a4.jpg",
    "icongray": "https://steamcdn-a.akamaihd.net/steamcommunity/public/images/apps/995240/89cd084cacc8e334a68d1f75ef15f768c7abc737.jpg"
  },
  {
    "name": "23",
    "defaultvalue": 0,
    "displayName": "Hammer Enthusiast",
    "hidden": 0,
    "description": "Finish the game using only hammers",
    "icon": "https://steamcdn-a.akamaihd.net/steamcommunity/public/images/apps/995240/bb0e0c72cbce99ca6ff843aac68c43689a787a0a.jpg",
    "icongray": "https://steamcdn-a.akamaihd.net/steamcommunity/public/images/apps/995240/e5e9e3208fccb0e40a7defcc022514585aef9f5b.jpg"
  },
  {
    "name": "24",
    "defaultvalue": 0,
    "displayName": "Gauntlets Enthusiast",
    "hidden": 0,
    "description": "Finish the game using only gauntlets",
    "icon": "https://steamcdn-a.akamaihd.net/steamcommunity/public/images/apps/995240/7224788e3375e0a9b0697b71f7b6b6d22d1242ac.jpg",
    "icongray": "https://steamcdn-a.akamaihd.net/steamcommunity/public/images/apps/995240/e7973ccf0d414a350c212d3b405735a8c8928de6.jpg"
  },
  {
    "name": "25",
    "defaultvalue": 0,
    "displayName": "Dual Blades Enthusiast",
    "hidden": 0,
    "description": "Finish the game using only dual blades",
    "icon": "https://steamcdn-a.akamaihd.net/steamcommunity/public/images/apps/995240/6e7ac60509075f20ca0ef5109025949af4f96583.jpg",
    "icongray": "https://steamcdn-a.akamaihd.net/steamcommunity/public/images/apps/995240/86c1949c527350f196e5f0835d555a3ef9e8b592.jpg"
  },
  {
    "name": "26",
    "defaultvalue": 0,
    "displayName": "Staff Enthusiast",
    "hidden": 0,
    "description": "Finish the game using only staves",
    "icon": "https://steamcdn-a.akamaihd.net/steamcommunity/public/images/apps/995240/dcbdcfc3fdb4b89b74202742a2ed0a86423b1fc3.jpg",
    "icongray": "https://steamcdn-a.akamaihd.net/steamcommunity/public/images/apps/995240/363c14702d6b598cc8b5683131e97fdca5cdf74b.jpg"
  },
  {
    "name": "27",
    "defaultvalue": 0,
    "displayName": "Combo Master",
    "hidden": 0,
    "description": "Perform more than 100 combos",
    "icon": "https://steamcdn-a.akamaihd.net/steamcommunity/public/images/apps/995240/38138e1f9482faa31d91dabd2426a9ee6b75bb87.jpg",
    "icongray": "https://steamcdn-a.akamaihd.net/steamcommunity/public/images/apps/995240/478cc80f1c321cead1a688066b304f56c46ce6ce.jpg"
  },
  {
    "name": "28",
    "defaultvalue": 0,
    "displayName": "Storyteller",
    "hidden": 1,
    "icon": "https://steamcdn-a.akamaihd.net/steamcommunity/public/images/apps/995240/db3d62acf7c89176c66fa4fb67564b53dec80692.jpg",
    "icongray": "https://steamcdn-a.akamaihd.net/steamcommunity/public/images/apps/995240/b50ca641e8532b11ee34e82fa956c2555fda88ab.jpg"
  },
  {
    "name": "29",
    "defaultvalue": 0,
    "displayName": "Playdate",
    "hidden": 0,
    "description": "Complete the game in Co-op Mode",
    "icon": "https://steamcdn-a.akamaihd.net/steamcommunity/public/images/apps/995240/9227eda8b804e79168dfe0899c6b1194668abc72.jpg",
    "icongray": "https://steamcdn-a.akamaihd.net/steamcommunity/public/images/apps/995240/970b89d75cb45c44a819b1928a5ca3573b05a34c.jpg"
  },
  {
    "name": "30",
    "defaultvalue": 0,
    "displayName": "Tutorial",
    "hidden": 0,
    "description": "Complete the tutorial",
    "icon": "https://steamcdn-a.akamaihd.net/steamcommunity/public/images/apps/995240/8f69ed06de5c1f08c68cfc53ce40da45579446a4.jpg",
    "icongray": "https://steamcdn-a.akamaihd.net/steamcommunity/public/images/apps/995240/8d7dc858c9904b54d64ec69b769ed3121f6ce9c6.jpg"
  },
  {
    "name": "31",
    "defaultvalue": 0,
    "displayName": "Sutole Explorer",
    "hidden": 0,
    "description": "Discover Sutole for the first time",
    "icon": "https://steamcdn-a.akamaihd.net/steamcommunity/public/images/apps/995240/610d381362afd5a185578fb193c01929304c5b2f.jpg",
    "icongray": "https://steamcdn-a.akamaihd.net/steamcommunity/public/images/apps/995240/1a08f5a764647dfd3fbf8e2c092d3cd1c3a8fe34.jpg"
  },
  {
    "name": "32",
    "defaultvalue": 0,
    "displayName": "Trea Explorer",
    "hidden": 0,
    "description": "Discover Trea for the first time",
    "icon": "https://steamcdn-a.akamaihd.net/steamcommunity/public/images/apps/995240/349935b8c51e9dcd50d2f7c34eb41fbb0a4ee1df.jpg",
    "icongray": "https://steamcdn-a.akamaihd.net/steamcommunity/public/images/apps/995240/7518bdfef5a2f465240cfd2ebaa7f9cc33aa440d.jpg"
  },
  {
    "name": "33",
    "defaultvalue": 0,
    "displayName": "Nezev Explorer",
    "hidden": 0,
    "description": "Discover Nezev for the first time",
    "icon": "https://steamcdn-a.akamaihd.net/steamcommunity/public/images/apps/995240/02121ecedb6c4323ce210b7fdb8f18571a6f7d86.jpg",
    "icongray": "https://steamcdn-a.akamaihd.net/steamcommunity/public/images/apps/995240/2fd002cbc91a1c588dc4465bde1e68076748542a.jpg"
  },
  {
    "name": "34",
    "defaultvalue": 0,
    "displayName": "Mark I",
    "hidden": 1,
    "icon": "https://steamcdn-a.akamaihd.net/steamcommunity/public/images/apps/995240/a454ff087821b612c0c99d5f8c261e1cee343461.jpg",
    "icongray": "https://steamcdn-a.akamaihd.net/steamcommunity/public/images/apps/995240/11a09241e212e188c2c5c1bdaacf5a38a6d94855.jpg"
  },
  {
    "name": "35",
    "defaultvalue": 0,
    "displayName": "Mark II",
    "hidden": 1,
    "icon": "https://steamcdn-a.akamaihd.net/steamcommunity/public/images/apps/995240/4f795bbe4e32f5121634b5ea0b0927afd117a93b.jpg",
    "icongray": "https://steamcdn-a.akamaihd.net/steamcommunity/public/images/apps/995240/6b3efc9296ab42c6b363a198d8596b198d603df5.jpg"
  },
  {
    "name": "36",
    "defaultvalue": 0,
    "displayName": "Mark III",
    "hidden": 1,
    "icon": "https://steamcdn-a.akamaihd.net/steamcommunity/public/images/apps/995240/615f8b18805cbac1d432ad6e556641ed8eb708d4.jpg",
    "icongray": "https://steamcdn-a.akamaihd.net/steamcommunity/public/images/apps/995240/52fa34716b208162a27ce4aaeaa67ad89a2943ae.jpg"
  },
  {
    "name": "37",
    "defaultvalue": 0,
    "displayName": "Mark IV",
    "hidden": 1,
    "icon": "https://steamcdn-a.akamaihd.net/steamcommunity/public/images/apps/995240/e425c036cfd6b02e6dac402dd5bf7306ed128bbf.jpg",
    "icongray": "https://steamcdn-a.akamaihd.net/steamcommunity/public/images/apps/995240/f7992679278b88627045e25a1a5e5cdd58622f90.jpg"
  },
  {
    "name": "38",
    "defaultvalue": 0,
    "displayName": "Lore the Grand Grimoire",
    "hidden": 0,
    "description": "Destroy 100 enemies using Lore's spells",
    "icon": "https://steamcdn-a.akamaihd.net/steamcommunity/public/images/apps/995240/3be6390f76e365f058cef547cb5bb10369bbc560.jpg",
    "icongray": "https://steamcdn-a.akamaihd.net/steamcommunity/public/images/apps/995240/15d6edaa40b9b75dc74b9b84c5db5a13fb7f80d2.jpg"
  },
  {
    "name": "39",
    "defaultvalue": 0,
    "displayName": "Dummy Hater",
    "hidden": 1,
    "icon": "https://steamcdn-a.akamaihd.net/steamcommunity/public/images/apps/995240/3b8abf8b095587df0fd90fd50271b7d3049620c8.jpg",
    "icongray": "https://steamcdn-a.akamaihd.net/steamcommunity/public/images/apps/995240/539288a4112746173566fd56cbb566b379533ba8.jpg"
  },
  {
    "name": "40",
    "defaultvalue": 0,
    "displayName": "Bun! Bun!",
    "hidden": 0,
    "description": "Wear the Bunny Costume and destroy an enemy using the Carrot weapon",
    "icon": "https://steamcdn-a.akamaihd.net/steamcommunity/public/images/apps/995240/c344638e5d062bcca1af93e6498a6d385fee070c.jpg",
    "icongray": "https://steamcdn-a.akamaihd.net/steamcommunity/public/images/apps/995240/a0d7ad81d4bd9172caa8634c967ccf0978baad42.jpg"
  },
  {
    "name": "41",
    "defaultvalue": 0,
    "displayName": "Quack! Quack!",
    "hidden": 0,
    "description": "Wear the Duck Costume and destroy an enemy using the Leeks weapon",
    "icon": "https://steamcdn-a.akamaihd.net/steamcommunity/public/images/apps/995240/217baca7f351f5c31ee752c0f2eb3e1aa8141f3c.jpg",
    "icongray": "https://steamcdn-a.akamaihd.net/steamcommunity/public/images/apps/995240/70cf00efecc8b5ec586403a80f5976313f5b1eaf.jpg"
  }
]