{
  "Dlcs": {
    "369740": {
      "Name": "Ongaku DJ Pack",
      "ImageUrl": "https://steamcdn-a.akamaihd.net/steam/apps/369740/header.jpg?t=1447374226"
    },
    "369910": {
      "Name": "Ongaku Guy Fawkes Pack",
      "ImageUrl": "https://steamcdn-a.akamaihd.net/steam/apps/369910/header.jpg?t=1447374357"
    },
    "369920": {
      "Name": "Ongaku Jack O Lantern Pack",
      "ImageUrl": "https://steamcdn-a.akamaihd.net/steam/apps/369920/header.jpg?t=1447374358"
    },
    "369930": {
      "Name": "Ongaku Pixel Pack",
      "ImageUrl": "https://steamcdn-a.akamaihd.net/steam/apps/369930/header.jpg?t=1447374359"
    },
    "369940": {
      "Name": "Ongaku Pop Pack",
      "ImageUrl": "https://steamcdn-a.akamaihd.net/steam/apps/369940/header.jpg?t=1447374361"
    },
    "369950": {
      "Name": "Ongaku Rock Pack",
      "ImageUrl": "https://steamcdn-a.akamaihd.net/steam/apps/369950/header.jpg?t=1447374362"
    },
    "369960": {
      "Name": "Ongaku Triangle Pack",
      "ImageUrl": "https://steamcdn-a.akamaihd.net/steam/apps/369960/header.jpg?t=1447374364"
    },
    "369970": {
      "Name": "Ongaku Trippy Pack",
      "ImageUrl": "https://steamcdn-a.akamaihd.net/steam/apps/369970/header.jpg?t=1447374364"
    },
    "369980": {
      "Name": "Ongaku Zombie Pack",
      "ImageUrl": "https://steamcdn-a.akamaihd.net/steam/apps/369980/header.jpg?t=1447374367"
    },
    "370110": {
      "Name": "Ongaku Soundtrack",
      "ImageUrl": "https://steamcdn-a.akamaihd.net/steam/apps/370110/header.jpg?t=1447374395"
    }
  },
  "Name": "Ongaku",
  "AppId": "360990",
  "ImageUrl": "https://steamcdn-a.akamaihd.net/steam/apps/360990/header.jpg?t=1478026450",
  "Languages": [
    "english",
    "french",
    "italian",
    "german",
    "spanish"
  ],
  "Platforms": {
    "windows": true,
    "mac": false,
    "linux": false
  }
}