﻿[
  {
    "name": "first_mission",
    "defaultvalue": 0,
    "displayName": "First Mission",
    "hidden": 0,
    "description": "Complete your first mission.",
    "icon": "https://steamcdn-a.akamaihd.net/steamcommunity/public/images/apps/575510/c757214473a23c3d438d4a7a575da4d2317b2c5f.jpg",
    "icongray": "https://steamcdn-a.akamaihd.net/steamcommunity/public/images/apps/575510/b8cffdcce851779bbff9affb5a6dc5146223f5af.jpg"
  },
  {
    "name": "the_assistant",
    "defaultvalue": 0,
    "displayName": "The Assistant",
    "hidden": 0,
    "description": "Unlock all of Kimiko's scenes. ",
    "icon": "https://steamcdn-a.akamaihd.net/steamcommunity/public/images/apps/575510/dd31a58cdeba4127763eee84dee321bf65bccc87.jpg",
    "icongray": "https://steamcdn-a.akamaihd.net/steamcommunity/public/images/apps/575510/23abb431d8fac1dd756c9b31c375fc2eccb7101c.jpg"
  },
  {
    "name": "on_duty",
    "defaultvalue": 0,
    "displayName": "On Duty",
    "hidden": 0,
    "description": "Working hard while patrolling the beach.",
    "icon": "https://steamcdn-a.akamaihd.net/steamcommunity/public/images/apps/575510/d7ebc2f3e59d6638db42f9e9e134dfd6bde8de82.jpg",
    "icongray": "https://steamcdn-a.akamaihd.net/steamcommunity/public/images/apps/575510/54ce698fdfddcceed98993b263f690cc3dc46f65.jpg"
  },
  {
    "name": "poor_coordination",
    "defaultvalue": 0,
    "displayName": "'Poor' Coordination",
    "hidden": 0,
    "description": "Fail to stop someone from falling.",
    "icon": "https://steamcdn-a.akamaihd.net/steamcommunity/public/images/apps/575510/3c1a03a12caf39e7bccf64c4431a7903d31c05c1.jpg",
    "icongray": "https://steamcdn-a.akamaihd.net/steamcommunity/public/images/apps/575510/312132ca729d08b7fcff21cfeb137715a5cef3c9.jpg"
  },
  {
    "name": "the_rookie",
    "defaultvalue": 0,
    "displayName": "The Rookie",
    "hidden": 0,
    "description": "Unlock all of Masumi's scenes.",
    "icon": "https://steamcdn-a.akamaihd.net/steamcommunity/public/images/apps/575510/24bbf0cefcf0bf8d54fbff851aa80f5a117202cd.jpg",
    "icongray": "https://steamcdn-a.akamaihd.net/steamcommunity/public/images/apps/575510/2a562c4c8a9d3f2acd6e27809195584b07f71b2c.jpg"
  },
  {
    "name": "your_partners",
    "defaultvalue": 0,
    "displayName": "Your Partners",
    "hidden": 0,
    "description": "Unlock all of Masumi's and Kimiko's shared scenes.",
    "icon": "https://steamcdn-a.akamaihd.net/steamcommunity/public/images/apps/575510/b26b49d9aedee777a0208047982548481a1e4144.jpg",
    "icongray": "https://steamcdn-a.akamaihd.net/steamcommunity/public/images/apps/575510/e88e6597a8f3c55a3078c6dc299599b7719b6717.jpg"
  },
  {
    "name": "poker_face",
    "defaultvalue": 0,
    "displayName": "Poker Face",
    "hidden": 0,
    "description": "Win a poker game.",
    "icon": "https://steamcdn-a.akamaihd.net/steamcommunity/public/images/apps/575510/108618ecad3d262aa304941bada393d967001d51.jpg",
    "icongray": "https://steamcdn-a.akamaihd.net/steamcommunity/public/images/apps/575510/3b0490e94d26f98adaf1b219f4e2e561020bff6a.jpg"
  },
  {
    "name": "extradimensional_encounter",
    "defaultvalue": 0,
    "displayName": "Extradimensional Encounter",
    "hidden": 1,
    "icon": "https://steamcdn-a.akamaihd.net/steamcommunity/public/images/apps/575510/252a096b327ac2a66c1e7d0b83b489180148ef62.jpg",
    "icongray": "https://steamcdn-a.akamaihd.net/steamcommunity/public/images/apps/575510/acb01be1a64c1bc79ddfbb915bd7371bf79cbd92.jpg"
  },
  {
    "name": "stopped_the_invasion",
    "defaultvalue": 0,
    "displayName": "Stopped The Invasion",
    "hidden": 0,
    "description": "Put an end to the invasion. ",
    "icon": "https://steamcdn-a.akamaihd.net/steamcommunity/public/images/apps/575510/e8ec9af2de3d9f30abe9ee5b0945dacfdb697b9f.jpg",
    "icongray": "https://steamcdn-a.akamaihd.net/steamcommunity/public/images/apps/575510/27527fbd0c7d5ebb0da9919844b678cb292b4063.jpg"
  },
  {
    "name": "picturesque",
    "defaultvalue": 0,
    "displayName": "Picturesque",
    "hidden": 0,
    "description": "Unlock all images in the gallery.",
    "icon": "https://steamcdn-a.akamaihd.net/steamcommunity/public/images/apps/575510/91651e0a7338a69b689853a7b08c326057085d98.jpg",
    "icongray": "https://steamcdn-a.akamaihd.net/steamcommunity/public/images/apps/575510/0d1346d6ec0f91eb7b925a7b4b0302be87422513.jpg"
  }
]