﻿{
  "Dlcs": {},
  "Name": "Splash Bash",
  "AppId": "494020",
  "ImageUrl": "https://steamcdn-a.akamaihd.net/steam/apps/494020/header.jpg?t=1575643277",
  "Languages": [
    "english"
  ],
  "Platforms": {
    "windows": true,
    "mac": false,
    "linux": false
  }
}