{
  "Dlcs": {
    "937880": {
      "Name": "Echoes III - Soundtrack",
      "ImageUrl": "https://steamcdn-a.akamaihd.net/steam/apps/937880/header.jpg?t=1588169412"
    }
  },
  "Name": "Echoes III",
  "AppId": "841950",
  "ImageUrl": "https://steamcdn-a.akamaihd.net/steam/apps/841950/header.jpg?t=1560445234",
  "Languages": [
    "english"
  ],
  "Platforms": {
    "windows": true,
    "mac": false,
    "linux": false
  }
}