{
  "Dlcs": {},
  "Name": "Professor Teaches® Excel 2013 & 365",
  "AppId": "377040",
  "ImageUrl": "https://steamcdn-a.akamaihd.net/steam/apps/377040/header.jpg?t=1461783221",
  "Languages": [
    "english"
  ],
  "Platforms": {
    "windows": true,
    "mac": false,
    "linux": false
  }
}