{
  "Dlcs": {},
  "Name": "FireFly",
  "AppId": "1013980",
  "ImageUrl": "https://steamcdn-a.akamaihd.net/steam/apps/1013980/header.jpg?t=1600779812",
  "Languages": [
    "english",
    "tchinese"
  ],
  "Platforms": {
    "windows": true,
    "mac": false,
    "linux": false
  }
}