{
  "Dlcs": {},
  "Name": "FullBlast",
  "AppId": "429220",
  "ImageUrl": "https://steamcdn-a.akamaihd.net/steam/apps/429220/header.jpg?t=1600337911",
  "Languages": [
    "english",
    "french",
    "italian",
    "german",
    "spanish"
  ],
  "Platforms": {
    "windows": true,
    "mac": true,
    "linux": false
  }
}