[
  {
    "name": "BuildTowers",
    "defaultvalue": 0,
    "displayName": "Build Towers"
  },
  {
    "name": "KilledMonsters",
    "defaultvalue": 0,
    "displayName": "Killed Monsters"
  },
  {
    "name": "KilledElementals",
    "defaultvalue": 0,
    "displayName": "Killed Elementals"
  },
  {
    "name": "MonstersReachedGoal",
    "defaultvalue": 0,
    "displayName": "Monsters Reached Goal"
  },
  {
    "name": "ClassicVictories",
    "defaultvalue": 0,
    "displayName": "Victories in Classic Mode"
  },
  {
    "name": "ClassicLost",
    "defaultvalue": 0,
    "displayName": "Lost games in Classic Mode"
  },
  {
    "name": "ItemsFound",
    "defaultvalue": 0,
    "displayName": "Items found in Hero Mode"
  },
  {
    "name": "ItemsNotFound",
    "defaultvalue": 0,
    "displayName": "Items not found in Hero Mode"
  },
  {
    "name": "MaximumSurvivalSpawn",
    "defaultvalue": 0,
    "displayName": "Maximum Spawn reached in Survival Mode"
  },
  {
    "name": "MaximumProceduralWave",
    "defaultvalue": 0,
    "displayName": "Maximum wave reached in Hero Mode"
  },
  {
    "name": "SolvedQuests",
    "defaultvalue": 0,
    "displayName": "Solved Quests"
  },
  {
    "name": "BuiltTowerTypes",
    "defaultvalue": 0,
    "displayName": ""
  },
  {
    "name": "TotalMonsterCount",
    "defaultvalue": 0,
    "displayName": ""
  },
  {
    "name": "TotalScore",
    "defaultvalue": 0,
    "displayName": ""
  }
]