{
  "Dlcs": {},
  "Name": "Vaccine",
  "AppId": "549950",
  "ImageUrl": "https://steamcdn-a.akamaihd.net/steam/apps/549950/header.jpg?t=1492617323",
  "Languages": [
    "english",
    "french",
    "german",
    "spanish"
  ],
  "Platforms": {
    "windows": true,
    "mac": true,
    "linux": true
  }
}