[
  {
    "name": "Empty_Truth",
    "defaultvalue": 0,
    "displayName": "Empty Truth",
    "hidden": 0,
    "description": "Unlock True Level",
    "icon": "https://steamcdn-a.akamaihd.net/steamcommunity/public/images/apps/284220/440f0c2fb7e8602201cc54cdbf089976344059ac.jpg",
    "icongray": "https://steamcdn-a.akamaihd.net/steamcommunity/public/images/apps/284220/1aecbe576ae039785e5935df4cae3be7ab1a6cf4.jpg"
  },
  {
    "name": "Extra",
    "defaultvalue": 0,
    "displayName": "Extra Extra...  Shoot them all!",
    "hidden": 0,
    "description": "Unlock Extra Level",
    "icon": "https://steamcdn-a.akamaihd.net/steamcommunity/public/images/apps/284220/c79c3cb0bae38b701858b0455c21a94f6345334f.jpg",
    "icongray": "https://steamcdn-a.akamaihd.net/steamcommunity/public/images/apps/284220/5223ff08d947889957aa88e28385c9e0aac7f29c.jpg"
  },
  {
    "name": "Level_7_Shooter",
    "defaultvalue": 0,
    "displayName": "Level 7 Shooter",
    "hidden": 0,
    "description": "Collect 60k Green Coins",
    "icon": "https://steamcdn-a.akamaihd.net/steamcommunity/public/images/apps/284220/7d998a96d8fae0905c187fcd2214c32ef3a60ca2.jpg",
    "icongray": "https://steamcdn-a.akamaihd.net/steamcommunity/public/images/apps/284220/41b3ae36af6a484b44672632a1863b289cc142a4.jpg"
  },
  {
    "name": "What_a_player",
    "defaultvalue": 0,
    "displayName": "What A Player",
    "hidden": 0,
    "description": "Play 50 times",
    "icon": "https://steamcdn-a.akamaihd.net/steamcommunity/public/images/apps/284220/f2359cec9fd8f97601fa4a714184763dd3615c37.jpg",
    "icongray": "https://steamcdn-a.akamaihd.net/steamcommunity/public/images/apps/284220/520a7671c1fc4ff454420631505879e6b590fa19.jpg"
  },
  {
    "name": "Master_Defender",
    "defaultvalue": 0,
    "displayName": "Master Defender",
    "hidden": 0,
    "description": "Defeat 50 Defenders",
    "icon": "https://steamcdn-a.akamaihd.net/steamcommunity/public/images/apps/284220/312e1a211bb9b66f992e5d61ac094c317a67d30f.jpg",
    "icongray": "https://steamcdn-a.akamaihd.net/steamcommunity/public/images/apps/284220/f3fb580c33f7e0c949201e26ae577b9eab2caf66.jpg"
  },
  {
    "name": "Flying_Blind",
    "defaultvalue": 0,
    "displayName": "Flying Blind",
    "hidden": 0,
    "description": "Finish any level without radar",
    "icon": "https://steamcdn-a.akamaihd.net/steamcommunity/public/images/apps/284220/02085f6210eb2bc59f3282ee81e5f6be4fd83e03.jpg",
    "icongray": "https://steamcdn-a.akamaihd.net/steamcommunity/public/images/apps/284220/8c9206a8216a33122a519ab321bb07607b3827df.jpg"
  },
  {
    "name": "Nice",
    "defaultvalue": 0,
    "displayName": "It so Nice!",
    "hidden": 0,
    "description": "Get 5 Nices!",
    "icon": "https://steamcdn-a.akamaihd.net/steamcommunity/public/images/apps/284220/57feca42f947c72091cd728b96cc1b496e4c5294.jpg",
    "icongray": "https://steamcdn-a.akamaihd.net/steamcommunity/public/images/apps/284220/d4f01f768acd9f6d7436da1f4a76fc7520cf6132.jpg"
  },
  {
    "name": "Kill_All_Bears",
    "defaultvalue": 0,
    "displayName": "Kill All Bears",
    "hidden": 0,
    "description": "Kill All Bears!",
    "icon": "https://steamcdn-a.akamaihd.net/steamcommunity/public/images/apps/284220/0dcfbab5b2a9dce2ad8a9853872771247dab7faf.jpg",
    "icongray": "https://steamcdn-a.akamaihd.net/steamcommunity/public/images/apps/284220/e9e674439103c56dd7f69dbf345fbcf24071193d.jpg"
  },
  {
    "name": "DragonScale",
    "defaultvalue": 0,
    "displayName": "DragonScale Master",
    "hidden": 0,
    "description": "Beat the game using DragonScale and DragonScale Variant",
    "icon": "https://steamcdn-a.akamaihd.net/steamcommunity/public/images/apps/284220/aee0d637eb58910e2c90e55bc6e32e5b09cb6716.jpg",
    "icongray": "https://steamcdn-a.akamaihd.net/steamcommunity/public/images/apps/284220/786a6402742e47ce49e6d169f329afb66a92ed9a.jpg"
  },
  {
    "name": "Wings",
    "defaultvalue": 0,
    "displayName": "Wings of Flight",
    "hidden": 0,
    "description": "Beat the game only using Wings",
    "icon": "https://steamcdn-a.akamaihd.net/steamcommunity/public/images/apps/284220/7aa3ff08f375e20f47cf24064c4d241641d2aaf7.jpg",
    "icongray": "https://steamcdn-a.akamaihd.net/steamcommunity/public/images/apps/284220/d76c2b4b21bd647ccc7686e613736f8ba0d42a37.jpg"
  },
  {
    "name": "True_Fan",
    "defaultvalue": 0,
    "displayName": "True Fan",
    "hidden": 0,
    "description": "Over 1500 minutes of game time",
    "icon": "https://steamcdn-a.akamaihd.net/steamcommunity/public/images/apps/284220/df8ca545561e7d9cd00df3398cef7d292ebbc46d.jpg",
    "icongray": "https://steamcdn-a.akamaihd.net/steamcommunity/public/images/apps/284220/f71dca88092d7dc62b9bff40472e34d3387489cc.jpg"
  },
  {
    "name": "Extra_Awesome",
    "defaultvalue": 0,
    "displayName": "Extra Awesome",
    "hidden": 0,
    "description": "Beat Extra level with 4M+ score",
    "icon": "https://steamcdn-a.akamaihd.net/steamcommunity/public/images/apps/284220/0c4fae561e5d16d57f2c8b8b8c97b705046a461a.jpg",
    "icongray": "https://steamcdn-a.akamaihd.net/steamcommunity/public/images/apps/284220/5318239df608b8a03558060a7a04460a60ac8935.jpg"
  },
  {
    "name": "Ghostflame",
    "defaultvalue": 0,
    "displayName": "Ghostflame Master",
    "hidden": 0,
    "description": "Beat the game using Ghostflame and Ghostflame Variant",
    "icon": "https://steamcdn-a.akamaihd.net/steamcommunity/public/images/apps/284220/8af0155fc3af90bf93bb081923cc3bdf9a1de94e.jpg",
    "icongray": "https://steamcdn-a.akamaihd.net/steamcommunity/public/images/apps/284220/278a4e07cb5a3373d9e6f9f877408eebb629d37f.jpg"
  },
  {
    "name": "Strong_Will",
    "defaultvalue": 0,
    "displayName": "Strong Will",
    "hidden": 0,
    "description": "Beat the game without using any power-ups",
    "icon": "https://steamcdn-a.akamaihd.net/steamcommunity/public/images/apps/284220/dbff2428869e484192b2402c1f0eb2fab50518ad.jpg",
    "icongray": "https://steamcdn-a.akamaihd.net/steamcommunity/public/images/apps/284220/6b95edb70d61c2fae63308438c0c1e7e12907b56.jpg"
  },
  {
    "name": "Speed",
    "defaultvalue": 0,
    "displayName": "The Need For Speed",
    "hidden": 0,
    "description": "Earn Speed Level 16 on a stage",
    "icon": "https://steamcdn-a.akamaihd.net/steamcommunity/public/images/apps/284220/9ea3842eabda2335eaff085eb7bf0988db448d19.jpg",
    "icongray": "https://steamcdn-a.akamaihd.net/steamcommunity/public/images/apps/284220/826b80da8bbffd29ff07819a9662b6808197aee4.jpg"
  },
  {
    "name": "Redundancy",
    "defaultvalue": 0,
    "displayName": "Redundancy",
    "hidden": 0,
    "description": "Beat the game with the same shot type for both normal and Turbo",
    "icon": "https://steamcdn-a.akamaihd.net/steamcommunity/public/images/apps/284220/4a285af07a366112dcea1598fbb6b83120f96df5.jpg",
    "icongray": "https://steamcdn-a.akamaihd.net/steamcommunity/public/images/apps/284220/6da74d9eb2307eaae63df518c2dc8a48c8eecd50.jpg"
  },
  {
    "name": "Lightning",
    "defaultvalue": 0,
    "displayName": "Like a Bolt of Lightning",
    "hidden": 0,
    "description": "Defeat 1000 enemies using the wing attack",
    "icon": "https://steamcdn-a.akamaihd.net/steamcommunity/public/images/apps/284220/1f1c9a56208737b7c500d1f4f6221a78734e3e17.jpg",
    "icongray": "https://steamcdn-a.akamaihd.net/steamcommunity/public/images/apps/284220/2dda5d42d8444ba84b7dff27d86b336e74560963.jpg"
  },
  {
    "name": "Potential",
    "defaultvalue": 0,
    "displayName": "Unlocked Potential",
    "hidden": 0,
    "description": "Fully upgrade 2 stats",
    "icon": "https://steamcdn-a.akamaihd.net/steamcommunity/public/images/apps/284220/1510ac7df5dc2aa2c32b6d628089eab9d67275d0.jpg",
    "icongray": "https://steamcdn-a.akamaihd.net/steamcommunity/public/images/apps/284220/bf7ef67588eb37dfbad51376559c66caffe4bdc9.jpg"
  },
  {
    "name": "Options",
    "defaultvalue": 0,
    "displayName": "So Many Options",
    "hidden": 0,
    "description": "Fully Upgrade Options",
    "icon": "https://steamcdn-a.akamaihd.net/steamcommunity/public/images/apps/284220/cd6db36d7730fb9b860911ecb85ef43d04ec78fe.jpg",
    "icongray": "https://steamcdn-a.akamaihd.net/steamcommunity/public/images/apps/284220/aeca60e84a61b6a25fa749b6779c1abbdee94ab8.jpg"
  },
  {
    "name": "The_End",
    "defaultvalue": 0,
    "displayName": "To The Very End",
    "hidden": 0,
    "description": "Beat the game on your last life having used all of your continues",
    "icon": "https://steamcdn-a.akamaihd.net/steamcommunity/public/images/apps/284220/4ba53188f6fc52ed5f6fdcdaa92bdd9978bf181c.jpg",
    "icongray": "https://steamcdn-a.akamaihd.net/steamcommunity/public/images/apps/284220/6bac0f605de18fe948c0be214645a827f20ddcc2.jpg"
  }
]