[
  {
    "name": "NEW_ACHIEVEMENT_1CC",
    "defaultvalue": 0,
    "displayName": "1CC",
    "hidden": 0,
    "description": "Clear the game",
    "icon": "https://steamcdn-a.akamaihd.net/steamcommunity/public/images/apps/538900/78ed32e69f32e667477d698db28754489771f393.jpg",
    "icongray": "https://steamcdn-a.akamaihd.net/steamcommunity/public/images/apps/538900/84cde9fa0cc7656d1e430b6d192c25c325421154.jpg"
  },
  {
    "name": "NEW_ACHIEVEMENT_1LC",
    "defaultvalue": 0,
    "displayName": "1LC",
    "hidden": 0,
    "description": "Clear the game without dying",
    "icon": "https://steamcdn-a.akamaihd.net/steamcommunity/public/images/apps/538900/f47199cd12bb43d10ffcf2d4782c94c6b96ada43.jpg",
    "icongray": "https://steamcdn-a.akamaihd.net/steamcommunity/public/images/apps/538900/bd638182f19334442ed74f4f2e99ebab0ff61eea.jpg"
  },
  {
    "name": "NEW_ACHIEVEMENT_S1",
    "defaultvalue": 0,
    "displayName": "Denial",
    "hidden": 0,
    "description": "Clear Stage 1",
    "icon": "https://steamcdn-a.akamaihd.net/steamcommunity/public/images/apps/538900/48eb4bbc24f38979bae479de7857a0739cc56607.jpg",
    "icongray": "https://steamcdn-a.akamaihd.net/steamcommunity/public/images/apps/538900/a1406a531d0f30fcc91952dfab3a249b4a10b3c1.jpg"
  },
  {
    "name": "NEW_ACHIEVEMENT_S2",
    "defaultvalue": 0,
    "displayName": "Isolation",
    "hidden": 0,
    "description": "Clear Stage 2",
    "icon": "https://steamcdn-a.akamaihd.net/steamcommunity/public/images/apps/538900/46830bdd8307f50d831a25b92e74b5f9357f6e7d.jpg",
    "icongray": "https://steamcdn-a.akamaihd.net/steamcommunity/public/images/apps/538900/516d5413f77b9156060a7d514f6fd445b87cfd4d.jpg"
  },
  {
    "name": "NEW_ACHIEVEMENT_S3",
    "defaultvalue": 0,
    "displayName": "Anger",
    "hidden": 0,
    "description": "Clear Stage 3",
    "icon": "https://steamcdn-a.akamaihd.net/steamcommunity/public/images/apps/538900/7c1671c92826a2ce28f51ebda0b203efdf0fe5f2.jpg",
    "icongray": "https://steamcdn-a.akamaihd.net/steamcommunity/public/images/apps/538900/63068678c8468cd1c8b308f62313526c97c003ae.jpg"
  },
  {
    "name": "NEW_ACHIEVEMENT_S4",
    "defaultvalue": 0,
    "displayName": "Bargaining",
    "hidden": 0,
    "description": "Clear Stage 4",
    "icon": "https://steamcdn-a.akamaihd.net/steamcommunity/public/images/apps/538900/e8479f03d7bd9b4580e58baaba019c96fe4567aa.jpg",
    "icongray": "https://steamcdn-a.akamaihd.net/steamcommunity/public/images/apps/538900/0be928cd4ca4b790336b853b7dde9e1d67499966.jpg"
  },
  {
    "name": "NEW_ACHIEVEMENT_S5",
    "defaultvalue": 0,
    "displayName": "Depression",
    "hidden": 0,
    "description": "Clear Stage 5",
    "icon": "https://steamcdn-a.akamaihd.net/steamcommunity/public/images/apps/538900/83cc5a63966ff92c59efd54c6eea42bafa0a9d8f.jpg",
    "icongray": "https://steamcdn-a.akamaihd.net/steamcommunity/public/images/apps/538900/257e2320f26d306cf9b56e66da4324c9f0ed0477.jpg"
  },
  {
    "name": "NEW_ACHIEVEMENT_S6",
    "defaultvalue": 0,
    "displayName": "Acceptance",
    "hidden": 0,
    "description": "Clear Stage 6",
    "icon": "https://steamcdn-a.akamaihd.net/steamcommunity/public/images/apps/538900/304aaa31ca3791f63a1ac0f7b82ffa2482d064dc.jpg",
    "icongray": "https://steamcdn-a.akamaihd.net/steamcommunity/public/images/apps/538900/b44b01ee649d2bd8a6ef4e4d7f42e6096a82b1d7.jpg"
  },
  {
    "name": "NEW_ACHIEVEMENT_C",
    "defaultvalue": 0,
    "displayName": "C Rank",
    "hidden": 0,
    "description": "Score 1000 points",
    "icon": "https://steamcdn-a.akamaihd.net/steamcommunity/public/images/apps/538900/f73df5325e15c1bc9eb11754cda80c7eb1c46fea.jpg",
    "icongray": "https://steamcdn-a.akamaihd.net/steamcommunity/public/images/apps/538900/eee94ed6479139e8429be6a1aa33dc3a70716cc7.jpg"
  },
  {
    "name": "NEW_ACHIEVEMENT_B",
    "defaultvalue": 0,
    "displayName": "B Rank",
    "hidden": 0,
    "description": "Score 5000 points",
    "icon": "https://steamcdn-a.akamaihd.net/steamcommunity/public/images/apps/538900/963a928a0f2ac619c3c46b00a0980091b55bdfe4.jpg",
    "icongray": "https://steamcdn-a.akamaihd.net/steamcommunity/public/images/apps/538900/708243e908ad7456f403f64a9f9267f520d27ccb.jpg"
  },
  {
    "name": "NEW_ACHIEVEMENT_A",
    "defaultvalue": 0,
    "displayName": "A Rank",
    "hidden": 0,
    "description": "Score 10000 points",
    "icon": "https://steamcdn-a.akamaihd.net/steamcommunity/public/images/apps/538900/d468241cfd9f745a13306f679261f275590fe66a.jpg",
    "icongray": "https://steamcdn-a.akamaihd.net/steamcommunity/public/images/apps/538900/ef7fb1654852e14975af44d93ad0662dd9d043ff.jpg"
  },
  {
    "name": "NEW_ACHIEVEMENT_S",
    "defaultvalue": 0,
    "displayName": "S Rank",
    "hidden": 0,
    "description": "Score 15000 points",
    "icon": "https://steamcdn-a.akamaihd.net/steamcommunity/public/images/apps/538900/e92c5581fbccdd79389664c123f776150cf3d386.jpg",
    "icongray": "https://steamcdn-a.akamaihd.net/steamcommunity/public/images/apps/538900/8ca34c48e2967826f604cc737894b1cf95879138.jpg"
  },
  {
    "name": "NEW_ACHIEVEMENT_SS",
    "defaultvalue": 0,
    "displayName": "SS Rank",
    "hidden": 0,
    "description": "Score 20000 points",
    "icon": "https://steamcdn-a.akamaihd.net/steamcommunity/public/images/apps/538900/0d904779e537b9f2846fb18980afe8b5fd2f20ee.jpg",
    "icongray": "https://steamcdn-a.akamaihd.net/steamcommunity/public/images/apps/538900/f85472ce8b4125efdb2ceefee798238773cb545e.jpg"
  },
  {
    "name": "NEW_ACHIEVEMENT_C1",
    "defaultvalue": 0,
    "displayName": "Core Collector Tier 1",
    "hidden": 0,
    "description": "Collect 100 Charge Cores",
    "icon": "https://steamcdn-a.akamaihd.net/steamcommunity/public/images/apps/538900/898418b16da0a23e5ac8a53f75c03b9e5ab71db2.jpg",
    "icongray": "https://steamcdn-a.akamaihd.net/steamcommunity/public/images/apps/538900/0942fd40c2ec48e3b28e99f7f14765a67f8d74e1.jpg"
  },
  {
    "name": "NEW_ACHIEVEMENT_C2",
    "defaultvalue": 0,
    "displayName": "Core Collector Tier 2",
    "hidden": 0,
    "description": "Collect 500 Charge Cores",
    "icon": "https://steamcdn-a.akamaihd.net/steamcommunity/public/images/apps/538900/f7d01ccfc36ee56296b45287cc180614cc0a6648.jpg",
    "icongray": "https://steamcdn-a.akamaihd.net/steamcommunity/public/images/apps/538900/598971b9257f5d2e720f6c18bf7ca6c8d17c0576.jpg"
  },
  {
    "name": "NEW_ACHIEVEMENT_C3",
    "defaultvalue": 0,
    "displayName": "Core Collector Tier 3",
    "hidden": 0,
    "description": "Collect 1000 Charge Cores",
    "icon": "https://steamcdn-a.akamaihd.net/steamcommunity/public/images/apps/538900/d52168bc9bca8cc6b7d29310bab775f919f8fca7.jpg",
    "icongray": "https://steamcdn-a.akamaihd.net/steamcommunity/public/images/apps/538900/c10adb01d8782cea8866d2f11c88faa38a1a9ced.jpg"
  },
  {
    "name": "NEW_ACHIEVEMENT_C4",
    "defaultvalue": 0,
    "displayName": "Core Collector Tier 4",
    "hidden": 0,
    "description": "Collect 3000 Charge Cores",
    "icon": "https://steamcdn-a.akamaihd.net/steamcommunity/public/images/apps/538900/be9af7ee48af91d51ce261e8725db8f16ba4b6f1.jpg",
    "icongray": "https://steamcdn-a.akamaihd.net/steamcommunity/public/images/apps/538900/86e628f2720da3de09e7199a1833c910c0de5bdf.jpg"
  },
  {
    "name": "NEW_ACHIEVEMENT_L1",
    "defaultvalue": 0,
    "displayName": "Linkage Tier 1",
    "hidden": 0,
    "description": "Get 10 Sequences in a row",
    "icon": "https://steamcdn-a.akamaihd.net/steamcommunity/public/images/apps/538900/4f2849d7ecd55f01c15ac3c01c4820fdc8f8ca29.jpg",
    "icongray": "https://steamcdn-a.akamaihd.net/steamcommunity/public/images/apps/538900/5ddb5b3e59afc136e8bdf855fd0bc293988e6816.jpg"
  },
  {
    "name": "NEW_ACHIEVEMENT_L2",
    "defaultvalue": 0,
    "displayName": "Linkage Tier 2",
    "hidden": 0,
    "description": "Get 20 Sequences in a row",
    "icon": "https://steamcdn-a.akamaihd.net/steamcommunity/public/images/apps/538900/b5067829a5edca43d3dca2690a3cdb58e7842ff3.jpg",
    "icongray": "https://steamcdn-a.akamaihd.net/steamcommunity/public/images/apps/538900/95f5a6fb75d31fc4e4599a0fde21e538e6ebce1b.jpg"
  },
  {
    "name": "NEW_ACHIEVEMENT_L3",
    "defaultvalue": 0,
    "displayName": "Linkage Tier 3",
    "hidden": 0,
    "description": "Get 30 Sequences in a row",
    "icon": "https://steamcdn-a.akamaihd.net/steamcommunity/public/images/apps/538900/fcedfaf3c8d9b2aecfd391884bdac8b323ac1519.jpg",
    "icongray": "https://steamcdn-a.akamaihd.net/steamcommunity/public/images/apps/538900/3ee24ea9e66529b6abc2aa3016b6cd8656ef6145.jpg"
  },
  {
    "name": "NEW_ACHIEVEMENT_L4",
    "defaultvalue": 0,
    "displayName": "Linkage Tier 4",
    "hidden": 0,
    "description": "Get 40 Sequences in a row",
    "icon": "https://steamcdn-a.akamaihd.net/steamcommunity/public/images/apps/538900/035721c0232ae21bae9eab4d1a3de147a394ddfd.jpg",
    "icongray": "https://steamcdn-a.akamaihd.net/steamcommunity/public/images/apps/538900/074930eb99464cd5982d1e0e919eb38f9474d744.jpg"
  },
  {
    "name": "NEW_ACHIEVEMENT_M1",
    "defaultvalue": 0,
    "displayName": "Masochist Tier 1",
    "hidden": 0,
    "description": "Die 10 times",
    "icon": "https://steamcdn-a.akamaihd.net/steamcommunity/public/images/apps/538900/d327f857f5425e248438362a8427b46f37d0d2df.jpg",
    "icongray": "https://steamcdn-a.akamaihd.net/steamcommunity/public/images/apps/538900/dd7d2add1eb0ccddba5f6946a03d50ed7c86616b.jpg"
  },
  {
    "name": "NEW_ACHIEVEMENT_M2",
    "defaultvalue": 0,
    "displayName": "Masochist Tier 2",
    "hidden": 0,
    "description": "Die 50 times",
    "icon": "https://steamcdn-a.akamaihd.net/steamcommunity/public/images/apps/538900/8d65616d244363f2a7575fd0073aad5536da743b.jpg",
    "icongray": "https://steamcdn-a.akamaihd.net/steamcommunity/public/images/apps/538900/fbcaba4799083cf72516e44f39a741785adf0596.jpg"
  },
  {
    "name": "NEW_ACHIEVEMENT_M3",
    "defaultvalue": 0,
    "displayName": "Masochist Tier 3",
    "hidden": 0,
    "description": "Die 100 times",
    "icon": "https://steamcdn-a.akamaihd.net/steamcommunity/public/images/apps/538900/6e4dfcfbebe2908015cbcdee3d1d95f216672bc0.jpg",
    "icongray": "https://steamcdn-a.akamaihd.net/steamcommunity/public/images/apps/538900/a6f207954b74f0f51f5466aa9494250b61bf6f1c.jpg"
  },
  {
    "name": "NEW_ACHIEVEMENT_M4",
    "defaultvalue": 0,
    "displayName": "Masochist Tier 4",
    "hidden": 0,
    "description": "Die 200 Times",
    "icon": "https://steamcdn-a.akamaihd.net/steamcommunity/public/images/apps/538900/339d4a2e2cdab10c9cb332ab4031dd9ccdbe4252.jpg",
    "icongray": "https://steamcdn-a.akamaihd.net/steamcommunity/public/images/apps/538900/f53a02bf2e0121417bf57dd86d4c689f3abe64d8.jpg"
  },
  {
    "name": "NEW_ACHIEVEMENT_W1",
    "defaultvalue": 0,
    "displayName": "Wrecking Ball Tier 1",
    "hidden": 0,
    "description": "Destroy 10 polarity obstacles",
    "icon": "https://steamcdn-a.akamaihd.net/steamcommunity/public/images/apps/538900/40e37bd76a41c5feaa9d007f7fd69b43dbe5b8b1.jpg",
    "icongray": "https://steamcdn-a.akamaihd.net/steamcommunity/public/images/apps/538900/cd5b5a3844268547679e35f35524a92993891804.jpg"
  },
  {
    "name": "NEW_ACHIEVEMENT_W2",
    "defaultvalue": 0,
    "displayName": "Wrecking Ball Tier 2",
    "hidden": 0,
    "description": "Destroy 50 polarity obstacles",
    "icon": "https://steamcdn-a.akamaihd.net/steamcommunity/public/images/apps/538900/ff22b78a3d5040a26a378d7dc10946ccecaff714.jpg",
    "icongray": "https://steamcdn-a.akamaihd.net/steamcommunity/public/images/apps/538900/0cfe4b0e86f097858ed8463c83f2b9f801efabf9.jpg"
  },
  {
    "name": "NEW_ACHIEVEMENT_W3",
    "defaultvalue": 0,
    "displayName": "Wrecking Ball Tier 3",
    "hidden": 0,
    "description": "Destroy 100 polarity obstacles",
    "icon": "https://steamcdn-a.akamaihd.net/steamcommunity/public/images/apps/538900/d210f2d7cdd28177329783ef4813ef574ba2d1d8.jpg",
    "icongray": "https://steamcdn-a.akamaihd.net/steamcommunity/public/images/apps/538900/976ec61fe0667529012a79f644784a4c5d6ef68e.jpg"
  },
  {
    "name": "NEW_ACHIEVEMENT_W4",
    "defaultvalue": 0,
    "displayName": "Wrecking Ball Tier 4",
    "hidden": 0,
    "description": "Destroy 200 polarity obstacles",
    "icon": "https://steamcdn-a.akamaihd.net/steamcommunity/public/images/apps/538900/61dc81a57490a04b3f443b8a7e4fedaf87b9e130.jpg",
    "icongray": "https://steamcdn-a.akamaihd.net/steamcommunity/public/images/apps/538900/ac9da6fe6dc0eaaca2524c3dc9ea8607689edd02.jpg"
  },
  {
    "name": "NEW_ACHIEVEMENT_ZBN",
    "defaultvalue": 0,
    "displayName": "ZIQ Be Nimble",
    "hidden": 0,
    "description": "Clear the game without dying to a wall",
    "icon": "https://steamcdn-a.akamaihd.net/steamcommunity/public/images/apps/538900/a6e03f1122749c2a577d2588944153f2cf2b9aa4.jpg",
    "icongray": "https://steamcdn-a.akamaihd.net/steamcommunity/public/images/apps/538900/efd84557fdcf00c3c98b2d0e4c2dcfcaa7130739.jpg"
  },
  {
    "name": "NEW_ACHIEVEMENT_CB",
    "defaultvalue": 0,
    "displayName": "Colorblind",
    "hidden": 0,
    "description": "Die 100 times to a polarity obstacle",
    "icon": "https://steamcdn-a.akamaihd.net/steamcommunity/public/images/apps/538900/170403681a16e2f5043dfba3a6a7709a7d78177e.jpg",
    "icongray": "https://steamcdn-a.akamaihd.net/steamcommunity/public/images/apps/538900/9423639eb659a084a2613d2d9803d7fd7d054eaa.jpg"
  }
]