[
  {
    "name": "blop_1",
    "defaultvalue": 0,
    "displayName": "Welcome!",
    "hidden": 0,
    "description": "Gather 1 Blop!",
    "icon": "https://steamcdn-a.akamaihd.net/steamcommunity/public/images/apps/349270/73fc8062f685b60ebbdac4a118dd43d43b04c5fa.jpg",
    "icongray": "https://steamcdn-a.akamaihd.net/steamcommunity/public/images/apps/349270/b060370e0a371ce87436426d3c293d22a44651f2.jpg"
  },
  {
    "name": "blop_100",
    "defaultvalue": 0,
    "displayName": "One hundred!",
    "hidden": 0,
    "description": "Gather 100 Blops!",
    "icon": "https://steamcdn-a.akamaihd.net/steamcommunity/public/images/apps/349270/1809181385e156441ea970c5e169e3071fea98ba.jpg",
    "icongray": "https://steamcdn-a.akamaihd.net/steamcommunity/public/images/apps/349270/b060370e0a371ce87436426d3c293d22a44651f2.jpg"
  },
  {
    "name": "blop_1k",
    "defaultvalue": 0,
    "displayName": "One thousand!",
    "hidden": 0,
    "description": "Gather 1000 Blops!",
    "icon": "https://steamcdn-a.akamaihd.net/steamcommunity/public/images/apps/349270/08d8c7a29a20e3d2c35bda7b26d96b04734951a8.jpg",
    "icongray": "https://steamcdn-a.akamaihd.net/steamcommunity/public/images/apps/349270/b060370e0a371ce87436426d3c293d22a44651f2.jpg"
  },
  {
    "name": "blop_10k",
    "defaultvalue": 0,
    "displayName": "10 000",
    "hidden": 0,
    "description": "Gather 10.000 Blops!",
    "icon": "https://steamcdn-a.akamaihd.net/steamcommunity/public/images/apps/349270/cf8b0a10f9b63d0b5bf05fcc76bfca6c8eb849e2.jpg",
    "icongray": "https://steamcdn-a.akamaihd.net/steamcommunity/public/images/apps/349270/b060370e0a371ce87436426d3c293d22a44651f2.jpg"
  },
  {
    "name": "blop_100k",
    "defaultvalue": 0,
    "displayName": "100 000",
    "hidden": 0,
    "description": "Gather 100k Blops!",
    "icon": "https://steamcdn-a.akamaihd.net/steamcommunity/public/images/apps/349270/3e812dc0b8018bd1efa59dde0c599e7f2c56ebf8.jpg",
    "icongray": "https://steamcdn-a.akamaihd.net/steamcommunity/public/images/apps/349270/b060370e0a371ce87436426d3c293d22a44651f2.jpg"
  },
  {
    "name": "blop_1m",
    "defaultvalue": 0,
    "displayName": "One million!",
    "hidden": 0,
    "description": "Gather 1M Blops!",
    "icon": "https://steamcdn-a.akamaihd.net/steamcommunity/public/images/apps/349270/d81c0b1429434808b145aa5f370fc3855608073c.jpg",
    "icongray": "https://steamcdn-a.akamaihd.net/steamcommunity/public/images/apps/349270/b060370e0a371ce87436426d3c293d22a44651f2.jpg"
  },
  {
    "name": "blop_1b",
    "defaultvalue": 0,
    "displayName": "Billions!",
    "hidden": 0,
    "description": "Gather 1B Blops!",
    "icon": "https://steamcdn-a.akamaihd.net/steamcommunity/public/images/apps/349270/5147e0f7b531cdc7394b8e8734aef98973f07edc.jpg",
    "icongray": "https://steamcdn-a.akamaihd.net/steamcommunity/public/images/apps/349270/b060370e0a371ce87436426d3c293d22a44651f2.jpg"
  },
  {
    "name": "blop_1t",
    "defaultvalue": 0,
    "displayName": "Too many zeros!!!",
    "hidden": 0,
    "description": "Gather 1T Blops!",
    "icon": "https://steamcdn-a.akamaihd.net/steamcommunity/public/images/apps/349270/3a10ec3f6857dbd61590b9ba89fdbc0106f3b8f0.jpg",
    "icongray": "https://steamcdn-a.akamaihd.net/steamcommunity/public/images/apps/349270/b060370e0a371ce87436426d3c293d22a44651f2.jpg"
  },
  {
    "name": "level_2",
    "defaultvalue": 0,
    "displayName": "Next level!",
    "hidden": 0,
    "description": "Reach level 2",
    "icon": "https://steamcdn-a.akamaihd.net/steamcommunity/public/images/apps/349270/5b2961f252fa00bfbfdd3b22fecaaa28b7520b1d.jpg",
    "icongray": "https://steamcdn-a.akamaihd.net/steamcommunity/public/images/apps/349270/b060370e0a371ce87436426d3c293d22a44651f2.jpg"
  },
  {
    "name": "level_10",
    "defaultvalue": 0,
    "displayName": "Level 10",
    "hidden": 0,
    "description": "Reach level 10",
    "icon": "https://steamcdn-a.akamaihd.net/steamcommunity/public/images/apps/349270/14d43513db0852e99e8cec7aa0b8d1ddff6711dc.jpg",
    "icongray": "https://steamcdn-a.akamaihd.net/steamcommunity/public/images/apps/349270/b060370e0a371ce87436426d3c293d22a44651f2.jpg"
  },
  {
    "name": "level_25",
    "defaultvalue": 0,
    "displayName": "Level 25",
    "hidden": 0,
    "description": "Reach level 25",
    "icon": "https://steamcdn-a.akamaihd.net/steamcommunity/public/images/apps/349270/10683cb12b93d302f0b88cc4c5742893d73d6345.jpg",
    "icongray": "https://steamcdn-a.akamaihd.net/steamcommunity/public/images/apps/349270/b060370e0a371ce87436426d3c293d22a44651f2.jpg"
  },
  {
    "name": "level_50",
    "defaultvalue": 0,
    "displayName": "Major Blip!",
    "hidden": 0,
    "description": "Reach level 50",
    "icon": "https://steamcdn-a.akamaihd.net/steamcommunity/public/images/apps/349270/bb95511c8cba8a5eb3c680f3a369a94be2b5ab2f.jpg",
    "icongray": "https://steamcdn-a.akamaihd.net/steamcommunity/public/images/apps/349270/b060370e0a371ce87436426d3c293d22a44651f2.jpg"
  },
  {
    "name": "level_75",
    "defaultvalue": 0,
    "displayName": "General Blopper, Sir!",
    "hidden": 0,
    "description": "Reach level 75",
    "icon": "https://steamcdn-a.akamaihd.net/steamcommunity/public/images/apps/349270/2ffca7828eb0975e88c32584f67aae447fa5e437.jpg",
    "icongray": "https://steamcdn-a.akamaihd.net/steamcommunity/public/images/apps/349270/b060370e0a371ce87436426d3c293d22a44651f2.jpg"
  },
  {
    "name": "prestige_1",
    "defaultvalue": 0,
    "displayName": "Prestige!",
    "hidden": 0,
    "description": "Prestige once!",
    "icon": "https://steamcdn-a.akamaihd.net/steamcommunity/public/images/apps/349270/30efd7508c20257bd8ba4ea69f7b9ddb26fc3dcf.jpg",
    "icongray": "https://steamcdn-a.akamaihd.net/steamcommunity/public/images/apps/349270/b060370e0a371ce87436426d3c293d22a44651f2.jpg"
  },
  {
    "name": "prestige_5",
    "defaultvalue": 0,
    "displayName": "Power Prestige!",
    "hidden": 0,
    "description": "Prestige five times!",
    "icon": "https://steamcdn-a.akamaihd.net/steamcommunity/public/images/apps/349270/01c45558e3acb52504ff29ce8137ff3618193d31.jpg",
    "icongray": "https://steamcdn-a.akamaihd.net/steamcommunity/public/images/apps/349270/b060370e0a371ce87436426d3c293d22a44651f2.jpg"
  },
  {
    "name": "prestige_10",
    "defaultvalue": 0,
    "displayName": "Prestigelicious!",
    "hidden": 0,
    "description": "Prestige ten times!",
    "icon": "https://steamcdn-a.akamaihd.net/steamcommunity/public/images/apps/349270/aaad989816c7a4e9d4f435e268eb0a9ab89d99c2.jpg",
    "icongray": "https://steamcdn-a.akamaihd.net/steamcommunity/public/images/apps/349270/dda2a0e2cf6f579d8edd489c2a0fcf68ef4bd868.jpg"
  },
  {
    "name": "blip_x2",
    "defaultvalue": 0,
    "displayName": "Blip x2",
    "hidden": 0,
    "description": "Upgrade Blip button to level 2",
    "icon": "https://steamcdn-a.akamaihd.net/steamcommunity/public/images/apps/349270/ab7bbfa83bba4977ab2af78ffe77cddb57783296.jpg",
    "icongray": "https://steamcdn-a.akamaihd.net/steamcommunity/public/images/apps/349270/b060370e0a371ce87436426d3c293d22a44651f2.jpg"
  },
  {
    "name": "blip_x10",
    "defaultvalue": 0,
    "displayName": "Megablip",
    "hidden": 0,
    "description": "Upgrade Blip button to level 10",
    "icon": "https://steamcdn-a.akamaihd.net/steamcommunity/public/images/apps/349270/eeab29224f8b63515b02074baa72c114f10983d6.jpg",
    "icongray": "https://steamcdn-a.akamaihd.net/steamcommunity/public/images/apps/349270/b060370e0a371ce87436426d3c293d22a44651f2.jpg"
  },
  {
    "name": "autoblip_speed_10",
    "defaultvalue": 0,
    "displayName": "Megaspeed",
    "hidden": 0,
    "description": "Upgrade Autoblip speed to level 10",
    "icon": "https://steamcdn-a.akamaihd.net/steamcommunity/public/images/apps/349270/181b30374065a00c7b5a9039198fa7546b0df21a.jpg",
    "icongray": "https://steamcdn-a.akamaihd.net/steamcommunity/public/images/apps/349270/b060370e0a371ce87436426d3c293d22a44651f2.jpg"
  },
  {
    "name": "autoblip",
    "defaultvalue": 0,
    "displayName": "Automation",
    "hidden": 0,
    "description": "Unlock Autoblip and BlipVault",
    "icon": "https://steamcdn-a.akamaihd.net/steamcommunity/public/images/apps/349270/1af8f834ae5d0a4f7b7839daeb9926a2a94d1d93.jpg",
    "icongray": "https://steamcdn-a.akamaihd.net/steamcommunity/public/images/apps/349270/b060370e0a371ce87436426d3c293d22a44651f2.jpg"
  },
  {
    "name": "blipvault_10",
    "defaultvalue": 0,
    "displayName": "Hidden Capital",
    "hidden": 0,
    "description": "Upgrade BlipVault to level 10",
    "icon": "https://steamcdn-a.akamaihd.net/steamcommunity/public/images/apps/349270/1e3b8e54c813b285b3ddd9dba94ad8c546e87c9b.jpg",
    "icongray": "https://steamcdn-a.akamaihd.net/steamcommunity/public/images/apps/349270/b060370e0a371ce87436426d3c293d22a44651f2.jpg"
  },
  {
    "name": "dedicated",
    "defaultvalue": 0,
    "displayName": "Dedicated",
    "hidden": 0,
    "description": "Blip for 1 hour continuously",
    "icon": "https://steamcdn-a.akamaihd.net/steamcommunity/public/images/apps/349270/dd2867ee8b1c48d8bf6bb284b7e739cc83bbf2f3.jpg",
    "icongray": "https://steamcdn-a.akamaihd.net/steamcommunity/public/images/apps/349270/b060370e0a371ce87436426d3c293d22a44651f2.jpg"
  },
  {
    "name": "frenzy",
    "defaultvalue": 0,
    "displayName": "Frenzy",
    "hidden": 0,
    "description": "Collect more than 100k blops in under 1 minute",
    "icon": "https://steamcdn-a.akamaihd.net/steamcommunity/public/images/apps/349270/8750df9659a1930d33e5be32a6d2b7003a3b7bd0.jpg",
    "icongray": "https://steamcdn-a.akamaihd.net/steamcommunity/public/images/apps/349270/b060370e0a371ce87436426d3c293d22a44651f2.jpg"
  },
  {
    "name": "investor",
    "defaultvalue": 0,
    "displayName": "Investor",
    "hidden": 0,
    "description": "Spend more than 10k blops in under 1 minute",
    "icon": "https://steamcdn-a.akamaihd.net/steamcommunity/public/images/apps/349270/b4cfca630aa9358cce3ca079e4f4a7fa2fe7e690.jpg",
    "icongray": "https://steamcdn-a.akamaihd.net/steamcommunity/public/images/apps/349270/b060370e0a371ce87436426d3c293d22a44651f2.jpg"
  },
  {
    "name": "highrisk",
    "defaultvalue": 0,
    "displayName": "High risk investment",
    "hidden": 0,
    "description": "Spend more than 100k blops in under 1 minute",
    "icon": "https://steamcdn-a.akamaihd.net/steamcommunity/public/images/apps/349270/8e021ec2e9c3c5d1cf25327b6629d7f07312ed2e.jpg",
    "icongray": "https://steamcdn-a.akamaihd.net/steamcommunity/public/images/apps/349270/b060370e0a371ce87436426d3c293d22a44651f2.jpg"
  },
  {
    "name": "hoarder",
    "defaultvalue": 0,
    "displayName": "Hoarder",
    "hidden": 0,
    "description": "Keep full vault for more than ten minutes of continuous play",
    "icon": "https://steamcdn-a.akamaihd.net/steamcommunity/public/images/apps/349270/3b522c32587deff23837f0fcb01cbe209d65602c.jpg",
    "icongray": "https://steamcdn-a.akamaihd.net/steamcommunity/public/images/apps/349270/dda2a0e2cf6f579d8edd489c2a0fcf68ef4bd868.jpg"
  },
  {
    "name": "blip_x11",
    "defaultvalue": 0,
    "displayName": "It goes to 11",
    "hidden": 0,
    "description": "Upgrade Blip-button to level 11",
    "icon": "https://steamcdn-a.akamaihd.net/steamcommunity/public/images/apps/349270/653f3f2788d9ae734d11529ca7c745b9c1ccf97f.jpg",
    "icongray": "https://steamcdn-a.akamaihd.net/steamcommunity/public/images/apps/349270/b060370e0a371ce87436426d3c293d22a44651f2.jpg"
  },
  {
    "name": "blip_x12",
    "defaultvalue": 0,
    "displayName": "It goes beyond 11",
    "hidden": 0,
    "description": "Upgrade Blip-button to level 12",
    "icon": "https://steamcdn-a.akamaihd.net/steamcommunity/public/images/apps/349270/676e64971d6cc3a95d3902972b4e274dd275dc78.jpg",
    "icongray": "https://steamcdn-a.akamaihd.net/steamcommunity/public/images/apps/349270/b060370e0a371ce87436426d3c293d22a44651f2.jpg"
  }
]