[
  {
    "name": "Achievement_1",
    "defaultvalue": 0,
    "displayName": "Man Up (In Development)",
    "hidden": 0,
    "description": "Took Responsibility",
    "icon": "https://steamcdn-a.akamaihd.net/steamcommunity/public/images/apps/515010/ab82945766d9570d15800544d092776bef9369f6.jpg",
    "icongray": "https://steamcdn-a.akamaihd.net/steamcommunity/public/images/apps/515010/78b65f2902365052c36aa2fce3fe81c68f50c04b.jpg"
  }
]