{
  "Dlcs": {},
  "Name": "I Wanna Build a Robot",
  "AppId": "1337210",
  "ImageUrl": "https://steamcdn-a.akamaihd.net/steam/apps/1337210/header.jpg?t=1593419008",
  "Languages": [
    "english"
  ],
  "Platforms": {
    "windows": true,
    "mac": true,
    "linux": false
  }
}