[
  {
    "name": "stat_Kcoins",
    "defaultvalue": 0,
    "displayName": "Coins"
  },
  {
    "name": "stat_Srecord",
    "defaultvalue": 0,
    "displayName": "Survival Record"
  },
  {
    "name": "stat_Gameplayed",
    "defaultvalue": 0,
    "displayName": "Games Played"
  },
  {
    "name": "stat_Gameswon",
    "defaultvalue": 0,
    "displayName": "Games Won"
  },
  {
    "name": "stat_Timedominating",
    "defaultvalue": 0,
    "displayName": "Time Dominating"
  },
  {
    "name": "stat_Timedominated",
    "defaultvalue": 0,
    "displayName": "Time Dominated"
  },
  {
    "name": "stat_Kscore",
    "defaultvalue": 0,
    "displayName": "Kinky Score"
  },
  {
    "name": "stat_Winweak",
    "defaultvalue": 0,
    "displayName": "Wins by weakness"
  },
  {
    "name": "stat_FFstat",
    "defaultvalue": 0,
    "displayName": "FxF Matches"
  },
  {
    "name": "stat_MMstat",
    "defaultvalue": 0,
    "displayName": "MxM Matches"
  },
  {
    "name": "stat_MFstat",
    "defaultvalue": 0,
    "displayName": "MxF Matches"
  },
  {
    "name": "stat_Signature",
    "defaultvalue": 0,
    "displayName": "Wins  by Signature Move"
  }
]