{
  "Dlcs": {},
  "Name": "Usurper",
  "AppId": "1420510",
  "ImageUrl": "https://steamcdn-a.akamaihd.net/steam/apps/1420510/header.jpg?t=1600849600",
  "Languages": [
    "english"
  ],
  "Platforms": {
    "windows": true,
    "mac": false,
    "linux": false
  }
}