﻿[
  {
    "name": "MINIGAME00",
    "defaultvalue": 0,
    "displayName": "Radioman",
    "hidden": 0,
    "description": "Configure the receiver for the desired radio frequencies",
    "icon": "https://steamcdn-a.akamaihd.net/steamcommunity/public/images/apps/558490/163731ab1e3e33b4c0684e46c7edceed2bd4fe8e.jpg",
    "icongray": "https://steamcdn-a.akamaihd.net/steamcommunity/public/images/apps/558490/83bcdb5b09db8e81cb8b3a53652cf7be591b5c27.jpg"
  },
  {
    "name": "MINIGAME01",
    "defaultvalue": 0,
    "displayName": "Burglar",
    "hidden": 0,
    "description": "Open the secret mechanism",
    "icon": "https://steamcdn-a.akamaihd.net/steamcommunity/public/images/apps/558490/d8b6e1d3cac236f4b56232f50e43dd9c121f0527.jpg",
    "icongray": "https://steamcdn-a.akamaihd.net/steamcommunity/public/images/apps/558490/4b7cf08c2038f47a14f0ed580956dc705aa657c0.jpg"
  },
  {
    "name": "MINIGAME02",
    "defaultvalue": 0,
    "displayName": "Electrician",
    "hidden": 0,
    "description": "Complete the game with the electric wires",
    "icon": "https://steamcdn-a.akamaihd.net/steamcommunity/public/images/apps/558490/07e2d77d06ebfcacfb3a6afa0e4f32a69fff4f81.jpg",
    "icongray": "https://steamcdn-a.akamaihd.net/steamcommunity/public/images/apps/558490/2837048b54a7ff7bcd9ecc5bec1741fa69f96217.jpg"
  },
  {
    "name": "MINIGAME03",
    "defaultvalue": 0,
    "displayName": "Watchmaker",
    "hidden": 0,
    "description": "Unravel the secret of the clock",
    "icon": "https://steamcdn-a.akamaihd.net/steamcommunity/public/images/apps/558490/45370a5ff436a0a14e57cbe9afb871beaa67f4ec.jpg",
    "icongray": "https://steamcdn-a.akamaihd.net/steamcommunity/public/images/apps/558490/abd11c4891badc11e2a3068b35c80ce9e8855bd8.jpg"
  },
  {
    "name": "MINIGAME04",
    "defaultvalue": 0,
    "displayName": "Keeper of the keys",
    "hidden": 0,
    "description": "Find the key of room 22",
    "icon": "https://steamcdn-a.akamaihd.net/steamcommunity/public/images/apps/558490/183f59c7945d1c62e1d93d768954ba5afd075731.jpg",
    "icongray": "https://steamcdn-a.akamaihd.net/steamcommunity/public/images/apps/558490/cf8f0281fcc27a1aaea67f29a758efabb8f06dba.jpg"
  },
  {
    "name": "MINIGAME05",
    "defaultvalue": 0,
    "displayName": "Сat rescuer",
    "hidden": 0,
    "description": "Free the cat out of the box",
    "icon": "https://steamcdn-a.akamaihd.net/steamcommunity/public/images/apps/558490/2643d83805cc59fd511e5f2321e824927fa3b631.jpg",
    "icongray": "https://steamcdn-a.akamaihd.net/steamcommunity/public/images/apps/558490/353b9fefb35b51add448c65c301f797dedf8220e.jpg"
  },
  {
    "name": "MINIGAME06",
    "defaultvalue": 0,
    "displayName": "Safecracker",
    "hidden": 0,
    "description": "Hack in the hotel safe",
    "icon": "https://steamcdn-a.akamaihd.net/steamcommunity/public/images/apps/558490/0689a51000247e003d62fb0d6aef87e47470e3df.jpg",
    "icongray": "https://steamcdn-a.akamaihd.net/steamcommunity/public/images/apps/558490/5769de2405d5b6c0775524e4dc2677106cf6c2ad.jpg"
  },
  {
    "name": "MINIGAME07",
    "defaultvalue": 0,
    "displayName": "Connoisseur of Painting",
    "hidden": 0,
    "description": "Restore the old picture",
    "icon": "https://steamcdn-a.akamaihd.net/steamcommunity/public/images/apps/558490/4074743de62d595990a637bbe72870d8f3859876.jpg",
    "icongray": "https://steamcdn-a.akamaihd.net/steamcommunity/public/images/apps/558490/0ff5bbd04c9ae93fb64b1739cf9b14c49b2b553c.jpg"
  },
  {
    "name": "MINIGAME08",
    "defaultvalue": 0,
    "displayName": "Wachter",
    "hidden": 0,
    "description": "Turn on the switches in the correct sequence to open the doors.",
    "icon": "https://steamcdn-a.akamaihd.net/steamcommunity/public/images/apps/558490/080dc511e34b6fb25612c3695560ea3585745331.jpg",
    "icongray": "https://steamcdn-a.akamaihd.net/steamcommunity/public/images/apps/558490/74aec4ddfad77bb99d865c25891db4939b009178.jpg"
  },
  {
    "name": "MINIGAME09",
    "defaultvalue": 0,
    "displayName": "Firefighter",
    "hidden": 0,
    "description": "Solve the issue with the fire system",
    "icon": "https://steamcdn-a.akamaihd.net/steamcommunity/public/images/apps/558490/83f74dd32fe24b6995bf75746ff05a20e0969a75.jpg",
    "icongray": "https://steamcdn-a.akamaihd.net/steamcommunity/public/images/apps/558490/31da52f1ab6c2e11cf1a9beca80f41d7bdeda418.jpg"
  },
  {
    "name": "MINIGAME10",
    "defaultvalue": 0,
    "displayName": "Pharmacist",
    "hidden": 0,
    "description": "Prepare the medicine according to the recipe",
    "icon": "https://steamcdn-a.akamaihd.net/steamcommunity/public/images/apps/558490/1d05f4789a9248203a7e4d91398c82498c985a4a.jpg",
    "icongray": "https://steamcdn-a.akamaihd.net/steamcommunity/public/images/apps/558490/f91d8f52534ab37f5e0a00bfb34e9c900d46bb45.jpg"
  },
  {
    "name": "MINIGAME11",
    "defaultvalue": 0,
    "displayName": "Radiologist",
    "hidden": 0,
    "description": "Set up an X-ray machine and take a picture",
    "icon": "https://steamcdn-a.akamaihd.net/steamcommunity/public/images/apps/558490/5c457d6882a4bb2dff99e188ab3bacc74788cd10.jpg",
    "icongray": "https://steamcdn-a.akamaihd.net/steamcommunity/public/images/apps/558490/1e38c1b8e5d327721bab8615d93f3529707c4649.jpg"
  },
  {
    "name": "MINIGAME12",
    "defaultvalue": 0,
    "displayName": "Detective",
    "hidden": 0,
    "description": "Collect the pieces of the old photo",
    "icon": "https://steamcdn-a.akamaihd.net/steamcommunity/public/images/apps/558490/2040116e590f7c3a3bbb60e4497ec7513c6c50b8.jpg",
    "icongray": "https://steamcdn-a.akamaihd.net/steamcommunity/public/images/apps/558490/5d94b1c2f7ec61038e881bf81be8a5b13b61f489.jpg"
  },
  {
    "name": "MINIGAME13",
    "defaultvalue": 0,
    "displayName": "Seeker",
    "hidden": 0,
    "description": "Collect items and open the cache",
    "icon": "https://steamcdn-a.akamaihd.net/steamcommunity/public/images/apps/558490/9ec01cb4eb07050e651955efa1746465f8b2d219.jpg",
    "icongray": "https://steamcdn-a.akamaihd.net/steamcommunity/public/images/apps/558490/1c44d7234ba5e88cbccbeeb3bdb8136a763503a2.jpg"
  },
  {
    "name": "MINIGAME14",
    "defaultvalue": 0,
    "displayName": "Graphic burglar",
    "hidden": 0,
    "description": "Open the safe and get the diary",
    "icon": "https://steamcdn-a.akamaihd.net/steamcommunity/public/images/apps/558490/8eea4f358c5d1cd31674e5dfb44d6a1668a3fe3b.jpg",
    "icongray": "https://steamcdn-a.akamaihd.net/steamcommunity/public/images/apps/558490/7982871dd2b769afb1fcb14bd4a0bc3b9f27b840.jpg"
  },
  {
    "name": "MINIGAME15",
    "defaultvalue": 0,
    "displayName": "Mechanic",
    "hidden": 0,
    "description": "Fix the lighting mechanism in the lighthouse",
    "icon": "https://steamcdn-a.akamaihd.net/steamcommunity/public/images/apps/558490/ed776882b9c021fa1772fabc084dbbbc898c845c.jpg",
    "icongray": "https://steamcdn-a.akamaihd.net/steamcommunity/public/images/apps/558490/0b55941b133e16f7dfe9e3514c52558b3aea732e.jpg"
  },
  {
    "name": "MINIGAME16",
    "defaultvalue": 0,
    "displayName": "Archaeologist",
    "hidden": 0,
    "description": "Explore and decipher symbols on the statue",
    "icon": "https://steamcdn-a.akamaihd.net/steamcommunity/public/images/apps/558490/7a2aacab59b7c56b6af1c7e5509e668daed659fc.jpg",
    "icongray": "https://steamcdn-a.akamaihd.net/steamcommunity/public/images/apps/558490/a446b93f5722fc9f97c3d8fca7d8693c738b0be2.jpg"
  },
  {
    "name": "MINIGAME17",
    "defaultvalue": 0,
    "displayName": "Tomb raider",
    "hidden": 0,
    "description": "Arrange all the elements by their colors, three in a row",
    "icon": "https://steamcdn-a.akamaihd.net/steamcommunity/public/images/apps/558490/a5849a18b7b1dc3093fcd37fb5b104c87a5546ec.jpg",
    "icongray": "https://steamcdn-a.akamaihd.net/steamcommunity/public/images/apps/558490/c3c3a2e9689f7272048d9fe8e80233b7351c3c29.jpg"
  },
  {
    "name": "MINIGAME18",
    "defaultvalue": 0,
    "displayName": "Pathfinder",
    "hidden": 0,
    "description": "Uncover the stone cipher to open the passage",
    "icon": "https://steamcdn-a.akamaihd.net/steamcommunity/public/images/apps/558490/0add0d88d248acace29e9ad4c9ba20f69d1738a4.jpg",
    "icongray": "https://steamcdn-a.akamaihd.net/steamcommunity/public/images/apps/558490/bc42ade4263b220911c02e5f9ca24d9deadb00ea.jpg"
  },
  {
    "name": "MINIGAME19",
    "defaultvalue": 0,
    "displayName": "Gambler",
    "hidden": 0,
    "description": "Win the opponent in the card game",
    "icon": "https://steamcdn-a.akamaihd.net/steamcommunity/public/images/apps/558490/40d15561247f4ba1eedf1734f7178ac8bc0b73db.jpg",
    "icongray": "https://steamcdn-a.akamaihd.net/steamcommunity/public/images/apps/558490/4b7d7cac82c8058f124e4192604249de7b086ca5.jpg"
  },
  {
    "name": "CHAPTER00",
    "defaultvalue": 0,
    "displayName": "Airplane",
    "hidden": 0,
    "description": "Get out of the plane",
    "icon": "https://steamcdn-a.akamaihd.net/steamcommunity/public/images/apps/558490/b29fd2fdc43e8df6977faf1c0760c8054797a4a0.jpg",
    "icongray": "https://steamcdn-a.akamaihd.net/steamcommunity/public/images/apps/558490/a89a59c0ef263cbf3dd469a875f9db5d9e6c7c7b.jpg"
  },
  {
    "name": "CHAPTER01",
    "defaultvalue": 0,
    "displayName": "Hotel ",
    "hidden": 0,
    "description": "Find room 22",
    "icon": "https://steamcdn-a.akamaihd.net/steamcommunity/public/images/apps/558490/067f28f7974b12d8a70a65423fbf50a1263baff1.jpg",
    "icongray": "https://steamcdn-a.akamaihd.net/steamcommunity/public/images/apps/558490/3609cfea1b2daf059cea78119760ecf8f484c094.jpg"
  },
  {
    "name": "CHAPTER02",
    "defaultvalue": 0,
    "displayName": "Hospital ",
    "hidden": 0,
    "description": "Find Anna's room",
    "icon": "https://steamcdn-a.akamaihd.net/steamcommunity/public/images/apps/558490/26451b9550b925cb0541097cf4bc50cb9ee558e1.jpg",
    "icongray": "https://steamcdn-a.akamaihd.net/steamcommunity/public/images/apps/558490/fcb4110825693909a92b5e11b8590bd7c0dadfba.jpg"
  },
  {
    "name": "CHAPTER03",
    "defaultvalue": 0,
    "displayName": "Lighthouse ",
    "hidden": 0,
    "description": "Repair the transmitter",
    "icon": "https://steamcdn-a.akamaihd.net/steamcommunity/public/images/apps/558490/e705a73d7fa415db074f1e63548d0f6fceac10da.jpg",
    "icongray": "https://steamcdn-a.akamaihd.net/steamcommunity/public/images/apps/558490/c8bdb055866d00208cb5d8ce043ed20ff57fd477.jpg"
  },
  {
    "name": "CHAPTER04",
    "defaultvalue": 0,
    "displayName": "Church",
    "hidden": 0,
    "description": "Banish the demon",
    "icon": "https://steamcdn-a.akamaihd.net/steamcommunity/public/images/apps/558490/ee08ce5375918d047b8c4689f82bae1de5eefd9b.jpg",
    "icongray": "https://steamcdn-a.akamaihd.net/steamcommunity/public/images/apps/558490/9d5363ef1c9816894ec47ad0c0a1e71c079ed67e.jpg"
  }
]