[
  {
    "name": "squash",
    "defaultvalue": 0,
    "displayName": ""
  },
  {
    "name": "smash",
    "defaultvalue": 0,
    "displayName": ""
  },
  {
    "name": "drop",
    "defaultvalue": 0,
    "displayName": ""
  },
  {
    "name": "fry",
    "defaultvalue": 0,
    "displayName": ""
  },
  {
    "name": "drown",
    "defaultvalue": 0,
    "displayName": ""
  },
  {
    "name": "run",
    "defaultvalue": 0,
    "displayName": ""
  },
  {
    "name": "swim",
    "defaultvalue": 0,
    "displayName": ""
  },
  {
    "name": "hoard",
    "defaultvalue": 0,
    "displayName": ""
  },
  {
    "name": "master",
    "defaultvalue": 0,
    "displayName": ""
  },
  {
    "name": "1up",
    "defaultvalue": 0,
    "displayName": ""
  },
  {
    "name": "bonus",
    "defaultvalue": 0,
    "displayName": ""
  },
  {
    "name": "coop",
    "defaultvalue": 0,
    "displayName": ""
  },
  {
    "name": "legend",
    "defaultvalue": 0,
    "displayName": ""
  },
  {
    "name": "vs",
    "defaultvalue": 0,
    "displayName": ""
  },
  {
    "name": "searcher",
    "defaultvalue": 0,
    "displayName": ""
  },
  {
    "name": "shnut",
    "defaultvalue": 0,
    "displayName": ""
  },
  {
    "name": "sharer",
    "defaultvalue": 0,
    "displayName": ""
  },
  {
    "name": "designer",
    "defaultvalue": 0,
    "displayName": ""
  },
  {
    "name": "smashy",
    "defaultvalue": 0,
    "displayName": ""
  },
  {
    "name": "suicide",
    "defaultvalue": 0,
    "displayName": ""
  }
]