[
  {
    "name": "ach_die_1",
    "defaultvalue": 0,
    "displayName": "First death",
    "hidden": 0,
    "description": "Die the first time",
    "icon": "https://steamcdn-a.akamaihd.net/steamcommunity/public/images/apps/780800/ab24a9e7d4cdc3917e153266cbafe2888812c62d.jpg",
    "icongray": "https://steamcdn-a.akamaihd.net/steamcommunity/public/images/apps/780800/32e92a3bd5fc5c102e16d21c7e76152c979fc356.jpg"
  },
  {
    "name": "ach_die_10",
    "defaultvalue": 0,
    "displayName": "10 Deaths",
    "hidden": 0,
    "description": "Die 10 times",
    "icon": "https://steamcdn-a.akamaihd.net/steamcommunity/public/images/apps/780800/a671960a011926b04786d3bad4d434a422a2ba5b.jpg",
    "icongray": "https://steamcdn-a.akamaihd.net/steamcommunity/public/images/apps/780800/3a3b779edd93b4fd1b719d686c452085540278f3.jpg"
  },
  {
    "name": "ach_die_20",
    "defaultvalue": 0,
    "displayName": "20 Deaths",
    "hidden": 0,
    "description": "Die 20 times",
    "icon": "https://steamcdn-a.akamaihd.net/steamcommunity/public/images/apps/780800/70fdf625270b4f1aee84451a7d71b79963689dce.jpg",
    "icongray": "https://steamcdn-a.akamaihd.net/steamcommunity/public/images/apps/780800/0240299e054fd6c750c2128307b2f111ade95974.jpg"
  },
  {
    "name": "ach_die_50",
    "defaultvalue": 0,
    "displayName": "50 Deaths",
    "hidden": 0,
    "description": "Die 50 times",
    "icon": "https://steamcdn-a.akamaihd.net/steamcommunity/public/images/apps/780800/7088c1784798b8f36ea74549237bf6dde115c621.jpg",
    "icongray": "https://steamcdn-a.akamaihd.net/steamcommunity/public/images/apps/780800/eabc61ab578d506cea18cc7739a209df977ca653.jpg"
  },
  {
    "name": "ach_die_100",
    "defaultvalue": 0,
    "displayName": "100 Deaths",
    "hidden": 0,
    "description": "Die 100 times",
    "icon": "https://steamcdn-a.akamaihd.net/steamcommunity/public/images/apps/780800/bb30e1d2290ca595fd263e0312ebf0135bc7dd59.jpg",
    "icongray": "https://steamcdn-a.akamaihd.net/steamcommunity/public/images/apps/780800/f3fbd392db3b48b13cfea52a40b0df799aadec61.jpg"
  },
  {
    "name": "ach_die_200",
    "defaultvalue": 0,
    "displayName": "200 Deaths",
    "hidden": 0,
    "description": "Die 200 times",
    "icon": "https://steamcdn-a.akamaihd.net/steamcommunity/public/images/apps/780800/d7dbfd5d2e8ef41b92acddbf7db16d52d9acf8ab.jpg",
    "icongray": "https://steamcdn-a.akamaihd.net/steamcommunity/public/images/apps/780800/b76db2b91713303d4016f29ea5dd1acf35d644b8.jpg"
  },
  {
    "name": "ach_die_500",
    "defaultvalue": 0,
    "displayName": "500 Deaths",
    "hidden": 0,
    "description": "Die 500 times",
    "icon": "https://steamcdn-a.akamaihd.net/steamcommunity/public/images/apps/780800/6db8fb3dff5a8ffac01470b31542a7f85dca1777.jpg",
    "icongray": "https://steamcdn-a.akamaihd.net/steamcommunity/public/images/apps/780800/c2580d28cb03e5398255ec6e918ea5b30f3677cf.jpg"
  },
  {
    "name": "ach_die_1000",
    "defaultvalue": 0,
    "displayName": "1000 Deaths",
    "hidden": 0,
    "description": "Die 1000 times",
    "icon": "https://steamcdn-a.akamaihd.net/steamcommunity/public/images/apps/780800/c1a1fc9e2aa13f70d4fa749767dde2e57d6f8e83.jpg",
    "icongray": "https://steamcdn-a.akamaihd.net/steamcommunity/public/images/apps/780800/1cfdf85e3d70bc2e0491342ac104c04bd2f24181.jpg"
  },
  {
    "name": "ach_die_2000",
    "defaultvalue": 0,
    "displayName": "2000 Deaths",
    "hidden": 0,
    "description": "Die 2000 times",
    "icon": "https://steamcdn-a.akamaihd.net/steamcommunity/public/images/apps/780800/f67161ebdebc901a5d92f956c49baf30cbacca5d.jpg",
    "icongray": "https://steamcdn-a.akamaihd.net/steamcommunity/public/images/apps/780800/d37f90d59abb133b44d3be710bbcf4ed0ba46497.jpg"
  },
  {
    "name": "ach_die_many",
    "defaultvalue": 0,
    "displayName": "Why so much?",
    "hidden": 0,
    "description": "Die many times",
    "icon": "https://steamcdn-a.akamaihd.net/steamcommunity/public/images/apps/780800/d84f3e625290c9e022b4bf60b4adab2b9f398824.jpg",
    "icongray": "https://steamcdn-a.akamaihd.net/steamcommunity/public/images/apps/780800/b7c27d979edc3261c97bdfe8d7baa36a2e763e0b.jpg"
  },
  {
    "name": "ach_lvl_1",
    "defaultvalue": 0,
    "displayName": "Start",
    "hidden": 0,
    "description": "Complete level 1",
    "icon": "https://steamcdn-a.akamaihd.net/steamcommunity/public/images/apps/780800/931d173d9810f70e0f83b4652e53e1ef9f8ca25c.jpg",
    "icongray": "https://steamcdn-a.akamaihd.net/steamcommunity/public/images/apps/780800/b3d3fc57be3fcdd68bbac6728c086dba25dafced.jpg"
  },
  {
    "name": "ach_lvl_10",
    "defaultvalue": 0,
    "displayName": "Not bad",
    "hidden": 0,
    "description": "Complete 10 levels",
    "icon": "https://steamcdn-a.akamaihd.net/steamcommunity/public/images/apps/780800/9f07c4d7a18dc83b8fb427d87d00dd4925dcebb8.jpg",
    "icongray": "https://steamcdn-a.akamaihd.net/steamcommunity/public/images/apps/780800/77cfdade2591b3db5591b7c7e477c52e65b0e740.jpg"
  },
  {
    "name": "ach_lvl_20",
    "defaultvalue": 0,
    "displayName": "You can",
    "hidden": 0,
    "description": "Complete 20 levels",
    "icon": "https://steamcdn-a.akamaihd.net/steamcommunity/public/images/apps/780800/4b4b14ba9ce7630eb6d2a19035e0f6c5e8a64939.jpg",
    "icongray": "https://steamcdn-a.akamaihd.net/steamcommunity/public/images/apps/780800/2c4abe808d10f54f5829572d580cf75494330fda.jpg"
  },
  {
    "name": "ach_lvl_30",
    "defaultvalue": 0,
    "displayName": "You have not closed the game yet?",
    "hidden": 0,
    "description": "Complete 30 levels",
    "icon": "https://steamcdn-a.akamaihd.net/steamcommunity/public/images/apps/780800/6efc1a80e6a0af4e591be6ca708f6d573ce2a4e8.jpg",
    "icongray": "https://steamcdn-a.akamaihd.net/steamcommunity/public/images/apps/780800/793dc1b9f0310ba9d02fc54dde038fc9697da789.jpg"
  },
  {
    "name": "ach_lvl_40",
    "defaultvalue": 0,
    "displayName": "Wow!",
    "hidden": 0,
    "description": "Complete 40 levels",
    "icon": "https://steamcdn-a.akamaihd.net/steamcommunity/public/images/apps/780800/3136730194ba0a8a7ac00f8cff2d80e04cdba80a.jpg",
    "icongray": "https://steamcdn-a.akamaihd.net/steamcommunity/public/images/apps/780800/c5075f362231192e4b7b8eb459a86f21292380da.jpg"
  },
  {
    "name": "ach_lvl_50",
    "defaultvalue": 0,
    "displayName": "The end is near",
    "hidden": 0,
    "description": "Complete 50 levels",
    "icon": "https://steamcdn-a.akamaihd.net/steamcommunity/public/images/apps/780800/57d785e9d5b960de12d7c425b6036333000bd765.jpg",
    "icongray": "https://steamcdn-a.akamaihd.net/steamcommunity/public/images/apps/780800/72d3606009a8201b9021296b4ece983af5d858b3.jpg"
  },
  {
    "name": "ach_lvl_60",
    "defaultvalue": 0,
    "displayName": "You did it!",
    "hidden": 0,
    "description": "Complete 60 levels",
    "icon": "https://steamcdn-a.akamaihd.net/steamcommunity/public/images/apps/780800/0fd4e759aded277bbe14c2e1ea97fb341a8ce675.jpg",
    "icongray": "https://steamcdn-a.akamaihd.net/steamcommunity/public/images/apps/780800/90d58c842e5bee8d7cec1cb16ecd1aeeeb53f8bc.jpg"
  },
  {
    "name": "ach_lvl_end",
    "defaultvalue": 0,
    "displayName": "The End",
    "hidden": 0,
    "description": "Complete the game",
    "icon": "https://steamcdn-a.akamaihd.net/steamcommunity/public/images/apps/780800/761dac821c60cd86ff9c077694619463fe0a19ba.jpg",
    "icongray": "https://steamcdn-a.akamaihd.net/steamcommunity/public/images/apps/780800/55bfd990a5208df9ac8acf3ca2bae11b4c5000ea.jpg"
  },
  {
    "name": "ach_die_menu",
    "defaultvalue": 0,
    "displayName": "Oops...",
    "hidden": 1,
    "icon": "https://steamcdn-a.akamaihd.net/steamcommunity/public/images/apps/780800/e4887661702c24f32d09f17ea58ee8551f71b8d4.jpg",
    "icongray": "https://steamcdn-a.akamaihd.net/steamcommunity/public/images/apps/780800/78e80959678f10b4deb0897cb601bb81beca75cc.jpg"
  },
  {
    "name": "ach_die_platform",
    "defaultvalue": 0,
    "displayName": "Crushed!",
    "hidden": 1,
    "icon": "https://steamcdn-a.akamaihd.net/steamcommunity/public/images/apps/780800/b16ce3d519e9a58d127cdedeb5ac8d821328087f.jpg",
    "icongray": "https://steamcdn-a.akamaihd.net/steamcommunity/public/images/apps/780800/a79600a5eb562fa3eb919d9b2889963db077c662.jpg"
  }
]