﻿{
  "Dlcs": {},
  "Name": "Moonlight",
  "AppId": "434410",
  "ImageUrl": "https://steamcdn-a.akamaihd.net/steam/apps/434410/header.jpg?t=1579565736",
  "Languages": [
    "english"
  ],
  "Platforms": {
    "windows": true,
    "mac": false,
    "linux": false
  }
}