[
  {
    "name": "ACHIEVEMENT_001",
    "defaultvalue": 0,
    "displayName": "THE STONE CIRCLE",
    "hidden": 0,
    "description": "Find and complete an examination of the stone circle",
    "icon": "https://steamcdn-a.akamaihd.net/steamcommunity/public/images/apps/1084990/dcbe9a4b3124b1e5547b07546d0c0d1851895714.jpg",
    "icongray": "https://steamcdn-a.akamaihd.net/steamcommunity/public/images/apps/1084990/ae18c3dd1581043b19a5ae701a3fc3a53ff5ca42.jpg"
  },
  {
    "name": "ACHIEVEMENT_002",
    "defaultvalue": 0,
    "displayName": "THE PICTISH STONE",
    "hidden": 0,
    "description": "Find and complete an examination of the Pictish stone",
    "icon": "https://steamcdn-a.akamaihd.net/steamcommunity/public/images/apps/1084990/5d38cca709749a61b419dca998ab219677a41ade.jpg",
    "icongray": "https://steamcdn-a.akamaihd.net/steamcommunity/public/images/apps/1084990/d20ddaedee32a54657887e5a65b219c52754adce.jpg"
  },
  {
    "name": "ACHIEVEMENT_003",
    "defaultvalue": 0,
    "displayName": "THE SERVANT'S POOL",
    "hidden": 0,
    "description": "Find and complete an examination of the Servant's Pool",
    "icon": "https://steamcdn-a.akamaihd.net/steamcommunity/public/images/apps/1084990/632435a33aac37a5707fc5399d21f3f37296ae9c.jpg",
    "icongray": "https://steamcdn-a.akamaihd.net/steamcommunity/public/images/apps/1084990/e12dc9b621503c7d979e4313a88d638043d55559.jpg"
  },
  {
    "name": "ACHIEVEMENT_004",
    "defaultvalue": 0,
    "displayName": "EXCAVATION SITE",
    "hidden": 0,
    "description": "Find and complete an examination of an excavation site",
    "icon": "https://steamcdn-a.akamaihd.net/steamcommunity/public/images/apps/1084990/a022f01ee6fe6992f2b030fe983a4e7d66f24ec4.jpg",
    "icongray": "https://steamcdn-a.akamaihd.net/steamcommunity/public/images/apps/1084990/56d2069e77bca190d9d4b9e40aca487b9eb96aa7.jpg"
  },
  {
    "name": "ACHIEVEMENT_005",
    "defaultvalue": 0,
    "displayName": "THE OBELISK",
    "hidden": 0,
    "description": "Find and complete an examination of the obelisk",
    "icon": "https://steamcdn-a.akamaihd.net/steamcommunity/public/images/apps/1084990/8b7c6c987b7756740761f986a545b502f87a94bb.jpg",
    "icongray": "https://steamcdn-a.akamaihd.net/steamcommunity/public/images/apps/1084990/a522ea07513f9ab5d358cefff2fdccf7aee2b559.jpg"
  },
  {
    "name": "ACHIEVEMENT_006",
    "defaultvalue": 0,
    "displayName": "PROTO-CELTIC ENGRAVING",
    "hidden": 0,
    "description": "Complete an examination of a proto-Celtic engraving",
    "icon": "https://steamcdn-a.akamaihd.net/steamcommunity/public/images/apps/1084990/19f6af04342536948091ed87eaf11e46771ebd54.jpg",
    "icongray": "https://steamcdn-a.akamaihd.net/steamcommunity/public/images/apps/1084990/9b6541052b55252a86e4584b93a0fad303221e76.jpg"
  },
  {
    "name": "ACHIEVEMENT_007",
    "defaultvalue": 0,
    "displayName": "RUINED SPIRE",
    "hidden": 0,
    "description": "Find and complete an examination of a ruined church spire",
    "icon": "https://steamcdn-a.akamaihd.net/steamcommunity/public/images/apps/1084990/f7500a0c25e2c563303633e449809e204cfaf4db.jpg",
    "icongray": "https://steamcdn-a.akamaihd.net/steamcommunity/public/images/apps/1084990/ec018def4640c991a2bb7f80aec3a3a69d12d902.jpg"
  },
  {
    "name": "ACHIEVEMENT_008",
    "defaultvalue": 0,
    "displayName": "HIDDEN ALCOVE",
    "hidden": 0,
    "description": "Find a hidden alcove and complete the examination of its contents",
    "icon": "https://steamcdn-a.akamaihd.net/steamcommunity/public/images/apps/1084990/9b27fe7e474faba752e09700bbd1cdab10c8f2f5.jpg",
    "icongray": "https://steamcdn-a.akamaihd.net/steamcommunity/public/images/apps/1084990/56dbc6741ad527c43294bc5cdd5f20bffa6d09f1.jpg"
  },
  {
    "name": "ACHIEVEMENT_009",
    "defaultvalue": 0,
    "displayName": "WHO DOES?",
    "hidden": 0,
    "description": "Discover the sculpture with the name \"Who Does?\"",
    "icon": "https://steamcdn-a.akamaihd.net/steamcommunity/public/images/apps/1084990/fd3a74f45e1de1910fa2febcbf0cde97fe8924d3.jpg",
    "icongray": "https://steamcdn-a.akamaihd.net/steamcommunity/public/images/apps/1084990/551d41e85f7f50af0a8f7b81d93bf55348be6707.jpg"
  },
  {
    "name": "ACHIEVEMENT_010",
    "defaultvalue": 0,
    "displayName": "HOPE SPRINGS ETERNAL",
    "hidden": 0,
    "description": "Discover the sculpture with the name \"Hope Springs Eternal\"",
    "icon": "https://steamcdn-a.akamaihd.net/steamcommunity/public/images/apps/1084990/6bbeda336b242aadb72d852c8a07bc55bcb43da1.jpg",
    "icongray": "https://steamcdn-a.akamaihd.net/steamcommunity/public/images/apps/1084990/345cd150ff31424850cfbcd0575da0535c853572.jpg"
  },
  {
    "name": "ACHIEVEMENT_011",
    "defaultvalue": 0,
    "displayName": "CONFLICT MACHINERY",
    "hidden": 0,
    "description": "Discover the sculpture with the name \"Conflict Machinery\"",
    "icon": "https://steamcdn-a.akamaihd.net/steamcommunity/public/images/apps/1084990/2c1807e439c5ca66a879406bf7b9985097ae3ab5.jpg",
    "icongray": "https://steamcdn-a.akamaihd.net/steamcommunity/public/images/apps/1084990/bfe28a53c7de6dcf2594b4d38428551073d20293.jpg"
  },
  {
    "name": "ACHIEVEMENT_012",
    "defaultvalue": 0,
    "displayName": "BIPOLAR",
    "hidden": 0,
    "description": "Discover the sculpture with the name \"Bipolar\"",
    "icon": "https://steamcdn-a.akamaihd.net/steamcommunity/public/images/apps/1084990/8750339ccc33a2692a061241213f88ae3b876ac9.jpg",
    "icongray": "https://steamcdn-a.akamaihd.net/steamcommunity/public/images/apps/1084990/dcc70e7188192366687603a65f03f5a248d9554f.jpg"
  },
  {
    "name": "ACHIEVEMENT_013",
    "defaultvalue": 0,
    "displayName": "A COPENHAGEN STATE OF MIND",
    "hidden": 0,
    "description": "Discover the sculpture with the name \"A Copenhagen State Of Mind\"",
    "icon": "https://steamcdn-a.akamaihd.net/steamcommunity/public/images/apps/1084990/1d07ffc0f90e05690237b53d1948acb29045d257.jpg",
    "icongray": "https://steamcdn-a.akamaihd.net/steamcommunity/public/images/apps/1084990/263e592b9e007b04d9f66342885aab2a83b6de03.jpg"
  },
  {
    "name": "ACHIEVEMENT_014",
    "defaultvalue": 0,
    "displayName": "IMPERIAL DECORATING",
    "hidden": 0,
    "description": "Discover the sculpture with the name \"Imperial Decorating\"",
    "icon": "https://steamcdn-a.akamaihd.net/steamcommunity/public/images/apps/1084990/f44884cdb430f9b315096c4d9cbe7ba8a4ec2c26.jpg",
    "icongray": "https://steamcdn-a.akamaihd.net/steamcommunity/public/images/apps/1084990/320edb6f98770d91ab2df166cae0e6941402d38b.jpg"
  },
  {
    "name": "ACHIEVEMENT_015",
    "defaultvalue": 0,
    "displayName": "FRIEND",
    "hidden": 0,
    "description": "Discover the sculpture with the name \"Friend\"",
    "icon": "https://steamcdn-a.akamaihd.net/steamcommunity/public/images/apps/1084990/c0e2f220a32a3cfdb59cfed3277a20f26cb0dc1a.jpg",
    "icongray": "https://steamcdn-a.akamaihd.net/steamcommunity/public/images/apps/1084990/d96031b791e569c1223cb9e31e7d8027c0c60c61.jpg"
  },
  {
    "name": "ACHIEVEMENT_016",
    "defaultvalue": 0,
    "displayName": "NIGHTMARE",
    "hidden": 0,
    "description": "Discover the sculpture with the name \"Nightmare\"",
    "icon": "https://steamcdn-a.akamaihd.net/steamcommunity/public/images/apps/1084990/00315c0eeee640f84039f180ffb1750b4b281dbc.jpg",
    "icongray": "https://steamcdn-a.akamaihd.net/steamcommunity/public/images/apps/1084990/a9c6729b1c633f03acb5592763fd13fab0c872c4.jpg"
  },
  {
    "name": "ACHIEVEMENT_017",
    "defaultvalue": 0,
    "displayName": "HI HO",
    "hidden": 0,
    "description": "Discover the sculpture with the name \"Hi Ho\"",
    "icon": "https://steamcdn-a.akamaihd.net/steamcommunity/public/images/apps/1084990/cabce2933f775d210d64847fe6d1f1c7ed388ff7.jpg",
    "icongray": "https://steamcdn-a.akamaihd.net/steamcommunity/public/images/apps/1084990/c90db00eacd2ab95dedda1da0aab911ba008253d.jpg"
  },
  {
    "name": "ACHIEVEMENT_018",
    "defaultvalue": 0,
    "displayName": "ROOT OF ALL EVEL",
    "hidden": 0,
    "description": "Discover the sculpture with the name \"Root of all Evel\"",
    "icon": "https://steamcdn-a.akamaihd.net/steamcommunity/public/images/apps/1084990/cab9b6ebcd51c15e090d5c321d022542535d6823.jpg",
    "icongray": "https://steamcdn-a.akamaihd.net/steamcommunity/public/images/apps/1084990/eca51c806f03f3108293c41c3d982fc0cc16a765.jpg"
  },
  {
    "name": "ACHIEVEMENT_019",
    "defaultvalue": 0,
    "displayName": "HORRORSHOW",
    "hidden": 0,
    "description": "Discover the sculpture with the name \"Horrorshow\"",
    "icon": "https://steamcdn-a.akamaihd.net/steamcommunity/public/images/apps/1084990/6771d47c1d52feccb0317bee991c4e9cd70d4859.jpg",
    "icongray": "https://steamcdn-a.akamaihd.net/steamcommunity/public/images/apps/1084990/ac9af4fc13c0cedfb4931969021de09bb7a74db5.jpg"
  },
  {
    "name": "ACHIEVEMENT_020",
    "defaultvalue": 0,
    "displayName": "PRETTY BORING",
    "hidden": 0,
    "description": "Discover the sculpture with the name \"Pretty Boring\"",
    "icon": "https://steamcdn-a.akamaihd.net/steamcommunity/public/images/apps/1084990/38b215f93a8c29bf6a863c0a11ce4ebd227d117e.jpg",
    "icongray": "https://steamcdn-a.akamaihd.net/steamcommunity/public/images/apps/1084990/6b31b62174e9c73c5ea7d93f7e3e14102df8e8e5.jpg"
  },
  {
    "name": "ACHIEVEMENT_021",
    "defaultvalue": 0,
    "displayName": "I KNOW NOW WHY YOU CRY",
    "hidden": 0,
    "description": "Discover the sculpture with the name \"I Know Now Why You Cry\"",
    "icon": "https://steamcdn-a.akamaihd.net/steamcommunity/public/images/apps/1084990/7e57ae982c696ad892627b70aad3e54e57c23af7.jpg",
    "icongray": "https://steamcdn-a.akamaihd.net/steamcommunity/public/images/apps/1084990/48b8be38412a944a5c3fa2b6d8cabd72fdf8caa2.jpg"
  },
  {
    "name": "ACHIEVEMENT_022",
    "defaultvalue": 0,
    "displayName": "WORST EASTER EVER",
    "hidden": 0,
    "description": "Discover the sculpture with the name \"Worst Easter Ever\"",
    "icon": "https://steamcdn-a.akamaihd.net/steamcommunity/public/images/apps/1084990/81bcef7e3bed6c143fcb92a2b5e0a7eac2a887f6.jpg",
    "icongray": "https://steamcdn-a.akamaihd.net/steamcommunity/public/images/apps/1084990/743621316260d7e7e2e020042dc021065a67d030.jpg"
  },
  {
    "name": "ACHIEVEMENT_023",
    "defaultvalue": 0,
    "displayName": "THE VANISHING OF HAROLD HOOPER",
    "hidden": 0,
    "description": "Discover the sculpture with the name \"The Vanishing of Harold Hooper\"",
    "icon": "https://steamcdn-a.akamaihd.net/steamcommunity/public/images/apps/1084990/47310a0a603cb57be2d69705a3c3c166e59b3c36.jpg",
    "icongray": "https://steamcdn-a.akamaihd.net/steamcommunity/public/images/apps/1084990/d087f6775cd6d0a2dfbc49c149d731411533238e.jpg"
  },
  {
    "name": "ACHIEVEMENT_024",
    "defaultvalue": 0,
    "displayName": "WITHOUT RHYTHM",
    "hidden": 0,
    "description": "Discover the sculpture with the name \"Without Rhythm\"",
    "icon": "https://steamcdn-a.akamaihd.net/steamcommunity/public/images/apps/1084990/181defd2de4fe654c73438158b70d07c3a071d2a.jpg",
    "icongray": "https://steamcdn-a.akamaihd.net/steamcommunity/public/images/apps/1084990/3ae95548ca44ba79e65638b02ea765d6fd12ae80.jpg"
  },
  {
    "name": "ACHIEVEMENT_025",
    "defaultvalue": 0,
    "displayName": "UNTITLED",
    "hidden": 0,
    "description": "Discover the sculpture with the name \"Untitled\"",
    "icon": "https://steamcdn-a.akamaihd.net/steamcommunity/public/images/apps/1084990/67f570fc28d89a7655d2c082296d78467dc57b0b.jpg",
    "icongray": "https://steamcdn-a.akamaihd.net/steamcommunity/public/images/apps/1084990/beb5b9257036c316cade9850c1c83001a1daa77d.jpg"
  },
  {
    "name": "ACHIEVEMENT_026",
    "defaultvalue": 0,
    "displayName": "STUCK IN THE MIDDLE",
    "hidden": 0,
    "description": "Discover the sculpture with the name \"Stuck in the Middle\"",
    "icon": "https://steamcdn-a.akamaihd.net/steamcommunity/public/images/apps/1084990/d62d54b0d90517b093c3e6bb80c18371819d41a9.jpg",
    "icongray": "https://steamcdn-a.akamaihd.net/steamcommunity/public/images/apps/1084990/7e1df3f566c845a657a3a5cb8e63f1fd1dd48ea1.jpg"
  },
  {
    "name": "ACHIEVEMENT_027",
    "defaultvalue": 0,
    "displayName": "THE AMISH ARE WATCHING",
    "hidden": 0,
    "description": "Discover the sculpture with the name \"The Amish Are Watching\"",
    "icon": "https://steamcdn-a.akamaihd.net/steamcommunity/public/images/apps/1084990/11a6249753460e086d13dc805186e5546f1f8ac0.jpg",
    "icongray": "https://steamcdn-a.akamaihd.net/steamcommunity/public/images/apps/1084990/c74ab646f4ed2fb075c602cc20caa4e873e0dc39.jpg"
  },
  {
    "name": "ACHIEVEMENT_028",
    "defaultvalue": 0,
    "displayName": "AUSTRALIAN GOLD",
    "hidden": 0,
    "description": "Discover the sculpture with the name \"Australian Gold\"",
    "icon": "https://steamcdn-a.akamaihd.net/steamcommunity/public/images/apps/1084990/9da61ab484dbe03defdd5f9fce3674876e58f123.jpg",
    "icongray": "https://steamcdn-a.akamaihd.net/steamcommunity/public/images/apps/1084990/263e592b9e007b04d9f66342885aab2a83b6de03.jpg"
  },
  {
    "name": "ACHIEVEMENT_029",
    "defaultvalue": 0,
    "displayName": "C4 EPIMER OF WORLDS",
    "hidden": 0,
    "description": "Discover the sculpture with the name \"C4 Epimer of Worlds\"",
    "icon": "https://steamcdn-a.akamaihd.net/steamcommunity/public/images/apps/1084990/9dc05515a6ef244e213c591c8b255ed01a0872b6.jpg",
    "icongray": "https://steamcdn-a.akamaihd.net/steamcommunity/public/images/apps/1084990/1bdc14fe758b5a6de0eff213bd77fb586abf3550.jpg"
  },
  {
    "name": "ACHIEVEMENT_030",
    "defaultvalue": 0,
    "displayName": "JOHNNY RINGO",
    "hidden": 0,
    "description": "Discover the sculpture with the name \"Johnny Ringo\"",
    "icon": "https://steamcdn-a.akamaihd.net/steamcommunity/public/images/apps/1084990/15a77e4d8d75f9bc8c01f98a21a787ca8c0e7407.jpg",
    "icongray": "https://steamcdn-a.akamaihd.net/steamcommunity/public/images/apps/1084990/0899ebd1f19aae8643f49a822a8e87b5c9e22805.jpg"
  },
  {
    "name": "ACHIEVEMENT_031",
    "defaultvalue": 0,
    "displayName": "TWO HYDROGENS SHORT OF A TRAIN ROBBERY",
    "hidden": 0,
    "description": "Discover the sculpture with the name \"Two Hydrogens Short of a Train Robbery\"",
    "icon": "https://steamcdn-a.akamaihd.net/steamcommunity/public/images/apps/1084990/e2c62019fdcf86add372dad72f5b01dd85598699.jpg",
    "icongray": "https://steamcdn-a.akamaihd.net/steamcommunity/public/images/apps/1084990/6112a12e51949cdd0ae99c414ac9b128831b7a8f.jpg"
  },
  {
    "name": "ACHIEVEMENT_032",
    "defaultvalue": 0,
    "displayName": "DANGEROUS",
    "hidden": 0,
    "description": "Discover the sculpture with the name \"Dangerous\"",
    "icon": "https://steamcdn-a.akamaihd.net/steamcommunity/public/images/apps/1084990/a5aefa711a55d0c389541d41f5052dec48729449.jpg",
    "icongray": "https://steamcdn-a.akamaihd.net/steamcommunity/public/images/apps/1084990/f1b3a101691eb9cec96d545834f0e9cd8fe21087.jpg"
  },
  {
    "name": "ACHIEVEMENT_033",
    "defaultvalue": 0,
    "displayName": "TEMET NOSCE",
    "hidden": 0,
    "description": "Discover the sculpture with the name \"Temet Nosce\"",
    "icon": "https://steamcdn-a.akamaihd.net/steamcommunity/public/images/apps/1084990/834c3117dda1c92dac8bb7ae41e8d2b83c8a84f7.jpg",
    "icongray": "https://steamcdn-a.akamaihd.net/steamcommunity/public/images/apps/1084990/76650ec67c094f56a3f8745594ffdf66473e8d00.jpg"
  },
  {
    "name": "ACHIEVEMENT_034",
    "defaultvalue": 0,
    "displayName": "TED",
    "hidden": 0,
    "description": "Find the teddy bear",
    "icon": "https://steamcdn-a.akamaihd.net/steamcommunity/public/images/apps/1084990/357b3a55a74f2269e8c1bd2933cfda8020892d6c.jpg",
    "icongray": "https://steamcdn-a.akamaihd.net/steamcommunity/public/images/apps/1084990/20c59df5f72b1b5e1a7010bb8d6901cc56ac5c29.jpg"
  },
  {
    "name": "ACHIEVEMENT_035",
    "defaultvalue": 0,
    "displayName": "THE SILENT SISTERS",
    "hidden": 0,
    "description": "Visit the Silent Sisters",
    "icon": "https://steamcdn-a.akamaihd.net/steamcommunity/public/images/apps/1084990/d8bf4eee7b408773195724834997316f4d05143b.jpg",
    "icongray": "https://steamcdn-a.akamaihd.net/steamcommunity/public/images/apps/1084990/ef0ae457a5c053e009580befcc964c741a6c978f.jpg"
  },
  {
    "name": "ACHIEVEMENT_036",
    "defaultvalue": 0,
    "displayName": "THE CHAP BOOK",
    "hidden": 0,
    "description": "Have a closer look at The Chap Book",
    "icon": "https://steamcdn-a.akamaihd.net/steamcommunity/public/images/apps/1084990/48d75efe9abfbc11b2fa2cd59c2efd8e5939bec0.jpg",
    "icongray": "https://steamcdn-a.akamaihd.net/steamcommunity/public/images/apps/1084990/ac049531ac67cd936f267297f5950f16fb3de9b4.jpg"
  },
  {
    "name": "ACHIEVEMENT_037",
    "defaultvalue": 0,
    "displayName": "ALL THE SCULPTURES",
    "hidden": 0,
    "description": "Locate all of the sculptures in Ashgate University",
    "icon": "https://steamcdn-a.akamaihd.net/steamcommunity/public/images/apps/1084990/f00c83c77a758d242b8019114df151debda12ab4.jpg",
    "icongray": "https://steamcdn-a.akamaihd.net/steamcommunity/public/images/apps/1084990/9e2cd4d589a285436c09d56a149f10eb27e6e542.jpg"
  },
  {
    "name": "ACHIEVEMENT_038",
    "defaultvalue": 0,
    "displayName": "SQUID FACE GRAFFITI",
    "hidden": 0,
    "description": "Find all of the places in the university where the squid face graffiti has been sprayed",
    "icon": "https://steamcdn-a.akamaihd.net/steamcommunity/public/images/apps/1084990/7bd200ee57ef3c8911c31c3f32933831d9590ffb.jpg",
    "icongray": "https://steamcdn-a.akamaihd.net/steamcommunity/public/images/apps/1084990/9db5c2bf29b2c7c175d9b2007f6a16bc05c9204f.jpg"
  },
  {
    "name": "ACHIEVEMENT_039",
    "defaultvalue": 0,
    "displayName": "ALL TELEPHONE CALLS",
    "hidden": 0,
    "description": "Collect every number available and make all of the calls",
    "icon": "https://steamcdn-a.akamaihd.net/steamcommunity/public/images/apps/1084990/c28e150bbc36451c96f123d58afdd84aad2bfdb8.jpg",
    "icongray": "https://steamcdn-a.akamaihd.net/steamcommunity/public/images/apps/1084990/c8da35aa210a3b0b4a445923e0b1e3d99b6ff11d.jpg"
  },
  {
    "name": "ACHIEVEMENT_040",
    "defaultvalue": 0,
    "displayName": "ALL THE CLIPBOARDS",
    "hidden": 0,
    "description": "Find and examine all of the clipboards scattered around the campus",
    "icon": "https://steamcdn-a.akamaihd.net/steamcommunity/public/images/apps/1084990/0ac7aeab4e94bdb62d992605e78220c20f4a717b.jpg",
    "icongray": "https://steamcdn-a.akamaihd.net/steamcommunity/public/images/apps/1084990/4f9889e70f5e2fed2d2a0afcfa3158a1da633a67.jpg"
  },
  {
    "name": "ACHIEVEMENT_041",
    "defaultvalue": 0,
    "displayName": "EMPTY GRAVES",
    "hidden": 0,
    "description": "Locate all of the empty graves in the university",
    "icon": "https://steamcdn-a.akamaihd.net/steamcommunity/public/images/apps/1084990/a44e5a743865ab920a3d2823f2585cf3549239e4.jpg",
    "icongray": "https://steamcdn-a.akamaihd.net/steamcommunity/public/images/apps/1084990/fc11188bab89459d7b182519d8cfc59c612ca3a9.jpg"
  },
  {
    "name": "ACHIEVEMENT_042",
    "defaultvalue": 0,
    "displayName": "SURVEILLANCE STATION",
    "hidden": 1,
    "icon": "https://steamcdn-a.akamaihd.net/steamcommunity/public/images/apps/1084990/30b3cf61d0f1d0edfec7658ce13575f0b677ca74.jpg",
    "icongray": "https://steamcdn-a.akamaihd.net/steamcommunity/public/images/apps/1084990/ecebcd87ef14544890dd02a613f947d62c55b53f.jpg"
  },
  {
    "name": "ACHIEVEMENT_043",
    "defaultvalue": 0,
    "displayName": "STORAGE BUILDING 2",
    "hidden": 1,
    "icon": "https://steamcdn-a.akamaihd.net/steamcommunity/public/images/apps/1084990/e23932887e6def2c16e3aa31ceb9dc52bdfd3303.jpg",
    "icongray": "https://steamcdn-a.akamaihd.net/steamcommunity/public/images/apps/1084990/56a79869005c72797eb189aaf209c2cdbe26298b.jpg"
  },
  {
    "name": "ACHIEVEMENT_044",
    "defaultvalue": 0,
    "displayName": "THE HOROLOGIUM",
    "hidden": 1,
    "icon": "https://steamcdn-a.akamaihd.net/steamcommunity/public/images/apps/1084990/77b0684610ba9b130d7b652232dc4435264ecf9e.jpg",
    "icongray": "https://steamcdn-a.akamaihd.net/steamcommunity/public/images/apps/1084990/5b73304064005ffbcbc8550e6e55e43bca154bf0.jpg"
  },
  {
    "name": "ACHIEVEMENT_045",
    "defaultvalue": 0,
    "displayName": "WHAT DOES IT MEAN?",
    "hidden": 1,
    "icon": "https://steamcdn-a.akamaihd.net/steamcommunity/public/images/apps/1084990/b72affcb439d8a65cbd84687369c1d3c3d16b18a.jpg",
    "icongray": "https://steamcdn-a.akamaihd.net/steamcommunity/public/images/apps/1084990/410e61ad7f2830aec36a331766e099c5612b25fe.jpg"
  },
  {
    "name": "ACHIEVEMENT_046",
    "defaultvalue": 0,
    "displayName": "BROTHERHOOD OF LAMENTATION",
    "hidden": 1,
    "icon": "https://steamcdn-a.akamaihd.net/steamcommunity/public/images/apps/1084990/d609a1e28dafb1a24f02dc246ad523d9582d4b71.jpg",
    "icongray": "https://steamcdn-a.akamaihd.net/steamcommunity/public/images/apps/1084990/0013839d86c1162da107975fb62aa098debd1721.jpg"
  }
]