﻿[
  {
    "name": "00",
    "defaultvalue": 0,
    "displayName": "No pain, no gain?",
    "hidden": 0,
    "description": "Use keys.",
    "icon": "https://steamcdn-a.akamaihd.net/steamcommunity/public/images/apps/690060/bde399fe3361b3ffaf2f79bba0704ef46e2448f4.jpg",
    "icongray": "https://steamcdn-a.akamaihd.net/steamcommunity/public/images/apps/690060/6df464a117d649526c7c478933f265326a356a0d.jpg"
  },
  {
    "name": "01",
    "defaultvalue": 0,
    "displayName": "Take it or leave it",
    "hidden": 0,
    "description": "Talk to the watchman.",
    "icon": "https://steamcdn-a.akamaihd.net/steamcommunity/public/images/apps/690060/4757903a31739b040ddc7e85044a973c5df45245.jpg",
    "icongray": "https://steamcdn-a.akamaihd.net/steamcommunity/public/images/apps/690060/904ce508e9ac43d4dc42811d857bed27b998104a.jpg"
  },
  {
    "name": "02",
    "defaultvalue": 0,
    "displayName": "I'm fine where i am",
    "hidden": 0,
    "description": "Open the door.",
    "icon": "https://steamcdn-a.akamaihd.net/steamcommunity/public/images/apps/690060/6d5845d3ced5d00b141e4ded16fb63e70442609e.jpg",
    "icongray": "https://steamcdn-a.akamaihd.net/steamcommunity/public/images/apps/690060/6df464a117d649526c7c478933f265326a356a0d.jpg"
  },
  {
    "name": "03",
    "defaultvalue": 0,
    "displayName": "I'm tired. I'm leaving",
    "hidden": 1,
    "icon": "https://steamcdn-a.akamaihd.net/steamcommunity/public/images/apps/690060/887d63e4067680975a9fce19a6b14639c44f554d.jpg",
    "icongray": "https://steamcdn-a.akamaihd.net/steamcommunity/public/images/apps/690060/6df464a117d649526c7c478933f265326a356a0d.jpg"
  },
  {
    "name": "04",
    "defaultvalue": 0,
    "displayName": "Watson, we are at a dead end",
    "hidden": 1,
    "icon": "https://steamcdn-a.akamaihd.net/steamcommunity/public/images/apps/690060/259af6e32c1d0e61565a95ea68cd355e68c068f4.jpg",
    "icongray": "https://steamcdn-a.akamaihd.net/steamcommunity/public/images/apps/690060/6df464a117d649526c7c478933f265326a356a0d.jpg"
  },
  {
    "name": "05",
    "defaultvalue": 0,
    "displayName": "Love it",
    "hidden": 1,
    "icon": "https://steamcdn-a.akamaihd.net/steamcommunity/public/images/apps/690060/2de6bf031daeba5a56347d7ad8ff9154c1d57065.jpg",
    "icongray": "https://steamcdn-a.akamaihd.net/steamcommunity/public/images/apps/690060/6df464a117d649526c7c478933f265326a356a0d.jpg"
  },
  {
    "name": "06",
    "defaultvalue": 0,
    "displayName": "Press “X” to win",
    "hidden": 1,
    "icon": "https://steamcdn-a.akamaihd.net/steamcommunity/public/images/apps/690060/e825868125ceb1cb5331c6db5a6d4cc879d519e1.jpg",
    "icongray": "https://steamcdn-a.akamaihd.net/steamcommunity/public/images/apps/690060/6df464a117d649526c7c478933f265326a356a0d.jpg"
  },
  {
    "name": "07",
    "defaultvalue": 0,
    "displayName": "Really?",
    "hidden": 1,
    "icon": "https://steamcdn-a.akamaihd.net/steamcommunity/public/images/apps/690060/62bdf64017b1a49bc7521e429a697089eb682f22.jpg",
    "icongray": "https://steamcdn-a.akamaihd.net/steamcommunity/public/images/apps/690060/6df464a117d649526c7c478933f265326a356a0d.jpg"
  }
]