{
  "Dlcs": {},
  "Name": "Let's Learn Korean! Hangul",
  "AppId": "1255040",
  "ImageUrl": "https://steamcdn-a.akamaihd.net/steam/apps/1255040/header.jpg?t=1591557755",
  "Languages": [
    "english",
    "german"
  ],
  "Platforms": {
    "windows": true,
    "mac": false,
    "linux": false
  }
}