{
  "Name": "Monster Musume : Japanese Audio with English Subtitles: Species 3: Everyday Life Under Dangerous Circumstances",
  "ImageUrl": "https://steamcdn-a.akamaihd.net/steam/apps/920880/header.jpg?t=1552516835",
  "Type": "episode"
}