{
  "Dlcs": {},
  "Name": "Wildlife Park 2 - Horses",
  "AppId": "307770",
  "ImageUrl": "https://steamcdn-a.akamaihd.net/steam/apps/307770/header.jpg?t=1549964787",
  "Languages": [
    "english",
    "german",
    "french",
    "italian",
    "dutch",
    "polish",
    "russian",
    "spanish"
  ],
  "Platforms": {
    "windows": true,
    "mac": false,
    "linux": false
  }
}