[
  {
    "name": "BeatRabga",
    "defaultvalue": 0,
    "displayName": "Demon Killer",
    "hidden": 0,
    "description": "Beat Rabga",
    "icon": "https://steamcdn-a.akamaihd.net/steamcommunity/public/images/apps/914190/173144f248ee0c6e5a1e3d054f321daefab9d134.jpg",
    "icongray": "https://steamcdn-a.akamaihd.net/steamcommunity/public/images/apps/914190/cd462302c917125e4218d3e24aef77dda3812c40.jpg"
  },
  {
    "name": "BeatForxa",
    "defaultvalue": 0,
    "displayName": "Clown Killer",
    "hidden": 0,
    "description": "Beat Forxa",
    "icon": "https://steamcdn-a.akamaihd.net/steamcommunity/public/images/apps/914190/87db280d15c088b18e9b2ff6aaadd33f228718cb.jpg",
    "icongray": "https://steamcdn-a.akamaihd.net/steamcommunity/public/images/apps/914190/520c65c761f0bb0e30785bec6863863725a65e14.jpg"
  },
  {
    "name": "BeatAxku",
    "defaultvalue": 0,
    "displayName": "Awkward Killer",
    "hidden": 0,
    "description": "Beat Axku",
    "icon": "https://steamcdn-a.akamaihd.net/steamcommunity/public/images/apps/914190/6ffdcfd801d1a6ce534a3e9ee9d351b4f48b2b5c.jpg",
    "icongray": "https://steamcdn-a.akamaihd.net/steamcommunity/public/images/apps/914190/90f590417c04c411ebd2dd7bd7ee642cc0e61a11.jpg"
  },
  {
    "name": "BeatEvie",
    "defaultvalue": 0,
    "displayName": "Regeneration Killer",
    "hidden": 0,
    "description": "Beat Evie",
    "icon": "https://steamcdn-a.akamaihd.net/steamcommunity/public/images/apps/914190/8acfe54b5573abafe6d152e280d86c3c2a6bf7bd.jpg",
    "icongray": "https://steamcdn-a.akamaihd.net/steamcommunity/public/images/apps/914190/d8e9ea704cf7c0fc5923d184c32ff62f9372e186.jpg"
  },
  {
    "name": "BeatVanto",
    "defaultvalue": 0,
    "displayName": "Commander Killer",
    "hidden": 0,
    "description": "Beat Vanto",
    "icon": "https://steamcdn-a.akamaihd.net/steamcommunity/public/images/apps/914190/027e3af99d32360483d29ac37e090dd1f037914c.jpg",
    "icongray": "https://steamcdn-a.akamaihd.net/steamcommunity/public/images/apps/914190/0aa0aa14d7f47d2b775c291e07485e8fe06718db.jpg"
  },
  {
    "name": "Thanks",
    "defaultvalue": 0,
    "displayName": "Thank You",
    "hidden": 1,
    "icon": "https://steamcdn-a.akamaihd.net/steamcommunity/public/images/apps/914190/c98a920bb15e301f002d447e4b0adf5b0cd1add4.jpg",
    "icongray": "https://steamcdn-a.akamaihd.net/steamcommunity/public/images/apps/914190/3e4624e4f3264ffdb27ac49f42cf0aa017d27faf.jpg"
  },
  {
    "name": "BattleReady",
    "defaultvalue": 0,
    "displayName": "Ready for Battle!",
    "hidden": 0,
    "description": "Win a PVE Versus Battle",
    "icon": "https://steamcdn-a.akamaihd.net/steamcommunity/public/images/apps/914190/6cb04669ec4a1f4295204c68a08e4ebb5c14ee0b.jpg",
    "icongray": "https://steamcdn-a.akamaihd.net/steamcommunity/public/images/apps/914190/06caddfeb189bb361e3c090e79194fd4d904b810.jpg"
  },
  {
    "name": "VantoVersus",
    "defaultvalue": 0,
    "displayName": "Reversed Point of View",
    "hidden": 0,
    "description": "Play as Vanto during Versus Mode",
    "icon": "https://steamcdn-a.akamaihd.net/steamcommunity/public/images/apps/914190/e650dcb69e25edbe1344116b4c1a47dd8674858a.jpg",
    "icongray": "https://steamcdn-a.akamaihd.net/steamcommunity/public/images/apps/914190/82b98ff92054e66dcb3cf66c106d1fe5c59fe4d2.jpg"
  },
  {
    "name": "RabgaMaster",
    "defaultvalue": 0,
    "displayName": "Demon Master",
    "hidden": 0,
    "description": "Achieve over 1000 points on the Rabga Battle",
    "icon": "https://steamcdn-a.akamaihd.net/steamcommunity/public/images/apps/914190/e8cc913398765dee9629a1d93707f4bec65d4197.jpg",
    "icongray": "https://steamcdn-a.akamaihd.net/steamcommunity/public/images/apps/914190/5c2e4b80ae307630b9d6f1a4338876d34759bad9.jpg"
  },
  {
    "name": "ForxaMaster",
    "defaultvalue": 0,
    "displayName": "Clown Master",
    "hidden": 0,
    "description": "Achieve over 1000 points on the Forxa Battle",
    "icon": "https://steamcdn-a.akamaihd.net/steamcommunity/public/images/apps/914190/31c48867b7b4bee144f32def55b1d4dd8e3695db.jpg",
    "icongray": "https://steamcdn-a.akamaihd.net/steamcommunity/public/images/apps/914190/b8065d4e401768e40d5df14301ff72d7807b7063.jpg"
  },
  {
    "name": "AxkuMaster",
    "defaultvalue": 0,
    "displayName": "Awkward Master",
    "hidden": 0,
    "description": "Achieve over 1000 points on the Axku Battle",
    "icon": "https://steamcdn-a.akamaihd.net/steamcommunity/public/images/apps/914190/90d2420126f4e1b4e32dc5294b54b87a7cf80fe9.jpg",
    "icongray": "https://steamcdn-a.akamaihd.net/steamcommunity/public/images/apps/914190/64dcfb80cbc301484e8d0d685f99a328ee962be2.jpg"
  },
  {
    "name": "EvieMaster",
    "defaultvalue": 0,
    "displayName": "Regeneration Master",
    "hidden": 0,
    "description": "Achieve over 1000 points on the Evie Battle",
    "icon": "https://steamcdn-a.akamaihd.net/steamcommunity/public/images/apps/914190/bc20f2f3b186658b380c7f810256cedd265fcbfc.jpg",
    "icongray": "https://steamcdn-a.akamaihd.net/steamcommunity/public/images/apps/914190/5b94aa9f3969fd00ab6e1e1308a3ce78dd0e1a35.jpg"
  },
  {
    "name": "VantoMaster",
    "defaultvalue": 0,
    "displayName": "Commander Master",
    "hidden": 0,
    "description": "Achieve over 1000 points on the Vanto Battle",
    "icon": "https://steamcdn-a.akamaihd.net/steamcommunity/public/images/apps/914190/b5df2350b183c235e5761d3d7760f88696624588.jpg",
    "icongray": "https://steamcdn-a.akamaihd.net/steamcommunity/public/images/apps/914190/4fe0db54d50b817a4ed6f603ece922f011659624.jpg"
  },
  {
    "name": "RabgaMasterx2",
    "defaultvalue": 0,
    "displayName": "Demon",
    "hidden": 0,
    "description": "Achieve over 1500 points on the Rabga Battle",
    "icon": "https://steamcdn-a.akamaihd.net/steamcommunity/public/images/apps/914190/bd44f707ddc2dcba57eba2c698321868767f159a.jpg",
    "icongray": "https://steamcdn-a.akamaihd.net/steamcommunity/public/images/apps/914190/1d5ac2bdebe92b68050c44308173ae61a930d676.jpg"
  },
  {
    "name": "ForxaMasterx2",
    "defaultvalue": 0,
    "displayName": "Clown",
    "hidden": 0,
    "description": "Achieve over 1500 points on the Forxa Battle",
    "icon": "https://steamcdn-a.akamaihd.net/steamcommunity/public/images/apps/914190/2e0da9cf10fb2c21c92c156efd93664ad9f431f5.jpg",
    "icongray": "https://steamcdn-a.akamaihd.net/steamcommunity/public/images/apps/914190/8d68a0c53fbd13d5ac215a24e14f349afe1bb566.jpg"
  },
  {
    "name": "AxkuMasterx2",
    "defaultvalue": 0,
    "displayName": "Awkward",
    "hidden": 0,
    "description": "Achieve over 1500 points on the Axku Battle",
    "icon": "https://steamcdn-a.akamaihd.net/steamcommunity/public/images/apps/914190/a85e3a0ee8e56c0963a7f0749418fe5994926aa2.jpg",
    "icongray": "https://steamcdn-a.akamaihd.net/steamcommunity/public/images/apps/914190/bb581cff2392c86ee7c8501eddfbf38b6258bf6d.jpg"
  },
  {
    "name": "EvieMasterx2",
    "defaultvalue": 0,
    "displayName": "Regenerator",
    "hidden": 0,
    "description": "Achieve over 1500 points on the Evie Battle",
    "icon": "https://steamcdn-a.akamaihd.net/steamcommunity/public/images/apps/914190/b8388351a3e762efb497cb53e84778509ed10098.jpg",
    "icongray": "https://steamcdn-a.akamaihd.net/steamcommunity/public/images/apps/914190/fd458e6c85bc4a7ee44d95e65dd692d57bf484a0.jpg"
  },
  {
    "name": "VantoMasterx2",
    "defaultvalue": 0,
    "displayName": "Commander",
    "hidden": 0,
    "description": "Achieve over 1500 points on the Vanto Battle",
    "icon": "https://steamcdn-a.akamaihd.net/steamcommunity/public/images/apps/914190/052d73aa1b4ae2c8d62c1ceb35366783b8bdf663.jpg",
    "icongray": "https://steamcdn-a.akamaihd.net/steamcommunity/public/images/apps/914190/d35eef50ece37f5f8d89cdae5b24f5926e0c52de.jpg"
  },
  {
    "name": "EndlessMasterx10",
    "defaultvalue": 0,
    "displayName": "Force to be reckoned with",
    "hidden": 0,
    "description": "Win 10 rounds in a row in Endless Mode",
    "icon": "https://steamcdn-a.akamaihd.net/steamcommunity/public/images/apps/914190/0c1610bb681ad717b8f825576ce34b86e08123bc.jpg",
    "icongray": "https://steamcdn-a.akamaihd.net/steamcommunity/public/images/apps/914190/868f58e9dae1790b35e3005e6f99c4728eb2bdaf.jpg"
  },
  {
    "name": "EndlessMasterx20",
    "defaultvalue": 0,
    "displayName": "Unstoppable",
    "hidden": 0,
    "description": "Win 20 rounds in a row in Endless Mode",
    "icon": "https://steamcdn-a.akamaihd.net/steamcommunity/public/images/apps/914190/0de6e451da466de7adf7167ce27a8758268074aa.jpg",
    "icongray": "https://steamcdn-a.akamaihd.net/steamcommunity/public/images/apps/914190/f9783a2e1b717e594bfef31aee0748baeb285bc4.jpg"
  }
]