{
  "Dlcs": {},
  "Name": "Fights in Tight Spaces",
  "AppId": "1265820",
  "ImageUrl": "https://steamcdn-a.akamaihd.net/steam/apps/1265820/header.jpg?t=1597404925",
  "Languages": [
    "english",
    "french",
    "german",
    "polish",
    "russian",
    "schinese"
  ],
  "Platforms": {
    "windows": true,
    "mac": false,
    "linux": false
  }
}