{
  "Dlcs": {},
  "Name": "Sole Iron Tail",
  "AppId": "1252190",
  "ImageUrl": "https://steamcdn-a.akamaihd.net/steam/apps/1252190/header.jpg?t=1596999820",
  "Languages": [
    "english"
  ],
  "Platforms": {
    "windows": true,
    "mac": false,
    "linux": false
  }
}