﻿{
  "Dlcs": {},
  "Name": "Hegemony Gold: Wars of Ancient Greece",
  "AppId": "202690",
  "ImageUrl": "https://steamcdn-a.akamaihd.net/steam/apps/202690/header.jpg?t=1528406223",
  "Languages": [
    "english"
  ],
  "Platforms": {
    "windows": true,
    "mac": false,
    "linux": false
  }
}