[
  {
    "name": "STAT_TOTALHEIGHT",
    "defaultvalue": 0,
    "displayName": ""
  },
  {
    "name": "STAT_ENEMIESDOWNED",
    "defaultvalue": 0,
    "displayName": ""
  },
  {
    "name": "STAT_PLAYERSLEFTBEHIND",
    "defaultvalue": 0,
    "displayName": ""
  },
  {
    "name": "STAT_TOTALPOINTS",
    "defaultvalue": 0,
    "displayName": ""
  },
  {
    "name": "STAT_SINGLEPLAYERTIME",
    "defaultvalue": 0,
    "displayName": ""
  },
  {
    "name": "STAT_MULTIPLAYERTIME",
    "defaultvalue": 0,
    "displayName": ""
  }
]