{
  "Dlcs": {},
  "Name": "Knockdown the Ball",
  "AppId": "841020",
  "ImageUrl": "https://steamcdn-a.akamaihd.net/steam/apps/841020/header.jpg?t=1533809038",
  "Languages": [
    "english",
    "turkish"
  ],
  "Platforms": {
    "windows": true,
    "mac": false,
    "linux": false
  }
}