[
  {
    "name": "1world",
    "defaultvalue": 0,
    "displayName": "1!",
    "hidden": 0,
    "description": "Beat world #1",
    "icon": "https://steamcdn-a.akamaihd.net/steamcommunity/public/images/apps/1375430/89890930a77a6d636d06ada47025cc19130523a4.jpg",
    "icongray": "https://steamcdn-a.akamaihd.net/steamcommunity/public/images/apps/1375430/75df986b0ca3427d0dbe2a91a6a881ec9d32f97d.jpg"
  },
  {
    "name": "2world",
    "defaultvalue": 0,
    "displayName": "2!",
    "hidden": 0,
    "description": "Beat world #2",
    "icon": "https://steamcdn-a.akamaihd.net/steamcommunity/public/images/apps/1375430/71e357993770512a16f60cab4731691902101aa1.jpg",
    "icongray": "https://steamcdn-a.akamaihd.net/steamcommunity/public/images/apps/1375430/f4d6a1ddd2f4abf965c250145e83cb665598b521.jpg"
  },
  {
    "name": "3world",
    "defaultvalue": 0,
    "displayName": "3!",
    "hidden": 0,
    "description": "Beat world #3",
    "icon": "https://steamcdn-a.akamaihd.net/steamcommunity/public/images/apps/1375430/cd338818a31830bd82bf4c73b2cf1fa891070699.jpg",
    "icongray": "https://steamcdn-a.akamaihd.net/steamcommunity/public/images/apps/1375430/75df986b0ca3427d0dbe2a91a6a881ec9d32f97d.jpg"
  },
  {
    "name": "jetpack",
    "defaultvalue": 0,
    "displayName": "Jetpack!",
    "hidden": 0,
    "description": "But a jetpack",
    "icon": "https://steamcdn-a.akamaihd.net/steamcommunity/public/images/apps/1375430/ecb48ae38e5f166a9591bba2326e04130e7d5d5e.jpg",
    "icongray": "https://steamcdn-a.akamaihd.net/steamcommunity/public/images/apps/1375430/f4d6a1ddd2f4abf965c250145e83cb665598b521.jpg"
  },
  {
    "name": "pistol",
    "defaultvalue": 0,
    "displayName": "Pistol",
    "hidden": 0,
    "description": "Buy a pistol",
    "icon": "https://steamcdn-a.akamaihd.net/steamcommunity/public/images/apps/1375430/a103e9b6e7c0293dcf9d665c6367f72acd474698.jpg",
    "icongray": "https://steamcdn-a.akamaihd.net/steamcommunity/public/images/apps/1375430/f4d6a1ddd2f4abf965c250145e83cb665598b521.jpg"
  },
  {
    "name": "helmet",
    "defaultvalue": 0,
    "displayName": "Helmet!",
    "hidden": 0,
    "description": "Buy a helmet",
    "icon": "https://steamcdn-a.akamaihd.net/steamcommunity/public/images/apps/1375430/fc015998fe068c2c6fd2a98feae25fac27b2d1e5.jpg",
    "icongray": "https://steamcdn-a.akamaihd.net/steamcommunity/public/images/apps/1375430/f4d6a1ddd2f4abf965c250145e83cb665598b521.jpg"
  }
]