{
  "Dlcs": {},
  "Name": "BattleRush: Ardennes Assault",
  "AppId": "969970",
  "ImageUrl": "https://steamcdn-a.akamaihd.net/steam/apps/969970/header.jpg?t=1579192313",
  "Languages": [
    "english",
    "german",
    "russian"
  ],
  "Platforms": {
    "windows": true,
    "mac": false,
    "linux": false
  }
}