﻿{
  "Dlcs": {},
  "Name": "Keylocker | Turn Based Cyberpunk Action",
  "AppId": "1325040",
  "ImageUrl": "https://steamcdn-a.akamaihd.net/steam/apps/1325040/header.jpg?t=1600547853",
  "Languages": [
    "english"
  ],
  "Platforms": {
    "windows": true,
    "mac": false,
    "linux": false
  }
}