[
  {
    "name": "ACH_UNLIKELY_HERO",
    "defaultvalue": 0,
    "displayName": "Unlikely Hero",
    "hidden": 0,
    "description": "Rescue Princess Soha from the mysterious kidnappers.",
    "icon": "https://steamcdn-a.akamaihd.net/steamcommunity/public/images/apps/354740/162eee8d53f99650d23b3c3846132bf8bd57c4ce.jpg",
    "icongray": "https://steamcdn-a.akamaihd.net/steamcommunity/public/images/apps/354740/d9304d5d540e5e27e76e804a041601069b7f6100.jpg"
  },
  {
    "name": "ACH_TAKE_A_CAT_NAP",
    "defaultvalue": 0,
    "displayName": "Take a cat nap!",
    "hidden": 0,
    "description": "Defeat Toby Redclaw. ",
    "icon": "https://steamcdn-a.akamaihd.net/steamcommunity/public/images/apps/354740/60c01f69a4cef660382edcbd39c9094d400fd8a6.jpg",
    "icongray": "https://steamcdn-a.akamaihd.net/steamcommunity/public/images/apps/354740/3fa3b82dccaee8f9ef624d89cc881d533368a0a2.jpg"
  },
  {
    "name": "ACH_TIDEREAVER_SECURE",
    "defaultvalue": 0,
    "displayName": "Tidereaver Secure!",
    "hidden": 0,
    "description": "Defeat the Tidereaver Commander.",
    "icon": "https://steamcdn-a.akamaihd.net/steamcommunity/public/images/apps/354740/a49418711a6a9c6a89740685f1d6c407775f0c3e.jpg",
    "icongray": "https://steamcdn-a.akamaihd.net/steamcommunity/public/images/apps/354740/a0029ea80a6badb8e50e05f2d39ed85face47d2b.jpg"
  },
  {
    "name": "ACH_WE_ALL_START_SOMEWHERE",
    "defaultvalue": 0,
    "displayName": "We All Start Somewhere",
    "hidden": 0,
    "description": "Start the Beladorne Rebellion.",
    "icon": "https://steamcdn-a.akamaihd.net/steamcommunity/public/images/apps/354740/7ece6063359f4c6d8474ed615ca5109114c0f3cf.jpg",
    "icongray": "https://steamcdn-a.akamaihd.net/steamcommunity/public/images/apps/354740/d7e048cbcbc4b14fe8391563782138d0566af508.jpg"
  },
  {
    "name": "ACH_FLAWLESS_VICTORY",
    "defaultvalue": 0,
    "displayName": "Flawless Victory",
    "hidden": 0,
    "description": "Win the Battle of Enkidu Hill with no defeats.",
    "icon": "https://steamcdn-a.akamaihd.net/steamcommunity/public/images/apps/354740/8c8421e9625df5cccabf51792fa4550c1894d77d.jpg",
    "icongray": "https://steamcdn-a.akamaihd.net/steamcommunity/public/images/apps/354740/ecd3161a50f158fc4e03934d38656e7c44627812.jpg"
  },
  {
    "name": "ACH_POOF_GOES_THE_JERK",
    "defaultvalue": 0,
    "displayName": "Poof Goes The Jerk",
    "hidden": 0,
    "description": "Defeat Alexei.",
    "icon": "https://steamcdn-a.akamaihd.net/steamcommunity/public/images/apps/354740/185fe7cc0e70662c9e2129e0f7c1d69c91347d0d.jpg",
    "icongray": "https://steamcdn-a.akamaihd.net/steamcommunity/public/images/apps/354740/7cfdc475f1dd9b3bdaa672550a13eb1c64e73610.jpg"
  },
  {
    "name": "ACH_BUCKET_OF_BOLTS",
    "defaultvalue": 0,
    "displayName": "Bucket of Bolts",
    "hidden": 0,
    "description": "Defeat Giovany's Super Mech.",
    "icon": "https://steamcdn-a.akamaihd.net/steamcommunity/public/images/apps/354740/bd150178500f71b5b86007b7f1a04fda42384aa2.jpg",
    "icongray": "https://steamcdn-a.akamaihd.net/steamcommunity/public/images/apps/354740/7084d311f4e51dca60edc3b1c27200210a5fa067.jpg"
  },
  {
    "name": "ACH_PERFECT_SHOW",
    "defaultvalue": 0,
    "displayName": "Perfect Show",
    "hidden": 0,
    "description": "Execute all top-level magic tricks during Soha's show in Varna.",
    "icon": "https://steamcdn-a.akamaihd.net/steamcommunity/public/images/apps/354740/a8909fe8efd361846745b04cd5d6b1ab7147eb6e.jpg",
    "icongray": "https://steamcdn-a.akamaihd.net/steamcommunity/public/images/apps/354740/b731b798849e54514680b1f21b20ccb177905edf.jpg"
  },
  {
    "name": "ACH_FALSE_MONARCH",
    "defaultvalue": 0,
    "displayName": "False Monarch\t",
    "hidden": 0,
    "description": "Defeat Queen Azra.",
    "icon": "https://steamcdn-a.akamaihd.net/steamcommunity/public/images/apps/354740/f449d9b9405df9618b39ea47ec84767b075a9cfd.jpg",
    "icongray": "https://steamcdn-a.akamaihd.net/steamcommunity/public/images/apps/354740/88ecf6cfa37f794d09a159e96e6ba6788504590b.jpg"
  },
  {
    "name": "ACH_CRUSHING_ROUT",
    "defaultvalue": 0,
    "displayName": "Merciful Commander",
    "hidden": 0,
    "description": "Win the Battle of Ezrum Fortress without slaying a single flesh and blood Veridian.",
    "icon": "https://steamcdn-a.akamaihd.net/steamcommunity/public/images/apps/354740/11519edc760c1a71aab04fafddac2a3743767f90.jpg",
    "icongray": "https://steamcdn-a.akamaihd.net/steamcommunity/public/images/apps/354740/3ce061e1f2c77f55d17b0c8abf1132c5cf2f6cb4.jpg"
  },
  {
    "name": "ACH_THE_WORLD_IS_UNITED",
    "defaultvalue": 0,
    "displayName": "The World Is United!",
    "hidden": 0,
    "description": "End the war with Veridia.",
    "icon": "https://steamcdn-a.akamaihd.net/steamcommunity/public/images/apps/354740/00d4e128c168efc98c55195bcadc5661cb8f9f27.jpg",
    "icongray": "https://steamcdn-a.akamaihd.net/steamcommunity/public/images/apps/354740/f2562532d4d171cb0f02d23cbfda3f0c19dd014c.jpg"
  },
  {
    "name": "ACH_THE_WILD_CARD",
    "defaultvalue": 0,
    "displayName": "The Wild Card",
    "hidden": 0,
    "description": "Defeat Kormag.",
    "icon": "https://steamcdn-a.akamaihd.net/steamcommunity/public/images/apps/354740/3156d99b7acd558fe3b77214bf70d0a6a761a5de.jpg",
    "icongray": "https://steamcdn-a.akamaihd.net/steamcommunity/public/images/apps/354740/e63dfd4d3302eb011fa3e133085243f014df18bc.jpg"
  },
  {
    "name": "ACH_CRISIS AVERTED",
    "defaultvalue": 0,
    "displayName": "Crisis Averted\t",
    "hidden": 0,
    "description": "Clear the game on Normal Difficulty.",
    "icon": "https://steamcdn-a.akamaihd.net/steamcommunity/public/images/apps/354740/ab25d100644134d21b657b9b6b6b91bb7b945a09.jpg",
    "icongray": "https://steamcdn-a.akamaihd.net/steamcommunity/public/images/apps/354740/8826c1f2d3a8701cb65e81328a9995303c7eb503.jpg"
  },
  {
    "name": "ACH_ALEXEI_ANNIHILATOR",
    "defaultvalue": 0,
    "displayName": "Alexei Annihilator",
    "hidden": 0,
    "description": "Defeat Alexei on Hard Difficulty.",
    "icon": "https://steamcdn-a.akamaihd.net/steamcommunity/public/images/apps/354740/60a7716a700c6453241d8bf74047f4a652d12d33.jpg",
    "icongray": "https://steamcdn-a.akamaihd.net/steamcommunity/public/images/apps/354740/7cfdc475f1dd9b3bdaa672550a13eb1c64e73610.jpg"
  },
  {
    "name": "ACH_COMPENSATING",
    "defaultvalue": 0,
    "displayName": "Compensating?",
    "hidden": 0,
    "description": "Defeat Giovany's Super Mech on Hard Difficulty.",
    "icon": "https://steamcdn-a.akamaihd.net/steamcommunity/public/images/apps/354740/9fc34d3cd9cb8837c67902b99f14e7553f60d9df.jpg",
    "icongray": "https://steamcdn-a.akamaihd.net/steamcommunity/public/images/apps/354740/7084d311f4e51dca60edc3b1c27200210a5fa067.jpg"
  },
  {
    "name": "ACH_NOT_THE_GREATEST_WIFE",
    "defaultvalue": 0,
    "displayName": "Not The Greatest Wife",
    "hidden": 0,
    "description": "Defeat Azra on Hard Difficulty.",
    "icon": "https://steamcdn-a.akamaihd.net/steamcommunity/public/images/apps/354740/07533c1188eb39f7608a30e93bd284a271246c32.jpg",
    "icongray": "https://steamcdn-a.akamaihd.net/steamcommunity/public/images/apps/354740/88ecf6cfa37f794d09a159e96e6ba6788504590b.jpg"
  },
  {
    "name": "ACH_TRICKED_THE_TRICKSTER",
    "defaultvalue": 0,
    "displayName": "Tricked The Trickster",
    "hidden": 0,
    "description": "Defeat Kormag on Hard Difficulty.",
    "icon": "https://steamcdn-a.akamaihd.net/steamcommunity/public/images/apps/354740/c6490bed17a51f5a4ca1f3c386119b89653d6b17.jpg",
    "icongray": "https://steamcdn-a.akamaihd.net/steamcommunity/public/images/apps/354740/e63dfd4d3302eb011fa3e133085243f014df18bc.jpg"
  },
  {
    "name": "ACH_LEGENDARY",
    "defaultvalue": 0,
    "displayName": "Legendary",
    "hidden": 1,
    "icon": "https://steamcdn-a.akamaihd.net/steamcommunity/public/images/apps/354740/cbbde58eedcc927ae10d73fa793edaa3da2b178b.jpg",
    "icongray": "https://steamcdn-a.akamaihd.net/steamcommunity/public/images/apps/354740/358681588c0a1984b46c8edb7175ca0e8e623032.jpg"
  },
  {
    "name": "ACH_WARRIORS_PROOF",
    "defaultvalue": 0,
    "displayName": "Warrior's Proof",
    "hidden": 0,
    "description": "Clear Lucian's arena challenge.",
    "icon": "https://steamcdn-a.akamaihd.net/steamcommunity/public/images/apps/354740/131c4bbbc107823b458f11310f69bc84773d9b35.jpg",
    "icongray": "https://steamcdn-a.akamaihd.net/steamcommunity/public/images/apps/354740/41f81336f1dda8ec708e52f18412cd0bf6889396.jpg"
  },
  {
    "name": "ACH_ENGINEERS_MERIT",
    "defaultvalue": 0,
    "displayName": "Engineer's Merit",
    "hidden": 0,
    "description": "Clear Ingrid's arena challenge.",
    "icon": "https://steamcdn-a.akamaihd.net/steamcommunity/public/images/apps/354740/bb74ae180cb8289a7891480afd5fa907ce1d1c0b.jpg",
    "icongray": "https://steamcdn-a.akamaihd.net/steamcommunity/public/images/apps/354740/9c01f90f60fa1821d556a921b0043703b1a91526.jpg"
  },
  {
    "name": "ACH_QUEENS_HEIRLOOM",
    "defaultvalue": 0,
    "displayName": "Queen's Heirloom",
    "hidden": 0,
    "description": "Clear Soha's arena challenge.",
    "icon": "https://steamcdn-a.akamaihd.net/steamcommunity/public/images/apps/354740/89ac6224f8ea5d6f9a7d8fc6f168ad79b6393e1c.jpg",
    "icongray": "https://steamcdn-a.akamaihd.net/steamcommunity/public/images/apps/354740/8507a0fca2c64385f81e7001274842c91dcc2339.jpg"
  },
  {
    "name": "ACH_ASSASSINS_MARK",
    "defaultvalue": 0,
    "displayName": "Assassin's Mark",
    "hidden": 0,
    "description": "Clear Eskandar's arena challenge.",
    "icon": "https://steamcdn-a.akamaihd.net/steamcommunity/public/images/apps/354740/d269dfabea461e95dc2685e4b78ebdb0e65ee101.jpg",
    "icongray": "https://steamcdn-a.akamaihd.net/steamcommunity/public/images/apps/354740/45811b253aaaa33ef3bec56bf47355e7f1663d2a.jpg"
  },
  {
    "name": "ACH_MASTERS_MOMENTO",
    "defaultvalue": 0,
    "displayName": "Master's Momento",
    "hidden": 0,
    "description": "Clear Kesh's arena challenge.",
    "icon": "https://steamcdn-a.akamaihd.net/steamcommunity/public/images/apps/354740/664594e5ad36b3acb1237e6251c2f249bf8b74f8.jpg",
    "icongray": "https://steamcdn-a.akamaihd.net/steamcommunity/public/images/apps/354740/b5d1b001d14cd4b9dac48d0a2cf4d877d7913d5d.jpg"
  },
  {
    "name": "ACH_CHAMPION",
    "defaultvalue": 0,
    "displayName": "Arena Champion",
    "hidden": 0,
    "description": "Claim the Champion's Belt in the group arena challenge.",
    "icon": "https://steamcdn-a.akamaihd.net/steamcommunity/public/images/apps/354740/2aa31beee283084cfa81c9fe995bfe588dc4aa77.jpg",
    "icongray": "https://steamcdn-a.akamaihd.net/steamcommunity/public/images/apps/354740/99949c98af106f47351d505601ba43f08c4a580c.jpg"
  },
  {
    "name": "ACH_ACTUAL_CHAMPION",
    "defaultvalue": 0,
    "displayName": "Actual Arena Champion",
    "hidden": 0,
    "description": "Defeat the secret final battle of the arena.",
    "icon": "https://steamcdn-a.akamaihd.net/steamcommunity/public/images/apps/354740/daaf1c387d2b39ec79a98b62852dc3873b9c2283.jpg",
    "icongray": "https://steamcdn-a.akamaihd.net/steamcommunity/public/images/apps/354740/7bb9d3a9df804c624407c2044dbf75337bf74eba.jpg"
  },
  {
    "name": "ACH_WELL_TO_DO",
    "defaultvalue": 0,
    "displayName": "Well To Do",
    "hidden": 0,
    "description": "Collect 10,000 Gold.",
    "icon": "https://steamcdn-a.akamaihd.net/steamcommunity/public/images/apps/354740/40bab1f3fbdef34d5b2d8ac5bff1d1ef1a0c0005.jpg",
    "icongray": "https://steamcdn-a.akamaihd.net/steamcommunity/public/images/apps/354740/db7cba064eea7552ea191fc871e3a24b826c6fe7.jpg"
  },
  {
    "name": "ACH_GOLDEN",
    "defaultvalue": 0,
    "displayName": "Golden",
    "hidden": 0,
    "description": "Collect 100,000 Gold.",
    "icon": "https://steamcdn-a.akamaihd.net/steamcommunity/public/images/apps/354740/eedab4119ec88651438146cc494b03287ececb8a.jpg",
    "icongray": "https://steamcdn-a.akamaihd.net/steamcommunity/public/images/apps/354740/86a1bcdd9c7adcbbeb1c7d753d1e51962dc5e0fd.jpg"
  },
  {
    "name": "ACH_TYCOON",
    "defaultvalue": 0,
    "displayName": "Tycoon",
    "hidden": 0,
    "description": "Collect 250,000 Gold.",
    "icon": "https://steamcdn-a.akamaihd.net/steamcommunity/public/images/apps/354740/187ce9192408e87a95b5864cb9257456c7c93203.jpg",
    "icongray": "https://steamcdn-a.akamaihd.net/steamcommunity/public/images/apps/354740/b4680b11745e18107bbcc94f57b485f88b4d0a64.jpg"
  },
  {
    "name": "ACH_LOUIS_AND_CLARK",
    "defaultvalue": 0,
    "displayName": "Louis And Clark? Please.",
    "hidden": 0,
    "description": "Find nearly all of the Exploration Nodes.  ",
    "icon": "https://steamcdn-a.akamaihd.net/steamcommunity/public/images/apps/354740/24eb413bc64b5128d4717ba6610536b1863c00ff.jpg",
    "icongray": "https://steamcdn-a.akamaihd.net/steamcommunity/public/images/apps/354740/9f6565628ea77286eebdcba96de5c1a9a3cef05e.jpg"
  },
  {
    "name": "ACH_DO_IT_YOURSELF",
    "defaultvalue": 0,
    "displayName": "Do-It-Yourself",
    "hidden": 0,
    "description": "Craft an item in the forge.",
    "icon": "https://steamcdn-a.akamaihd.net/steamcommunity/public/images/apps/354740/0cccb016e89e94f7cc270f94206fd6b27b3daf70.jpg",
    "icongray": "https://steamcdn-a.akamaihd.net/steamcommunity/public/images/apps/354740/be119514f2aa11de6918d2ba208beeb320ca9b93.jpg"
  },
  {
    "name": "ACH_FORGE_MASTER",
    "defaultvalue": 0,
    "displayName": "Forge Master",
    "hidden": 0,
    "description": "Craft an item of legendary quality.",
    "icon": "https://steamcdn-a.akamaihd.net/steamcommunity/public/images/apps/354740/6eb6736c864cc44fd79fdd3d28d0ba9239d49e2c.jpg",
    "icongray": "https://steamcdn-a.akamaihd.net/steamcommunity/public/images/apps/354740/72bcd83e28af9ccddbd8171c970ef46ef72cc3d6.jpg"
  },
  {
    "name": "ACH_TREASURE_HUNTER",
    "defaultvalue": 0,
    "displayName": "Treasure Hunter",
    "hidden": 0,
    "description": "Find and open all of the large treasure chests in the game.",
    "icon": "https://steamcdn-a.akamaihd.net/steamcommunity/public/images/apps/354740/46e646eaf96bb8f7bf14f6ca732209865b8b4338.jpg",
    "icongray": "https://steamcdn-a.akamaihd.net/steamcommunity/public/images/apps/354740/8eb3a92b0d98579282879ea2efe67afaccde00a9.jpg"
  }
]