{
  "Dlcs": {
    "623010": {
      "Name": "Marvel vs. Capcom: Infinite - Character Pass",
      "ImageUrl": "https://steamcdn-a.akamaihd.net/steam/apps/623010/header.jpg?t=1526377961"
    },
    "721100": {
      "Name": "Marvel vs. Capcom: Infinite - Venom",
      "ImageUrl": "https://steamcdn-a.akamaihd.net/steam/apps/721100/header.jpg?t=1526377654"
    },
    "721101": {
      "Name": "Marvel vs. Capcom: Infinite - Black Panther",
      "ImageUrl": "https://steamcdn-a.akamaihd.net/steam/apps/721101/header.jpg?t=1526377633"
    },
    "721102": {
      "Name": "Marvel vs. Capcom: Infinite - Winter Soldier",
      "ImageUrl": "https://steamcdn-a.akamaihd.net/steam/apps/721102/header.jpg?t=1526377613"
    },
    "721103": {
      "Name": "Marvel vs. Capcom: Infinite - Black Widow",
      "ImageUrl": "https://steamcdn-a.akamaihd.net/steam/apps/721103/header.jpg?t=1526377587"
    },
    "721104": {
      "Name": "Marvel vs. Capcom: Infinite - Sigma",
      "ImageUrl": "https://steamcdn-a.akamaihd.net/steam/apps/721104/header.jpg?t=1526377561"
    },
    "721105": {
      "Name": "Marvel vs. Capcom: Infinite - Monster Hunter",
      "ImageUrl": "https://steamcdn-a.akamaihd.net/steam/apps/721105/header.jpg?t=1526377537"
    },
    "721106": {
      "Name": "Marvel vs. Capcom: Infinite - Captain Marvel Warbird Costume",
      "ImageUrl": "https://steamcdn-a.akamaihd.net/steam/apps/721106/header.jpg?t=1526377509"
    },
    "721107": {
      "Name": "Marvel vs. Capcom: Infinite - Superior Spider-Man  Costume",
      "ImageUrl": "https://steamcdn-a.akamaihd.net/steam/apps/721107/header.jpg?t=1526377475"
    },
    "721108": {
      "Name": "Marvel vs. Capcom: Infinite - Joe Fixit Costume",
      "ImageUrl": "https://steamcdn-a.akamaihd.net/steam/apps/721108/header.jpg?t=1526377444"
    },
    "721109": {
      "Name": "Marvel vs. Capcom: Infinite - Captain America Gladiator Costume",
      "ImageUrl": "https://steamcdn-a.akamaihd.net/steam/apps/721109/header.jpg?t=1526377422"
    },
    "721110": {
      "Name": "Marvel vs. Capcom: Infinite - Superior Iron Man Costume",
      "ImageUrl": "https://steamcdn-a.akamaihd.net/steam/apps/721110/header.jpg?t=1526377401"
    },
    "721111": {
      "Name": "Marvel vs. Capcom: Infinite - Ultimate Thor Costume",
      "ImageUrl": "https://steamcdn-a.akamaihd.net/steam/apps/721111/header.jpg?t=1526377377"
    },
    "721112": {
      "Name": "Marvel vs. Capcom: Infinite - Doctor Strange Illuminati Costume",
      "ImageUrl": "https://steamcdn-a.akamaihd.net/steam/apps/721112/header.jpg?t=1526377352"
    },
    "721113": {
      "Name": "Marvel vs. Capcom: Infinite - Space Suit Costume",
      "ImageUrl": "https://steamcdn-a.akamaihd.net/steam/apps/721113/header.jpg?t=1526377328"
    },
    "721114": {
      "Name": "Marvel vs. Capcom: Infinite - Nova Prime Costume",
      "ImageUrl": "https://steamcdn-a.akamaihd.net/steam/apps/721114/header.jpg?t=1526377312"
    },
    "721115": {
      "Name": "Marvel vs. Capcom: Infinite - Ghost Rider Outlaw Costume",
      "ImageUrl": "https://steamcdn-a.akamaihd.net/steam/apps/721115/header.jpg?t=1526377285"
    },
    "721116": {
      "Name": "Marvel vs. Capcom: Infinite - Ultimate Hawkeye Costume",
      "ImageUrl": "https://steamcdn-a.akamaihd.net/steam/apps/721116/header.jpg?t=1526377263"
    },
    "721117": {
      "Name": "Marvel vs. Capcom: Infinite - Dormammu Molten Costume",
      "ImageUrl": "https://steamcdn-a.akamaihd.net/steam/apps/721117/header.jpg?t=1526377243"
    },
    "721118": {
      "Name": "Marvel vs. Capcom: Infinite - Thanos Annihilation Costume",
      "ImageUrl": "https://steamcdn-a.akamaihd.net/steam/apps/721118/header.jpg?t=1526377222"
    },
    "721119": {
      "Name": "Marvel vs. Capcom: Infinite - Ultron Conquest Costume",
      "ImageUrl": "https://steamcdn-a.akamaihd.net/steam/apps/721119/header.jpg?t=1526377202"
    },
    "721130": {
      "Name": "Marvel vs. Capcom: Infinite - Gamora Classic Costume",
      "ImageUrl": "https://steamcdn-a.akamaihd.net/steam/apps/721130/header.jpg?t=1526377180"
    },
    "721131": {
      "Name": "Marvel vs. Capcom: Infinite - Ryu Wanderer Costume",
      "ImageUrl": "https://steamcdn-a.akamaihd.net/steam/apps/721131/header.jpg?t=1526377159"
    },
    "721132": {
      "Name": "Marvel vs. Capcom: Infinite - Dante Nephilim Costume",
      "ImageUrl": "https://steamcdn-a.akamaihd.net/steam/apps/721132/header.jpg?t=1526377140"
    },
    "721133": {
      "Name": "Marvel vs. Capcom: Infinite - Morrigan Night Warrior Costume",
      "ImageUrl": "https://steamcdn-a.akamaihd.net/steam/apps/721133/header.jpg?t=1526377118"
    },
    "721140": {
      "Name": "Marvel vs. Capcom: Infinite - Strider Hien Costume",
      "ImageUrl": "https://steamcdn-a.akamaihd.net/steam/apps/721140/header.jpg?t=1526377099"
    },
    "721141": {
      "Name": "Marvel vs. Capcom: Infinite - Chun-Li Casual Costume",
      "ImageUrl": "https://steamcdn-a.akamaihd.net/steam/apps/721141/header.jpg?t=1526377077"
    },
    "721142": {
      "Name": "Marvel vs. Capcom: Infinite - Firebrand Ultimate Costume",
      "ImageUrl": "https://steamcdn-a.akamaihd.net/steam/apps/721142/header.jpg?t=1526376645"
    },
    "721143": {
      "Name": "Marvel vs. Capcom: Infinite - Chris Classic Costume",
      "ImageUrl": "https://steamcdn-a.akamaihd.net/steam/apps/721143/header.jpg?t=1526376601"
    },
    "721144": {
      "Name": "Marvel vs. Capcom: Infinite - Frank West Proto Man Costume",
      "ImageUrl": "https://steamcdn-a.akamaihd.net/steam/apps/721144/header.jpg?t=1526376573"
    },
    "721145": {
      "Name": "Marvel vs. Capcom: Infinite - Special Zero Costume",
      "ImageUrl": "https://steamcdn-a.akamaihd.net/steam/apps/721145/header.jpg?t=1526376551"
    },
    "721146": {
      "Name": "Marvel vs. Capcom: Infinite - Haggar Metro City Mayor Costume",
      "ImageUrl": "https://steamcdn-a.akamaihd.net/steam/apps/721146/header.jpg?t=1526376530"
    },
    "721147": {
      "Name": "Marvel vs. Capcom: Infinite - Nemesis Tyrant Costume",
      "ImageUrl": "https://steamcdn-a.akamaihd.net/steam/apps/721147/header.jpg?t=1526376509"
    },
    "721148": {
      "Name": "Marvel vs. Capcom: Infinite - Spencer Gottfried Costume",
      "ImageUrl": "https://steamcdn-a.akamaihd.net/steam/apps/721148/header.jpg?t=1526376481"
    },
    "721149": {
      "Name": "Marvel vs. Capcom: Infinite - Arthur Fallen Angel Armor Costume",
      "ImageUrl": "https://steamcdn-a.akamaihd.net/steam/apps/721149/header.jpg?t=1526376458"
    },
    "721150": {
      "Name": "Marvel vs. Capcom: Infinite - Special X Costume",
      "ImageUrl": "https://steamcdn-a.akamaihd.net/steam/apps/721150/header.jpg?t=1526376435"
    },
    "721151": {
      "Name": "Marvel vs. Capcom: Infinite - Jedah Makai Messiah Costume",
      "ImageUrl": "https://steamcdn-a.akamaihd.net/steam/apps/721151/header.jpg?t=1526376414"
    },
    "622990": {
      "Name": "Marvel vs. Capcom: Infinite - Warrior Thor Costume",
      "ImageUrl": "https://steamcdn-a.akamaihd.net/steam/apps/622990/header.jpg?t=1526378023"
    },
    "622991": {
      "Name": "Marvel vs. Capcom: Infinite - Evil Ryu Costume",
      "ImageUrl": "https://steamcdn-a.akamaihd.net/steam/apps/622991/header.jpg?t=1526378003"
    },
    "623000": {
      "Name": "Marvel vs. Capcom: Infinite - Command Mission X Costume",
      "ImageUrl": "https://steamcdn-a.akamaihd.net/steam/apps/623000/header.jpg?t=1526377984"
    },
    "623020": {
      "Name": "Marvel vs. Capcom: Infinite - Gladiator Hulk Costume",
      "ImageUrl": "https://steamcdn-a.akamaihd.net/steam/apps/623020/header.jpg?t=1526377942"
    }
  },
  "Name": "Marvel vs. Capcom: Infinite",
  "AppId": "493840",
  "ImageUrl": "https://steamcdn-a.akamaihd.net/steam/apps/493840/header.jpg?t=1581580278",
  "Languages": [
    "english",
    "japanese",
    "french",
    "italian",
    "german",
    "spanish",
    "arabic",
    "korean",
    "polish",
    "portuguese",
    "russian",
    "schinese",
    "thai",
    "tchinese"
  ],
  "Platforms": {
    "windows": true,
    "mac": false,
    "linux": false
  }
}