{
  "Dlcs": {},
  "Name": "1428: Shadows over Silesia",
  "AppId": "1228500",
  "ImageUrl": "https://steamcdn-a.akamaihd.net/steam/apps/1228500/header.jpg?t=1591340298",
  "Languages": [
    "english",
    "czech"
  ],
  "Platforms": {
    "windows": true,
    "mac": false,
    "linux": false
  }
}