{
  "Dlcs": {},
  "Name": "Contraverse",
  "AppId": "943670",
  "ImageUrl": "https://steamcdn-a.akamaihd.net/steam/apps/943670/header.jpg?t=1543944134",
  "Languages": [
    "english"
  ],
  "Platforms": {
    "windows": true,
    "mac": false,
    "linux": false
  }
}