{
  "Dlcs": {
    "816110": {
      "Name": "",
      "ImageUrl": ""
    }
  },
  "Name": "YumeCore",
  "AppId": "771240",
  "ImageUrl": "https://steamcdn-a.akamaihd.net/steam/apps/771240/header.jpg?t=1530543366",
  "Languages": [
    "english",
    "japanese",
    "schinese"
  ],
  "Platforms": {
    "windows": true,
    "mac": false,
    "linux": false
  }
}