﻿{
  "Dlcs": {},
  "Name": "Gunpowder",
  "AppId": "375170",
  "ImageUrl": "https://steamcdn-a.akamaihd.net/steam/apps/375170/header.jpg?t=1447375538",
  "Languages": [
    "english",
    "french",
    "italian",
    "german",
    "spanish",
    "japanese",
    "portuguese",
    "portuguese"
  ],
  "Platforms": {
    "windows": true,
    "mac": true,
    "linux": true
  }
}