{
  "Dlcs": {},
  "Name": "Earth Analog",
  "AppId": "1203470",
  "ImageUrl": "https://steamcdn-a.akamaihd.net/steam/apps/1203470/header.jpg?t=1601386754",
  "Languages": [
    "english"
  ],
  "Platforms": {
    "windows": true,
    "mac": false,
    "linux": false
  }
}