[
  {
    "name": "score",
    "defaultvalue": 0,
    "displayName": "score"
  },
  {
    "name": "skin_num",
    "defaultvalue": 1,
    "displayName": "skin_num"
  },
  {
    "name": "wire_num",
    "defaultvalue": 1,
    "displayName": "wire_num"
  }
]