{
  "Dlcs": {},
  "Name": "Master Pyrox Wizard Smackdown",
  "AppId": "861960",
  "ImageUrl": "https://steamcdn-a.akamaihd.net/steam/apps/861960/header.jpg?t=1553625831",
  "Languages": [
    "english",
    "german"
  ],
  "Platforms": {
    "windows": true,
    "mac": false,
    "linux": true
  }
}