{
  "Dlcs": {
    "1423070": {
      "Name": "Cooking Companions: Appetizer Edition - Stuffed Fanpack",
      "ImageUrl": "https://steamcdn-a.akamaihd.net/steam/apps/1423070/header.jpg?t=1600373861"
    }
  },
  "Name": "Cooking Companions: Appetizer Edition",
  "AppId": "1419370",
  "ImageUrl": "https://steamcdn-a.akamaihd.net/steam/apps/1419370/header.jpg?t=1600566938",
  "Languages": [
    "english"
  ],
  "Platforms": {
    "windows": true,
    "mac": false,
    "linux": false
  }
}