[
  {
    "name": "stat_Seeds_Played",
    "defaultvalue": 0,
    "displayName": "Seeds Played"
  },
  {
    "name": "stat_Games_Completed",
    "defaultvalue": 0,
    "displayName": "Games Completed"
  },
  {
    "name": "stat_Daily_Seeds_Played",
    "defaultvalue": 0,
    "displayName": "Daily Seeds Played"
  },
  {
    "name": "stat_Daily_Seeds_Completed",
    "defaultvalue": 0,
    "displayName": "Daily Seeds Completed"
  },
  {
    "name": "stat_Consecutive_Darkness_Seeds_Completed",
    "defaultvalue": 0,
    "displayName": "Consecutive Darkness Seeds Completed"
  },
  {
    "name": "stat_Consecutive_Seeds_Completed",
    "defaultvalue": 0,
    "displayName": "Consecutive Seeds Completed"
  },
  {
    "name": "stat_Longest_Streak_Seeds_Completed",
    "defaultvalue": 0,
    "displayName": "Longest Completed Seeds Streak"
  },
  {
    "name": "stat_Longest_Streak_Darkness_Seeds_Completed",
    "defaultvalue": 0,
    "displayName": "Longest Completed Darkness Seeds Streak"
  },
  {
    "name": "stat_Highest_Score",
    "defaultvalue": 0,
    "displayName": "Highest Score"
  },
  {
    "name": "stat_Mean_Score",
    "defaultvalue": 0,
    "displayName": "Mean Score"
  },
  {
    "name": "stat_Moss_Eaten_Highest",
    "defaultvalue": 0,
    "displayName": "Most Moss Eaten"
  },
  {
    "name": "stat_Ore_Mined_Total",
    "defaultvalue": 0,
    "displayName": "Total Ore Mined"
  }
]