{
  "Dlcs": {},
  "Name": "CountryBalls Heroes",
  "AppId": "1083870",
  "ImageUrl": "https://steamcdn-a.akamaihd.net/steam/apps/1083870/header.jpg?t=1598960452",
  "Languages": [
    "english",
    "french",
    "german",
    "spanish",
    "schinese",
    "polish",
    "russian"
  ],
  "Platforms": {
    "windows": true,
    "mac": true,
    "linux": false
  }
}