{
  "Dlcs": {},
  "Name": "The Curse of Nordic Cove",
  "AppId": "358000",
  "ImageUrl": "https://steamcdn-a.akamaihd.net/steam/apps/358000/header.jpg?t=1572317067",
  "Languages": [
    "english"
  ],
  "Platforms": {
    "windows": true,
    "mac": false,
    "linux": false
  }
}