{
  "Dlcs": {},
  "Name": "Fringe Planet",
  "AppId": "1128950",
  "ImageUrl": "https://steamcdn-a.akamaihd.net/steam/apps/1128950/header.jpg?t=1595237376",
  "Languages": [
    "english"
  ],
  "Platforms": {
    "windows": true,
    "mac": true,
    "linux": true
  }
}