{
  "Dlcs": {},
  "Name": "Barrels Up",
  "AppId": "728950",
  "ImageUrl": "https://steamcdn-a.akamaihd.net/steam/apps/728950/header.jpg?t=1536073296",
  "Languages": [
    "english"
  ],
  "Platforms": {
    "windows": true,
    "mac": false,
    "linux": false
  }
}