[
  {
    "name": "In_Game",
    "defaultvalue": 0,
    "displayName": "Welcome",
    "hidden": 0,
    "description": "StartGame",
    "icon": "https://steamcdn-a.akamaihd.net/steamcommunity/public/images/apps/454480/8f799fb5ca3681e460ff3de70f405de6cead9419.jpg",
    "icongray": "https://steamcdn-a.akamaihd.net/steamcommunity/public/images/apps/454480/1d38c7753f77601f36a282b7687d9fd4605e7d8f.jpg"
  },
  {
    "name": "Open_First_Puzzle",
    "defaultvalue": 0,
    "displayName": "Open The First Puzzle",
    "hidden": 0,
    "description": "In First Level",
    "icon": "https://steamcdn-a.akamaihd.net/steamcommunity/public/images/apps/454480/2fa4ee3955f177ae470d2fa8edabc0f485b1b7d7.jpg",
    "icongray": "https://steamcdn-a.akamaihd.net/steamcommunity/public/images/apps/454480/8e1bd3622373ec535bf15749c0ceceb002d02722.jpg"
  },
  {
    "name": "Use_Dog",
    "defaultvalue": 0,
    "displayName": "Use The Dog",
    "hidden": 0,
    "description": "Use People And Dog",
    "icon": "https://steamcdn-a.akamaihd.net/steamcommunity/public/images/apps/454480/0166e743cc79c55bad1432e74aab7bcb289739bf.jpg",
    "icongray": "https://steamcdn-a.akamaihd.net/steamcommunity/public/images/apps/454480/f55c1287a7b40ba6e3bea14a25f61e571a8be580.jpg"
  },
  {
    "name": "Use_Eagle",
    "defaultvalue": 0,
    "displayName": "Use The Eagle",
    "hidden": 0,
    "description": "Use People And Eagle",
    "icon": "https://steamcdn-a.akamaihd.net/steamcommunity/public/images/apps/454480/ca057ab6d11f4a9adda850e43df9d92fbd959708.jpg",
    "icongray": "https://steamcdn-a.akamaihd.net/steamcommunity/public/images/apps/454480/551e7c7895f274b61f831d10ed3de3e90b967b5c.jpg"
  },
  {
    "name": "Die",
    "defaultvalue": 0,
    "displayName": "The Die",
    "hidden": 0,
    "description": "The First Die",
    "icon": "https://steamcdn-a.akamaihd.net/steamcommunity/public/images/apps/454480/6a960cd2f0ac35e46b3e6fc7b12bb04f99ca768d.jpg",
    "icongray": "https://steamcdn-a.akamaihd.net/steamcommunity/public/images/apps/454480/63e3fcb9c899f69a37acce55dc8b43d956f6c3f5.jpg"
  },
  {
    "name": "The_3_Level",
    "defaultvalue": 0,
    "displayName": "In The 3 Level",
    "hidden": 0,
    "description": "welcome to The 3 Level",
    "icon": "https://steamcdn-a.akamaihd.net/steamcommunity/public/images/apps/454480/d3e8f82f5e1c8adfe37646450655f6122bd2f8f7.jpg",
    "icongray": "https://steamcdn-a.akamaihd.net/steamcommunity/public/images/apps/454480/62f349af28bc46fd9de777bb3375238bf69f81b1.jpg"
  },
  {
    "name": "Soul_manipulator",
    "defaultvalue": 0,
    "displayName": "The Soul manipulator",
    "hidden": 0,
    "description": "Be A Soul manipulator",
    "icon": "https://steamcdn-a.akamaihd.net/steamcommunity/public/images/apps/454480/fc42bb126db9d8a0b06dd5b7ff8e8219f8ce9708.jpg",
    "icongray": "https://steamcdn-a.akamaihd.net/steamcommunity/public/images/apps/454480/bc840b7d1dd9a7c254ca9dd9208a44f2992298cc.jpg"
  },
  {
    "name": "Switching_organ",
    "defaultvalue": 0,
    "displayName": "The Switching organ",
    "hidden": 0,
    "description": "Can Switching organ",
    "icon": "https://steamcdn-a.akamaihd.net/steamcommunity/public/images/apps/454480/5add77259f6805a2bed3cd5ac6fd69b27dabba81.jpg",
    "icongray": "https://steamcdn-a.akamaihd.net/steamcommunity/public/images/apps/454480/146d22217d9b5a2ba2d40c786c39ee15639dd18d.jpg"
  },
  {
    "name": "Collector",
    "defaultvalue": 0,
    "displayName": "The Collector",
    "hidden": 0,
    "description": "Be A Collector",
    "icon": "https://steamcdn-a.akamaihd.net/steamcommunity/public/images/apps/454480/89cbb7cffe6c257679f7c1e3a341b7c85c28cc0b.jpg",
    "icongray": "https://steamcdn-a.akamaihd.net/steamcommunity/public/images/apps/454480/756b730f8d6834f9c282389bfb67430c8453d17a.jpg"
  },
  {
    "name": "Slayer",
    "defaultvalue": 0,
    "displayName": "The Slayer",
    "hidden": 0,
    "description": "Be A Slayer",
    "icon": "https://steamcdn-a.akamaihd.net/steamcommunity/public/images/apps/454480/eea2777f6266ee6d09f5f9fb29284cd672fd3483.jpg",
    "icongray": "https://steamcdn-a.akamaihd.net/steamcommunity/public/images/apps/454480/cd0d89af5c10702a408f341a4ece813230bea721.jpg"
  },
  {
    "name": "Use_Human",
    "defaultvalue": 0,
    "displayName": "Use The human",
    "hidden": 0,
    "description": "The Use Of Human Experts",
    "icon": "https://steamcdn-a.akamaihd.net/steamcommunity/public/images/apps/454480/e4d6f977a8d9a7ed18d2b1c65d2cc4a838b04ad2.jpg",
    "icongray": "https://steamcdn-a.akamaihd.net/steamcommunity/public/images/apps/454480/c359b0bbeebb96ca53277def69ea67ad67687b2e.jpg"
  },
  {
    "name": "Final_Medal",
    "defaultvalue": 0,
    "displayName": "The Final Medal",
    "hidden": 0,
    "description": "The Final Medal, Well done.",
    "icon": "https://steamcdn-a.akamaihd.net/steamcommunity/public/images/apps/454480/5afcd3254c34100614e08e7115ad1b95d7ee0ef9.jpg",
    "icongray": "https://steamcdn-a.akamaihd.net/steamcommunity/public/images/apps/454480/9d9ee976ac0e9e57bbbfd08838520e0711507545.jpg"
  }
]