[
  {
    "name": "space_firefighter",
    "defaultvalue": 0,
    "displayName": "Space firefighter",
    "hidden": 0,
    "description": "Extinguish the fire",
    "icon": "https://steamcdn-a.akamaihd.net/steamcommunity/public/images/apps/699180/afbbe1b8c255a2c52bd5968a9add282b3bcd1deb.jpg",
    "icongray": "https://steamcdn-a.akamaihd.net/steamcommunity/public/images/apps/699180/ca05dd67772ba0d3e83de8bd77b3e50bea85dafe.jpg"
  },
  {
    "name": "cat_n_mouse",
    "defaultvalue": 0,
    "displayName": "Cat and Mouse!",
    "hidden": 0,
    "description": "Synchronize repair robots",
    "icon": "https://steamcdn-a.akamaihd.net/steamcommunity/public/images/apps/699180/cc31c24eb307d5215f45e33316d1f208d3804ab0.jpg",
    "icongray": "https://steamcdn-a.akamaihd.net/steamcommunity/public/images/apps/699180/33449758d0588f8a7b407a55aa6d5d04ad3a53c4.jpg"
  },
  {
    "name": "full_upgrade",
    "defaultvalue": 0,
    "displayName": "Full upgrade",
    "hidden": 0,
    "description": "Upgrade the ship to a maximum",
    "icon": "https://steamcdn-a.akamaihd.net/steamcommunity/public/images/apps/699180/3dfb9254a81ebfa5baf828cbf2a1aedc58692045.jpg",
    "icongray": "https://steamcdn-a.akamaihd.net/steamcommunity/public/images/apps/699180/a1cdc29118e36e144019ef95be956fe8c0cf5e39.jpg"
  },
  {
    "name": "asteroid",
    "defaultvalue": 0,
    "displayName": "Goodbye, asteroids!",
    "hidden": 0,
    "description": "Leave the field of asteroids",
    "icon": "https://steamcdn-a.akamaihd.net/steamcommunity/public/images/apps/699180/9037773567034f64e6186ae5e1d0fc6bba1a60f6.jpg",
    "icongray": "https://steamcdn-a.akamaihd.net/steamcommunity/public/images/apps/699180/7590a6958699f191a576f3b006d01be0f1656d30.jpg"
  },
  {
    "name": "antimatter",
    "defaultvalue": 0,
    "displayName": "Anti-matter",
    "hidden": 0,
    "description": "To fill anti-matter tanks",
    "icon": "https://steamcdn-a.akamaihd.net/steamcommunity/public/images/apps/699180/ca665702bac667b5d86c5402e68cb6377c05874f.jpg",
    "icongray": "https://steamcdn-a.akamaihd.net/steamcommunity/public/images/apps/699180/326fec8e32ec5460edf98f27db1bd8658f87531e.jpg"
  },
  {
    "name": "octopus",
    "defaultvalue": 0,
    "displayName": "Timid octopuses!",
    "hidden": 0,
    "description": "To banish three octopuses",
    "icon": "https://steamcdn-a.akamaihd.net/steamcommunity/public/images/apps/699180/de9834fddc8f3adbd89b225c62f8e7206a54bc8e.jpg",
    "icongray": "https://steamcdn-a.akamaihd.net/steamcommunity/public/images/apps/699180/997ad02c15244c445b2eb95479d598b26d5e64e7.jpg"
  },
  {
    "name": "colonist",
    "defaultvalue": 0,
    "displayName": "Сolonist!",
    "hidden": 0,
    "description": "Finish a game",
    "icon": "https://steamcdn-a.akamaihd.net/steamcommunity/public/images/apps/699180/ab536111b7b06fa73756b1c880aa52f464167ebf.jpg",
    "icongray": "https://steamcdn-a.akamaihd.net/steamcommunity/public/images/apps/699180/d2292dda914c84f7763c08c2907927fa82b17475.jpg"
  },
  {
    "name": "speed",
    "defaultvalue": 0,
    "displayName": "420 Actions Per Minute!",
    "hidden": 0,
    "description": "To make I seven turns of pedals a second",
    "icon": "https://steamcdn-a.akamaihd.net/steamcommunity/public/images/apps/699180/94a7214b35d2ed0e3497577bc26f70ae83fa0684.jpg",
    "icongray": "https://steamcdn-a.akamaihd.net/steamcommunity/public/images/apps/699180/1b24b5e0a4a0a18d62a11bfd692b64d10dbdc48d.jpg"
  },
  {
    "name": "cyclocross",
    "defaultvalue": 0,
    "displayName": "Cyclocross",
    "hidden": 0,
    "description": "Make 1000 turns of the pedal",
    "icon": "https://steamcdn-a.akamaihd.net/steamcommunity/public/images/apps/699180/5aded0f2311d4b2b365291bfe55b789dfb6499b7.jpg",
    "icongray": "https://steamcdn-a.akamaihd.net/steamcommunity/public/images/apps/699180/d3fa45e13008725820b78404421871ad163121fb.jpg"
  },
  {
    "name": "overflow",
    "defaultvalue": 0,
    "displayName": "Overflow",
    "hidden": 0,
    "description": "To gain 100000000 energy",
    "icon": "https://steamcdn-a.akamaihd.net/steamcommunity/public/images/apps/699180/8efd1138dfcf0a01791a139efae1718ec5dcc59b.jpg",
    "icongray": "https://steamcdn-a.akamaihd.net/steamcommunity/public/images/apps/699180/fe4507bc7497d289f72eed75907c878ccb325d29.jpg"
  }
]