[
  {
    "name": "GameStart",
    "defaultvalue": 0,
    "displayName": "GameStart",
    "hidden": 0,
    "description": "GameStart",
    "icon": "https://steamcdn-a.akamaihd.net/steamcommunity/public/images/apps/1161800/d4cfd7dcc8e3f2097304475e852fb0db98cea78d.jpg",
    "icongray": "https://steamcdn-a.akamaihd.net/steamcommunity/public/images/apps/1161800/b1836d7bd93b01044c4c981f21566c387906aad2.jpg"
  },
  {
    "name": "GameClear1",
    "defaultvalue": 0,
    "displayName": "GameClear1",
    "hidden": 0,
    "description": "GameClear1",
    "icon": "https://steamcdn-a.akamaihd.net/steamcommunity/public/images/apps/1161800/d99776743087954ad7856397097e33bc7fd58cb4.jpg",
    "icongray": "https://steamcdn-a.akamaihd.net/steamcommunity/public/images/apps/1161800/b1836d7bd93b01044c4c981f21566c387906aad2.jpg"
  },
  {
    "name": "GameClear2",
    "defaultvalue": 0,
    "displayName": "GameClear2",
    "hidden": 0,
    "description": "GameClear2",
    "icon": "https://steamcdn-a.akamaihd.net/steamcommunity/public/images/apps/1161800/380adb1b0aa8fb6d6063b52d7f2c3a5c4387d313.jpg",
    "icongray": "https://steamcdn-a.akamaihd.net/steamcommunity/public/images/apps/1161800/b1836d7bd93b01044c4c981f21566c387906aad2.jpg"
  },
  {
    "name": "GameClear3",
    "defaultvalue": 0,
    "displayName": "GameClear3",
    "hidden": 0,
    "description": "GameClear3",
    "icon": "https://steamcdn-a.akamaihd.net/steamcommunity/public/images/apps/1161800/c2c9fbac97ee3e8ff909c59e43dd811b02c5c875.jpg",
    "icongray": "https://steamcdn-a.akamaihd.net/steamcommunity/public/images/apps/1161800/b1836d7bd93b01044c4c981f21566c387906aad2.jpg"
  }
]