{
  "Dlcs": {
    "849130": {
      "Name": "Usurper - Original Soundtrack",
      "ImageUrl": "https://steamcdn-a.akamaihd.net/steam/apps/849130/header.jpg?t=1524216535"
    }
  },
  "Name": "Skautfold: Usurper",
  "AppId": "603020",
  "ImageUrl": "https://steamcdn-a.akamaihd.net/steam/apps/603020/header.jpg?t=1565167542",
  "Languages": [
    "english"
  ],
  "Platforms": {
    "windows": true,
    "mac": false,
    "linux": false
  }
}