{
  "Dlcs": {
    "1109530": {
      "Name": "KALEIDO STELLA-Original Sound Track",
      "ImageUrl": "https://steamcdn-a.akamaihd.net/steam/apps/1109530/header.jpg?t=1561437206"
    }
  },
  "Name": "KALEIDO STELLA",
  "AppId": "1005890",
  "ImageUrl": "https://steamcdn-a.akamaihd.net/steam/apps/1005890/header.jpg?t=1561439291",
  "Languages": [
    "english",
    "japanese"
  ],
  "Platforms": {
    "windows": true,
    "mac": false,
    "linux": false
  }
}