{
  "Dlcs": {},
  "Name": "Cranky Cat",
  "AppId": "236290",
  "ImageUrl": "https://steamcdn-a.akamaihd.net/steam/apps/236290/header.jpg?t=1447357713",
  "Languages": [
    "english"
  ],
  "Platforms": {
    "windows": true,
    "mac": false,
    "linux": false
  }
}