﻿{
  "Dlcs": {},
  "Name": "Zenith",
  "AppId": "438420",
  "ImageUrl": "https://steamcdn-a.akamaihd.net/steam/apps/438420/header.jpg?t=1568712128",
  "Languages": [
    "english",
    "french",
    "italian",
    "german",
    "spanish",
    "russian"
  ],
  "Platforms": {
    "windows": true,
    "mac": false,
    "linux": false
  }
}