﻿[
  {
    "name": "ACH_UNLOCK_FIRST_ITEM",
    "defaultvalue": 0,
    "displayName": "Treasure",
    "hidden": 0,
    "description": "Unlock your first Puzzle Maker item",
    "icon": "https://steamcdn-a.akamaihd.net/steamcommunity/public/images/apps/214550/18f2e5a959efcfb3ad9357580a50af75ac0b57b3.jpg",
    "icongray": "https://steamcdn-a.akamaihd.net/steamcommunity/public/images/apps/214550/5f4d7c27f6ed04da276b460673ad0fe8a801381e.jpg"
  },
  {
    "name": "ACH_1_UNUSED_ITEM",
    "defaultvalue": 0,
    "displayName": "Fast Eater",
    "hidden": 0,
    "description": "Complete a puzzle without using all the items",
    "icon": "https://steamcdn-a.akamaihd.net/steamcommunity/public/images/apps/214550/469971d1c28b073a6646f44ed6e875b269389e61.jpg",
    "icongray": "https://steamcdn-a.akamaihd.net/steamcommunity/public/images/apps/214550/e23d4a1883657cba9fd0bd9a5e9b07a1d5438b5e.jpg"
  },
  {
    "name": "ACH_LEVEL_IN_EVERY_WORLD",
    "defaultvalue": 0,
    "displayName": "Sampler",
    "hidden": 0,
    "description": "Complete a puzzle in every world",
    "icon": "https://steamcdn-a.akamaihd.net/steamcommunity/public/images/apps/214550/2595a6fcfc4a6176d44d34812c3f3cc4171383a2.jpg",
    "icongray": "https://steamcdn-a.akamaihd.net/steamcommunity/public/images/apps/214550/f394742a0a99880e13513f65a6b4a1a1c72f40cd.jpg"
  },
  {
    "name": "ACH_50_TREATS",
    "defaultvalue": 0,
    "displayName": "Munchies",
    "hidden": 0,
    "description": "Get 50 Treats",
    "icon": "https://steamcdn-a.akamaihd.net/steamcommunity/public/images/apps/214550/165d32fc87817dda4a665d4f63bf7f8e5cff047a.jpg",
    "icongray": "https://steamcdn-a.akamaihd.net/steamcommunity/public/images/apps/214550/4ac40e8bf67ae94a772badcc7fea14505d237929.jpg"
  },
  {
    "name": "ACH_SHARE_LEVEL",
    "defaultvalue": 0,
    "displayName": "Sharing is caring",
    "hidden": 0,
    "description": "Share a puzzle",
    "icon": "https://steamcdn-a.akamaihd.net/steamcommunity/public/images/apps/214550/d77a38f00a3ca927c0e6fb46cfc5f2c51935405f.jpg",
    "icongray": "https://steamcdn-a.akamaihd.net/steamcommunity/public/images/apps/214550/66c34de7136d751d7e52be73d72405b0f3fc56a0.jpg"
  },
  {
    "name": "ACH_2_UNUSED_ITEMS",
    "defaultvalue": 0,
    "displayName": "Efficiency Committee",
    "hidden": 0,
    "description": "Complete a puzzle without using 2 items",
    "icon": "https://steamcdn-a.akamaihd.net/steamcommunity/public/images/apps/214550/dd1857643f23126d6b7c96bef4b35c12404ffe3e.jpg",
    "icongray": "https://steamcdn-a.akamaihd.net/steamcommunity/public/images/apps/214550/ce340812145489cf0c429be3a261d0ab55e77964.jpg"
  },
  {
    "name": "ACH_INHALE_PIG_BARF",
    "defaultvalue": 0,
    "displayName": "Tastes better the second time",
    "hidden": 0,
    "description": "Lob a Pig Barf using an Inhale Whale",
    "icon": "https://steamcdn-a.akamaihd.net/steamcommunity/public/images/apps/214550/c40a619892ec1915393caedb0a7f892c7af98bb6.jpg",
    "icongray": "https://steamcdn-a.akamaihd.net/steamcommunity/public/images/apps/214550/02e3a431a124561800230b68f292d116431f9597.jpg"
  },
  {
    "name": "ACH_MOVE_TREAT_WITH_CART",
    "defaultvalue": 0,
    "displayName": "Dimsum",
    "hidden": 0,
    "description": "Move a Treat using an Ejection Cart",
    "icon": "https://steamcdn-a.akamaihd.net/steamcommunity/public/images/apps/214550/786b3fc7555762926895e30f826676b40321b5ed.jpg",
    "icongray": "https://steamcdn-a.akamaihd.net/steamcommunity/public/images/apps/214550/2d63cf67d9098a60176bc2b84cc798d413c1305b.jpg"
  },
  {
    "name": "ACH_COMPLETE_SHARED_LEVEL",
    "defaultvalue": 0,
    "displayName": "Exotic cuisine",
    "hidden": 0,
    "description": "Complete a puzzle from the Workshop",
    "icon": "https://steamcdn-a.akamaihd.net/steamcommunity/public/images/apps/214550/3d2a5b43fe2035d2105361247c70ce5028513361.jpg",
    "icongray": "https://steamcdn-a.akamaihd.net/steamcommunity/public/images/apps/214550/f49898463bc362a1c6a5ddb56f6c76a1e4d0ea2b.jpg"
  },
  {
    "name": "ACH_ALL_LEVELS_IN_WORLD",
    "defaultvalue": 0,
    "displayName": "Prix Fixe Menu",
    "hidden": 0,
    "description": "Complete all puzzles in any world",
    "icon": "https://steamcdn-a.akamaihd.net/steamcommunity/public/images/apps/214550/f3140ac7ec80cd8f3de81d0168d9e5ac84f32eda.jpg",
    "icongray": "https://steamcdn-a.akamaihd.net/steamcommunity/public/images/apps/214550/01e9281ada46f021f267c716a88e6dcfe1a69dc6.jpg"
  },
  {
    "name": "ACH_100_TREATS",
    "defaultvalue": 0,
    "displayName": "Centuriyum",
    "hidden": 0,
    "description": "Get 100 Treats",
    "icon": "https://steamcdn-a.akamaihd.net/steamcommunity/public/images/apps/214550/03966b36869e347be1dc6cc8d8164345332d0195.jpg",
    "icongray": "https://steamcdn-a.akamaihd.net/steamcommunity/public/images/apps/214550/d4549aa9dc88bc6cf7fbd7e416e35c846ebd12ee.jpg"
  },
  {
    "name": "ACH_COMPLETE_ALL_LEVELS",
    "defaultvalue": 0,
    "displayName": "All the cakes, forever always",
    "hidden": 0,
    "description": "Complete all puzzles",
    "icon": "https://steamcdn-a.akamaihd.net/steamcommunity/public/images/apps/214550/6e4fa33ef8035cd67d7ca22f2e7f31745a161a4f.jpg",
    "icongray": "https://steamcdn-a.akamaihd.net/steamcommunity/public/images/apps/214550/d477c0c01f3b64dcf99243e747709237f1e4540b.jpg"
  },
  {
    "name": "ACH_GET_ALL_TREATS",
    "defaultvalue": 0,
    "displayName": "Gigantic Feast",
    "hidden": 0,
    "description": "Get all the Treats",
    "icon": "https://steamcdn-a.akamaihd.net/steamcommunity/public/images/apps/214550/25d0934acdcd216b7b45e14302acb42035d6197e.jpg",
    "icongray": "https://steamcdn-a.akamaihd.net/steamcommunity/public/images/apps/214550/b9a3ed3bba9c3040fdcfbbdf703646aad4c894a6.jpg"
  },
  {
    "name": "ACH_UNLOCK_BONUS_LEVEL",
    "defaultvalue": 0,
    "displayName": "Can't get enough",
    "hidden": 0,
    "description": "Unlock your first bonus puzzle",
    "icon": "https://steamcdn-a.akamaihd.net/steamcommunity/public/images/apps/214550/d1e55a3fe54dd4bf52b46978a318f8c17f5047cf.jpg",
    "icongray": "https://steamcdn-a.akamaihd.net/steamcommunity/public/images/apps/214550/e5a45ef4d3f28498c8ffcec99e54f1a21efa617c.jpg"
  }
]