{
  "Dlcs": {},
  "Name": "To Catch a Monkey",
  "AppId": "931780",
  "ImageUrl": "https://steamcdn-a.akamaihd.net/steam/apps/931780/header.jpg?t=1574438673",
  "Languages": [
    "english"
  ],
  "Platforms": {
    "windows": true,
    "mac": false,
    "linux": false
  }
}