{
  "Dlcs": {},
  "Name": "Burger Lord",
  "AppId": "923630",
  "ImageUrl": "https://steamcdn-a.akamaihd.net/steam/apps/923630/header.jpg?t=1541503714",
  "Languages": [
    "english"
  ],
  "Platforms": {
    "windows": true,
    "mac": false,
    "linux": false
  }
}