﻿[
  {
    "name": "FINISH_CAMPAIGN_1",
    "defaultvalue": 0,
    "displayName": "Home Sweet Home",
    "hidden": 0,
    "description": "Complete the campaign \"Long Live the Queen\"",
    "icon": "https://steamcdn-a.akamaihd.net/steamcommunity/public/images/apps/297000/44ab3bfe2e3873b8dcb554374e4195c5d7f107d7.jpg",
    "icongray": "https://steamcdn-a.akamaihd.net/steamcommunity/public/images/apps/297000/55cfdf61db586264fd8baeb1e91a929a44c846e5.jpg"
  },
  {
    "name": "FINISH_CAMPAIGN_2",
    "defaultvalue": 0,
    "displayName": "Devilish",
    "hidden": 0,
    "description": "Complete the campaign \"Dungeons and Devils\"",
    "icon": "https://steamcdn-a.akamaihd.net/steamcommunity/public/images/apps/297000/2c237742b3314ae8eb0dff95cf6338f467fe8e16.jpg",
    "icongray": "https://steamcdn-a.akamaihd.net/steamcommunity/public/images/apps/297000/70212c08059843aee533e62ad25138d3402cb2c9.jpg"
  },
  {
    "name": "FINISH_CAMPAIGN_3_1",
    "defaultvalue": 0,
    "displayName": "Cold Blooded",
    "hidden": 0,
    "description": "Complete the campaign \"Spoils of War\" on Tatalia's side",
    "icon": "https://steamcdn-a.akamaihd.net/steamcommunity/public/images/apps/297000/35d4f12a1d2bc34a6df9b542ffdb3ee270d1fe23.jpg",
    "icongray": "https://steamcdn-a.akamaihd.net/steamcommunity/public/images/apps/297000/8a16338d4cb3671728b5021c0bedbe73c1dc7c70.jpg"
  },
  {
    "name": "FINISH_CAMPAIGN_3_2",
    "defaultvalue": 0,
    "displayName": "Berserker",
    "hidden": 0,
    "description": "Complete the campaign \"Spoils of War\" on Krewlod's side",
    "icon": "https://steamcdn-a.akamaihd.net/steamcommunity/public/images/apps/297000/479691dd6004f52fb9a0d3418311601fd5eeb849.jpg",
    "icongray": "https://steamcdn-a.akamaihd.net/steamcommunity/public/images/apps/297000/921dd96a5f992384edfec22e53ec77d9971772e3.jpg"
  },
  {
    "name": "FINISH_CAMPAIGN_4",
    "defaultvalue": 0,
    "displayName": "Liberator",
    "hidden": 0,
    "description": "Complete the campaign \"Liberation\"",
    "icon": "https://steamcdn-a.akamaihd.net/steamcommunity/public/images/apps/297000/12c6d381abca3b0d6fefdfd20f597f7ced94eabc.jpg",
    "icongray": "https://steamcdn-a.akamaihd.net/steamcommunity/public/images/apps/297000/eb9df42f64a91201cca39e0cd8f20984e6d6084d.jpg"
  },
  {
    "name": "FINISH_CAMPAIGN_5",
    "defaultvalue": 0,
    "displayName": "Lich King",
    "hidden": 0,
    "description": "Complete the campaign \"Long Live the King\"",
    "icon": "https://steamcdn-a.akamaihd.net/steamcommunity/public/images/apps/297000/704c81f70757bc139ea327b703a3c092f6af9065.jpg",
    "icongray": "https://steamcdn-a.akamaihd.net/steamcommunity/public/images/apps/297000/2bdb9fa256ec178530e2fc5c0c957b6563831622.jpg"
  },
  {
    "name": "FINISH_CAMPAIGN_6",
    "defaultvalue": 0,
    "displayName": "Erathia Restored",
    "hidden": 0,
    "description": "Complete the campaign \"Songs of the Father\"",
    "icon": "https://steamcdn-a.akamaihd.net/steamcommunity/public/images/apps/297000/30a22388b5d9224d00bea84bc982f40a006d5f34.jpg",
    "icongray": "https://steamcdn-a.akamaihd.net/steamcommunity/public/images/apps/297000/9f6c8c8b59a789cc8c525496ae3abd0dbe80d018.jpg"
  },
  {
    "name": "FINISH_CAMPAIGN_7",
    "defaultvalue": 0,
    "displayName": "Independence",
    "hidden": 0,
    "description": "Complete the campaign \"Seeds of Discontent\"",
    "icon": "https://steamcdn-a.akamaihd.net/steamcommunity/public/images/apps/297000/272c78da5cdc597c367e9870ca18f802c246b8b8.jpg",
    "icongray": "https://steamcdn-a.akamaihd.net/steamcommunity/public/images/apps/297000/d8ae0e4d0eaea6d7571644e7e62f5aecf9bcbf7d.jpg"
  },
  {
    "name": "WIN_10_MAPS_NORMAL",
    "defaultvalue": 0,
    "displayName": "Squire",
    "hidden": 0,
    "description": "Complete 10 maps on Normal Difficulty without cheating",
    "icon": "https://steamcdn-a.akamaihd.net/steamcommunity/public/images/apps/297000/92634389c7672ae6d81cb6e751055e698fec6139.jpg",
    "icongray": "https://steamcdn-a.akamaihd.net/steamcommunity/public/images/apps/297000/128ae568b5de7f111488119ceb245ed1d597062a.jpg"
  },
  {
    "name": "WIN_10_MAPS_HARD",
    "defaultvalue": 0,
    "displayName": "Knight",
    "hidden": 0,
    "description": "Complete 10 maps on Hard Difficulty without cheating",
    "icon": "https://steamcdn-a.akamaihd.net/steamcommunity/public/images/apps/297000/778364dd7a9c66281fcd7a8df21d8b4f4e78591a.jpg",
    "icongray": "https://steamcdn-a.akamaihd.net/steamcommunity/public/images/apps/297000/2c3febcd8fd12dfa73ef56b0191dce8417e50f50.jpg"
  },
  {
    "name": "WIN_10_MAPS_EXPERT",
    "defaultvalue": 0,
    "displayName": "General",
    "hidden": 0,
    "description": "Complete 10 maps on Expert Difficulty without cheating",
    "icon": "https://steamcdn-a.akamaihd.net/steamcommunity/public/images/apps/297000/488612dc1d8dfae4274491cf30717721bb98c779.jpg",
    "icongray": "https://steamcdn-a.akamaihd.net/steamcommunity/public/images/apps/297000/d6be4e4ad3192a96110ab5c49207563f635d3a28.jpg"
  },
  {
    "name": "WIN_10_MAPS_IMPOSSIBLE",
    "defaultvalue": 0,
    "displayName": "Hero",
    "hidden": 0,
    "description": "Complete 10 maps on Impossible Difficulty without cheating",
    "icon": "https://steamcdn-a.akamaihd.net/steamcommunity/public/images/apps/297000/224e2c02a3fe7b35e2c00f193f0eb116f84570c1.jpg",
    "icongray": "https://steamcdn-a.akamaihd.net/steamcommunity/public/images/apps/297000/0b435efd531fefc409d96c459b49da649b00f233.jpg"
  },
  {
    "name": "USE_CHEAT",
    "defaultvalue": 0,
    "displayName": "Fetchez la Vache!",
    "hidden": 1,
    "icon": "https://steamcdn-a.akamaihd.net/steamcommunity/public/images/apps/297000/5b261cdda6e3e4c9afc8fb3344bbcf3686e915e9.jpg",
    "icongray": "https://steamcdn-a.akamaihd.net/steamcommunity/public/images/apps/297000/a04c1d59b63abbea22488450d29bbf34ecbb2113.jpg"
  }
]