[
  {
    "name": "BALLOON_FULL_1",
    "defaultvalue": 0,
    "displayName": "Starter",
    "hidden": 0,
    "description": "Score 100",
    "icon": "https://steamcdn-a.akamaihd.net/steamcommunity/public/images/apps/855030/695722f60a0c1a30a693c7577bc15350354f7f7a.jpg",
    "icongray": "https://steamcdn-a.akamaihd.net/steamcommunity/public/images/apps/855030/5f00039cae283b5d638bed2008362ff25f7aa3b0.jpg"
  },
  {
    "name": "BALLOON_FULL_2",
    "defaultvalue": 0,
    "displayName": "Hero",
    "hidden": 0,
    "description": "Score 150",
    "icon": "https://steamcdn-a.akamaihd.net/steamcommunity/public/images/apps/855030/498e1cfeaa7516fcb89b70b60d1050154f4f054c.jpg",
    "icongray": "https://steamcdn-a.akamaihd.net/steamcommunity/public/images/apps/855030/60129037fddf03f70e339bc8e529d66d3c5e99b3.jpg"
  },
  {
    "name": "BALLOON_FULL_3",
    "defaultvalue": 0,
    "displayName": "Champion",
    "hidden": 0,
    "description": "Score 200",
    "icon": "https://steamcdn-a.akamaihd.net/steamcommunity/public/images/apps/855030/7aa996fd0088aa89c3d6697ad59ad2d9d27f8376.jpg",
    "icongray": "https://steamcdn-a.akamaihd.net/steamcommunity/public/images/apps/855030/a3bb228dd2365c74f32faf525decec881583b909.jpg"
  }
]