{
  "Dlcs": {},
  "Name": "Achievement Machine: Cubic Chaos",
  "AppId": "1067370",
  "ImageUrl": "https://steamcdn-a.akamaihd.net/steam/apps/1067370/header.jpg?t=1593664710",
  "Languages": [
    "english",
    "german",
    "schinese",
    "russian"
  ],
  "Platforms": {
    "windows": true,
    "mac": true,
    "linux": false
  }
}