﻿{
  "Dlcs": {},
  "Name": "Anomaly 2",
  "AppId": "236730",
  "ImageUrl": "https://steamcdn-a.akamaihd.net/steam/apps/236730/header.jpg?t=1589371587",
  "Languages": [
    "english",
    "french",
    "german",
    "spanish",
    "polish",
    "russian"
  ],
  "Platforms": {
    "windows": true,
    "mac": true,
    "linux": true
  }
}