{
  "Dlcs": {},
  "Name": "Running Girl",
  "AppId": "937970",
  "ImageUrl": "https://steamcdn-a.akamaihd.net/steam/apps/937970/header.jpg?t=1596643653",
  "Languages": [
    "english",
    "french",
    "italian",
    "german",
    "spanish",
    "czech",
    "danish",
    "dutch",
    "finnish",
    "hungarian",
    "japanese",
    "korean",
    "polish",
    "portuguese",
    "russian",
    "schinese",
    "swedish",
    "thai",
    "tchinese",
    "turkish"
  ],
  "Platforms": {
    "windows": true,
    "mac": true,
    "linux": true
  }
}