﻿[
  {
    "name": "STAT_NUM_RABBIT_BABIES",
    "defaultvalue": 0,
    "displayName": "Rabbit babies born"
  },
  {
    "name": "STAT_RUNES_FOUND",
    "defaultvalue": 0,
    "displayName": "Runes found"
  },
  {
    "name": "STAT_SLIVERS_CARRIED",
    "defaultvalue": 0,
    "displayName": "Most slivers carried"
  }
]