﻿[
  {
    "name": "ACH_GAME_COMPLETE_RUBY",
    "defaultvalue": 0,
    "displayName": "Ruby Rose",
    "hidden": 0,
    "description": "Complete the campaign using Ruby.",
    "icon": "https://steamcdn-a.akamaihd.net/steamcommunity/public/images/apps/418340/b03a1c3c8af8c2d2a4732666ccca28a916e2d98f.jpg",
    "icongray": "https://steamcdn-a.akamaihd.net/steamcommunity/public/images/apps/418340/20b880c08b7a7e924adf48d8b0604e826ea9d7af.jpg"
  },
  {
    "name": "ACH_GAME_COMPLETE_YANG",
    "defaultvalue": 0,
    "displayName": "Yang Xiao Long",
    "hidden": 0,
    "description": "Complete the campaign using Yang.",
    "icon": "https://steamcdn-a.akamaihd.net/steamcommunity/public/images/apps/418340/cc3766d8d46f1b53529128bacb89be41e6a77791.jpg",
    "icongray": "https://steamcdn-a.akamaihd.net/steamcommunity/public/images/apps/418340/fd9a684e088fe075d53b3bb1d479f7311c90e4ca.jpg"
  },
  {
    "name": "ACH_GAME_COMPLETE_BLAKE",
    "defaultvalue": 0,
    "displayName": "Blake Belladonna",
    "hidden": 0,
    "description": "Complete the campaign using Blake.",
    "icon": "https://steamcdn-a.akamaihd.net/steamcommunity/public/images/apps/418340/1075e642615309a36a5ba76e3ea5d28c315748fa.jpg",
    "icongray": "https://steamcdn-a.akamaihd.net/steamcommunity/public/images/apps/418340/c37cf00c3e51dd6c20cf2e46097b12a45e2da654.jpg"
  },
  {
    "name": "ACH_GAME_COMPLETE_WEISS",
    "defaultvalue": 0,
    "displayName": "Weiss Schnee",
    "hidden": 0,
    "description": "Complete the campaign using Weiss.",
    "icon": "https://steamcdn-a.akamaihd.net/steamcommunity/public/images/apps/418340/2cae03b75664a090531f7cf0d70738a113d67c58.jpg",
    "icongray": "https://steamcdn-a.akamaihd.net/steamcommunity/public/images/apps/418340/873e0ee7ec161049344dee0222df7d0fc570da89.jpg"
  },
  {
    "name": "ACH_RESPEC",
    "defaultvalue": 0,
    "displayName": "A Little Respec",
    "hidden": 0,
    "description": "Refund all of your Ability Points.",
    "icon": "https://steamcdn-a.akamaihd.net/steamcommunity/public/images/apps/418340/849a5f7e28567aeb76473e9ac9d05322a7ee5f48.jpg",
    "icongray": "https://steamcdn-a.akamaihd.net/steamcommunity/public/images/apps/418340/6a0b516a668864528740c936bf4cb9643fa53305.jpg"
  },
  {
    "name": "ACH_OFFLINE",
    "defaultvalue": 0,
    "displayName": "Going Solo",
    "hidden": 0,
    "description": "Complete the campaign in single player.",
    "icon": "https://steamcdn-a.akamaihd.net/steamcommunity/public/images/apps/418340/8466ad80dcd388afcba65bf68457ec51b7a8dccd.jpg",
    "icongray": "https://steamcdn-a.akamaihd.net/steamcommunity/public/images/apps/418340/f7cbd8fd86f871e341fcc09b585199e67ec22783.jpg"
  },
  {
    "name": "ACH_FULL_TEAM_MATCH",
    "defaultvalue": 0,
    "displayName": "Go Team RWBY!",
    "hidden": 0,
    "description": "Play in an online match with all four team RWBY members present.",
    "icon": "https://steamcdn-a.akamaihd.net/steamcommunity/public/images/apps/418340/cd6e80701ea8392bf1a2ea1e0a4abf2e1ff9e9d6.jpg",
    "icongray": "https://steamcdn-a.akamaihd.net/steamcommunity/public/images/apps/418340/c5112b378c72049a62ec68d9679dc6745e6dc371.jpg"
  },
  {
    "name": "ACH_ONE_HUNDRED",
    "defaultvalue": 0,
    "displayName": "Keep it 100",
    "hidden": 0,
    "description": "Reach 100 hits on the combo counter.",
    "icon": "https://steamcdn-a.akamaihd.net/steamcommunity/public/images/apps/418340/b685ec786b1fabe814d6280d41498669eecbfaa5.jpg",
    "icongray": "https://steamcdn-a.akamaihd.net/steamcommunity/public/images/apps/418340/19eb7699e93ffba1d33026992bf6d66a6b3d4c40.jpg"
  },
  {
    "name": "ACH_MEDIC",
    "defaultvalue": 0,
    "displayName": "Field Medic",
    "hidden": 0,
    "description": "Revive a teammate after purchasing Quick Revive. ",
    "icon": "https://steamcdn-a.akamaihd.net/steamcommunity/public/images/apps/418340/1328151a03fc97e7d0ef8dee29cbf802993b4ca0.jpg",
    "icongray": "https://steamcdn-a.akamaihd.net/steamcommunity/public/images/apps/418340/e65dcca08b26d220103260d3245dc813f68254fc.jpg"
  },
  {
    "name": "ACH_TEAM_ATTACK",
    "defaultvalue": 0,
    "displayName": "Team Player",
    "hidden": 0,
    "description": "Execute a Team Attack.",
    "icon": "https://steamcdn-a.akamaihd.net/steamcommunity/public/images/apps/418340/c7984126fd890c9bf3efe56f15f7860c841c1018.jpg",
    "icongray": "https://steamcdn-a.akamaihd.net/steamcommunity/public/images/apps/418340/090be239b5c7638039700d113bbaaf5c4b77439d.jpg"
  },
  {
    "name": "ACH_SISTER_TEAM_ATTACK",
    "defaultvalue": 0,
    "displayName": "Sister Synergy",
    "hidden": 0,
    "description": "Do a Team Attack with Ruby and Yang.",
    "icon": "https://steamcdn-a.akamaihd.net/steamcommunity/public/images/apps/418340/64d7bc85643886ce89508659db1948b02d68816f.jpg",
    "icongray": "https://steamcdn-a.akamaihd.net/steamcommunity/public/images/apps/418340/7858baabb7b06db403b5083c4251b7962ac88907.jpg"
  },
  {
    "name": "ACH_MAX_LEVEL",
    "defaultvalue": 0,
    "displayName": "Beacon Graduate",
    "hidden": 0,
    "description": "Reach rank 10 with any character. ",
    "icon": "https://steamcdn-a.akamaihd.net/steamcommunity/public/images/apps/418340/753c9f5e0a99877a11bc84dc6329a5da3db664ff.jpg",
    "icongray": "https://steamcdn-a.akamaihd.net/steamcommunity/public/images/apps/418340/d14d1e838ba13f2f0c51515ed84d659488b4040c.jpg"
  },
  {
    "name": "ACH_NO_DAMAGE",
    "defaultvalue": 0,
    "displayName": "Unscathed",
    "hidden": 0,
    "description": "Complete any level without taking damage.",
    "icon": "https://steamcdn-a.akamaihd.net/steamcommunity/public/images/apps/418340/02cd0eeea81025ff20d380a7c5de6887da865fbe.jpg",
    "icongray": "https://steamcdn-a.akamaihd.net/steamcommunity/public/images/apps/418340/a0a8b2382e1b354889bb0c00c781ea3323028053.jpg"
  },
  {
    "name": "ACH_TOP_SCORE",
    "defaultvalue": 0,
    "displayName": "Top Score",
    "hidden": 0,
    "description": "Get the highest score in a four player online match on a single level.",
    "icon": "https://steamcdn-a.akamaihd.net/steamcommunity/public/images/apps/418340/d955f7b48b41aae1408d9d606275224accd6e53b.jpg",
    "icongray": "https://steamcdn-a.akamaihd.net/steamcommunity/public/images/apps/418340/6dfd430d019f098c5c72730efa046760ff2dab67.jpg"
  },
  {
    "name": "ACH_MUTANT_ASSIST",
    "defaultvalue": 0,
    "displayName": "Mutant Hunter",
    "hidden": 0,
    "description": "Get an assist on a Mutant Beowolf.",
    "icon": "https://steamcdn-a.akamaihd.net/steamcommunity/public/images/apps/418340/63d7c4eee75e3c67340ec233d836330266f64eed.jpg",
    "icongray": "https://steamcdn-a.akamaihd.net/steamcommunity/public/images/apps/418340/47e3caa48baa14aa4e04b16e9b8ec425fce47353.jpg"
  },
  {
    "name": "ACH_AURA_DEPLETED_KILL",
    "defaultvalue": 0,
    "displayName": "Momentum Shift",
    "hidden": 0,
    "description": "Kill a Mutant Beowolf while your Aura is depleted.",
    "icon": "https://steamcdn-a.akamaihd.net/steamcommunity/public/images/apps/418340/7d659f486faae2463e88a9137c248cda50315b08.jpg",
    "icongray": "https://steamcdn-a.akamaihd.net/steamcommunity/public/images/apps/418340/71246afcc529d45f7d3d5be45667a863bad8c612.jpg"
  },
  {
    "name": "ACH_ARTIFACTS",
    "defaultvalue": 0,
    "displayName": "It Belongs in a Museum",
    "hidden": 0,
    "description": "Collect 10 artifacts during a single play session.",
    "icon": "https://steamcdn-a.akamaihd.net/steamcommunity/public/images/apps/418340/e46471c510b40db7db33c55adf32a891029fe993.jpg",
    "icongray": "https://steamcdn-a.akamaihd.net/steamcommunity/public/images/apps/418340/6d9419178a8c6f062217915f2575e16c7b0af750.jpg"
  },
  {
    "name": "ACH_WAVE_MVP",
    "defaultvalue": 0,
    "displayName": "You da Real MVP",
    "hidden": 0,
    "description": "Get Wave MVP five times in a waved encounter.",
    "icon": "https://steamcdn-a.akamaihd.net/steamcommunity/public/images/apps/418340/8f7b0a31c540758293a026a514f4c8e7f200f6a7.jpg",
    "icongray": "https://steamcdn-a.akamaihd.net/steamcommunity/public/images/apps/418340/436cf5d4459c3f5118dfe259cf17d3d51824407c.jpg"
  },
  {
    "name": "ACH_WAVE_FLAWLESS",
    "defaultvalue": 0,
    "displayName": "Crazy Science Machine",
    "hidden": 0,
    "description": "Get four flawless waves in a waved encounter.",
    "icon": "https://steamcdn-a.akamaihd.net/steamcommunity/public/images/apps/418340/5002bd1c794ef363abba790cbe88eebdb696bbd1.jpg",
    "icongray": "https://steamcdn-a.akamaihd.net/steamcommunity/public/images/apps/418340/d4805285566567c57631bda221c69435dab61d98.jpg"
  },
  {
    "name": "ACH_DELIVER_FUEL",
    "defaultvalue": 0,
    "displayName": "Team DUST",
    "hidden": 0,
    "description": "In a four player online game, each player deposits at least one dust crystal. ",
    "icon": "https://steamcdn-a.akamaihd.net/steamcommunity/public/images/apps/418340/3126e8621b7f94914a083b931c99ad08469ea8cf.jpg",
    "icongray": "https://steamcdn-a.akamaihd.net/steamcommunity/public/images/apps/418340/5621974ac8b17e3a750460e3c59418bc7de56448.jpg"
  },
  {
    "name": "ACH_BUTTER",
    "defaultvalue": 0,
    "displayName": "Butter and Butter",
    "hidden": 1,
    "icon": "https://steamcdn-a.akamaihd.net/steamcommunity/public/images/apps/418340/ac6461bb690a100c7c3c3eed1fe3ddce4a3b53eb.jpg",
    "icongray": "https://steamcdn-a.akamaihd.net/steamcommunity/public/images/apps/418340/45e9dc95fc9d91d8e9442898a2724a0b0f7415ee.jpg"
  },
  {
    "name": "ACH_JUMPING_PUZZLE",
    "defaultvalue": 0,
    "displayName": "Cleverly Disguised Jumping Puzzle",
    "hidden": 1,
    "icon": "https://steamcdn-a.akamaihd.net/steamcommunity/public/images/apps/418340/66da1fd905ff894cf82de24a16712adbcb1d0f90.jpg",
    "icongray": "https://steamcdn-a.akamaihd.net/steamcommunity/public/images/apps/418340/91739c243885c750dc2e3cd7bf964767a2dd931f.jpg"
  },
  {
    "name": "ACH_RANGED_ONLY",
    "defaultvalue": 0,
    "displayName": "It's Also a Gun",
    "hidden": 0,
    "description": "Complete any level by only using ranged attacks.",
    "icon": "https://steamcdn-a.akamaihd.net/steamcommunity/public/images/apps/418340/16a8d9a45e49b6709558790f9009ad0809c79002.jpg",
    "icongray": "https://steamcdn-a.akamaihd.net/steamcommunity/public/images/apps/418340/2af15a046a2c0506cd37e1d41b11762b843cbe48.jpg"
  },
  {
    "name": "ACH_TIME_BOMB",
    "defaultvalue": 0,
    "displayName": "Ticking Time Bomb",
    "hidden": 0,
    "description": "Complete Chapter 4 with 3:00 minutes or more left on the clock.",
    "icon": "https://steamcdn-a.akamaihd.net/steamcommunity/public/images/apps/418340/7262a76b5904b847c13c7b526c1c14bf3f910e1c.jpg",
    "icongray": "https://steamcdn-a.akamaihd.net/steamcommunity/public/images/apps/418340/6c95858783e75f1d735851129cd18e6f3079f347.jpg"
  },
  {
    "name": "ACH_ULTIMATE",
    "defaultvalue": 0,
    "displayName": "The Ultimate Ultimate",
    "hidden": 0,
    "description": "Kill 10 enemies with a single Ultimate attack",
    "icon": "https://steamcdn-a.akamaihd.net/steamcommunity/public/images/apps/418340/7de5d477dd9969e02e07615134ca3aa453b59727.jpg",
    "icongray": "https://steamcdn-a.akamaihd.net/steamcommunity/public/images/apps/418340/db15e914f8dca4ef80c95a342b6c8353670ffb59.jpg"
  },
  {
    "name": "ACH_HORDE_TURRET_KILLS",
    "defaultvalue": 0,
    "displayName": "Automated",
    "hidden": 0,
    "description": "Kill 35 enemies with turrets during a single horde match.",
    "icon": "https://steamcdn-a.akamaihd.net/steamcommunity/public/images/apps/418340/279cb4fce0eedf4e09aba29e20a574fad046abea.jpg",
    "icongray": "https://steamcdn-a.akamaihd.net/steamcommunity/public/images/apps/418340/7f505b9224ffdd8ec5ad5823693e521ca5577952.jpg"
  },
  {
    "name": "ACH_HORDE_ZERO_TURRETS",
    "defaultvalue": 0,
    "displayName": "The Old Fashioned Way",
    "hidden": 0,
    "description": "Beat any horde map without building a turret.",
    "icon": "https://steamcdn-a.akamaihd.net/steamcommunity/public/images/apps/418340/5103e33a98c8a9e9a15ef87230f1b61b809b0c68.jpg",
    "icongray": "https://steamcdn-a.akamaihd.net/steamcommunity/public/images/apps/418340/74417a37c8165020d5b9b2125593df4e4cd848f2.jpg"
  },
  {
    "name": "ACH_HORDE_TEN_TURRETS",
    "defaultvalue": 0,
    "displayName": "Turrets Times Ten",
    "hidden": 0,
    "description": "Have 10 active turrets at once during a horde match.",
    "icon": "https://steamcdn-a.akamaihd.net/steamcommunity/public/images/apps/418340/88ed5007d59eccba8321752c0fcced7eb868d175.jpg",
    "icongray": "https://steamcdn-a.akamaihd.net/steamcommunity/public/images/apps/418340/84f5a443e656eb85b729e22c88976358fd23d181.jpg"
  },
  {
    "name": "ACH_HORDE_MASTER",
    "defaultvalue": 0,
    "displayName": "Horde Master",
    "hidden": 0,
    "description": "Win any Horde map with all security nodes at 85% health.",
    "icon": "https://steamcdn-a.akamaihd.net/steamcommunity/public/images/apps/418340/4d319d4f8417a1b271b256e17caec62a58523ca3.jpg",
    "icongray": "https://steamcdn-a.akamaihd.net/steamcommunity/public/images/apps/418340/ce6cb0d6a081125efb3b8dcfda1ef943bccfed63.jpg"
  },
  {
    "name": "ACH_HORDE_SOLO",
    "defaultvalue": 0,
    "displayName": "Horde Hero",
    "hidden": 0,
    "description": "Beat any Horde map solo.",
    "icon": "https://steamcdn-a.akamaihd.net/steamcommunity/public/images/apps/418340/9a71fac313dee2f45433be800917455a3fa40d77.jpg",
    "icongray": "https://steamcdn-a.akamaihd.net/steamcommunity/public/images/apps/418340/c5e7ac8f8e8ecd6dda9b243764a502385ba43ea4.jpg"
  },
  {
    "name": "ACH_HORDE_LIEN",
    "defaultvalue": 0,
    "displayName": "Loaded with Lien",
    "hidden": 0,
    "description": "Collect a total of 20,000 Lien during any Horde match.",
    "icon": "https://steamcdn-a.akamaihd.net/steamcommunity/public/images/apps/418340/d515264ad3326b87c1295a51962919ebf75e6fe2.jpg",
    "icongray": "https://steamcdn-a.akamaihd.net/steamcommunity/public/images/apps/418340/9783ae083218d36b0c47d424775fc0731563d41a.jpg"
  },
  {
    "name": "ACH_FULL_TEAM_JNPR",
    "defaultvalue": 0,
    "displayName": "Go Team JNPR!",
    "hidden": 0,
    "description": "Play in an online match with Jaune, Nora, Pyrrha, and Ren.",
    "icon": "https://steamcdn-a.akamaihd.net/steamcommunity/public/images/apps/418340/0c722eb12590915665f95024e644093f426a336c.jpg",
    "icongray": "https://steamcdn-a.akamaihd.net/steamcommunity/public/images/apps/418340/ce83db5d94a56b6c266e9574b09a3e74facbb408.jpg"
  },
  {
    "name": "ACH_GAME_COMPLETE_JAUNE",
    "defaultvalue": 0,
    "displayName": "Jaune Arc",
    "hidden": 0,
    "description": "Complete the campaign using Jaune.",
    "icon": "https://steamcdn-a.akamaihd.net/steamcommunity/public/images/apps/418340/ed916fa3337d2134eab561589ca8ffed71c9c11e.jpg",
    "icongray": "https://steamcdn-a.akamaihd.net/steamcommunity/public/images/apps/418340/86f084e21884c37b652c60b815b70cd8987c2ebb.jpg"
  },
  {
    "name": "ACH_GAME_COMPLETE_NORA",
    "defaultvalue": 0,
    "displayName": "Nora Valkyrie",
    "hidden": 0,
    "description": "Complete the campaign using Nora.",
    "icon": "https://steamcdn-a.akamaihd.net/steamcommunity/public/images/apps/418340/2b3fa38cf54b012b54180059da750cc84367ce8b.jpg",
    "icongray": "https://steamcdn-a.akamaihd.net/steamcommunity/public/images/apps/418340/686e76e93e3fc38d80570bb06c5011491eb3856e.jpg"
  },
  {
    "name": "ACH_GAME_COMPLETE_PYRRHA",
    "defaultvalue": 0,
    "displayName": "Pyrrha Nikos",
    "hidden": 0,
    "description": "Complete the campaign using Pyrrha.",
    "icon": "https://steamcdn-a.akamaihd.net/steamcommunity/public/images/apps/418340/83a85daa5426a463d1f3d2e93dceebe7d451e31f.jpg",
    "icongray": "https://steamcdn-a.akamaihd.net/steamcommunity/public/images/apps/418340/678170bb99676877975b96b5cd9b4653141af6e0.jpg"
  },
  {
    "name": "ACH_GAME_COMPLETE_REN",
    "defaultvalue": 0,
    "displayName": "Lie Ren",
    "hidden": 0,
    "description": "Complete the campaign using Ren.",
    "icon": "https://steamcdn-a.akamaihd.net/steamcommunity/public/images/apps/418340/0fab7f733a51fbb12b430e4117331ab177ce6f8c.jpg",
    "icongray": "https://steamcdn-a.akamaihd.net/steamcommunity/public/images/apps/418340/1944ba86d7cdbd8549075361b7a0ac0d2a2b272e.jpg"
  },
  {
    "name": "ACH_FULL_TEAM_RNJR",
    "defaultvalue": 0,
    "displayName": "Spoiler Alert",
    "hidden": 1,
    "icon": "https://steamcdn-a.akamaihd.net/steamcommunity/public/images/apps/418340/785c293f0d935a3f47435056e8458edc7af6a4fb.jpg",
    "icongray": "https://steamcdn-a.akamaihd.net/steamcommunity/public/images/apps/418340/de0d9c60dba130f70aa4ed26f8e8f888f1e5211e.jpg"
  }
]