{
  "Dlcs": {},
  "Name": "Ninja?",
  "AppId": "1009910",
  "ImageUrl": "https://steamcdn-a.akamaihd.net/steam/apps/1009910/header.jpg?t=1549245611",
  "Languages": [
    "english"
  ],
  "Platforms": {
    "windows": true,
    "mac": false,
    "linux": false
  }
}