{
  "Dlcs": {},
  "Name": "Weable",
  "AppId": "683830",
  "ImageUrl": "https://steamcdn-a.akamaihd.net/steam/apps/683830/header.jpg?t=1592030134",
  "Languages": [
    "english",
    "russian"
  ],
  "Platforms": {
    "windows": true,
    "mac": false,
    "linux": false
  }
}