﻿[
  {
    "name": "GOLD",
    "defaultvalue": 0,
    "displayName": "Gold Earned"
  },
  {
    "name": "CHESTS",
    "defaultvalue": 0,
    "displayName": "Chests picked"
  },
  {
    "name": "USED_ALCHEMY",
    "defaultvalue": 0,
    "displayName": "alchemy used"
  },
  {
    "name": "KILL_DRAGON",
    "defaultvalue": 0,
    "displayName": "dragon kills"
  },
  {
    "name": "BECOME_DRAGON",
    "defaultvalue": 0,
    "displayName": "become dragon"
  },
  {
    "name": "KILL_NEUTRAL",
    "defaultvalue": 0,
    "displayName": "creep stat"
  },
  {
    "name": "KILL_HERO",
    "defaultvalue": 0,
    "displayName": "kills heroes"
  },
  {
    "name": "WINS",
    "defaultvalue": 0,
    "displayName": "game won"
  },
  {
    "name": "GAMES",
    "defaultvalue": 0,
    "displayName": "games played"
  },
  {
    "name": "DAMAGE_DEALT",
    "defaultvalue": 0,
    "displayName": "damage dealt"
  },
  {
    "name": "USED_TOKEN",
    "defaultvalue": 0,
    "displayName": "tokens used"
  },
  {
    "name": "UNLOCKED_SET_ITEM",
    "defaultvalue": 0,
    "displayName": "set items unlock"
  },
  {
    "name": "FRIEND_COUNT",
    "defaultvalue": 0,
    "displayName": "friends count"
  },
  {
    "name": "FRIEND_GAMES",
    "defaultvalue": 0,
    "displayName": "count games with friends"
  },
  {
    "name": "FULL_SET_COUNT",
    "defaultvalue": 0,
    "displayName": "full sets count"
  }
]