[
  {
    "name": "powerup",
    "defaultvalue": 0,
    "displayName": "Powered Up",
    "hidden": 0,
    "description": "",
    "icon": "https://steamcdn-a.akamaihd.net/steamcommunity/public/images/apps/848730/55dc11063f0c5288da81e9140abdc92ca19ffbb8.jpg",
    "icongray": "https://steamcdn-a.akamaihd.net/steamcommunity/public/images/apps/848730/36bb85670ee895647f50b528479f25a00e98fd45.jpg"
  },
  {
    "name": "wolfsden",
    "defaultvalue": 0,
    "displayName": "Into the Wolf's Den",
    "hidden": 0,
    "description": "",
    "icon": "https://steamcdn-a.akamaihd.net/steamcommunity/public/images/apps/848730/a81b398f7a69b07fd390b9b3ba31a23fdc163cf6.jpg",
    "icongray": "https://steamcdn-a.akamaihd.net/steamcommunity/public/images/apps/848730/830e7011ecdee00069cca1b39de395dca25df0cf.jpg"
  },
  {
    "name": "forest",
    "defaultvalue": 0,
    "displayName": "A Different Forest",
    "hidden": 0,
    "description": "",
    "icon": "https://steamcdn-a.akamaihd.net/steamcommunity/public/images/apps/848730/0a7c1beeff387bca6533bdf7c6b21a57e06dd4b8.jpg",
    "icongray": "https://steamcdn-a.akamaihd.net/steamcommunity/public/images/apps/848730/e22ae90b1b9ba12ca4aefbde5d1cdf0a4b353dac.jpg"
  },
  {
    "name": "labyrinth",
    "defaultvalue": 0,
    "displayName": "Theseus would be Proud",
    "hidden": 0,
    "description": "",
    "icon": "https://steamcdn-a.akamaihd.net/steamcommunity/public/images/apps/848730/b31726538ea5df35aeceed3efff2acc202728b58.jpg",
    "icongray": "https://steamcdn-a.akamaihd.net/steamcommunity/public/images/apps/848730/341ea03c234c83a4c9dd5b3e763f8a12a2d210f9.jpg"
  },
  {
    "name": "owlnest",
    "defaultvalue": 0,
    "displayName": "The Owl's Nest",
    "hidden": 0,
    "description": "",
    "icon": "https://steamcdn-a.akamaihd.net/steamcommunity/public/images/apps/848730/15958e1f8a6cb7da9e14226da7d98da71b40a948.jpg",
    "icongray": "https://steamcdn-a.akamaihd.net/steamcommunity/public/images/apps/848730/567fcec727ccb4bb051ef974f7ff11d871081106.jpg"
  },
  {
    "name": "code",
    "defaultvalue": 0,
    "displayName": "Cracking the Code",
    "hidden": 0,
    "description": "",
    "icon": "https://steamcdn-a.akamaihd.net/steamcommunity/public/images/apps/848730/e07126ef77cd6e0d8be6c4431942c922ba244f21.jpg",
    "icongray": "https://steamcdn-a.akamaihd.net/steamcommunity/public/images/apps/848730/8d4ae0a914862baa97741ea26793f0ba2e8eed92.jpg"
  },
  {
    "name": "height",
    "defaultvalue": 0,
    "displayName": "A Matter of Height",
    "hidden": 0,
    "description": "",
    "icon": "https://steamcdn-a.akamaihd.net/steamcommunity/public/images/apps/848730/a7a68cbc7b7cd1d7e3e8f80277cfec29c3d0599f.jpg",
    "icongray": "https://steamcdn-a.akamaihd.net/steamcommunity/public/images/apps/848730/f829763b7e46c1a1a3380748ba21f14cfd8354bf.jpg"
  },
  {
    "name": "angles",
    "defaultvalue": 0,
    "displayName": "How many Angles in a Triangle?",
    "hidden": 0,
    "description": "",
    "icon": "https://steamcdn-a.akamaihd.net/steamcommunity/public/images/apps/848730/21e8f7b61e8b4f627046403f2869221b1c773118.jpg",
    "icongray": "https://steamcdn-a.akamaihd.net/steamcommunity/public/images/apps/848730/b715f307062866f4a795e3e15e99e347cd81636e.jpg"
  },
  {
    "name": "path",
    "defaultvalue": 0,
    "displayName": "Even Wolves leave Footprints",
    "hidden": 0,
    "description": "",
    "icon": "https://steamcdn-a.akamaihd.net/steamcommunity/public/images/apps/848730/e5dc76405f10356443aa455d5503d1cad4d22a8f.jpg",
    "icongray": "https://steamcdn-a.akamaihd.net/steamcommunity/public/images/apps/848730/73137d940714e83d8a0cee58ba43e25ed45a98df.jpg"
  },
  {
    "name": "photo",
    "defaultvalue": 0,
    "displayName": "Photographic Memory",
    "hidden": 0,
    "description": "",
    "icon": "https://steamcdn-a.akamaihd.net/steamcommunity/public/images/apps/848730/23ab96a004909f6b717c14ea8f116f7ba463b0ff.jpg",
    "icongray": "https://steamcdn-a.akamaihd.net/steamcommunity/public/images/apps/848730/883d5454b7640a2817040b9257469afc5878f8dc.jpg"
  },
  {
    "name": "triangles",
    "defaultvalue": 0,
    "displayName": "How many Triangles in an Angle?",
    "hidden": 0,
    "description": "",
    "icon": "https://steamcdn-a.akamaihd.net/steamcommunity/public/images/apps/848730/a3749de6f8ab746c025a7271b8c48b05c2cfe4eb.jpg",
    "icongray": "https://steamcdn-a.akamaihd.net/steamcommunity/public/images/apps/848730/ab97813efd6cee3c7e8957a37ebf7fcb35a725bc.jpg"
  },
  {
    "name": "knock",
    "defaultvalue": 0,
    "displayName": "Knock Knock",
    "hidden": 1,
    "icon": "https://steamcdn-a.akamaihd.net/steamcommunity/public/images/apps/848730/9c6b1b0152fd21cd6a18227ef6c99bbc8eb98a16.jpg",
    "icongray": "https://steamcdn-a.akamaihd.net/steamcommunity/public/images/apps/848730/c1c7b4fbb3faeaa599f9bd020f6ae13a20e35a98.jpg"
  },
  {
    "name": "phone",
    "defaultvalue": 0,
    "displayName": "A Wolf Blossoms",
    "hidden": 1,
    "icon": "https://steamcdn-a.akamaihd.net/steamcommunity/public/images/apps/848730/baace2e0db9f4881e048d17abc51096211980d52.jpg",
    "icongray": "https://steamcdn-a.akamaihd.net/steamcommunity/public/images/apps/848730/c6ae319515c8447844e3fc039356b3b50186dc63.jpg"
  },
  {
    "name": "owl",
    "defaultvalue": 0,
    "displayName": "The Owl Gazes Back",
    "hidden": 1,
    "icon": "https://steamcdn-a.akamaihd.net/steamcommunity/public/images/apps/848730/04a030a3a36245fe39483cc6e96fdc50041662fd.jpg",
    "icongray": "https://steamcdn-a.akamaihd.net/steamcommunity/public/images/apps/848730/ac864a2b76150f486cebfd07332f8ac6a685f6a7.jpg"
  }
]