{
  "Dlcs": {
    "594080": {
      "Name": "Elisa: the Innkeeper - Artwork Collection",
      "ImageUrl": "https://steamcdn-a.akamaihd.net/steam/apps/594080/header.jpg?t=1487266361"
    }
  },
  "Name": "Elisa: the Innkeeper",
  "AppId": "576400",
  "ImageUrl": "https://steamcdn-a.akamaihd.net/steam/apps/576400/header.jpg?t=1593379290",
  "Languages": [
    "english",
    "french",
    "italian",
    "german",
    "russian"
  ],
  "Platforms": {
    "windows": true,
    "mac": true,
    "linux": false
  }
}