{
  "Dlcs": {
    "346070": {
      "Name": "Kalimba - The Dark Void - Solo",
      "ImageUrl": "https://steamcdn-a.akamaihd.net/steam/apps/346070/header.jpg?t=1557766051"
    },
    "346071": {
      "Name": "Kalimba - The Dark Void - Coop",
      "ImageUrl": "https://steamcdn-a.akamaihd.net/steam/apps/346071/header.jpg?t=1557766011"
    }
  },
  "Name": "Kalimba",
  "AppId": "324140",
  "ImageUrl": "https://steamcdn-a.akamaihd.net/steam/apps/324140/header.jpg?t=1577993615",
  "Languages": [
    "english",
    "french",
    "italian",
    "german",
    "spanish",
    "portuguese"
  ],
  "Platforms": {
    "windows": true,
    "mac": false,
    "linux": false
  }
}