[
  {
    "name": "gamesPlayed_Count",
    "defaultvalue": 0,
    "displayName": ""
  },
  {
    "name": "ACH_catch_first_fish",
    "defaultvalue": 0,
    "displayName": ""
  },
  {
    "name": "onlineTournament_Score",
    "defaultvalue": 0,
    "displayName": ""
  },
  {
    "name": "profile_timePlayed",
    "defaultvalue": 0,
    "displayName": ""
  },
  {
    "name": "profile_longestGame",
    "defaultvalue": 0,
    "displayName": ""
  },
  {
    "name": "profile_longestCast",
    "defaultvalue": 0,
    "displayName": ""
  },
  {
    "name": "fish_fishCaught",
    "defaultvalue": 0,
    "displayName": ""
  },
  {
    "name": "fish_fishLost",
    "defaultvalue": 0,
    "displayName": ""
  },
  {
    "name": "fish_bossFishCaught",
    "defaultvalue": 0,
    "displayName": ""
  },
  {
    "name": "fish_bossFishLost",
    "defaultvalue": 0,
    "displayName": ""
  },
  {
    "name": "fish_longestBattle",
    "defaultvalue": 0,
    "displayName": ""
  },
  {
    "name": "fish_wastedTrips",
    "defaultvalue": 0,
    "displayName": ""
  },
  {
    "name": "fish_carpCaught",
    "defaultvalue": 0,
    "displayName": ""
  },
  {
    "name": "fish_carpPB",
    "defaultvalue": 0,
    "displayName": ""
  },
  {
    "name": "fish_breamCaught",
    "defaultvalue": 0,
    "displayName": ""
  },
  {
    "name": "fish_breamPB",
    "defaultvalue": 0,
    "displayName": ""
  },
  {
    "name": "fish_tenchCaught",
    "defaultvalue": 0,
    "displayName": ""
  },
  {
    "name": "fish_tenchPB",
    "defaultvalue": 0,
    "displayName": ""
  },
  {
    "name": "fish_roachCaught",
    "defaultvalue": 0,
    "displayName": ""
  },
  {
    "name": "fish_roachPB",
    "defaultvalue": 0,
    "displayName": ""
  },
  {
    "name": "fish_catfishCaught",
    "defaultvalue": 0,
    "displayName": ""
  },
  {
    "name": "fish_catfishPB",
    "defaultvalue": 0,
    "displayName": ""
  },
  {
    "name": "tournament_LiveEntered",
    "defaultvalue": 0,
    "displayName": ""
  },
  {
    "name": "tournament_LiveWon",
    "defaultvalue": 0,
    "displayName": ""
  },
  {
    "name": "tournament_ElitePlayed",
    "defaultvalue": 0,
    "displayName": ""
  },
  {
    "name": "tournament_SPWon",
    "defaultvalue": 0,
    "displayName": ""
  },
  {
    "name": "tournament_SPLost",
    "defaultvalue": 0,
    "displayName": ""
  },
  {
    "name": "tournament_SPPlayed",
    "defaultvalue": 0,
    "displayName": ""
  },
  {
    "name": "gear_RigsUnlocked",
    "defaultvalue": 0,
    "displayName": ""
  },
  {
    "name": "gear_BaitsUnlocked",
    "defaultvalue": 0,
    "displayName": ""
  },
  {
    "name": "gear_RodsUnlocked",
    "defaultvalue": 0,
    "displayName": ""
  },
  {
    "name": "gear_ReelsUnlocked",
    "defaultvalue": 0,
    "displayName": ""
  },
  {
    "name": "gear_LinesUnlocked",
    "defaultvalue": 0,
    "displayName": ""
  },
  {
    "name": "lakes_favouriteLake",
    "defaultvalue": 0,
    "displayName": ""
  },
  {
    "name": "challenges_Won",
    "defaultvalue": 0,
    "displayName": ""
  },
  {
    "name": "challenges_Played",
    "defaultvalue": 0,
    "displayName": ""
  },
  {
    "name": "fish_fishCaught_foundrydock",
    "defaultvalue": 0,
    "displayName": ""
  },
  {
    "name": "fish_bossFishCaught_foundrydock",
    "defaultvalue": 0,
    "displayName": ""
  }
]