{
  "Dlcs": {},
  "Name": "Broadside",
  "AppId": "401560",
  "ImageUrl": "https://steamcdn-a.akamaihd.net/steam/apps/401560/header.jpg?t=1569960889",
  "Languages": [
    "english",
    "french",
    "italian",
    "german",
    "spanish",
    "bulgarian",
    "czech",
    "danish",
    "dutch",
    "finnish",
    "greek",
    "hungarian",
    "japanese",
    "korean",
    "norwegian",
    "polish",
    "portuguese",
    "romanian",
    "russian",
    "schinese",
    "swedish",
    "turkish"
  ],
  "Platforms": {
    "windows": true,
    "mac": true,
    "linux": true
  }
}