[
  {
    "name": "tries_1",
    "defaultvalue": 0,
    "displayName": "Level 1 total tries"
  },
  {
    "name": "tries_2",
    "defaultvalue": 0,
    "displayName": "Level 2 total tries"
  },
  {
    "name": "tries_3",
    "defaultvalue": 0,
    "displayName": "Level 3 total tries"
  },
  {
    "name": "tries_4",
    "defaultvalue": 0,
    "displayName": "Level 4 total tries"
  },
  {
    "name": "tries_5",
    "defaultvalue": 0,
    "displayName": "Level 5 total tries"
  },
  {
    "name": "tries_total",
    "defaultvalue": 0,
    "displayName": "Total tries"
  }
]