{
  "Dlcs": {},
  "Name": "Daedalic Complex",
  "AppId": "971230",
  "ImageUrl": "https://steamcdn-a.akamaihd.net/steam/apps/971230/header.jpg?t=1585851249",
  "Languages": [
    "english"
  ],
  "Platforms": {
    "windows": true,
    "mac": false,
    "linux": false
  }
}