[
  {
    "name": "SNIPER_ACHIEVE_CLEAR",
    "defaultvalue": 0,
    "displayName": "Great peeping!",
    "hidden": 0,
    "description": "Reach the goal.",
    "icon": "https://steamcdn-a.akamaihd.net/steamcommunity/public/images/apps/1049680/45f1a70ee2b03ebb41997731e5fe7a381cd3f998.jpg",
    "icongray": "https://steamcdn-a.akamaihd.net/steamcommunity/public/images/apps/1049680/29337e3d25aebfb2dcb3e58f19b0d3b60c4a52cf.jpg"
  },
  {
    "name": "SNIPER_ACHIEVE_RUBY",
    "defaultvalue": 0,
    "displayName": "Like a red egg!",
    "hidden": 0,
    "description": "Discover a ruby.",
    "icon": "https://steamcdn-a.akamaihd.net/steamcommunity/public/images/apps/1049680/aaf47561e0f40e86cf575b8cef3aaa334307278d.jpg",
    "icongray": "https://steamcdn-a.akamaihd.net/steamcommunity/public/images/apps/1049680/2d1cbd05d4f91f120fc8dd22368b45ac48d28cd5.jpg"
  },
  {
    "name": "SNIPER_ACHIEVE_SAPPHIRE",
    "defaultvalue": 0,
    "displayName": "Like a blue egg!",
    "hidden": 0,
    "description": "Discover a sapphire.",
    "icon": "https://steamcdn-a.akamaihd.net/steamcommunity/public/images/apps/1049680/9568ca65ee6e6485354ce6b1528fc55e194015d8.jpg",
    "icongray": "https://steamcdn-a.akamaihd.net/steamcommunity/public/images/apps/1049680/641c7153f14fcfb7d81d7765608376a7abbd9eb8.jpg"
  },
  {
    "name": "SNIPER_ACHIEVE_EMERALD",
    "defaultvalue": 0,
    "displayName": "Like a green egg!",
    "hidden": 0,
    "description": "Discover a emerald.",
    "icon": "https://steamcdn-a.akamaihd.net/steamcommunity/public/images/apps/1049680/452e5b2cc9dce8c98b1c12e1aa0e5d94a6333b93.jpg",
    "icongray": "https://steamcdn-a.akamaihd.net/steamcommunity/public/images/apps/1049680/c253f510ee77ce07b03370685f8bf8b14dd936a2.jpg"
  }
]