{
  "Dlcs": {},
  "Name": "Floor Massacre",
  "AppId": "885630",
  "ImageUrl": "https://steamcdn-a.akamaihd.net/steam/apps/885630/header.jpg?t=1536210432",
  "Languages": [
    "english"
  ],
  "Platforms": {
    "windows": true,
    "mac": false,
    "linux": false
  }
}