{
  "Dlcs": {},
  "Name": "Fatal Evidence: Art of Murder Collector's Edition",
  "AppId": "1406610",
  "ImageUrl": "https://steamcdn-a.akamaihd.net/steam/apps/1406610/header.jpg?t=1598639618",
  "Languages": [
    "english"
  ],
  "Platforms": {
    "windows": true,
    "mac": false,
    "linux": false
  }
}