{
  "Dlcs": {},
  "Name": "Nancy Drew®: Danger on Deception Island",
  "AppId": "31840",
  "ImageUrl": "https://steamcdn-a.akamaihd.net/steam/apps/31840/header.jpg?t=1572999014",
  "Languages": [
    "english"
  ],
  "Platforms": {
    "windows": true,
    "mac": false,
    "linux": false
  }
}