[
  {
    "name": "_ACH_TUTORIALS_PLAYEDALL",
    "defaultvalue": 0,
    "displayName": "Apprentice of Evil",
    "hidden": 0,
    "description": "Complete all tutorials.",
    "icon": "https://steamcdn-a.akamaihd.net/steamcommunity/public/images/apps/200550/b69664b86dd7176b58113a233c63caaba0a04815.jpg",
    "icongray": "https://steamcdn-a.akamaihd.net/steamcommunity/public/images/apps/200550/9f2c6c4d4fefa615831f204b007046cdeea1f021.jpg"
  },
  {
    "name": "_ACH_SPSURVIVAL_TIME_0",
    "defaultvalue": 0,
    "displayName": "No Pain, No Gain",
    "hidden": 0,
    "description": "Survive 60 minutes in any survival map.",
    "icon": "https://steamcdn-a.akamaihd.net/steamcommunity/public/images/apps/200550/a1ff417cb63bba05c71c75e1c456a6ccd8240edb.jpg",
    "icongray": "https://steamcdn-a.akamaihd.net/steamcommunity/public/images/apps/200550/2caf54f430e328b7bfe551ad84c8c55f3510048f.jpg"
  },
  {
    "name": "_ACH_SPSANDBOX_TOTALPRESTIGE_0",
    "defaultvalue": 0,
    "displayName": "A True Lord",
    "hidden": 0,
    "description": "Accumulate 5,000 prestige in any “sandbox” map.",
    "icon": "https://steamcdn-a.akamaihd.net/steamcommunity/public/images/apps/200550/869d808deedfbc00737cd04811f07a6cddaf2191.jpg",
    "icongray": "https://steamcdn-a.akamaihd.net/steamcommunity/public/images/apps/200550/acd20027b098a512650fa453a812f27a56fb8e4f.jpg"
  },
  {
    "name": "_ACH_SKILL_ROUNDKICK_MULTIKILL_2",
    "defaultvalue": 0,
    "displayName": "Monsterkill",
    "hidden": 0,
    "description": "Kill 12 heroes at once using Calypso's Roundhouse Kick.",
    "icon": "https://steamcdn-a.akamaihd.net/steamcommunity/public/images/apps/200550/45e0dfe7250df49073e1d32e7da17fb5f4ab2b17.jpg",
    "icongray": "https://steamcdn-a.akamaihd.net/steamcommunity/public/images/apps/200550/022652712ce7db6110d352be33311c22865299d6.jpg"
  },
  {
    "name": "_ACH_SKILL_ROUNDKICK_MULTIKILL_1",
    "defaultvalue": 0,
    "displayName": "Ultrakill",
    "hidden": 0,
    "description": "Kill 6 heroes at once using Calypso's Roundhouse Kick.",
    "icon": "https://steamcdn-a.akamaihd.net/steamcommunity/public/images/apps/200550/0fcc5dfddc7f8c35477d1411abc2da229049d556.jpg",
    "icongray": "https://steamcdn-a.akamaihd.net/steamcommunity/public/images/apps/200550/3cec25176bf153596831a45709501deee26fce8c.jpg"
  },
  {
    "name": "_ACH_SKILL_ROUNDKICK_MULTIKILL_0",
    "defaultvalue": 0,
    "displayName": "Triplekill",
    "hidden": 0,
    "description": "Kill 3 heroes at once using Calypso's Roundhouse Kick.",
    "icon": "https://steamcdn-a.akamaihd.net/steamcommunity/public/images/apps/200550/d669e5e63381891e59f8dca817f963f151dda543.jpg",
    "icongray": "https://steamcdn-a.akamaihd.net/steamcommunity/public/images/apps/200550/1d3c4829f37b9f2f84d6e23cceaafc77cc726e36.jpg"
  },
  {
    "name": "_ACH_MPPINATA_WIN_0",
    "defaultvalue": 0,
    "displayName": "Piñata Master",
    "hidden": 0,
    "description": "Win any multiplayer “Piñata” map.",
    "icon": "https://steamcdn-a.akamaihd.net/steamcommunity/public/images/apps/200550/e6e7a211946add143396aa4e0d4582dcc73ab7e7.jpg",
    "icongray": "https://steamcdn-a.akamaihd.net/steamcommunity/public/images/apps/200550/10d1c5724c2073a9f79b321948752b4f6fc4fb8d.jpg"
  },
  {
    "name": "_ACH_MPPINATA_TOTALPRESTIGE_1",
    "defaultvalue": 0,
    "displayName": "Viva Piñata – Gold",
    "hidden": 0,
    "description": "Collect a total of 50,000 prestige in multiplayer “Piñata” matches, across all playthroughs.",
    "icon": "https://steamcdn-a.akamaihd.net/steamcommunity/public/images/apps/200550/513248b81b1682b49bef6679ac638a30f1e0c126.jpg",
    "icongray": "https://steamcdn-a.akamaihd.net/steamcommunity/public/images/apps/200550/f5929eb4aebf73b114eb999b1876b4f417332a0a.jpg"
  },
  {
    "name": "_ACH_MPPINATA_TOTALPRESTIGE_0",
    "defaultvalue": 0,
    "displayName": "Viva Piñata – Silver",
    "hidden": 0,
    "description": "Collect a total of 5,000 prestige in multiplayer “Piñata” matches, across all playthroughs.",
    "icon": "https://steamcdn-a.akamaihd.net/steamcommunity/public/images/apps/200550/c6626613bb6e1ca3288d02af80acf9de8cea1a21.jpg",
    "icongray": "https://steamcdn-a.akamaihd.net/steamcommunity/public/images/apps/200550/76165c361f3181f82c7b9b568c8818f54e121102.jpg"
  },
  {
    "name": "_ACH_MPKOTH_WIN_ZOMBIEKING_0",
    "defaultvalue": 0,
    "displayName": "Zombie King of the Hill",
    "hidden": 0,
    "description": "Win any multiplayer “King of the Hill” game as the Zombie King.",
    "icon": "https://steamcdn-a.akamaihd.net/steamcommunity/public/images/apps/200550/e45e584933c25220787862276ceb2e36869d482d.jpg",
    "icongray": "https://steamcdn-a.akamaihd.net/steamcommunity/public/images/apps/200550/1ec81d29aaa5729c70056d4fb60c90ea8eb48a14.jpg"
  },
  {
    "name": "_ACH_MPKOTH_WIN_MINOS_0",
    "defaultvalue": 0,
    "displayName": "Minos of the Hill",
    "hidden": 0,
    "description": "Win any multiplayer “King of the Hill” game as Minos.",
    "icon": "https://steamcdn-a.akamaihd.net/steamcommunity/public/images/apps/200550/c96e3ed3d35ed6549ebceaadc564756d7bedf0b3.jpg",
    "icongray": "https://steamcdn-a.akamaihd.net/steamcommunity/public/images/apps/200550/ed33f6bdf5d5aa35df68010a9eaa1e5453884346.jpg"
  },
  {
    "name": "_ACH_MPKOTH_WIN_DARKLORD_0",
    "defaultvalue": 0,
    "displayName": "Dark Lord of the Hill",
    "hidden": 0,
    "description": "Win any multiplayer “King of the Hill” game as the Dark Lord.",
    "icon": "https://steamcdn-a.akamaihd.net/steamcommunity/public/images/apps/200550/beab2a6afa7603edc2779edc13d6981a39da4c4e.jpg",
    "icongray": "https://steamcdn-a.akamaihd.net/steamcommunity/public/images/apps/200550/355cecf05695b10396ebbc708e4d7841f6184ef0.jpg"
  },
  {
    "name": "_ACH_MPKOTH_WIN_CALYPSO_0",
    "defaultvalue": 0,
    "displayName": "Calypso of the Hill",
    "hidden": 0,
    "description": "Win any multiplayer “King of the Hill” game as Calypso.",
    "icon": "https://steamcdn-a.akamaihd.net/steamcommunity/public/images/apps/200550/a4df776c916d28070a4b263f2daede76c7c663aa.jpg",
    "icongray": "https://steamcdn-a.akamaihd.net/steamcommunity/public/images/apps/200550/7152f4354707b05a8e256ae8b383646576b78a99.jpg"
  },
  {
    "name": "_ACH_GATHER_TOTALUSESCROLLS_1",
    "defaultvalue": 0,
    "displayName": "Big Mouth",
    "hidden": 0,
    "description": "Use 50 scrolls.",
    "icon": "https://steamcdn-a.akamaihd.net/steamcommunity/public/images/apps/200550/3901ce424c3290da2536dbcf06ad12a17046c424.jpg",
    "icongray": "https://steamcdn-a.akamaihd.net/steamcommunity/public/images/apps/200550/879110c1fece444f283bb1ceba2500c2a13d6bd4.jpg"
  },
  {
    "name": "_ACH_GATHER_TOTALUSESCROLLS_0",
    "defaultvalue": 0,
    "displayName": "Bookworm",
    "hidden": 0,
    "description": "Use 10 scrolls.",
    "icon": "https://steamcdn-a.akamaihd.net/steamcommunity/public/images/apps/200550/0c90f811eadbbcffd1b7ffcea2b392075d10fa6f.jpg",
    "icongray": "https://steamcdn-a.akamaihd.net/steamcommunity/public/images/apps/200550/93293ab947a61e012976d3d3711627e2999a44df.jpg"
  },
  {
    "name": "_ACH_GATHER_TOTALUSEPOTIONS_1",
    "defaultvalue": 0,
    "displayName": "Potion Addict",
    "hidden": 0,
    "description": "Drink 50 potions.",
    "icon": "https://steamcdn-a.akamaihd.net/steamcommunity/public/images/apps/200550/228ad2558f93b5aee5e599b802fe38ff98115bd7.jpg",
    "icongray": "https://steamcdn-a.akamaihd.net/steamcommunity/public/images/apps/200550/71fd9007292a0e6f4d865adc47bdfaa21db8e8ec.jpg"
  },
  {
    "name": "_ACH_GATHER_TOTALUSEPOTIONS_0",
    "defaultvalue": 0,
    "displayName": "Potion Drinker",
    "hidden": 0,
    "description": "Drink 10 potions.",
    "icon": "https://steamcdn-a.akamaihd.net/steamcommunity/public/images/apps/200550/fd09b2656fe332643617d3e83e600f318f934006.jpg",
    "icongray": "https://steamcdn-a.akamaihd.net/steamcommunity/public/images/apps/200550/a8110e91fff0a880c4bb448aa2725ee932d12776.jpg"
  },
  {
    "name": "_ACH_GATHER_MONSTERLEVEL_0",
    "defaultvalue": 0,
    "displayName": "Creature Master",
    "hidden": 0,
    "description": "Achieve a monster level of 20 in any map.",
    "icon": "https://steamcdn-a.akamaihd.net/steamcommunity/public/images/apps/200550/78db848c2831e165904edf661677c5ccc8c49e8d.jpg",
    "icongray": "https://steamcdn-a.akamaihd.net/steamcommunity/public/images/apps/200550/3b985d5e9bfd2012ec5b4bb6a79db388dddf95db.jpg"
  },
  {
    "name": "_ACH_CAMPAIGN_UNDEAD_SCHIZOKING",
    "defaultvalue": 0,
    "displayName": "The Two Faces of the Undead",
    "hidden": 0,
    "description": "Learn more about the Zombie King.",
    "icon": "https://steamcdn-a.akamaihd.net/steamcommunity/public/images/apps/200550/b54b986129e7d1b8fabba12f8b9b11ad3a706406.jpg",
    "icongray": "https://steamcdn-a.akamaihd.net/steamcommunity/public/images/apps/200550/69fc5e9d77b4a7dee64190e2954c4be410234c74.jpg"
  },
  {
    "name": "_ACH_CAMPAIGN_UNDEAD_LIVINGDEAD",
    "defaultvalue": 0,
    "displayName": "The Passing of the Undead Company",
    "hidden": 0,
    "description": "Summon the army of the living dead.",
    "icon": "https://steamcdn-a.akamaihd.net/steamcommunity/public/images/apps/200550/c64c1ec909adbf7c8e5d8a126499025bcb595614.jpg",
    "icongray": "https://steamcdn-a.akamaihd.net/steamcommunity/public/images/apps/200550/e833a539854908cc78ede22fc0335b235ccfadf8.jpg"
  },
  {
    "name": "_ACH_CAMPAIGN_SPLIT_MARTHASDEEPLIBERATED",
    "defaultvalue": 0,
    "displayName": "Marthas' Deep",
    "hidden": 0,
    "description": "Lift the siege of Marthas' Deep.",
    "icon": "https://steamcdn-a.akamaihd.net/steamcommunity/public/images/apps/200550/e5f74ee10ae4de1c2d842321fe87e5ec34b566b2.jpg",
    "icongray": "https://steamcdn-a.akamaihd.net/steamcommunity/public/images/apps/200550/55e29703370811e454eb110a2f5c112a737ef03a.jpg"
  },
  {
    "name": "_ACH_CAMPAIGN_MINES_STUPIDUNDEAD",
    "defaultvalue": 0,
    "displayName": "A Journey in the Dark",
    "hidden": 0,
    "description": "Let the skeleton fall into the well.",
    "icon": "https://steamcdn-a.akamaihd.net/steamcommunity/public/images/apps/200550/bbac94c5619ddcea9951a16b3ba64430936d25ff.jpg",
    "icongray": "https://steamcdn-a.akamaihd.net/steamcommunity/public/images/apps/200550/7d6473e843b8dbb7f69b2aa5ecbc809e0860ea79.jpg"
  },
  {
    "name": "_ACH_CAMPAIGN_MINES_BULLFROGMET",
    "defaultvalue": 0,
    "displayName": "The Return of a Legend",
    "hidden": 0,
    "description": "Encounter the beast in the grottoes.",
    "icon": "https://steamcdn-a.akamaihd.net/steamcommunity/public/images/apps/200550/4d266bdd0df60f0549d4b2f0e6b0f91307802f6b.jpg",
    "icongray": "https://steamcdn-a.akamaihd.net/steamcommunity/public/images/apps/200550/9a156a987250499c717a6f9bcb51de28ffcb4d80.jpg"
  },
  {
    "name": "_ACH_CAMPAIGN_GATE_THEEND",
    "defaultvalue": 0,
    "displayName": "The End is Near",
    "hidden": 1,
    "icon": "https://steamcdn-a.akamaihd.net/steamcommunity/public/images/apps/200550/66c8561d688503a644cc465d5e7fe8bff5fe2524.jpg",
    "icongray": "https://steamcdn-a.akamaihd.net/steamcommunity/public/images/apps/200550/ba1e7bde9da62e49b6f744070f8f555ebee6a5a3.jpg"
  },
  {
    "name": "_ACH_CAMPAIGN_GATE_GIANTSPIDER",
    "defaultvalue": 0,
    "displayName": "Conqueror of the Beast",
    "hidden": 0,
    "description": "Kill the giant spider.",
    "icon": "https://steamcdn-a.akamaihd.net/steamcommunity/public/images/apps/200550/448a545d2848972ba2a9757f3232756620cef187.jpg",
    "icongray": "https://steamcdn-a.akamaihd.net/steamcommunity/public/images/apps/200550/355b5d7679f335b33a021ac7a4b4d4040c72afd4.jpg"
  },
  {
    "name": "_ACH_CAMPAIGN_FELLOW_YETIKILLED",
    "defaultvalue": 0,
    "displayName": "Yeti Hunter",
    "hidden": 0,
    "description": "Vanquish the yeti.",
    "icon": "https://steamcdn-a.akamaihd.net/steamcommunity/public/images/apps/200550/d2ea480a22b3f0da2ff4aa3baf19fbf27d1e8079.jpg",
    "icongray": "https://steamcdn-a.akamaihd.net/steamcommunity/public/images/apps/200550/ba338430b84f0dba1406350f97e05c4a4f360267.jpg"
  },
  {
    "name": "_ACH_CAMPAIGN_FELLOW_NOSEGHULESCAPED",
    "defaultvalue": 0,
    "displayName": "Escape to the East",
    "hidden": 0,
    "description": "Escape the Noseghul.",
    "icon": "https://steamcdn-a.akamaihd.net/steamcommunity/public/images/apps/200550/c53f253f2c82b1a30fdb9c8f34a4a516afbe897f.jpg",
    "icongray": "https://steamcdn-a.akamaihd.net/steamcommunity/public/images/apps/200550/3c9463c4b584c59dcfc8862fb8e6b6c071b76ba6.jpg"
  }
]