{
  "Releases": [
    "Windows",
    "Win32"
  ],
  "Name": "Rising Storm 2: Vietnam",
  "AppId": "Tern",
  "Namespace": "3542a1df211e492bb2abecb7c734f7f9",
  "ItemId": "a2b9fb9d1c9846fd8a55dda97d113b02",
  "ImageUrl": "https://cdn1.epicgames.com/3542a1df211e492bb2abecb7c734f7f9/item/EGS_RisingStorm2Vietnam_AntimatterGamesTripwireInteractive_S3-2560x1440-e08edd93cb71bf15b50a74f3de2d17b0.jpg",
  "Dlcs": {
    "Green Army Men Upgrade": {
      "Name": "Green Army Men Upgrade",
      "ItemId": "3675739013db420caeb9b9969236d38f"
    },
    "Digital Deluxe Edition Upgrade Audience": {
      "Name": "Digital Deluxe Edition Upgrade Audience",
      "ItemId": "ff90291521e14dc2bb8b41f8d993419a"
    }
  }
}