{
  "Dlcs": {
    "1211671": {
      "Name": "DAEMON X MACHINA - Arsenal - \"Crusader\"",
      "ImageUrl": "https://steamcdn-a.akamaihd.net/steam/apps/1211671/header.jpg?t=1581616307"
    },
    "1211672": {
      "Name": "DAEMON X MACHINA - Arsenal - \"Muramasa\"",
      "ImageUrl": "https://steamcdn-a.akamaihd.net/steam/apps/1211672/header.jpg?t=1581616333"
    },
    "1211673": {
      "Name": "DAEMON X MACHINA - Arsenal - \"Rabbit 11\"",
      "ImageUrl": "https://steamcdn-a.akamaihd.net/steam/apps/1211673/header.jpg?t=1581616341"
    },
    "1211674": {
      "Name": "DAEMON X MACHINA - Arsenal Patterns Bundle",
      "ImageUrl": "https://steamcdn-a.akamaihd.net/steam/apps/1211674/header.jpg?t=1581616386"
    },
    "1211675": {
      "Name": "DAEMON X MACHINA - Outer Suit - \"Camouflage Plugsuit\"",
      "ImageUrl": "https://steamcdn-a.akamaihd.net/steam/apps/1211675/header.jpg?t=1581616389"
    },
    "1211676": {
      "Name": "DAEMON X MACHINA - Outer Suit - \"Formal Attire\"",
      "ImageUrl": "https://steamcdn-a.akamaihd.net/steam/apps/1211676/header.jpg?t=1581616393"
    },
    "1211677": {
      "Name": "DAEMON X MACHINA - Outer Hairstyles Bundle 1",
      "ImageUrl": "https://steamcdn-a.akamaihd.net/steam/apps/1211677/header.jpg?t=1581616403"
    },
    "1211678": {
      "Name": "DAEMON X MACHINA - Outer Hairstyles Bundle 2",
      "ImageUrl": "https://steamcdn-a.akamaihd.net/steam/apps/1211678/header.jpg?t=1581616408"
    },
    "1211679": {
      "Name": "DAEMON X MACHINA - Outer Facial Features Bundle 1",
      "ImageUrl": "https://steamcdn-a.akamaihd.net/steam/apps/1211679/header.jpg?t=1581616479"
    },
    "1211680": {
      "Name": "DAEMON X MACHINA - Outer Facial Features Bundle 2",
      "ImageUrl": "https://steamcdn-a.akamaihd.net/steam/apps/1211680/header.jpg?t=1581616483"
    },
    "1211681": {
      "Name": "DAEMON X MACHINA - Arsenal Decals Bundle",
      "ImageUrl": "https://steamcdn-a.akamaihd.net/steam/apps/1211681/header.jpg?t=1581616489"
    },
    "1211682": {
      "Name": "DAEMON X MACHINA - Outer Emotes Set",
      "ImageUrl": "https://steamcdn-a.akamaihd.net/steam/apps/1211682/header.jpg?t=1581616493"
    },
    "1211683": {
      "Name": "DAEMON X MACHINA - Arsenal Decals Bundle - The Brushstrokes of Souun Takeda",
      "ImageUrl": "https://steamcdn-a.akamaihd.net/steam/apps/1211683/header.jpg?t=1581616497"
    },
    "1237630": {
      "Name": "DAEMON X MACHINA - Prototype Arsenal Set",
      "ImageUrl": "https://steamcdn-a.akamaihd.net/steam/apps/1237630/header.jpg?t=1584579458"
    }
  },
  "Name": "DAEMON X MACHINA",
  "AppId": "1167450",
  "ImageUrl": "https://steamcdn-a.akamaihd.net/steam/apps/1167450/header.jpg?t=1589525906",
  "Languages": [
    "english",
    "french",
    "italian",
    "german",
    "spanish",
    "japanese",
    "schinese",
    "tchinese"
  ],
  "Platforms": {
    "windows": true,
    "mac": false,
    "linux": false
  }
}