﻿{
  "Dlcs": {},
  "Name": "Formula X",
  "AppId": "842270",
  "ImageUrl": "https://steamcdn-a.akamaihd.net/steam/apps/842270/header.jpg?t=1533697378",
  "Languages": [
    "english",
    "portuguese",
    "french"
  ],
  "Platforms": {
    "windows": true,
    "mac": false,
    "linux": false
  }
}