﻿[
  {
    "name": "ARCADE",
    "defaultvalue": 0,
    "displayName": "ARCADE",
    "hidden": 0,
    "description": "ARCADE",
    "icon": "https://steamcdn-a.akamaihd.net/steamcommunity/public/images/apps/842270/0204b8fe43177b9ddbe2a05b8b4042fe1a42d270.jpg",
    "icongray": "https://steamcdn-a.akamaihd.net/steamcommunity/public/images/apps/842270/c352b96bea8d22cc738024710988223a1f4de561.jpg"
  },
  {
    "name": "PRO",
    "defaultvalue": 0,
    "displayName": "PRO",
    "hidden": 0,
    "description": "PRO",
    "icon": "https://steamcdn-a.akamaihd.net/steamcommunity/public/images/apps/842270/c2bdcc85185f6f6e311090b0cc3e095bb708e9e7.jpg",
    "icongray": "https://steamcdn-a.akamaihd.net/steamcommunity/public/images/apps/842270/ffc890e1855283ad0f2a2a5b97beb2c5a63f94b4.jpg"
  }
]