{
  "Dlcs": {},
  "Name": "US Spy: Mission in Russia",
  "AppId": "1219940",
  "ImageUrl": "https://steamcdn-a.akamaihd.net/steam/apps/1219940/header.jpg?t=1584117683",
  "Languages": [
    "english",
    "russian",
    "french",
    "german"
  ],
  "Platforms": {
    "windows": true,
    "mac": true,
    "linux": false
  }
}