{
  "Dlcs": {},
  "Name": "Defendion",
  "AppId": "848710",
  "ImageUrl": "https://steamcdn-a.akamaihd.net/steam/apps/848710/header.jpg?t=1600800589",
  "Languages": [
    "english",
    "french",
    "russian",
    "german"
  ],
  "Platforms": {
    "windows": true,
    "mac": false,
    "linux": false
  }
}