{
  "Dlcs": {
    "1200620": {
      "Name": "月牙楼风云 - 崛起",
      "ImageUrl": "https://steamcdn-a.akamaihd.net/steam/apps/1200620/header.jpg?t=1576206090"
    },
    "1200621": {
      "Name": "月牙楼风云 - 征服",
      "ImageUrl": "https://steamcdn-a.akamaihd.net/steam/apps/1200621/header.jpg?t=1576205922"
    },
    "1200622": {
      "Name": "月牙楼风云 - 天选之子",
      "ImageUrl": "https://steamcdn-a.akamaihd.net/steam/apps/1200622/header.jpg?t=1576206093"
    },
    "1200623": {
      "Name": "月牙楼风云 - 万物均衡",
      "ImageUrl": "https://steamcdn-a.akamaihd.net/steam/apps/1200623/header.jpg?t=1576206096"
    }
  },
  "Name": "月牙楼风云",
  "AppId": "1177480",
  "ImageUrl": "https://steamcdn-a.akamaihd.net/steam/apps/1177480/header.jpg?t=1576205517",
  "Languages": [
    "schinese"
  ],
  "Platforms": {
    "windows": true,
    "mac": false,
    "linux": false
  }
}