{
  "Dlcs": {},
  "Name": "DingDingDing",
  "AppId": "936940",
  "ImageUrl": "https://steamcdn-a.akamaihd.net/steam/apps/936940/header.jpg?t=1554744358",
  "Languages": [
    "english",
    "schinese"
  ],
  "Platforms": {
    "windows": true,
    "mac": false,
    "linux": false
  }
}