[
  {
    "name": "Found_all_1",
    "defaultvalue": 0,
    "displayName": "Found all at level 1",
    "hidden": 0,
    "description": "Find all objects at level 1",
    "icon": "https://steamcdn-a.akamaihd.net/steamcommunity/public/images/apps/1292960/67d8c62bb2a51bb5cee416eb49a7eb8c592fe25d.jpg",
    "icongray": "https://steamcdn-a.akamaihd.net/steamcommunity/public/images/apps/1292960/a5cfba8e1a59898fa8a374ecc5e1d94a3e3b4975.jpg"
  },
  {
    "name": "Found_all_2",
    "defaultvalue": 0,
    "displayName": "Found all at level 2",
    "hidden": 0,
    "description": "Find all objects at level 2",
    "icon": "https://steamcdn-a.akamaihd.net/steamcommunity/public/images/apps/1292960/2b679ffdf09f0c13572f4e139d70a1ac74b03b4a.jpg",
    "icongray": "https://steamcdn-a.akamaihd.net/steamcommunity/public/images/apps/1292960/69bce42c7e2861ccd07aa03f996b557463536790.jpg"
  },
  {
    "name": "Found_all_3",
    "defaultvalue": 0,
    "displayName": "Found all at level 3",
    "hidden": 0,
    "description": "Find all objects at level 3",
    "icon": "https://steamcdn-a.akamaihd.net/steamcommunity/public/images/apps/1292960/f0f3c628870603ebf49561e148a6d0a5f9fbd208.jpg",
    "icongray": "https://steamcdn-a.akamaihd.net/steamcommunity/public/images/apps/1292960/40703255230409e661a450118d8c78510ad20861.jpg"
  },
  {
    "name": "Found_all_4",
    "defaultvalue": 0,
    "displayName": "Found all at level 4",
    "hidden": 0,
    "description": "Find all objects at level 4",
    "icon": "https://steamcdn-a.akamaihd.net/steamcommunity/public/images/apps/1292960/e2f867034472510c366d7318a825e8dced0e9799.jpg",
    "icongray": "https://steamcdn-a.akamaihd.net/steamcommunity/public/images/apps/1292960/f95dee1ce3b3c33d2650479dcde186735a723b05.jpg"
  },
  {
    "name": "Found_all_5",
    "defaultvalue": 0,
    "displayName": "Found all at level 5",
    "hidden": 0,
    "description": "Find all objects at level 5",
    "icon": "https://steamcdn-a.akamaihd.net/steamcommunity/public/images/apps/1292960/ef2391652281ad43986646fbc022d8d627054136.jpg",
    "icongray": "https://steamcdn-a.akamaihd.net/steamcommunity/public/images/apps/1292960/99ccab46327de8246f5b2a40baea7a4b0792bff8.jpg"
  },
  {
    "name": "Found_all_6",
    "defaultvalue": 0,
    "displayName": "Found all at level 6",
    "hidden": 0,
    "description": "Find all objects at level 6",
    "icon": "https://steamcdn-a.akamaihd.net/steamcommunity/public/images/apps/1292960/932aad3b118a1e7fab14dd66135e91c65a82b822.jpg",
    "icongray": "https://steamcdn-a.akamaihd.net/steamcommunity/public/images/apps/1292960/43fc6b435076e4d5277615e83f91ae7580f33346.jpg"
  },
  {
    "name": "Found_all_7",
    "defaultvalue": 0,
    "displayName": "Found all at level 7",
    "hidden": 0,
    "description": "Find all objects at level 7",
    "icon": "https://steamcdn-a.akamaihd.net/steamcommunity/public/images/apps/1292960/2d1df3bb904cfcb4e35f53fa3eddb6ae6d37c13b.jpg",
    "icongray": "https://steamcdn-a.akamaihd.net/steamcommunity/public/images/apps/1292960/4418aee7818ff88fc081bff46b81e91cdacd62d8.jpg"
  },
  {
    "name": "Found_all_8",
    "defaultvalue": 0,
    "displayName": "Found all at level 8",
    "hidden": 0,
    "description": "Find all objects at level 8",
    "icon": "https://steamcdn-a.akamaihd.net/steamcommunity/public/images/apps/1292960/a6fce25eeaf2040a2789284b668784dda23f568d.jpg",
    "icongray": "https://steamcdn-a.akamaihd.net/steamcommunity/public/images/apps/1292960/246ddbddeb9c599b32a339eace68a37baf145f12.jpg"
  },
  {
    "name": "Found_all_9",
    "defaultvalue": 0,
    "displayName": "Found all at level 9",
    "hidden": 0,
    "description": "Find all objects at level 9",
    "icon": "https://steamcdn-a.akamaihd.net/steamcommunity/public/images/apps/1292960/cb12699bfd9c74447f592b843c745506230987f4.jpg",
    "icongray": "https://steamcdn-a.akamaihd.net/steamcommunity/public/images/apps/1292960/70e2401c571a048cf3de7dae4be8926279b857a6.jpg"
  },
  {
    "name": "Found_all_10",
    "defaultvalue": 0,
    "displayName": "Found all at level 10",
    "hidden": 0,
    "description": "Find all objects at level 10",
    "icon": "https://steamcdn-a.akamaihd.net/steamcommunity/public/images/apps/1292960/91ed03e2bc85354073e0e3137b15c07497b94008.jpg",
    "icongray": "https://steamcdn-a.akamaihd.net/steamcommunity/public/images/apps/1292960/a245caa501696103856dbc16994e5c3f1ead0655.jpg"
  }
]