{
  "Dlcs": {},
  "Name": "Stage of Light",
  "AppId": "1007240",
  "ImageUrl": "https://steamcdn-a.akamaihd.net/steam/apps/1007240/header.jpg?t=1572591906",
  "Languages": [
    "english"
  ],
  "Platforms": {
    "windows": true,
    "mac": false,
    "linux": false
  }
}