[
  {
    "name": "THE_CREATOR",
    "defaultvalue": 0,
    "displayName": "It shines!",
    "hidden": 0,
    "description": "Use Anvil to forge a new item",
    "icon": "https://steamcdn-a.akamaihd.net/steamcommunity/public/images/apps/701610/cb47bfc14e72d3ca538d78c0f1597804dcb53c65.jpg",
    "icongray": "https://steamcdn-a.akamaihd.net/steamcommunity/public/images/apps/701610/73efc6a92f0cd9c74dd1543fab4bfdc6ffdbaada.jpg"
  },
  {
    "name": "NEW_ACHIEVEMENT_1_2",
    "defaultvalue": 0,
    "displayName": "Her Majesty",
    "hidden": 0,
    "description": "Defeat the Fallen Queen",
    "icon": "https://steamcdn-a.akamaihd.net/steamcommunity/public/images/apps/701610/df1bb1681d7eabdada37b839328b22652dcca567.jpg",
    "icongray": "https://steamcdn-a.akamaihd.net/steamcommunity/public/images/apps/701610/db1c79e50988a7468d6f53d20ff29a9c00d568dc.jpg"
  },
  {
    "name": "NEW_ACHIEVEMENT_1_0",
    "defaultvalue": 0,
    "displayName": "The Journey Begins...",
    "hidden": 0,
    "description": "Leave the Forgotten Cave",
    "icon": "https://steamcdn-a.akamaihd.net/steamcommunity/public/images/apps/701610/61e2ff35e8316c3d8763650732b1d8bb4fc404b5.jpg",
    "icongray": "https://steamcdn-a.akamaihd.net/steamcommunity/public/images/apps/701610/f6e4432591acf627b514e96265af3c7c4273ec6c.jpg"
  },
  {
    "name": "NEW_ACHIEVEMENT_1_3",
    "defaultvalue": 0,
    "displayName": "Battle Master",
    "hidden": 0,
    "description": "Get lvl 16 in a Ability School",
    "icon": "https://steamcdn-a.akamaihd.net/steamcommunity/public/images/apps/701610/ab78e379e7f2e0b5c6669709c0d331c90bb35e65.jpg",
    "icongray": "https://steamcdn-a.akamaihd.net/steamcommunity/public/images/apps/701610/032dc82d7101fc3f98ace4228469417d28846fe0.jpg"
  },
  {
    "name": "NEW_ACHIEVEMENT_1_4",
    "defaultvalue": 0,
    "displayName": "Archmage",
    "hidden": 0,
    "description": "Get lvl 16 in a Spell School",
    "icon": "https://steamcdn-a.akamaihd.net/steamcommunity/public/images/apps/701610/2614d9b2b599792615bd18a0c78c88fa3b67548a.jpg",
    "icongray": "https://steamcdn-a.akamaihd.net/steamcommunity/public/images/apps/701610/1cf12c4de9fb45f03fce061a436c502dc4c4ba8e.jpg"
  },
  {
    "name": "NEW_ACHIEVEMENT_1_5",
    "defaultvalue": 0,
    "displayName": "Traveller",
    "hidden": 0,
    "description": "Find all Keys",
    "icon": "https://steamcdn-a.akamaihd.net/steamcommunity/public/images/apps/701610/5a8e4e5e765979ab43d3839d2e257f020c7fb894.jpg",
    "icongray": "https://steamcdn-a.akamaihd.net/steamcommunity/public/images/apps/701610/8d589a5f61c308916745841783834eeb7b4c3ad6.jpg"
  },
  {
    "name": "NEW_ACHIEVEMENT_1_6",
    "defaultvalue": 0,
    "displayName": "Winter is coming",
    "hidden": 0,
    "description": "Access Maulerum",
    "icon": "https://steamcdn-a.akamaihd.net/steamcommunity/public/images/apps/701610/a3825bb7dc1cc59a0e47239944eb98c7509bf2aa.jpg",
    "icongray": "https://steamcdn-a.akamaihd.net/steamcommunity/public/images/apps/701610/6ae6e600d055e662a7c5118fb17e08c395056c6e.jpg"
  },
  {
    "name": "NEW_ACHIEVEMENT_1_7",
    "defaultvalue": 0,
    "displayName": "Bungle in the Jungle",
    "hidden": 0,
    "description": "Access Hoth Jungle",
    "icon": "https://steamcdn-a.akamaihd.net/steamcommunity/public/images/apps/701610/cfeecc2d89230b8612d4c24adf77684881fa8754.jpg",
    "icongray": "https://steamcdn-a.akamaihd.net/steamcommunity/public/images/apps/701610/84a91590d7e892531839c4c7a2d97dad0d97163a.jpg"
  },
  {
    "name": "NEW_ACHIEVEMENT_1_8",
    "defaultvalue": 0,
    "displayName": "Chop chop!",
    "hidden": 0,
    "description": "Defeat the Woodsman",
    "icon": "https://steamcdn-a.akamaihd.net/steamcommunity/public/images/apps/701610/b95956417e95c9cd56ddf883abdb4501ff0910c3.jpg",
    "icongray": "https://steamcdn-a.akamaihd.net/steamcommunity/public/images/apps/701610/87a6d3b53c0403e24914c2ad2ffa3c20626141bf.jpg"
  },
  {
    "name": "NEW_ACHIEVEMENT_1_9",
    "defaultvalue": 0,
    "displayName": "Hooded One",
    "hidden": 0,
    "description": "Sit on the Lone Throne",
    "icon": "https://steamcdn-a.akamaihd.net/steamcommunity/public/images/apps/701610/c622f3145f7476703630b2598d40a72117510cd7.jpg",
    "icongray": "https://steamcdn-a.akamaihd.net/steamcommunity/public/images/apps/701610/c4bcf6189cedc3bcb614840908597c71d342c763.jpg"
  },
  {
    "name": "NEW_ACHIEVEMENT_1_10",
    "defaultvalue": 0,
    "displayName": "Pest Control Specialist 1/2",
    "hidden": 0,
    "description": "Defeat Grand Qhuraji",
    "icon": "https://steamcdn-a.akamaihd.net/steamcommunity/public/images/apps/701610/d99968512636cc195a0cff74ccf983cfd0e9fbc0.jpg",
    "icongray": "https://steamcdn-a.akamaihd.net/steamcommunity/public/images/apps/701610/1c09612fbe7811b1d1e4893f9ea4b6171aa7d517.jpg"
  },
  {
    "name": "NEW_ACHIEVEMENT_1_11",
    "defaultvalue": 0,
    "displayName": "Song of Ice and Fire",
    "hidden": 0,
    "description": "Defeat Twin Bastards",
    "icon": "https://steamcdn-a.akamaihd.net/steamcommunity/public/images/apps/701610/4ab6294005e77c8cd477dad78fcf0a3dbd51a034.jpg",
    "icongray": "https://steamcdn-a.akamaihd.net/steamcommunity/public/images/apps/701610/6cb503aeb9a7554e6231d6fc988e831dba48db18.jpg"
  },
  {
    "name": "NEW_ACHIEVEMENT_1_12",
    "defaultvalue": 0,
    "displayName": "Pest Control Specialist 2/2",
    "hidden": 0,
    "description": "Defeat the Wasp Queen",
    "icon": "https://steamcdn-a.akamaihd.net/steamcommunity/public/images/apps/701610/a11c1830e21ea4ade195289c9170c69694535edf.jpg",
    "icongray": "https://steamcdn-a.akamaihd.net/steamcommunity/public/images/apps/701610/a7d2cc7698dc067c60848e74448c989d5580adb8.jpg"
  },
  {
    "name": "NEW_ACHIEVEMENT_1_13",
    "defaultvalue": 0,
    "displayName": "Axe Juggler",
    "hidden": 0,
    "description": "Defeat Spiteful Librarian",
    "icon": "https://steamcdn-a.akamaihd.net/steamcommunity/public/images/apps/701610/aa2fcfe9e30866f05de2f52c9a0fb5e061293b48.jpg",
    "icongray": "https://steamcdn-a.akamaihd.net/steamcommunity/public/images/apps/701610/af72fda2032363d7d80c2061b2250fc91258cc90.jpg"
  },
  {
    "name": "NEW_ACHIEVEMENT_1_14",
    "defaultvalue": 0,
    "displayName": "Oh Hai Doggy!",
    "hidden": 0,
    "description": "Defeat Souls of the Broken",
    "icon": "https://steamcdn-a.akamaihd.net/steamcommunity/public/images/apps/701610/b8c82596ff21eec27883d41f2872591d99ece259.jpg",
    "icongray": "https://steamcdn-a.akamaihd.net/steamcommunity/public/images/apps/701610/fdab0988789f0ae209add810a5241c2e79e13c73.jpg"
  },
  {
    "name": "NEW_ACHIEVEMENT_1_15",
    "defaultvalue": 0,
    "displayName": "Broken Wings",
    "hidden": 0,
    "description": "Defeat Crypt Guardians",
    "icon": "https://steamcdn-a.akamaihd.net/steamcommunity/public/images/apps/701610/054b76c769c72db8a13cf08fbaed7a420f2f08ae.jpg",
    "icongray": "https://steamcdn-a.akamaihd.net/steamcommunity/public/images/apps/701610/88a32afdda49f077fbb5934368cb3625891c0b49.jpg"
  },
  {
    "name": "GOOD_BOY",
    "defaultvalue": 0,
    "displayName": "Good Boy!",
    "hidden": 0,
    "description": "Solve the Snowy Road Puzzle",
    "icon": "https://steamcdn-a.akamaihd.net/steamcommunity/public/images/apps/701610/241bb68eb535bda5f06b8fc4577adeb25e7cb7c3.jpg",
    "icongray": "https://steamcdn-a.akamaihd.net/steamcommunity/public/images/apps/701610/7da81e9339fb6d70c0fb846f064643d30804859e.jpg"
  },
  {
    "name": "COPPER_GUARD",
    "defaultvalue": 0,
    "displayName": "Treasure Island",
    "hidden": 0,
    "description": "Defeat Copper Guard",
    "icon": "https://steamcdn-a.akamaihd.net/steamcommunity/public/images/apps/701610/c2f10ba9fa8c843a623d00ba055b5dcfee377a1a.jpg",
    "icongray": "https://steamcdn-a.akamaihd.net/steamcommunity/public/images/apps/701610/df20515a9e1e541d79da5bcf927e9d1a4e0fa275.jpg"
  }
]