{
  "Dlcs": {},
  "Name": "NARK THE DRAGON",
  "AppId": "763740",
  "ImageUrl": "https://steamcdn-a.akamaihd.net/steam/apps/763740/header.jpg?t=1521005159",
  "Languages": [
    "english"
  ],
  "Platforms": {
    "windows": true,
    "mac": false,
    "linux": false
  }
}