{
  "Dlcs": {},
  "Name": "Majestic-12",
  "AppId": "350140",
  "ImageUrl": "https://steamcdn-a.akamaihd.net/steam/apps/350140/header.jpg?t=1588205468",
  "Languages": [
    "english",
    "french",
    "german",
    "spanish",
    "korean",
    "russian"
  ],
  "Platforms": {
    "windows": true,
    "mac": false,
    "linux": false
  }
}