{
  "Dlcs": {},
  "Name": "Sparkle ZERO",
  "AppId": "448000",
  "ImageUrl": "https://steamcdn-a.akamaihd.net/steam/apps/448000/header.jpg?t=1568806189",
  "Languages": [
    "english"
  ],
  "Platforms": {
    "windows": true,
    "mac": true,
    "linux": true
  }
}