{
  "Dlcs": {},
  "Name": "Spirit of War",
  "AppId": "352190",
  "ImageUrl": "https://steamcdn-a.akamaihd.net/steam/apps/352190/header.jpg?t=1447369658",
  "Languages": [
    "english",
    "french",
    "german"
  ],
  "Platforms": {
    "windows": true,
    "mac": true,
    "linux": false
  }
}