{
  "Dlcs": {},
  "Name": "Undead Eatery",
  "AppId": "1167670",
  "ImageUrl": "https://steamcdn-a.akamaihd.net/steam/apps/1167670/header.jpg?t=1598551683",
  "Languages": [
    "english"
  ],
  "Platforms": {
    "windows": true,
    "mac": false,
    "linux": false
  }
}