{
  "Dlcs": {},
  "Name": "Immortal Planet",
  "AppId": "631980",
  "ImageUrl": "https://steamcdn-a.akamaihd.net/steam/apps/631980/header.jpg?t=1563970828",
  "Languages": [
    "english"
  ],
  "Platforms": {
    "windows": true,
    "mac": false,
    "linux": false
  }
}