[
  {
    "name": "death_1",
    "defaultvalue": 0,
    "displayName": "First death",
    "hidden": 0,
    "description": "Death is unpleasant, isn't it?",
    "icon": "https://steamcdn-a.akamaihd.net/steamcommunity/public/images/apps/1003830/2797cfb1a8518851ca0923d90d2b7cc20e2823f7.jpg",
    "icongray": "https://steamcdn-a.akamaihd.net/steamcommunity/public/images/apps/1003830/f3b5ff827fb77ff9a14892f82f98204ffbd1b09d.jpg"
  },
  {
    "name": "death_10",
    "defaultvalue": 0,
    "displayName": "Unlucky",
    "hidden": 0,
    "description": "You can die at least 10 times.",
    "icon": "https://steamcdn-a.akamaihd.net/steamcommunity/public/images/apps/1003830/f2b8332edc335b291b509b848d1a4d8ab7832fcb.jpg",
    "icongray": "https://steamcdn-a.akamaihd.net/steamcommunity/public/images/apps/1003830/6652c75dba1dc9a65e45b5d5af4fb6c7c0bb63fe.jpg"
  },
  {
    "name": "death_25",
    "defaultvalue": 0,
    "displayName": "This has become systematic",
    "hidden": 0,
    "description": "Don't fear! Die more than 25 times!",
    "icon": "https://steamcdn-a.akamaihd.net/steamcommunity/public/images/apps/1003830/0a0887d238eeede1e2b78919cf94ef19d1e96002.jpg",
    "icongray": "https://steamcdn-a.akamaihd.net/steamcommunity/public/images/apps/1003830/75bf8aafbdc4eab264d5d4eb1e9024eea5e60d22.jpg"
  },
  {
    "name": "death_50",
    "defaultvalue": 0,
    "displayName": "I like death!",
    "hidden": 0,
    "description": "You are familiar with death and can die even 50 times!",
    "icon": "https://steamcdn-a.akamaihd.net/steamcommunity/public/images/apps/1003830/52b08774e31b3d15d59b7df1dd1bd0aaec472558.jpg",
    "icongray": "https://steamcdn-a.akamaihd.net/steamcommunity/public/images/apps/1003830/fd8c910b8fb86f416d004f254bd16155c7199807.jpg"
  },
  {
    "name": "half_head",
    "defaultvalue": 0,
    "displayName": "Half-Head",
    "hidden": 0,
    "description": "You dead, because you don't move under the icicle.",
    "icon": "https://steamcdn-a.akamaihd.net/steamcommunity/public/images/apps/1003830/9665e1a99f64e090af6c1e43247fb7c3fdd01603.jpg",
    "icongray": "https://steamcdn-a.akamaihd.net/steamcommunity/public/images/apps/1003830/c0e0ac80ee2d572cdf6b0d5a561485322c175561.jpg"
  },
  {
    "name": "perforated",
    "defaultvalue": 0,
    "displayName": "Failed Yoga",
    "hidden": 0,
    "description": "Die by just falling on the spikes...",
    "icon": "https://steamcdn-a.akamaihd.net/steamcommunity/public/images/apps/1003830/c502737afcb5c729d18c2ddcba7f6d9380fc9255.jpg",
    "icongray": "https://steamcdn-a.akamaihd.net/steamcommunity/public/images/apps/1003830/678f8f2b1ce79d6c7e3a67183c2c2cf55c3973c0.jpg"
  },
  {
    "name": "no_legs",
    "defaultvalue": 0,
    "displayName": "My legs are broken",
    "hidden": 0,
    "description": "Die by bleeding after step on a mantrap...",
    "icon": "https://steamcdn-a.akamaihd.net/steamcommunity/public/images/apps/1003830/eb3d5189a5dee9b3cf2a06e292ccc505cb8060e0.jpg",
    "icongray": "https://steamcdn-a.akamaihd.net/steamcommunity/public/images/apps/1003830/1b2075df93c1c9dd8497652d7a9022284fe5023f.jpg"
  },
  {
    "name": "red_valley",
    "defaultvalue": 0,
    "displayName": "Explosive heart",
    "hidden": 0,
    "description": "Die by explosion, becaiuse you like to throw grenades under yourself!",
    "icon": "https://steamcdn-a.akamaihd.net/steamcommunity/public/images/apps/1003830/3dd308509538d86a1ef7ce135bae021f658178e2.jpg",
    "icongray": "https://steamcdn-a.akamaihd.net/steamcommunity/public/images/apps/1003830/a0f9a5ded82453747e087683a51a248fb963b2c3.jpg"
  },
  {
    "name": "nightmare",
    "defaultvalue": 0,
    "displayName": "Nightmare",
    "hidden": 0,
    "description": "I shudder even from my own shadow, because it killed me once...",
    "icon": "https://steamcdn-a.akamaihd.net/steamcommunity/public/images/apps/1003830/a84d8f76961603fba3131d469734c01eeaf682f9.jpg",
    "icongray": "https://steamcdn-a.akamaihd.net/steamcommunity/public/images/apps/1003830/80382d28f585bb51c8bce8d4736d2ca19db455fc.jpg"
  },
  {
    "name": "no_fly",
    "defaultvalue": 0,
    "displayName": "I can't fly",
    "hidden": 0,
    "description": "Let's jump in the abyss!",
    "icon": "https://steamcdn-a.akamaihd.net/steamcommunity/public/images/apps/1003830/ce8ebd3d73392f6920f590a9970cc46ce5c3f4b0.jpg",
    "icongray": "https://steamcdn-a.akamaihd.net/steamcommunity/public/images/apps/1003830/5786b01bea409bd5cbdf0c3288eca3bcbed198dd.jpg"
  },
  {
    "name": "no_signal",
    "defaultvalue": 0,
    "displayName": "No signal",
    "hidden": 0,
    "description": "Be lost in the static...",
    "icon": "https://steamcdn-a.akamaihd.net/steamcommunity/public/images/apps/1003830/4e6ee7510574e2e31a037a0b78ff38712a2df48c.jpg",
    "icongray": "https://steamcdn-a.akamaihd.net/steamcommunity/public/images/apps/1003830/33b809057f600794e816978ff452cfa4dacdf83c.jpg"
  },
  {
    "name": "bad_jump",
    "defaultvalue": 0,
    "displayName": "Bad jump",
    "hidden": 0,
    "description": "You can't use your radio well, and you fall down the first pit.",
    "icon": "https://steamcdn-a.akamaihd.net/steamcommunity/public/images/apps/1003830/348bc2345583d6d1f86344d5fac7c30acae1cf82.jpg",
    "icongray": "https://steamcdn-a.akamaihd.net/steamcommunity/public/images/apps/1003830/464d0ea3a6968e46d12224259812e98c64ce37c7.jpg"
  },
  {
    "name": "supress",
    "defaultvalue": 0,
    "displayName": "Supressed",
    "hidden": 0,
    "description": "You are pressed by a falling block.",
    "icon": "https://steamcdn-a.akamaihd.net/steamcommunity/public/images/apps/1003830/626a8999d13934fd7b78a5d457b32a217b100d45.jpg",
    "icongray": "https://steamcdn-a.akamaihd.net/steamcommunity/public/images/apps/1003830/a72ec1d0b7c9dd3e1f5413029aea3e03b2e92411.jpg"
  },
  {
    "name": "got_boots",
    "defaultvalue": 0,
    "displayName": "Boost the boots",
    "hidden": 0,
    "description": "Find your first equipment.",
    "icon": "https://steamcdn-a.akamaihd.net/steamcommunity/public/images/apps/1003830/5be9fcfac0cafb08b203b890256dd09ad4580d2b.jpg",
    "icongray": "https://steamcdn-a.akamaihd.net/steamcommunity/public/images/apps/1003830/a8f48795f3f75e60c3467ca90fdad9737b886d01.jpg"
  },
  {
    "name": "got_rope",
    "defaultvalue": 0,
    "displayName": "Rope for the robe",
    "hidden": 0,
    "description": "Find the rope.",
    "icon": "https://steamcdn-a.akamaihd.net/steamcommunity/public/images/apps/1003830/fc91a2bc1818d4f143e87ab4c23c860157f5c9f2.jpg",
    "icongray": "https://steamcdn-a.akamaihd.net/steamcommunity/public/images/apps/1003830/19a7729a46f24d12b54184d4febed008f3535ef3.jpg"
  },
  {
    "name": "got_radio",
    "defaultvalue": 0,
    "displayName": "Broken voice",
    "hidden": 0,
    "description": "Pick up the radio.",
    "icon": "https://steamcdn-a.akamaihd.net/steamcommunity/public/images/apps/1003830/4aae0b78702307d8f7b61e4f7280c50cc255c504.jpg",
    "icongray": "https://steamcdn-a.akamaihd.net/steamcommunity/public/images/apps/1003830/e2beeffb29d0907c2002ce5b88ca90905b04a365.jpg"
  },
  {
    "name": "got_gun",
    "defaultvalue": 0,
    "displayName": "Fun'n'Gun",
    "hidden": 0,
    "description": "Find your first and only gun.",
    "icon": "https://steamcdn-a.akamaihd.net/steamcommunity/public/images/apps/1003830/8f790fd89a548743620d407f573fceb38a23264b.jpg",
    "icongray": "https://steamcdn-a.akamaihd.net/steamcommunity/public/images/apps/1003830/dda715dd6a9f6c7976595033b4b2e2bf09e37063.jpg"
  },
  {
    "name": "got_bomb",
    "defaultvalue": 0,
    "displayName": "Armed to the teeth",
    "hidden": 0,
    "description": "Find grenades.",
    "icon": "https://steamcdn-a.akamaihd.net/steamcommunity/public/images/apps/1003830/b74e178eb53d06ad551bb9cd9afcd99c14a5252c.jpg",
    "icongray": "https://steamcdn-a.akamaihd.net/steamcommunity/public/images/apps/1003830/77621844eb74efa088f51ab276b0353927ef5078.jpg"
  },
  {
    "name": "lose_elementary",
    "defaultvalue": 0,
    "displayName": "I can slip out of the blue",
    "hidden": 0,
    "description": "10 fails on even \"easy\" - it's so hard for you.",
    "icon": "https://steamcdn-a.akamaihd.net/steamcommunity/public/images/apps/1003830/75c86bf10d3ccffd6c0efb1de8e68ad342780e54.jpg",
    "icongray": "https://steamcdn-a.akamaihd.net/steamcommunity/public/images/apps/1003830/3a0ceef761b4da967aad2a0bec77dc3f3695250c.jpg"
  },
  {
    "name": "high_voice",
    "defaultvalue": 0,
    "displayName": "High voice",
    "hidden": 0,
    "description": "Power of your voice is high enough to activate highly placed radio station.",
    "icon": "https://steamcdn-a.akamaihd.net/steamcommunity/public/images/apps/1003830/188a8802e66a10593fa031a02c280a594e0bf61b.jpg",
    "icongray": "https://steamcdn-a.akamaihd.net/steamcommunity/public/images/apps/1003830/bcedeee984701ea3fbe2c592bc618ae98a5598bf.jpg"
  },
  {
    "name": "like_shadow",
    "defaultvalue": 0,
    "displayName": "I am like my shadow...",
    "hidden": 0,
    "description": "You are ready even for an endless waiting...",
    "icon": "https://steamcdn-a.akamaihd.net/steamcommunity/public/images/apps/1003830/0b39d33b7b5a024f959550df66a231267750d4e6.jpg",
    "icongray": "https://steamcdn-a.akamaihd.net/steamcommunity/public/images/apps/1003830/13a3f6f5dd9823807566a18ddeb4dad28d922dc5.jpg"
  },
  {
    "name": "stupid_life",
    "defaultvalue": 0,
    "displayName": "Stupid life!",
    "hidden": 0,
    "description": "Jump in the city well.",
    "icon": "https://steamcdn-a.akamaihd.net/steamcommunity/public/images/apps/1003830/3623b7b6f92a0ebf2d80d3b2430acd260da5f055.jpg",
    "icongray": "https://steamcdn-a.akamaihd.net/steamcommunity/public/images/apps/1003830/d6cce8d6ad748039465b0b9389d78f53ed933ecd.jpg"
  },
  {
    "name": "flower",
    "defaultvalue": 0,
    "displayName": "Beautiful days",
    "hidden": 0,
    "description": "There are some beautiful moments in your life.",
    "icon": "https://steamcdn-a.akamaihd.net/steamcommunity/public/images/apps/1003830/6c79bd8908f08ea61115ac684bb37fe04943c02d.jpg",
    "icongray": "https://steamcdn-a.akamaihd.net/steamcommunity/public/images/apps/1003830/de92d9eb37c258f76f4969bf3bf053772bb8ca7e.jpg"
  },
  {
    "name": "tree_3",
    "defaultvalue": 0,
    "displayName": "Tree of life",
    "hidden": 0,
    "description": "Try to find at least three trees in single run.",
    "icon": "https://steamcdn-a.akamaihd.net/steamcommunity/public/images/apps/1003830/67651225f525ab9c231e88918b6c013e4c521e75.jpg",
    "icongray": "https://steamcdn-a.akamaihd.net/steamcommunity/public/images/apps/1003830/242930c48cab8a15a049f00c3438fd1138c60502.jpg"
  },
  {
    "name": "tree_all",
    "defaultvalue": 0,
    "displayName": "Holy forest",
    "hidden": 0,
    "description": "You can find all trees in single run.",
    "icon": "https://steamcdn-a.akamaihd.net/steamcommunity/public/images/apps/1003830/88398d2a79889b5b1caf110289b04bf46c4335a9.jpg",
    "icongray": "https://steamcdn-a.akamaihd.net/steamcommunity/public/images/apps/1003830/5f624d3141523a9bdada9c56a58f3806afc00ca4.jpg"
  },
  {
    "name": "mime",
    "defaultvalue": 0,
    "displayName": "Pantomime",
    "hidden": 0,
    "description": "On \"easy\" run from 1 chapter to the end. No damage. No heals.",
    "icon": "https://steamcdn-a.akamaihd.net/steamcommunity/public/images/apps/1003830/e9bb1691432d3ddc0de9962467d3a53f21a4c099.jpg",
    "icongray": "https://steamcdn-a.akamaihd.net/steamcommunity/public/images/apps/1003830/ec7f42f5a3ecb2d4e3b71be7b7436566eb2f1253.jpg"
  },
  {
    "name": "writter",
    "defaultvalue": 0,
    "displayName": "Writter",
    "hidden": 0,
    "description": "Complete all chapters at all difficults.",
    "icon": "https://steamcdn-a.akamaihd.net/steamcommunity/public/images/apps/1003830/53be31d7066a2895c40cc0f33f5144f62a33d0ff.jpg",
    "icongray": "https://steamcdn-a.akamaihd.net/steamcommunity/public/images/apps/1003830/492449f2c7014e1c8045d9e29be01a8097208b4e.jpg"
  },
  {
    "name": "dead_end",
    "defaultvalue": 0,
    "displayName": "The dead end",
    "hidden": 0,
    "description": "Finish yourself in the deep of caves.",
    "icon": "https://steamcdn-a.akamaihd.net/steamcommunity/public/images/apps/1003830/f0f37c713430bc976974c7704f0838f341fae5b7.jpg",
    "icongray": "https://steamcdn-a.akamaihd.net/steamcommunity/public/images/apps/1003830/a182214cf8e039e04bfed1d3652bfe8828f4b6ef.jpg"
  },
  {
    "name": "graveyard",
    "defaultvalue": 0,
    "displayName": "No one escaped my fears!",
    "hidden": 0,
    "description": "Find graveyard and the Fear.",
    "icon": "https://steamcdn-a.akamaihd.net/steamcommunity/public/images/apps/1003830/9597356e83b241394b1799012ab25a28ddb6b725.jpg",
    "icongray": "https://steamcdn-a.akamaihd.net/steamcommunity/public/images/apps/1003830/605823c839d40ea73e62ab96d2e10733b7baaa1e.jpg"
  },
  {
    "name": "love",
    "defaultvalue": 0,
    "displayName": "I love despite anything!",
    "hidden": 0,
    "description": "Find the mad love of your life!",
    "icon": "https://steamcdn-a.akamaihd.net/steamcommunity/public/images/apps/1003830/e73380115f980d0bad3f9f2f558ec5845faa694b.jpg",
    "icongray": "https://steamcdn-a.akamaihd.net/steamcommunity/public/images/apps/1003830/e9e74dcca391c48294c543516913d48251488cb3.jpg"
  },
  {
    "name": "dog",
    "defaultvalue": 0,
    "displayName": "Torn by dog",
    "hidden": 0,
    "description": "Find your wild dog.",
    "icon": "https://steamcdn-a.akamaihd.net/steamcommunity/public/images/apps/1003830/cd9f0ceff10ef1b9bb8ee2039a6fa796c92eca06.jpg",
    "icongray": "https://steamcdn-a.akamaihd.net/steamcommunity/public/images/apps/1003830/79c0623ac0458d1adf1f71968b7b164cbe6f410c.jpg"
  },
  {
    "name": "police",
    "defaultvalue": 0,
    "displayName": "Arrested",
    "hidden": 0,
    "description": "Find the Police.",
    "icon": "https://steamcdn-a.akamaihd.net/steamcommunity/public/images/apps/1003830/1a40946b4543d9004c8dce97272e124a8667eb7e.jpg",
    "icongray": "https://steamcdn-a.akamaihd.net/steamcommunity/public/images/apps/1003830/3cf092947bc356d94a341a2dde5cfd5264d05176.jpg"
  },
  {
    "name": "lost_chapter",
    "defaultvalue": 0,
    "displayName": "Lost Chapter",
    "hidden": 0,
    "description": "Unlock Chapter 6.",
    "icon": "https://steamcdn-a.akamaihd.net/steamcommunity/public/images/apps/1003830/7b9a56dc6a733d76b92dabf3a6d751e0c481afcb.jpg",
    "icongray": "https://steamcdn-a.akamaihd.net/steamcommunity/public/images/apps/1003830/8fc86b4436dea57cbbadb6e4049c3b3b26500e38.jpg"
  },
  {
    "name": "chapter_1",
    "defaultvalue": 0,
    "displayName": "Blood of Honey",
    "hidden": 0,
    "description": "Defeat Honey Wife.",
    "icon": "https://steamcdn-a.akamaihd.net/steamcommunity/public/images/apps/1003830/e6e5e131aed534725ccfbea71063c61bc6c9de15.jpg",
    "icongray": "https://steamcdn-a.akamaihd.net/steamcommunity/public/images/apps/1003830/181fa03190d21e77074ab61458454aab0ed85ea5.jpg"
  },
  {
    "name": "chapter_2",
    "defaultvalue": 0,
    "displayName": "False Friend",
    "hidden": 0,
    "description": "Defeat Weird Friend.",
    "icon": "https://steamcdn-a.akamaihd.net/steamcommunity/public/images/apps/1003830/45e674d8b53e8c0472f42b6744142e59968431e2.jpg",
    "icongray": "https://steamcdn-a.akamaihd.net/steamcommunity/public/images/apps/1003830/512c7d647c1bdda73ca0cdcde5c697006ab00d30.jpg"
  },
  {
    "name": "chapter_3",
    "defaultvalue": 0,
    "displayName": "Resisted",
    "hidden": 0,
    "description": "Defeat Special Forces.",
    "icon": "https://steamcdn-a.akamaihd.net/steamcommunity/public/images/apps/1003830/a9e86761cdcec4153b9739060ed6988a40e70a1a.jpg",
    "icongray": "https://steamcdn-a.akamaihd.net/steamcommunity/public/images/apps/1003830/3a44c5020e2ee6e10d9e6a4f1d9cf7fe03bb1b9f.jpg"
  },
  {
    "name": "chapter_4",
    "defaultvalue": 0,
    "displayName": "Wrong Child",
    "hidden": 0,
    "description": "Defeat Daughter.",
    "icon": "https://steamcdn-a.akamaihd.net/steamcommunity/public/images/apps/1003830/7a02ed261ec2953dfc45d85305de6a24a3b70157.jpg",
    "icongray": "https://steamcdn-a.akamaihd.net/steamcommunity/public/images/apps/1003830/d3d12352e2af234d98dcd55a7a0bd098ddc68a04.jpg"
  },
  {
    "name": "chapter_5",
    "defaultvalue": 0,
    "displayName": "Unscared",
    "hidden": 0,
    "description": "Defeat your Fear.",
    "icon": "https://steamcdn-a.akamaihd.net/steamcommunity/public/images/apps/1003830/348bec58f33d17ef8eb5eccfdcf825919a3ff1a5.jpg",
    "icongray": "https://steamcdn-a.akamaihd.net/steamcommunity/public/images/apps/1003830/cc9b6440a49915b70cca69d76a4fa317cd408e0d.jpg"
  },
  {
    "name": "chapter_6",
    "defaultvalue": 0,
    "displayName": "The End",
    "hidden": 0,
    "description": "Complete Chapter 6 at any difficulty.",
    "icon": "https://steamcdn-a.akamaihd.net/steamcommunity/public/images/apps/1003830/7bf1a5a4e0a8bfdeb94561f77a7f2f96825dc169.jpg",
    "icongray": "https://steamcdn-a.akamaihd.net/steamcommunity/public/images/apps/1003830/bf2ed88d6ff58b574d75954dd64e25ff1263a94f.jpg"
  },
  {
    "name": "true_end",
    "defaultvalue": 0,
    "displayName": "True End",
    "hidden": 0,
    "description": "Complete Chapter 6 at least in \"extreme\" game mode.",
    "icon": "https://steamcdn-a.akamaihd.net/steamcommunity/public/images/apps/1003830/bbd31dfecfb4ea8ba28c88be71bd33c802b21776.jpg",
    "icongray": "https://steamcdn-a.akamaihd.net/steamcommunity/public/images/apps/1003830/2eecfffe1cbeaa398caf3b9386c5f5842011f37e.jpg"
  },
  {
    "name": "catcher",
    "defaultvalue": 0,
    "displayName": "Catcher",
    "hidden": 0,
    "description": "Catch the fatal bullet.",
    "icon": "https://steamcdn-a.akamaihd.net/steamcommunity/public/images/apps/1003830/34227130eaf8be084d1ad170bbbc537a2648b436.jpg",
    "icongray": "https://steamcdn-a.akamaihd.net/steamcommunity/public/images/apps/1003830/f53317299a0fa24550442149461b60450c646701.jpg"
  },
  {
    "name": "barbecue",
    "defaultvalue": 0,
    "displayName": "Barbecue",
    "hidden": 0,
    "description": "Fire reaches you and burns.",
    "icon": "https://steamcdn-a.akamaihd.net/steamcommunity/public/images/apps/1003830/9ffa08cb22041f81927e0067e9449e031778efd2.jpg",
    "icongray": "https://steamcdn-a.akamaihd.net/steamcommunity/public/images/apps/1003830/9a8b5acaf2bd3cbb646ef11862fedb90e4681e8d.jpg"
  },
  {
    "name": "teared",
    "defaultvalue": 0,
    "displayName": "Separated",
    "hidden": 0,
    "description": "Slashed on pieces.",
    "icon": "https://steamcdn-a.akamaihd.net/steamcommunity/public/images/apps/1003830/fe6f5d4518d0204e118fdcae940a06ee5e09d7cd.jpg",
    "icongray": "https://steamcdn-a.akamaihd.net/steamcommunity/public/images/apps/1003830/17d23a3071ebb95f71d1e4087c112bd75cb68c32.jpg"
  },
  {
    "name": "grave",
    "defaultvalue": 0,
    "displayName": "Grave",
    "hidden": 0,
    "description": "Step inside your coffin.",
    "icon": "https://steamcdn-a.akamaihd.net/steamcommunity/public/images/apps/1003830/3f8d44498f6bbf8d19022b1b71a71eece10c7494.jpg",
    "icongray": "https://steamcdn-a.akamaihd.net/steamcommunity/public/images/apps/1003830/dbeec96e290da791f66aca1f2bc0d116101a6b2b.jpg"
  },
  {
    "name": "skull",
    "defaultvalue": 0,
    "displayName": "Souleater",
    "hidden": 0,
    "description": "Great skull eats you.",
    "icon": "https://steamcdn-a.akamaihd.net/steamcommunity/public/images/apps/1003830/d1a7a388cab68a5f21f87efe53f926185de98a1f.jpg",
    "icongray": "https://steamcdn-a.akamaihd.net/steamcommunity/public/images/apps/1003830/da1502665c55c86b6f967663194893b4de3ceb25.jpg"
  },
  {
    "name": "bones",
    "defaultvalue": 0,
    "displayName": "Bones",
    "hidden": 0,
    "description": "Scare burns you.",
    "icon": "https://steamcdn-a.akamaihd.net/steamcommunity/public/images/apps/1003830/17fbff00bf1ef19a696340295c7093d748401cf8.jpg",
    "icongray": "https://steamcdn-a.akamaihd.net/steamcommunity/public/images/apps/1003830/4edabc83a01d8d7dfd2dcfc8b7d418c9c4fcae68.jpg"
  },
  {
    "name": "journal",
    "defaultvalue": 0,
    "displayName": "Notes",
    "hidden": 0,
    "description": "Find the journal.",
    "icon": "https://steamcdn-a.akamaihd.net/steamcommunity/public/images/apps/1003830/342a2658602c541497cef2f0065c2843e6958f9f.jpg",
    "icongray": "https://steamcdn-a.akamaihd.net/steamcommunity/public/images/apps/1003830/353510e07cbdb75497f5b8a6c88ac83a09605062.jpg"
  },
  {
    "name": "hangman",
    "defaultvalue": 0,
    "displayName": "Hangman",
    "hidden": 0,
    "description": "Meet the ultimate attack of your Shadow.",
    "icon": "https://steamcdn-a.akamaihd.net/steamcommunity/public/images/apps/1003830/79c7b89a74b3489274a8af7b462be414dd1cbf31.jpg",
    "icongray": "https://steamcdn-a.akamaihd.net/steamcommunity/public/images/apps/1003830/a96e9ec26f0a0c87c68942e0b5cc016a488dc647.jpg"
  },
  {
    "name": "shortcut",
    "defaultvalue": 0,
    "displayName": "Shortcut",
    "hidden": 0,
    "description": "Ultimate Shadow reveals to you another path.",
    "icon": "https://steamcdn-a.akamaihd.net/steamcommunity/public/images/apps/1003830/3e31b797937985d469d4ab0f5b3d645ce0c1fb1b.jpg",
    "icongray": "https://steamcdn-a.akamaihd.net/steamcommunity/public/images/apps/1003830/28cae0a04f007c36fc756be9ac1311c53ab0cc24.jpg"
  },
  {
    "name": "secretpath",
    "defaultvalue": 0,
    "displayName": "Secret path",
    "hidden": 0,
    "description": "Find short path to the depth of caves.",
    "icon": "https://steamcdn-a.akamaihd.net/steamcommunity/public/images/apps/1003830/4e0ec53ef327b3d3f716c2de88d3776bf96ace0b.jpg",
    "icongray": "https://steamcdn-a.akamaihd.net/steamcommunity/public/images/apps/1003830/86da35c728e1c82626d2f79c34d079a559417397.jpg"
  },
  {
    "name": "doppelganger",
    "defaultvalue": 0,
    "displayName": "There can be only one!",
    "hidden": 0,
    "description": "Defeat Doppelganger.",
    "icon": "https://steamcdn-a.akamaihd.net/steamcommunity/public/images/apps/1003830/6894501362a510cb74041e452b1cacd88e61b451.jpg",
    "icongray": "https://steamcdn-a.akamaihd.net/steamcommunity/public/images/apps/1003830/b488fa5f426a960857d12dc432b3fc2a3f08b4c7.jpg"
  },
  {
    "name": "haz_wife",
    "defaultvalue": 0,
    "displayName": "Deathly sting",
    "hidden": 0,
    "description": "Defeat Wife with Creator's challenge.",
    "icon": "https://steamcdn-a.akamaihd.net/steamcommunity/public/images/apps/1003830/42029414d2994d3d31c347cc7a3f3b692a15f961.jpg",
    "icongray": "https://steamcdn-a.akamaihd.net/steamcommunity/public/images/apps/1003830/6018c6d5985596c1f5275451d2219f89be4fb27a.jpg"
  },
  {
    "name": "haz_dog",
    "defaultvalue": 0,
    "displayName": "Deathly claws",
    "hidden": 0,
    "description": "Defeat Friend with Creator's challenge.",
    "icon": "https://steamcdn-a.akamaihd.net/steamcommunity/public/images/apps/1003830/f148a94a888c335a03c488220c4d3025fd16814c.jpg",
    "icongray": "https://steamcdn-a.akamaihd.net/steamcommunity/public/images/apps/1003830/a662d8dcce8206936b5d10d904f2074beacb7221.jpg"
  },
  {
    "name": "haz_police",
    "defaultvalue": 0,
    "displayName": "Aggressive combat",
    "hidden": 0,
    "description": "Defeat Special Forces with Creator's challenge.",
    "icon": "https://steamcdn-a.akamaihd.net/steamcommunity/public/images/apps/1003830/c47edfb12db2445fe84d0eb9d8ec3b8fe871d17d.jpg",
    "icongray": "https://steamcdn-a.akamaihd.net/steamcommunity/public/images/apps/1003830/6adf01089c7a695761203a2120134ddb26e00b05.jpg"
  },
  {
    "name": "haz_daughter",
    "defaultvalue": 0,
    "displayName": "Fatal smash",
    "hidden": 0,
    "description": "Defeat Daughter with Creator's challenge.",
    "icon": "https://steamcdn-a.akamaihd.net/steamcommunity/public/images/apps/1003830/01c6fffc7d8cb811028f4ad98160bc1034f19ad2.jpg",
    "icongray": "https://steamcdn-a.akamaihd.net/steamcommunity/public/images/apps/1003830/07ad30c607bd675c23821709127971a5e428d382.jpg"
  },
  {
    "name": "haz_fear",
    "defaultvalue": 0,
    "displayName": "Full nightmare",
    "hidden": 0,
    "description": "Defeat Fear with Creator's challenge.",
    "icon": "https://steamcdn-a.akamaihd.net/steamcommunity/public/images/apps/1003830/3762a83dfdedfba270cd6d3cec5f43f1ca4a9b34.jpg",
    "icongray": "https://steamcdn-a.akamaihd.net/steamcommunity/public/images/apps/1003830/3e8d5921563a9d5b4dc3f3379c779d0ff09c8cea.jpg"
  },
  {
    "name": "haz_twin",
    "defaultvalue": 0,
    "displayName": "Tie of infinity",
    "hidden": 0,
    "description": "Defeat Doppelganger with Creator's challenge.",
    "icon": "https://steamcdn-a.akamaihd.net/steamcommunity/public/images/apps/1003830/49d15a9c8c3b1863871015f8b4c49d1594fbc7ef.jpg",
    "icongray": "https://steamcdn-a.akamaihd.net/steamcommunity/public/images/apps/1003830/ab118ab5ab37bec5e763a97715e75214172c32d0.jpg"
  },
  {
    "name": "haz_radio",
    "defaultvalue": 0,
    "displayName": "The last signal",
    "hidden": 0,
    "description": "Defeat Radio with Creator's challenge.",
    "icon": "https://steamcdn-a.akamaihd.net/steamcommunity/public/images/apps/1003830/8d47dbb35592dbfe555d4e02c4beaf2c5ae50c2d.jpg",
    "icongray": "https://steamcdn-a.akamaihd.net/steamcommunity/public/images/apps/1003830/556931c3b78b7ca7c9e70d75f8a301954ed2bb65.jpg"
  },
  {
    "name": "haz_creator",
    "defaultvalue": 0,
    "displayName": "Creator",
    "hidden": 0,
    "description": "Pass the Creator's test and start the challenge!",
    "icon": "https://steamcdn-a.akamaihd.net/steamcommunity/public/images/apps/1003830/764a0d9b2b5cd798c4ad744c0227e25950d3f33e.jpg",
    "icongray": "https://steamcdn-a.akamaihd.net/steamcommunity/public/images/apps/1003830/1b636d171201d6efdfb6a563c56d62bc1b3bf631.jpg"
  },
  {
    "name": "haz_language",
    "defaultvalue": 0,
    "displayName": "Broken language",
    "hidden": 0,
    "description": "Find the language interface and break it!",
    "icon": "https://steamcdn-a.akamaihd.net/steamcommunity/public/images/apps/1003830/8f8e42378ef227749e54e91a8ab3400f64d5c9a7.jpg",
    "icongray": "https://steamcdn-a.akamaihd.net/steamcommunity/public/images/apps/1003830/771ff12f1c74810fbc806aa9a33224292b9f5ae5.jpg"
  }
]