[
  {
    "name": "BEAR_UNLOCKED",
    "defaultvalue": 0,
    "displayName": "Ronald the Bear",
    "hidden": 0,
    "description": "Unlocked Ronald the Bear",
    "icon": "https://steamcdn-a.akamaihd.net/steamcommunity/public/images/apps/370130/6e193dc39f767dd66f8a7794bef1d020fb823800.jpg",
    "icongray": "https://steamcdn-a.akamaihd.net/steamcommunity/public/images/apps/370130/172752d0dd6d659b637376d83136a7438235dbc0.jpg"
  },
  {
    "name": "TIGER_UNLOCKED",
    "defaultvalue": 0,
    "displayName": "Leslie the Tiger",
    "hidden": 0,
    "description": "Unlocked Leslie the Tiger",
    "icon": "https://steamcdn-a.akamaihd.net/steamcommunity/public/images/apps/370130/3c0935b7f6cdf10b1283a57f5da40c728cac9ec6.jpg",
    "icongray": "https://steamcdn-a.akamaihd.net/steamcommunity/public/images/apps/370130/cd5fbac67e575d5d5066342e6bb9cfde7b934fef.jpg"
  },
  {
    "name": "FOX_UNLOCKED",
    "defaultvalue": 0,
    "displayName": "Jefferson the Fox",
    "hidden": 0,
    "description": "Unlocked Jefferson the Fox",
    "icon": "https://steamcdn-a.akamaihd.net/steamcommunity/public/images/apps/370130/c13f5ead031ede7d3ddcec7c79d8b24783a7bc49.jpg",
    "icongray": "https://steamcdn-a.akamaihd.net/steamcommunity/public/images/apps/370130/e3e6fd6468f4552d262383024d36ebfc56845e08.jpg"
  },
  {
    "name": "CAT_UNLOCKED",
    "defaultvalue": 0,
    "displayName": "Brendon the Cat",
    "hidden": 0,
    "description": "Unlocked Brendon the Cat",
    "icon": "https://steamcdn-a.akamaihd.net/steamcommunity/public/images/apps/370130/190c53dc5aabe71a11a6c6eb6fd252447afdb103.jpg",
    "icongray": "https://steamcdn-a.akamaihd.net/steamcommunity/public/images/apps/370130/405100de5f202596868ab8d4d6b9614b536b0546.jpg"
  },
  {
    "name": "ELEPHANT_UNLOCKED",
    "defaultvalue": 0,
    "displayName": "Tracy the Elephant",
    "hidden": 0,
    "description": "Unlocked Tracy the Elephant",
    "icon": "https://steamcdn-a.akamaihd.net/steamcommunity/public/images/apps/370130/272bd0122cfa57b059c7e26c39086febbf21042b.jpg",
    "icongray": "https://steamcdn-a.akamaihd.net/steamcommunity/public/images/apps/370130/10ba097721653bedecdebb169f77a46469250da6.jpg"
  },
  {
    "name": "OWL_UNLOCKED",
    "defaultvalue": 0,
    "displayName": "Mildred the Owl",
    "hidden": 0,
    "description": "Unlocked Mildred the Owl",
    "icon": "https://steamcdn-a.akamaihd.net/steamcommunity/public/images/apps/370130/ae7bfc6313ba405680d5dc026aefa9fc96aba9f7.jpg",
    "icongray": "https://steamcdn-a.akamaihd.net/steamcommunity/public/images/apps/370130/eb8645ec0c9b042673d033acf4063c6afc06d3f0.jpg"
  },
  {
    "name": "PIG_UNLOCKED",
    "defaultvalue": 0,
    "displayName": "Roy the Pig",
    "hidden": 0,
    "description": "Unlocked Roy the Pig",
    "icon": "https://steamcdn-a.akamaihd.net/steamcommunity/public/images/apps/370130/c00f784acdb1fa73dc5b9dfe8c17d532be241d88.jpg",
    "icongray": "https://steamcdn-a.akamaihd.net/steamcommunity/public/images/apps/370130/0cb52cb0bd0e99f39f3ef66b4a55a78f39c7f262.jpg"
  },
  {
    "name": "PANDA_UNLOCKED",
    "defaultvalue": 0,
    "displayName": "Wordsworth the Panda",
    "hidden": 0,
    "description": "Unlocked Wordsworth the Panda",
    "icon": "https://steamcdn-a.akamaihd.net/steamcommunity/public/images/apps/370130/48fc91b571f8558dc60ccb263b8aa47c2a6ad789.jpg",
    "icongray": "https://steamcdn-a.akamaihd.net/steamcommunity/public/images/apps/370130/5d944b8849515e7905d805da8b485208e59b0ccd.jpg"
  },
  {
    "name": "Shooting_Rockets",
    "defaultvalue": 0,
    "displayName": "#1 Shooting Rockets",
    "hidden": 0,
    "description": "Cleared Level 1 – Shooting Rockets",
    "icon": "https://steamcdn-a.akamaihd.net/steamcommunity/public/images/apps/370130/ba09eed4e255ba4936ad7ee47f2415c46e77a272.jpg",
    "icongray": "https://steamcdn-a.akamaihd.net/steamcommunity/public/images/apps/370130/85aba5d1c5a32b344fa49a3779f2e58470df43f2.jpg"
  },
  {
    "name": "Red_Cube",
    "defaultvalue": 0,
    "displayName": "#2 Red Cube",
    "hidden": 0,
    "description": "Cleared Level 2 – Red Cube",
    "icon": "https://steamcdn-a.akamaihd.net/steamcommunity/public/images/apps/370130/7ef705cf846b737c50f72fec0e4e863a81a535cb.jpg",
    "icongray": "https://steamcdn-a.akamaihd.net/steamcommunity/public/images/apps/370130/285c4521fb585de634646307f2ef5fcf269d25c6.jpg"
  },
  {
    "name": "County_Fair",
    "defaultvalue": 0,
    "displayName": "#3 County Fair",
    "hidden": 0,
    "description": "Cleared Level 3 – County Fair",
    "icon": "https://steamcdn-a.akamaihd.net/steamcommunity/public/images/apps/370130/c1b5b3c0316904e92a97692401b54bcac162fd61.jpg",
    "icongray": "https://steamcdn-a.akamaihd.net/steamcommunity/public/images/apps/370130/16a306897ba08fea18136f77c53a7dcc34a037de.jpg"
  },
  {
    "name": "Outer_Space",
    "defaultvalue": 0,
    "displayName": "#4 Outer Space",
    "hidden": 0,
    "description": "Cleared Level 4 – Outer Space",
    "icon": "https://steamcdn-a.akamaihd.net/steamcommunity/public/images/apps/370130/bdd5fb6d9d31f1559e4be37a25c0943e6fe7aba9.jpg",
    "icongray": "https://steamcdn-a.akamaihd.net/steamcommunity/public/images/apps/370130/b4e9745bcec4e4030719eb81593aa1d6f4cc2222.jpg"
  },
  {
    "name": "Zen_Garden",
    "defaultvalue": 0,
    "displayName": "#5 Zen Garden",
    "hidden": 0,
    "description": "Cleared Level 5 – Zen Garden",
    "icon": "https://steamcdn-a.akamaihd.net/steamcommunity/public/images/apps/370130/27f61545b3ce33b0c12b91a3ae833e7cba23da56.jpg",
    "icongray": "https://steamcdn-a.akamaihd.net/steamcommunity/public/images/apps/370130/75614f8d32387c2193c57cabb37039207e97e36b.jpg"
  },
  {
    "name": "Tidal_Station",
    "defaultvalue": 0,
    "displayName": "#6 Tidal Station",
    "hidden": 0,
    "description": "Cleared Level 6 – Tidal Station",
    "icon": "https://steamcdn-a.akamaihd.net/steamcommunity/public/images/apps/370130/4b10e0bccdc4d55e79d4985d4cc5ff142aa6e1a7.jpg",
    "icongray": "https://steamcdn-a.akamaihd.net/steamcommunity/public/images/apps/370130/249e9cda8227e35d5f51d8a4afdb960f99272eae.jpg"
  },
  {
    "name": "Skull_Island",
    "defaultvalue": 0,
    "displayName": "#7 Skull Island",
    "hidden": 0,
    "description": "Cleared Level 7 – Skull Island",
    "icon": "https://steamcdn-a.akamaihd.net/steamcommunity/public/images/apps/370130/33b64d521b0e06b0bea1cbe92695ce285d1d5276.jpg",
    "icongray": "https://steamcdn-a.akamaihd.net/steamcommunity/public/images/apps/370130/348bd066fd3e5b867b0c9a7cc0b0f0971deb700a.jpg"
  },
  {
    "name": "Secret_Lagoon",
    "defaultvalue": 0,
    "displayName": "#8 Secret Lagoon",
    "hidden": 0,
    "description": "Cleared Level 8 – Secret Lagoon",
    "icon": "https://steamcdn-a.akamaihd.net/steamcommunity/public/images/apps/370130/09d2271d004a369c127ada426ffa4fb1d9a438f3.jpg",
    "icongray": "https://steamcdn-a.akamaihd.net/steamcommunity/public/images/apps/370130/c7fd0b88220fe9af5cd927b1c92cb8628c36f8ed.jpg"
  },
  {
    "name": "Gauntlet",
    "defaultvalue": 0,
    "displayName": "#X1 Gauntlet",
    "hidden": 0,
    "description": "Cleared Level X1 – Gauntlet",
    "icon": "https://steamcdn-a.akamaihd.net/steamcommunity/public/images/apps/370130/4feed155e32a8333c5dc6507443ecc39f6abc5ef.jpg",
    "icongray": "https://steamcdn-a.akamaihd.net/steamcommunity/public/images/apps/370130/01339ff60d0fd95b1765b6e83b6f6b1cd7e5e7f5.jpg"
  },
  {
    "name": "Turbine",
    "defaultvalue": 0,
    "displayName": "#X2 Turbine",
    "hidden": 0,
    "description": "Cleared Level X2 – Turbine",
    "icon": "https://steamcdn-a.akamaihd.net/steamcommunity/public/images/apps/370130/acf4a1cadec4d65e969184b0c549f71b182ac450.jpg",
    "icongray": "https://steamcdn-a.akamaihd.net/steamcommunity/public/images/apps/370130/3e6bc35bd5ca7c961689642deb50372d7b4342ba.jpg"
  },
  {
    "name": "Patience",
    "defaultvalue": 0,
    "displayName": "#X3 Patience",
    "hidden": 0,
    "description": "Cleared Level X3 – Patience",
    "icon": "https://steamcdn-a.akamaihd.net/steamcommunity/public/images/apps/370130/d30a25043610277f67a48fffa9267b115ce38c15.jpg",
    "icongray": "https://steamcdn-a.akamaihd.net/steamcommunity/public/images/apps/370130/467143beaefa70645378f58c12556a3b7fbe1341.jpg"
  },
  {
    "name": "ALL_CLEAR_LION",
    "defaultvalue": 0,
    "displayName": "All Clear (Lion)",
    "hidden": 0,
    "description": "Cleared Level 1–9 as Jethro the Lion",
    "icon": "https://steamcdn-a.akamaihd.net/steamcommunity/public/images/apps/370130/c909446a78d1e94116d2c82365c3ab95f7b4a79f.jpg",
    "icongray": "https://steamcdn-a.akamaihd.net/steamcommunity/public/images/apps/370130/2d24ae78e69cdd577fb2cf2e175a389695de771f.jpg"
  },
  {
    "name": "ONE_KEY",
    "defaultvalue": 0,
    "displayName": "1x Key",
    "hidden": 0,
    "description": "Found 1 Key",
    "icon": "https://steamcdn-a.akamaihd.net/steamcommunity/public/images/apps/370130/2fb4f30f24a4d665dba847d4cf8ddf3d40258402.jpg",
    "icongray": "https://steamcdn-a.akamaihd.net/steamcommunity/public/images/apps/370130/54740e0c38c7fe9d05053a3cfe1ee3a85bbaa469.jpg"
  },
  {
    "name": "ALL_KEY",
    "defaultvalue": 0,
    "displayName": "All Keys",
    "hidden": 0,
    "description": "Found all Keys",
    "icon": "https://steamcdn-a.akamaihd.net/steamcommunity/public/images/apps/370130/bc2689f6faa3f737d51beac1b8f929016f7aec49.jpg",
    "icongray": "https://steamcdn-a.akamaihd.net/steamcommunity/public/images/apps/370130/ca2e633e3e2ab95aa7f967a800c38fbf0627b29a.jpg"
  },
  {
    "name": "ONE_GEM",
    "defaultvalue": 0,
    "displayName": "1x Gem",
    "hidden": 0,
    "description": "Found 1 Gem",
    "icon": "https://steamcdn-a.akamaihd.net/steamcommunity/public/images/apps/370130/f47419fc0585909e0f9dfe4aae812dd7ccde5c66.jpg",
    "icongray": "https://steamcdn-a.akamaihd.net/steamcommunity/public/images/apps/370130/2b6298bf6978d59eb4321ac4089f52af3a525490.jpg"
  },
  {
    "name": "ALL_GEM",
    "defaultvalue": 0,
    "displayName": "All Gems",
    "hidden": 0,
    "description": "Found all Gems",
    "icon": "https://steamcdn-a.akamaihd.net/steamcommunity/public/images/apps/370130/3c7b255955ac81880ef82d13a42fa4e7485d4009.jpg",
    "icongray": "https://steamcdn-a.akamaihd.net/steamcommunity/public/images/apps/370130/7b71e57df042aa9ecbdc4910ebae77d220d1ff75.jpg"
  },
  {
    "name": "ALL_CLEAR_FOX",
    "defaultvalue": 0,
    "displayName": "All Clear (Fox)",
    "hidden": 0,
    "description": "Cleared Level 1–9 as Jefferson the Fox",
    "icon": "https://steamcdn-a.akamaihd.net/steamcommunity/public/images/apps/370130/e573a3aed0f7e877859a05670a3dce0098dc731a.jpg",
    "icongray": "https://steamcdn-a.akamaihd.net/steamcommunity/public/images/apps/370130/116721a448c2d35706e824274308b94b35b315e4.jpg"
  },
  {
    "name": "ALL_CLEAR_BEAR",
    "defaultvalue": 0,
    "displayName": "All Clear (Bear)",
    "hidden": 0,
    "description": "Cleared Level 1–9 as Ronald the Bear",
    "icon": "https://steamcdn-a.akamaihd.net/steamcommunity/public/images/apps/370130/e3b52b465a49f79431085af8bad63c7ed3fa6750.jpg",
    "icongray": "https://steamcdn-a.akamaihd.net/steamcommunity/public/images/apps/370130/56e621d5bb13b4fb6780f7523e36c59bb95de8d3.jpg"
  },
  {
    "name": "ALL_CLEAR_ELEPHANT",
    "defaultvalue": 0,
    "displayName": "All Clear (Elephant)",
    "hidden": 0,
    "description": "Cleared Level 1–9 as Tracy the Elephant",
    "icon": "https://steamcdn-a.akamaihd.net/steamcommunity/public/images/apps/370130/e5e857c13fe069d54aa5f29c6ccaf551749919a2.jpg",
    "icongray": "https://steamcdn-a.akamaihd.net/steamcommunity/public/images/apps/370130/c463f69dca3566f40c469278e2198c60b2388e0f.jpg"
  },
  {
    "name": "ALL_CLEAR_CAT",
    "defaultvalue": 0,
    "displayName": "All Clear (Cat)",
    "hidden": 0,
    "description": "Cleared Level 1–9 as Brendon the Cat",
    "icon": "https://steamcdn-a.akamaihd.net/steamcommunity/public/images/apps/370130/a037aeef0eb6411d8bb4f1aeffd7d8ee0a119d59.jpg",
    "icongray": "https://steamcdn-a.akamaihd.net/steamcommunity/public/images/apps/370130/0ef960a5231a4bf7f8042df8332410900e38d646.jpg"
  },
  {
    "name": "ALL_CLEAR_OWL",
    "defaultvalue": 0,
    "displayName": "All Clear (Owl)",
    "hidden": 0,
    "description": "Cleared Level 1–9 as Mildred the Owl",
    "icon": "https://steamcdn-a.akamaihd.net/steamcommunity/public/images/apps/370130/b89db279353728e317a3ab170855498a88d14cdb.jpg",
    "icongray": "https://steamcdn-a.akamaihd.net/steamcommunity/public/images/apps/370130/34816f180fd1f2b54972842d16150b7b7b3d5835.jpg"
  },
  {
    "name": "ALL_CLEAR_TIGER",
    "defaultvalue": 0,
    "displayName": "All Clear (Tiger)",
    "hidden": 0,
    "description": "Cleared Level 1–9 as Leslie the Tiger",
    "icon": "https://steamcdn-a.akamaihd.net/steamcommunity/public/images/apps/370130/b2595e76d74626772333eb9f92eba484dab202d4.jpg",
    "icongray": "https://steamcdn-a.akamaihd.net/steamcommunity/public/images/apps/370130/bfbf3ebca68c94a0fcaf53bda78d962b868c0242.jpg"
  },
  {
    "name": "ALL_CLEAR_PIG",
    "defaultvalue": 0,
    "displayName": "All Clear (Pig)",
    "hidden": 0,
    "description": "Cleared Level 1–9 as Roy the Pig",
    "icon": "https://steamcdn-a.akamaihd.net/steamcommunity/public/images/apps/370130/59203ad0024f3b2ef2c6a8d75e723bd9d52f0fa0.jpg",
    "icongray": "https://steamcdn-a.akamaihd.net/steamcommunity/public/images/apps/370130/17b23e78d72c4d8a869170e167916875a3bd8530.jpg"
  },
  {
    "name": "ALL_CLEAR_PANDA",
    "defaultvalue": 0,
    "displayName": "All Clear (Panda)",
    "hidden": 0,
    "description": "Cleared Level 1–9 as Wordsworth the Panda",
    "icon": "https://steamcdn-a.akamaihd.net/steamcommunity/public/images/apps/370130/da5bcaf084a2676a161d0d7911885a54912bd243.jpg",
    "icongray": "https://steamcdn-a.akamaihd.net/steamcommunity/public/images/apps/370130/93cd577ad9e1cfaf35197a5ae6959e0b9cee3521.jpg"
  },
  {
    "name": "SOLD_OUT",
    "defaultvalue": 0,
    "displayName": "Lion Quest Sells Out",
    "hidden": 0,
    "description": "Every item in the Lion Quest gift shop is sold out",
    "icon": "https://steamcdn-a.akamaihd.net/steamcommunity/public/images/apps/370130/32e7bd7302363560d0cc178e50b6519527edd6ca.jpg",
    "icongray": "https://steamcdn-a.akamaihd.net/steamcommunity/public/images/apps/370130/99f94326c1f9ee6f52ccf655581245c26944fa81.jpg"
  },
  {
    "name": "LIONS_GATE",
    "defaultvalue": 0,
    "displayName": "Open the Lions;Gate",
    "hidden": 0,
    "description": "???",
    "icon": "https://steamcdn-a.akamaihd.net/steamcommunity/public/images/apps/370130/6f19469894db64c64470b8d4bb4afe3d0eef8309.jpg",
    "icongray": "https://steamcdn-a.akamaihd.net/steamcommunity/public/images/apps/370130/ed06cd87a16217ba2e3320077eb3ee8887cedb71.jpg"
  },
  {
    "name": "TEN_GAMES",
    "defaultvalue": 0,
    "displayName": "Ten Games",
    "hidden": 0,
    "description": "Played 10 games of competitive Lion Quest VS multiplayer ",
    "icon": "https://steamcdn-a.akamaihd.net/steamcommunity/public/images/apps/370130/86ded0237911b543ab85ab54e4775d4d028519f5.jpg",
    "icongray": "https://steamcdn-a.akamaihd.net/steamcommunity/public/images/apps/370130/35fa5834a1ada101b70a7a8c50226514296eb75a.jpg"
  },
  {
    "name": "FIFTY_GAMES",
    "defaultvalue": 0,
    "displayName": "Fifty Games",
    "hidden": 0,
    "description": "Played 50 games of competitive Lion Quest VS multiplayer ",
    "icon": "https://steamcdn-a.akamaihd.net/steamcommunity/public/images/apps/370130/168ab5f3c713d809e4a8e218826eae9d552337d9.jpg",
    "icongray": "https://steamcdn-a.akamaihd.net/steamcommunity/public/images/apps/370130/1a1079749e1b63a2d137f96bef027ff872b7f401.jpg"
  },
  {
    "name": "WORLD_TOUR",
    "defaultvalue": 0,
    "displayName": "World Tour",
    "hidden": 0,
    "description": "Played Lion Quest VS on all of the multiplayer maps",
    "icon": "https://steamcdn-a.akamaihd.net/steamcommunity/public/images/apps/370130/1e0e233f54f9f2a11a99ddcd5fee00b3542c698c.jpg",
    "icongray": "https://steamcdn-a.akamaihd.net/steamcommunity/public/images/apps/370130/b1896e251d3c89240c5f9da442659d933bd97a44.jpg"
  },
  {
    "name": "AC_BEGINNER",
    "defaultvalue": 0,
    "displayName": "Arcade Beginner",
    "hidden": 0,
    "description": "Cleared beginner mode in Lion Quest Arcade",
    "icon": "https://steamcdn-a.akamaihd.net/steamcommunity/public/images/apps/370130/5405638c087352d1f3eb8e17f0125efb2ec833db.jpg",
    "icongray": "https://steamcdn-a.akamaihd.net/steamcommunity/public/images/apps/370130/9024459189c04dfe1ce993ea005c24c23f579b84.jpg"
  },
  {
    "name": "AC_INTERMEDIATE",
    "defaultvalue": 0,
    "displayName": "Arcade Intermediate",
    "hidden": 0,
    "description": "Cleared intermediate mode in Lion Quest Arcade",
    "icon": "https://steamcdn-a.akamaihd.net/steamcommunity/public/images/apps/370130/6ec8e2cd09698d82a713d329fef489f7a87611cb.jpg",
    "icongray": "https://steamcdn-a.akamaihd.net/steamcommunity/public/images/apps/370130/68e22c5b8541972e60ceeebb9e86c69079ebd0bd.jpg"
  },
  {
    "name": "AC_ADVANCED",
    "defaultvalue": 0,
    "displayName": "Arcade Advanced",
    "hidden": 0,
    "description": "Cleared advanced mode in Lion Quest Arcade",
    "icon": "https://steamcdn-a.akamaihd.net/steamcommunity/public/images/apps/370130/a134239afb6d78fefe15b511c7f52c37a84b61a9.jpg",
    "icongray": "https://steamcdn-a.akamaihd.net/steamcommunity/public/images/apps/370130/c524ccbb1fdf6f28bef563a7625a4b485976aa00.jpg"
  },
  {
    "name": "AC_EXPERT",
    "defaultvalue": 0,
    "displayName": "Arcade Expert",
    "hidden": 0,
    "description": "Cleared expert mode in Lion Quest Arcade",
    "icon": "https://steamcdn-a.akamaihd.net/steamcommunity/public/images/apps/370130/e4a4001e63dbc74a52f4c9c8147fef56dd3fa30b.jpg",
    "icongray": "https://steamcdn-a.akamaihd.net/steamcommunity/public/images/apps/370130/6aa867c61bd784120f41a839fa4c6cec5237ec5b.jpg"
  },
  {
    "name": "AC_BEGINNER_TOP_THREE",
    "defaultvalue": 0,
    "displayName": "Beginner Top Three",
    "hidden": 0,
    "description": "Achieved a top three high score in Lion Quest Arcade (beginner)",
    "icon": "https://steamcdn-a.akamaihd.net/steamcommunity/public/images/apps/370130/c854be8dcf0ec178dff1272719422be987f4fb9c.jpg",
    "icongray": "https://steamcdn-a.akamaihd.net/steamcommunity/public/images/apps/370130/713503056ad19017ef1feb040d26cd857818b965.jpg"
  },
  {
    "name": "AC_INTERMEDIATE_TOP_THREE",
    "defaultvalue": 0,
    "displayName": "Intermediate Top Three",
    "hidden": 0,
    "description": "Achieved a top three high score in Lion Quest Arcade (intermediate)",
    "icon": "https://steamcdn-a.akamaihd.net/steamcommunity/public/images/apps/370130/1edfb60103bfb96f1cfb725935826c20465d301b.jpg",
    "icongray": "https://steamcdn-a.akamaihd.net/steamcommunity/public/images/apps/370130/999b4502e3aceee631ed107215b079c170503006.jpg"
  },
  {
    "name": "AC_ADVANCED_TOP_THREE",
    "defaultvalue": 0,
    "displayName": "Advanced Top Three",
    "hidden": 0,
    "description": "Achieved a top three high score in Lion Quest Arcade (intermediate)",
    "icon": "https://steamcdn-a.akamaihd.net/steamcommunity/public/images/apps/370130/2ea142e86e464f47a0bf1664cc3df22c20a8ae9a.jpg",
    "icongray": "https://steamcdn-a.akamaihd.net/steamcommunity/public/images/apps/370130/cf1a2b964753cbc26507e2b63f17c0e6c6bb9234.jpg"
  },
  {
    "name": "AC_EXPERT_TOP_THREE",
    "defaultvalue": 0,
    "displayName": "Expert Top Three",
    "hidden": 0,
    "description": "Achieved a top three high score in Lion Quest Arcade (expert))",
    "icon": "https://steamcdn-a.akamaihd.net/steamcommunity/public/images/apps/370130/511dd0e6657d8eda7ef39a7cacc0e1a20f21b793.jpg",
    "icongray": "https://steamcdn-a.akamaihd.net/steamcommunity/public/images/apps/370130/4d0452e5fa10c9303dc36aa42fdaac3e3721dab3.jpg"
  },
  {
    "name": "AI_GAME",
    "defaultvalue": 0,
    "displayName": "A.I.",
    "hidden": 0,
    "description": "Played a game of Lion Quest VS against the A.I.",
    "icon": "https://steamcdn-a.akamaihd.net/steamcommunity/public/images/apps/370130/e07856d0c3c5e5efbefc8bc147bc08023f1b79a5.jpg",
    "icongray": "https://steamcdn-a.akamaihd.net/steamcommunity/public/images/apps/370130/3ea2996ef65015224b09b34b1fb135c78022a278.jpg"
  }
]