{
  "Dlcs": {},
  "Name": "Tree House Survivors",
  "AppId": "1029030",
  "ImageUrl": "https://steamcdn-a.akamaihd.net/steam/apps/1029030/header.jpg?t=1600951903",
  "Languages": [
    "english",
    "german"
  ],
  "Platforms": {
    "windows": true,
    "mac": false,
    "linux": false
  }
}