{
  "Dlcs": {
    "548830": {
      "Name": "",
      "ImageUrl": ""
    },
    "548831": {
      "Name": "",
      "ImageUrl": ""
    }
  },
  "Name": "Operation Babel: New Tokyo Legacy",
  "AppId": "548810",
  "ImageUrl": "https://steamcdn-a.akamaihd.net/steam/apps/548810/header.jpg?t=1599772433",
  "Languages": [
    "english",
    "japanese"
  ],
  "Platforms": {
    "windows": true,
    "mac": false,
    "linux": false
  }
}