{
  "Dlcs": {},
  "Name": "Goofy Golf Remastered Steam Edition",
  "AppId": "1269450",
  "ImageUrl": "https://steamcdn-a.akamaihd.net/steam/apps/1269450/header.jpg?t=1585734236",
  "Languages": [
    "english"
  ],
  "Platforms": {
    "windows": true,
    "mac": false,
    "linux": false
  }
}