{
  "Dlcs": {},
  "Name": "Empire of the Wicked",
  "AppId": "1308280",
  "ImageUrl": "https://steamcdn-a.akamaihd.net/steam/apps/1308280/header.jpg?t=1593708032",
  "Languages": [
    "english"
  ],
  "Platforms": {
    "windows": true,
    "mac": false,
    "linux": false
  }
}