[
  {
    "name": "30_0",
    "defaultvalue": 0,
    "displayName": "AC_NullAchievement"
  },
  {
    "name": "30_1",
    "defaultvalue": 0,
    "displayName": "AC_DefeatSpirits10"
  },
  {
    "name": "30_2",
    "defaultvalue": 0,
    "displayName": "AC_DefeatSpirits20"
  },
  {
    "name": "30_3",
    "defaultvalue": 0,
    "displayName": "AC_DefeatSpirits30"
  },
  {
    "name": "30_4",
    "defaultvalue": 0,
    "displayName": "AC_DefeatSpirits40"
  },
  {
    "name": "30_5",
    "defaultvalue": 0,
    "displayName": "AC_DefeatSpirits50"
  },
  {
    "name": "30_6",
    "defaultvalue": 0,
    "displayName": "AC_DefeatSpiritsWith3Stars10"
  },
  {
    "name": "30_7",
    "defaultvalue": 0,
    "displayName": "AC_DefeatSpiritsWith3Stars20"
  },
  {
    "name": "30_8",
    "defaultvalue": 0,
    "displayName": "AC_DefeatSpiritsWith3Stars30"
  },
  {
    "name": "30_9",
    "defaultvalue": 0,
    "displayName": "AC_DefeatSpiritsWith3Stars40"
  },
  {
    "name": "30_10",
    "defaultvalue": 0,
    "displayName": "AC_DefeatSpiritsWith3Stars50"
  },
  {
    "name": "30_11",
    "defaultvalue": 0,
    "displayName": "AC_MetWithFriends5"
  },
  {
    "name": "30_12",
    "defaultvalue": 0,
    "displayName": "AC_MetWithFriends10"
  },
  {
    "name": "30_13",
    "defaultvalue": 0,
    "displayName": "AC_MetWithFriends15"
  },
  {
    "name": "30_14",
    "defaultvalue": 0,
    "displayName": "AC_MetWithFriends21"
  },
  {
    "name": "30_15",
    "defaultvalue": 0,
    "displayName": "AC_FoundLoreItems10"
  },
  {
    "name": "30_16",
    "defaultvalue": 0,
    "displayName": "AC_FoundLoreItems20"
  },
  {
    "name": "30_17",
    "defaultvalue": 0,
    "displayName": "AC_FoundLoreItems30"
  },
  {
    "name": "30_18",
    "defaultvalue": 0,
    "displayName": "AC_FoundLoreItems40"
  },
  {
    "name": "30_19",
    "defaultvalue": 0,
    "displayName": "AC_FoundLoreItems50"
  },
  {
    "name": "30_20",
    "defaultvalue": 0,
    "displayName": "AC_PickedFlowers50"
  },
  {
    "name": "30_21",
    "defaultvalue": 0,
    "displayName": "AC_PickedFlowers100"
  },
  {
    "name": "30_22",
    "defaultvalue": 0,
    "displayName": "AC_PickedFlowers200"
  },
  {
    "name": "30_23",
    "defaultvalue": 0,
    "displayName": "AC_PickedFlowers500"
  },
  {
    "name": "30_24",
    "defaultvalue": 0,
    "displayName": "AC_PickedFlowers1000"
  },
  {
    "name": "30_25",
    "defaultvalue": 0,
    "displayName": "AC_BrokeVases50"
  },
  {
    "name": "30_26",
    "defaultvalue": 0,
    "displayName": "AC_BrokeVases100"
  },
  {
    "name": "30_27",
    "defaultvalue": 0,
    "displayName": "AC_BrokeVases200"
  },
  {
    "name": "30_28",
    "defaultvalue": 0,
    "displayName": "AC_BrokeVases500"
  },
  {
    "name": "30_29",
    "defaultvalue": 0,
    "displayName": "AC_BrokeVases1000"
  },
  {
    "name": "30_30",
    "defaultvalue": 0,
    "displayName": "AC_UnlockedAllDoors"
  },
  {
    "name": "30_31",
    "defaultvalue": 0,
    "displayName": "AC_UsedSpeedSandwiches5"
  },
  {
    "name": "30_32",
    "defaultvalue": 0,
    "displayName": "AC_UsedPotions5"
  },
  {
    "name": "51_0",
    "defaultvalue": 0,
    "displayName": "AC_UsedFlashBombs5"
  },
  {
    "name": "51_1",
    "defaultvalue": 0,
    "displayName": "AC_EnteredVillage"
  },
  {
    "name": "51_2",
    "defaultvalue": 0,
    "displayName": "AC_EnteredForest"
  },
  {
    "name": "51_3",
    "defaultvalue": 0,
    "displayName": "AC_EnteredMillHill"
  },
  {
    "name": "51_4",
    "defaultvalue": 0,
    "displayName": "AC_BeatMonty5"
  },
  {
    "name": "51_5",
    "defaultvalue": 0,
    "displayName": "AC_DefeatedTheMayor"
  },
  {
    "name": "51_6",
    "defaultvalue": 0,
    "displayName": "AC_BoughtAtLeastOneOutfit"
  },
  {
    "name": "51_7",
    "defaultvalue": 0,
    "displayName": "AC_StatsMaxedSpeed"
  },
  {
    "name": "51_8",
    "defaultvalue": 0,
    "displayName": "AC_StatsMaxedStealth"
  },
  {
    "name": "51_9",
    "defaultvalue": 0,
    "displayName": "AC_StatsMaxedGrip"
  },
  {
    "name": "51_10",
    "defaultvalue": 0,
    "displayName": "AC_EquipMaxedBoots"
  },
  {
    "name": "51_11",
    "defaultvalue": 0,
    "displayName": "AC_EquipMaxedBracelets"
  },
  {
    "name": "51_12",
    "defaultvalue": 0,
    "displayName": "AC_EquipMaxedAmulets"
  },
  {
    "name": "51_13",
    "defaultvalue": 0,
    "displayName": "AC_RematchedSpirits5"
  },
  {
    "name": "51_14",
    "defaultvalue": 0,
    "displayName": "AC_ScaredBirds500"
  }
]