[
  {
    "name": "KANJI_NUMS",
    "defaultvalue": 0,
    "displayName": "Collected Kanjis"
  },
  {
    "name": "LVLS_NO_HIT",
    "defaultvalue": 0,
    "displayName": "Finished levels without getting hit"
  },
  {
    "name": "LVLS_ALL_ENEMIES_KILLED",
    "defaultvalue": 0,
    "displayName": "Finished levels while killing all enemies"
  },
  {
    "name": "LVLS_NO_ENEMIES_KILLED",
    "defaultvalue": 0,
    "displayName": "Finished levels without killing enemies"
  },
  {
    "name": "ENEMIES_KILLED_NUM",
    "defaultvalue": 0,
    "displayName": "Killed Enemies"
  },
  {
    "name": "LVLS_UNDER_PAR_TIME",
    "defaultvalue": 0,
    "displayName": "Finished unique levels under par time"
  },
  {
    "name": "ORB_NUMS",
    "defaultvalue": 0,
    "displayName": "Collected Orbs"
  },
  {
    "name": "EVADED_SNIPER_BULLETS",
    "defaultvalue": 0,
    "displayName": "Evaded Sniper Bullets using Dash"
  },
  {
    "name": "HORNER_ENEMIES_KILLED",
    "defaultvalue": 0,
    "displayName": "Killed Horner Enemies before Calling more Enemies"
  },
  {
    "name": "STEALTH_KILL_NUM",
    "defaultvalue": 0,
    "displayName": "Stealth Kills"
  },
  {
    "name": "SHURIKEN_KILL_NUM",
    "defaultvalue": 0,
    "displayName": "Enemies killed with shuriken"
  },
  {
    "name": "STICKY_BOMB_KILL_NUM",
    "defaultvalue": 0,
    "displayName": "Enemies killed using sticky bombs"
  }
]