[
  {
    "name": "earn_all_2",
    "defaultvalue": 0,
    "displayName": "Silver Cup",
    "hidden": 0,
    "description": "Earn all Silver Awards",
    "icon": "https://steamcdn-a.akamaihd.net/steamcommunity/public/images/apps/428110/6e28ef80430d8b297d46bcead3584186024754f1.jpg",
    "icongray": "https://steamcdn-a.akamaihd.net/steamcommunity/public/images/apps/428110/af45d9d3e1577c1b9752bef48413a7dc0033a770.jpg"
  },
  {
    "name": "earn_all_3",
    "defaultvalue": 0,
    "displayName": "The best!",
    "hidden": 0,
    "description": "Earn all Golden Awards",
    "icon": "https://steamcdn-a.akamaihd.net/steamcommunity/public/images/apps/428110/3a1f9062083ca7f879967fbb3d53d6e70fc62480.jpg",
    "icongray": "https://steamcdn-a.akamaihd.net/steamcommunity/public/images/apps/428110/af45d9d3e1577c1b9752bef48413a7dc0033a770.jpg"
  },
  {
    "name": "castle_1",
    "defaultvalue": 0,
    "displayName": "First crown",
    "hidden": 0,
    "description": "Put the record time and earn 3 stars to get your first crown",
    "icon": "https://steamcdn-a.akamaihd.net/steamcommunity/public/images/apps/428110/ac08fb9f24b9df4f710879193df4d4a563b2d09f.jpg",
    "icongray": "https://steamcdn-a.akamaihd.net/steamcommunity/public/images/apps/428110/9693bd73100a69b769d2632fac9c60ccc777bf76.jpg"
  },
  {
    "name": "castle_2",
    "defaultvalue": 0,
    "displayName": "Silver crown",
    "hidden": 0,
    "description": "Earn 15 crowns",
    "icon": "https://steamcdn-a.akamaihd.net/steamcommunity/public/images/apps/428110/06c7ed9fca7200361359aee1468c00003fde41e9.jpg",
    "icongray": "https://steamcdn-a.akamaihd.net/steamcommunity/public/images/apps/428110/9693bd73100a69b769d2632fac9c60ccc777bf76.jpg"
  },
  {
    "name": "castle_3",
    "defaultvalue": 0,
    "displayName": "Gold crown",
    "hidden": 0,
    "description": "Earn 50 crowns",
    "icon": "https://steamcdn-a.akamaihd.net/steamcommunity/public/images/apps/428110/eda8da9d697a93b6acc8815cc9357a2270fc3cf6.jpg",
    "icongray": "https://steamcdn-a.akamaihd.net/steamcommunity/public/images/apps/428110/9693bd73100a69b769d2632fac9c60ccc777bf76.jpg"
  },
  {
    "name": "win_1",
    "defaultvalue": 0,
    "displayName": "Monk",
    "hidden": 0,
    "description": "Create 1 bonus of the first level (in one level)",
    "icon": "https://steamcdn-a.akamaihd.net/steamcommunity/public/images/apps/428110/5407354a85a650974bf1e874fd859b5389c2af1d.jpg",
    "icongray": "https://steamcdn-a.akamaihd.net/steamcommunity/public/images/apps/428110/b1620360979d142cde6f0030335f805ff8061f07.jpg"
  },
  {
    "name": "win_2",
    "defaultvalue": 0,
    "displayName": "Priest",
    "hidden": 0,
    "description": "Create 20 bonuses of the first level (in one level)",
    "icon": "https://steamcdn-a.akamaihd.net/steamcommunity/public/images/apps/428110/8c6c2735cca9be693b9ac5ce1cc4f90111609bbd.jpg",
    "icongray": "https://steamcdn-a.akamaihd.net/steamcommunity/public/images/apps/428110/b1620360979d142cde6f0030335f805ff8061f07.jpg"
  },
  {
    "name": "win_3",
    "defaultvalue": 0,
    "displayName": "Inquisitor",
    "hidden": 0,
    "description": "Create 50 bonuses of the first level (in one level)",
    "icon": "https://steamcdn-a.akamaihd.net/steamcommunity/public/images/apps/428110/3c0120fc041ccc9c3ff8f6c211333be080d58c16.jpg",
    "icongray": "https://steamcdn-a.akamaihd.net/steamcommunity/public/images/apps/428110/b1620360979d142cde6f0030335f805ff8061f07.jpg"
  },
  {
    "name": "besttime_1",
    "defaultvalue": 0,
    "displayName": "Competitor",
    "hidden": 0,
    "description": "Beat 5 Time Records",
    "icon": "https://steamcdn-a.akamaihd.net/steamcommunity/public/images/apps/428110/2f28fd1c6995aa951c1298d4125627d213c0b310.jpg",
    "icongray": "https://steamcdn-a.akamaihd.net/steamcommunity/public/images/apps/428110/419920ef212e6c764fc772a2cb4bc70d9d6e5dc1.jpg"
  },
  {
    "name": "besttime_2",
    "defaultvalue": 0,
    "displayName": "Champion",
    "hidden": 0,
    "description": "Beat 15 Time Records",
    "icon": "https://steamcdn-a.akamaihd.net/steamcommunity/public/images/apps/428110/d77d9e413dec42b3c50b90d1b36d4c0d5681b06b.jpg",
    "icongray": "https://steamcdn-a.akamaihd.net/steamcommunity/public/images/apps/428110/419920ef212e6c764fc772a2cb4bc70d9d6e5dc1.jpg"
  },
  {
    "name": "besttime_3",
    "defaultvalue": 0,
    "displayName": "Faster than lightning",
    "hidden": 0,
    "description": "Beat 50 Time Records",
    "icon": "https://steamcdn-a.akamaihd.net/steamcommunity/public/images/apps/428110/9f93d3c20aea429552108efd0638464b4bc6d3ae.jpg",
    "icongray": "https://steamcdn-a.akamaihd.net/steamcommunity/public/images/apps/428110/419920ef212e6c764fc772a2cb4bc70d9d6e5dc1.jpg"
  },
  {
    "name": "nobonus_1",
    "defaultvalue": 0,
    "displayName": "Skilled",
    "hidden": 0,
    "description": "Complete 5 Levels Without Using buttons Bonuses",
    "icon": "https://steamcdn-a.akamaihd.net/steamcommunity/public/images/apps/428110/f5e168aaea141f748de6cb3de5dc4cf3149c016f.jpg",
    "icongray": "https://steamcdn-a.akamaihd.net/steamcommunity/public/images/apps/428110/0455c028dee94354313cf35b4fdfbf5a569a1a64.jpg"
  },
  {
    "name": "nobonus_2",
    "defaultvalue": 0,
    "displayName": "Purist",
    "hidden": 0,
    "description": "Complete 25 Levels Without Using buttons Bonuses",
    "icon": "https://steamcdn-a.akamaihd.net/steamcommunity/public/images/apps/428110/38194310cec0798c40575ac1201654f2cec49387.jpg",
    "icongray": "https://steamcdn-a.akamaihd.net/steamcommunity/public/images/apps/428110/0455c028dee94354313cf35b4fdfbf5a569a1a64.jpg"
  },
  {
    "name": "nobonus_3",
    "defaultvalue": 0,
    "displayName": "Masterful Matcher",
    "hidden": 0,
    "description": "Complete 50 Levels Without Using buttons Bonuses",
    "icon": "https://steamcdn-a.akamaihd.net/steamcommunity/public/images/apps/428110/5008123eb7bdd2327a12d835adbb7c82f92efed6.jpg",
    "icongray": "https://steamcdn-a.akamaihd.net/steamcommunity/public/images/apps/428110/0455c028dee94354313cf35b4fdfbf5a569a1a64.jpg"
  },
  {
    "name": "chainlight_1",
    "defaultvalue": 0,
    "displayName": "The pupil of Magician",
    "hidden": 0,
    "description": "Create 1 bonus of the second level (in one level)",
    "icon": "https://steamcdn-a.akamaihd.net/steamcommunity/public/images/apps/428110/804ad09749dd46daf71565a6872720fcaa94e19f.jpg",
    "icongray": "https://steamcdn-a.akamaihd.net/steamcommunity/public/images/apps/428110/b7a00bd4c71e4ffb550eddfcb01c5009082d0d06.jpg"
  },
  {
    "name": "chainlight_2",
    "defaultvalue": 0,
    "displayName": "Magician",
    "hidden": 0,
    "description": "Create 10 bonuses of the second level (in one level)",
    "icon": "https://steamcdn-a.akamaihd.net/steamcommunity/public/images/apps/428110/20bcf7fff2d123c9d78857393a27c782d4fd50c5.jpg",
    "icongray": "https://steamcdn-a.akamaihd.net/steamcommunity/public/images/apps/428110/b7a00bd4c71e4ffb550eddfcb01c5009082d0d06.jpg"
  },
  {
    "name": "chainlight_3",
    "defaultvalue": 0,
    "displayName": "Magus",
    "hidden": 0,
    "description": "Create 25 bonuses of the second level (in one level)",
    "icon": "https://steamcdn-a.akamaihd.net/steamcommunity/public/images/apps/428110/33ea02d7eb27c3e99d478c16205bddc6c6db2a3c.jpg",
    "icongray": "https://steamcdn-a.akamaihd.net/steamcommunity/public/images/apps/428110/b7a00bd4c71e4ffb550eddfcb01c5009082d0d06.jpg"
  },
  {
    "name": "fullpower_1",
    "defaultvalue": 0,
    "displayName": "Pupil",
    "hidden": 0,
    "description": "Create 50 bonuses of the second level (during the Game)",
    "icon": "https://steamcdn-a.akamaihd.net/steamcommunity/public/images/apps/428110/892841dc4e2d0d65ccf0dab236e9e10889d5732d.jpg",
    "icongray": "https://steamcdn-a.akamaihd.net/steamcommunity/public/images/apps/428110/b09fb23b0f403e1b4b2474c238b354a540385913.jpg"
  },
  {
    "name": "fullpower_2",
    "defaultvalue": 0,
    "displayName": "Apprentice",
    "hidden": 0,
    "description": "Create 200 bonuses of the second level (during the Game)",
    "icon": "https://steamcdn-a.akamaihd.net/steamcommunity/public/images/apps/428110/f2c57c11a0ae69e26ce7ca7dc6a5112bb808cdd7.jpg",
    "icongray": "https://steamcdn-a.akamaihd.net/steamcommunity/public/images/apps/428110/b09fb23b0f403e1b4b2474c238b354a540385913.jpg"
  },
  {
    "name": "fullpower_3",
    "defaultvalue": 0,
    "displayName": "Master",
    "hidden": 0,
    "description": "Create 500 bonuses of the second level (during the Game)",
    "icon": "https://steamcdn-a.akamaihd.net/steamcommunity/public/images/apps/428110/88c32b048b0f07d47b59df0c5587cc785cd7e423.jpg",
    "icongray": "https://steamcdn-a.akamaihd.net/steamcommunity/public/images/apps/428110/b09fb23b0f403e1b4b2474c238b354a540385913.jpg"
  },
  {
    "name": "builder_1",
    "defaultvalue": 0,
    "displayName": "Trickster",
    "hidden": 0,
    "description": "Create 10 bonuses of the third level (during the Game)",
    "icon": "https://steamcdn-a.akamaihd.net/steamcommunity/public/images/apps/428110/c9e4803e0529b360ed53167ba64f46cbc54a35e2.jpg",
    "icongray": "https://steamcdn-a.akamaihd.net/steamcommunity/public/images/apps/428110/56d3f85170785de1092fb93c60fc51d2d9379fbe.jpg"
  },
  {
    "name": "builder_2",
    "defaultvalue": 0,
    "displayName": "Juggler",
    "hidden": 0,
    "description": "Create 100 bonuses of the third level (during the Game)",
    "icon": "https://steamcdn-a.akamaihd.net/steamcommunity/public/images/apps/428110/689589adb91fe0ec9c6b426a1d7dbedf71032ad4.jpg",
    "icongray": "https://steamcdn-a.akamaihd.net/steamcommunity/public/images/apps/428110/56d3f85170785de1092fb93c60fc51d2d9379fbe.jpg"
  },
  {
    "name": "builder_3",
    "defaultvalue": 0,
    "displayName": "Wizard",
    "hidden": 0,
    "description": "Create 250 bonuses of the third level (during the Game)",
    "icon": "https://steamcdn-a.akamaihd.net/steamcommunity/public/images/apps/428110/ecd412550d47fba849899b422d1b86185333ae14.jpg",
    "icongray": "https://steamcdn-a.akamaihd.net/steamcommunity/public/images/apps/428110/56d3f85170785de1092fb93c60fc51d2d9379fbe.jpg"
  },
  {
    "name": "treasurer_1",
    "defaultvalue": 0,
    "displayName": "Astrologer",
    "hidden": 0,
    "description": "Get 50 stars",
    "icon": "https://steamcdn-a.akamaihd.net/steamcommunity/public/images/apps/428110/2732337ce0508422d4b02d455701d65e7e8bb419.jpg",
    "icongray": "https://steamcdn-a.akamaihd.net/steamcommunity/public/images/apps/428110/4dc74558dd83d3b0f4db48d001203baf2d17d74e.jpg"
  },
  {
    "name": "treasurer_2",
    "defaultvalue": 0,
    "displayName": "Astrologer 2",
    "hidden": 0,
    "description": "Get 150 stars",
    "icon": "https://steamcdn-a.akamaihd.net/steamcommunity/public/images/apps/428110/116d463035afe64d820b092ecffc0729524e7c9f.jpg",
    "icongray": "https://steamcdn-a.akamaihd.net/steamcommunity/public/images/apps/428110/4dc74558dd83d3b0f4db48d001203baf2d17d74e.jpg"
  },
  {
    "name": "treasurer_3",
    "defaultvalue": 0,
    "displayName": "Soothsayer",
    "hidden": 0,
    "description": "Get 300 stars",
    "icon": "https://steamcdn-a.akamaihd.net/steamcommunity/public/images/apps/428110/cf5838974d7e33a5876e14dc3b5067e0027770a0.jpg",
    "icongray": "https://steamcdn-a.akamaihd.net/steamcommunity/public/images/apps/428110/4dc74558dd83d3b0f4db48d001203baf2d17d74e.jpg"
  },
  {
    "name": "replay_1",
    "defaultvalue": 0,
    "displayName": "The junior Gremlin",
    "hidden": 0,
    "description": "Use 2 different buttons of the bonus in one level",
    "icon": "https://steamcdn-a.akamaihd.net/steamcommunity/public/images/apps/428110/55f77f0f99fe512d659e6159905eb0957f7352a7.jpg",
    "icongray": "https://steamcdn-a.akamaihd.net/steamcommunity/public/images/apps/428110/69b1d1036a8042f0a42e0696083e5b10f0762919.jpg"
  },
  {
    "name": "replay_2",
    "defaultvalue": 0,
    "displayName": "Gremlin",
    "hidden": 0,
    "description": "Use 3 different buttons of the bonus in one level",
    "icon": "https://steamcdn-a.akamaihd.net/steamcommunity/public/images/apps/428110/bdd4731afbb786109182d912298df10fdd20dd0e.jpg",
    "icongray": "https://steamcdn-a.akamaihd.net/steamcommunity/public/images/apps/428110/69b1d1036a8042f0a42e0696083e5b10f0762919.jpg"
  },
  {
    "name": "replay_3",
    "defaultvalue": 0,
    "displayName": "Gremlin \"The Great\"",
    "hidden": 0,
    "description": "Use all the 6 different buttons of the bonus in one level",
    "icon": "https://steamcdn-a.akamaihd.net/steamcommunity/public/images/apps/428110/c689e0f1a45e21b45c34bda1cc3af66d23eb279c.jpg",
    "icongray": "https://steamcdn-a.akamaihd.net/steamcommunity/public/images/apps/428110/69b1d1036a8042f0a42e0696083e5b10f0762919.jpg"
  },
  {
    "name": "badcombo_1",
    "defaultvalue": 0,
    "displayName": "Persistence",
    "hidden": 0,
    "description": "Begin 50 Combos that don't Trigger Combo Mode(during the Game)",
    "icon": "https://steamcdn-a.akamaihd.net/steamcommunity/public/images/apps/428110/6b28d2622155e76488f4dd3fff3eae452d036a70.jpg",
    "icongray": "https://steamcdn-a.akamaihd.net/steamcommunity/public/images/apps/428110/a2dd0671e6cf59b2637654255fe27677d64c42d7.jpg"
  },
  {
    "name": "badcombo_2",
    "defaultvalue": 0,
    "displayName": "Try, Try Again",
    "hidden": 0,
    "description": "Begin 250 Combos that don't Trigger Combo Mode(during the Game)",
    "icon": "https://steamcdn-a.akamaihd.net/steamcommunity/public/images/apps/428110/6b43b9b7842d3a225cd8ee341bd64e34dc1006ad.jpg",
    "icongray": "https://steamcdn-a.akamaihd.net/steamcommunity/public/images/apps/428110/a2dd0671e6cf59b2637654255fe27677d64c42d7.jpg"
  },
  {
    "name": "badcombo_3",
    "defaultvalue": 0,
    "displayName": "Combo Breaker!",
    "hidden": 0,
    "description": "Begin 500 Combos that don't Trigger Combo Mode(during the Game)",
    "icon": "https://steamcdn-a.akamaihd.net/steamcommunity/public/images/apps/428110/174a59b1374b99799f75eb9ba8a6a8ccab8bb8b9.jpg",
    "icongray": "https://steamcdn-a.akamaihd.net/steamcommunity/public/images/apps/428110/a2dd0671e6cf59b2637654255fe27677d64c42d7.jpg"
  },
  {
    "name": "fastaxe_1",
    "defaultvalue": 0,
    "displayName": "Apprentice Blacksmith",
    "hidden": 0,
    "description": "Use the Hammer Bonus 2 Times in One Level",
    "icon": "https://steamcdn-a.akamaihd.net/steamcommunity/public/images/apps/428110/5c7198fb8185608d6db34a42909bbd6b6037a417.jpg",
    "icongray": "https://steamcdn-a.akamaihd.net/steamcommunity/public/images/apps/428110/7357838d1b71e1d70118382d01d27a86a68b6681.jpg"
  },
  {
    "name": "fastaxe_2",
    "defaultvalue": 0,
    "displayName": "Smithy",
    "hidden": 0,
    "description": "Use the Hammer Bonus 5 Times in One Level",
    "icon": "https://steamcdn-a.akamaihd.net/steamcommunity/public/images/apps/428110/60d8a80ae8cc81237dc0b34b82c9658160b0ede0.jpg",
    "icongray": "https://steamcdn-a.akamaihd.net/steamcommunity/public/images/apps/428110/7357838d1b71e1d70118382d01d27a86a68b6681.jpg"
  },
  {
    "name": "fastaxe_3",
    "defaultvalue": 0,
    "displayName": "Master Blacksmith",
    "hidden": 0,
    "description": "Use the Hammer Bonus 10 Times in One Level",
    "icon": "https://steamcdn-a.akamaihd.net/steamcommunity/public/images/apps/428110/1699a34b7f0f2ea90e164032429c37916009700d.jpg",
    "icongray": "https://steamcdn-a.akamaihd.net/steamcommunity/public/images/apps/428110/7357838d1b71e1d70118382d01d27a86a68b6681.jpg"
  },
  {
    "name": "no_trophy_1",
    "defaultvalue": 0,
    "displayName": "Candy 1",
    "hidden": 0,
    "description": "Complete 3 Levels in a Row Without Earning a Trophy",
    "icon": "https://steamcdn-a.akamaihd.net/steamcommunity/public/images/apps/428110/6482baebef5df2ae44387d165496a9b0e33361eb.jpg",
    "icongray": "https://steamcdn-a.akamaihd.net/steamcommunity/public/images/apps/428110/6fa92f19dcab29b25ca4f527fb4dc153205bf3b9.jpg"
  },
  {
    "name": "no_trophy_2",
    "defaultvalue": 0,
    "displayName": "Candy 2",
    "hidden": 0,
    "description": "Complete 5 Levels in a Row Without Earning a Trophy",
    "icon": "https://steamcdn-a.akamaihd.net/steamcommunity/public/images/apps/428110/8657446a3b11bc48b18c411b862c5d4c4ca38807.jpg",
    "icongray": "https://steamcdn-a.akamaihd.net/steamcommunity/public/images/apps/428110/6fa92f19dcab29b25ca4f527fb4dc153205bf3b9.jpg"
  },
  {
    "name": "no_trophy_3",
    "defaultvalue": 0,
    "displayName": "Candy 3",
    "hidden": 0,
    "description": "Complete 10 Levels in a Row Without Earning a Trophy",
    "icon": "https://steamcdn-a.akamaihd.net/steamcommunity/public/images/apps/428110/352e12a6ede72832d79c55c9de09df1413546c44.jpg",
    "icongray": "https://steamcdn-a.akamaihd.net/steamcommunity/public/images/apps/428110/6fa92f19dcab29b25ca4f527fb4dc153205bf3b9.jpg"
  },
  {
    "name": "no_match3_1",
    "defaultvalue": 0,
    "displayName": "Sticky cobweb",
    "hidden": 0,
    "description": "Complete 5 Levels in a Row that don't have Records",
    "icon": "https://steamcdn-a.akamaihd.net/steamcommunity/public/images/apps/428110/eb70e635fb79ed38e53cbb2ba92a71b5cb5fb145.jpg",
    "icongray": "https://steamcdn-a.akamaihd.net/steamcommunity/public/images/apps/428110/79cda3433831e70c84169800b07cfb94c909d2e5.jpg"
  },
  {
    "name": "no_match3_2",
    "defaultvalue": 0,
    "displayName": "In the cobweb",
    "hidden": 0,
    "description": "Complete 10 Levels in a Row that don't have Records",
    "icon": "https://steamcdn-a.akamaihd.net/steamcommunity/public/images/apps/428110/279c68c89b24827c745cf909058c8af982a1ad79.jpg",
    "icongray": "https://steamcdn-a.akamaihd.net/steamcommunity/public/images/apps/428110/79cda3433831e70c84169800b07cfb94c909d2e5.jpg"
  },
  {
    "name": "no_match3_3",
    "defaultvalue": 0,
    "displayName": "Spider's captivity",
    "hidden": 0,
    "description": "Complete 15 Levels in a Row that don't have Records",
    "icon": "https://steamcdn-a.akamaihd.net/steamcommunity/public/images/apps/428110/23545fae4ef31740ea2eb8c22e9504b8a8820f37.jpg",
    "icongray": "https://steamcdn-a.akamaihd.net/steamcommunity/public/images/apps/428110/79cda3433831e70c84169800b07cfb94c909d2e5.jpg"
  },
  {
    "name": "wind_1",
    "defaultvalue": 0,
    "displayName": "Dueller",
    "hidden": 0,
    "description": "Create 50 bonuses of the first level (during the Game)",
    "icon": "https://steamcdn-a.akamaihd.net/steamcommunity/public/images/apps/428110/589a75e2b43d0bc67c3f5047d10c0223b2a84be2.jpg",
    "icongray": "https://steamcdn-a.akamaihd.net/steamcommunity/public/images/apps/428110/914e6ad0a40a928a41f99e0dece00200dd8b938d.jpg"
  },
  {
    "name": "wind_2",
    "defaultvalue": 0,
    "displayName": "Wood-ranger",
    "hidden": 0,
    "description": "Create 500 bonuses of the first level (during the Game)",
    "icon": "https://steamcdn-a.akamaihd.net/steamcommunity/public/images/apps/428110/d3820c7398051da5ec1ef059b7c48bdca0c1c0f6.jpg",
    "icongray": "https://steamcdn-a.akamaihd.net/steamcommunity/public/images/apps/428110/914e6ad0a40a928a41f99e0dece00200dd8b938d.jpg"
  },
  {
    "name": "wind_3",
    "defaultvalue": 0,
    "displayName": "Elite",
    "hidden": 0,
    "description": "Create 1000 bonuses of the first level (during the Game)",
    "icon": "https://steamcdn-a.akamaihd.net/steamcommunity/public/images/apps/428110/3e7b8cc56a84c8712c38286212231cafcda587e6.jpg",
    "icongray": "https://steamcdn-a.akamaihd.net/steamcommunity/public/images/apps/428110/914e6ad0a40a928a41f99e0dece00200dd8b938d.jpg"
  },
  {
    "name": "bombmaster_1",
    "defaultvalue": 0,
    "displayName": "Bronze pumpkin",
    "hidden": 0,
    "description": "Create 25 explosive pumpkins (during the Game)",
    "icon": "https://steamcdn-a.akamaihd.net/steamcommunity/public/images/apps/428110/184e9d155e4f19a365496d43955085cc4659d320.jpg",
    "icongray": "https://steamcdn-a.akamaihd.net/steamcommunity/public/images/apps/428110/c37b89f924a79240ce88ad13ca46461e36774569.jpg"
  },
  {
    "name": "bombmaster_2",
    "defaultvalue": 0,
    "displayName": "Silver pumpkin",
    "hidden": 0,
    "description": "Create 150 explosive pumpkins (during the Game)",
    "icon": "https://steamcdn-a.akamaihd.net/steamcommunity/public/images/apps/428110/4267988686552a7e1746d6b81a3cebaf6553d61e.jpg",
    "icongray": "https://steamcdn-a.akamaihd.net/steamcommunity/public/images/apps/428110/c37b89f924a79240ce88ad13ca46461e36774569.jpg"
  },
  {
    "name": "bombmaster_3",
    "defaultvalue": 0,
    "displayName": "Gold pumpkin",
    "hidden": 0,
    "description": "Create 500 explosive pumpkins (during the Game)",
    "icon": "https://steamcdn-a.akamaihd.net/steamcommunity/public/images/apps/428110/847dfb9c64ed2ae7d24eabb8758d4f5738e3efd4.jpg",
    "icongray": "https://steamcdn-a.akamaihd.net/steamcommunity/public/images/apps/428110/c37b89f924a79240ce88ad13ca46461e36774569.jpg"
  },
  {
    "name": "play_time_1",
    "defaultvalue": 0,
    "displayName": "Old skull",
    "hidden": 0,
    "description": "Pass 10 levels",
    "icon": "https://steamcdn-a.akamaihd.net/steamcommunity/public/images/apps/428110/19a3ccf2a51f1f1c0a54c8ab2bd0e94f395f3a2b.jpg",
    "icongray": "https://steamcdn-a.akamaihd.net/steamcommunity/public/images/apps/428110/a0162c514e259882389e303090b50e64eb7c61b3.jpg"
  },
  {
    "name": "play_time_2",
    "defaultvalue": 0,
    "displayName": "Skull of the sage",
    "hidden": 0,
    "description": "Pass 75 levels",
    "icon": "https://steamcdn-a.akamaihd.net/steamcommunity/public/images/apps/428110/aac4b468b4ce56f465890c3766fb0b721a3b8077.jpg",
    "icongray": "https://steamcdn-a.akamaihd.net/steamcommunity/public/images/apps/428110/a0162c514e259882389e303090b50e64eb7c61b3.jpg"
  },
  {
    "name": "play_time_3",
    "defaultvalue": 0,
    "displayName": "Gold skull",
    "hidden": 0,
    "description": "Pass 100 levels",
    "icon": "https://steamcdn-a.akamaihd.net/steamcommunity/public/images/apps/428110/2aaf736a60d92d65aff652ce0197d5bce063183c.jpg",
    "icongray": "https://steamcdn-a.akamaihd.net/steamcommunity/public/images/apps/428110/a0162c514e259882389e303090b50e64eb7c61b3.jpg"
  },
  {
    "name": "chaincombo_1",
    "defaultvalue": 0,
    "displayName": "Double the Fun",
    "hidden": 0,
    "description": "Trigger Combo Mode Twice in One Level",
    "icon": "https://steamcdn-a.akamaihd.net/steamcommunity/public/images/apps/428110/6c78fc2977e2dbcf922ab0ae434365db41eb58e1.jpg",
    "icongray": "https://steamcdn-a.akamaihd.net/steamcommunity/public/images/apps/428110/64d64ff3519e463e47c7f7a41f8d8d04c1c60440.jpg"
  },
  {
    "name": "chaincombo_2",
    "defaultvalue": 0,
    "displayName": "Keep on Comboing",
    "hidden": 0,
    "description": "Trigger Combo Mode Four in One Level",
    "icon": "https://steamcdn-a.akamaihd.net/steamcommunity/public/images/apps/428110/34623f93d63b06038b12d7fc520fe9e6eab6e45b.jpg",
    "icongray": "https://steamcdn-a.akamaihd.net/steamcommunity/public/images/apps/428110/64d64ff3519e463e47c7f7a41f8d8d04c1c60440.jpg"
  },
  {
    "name": "chaincombo_3",
    "defaultvalue": 0,
    "displayName": "Combo Master",
    "hidden": 0,
    "description": "Trigger Combo Mode Six in One Level",
    "icon": "https://steamcdn-a.akamaihd.net/steamcommunity/public/images/apps/428110/9ded18fac726dd7ff6f635739ed2eacde2d9947f.jpg",
    "icongray": "https://steamcdn-a.akamaihd.net/steamcommunity/public/images/apps/428110/64d64ff3519e463e47c7f7a41f8d8d04c1c60440.jpg"
  },
  {
    "name": "goodcombo_1",
    "defaultvalue": 0,
    "displayName": "Lucky Streak",
    "hidden": 0,
    "description": "Trigger Combo Mode 5 Times (during the Game)",
    "icon": "https://steamcdn-a.akamaihd.net/steamcommunity/public/images/apps/428110/4c7e649b3aded1631bf8c8d06115e1b548e10d20.jpg",
    "icongray": "https://steamcdn-a.akamaihd.net/steamcommunity/public/images/apps/428110/f2f5bebfe64ceab5710237df4310bdb15b0d62fd.jpg"
  },
  {
    "name": "goodcombo_2",
    "defaultvalue": 0,
    "displayName": "Schemer",
    "hidden": 0,
    "description": "Trigger Combo Mode 50 Times (during the Game)",
    "icon": "https://steamcdn-a.akamaihd.net/steamcommunity/public/images/apps/428110/d9a63e62248aa88bf511b6ee9b21a6ae9424ac4b.jpg",
    "icongray": "https://steamcdn-a.akamaihd.net/steamcommunity/public/images/apps/428110/f2f5bebfe64ceab5710237df4310bdb15b0d62fd.jpg"
  },
  {
    "name": "goodcombo_3",
    "defaultvalue": 0,
    "displayName": "Lightning Reflexes",
    "hidden": 0,
    "description": "Trigger Combo Mode 100 Times (during the Game)",
    "icon": "https://steamcdn-a.akamaihd.net/steamcommunity/public/images/apps/428110/b935a09627f8f5ff08e857a4941e4cbdaeeecc2a.jpg",
    "icongray": "https://steamcdn-a.akamaihd.net/steamcommunity/public/images/apps/428110/f2f5bebfe64ceab5710237df4310bdb15b0d62fd.jpg"
  },
  {
    "name": "chainbreak_1",
    "defaultvalue": 0,
    "displayName": "Broom",
    "hidden": 0,
    "description": "Remove 5 cobwebs with the help of \"The Broom\" (during the game)",
    "icon": "https://steamcdn-a.akamaihd.net/steamcommunity/public/images/apps/428110/1606a3b8b4c466e35780ed083d46f1afe0b0c0c1.jpg",
    "icongray": "https://steamcdn-a.akamaihd.net/steamcommunity/public/images/apps/428110/7de030e2774e38c4fc70ca8dd48ae9cb51419afd.jpg"
  },
  {
    "name": "chainbreak_2",
    "defaultvalue": 0,
    "displayName": "Neatnik",
    "hidden": 0,
    "description": "Remove 10 cobwebs with the help of \"The Broom\" (during the Game)",
    "icon": "https://steamcdn-a.akamaihd.net/steamcommunity/public/images/apps/428110/0d99e65b373739f08c8d11491c273464d5ecc5c8.jpg",
    "icongray": "https://steamcdn-a.akamaihd.net/steamcommunity/public/images/apps/428110/7de030e2774e38c4fc70ca8dd48ae9cb51419afd.jpg"
  },
  {
    "name": "chainbreak_3",
    "defaultvalue": 0,
    "displayName": "Arachnophobia",
    "hidden": 0,
    "description": "Remove 30 cobwebs with the help of \"The Broom\" (during the Game)",
    "icon": "https://steamcdn-a.akamaihd.net/steamcommunity/public/images/apps/428110/ba64b92faec2a1711d6ff0045d13e681390f3ff5.jpg",
    "icongray": "https://steamcdn-a.akamaihd.net/steamcommunity/public/images/apps/428110/7de030e2774e38c4fc70ca8dd48ae9cb51419afd.jpg"
  },
  {
    "name": "rockets_1",
    "defaultvalue": 0,
    "displayName": "Bat",
    "hidden": 0,
    "description": "Create 1 bonus of the third level (for one level)",
    "icon": "https://steamcdn-a.akamaihd.net/steamcommunity/public/images/apps/428110/4bbe972161328a026459349695f09e11d3e1d203.jpg",
    "icongray": "https://steamcdn-a.akamaihd.net/steamcommunity/public/images/apps/428110/acaa924e01652f0d9abbb53503f080a48fa77258.jpg"
  },
  {
    "name": "rockets_2",
    "defaultvalue": 0,
    "displayName": "Vampire",
    "hidden": 0,
    "description": "Create 10 bonuses of the third level (for one level)",
    "icon": "https://steamcdn-a.akamaihd.net/steamcommunity/public/images/apps/428110/33fcb3a59ee698b20bbce747386f297c207ea041.jpg",
    "icongray": "https://steamcdn-a.akamaihd.net/steamcommunity/public/images/apps/428110/acaa924e01652f0d9abbb53503f080a48fa77258.jpg"
  },
  {
    "name": "rockets_3",
    "defaultvalue": 0,
    "displayName": "Dracula",
    "hidden": 0,
    "description": "Create 25 bonuses of the third level (for one level)",
    "icon": "https://steamcdn-a.akamaihd.net/steamcommunity/public/images/apps/428110/edb4194936ab69a1e29300351daf726b1d5e6fcb.jpg",
    "icongray": "https://steamcdn-a.akamaihd.net/steamcommunity/public/images/apps/428110/acaa924e01652f0d9abbb53503f080a48fa77258.jpg"
  },
  {
    "name": "earn_all_1",
    "defaultvalue": 0,
    "displayName": "Bronze Cup",
    "hidden": 0,
    "description": "You earned all of the Bronze Awards",
    "icon": "https://steamcdn-a.akamaihd.net/steamcommunity/public/images/apps/428110/22219e4ffd9a36b647f8d6a49f4d5c6a72dae693.jpg",
    "icongray": "https://steamcdn-a.akamaihd.net/steamcommunity/public/images/apps/428110/af45d9d3e1577c1b9752bef48413a7dc0033a770.jpg"
  }
]