[
  {
    "name": "STAT_MODULESDESTROYED",
    "defaultvalue": 0,
    "displayName": "Modules Destroyed"
  },
  {
    "name": "STAT_STRAYCORPSKILLED",
    "defaultvalue": 0,
    "displayName": "Stray Tank Corps Killed"
  },
  {
    "name": "STAT_CRATES",
    "defaultvalue": 0,
    "displayName": "Crates Collected"
  },
  {
    "name": "STAT_DESTROYED",
    "defaultvalue": 0,
    "displayName": "Tanks Destroyed"
  },
  {
    "name": "STAT_MARCHES",
    "defaultvalue": 0,
    "displayName": "Marches Completed"
  },
  {
    "name": "STAT_MODULES",
    "defaultvalue": 0,
    "displayName": "Modules Destroyed"
  },
  {
    "name": "STAT_SHOCK",
    "defaultvalue": 0,
    "displayName": "Shock Tanks Self-Destructed"
  },
  {
    "name": "STAT_SNIPER",
    "defaultvalue": 0,
    "displayName": "Sniper Kills"
  },
  {
    "name": "STAT_TANKS",
    "defaultvalue": 0,
    "displayName": "Tanks Assembled"
  },
  {
    "name": "STAT_WINS",
    "defaultvalue": 0,
    "displayName": "Wins"
  },
  {
    "name": "STAT_WIPEOUTS",
    "defaultvalue": 0,
    "displayName": "Wipeouts"
  }
]