{
  "Dlcs": {},
  "Name": "Super Thunder Blade™",
  "AppId": "34314",
  "ImageUrl": "https://steamcdn-a.akamaihd.net/steam/apps/34314/header.jpg?t=1549028445",
  "Languages": [
    "english"
  ],
  "Platforms": {
    "windows": true,
    "mac": true,
    "linux": true
  }
}