[
  {
    "name": "stat_soldiers",
    "defaultvalue": 0,
    "displayName": ""
  },
  {
    "name": "stat_planes",
    "defaultvalue": 0,
    "displayName": ""
  },
  {
    "name": "stat_submarines",
    "defaultvalue": 0,
    "displayName": ""
  },
  {
    "name": "stat_tanks",
    "defaultvalue": 0,
    "displayName": ""
  },
  {
    "name": "stat_prisoners",
    "defaultvalue": 0,
    "displayName": ""
  }
]