[
  {
    "name": "ACH_BEGINNING",
    "defaultvalue": 0,
    "displayName": "Beginning",
    "hidden": 0,
    "description": "Chose character to start the game in single play model",
    "icon": "https://steamcdn-a.akamaihd.net/steamcommunity/public/images/apps/1000080/f72720b281279ee0829dcfc023f40c53ff99bd8a.jpg",
    "icongray": "https://steamcdn-a.akamaihd.net/steamcommunity/public/images/apps/1000080/6b67c17328abba1eb745b88203151b93f740a31b.jpg"
  },
  {
    "name": "ACH_CRAZY_DEATH",
    "defaultvalue": 0,
    "displayName": "It's Fun",
    "hidden": 1,
    "icon": "https://steamcdn-a.akamaihd.net/steamcommunity/public/images/apps/1000080/c5eb7bed30e5ef3fb6e5feab1dda37984f47d2a2.jpg",
    "icongray": "https://steamcdn-a.akamaihd.net/steamcommunity/public/images/apps/1000080/17790ca3d1542bb3b8571df316bc743519e0f296.jpg"
  },
  {
    "name": "ACH_DEFEAR_XINGTIAN",
    "defaultvalue": 0,
    "displayName": "Great Punch by XingTian",
    "hidden": 0,
    "description": "Defeat the boss XingTian in single play model",
    "icon": "https://steamcdn-a.akamaihd.net/steamcommunity/public/images/apps/1000080/f608a8b9f6501fb6b6103bdd83438eb281eb6dd9.jpg",
    "icongray": "https://steamcdn-a.akamaihd.net/steamcommunity/public/images/apps/1000080/d0a9341682e725db7ecc5a930db48ccc33db31b5.jpg"
  },
  {
    "name": "ACH_DEFEAT_LEIYUAN",
    "defaultvalue": 0,
    "displayName": "LeiYuan is Crazy ",
    "hidden": 0,
    "description": "Defeat the boss LeiYuan in single play model",
    "icon": "https://steamcdn-a.akamaihd.net/steamcommunity/public/images/apps/1000080/9a7b6506396b86fa21b548341f5df8203165bafa.jpg",
    "icongray": "https://steamcdn-a.akamaihd.net/steamcommunity/public/images/apps/1000080/de93c7cc257dc076ea40972e00fa999ed85f2b12.jpg"
  },
  {
    "name": "ACH_COMPLETE_GAME_ONCE",
    "defaultvalue": 0,
    "displayName": "The 7th Guardian",
    "hidden": 0,
    "description": "Finish the game with any character in single play model",
    "icon": "https://steamcdn-a.akamaihd.net/steamcommunity/public/images/apps/1000080/4fb413c510a8727644fbbf7643b459abccbcca4a.jpg",
    "icongray": "https://steamcdn-a.akamaihd.net/steamcommunity/public/images/apps/1000080/17c53151aaee11169e5ac090af51a9ce7b2c8575.jpg"
  },
  {
    "name": "ACH_COLLECT_EVENT_ITEM_HSY",
    "defaultvalue": 0,
    "displayName": "Brother is so boring",
    "hidden": 0,
    "description": "Obtain all story items of HouShuYan in single play model",
    "icon": "https://steamcdn-a.akamaihd.net/steamcommunity/public/images/apps/1000080/afc281a979ef3b09379dd7d6094ed4427430b191.jpg",
    "icongray": "https://steamcdn-a.akamaihd.net/steamcommunity/public/images/apps/1000080/24479c2c4152a3513fad777d69c0d57d2b3ac28e.jpg"
  },
  {
    "name": "ACH_COLLECT_EVENT_ITEM_MRYQ",
    "defaultvalue": 0,
    "displayName": "Love or Betrayed",
    "hidden": 0,
    "description": "Obtain all story items of MuRongYuQing in single play model",
    "icon": "https://steamcdn-a.akamaihd.net/steamcommunity/public/images/apps/1000080/d79b16ee0cd75a37dba7dafe4b0e405507b0748b.jpg",
    "icongray": "https://steamcdn-a.akamaihd.net/steamcommunity/public/images/apps/1000080/96ef85e007a554eced0b0b2535187b60fbf0b7a6.jpg"
  },
  {
    "name": "ACH_COLLECT_EVENT_ITEM_LMY",
    "defaultvalue": 0,
    "displayName": "She and He",
    "hidden": 0,
    "description": "Obtain all story items of LiuMuYing in single play model",
    "icon": "https://steamcdn-a.akamaihd.net/steamcommunity/public/images/apps/1000080/36c99e176b892978e6dc042b09ec0a1d3aaf8e74.jpg",
    "icongray": "https://steamcdn-a.akamaihd.net/steamcommunity/public/images/apps/1000080/f2919a2f740763ff4d000c0dadbee2c121cb0fd7.jpg"
  },
  {
    "name": "ACH_COLLECT_EVENT_ITEM_HRL",
    "defaultvalue": 0,
    "displayName": "The power of evil",
    "hidden": 0,
    "description": "Obtain all story items of HeRuoLin in single play model",
    "icon": "https://steamcdn-a.akamaihd.net/steamcommunity/public/images/apps/1000080/b90bd36d61a5b9ceebe6b1d7f5a5584efd3b0220.jpg",
    "icongray": "https://steamcdn-a.akamaihd.net/steamcommunity/public/images/apps/1000080/17563731d331b9001822273492c91320334ffa0e.jpg"
  },
  {
    "name": "ACH_COLLECT_EVENT_ITEM_YZY",
    "defaultvalue": 0,
    "displayName": "Guardian ",
    "hidden": 0,
    "description": "Obtain all story items of YuanZiYu in single play model",
    "icon": "https://steamcdn-a.akamaihd.net/steamcommunity/public/images/apps/1000080/a4ee65715bf0dbf9f9d9ad4414c55a6987900bcc.jpg",
    "icongray": "https://steamcdn-a.akamaihd.net/steamcommunity/public/images/apps/1000080/3009f5947f94429f65b702a1f33cd419ab7b45e5.jpg"
  },
  {
    "name": "ACH_COLLECT_ITEM_30",
    "defaultvalue": 0,
    "displayName": "Great collector",
    "hidden": 0,
    "description": "Obtain 30 type of props in game in single play model",
    "icon": "https://steamcdn-a.akamaihd.net/steamcommunity/public/images/apps/1000080/30fcdb8aef372322e201b9ceee5770bbc85176a3.jpg",
    "icongray": "https://steamcdn-a.akamaihd.net/steamcommunity/public/images/apps/1000080/b490e0ae258e892c24ff41beb2587a239279fecb.jpg"
  },
  {
    "name": "ACH_COMPLETE_GAME_ALL",
    "defaultvalue": 0,
    "displayName": "Zengeon",
    "hidden": 0,
    "description": "Finish the challenge with all characters in single play model ",
    "icon": "https://steamcdn-a.akamaihd.net/steamcommunity/public/images/apps/1000080/592ff2f32877ba854d01fc82f0624f62bbe696e2.jpg",
    "icongray": "https://steamcdn-a.akamaihd.net/steamcommunity/public/images/apps/1000080/eac31c8098168f811e5a68e6fc9bd194ae7f0eef.jpg"
  },
  {
    "name": "ACH_LEVEL_UPTO_20",
    "defaultvalue": 0,
    "displayName": "Ah Gym",
    "hidden": 0,
    "description": "Any character reach to the level 20 in single play model",
    "icon": "https://steamcdn-a.akamaihd.net/steamcommunity/public/images/apps/1000080/ec6b0e508e3ae9cb863dddec6f3cee6669fc6b71.jpg",
    "icongray": "https://steamcdn-a.akamaihd.net/steamcommunity/public/images/apps/1000080/3004e6c0af59ed0a6286ee027e74d2208891aee6.jpg"
  },
  {
    "name": "ACH_DEATH_MINUTE_3",
    "defaultvalue": 0,
    "displayName": "Newbie",
    "hidden": 0,
    "description": "Get failed in 3 minuets in single play model",
    "icon": "https://steamcdn-a.akamaihd.net/steamcommunity/public/images/apps/1000080/78fbecfedeec49e8ddb02b6f8204506a471c1264.jpg",
    "icongray": "https://steamcdn-a.akamaihd.net/steamcommunity/public/images/apps/1000080/96cd7fd2ecd9f075669e0e5bd3b421990d13fb80.jpg"
  },
  {
    "name": "ACH_COMPLETE_GAME_HSY",
    "defaultvalue": 0,
    "displayName": "Zhen Wu",
    "hidden": 0,
    "description": "Use Hou Shu Yan finish the game in single play",
    "icon": "https://steamcdn-a.akamaihd.net/steamcommunity/public/images/apps/1000080/817dc5692e5e95604e564c9d5a52d3e14b51e10a.jpg",
    "icongray": "https://steamcdn-a.akamaihd.net/steamcommunity/public/images/apps/1000080/47f7b34caec75fe339dd2b887a44b6d8e8d49924.jpg"
  },
  {
    "name": "ACH_COMPLETE_GAME_YZY",
    "defaultvalue": 0,
    "displayName": "Di Jun",
    "hidden": 0,
    "description": "Use Yuan Zi Yu finish the game in single play",
    "icon": "https://steamcdn-a.akamaihd.net/steamcommunity/public/images/apps/1000080/772a4f87c3ea6f3251b00f3f1b9edff3ec2a1293.jpg",
    "icongray": "https://steamcdn-a.akamaihd.net/steamcommunity/public/images/apps/1000080/b0f037196e75361e7b743864ae8a1e7c1ea4a00f.jpg"
  },
  {
    "name": "ACH_COMPLETE_GAME_LMY",
    "defaultvalue": 0,
    "displayName": "Ling Yue",
    "hidden": 0,
    "description": "Use Liu Mu Ying finish the game in single play",
    "icon": "https://steamcdn-a.akamaihd.net/steamcommunity/public/images/apps/1000080/7e39b616696f0a8e5af59b26abef21fddb234cf8.jpg",
    "icongray": "https://steamcdn-a.akamaihd.net/steamcommunity/public/images/apps/1000080/64778d1b661f1757a3d56f5748d99259f477d7f8.jpg"
  },
  {
    "name": "ACH_COMPLETE_GAME_HRL",
    "defaultvalue": 0,
    "displayName": "Mo Li",
    "hidden": 0,
    "description": "Use He Ruo Lin finish the game in single play",
    "icon": "https://steamcdn-a.akamaihd.net/steamcommunity/public/images/apps/1000080/80be873cbecaa61719bf396d8e620bce5d9c125f.jpg",
    "icongray": "https://steamcdn-a.akamaihd.net/steamcommunity/public/images/apps/1000080/6d50c251d859658da0c9cf1fe9a41b660d42c99d.jpg"
  },
  {
    "name": "ACH_COMPLETE_GAME_MRYQ",
    "defaultvalue": 0,
    "displayName": "Tai Sui",
    "hidden": 0,
    "description": "Use Mu Rong Yu Qin finish the game in single play",
    "icon": "https://steamcdn-a.akamaihd.net/steamcommunity/public/images/apps/1000080/521e8b6b996bd8cd7a9b3f2a8b6efeacb1603c17.jpg",
    "icongray": "https://steamcdn-a.akamaihd.net/steamcommunity/public/images/apps/1000080/7a5e49ba36af528fc670f57903014a8d285eb6d3.jpg"
  }
]