{
  "Dlcs": {
    "422280": {
      "Name": "Before The Storm Soundtrack",
      "ImageUrl": "https://steamcdn-a.akamaihd.net/steam/apps/422280/header.jpg?t=1448362655"
    }
  },
  "Name": "Tidal Affair: Before The Storm",
  "AppId": "396930",
  "ImageUrl": "https://steamcdn-a.akamaihd.net/steam/apps/396930/header.jpg?t=1462749923",
  "Languages": [
    "english"
  ],
  "Platforms": {
    "windows": true,
    "mac": true,
    "linux": false
  }
}