{
  "Dlcs": {},
  "Name": "LithoBreak",
  "AppId": "1091030",
  "ImageUrl": "https://steamcdn-a.akamaihd.net/steam/apps/1091030/header.jpg?t=1595880889",
  "Languages": [
    "english"
  ],
  "Platforms": {
    "windows": true,
    "mac": false,
    "linux": false
  }
}