﻿[
  {
    "name": "ACH_EASY_MODE",
    "defaultvalue": 0,
    "displayName": "Easy Mode",
    "hidden": 0,
    "description": "Beat dodgebot on easy mode.",
    "icon": "https://steamcdn-a.akamaihd.net/steamcommunity/public/images/apps/564080/700e86068ed973421e9ef3cabd89fd090b6fd1d1.jpg",
    "icongray": "https://steamcdn-a.akamaihd.net/steamcommunity/public/images/apps/564080/207ddbcda86c34765ab8eedb8a89a08ec7cb8056.jpg"
  },
  {
    "name": "ACH_MEDIUM_MODE",
    "defaultvalue": 0,
    "displayName": "Medium Mode",
    "hidden": 0,
    "description": "Beat dodgebot on medium mode.",
    "icon": "https://steamcdn-a.akamaihd.net/steamcommunity/public/images/apps/564080/36cff50f746ff40dfae53e1bfe89dd2c544efb69.jpg",
    "icongray": "https://steamcdn-a.akamaihd.net/steamcommunity/public/images/apps/564080/427112ecbfaad955d957e2232562e821a9b1db53.jpg"
  },
  {
    "name": "ACH_HARD_MODE",
    "defaultvalue": 0,
    "displayName": "Hard Mode",
    "hidden": 0,
    "description": "Beat dodgebot on hard mode.",
    "icon": "https://steamcdn-a.akamaihd.net/steamcommunity/public/images/apps/564080/68eaa069f1be82f0d5f40a4de65b2bad56c698fa.jpg",
    "icongray": "https://steamcdn-a.akamaihd.net/steamcommunity/public/images/apps/564080/a3bd96d1768cfa24f1ac43ae3b469c561f0af0d9.jpg"
  },
  {
    "name": "ACH_DEATH_MODE",
    "defaultvalue": 0,
    "displayName": "Death Mode",
    "hidden": 0,
    "description": "Beat dodgebot on death mode.",
    "icon": "https://steamcdn-a.akamaihd.net/steamcommunity/public/images/apps/564080/401419a98fe864b74cc4ef170a047249dba2109d.jpg",
    "icongray": "https://steamcdn-a.akamaihd.net/steamcommunity/public/images/apps/564080/514ae40df030bfae41f39d3904147faa3c2770e6.jpg"
  },
  {
    "name": "ACH_ACE_DEATHMODE",
    "defaultvalue": 0,
    "displayName": "Ace Deathmode",
    "hidden": 0,
    "description": "Beat deathmode dodgebot with Ace.",
    "icon": "https://steamcdn-a.akamaihd.net/steamcommunity/public/images/apps/564080/f6a5271fa450674ac4af0fc2cbbcdefc8128487b.jpg",
    "icongray": "https://steamcdn-a.akamaihd.net/steamcommunity/public/images/apps/564080/69b23fddda93f43fd66549eee06ae851fff72011.jpg"
  },
  {
    "name": "ACH_ZOMBORG_DEATHMODE",
    "defaultvalue": 0,
    "displayName": "Zomborg Deathmode",
    "hidden": 0,
    "description": "Beat deathmode dodgebot with Zomborg.",
    "icon": "https://steamcdn-a.akamaihd.net/steamcommunity/public/images/apps/564080/d3997222cf4fa363f08ddaacff40ba1d1321ec91.jpg",
    "icongray": "https://steamcdn-a.akamaihd.net/steamcommunity/public/images/apps/564080/bf74c695769c66993df5d5fc395f7569578f035f.jpg"
  },
  {
    "name": "ACH_SYDNEY_DEATHMODE",
    "defaultvalue": 0,
    "displayName": "Sydney Deathmode",
    "hidden": 0,
    "description": "Beat deathmode dodgebot with Sydney.",
    "icon": "https://steamcdn-a.akamaihd.net/steamcommunity/public/images/apps/564080/c8d10232704079b5bccd0ea553b67a060cb7c804.jpg",
    "icongray": "https://steamcdn-a.akamaihd.net/steamcommunity/public/images/apps/564080/b831fbce690cbe44c18bd351aabf97e74fe8b724.jpg"
  },
  {
    "name": "ACH_POLY_DEATHMODE",
    "defaultvalue": 0,
    "displayName": "Polly Deathmode",
    "hidden": 0,
    "description": "Beat deathmode dodgebot with Polly.",
    "icon": "https://steamcdn-a.akamaihd.net/steamcommunity/public/images/apps/564080/1902b1e6adbe42a440a39391d1780d5539b993fd.jpg",
    "icongray": "https://steamcdn-a.akamaihd.net/steamcommunity/public/images/apps/564080/41e0c1d56856f2f70f78c14e39df09b13e538321.jpg"
  },
  {
    "name": "ACH_MAX_DEATHMODE",
    "defaultvalue": 0,
    "displayName": "Max Deathmode",
    "hidden": 0,
    "description": "Beat deathmode dodgebot with Max.",
    "icon": "https://steamcdn-a.akamaihd.net/steamcommunity/public/images/apps/564080/a2ddc1479ce8356dfa31af518f32ef7a399204c9.jpg",
    "icongray": "https://steamcdn-a.akamaihd.net/steamcommunity/public/images/apps/564080/6616a8d0c3d1e8caa5fea783daf078170fe1e59e.jpg"
  },
  {
    "name": "ACH_JUSTICE_DEATHMODE",
    "defaultvalue": 0,
    "displayName": "Lt. Justice Deathmode",
    "hidden": 0,
    "description": "Beat deathmode dodgebot with Lt. Justice.",
    "icon": "https://steamcdn-a.akamaihd.net/steamcommunity/public/images/apps/564080/044727b65ecde2bf185fad639573947e8a0c5480.jpg",
    "icongray": "https://steamcdn-a.akamaihd.net/steamcommunity/public/images/apps/564080/60309c54e13d3e7a4ca72c1011740e1854d34847.jpg"
  },
  {
    "name": "ACH_VERONICA_DEATHMODE",
    "defaultvalue": 0,
    "displayName": "Veronica Deathmode",
    "hidden": 0,
    "description": "Beat deathmode dodgebot with Veronica.",
    "icon": "https://steamcdn-a.akamaihd.net/steamcommunity/public/images/apps/564080/251e99251c5b2418f5cb345693e047bedaa678af.jpg",
    "icongray": "https://steamcdn-a.akamaihd.net/steamcommunity/public/images/apps/564080/3d4b40a2050026680b9bec41b75f8feaac9a2d8b.jpg"
  },
  {
    "name": "ACH_GOLIATH_DEATHMODE",
    "defaultvalue": 0,
    "displayName": "Goliath Deathmode",
    "hidden": 0,
    "description": "Beat deathmode dodgebot with Goliath.",
    "icon": "https://steamcdn-a.akamaihd.net/steamcommunity/public/images/apps/564080/145e2b6835d9374c281584180d4fe7c6b626d913.jpg",
    "icongray": "https://steamcdn-a.akamaihd.net/steamcommunity/public/images/apps/564080/a488289319b2c4dfbc34351b2de83882c788b006.jpg"
  },
  {
    "name": "ACH_ZANDRA_DEATHMODE",
    "defaultvalue": 0,
    "displayName": "Zandra Deathmode",
    "hidden": 0,
    "description": "Beat deathmode dodgebot with Zandra.",
    "icon": "https://steamcdn-a.akamaihd.net/steamcommunity/public/images/apps/564080/e7cac80d47cf74423f8c39fe2e74d31f7d7adac0.jpg",
    "icongray": "https://steamcdn-a.akamaihd.net/steamcommunity/public/images/apps/564080/7db5b585243fe119652d7d377dfc8bc202cbf7f4.jpg"
  },
  {
    "name": "ACH_DODGEBOT_DEATHMODE",
    "defaultvalue": 0,
    "displayName": "Dodgebot Deathmode",
    "hidden": 0,
    "description": "Beat deathmode dodgebot with... well, Dodgebot!",
    "icon": "https://steamcdn-a.akamaihd.net/steamcommunity/public/images/apps/564080/a2a8a57fd9bbac253bf64c0d53f399e98ad205d6.jpg",
    "icongray": "https://steamcdn-a.akamaihd.net/steamcommunity/public/images/apps/564080/ab81f9b9ea361c17f95bcf2a63306d9c96c5ed93.jpg"
  },
  {
    "name": "ACH_MASTERY",
    "defaultvalue": 0,
    "displayName": "Mastery",
    "hidden": 0,
    "description": "Beat deathmode dodgebot with 9 different characters.",
    "icon": "https://steamcdn-a.akamaihd.net/steamcommunity/public/images/apps/564080/b14c5b669af920a14d18e32592fa5483eee88e6d.jpg",
    "icongray": "https://steamcdn-a.akamaihd.net/steamcommunity/public/images/apps/564080/ea62231bea56ef1ebb35190eca977b65c40dccf0.jpg"
  },
  {
    "name": "ACH_VARIETY",
    "defaultvalue": 0,
    "displayName": "Variety",
    "hidden": 0,
    "description": "Played a match with 9 different characters.",
    "icon": "https://steamcdn-a.akamaihd.net/steamcommunity/public/images/apps/564080/e109f15aa6ac54dc51870a69607835a566dfba1e.jpg",
    "icongray": "https://steamcdn-a.akamaihd.net/steamcommunity/public/images/apps/564080/b9e1216e8055654cb3b2c43e984a5304d89ec4f0.jpg"
  },
  {
    "name": "ACH_TIMING",
    "defaultvalue": 0,
    "displayName": "Timing is Everything",
    "hidden": 0,
    "description": "Get a x5 chain reflect.",
    "icon": "https://steamcdn-a.akamaihd.net/steamcommunity/public/images/apps/564080/0a20995e66ade5f469f6d864906c9126b3f6ebf7.jpg",
    "icongray": "https://steamcdn-a.akamaihd.net/steamcommunity/public/images/apps/564080/2edf8bcfdd010b12912d42885a8f9916f63ab93e.jpg"
  },
  {
    "name": "ACH_TIMING_100",
    "defaultvalue": 0,
    "displayName": "Are you cheating? 0.o",
    "hidden": 0,
    "description": "Get a x100 chain reflect.",
    "icon": "https://steamcdn-a.akamaihd.net/steamcommunity/public/images/apps/564080/46e36b8bb3b60fa4caffbd633549b9cc1d48310c.jpg",
    "icongray": "https://steamcdn-a.akamaihd.net/steamcommunity/public/images/apps/564080/5fc91c5a1e25147ee7e32b0f555e73eefaa70a19.jpg"
  },
  {
    "name": "ACH_OOPS",
    "defaultvalue": 0,
    "displayName": "Oops",
    "hidden": 0,
    "description": "Spammed taunt against a dodgebot.",
    "icon": "https://steamcdn-a.akamaihd.net/steamcommunity/public/images/apps/564080/c5a70bbee6e1d85c8fc9ec04a67da13c8b6c668e.jpg",
    "icongray": "https://steamcdn-a.akamaihd.net/steamcommunity/public/images/apps/564080/d1c42d283801826c6f97a28b5001fcfba93f56f5.jpg"
  },
  {
    "name": "ACH_SELECT_DODGEBOT",
    "defaultvalue": 0,
    "displayName": "So that's how you do it!",
    "hidden": 0,
    "description": "Figure out how to play as Dodgebot.",
    "icon": "https://steamcdn-a.akamaihd.net/steamcommunity/public/images/apps/564080/153a719389a0313f03648ae30600780f66a6ecac.jpg",
    "icongray": "https://steamcdn-a.akamaihd.net/steamcommunity/public/images/apps/564080/f90835ab48f3e2bc146aa0d9d7b98a44d8c6278a.jpg"
  },
  {
    "name": "ACH_MAX_CHAMELEON",
    "defaultvalue": 0,
    "displayName": "Maximum Chameleon",
    "hidden": 0,
    "description": "Steal 20 balls in a single online match as Max.",
    "icon": "https://steamcdn-a.akamaihd.net/steamcommunity/public/images/apps/564080/d61290803623db56437f40bddec31a7eaa5b7778.jpg",
    "icongray": "https://steamcdn-a.akamaihd.net/steamcommunity/public/images/apps/564080/7f53db79f88c85c05b6df6a0247f6406d24c1497.jpg"
  },
  {
    "name": "ACH_RESTRAINT",
    "defaultvalue": 0,
    "displayName": "Restraint",
    "hidden": 0,
    "description": "After discovering taunt, don't use taunt for 15 online matches in a row.",
    "icon": "https://steamcdn-a.akamaihd.net/steamcommunity/public/images/apps/564080/aa33262bb5835c4c659b72c3097f566c02513403.jpg",
    "icongray": "https://steamcdn-a.akamaihd.net/steamcommunity/public/images/apps/564080/918503b870fe93d5f098ac00841a90f494b617c1.jpg"
  },
  {
    "name": "ACH_SILVER",
    "defaultvalue": 0,
    "displayName": "Silver",
    "hidden": 0,
    "description": "Reach the Silver online rank.",
    "icon": "https://steamcdn-a.akamaihd.net/steamcommunity/public/images/apps/564080/79b84c0eea47080d6839712220e7160fbdaa34cf.jpg",
    "icongray": "https://steamcdn-a.akamaihd.net/steamcommunity/public/images/apps/564080/4f1469a14e362e8bc50b2f469b5f4dc55abb7a89.jpg"
  },
  {
    "name": "ACH_GOLD",
    "defaultvalue": 0,
    "displayName": "Gold",
    "hidden": 0,
    "description": "Reach the Gold online rank.",
    "icon": "https://steamcdn-a.akamaihd.net/steamcommunity/public/images/apps/564080/c5306d02e5262408b59ee1cb9d2f81402fa4dad1.jpg",
    "icongray": "https://steamcdn-a.akamaihd.net/steamcommunity/public/images/apps/564080/ccc342d1fc226d4fb3f2a2fa436ce5e4888b09e4.jpg"
  },
  {
    "name": "ACH_PLAT",
    "defaultvalue": 0,
    "displayName": "Platinum",
    "hidden": 0,
    "description": "Reach the Platinum online rank.",
    "icon": "https://steamcdn-a.akamaihd.net/steamcommunity/public/images/apps/564080/f3387e43ff3824cccf3e27d2d0ac6928df150e1b.jpg",
    "icongray": "https://steamcdn-a.akamaihd.net/steamcommunity/public/images/apps/564080/c83bd52af83d22a85b3fba68969c157d0bd078f3.jpg"
  },
  {
    "name": "ACH_BLITZER",
    "defaultvalue": 0,
    "displayName": "Blitzer",
    "hidden": 0,
    "description": "Play 50 online games.",
    "icon": "https://steamcdn-a.akamaihd.net/steamcommunity/public/images/apps/564080/41d5a2670bee8d4f905642abf3c3c65338783304.jpg",
    "icongray": "https://steamcdn-a.akamaihd.net/steamcommunity/public/images/apps/564080/e6165a92058f55eabf5b4b2eb632763149291631.jpg"
  },
  {
    "name": "ACH_WINNING",
    "defaultvalue": 0,
    "displayName": "Winning",
    "hidden": 0,
    "description": "Win 10 total online games.",
    "icon": "https://steamcdn-a.akamaihd.net/steamcommunity/public/images/apps/564080/685284fcd7d19281092d610d654400c1951d033e.jpg",
    "icongray": "https://steamcdn-a.akamaihd.net/steamcommunity/public/images/apps/564080/7f649c37073e48ecfaf599ce2a36315870595a9f.jpg"
  },
  {
    "name": "ACH_METAGALACTIC_BOSS",
    "defaultvalue": 0,
    "displayName": "Metagalactic Boss",
    "hidden": 0,
    "description": "Win 50 total online games.",
    "icon": "https://steamcdn-a.akamaihd.net/steamcommunity/public/images/apps/564080/b3f9589aa820442c44c228e276ba7f7f0ba64b50.jpg",
    "icongray": "https://steamcdn-a.akamaihd.net/steamcommunity/public/images/apps/564080/c9aac4f485b9e845c0bd374f78efd01ab0c75713.jpg"
  },
  {
    "name": "ACH_WIN",
    "defaultvalue": 0,
    "displayName": "Win",
    "hidden": 0,
    "description": "Win an online match.",
    "icon": "https://steamcdn-a.akamaihd.net/steamcommunity/public/images/apps/564080/aca3bf6a9f246738b1bb394f6503252b717d4d2f.jpg",
    "icongray": "https://steamcdn-a.akamaihd.net/steamcommunity/public/images/apps/564080/0486eb0e73b0ddaf936652f0c7326b18bb7cba4e.jpg"
  },
  {
    "name": "ACH_DOUBLE_KILL",
    "defaultvalue": 0,
    "displayName": "Double Kill",
    "hidden": 0,
    "description": "Win 2 online matches in a row.",
    "icon": "https://steamcdn-a.akamaihd.net/steamcommunity/public/images/apps/564080/e172e016f05331105ab11904a39941be588eb562.jpg",
    "icongray": "https://steamcdn-a.akamaihd.net/steamcommunity/public/images/apps/564080/1d373a46bf9606c738ebe6f23511d71f16b7a9a2.jpg"
  },
  {
    "name": "ACH_MULTI_KILL",
    "defaultvalue": 0,
    "displayName": "Multi Kill",
    "hidden": 0,
    "description": "Win 5 online matches in a row.",
    "icon": "https://steamcdn-a.akamaihd.net/steamcommunity/public/images/apps/564080/7b89f37ddb3bb9aac7b42a3a95715b0e21bc3a6c.jpg",
    "icongray": "https://steamcdn-a.akamaihd.net/steamcommunity/public/images/apps/564080/d439cf8a1c190f2734030d436da49a1c9ada138a.jpg"
  },
  {
    "name": "ACH_MONSTER_KILL",
    "defaultvalue": 0,
    "displayName": "Monster Kill",
    "hidden": 0,
    "description": "Win 10 online matches in a row.",
    "icon": "https://steamcdn-a.akamaihd.net/steamcommunity/public/images/apps/564080/f6654c0ce5fe22f007bb2bb065052939678d2d90.jpg",
    "icongray": "https://steamcdn-a.akamaihd.net/steamcommunity/public/images/apps/564080/1e8e22b3bb0759bce17eb5d37aa654028bccc99b.jpg"
  },
  {
    "name": "ACH_DESTRUCTION",
    "defaultvalue": 0,
    "displayName": "Destruction",
    "hidden": 0,
    "description": "Take an opponent's stock without taking damage in an online game.",
    "icon": "https://steamcdn-a.akamaihd.net/steamcommunity/public/images/apps/564080/ca0c4e64a4eaf143656bae2e16fa8f2e02342e9c.jpg",
    "icongray": "https://steamcdn-a.akamaihd.net/steamcommunity/public/images/apps/564080/6fdd95e5228348312c57c00a26fe71b9a0ed1d11.jpg"
  },
  {
    "name": "ACH_PURIST",
    "defaultvalue": 0,
    "displayName": "Purist",
    "hidden": 0,
    "description": "Win an online match without using abilities.",
    "icon": "https://steamcdn-a.akamaihd.net/steamcommunity/public/images/apps/564080/25d0148de24c3670e5931a9eb3278d0d8299eab1.jpg",
    "icongray": "https://steamcdn-a.akamaihd.net/steamcommunity/public/images/apps/564080/468881d27d2c623cad4f8b72bed0938d72bc5d04.jpg"
  },
  {
    "name": "ACH_ONLY_ABILITIES",
    "defaultvalue": 0,
    "displayName": "What are these round things for?",
    "hidden": 0,
    "description": "Win an online match without dealing dodgeball damage.",
    "icon": "https://steamcdn-a.akamaihd.net/steamcommunity/public/images/apps/564080/8b0ff99cc4bb459eebf32ff3c781a085c3e2ac2d.jpg",
    "icongray": "https://steamcdn-a.akamaihd.net/steamcommunity/public/images/apps/564080/379bf0c29c40e395e1569954dfef1ce5409ea159.jpg"
  },
  {
    "name": "ACH_ROULETTE",
    "defaultvalue": 0,
    "displayName": "Roulette",
    "hidden": 0,
    "description": "Win 10 online matches as a random character.",
    "icon": "https://steamcdn-a.akamaihd.net/steamcommunity/public/images/apps/564080/6ebe7378f2e09d6c6ba20f4cb1cce0585050568b.jpg",
    "icongray": "https://steamcdn-a.akamaihd.net/steamcommunity/public/images/apps/564080/452c866dfba2b4aa8ba3a8eca335fba3d08c4e32.jpg"
  },
  {
    "name": "ACH_ROULETTE_MASTER",
    "defaultvalue": 0,
    "displayName": "Roulette Master",
    "hidden": 0,
    "description": "Win 40 online matches as a random character.",
    "icon": "https://steamcdn-a.akamaihd.net/steamcommunity/public/images/apps/564080/4398b9c53a1cc3bd203ce1da5ba20c08d6a0ff1a.jpg",
    "icongray": "https://steamcdn-a.akamaihd.net/steamcommunity/public/images/apps/564080/796a7240a98103462fa579b3e777715a6d0b10e2.jpg"
  },
  {
    "name": "ACH_RIVALRY",
    "defaultvalue": 0,
    "displayName": "Rivalry",
    "hidden": 0,
    "description": "Rematch an online opponent twice in a row.",
    "icon": "https://steamcdn-a.akamaihd.net/steamcommunity/public/images/apps/564080/c85faf3b38aaaf39f82f06df8828223ffa1abbae.jpg",
    "icongray": "https://steamcdn-a.akamaihd.net/steamcommunity/public/images/apps/564080/ea78e32511962d7dde9b255f4234b0c14f333df4.jpg"
  },
  {
    "name": "ACH_FRENEMIES",
    "defaultvalue": 0,
    "displayName": "Making Frenemies",
    "hidden": 0,
    "description": "Demand a rematch against 6 different online opponents.",
    "icon": "https://steamcdn-a.akamaihd.net/steamcommunity/public/images/apps/564080/d828b0f6eed1bdfddebc1763ffac9cd426dec6db.jpg",
    "icongray": "https://steamcdn-a.akamaihd.net/steamcommunity/public/images/apps/564080/27e38e93a62735901662756eda80f603079c789f.jpg"
  },
  {
    "name": "ACH_FRIENDS",
    "defaultvalue": 0,
    "displayName": "Why can't we be friends?",
    "hidden": 0,
    "description": "Add an online opponent as a friend.",
    "icon": "https://steamcdn-a.akamaihd.net/steamcommunity/public/images/apps/564080/74c6573c32e8059ad0cb262927caba78ebb7243b.jpg",
    "icongray": "https://steamcdn-a.akamaihd.net/steamcommunity/public/images/apps/564080/2d7caa1b31476be18467428ae08007b206aa4c7a.jpg"
  },
  {
    "name": "ACH_UNLOCK_JUSTICE",
    "defaultvalue": 0,
    "displayName": "Justice",
    "hidden": 1,
    "icon": "https://steamcdn-a.akamaihd.net/steamcommunity/public/images/apps/564080/f98e2f4b8ba025ee922c1cab311cde431a64f372.jpg",
    "icongray": "https://steamcdn-a.akamaihd.net/steamcommunity/public/images/apps/564080/73a6a07e191f5ee4a590719aac70140c3319f009.jpg"
  },
  {
    "name": "ACH_UNLOCK_VERONICA",
    "defaultvalue": 0,
    "displayName": "Veronica",
    "hidden": 1,
    "icon": "https://steamcdn-a.akamaihd.net/steamcommunity/public/images/apps/564080/9539faeca4a1be166693d13623ea4709a485a6e2.jpg",
    "icongray": "https://steamcdn-a.akamaihd.net/steamcommunity/public/images/apps/564080/cd1142f970e9dfef05929ec9c95849c67814fb06.jpg"
  },
  {
    "name": "ACH_UNLOCK_ZANDRA",
    "defaultvalue": 0,
    "displayName": "Zandra",
    "hidden": 1,
    "icon": "https://steamcdn-a.akamaihd.net/steamcommunity/public/images/apps/564080/ff6a1f620bea104de8504a062d29365763be2cf6.jpg",
    "icongray": "https://steamcdn-a.akamaihd.net/steamcommunity/public/images/apps/564080/b27c097cda5d4c1ba29f7557181150a689be96ee.jpg"
  },
  {
    "name": "ACH_UNLOCK_POLLY",
    "defaultvalue": 0,
    "displayName": "Ms. Polly Gon",
    "hidden": 1,
    "icon": "https://steamcdn-a.akamaihd.net/steamcommunity/public/images/apps/564080/e0e03fa53b66a71e24731e2003a132ac2327438c.jpg",
    "icongray": "https://steamcdn-a.akamaihd.net/steamcommunity/public/images/apps/564080/220be283ed19a175004a928f25b08ea621509930.jpg"
  }
]