{
  "Dlcs": {},
  "Name": "Bystander",
  "AppId": "674860",
  "ImageUrl": "https://steamcdn-a.akamaihd.net/steam/apps/674860/header.jpg?t=1513362342",
  "Languages": [
    "english",
    "russian"
  ],
  "Platforms": {
    "windows": true,
    "mac": true,
    "linux": true
  }
}