{
  "Dlcs": {},
  "Name": "VEGAS Pro 18 Edit Steam Edition",
  "AppId": "1325400",
  "ImageUrl": "https://steamcdn-a.akamaihd.net/steam/apps/1325400/header.jpg?t=1601394162",
  "Languages": [
    "english",
    "french",
    "german",
    "spanish"
  ],
  "Platforms": {
    "windows": true,
    "mac": false,
    "linux": false
  }
}