{
  "Dlcs": {},
  "Name": "Village Fest: Digging",
  "AppId": "1302030",
  "ImageUrl": "https://steamcdn-a.akamaihd.net/steam/apps/1302030/header.jpg?t=1601131771",
  "Languages": [
    "english"
  ],
  "Platforms": {
    "windows": true,
    "mac": false,
    "linux": false
  }
}