﻿[
  {
    "name": "Archaeologist",
    "defaultvalue": 0,
    "displayName": "Archaeologist",
    "hidden": 0,
    "description": "Find all crystals in Escape the Past.",
    "icon": "https://steamcdn-a.akamaihd.net/steamcommunity/public/images/apps/486120/4f25894623ccf1e19bdfda5a4830297cadf235b2.jpg",
    "icongray": "https://steamcdn-a.akamaihd.net/steamcommunity/public/images/apps/486120/04e8bb046cf8c77d6c024333de3a2c14685deb1b.jpg"
  },
  {
    "name": "Archivist",
    "defaultvalue": 0,
    "displayName": "Archivist",
    "hidden": 0,
    "description": "Find all pieces of letters in Escape the Past.",
    "icon": "https://steamcdn-a.akamaihd.net/steamcommunity/public/images/apps/486120/75218a621888c442944fc2aa2bdfd3b5cfe3a036.jpg",
    "icongray": "https://steamcdn-a.akamaihd.net/steamcommunity/public/images/apps/486120/68d809c661fad4aae75bfc66bd38506908c29892.jpg"
  },
  {
    "name": "Isolation",
    "defaultvalue": 0,
    "displayName": "Isolation",
    "hidden": 0,
    "description": "Complete chapter 1 in less than 15 minutes.",
    "icon": "https://steamcdn-a.akamaihd.net/steamcommunity/public/images/apps/486120/a0776d82e816d0642984e39b088036dcd22dee4f.jpg",
    "icongray": "https://steamcdn-a.akamaihd.net/steamcommunity/public/images/apps/486120/d9f1348d4a465dde5f6e10c2aae7a6e1519085d8.jpg"
  },
  {
    "name": "Pirate",
    "defaultvalue": 0,
    "displayName": "Pirate",
    "hidden": 0,
    "description": "Unearth the chest within 4 minutes.",
    "icon": "https://steamcdn-a.akamaihd.net/steamcommunity/public/images/apps/486120/bb84264f10e3ed8e609b204ea6dc4f0a1f2fbb61.jpg",
    "icongray": "https://steamcdn-a.akamaihd.net/steamcommunity/public/images/apps/486120/26fd998dccc7656ca3031d6886e39c9968799c08.jpg"
  },
  {
    "name": "Abdication",
    "defaultvalue": 0,
    "displayName": "Abdication",
    "hidden": 0,
    "description": "Complete chapter 2 in less than 15 minutes.",
    "icon": "https://steamcdn-a.akamaihd.net/steamcommunity/public/images/apps/486120/a0e3b130bf58ccaa6d0600332d37927eaff39c5f.jpg",
    "icongray": "https://steamcdn-a.akamaihd.net/steamcommunity/public/images/apps/486120/6c12b38232d5c4334a8f031ab9bdec445d2b2c06.jpg"
  },
  {
    "name": "Electrician",
    "defaultvalue": 0,
    "displayName": "Electrician",
    "hidden": 0,
    "description": "Repair the radio within 4 minutes.",
    "icon": "https://steamcdn-a.akamaihd.net/steamcommunity/public/images/apps/486120/33f7544ad091c757d4236baa9dda34900fea5c38.jpg",
    "icongray": "https://steamcdn-a.akamaihd.net/steamcommunity/public/images/apps/486120/996cd2124b660d9b6e460fa0c41c5e511a296267.jpg"
  },
  {
    "name": "Hesitation",
    "defaultvalue": 0,
    "displayName": "Hesitation",
    "hidden": 0,
    "description": "Complete chapter 3 in less than 15 minutes.",
    "icon": "https://steamcdn-a.akamaihd.net/steamcommunity/public/images/apps/486120/1b7b657742226e41df7b27f4ef11f66a603f9691.jpg",
    "icongray": "https://steamcdn-a.akamaihd.net/steamcommunity/public/images/apps/486120/62d36c65d9e9d70e5dca6058d6d7a40195c080f4.jpg"
  },
  {
    "name": "Engineer",
    "defaultvalue": 0,
    "displayName": "Engineer",
    "hidden": 0,
    "description": "Switch the tank back on within 4 minutes.",
    "icon": "https://steamcdn-a.akamaihd.net/steamcommunity/public/images/apps/486120/4f5d7ac30881998c602be1db66a907b695da9cb0.jpg",
    "icongray": "https://steamcdn-a.akamaihd.net/steamcommunity/public/images/apps/486120/6997e93bed33c1402c9a5f3c866ddef7b5103673.jpg"
  },
  {
    "name": "Revelation",
    "defaultvalue": 0,
    "displayName": "Revelation",
    "hidden": 0,
    "description": "Complete chapter 4 in less than 15 minutes.",
    "icon": "https://steamcdn-a.akamaihd.net/steamcommunity/public/images/apps/486120/96b8991b599973c26a60904ff85393849a0eae2d.jpg",
    "icongray": "https://steamcdn-a.akamaihd.net/steamcommunity/public/images/apps/486120/28e9d549c7b55163a873d27015f6e43152d6f0f3.jpg"
  },
  {
    "name": "Demolitionist",
    "defaultvalue": 0,
    "displayName": "Demolitionist",
    "hidden": 0,
    "description": "Use the dynamite within 4 minutes.",
    "icon": "https://steamcdn-a.akamaihd.net/steamcommunity/public/images/apps/486120/1388af3a5c029ab00e6136717f1673a8bbdcf8d1.jpg",
    "icongray": "https://steamcdn-a.akamaihd.net/steamcommunity/public/images/apps/486120/2dc9bbc023b8147d54e8fa9b5b76bdb2b46d1a8c.jpg"
  }
]