﻿[
  {
    "name": "ZP_ZMASSIST",
    "defaultvalue": 0,
    "displayName": ""
  },
  {
    "name": "ZP_CARRIER_ROAR",
    "defaultvalue": 0,
    "displayName": ""
  },
  {
    "name": "ZP_HM_BARRICADE",
    "defaultvalue": 0,
    "displayName": ""
  },
  {
    "name": "ZP_ZM_BARRICADE",
    "defaultvalue": 0,
    "displayName": ""
  },
  {
    "name": "ZP_HUM_EUGENE",
    "defaultvalue": 0,
    "displayName": ""
  },
  {
    "name": "ZP_HUM_MARCUS",
    "defaultvalue": 0,
    "displayName": ""
  },
  {
    "name": "ZP_HUM_JESSICA",
    "defaultvalue": 0,
    "displayName": ""
  },
  {
    "name": "ZP_HUM_PAUL",
    "defaultvalue": 0,
    "displayName": ""
  },
  {
    "name": "ZP_HUM_LEA",
    "defaultvalue": 0,
    "displayName": ""
  },
  {
    "name": "ZP_HUM_VANESSA",
    "defaultvalue": 0,
    "displayName": ""
  },
  {
    "name": "ZP_HUM_PEDRO",
    "defaultvalue": 0,
    "displayName": ""
  },
  {
    "name": "ZP_WORLD_AQUATICA",
    "defaultvalue": 0,
    "displayName": ""
  },
  {
    "name": "ZP_WORLD_BIOTEC",
    "defaultvalue": 0,
    "displayName": ""
  },
  {
    "name": "ZP_WORLD_CORPSINGTON",
    "defaultvalue": 0,
    "displayName": ""
  },
  {
    "name": "ZP_WORLD_CORPSINGTON_SURV",
    "defaultvalue": 0,
    "displayName": ""
  },
  {
    "name": "ZP_WORLD_FROZENHEART",
    "defaultvalue": 0,
    "displayName": ""
  },
  {
    "name": "ZP_WORLD_HARVEST",
    "defaultvalue": 0,
    "displayName": ""
  },
  {
    "name": "ZP_WORLD_HAUNTED",
    "defaultvalue": 0,
    "displayName": ""
  },
  {
    "name": "ZP_WORLD_KERETTI",
    "defaultvalue": 0,
    "displayName": ""
  },
  {
    "name": "ZP_WORLD_KERETTI_SURV",
    "defaultvalue": 0,
    "displayName": ""
  },
  {
    "name": "ZP_WORLD_MURKSVILLE",
    "defaultvalue": 0,
    "displayName": ""
  },
  {
    "name": "ZP_WORLD_SHREDDINGFIELD",
    "defaultvalue": 0,
    "displayName": ""
  },
  {
    "name": "ZP_WORLD_SUBWAY",
    "defaultvalue": 0,
    "displayName": ""
  },
  {
    "name": "ZP_WORLD_TANKER",
    "defaultvalue": 0,
    "displayName": ""
  },
  {
    "name": "ZP_WORLD_ZOMBOEING",
    "defaultvalue": 0,
    "displayName": ""
  },
  {
    "name": "ZP_WORLD_ASYLUM",
    "defaultvalue": 0,
    "displayName": ""
  },
  {
    "name": "ZP_WORLD_BLACKOUT",
    "defaultvalue": 0,
    "displayName": ""
  },
  {
    "name": "ZP_WORLD_CINEMA",
    "defaultvalue": 0,
    "displayName": ""
  },
  {
    "name": "ZP_WORLD_CLUBZOMBO",
    "defaultvalue": 0,
    "displayName": ""
  },
  {
    "name": "ZP_WORLD_DEADEND",
    "defaultvalue": 0,
    "displayName": ""
  },
  {
    "name": "ZP_WORLD_NIGHTMARE",
    "defaultvalue": 0,
    "displayName": ""
  },
  {
    "name": "ZP_WORLD_POLICESTATION",
    "defaultvalue": 0,
    "displayName": ""
  },
  {
    "name": "ZP_WORLD_PITHOLE",
    "defaultvalue": 0,
    "displayName": ""
  },
  {
    "name": "ZP_WORLD_RURALPANIC",
    "defaultvalue": 0,
    "displayName": ""
  },
  {
    "name": "ZP_WORLD_SAPIDCER",
    "defaultvalue": 0,
    "displayName": ""
  },
  {
    "name": "ZP_WORLD_SILENCE",
    "defaultvalue": 0,
    "displayName": ""
  },
  {
    "name": "ZP_WORLD_THRILLVILE",
    "defaultvalue": 0,
    "displayName": ""
  },
  {
    "name": "ZP_WORLD_TOWN",
    "defaultvalue": 0,
    "displayName": ""
  },
  {
    "name": "ZP_WORLD_UNDERGROUND",
    "defaultvalue": 0,
    "displayName": ""
  },
  {
    "name": "ZP_ZM_PROPS_BROKEN",
    "defaultvalue": 0,
    "displayName": ""
  },
  {
    "name": "ZP_CARRIER_SPOT",
    "defaultvalue": 0,
    "displayName": ""
  },
  {
    "name": "ZP_HM_CARRIER_SPOTTED",
    "defaultvalue": 0,
    "displayName": ""
  },
  {
    "name": "ZP_HM_INOCULATOR_HEALS",
    "defaultvalue": 0,
    "displayName": ""
  },
  {
    "name": "ZP_HM_WEAPON_KEYBOARD_DMG",
    "defaultvalue": 0,
    "displayName": ""
  },
  {
    "name": "ZP_HM_WEAPON_SLEDGEHAMMER_KILLS",
    "defaultvalue": 0,
    "displayName": ""
  },
  {
    "name": "ZP_MAP_FROZENHEAT_DELIVER_GAS_CANS",
    "defaultvalue": 0,
    "displayName": ""
  },
  {
    "name": "ZP_MAP_ZOMBOEING_DELIVER_SUPPLY_CRATES",
    "defaultvalue": 0,
    "displayName": ""
  },
  {
    "name": "ZP_MAP_ZOMBOEING_HOTWIRE_TRUCK",
    "defaultvalue": 0,
    "displayName": ""
  },
  {
    "name": "ZP_MAP_THRILLVILE_ZOMBIE_DMG",
    "defaultvalue": 0,
    "displayName": ""
  },
  {
    "name": "ZP_ZM_HEADSHOTS",
    "defaultvalue": 0,
    "displayName": ""
  },
  {
    "name": "ZP_DOOR_HATER",
    "defaultvalue": 0,
    "displayName": ""
  }
]