{
  "Dlcs": {},
  "Name": "Tronix Defender",
  "AppId": "745420",
  "ImageUrl": "https://steamcdn-a.akamaihd.net/steam/apps/745420/header.jpg?t=1572348170",
  "Languages": [
    "english"
  ],
  "Platforms": {
    "windows": true,
    "mac": false,
    "linux": false
  }
}