{
  "Dlcs": {},
  "Name": "Room 54",
  "AppId": "673240",
  "ImageUrl": "https://steamcdn-a.akamaihd.net/steam/apps/673240/header.jpg?t=1589208500",
  "Languages": [
    "english",
    "italian",
    "spanish",
    "german"
  ],
  "Platforms": {
    "windows": true,
    "mac": false,
    "linux": false
  }
}