{
  "Dlcs": {},
  "Name": "Sky Squadron",
  "AppId": "1403400",
  "ImageUrl": "https://steamcdn-a.akamaihd.net/steam/apps/1403400/header.jpg?t=1601426635",
  "Languages": [
    "english"
  ],
  "Platforms": {
    "windows": true,
    "mac": false,
    "linux": false
  }
}