[
  {
    "name": "COMPLETE_ACHIEVEMENT",
    "defaultvalue": 0,
    "displayName": "Completionist",
    "hidden": 0,
    "description": "Complete all puzzles",
    "icon": "https://steamcdn-a.akamaihd.net/steamcommunity/public/images/apps/390910/3ea310ce0d1cc116a86eef73b1dd36b170e82d0f.jpg",
    "icongray": "https://steamcdn-a.akamaihd.net/steamcommunity/public/images/apps/390910/5f415be656698952786f47fb738cec29ffbd4add.jpg"
  },
  {
    "name": "BONUS_ACHIEVEMENT",
    "defaultvalue": 0,
    "displayName": "Discoverer",
    "hidden": 0,
    "description": "Find all bonus solutions",
    "icon": "https://steamcdn-a.akamaihd.net/steamcommunity/public/images/apps/390910/8ce0cb9135aa9e8f2e9509d7ab297287bd97a149.jpg",
    "icongray": "https://steamcdn-a.akamaihd.net/steamcommunity/public/images/apps/390910/1789a9d81fda761d0029243025b5fbf5fcf7195e.jpg"
  },
  {
    "name": "DISTANCE1_ACHIEVEMENT",
    "defaultvalue": 0,
    "displayName": "Explorer",
    "hidden": 0,
    "description": "Travel over 1 kilometer",
    "icon": "https://steamcdn-a.akamaihd.net/steamcommunity/public/images/apps/390910/a19acd1e239257b9f756f0bd340659f03d28bc7a.jpg",
    "icongray": "https://steamcdn-a.akamaihd.net/steamcommunity/public/images/apps/390910/d97d5ecb55ae1bce8523c39617e10fdb04ff74ef.jpg"
  },
  {
    "name": "DISTANCE2_ACHIEVEMENT",
    "defaultvalue": 0,
    "displayName": "Wanderer",
    "hidden": 0,
    "description": "Travel over 5 kilometers",
    "icon": "https://steamcdn-a.akamaihd.net/steamcommunity/public/images/apps/390910/4630c380e8c396b33958d051940e6cb648a81e93.jpg",
    "icongray": "https://steamcdn-a.akamaihd.net/steamcommunity/public/images/apps/390910/86072ad538f13a934a70779cf384265dae50b3fb.jpg"
  },
  {
    "name": "DISTANCE3_ACHIEVEMENT",
    "defaultvalue": 0,
    "displayName": "Nomad",
    "hidden": 0,
    "description": "Travel over 10 kilometers",
    "icon": "https://steamcdn-a.akamaihd.net/steamcommunity/public/images/apps/390910/25fb29b2e2ab69e362ed4ab7f68706aaefb071ed.jpg",
    "icongray": "https://steamcdn-a.akamaihd.net/steamcommunity/public/images/apps/390910/9b420a9021ee76930a68b5bdb8a7920dc5a61bec.jpg"
  },
  {
    "name": "MASTER_ACHIEVEMENT",
    "defaultvalue": 0,
    "displayName": "Perfectionist",
    "hidden": 0,
    "description": "Complete all puzzles without making a mistake",
    "icon": "https://steamcdn-a.akamaihd.net/steamcommunity/public/images/apps/390910/64c1075fa9203424344cf0a9a76c93b4441c9ae2.jpg",
    "icongray": "https://steamcdn-a.akamaihd.net/steamcommunity/public/images/apps/390910/6cd10f38a1e1baaeb60dedf0fcdad368c29661d9.jpg"
  },
  {
    "name": "ADEPT_ACHIEVEMENT",
    "defaultvalue": 0,
    "displayName": "Adept",
    "hidden": 0,
    "description": "Complete one puzzle without making a mistake",
    "icon": "https://steamcdn-a.akamaihd.net/steamcommunity/public/images/apps/390910/920648bae2eedc4020abc60b36ce7864007ca3be.jpg",
    "icongray": "https://steamcdn-a.akamaihd.net/steamcommunity/public/images/apps/390910/93b66b447fd3fcd631962f2af3b3526c7b36b8df.jpg"
  },
  {
    "name": "LUCKY_ACHIEVEMENT",
    "defaultvalue": 0,
    "displayName": "Lucky",
    "hidden": 0,
    "description": "Find one bonus solution",
    "icon": "https://steamcdn-a.akamaihd.net/steamcommunity/public/images/apps/390910/24a540c758209a6987c0c414089facfc15d88c07.jpg",
    "icongray": "https://steamcdn-a.akamaihd.net/steamcommunity/public/images/apps/390910/0a9b00b08b25d160b53a4c6bf71147b28ccdf9a6.jpg"
  },
  {
    "name": "STRATEGIST_ACHIEVEMENT",
    "defaultvalue": 0,
    "displayName": "Strategist",
    "hidden": 0,
    "description": "Win the minigame",
    "icon": "https://steamcdn-a.akamaihd.net/steamcommunity/public/images/apps/390910/0fec2aa88d68b8ca67a394327414bbc4680becc4.jpg",
    "icongray": "https://steamcdn-a.akamaihd.net/steamcommunity/public/images/apps/390910/d6f8f0e9576f6cfa98b334878436419203ee7af5.jpg"
  },
  {
    "name": "COMPETITOR_ACHIEVEMENT",
    "defaultvalue": 0,
    "displayName": "Competitor",
    "hidden": 0,
    "description": "Win the minigame 5 times in a row",
    "icon": "https://steamcdn-a.akamaihd.net/steamcommunity/public/images/apps/390910/21ed034ced1c71dc31d3cb3414d750113f12c0fe.jpg",
    "icongray": "https://steamcdn-a.akamaihd.net/steamcommunity/public/images/apps/390910/699082d85f2f13a1612f1c7ed584214278224a0f.jpg"
  },
  {
    "name": "ADDICT_ACHIEVEMENT",
    "defaultvalue": 0,
    "displayName": "Addict",
    "hidden": 0,
    "description": "Complete over 100 minigames",
    "icon": "https://steamcdn-a.akamaihd.net/steamcommunity/public/images/apps/390910/70908851cafcf1c847254a0998ca1dcb1b47f690.jpg",
    "icongray": "https://steamcdn-a.akamaihd.net/steamcommunity/public/images/apps/390910/eb813e514fbf746ecc6ccf100cfa076edd73216a.jpg"
  },
  {
    "name": "DEBUGGER_ACHIEVEMENT",
    "defaultvalue": 0,
    "displayName": "Debugger",
    "hidden": 0,
    "description": "Clear over 100 bugs",
    "icon": "https://steamcdn-a.akamaihd.net/steamcommunity/public/images/apps/390910/d37182da4c9ce81df167943931d6fb183fc8fe5d.jpg",
    "icongray": "https://steamcdn-a.akamaihd.net/steamcommunity/public/images/apps/390910/69c46de8ef56cfa319257ca129d447aed50c6ca6.jpg"
  },
  {
    "name": "EXTERMINATOR_ACHIEVEMENT",
    "defaultvalue": 0,
    "displayName": "Exterminator",
    "hidden": 0,
    "description": "Clear 10 or more bugs at once",
    "icon": "https://steamcdn-a.akamaihd.net/steamcommunity/public/images/apps/390910/5125852d031d2474dfa123c2d8512f5598c5a8d6.jpg",
    "icongray": "https://steamcdn-a.akamaihd.net/steamcommunity/public/images/apps/390910/0c28aa0545a9e59d01cb3be4343c06ee5abb98ff.jpg"
  },
  {
    "name": "INNOVATOR_ACHIEVEMENT",
    "defaultvalue": 0,
    "displayName": "Innovator",
    "hidden": 0,
    "description": "Find 5 bonus solutions",
    "icon": "https://steamcdn-a.akamaihd.net/steamcommunity/public/images/apps/390910/6980f0007a8e40fac43d7687730950cd86e05641.jpg",
    "icongray": "https://steamcdn-a.akamaihd.net/steamcommunity/public/images/apps/390910/6c0cf0a6a737e4b726c839c2adc046f1043b05f3.jpg"
  },
  {
    "name": "MOSQUITO_ACHIEVEMENT",
    "defaultvalue": 0,
    "displayName": "Mosquito",
    "hidden": 0,
    "description": "Clear 5 mosquitoes",
    "icon": "https://steamcdn-a.akamaihd.net/steamcommunity/public/images/apps/390910/b822b11e9743b87e2d940c97ec8bc9084d00a478.jpg",
    "icongray": "https://steamcdn-a.akamaihd.net/steamcommunity/public/images/apps/390910/f8baf65453d3a2067e21b2adea96665e57623120.jpg"
  },
  {
    "name": "MOON_ACHIEVEMENT",
    "defaultvalue": 0,
    "displayName": "Full Moon",
    "hidden": 0,
    "description": "Witness the rise of a full moon",
    "icon": "https://steamcdn-a.akamaihd.net/steamcommunity/public/images/apps/390910/7d85404f64669967557db06c20f7600f6a3b8516.jpg",
    "icongray": "https://steamcdn-a.akamaihd.net/steamcommunity/public/images/apps/390910/af91c1a5fb63718ea7883b2770c210fffabf559d.jpg"
  },
  {
    "name": "SHOWER_ACHIEVEMENT",
    "defaultvalue": 0,
    "displayName": "Falling Star",
    "hidden": 0,
    "description": "Witness an annual meteor shower",
    "icon": "https://steamcdn-a.akamaihd.net/steamcommunity/public/images/apps/390910/0c8ff60936044dd7e4a3bb960dd41eee41e663ca.jpg",
    "icongray": "https://steamcdn-a.akamaihd.net/steamcommunity/public/images/apps/390910/54e340f308142d48f797b93f029bb41096938e68.jpg"
  },
  {
    "name": "EQUINOX_ACHIEVEMENT",
    "defaultvalue": 0,
    "displayName": "Equinox",
    "hidden": 0,
    "description": "Witness the sunset during an equinox or solstice",
    "icon": "https://steamcdn-a.akamaihd.net/steamcommunity/public/images/apps/390910/3dd1e2dd1c9f4adf84eedeb24920d7102b2c59ff.jpg",
    "icongray": "https://steamcdn-a.akamaihd.net/steamcommunity/public/images/apps/390910/833cb1b50e8a498cbc0cad7e3b93cfceb2038384.jpg"
  },
  {
    "name": "PINBALL1_ACHIEVEMENT",
    "defaultvalue": 0,
    "displayName": "Spinner",
    "hidden": 0,
    "description": "Clear the table in Opie's pinball",
    "icon": "https://steamcdn-a.akamaihd.net/steamcommunity/public/images/apps/390910/d27e701ebe8c74ac003dde349e5402c514a0bc5d.jpg",
    "icongray": "https://steamcdn-a.akamaihd.net/steamcommunity/public/images/apps/390910/661acde0a86b748821c0598dd95259111d4bd4df.jpg"
  },
  {
    "name": "PINBALL2_ACHIEVEMENT",
    "defaultvalue": 0,
    "displayName": "Flipper",
    "hidden": 0,
    "description": "Clear the table three times in a row",
    "icon": "https://steamcdn-a.akamaihd.net/steamcommunity/public/images/apps/390910/165c597a570fe2417f376e67d3e2f26226faaca5.jpg",
    "icongray": "https://steamcdn-a.akamaihd.net/steamcommunity/public/images/apps/390910/04e6b6d2b2504bdad3ef7719cf9eb70d29131d70.jpg"
  },
  {
    "name": "PINBALL3_ACHIEVEMENT",
    "defaultvalue": 0,
    "displayName": "Wizard",
    "hidden": 0,
    "description": "Clear the table five times in a row",
    "icon": "https://steamcdn-a.akamaihd.net/steamcommunity/public/images/apps/390910/66b15e42aaef965caccde43c6f7d6373f5f2e9b0.jpg",
    "icongray": "https://steamcdn-a.akamaihd.net/steamcommunity/public/images/apps/390910/a71efa77909d9b137a9e9c663781b93b6593ed0c.jpg"
  },
  {
    "name": "FRIDAY13_ACHIEVEMENT",
    "defaultvalue": 0,
    "displayName": "Unlucky strike",
    "hidden": 0,
    "description": "Experience a malfunction on the most unlucky day of the year",
    "icon": "https://steamcdn-a.akamaihd.net/steamcommunity/public/images/apps/390910/ebab790f0cf34175f0e12e549e6b3995973de03a.jpg",
    "icongray": "https://steamcdn-a.akamaihd.net/steamcommunity/public/images/apps/390910/137cb9a4194b316a14f55a0c0443cf8f685bba99.jpg"
  },
  {
    "name": "LEAPYEAR_ACHIEVEMENT",
    "defaultvalue": 0,
    "displayName": "Leap year",
    "hidden": 0,
    "description": "Feel the earth tremble on the rarest day in the calendar",
    "icon": "https://steamcdn-a.akamaihd.net/steamcommunity/public/images/apps/390910/1380725ec7237d8ca182c825698af2634b41247a.jpg",
    "icongray": "https://steamcdn-a.akamaihd.net/steamcommunity/public/images/apps/390910/943e935a6ed115573e7f1beb33f15594968028a5.jpg"
  },
  {
    "name": "NEWYEAR_ACHIEVEMENT",
    "defaultvalue": 0,
    "displayName": "New Year",
    "hidden": 0,
    "description": "Catch the fireworks on the last day of the year",
    "icon": "https://steamcdn-a.akamaihd.net/steamcommunity/public/images/apps/390910/8afd2c65feaf4f17b365da54d613e2c24103de5b.jpg",
    "icongray": "https://steamcdn-a.akamaihd.net/steamcommunity/public/images/apps/390910/14fad46859d52721f1f3e363584ff717d08afd1d.jpg"
  }
]