[
  {
    "name": "bulletsFired",
    "defaultvalue": 0,
    "displayName": "Bullets Fired"
  },
  {
    "name": "farthestWorld",
    "defaultvalue": 0,
    "displayName": "Farthest Level"
  },
  {
    "name": "lisasKilled",
    "defaultvalue": 0,
    "displayName": "Lisas Killed"
  },
  {
    "name": "scribblesKilled",
    "defaultvalue": 0,
    "displayName": "Scribbles Killed"
  },
  {
    "name": "knightsKilled",
    "defaultvalue": 0,
    "displayName": "Knights Killed"
  },
  {
    "name": "tutsKilled",
    "defaultvalue": 0,
    "displayName": "Tuts Killed"
  },
  {
    "name": "dustsKilled",
    "defaultvalue": 0,
    "displayName": "Dusts Killed"
  },
  {
    "name": "photosKilled",
    "defaultvalue": 0,
    "displayName": "Photos Killed"
  },
  {
    "name": "notesKilled",
    "defaultvalue": 0,
    "displayName": "Notes Killed"
  },
  {
    "name": "targetsTorn",
    "defaultvalue": 0,
    "displayName": "Targets Torn"
  },
  {
    "name": "playerDeaths",
    "defaultvalue": 0,
    "displayName": "Player Deaths"
  },
  {
    "name": "davidsKilled",
    "defaultvalue": 0,
    "displayName": "Davids Killed"
  },
  {
    "name": "protectorsKilled",
    "defaultvalue": 0,
    "displayName": "Protectors Killed"
  },
  {
    "name": "apprenciisKilled",
    "defaultvalue": 0,
    "displayName": "Apprenciis Killed"
  },
  {
    "name": "beholdersKilled",
    "defaultvalue": 0,
    "displayName": "Beholders Killed"
  },
  {
    "name": "artsKilled",
    "defaultvalue": 0,
    "displayName": "Arts Killed"
  },
  {
    "name": "creditsKilled",
    "defaultvalue": 0,
    "displayName": "Credits Killed"
  },
  {
    "name": "damnsKilled",
    "defaultvalue": 0,
    "displayName": "Damns Killed"
  }
]