﻿[
  {
    "name": "GL2_ACHIEVEMENT_1_0",
    "defaultvalue": 0,
    "displayName": "That was quick",
    "hidden": 0,
    "description": "Finish minigame in less than 1 minute.",
    "icon": "https://steamcdn-a.akamaihd.net/steamcommunity/public/images/apps/279800/64b57009eca64c902ab69535739723de3cb08458.jpg",
    "icongray": "https://steamcdn-a.akamaihd.net/steamcommunity/public/images/apps/279800/076d6158d74bc40511281aa9a44be375c79c23ca.jpg"
  },
  {
    "name": "GL2_ACHIEVEMENT_1_1",
    "defaultvalue": 0,
    "displayName": "True Player",
    "hidden": 0,
    "description": "Finish 4 minigames in a row without skipping.",
    "icon": "https://steamcdn-a.akamaihd.net/steamcommunity/public/images/apps/279800/5e4054cf340de21411f1c6ca2328513bb7028d92.jpg",
    "icongray": "https://steamcdn-a.akamaihd.net/steamcommunity/public/images/apps/279800/8280f6b3251c00304a5fcd056a8f7e59fe90a152.jpg"
  },
  {
    "name": "GL2_ACHIEVEMENT_1_2",
    "defaultvalue": 0,
    "displayName": "One per second",
    "hidden": 0,
    "description": "Find 3 hidden objects within 3 seconds.",
    "icon": "https://steamcdn-a.akamaihd.net/steamcommunity/public/images/apps/279800/defda36e9908e541a7a03dd4116a8f471950ac33.jpg",
    "icongray": "https://steamcdn-a.akamaihd.net/steamcommunity/public/images/apps/279800/363b8c0203e1513a6620d36d1b3758c29d5b44c2.jpg"
  },
  {
    "name": "GL2_ACHIEVEMENT_1_3",
    "defaultvalue": 0,
    "displayName": "Skip? Never!",
    "hidden": 0,
    "description": "Finish all minigames without skipping.",
    "icon": "https://steamcdn-a.akamaihd.net/steamcommunity/public/images/apps/279800/7b7ea61c161b7b1c229bd3da9a640c68c18f5783.jpg",
    "icongray": "https://steamcdn-a.akamaihd.net/steamcommunity/public/images/apps/279800/a2d2fcd4d49bc782e6d77bee26dabe135469bfc2.jpg"
  },
  {
    "name": "GL2_ACHIEVEMENT_1_4",
    "defaultvalue": 0,
    "displayName": "Eagle Eye",
    "hidden": 0,
    "description": "Finish 6 HO in a row without hints.",
    "icon": "https://steamcdn-a.akamaihd.net/steamcommunity/public/images/apps/279800/d764711ba27d23bcf87835ac500bfebd546393e1.jpg",
    "icongray": "https://steamcdn-a.akamaihd.net/steamcommunity/public/images/apps/279800/5f591cdc82156df0e8eef7adfbbdfde56ac4aa2f.jpg"
  },
  {
    "name": "GL2_ACHIEVEMENT_1_5",
    "defaultvalue": 0,
    "displayName": "No crystal ball",
    "hidden": 0,
    "description": "Finish all HOs without using hint button.",
    "icon": "https://steamcdn-a.akamaihd.net/steamcommunity/public/images/apps/279800/b01227a0a8d1456f5ab076e588d01d023e9c9a6c.jpg",
    "icongray": "https://steamcdn-a.akamaihd.net/steamcommunity/public/images/apps/279800/fb4205fd4d717c4f599d174dc956ff2f7b82aede.jpg"
  },
  {
    "name": "GL2_ACHIEVEMENT_1_6",
    "defaultvalue": 0,
    "displayName": "Like a wind",
    "hidden": 0,
    "description": "Finish HO in less than 30 seconds.",
    "icon": "https://steamcdn-a.akamaihd.net/steamcommunity/public/images/apps/279800/e890c1ae10d1ba88ce2744680ad1492ac0734df7.jpg",
    "icongray": "https://steamcdn-a.akamaihd.net/steamcommunity/public/images/apps/279800/603fba61765f26a74ac38b8e3b86bb9c99079721.jpg"
  },
  {
    "name": "GL2_ACHIEVEMENT_1_7",
    "defaultvalue": 0,
    "displayName": "Surgical Aim",
    "hidden": 0,
    "description": "Finish HO with less than 4 mistaps.",
    "icon": "https://steamcdn-a.akamaihd.net/steamcommunity/public/images/apps/279800/072e69a332f043660f206a2adbe8224a4a5034a1.jpg",
    "icongray": "https://steamcdn-a.akamaihd.net/steamcommunity/public/images/apps/279800/4829bce61553db891a8e8d9be642bfbab359e8d1.jpg"
  },
  {
    "name": "GL2_ACHIEVEMENT_1_8",
    "defaultvalue": 0,
    "displayName": "Health Inspector",
    "hidden": 0,
    "description": "Find a Healer's Sigil.",
    "icon": "https://steamcdn-a.akamaihd.net/steamcommunity/public/images/apps/279800/094dcfe32c87bb7241f26f2f66bc38c375e0adb1.jpg",
    "icongray": "https://steamcdn-a.akamaihd.net/steamcommunity/public/images/apps/279800/909690c14485648bc60e7fc69095b67d36741bc5.jpg"
  },
  {
    "name": "GL2_ACHIEVEMENT_1_9",
    "defaultvalue": 0,
    "displayName": "Apprentice",
    "hidden": 0,
    "description": "Find half of all Healer's Sigils.",
    "icon": "https://steamcdn-a.akamaihd.net/steamcommunity/public/images/apps/279800/7f974ac7b8ca5400abc0a0b36fa0f12dfa7b202b.jpg",
    "icongray": "https://steamcdn-a.akamaihd.net/steamcommunity/public/images/apps/279800/79dfd0945d14aac51d51a1b109a4525f2b3afce9.jpg"
  },
  {
    "name": "GL2_ACHIEVEMENT_1_10",
    "defaultvalue": 0,
    "displayName": "True Herbalist",
    "hidden": 0,
    "description": "Find all Healer's Sigils.",
    "icon": "https://steamcdn-a.akamaihd.net/steamcommunity/public/images/apps/279800/a761d41b11f4a4a5980f736db76287d4c77188e4.jpg",
    "icongray": "https://steamcdn-a.akamaihd.net/steamcommunity/public/images/apps/279800/cbea8f052a499a727de31ec0b79e1ce41d606c6a.jpg"
  },
  {
    "name": "GL2_ACHIEVEMENT_1_11",
    "defaultvalue": 0,
    "displayName": "Keep Calm",
    "hidden": 0,
    "description": "Prepare the Calming Brew.",
    "icon": "https://steamcdn-a.akamaihd.net/steamcommunity/public/images/apps/279800/7903f98e0158b1fadfd529d0bfb492c582c48f48.jpg",
    "icongray": "https://steamcdn-a.akamaihd.net/steamcommunity/public/images/apps/279800/b9b075dbf4ce381271c9ba559904e89789f201c2.jpg"
  },
  {
    "name": "GL2_ACHIEVEMENT_1_12",
    "defaultvalue": 0,
    "displayName": "Little Birdie",
    "hidden": 0,
    "description": "Get help from a Swallow.",
    "icon": "https://steamcdn-a.akamaihd.net/steamcommunity/public/images/apps/279800/40ff5aa19f32a2cd9b592dd5d6ec05112f3ed67d.jpg",
    "icongray": "https://steamcdn-a.akamaihd.net/steamcommunity/public/images/apps/279800/4afc2da9a41d1acff0f3770ec13540dc069a7435.jpg"
  },
  {
    "name": "GL2_ACHIEVEMENT_1_13",
    "defaultvalue": 0,
    "displayName": "Fresh Air",
    "hidden": 0,
    "description": "Enter the Garden.",
    "icon": "https://steamcdn-a.akamaihd.net/steamcommunity/public/images/apps/279800/3a0770254a75291a468676b1a3549add26b8400e.jpg",
    "icongray": "https://steamcdn-a.akamaihd.net/steamcommunity/public/images/apps/279800/73c0fd261d4b6aac2e60be77fa0ae083347b79d4.jpg"
  },
  {
    "name": "GL2_ACHIEVEMENT_1_14",
    "defaultvalue": 0,
    "displayName": "Row your boat",
    "hidden": 0,
    "description": "Prepare the swan boat for the journey.",
    "icon": "https://steamcdn-a.akamaihd.net/steamcommunity/public/images/apps/279800/76f07d07c503c1a5bf32d9373fb8537f06fd15c5.jpg",
    "icongray": "https://steamcdn-a.akamaihd.net/steamcommunity/public/images/apps/279800/70769e7b88b7554e5852cb53c9a03310c35c2550.jpg"
  },
  {
    "name": "GL2_ACHIEVEMENT_1_15",
    "defaultvalue": 0,
    "displayName": "Otter Friend",
    "hidden": 0,
    "description": "Get help from an Otter.",
    "icon": "https://steamcdn-a.akamaihd.net/steamcommunity/public/images/apps/279800/434f34b9df6f5e47e77458d66797fa0c48815e91.jpg",
    "icongray": "https://steamcdn-a.akamaihd.net/steamcommunity/public/images/apps/279800/817aa3834ffcf12cf9db29d527bba3056a6fd102.jpg"
  },
  {
    "name": "GL2_ACHIEVEMENT_1_16",
    "defaultvalue": 0,
    "displayName": "Buried secrets",
    "hidden": 0,
    "description": "Open the Passage to the Forest Cavern.",
    "icon": "https://steamcdn-a.akamaihd.net/steamcommunity/public/images/apps/279800/4f28fea35b804adae0c42196eff6a3531c6e6ae1.jpg",
    "icongray": "https://steamcdn-a.akamaihd.net/steamcommunity/public/images/apps/279800/61cafef517166e9a339cecd1b5fe350e0cdc66f2.jpg"
  },
  {
    "name": "GL2_ACHIEVEMENT_1_17",
    "defaultvalue": 0,
    "displayName": "Save the child",
    "hidden": 0,
    "description": "Find the kidnapped prince.",
    "icon": "https://steamcdn-a.akamaihd.net/steamcommunity/public/images/apps/279800/aeda01c4e791917225e9b61cb11afe5476872ab7.jpg",
    "icongray": "https://steamcdn-a.akamaihd.net/steamcommunity/public/images/apps/279800/111446d6eb6fbe06337dd9ca83e7fe5004f34ffb.jpg"
  },
  {
    "name": "GL2_ACHIEVEMENT_1_18",
    "defaultvalue": 0,
    "displayName": "Kindred Spirit",
    "hidden": 0,
    "description": "Get help from the Forest Spirit.",
    "icon": "https://steamcdn-a.akamaihd.net/steamcommunity/public/images/apps/279800/457bc1139f44c6140279e888512959028233e70c.jpg",
    "icongray": "https://steamcdn-a.akamaihd.net/steamcommunity/public/images/apps/279800/0e1e7e68612d18c84e1e1eb41f43fbfed3c91a90.jpg"
  },
  {
    "name": "GL2_ACHIEVEMENT_1_19",
    "defaultvalue": 0,
    "displayName": "To dungeons deep",
    "hidden": 0,
    "description": "Enter Dark Castle Dungeon.",
    "icon": "https://steamcdn-a.akamaihd.net/steamcommunity/public/images/apps/279800/46b0def52d8f574daaa31d1d9910a9d87bcb326e.jpg",
    "icongray": "https://steamcdn-a.akamaihd.net/steamcommunity/public/images/apps/279800/8ebd871d8ce3754347ffdac9d434bb6f8e8e291a.jpg"
  },
  {
    "name": "GL2_ACHIEVEMENT_1_20",
    "defaultvalue": 0,
    "displayName": "Forgotten story",
    "hidden": 0,
    "description": "Witness the stories through the golden feathers.",
    "icon": "https://steamcdn-a.akamaihd.net/steamcommunity/public/images/apps/279800/d2a2692fab45b207ade06333ac7c900f2ea9c771.jpg",
    "icongray": "https://steamcdn-a.akamaihd.net/steamcommunity/public/images/apps/279800/8fd5a51763cfacfc6619a11f26276958fd880f2f.jpg"
  },
  {
    "name": "GL2_ACHIEVEMENT_1_21",
    "defaultvalue": 0,
    "displayName": "Save the day",
    "hidden": 0,
    "description": "Finish the game.",
    "icon": "https://steamcdn-a.akamaihd.net/steamcommunity/public/images/apps/279800/e5d202c6f46c2bc302959dc050b886cb46de6b74.jpg",
    "icongray": "https://steamcdn-a.akamaihd.net/steamcommunity/public/images/apps/279800/759c66178da88ee91ff0642aa5a3efef8a460098.jpg"
  },
  {
    "name": "GL2_ACHIEVEMENT_1_22",
    "defaultvalue": 0,
    "displayName": "Sheriff",
    "hidden": 0,
    "description": "Protect the spirits.",
    "icon": "https://steamcdn-a.akamaihd.net/steamcommunity/public/images/apps/279800/2178844060e3cd10fe7b15a7813e2ba3e3ecd1d9.jpg",
    "icongray": "https://steamcdn-a.akamaihd.net/steamcommunity/public/images/apps/279800/04cdba30f474b81b9e6bc7cf6dee6605b98d7e10.jpg"
  },
  {
    "name": "GL2_ACHIEVEMENT_1_23",
    "defaultvalue": 0,
    "displayName": "Dragonslayer",
    "hidden": 0,
    "description": "Deal with a dragon once and for all.",
    "icon": "https://steamcdn-a.akamaihd.net/steamcommunity/public/images/apps/279800/da189faf515d02537654ff94ec34128ef23c2e30.jpg",
    "icongray": "https://steamcdn-a.akamaihd.net/steamcommunity/public/images/apps/279800/73a225cc45a3dd056665b8e6ef65968ad8affe79.jpg"
  },
  {
    "name": "GL2_ACHIEVEMENT_1_24",
    "defaultvalue": 0,
    "displayName": "Master Healer",
    "hidden": 0,
    "description": "Finish the whole Game on Expert Difficulty.",
    "icon": "https://steamcdn-a.akamaihd.net/steamcommunity/public/images/apps/279800/19c375227ee53f55e2098057c7d14f03aed6bb23.jpg",
    "icongray": "https://steamcdn-a.akamaihd.net/steamcommunity/public/images/apps/279800/6157c0af0645fa9918916f7088915639f905b0dd.jpg"
  },
  {
    "name": "GL2_ACHIEVEMENT_1_25",
    "defaultvalue": 0,
    "displayName": "Scholar",
    "hidden": 0,
    "description": "Discover 20 clues (diaries, letters, etc.).",
    "icon": "https://steamcdn-a.akamaihd.net/steamcommunity/public/images/apps/279800/3b0754a029eeadb33ec818ad1f85ee7cee5b41b1.jpg",
    "icongray": "https://steamcdn-a.akamaihd.net/steamcommunity/public/images/apps/279800/ede176283425d6c8642ada5655d473d759058d45.jpg"
  },
  {
    "name": "GL2_ACHIEVEMENT_1_26",
    "defaultvalue": 0,
    "displayName": "Know the Ropes",
    "hidden": 0,
    "description": "Play without tutorial.",
    "icon": "https://steamcdn-a.akamaihd.net/steamcommunity/public/images/apps/279800/93c4f431eb29a127453fe4038cad483ebf740817.jpg",
    "icongray": "https://steamcdn-a.akamaihd.net/steamcommunity/public/images/apps/279800/3c1b4a7263ea77320c0eb276472f1a4499264fb6.jpg"
  },
  {
    "name": "GL2_ACHIEVEMENT_1_27",
    "defaultvalue": 0,
    "displayName": "Entomophobia",
    "hidden": 0,
    "description": "Scare 6 butterflies.",
    "icon": "https://steamcdn-a.akamaihd.net/steamcommunity/public/images/apps/279800/27d5a5ff5f3fafd395bc0ceecfb22884d94f6ecf.jpg",
    "icongray": "https://steamcdn-a.akamaihd.net/steamcommunity/public/images/apps/279800/506dd7a8dd41c27359c15b56a21947a51395b48b.jpg"
  },
  {
    "name": "GL2_ACHIEVEMENT_1_28",
    "defaultvalue": 0,
    "displayName": "Movie Buff",
    "hidden": 0,
    "description": "Don't skip the first 10 cutscenes.",
    "icon": "https://steamcdn-a.akamaihd.net/steamcommunity/public/images/apps/279800/4c0ddbbcd4b6253c5cd974e1125b39c900e489c9.jpg",
    "icongray": "https://steamcdn-a.akamaihd.net/steamcommunity/public/images/apps/279800/309a5f6def6f3dfbfac2228608bf5cada387ae4a.jpg"
  }
]