{
  "Dlcs": {},
  "Name": "My Strong Horse",
  "AppId": "1295670",
  "ImageUrl": "https://steamcdn-a.akamaihd.net/steam/apps/1295670/header.jpg?t=1591013540",
  "Languages": [
    "english"
  ],
  "Platforms": {
    "windows": true,
    "mac": false,
    "linux": false
  }
}