[
  {
    "name": "ACH_COMBAT_LONGSHOT",
    "defaultvalue": 0,
    "displayName": "Long Shot",
    "hidden": 0,
    "description": "Hit an employee with a sharp object from 10 meters away",
    "icon": "https://steamcdn-a.akamaihd.net/steamcommunity/public/images/apps/400940/283f993c8a92530f3e46009df0ee9a2f0d73de21.jpg",
    "icongray": "https://steamcdn-a.akamaihd.net/steamcommunity/public/images/apps/400940/4045ff57e31ee060ecdcf5a3968d06ea9bff2d57.jpg"
  },
  {
    "name": "ACH_COMBAT_SNIPER",
    "defaultvalue": 0,
    "displayName": "Sniper",
    "hidden": 0,
    "description": "Hit an employee with a sharp object from 20 meters away",
    "icon": "https://steamcdn-a.akamaihd.net/steamcommunity/public/images/apps/400940/4b5ad00d32c3ebae7f41e0a57080835bd6a54885.jpg",
    "icongray": "https://steamcdn-a.akamaihd.net/steamcommunity/public/images/apps/400940/3a7eabcfa9850177a01ccc8a4d57452f4606a684.jpg"
  },
  {
    "name": "ACH_WORLD_SHATTER_CERAMICS",
    "defaultvalue": 0,
    "displayName": "Missing Link",
    "hidden": 0,
    "description": "Shatter 20 ceramic objects",
    "icon": "https://steamcdn-a.akamaihd.net/steamcommunity/public/images/apps/400940/e09e25a7bf4ad1abac7a2f6ef7a4051fa54f2635.jpg",
    "icongray": "https://steamcdn-a.akamaihd.net/steamcommunity/public/images/apps/400940/323aef3e1d8ec02c868a9533d0ef2811f7807dac.jpg"
  },
  {
    "name": "ACH_COMBAT_GUN_STEAL",
    "defaultvalue": 0,
    "displayName": "If I can't then none of us can",
    "hidden": 0,
    "description": "Steal a gun from a supervisor's holster",
    "icon": "https://steamcdn-a.akamaihd.net/steamcommunity/public/images/apps/400940/dbc0b837addb194570731e34b82fa2db9f41eb75.jpg",
    "icongray": "https://steamcdn-a.akamaihd.net/steamcommunity/public/images/apps/400940/199d59baef4619ef5f5785cca5e2b0b48ff14233.jpg"
  },
  {
    "name": "ACH_COMBAT_HEADBUTT",
    "defaultvalue": 0,
    "displayName": "Headbutter",
    "hidden": 0,
    "description": "Kill a drone by knocking it with your head",
    "icon": "https://steamcdn-a.akamaihd.net/steamcommunity/public/images/apps/400940/fe5894aa363b0f4bb961a93f1a48be9ea38aa146.jpg",
    "icongray": "https://steamcdn-a.akamaihd.net/steamcommunity/public/images/apps/400940/8d9399d1409bb060c4f626467acf1bd6504d4636.jpg"
  },
  {
    "name": "ACH_WORLD_ROOMBA_EAT",
    "defaultvalue": 0,
    "displayName": "Junk Food",
    "hidden": 0,
    "description": "Feed a roomba",
    "icon": "https://steamcdn-a.akamaihd.net/steamcommunity/public/images/apps/400940/fffebd15beb0175e434defb07e2b5179911f0131.jpg",
    "icongray": "https://steamcdn-a.akamaihd.net/steamcommunity/public/images/apps/400940/26fc5ee0ef3c860e40266684e0e7fa3992fe6e8e.jpg"
  },
  {
    "name": "ACH_WORLD_BOTH_CROWS",
    "defaultvalue": 0,
    "displayName": "Hugin & Munin",
    "hidden": 0,
    "description": "Have two crows in your inventory",
    "icon": "https://steamcdn-a.akamaihd.net/steamcommunity/public/images/apps/400940/6aa9d321a84f32e0259abd257018cc9ccb3979d2.jpg",
    "icongray": "https://steamcdn-a.akamaihd.net/steamcommunity/public/images/apps/400940/e1e78cd1bfe720d0b7b858f81670d96d69451cbb.jpg"
  },
  {
    "name": "ACH_COMBAT_BULLET_HIT",
    "defaultvalue": 0,
    "displayName": "Two by two, blue on blue",
    "hidden": 0,
    "description": "Make a supervisor fire another supervisor",
    "icon": "https://steamcdn-a.akamaihd.net/steamcommunity/public/images/apps/400940/0a7e3bd5e654325dca51d68f666f2bcce9749f4e.jpg",
    "icongray": "https://steamcdn-a.akamaihd.net/steamcommunity/public/images/apps/400940/f963e49f4f4f62b44e2228fe8e0b17d37243aa80.jpg"
  },
  {
    "name": "ACH_COMBAT_DROP_KNIFE",
    "defaultvalue": 0,
    "displayName": "Drop Dead",
    "hidden": 0,
    "description": "Drop a sharp object onto an employee",
    "icon": "https://steamcdn-a.akamaihd.net/steamcommunity/public/images/apps/400940/bdb590249f08d8adbe81f0311906a36fc6d952ae.jpg",
    "icongray": "https://steamcdn-a.akamaihd.net/steamcommunity/public/images/apps/400940/5e23fb7054045775ebffb3d7486d0495e083f493.jpg"
  },
  {
    "name": "ACH_WORLD_CHOC_COOKIE",
    "defaultvalue": 0,
    "displayName": "Breakfast of Champions",
    "hidden": 0,
    "description": "Eat chocolate and cookies",
    "icon": "https://steamcdn-a.akamaihd.net/steamcommunity/public/images/apps/400940/0cd0ff10e934fb4e22f2cfcd1ba26a70f0daba8a.jpg",
    "icongray": "https://steamcdn-a.akamaihd.net/steamcommunity/public/images/apps/400940/422e738b48a8a406bf6baf11d79d4d11fe87f2f1.jpg"
  },
  {
    "name": "ACH_WORLD_FAST_COOKIES",
    "defaultvalue": 0,
    "displayName": "Me Love Cookies",
    "hidden": 0,
    "description": "Eat 8 cookies in 4 seconds",
    "icon": "https://steamcdn-a.akamaihd.net/steamcommunity/public/images/apps/400940/8daabefb93a39ecaea118af4d5ca14e465440189.jpg",
    "icongray": "https://steamcdn-a.akamaihd.net/steamcommunity/public/images/apps/400940/7ccfb7898a9e6425f5b9cc55859cbe44efb8dc26.jpg"
  },
  {
    "name": "ACH_COMBAT_NOBRAINER",
    "defaultvalue": 0,
    "displayName": "No Brainer",
    "hidden": 0,
    "description": "Hit 10 employees in the head with a sharp object",
    "icon": "https://steamcdn-a.akamaihd.net/steamcommunity/public/images/apps/400940/c853c5ab956646c84c71edf25112f7f24ca8c1c9.jpg",
    "icongray": "https://steamcdn-a.akamaihd.net/steamcommunity/public/images/apps/400940/92b9596d986e752ff05eb010d12bc1b035cd8f6c.jpg"
  },
  {
    "name": "ACH_PROG_COLL_MOUSE",
    "defaultvalue": 0,
    "displayName": "Faithful",
    "hidden": 0,
    "description": "Find the mouse",
    "icon": "https://steamcdn-a.akamaihd.net/steamcommunity/public/images/apps/400940/89cca700739b2b4ac187661c7a4d97b240bc3eef.jpg",
    "icongray": "https://steamcdn-a.akamaihd.net/steamcommunity/public/images/apps/400940/93a9496854c41fcf4badea205509ef82363c2cd6.jpg"
  },
  {
    "name": "ACH_PROG_COLL_MOUSE_GOLD",
    "defaultvalue": 0,
    "displayName": "Take the Plunge",
    "hidden": 0,
    "description": "Find the golden mouse",
    "icon": "https://steamcdn-a.akamaihd.net/steamcommunity/public/images/apps/400940/706740b93029acd3da3f2eb2e87c96d3ebd5f132.jpg",
    "icongray": "https://steamcdn-a.akamaihd.net/steamcommunity/public/images/apps/400940/02e5a3224a5baf09aa3fa4d2189b0165f30436ec.jpg"
  },
  {
    "name": "ACH_PROG_COLL_HUMBIRD",
    "defaultvalue": 0,
    "displayName": "Pecking Order",
    "hidden": 0,
    "description": "Find the hummingbird",
    "icon": "https://steamcdn-a.akamaihd.net/steamcommunity/public/images/apps/400940/3cb0f3aaf3bbeaa2be3bca62e793fa462a362f33.jpg",
    "icongray": "https://steamcdn-a.akamaihd.net/steamcommunity/public/images/apps/400940/eef4fc58e46ec82289c2fc8eee4e97c173971d6a.jpg"
  },
  {
    "name": "ACH_PROG_COLL_HUMBIRD_GOLD",
    "defaultvalue": 0,
    "displayName": "Best Birb",
    "hidden": 0,
    "description": "Find the golden hummingbird",
    "icon": "https://steamcdn-a.akamaihd.net/steamcommunity/public/images/apps/400940/dd31d9cabff1208a83b2ba9ee0b6cb8caa2b30d2.jpg",
    "icongray": "https://steamcdn-a.akamaihd.net/steamcommunity/public/images/apps/400940/772a1aa5d0775646fd8ce606ba0994583a8a727c.jpg"
  },
  {
    "name": "ACH_PROG_COLL_CRAB",
    "defaultvalue": 0,
    "displayName": "Feeling Crabby",
    "hidden": 0,
    "description": "Find the crab",
    "icon": "https://steamcdn-a.akamaihd.net/steamcommunity/public/images/apps/400940/cb9464304725ec3088f0f0da182a5eb2a049a712.jpg",
    "icongray": "https://steamcdn-a.akamaihd.net/steamcommunity/public/images/apps/400940/faa6b8ed442efc1145f4ef7776166899de801bfe.jpg"
  },
  {
    "name": "ACH_PROG_COLL_CRAB_GOLD",
    "defaultvalue": 0,
    "displayName": "I'd Rather Be Shiny",
    "hidden": 0,
    "description": "Find the golden crab",
    "icon": "https://steamcdn-a.akamaihd.net/steamcommunity/public/images/apps/400940/e89b9a46b33a4c2d638dae008244b9bb931d0c4f.jpg",
    "icongray": "https://steamcdn-a.akamaihd.net/steamcommunity/public/images/apps/400940/0e7987bf685773244f202b5261cd1c86378d27ac.jpg"
  },
  {
    "name": "ACH_PROG_COLL_FISH",
    "defaultvalue": 0,
    "displayName": "Sharkbait! Hoo Ha Ha!",
    "hidden": 0,
    "description": "Find the fish",
    "icon": "https://steamcdn-a.akamaihd.net/steamcommunity/public/images/apps/400940/2b9c161d3113a33a659cb9a1f00db6687c4bba15.jpg",
    "icongray": "https://steamcdn-a.akamaihd.net/steamcommunity/public/images/apps/400940/d6b9425a497e195db697c87c84ba000f2a055090.jpg"
  },
  {
    "name": "ACH_PROG_COLL_FISH_GOLD",
    "defaultvalue": 0,
    "displayName": "SoFishticated",
    "hidden": 0,
    "description": "Find the goldfish",
    "icon": "https://steamcdn-a.akamaihd.net/steamcommunity/public/images/apps/400940/4a264f40bf34f1000a6befdb5354fec276b828fb.jpg",
    "icongray": "https://steamcdn-a.akamaihd.net/steamcommunity/public/images/apps/400940/89121e14ea92b5e248f4636b8b31707687a7bda2.jpg"
  },
  {
    "name": "ACH_PROG_COLL_CROW",
    "defaultvalue": 0,
    "displayName": "The Early Bird",
    "hidden": 0,
    "description": "Find the crow",
    "icon": "https://steamcdn-a.akamaihd.net/steamcommunity/public/images/apps/400940/2b09ad9948d0bef54989b54930d2e2da810da3af.jpg",
    "icongray": "https://steamcdn-a.akamaihd.net/steamcommunity/public/images/apps/400940/e084416a67577bc1826d6fd9cfb91230753ea022.jpg"
  },
  {
    "name": "ACH_PROG_COLL_CROW_GOLD",
    "defaultvalue": 0,
    "displayName": "Murder of Crows",
    "hidden": 0,
    "description": "Find the golden crow",
    "icon": "https://steamcdn-a.akamaihd.net/steamcommunity/public/images/apps/400940/0f8b6ee4ae9ff407bc202ced3358bf208c3f4064.jpg",
    "icongray": "https://steamcdn-a.akamaihd.net/steamcommunity/public/images/apps/400940/794a59bd78285f5a27a7a240d5436e71f9661f90.jpg"
  },
  {
    "name": "ACH_PROG_COLL_ROBOT",
    "defaultvalue": 0,
    "displayName": "Toaster",
    "hidden": 0,
    "description": "Find the robot toy",
    "icon": "https://steamcdn-a.akamaihd.net/steamcommunity/public/images/apps/400940/797f8c23d401eaf0642985dc2fb172b4d9afd85f.jpg",
    "icongray": "https://steamcdn-a.akamaihd.net/steamcommunity/public/images/apps/400940/9b1be1cc19c4a97035904d5c9a93218d3cee91fb.jpg"
  },
  {
    "name": "ACH_PROG_COLL_ROBOT_GOLD",
    "defaultvalue": 0,
    "displayName": "By Your Command",
    "hidden": 0,
    "description": "Find the golden robot toy",
    "icon": "https://steamcdn-a.akamaihd.net/steamcommunity/public/images/apps/400940/e2baf49efbbe560f60059fa905670cbf9a659030.jpg",
    "icongray": "https://steamcdn-a.akamaihd.net/steamcommunity/public/images/apps/400940/4a61f7c1e09d5823d73edf5ba0aee621470da527.jpg"
  },
  {
    "name": "ACH_PROG_COLL_ALL_BASIC",
    "defaultvalue": 0,
    "displayName": "Collector",
    "hidden": 0,
    "description": "Find all basic collectibles",
    "icon": "https://steamcdn-a.akamaihd.net/steamcommunity/public/images/apps/400940/5902ad9fcc47a5bf38b01e68a654c6ee5a60fdb9.jpg",
    "icongray": "https://steamcdn-a.akamaihd.net/steamcommunity/public/images/apps/400940/4ad75349ecf508b9902329b9b3aac9a73c6bf081.jpg"
  },
  {
    "name": "ACH_PROG_COLL_ALL_GOLD",
    "defaultvalue": 0,
    "displayName": "Master Collector",
    "hidden": 0,
    "description": "Find all golden collectibles",
    "icon": "https://steamcdn-a.akamaihd.net/steamcommunity/public/images/apps/400940/9110cf6f6c389f8e53c43aef43aa2247e3c22bb6.jpg",
    "icongray": "https://steamcdn-a.akamaihd.net/steamcommunity/public/images/apps/400940/83fc7da4b14e3583a867cb7b00a9590c6eb47f95.jpg"
  },
  {
    "name": "ACH_PROG_COMPLETE_GAME",
    "defaultvalue": 0,
    "displayName": "Done Deal",
    "hidden": 0,
    "description": "Complete the game",
    "icon": "https://steamcdn-a.akamaihd.net/steamcommunity/public/images/apps/400940/79b5004c7828e9a559069a77adc8728797078770.jpg",
    "icongray": "https://steamcdn-a.akamaihd.net/steamcommunity/public/images/apps/400940/7c9fb5bf2d2e39c4adfe195f9cf24dddfc521666.jpg"
  },
  {
    "name": "ACH_PROG_COMPLETE_GAME_STANDARD",
    "defaultvalue": 0,
    "displayName": "Standard Procedure",
    "hidden": 0,
    "description": "Complete the game on standard difficulty or harder",
    "icon": "https://steamcdn-a.akamaihd.net/steamcommunity/public/images/apps/400940/94ea30988d9d37c87b516e83b2f518bbefefa9f1.jpg",
    "icongray": "https://steamcdn-a.akamaihd.net/steamcommunity/public/images/apps/400940/ebabf6c665f7642d3e8edc919f3bdb593519f3d1.jpg"
  },
  {
    "name": "ACH_PROG_COMPLETE_GAME_EXTRA",
    "defaultvalue": 0,
    "displayName": "Pushing The Envelope",
    "hidden": 0,
    "description": "Complete the game with NPC Mutators: Aim Skill, Detection Speed and NPC Health set to at least Strong, Fast and High.",
    "icon": "https://steamcdn-a.akamaihd.net/steamcommunity/public/images/apps/400940/e1cc5a0886d08bdbda0cc089f9574b2a40a6e055.jpg",
    "icongray": "https://steamcdn-a.akamaihd.net/steamcommunity/public/images/apps/400940/b7c44ed75771e39c5008d1128d8b0927831edbc6.jpg"
  },
  {
    "name": "ACH_PROG_COMPLETE_GAME_NO_ROBOTS_KILLED",
    "defaultvalue": 0,
    "displayName": "Pacifist (NOT YET RELEASED)",
    "hidden": 1,
    "icon": "https://steamcdn-a.akamaihd.net/steamcommunity/public/images/apps/400940/3e0152a0fe34abcea72f1fa0623b2551a222b229.jpg",
    "icongray": "https://steamcdn-a.akamaihd.net/steamcommunity/public/images/apps/400940/af785e39372c1bef770d2b3508531dc5c44093b4.jpg"
  }
]