{
  "Dlcs": {},
  "Name": "Pick, shoot, repeat!",
  "AppId": "1220440",
  "ImageUrl": "https://steamcdn-a.akamaihd.net/steam/apps/1220440/header.jpg?t=1579793657",
  "Languages": [
    "english"
  ],
  "Platforms": {
    "windows": true,
    "mac": true,
    "linux": false
  }
}