{
  "Dlcs": {},
  "Name": "The Final Days: Eternal Night",
  "AppId": "696050",
  "ImageUrl": "https://steamcdn-a.akamaihd.net/steam/apps/696050/header.jpg?t=1504032906",
  "Languages": [
    "english"
  ],
  "Platforms": {
    "windows": true,
    "mac": false,
    "linux": false
  }
}