[
  {
    "name": "stat_nutgun_stat_nutgun",
    "defaultvalue": 0,
    "displayName": "stat_nutgun_stat_nutgun"
  },
  {
    "name": "stat_frezze_stat_frezze",
    "defaultvalue": 0,
    "displayName": "stat_frezze_stat_frezze"
  },
  {
    "name": "stat_mine_stat_mine",
    "defaultvalue": 0,
    "displayName": "stat_mine_stat_mine"
  },
  {
    "name": "stat_hypno_stat_hypno",
    "defaultvalue": 0,
    "displayName": "stat_hypno_stat_hypno"
  },
  {
    "name": "stat_gum_stat_gum",
    "defaultvalue": 0,
    "displayName": "stat_gum_stat_gum"
  }
]