[
  {
    "name": "Version",
    "defaultvalue": 0,
    "displayName": ""
  },
  {
    "name": "Stat_Num_Skirmishes",
    "defaultvalue": 0,
    "displayName": ""
  },
  {
    "name": "Stat_Tutorial_Campaign_Complete",
    "defaultvalue": 0,
    "displayName": ""
  },
  {
    "name": "Stat_Campaign_Zone_Complete_1",
    "defaultvalue": 0,
    "displayName": ""
  },
  {
    "name": "Stat_Campaign_Zone_Complete_2",
    "defaultvalue": 0,
    "displayName": ""
  },
  {
    "name": "Stat_Campaign_Zone_Complete_3",
    "defaultvalue": 0,
    "displayName": ""
  },
  {
    "name": "Stat_Campaign_Zone_Complete_4",
    "defaultvalue": 0,
    "displayName": ""
  },
  {
    "name": "Stat_Campaign_Zone_Complete_5",
    "defaultvalue": 0,
    "displayName": ""
  },
  {
    "name": "Stat_Campaign_Easy",
    "defaultvalue": 0,
    "displayName": ""
  },
  {
    "name": "Stat_Campaign_Normal",
    "defaultvalue": 0,
    "displayName": ""
  },
  {
    "name": "Stat_Campaign_Hard",
    "defaultvalue": 0,
    "displayName": ""
  },
  {
    "name": "Stat_Campaign_Zone_Complete_9",
    "defaultvalue": 0,
    "displayName": ""
  },
  {
    "name": "Stat_Campaign_Zone_Complete_10",
    "defaultvalue": 0,
    "displayName": ""
  },
  {
    "name": "Stat_The_Bastion",
    "defaultvalue": 0,
    "displayName": ""
  },
  {
    "name": "Stat_The_Phoenix",
    "defaultvalue": 0,
    "displayName": ""
  },
  {
    "name": "Stat_The_Reclaimer",
    "defaultvalue": 0,
    "displayName": ""
  },
  {
    "name": "Stat_The_Regent",
    "defaultvalue": 0,
    "displayName": ""
  },
  {
    "name": "Stat_Boss_5",
    "defaultvalue": 0,
    "displayName": ""
  },
  {
    "name": "Stat_Boss_6",
    "defaultvalue": 0,
    "displayName": ""
  },
  {
    "name": "Stat_Boss_7",
    "defaultvalue": 0,
    "displayName": ""
  },
  {
    "name": "Stat_Boss_8",
    "defaultvalue": 0,
    "displayName": ""
  },
  {
    "name": "Stat_Boss_9",
    "defaultvalue": 0,
    "displayName": ""
  },
  {
    "name": "Stat_Boss_10",
    "defaultvalue": 0,
    "displayName": ""
  },
  {
    "name": "Stat_Boss_11",
    "defaultvalue": 0,
    "displayName": ""
  },
  {
    "name": "Stat_Boss_12",
    "defaultvalue": 0,
    "displayName": ""
  },
  {
    "name": "Stat_Boss_13",
    "defaultvalue": 0,
    "displayName": ""
  },
  {
    "name": "Stat_Boss_14",
    "defaultvalue": 0,
    "displayName": ""
  },
  {
    "name": "Stat_Boss_15",
    "defaultvalue": 0,
    "displayName": ""
  },
  {
    "name": "Stat_Not_A_Moon",
    "defaultvalue": 0,
    "displayName": ""
  },
  {
    "name": "Stat_Best_Offense",
    "defaultvalue": 0,
    "displayName": ""
  },
  {
    "name": "Stat_Ultimate_Warship",
    "defaultvalue": 0,
    "displayName": ""
  },
  {
    "name": "Stat_Veteran_Fleet",
    "defaultvalue": 0,
    "displayName": ""
  },
  {
    "name": "Stat_Blockade_Runner",
    "defaultvalue": 0,
    "displayName": ""
  },
  {
    "name": "Stat_Springing_The_Trap",
    "defaultvalue": 0,
    "displayName": ""
  }
]