[
  {
    "name": "ACH_BALL_SCORE",
    "defaultvalue": 0,
    "displayName": "Three-Point Throw",
    "hidden": 0,
    "description": "Play some Basketball.",
    "icon": "https://steamcdn-a.akamaihd.net/steamcommunity/public/images/apps/1228560/43dd5b26ed42bafd67713236143b28b5e02338b3.jpg",
    "icongray": "https://steamcdn-a.akamaihd.net/steamcommunity/public/images/apps/1228560/befd78dc603199b44e081d822feccefe5ca970e3.jpg"
  },
  {
    "name": "ACH_BELL_RING",
    "defaultvalue": 0,
    "displayName": "Let Everyone Hear it",
    "hidden": 0,
    "description": "Ring the bell.",
    "icon": "https://steamcdn-a.akamaihd.net/steamcommunity/public/images/apps/1228560/c63767c129f410a27a79d0adaf61e1db5b1c309f.jpg",
    "icongray": "https://steamcdn-a.akamaihd.net/steamcommunity/public/images/apps/1228560/b5d4ddeb49f631fd598deacf9f293f4d7c6bdf9c.jpg"
  },
  {
    "name": "ACH_FINISH_1",
    "defaultvalue": 0,
    "displayName": "Struggle Is Over",
    "hidden": 0,
    "description": "Get to the top.",
    "icon": "https://steamcdn-a.akamaihd.net/steamcommunity/public/images/apps/1228560/75515ec68302bbb45190c4614269e5442f66ee2d.jpg",
    "icongray": "https://steamcdn-a.akamaihd.net/steamcommunity/public/images/apps/1228560/830adb5896b05a42fcde76d1979dc418acd20c80.jpg"
  },
  {
    "name": "ACH_FINISH_10",
    "defaultvalue": 0,
    "displayName": "True Boxman",
    "hidden": 0,
    "description": "Get to the top 10 times.",
    "icon": "https://steamcdn-a.akamaihd.net/steamcommunity/public/images/apps/1228560/4d124931b29e945a35dc807201b1f57bf4b9f02c.jpg",
    "icongray": "https://steamcdn-a.akamaihd.net/steamcommunity/public/images/apps/1228560/e7ec4b0c51bf7d948b6179276c64e78d583dc2c8.jpg"
  },
  {
    "name": "ACH_FINISH_50",
    "defaultvalue": 0,
    "displayName": "Golden Ninja",
    "hidden": 0,
    "description": "Get to the top 50 times.",
    "icon": "https://steamcdn-a.akamaihd.net/steamcommunity/public/images/apps/1228560/42ca93e8d0c7f188c3a96442307399e64119753b.jpg",
    "icongray": "https://steamcdn-a.akamaihd.net/steamcommunity/public/images/apps/1228560/e7c6be58e8d1080d44f0af4a2720c9ca7a64d222.jpg"
  },
  {
    "name": "ACH_BALLOON_POP",
    "defaultvalue": 0,
    "displayName": "It's Like an Addiction",
    "hidden": 0,
    "description": "Pop all balloons.",
    "icon": "https://steamcdn-a.akamaihd.net/steamcommunity/public/images/apps/1228560/6ef20d71c8ef0260db7bedc56e02d9ffb2b7f490.jpg",
    "icongray": "https://steamcdn-a.akamaihd.net/steamcommunity/public/images/apps/1228560/51fc47eef448c25830f27ee7f88ab63de2d2bbd7.jpg"
  },
  {
    "name": "ACH_FIND_GOI",
    "defaultvalue": 0,
    "displayName": "Boxing Over It",
    "hidden": 0,
    "description": "Looks cozy...",
    "icon": "https://steamcdn-a.akamaihd.net/steamcommunity/public/images/apps/1228560/2d05856168cb4c9195fe70aa9d9cd47463b77ba1.jpg",
    "icongray": "https://steamcdn-a.akamaihd.net/steamcommunity/public/images/apps/1228560/a2d4adff46666233b1569717dfc1fd9331cdfeb7.jpg"
  },
  {
    "name": "ACH_TIME_QUICK",
    "defaultvalue": 0,
    "displayName": "Gotta Do It Quickly",
    "hidden": 0,
    "description": "Finish game under 15 minutes.",
    "icon": "https://steamcdn-a.akamaihd.net/steamcommunity/public/images/apps/1228560/d82a1d69514afb045d7ea60599946e2342fff212.jpg",
    "icongray": "https://steamcdn-a.akamaihd.net/steamcommunity/public/images/apps/1228560/e4983b26259dca6b741dd1e69eb4c079af8c5e69.jpg"
  },
  {
    "name": "ACH_CAMERA",
    "defaultvalue": 0,
    "displayName": "Say Cheese",
    "hidden": 0,
    "description": "Take a photo.",
    "icon": "https://steamcdn-a.akamaihd.net/steamcommunity/public/images/apps/1228560/fc00accdb7080b8f7b4e29207ef1f466746536fb.jpg",
    "icongray": "https://steamcdn-a.akamaihd.net/steamcommunity/public/images/apps/1228560/7c8f7a8e331f09450d77a694b1e41ea37cade881.jpg"
  },
  {
    "name": "ACH_FLAMES",
    "defaultvalue": 0,
    "displayName": "Burning Sensation",
    "hidden": 0,
    "description": "Set yourself on fire.",
    "icon": "https://steamcdn-a.akamaihd.net/steamcommunity/public/images/apps/1228560/3489551a1d1242e4a8aa0c7afbb719d9f46276d6.jpg",
    "icongray": "https://steamcdn-a.akamaihd.net/steamcommunity/public/images/apps/1228560/510db144aa01cb4285a8c273c3ff80846c400aed.jpg"
  },
  {
    "name": "ACH_LEVEL1",
    "defaultvalue": 0,
    "displayName": "Learning Basics",
    "hidden": 0,
    "description": "Get to the stadium.",
    "icon": "https://steamcdn-a.akamaihd.net/steamcommunity/public/images/apps/1228560/e5a4fc31b3c0e1ee38e3012ee5467c2d94ac313e.jpg",
    "icongray": "https://steamcdn-a.akamaihd.net/steamcommunity/public/images/apps/1228560/cd8bfa72dda40e28dd41b8380e15a8950af59249.jpg"
  },
  {
    "name": "ACH_SEWERS",
    "defaultvalue": 0,
    "displayName": "Though The Pipe",
    "hidden": 0,
    "description": "Traverse sewer pipe.",
    "icon": "https://steamcdn-a.akamaihd.net/steamcommunity/public/images/apps/1228560/0ad0e758894a747e54fd4111892d6448cc7a4be6.jpg",
    "icongray": "https://steamcdn-a.akamaihd.net/steamcommunity/public/images/apps/1228560/048fac5fba619cd0d91982e044395534193fa1d0.jpg"
  },
  {
    "name": "ACH_ICE",
    "defaultvalue": 0,
    "displayName": "Friction Power",
    "hidden": 0,
    "description": "Get to the top of ice blocks.",
    "icon": "https://steamcdn-a.akamaihd.net/steamcommunity/public/images/apps/1228560/5c5f8d096bf7a0556c785fa269a02886244171ce.jpg",
    "icongray": "https://steamcdn-a.akamaihd.net/steamcommunity/public/images/apps/1228560/f7cb2c5e6f7a2fbb74a7361c62fcc0123d10cca1.jpg"
  },
  {
    "name": "ACH_WIND",
    "defaultvalue": 0,
    "displayName": "Against Wind",
    "hidden": 0,
    "description": "Overcome the force of wind.",
    "icon": "https://steamcdn-a.akamaihd.net/steamcommunity/public/images/apps/1228560/20dcb19c547278ed2e1ba7eabcce7782fbf498dc.jpg",
    "icongray": "https://steamcdn-a.akamaihd.net/steamcommunity/public/images/apps/1228560/21aaca107701289375825d3b5bc29928a730c0b1.jpg"
  }
]