{
  "Dlcs": {},
  "Name": "Grave of the Petrified",
  "AppId": "1077850",
  "ImageUrl": "https://steamcdn-a.akamaihd.net/steam/apps/1077850/header.jpg?t=1584017258",
  "Languages": [
    "english"
  ],
  "Platforms": {
    "windows": true,
    "mac": false,
    "linux": false
  }
}