﻿{
  "Dlcs": {},
  "Name": "One Finger Death Punch",
  "AppId": "264200",
  "ImageUrl": "https://steamcdn-a.akamaihd.net/steam/apps/264200/header.jpg?t=1560879752",
  "Languages": [
    "english"
  ],
  "Platforms": {
    "windows": true,
    "mac": false,
    "linux": false
  }
}