[
  {
    "name": "GAME_STARTED",
    "defaultvalue": 0,
    "displayName": "The pint-venture begins!",
    "hidden": 0,
    "description": "Start a new game",
    "icon": "https://steamcdn-a.akamaihd.net/steamcommunity/public/images/apps/1127360/1eba3923421b563b40accca05fe861f89bc1873b.jpg",
    "icongray": "https://steamcdn-a.akamaihd.net/steamcommunity/public/images/apps/1127360/a12001236658fa96f964d2f070e91d36f1e4bbfe.jpg"
  },
  {
    "name": "ICE_CLIMB_STARTED",
    "defaultvalue": 0,
    "displayName": "Into the Icy mountain",
    "hidden": 0,
    "description": "Start playing level 7",
    "icon": "https://steamcdn-a.akamaihd.net/steamcommunity/public/images/apps/1127360/562600ca46a67a80b7ec88d5a1bbecddd250ba59.jpg",
    "icongray": "https://steamcdn-a.akamaihd.net/steamcommunity/public/images/apps/1127360/b699f10eb4fbafed77efe34b36073caaf0eba257.jpg"
  },
  {
    "name": "ETHANOL_TEMPLE_STARTED",
    "defaultvalue": 0,
    "displayName": "A place where the beer flows like Ethanol",
    "hidden": 0,
    "description": "Start playing level 13",
    "icon": "https://steamcdn-a.akamaihd.net/steamcommunity/public/images/apps/1127360/85271cbd8e2766fbc2c2d99a41735c7d7a091078.jpg",
    "icongray": "https://steamcdn-a.akamaihd.net/steamcommunity/public/images/apps/1127360/25647980f37720562a0960127ada4cf54d195991.jpg"
  },
  {
    "name": "MINISTRY_INFILTRATION_STARTED",
    "defaultvalue": 0,
    "displayName": "Overthrow the overlords",
    "hidden": 0,
    "description": "Start playing level 19",
    "icon": "https://steamcdn-a.akamaihd.net/steamcommunity/public/images/apps/1127360/63926c951077310c010c46097b7761468aa44a51.jpg",
    "icongray": "https://steamcdn-a.akamaihd.net/steamcommunity/public/images/apps/1127360/8c90a0e8c31d0305b32bf9ae0de01c1a87b765a1.jpg"
  },
  {
    "name": "GAME_COMPLETE",
    "defaultvalue": 0,
    "displayName": "Pint Paradise",
    "hidden": 0,
    "description": "Finish the game",
    "icon": "https://steamcdn-a.akamaihd.net/steamcommunity/public/images/apps/1127360/04e2bcfbfaca68edfb3721d7e9fbd500dce6a308.jpg",
    "icongray": "https://steamcdn-a.akamaihd.net/steamcommunity/public/images/apps/1127360/ac93884412ac4846076e8cfbea7504304e35735d.jpg"
  },
  {
    "name": "COASTERS_COLLECTED_10",
    "defaultvalue": 0,
    "displayName": "A Seat for a Pint",
    "hidden": 0,
    "description": "Collect 10 coasters",
    "icon": "https://steamcdn-a.akamaihd.net/steamcommunity/public/images/apps/1127360/c9ea6519d323b6672a64273037644447ff20eef7.jpg",
    "icongray": "https://steamcdn-a.akamaihd.net/steamcommunity/public/images/apps/1127360/d672ba478c76cfd50911402be27c30a1b9867c8c.jpg"
  },
  {
    "name": "COASTERS_COLLECTED_25",
    "defaultvalue": 0,
    "displayName": "A handful of Souvenirs",
    "hidden": 0,
    "description": "Collect 25 coasters",
    "icon": "https://steamcdn-a.akamaihd.net/steamcommunity/public/images/apps/1127360/8a3261f96fd60ab3e07717ec7f70b39f20b0b45c.jpg",
    "icongray": "https://steamcdn-a.akamaihd.net/steamcommunity/public/images/apps/1127360/78660237a46561e5f34165565574ddb320a16c66.jpg"
  },
  {
    "name": "COASTERS_COLLECTED_40",
    "defaultvalue": 0,
    "displayName": "40 Trays and 40 Pints",
    "hidden": 0,
    "description": "Collect 40 coasters",
    "icon": "https://steamcdn-a.akamaihd.net/steamcommunity/public/images/apps/1127360/a2f33548855e73542296922a3752f6b3d005aa1a.jpg",
    "icongray": "https://steamcdn-a.akamaihd.net/steamcommunity/public/images/apps/1127360/5771e6c271b5af350f96e0cd980f9d48f0903105.jpg"
  },
  {
    "name": "COASTERS_COLLECTED_72",
    "defaultvalue": 0,
    "displayName": "The last ones are always the hardest",
    "hidden": 0,
    "description": "Collect 72 coasters",
    "icon": "https://steamcdn-a.akamaihd.net/steamcommunity/public/images/apps/1127360/9a787ba0d940689ee49d6e00a44e9a62f185c4fe.jpg",
    "icongray": "https://steamcdn-a.akamaihd.net/steamcommunity/public/images/apps/1127360/52fc456c437d6f20b0f368f05aba0dba8abd67e8.jpg"
  },
  {
    "name": "LEVEL_CREATED",
    "defaultvalue": 0,
    "displayName": "A bit of Barley and Water",
    "hidden": 0,
    "description": "Save a level in editor mode",
    "icon": "https://steamcdn-a.akamaihd.net/steamcommunity/public/images/apps/1127360/46a55f27eacd2217d651c173550e86330f4bc0bc.jpg",
    "icongray": "https://steamcdn-a.akamaihd.net/steamcommunity/public/images/apps/1127360/440338c8cbc18561da96b10c7e0ba9c242c10b62.jpg"
  },
  {
    "name": "COASTERS_COLLECTED_50",
    "defaultvalue": 0,
    "displayName": "50 proof protectors",
    "hidden": 0,
    "description": "Collect 50 coasters",
    "icon": "https://steamcdn-a.akamaihd.net/steamcommunity/public/images/apps/1127360/bdc393b2881e5865cd9c51a93c340dbf6260c653.jpg",
    "icongray": "https://steamcdn-a.akamaihd.net/steamcommunity/public/images/apps/1127360/7c795b7a47163807bea586360114f9beaa07b121.jpg"
  },
  {
    "name": "COASTERS_COLLECTED_60",
    "defaultvalue": 0,
    "displayName": "60 degrees of intoxication",
    "hidden": 0,
    "description": "Collect 60 coasters",
    "icon": "https://steamcdn-a.akamaihd.net/steamcommunity/public/images/apps/1127360/00004b62e2a963229ef540bc89840b7aaf1f65ac.jpg",
    "icongray": "https://steamcdn-a.akamaihd.net/steamcommunity/public/images/apps/1127360/2779393a03142b77d402ca3191de6f9b2453b9d1.jpg"
  },
  {
    "name": "COASTERS_COLLECTED_70",
    "defaultvalue": 0,
    "displayName": "A platinum arrangement",
    "hidden": 0,
    "description": "Collect 70 coasters",
    "icon": "https://steamcdn-a.akamaihd.net/steamcommunity/public/images/apps/1127360/2be47c0debd54eaf7891286665b51f3e714a5d9b.jpg",
    "icongray": "https://steamcdn-a.akamaihd.net/steamcommunity/public/images/apps/1127360/92af38323e318d2b23529e5b868c9a9a11ec2046.jpg"
  }
]