﻿{
  "Dlcs": {},
  "Name": "Raiders!",
  "AppId": "972010",
  "ImageUrl": "https://steamcdn-a.akamaihd.net/steam/apps/972010/header.jpg?t=1599972999",
  "Languages": [
    "english"
  ],
  "Platforms": {
    "windows": true,
    "mac": false,
    "linux": false
  }
}