[
  {
    "name": "STAGE1_CLEAR",
    "defaultvalue": 0,
    "displayName": "Stage1 Clear",
    "hidden": 0,
    "description": "",
    "icon": "https://steamcdn-a.akamaihd.net/steamcommunity/public/images/apps/1225610/a8c26f906434fa1000bd272ad21258411b87f608.jpg",
    "icongray": "https://steamcdn-a.akamaihd.net/steamcommunity/public/images/apps/1225610/2b43dcd02a6b4343d15cdddd88f374b53d1d382c.jpg"
  },
  {
    "name": "STAGE2_CLEAR",
    "defaultvalue": 0,
    "displayName": "Stage2 Clear",
    "hidden": 0,
    "description": "",
    "icon": "https://steamcdn-a.akamaihd.net/steamcommunity/public/images/apps/1225610/95ad4556d1be7aa255921f107852e95b9b891ce4.jpg",
    "icongray": "https://steamcdn-a.akamaihd.net/steamcommunity/public/images/apps/1225610/2b43dcd02a6b4343d15cdddd88f374b53d1d382c.jpg"
  },
  {
    "name": "STAGE3_CLEAR",
    "defaultvalue": 0,
    "displayName": "Stage3 Clear",
    "hidden": 0,
    "description": "",
    "icon": "https://steamcdn-a.akamaihd.net/steamcommunity/public/images/apps/1225610/cdbefac5a24bea267a18cf8d13737a56085c337e.jpg",
    "icongray": "https://steamcdn-a.akamaihd.net/steamcommunity/public/images/apps/1225610/2b43dcd02a6b4343d15cdddd88f374b53d1d382c.jpg"
  },
  {
    "name": "STAGE4_CLEAR",
    "defaultvalue": 0,
    "displayName": "Stage4 Clear",
    "hidden": 0,
    "description": "",
    "icon": "https://steamcdn-a.akamaihd.net/steamcommunity/public/images/apps/1225610/1ce0b3dad42ec5f13e578be50e782e03859a181f.jpg",
    "icongray": "https://steamcdn-a.akamaihd.net/steamcommunity/public/images/apps/1225610/44e7349f5a3cee6a1d4188bd501c2319e4037313.jpg"
  },
  {
    "name": "STAGE5_CLEAR",
    "defaultvalue": 0,
    "displayName": "Stage5 Clear",
    "hidden": 0,
    "description": "",
    "icon": "https://steamcdn-a.akamaihd.net/steamcommunity/public/images/apps/1225610/9687f836269d166dc1cb5d25f41d534369d3713b.jpg",
    "icongray": "https://steamcdn-a.akamaihd.net/steamcommunity/public/images/apps/1225610/2b43dcd02a6b4343d15cdddd88f374b53d1d382c.jpg"
  },
  {
    "name": "STAGEEX_CLEAR",
    "defaultvalue": 0,
    "displayName": "StageEX Clear",
    "hidden": 0,
    "description": "",
    "icon": "https://steamcdn-a.akamaihd.net/steamcommunity/public/images/apps/1225610/1c8be3bda2ca976fe65fdd511a4dd3cf5dc0827c.jpg",
    "icongray": "https://steamcdn-a.akamaihd.net/steamcommunity/public/images/apps/1225610/2b43dcd02a6b4343d15cdddd88f374b53d1d382c.jpg"
  },
  {
    "name": "ALL_CLEAR",
    "defaultvalue": 0,
    "displayName": "Malicious Wake",
    "hidden": 1,
    "icon": "https://steamcdn-a.akamaihd.net/steamcommunity/public/images/apps/1225610/d2ab10c7ee0ea73551c5cdfcdcf2ac69ab81b2b9.jpg",
    "icongray": "https://steamcdn-a.akamaihd.net/steamcommunity/public/images/apps/1225610/2b43dcd02a6b4343d15cdddd88f374b53d1d382c.jpg"
  },
  {
    "name": "ADVENT_1ST_PLAY",
    "defaultvalue": 0,
    "displayName": "∀dvent mode 1st play",
    "hidden": 0,
    "description": "",
    "icon": "https://steamcdn-a.akamaihd.net/steamcommunity/public/images/apps/1225610/4937626eff5b0001ce92379bf2a9739981f02f39.jpg",
    "icongray": "https://steamcdn-a.akamaihd.net/steamcommunity/public/images/apps/1225610/2b43dcd02a6b4343d15cdddd88f374b53d1d382c.jpg"
  },
  {
    "name": "ANOTHER_1ST_PLAY",
    "defaultvalue": 0,
    "displayName": "∀nother mode 1st play",
    "hidden": 0,
    "description": "",
    "icon": "https://steamcdn-a.akamaihd.net/steamcommunity/public/images/apps/1225610/7c7732f30969c4d748ad88d0c83cbb25517adbba.jpg",
    "icongray": "https://steamcdn-a.akamaihd.net/steamcommunity/public/images/apps/1225610/2b43dcd02a6b4343d15cdddd88f374b53d1d382c.jpg"
  },
  {
    "name": "AKASHIC_1ST_PLAY",
    "defaultvalue": 0,
    "displayName": "∀kashic mode first play",
    "hidden": 0,
    "description": "",
    "icon": "https://steamcdn-a.akamaihd.net/steamcommunity/public/images/apps/1225610/653a9905af4c3c646005befd66860e3fe442e0cc.jpg",
    "icongray": "https://steamcdn-a.akamaihd.net/steamcommunity/public/images/apps/1225610/2b43dcd02a6b4343d15cdddd88f374b53d1d382c.jpg"
  },
  {
    "name": "ADVENT_NOMISS_ALL",
    "defaultvalue": 0,
    "displayName": "∀DVENTED",
    "hidden": 1,
    "icon": "https://steamcdn-a.akamaihd.net/steamcommunity/public/images/apps/1225610/0720842908a3994e6f87b9e2334e3e43f55081b3.jpg",
    "icongray": "https://steamcdn-a.akamaihd.net/steamcommunity/public/images/apps/1225610/2b43dcd02a6b4343d15cdddd88f374b53d1d382c.jpg"
  },
  {
    "name": "ANOTHER_NOMISS_ALL",
    "defaultvalue": 0,
    "displayName": "∀NOTHER ONE",
    "hidden": 1,
    "icon": "https://steamcdn-a.akamaihd.net/steamcommunity/public/images/apps/1225610/47c7e5c49a857075a4a566f6df4e86120fd301aa.jpg",
    "icongray": "https://steamcdn-a.akamaihd.net/steamcommunity/public/images/apps/1225610/2b43dcd02a6b4343d15cdddd88f374b53d1d382c.jpg"
  },
  {
    "name": "AKASHIC_NOMISS_ALL",
    "defaultvalue": 0,
    "displayName": "Standing in front of the gate of ∀KASHIC",
    "hidden": 1,
    "icon": "https://steamcdn-a.akamaihd.net/steamcommunity/public/images/apps/1225610/803d05435dd66e2194a217219f76ca63c9d4412c.jpg",
    "icongray": "https://steamcdn-a.akamaihd.net/steamcommunity/public/images/apps/1225610/2b43dcd02a6b4343d15cdddd88f374b53d1d382c.jpg"
  },
  {
    "name": "RATE_OVER_500",
    "defaultvalue": 0,
    "displayName": "DRIFTER:  rate over x500",
    "hidden": 0,
    "description": "Exceeded x500 the entropy rate obtained in 1 stage.",
    "icon": "https://steamcdn-a.akamaihd.net/steamcommunity/public/images/apps/1225610/5ca9f454b50edb02488357ce0262e840623b4618.jpg",
    "icongray": "https://steamcdn-a.akamaihd.net/steamcommunity/public/images/apps/1225610/2b43dcd02a6b4343d15cdddd88f374b53d1d382c.jpg"
  },
  {
    "name": "RATE_OVER_1000",
    "defaultvalue": 0,
    "displayName": "DRIFTER:  rate over x1000",
    "hidden": 0,
    "description": "Exceeded x1000 the entropy rate obtained in 1 stage.",
    "icon": "https://steamcdn-a.akamaihd.net/steamcommunity/public/images/apps/1225610/c700856fd5b047d95a9d0db30340db1bb5ac19b5.jpg",
    "icongray": "https://steamcdn-a.akamaihd.net/steamcommunity/public/images/apps/1225610/2b43dcd02a6b4343d15cdddd88f374b53d1d382c.jpg"
  },
  {
    "name": "SCORE_OVER_10_10",
    "defaultvalue": 0,
    "displayName": "GATHERER: score over 10,000,000,000‬",
    "hidden": 0,
    "description": "Exceeded 10,000,000,000‬ the total amount of entropy gained.",
    "icon": "https://steamcdn-a.akamaihd.net/steamcommunity/public/images/apps/1225610/3df9cb6370f31fab18d1f73a2fa6fd7ffd6c77cb.jpg",
    "icongray": "https://steamcdn-a.akamaihd.net/steamcommunity/public/images/apps/1225610/2b43dcd02a6b4343d15cdddd88f374b53d1d382c.jpg"
  },
  {
    "name": "SCORE_OVER_5_10_10",
    "defaultvalue": 0,
    "displayName": "GATHERER: score over 50,000,000,000‬",
    "hidden": 0,
    "description": "Exceeded 50,000,000,000‬ the total amount of entropy gained.",
    "icon": "https://steamcdn-a.akamaihd.net/steamcommunity/public/images/apps/1225610/0cddeb344e57fa4edeada95d368cbd5c825fd419.jpg",
    "icongray": "https://steamcdn-a.akamaihd.net/steamcommunity/public/images/apps/1225610/2b43dcd02a6b4343d15cdddd88f374b53d1d382c.jpg"
  },
  {
    "name": "SCORE_OVER_10_10_10",
    "defaultvalue": 0,
    "displayName": "GATHERER: score over 100,000,000,000‬",
    "hidden": 0,
    "description": "Exceeded 100,000,000,000‬ the total amount of entropy gained.",
    "icon": "https://steamcdn-a.akamaihd.net/steamcommunity/public/images/apps/1225610/930b4896f212907463e80c23985d76d80abd18de.jpg",
    "icongray": "https://steamcdn-a.akamaihd.net/steamcommunity/public/images/apps/1225610/2b43dcd02a6b4343d15cdddd88f374b53d1d382c.jpg"
  },
  {
    "name": "DEADLY_SHIELD",
    "defaultvalue": 0,
    "displayName": "At the edge of moment",
    "hidden": 1,
    "icon": "https://steamcdn-a.akamaihd.net/steamcommunity/public/images/apps/1225610/0c02ece86bdcb5dd693649c02113d1ae93c9bb01.jpg",
    "icongray": "https://steamcdn-a.akamaihd.net/steamcommunity/public/images/apps/1225610/2b43dcd02a6b4343d15cdddd88f374b53d1d382c.jpg"
  },
  {
    "name": "DEAD_IN_20SEC",
    "defaultvalue": 0,
    "displayName": "Baptism",
    "hidden": 1,
    "icon": "https://steamcdn-a.akamaihd.net/steamcommunity/public/images/apps/1225610/4a69cc49b110f279d5c3c856edf278478ad6da52.jpg",
    "icongray": "https://steamcdn-a.akamaihd.net/steamcommunity/public/images/apps/1225610/2b43dcd02a6b4343d15cdddd88f374b53d1d382c.jpg"
  },
  {
    "name": "FIRST_CONTINUE",
    "defaultvalue": 0,
    "displayName": "Consequence Shifted",
    "hidden": 0,
    "description": "Continue first.",
    "icon": "https://steamcdn-a.akamaihd.net/steamcommunity/public/images/apps/1225610/7a0d7342d8cd56e11653ac86f5c9804bf68b377e.jpg",
    "icongray": "https://steamcdn-a.akamaihd.net/steamcommunity/public/images/apps/1225610/44e7349f5a3cee6a1d4188bd501c2319e4037313.jpg"
  },
  {
    "name": "CONTINUE_10",
    "defaultvalue": 0,
    "displayName": "PIONEER: continue over 10 times",
    "hidden": 0,
    "description": "",
    "icon": "https://steamcdn-a.akamaihd.net/steamcommunity/public/images/apps/1225610/bda777202b2586f42a06e1830eb46eced978744d.jpg",
    "icongray": "https://steamcdn-a.akamaihd.net/steamcommunity/public/images/apps/1225610/2b43dcd02a6b4343d15cdddd88f374b53d1d382c.jpg"
  },
  {
    "name": "CONTINUE_50",
    "defaultvalue": 0,
    "displayName": "PIONEER: continue over 50 times",
    "hidden": 0,
    "description": "",
    "icon": "https://steamcdn-a.akamaihd.net/steamcommunity/public/images/apps/1225610/24b3749594d9aeeb9f18750d23fb61bc78e2f930.jpg",
    "icongray": "https://steamcdn-a.akamaihd.net/steamcommunity/public/images/apps/1225610/2b43dcd02a6b4343d15cdddd88f374b53d1d382c.jpg"
  },
  {
    "name": "CONTINUE_100",
    "defaultvalue": 0,
    "displayName": "PIONEER: continue over 100 times",
    "hidden": 0,
    "description": "",
    "icon": "https://steamcdn-a.akamaihd.net/steamcommunity/public/images/apps/1225610/b07cf9b2dfb235bc13b7b69bf9f5caea93244c6c.jpg",
    "icongray": "https://steamcdn-a.akamaihd.net/steamcommunity/public/images/apps/1225610/2b43dcd02a6b4343d15cdddd88f374b53d1d382c.jpg"
  },
  {
    "name": "FAILED_FATAL_DISASTER",
    "defaultvalue": 0,
    "displayName": "Run out of V.N. particle resources...",
    "hidden": 1,
    "icon": "https://steamcdn-a.akamaihd.net/steamcommunity/public/images/apps/1225610/a9eb0576824aceec33bb640d0ab3194705ad49dd.jpg",
    "icongray": "https://steamcdn-a.akamaihd.net/steamcommunity/public/images/apps/1225610/2b43dcd02a6b4343d15cdddd88f374b53d1d382c.jpg"
  },
  {
    "name": "KO_FATAL_DISASTER",
    "defaultvalue": 0,
    "displayName": "-K.O.- PERFECT",
    "hidden": 1,
    "icon": "https://steamcdn-a.akamaihd.net/steamcommunity/public/images/apps/1225610/63506dc36f13fb1637ae48e064fecb235dfed8d8.jpg",
    "icongray": "https://steamcdn-a.akamaihd.net/steamcommunity/public/images/apps/1225610/44e7349f5a3cee6a1d4188bd501c2319e4037313.jpg"
  },
  {
    "name": "USE_ALL_METHOD",
    "defaultvalue": 0,
    "displayName": "METHOD Master",
    "hidden": 1,
    "icon": "https://steamcdn-a.akamaihd.net/steamcommunity/public/images/apps/1225610/94e16864077c8ea54caef8d24deb27b094af98c3.jpg",
    "icongray": "https://steamcdn-a.akamaihd.net/steamcommunity/public/images/apps/1225610/2b43dcd02a6b4343d15cdddd88f374b53d1d382c.jpg"
  },
  {
    "name": "USE_ALL_METHOD_EX",
    "defaultvalue": 0,
    "displayName": "Complete Intergeneric Hybrid",
    "hidden": 1,
    "icon": "https://steamcdn-a.akamaihd.net/steamcommunity/public/images/apps/1225610/1235bbfd0fcbe0898bd33220d5a64a61ec22ff20.jpg",
    "icongray": "https://steamcdn-a.akamaihd.net/steamcommunity/public/images/apps/1225610/2b43dcd02a6b4343d15cdddd88f374b53d1d382c.jpg"
  },
  {
    "name": "METHOD_COUNT_100_1STAGE",
    "defaultvalue": 0,
    "displayName": "SUPERB: invoke METHOD 100 times",
    "hidden": 0,
    "description": "Use METHOD more than 100 times in 1 stage.",
    "icon": "https://steamcdn-a.akamaihd.net/steamcommunity/public/images/apps/1225610/345fb030b10308cd16ce7ec2146091a79798d27d.jpg",
    "icongray": "https://steamcdn-a.akamaihd.net/steamcommunity/public/images/apps/1225610/2b43dcd02a6b4343d15cdddd88f374b53d1d382c.jpg"
  },
  {
    "name": "METHOD_COUNT_2000",
    "defaultvalue": 0,
    "displayName": "SUPERB: invoke METHOD 2000 times",
    "hidden": 0,
    "description": "Use METHOD more than 2000 times in total.",
    "icon": "https://steamcdn-a.akamaihd.net/steamcommunity/public/images/apps/1225610/cbac2d94901a9c852789248fb7e540f01b0c6dd1.jpg",
    "icongray": "https://steamcdn-a.akamaihd.net/steamcommunity/public/images/apps/1225610/2b43dcd02a6b4343d15cdddd88f374b53d1d382c.jpg"
  },
  {
    "name": "METHOD_COUNT_10000",
    "defaultvalue": 0,
    "displayName": "SUPERB: invoke METHOD 10000 times",
    "hidden": 0,
    "description": "Use METHOD more than 10000 times in total.",
    "icon": "https://steamcdn-a.akamaihd.net/steamcommunity/public/images/apps/1225610/5cb23384898ff4f8e996cce93d3e65a8fe4e4939.jpg",
    "icongray": "https://steamcdn-a.akamaihd.net/steamcommunity/public/images/apps/1225610/2b43dcd02a6b4343d15cdddd88f374b53d1d382c.jpg"
  },
  {
    "name": "PLAYING_COUNT_10",
    "defaultvalue": 0,
    "displayName": "OBSERVER: play 10 times",
    "hidden": 0,
    "description": "Channeling ∀kashicverse 10 times.",
    "icon": "https://steamcdn-a.akamaihd.net/steamcommunity/public/images/apps/1225610/4b21d65152cab9b59059e2ce293e6b73798e167d.jpg",
    "icongray": "https://steamcdn-a.akamaihd.net/steamcommunity/public/images/apps/1225610/2b43dcd02a6b4343d15cdddd88f374b53d1d382c.jpg"
  },
  {
    "name": "PLAYING_COUNT_50",
    "defaultvalue": 0,
    "displayName": "OBSERVER: play 50 times",
    "hidden": 0,
    "description": "Channeling ∀kashicverse 50 times.",
    "icon": "https://steamcdn-a.akamaihd.net/steamcommunity/public/images/apps/1225610/936284aebcd90762137b6d88566fc5091a96d85e.jpg",
    "icongray": "https://steamcdn-a.akamaihd.net/steamcommunity/public/images/apps/1225610/2b43dcd02a6b4343d15cdddd88f374b53d1d382c.jpg"
  },
  {
    "name": "PLAYING_COUNT_100",
    "defaultvalue": 0,
    "displayName": "OBSERVER: play 100 times",
    "hidden": 0,
    "description": "Channeling ∀kashicverse 100 times.",
    "icon": "https://steamcdn-a.akamaihd.net/steamcommunity/public/images/apps/1225610/0aedcc1eb5ca15a9faa9d2f4aba564397f701ba1.jpg",
    "icongray": "https://steamcdn-a.akamaihd.net/steamcommunity/public/images/apps/1225610/2b43dcd02a6b4343d15cdddd88f374b53d1d382c.jpg"
  },
  {
    "name": "ARANHA_FIRST_ALL",
    "defaultvalue": 0,
    "displayName": "A fierce attack",
    "hidden": 1,
    "icon": "https://steamcdn-a.akamaihd.net/steamcommunity/public/images/apps/1225610/eccf70e8d4b40aa4385359377f910aad894c7856.jpg",
    "icongray": "https://steamcdn-a.akamaihd.net/steamcommunity/public/images/apps/1225610/2b43dcd02a6b4343d15cdddd88f374b53d1d382c.jpg"
  },
  {
    "name": "GENOCIDE_GARDEN",
    "defaultvalue": 0,
    "displayName": "GENOCIDE GARDEN",
    "hidden": 1,
    "icon": "https://steamcdn-a.akamaihd.net/steamcommunity/public/images/apps/1225610/8408875c12211a8d11ba368cfe51722979485e1c.jpg",
    "icongray": "https://steamcdn-a.akamaihd.net/steamcommunity/public/images/apps/1225610/2b43dcd02a6b4343d15cdddd88f374b53d1d382c.jpg"
  },
  {
    "name": "CANNIVAL_CORPS",
    "defaultvalue": 0,
    "displayName": "Cannival Corps",
    "hidden": 1,
    "icon": "https://steamcdn-a.akamaihd.net/steamcommunity/public/images/apps/1225610/4d4f414c8d5f2ef15f09f593211e61041f1a218f.jpg",
    "icongray": "https://steamcdn-a.akamaihd.net/steamcommunity/public/images/apps/1225610/2b43dcd02a6b4343d15cdddd88f374b53d1d382c.jpg"
  },
  {
    "name": "HYMENO_RANK_0",
    "defaultvalue": 0,
    "displayName": "Incomplete combustion",
    "hidden": 1,
    "icon": "https://steamcdn-a.akamaihd.net/steamcommunity/public/images/apps/1225610/9c922fea76b5ea33aa205e1fc00cb7cf7781b886.jpg",
    "icongray": "https://steamcdn-a.akamaihd.net/steamcommunity/public/images/apps/1225610/2b43dcd02a6b4343d15cdddd88f374b53d1d382c.jpg"
  },
  {
    "name": "HYMENO_RANK_100",
    "defaultvalue": 0,
    "displayName": "SKYTERRITORY",
    "hidden": 1,
    "icon": "https://steamcdn-a.akamaihd.net/steamcommunity/public/images/apps/1225610/b0bf7b15fdc5ab6fc80960f8652350a6b7b8ec0b.jpg",
    "icongray": "https://steamcdn-a.akamaihd.net/steamcommunity/public/images/apps/1225610/2b43dcd02a6b4343d15cdddd88f374b53d1d382c.jpg"
  },
  {
    "name": "HYMENO_IGNORE",
    "defaultvalue": 0,
    "displayName": "Trolling",
    "hidden": 1,
    "icon": "https://steamcdn-a.akamaihd.net/steamcommunity/public/images/apps/1225610/bebb2041b86bcb1ec8c8967e795a8485f0f73251.jpg",
    "icongray": "https://steamcdn-a.akamaihd.net/steamcommunity/public/images/apps/1225610/2b43dcd02a6b4343d15cdddd88f374b53d1d382c.jpg"
  },
  {
    "name": "DOOM_BRINGER",
    "defaultvalue": 0,
    "displayName": "Doom Bringer",
    "hidden": 0,
    "description": "Use DOOM BRINGER.",
    "icon": "https://steamcdn-a.akamaihd.net/steamcommunity/public/images/apps/1225610/2bd298b2b653c9f50bf3545ca2059190bb6e889e.jpg",
    "icongray": "https://steamcdn-a.akamaihd.net/steamcommunity/public/images/apps/1225610/2b43dcd02a6b4343d15cdddd88f374b53d1d382c.jpg"
  },
  {
    "name": "HAL_RANK_50",
    "defaultvalue": 0,
    "displayName": "Freak out",
    "hidden": 1,
    "icon": "https://steamcdn-a.akamaihd.net/steamcommunity/public/images/apps/1225610/4abed7cb17e4ea7e55c54a8f9499b2aebec4fcc3.jpg",
    "icongray": "https://steamcdn-a.akamaihd.net/steamcommunity/public/images/apps/1225610/2b43dcd02a6b4343d15cdddd88f374b53d1d382c.jpg"
  },
  {
    "name": "SUBARU_ALL_BREAK",
    "defaultvalue": 0,
    "displayName": "End of the world",
    "hidden": 1,
    "icon": "https://steamcdn-a.akamaihd.net/steamcommunity/public/images/apps/1225610/50ba949036d8fac267ac800a1c88a740e233e1e6.jpg",
    "icongray": "https://steamcdn-a.akamaihd.net/steamcommunity/public/images/apps/1225610/2b43dcd02a6b4343d15cdddd88f374b53d1d382c.jpg"
  },
  {
    "name": "INNOCENT_AFFECTION",
    "defaultvalue": 0,
    "displayName": "INNOCENT AFFECTION",
    "hidden": 1,
    "icon": "https://steamcdn-a.akamaihd.net/steamcommunity/public/images/apps/1225610/6bcbbe79f0e06a2633dc85c9e7baca3554a8b095.jpg",
    "icongray": "https://steamcdn-a.akamaihd.net/steamcommunity/public/images/apps/1225610/2b43dcd02a6b4343d15cdddd88f374b53d1d382c.jpg"
  }
]