{
  "Dlcs": {
    "1238030": {
      "Name": "Mass Effect™ 3 DLC Bundle",
      "ImageUrl": "https://steamcdn-a.akamaihd.net/steam/apps/1238030/header.jpg?t=1598621656"
    }
  },
  "Name": "Mass Effect™ 3 N7 Digital Deluxe Edition",
  "AppId": "1238020",
  "ImageUrl": "https://steamcdn-a.akamaihd.net/steam/apps/1238020/header.jpg?t=1598621625",
  "Languages": [
    "english",
    "french",
    "italian",
    "german",
    "spanish",
    "polish",
    "russian"
  ],
  "Platforms": {
    "windows": true,
    "mac": false,
    "linux": false
  }
}