[
  {
    "name": "OgreGeneral",
    "defaultvalue": 0,
    "displayName": "Ogre General",
    "hidden": 0,
    "description": "Win all of the original Ogre scenarios at least once.",
    "icon": "https://steamcdn-a.akamaihd.net/steamcommunity/public/images/apps/517780/f9bfba182b416ec7fc3a19219a0ba7c7caab5bcd.jpg",
    "icongray": "https://steamcdn-a.akamaihd.net/steamcommunity/public/images/apps/517780/d67b4895695778c31a0b4fc3cb8f39416ba87336.jpg"
  },
  {
    "name": "GEVGeneral",
    "defaultvalue": 0,
    "displayName": "G.E.V. General",
    "hidden": 0,
    "description": "Win all of the G.E.V map scenarios at least once.",
    "icon": "https://steamcdn-a.akamaihd.net/steamcommunity/public/images/apps/517780/5d241c05bae62db6fc0d9a1de73787c6b978291c.jpg",
    "icongray": "https://steamcdn-a.akamaihd.net/steamcommunity/public/images/apps/517780/62c8efadbe1413402c62733a0108169a75e53596.jpg"
  },
  {
    "name": "Nightfallen",
    "defaultvalue": 0,
    "displayName": "Nightfall",
    "hidden": 0,
    "description": "Complete the Nightfall campaign.",
    "icon": "https://steamcdn-a.akamaihd.net/steamcommunity/public/images/apps/517780/304138ac2dbc2671693b7ab5d454829d4359ab08.jpg",
    "icongray": "https://steamcdn-a.akamaihd.net/steamcommunity/public/images/apps/517780/45f7a6dd8bd228c68d54f9ada1532cc808ea5648.jpg"
  },
  {
    "name": "HailTheCombine",
    "defaultvalue": 0,
    "displayName": "Hail The Combine!",
    "hidden": 0,
    "description": "Win 5 scenarios as the North American Combine.",
    "icon": "https://steamcdn-a.akamaihd.net/steamcommunity/public/images/apps/517780/53d95dc32beaa454cdbbd910f11794ce8a4c65a7.jpg",
    "icongray": "https://steamcdn-a.akamaihd.net/steamcommunity/public/images/apps/517780/9596e718ab63ffd52c7c8e54bccb4c549c7883bd.jpg"
  },
  {
    "name": "VictoryForTheFederation",
    "defaultvalue": 0,
    "displayName": "Victory for the Federation!",
    "hidden": 0,
    "description": "Win 5 scenarios as the Pan-European Federation.",
    "icon": "https://steamcdn-a.akamaihd.net/steamcommunity/public/images/apps/517780/7dd616ff2a5c6228b4bb14a725137926e0b2da49.jpg",
    "icongray": "https://steamcdn-a.akamaihd.net/steamcommunity/public/images/apps/517780/4077f137eeb81353c33703fc9fefa2867844a1f3.jpg"
  }
]