{
  "Dlcs": {},
  "Name": "VR TOON Help Me (살려주세요)",
  "AppId": "823690",
  "ImageUrl": "https://steamcdn-a.akamaihd.net/steam/apps/823690/header.jpg?t=1549527574",
  "Languages": [
    "english",
    "korean",
    "tchinese"
  ],
  "Platforms": {
    "windows": true,
    "mac": false,
    "linux": false
  }
}