{
  "Dlcs": {},
  "Name": "DanCop - Daniela on Duty",
  "AppId": "1060820",
  "ImageUrl": "https://steamcdn-a.akamaihd.net/steam/apps/1060820/header.jpg?t=1575211791",
  "Languages": [
    "english"
  ],
  "Platforms": {
    "windows": true,
    "mac": false,
    "linux": false
  }
}