﻿[
  {
    "name": "AchievementId_StealCars",
    "defaultvalue": 0,
    "displayName": "Gone In 60 Seconds",
    "hidden": 0,
    "description": "Steal 200 cars.",
    "icon": "https://steamcdn-a.akamaihd.net/steamcommunity/public/images/apps/934780/255416a56a3956450fc6b3eef2f7891c986e51f5.jpg",
    "icongray": "https://steamcdn-a.akamaihd.net/steamcommunity/public/images/apps/934780/7bd5ff526c7eedfb90c7d8fccb0188f0998bfe9e.jpg"
  },
  {
    "name": "AchievementId_HoldUpShops",
    "defaultvalue": 0,
    "displayName": "Stick Up Artist",
    "hidden": 0,
    "description": "Hold up 50 businesses.",
    "icon": "https://steamcdn-a.akamaihd.net/steamcommunity/public/images/apps/934780/effee9ff375ccfd9586aa597e48227c5a11797dd.jpg",
    "icongray": "https://steamcdn-a.akamaihd.net/steamcommunity/public/images/apps/934780/2d88f006bc778f6e6e31b11bae556575e98dedd3.jpg"
  },
  {
    "name": "AchievementId_VehicleJumpSetDistance",
    "defaultvalue": 0,
    "displayName": "Going The Distance",
    "hidden": 0,
    "description": "Jump a distance of 70 meters.",
    "icon": "https://steamcdn-a.akamaihd.net/steamcommunity/public/images/apps/934780/e6d67f6e6fc0f291ebd3132160a0d1e0552f483f.jpg",
    "icongray": "https://steamcdn-a.akamaihd.net/steamcommunity/public/images/apps/934780/27d625c922e225debacc31ab18aebfacc352a05e.jpg"
  },
  {
    "name": "AchievementId_TowOccupiedVehicles",
    "defaultvalue": 0,
    "displayName": "Take Them For A Ride",
    "hidden": 0,
    "description": "Tow a vehicle while it is occupied.",
    "icon": "https://steamcdn-a.akamaihd.net/steamcommunity/public/images/apps/934780/96b6675def43c915e00025fdcd8f734196668457.jpg",
    "icongray": "https://steamcdn-a.akamaihd.net/steamcommunity/public/images/apps/934780/8ac82f5c9485e5139550383bbd81d86ce34301ff.jpg"
  },
  {
    "name": "AchievementId_KnockOutCharactersWithToiletBrush",
    "defaultvalue": 0,
    "displayName": "Cleaning Up",
    "hidden": 0,
    "description": "Knock 5 people out with a toilet brush in 60 seconds.",
    "icon": "https://steamcdn-a.akamaihd.net/steamcommunity/public/images/apps/934780/fc33dd9ed96df2f96be85006a4467733a71be73e.jpg",
    "icongray": "https://steamcdn-a.akamaihd.net/steamcommunity/public/images/apps/934780/85bcf1431602994210f12a8d2e3328a425eb2af8.jpg"
  },
  {
    "name": "AchievementId_HearseRampage",
    "defaultvalue": 0,
    "displayName": "Cut Out The Middle Man",
    "hidden": 0,
    "description": "Run over 10 civilians in a hearse in 60 seconds.",
    "icon": "https://steamcdn-a.akamaihd.net/steamcommunity/public/images/apps/934780/b8e59d5bc0ae584edd4488a03e0f90e34bb995d8.jpg",
    "icongray": "https://steamcdn-a.akamaihd.net/steamcommunity/public/images/apps/934780/3a4c465f21598470e7a4a1728d327ad58136e68d.jpg"
  },
  {
    "name": "AchievementId_Rampage",
    "defaultvalue": 0,
    "displayName": "Rampage",
    "hidden": 0,
    "description": "Cause 10 deaths in 30 seconds.",
    "icon": "https://steamcdn-a.akamaihd.net/steamcommunity/public/images/apps/934780/e71904600301fc3dafa6bfac0741f3be821652fb.jpg",
    "icongray": "https://steamcdn-a.akamaihd.net/steamcommunity/public/images/apps/934780/c31567f6dea3f2ae3365878ada2f968db381815c.jpg"
  },
  {
    "name": "AchievementId_FindAllStashes",
    "defaultvalue": 0,
    "displayName": "No Stone Left Unturned",
    "hidden": 0,
    "description": "Find every hidden stash.",
    "icon": "https://steamcdn-a.akamaihd.net/steamcommunity/public/images/apps/934780/81801349d81c2d1bc939d318a8c3b82ca681cc96.jpg",
    "icongray": "https://steamcdn-a.akamaihd.net/steamcommunity/public/images/apps/934780/b20e042749d4f7583755edfb8a2ab75e4db4d377.jpg"
  },
  {
    "name": "AchievementId_CompleteAllJumps",
    "defaultvalue": 0,
    "displayName": "I Believe I Can Fly",
    "hidden": 0,
    "description": "Complete every vehicle jump.",
    "icon": "https://steamcdn-a.akamaihd.net/steamcommunity/public/images/apps/934780/35780be2e63bbabf8ee51484961f3315659e65b8.jpg",
    "icongray": "https://steamcdn-a.akamaihd.net/steamcommunity/public/images/apps/934780/2699ab7f44883a17d785d8995fc80c50794fa714.jpg"
  },
  {
    "name": "AchievementId_FindAndSellAllPaintings",
    "defaultvalue": 0,
    "displayName": "Art Dealer",
    "hidden": 0,
    "description": "Find and sell all 20 paintings.",
    "icon": "https://steamcdn-a.akamaihd.net/steamcommunity/public/images/apps/934780/0c769fb895cc90ceb8f5478cab91911e46fce377.jpg",
    "icongray": "https://steamcdn-a.akamaihd.net/steamcommunity/public/images/apps/934780/1dd2191c4f002f72f6ab03e48fcacb2f380cdcfd.jpg"
  },
  {
    "name": "AchievementId_CompleteAllRaces",
    "defaultvalue": 0,
    "displayName": "Full Circuit",
    "hidden": 0,
    "description": "Complete every Time Trial.",
    "icon": "https://steamcdn-a.akamaihd.net/steamcommunity/public/images/apps/934780/6f202c8589dec1ff0f8bdadcabba499a44e2acb2.jpg",
    "icongray": "https://steamcdn-a.akamaihd.net/steamcommunity/public/images/apps/934780/254dfcef7d5dd69b627afa6a6629df88aa978e41.jpg"
  },
  {
    "name": "AchievementId_GoldAllRaces",
    "defaultvalue": 0,
    "displayName": "Speed Freak",
    "hidden": 0,
    "description": "Get Gold on every Time Trial.",
    "icon": "https://steamcdn-a.akamaihd.net/steamcommunity/public/images/apps/934780/32fdcf978b85cfab162f0765588ce9e9a65b063c.jpg",
    "icongray": "https://steamcdn-a.akamaihd.net/steamcommunity/public/images/apps/934780/c1db64f0425107d649d3ba20b0046071bf3fa5ec.jpg"
  },
  {
    "name": "AchievementId_CompletePrison",
    "defaultvalue": 0,
    "displayName": "Breakout",
    "hidden": 0,
    "description": "Escape from the prison.",
    "icon": "https://steamcdn-a.akamaihd.net/steamcommunity/public/images/apps/934780/ec1694152f686a56e71c6e48cd71ba9d738a74b4.jpg",
    "icongray": "https://steamcdn-a.akamaihd.net/steamcommunity/public/images/apps/934780/c5af7548d72d49208bde5beb62708e5bfbd889f8.jpg"
  },
  {
    "name": "AchievementId_CompleteArea1",
    "defaultvalue": 0,
    "displayName": "The Getaway",
    "hidden": 0,
    "description": "Reach Port Providence.",
    "icon": "https://steamcdn-a.akamaihd.net/steamcommunity/public/images/apps/934780/c76461dd66e4fb33e53b7cbde91f8413e4969980.jpg",
    "icongray": "https://steamcdn-a.akamaihd.net/steamcommunity/public/images/apps/934780/ee9fa818c1bc6a2c461eb13c788ec4d5c830b20d.jpg"
  },
  {
    "name": "AchievementId_CompleteArea2",
    "defaultvalue": 0,
    "displayName": "Not The Fugitive You're Looking For",
    "hidden": 0,
    "description": "Reach Ridge Plains.",
    "icon": "https://steamcdn-a.akamaihd.net/steamcommunity/public/images/apps/934780/deab9e2b1207c4bcc89d9e60c3e22b91227f12d5.jpg",
    "icongray": "https://steamcdn-a.akamaihd.net/steamcommunity/public/images/apps/934780/c7f358ccd80ac72789ba8413d5944d15ea1d9cc4.jpg"
  },
  {
    "name": "AchievementId_CompleteArea3",
    "defaultvalue": 0,
    "displayName": "Redemption",
    "hidden": 0,
    "description": "Complete the story.",
    "icon": "https://steamcdn-a.akamaihd.net/steamcommunity/public/images/apps/934780/67acc78c666099a69c0ffffda532b1c2680081e3.jpg",
    "icongray": "https://steamcdn-a.akamaihd.net/steamcommunity/public/images/apps/934780/3147d6a90479c2ec0fb3b611cc431c68f7907bf2.jpg"
  },
  {
    "name": "AchievementId_ReachSetSpeed",
    "defaultvalue": 0,
    "displayName": "Going For Speed",
    "hidden": 0,
    "description": "Reach a top speed of 160 mph.",
    "icon": "https://steamcdn-a.akamaihd.net/steamcommunity/public/images/apps/934780/558af2c659ef3761e7c3c5f20bbe3a597a67e31e.jpg",
    "icongray": "https://steamcdn-a.akamaihd.net/steamcommunity/public/images/apps/934780/9dc27729609ea48a8a65b1ba3e5e01c22bff361a.jpg"
  },
  {
    "name": "AchievementId_RideTrain",
    "defaultvalue": 0,
    "displayName": "Ticket To Ride",
    "hidden": 0,
    "description": "Ride a train around a loop of the track.",
    "icon": "https://steamcdn-a.akamaihd.net/steamcommunity/public/images/apps/934780/9c4805fd19d9e7b519e19abf27bcb7e5b014802b.jpg",
    "icongray": "https://steamcdn-a.akamaihd.net/steamcommunity/public/images/apps/934780/70af189b0cd90be0dc672f2597d9b6c8de75c944.jpg"
  },
  {
    "name": "AchievementId_EatSetWildFood",
    "defaultvalue": 0,
    "displayName": "Forager",
    "hidden": 0,
    "description": "Consume 10 pieces of wild food.",
    "icon": "https://steamcdn-a.akamaihd.net/steamcommunity/public/images/apps/934780/44f53982dd549cd802bc580162a17ea89701f9c7.jpg",
    "icongray": "https://steamcdn-a.akamaihd.net/steamcommunity/public/images/apps/934780/ff605157afc3032b5127c1807b89f09686af9627.jpg"
  },
  {
    "name": "AchievementId_KillWithTowableObject",
    "defaultvalue": 0,
    "displayName": "Pendulum",
    "hidden": 0,
    "description": "Kill someone with something that you are towing.",
    "icon": "https://steamcdn-a.akamaihd.net/steamcommunity/public/images/apps/934780/01632466dafb42ace46c5c3eea10a671f8e3a5b9.jpg",
    "icongray": "https://steamcdn-a.akamaihd.net/steamcommunity/public/images/apps/934780/64ed3a859cf3f815ad78bd2f958712cea2ed9a2b.jpg"
  },
  {
    "name": "AchievementId_DropOffGarbageBag",
    "defaultvalue": 0,
    "displayName": "Clean As A Whistle",
    "hidden": 0,
    "description": "Drop a garbage bag at the dump.",
    "icon": "https://steamcdn-a.akamaihd.net/steamcommunity/public/images/apps/934780/879a622189fc12dfbbb980ef9ced56c23df50775.jpg",
    "icongray": "https://steamcdn-a.akamaihd.net/steamcommunity/public/images/apps/934780/27a078860299d6a40cbd393f3330c270b4489543.jpg"
  },
  {
    "name": "AchievementId_GoldTimeTrialNoDamage",
    "defaultvalue": 0,
    "displayName": "Perfect Line",
    "hidden": 0,
    "description": "Get Gold on a Time Trial without taking any vehicle damage.",
    "icon": "https://steamcdn-a.akamaihd.net/steamcommunity/public/images/apps/934780/c2a70187b6d30d7aab6fbf117ad090f7e5794de9.jpg",
    "icongray": "https://steamcdn-a.akamaihd.net/steamcommunity/public/images/apps/934780/20a6b0ce4e18de0299094f5b68b5c0d612f9fe96.jpg"
  },
  {
    "name": "AchievementId_StealthEntryCleanGetaway",
    "defaultvalue": 0,
    "displayName": "Scot Free",
    "hidden": 0,
    "description": "Break into a house stealthily, steal $100 of goods, and make a clean getaway.",
    "icon": "https://steamcdn-a.akamaihd.net/steamcommunity/public/images/apps/934780/16ccbc7d94ea1bf07e7aa50b1ea0b7819bd7e730.jpg",
    "icongray": "https://steamcdn-a.akamaihd.net/steamcommunity/public/images/apps/934780/568da96be91d2775d2750e551eeb34e50aa56fde.jpg"
  },
  {
    "name": "AchievementId_DisposeOfBodyInWater",
    "defaultvalue": 0,
    "displayName": "Sleeping With The Fishes",
    "hidden": 0,
    "description": "Dispose of a body in a river or lake.",
    "icon": "https://steamcdn-a.akamaihd.net/steamcommunity/public/images/apps/934780/a622d5cebbff1a6a1b8db31f6b1f42e16b489833.jpg",
    "icongray": "https://steamcdn-a.akamaihd.net/steamcommunity/public/images/apps/934780/e2770f117c33eba91d87c2c0b9fcf5267fa4c9fc.jpg"
  },
  {
    "name": "AchievementId_FindAllFlyers",
    "defaultvalue": 0,
    "displayName": "Off To A Flyer",
    "hidden": 0,
    "description": "Pick up each type of flyer.",
    "icon": "https://steamcdn-a.akamaihd.net/steamcommunity/public/images/apps/934780/2cf664b3c17360a5bd68c8c9f5f00db863c433f5.jpg",
    "icongray": "https://steamcdn-a.akamaihd.net/steamcommunity/public/images/apps/934780/e8e0b17f5e1496d2f1f573386252e621d3cfc800.jpg"
  },
  {
    "name": "AchievementId_EarnSetAmount",
    "defaultvalue": 0,
    "displayName": "Crime Doesn't Pay",
    "hidden": 0,
    "description": "Earn $50,000 in lifetime earnings.",
    "icon": "https://steamcdn-a.akamaihd.net/steamcommunity/public/images/apps/934780/4eac1119cea1d9973c0f9cf268db0ceffa739faf.jpg",
    "icongray": "https://steamcdn-a.akamaihd.net/steamcommunity/public/images/apps/934780/aaf3af4d75f7abdb23a054af4d07eb9114daf3fa.jpg"
  },
  {
    "name": "AchievementId_DriveAllVehicles",
    "defaultvalue": 0,
    "displayName": "Gearhead",
    "hidden": 0,
    "description": "Drive every vehicle.",
    "icon": "https://steamcdn-a.akamaihd.net/steamcommunity/public/images/apps/934780/fcf86e60bacb74561aaf9cf9547310a5a0471f3f.jpg",
    "icongray": "https://steamcdn-a.akamaihd.net/steamcommunity/public/images/apps/934780/fffec248bfa0f4c7b5b1e94441f335acc106908b.jpg"
  },
  {
    "name": "AchievementId_CompleteDwayneTwinLakes",
    "defaultvalue": 0,
    "displayName": "The Gift Horse",
    "hidden": 0,
    "description": "Complete 'The Gift Horse.'",
    "icon": "https://steamcdn-a.akamaihd.net/steamcommunity/public/images/apps/934780/a4d929621ef2250ce0e4f9a24b57d29c672eecc1.jpg",
    "icongray": "https://steamcdn-a.akamaihd.net/steamcommunity/public/images/apps/934780/ba51b323b66909bc83d0f1a34cb276880156584d.jpg"
  },
  {
    "name": "AchievementId_CompleteAna",
    "defaultvalue": 0,
    "displayName": "A Quiet Moment",
    "hidden": 0,
    "description": "Complete 'A Quiet Moment.'",
    "icon": "https://steamcdn-a.akamaihd.net/steamcommunity/public/images/apps/934780/c60dc9bf7ca6903a3fe60427cd323cd76b1104c2.jpg",
    "icongray": "https://steamcdn-a.akamaihd.net/steamcommunity/public/images/apps/934780/7cc19e5f4236bab4619ab2eb511c83b5dba4fc2c.jpg"
  },
  {
    "name": "AchievementId_CompleteUndertaker",
    "defaultvalue": 0,
    "displayName": "Foul Play",
    "hidden": 0,
    "description": "Complete 'Foul Play.'",
    "icon": "https://steamcdn-a.akamaihd.net/steamcommunity/public/images/apps/934780/6b7cff350c3b816ca93c7ae9f1ee2a437be8973a.jpg",
    "icongray": "https://steamcdn-a.akamaihd.net/steamcommunity/public/images/apps/934780/dcd265b2e8662a424d46a9d201cadf29866c66a1.jpg"
  },
  {
    "name": "AchievementId_CompleteMayor",
    "defaultvalue": 0,
    "displayName": "White Lines",
    "hidden": 0,
    "description": "Complete 'White Lines.'",
    "icon": "https://steamcdn-a.akamaihd.net/steamcommunity/public/images/apps/934780/d20c94c17dc07fbbc1a8534381b1cf7b6d7f5be4.jpg",
    "icongray": "https://steamcdn-a.akamaihd.net/steamcommunity/public/images/apps/934780/816fd3ed3cbad6dc88d5a8ea81741c5de86258a5.jpg"
  },
  {
    "name": "AchievementId_CompleteDwayneRidgePlains",
    "defaultvalue": 0,
    "displayName": "Rebel Without Wheels",
    "hidden": 0,
    "description": "Complete 'Rebel Without Wheels.'",
    "icon": "https://steamcdn-a.akamaihd.net/steamcommunity/public/images/apps/934780/98395ece68d004e50b9dbb2d20331ce10a83e6d3.jpg",
    "icongray": "https://steamcdn-a.akamaihd.net/steamcommunity/public/images/apps/934780/e2b0ef0a6250512ff78d21ab4ace16d476013349.jpg"
  },
  {
    "name": "AchievementId_CompleteLoanshark",
    "defaultvalue": 0,
    "displayName": "Supplies And Demand",
    "hidden": 0,
    "description": "Complete 'Supplies And Demand.'",
    "icon": "https://steamcdn-a.akamaihd.net/steamcommunity/public/images/apps/934780/ff660ee681fb3708614373d0392a7ba519f8f188.jpg",
    "icongray": "https://steamcdn-a.akamaihd.net/steamcommunity/public/images/apps/934780/96d8117c55989c34ea9c26be6b8bf50422409ec8.jpg"
  },
  {
    "name": "AchievementId_CompleteMoonshiner",
    "defaultvalue": 0,
    "displayName": "Two Wrongs Make A Right",
    "hidden": 0,
    "description": "Complete 'Two Wrongs Make A Right.'",
    "icon": "https://steamcdn-a.akamaihd.net/steamcommunity/public/images/apps/934780/98c1ed66e03486a86d7edc69bf776ee0ed11c91d.jpg",
    "icongray": "https://steamcdn-a.akamaihd.net/steamcommunity/public/images/apps/934780/e1d18d242850a2d670efea39dcd4b951ebbb7cec.jpg"
  },
  {
    "name": "AchievementId_CompleteCasinoBoss",
    "defaultvalue": 0,
    "displayName": "A Little Less Loyal",
    "hidden": 0,
    "description": "Complete 'A Little Less Loyal.'",
    "icon": "https://steamcdn-a.akamaihd.net/steamcommunity/public/images/apps/934780/1726bd1c8e4b177719516284d5ab95ab155ade05.jpg",
    "icongray": "https://steamcdn-a.akamaihd.net/steamcommunity/public/images/apps/934780/f18a70f07ed23198c6be7f640202646d8777b9f2.jpg"
  },
  {
    "name": "AchievementId_FenceSetAmount",
    "defaultvalue": 0,
    "displayName": "The Big Score",
    "hidden": 0,
    "description": "Fence more than $1000 worth of goods in one go.",
    "icon": "https://steamcdn-a.akamaihd.net/steamcommunity/public/images/apps/934780/5881e86ae8ef770bbd833cb2153cba77e41a02f6.jpg",
    "icongray": "https://steamcdn-a.akamaihd.net/steamcommunity/public/images/apps/934780/4d219b3c2eaf2563d3e7063b135ee1959606a06e.jpg"
  },
  {
    "name": "AchievementId_TowFlamingCar",
    "defaultvalue": 0,
    "displayName": "Don't Look Back",
    "hidden": 0,
    "description": "Tow a flaming car.",
    "icon": "https://steamcdn-a.akamaihd.net/steamcommunity/public/images/apps/934780/41f00e66b7891eb9503d1c08e71d6fd8864a44ab.jpg",
    "icongray": "https://steamcdn-a.akamaihd.net/steamcommunity/public/images/apps/934780/dabd08b16bc7d4aedf83d6068f849b92f923662a.jpg"
  },
  {
    "name": "AchievementId_ReachSetSpeedFlamingCar",
    "defaultvalue": 0,
    "displayName": "Burning Rubber",
    "hidden": 0,
    "description": "Drive at over 100 mph in a flaming car.",
    "icon": "https://steamcdn-a.akamaihd.net/steamcommunity/public/images/apps/934780/8c5b8cc8f14b4e5bcdd9cdca254d55c5da4c9ec6.jpg",
    "icongray": "https://steamcdn-a.akamaihd.net/steamcommunity/public/images/apps/934780/9c49c18f8f8edc526ecbde6cad0cc4d4c915bd5f.jpg"
  },
  {
    "name": "AchievementId_LandOnBankRoof",
    "defaultvalue": 0,
    "displayName": "You Can't Park There!",
    "hidden": 0,
    "description": "Land a car on the roof of the bank in Twin Lakes.",
    "icon": "https://steamcdn-a.akamaihd.net/steamcommunity/public/images/apps/934780/e22a40a75ced015ba6a0087a06cb3ab200f9e713.jpg",
    "icongray": "https://steamcdn-a.akamaihd.net/steamcommunity/public/images/apps/934780/debe150af01d03a82f2fb6e8e571f928a78aff05.jpg"
  },
  {
    "name": "AchievementId_CompleteRace1",
    "defaultvalue": 0,
    "displayName": "3, 2, 1, Go!",
    "hidden": 0,
    "description": "Complete a Time Trial.",
    "icon": "https://steamcdn-a.akamaihd.net/steamcommunity/public/images/apps/934780/f95d9501485d39d47ea057c3e6cc976019961bd1.jpg",
    "icongray": "https://steamcdn-a.akamaihd.net/steamcommunity/public/images/apps/934780/73715999f1d02e6d906469da67d5df5bdb7fac1c.jpg"
  },
  {
    "name": "AchievementId_GoldRace1",
    "defaultvalue": 0,
    "displayName": "Going for Gold",
    "hidden": 0,
    "description": "Get Gold on a Time Trial.",
    "icon": "https://steamcdn-a.akamaihd.net/steamcommunity/public/images/apps/934780/28948c901f9a8d1d054176cf7736cb74edfe9ba1.jpg",
    "icongray": "https://steamcdn-a.akamaihd.net/steamcommunity/public/images/apps/934780/cf94536c639e7c2e73afe76494452165e0863590.jpg"
  },
  {
    "name": "AchievementId_CompleteRace10",
    "defaultvalue": 0,
    "displayName": "Need For Speed",
    "hidden": 0,
    "description": "Complete 10 Time Trials.",
    "icon": "https://steamcdn-a.akamaihd.net/steamcommunity/public/images/apps/934780/659ac912283c36f8a8d056ae237422b5706bfbec.jpg",
    "icongray": "https://steamcdn-a.akamaihd.net/steamcommunity/public/images/apps/934780/afcf1f5b4abf42239b003ce6986b0f840770a146.jpg"
  },
  {
    "name": "AchievementId_GoldRace10",
    "defaultvalue": 0,
    "displayName": "Club Racer",
    "hidden": 0,
    "description": "Get Gold on 10 Time Trials.",
    "icon": "https://steamcdn-a.akamaihd.net/steamcommunity/public/images/apps/934780/c6462d50aede4a07d620ad727c9a54ef8775cf84.jpg",
    "icongray": "https://steamcdn-a.akamaihd.net/steamcommunity/public/images/apps/934780/efd03692ec5c8805065fe3d8f5c53f6161f4603f.jpg"
  },
  {
    "name": "AchievementId_GoldAllChallenges",
    "defaultvalue": 0,
    "displayName": "Medal of Duty",
    "hidden": 0,
    "description": "Get Gold on Every Challenge",
    "icon": "https://steamcdn-a.akamaihd.net/steamcommunity/public/images/apps/934780/36a2eab0f4e0edfe2a81ac801bd66543976fd4c2.jpg",
    "icongray": "https://steamcdn-a.akamaihd.net/steamcommunity/public/images/apps/934780/d9f52a58e3481d569ce7e5574e0123dd72d4db8a.jpg"
  },
  {
    "name": "AchievementId_DestroyTanks",
    "defaultvalue": 0,
    "displayName": "One Track Mind",
    "hidden": 0,
    "description": "Destroy 100 Enemy Tanks",
    "icon": "https://steamcdn-a.akamaihd.net/steamcommunity/public/images/apps/934780/abe190386f4a197af16f06b2342240fbed023171.jpg",
    "icongray": "https://steamcdn-a.akamaihd.net/steamcommunity/public/images/apps/934780/49507e155a91440e645cc2115a771ed8183f3f49.jpg"
  },
  {
    "name": "AchievementId_CrushVehiclesWithTank",
    "defaultvalue": 0,
    "displayName": "Rollin', Rollin', Rollin'",
    "hidden": 0,
    "description": "Crush 250 Vehicles with a Tank",
    "icon": "https://steamcdn-a.akamaihd.net/steamcommunity/public/images/apps/934780/29443d6cbee7dcd4e19d4f0b2d5e22aa4ad43599.jpg",
    "icongray": "https://steamcdn-a.akamaihd.net/steamcommunity/public/images/apps/934780/29443d6cbee7dcd4e19d4f0b2d5e22aa4ad43599.jpg"
  }
]