﻿{
  "Dlcs": {
    "249270": {
      "Name": "",
      "ImageUrl": ""
    },
    "249250": {
      "Name": "",
      "ImageUrl": ""
    },
    "249290": {
      "Name": "",
      "ImageUrl": ""
    }
  },
  "Name": "Risen 3 - Titan Lords",
  "AppId": "249230",
  "ImageUrl": "https://steamcdn-a.akamaihd.net/steam/apps/249230/header.jpg?t=1588923377",
  "Languages": [
    "english",
    "french",
    "italian",
    "german",
    "spanish",
    "polish",
    "russian"
  ],
  "Platforms": {
    "windows": true,
    "mac": false,
    "linux": false
  }
}