﻿[
  {
    "name": "BUTLER1",
    "defaultvalue": 0,
    "displayName": "Setting Sail",
    "hidden": 0,
    "description": "Complete Chapter 1.",
    "icon": "https://steamcdn-a.akamaihd.net/steamcommunity/public/images/apps/612620/31d96bea8ddfc9728a55b5b17311ed11efd4f1a5.jpg",
    "icongray": "https://steamcdn-a.akamaihd.net/steamcommunity/public/images/apps/612620/c2fd518b388eed1caa8ca6c527c57bc5da97b41a.jpg"
  },
  {
    "name": "BUTLER2",
    "defaultvalue": 0,
    "displayName": "To The Company",
    "hidden": 0,
    "description": "Complete Chapter 2.",
    "icon": "https://steamcdn-a.akamaihd.net/steamcommunity/public/images/apps/612620/0f633eaaa6561aca75fb0bc7036212a48fff33ba.jpg",
    "icongray": "https://steamcdn-a.akamaihd.net/steamcommunity/public/images/apps/612620/9f4ff07998d0384c71fde36cdc5fc8c5bae3bcbe.jpg"
  },
  {
    "name": "BUTLER3",
    "defaultvalue": 0,
    "displayName": "A Good Scoop",
    "hidden": 0,
    "description": "Complete Chapter 3.",
    "icon": "https://steamcdn-a.akamaihd.net/steamcommunity/public/images/apps/612620/dfdcd78f33633d72737c6eb271a2068c4f6a97a2.jpg",
    "icongray": "https://steamcdn-a.akamaihd.net/steamcommunity/public/images/apps/612620/ee21008991dadd908937dbd950fddd8580a7a052.jpg"
  },
  {
    "name": "BUTLER4",
    "defaultvalue": 0,
    "displayName": "Guess Who Died",
    "hidden": 0,
    "description": "Complete Chapter 4.",
    "icon": "https://steamcdn-a.akamaihd.net/steamcommunity/public/images/apps/612620/7cd9e1c9a541c767152db429875937500263b3ce.jpg",
    "icongray": "https://steamcdn-a.akamaihd.net/steamcommunity/public/images/apps/612620/c1e7f200f434c12656b420a122a0162d1d0a3784.jpg"
  },
  {
    "name": "BUTLER5",
    "defaultvalue": 0,
    "displayName": "Exonerated",
    "hidden": 0,
    "description": "Complete Chapter 5.",
    "icon": "https://steamcdn-a.akamaihd.net/steamcommunity/public/images/apps/612620/b46fdc97bfcf026234bc55249c08331a7ae235ea.jpg",
    "icongray": "https://steamcdn-a.akamaihd.net/steamcommunity/public/images/apps/612620/1e5d9f2457511d328df2d92d97d247d4b8b311ed.jpg"
  },
  {
    "name": "BUTLER6",
    "defaultvalue": 0,
    "displayName": "The Locked Room",
    "hidden": 0,
    "description": "Complete Chapter 6.",
    "icon": "https://steamcdn-a.akamaihd.net/steamcommunity/public/images/apps/612620/ddfa821bbd418c8ac761c31dd75f19aa68949a21.jpg",
    "icongray": "https://steamcdn-a.akamaihd.net/steamcommunity/public/images/apps/612620/25e0700b5a1d8eaa27238b996904f7b32cecabf0.jpg"
  },
  {
    "name": "BUTLER7",
    "defaultvalue": 0,
    "displayName": "Interrogations",
    "hidden": 0,
    "description": "Complete Chapter 7.",
    "icon": "https://steamcdn-a.akamaihd.net/steamcommunity/public/images/apps/612620/b6d350f878122f1880b3215fb55d6718d6367aad.jpg",
    "icongray": "https://steamcdn-a.akamaihd.net/steamcommunity/public/images/apps/612620/960711812524b0a1d05a284352622deac2042b82.jpg"
  },
  {
    "name": "BUTLER8",
    "defaultvalue": 0,
    "displayName": "Boiler Room",
    "hidden": 0,
    "description": "Complete Chapter 8.",
    "icon": "https://steamcdn-a.akamaihd.net/steamcommunity/public/images/apps/612620/e043a3363c4f6fd0c84b25faef713a0fa2f566df.jpg",
    "icongray": "https://steamcdn-a.akamaihd.net/steamcommunity/public/images/apps/612620/b3df2374fd55bcb8019717a29f47a03cc6d7e9a1.jpg"
  },
  {
    "name": "BUTLER9",
    "defaultvalue": 0,
    "displayName": "Solved",
    "hidden": 0,
    "description": "Complete Chapter 9.",
    "icon": "https://steamcdn-a.akamaihd.net/steamcommunity/public/images/apps/612620/beae9d4d882416002f47ff07106947be6d697ea1.jpg",
    "icongray": "https://steamcdn-a.akamaihd.net/steamcommunity/public/images/apps/612620/c7fb2a8ac9965797a16904bbef26cab53aafa4b3.jpg"
  },
  {
    "name": "BUTLER10",
    "defaultvalue": 0,
    "displayName": "Checkmate",
    "hidden": 1,
    "icon": "https://steamcdn-a.akamaihd.net/steamcommunity/public/images/apps/612620/195230b683a1b32230b52a3427411bfe2e634378.jpg",
    "icongray": "https://steamcdn-a.akamaihd.net/steamcommunity/public/images/apps/612620/069eb838ec2d36a43577780db2a3b30fd1bad92d.jpg"
  },
  {
    "name": "BUTLER11",
    "defaultvalue": 0,
    "displayName": "Journal Entry",
    "hidden": 0,
    "description": "Open your journal for the first time.",
    "icon": "https://steamcdn-a.akamaihd.net/steamcommunity/public/images/apps/612620/07f68c06ebb6c9652e51769a6384b37202be1e6a.jpg",
    "icongray": "https://steamcdn-a.akamaihd.net/steamcommunity/public/images/apps/612620/5bdd678c6f6a284f08fce8bd80ec96c770e2b11b.jpg"
  },
  {
    "name": "BUTLER12",
    "defaultvalue": 0,
    "displayName": "Playing Along",
    "hidden": 0,
    "description": "View every suspect, map, and clue in the journal.",
    "icon": "https://steamcdn-a.akamaihd.net/steamcommunity/public/images/apps/612620/26b274aa45732125f36b6042e2a2472780e4631f.jpg",
    "icongray": "https://steamcdn-a.akamaihd.net/steamcommunity/public/images/apps/612620/58b5a45da61f17302a4483e2e251d54096f5161d.jpg"
  },
  {
    "name": "BUTLER13",
    "defaultvalue": 0,
    "displayName": "Skipper",
    "hidden": 0,
    "description": "Read the game from start to finish in under one hour.",
    "icon": "https://steamcdn-a.akamaihd.net/steamcommunity/public/images/apps/612620/6ff19cb852ecb01f3e2b90fd451ee05030ed8006.jpg",
    "icongray": "https://steamcdn-a.akamaihd.net/steamcommunity/public/images/apps/612620/e518d35452edefa809ca8a3c4817778038d70c03.jpg"
  },
  {
    "name": "BUTLER14",
    "defaultvalue": 0,
    "displayName": "Curious Mind",
    "hidden": 0,
    "description": "View every piece of bonus content.",
    "icon": "https://steamcdn-a.akamaihd.net/steamcommunity/public/images/apps/612620/61d8f1c5074c3183f722e40357f0608a6244fc9f.jpg",
    "icongray": "https://steamcdn-a.akamaihd.net/steamcommunity/public/images/apps/612620/90cb5a89afd6f2b5be091f488529b7cb9a5e7d4c.jpg"
  }
]