{
  "Dlcs": {},
  "Name": "Reebyte : Visual Novel and Interactive App Maker",
  "AppId": "1093310",
  "ImageUrl": "https://steamcdn-a.akamaihd.net/steam/apps/1093310/header.jpg?t=1562998812",
  "Languages": [
    "english"
  ],
  "Platforms": {
    "windows": true,
    "mac": true,
    "linux": false
  }
}