{
  "Dlcs": {
    "953010": {
      "Name": "Unforeseen Incidents Artbook",
      "ImageUrl": "https://steamcdn-a.akamaihd.net/steam/apps/953010/header.jpg?t=1540219534"
    },
    "954820": {
      "Name": "Unforeseen Incidents Soundtrack",
      "ImageUrl": "https://steamcdn-a.akamaihd.net/steam/apps/954820/header.jpg?t=1540213844"
    }
  },
  "Name": "Unforeseen Incidents",
  "AppId": "501790",
  "ImageUrl": "https://steamcdn-a.akamaihd.net/steam/apps/501790/header.jpg?t=1587743423",
  "Languages": [
    "english",
    "french",
    "italian",
    "german",
    "spanish"
  ],
  "Platforms": {
    "windows": true,
    "mac": true,
    "linux": true
  }
}