{
  "Dlcs": {},
  "Name": "Higurashi When They Cry Hou - Ch.8 Matsuribayashi",
  "AppId": "1243670",
  "ImageUrl": "https://steamcdn-a.akamaihd.net/steam/apps/1243670/header.jpg?t=1589497235",
  "Languages": [
    "english",
    "japanese"
  ],
  "Platforms": {
    "windows": true,
    "mac": true,
    "linux": true
  }
}