{
  "Dlcs": {
    "1193871": {
      "Name": "Fantasy General II: Onslaught",
      "ImageUrl": "https://steamcdn-a.akamaihd.net/steam/apps/1193871/header.jpg?t=1584029146"
    },
    "1193870": {
      "Name": "Fantasy General II: Empire Aflame",
      "ImageUrl": "https://steamcdn-a.akamaihd.net/steam/apps/1193870/header.jpg?t=1600786212"
    }
  },
  "Name": "Fantasy General II",
  "AppId": "1025440",
  "ImageUrl": "https://steamcdn-a.akamaihd.net/steam/apps/1025440/header.jpg?t=1593717855",
  "Languages": [
    "english",
    "german",
    "spanish",
    "schinese",
    "french",
    "russian"
  ],
  "Platforms": {
    "windows": true,
    "mac": false,
    "linux": false
  }
}