[
  {
    "name": "SPLabCompleted",
    "defaultvalue": 0,
    "displayName": "SP Lab Levels Completed"
  },
  {
    "name": "SPLabMaxed",
    "defaultvalue": 0,
    "displayName": "SP Lab Levels Maxed"
  },
  {
    "name": "MPLabCompleted",
    "defaultvalue": 0,
    "displayName": "MP Lab Levels Completed"
  },
  {
    "name": "MPLabMaxed",
    "defaultvalue": 0,
    "displayName": "MP Lab Levels Maxed"
  },
  {
    "name": "SPForestCompleted",
    "defaultvalue": 0,
    "displayName": "SP Forest Levels Completed"
  },
  {
    "name": "SPForestMaxed",
    "defaultvalue": 0,
    "displayName": "SP Forest Levels Maxed"
  },
  {
    "name": "MPForestCompleted",
    "defaultvalue": 0,
    "displayName": "MP Forest Completed"
  },
  {
    "name": "MPForestMaxed",
    "defaultvalue": 0,
    "displayName": "MP Forest Maxed"
  },
  {
    "name": "SPCanyonCompleted",
    "defaultvalue": 0,
    "displayName": "SP Canyon Completed"
  },
  {
    "name": "SPCanyonMaxed",
    "defaultvalue": 0,
    "displayName": "SP Canyon Maxed"
  },
  {
    "name": "MPCanyonCompleted",
    "defaultvalue": 0,
    "displayName": "MP Canyon Completed"
  },
  {
    "name": "MPCanyonMaxed",
    "defaultvalue": 0,
    "displayName": "MP Canyon Maxed"
  },
  {
    "name": "SPGrottoCompleted",
    "defaultvalue": 0,
    "displayName": "SP Grotto Completed"
  },
  {
    "name": "SPGrottoMaxed",
    "defaultvalue": 0,
    "displayName": "SP Grotto Maxed"
  },
  {
    "name": "MPGrottoCompleted",
    "defaultvalue": 0,
    "displayName": "MP Grotto Completed"
  },
  {
    "name": "MPGrottoMaxed",
    "defaultvalue": 0,
    "displayName": "MP Grotto Maxed"
  },
  {
    "name": "SPCompleted",
    "defaultvalue": 0,
    "displayName": "SP Completed"
  },
  {
    "name": "SPMaxed",
    "defaultvalue": 0,
    "displayName": "SP Maxed"
  },
  {
    "name": "MPCompleted",
    "defaultvalue": 0,
    "displayName": "MP Completed"
  },
  {
    "name": "MPMaxed",
    "defaultvalue": 0,
    "displayName": "MP Maxed"
  },
  {
    "name": "SPTime",
    "defaultvalue": 0,
    "displayName": "SP Timechallenges"
  },
  {
    "name": "MPTime",
    "defaultvalue": 0,
    "displayName": "MP Timechallenges"
  }
]