{
  "Dlcs": {},
  "Name": "gShift",
  "AppId": "396730",
  "ImageUrl": "https://steamcdn-a.akamaihd.net/steam/apps/396730/header.jpg?t=1447377657",
  "Languages": [
    "english"
  ],
  "Platforms": {
    "windows": true,
    "mac": false,
    "linux": false
  }
}