﻿{
  "Dlcs": {},
  "Name": "Legend of Keepers: Prologue",
  "AppId": "1151080",
  "ImageUrl": "https://steamcdn-a.akamaihd.net/steam/apps/1151080/header.jpg?t=1591175286",
  "Languages": [
    "english",
    "french",
    "german",
    "spanish",
    "polish",
    "russian",
    "schinese",
    "italian",
    "portuguese",
    "czech",
    "japanese",
    "korean",
    "latam",
    "tchinese",
    "turkish"
  ],
  "Platforms": {
    "windows": true,
    "mac": true,
    "linux": true
  }
}