{
  "Dlcs": {},
  "Name": "Advanced Gaming Platform::Epica",
  "AppId": "398120",
  "ImageUrl": "https://steamcdn-a.akamaihd.net/steam/apps/398120/header.jpg?t=1534355554",
  "Languages": [
    "english",
    "russian"
  ],
  "Platforms": {
    "windows": true,
    "mac": false,
    "linux": true
  }
}