{
  "Dlcs": {},
  "Name": "Arcade Redemption",
  "AppId": "1258900",
  "ImageUrl": "https://steamcdn-a.akamaihd.net/steam/apps/1258900/header.jpg?t=1600218982",
  "Languages": [
    "english"
  ],
  "Platforms": {
    "windows": true,
    "mac": false,
    "linux": false
  }
}