{
  "Dlcs": {},
  "Name": "Mind Sweeper VR",
  "AppId": "723210",
  "ImageUrl": "https://steamcdn-a.akamaihd.net/steam/apps/723210/header.jpg?t=1508850525",
  "Languages": [
    "english"
  ],
  "Platforms": {
    "windows": true,
    "mac": false,
    "linux": false
  }
}