{
  "Dlcs": {
    "300860": {
      "Name": "Pure Pool™ - VooFoo DNA",
      "ImageUrl": "https://steamcdn-a.akamaihd.net/steam/apps/300860/header.jpg?t=1478107665"
    },
    "305400": {
      "Name": "Pure Pool Soundtrack",
      "ImageUrl": "https://steamcdn-a.akamaihd.net/steam/apps/305400/header.jpg?t=1506938926"
    },
    "362360": {
      "Name": "Pure Pool - Snooker pack",
      "ImageUrl": "https://steamcdn-a.akamaihd.net/steam/apps/362360/header.jpg?t=1592572235"
    }
  },
  "Name": "Pure Pool",
  "AppId": "300610",
  "ImageUrl": "https://steamcdn-a.akamaihd.net/steam/apps/300610/header.jpg?t=1592572196",
  "Languages": [
    "english",
    "french",
    "italian",
    "german",
    "spanish",
    "dutch",
    "portuguese",
    "portuguese",
    "russian"
  ],
  "Platforms": {
    "windows": true,
    "mac": false,
    "linux": false
  }
}