{
  "Dlcs": {},
  "Name": "Boomerang Fu",
  "AppId": "965680",
  "ImageUrl": "https://steamcdn-a.akamaihd.net/steam/apps/965680/header.jpg?t=1599996298",
  "Languages": [
    "english",
    "french",
    "italian",
    "german",
    "korean",
    "latam",
    "japanese",
    "schinese",
    "polish",
    "portuguese",
    "turkish"
  ],
  "Platforms": {
    "windows": true,
    "mac": false,
    "linux": false
  }
}