[
  {
    "name": "STAT1",
    "defaultvalue": 0,
    "displayName": ""
  },
  {
    "name": "STAT1_2",
    "defaultvalue": 0,
    "displayName": ""
  },
  {
    "name": "STAT2",
    "defaultvalue": 0,
    "displayName": ""
  },
  {
    "name": "STAT2_2",
    "defaultvalue": 0,
    "displayName": ""
  }
]