{
  "Dlcs": {},
  "Name": "Straight Battler VI",
  "AppId": "1230020",
  "ImageUrl": "https://steamcdn-a.akamaihd.net/steam/apps/1230020/header.jpg?t=1580953317",
  "Languages": [
    "english",
    "japanese"
  ],
  "Platforms": {
    "windows": true,
    "mac": false,
    "linux": false
  }
}