[
  {
    "name": "OPENING",
    "defaultvalue": 0,
    "displayName": "Where Am I?",
    "hidden": 0,
    "description": "Found yourself in an unknown castle.",
    "icon": "https://steamcdn-a.akamaihd.net/steamcommunity/public/images/apps/1065950/c2ad98eb015a3d8eed4f421b6fec7cfde77185d9.jpg",
    "icongray": "https://steamcdn-a.akamaihd.net/steamcommunity/public/images/apps/1065950/53bb84742650ebfec50c4e9e80ec36595a99e4f2.jpg"
  },
  {
    "name": "CHECKPOINT_1",
    "defaultvalue": 0,
    "displayName": "Resting Area",
    "hidden": 0,
    "description": "Reached the Resting Area.",
    "icon": "https://steamcdn-a.akamaihd.net/steamcommunity/public/images/apps/1065950/c2ad98eb015a3d8eed4f421b6fec7cfde77185d9.jpg",
    "icongray": "https://steamcdn-a.akamaihd.net/steamcommunity/public/images/apps/1065950/53bb84742650ebfec50c4e9e80ec36595a99e4f2.jpg"
  },
  {
    "name": "CHECKPOINT_2",
    "defaultvalue": 0,
    "displayName": "Cave Entrance",
    "hidden": 0,
    "description": "Reached the Cave Entrance.",
    "icon": "https://steamcdn-a.akamaihd.net/steamcommunity/public/images/apps/1065950/c2ad98eb015a3d8eed4f421b6fec7cfde77185d9.jpg",
    "icongray": "https://steamcdn-a.akamaihd.net/steamcommunity/public/images/apps/1065950/53bb84742650ebfec50c4e9e80ec36595a99e4f2.jpg"
  },
  {
    "name": "CHECKPOINT_3",
    "defaultvalue": 0,
    "displayName": "Mysterious Gate",
    "hidden": 0,
    "description": "Reached the Mysterious Gate.",
    "icon": "https://steamcdn-a.akamaihd.net/steamcommunity/public/images/apps/1065950/c2ad98eb015a3d8eed4f421b6fec7cfde77185d9.jpg",
    "icongray": "https://steamcdn-a.akamaihd.net/steamcommunity/public/images/apps/1065950/53bb84742650ebfec50c4e9e80ec36595a99e4f2.jpg"
  },
  {
    "name": "CHECKPOINT_4",
    "defaultvalue": 0,
    "displayName": "Middle Area Entrance",
    "hidden": 0,
    "description": "Reached the Middle Area Entrance.",
    "icon": "https://steamcdn-a.akamaihd.net/steamcommunity/public/images/apps/1065950/c2ad98eb015a3d8eed4f421b6fec7cfde77185d9.jpg",
    "icongray": "https://steamcdn-a.akamaihd.net/steamcommunity/public/images/apps/1065950/53bb84742650ebfec50c4e9e80ec36595a99e4f2.jpg"
  },
  {
    "name": "CHECKPOINT_5",
    "defaultvalue": 0,
    "displayName": "Upper Floor",
    "hidden": 0,
    "description": "Reached the Upper Floor.",
    "icon": "https://steamcdn-a.akamaihd.net/steamcommunity/public/images/apps/1065950/c2ad98eb015a3d8eed4f421b6fec7cfde77185d9.jpg",
    "icongray": "https://steamcdn-a.akamaihd.net/steamcommunity/public/images/apps/1065950/53bb84742650ebfec50c4e9e80ec36595a99e4f2.jpg"
  },
  {
    "name": "CHECKPOINT_6",
    "defaultvalue": 0,
    "displayName": "Deepest Area",
    "hidden": 0,
    "description": "Reached the Deepest Area.",
    "icon": "https://steamcdn-a.akamaihd.net/steamcommunity/public/images/apps/1065950/c2ad98eb015a3d8eed4f421b6fec7cfde77185d9.jpg",
    "icongray": "https://steamcdn-a.akamaihd.net/steamcommunity/public/images/apps/1065950/53bb84742650ebfec50c4e9e80ec36595a99e4f2.jpg"
  },
  {
    "name": "ENDING",
    "defaultvalue": 0,
    "displayName": "The End",
    "hidden": 0,
    "description": "Completed the game.",
    "icon": "https://steamcdn-a.akamaihd.net/steamcommunity/public/images/apps/1065950/c2ad98eb015a3d8eed4f421b6fec7cfde77185d9.jpg",
    "icongray": "https://steamcdn-a.akamaihd.net/steamcommunity/public/images/apps/1065950/53bb84742650ebfec50c4e9e80ec36595a99e4f2.jpg"
  },
  {
    "name": "CADOLIA",
    "defaultvalue": 0,
    "displayName": "Katria's Helper",
    "hidden": 0,
    "description": "Helped Katria gather herbs.",
    "icon": "https://steamcdn-a.akamaihd.net/steamcommunity/public/images/apps/1065950/c2ad98eb015a3d8eed4f421b6fec7cfde77185d9.jpg",
    "icongray": "https://steamcdn-a.akamaihd.net/steamcommunity/public/images/apps/1065950/53bb84742650ebfec50c4e9e80ec36595a99e4f2.jpg"
  },
  {
    "name": "KUMINU",
    "defaultvalue": 0,
    "displayName": "Kuminu's Helper",
    "hidden": 0,
    "description": "Helped Kuminu make potions.",
    "icon": "https://steamcdn-a.akamaihd.net/steamcommunity/public/images/apps/1065950/c2ad98eb015a3d8eed4f421b6fec7cfde77185d9.jpg",
    "icongray": "https://steamcdn-a.akamaihd.net/steamcommunity/public/images/apps/1065950/53bb84742650ebfec50c4e9e80ec36595a99e4f2.jpg"
  },
  {
    "name": "DREAMER",
    "defaultvalue": 0,
    "displayName": "Dreamer",
    "hidden": 0,
    "description": "Saw a dream.",
    "icon": "https://steamcdn-a.akamaihd.net/steamcommunity/public/images/apps/1065950/c2ad98eb015a3d8eed4f421b6fec7cfde77185d9.jpg",
    "icongray": "https://steamcdn-a.akamaihd.net/steamcommunity/public/images/apps/1065950/53bb84742650ebfec50c4e9e80ec36595a99e4f2.jpg"
  },
  {
    "name": "STRANGER",
    "defaultvalue": 0,
    "displayName": "Stranger",
    "hidden": 0,
    "description": "Saw 1 side event in the castle.",
    "icon": "https://steamcdn-a.akamaihd.net/steamcommunity/public/images/apps/1065950/c2ad98eb015a3d8eed4f421b6fec7cfde77185d9.jpg",
    "icongray": "https://steamcdn-a.akamaihd.net/steamcommunity/public/images/apps/1065950/53bb84742650ebfec50c4e9e80ec36595a99e4f2.jpg"
  },
  {
    "name": "FRIENDLY",
    "defaultvalue": 0,
    "displayName": "Friendly",
    "hidden": 0,
    "description": "Saw 3 side events in the castle.",
    "icon": "https://steamcdn-a.akamaihd.net/steamcommunity/public/images/apps/1065950/c2ad98eb015a3d8eed4f421b6fec7cfde77185d9.jpg",
    "icongray": "https://steamcdn-a.akamaihd.net/steamcommunity/public/images/apps/1065950/53bb84742650ebfec50c4e9e80ec36595a99e4f2.jpg"
  },
  {
    "name": "SOCIAL",
    "defaultvalue": 0,
    "displayName": "Social",
    "hidden": 0,
    "description": "Saw 5 side events in the castle.",
    "icon": "https://steamcdn-a.akamaihd.net/steamcommunity/public/images/apps/1065950/c2ad98eb015a3d8eed4f421b6fec7cfde77185d9.jpg",
    "icongray": "https://steamcdn-a.akamaihd.net/steamcommunity/public/images/apps/1065950/53bb84742650ebfec50c4e9e80ec36595a99e4f2.jpg"
  },
  {
    "name": "POPULAR",
    "defaultvalue": 0,
    "displayName": "Popular",
    "hidden": 0,
    "description": "Saw 9 side events in the castle.",
    "icon": "https://steamcdn-a.akamaihd.net/steamcommunity/public/images/apps/1065950/c2ad98eb015a3d8eed4f421b6fec7cfde77185d9.jpg",
    "icongray": "https://steamcdn-a.akamaihd.net/steamcommunity/public/images/apps/1065950/53bb84742650ebfec50c4e9e80ec36595a99e4f2.jpg"
  },
  {
    "name": "SCAVENGER",
    "defaultvalue": 0,
    "displayName": "Scavenger",
    "hidden": 0,
    "description": "Obtained 1 kind of herb.",
    "icon": "https://steamcdn-a.akamaihd.net/steamcommunity/public/images/apps/1065950/c2ad98eb015a3d8eed4f421b6fec7cfde77185d9.jpg",
    "icongray": "https://steamcdn-a.akamaihd.net/steamcommunity/public/images/apps/1065950/53bb84742650ebfec50c4e9e80ec36595a99e4f2.jpg"
  },
  {
    "name": "COLLECTOR",
    "defaultvalue": 0,
    "displayName": "Collector",
    "hidden": 0,
    "description": "Obtained 5 different herbs.",
    "icon": "https://steamcdn-a.akamaihd.net/steamcommunity/public/images/apps/1065950/c2ad98eb015a3d8eed4f421b6fec7cfde77185d9.jpg",
    "icongray": "https://steamcdn-a.akamaihd.net/steamcommunity/public/images/apps/1065950/1d975ffe7f28920e693edd76f369fbfb902ae894.jpg"
  },
  {
    "name": "CONNOISSEUR",
    "defaultvalue": 0,
    "displayName": "Connoisseur",
    "hidden": 0,
    "description": "Obtained 10 different herbs.",
    "icon": "https://steamcdn-a.akamaihd.net/steamcommunity/public/images/apps/1065950/c2ad98eb015a3d8eed4f421b6fec7cfde77185d9.jpg",
    "icongray": "https://steamcdn-a.akamaihd.net/steamcommunity/public/images/apps/1065950/53bb84742650ebfec50c4e9e80ec36595a99e4f2.jpg"
  },
  {
    "name": "CONJURER",
    "defaultvalue": 0,
    "displayName": "Conjurer",
    "hidden": 0,
    "description": "Created 1 kind of potion.",
    "icon": "https://steamcdn-a.akamaihd.net/steamcommunity/public/images/apps/1065950/c2ad98eb015a3d8eed4f421b6fec7cfde77185d9.jpg",
    "icongray": "https://steamcdn-a.akamaihd.net/steamcommunity/public/images/apps/1065950/53bb84742650ebfec50c4e9e80ec36595a99e4f2.jpg"
  },
  {
    "name": "ENCHANTER",
    "defaultvalue": 0,
    "displayName": "Enchanter",
    "hidden": 0,
    "description": "Created 7 different potions.",
    "icon": "https://steamcdn-a.akamaihd.net/steamcommunity/public/images/apps/1065950/c2ad98eb015a3d8eed4f421b6fec7cfde77185d9.jpg",
    "icongray": "https://steamcdn-a.akamaihd.net/steamcommunity/public/images/apps/1065950/53bb84742650ebfec50c4e9e80ec36595a99e4f2.jpg"
  },
  {
    "name": "ALCHEMIST",
    "defaultvalue": 0,
    "displayName": "Alchemist",
    "hidden": 0,
    "description": "Created 15 different potions.",
    "icon": "https://steamcdn-a.akamaihd.net/steamcommunity/public/images/apps/1065950/c2ad98eb015a3d8eed4f421b6fec7cfde77185d9.jpg",
    "icongray": "https://steamcdn-a.akamaihd.net/steamcommunity/public/images/apps/1065950/53bb84742650ebfec50c4e9e80ec36595a99e4f2.jpg"
  },
  {
    "name": "LEGENDARY",
    "defaultvalue": 0,
    "displayName": "Legendary",
    "hidden": 0,
    "description": "Obtained the Magic Sword.",
    "icon": "https://steamcdn-a.akamaihd.net/steamcommunity/public/images/apps/1065950/c2ad98eb015a3d8eed4f421b6fec7cfde77185d9.jpg",
    "icongray": "https://steamcdn-a.akamaihd.net/steamcommunity/public/images/apps/1065950/53bb84742650ebfec50c4e9e80ec36595a99e4f2.jpg"
  },
  {
    "name": "GENEROUS",
    "defaultvalue": 0,
    "displayName": "Generous",
    "hidden": 0,
    "description": "Gave a Gold Coin to the fairy.",
    "icon": "https://steamcdn-a.akamaihd.net/steamcommunity/public/images/apps/1065950/c2ad98eb015a3d8eed4f421b6fec7cfde77185d9.jpg",
    "icongray": "https://steamcdn-a.akamaihd.net/steamcommunity/public/images/apps/1065950/53bb84742650ebfec50c4e9e80ec36595a99e4f2.jpg"
  }
]