{
  "Dlcs": {},
  "Name": "Crosser",
  "AppId": "1124510",
  "ImageUrl": "https://steamcdn-a.akamaihd.net/steam/apps/1124510/header.jpg?t=1567065231",
  "Languages": [
    "english"
  ],
  "Platforms": {
    "windows": true,
    "mac": false,
    "linux": false
  }
}