{
  "Dlcs": {},
  "Name": "祭品的逆襲 The Counterattack Of Sacrifice",
  "AppId": "979580",
  "ImageUrl": "https://steamcdn-a.akamaihd.net/steam/apps/979580/header.jpg?t=1560071529",
  "Languages": [
    "english",
    "tchinese"
  ],
  "Platforms": {
    "windows": true,
    "mac": false,
    "linux": false
  }
}