[
  {
    "name": "ACHIEVEMENT_0",
    "defaultvalue": 0,
    "displayName": "MASTER OF THE XX",
    "hidden": 0,
    "description": "Obtain all other achievements",
    "icon": "https://steamcdn-a.akamaihd.net/steamcommunity/public/images/apps/975680/0f18b3338f3f8fb072bca9d20228a56fcc7b15d0.jpg",
    "icongray": "https://steamcdn-a.akamaihd.net/steamcommunity/public/images/apps/975680/ca33a13ae4175385293fbc512e3ea67263eaa4a6.jpg"
  },
  {
    "name": "ACHIEVEMENT_1",
    "defaultvalue": 0,
    "displayName": "ON YOUR MARC-O",
    "hidden": 0,
    "description": "Shoot down 30 enemies with Marco's Special Punch Action",
    "icon": "https://steamcdn-a.akamaihd.net/steamcommunity/public/images/apps/975680/f7149154f6f434f2d5ab252d96a02030967e8c3a.jpg",
    "icongray": "https://steamcdn-a.akamaihd.net/steamcommunity/public/images/apps/975680/d61889b55215765dbf04e4fe549b120aa1f275c3.jpg"
  },
  {
    "name": "ACHIEVEMENT_2",
    "defaultvalue": 0,
    "displayName": "NOT THE FIXER UPPER",
    "hidden": 0,
    "description": "Destroy 5 vehicles with Tarma's Special Action",
    "icon": "https://steamcdn-a.akamaihd.net/steamcommunity/public/images/apps/975680/203f66e017bd1eb13406e42af4d9407d84c31ab7.jpg",
    "icongray": "https://steamcdn-a.akamaihd.net/steamcommunity/public/images/apps/975680/6883f0e2f7fe037541b2b5fb2deace15ee9ce76d.jpg"
  },
  {
    "name": "ACHIEVEMENT_3",
    "defaultvalue": 0,
    "displayName": "VULCAN PUNCH",
    "hidden": 0,
    "description": "Destroy 30 vehicles with Ralf's Special Action",
    "icon": "https://steamcdn-a.akamaihd.net/steamcommunity/public/images/apps/975680/1b0b924b95dc698d038d2ee236e0642756b5330b.jpg",
    "icongray": "https://steamcdn-a.akamaihd.net/steamcommunity/public/images/apps/975680/4582f8d027152ea72831f84c06e9dbbd6109eb3c.jpg"
  },
  {
    "name": "ACHIEVEMENT_4",
    "defaultvalue": 0,
    "displayName": "SUPER ARGENTINE BACKBREAKER",
    "hidden": 0,
    "description": "Throw 30 enemies with Clark's Special Action",
    "icon": "https://steamcdn-a.akamaihd.net/steamcommunity/public/images/apps/975680/da0edf4c63fbcd81f7222b6e6bff256ab840ea62.jpg",
    "icongray": "https://steamcdn-a.akamaihd.net/steamcommunity/public/images/apps/975680/455b79fc301d6da14157f50c2997b5c6ef6b813d.jpg"
  },
  {
    "name": "ACHIEVEMENT_5",
    "defaultvalue": 0,
    "displayName": "MOON SLASHER",
    "hidden": 0,
    "description": "NNullify 100 enemy projectiles with Leona Heidern's Special Actionullify ",
    "icon": "https://steamcdn-a.akamaihd.net/steamcommunity/public/images/apps/975680/4cc6460ac71b888cdc71e2581175937e7547650d.jpg",
    "icongray": "https://steamcdn-a.akamaihd.net/steamcommunity/public/images/apps/975680/ce7b39f85b342ec4af4cc1706ef1d3022d26b13c.jpg"
  },
  {
    "name": "ACHIEVEMENT_6",
    "defaultvalue": 0,
    "displayName": "BORN TO RIDE",
    "hidden": 0,
    "description": "Get in all Slug vehicles",
    "icon": "https://steamcdn-a.akamaihd.net/steamcommunity/public/images/apps/975680/04ed32a9de5a5cd2efba13ab3aa403966c32cf3f.jpg",
    "icongray": "https://steamcdn-a.akamaihd.net/steamcommunity/public/images/apps/975680/6e4e70be1bae74da138307306d371c5924a9fe4e.jpg"
  },
  {
    "name": "ACHIEVEMENT_7",
    "defaultvalue": 0,
    "displayName": "ALL PATHS LESS TRAVELED",
    "hidden": 0,
    "description": "Clear all 3 hidden paths",
    "icon": "https://steamcdn-a.akamaihd.net/steamcommunity/public/images/apps/975680/4bcc983c87e89ba174cbe13b0b76a7e47a98e1d6.jpg",
    "icongray": "https://steamcdn-a.akamaihd.net/steamcommunity/public/images/apps/975680/da013fe489ab3f2290bf8ecbf64b64bb3d66b663.jpg"
  },
  {
    "name": "ACHIEVEMENT_8",
    "defaultvalue": 0,
    "displayName": "TARGETS ELIMINATED!",
    "hidden": 0,
    "description": "Clear all Target Elimination missions with Rank A or above.",
    "icon": "https://steamcdn-a.akamaihd.net/steamcommunity/public/images/apps/975680/a13c19a624fa67871ef40c142aaff25d28c065db.jpg",
    "icongray": "https://steamcdn-a.akamaihd.net/steamcommunity/public/images/apps/975680/1a5705fe375e3d643b5fb7be1024d12b9e0e5cb3.jpg"
  },
  {
    "name": "ACHIEVEMENT_9",
    "defaultvalue": 0,
    "displayName": "ALL YOUR BASE",
    "hidden": 0,
    "description": "Clear all Base Assault missions with Rank A or above.",
    "icon": "https://steamcdn-a.akamaihd.net/steamcommunity/public/images/apps/975680/2f53ee18817d9e0566ca28d441d06aaf79fad712.jpg",
    "icongray": "https://steamcdn-a.akamaihd.net/steamcommunity/public/images/apps/975680/b79ebdcb4d12859d824a4523721dce62b7c586d3.jpg"
  },
  {
    "name": "ACHIEVEMENT_10",
    "defaultvalue": 0,
    "displayName": "THANK YOU",
    "hidden": 0,
    "description": "Clear all POW Rescue missions with Rank A or above.",
    "icon": "https://steamcdn-a.akamaihd.net/steamcommunity/public/images/apps/975680/e72255b69a51cc7f7f8bde672b0b00c9458ced7b.jpg",
    "icongray": "https://steamcdn-a.akamaihd.net/steamcommunity/public/images/apps/975680/5d38efbf25f2d2a6c0f9e7ab8c4119e8eec9905e.jpg"
  },
  {
    "name": "ACHIEVEMENT_11",
    "defaultvalue": 0,
    "displayName": "TRAINED ESPECIALLY WELL",
    "hidden": 0,
    "description": "Clear all Special Training missions with Rank A or above.",
    "icon": "https://steamcdn-a.akamaihd.net/steamcommunity/public/images/apps/975680/3d9656c289ff66b9f4ecf6f5730cb37e586a4e91.jpg",
    "icongray": "https://steamcdn-a.akamaihd.net/steamcommunity/public/images/apps/975680/b3d247535b8c3cc959520368a018e294774f3db3.jpg"
  },
  {
    "name": "ACHIEVEMENT_12",
    "defaultvalue": 0,
    "displayName": "METHODICAL SHARPSHOOTING",
    "hidden": 0,
    "description": "Defeat The Union (Mission 5's boss) 's parts in a specific order ",
    "icon": "https://steamcdn-a.akamaihd.net/steamcommunity/public/images/apps/975680/e441c83ec9df9cd47c86a985daf12a701b256d89.jpg",
    "icongray": "https://steamcdn-a.akamaihd.net/steamcommunity/public/images/apps/975680/0377539f77a978d72ede81ecee8b90fd363e861f.jpg"
  },
  {
    "name": "ACHIEVEMENT_13",
    "defaultvalue": 0,
    "displayName": "NOT HALF BAD!",
    "hidden": 0,
    "description": "Defeat Rebel Gigant (Mission 6's boss) with at least half life",
    "icon": "https://steamcdn-a.akamaihd.net/steamcommunity/public/images/apps/975680/e1e520137072c5c3d2de7d55035d7d748ff76d26.jpg",
    "icongray": "https://steamcdn-a.akamaihd.net/steamcommunity/public/images/apps/975680/266f49572b17e2063e01934576d7b08df33ccf56.jpg"
  },
  {
    "name": "ACHIEVEMENT_14",
    "defaultvalue": 0,
    "displayName": "MISSION COMPLETE!",
    "hidden": 0,
    "description": "Finish the game on Difficulty HARD",
    "icon": "https://steamcdn-a.akamaihd.net/steamcommunity/public/images/apps/975680/e57d8372c47c467e3b605d230896ea2a8e84c1e5.jpg",
    "icongray": "https://steamcdn-a.akamaihd.net/steamcommunity/public/images/apps/975680/908cae9c95d33f1ed81ef144fc243a10eb57eeb0.jpg"
  },
  {
    "name": "ACHIEVEMENT_15",
    "defaultvalue": 0,
    "displayName": "NO BEARD LEFT BEHIND",
    "hidden": 0,
    "description": "Free all POWs in any mission",
    "icon": "https://steamcdn-a.akamaihd.net/steamcommunity/public/images/apps/975680/c297bf496a3c7e4028f6f985ace23f1a1183adf2.jpg",
    "icongray": "https://steamcdn-a.akamaihd.net/steamcommunity/public/images/apps/975680/c6c43d1be21dc8f226c295b3d076c798b8b4828b.jpg"
  },
  {
    "name": "ACHIEVEMENT_16",
    "defaultvalue": 0,
    "displayName": "THIS DOLL IS MINE!",
    "hidden": 0,
    "description": "Collect the doll item",
    "icon": "https://steamcdn-a.akamaihd.net/steamcommunity/public/images/apps/975680/0b8739f036d2d4ae50287d85b4d37094dc0d8542.jpg",
    "icongray": "https://steamcdn-a.akamaihd.net/steamcommunity/public/images/apps/975680/5d3c30f8a7a2e0b5a67954e8f6007ef60d939d6d.jpg"
  },
  {
    "name": "ACHIEVEMENT_17",
    "defaultvalue": 0,
    "displayName": "SPEEDSTER: BEGINNER",
    "hidden": 0,
    "description": "Reach Rank 1st RECORD TIME on BEGINNER difficulty. Must play through all stages without quitting game.",
    "icon": "https://steamcdn-a.akamaihd.net/steamcommunity/public/images/apps/975680/a4d173807dd80fe2c1241f0e5919bfff0b65f42e.jpg",
    "icongray": "https://steamcdn-a.akamaihd.net/steamcommunity/public/images/apps/975680/6b922aaaef7557be552bd24402cfecad5c09c1cc.jpg"
  },
  {
    "name": "ACHIEVEMENT_18",
    "defaultvalue": 0,
    "displayName": "SPEEDSTER: NORMAL",
    "hidden": 0,
    "description": "Reach Rank 1st RECORD TIME on NORMAL difficulty. Must play through all stages without quitting game.",
    "icon": "https://steamcdn-a.akamaihd.net/steamcommunity/public/images/apps/975680/1ba2469fdaab96d7c13c5f143c5b237e76e966c1.jpg",
    "icongray": "https://steamcdn-a.akamaihd.net/steamcommunity/public/images/apps/975680/34bde997d97b0648fcd4ee6937d34eff47dab87f.jpg"
  },
  {
    "name": "ACHIEVEMENT_19",
    "defaultvalue": 0,
    "displayName": "SPEEDSTER: HARD",
    "hidden": 0,
    "description": "Reach Rank 1st RECORD TIME on HARD difficulty. Must play through all stages without quitting game.",
    "icon": "https://steamcdn-a.akamaihd.net/steamcommunity/public/images/apps/975680/e87dd2c00f6e88b2d720e12524941b3d424a535c.jpg",
    "icongray": "https://steamcdn-a.akamaihd.net/steamcommunity/public/images/apps/975680/b234db59e78f220bc9f3bfe4dc680f3becd34d1d.jpg"
  },
  {
    "name": "ACHIEVEMENT_20",
    "defaultvalue": 0,
    "displayName": "THE USUAL SUSPECTS",
    "hidden": 0,
    "description": "Clear a mission with all Regular Army members",
    "icon": "https://steamcdn-a.akamaihd.net/steamcommunity/public/images/apps/975680/c080f5c64df4b10206f180a66b7de6de5dccd66b.jpg",
    "icongray": "https://steamcdn-a.akamaihd.net/steamcommunity/public/images/apps/975680/f87ee62af0d8cf46066a3506307b4ff2880b8b6d.jpg"
  },
  {
    "name": "ACHIEVEMENT_21",
    "defaultvalue": 0,
    "displayName": "OLD BUT NOT FORGOTTEN",
    "hidden": 0,
    "description": "Find the Old Man",
    "icon": "https://steamcdn-a.akamaihd.net/steamcommunity/public/images/apps/975680/4ea4c8bb7ea4c6ee8d9d3533ac361e00ca195dc1.jpg",
    "icongray": "https://steamcdn-a.akamaihd.net/steamcommunity/public/images/apps/975680/14a53e1ccfd8a88590d060353f8244b2ce2fb004.jpg"
  },
  {
    "name": "ACHIEVEMENT_22",
    "defaultvalue": 0,
    "displayName": "RUNNING AND GUNNING",
    "hidden": 0,
    "description": "Clear the game within 45 minutes. Must play through all stages without quitting game",
    "icon": "https://steamcdn-a.akamaihd.net/steamcommunity/public/images/apps/975680/7ee70d56b281c4477174894281fc8b34e249277b.jpg",
    "icongray": "https://steamcdn-a.akamaihd.net/steamcommunity/public/images/apps/975680/feeaaa542864dc7b4200cb546463a621ec4bd380.jpg"
  },
  {
    "name": "ACHIEVEMENT_23",
    "defaultvalue": 0,
    "displayName": "BRINGING A SWORD TO A GUNFIGHT",
    "hidden": 0,
    "description": "Defeat 40 future soldiers with the Zantetsu sword",
    "icon": "https://steamcdn-a.akamaihd.net/steamcommunity/public/images/apps/975680/2597f7f7f67f20312a9cb9bdfe4d828664c6cd39.jpg",
    "icongray": "https://steamcdn-a.akamaihd.net/steamcommunity/public/images/apps/975680/5ad8e4dfe0941308977eba2cad684592be05bad1.jpg"
  },
  {
    "name": "ACHIEVEMENT_24",
    "defaultvalue": 0,
    "displayName": "THE ROAD TO VICTORY",
    "hidden": 0,
    "description": "Clear a mission with all Ikari members",
    "icon": "https://steamcdn-a.akamaihd.net/steamcommunity/public/images/apps/975680/e1d9d6678df4b8c12002c2347ca5e5df43ad95dc.jpg",
    "icongray": "https://steamcdn-a.akamaihd.net/steamcommunity/public/images/apps/975680/007f94a6593a69c1b91c2e4bff55edffa8448bc1.jpg"
  },
  {
    "name": "ACHIEVEMENT_25",
    "defaultvalue": 0,
    "displayName": "MEMPHIS BOMB PRINCESS",
    "hidden": 0,
    "description": "As Eri, kill 10 enemy soldiers at the same time with grenades",
    "icon": "https://steamcdn-a.akamaihd.net/steamcommunity/public/images/apps/975680/45f7611e19d217bccc3a712f14c4a657728f4a6e.jpg",
    "icongray": "https://steamcdn-a.akamaihd.net/steamcommunity/public/images/apps/975680/b8a1abbddafaab5888a87a7b846f6721dd63d4ee.jpg"
  },
  {
    "name": "ACHIEVEMENT_26",
    "defaultvalue": 0,
    "displayName": "POCKET CHANGE",
    "hidden": 0,
    "description": "Collect 500 coins",
    "icon": "https://steamcdn-a.akamaihd.net/steamcommunity/public/images/apps/975680/7f1f06783f2f25219963f5c68e3f652e5f812d5a.jpg",
    "icongray": "https://steamcdn-a.akamaihd.net/steamcommunity/public/images/apps/975680/883fbe4133b920cda58c107482015fa9bc61be1f.jpg"
  },
  {
    "name": "ACHIEVEMENT_27",
    "defaultvalue": 0,
    "displayName": "ROAMING RUMI",
    "hidden": 0,
    "description": "Rescue Rumi Aikawa",
    "icon": "https://steamcdn-a.akamaihd.net/steamcommunity/public/images/apps/975680/fcc60550174d785e69fb10b2fb46330a5eb3e077.jpg",
    "icongray": "https://steamcdn-a.akamaihd.net/steamcommunity/public/images/apps/975680/67a122cefe599ea77e5d8c14710fc90e55b0859d.jpg"
  },
  {
    "name": "ACHIEVEMENT_28",
    "defaultvalue": 0,
    "displayName": "FALLING FOR CRATES",
    "hidden": 0,
    "description": "Trigger the 100 Morden Soldiers encounter in Mission 2",
    "icon": "https://steamcdn-a.akamaihd.net/steamcommunity/public/images/apps/975680/a22c3acedd2c3ebdf40c1391ce0867973108e521.jpg",
    "icongray": "https://steamcdn-a.akamaihd.net/steamcommunity/public/images/apps/975680/ef06a4c9c2c2f3ef9435e3648736f89ce52e3159.jpg"
  },
  {
    "name": "ACHIEVEMENT_29",
    "defaultvalue": 0,
    "displayName": "METAL SLUG SURVIVE",
    "hidden": 0,
    "description": "Play the Combat School survival mission",
    "icon": "https://steamcdn-a.akamaihd.net/steamcommunity/public/images/apps/975680/c1a91ed8db4db75339ad0e8b4a234d22b501436f.jpg",
    "icongray": "https://steamcdn-a.akamaihd.net/steamcommunity/public/images/apps/975680/c4ad6a32f8718628146ae4c9390fa2c36d9877b3.jpg"
  },
  {
    "name": "ACHIEVEMENT_30",
    "defaultvalue": 0,
    "displayName": "HERE COMES HYAKUTARO!",
    "hidden": 0,
    "description": "Defeat 10 enemies with POW Hyakutaro's energy balls",
    "icon": "https://steamcdn-a.akamaihd.net/steamcommunity/public/images/apps/975680/1c2cfc1e878d54151e8d6482708d3abed50440d2.jpg",
    "icongray": "https://steamcdn-a.akamaihd.net/steamcommunity/public/images/apps/975680/c214511eff498228492fa6e0647e50ce495edb3c.jpg"
  },
  {
    "name": "ACHIEVEMENT_31",
    "defaultvalue": 0,
    "displayName": "ALIENS LIKE LASERS, RIGHT?",
    "hidden": 0,
    "description": "Shoot down 20 UFOs with the Laser beam",
    "icon": "https://steamcdn-a.akamaihd.net/steamcommunity/public/images/apps/975680/876556c1fa5329d69c87cfa11aece80dd6e3da0a.jpg",
    "icongray": "https://steamcdn-a.akamaihd.net/steamcommunity/public/images/apps/975680/e59fc6afdc4658fbddf5aa068d8668e5bf82a62d.jpg"
  },
  {
    "name": "ACHIEVEMENT_32",
    "defaultvalue": 0,
    "displayName": "WHAT A ROCK!",
    "hidden": 0,
    "description": "Get the rare gem item",
    "icon": "https://steamcdn-a.akamaihd.net/steamcommunity/public/images/apps/975680/3ccacf122150d5e538e628de917cb84891aebc7f.jpg",
    "icongray": "https://steamcdn-a.akamaihd.net/steamcommunity/public/images/apps/975680/26d46f304e638be240a9f74504b3d950b2aa0534.jpg"
  },
  {
    "name": "ACHIEVEMENT_33",
    "defaultvalue": 0,
    "displayName": "WHICH CAME FIRST, THE CHICKEN OR THE EGG?",
    "hidden": 0,
    "description": "Let a chicken hatch, grow, lay an egg and see a new chick hatch",
    "icon": "https://steamcdn-a.akamaihd.net/steamcommunity/public/images/apps/975680/55048c3f43c595126a327d02345ffc3de42a9212.jpg",
    "icongray": "https://steamcdn-a.akamaihd.net/steamcommunity/public/images/apps/975680/8fcd4a156bca2b371d019ac6020dd46f8e2628f9.jpg"
  }
]