[
  {
    "name": "STAT_PARRY",
    "defaultvalue": 0,
    "displayName": "STAT_PARRY"
  },
  {
    "name": "STAT_DESTROY",
    "defaultvalue": 0,
    "displayName": "STAT_DESTROY"
  },
  {
    "name": "STAT_DISTANCE",
    "defaultvalue": 0,
    "displayName": "STAT_DISTANCE"
  },
  {
    "name": "STAT_RACES",
    "defaultvalue": 0,
    "displayName": "STAT_RACES"
  }
]