﻿{
  "Dlcs": {},
  "Name": "Amoreon NightClub",
  "AppId": "701100",
  "ImageUrl": "https://steamcdn-a.akamaihd.net/steam/apps/701100/header.jpg?t=1504761114",
  "Languages": [
    "english"
  ],
  "Platforms": {
    "windows": true,
    "mac": false,
    "linux": false
  }
}