[
  {
    "name": "WIN_A_GAME",
    "defaultvalue": 0,
    "displayName": "Win a custom game.",
    "hidden": 0,
    "description": "Win a custom game.",
    "icon": "https://steamcdn-a.akamaihd.net/steamcommunity/public/images/apps/593490/e4404c4c398bc7c4be03eff4aade7a07b268ee25.jpg",
    "icongray": "https://steamcdn-a.akamaihd.net/steamcommunity/public/images/apps/593490/598c062b941d0022650cee0113313a20d5bcf9ff.jpg"
  },
  {
    "name": "OPEN_TRADE_ROUTE",
    "defaultvalue": 0,
    "displayName": "Open a Trade Route.",
    "hidden": 0,
    "description": "Open a Trade Route.",
    "icon": "https://steamcdn-a.akamaihd.net/steamcommunity/public/images/apps/593490/6c37f5caa27e48fe7c30642443e5ec694ec06426.jpg",
    "icongray": "https://steamcdn-a.akamaihd.net/steamcommunity/public/images/apps/593490/698ee6cf39b644f7fb735f37e745864d1b27e120.jpg"
  },
  {
    "name": "100_POPULATION",
    "defaultvalue": 0,
    "displayName": "Have a population of 100 or Higher.",
    "hidden": 0,
    "description": "Have a population of 100 or Higher.",
    "icon": "https://steamcdn-a.akamaihd.net/steamcommunity/public/images/apps/593490/759bacb04812fd3c23acd3c4bcfef0c41d8641cf.jpg",
    "icongray": "https://steamcdn-a.akamaihd.net/steamcommunity/public/images/apps/593490/4a21360c0663d53a5b4fbab6798283750825fe25.jpg"
  },
  {
    "name": "200_POPULATION",
    "defaultvalue": 0,
    "displayName": "Have a population of 200 or Higher",
    "hidden": 0,
    "description": "Have a population of 200 or Higher",
    "icon": "https://steamcdn-a.akamaihd.net/steamcommunity/public/images/apps/593490/9299d99e8327258a041a7823ab49773ed44880e3.jpg",
    "icongray": "https://steamcdn-a.akamaihd.net/steamcommunity/public/images/apps/593490/14bb45972389866cd6ca81328a7dc042ff1939ce.jpg"
  },
  {
    "name": "300_POPULATION",
    "defaultvalue": 0,
    "displayName": "Have a population of 300 or Higher",
    "hidden": 0,
    "description": "Have a population of 300 or Higher",
    "icon": "https://steamcdn-a.akamaihd.net/steamcommunity/public/images/apps/593490/b9fd814a52892977169e5613d2579b5675aee0d0.jpg",
    "icongray": "https://steamcdn-a.akamaihd.net/steamcommunity/public/images/apps/593490/8a179a1437981895787f1d0a4a8c02ac04c3494f.jpg"
  },
  {
    "name": "BEAT_LEVEL_1",
    "defaultvalue": 0,
    "displayName": "Beat Level 1 of the \"Glory of Rome\" Campaign",
    "hidden": 0,
    "description": "Beat Level 1 of the \"Glory of Rome\" Campaign",
    "icon": "https://steamcdn-a.akamaihd.net/steamcommunity/public/images/apps/593490/7f072f2493a7c8224e7872ec44c314abb520102b.jpg",
    "icongray": "https://steamcdn-a.akamaihd.net/steamcommunity/public/images/apps/593490/0053c212777c4f9efd4eeb3242743764999f9192.jpg"
  },
  {
    "name": "BEAT_LEVEL_2",
    "defaultvalue": 0,
    "displayName": "Beat Level 2 of the \"Glory of Rome\" Campaign",
    "hidden": 0,
    "description": "Beat Level 2 of the \"Glory of Rome\" Campaign",
    "icon": "https://steamcdn-a.akamaihd.net/steamcommunity/public/images/apps/593490/1648a061e57e7a1ae13e1a287c08caed91719aae.jpg",
    "icongray": "https://steamcdn-a.akamaihd.net/steamcommunity/public/images/apps/593490/f7691e0698ea3da49d9b7cfaeda39d3f7686d94a.jpg"
  },
  {
    "name": "BEAT_LEVEL_3",
    "defaultvalue": 0,
    "displayName": "Beat Level 3 of the \"Glory of Rome\" Campaign",
    "hidden": 0,
    "description": "Beat Level 3 of the \"Glory of Rome\" Campaign",
    "icon": "https://steamcdn-a.akamaihd.net/steamcommunity/public/images/apps/593490/fcf2c33ecaab6a8257de5c2be1f2a76aead9b2d5.jpg",
    "icongray": "https://steamcdn-a.akamaihd.net/steamcommunity/public/images/apps/593490/c51f1bb975d59dd2ad3cffb8a5ef2a506e3754d9.jpg"
  },
  {
    "name": "BEAT_LEVEL_4",
    "defaultvalue": 0,
    "displayName": "Beat Level 4 of the \"Glory of Rome\" Campaign",
    "hidden": 0,
    "description": "Beat Level 4 of the \"Glory of Rome\" Campaign",
    "icon": "https://steamcdn-a.akamaihd.net/steamcommunity/public/images/apps/593490/2404588368ba1867cbde140df07ad9f8054c97e9.jpg",
    "icongray": "https://steamcdn-a.akamaihd.net/steamcommunity/public/images/apps/593490/3e26fc370c9e118d0db690f38cffbb3177f5cfd6.jpg"
  },
  {
    "name": "BEAT_LEVEL_5",
    "defaultvalue": 0,
    "displayName": " \tBeat Level 5 of the \"Glory of Rome\" Campaign",
    "hidden": 0,
    "description": " \tBeat Level 5 of the \"Glory of Rome\" Campaign",
    "icon": "https://steamcdn-a.akamaihd.net/steamcommunity/public/images/apps/593490/4e6a9c7f1b3f23138c4402fd58d341b6739ab082.jpg",
    "icongray": "https://steamcdn-a.akamaihd.net/steamcommunity/public/images/apps/593490/d4c212a67c10797b314ae04323fba3cf21f49d6a.jpg"
  },
  {
    "name": "BEAT_LEVEL_6",
    "defaultvalue": 0,
    "displayName": "Beat Level 6 of the \"Glory of Rome\" Campaign",
    "hidden": 0,
    "description": "Beat Level 6 of the \"Glory of Rome\" Campaign",
    "icon": "https://steamcdn-a.akamaihd.net/steamcommunity/public/images/apps/593490/ffe667aa2f9a25e151fb1b3493f97a33e5394996.jpg",
    "icongray": "https://steamcdn-a.akamaihd.net/steamcommunity/public/images/apps/593490/477a457aa66941cbf27deafc422d2bfdf7b44961.jpg"
  },
  {
    "name": "BEAT_VIRUNUM",
    "defaultvalue": 0,
    "displayName": "Beat Virunum in the \"Glory of Rome\" campaign",
    "hidden": 0,
    "description": "Beat Virunum in the \"Glory of Rome\" campaign",
    "icon": "https://steamcdn-a.akamaihd.net/steamcommunity/public/images/apps/593490/2a477f17211056524d51c4ffc87d01185efecbde.jpg",
    "icongray": "https://steamcdn-a.akamaihd.net/steamcommunity/public/images/apps/593490/4ff2aa8490ca12ec7650d462a0aed79d3ebc8533.jpg"
  },
  {
    "name": "BEAT_SICILIA",
    "defaultvalue": 0,
    "displayName": "Beat Sicilia in the \"Glory of Rome\" campaign",
    "hidden": 0,
    "description": "Beat Sicilia in the \"Glory of Rome\" campaign",
    "icon": "https://steamcdn-a.akamaihd.net/steamcommunity/public/images/apps/593490/318c6039ac1d88fdc5616124fb5ed677dafd60aa.jpg",
    "icongray": "https://steamcdn-a.akamaihd.net/steamcommunity/public/images/apps/593490/c7429ac6868a6075c6260fd61ed622612a600da0.jpg"
  },
  {
    "name": "BEAT_VAISON-LA-ROMAINE",
    "defaultvalue": 0,
    "displayName": "Beat Vaison-la-Romaine in the \"Glory of Rome\" campaign",
    "hidden": 0,
    "description": "Beat Vaison-la-Romaine in the \"Glory of Rome\" campaign",
    "icon": "https://steamcdn-a.akamaihd.net/steamcommunity/public/images/apps/593490/b8f4f0888e44de0b7cda806f6a24eda15acd2667.jpg",
    "icongray": "https://steamcdn-a.akamaihd.net/steamcommunity/public/images/apps/593490/5a7c3a8d30d028350986b3efcfc156d4f309c22b.jpg"
  },
  {
    "name": "BEAT_CASSEL",
    "defaultvalue": 0,
    "displayName": "Beat Cassel in the \"Glory of Rome\" campaign",
    "hidden": 0,
    "description": "Beat Cassel in the \"Glory of Rome\" campaign",
    "icon": "https://steamcdn-a.akamaihd.net/steamcommunity/public/images/apps/593490/debdefe8e5c88e9b7d7ed9f86c55c97362fe154b.jpg",
    "icongray": "https://steamcdn-a.akamaihd.net/steamcommunity/public/images/apps/593490/1076b4bd827b7fb9e23c71615bc2a2f60c0e4daf.jpg"
  },
  {
    "name": "BEAT_FAVENTIA",
    "defaultvalue": 0,
    "displayName": "Beat Faventia in the \"Glory of Rome\" campaign",
    "hidden": 0,
    "description": "Beat Faventia in the \"Glory of Rome\" campaign",
    "icon": "https://steamcdn-a.akamaihd.net/steamcommunity/public/images/apps/593490/9ea5203e8ae811a893525cd7ad90c317aac51c59.jpg",
    "icongray": "https://steamcdn-a.akamaihd.net/steamcommunity/public/images/apps/593490/e9eab0e75c57f8745e400794a220653eb11feffc.jpg"
  }
]