[
  {
    "name": "kill_eye_boss",
    "defaultvalue": 0,
    "displayName": "Welcome to Cathedral",
    "hidden": 0,
    "description": "Kill Augr",
    "icon": "https://steamcdn-a.akamaihd.net/steamcommunity/public/images/apps/1056180/9982241117f2cea348aef7d656f7f7a3cf04a474.jpg",
    "icongray": "https://steamcdn-a.akamaihd.net/steamcommunity/public/images/apps/1056180/b2f4a9723143545f32895f37743f421d530ad3bc.jpg"
  },
  {
    "name": "kill_blob_1",
    "defaultvalue": 0,
    "displayName": "Blob Scholar",
    "hidden": 0,
    "description": "Kill 50 blobs (of any kind)",
    "icon": "https://steamcdn-a.akamaihd.net/steamcommunity/public/images/apps/1056180/bf73f2a38319177d71cedf99efc0ff0039509322.jpg",
    "icongray": "https://steamcdn-a.akamaihd.net/steamcommunity/public/images/apps/1056180/56a386dccb598ffc16441bc046c891686524294e.jpg"
  },
  {
    "name": "kill_blob_2",
    "defaultvalue": 0,
    "displayName": "Blob Expert",
    "hidden": 0,
    "description": "Kill 100 blobs (of any kind)",
    "icon": "https://steamcdn-a.akamaihd.net/steamcommunity/public/images/apps/1056180/d913a505b05e96a73607e6aad6fbe57c4a3d4212.jpg",
    "icongray": "https://steamcdn-a.akamaihd.net/steamcommunity/public/images/apps/1056180/89f42e4e342fcc001e90f3e3bb1350b35e0bce73.jpg"
  },
  {
    "name": "kill_blob_3",
    "defaultvalue": 0,
    "displayName": "Blob Slayer",
    "hidden": 0,
    "description": "Kill 150 blobs (of any kind)",
    "icon": "https://steamcdn-a.akamaihd.net/steamcommunity/public/images/apps/1056180/d53e08aa65d6cbacda8896167de3840d353338cc.jpg",
    "icongray": "https://steamcdn-a.akamaihd.net/steamcommunity/public/images/apps/1056180/c3c1da5679eb6ec93da6578c88cbd114cca0e9cf.jpg"
  },
  {
    "name": "kill_skull_1",
    "defaultvalue": 0,
    "displayName": "Skull Scholar",
    "hidden": 0,
    "description": "Kill 50 skulls (of any kind)",
    "icon": "https://steamcdn-a.akamaihd.net/steamcommunity/public/images/apps/1056180/93101dd9212c43787bdc3daf8a581424bd57a3de.jpg",
    "icongray": "https://steamcdn-a.akamaihd.net/steamcommunity/public/images/apps/1056180/2d76d0a7d1b2b9e74660ff4df6e07a2df4a0de7c.jpg"
  },
  {
    "name": "kill_skull_2",
    "defaultvalue": 0,
    "displayName": "Skull Expert",
    "hidden": 0,
    "description": "Kill 100 skulls (of any kind)",
    "icon": "https://steamcdn-a.akamaihd.net/steamcommunity/public/images/apps/1056180/94c4204cce9daba7b20452981dee0c61464f3a46.jpg",
    "icongray": "https://steamcdn-a.akamaihd.net/steamcommunity/public/images/apps/1056180/5cf0d0f5a7410aa5b8e78a1219ffc666287ccb01.jpg"
  },
  {
    "name": "kill_skull_3",
    "defaultvalue": 0,
    "displayName": "Skull Slayer",
    "hidden": 0,
    "description": "Kill 150 skulls (of any kind)",
    "icon": "https://steamcdn-a.akamaihd.net/steamcommunity/public/images/apps/1056180/f09d4d0d7fa1109eafb9a44bf1ade2f8414fa56b.jpg",
    "icongray": "https://steamcdn-a.akamaihd.net/steamcommunity/public/images/apps/1056180/824cd5d00496916f268657704228b838bdef399f.jpg"
  },
  {
    "name": "fire_kill_orb",
    "defaultvalue": 0,
    "displayName": "Master of Elements",
    "hidden": 1,
    "icon": "https://steamcdn-a.akamaihd.net/steamcommunity/public/images/apps/1056180/0fc06bd9b8dce21a92dce76f2d569e050962c330.jpg",
    "icongray": "https://steamcdn-a.akamaihd.net/steamcommunity/public/images/apps/1056180/3594c0f088a08870c2e67125c1f6d53860444875.jpg"
  },
  {
    "name": "die_hundred_times",
    "defaultvalue": 0,
    "displayName": "Insert coin to play again",
    "hidden": 1,
    "icon": "https://steamcdn-a.akamaihd.net/steamcommunity/public/images/apps/1056180/5994fee7e2274470ab25b491a87cc120640dcc52.jpg",
    "icongray": "https://steamcdn-a.akamaihd.net/steamcommunity/public/images/apps/1056180/059a5fbbea06d91dcc19b51124c59b9fe3b75345.jpg"
  },
  {
    "name": "kill_necromancer",
    "defaultvalue": 0,
    "displayName": "Grave Digger",
    "hidden": 1,
    "icon": "https://steamcdn-a.akamaihd.net/steamcommunity/public/images/apps/1056180/5a16a92e038131075449e480c815c7c214f39ca3.jpg",
    "icongray": "https://steamcdn-a.akamaihd.net/steamcommunity/public/images/apps/1056180/d8f86b63596c0299046437621e9013dbdfed504c.jpg"
  },
  {
    "name": "kill_salemacke",
    "defaultvalue": 0,
    "displayName": "Tomb Trasher",
    "hidden": 1,
    "icon": "https://steamcdn-a.akamaihd.net/steamcommunity/public/images/apps/1056180/48de2f1dbd52649613528ead3153f99e48058395.jpg",
    "icongray": "https://steamcdn-a.akamaihd.net/steamcommunity/public/images/apps/1056180/eb4345a590941e2512ef118874d22ceefb6366c7.jpg"
  },
  {
    "name": "kill_thalia",
    "defaultvalue": 0,
    "displayName": "Deaf wanderer",
    "hidden": 1,
    "icon": "https://steamcdn-a.akamaihd.net/steamcommunity/public/images/apps/1056180/5024dab3d28f6468e89916138fee687c693eccc2.jpg",
    "icongray": "https://steamcdn-a.akamaihd.net/steamcommunity/public/images/apps/1056180/34dded2cf0a4a725a649303a1fc7debd57692a3e.jpg"
  },
  {
    "name": "kill_nidlong",
    "defaultvalue": 0,
    "displayName": "Saint of Tinkerton",
    "hidden": 1,
    "icon": "https://steamcdn-a.akamaihd.net/steamcommunity/public/images/apps/1056180/2d2c98fa29cfeb123962faf7769ec0a2bdbcc5ab.jpg",
    "icongray": "https://steamcdn-a.akamaihd.net/steamcommunity/public/images/apps/1056180/5e9cd15f792f5c24a0eb06bb21d0f547905a74a0.jpg"
  },
  {
    "name": "kill_all_gargoyles",
    "defaultvalue": 0,
    "displayName": "Gargoyle Slayer",
    "hidden": 0,
    "description": "Slay all gargoyles",
    "icon": "https://steamcdn-a.akamaihd.net/steamcommunity/public/images/apps/1056180/df1f0b44b353fb5871767bc63aa9196c8c48fe2f.jpg",
    "icongray": "https://steamcdn-a.akamaihd.net/steamcommunity/public/images/apps/1056180/44236c5b5798ee4dfafd59fddaea6400aa54df39.jpg"
  },
  {
    "name": "find_all_maps",
    "defaultvalue": 0,
    "displayName": "Charter",
    "hidden": 0,
    "description": "Find all map pieces",
    "icon": "https://steamcdn-a.akamaihd.net/steamcommunity/public/images/apps/1056180/52756b0516015d152cc6503d1e856fd0d9fe1e49.jpg",
    "icongray": "https://steamcdn-a.akamaihd.net/steamcommunity/public/images/apps/1056180/f84ef2eeeaf7a6108844d455a3c91e99d7ba9f33.jpg"
  },
  {
    "name": "all_ouros",
    "defaultvalue": 0,
    "displayName": "Cheating Death",
    "hidden": 0,
    "description": "Acquire all Ouroboros amulets",
    "icon": "https://steamcdn-a.akamaihd.net/steamcommunity/public/images/apps/1056180/3f5214839fb626f4abe9800bce45c76c9bd2de4d.jpg",
    "icongray": "https://steamcdn-a.akamaihd.net/steamcommunity/public/images/apps/1056180/3fce455b46ca71a8f4dd75aeb9f8139fa71ebead.jpg"
  },
  {
    "name": "all_bottles",
    "defaultvalue": 0,
    "displayName": "Heavy Drinker",
    "hidden": 0,
    "description": "Acquire all health bottles",
    "icon": "https://steamcdn-a.akamaihd.net/steamcommunity/public/images/apps/1056180/f3eeebd747995548f4173b9d41f9a1e02c25c5cb.jpg",
    "icongray": "https://steamcdn-a.akamaihd.net/steamcommunity/public/images/apps/1056180/a6f0440aac940996eac11d2f88f70e8590fc5131.jpg"
  },
  {
    "name": "all_magnus_ammo",
    "defaultvalue": 0,
    "displayName": "Magnus Apparatus Expert",
    "hidden": 0,
    "description": "Find all ammo upgrades for the Magnus Apparatus",
    "icon": "https://steamcdn-a.akamaihd.net/steamcommunity/public/images/apps/1056180/030c7ffe6755d5c550a2e9db678cd3239ef72ea0.jpg",
    "icongray": "https://steamcdn-a.akamaihd.net/steamcommunity/public/images/apps/1056180/225a9b231ba222079cb612b84486e76aa2fb6d18.jpg"
  },
  {
    "name": "all_flintlock_ammo",
    "defaultvalue": 0,
    "displayName": "Flintlock Expert",
    "hidden": 0,
    "description": "Find all ammo upgrades for the Flintlock",
    "icon": "https://steamcdn-a.akamaihd.net/steamcommunity/public/images/apps/1056180/57366013b1ac0a747e1658a2d916e252c6adeebf.jpg",
    "icongray": "https://steamcdn-a.akamaihd.net/steamcommunity/public/images/apps/1056180/5a07bd94383c9d0897865e6a7cc2fa963c2d1ac6.jpg"
  },
  {
    "name": "all_hearts",
    "defaultvalue": 0,
    "displayName": "Fully Stacked",
    "hidden": 0,
    "description": "Find all hearts",
    "icon": "https://steamcdn-a.akamaihd.net/steamcommunity/public/images/apps/1056180/5359de57ec1bb965a59c0afd17ef31ece6fa99e3.jpg",
    "icongray": "https://steamcdn-a.akamaihd.net/steamcommunity/public/images/apps/1056180/4b5f9bfd2e736ba9cffcd74fb20b1c9cb416bc2a.jpg"
  },
  {
    "name": "kill_rat",
    "defaultvalue": 0,
    "displayName": "Exterminator",
    "hidden": 1,
    "icon": "https://steamcdn-a.akamaihd.net/steamcommunity/public/images/apps/1056180/9cc8b56a6aeb05a7f5675630f10f031c4181d301.jpg",
    "icongray": "https://steamcdn-a.akamaihd.net/steamcommunity/public/images/apps/1056180/cd27469aaf64dc89b1fd099233769f1157531d4d.jpg"
  },
  {
    "name": "kill_conduit",
    "defaultvalue": 0,
    "displayName": "Orb Smasher",
    "hidden": 1,
    "icon": "https://steamcdn-a.akamaihd.net/steamcommunity/public/images/apps/1056180/26a910cefae0536196a5fd8e1190c3ba1fa41428.jpg",
    "icongray": "https://steamcdn-a.akamaihd.net/steamcommunity/public/images/apps/1056180/823a7a975fd0dcf00e9c62499a2b26c7bead0e1c.jpg"
  },
  {
    "name": "kill_ardur",
    "defaultvalue": 0,
    "displayName": "Champion",
    "hidden": 1,
    "icon": "https://steamcdn-a.akamaihd.net/steamcommunity/public/images/apps/1056180/d99ef467af8ddc62e870b24ce7212e8bcd6f5d1f.jpg",
    "icongray": "https://steamcdn-a.akamaihd.net/steamcommunity/public/images/apps/1056180/2209277443a3d05959a5c1768fc4f246afe017c8.jpg"
  },
  {
    "name": "find_books_1",
    "defaultvalue": 0,
    "displayName": "Student",
    "hidden": 0,
    "description": "Return 20 books",
    "icon": "https://steamcdn-a.akamaihd.net/steamcommunity/public/images/apps/1056180/fcf47b0489873bde8f450521d47bbc5924a72ef8.jpg",
    "icongray": "https://steamcdn-a.akamaihd.net/steamcommunity/public/images/apps/1056180/0788a74074bce88789b7a5a374d2dbc7a720b54c.jpg"
  },
  {
    "name": "find_books_2",
    "defaultvalue": 0,
    "displayName": "Bookworm",
    "hidden": 0,
    "description": "Return 40 books",
    "icon": "https://steamcdn-a.akamaihd.net/steamcommunity/public/images/apps/1056180/907c3c00fae9876b47d7230417ec7690ca6bcaf8.jpg",
    "icongray": "https://steamcdn-a.akamaihd.net/steamcommunity/public/images/apps/1056180/6f729e24dbc01e5a0344c6cf4dd7993df6f6eacb.jpg"
  },
  {
    "name": "find_books_3",
    "defaultvalue": 0,
    "displayName": "Bibliophile",
    "hidden": 0,
    "description": "Return 60 books",
    "icon": "https://steamcdn-a.akamaihd.net/steamcommunity/public/images/apps/1056180/b7e0bde4c6c004c05464d59c337e25ba767acdb0.jpg",
    "icongray": "https://steamcdn-a.akamaihd.net/steamcommunity/public/images/apps/1056180/c95869bbd5c436e691f71db59457224b0134003b.jpg"
  },
  {
    "name": "find_books_4",
    "defaultvalue": 0,
    "displayName": "Scholar",
    "hidden": 0,
    "description": "Return 80 books",
    "icon": "https://steamcdn-a.akamaihd.net/steamcommunity/public/images/apps/1056180/95ad7a8ba79dab9c0a85ebb7939ecacf6c7a89cd.jpg",
    "icongray": "https://steamcdn-a.akamaihd.net/steamcommunity/public/images/apps/1056180/89dedbe773d24d00c81da5c8eb41ecc5017f7f3e.jpg"
  },
  {
    "name": "find_books_5",
    "defaultvalue": 0,
    "displayName": "True Librarian",
    "hidden": 0,
    "description": "Return 100 books",
    "icon": "https://steamcdn-a.akamaihd.net/steamcommunity/public/images/apps/1056180/d7bed63f493d4965f52742913f787a7f9fbf78e9.jpg",
    "icongray": "https://steamcdn-a.akamaihd.net/steamcommunity/public/images/apps/1056180/f7b83cc4488e4e6414330ba5aad4e66ec07fc3cc.jpg"
  },
  {
    "name": "activate_all_portals",
    "defaultvalue": 0,
    "displayName": "Fast Traveller",
    "hidden": 0,
    "description": "Find and activate all portals",
    "icon": "https://steamcdn-a.akamaihd.net/steamcommunity/public/images/apps/1056180/c11b450711d5bfa69595b56b03514d091fe0449f.jpg",
    "icongray": "https://steamcdn-a.akamaihd.net/steamcommunity/public/images/apps/1056180/6fddf057c1331177578f61959d1e06ebf37a38cb.jpg"
  },
  {
    "name": "find_all_charms",
    "defaultvalue": 0,
    "displayName": "Charmer",
    "hidden": 0,
    "description": "Find all charms",
    "icon": "https://steamcdn-a.akamaihd.net/steamcommunity/public/images/apps/1056180/50d75a172034e579b5d7c8b8ead1d75b0493e5b3.jpg",
    "icongray": "https://steamcdn-a.akamaihd.net/steamcommunity/public/images/apps/1056180/0266d3ec2255fc2928a7674481dc83b3ac8b2e07.jpg"
  },
  {
    "name": "gold_bank_1",
    "defaultvalue": 0,
    "displayName": "Noble",
    "hidden": 0,
    "description": "Have more than 10 000 gold stored in the bank",
    "icon": "https://steamcdn-a.akamaihd.net/steamcommunity/public/images/apps/1056180/c6abd0655dc41e8321938a877117467ae1fc0e5f.jpg",
    "icongray": "https://steamcdn-a.akamaihd.net/steamcommunity/public/images/apps/1056180/461f260d0ccc6c4559d8635cebe9fa65cc574b04.jpg"
  },
  {
    "name": "gold_bank_2",
    "defaultvalue": 0,
    "displayName": "Aristocrat",
    "hidden": 0,
    "description": "Have more than 25 000 gold stored in the bank",
    "icon": "https://steamcdn-a.akamaihd.net/steamcommunity/public/images/apps/1056180/aa9fa24c13c7c06b605cb87b2234abe13e8af334.jpg",
    "icongray": "https://steamcdn-a.akamaihd.net/steamcommunity/public/images/apps/1056180/3f1f4cb8cdffb9cbcf79f930201d76a904c1a109.jpg"
  },
  {
    "name": "gold_bank_3",
    "defaultvalue": 0,
    "displayName": "King",
    "hidden": 0,
    "description": "Have more than 50 000 gold stored in the bank",
    "icon": "https://steamcdn-a.akamaihd.net/steamcommunity/public/images/apps/1056180/c2e4d547d4dc2c3aefcc6452794d37b5eac4e597.jpg",
    "icongray": "https://steamcdn-a.akamaihd.net/steamcommunity/public/images/apps/1056180/3b96f22182fcecf587c7a8c300e1ff004dc1b47b.jpg"
  },
  {
    "name": "armor_emerald",
    "defaultvalue": 0,
    "displayName": "Emerald",
    "hidden": 0,
    "description": "Buy the Emerald armor",
    "icon": "https://steamcdn-a.akamaihd.net/steamcommunity/public/images/apps/1056180/a42b6e387967bfecdcc717b223667872ba5c03fe.jpg",
    "icongray": "https://steamcdn-a.akamaihd.net/steamcommunity/public/images/apps/1056180/7bf3629577c13b1ceccd066d891c7b853825cf30.jpg"
  },
  {
    "name": "armor_tourmaline",
    "defaultvalue": 0,
    "displayName": "Tourmaline",
    "hidden": 0,
    "description": "Buy the Tourmaline armor",
    "icon": "https://steamcdn-a.akamaihd.net/steamcommunity/public/images/apps/1056180/a8b0cb49b7563b916b80f0586b8ab06919c46569.jpg",
    "icongray": "https://steamcdn-a.akamaihd.net/steamcommunity/public/images/apps/1056180/021fc419ef4463343b44cae5e0ecce18ec82b7fb.jpg"
  },
  {
    "name": "armor_onyx",
    "defaultvalue": 0,
    "displayName": "Onyx",
    "hidden": 0,
    "description": "Buy the Onyx armor",
    "icon": "https://steamcdn-a.akamaihd.net/steamcommunity/public/images/apps/1056180/bf51d4121c950f267efda73bd479e1828bcf5e4a.jpg",
    "icongray": "https://steamcdn-a.akamaihd.net/steamcommunity/public/images/apps/1056180/c5f58dffb5750513ebf2c3811bfb2af27572b6e5.jpg"
  },
  {
    "name": "first_armor_playthrough",
    "defaultvalue": 0,
    "displayName": "Damage Dodger",
    "hidden": 0,
    "description": "Complete the game without upgrading the armor",
    "icon": "https://steamcdn-a.akamaihd.net/steamcommunity/public/images/apps/1056180/c146fbf885733453eac6d955e8f20edd142a0cc7.jpg",
    "icongray": "https://steamcdn-a.akamaihd.net/steamcommunity/public/images/apps/1056180/c5f58dffb5750513ebf2c3811bfb2af27572b6e5.jpg"
  },
  {
    "name": "kill_blood_knot",
    "defaultvalue": 0,
    "displayName": "Knot on my watch",
    "hidden": 1,
    "icon": "https://steamcdn-a.akamaihd.net/steamcommunity/public/images/apps/1056180/ca116439e0811a4ed6a6eababe2b3a7ecd93c3f4.jpg",
    "icongray": "https://steamcdn-a.akamaihd.net/steamcommunity/public/images/apps/1056180/b26b99005ee1c646f6a502782429e0c9c8195842.jpg"
  },
  {
    "name": "all_augs",
    "defaultvalue": 0,
    "displayName": "Fully Protected",
    "hidden": 0,
    "description": "Find all armor augmentations",
    "icon": "https://steamcdn-a.akamaihd.net/steamcommunity/public/images/apps/1056180/c146fbf885733453eac6d955e8f20edd142a0cc7.jpg",
    "icongray": "https://steamcdn-a.akamaihd.net/steamcommunity/public/images/apps/1056180/c5f58dffb5750513ebf2c3811bfb2af27572b6e5.jpg"
  }
]