﻿{
  "Dlcs": {},
  "Name": "THE LAST BLADE 2",
  "AppId": "702110",
  "ImageUrl": "https://steamcdn-a.akamaihd.net/steam/apps/702110/header.jpg?t=1589903620",
  "Languages": [
    "english",
    "japanese",
    "spanish",
    "portuguese"
  ],
  "Platforms": {
    "windows": true,
    "mac": false,
    "linux": false
  }
}