{
  "Dlcs": {},
  "Name": "A five-day tour in the morgue",
  "AppId": "1057310",
  "ImageUrl": "https://steamcdn-a.akamaihd.net/steam/apps/1057310/header.jpg?t=1556611801",
  "Languages": [
    "english",
    "japanese",
    "schinese",
    "tchinese"
  ],
  "Platforms": {
    "windows": true,
    "mac": false,
    "linux": false
  }
}