[
  {
    "name": "tutorial",
    "defaultvalue": 0,
    "displayName": "Start",
    "hidden": 0,
    "description": "Complete the first level",
    "icon": "https://steamcdn-a.akamaihd.net/steamcommunity/public/images/apps/750780/3f80fd870583026498798c0db4b9004de8249c95.jpg",
    "icongray": "https://steamcdn-a.akamaihd.net/steamcommunity/public/images/apps/750780/20ad3d343c8e101058eef438210caf88fb8a8ad6.jpg"
  },
  {
    "name": "match4",
    "defaultvalue": 0,
    "displayName": "Match 4",
    "hidden": 0,
    "description": "Match 4 pieces in one combination",
    "icon": "https://steamcdn-a.akamaihd.net/steamcommunity/public/images/apps/750780/4af8fdb0eb80c48cc7a4f90cf2446c3900710bc5.jpg",
    "icongray": "https://steamcdn-a.akamaihd.net/steamcommunity/public/images/apps/750780/2e7ca7830369424e1953c2e4ed94ca4181df52e9.jpg"
  },
  {
    "name": "match5",
    "defaultvalue": 0,
    "displayName": "Match 5",
    "hidden": 0,
    "description": "Match 5 pieces in one combination",
    "icon": "https://steamcdn-a.akamaihd.net/steamcommunity/public/images/apps/750780/787b3fe13500220a9b46a0fecacd508a99e37447.jpg",
    "icongray": "https://steamcdn-a.akamaihd.net/steamcommunity/public/images/apps/750780/4a7e7f3e83deedc7e7c201b95dbf764f390f2641.jpg"
  },
  {
    "name": "match6",
    "defaultvalue": 0,
    "displayName": "Match 6",
    "hidden": 0,
    "description": "Match 6 pieces in one combination",
    "icon": "https://steamcdn-a.akamaihd.net/steamcommunity/public/images/apps/750780/074f845261c3208763cf4fefb2c8bef4a8ad931c.jpg",
    "icongray": "https://steamcdn-a.akamaihd.net/steamcommunity/public/images/apps/750780/58331b3651fea0ee02cb92ab523300ee0b7ca276.jpg"
  },
  {
    "name": "episode1complete",
    "defaultvalue": 0,
    "displayName": "Episode 1",
    "hidden": 0,
    "description": "Complete episode 1",
    "icon": "https://steamcdn-a.akamaihd.net/steamcommunity/public/images/apps/750780/6527e5f6f71c8ed34ce496b40f1f8dfc1896e064.jpg",
    "icongray": "https://steamcdn-a.akamaihd.net/steamcommunity/public/images/apps/750780/c8e455a2f93d78dcf994e1cd95b83f5f627655fd.jpg"
  },
  {
    "name": "episode2complete",
    "defaultvalue": 0,
    "displayName": "Episode 2",
    "hidden": 0,
    "description": "Complete episode 2",
    "icon": "https://steamcdn-a.akamaihd.net/steamcommunity/public/images/apps/750780/8e10c7673384d13b010dfdccf260834d03917e54.jpg",
    "icongray": "https://steamcdn-a.akamaihd.net/steamcommunity/public/images/apps/750780/981fcad552b19518e6813babd33339672cf9dd9a.jpg"
  },
  {
    "name": "episode3complete",
    "defaultvalue": 0,
    "displayName": "Episode 3",
    "hidden": 0,
    "description": "Complete episode 3",
    "icon": "https://steamcdn-a.akamaihd.net/steamcommunity/public/images/apps/750780/5f20c20b2a34de3d59abd383e83cc9dc65f21535.jpg",
    "icongray": "https://steamcdn-a.akamaihd.net/steamcommunity/public/images/apps/750780/d791fe1903be076ad626fab78d07eab7eb9ac2a4.jpg"
  },
  {
    "name": "episode4complete",
    "defaultvalue": 0,
    "displayName": "Episode 4",
    "hidden": 0,
    "description": "Complete episode 4",
    "icon": "https://steamcdn-a.akamaihd.net/steamcommunity/public/images/apps/750780/c596945e1cf800a476654f54d7eeaed983b73686.jpg",
    "icongray": "https://steamcdn-a.akamaihd.net/steamcommunity/public/images/apps/750780/b95ccbd65b66198cc1b36a3eb4d457a98d6ca0da.jpg"
  },
  {
    "name": "allcompleted",
    "defaultvalue": 0,
    "displayName": "Finish the game",
    "hidden": 0,
    "description": "Complete all levels",
    "icon": "https://steamcdn-a.akamaihd.net/steamcommunity/public/images/apps/750780/ec0c81ad32583aebcbf1e16e64dd817db4aee732.jpg",
    "icongray": "https://steamcdn-a.akamaihd.net/steamcommunity/public/images/apps/750780/b95792f21205569725b1f1d4faf753d33910261b.jpg"
  },
  {
    "name": "big_boom",
    "defaultvalue": 0,
    "displayName": "Big boom!",
    "hidden": 0,
    "description": "Explode 25 bombs!",
    "icon": "https://steamcdn-a.akamaihd.net/steamcommunity/public/images/apps/750780/79a7c371360faf9534a9e139f40472f0b772fb79.jpg",
    "icongray": "https://steamcdn-a.akamaihd.net/steamcommunity/public/images/apps/750780/44bbefa77f0f373202b5cf023a9a67ef40589e9a.jpg"
  },
  {
    "name": "rockets",
    "defaultvalue": 0,
    "displayName": "Ticket to the moon",
    "hidden": 0,
    "description": "Fire 10 rockets!",
    "icon": "https://steamcdn-a.akamaihd.net/steamcommunity/public/images/apps/750780/1f593f41e0bb1e37df068008158138ab6d2a5450.jpg",
    "icongray": "https://steamcdn-a.akamaihd.net/steamcommunity/public/images/apps/750780/5cf697eb48de0c4623f9535b3d88cdbdc24ad431.jpg"
  }
]