[
  {
    "name": "GAMES_PLAYED",
    "defaultvalue": 0,
    "displayName": "Rescue Attempts"
  },
  {
    "name": "GAMES_WON",
    "defaultvalue": 0,
    "displayName": "Successful Rescues"
  },
  {
    "name": "DESTROYED_ROBOTS",
    "defaultvalue": 0,
    "displayName": "Robots Destroyed"
  },
  {
    "name": "DESTROYED_PROPS",
    "defaultvalue": 0,
    "displayName": "Props Broken"
  }
]