﻿{
  "Dlcs": {},
  "Name": "Zwei: The Arges Adventure",
  "AppId": "427680",
  "ImageUrl": "https://steamcdn-a.akamaihd.net/steam/apps/427680/header.jpg?t=1598572178",
  "Languages": [
    "english",
    "japanese"
  ],
  "Platforms": {
    "windows": true,
    "mac": false,
    "linux": false
  }
}