[
  {
    "name": "A1",
    "defaultvalue": 0,
    "displayName": "初入大陆",
    "hidden": 0,
    "description": "踏入名为玛纳的大陆之上",
    "icon": "https://steamcdn-a.akamaihd.net/steamcommunity/public/images/apps/1162010/c5a92eb635dfe6a5cfe693bc0085a2921bc168a6.jpg",
    "icongray": "https://steamcdn-a.akamaihd.net/steamcommunity/public/images/apps/1162010/3f62f364000731e8dda81142699efc829d04faa8.jpg"
  },
  {
    "name": "A2",
    "defaultvalue": 0,
    "displayName": "永恒的爱情",
    "hidden": 0,
    "description": "成功与某人结婚",
    "icon": "https://steamcdn-a.akamaihd.net/steamcommunity/public/images/apps/1162010/df35b62ea9eccd1ea923166e3666ec0964480edf.jpg",
    "icongray": "https://steamcdn-a.akamaihd.net/steamcommunity/public/images/apps/1162010/3df6b022b4c1cfcdcad391f3b837569379c18646.jpg"
  },
  {
    "name": "A3",
    "defaultvalue": 0,
    "displayName": "名将",
    "hidden": 0,
    "description": "累计战绩获得“名将”称号",
    "icon": "https://steamcdn-a.akamaihd.net/steamcommunity/public/images/apps/1162010/7fb06ed96052a7db2a48ec6634db57eedcdc954f.jpg",
    "icongray": "https://steamcdn-a.akamaihd.net/steamcommunity/public/images/apps/1162010/bd1044c4381c00d84eee5a981b2771fd00f5cbd5.jpg"
  },
  {
    "name": "A4",
    "defaultvalue": 0,
    "displayName": "商人",
    "hidden": 0,
    "description": "累计交易金钱,获得“商人”称号",
    "icon": "https://steamcdn-a.akamaihd.net/steamcommunity/public/images/apps/1162010/c504eadbf4760358e67e87b4b231bb2f60826d84.jpg",
    "icongray": "https://steamcdn-a.akamaihd.net/steamcommunity/public/images/apps/1162010/270d4bcd1ecb667fd911a6a73b6e24f257198301.jpg"
  },
  {
    "name": "A5",
    "defaultvalue": 0,
    "displayName": "领主",
    "hidden": 0,
    "description": "拥有一座属于自己的城池，获得“领主”称号",
    "icon": "https://steamcdn-a.akamaihd.net/steamcommunity/public/images/apps/1162010/825c3878653dda1dc90bc03590de90dc6fd306ed.jpg",
    "icongray": "https://steamcdn-a.akamaihd.net/steamcommunity/public/images/apps/1162010/6c2d56ba87e86cfffaecdd5044ebb8ac66245a33.jpg"
  },
  {
    "name": "A6",
    "defaultvalue": 0,
    "displayName": "运气好的孩子有糖吃",
    "hidden": 0,
    "description": "在游戏中欧气爆发,从箱子中开出糖果杖。",
    "icon": "https://steamcdn-a.akamaihd.net/steamcommunity/public/images/apps/1162010/3f3a9468043ee0e2a255be488acabe9160bcac42.jpg",
    "icongray": "https://steamcdn-a.akamaihd.net/steamcommunity/public/images/apps/1162010/fa185b398ee887d782a7d6c4f64904dbca6a4d03.jpg"
  },
  {
    "name": "A7",
    "defaultvalue": 0,
    "displayName": "展现实力",
    "hidden": 0,
    "description": "等级达到10以上。",
    "icon": "https://steamcdn-a.akamaihd.net/steamcommunity/public/images/apps/1162010/b90fccadaeaa4a1fc9d19de34f34ea8e18786568.jpg",
    "icongray": "https://steamcdn-a.akamaihd.net/steamcommunity/public/images/apps/1162010/e9953fd96fca36d711520fbe54b7269b8f34f633.jpg"
  },
  {
    "name": "A8",
    "defaultvalue": 0,
    "displayName": "吃好喝好",
    "hidden": 0,
    "description": "食用过一次丰盛便当",
    "icon": "https://steamcdn-a.akamaihd.net/steamcommunity/public/images/apps/1162010/dba24d57290d0eacb430f6037a05e438cd577895.jpg",
    "icongray": "https://steamcdn-a.akamaihd.net/steamcommunity/public/images/apps/1162010/954dd6e1313943d5811507f1c5a7e73b84205253.jpg"
  },
  {
    "name": "A9",
    "defaultvalue": 0,
    "displayName": "冠军",
    "hidden": 0,
    "description": "夺得斗技场冠军的称号。",
    "icon": "https://steamcdn-a.akamaihd.net/steamcommunity/public/images/apps/1162010/ab2842a733c2e6215fe4bb8d20dae895d9fd359a.jpg",
    "icongray": "https://steamcdn-a.akamaihd.net/steamcommunity/public/images/apps/1162010/ca804c0e166a381d352773c350ab91edc0684b82.jpg"
  },
  {
    "name": "A10",
    "defaultvalue": 0,
    "displayName": "天下无双",
    "hidden": 0,
    "description": "在战场上赢得多次单挑,并且成功以一敌三被号称\"天下无双\"",
    "icon": "https://steamcdn-a.akamaihd.net/steamcommunity/public/images/apps/1162010/29b78f0d72f5f3eee009121b3ce502ba388ba19e.jpg",
    "icongray": "https://steamcdn-a.akamaihd.net/steamcommunity/public/images/apps/1162010/c39b1bdcd5b9defc2f4a40b60bdc461c192195cb.jpg"
  },
  {
    "name": "A11",
    "defaultvalue": 0,
    "displayName": "黄金板砖",
    "hidden": 0,
    "description": "持有一块以上的金锭。",
    "icon": "https://steamcdn-a.akamaihd.net/steamcommunity/public/images/apps/1162010/33645d4de6f797df2ff3e68b9faad1419f5b985f.jpg",
    "icongray": "https://steamcdn-a.akamaihd.net/steamcommunity/public/images/apps/1162010/942ffbbe99c47d8cbc5c0c732a13f5e25b6b028a.jpg"
  },
  {
    "name": "A12",
    "defaultvalue": 0,
    "displayName": "新时代的王者",
    "hidden": 0,
    "description": "自势力拥有10座以上的城池。",
    "icon": "https://steamcdn-a.akamaihd.net/steamcommunity/public/images/apps/1162010/4325f6f1b839ef57109e814002d42ff949e18bfd.jpg",
    "icongray": "https://steamcdn-a.akamaihd.net/steamcommunity/public/images/apps/1162010/0333f7a3fc9c7b73a8129213d8a4c4a5fc22a588.jpg"
  },
  {
    "name": "A13",
    "defaultvalue": 0,
    "displayName": "民以食为天",
    "hidden": 0,
    "description": "累计进食超过100次。",
    "icon": "https://steamcdn-a.akamaihd.net/steamcommunity/public/images/apps/1162010/926cc566de1573b58a3cdc3edcdd40e0c1dbf712.jpg",
    "icongray": "https://steamcdn-a.akamaihd.net/steamcommunity/public/images/apps/1162010/753dd03599cf4dedeb12f8c5cdc0d7caef9321e5.jpg"
  },
  {
    "name": "A14",
    "defaultvalue": 0,
    "displayName": "狙击底牌",
    "hidden": 0,
    "description": "在战场上胜过三大国的最强战力。",
    "icon": "https://steamcdn-a.akamaihd.net/steamcommunity/public/images/apps/1162010/77928aef02f21e5e63376b1e151210f577fc260e.jpg",
    "icongray": "https://steamcdn-a.akamaihd.net/steamcommunity/public/images/apps/1162010/e56c6507c72da017f62a157d107baf4bb1433a0f.jpg"
  },
  {
    "name": "A15",
    "defaultvalue": 0,
    "displayName": "传奇之人",
    "hidden": 0,
    "description": "累计拥有一万名声。",
    "icon": "https://steamcdn-a.akamaihd.net/steamcommunity/public/images/apps/1162010/c02e14e36b272310d89ef270bd91ab07d171f389.jpg",
    "icongray": "https://steamcdn-a.akamaihd.net/steamcommunity/public/images/apps/1162010/75497a00e027006a030c0cf36489b932c0908d7c.jpg"
  },
  {
    "name": "A16",
    "defaultvalue": 0,
    "displayName": "屠龙弑神",
    "hidden": 0,
    "description": "击败黄金圣龙。",
    "icon": "https://steamcdn-a.akamaihd.net/steamcommunity/public/images/apps/1162010/5e0eedae4a90c41ead1d158ad3ab873e7b2e9159.jpg",
    "icongray": "https://steamcdn-a.akamaihd.net/steamcommunity/public/images/apps/1162010/dddd387ed096b6a791613b1b69fbf84594a53ab7.jpg"
  },
  {
    "name": "A17",
    "defaultvalue": 0,
    "displayName": "幸运的垂钓者",
    "hidden": 0,
    "description": "钓上一条金鳞鱼王",
    "icon": "https://steamcdn-a.akamaihd.net/steamcommunity/public/images/apps/1162010/99032fc4b9fb86a9191a8d0ff0f9d37677e9f3f2.jpg",
    "icongray": "https://steamcdn-a.akamaihd.net/steamcommunity/public/images/apps/1162010/fed379885123ef2db4668709822b747f7c9dfb05.jpg"
  },
  {
    "name": "A18",
    "defaultvalue": 0,
    "displayName": "牢狱之灾",
    "hidden": 0,
    "description": "进过一次牢房。",
    "icon": "https://steamcdn-a.akamaihd.net/steamcommunity/public/images/apps/1162010/edcc56ce96d9db5f6fb51082c9a4b99eac7854ca.jpg",
    "icongray": "https://steamcdn-a.akamaihd.net/steamcommunity/public/images/apps/1162010/478ebb1b25ee2d5d0151c0bccc355a349893322b.jpg"
  }
]