{
  "Dlcs": {
    "202412": {
      "Name": "Scoregasm Soundtrack",
      "ImageUrl": "https://steamcdn-a.akamaihd.net/steam/apps/202412/header.jpg?t=1447355346"
    }
  },
  "Name": "Scoregasm",
  "AppId": "202410",
  "ImageUrl": "https://steamcdn-a.akamaihd.net/steam/apps/202410/header.jpg?t=1447354931",
  "Languages": [
    "english"
  ],
  "Platforms": {
    "windows": true,
    "mac": true,
    "linux": false
  }
}