﻿{
  "Dlcs": {},
  "Name": "Kult: Heretic Kingdoms",
  "AppId": "277650",
  "ImageUrl": "https://steamcdn-a.akamaihd.net/steam/apps/277650/header.jpg?t=1447360281",
  "Languages": [
    "english",
    "french",
    "italian",
    "german",
    "spanish",
    "russian"
  ],
  "Platforms": {
    "windows": true,
    "mac": false,
    "linux": false
  }
}