{
  "Dlcs": {},
  "Name": "Digital Rose",
  "AppId": "1067730",
  "ImageUrl": "https://steamcdn-a.akamaihd.net/steam/apps/1067730/header.jpg?t=1570264028",
  "Languages": [
    "english"
  ],
  "Platforms": {
    "windows": true,
    "mac": false,
    "linux": false
  }
}