{
  "Dlcs": {
    "706580": {
      "Name": "Tokyo Dark: Collector’s Upgrade",
      "ImageUrl": "https://steamcdn-a.akamaihd.net/steam/apps/706580/header.jpg?t=1505398427"
    }
  },
  "Name": "Tokyo Dark",
  "AppId": "687260",
  "ImageUrl": "https://steamcdn-a.akamaihd.net/steam/apps/687260/header.jpg?t=1592493925",
  "Languages": [
    "english",
    "japanese"
  ],
  "Platforms": {
    "windows": true,
    "mac": false,
    "linux": false
  }
}