{
  "Dlcs": {},
  "Name": "Journey of the Broken Circle",
  "AppId": "1179620",
  "ImageUrl": "https://steamcdn-a.akamaihd.net/steam/apps/1179620/header.jpg?t=1600444867",
  "Languages": [
    "english",
    "danish",
    "french"
  ],
  "Platforms": {
    "windows": true,
    "mac": true,
    "linux": false
  }
}