{
  "Dlcs": {},
  "Name": "Terrordrome - Reign of the Legends",
  "AppId": "1291170",
  "ImageUrl": "https://steamcdn-a.akamaihd.net/steam/apps/1291170/header.jpg?t=1597252561",
  "Languages": [
    "english"
  ],
  "Platforms": {
    "windows": true,
    "mac": false,
    "linux": false
  }
}