[
  {
    "name": "ACH_START_NEW_GAME",
    "defaultvalue": 0,
    "displayName": "Batter Up!",
    "hidden": 0,
    "description": "Start Story Mode",
    "icon": "https://steamcdn-a.akamaihd.net/steamcommunity/public/images/apps/392100/69d3eed749f6bb28fe00271c868679a701692a80.jpg",
    "icongray": "https://steamcdn-a.akamaihd.net/steamcommunity/public/images/apps/392100/50d88e5e7397e49206cb5222b6555b5d2413becd.jpg"
  },
  {
    "name": "ACH_THE_IMPALER",
    "defaultvalue": 0,
    "displayName": "The Impaler",
    "hidden": 0,
    "description": "Beat Vlad",
    "icon": "https://steamcdn-a.akamaihd.net/steamcommunity/public/images/apps/392100/c68b3b6726816bbb2340a6059437f7d4c5863594.jpg",
    "icongray": "https://steamcdn-a.akamaihd.net/steamcommunity/public/images/apps/392100/9d4ae27d7925703d7a5a552ae4406ebaf302650a.jpg"
  },
  {
    "name": "ACH_BITTER_SWEET",
    "defaultvalue": 0,
    "displayName": "Bitter Sweet",
    "hidden": 0,
    "description": "Beat Donatello",
    "icon": "https://steamcdn-a.akamaihd.net/steamcommunity/public/images/apps/392100/4de0ee5a1639387cccd015fb4e1d4d34cf7e95c1.jpg",
    "icongray": "https://steamcdn-a.akamaihd.net/steamcommunity/public/images/apps/392100/a2e1a7d43757ee1bda0edc9fee85123aec1f7b39.jpg"
  },
  {
    "name": "ACH_THE_DEVS",
    "defaultvalue": 0,
    "displayName": "Beat the Devs",
    "hidden": 0,
    "description": "Beat Matt & Adam",
    "icon": "https://steamcdn-a.akamaihd.net/steamcommunity/public/images/apps/392100/3077fd1d2eefc98fc4c0563a07eebfb1f8f3e692.jpg",
    "icongray": "https://steamcdn-a.akamaihd.net/steamcommunity/public/images/apps/392100/98365e40b12ac42fcee85f8ad6686641d6118a55.jpg"
  },
  {
    "name": "ACH_RELAX",
    "defaultvalue": 0,
    "displayName": "Relax",
    "hidden": 0,
    "description": "Beat Giancarlo",
    "icon": "https://steamcdn-a.akamaihd.net/steamcommunity/public/images/apps/392100/a4f6a2a29fe5b1573b875dda626556087e5627a4.jpg",
    "icongray": "https://steamcdn-a.akamaihd.net/steamcommunity/public/images/apps/392100/88f67c89b43b637ae31c8009abaee1c1dfec0f2e.jpg"
  },
  {
    "name": "ACH_JOE_ASSHOLE",
    "defaultvalue": 0,
    "displayName": "Joe Asshole",
    "hidden": 0,
    "description": "Beat Spectre",
    "icon": "https://steamcdn-a.akamaihd.net/steamcommunity/public/images/apps/392100/9ef0d0b3aff7abb23b77402063217bce506302a8.jpg",
    "icongray": "https://steamcdn-a.akamaihd.net/steamcommunity/public/images/apps/392100/48dd75d52875bbe9403cdd9020e3a787159b0b03.jpg"
  },
  {
    "name": "ACH_HORSE_POWER",
    "defaultvalue": 0,
    "displayName": "Horse Power",
    "hidden": 0,
    "description": "Beat Punchy Mech",
    "icon": "https://steamcdn-a.akamaihd.net/steamcommunity/public/images/apps/392100/589ddf9f6ceeaedaf0b89b1065904daa29e80881.jpg",
    "icongray": "https://steamcdn-a.akamaihd.net/steamcommunity/public/images/apps/392100/43f8c126b80ab3337416b09aea230eb1d1c1ce9f.jpg"
  },
  {
    "name": "ACH_THE_GUTTER",
    "defaultvalue": 0,
    "displayName": "In the Gutter",
    "hidden": 0,
    "description": "Beat Johnny",
    "icon": "https://steamcdn-a.akamaihd.net/steamcommunity/public/images/apps/392100/7d6c84eca8026f97f5de3b3037db246444d78247.jpg",
    "icongray": "https://steamcdn-a.akamaihd.net/steamcommunity/public/images/apps/392100/958deaff6d751e415556db7f993f5c71208d7b0f.jpg"
  },
  {
    "name": "ACH_SUPER_BEAST",
    "defaultvalue": 0,
    "displayName": "Super Beast",
    "hidden": 0,
    "description": "Beat Lilith",
    "icon": "https://steamcdn-a.akamaihd.net/steamcommunity/public/images/apps/392100/29a12540802985b3bf9d4af2b3eab14d9c09dbaa.jpg",
    "icongray": "https://steamcdn-a.akamaihd.net/steamcommunity/public/images/apps/392100/47b16f1227aadba5a4055794725504c2d2c28c54.jpg"
  },
  {
    "name": "ACH_UMBRELLA_STRIKE",
    "defaultvalue": 0,
    "displayName": "Umbrella Strike",
    "hidden": 0,
    "description": "Unlock Umbrella (not the cheat way)",
    "icon": "https://steamcdn-a.akamaihd.net/steamcommunity/public/images/apps/392100/5bee89b29e69784b0a39dd2758520c22e79577ce.jpg",
    "icongray": "https://steamcdn-a.akamaihd.net/steamcommunity/public/images/apps/392100/29a6f5ecebe0c78184a900c18ba42b9309d683b9.jpg"
  },
  {
    "name": "ACH_VLAD",
    "defaultvalue": 0,
    "displayName": "Master Vlad",
    "hidden": 0,
    "description": "Max level up Vlad the Impaler",
    "icon": "https://steamcdn-a.akamaihd.net/steamcommunity/public/images/apps/392100/f470d5e24a309c56c80d277673b31e011d9bc5ad.jpg",
    "icongray": "https://steamcdn-a.akamaihd.net/steamcommunity/public/images/apps/392100/f2e800bbbc20c0f753fb27d1241eec8418e7e711.jpg"
  },
  {
    "name": "ACH_BAT",
    "defaultvalue": 0,
    "displayName": "Master Bat",
    "hidden": 0,
    "description": "Max level up Baseball Bat",
    "icon": "https://steamcdn-a.akamaihd.net/steamcommunity/public/images/apps/392100/2e9d9e858af7e6fd2ba0ade8aa36baa7625aad06.jpg",
    "icongray": "https://steamcdn-a.akamaihd.net/steamcommunity/public/images/apps/392100/68e557d5b75df7f903d0a926b75432b7d2477fc4.jpg"
  },
  {
    "name": "ACH_WHIP",
    "defaultvalue": 0,
    "displayName": "Master Whip",
    "hidden": 0,
    "description": "Max level up Whip",
    "icon": "https://steamcdn-a.akamaihd.net/steamcommunity/public/images/apps/392100/f249f3d4883a55493e38baa88c7c6f9a97143d6d.jpg",
    "icongray": "https://steamcdn-a.akamaihd.net/steamcommunity/public/images/apps/392100/ad7bdc0bc0b4907672637ee0a811a99421ff30f8.jpg"
  },
  {
    "name": "ACH_SWORDS",
    "defaultvalue": 0,
    "displayName": "Master Swords",
    "hidden": 0,
    "description": "Max level up Swords",
    "icon": "https://steamcdn-a.akamaihd.net/steamcommunity/public/images/apps/392100/e6be80225e2f24816e23b93fba0faaa1b905fc7a.jpg",
    "icongray": "https://steamcdn-a.akamaihd.net/steamcommunity/public/images/apps/392100/671dda911e4ef511887155bba60c893ea586c1c0.jpg"
  },
  {
    "name": "ACH_GUANTLETS",
    "defaultvalue": 0,
    "displayName": "Master Guantlets",
    "hidden": 0,
    "description": "Max level up Guantlets",
    "icon": "https://steamcdn-a.akamaihd.net/steamcommunity/public/images/apps/392100/081abda93a6ea6f0f5c0e8370b5d44a8061e09bd.jpg",
    "icongray": "https://steamcdn-a.akamaihd.net/steamcommunity/public/images/apps/392100/4e3aac3d84ee1af84953432d70d7e78e4c6f47d2.jpg"
  },
  {
    "name": "ACH_UMBRELLA",
    "defaultvalue": 0,
    "displayName": "Master Umbrella",
    "hidden": 0,
    "description": "Max level up Umbrella",
    "icon": "https://steamcdn-a.akamaihd.net/steamcommunity/public/images/apps/392100/7884d1ff801a1178fbe0f526581788716f07cfd9.jpg",
    "icongray": "https://steamcdn-a.akamaihd.net/steamcommunity/public/images/apps/392100/30a0921c17d2d3256b69e05a37cbb6a219de5446.jpg"
  },
  {
    "name": "ACH_BLACK_BLADE",
    "defaultvalue": 0,
    "displayName": "Master Black Blade",
    "hidden": 0,
    "description": "Max level up Black Blade",
    "icon": "https://steamcdn-a.akamaihd.net/steamcommunity/public/images/apps/392100/6ff18749cb38289d25a296f47bce53ee44ebd2fc.jpg",
    "icongray": "https://steamcdn-a.akamaihd.net/steamcommunity/public/images/apps/392100/fd3ea076de5f202236fe7fe77bc6944652bf5ded.jpg"
  },
  {
    "name": "ACH_UNSTOPPABLE",
    "defaultvalue": 0,
    "displayName": "UNSTOPPABLE!!!",
    "hidden": 0,
    "description": "Max level up Nick",
    "icon": "https://steamcdn-a.akamaihd.net/steamcommunity/public/images/apps/392100/11ecde5ea0563636e0aa8beed7e6976f2ead6bdc.jpg",
    "icongray": "https://steamcdn-a.akamaihd.net/steamcommunity/public/images/apps/392100/bca76d321a945ad4f76dde51535a71cb2e3a47c0.jpg"
  },
  {
    "name": "ACH_ARCADE",
    "defaultvalue": 0,
    "displayName": "The Hard Way",
    "hidden": 0,
    "description": "Beat Arcade",
    "icon": "https://steamcdn-a.akamaihd.net/steamcommunity/public/images/apps/392100/fc4924ac4e3bd71bae6f7c63548f2a731ea651e6.jpg",
    "icongray": "https://steamcdn-a.akamaihd.net/steamcommunity/public/images/apps/392100/389fb8cab8e137e5c5f06588e8fcbbb1e3c5dd54.jpg"
  },
  {
    "name": "ACH_SURVIVAL",
    "defaultvalue": 0,
    "displayName": "Props!",
    "hidden": 0,
    "description": "300+ on Survival",
    "icon": "https://steamcdn-a.akamaihd.net/steamcommunity/public/images/apps/392100/edef91b293c29bebdc79757b08269b0b4b9d3954.jpg",
    "icongray": "https://steamcdn-a.akamaihd.net/steamcommunity/public/images/apps/392100/ac39eec6630f696e49b1ec7f8c93c2dac4d3f82b.jpg"
  },
  {
    "name": "ACH_COMBO_KING",
    "defaultvalue": 0,
    "displayName": "COMBO KING!",
    "hidden": 0,
    "description": "999+ Hit Combo",
    "icon": "https://steamcdn-a.akamaihd.net/steamcommunity/public/images/apps/392100/355040c686bfa4166d0fe8900ef0d7fca27217e8.jpg",
    "icongray": "https://steamcdn-a.akamaihd.net/steamcommunity/public/images/apps/392100/f32e5615de4a343c7a5c2711f9f51bfecae3cbe5.jpg"
  }
]