[
  {
    "name": "A01_SPECIESGEAR",
    "defaultvalue": 0,
    "displayName": "Fashionista",
    "hidden": 0,
    "description": "Gather all gear created by species.",
    "icon": "https://steamcdn-a.akamaihd.net/steamcommunity/public/images/apps/1042780/52812d1a26f9f3733134de816cde6cead590fdea.jpg",
    "icongray": "https://steamcdn-a.akamaihd.net/steamcommunity/public/images/apps/1042780/13f9a99035162574d59ba11833b35f80cc03df19.jpg"
  },
  {
    "name": "A02_SPECIESTOOLS",
    "defaultvalue": 0,
    "displayName": "Carpenter",
    "hidden": 0,
    "description": "Gather all tools created by species.",
    "icon": "https://steamcdn-a.akamaihd.net/steamcommunity/public/images/apps/1042780/b519c5993118936172a7337976ed3c4e0409c013.jpg",
    "icongray": "https://steamcdn-a.akamaihd.net/steamcommunity/public/images/apps/1042780/17a611303ee4098d7045a476389cce2177910652.jpg"
  },
  {
    "name": "A05_CONDUCTINGLANTERN",
    "defaultvalue": 0,
    "displayName": "Zap Away",
    "hidden": 0,
    "description": "Find the Conducting Lantern Outfinding.",
    "icon": "https://steamcdn-a.akamaihd.net/steamcommunity/public/images/apps/1042780/1b6c95379ccce18449aea88f3de7f416bb5e1883.jpg",
    "icongray": "https://steamcdn-a.akamaihd.net/steamcommunity/public/images/apps/1042780/66ac054dded0367ab760e38d7182fb61ff0d6fc3.jpg"
  },
  {
    "name": "A06_SCOUTINGLENS",
    "defaultvalue": 0,
    "displayName": "See Ahead",
    "hidden": 0,
    "description": "Find the Scouting Lens Outfinding.",
    "icon": "https://steamcdn-a.akamaihd.net/steamcommunity/public/images/apps/1042780/9b61424f847a6771062792e41b03ee313f165a53.jpg",
    "icongray": "https://steamcdn-a.akamaihd.net/steamcommunity/public/images/apps/1042780/57659bedd574035d3d8f7a4c2bbe7b4b721153cf.jpg"
  },
  {
    "name": "A07_TAMINGBANDS",
    "defaultvalue": 0,
    "displayName": "Riding Off",
    "hidden": 0,
    "description": "Find the Taming Bands Outfinding.",
    "icon": "https://steamcdn-a.akamaihd.net/steamcommunity/public/images/apps/1042780/404d632d4bfc8eeb3bd4660f8c1f7c1a8a8eb4a9.jpg",
    "icongray": "https://steamcdn-a.akamaihd.net/steamcommunity/public/images/apps/1042780/223597357060a3fca996044bd0f23c4223318d47.jpg"
  },
  {
    "name": "A08_ALLMIXTURES",
    "defaultvalue": 0,
    "displayName": "Potion Master",
    "hidden": 0,
    "description": "Have every mixture crafted at least once.",
    "icon": "https://steamcdn-a.akamaihd.net/steamcommunity/public/images/apps/1042780/bab124bf1a1f5cfc98f3a763fb9aed5835f5f50c.jpg",
    "icongray": "https://steamcdn-a.akamaihd.net/steamcommunity/public/images/apps/1042780/bdbf2bb22772ce0739cb9b3f42271f957305e906.jpg"
  },
  {
    "name": "A23_BEAGALITESET",
    "defaultvalue": 0,
    "displayName": "Grob's Support",
    "hidden": 0,
    "description": "Collect and wear the full Beagalite set.",
    "icon": "https://steamcdn-a.akamaihd.net/steamcommunity/public/images/apps/1042780/06c03d9411e9d9bb2f4041367253392b0bfd6226.jpg",
    "icongray": "https://steamcdn-a.akamaihd.net/steamcommunity/public/images/apps/1042780/156a4efbeccffdf14cf774601de8ac2d48661883.jpg"
  },
  {
    "name": "A03_ALLGRAPHITE",
    "defaultvalue": 0,
    "displayName": "Keyholder",
    "hidden": 0,
    "description": "Gather all Key Graphite you can find on the island.",
    "icon": "https://steamcdn-a.akamaihd.net/steamcommunity/public/images/apps/1042780/7ea56d31b16dd386745540c23405802589aebe75.jpg",
    "icongray": "https://steamcdn-a.akamaihd.net/steamcommunity/public/images/apps/1042780/a428f6e60b6d4f5906b67f2cb7e2ffe10ecdbdca.jpg"
  },
  {
    "name": "A04_ALLORBS",
    "defaultvalue": 0,
    "displayName": "Collector's Dream",
    "hidden": 0,
    "description": "Gather all Amphiscus Orbs.",
    "icon": "https://steamcdn-a.akamaihd.net/steamcommunity/public/images/apps/1042780/36a64170ac89385cef5fe2109f9f1fb252095b4c.jpg",
    "icongray": "https://steamcdn-a.akamaihd.net/steamcommunity/public/images/apps/1042780/56dd21ecb64ad6c266275621af0449d56ec61e90.jpg"
  },
  {
    "name": "A10_ALLCHESTS",
    "defaultvalue": 0,
    "displayName": "Take This",
    "hidden": 0,
    "description": "Open all Albamare chests in the open world.",
    "icon": "https://steamcdn-a.akamaihd.net/steamcommunity/public/images/apps/1042780/3e6ec7b3f7595dc37c3145edfd4f65855f99f2bf.jpg",
    "icongray": "https://steamcdn-a.akamaihd.net/steamcommunity/public/images/apps/1042780/757e8d645d24960a38a6d62ddc01fa7922f55499.jpg"
  },
  {
    "name": "A11_ALLCAVES",
    "defaultvalue": 0,
    "displayName": "Cave Dweller",
    "hidden": 0,
    "description": "Visit all caves at least once.",
    "icon": "https://steamcdn-a.akamaihd.net/steamcommunity/public/images/apps/1042780/2603ba83a66eb333bfd9b8f9b0c93c3d5e09e096.jpg",
    "icongray": "https://steamcdn-a.akamaihd.net/steamcommunity/public/images/apps/1042780/9d712c0411c0c40f9fe628fd527e2a0bd4030880.jpg"
  },
  {
    "name": "A13_FINISHGAME",
    "defaultvalue": 0,
    "displayName": "A New Home",
    "hidden": 0,
    "description": "Finish Hue's main story.",
    "icon": "https://steamcdn-a.akamaihd.net/steamcommunity/public/images/apps/1042780/2d45f56ff9d02ff924b3da7becc918e4effd16fa.jpg",
    "icongray": "https://steamcdn-a.akamaihd.net/steamcommunity/public/images/apps/1042780/d7d9b01814b9816b8e9f350d83b6880e1e9b7ef5.jpg"
  },
  {
    "name": "A17_RAIDREPTILES",
    "defaultvalue": 0,
    "displayName": "Battle of the Reptiles",
    "hidden": 0,
    "description": "Trigger a raid between the Litter and Krocker species.",
    "icon": "https://steamcdn-a.akamaihd.net/steamcommunity/public/images/apps/1042780/ca23b2a0ff14a88d9e6c9e02b8e2e376fa1ca27a.jpg",
    "icongray": "https://steamcdn-a.akamaihd.net/steamcommunity/public/images/apps/1042780/2a1160271ad02593526fa1348380c7f3e954fbbe.jpg"
  }
]