[
  {
    "name": "ach_1",
    "defaultvalue": 0,
    "displayName": "RESILIENCE",
    "hidden": 0,
    "description": "SURVIVE AN EVENT, NO CLASS MODS",
    "icon": "https://steamcdn-a.akamaihd.net/steamcommunity/public/images/apps/515570/be4696f2694a9db88a7a86ad6510bb9d53829af4.jpg",
    "icongray": "https://steamcdn-a.akamaihd.net/steamcommunity/public/images/apps/515570/7db951d6952aa98a35e32f5c702dae8ac11b7ac7.jpg"
  },
  {
    "name": "ach_2",
    "defaultvalue": 0,
    "displayName": "DESTRUCTION",
    "hidden": 0,
    "description": "SCORE 400+, NO CLASS MODS",
    "icon": "https://steamcdn-a.akamaihd.net/steamcommunity/public/images/apps/515570/108362ff2c24d9b8d26a5b9df02377289dcc345a.jpg",
    "icongray": "https://steamcdn-a.akamaihd.net/steamcommunity/public/images/apps/515570/7db951d6952aa98a35e32f5c702dae8ac11b7ac7.jpg"
  },
  {
    "name": "ach_3",
    "defaultvalue": 0,
    "displayName": "KENSAI RESILIENCE",
    "hidden": 0,
    "description": "SURVIVE AN EVENT, KENSAI CLASS MOD",
    "icon": "https://steamcdn-a.akamaihd.net/steamcommunity/public/images/apps/515570/d0f20af216e95088b7e834c92e8e7c0221435c0c.jpg",
    "icongray": "https://steamcdn-a.akamaihd.net/steamcommunity/public/images/apps/515570/5087f57cfd35da83cb774330d13cbbc80eb94c1e.jpg"
  },
  {
    "name": "ach_4",
    "defaultvalue": 0,
    "displayName": "KENSAI DESTRUCTION",
    "hidden": 0,
    "description": "SCORE 400+, KENSAI CLASS MOD",
    "icon": "https://steamcdn-a.akamaihd.net/steamcommunity/public/images/apps/515570/14ccad4641289a2de9e01c8154692376175ec333.jpg",
    "icongray": "https://steamcdn-a.akamaihd.net/steamcommunity/public/images/apps/515570/5087f57cfd35da83cb774330d13cbbc80eb94c1e.jpg"
  },
  {
    "name": "ach_5",
    "defaultvalue": 0,
    "displayName": "GUNNER RESILIENCE",
    "hidden": 0,
    "description": "SURVIVE AN EVENT, GUNNER CLASS MOD",
    "icon": "https://steamcdn-a.akamaihd.net/steamcommunity/public/images/apps/515570/735dc909178c6b19e3a1c6fca4eb3acd52f07c2f.jpg",
    "icongray": "https://steamcdn-a.akamaihd.net/steamcommunity/public/images/apps/515570/7d160c29e8c4ba5cced4b8b38e464ffaa7749295.jpg"
  },
  {
    "name": "ach_6",
    "defaultvalue": 0,
    "displayName": "GUNNER DESTRUCTION",
    "hidden": 0,
    "description": "SCORE 400+, GUNNER CLASS MOD",
    "icon": "https://steamcdn-a.akamaihd.net/steamcommunity/public/images/apps/515570/4dcbebc3d0caae72393992933d60ac39540abc7a.jpg",
    "icongray": "https://steamcdn-a.akamaihd.net/steamcommunity/public/images/apps/515570/7d160c29e8c4ba5cced4b8b38e464ffaa7749295.jpg"
  },
  {
    "name": "ach_7",
    "defaultvalue": 0,
    "displayName": "WARLOCK RESILIENCE",
    "hidden": 0,
    "description": "SURVIVE AN EVENT, WARLOCK CLASS MOD",
    "icon": "https://steamcdn-a.akamaihd.net/steamcommunity/public/images/apps/515570/eb3169d8876e86e8c3b2f8262a5fb3cc6ff200fa.jpg",
    "icongray": "https://steamcdn-a.akamaihd.net/steamcommunity/public/images/apps/515570/da9f077ff0e61aed7dc0a01abf3b4552fb65d387.jpg"
  },
  {
    "name": "ach_8",
    "defaultvalue": 0,
    "displayName": "WARLOCK DESTRUCTION",
    "hidden": 0,
    "description": "SCORE 400+, WARLOCK CLASS MOD",
    "icon": "https://steamcdn-a.akamaihd.net/steamcommunity/public/images/apps/515570/db3aac013d8dbb0c473eaf4d13d1d1d4544fdea8.jpg",
    "icongray": "https://steamcdn-a.akamaihd.net/steamcommunity/public/images/apps/515570/da9f077ff0e61aed7dc0a01abf3b4552fb65d387.jpg"
  },
  {
    "name": "ach_9",
    "defaultvalue": 0,
    "displayName": "CATALYST RESILIENCE",
    "hidden": 0,
    "description": "SURVIVE AN EVENT, CATALYST CLASS MOD",
    "icon": "https://steamcdn-a.akamaihd.net/steamcommunity/public/images/apps/515570/d041b4398ed8f35396cbe7ead61ce7d364faa7d7.jpg",
    "icongray": "https://steamcdn-a.akamaihd.net/steamcommunity/public/images/apps/515570/3178b7ee2fe7c833f270aa580b80f0bb02520c50.jpg"
  },
  {
    "name": "ach_10",
    "defaultvalue": 0,
    "displayName": "CATALYST DESTRUCTION",
    "hidden": 0,
    "description": "SCORE 400+, CATALYST CLASS MOD",
    "icon": "https://steamcdn-a.akamaihd.net/steamcommunity/public/images/apps/515570/5494b9b4a82dde87857e6bfdc77781a1bfe2a7d5.jpg",
    "icongray": "https://steamcdn-a.akamaihd.net/steamcommunity/public/images/apps/515570/3178b7ee2fe7c833f270aa580b80f0bb02520c50.jpg"
  },
  {
    "name": "ach_11",
    "defaultvalue": 0,
    "displayName": "PSYKER RESILIENCE",
    "hidden": 0,
    "description": "SURVIVE AN EVENT, PSYKER CLASS MOD",
    "icon": "https://steamcdn-a.akamaihd.net/steamcommunity/public/images/apps/515570/8ca9990284835d7eba8b3e6aa49de69a60d49dea.jpg",
    "icongray": "https://steamcdn-a.akamaihd.net/steamcommunity/public/images/apps/515570/f9288b17da69238abee67f783648e06961a7dd82.jpg"
  },
  {
    "name": "ach_12",
    "defaultvalue": 0,
    "displayName": "PSYKER DESTRUCTION",
    "hidden": 0,
    "description": "SCORE 400+, PSYKER CLASS MOD",
    "icon": "https://steamcdn-a.akamaihd.net/steamcommunity/public/images/apps/515570/aee5df298e48e3cd4c00b795735dc59b53275b5a.jpg",
    "icongray": "https://steamcdn-a.akamaihd.net/steamcommunity/public/images/apps/515570/f9288b17da69238abee67f783648e06961a7dd82.jpg"
  },
  {
    "name": "ach_13",
    "defaultvalue": 0,
    "displayName": "ENLIGHTENMENT",
    "hidden": 0,
    "description": "SCORE 800+",
    "icon": "https://steamcdn-a.akamaihd.net/steamcommunity/public/images/apps/515570/770bdf9c64596baf7739fc1983f2b8364191da03.jpg",
    "icongray": "https://steamcdn-a.akamaihd.net/steamcommunity/public/images/apps/515570/da1f2eada62082ada8991921c139b1c04028dcc4.jpg"
  }
]