{
  "Dlcs": {},
  "Name": "Idle Racing GO: Clicker Tycoon",
  "AppId": "851110",
  "ImageUrl": "https://steamcdn-a.akamaihd.net/steam/apps/851110/header.jpg?t=1600264735",
  "Languages": [
    "english",
    "german",
    "spanish",
    "japanese",
    "korean",
    "polish",
    "portuguese",
    "russian",
    "thai",
    "turkish",
    "french"
  ],
  "Platforms": {
    "windows": true,
    "mac": true,
    "linux": false
  }
}