{
  "Dlcs": {},
  "Name": "Whirligig VR Media Player",
  "AppId": "451650",
  "ImageUrl": "https://steamcdn-a.akamaihd.net/steam/apps/451650/header.jpg?t=1593622630",
  "Languages": [
    "english"
  ],
  "Platforms": {
    "windows": true,
    "mac": false,
    "linux": false
  }
}