{
  "Dlcs": {},
  "Name": "Split Of Knight",
  "AppId": "590940",
  "ImageUrl": "https://steamcdn-a.akamaihd.net/steam/apps/590940/header.jpg?t=1569918904",
  "Languages": [
    "english"
  ],
  "Platforms": {
    "windows": true,
    "mac": false,
    "linux": false
  }
}