[
  {
    "name": "green",
    "defaultvalue": 0,
    "displayName": "Green",
    "hidden": 0,
    "description": "Restored Green",
    "icon": "https://steamcdn-a.akamaihd.net/steamcommunity/public/images/apps/933860/dee7546dd078fe4f188e08626ad709a229694762.jpg",
    "icongray": "https://steamcdn-a.akamaihd.net/steamcommunity/public/images/apps/933860/06691b92fb0672ef6fe8876ad234afc884e643f6.jpg"
  },
  {
    "name": "blue",
    "defaultvalue": 0,
    "displayName": "Blue",
    "hidden": 0,
    "description": "Restored Blue",
    "icon": "https://steamcdn-a.akamaihd.net/steamcommunity/public/images/apps/933860/49a79297e7046f8030c60f7a3cbdfd52014e9e3e.jpg",
    "icongray": "https://steamcdn-a.akamaihd.net/steamcommunity/public/images/apps/933860/0e163d5733d2955a3551739379f85ebd4f9b2f49.jpg"
  },
  {
    "name": "red",
    "defaultvalue": 0,
    "displayName": "Red",
    "hidden": 0,
    "description": "Restored Red",
    "icon": "https://steamcdn-a.akamaihd.net/steamcommunity/public/images/apps/933860/04c02b4e2be58b1da24cfb4136b9f6cc2c624f1f.jpg",
    "icongray": "https://steamcdn-a.akamaihd.net/steamcommunity/public/images/apps/933860/68cacf5ec970e3cbd482657f7ae63371f172ae50.jpg"
  },
  {
    "name": "loop",
    "defaultvalue": 0,
    "displayName": "Loop",
    "hidden": 1,
    "icon": "https://steamcdn-a.akamaihd.net/steamcommunity/public/images/apps/933860/629a09dd8609657a9208afb0344135c6c8f98720.jpg",
    "icongray": "https://steamcdn-a.akamaihd.net/steamcommunity/public/images/apps/933860/dc59bc700ceb0ab39bfa5cfdf7fc04ecbf49588a.jpg"
  },
  {
    "name": "moon",
    "defaultvalue": 0,
    "displayName": "Stealing the Moon",
    "hidden": 1,
    "icon": "https://steamcdn-a.akamaihd.net/steamcommunity/public/images/apps/933860/c6245c9dbc89a6afb768b1a996378bc8a8975d01.jpg",
    "icongray": "https://steamcdn-a.akamaihd.net/steamcommunity/public/images/apps/933860/c90e4f254d5b6195fbcbc6dd7ab9aa770a871fe1.jpg"
  },
  {
    "name": "phone",
    "defaultvalue": 0,
    "displayName": "Dialing Out",
    "hidden": 1,
    "icon": "https://steamcdn-a.akamaihd.net/steamcommunity/public/images/apps/933860/244645bb066f03f368e5530ea6fe52a2b23d9a1e.jpg",
    "icongray": "https://steamcdn-a.akamaihd.net/steamcommunity/public/images/apps/933860/bbf08e0b5006ab68221db2d7aef92ca1b9931b06.jpg"
  },
  {
    "name": "tv",
    "defaultvalue": 0,
    "displayName": "Signal",
    "hidden": 1,
    "icon": "https://steamcdn-a.akamaihd.net/steamcommunity/public/images/apps/933860/40e182c71c38df57a805a623c1c093d2e1836a47.jpg",
    "icongray": "https://steamcdn-a.akamaihd.net/steamcommunity/public/images/apps/933860/2184ebc55a282c7fee82fca2479ca7250e36223a.jpg"
  },
  {
    "name": "evilmoon",
    "defaultvalue": 0,
    "displayName": "Evil Moon",
    "hidden": 1,
    "icon": "https://steamcdn-a.akamaihd.net/steamcommunity/public/images/apps/933860/464b1bf5a57c1d189de4e216d508bc5f93f39ef3.jpg",
    "icongray": "https://steamcdn-a.akamaihd.net/steamcommunity/public/images/apps/933860/5e6c3417470c8d8c5fc61ee60fec917cf77f29b3.jpg"
  },
  {
    "name": "morning",
    "defaultvalue": 0,
    "displayName": "Full Spectrum",
    "hidden": 1,
    "icon": "https://steamcdn-a.akamaihd.net/steamcommunity/public/images/apps/933860/50eb49283e4963db886586d0056aa438c9663123.jpg",
    "icongray": "https://steamcdn-a.akamaihd.net/steamcommunity/public/images/apps/933860/132364e1dd5e6c4f553cf64ab7f31434b970781e.jpg"
  },
  {
    "name": "envelope",
    "defaultvalue": 0,
    "displayName": "Unfinished",
    "hidden": 1,
    "icon": "https://steamcdn-a.akamaihd.net/steamcommunity/public/images/apps/933860/90867e407a334780d07e2a86a241b74fcfb45240.jpg",
    "icongray": "https://steamcdn-a.akamaihd.net/steamcommunity/public/images/apps/933860/a8d13cd8094bb3d071ff16bff89a33b468a839b7.jpg"
  },
  {
    "name": "intro",
    "defaultvalue": 0,
    "displayName": "Spies",
    "hidden": 1,
    "icon": "https://steamcdn-a.akamaihd.net/steamcommunity/public/images/apps/933860/fe1855e4e6baa6be56c80ec84009f9d352f252a8.jpg",
    "icongray": "https://steamcdn-a.akamaihd.net/steamcommunity/public/images/apps/933860/f25459b1a725becd2396c2046f0747d50ec3d349.jpg"
  },
  {
    "name": "watched",
    "defaultvalue": 0,
    "displayName": "Watched",
    "hidden": 1,
    "icon": "https://steamcdn-a.akamaihd.net/steamcommunity/public/images/apps/933860/3a06d82ffcc9a21667db655da6a7e275c4fe60a7.jpg",
    "icongray": "https://steamcdn-a.akamaihd.net/steamcommunity/public/images/apps/933860/f25459b1a725becd2396c2046f0747d50ec3d349.jpg"
  },
  {
    "name": "radio",
    "defaultvalue": 0,
    "displayName": "Tuning In",
    "hidden": 1,
    "icon": "https://steamcdn-a.akamaihd.net/steamcommunity/public/images/apps/933860/191e8aa4b331fd193bd11cb04a1ea79d85332d38.jpg",
    "icongray": "https://steamcdn-a.akamaihd.net/steamcommunity/public/images/apps/933860/21dde070c66f8c5708b8e79d13141f73e219d4c5.jpg"
  },
  {
    "name": "ACH_SG1",
    "defaultvalue": 0,
    "displayName": "Secret Glimpses (Part 1)",
    "hidden": 1,
    "icon": "https://steamcdn-a.akamaihd.net/steamcommunity/public/images/apps/933860/0794d5e093ab6339b4354caee225f8b3ced984fa.jpg",
    "icongray": "https://steamcdn-a.akamaihd.net/steamcommunity/public/images/apps/933860/9ba9855008739470c004202ad1b9330724190199.jpg"
  },
  {
    "name": "ACH_SG2",
    "defaultvalue": 0,
    "displayName": "Secret Glimpses (Part 2)",
    "hidden": 1,
    "icon": "https://steamcdn-a.akamaihd.net/steamcommunity/public/images/apps/933860/33e1daa40f06db57a21464f045a3ae64d14ae161.jpg",
    "icongray": "https://steamcdn-a.akamaihd.net/steamcommunity/public/images/apps/933860/9ba9855008739470c004202ad1b9330724190199.jpg"
  },
  {
    "name": "ACH_SG3",
    "defaultvalue": 0,
    "displayName": "Secret Glimpses (Part 3)",
    "hidden": 1,
    "icon": "https://steamcdn-a.akamaihd.net/steamcommunity/public/images/apps/933860/28123044bad3e74dd65ca7375935c749ded90427.jpg",
    "icongray": "https://steamcdn-a.akamaihd.net/steamcommunity/public/images/apps/933860/9ba9855008739470c004202ad1b9330724190199.jpg"
  }
]