[
  {
    "name": "Match3Count",
    "defaultvalue": 0,
    "displayName": "Match 3 count"
  },
  {
    "name": "Match4Count",
    "defaultvalue": 0,
    "displayName": "Match 4 count"
  },
  {
    "name": "Match5Count",
    "defaultvalue": 0,
    "displayName": "Match 5 count"
  },
  {
    "name": "Match6Count",
    "defaultvalue": 0,
    "displayName": "Match 6 count"
  },
  {
    "name": "PushBlockKills",
    "defaultvalue": 0,
    "displayName": "Push Block Kills"
  },
  {
    "name": "BombKills",
    "defaultvalue": 0,
    "displayName": "Bomb Kills"
  },
  {
    "name": "ThrowBlockKills",
    "defaultvalue": 0,
    "displayName": "Throw Block Kills"
  },
  {
    "name": "DiamondsTaken",
    "defaultvalue": 0,
    "displayName": "Diamonds taken"
  },
  {
    "name": "DeathTypes",
    "defaultvalue": 0,
    "displayName": "Death types"
  },
  {
    "name": "ComboMonstersTotal",
    "defaultvalue": 0,
    "displayName": "Total number of monsters in combo kills"
  },
  {
    "name": "Combo6Count",
    "defaultvalue": 0,
    "displayName": "Number of 6-multikills"
  }
]