{
  "Dlcs": {},
  "Name": "Quadle",
  "AppId": "384210",
  "ImageUrl": "https://steamcdn-a.akamaihd.net/steam/apps/384210/header.jpg?t=1569001580",
  "Languages": [
    "english"
  ],
  "Platforms": {
    "windows": true,
    "mac": false,
    "linux": false
  }
}