{
  "Dlcs": {},
  "Name": "The Adventures of Team Australia",
  "AppId": "951100",
  "ImageUrl": "https://steamcdn-a.akamaihd.net/steam/apps/951100/header.jpg?t=1540796710",
  "Languages": [
    "english"
  ],
  "Platforms": {
    "windows": true,
    "mac": false,
    "linux": false
  }
}