﻿{
  "Dlcs": {},
  "Name": "Zoombinis",
  "AppId": "397430",
  "ImageUrl": "https://steamcdn-a.akamaihd.net/steam/apps/397430/header.jpg?t=1455213399",
  "Languages": [
    "english",
    "spanish"
  ],
  "Platforms": {
    "windows": true,
    "mac": true,
    "linux": false
  }
}