{
  "Dlcs": {},
  "Name": "Project Nightmares Case 36: Henrietta Kedward",
  "AppId": "812070",
  "ImageUrl": "https://steamcdn-a.akamaihd.net/steam/apps/812070/header.jpg?t=1599151690",
  "Languages": [
    "english",
    "spanish",
    "portuguese",
    "russian",
    "german",
    "hungarian",
    "portuguese"
  ],
  "Platforms": {
    "windows": true,
    "mac": false,
    "linux": false
  }
}