[
  {
    "name": "ACH_FINISHDEMO",
    "defaultvalue": 0,
    "displayName": "Until it ends",
    "hidden": 0,
    "description": "Finish the first level",
    "icon": "https://steamcdn-a.akamaihd.net/steamcommunity/public/images/apps/812070/b27b187d6aa11d3d27153c9178b02eb3ec9ece54.jpg",
    "icongray": "https://steamcdn-a.akamaihd.net/steamcommunity/public/images/apps/812070/b03c852850ee3ed1751cbc8825683a04f89434de.jpg"
  },
  {
    "name": "ACH_HENRIETTA1",
    "defaultvalue": 0,
    "displayName": "Blind",
    "hidden": 0,
    "description": "Finish the level without been detected by Henrietta",
    "icon": "https://steamcdn-a.akamaihd.net/steamcommunity/public/images/apps/812070/0ba58b6d3897b74cb014b3f0eac710958112a2ca.jpg",
    "icongray": "https://steamcdn-a.akamaihd.net/steamcommunity/public/images/apps/812070/2cf57410f45aa10694f2fe9c2fe01839bb419b14.jpg"
  },
  {
    "name": "ACH_SECUNDARIA_TRAIN",
    "defaultvalue": 0,
    "displayName": "A toy for a child",
    "hidden": 0,
    "description": "Find the toy train",
    "icon": "https://steamcdn-a.akamaihd.net/steamcommunity/public/images/apps/812070/6a324916eb053056b1210c86e844afa4e81fdf36.jpg",
    "icongray": "https://steamcdn-a.akamaihd.net/steamcommunity/public/images/apps/812070/861394c97bda98af7014bdb8c3f83cf9cc9ad8d7.jpg"
  },
  {
    "name": "ACH_SECUNDARIA_MASK",
    "defaultvalue": 0,
    "displayName": "Covered faces",
    "hidden": 0,
    "description": "Find the 4 lost masks in the house",
    "icon": "https://steamcdn-a.akamaihd.net/steamcommunity/public/images/apps/812070/07a2a23664f03e42200ca0c31aa273222eec81c4.jpg",
    "icongray": "https://steamcdn-a.akamaihd.net/steamcommunity/public/images/apps/812070/3bbe694d267ead7da97e5c8d6985bb820c12299f.jpg"
  }
]