﻿{
  "Dlcs": {},
  "Name": "House on the Hill",
  "AppId": "1239050",
  "ImageUrl": "https://steamcdn-a.akamaihd.net/steam/apps/1239050/header.jpg?t=1599635213",
  "Languages": [
    "english",
    "schinese",
    "russian"
  ],
  "Platforms": {
    "windows": true,
    "mac": false,
    "linux": false
  }
}