[
  {
    "name": "CD_STAT_TURTLE",
    "defaultvalue": 0,
    "displayName": "Turtles needlessly slaughtered"
  },
  {
    "name": "CD_STAT_BOSS",
    "defaultvalue": 0,
    "displayName": "Boss monsters murdered"
  },
  {
    "name": "CD_STAT_GRUNT",
    "defaultvalue": 0,
    "displayName": "Grunts dispatched"
  },
  {
    "name": "CD_STAT_DRAGON",
    "defaultvalue": 0,
    "displayName": "Dragons slayed"
  },
  {
    "name": "CD_STAT_PIL",
    "defaultvalue": 0,
    "displayName": "Number of steps taken"
  },
  {
    "name": "CD_STAT_LAVA",
    "defaultvalue": 0,
    "displayName": "Creatures burned to dead in lava"
  },
  {
    "name": "CD_STAT_SCHIZ",
    "defaultvalue": 2,
    "displayName": "Traits collected"
  },
  {
    "name": "CD_STAT_MEGA",
    "defaultvalue": 0,
    "displayName": "Nethermist creatures repelled"
  },
  {
    "name": "CD_STAT_SHOP",
    "defaultvalue": 0,
    "displayName": "Shopkeepers visited"
  },
  {
    "name": "CD_STAT_STYLE",
    "defaultvalue": 0,
    "displayName": "Sombreros worn"
  },
  {
    "name": "CD_STAT_TELE",
    "defaultvalue": 0,
    "displayName": "Teleported yourself"
  },
  {
    "name": "CD_STAT_TREASURE",
    "defaultvalue": 0,
    "displayName": "Treasure chests opened"
  },
  {
    "name": "CD_STAT_HEAR",
    "defaultvalue": 0,
    "displayName": "Number of times all players have used the fonts"
  },
  {
    "name": "CD_STAT_GENO",
    "defaultvalue": 0,
    "displayName": "Number creatures slaughtered by all players"
  },
  {
    "name": "CD_STAT_WEALTH",
    "defaultvalue": 0,
    "displayName": "Amount of gold collected by all players"
  },
  {
    "name": "CD_STAT_CLONES",
    "defaultvalue": 0,
    "displayName": "Number of Crusaders created by all players"
  },
  {
    "name": "CD_STAT_SHARK",
    "defaultvalue": 0,
    "displayName": "Kill a moleshark"
  }
]