{
  "Dlcs": {},
  "Name": "Mystiqa",
  "AppId": "1265500",
  "ImageUrl": "https://steamcdn-a.akamaihd.net/steam/apps/1265500/header.jpg?t=1600435116",
  "Languages": [
    "english",
    "german"
  ],
  "Platforms": {
    "windows": true,
    "mac": true,
    "linux": true
  }
}