[
  {
    "name": "ACHIEVEMENT_COIN",
    "defaultvalue": 0,
    "displayName": "Collector",
    "hidden": 0,
    "description": "Collect all coins in chapter 1",
    "icon": "https://steamcdn-a.akamaihd.net/steamcommunity/public/images/apps/604450/75f851f21bbce3b7669d47ff91e82af66a0bd181.jpg",
    "icongray": "https://steamcdn-a.akamaihd.net/steamcommunity/public/images/apps/604450/03c193ca5d6bfabcb9dc2b72efe5ce45176b5f25.jpg"
  },
  {
    "name": "ACHIEVEMENT_HACKER",
    "defaultvalue": 0,
    "displayName": "Hacker",
    "hidden": 0,
    "description": "Those that understand binary",
    "icon": "https://steamcdn-a.akamaihd.net/steamcommunity/public/images/apps/604450/c95a386a53de3a62c1997934ffdead6a6766dee6.jpg",
    "icongray": "https://steamcdn-a.akamaihd.net/steamcommunity/public/images/apps/604450/c360bb98737dc3ffc33d30e71646c41038581487.jpg"
  },
  {
    "name": "ACHIEVEMENT_HEART",
    "defaultvalue": 0,
    "displayName": "Heart purified",
    "hidden": 0,
    "description": "You have purified your heart successfully",
    "icon": "https://steamcdn-a.akamaihd.net/steamcommunity/public/images/apps/604450/6c1b4ab6ab12756b703e3a456cb5e814c0c4b320.jpg",
    "icongray": "https://steamcdn-a.akamaihd.net/steamcommunity/public/images/apps/604450/5662cf04ad4d8a407d160359e162599cef3cdb8f.jpg"
  },
  {
    "name": "ACHIEVEMENT_PROCRASTINATOR",
    "defaultvalue": 0,
    "displayName": "Procrastinator",
    "hidden": 0,
    "description": "Become a procrastinator in chapter 4",
    "icon": "https://steamcdn-a.akamaihd.net/steamcommunity/public/images/apps/604450/b9145f2abcb5fcdb6821cb892b5d9e31d0bee811.jpg",
    "icongray": "https://steamcdn-a.akamaihd.net/steamcommunity/public/images/apps/604450/39e62854f8fd3c2efbf03c2fb2e05f6e23e948a4.jpg"
  },
  {
    "name": "ACHIEVEMENT_ANOTHER_ADVENTURE",
    "defaultvalue": 0,
    "displayName": "Another Adventure",
    "hidden": 0,
    "description": "Maybe this is just another uncharted adventure",
    "icon": "https://steamcdn-a.akamaihd.net/steamcommunity/public/images/apps/604450/995af0335b9dd5a7a3fd9aa7b23e8e023c86cdc8.jpg",
    "icongray": "https://steamcdn-a.akamaihd.net/steamcommunity/public/images/apps/604450/20bc9a317e5817609bbfd75ad6089d48d503372b.jpg"
  }
]