{
  "Dlcs": {},
  "Name": "Dolmen",
  "AppId": "831050",
  "ImageUrl": "https://steamcdn-a.akamaihd.net/steam/apps/831050/header.jpg?t=1599498931",
  "Languages": [
    "english",
    "portuguese"
  ],
  "Platforms": {
    "windows": true,
    "mac": false,
    "linux": false
  }
}