[
  {
    "name": "phonething",
    "defaultvalue": 0,
    "displayName": "That Phone Thing",
    "hidden": 0,
    "description": "Make a clichéd phone call.",
    "icon": "https://steamcdn-a.akamaihd.net/steamcommunity/public/images/apps/1029150/639d976c7cdbdf684e8cd466ff2ac4360df2077c.jpg",
    "icongray": "https://steamcdn-a.akamaihd.net/steamcommunity/public/images/apps/1029150/8554c4b5eb18e484a11a9ceadb04b5eb8403f9c5.jpg"
  },
  {
    "name": "clownin",
    "defaultvalue": 0,
    "displayName": "Clownin' Around",
    "hidden": 0,
    "description": "Llama smuggling is a crime.",
    "icon": "https://steamcdn-a.akamaihd.net/steamcommunity/public/images/apps/1029150/ea8e9f5bc2cdaf139ea01b415c7f48b7820dc2f5.jpg",
    "icongray": "https://steamcdn-a.akamaihd.net/steamcommunity/public/images/apps/1029150/8554c4b5eb18e484a11a9ceadb04b5eb8403f9c5.jpg"
  },
  {
    "name": "intern",
    "defaultvalue": 0,
    "displayName": "Intern",
    "hidden": 0,
    "description": "Apply yourself.",
    "icon": "https://steamcdn-a.akamaihd.net/steamcommunity/public/images/apps/1029150/ea8e9f5bc2cdaf139ea01b415c7f48b7820dc2f5.jpg",
    "icongray": "https://steamcdn-a.akamaihd.net/steamcommunity/public/images/apps/1029150/8554c4b5eb18e484a11a9ceadb04b5eb8403f9c5.jpg"
  },
  {
    "name": "wrongshambo",
    "defaultvalue": 0,
    "displayName": "Wrong-Sham-Bo",
    "hidden": 0,
    "description": "Paper is obviously superior.",
    "icon": "https://steamcdn-a.akamaihd.net/steamcommunity/public/images/apps/1029150/ea8e9f5bc2cdaf139ea01b415c7f48b7820dc2f5.jpg",
    "icongray": "https://steamcdn-a.akamaihd.net/steamcommunity/public/images/apps/1029150/8554c4b5eb18e484a11a9ceadb04b5eb8403f9c5.jpg"
  },
  {
    "name": "skunked",
    "defaultvalue": 0,
    "displayName": "Skunk-Juice",
    "hidden": 0,
    "description": "Little Sammy to the rescue!",
    "icon": "https://steamcdn-a.akamaihd.net/steamcommunity/public/images/apps/1029150/ea8e9f5bc2cdaf139ea01b415c7f48b7820dc2f5.jpg",
    "icongray": "https://steamcdn-a.akamaihd.net/steamcommunity/public/images/apps/1029150/c790e1a83bf9b27de6640fd2060f605b96610922.jpg"
  },
  {
    "name": "heir",
    "defaultvalue": 0,
    "displayName": "Heir to the Heavens",
    "hidden": 0,
    "description": "Win the tournament.",
    "icon": "https://steamcdn-a.akamaihd.net/steamcommunity/public/images/apps/1029150/c628c90fbed5a2227a85cecdf4e59a062310bfa4.jpg",
    "icongray": "https://steamcdn-a.akamaihd.net/steamcommunity/public/images/apps/1029150/c790e1a83bf9b27de6640fd2060f605b96610922.jpg"
  },
  {
    "name": "butdothey",
    "defaultvalue": 0,
    "displayName": "But Do They Know That?",
    "hidden": 0,
    "description": "They know you know.",
    "icon": "https://steamcdn-a.akamaihd.net/steamcommunity/public/images/apps/1029150/c628c90fbed5a2227a85cecdf4e59a062310bfa4.jpg",
    "icongray": "https://steamcdn-a.akamaihd.net/steamcommunity/public/images/apps/1029150/8554c4b5eb18e484a11a9ceadb04b5eb8403f9c5.jpg"
  },
  {
    "name": "gravity",
    "defaultvalue": 0,
    "displayName": "Defy Gravity",
    "hidden": 0,
    "description": "Defy gravity.",
    "icon": "https://steamcdn-a.akamaihd.net/steamcommunity/public/images/apps/1029150/c628c90fbed5a2227a85cecdf4e59a062310bfa4.jpg",
    "icongray": "https://steamcdn-a.akamaihd.net/steamcommunity/public/images/apps/1029150/8554c4b5eb18e484a11a9ceadb04b5eb8403f9c5.jpg"
  },
  {
    "name": "attracted",
    "defaultvalue": 0,
    "displayName": "Attracted",
    "hidden": 0,
    "description": "Get points with Lani.",
    "icon": "https://steamcdn-a.akamaihd.net/steamcommunity/public/images/apps/1029150/ea8e9f5bc2cdaf139ea01b415c7f48b7820dc2f5.jpg",
    "icongray": "https://steamcdn-a.akamaihd.net/steamcommunity/public/images/apps/1029150/8554c4b5eb18e484a11a9ceadb04b5eb8403f9c5.jpg"
  },
  {
    "name": "warrior",
    "defaultvalue": 0,
    "displayName": "Warrior's Ways",
    "hidden": 0,
    "description": "Learn the ways of a warrior.",
    "icon": "https://steamcdn-a.akamaihd.net/steamcommunity/public/images/apps/1029150/ea8e9f5bc2cdaf139ea01b415c7f48b7820dc2f5.jpg",
    "icongray": "https://steamcdn-a.akamaihd.net/steamcommunity/public/images/apps/1029150/8554c4b5eb18e484a11a9ceadb04b5eb8403f9c5.jpg"
  },
  {
    "name": "gunsplosion",
    "defaultvalue": 0,
    "displayName": "Gunsplosion",
    "hidden": 0,
    "description": "Destroy a valuable piece of equipment.",
    "icon": "https://steamcdn-a.akamaihd.net/steamcommunity/public/images/apps/1029150/ea8e9f5bc2cdaf139ea01b415c7f48b7820dc2f5.jpg",
    "icongray": "https://steamcdn-a.akamaihd.net/steamcommunity/public/images/apps/1029150/8554c4b5eb18e484a11a9ceadb04b5eb8403f9c5.jpg"
  },
  {
    "name": "opcd",
    "defaultvalue": 0,
    "displayName": "OPCD",
    "hidden": 0,
    "description": "Obsessive Phone-Checking Disorder.",
    "icon": "https://steamcdn-a.akamaihd.net/steamcommunity/public/images/apps/1029150/ea8e9f5bc2cdaf139ea01b415c7f48b7820dc2f5.jpg",
    "icongray": "https://steamcdn-a.akamaihd.net/steamcommunity/public/images/apps/1029150/8554c4b5eb18e484a11a9ceadb04b5eb8403f9c5.jpg"
  },
  {
    "name": "dreamer",
    "defaultvalue": 0,
    "displayName": "Dreamer",
    "hidden": 0,
    "description": "Dream a little dream.",
    "icon": "https://steamcdn-a.akamaihd.net/steamcommunity/public/images/apps/1029150/ea8e9f5bc2cdaf139ea01b415c7f48b7820dc2f5.jpg",
    "icongray": "https://steamcdn-a.akamaihd.net/steamcommunity/public/images/apps/1029150/8554c4b5eb18e484a11a9ceadb04b5eb8403f9c5.jpg"
  },
  {
    "name": "martha",
    "defaultvalue": 0,
    "displayName": "Martha",
    "hidden": 0,
    "description": "Use the magic word.",
    "icon": "https://steamcdn-a.akamaihd.net/steamcommunity/public/images/apps/1029150/ea8e9f5bc2cdaf139ea01b415c7f48b7820dc2f5.jpg",
    "icongray": "https://steamcdn-a.akamaihd.net/steamcommunity/public/images/apps/1029150/8554c4b5eb18e484a11a9ceadb04b5eb8403f9c5.jpg"
  },
  {
    "name": "noniichan",
    "defaultvalue": 0,
    "displayName": "Onii-chan?",
    "hidden": 0,
    "description": "Learn a brother's terrible secret.",
    "icon": "https://steamcdn-a.akamaihd.net/steamcommunity/public/images/apps/1029150/ea8e9f5bc2cdaf139ea01b415c7f48b7820dc2f5.jpg",
    "icongray": "https://steamcdn-a.akamaihd.net/steamcommunity/public/images/apps/1029150/8554c4b5eb18e484a11a9ceadb04b5eb8403f9c5.jpg"
  },
  {
    "name": "dreamofhope",
    "defaultvalue": 0,
    "displayName": "I Dream of Hope",
    "hidden": 0,
    "description": "Use the power of music.",
    "icon": "https://steamcdn-a.akamaihd.net/steamcommunity/public/images/apps/1029150/ea8e9f5bc2cdaf139ea01b415c7f48b7820dc2f5.jpg",
    "icongray": "https://steamcdn-a.akamaihd.net/steamcommunity/public/images/apps/1029150/8554c4b5eb18e484a11a9ceadb04b5eb8403f9c5.jpg"
  },
  {
    "name": "skipboss",
    "defaultvalue": 0,
    "displayName": "Skip the Boss",
    "hidden": 0,
    "description": "Skip a boss fight.",
    "icon": "https://steamcdn-a.akamaihd.net/steamcommunity/public/images/apps/1029150/ea8e9f5bc2cdaf139ea01b415c7f48b7820dc2f5.jpg",
    "icongray": "https://steamcdn-a.akamaihd.net/steamcommunity/public/images/apps/1029150/8554c4b5eb18e484a11a9ceadb04b5eb8403f9c5.jpg"
  },
  {
    "name": "breakup",
    "defaultvalue": 0,
    "displayName": "Date Breakup",
    "hidden": 0,
    "description": "Choose the most inconvenient time.",
    "icon": "https://steamcdn-a.akamaihd.net/steamcommunity/public/images/apps/1029150/ea8e9f5bc2cdaf139ea01b415c7f48b7820dc2f5.jpg",
    "icongray": "https://steamcdn-a.akamaihd.net/steamcommunity/public/images/apps/1029150/8554c4b5eb18e484a11a9ceadb04b5eb8403f9c5.jpg"
  },
  {
    "name": "nutgod",
    "defaultvalue": 0,
    "displayName": "Nut God",
    "hidden": 0,
    "description": "Demonstrate irreverence in a rather unique manner.",
    "icon": "https://steamcdn-a.akamaihd.net/steamcommunity/public/images/apps/1029150/639d976c7cdbdf684e8cd466ff2ac4360df2077c.jpg",
    "icongray": "https://steamcdn-a.akamaihd.net/steamcommunity/public/images/apps/1029150/8554c4b5eb18e484a11a9ceadb04b5eb8403f9c5.jpg"
  },
  {
    "name": "gangshere",
    "defaultvalue": 0,
    "displayName": "The Gang's All Here",
    "hidden": 0,
    "description": "Recruit all possible characters.",
    "icon": "https://steamcdn-a.akamaihd.net/steamcommunity/public/images/apps/1029150/c628c90fbed5a2227a85cecdf4e59a062310bfa4.jpg",
    "icongray": "https://steamcdn-a.akamaihd.net/steamcommunity/public/images/apps/1029150/8554c4b5eb18e484a11a9ceadb04b5eb8403f9c5.jpg"
  },
  {
    "name": "nohit",
    "defaultvalue": 0,
    "displayName": "You Only Lived Once",
    "hidden": 0,
    "description": "Complete the game without being killed.",
    "icon": "https://steamcdn-a.akamaihd.net/steamcommunity/public/images/apps/1029150/c628c90fbed5a2227a85cecdf4e59a062310bfa4.jpg",
    "icongray": "https://steamcdn-a.akamaihd.net/steamcommunity/public/images/apps/1029150/8554c4b5eb18e484a11a9ceadb04b5eb8403f9c5.jpg"
  },
  {
    "name": "darksammy",
    "defaultvalue": 0,
    "displayName": "Dark Sammy",
    "hidden": 1,
    "icon": "https://steamcdn-a.akamaihd.net/steamcommunity/public/images/apps/1029150/ea8e9f5bc2cdaf139ea01b415c7f48b7820dc2f5.jpg",
    "icongray": "https://steamcdn-a.akamaihd.net/steamcommunity/public/images/apps/1029150/8554c4b5eb18e484a11a9ceadb04b5eb8403f9c5.jpg"
  },
  {
    "name": "amicicide",
    "defaultvalue": 0,
    "displayName": "Amicicide",
    "hidden": 1,
    "icon": "https://steamcdn-a.akamaihd.net/steamcommunity/public/images/apps/1029150/c628c90fbed5a2227a85cecdf4e59a062310bfa4.jpg",
    "icongray": "https://steamcdn-a.akamaihd.net/steamcommunity/public/images/apps/1029150/8554c4b5eb18e484a11a9ceadb04b5eb8403f9c5.jpg"
  },
  {
    "name": "railroad",
    "defaultvalue": 0,
    "displayName": "Railroaded",
    "hidden": 1,
    "icon": "https://steamcdn-a.akamaihd.net/steamcommunity/public/images/apps/1029150/57a5476c2c116e9153aa7eec78cd1fef65a55a8f.jpg",
    "icongray": "https://steamcdn-a.akamaihd.net/steamcommunity/public/images/apps/1029150/8554c4b5eb18e484a11a9ceadb04b5eb8403f9c5.jpg"
  },
  {
    "name": "willofsteel",
    "defaultvalue": 0,
    "displayName": "Will of Steel",
    "hidden": 1,
    "icon": "https://steamcdn-a.akamaihd.net/steamcommunity/public/images/apps/1029150/ea8e9f5bc2cdaf139ea01b415c7f48b7820dc2f5.jpg",
    "icongray": "https://steamcdn-a.akamaihd.net/steamcommunity/public/images/apps/1029150/8554c4b5eb18e484a11a9ceadb04b5eb8403f9c5.jpg"
  },
  {
    "name": "hypersmart",
    "defaultvalue": 0,
    "displayName": "Hyper-Smart",
    "hidden": 1,
    "icon": "https://steamcdn-a.akamaihd.net/steamcommunity/public/images/apps/1029150/ea8e9f5bc2cdaf139ea01b415c7f48b7820dc2f5.jpg",
    "icongray": "https://steamcdn-a.akamaihd.net/steamcommunity/public/images/apps/1029150/8554c4b5eb18e484a11a9ceadb04b5eb8403f9c5.jpg"
  },
  {
    "name": "poweroffriendship",
    "defaultvalue": 0,
    "displayName": "Power of Friendship",
    "hidden": 1,
    "icon": "https://steamcdn-a.akamaihd.net/steamcommunity/public/images/apps/1029150/ea8e9f5bc2cdaf139ea01b415c7f48b7820dc2f5.jpg",
    "icongray": "https://steamcdn-a.akamaihd.net/steamcommunity/public/images/apps/1029150/8554c4b5eb18e484a11a9ceadb04b5eb8403f9c5.jpg"
  },
  {
    "name": "nowillpower",
    "defaultvalue": 0,
    "displayName": "No Willpower",
    "hidden": 1,
    "icon": "https://steamcdn-a.akamaihd.net/steamcommunity/public/images/apps/1029150/639d976c7cdbdf684e8cd466ff2ac4360df2077c.jpg",
    "icongray": "https://steamcdn-a.akamaihd.net/steamcommunity/public/images/apps/1029150/8554c4b5eb18e484a11a9ceadb04b5eb8403f9c5.jpg"
  },
  {
    "name": "braindead",
    "defaultvalue": 0,
    "displayName": "Brain-Dead",
    "hidden": 1,
    "icon": "https://steamcdn-a.akamaihd.net/steamcommunity/public/images/apps/1029150/ea8e9f5bc2cdaf139ea01b415c7f48b7820dc2f5.jpg",
    "icongray": "https://steamcdn-a.akamaihd.net/steamcommunity/public/images/apps/1029150/8554c4b5eb18e484a11a9ceadb04b5eb8403f9c5.jpg"
  },
  {
    "name": "zerocharisma",
    "defaultvalue": 0,
    "displayName": "Zero Charisma",
    "hidden": 1,
    "icon": "https://steamcdn-a.akamaihd.net/steamcommunity/public/images/apps/1029150/ea8e9f5bc2cdaf139ea01b415c7f48b7820dc2f5.jpg",
    "icongray": "https://steamcdn-a.akamaihd.net/steamcommunity/public/images/apps/1029150/8554c4b5eb18e484a11a9ceadb04b5eb8403f9c5.jpg"
  },
  {
    "name": "canned",
    "defaultvalue": 0,
    "displayName": "Canned",
    "hidden": 1,
    "icon": "https://steamcdn-a.akamaihd.net/steamcommunity/public/images/apps/1029150/c628c90fbed5a2227a85cecdf4e59a062310bfa4.jpg",
    "icongray": "https://steamcdn-a.akamaihd.net/steamcommunity/public/images/apps/1029150/8554c4b5eb18e484a11a9ceadb04b5eb8403f9c5.jpg"
  },
  {
    "name": "penguin",
    "defaultvalue": 0,
    "displayName": "A Penguin is a Man's Best Friend",
    "hidden": 1,
    "icon": "https://steamcdn-a.akamaihd.net/steamcommunity/public/images/apps/1029150/ea8e9f5bc2cdaf139ea01b415c7f48b7820dc2f5.jpg",
    "icongray": "https://steamcdn-a.akamaihd.net/steamcommunity/public/images/apps/1029150/8554c4b5eb18e484a11a9ceadb04b5eb8403f9c5.jpg"
  },
  {
    "name": "trampoline",
    "defaultvalue": 0,
    "displayName": "Lucky Landing",
    "hidden": 1,
    "icon": "https://steamcdn-a.akamaihd.net/steamcommunity/public/images/apps/1029150/639d976c7cdbdf684e8cd466ff2ac4360df2077c.jpg",
    "icongray": "https://steamcdn-a.akamaihd.net/steamcommunity/public/images/apps/1029150/8554c4b5eb18e484a11a9ceadb04b5eb8403f9c5.jpg"
  },
  {
    "name": "pipe",
    "defaultvalue": 0,
    "displayName": "Pipe Dream",
    "hidden": 1,
    "icon": "https://steamcdn-a.akamaihd.net/steamcommunity/public/images/apps/1029150/ea8e9f5bc2cdaf139ea01b415c7f48b7820dc2f5.jpg",
    "icongray": "https://steamcdn-a.akamaihd.net/steamcommunity/public/images/apps/1029150/8554c4b5eb18e484a11a9ceadb04b5eb8403f9c5.jpg"
  },
  {
    "name": "indy",
    "defaultvalue": 0,
    "displayName": "Indy Fridge",
    "hidden": 1,
    "icon": "https://steamcdn-a.akamaihd.net/steamcommunity/public/images/apps/1029150/ea8e9f5bc2cdaf139ea01b415c7f48b7820dc2f5.jpg",
    "icongray": "https://steamcdn-a.akamaihd.net/steamcommunity/public/images/apps/1029150/8554c4b5eb18e484a11a9ceadb04b5eb8403f9c5.jpg"
  },
  {
    "name": "extinguish",
    "defaultvalue": 0,
    "displayName": "Extinguished",
    "hidden": 1,
    "icon": "https://steamcdn-a.akamaihd.net/steamcommunity/public/images/apps/1029150/ea8e9f5bc2cdaf139ea01b415c7f48b7820dc2f5.jpg",
    "icongray": "https://steamcdn-a.akamaihd.net/steamcommunity/public/images/apps/1029150/8554c4b5eb18e484a11a9ceadb04b5eb8403f9c5.jpg"
  },
  {
    "name": "timeup",
    "defaultvalue": 0,
    "displayName": "Saved by the Bell",
    "hidden": 1,
    "icon": "https://steamcdn-a.akamaihd.net/steamcommunity/public/images/apps/1029150/ea8e9f5bc2cdaf139ea01b415c7f48b7820dc2f5.jpg",
    "icongray": "https://steamcdn-a.akamaihd.net/steamcommunity/public/images/apps/1029150/8554c4b5eb18e484a11a9ceadb04b5eb8403f9c5.jpg"
  },
  {
    "name": "reform",
    "defaultvalue": 0,
    "displayName": "Reformation",
    "hidden": 1,
    "icon": "https://steamcdn-a.akamaihd.net/steamcommunity/public/images/apps/1029150/ea8e9f5bc2cdaf139ea01b415c7f48b7820dc2f5.jpg",
    "icongray": "https://steamcdn-a.akamaihd.net/steamcommunity/public/images/apps/1029150/8554c4b5eb18e484a11a9ceadb04b5eb8403f9c5.jpg"
  },
  {
    "name": "kay",
    "defaultvalue": 0,
    "displayName": "The Tough Girl",
    "hidden": 1,
    "icon": "https://steamcdn-a.akamaihd.net/steamcommunity/public/images/apps/1029150/ea8e9f5bc2cdaf139ea01b415c7f48b7820dc2f5.jpg",
    "icongray": "https://steamcdn-a.akamaihd.net/steamcommunity/public/images/apps/1029150/8554c4b5eb18e484a11a9ceadb04b5eb8403f9c5.jpg"
  },
  {
    "name": "sammy",
    "defaultvalue": 0,
    "displayName": "The Comic Nerd",
    "hidden": 1,
    "icon": "https://steamcdn-a.akamaihd.net/steamcommunity/public/images/apps/1029150/ea8e9f5bc2cdaf139ea01b415c7f48b7820dc2f5.jpg",
    "icongray": "https://steamcdn-a.akamaihd.net/steamcommunity/public/images/apps/1029150/8554c4b5eb18e484a11a9ceadb04b5eb8403f9c5.jpg"
  },
  {
    "name": "anara",
    "defaultvalue": 0,
    "displayName": "The Scientific Genius",
    "hidden": 1,
    "icon": "https://steamcdn-a.akamaihd.net/steamcommunity/public/images/apps/1029150/ea8e9f5bc2cdaf139ea01b415c7f48b7820dc2f5.jpg",
    "icongray": "https://steamcdn-a.akamaihd.net/steamcommunity/public/images/apps/1029150/8554c4b5eb18e484a11a9ceadb04b5eb8403f9c5.jpg"
  },
  {
    "name": "chi",
    "defaultvalue": 0,
    "displayName": "The Soccer Jock",
    "hidden": 1,
    "icon": "https://steamcdn-a.akamaihd.net/steamcommunity/public/images/apps/1029150/ea8e9f5bc2cdaf139ea01b415c7f48b7820dc2f5.jpg",
    "icongray": "https://steamcdn-a.akamaihd.net/steamcommunity/public/images/apps/1029150/8554c4b5eb18e484a11a9ceadb04b5eb8403f9c5.jpg"
  },
  {
    "name": "ryu",
    "defaultvalue": 0,
    "displayName": "The Rival",
    "hidden": 1,
    "icon": "https://steamcdn-a.akamaihd.net/steamcommunity/public/images/apps/1029150/ea8e9f5bc2cdaf139ea01b415c7f48b7820dc2f5.jpg",
    "icongray": "https://steamcdn-a.akamaihd.net/steamcommunity/public/images/apps/1029150/8554c4b5eb18e484a11a9ceadb04b5eb8403f9c5.jpg"
  },
  {
    "name": "lani",
    "defaultvalue": 0,
    "displayName": "The Class President",
    "hidden": 1,
    "icon": "https://steamcdn-a.akamaihd.net/steamcommunity/public/images/apps/1029150/ea8e9f5bc2cdaf139ea01b415c7f48b7820dc2f5.jpg",
    "icongray": "https://steamcdn-a.akamaihd.net/steamcommunity/public/images/apps/1029150/8554c4b5eb18e484a11a9ceadb04b5eb8403f9c5.jpg"
  },
  {
    "name": "phil",
    "defaultvalue": 0,
    "displayName": "The Martial Artist",
    "hidden": 1,
    "icon": "https://steamcdn-a.akamaihd.net/steamcommunity/public/images/apps/1029150/ea8e9f5bc2cdaf139ea01b415c7f48b7820dc2f5.jpg",
    "icongray": "https://steamcdn-a.akamaihd.net/steamcommunity/public/images/apps/1029150/8554c4b5eb18e484a11a9ceadb04b5eb8403f9c5.jpg"
  },
  {
    "name": "mira",
    "defaultvalue": 0,
    "displayName": "The Mystery Girl",
    "hidden": 1,
    "icon": "https://steamcdn-a.akamaihd.net/steamcommunity/public/images/apps/1029150/639d976c7cdbdf684e8cd466ff2ac4360df2077c.jpg",
    "icongray": "https://steamcdn-a.akamaihd.net/steamcommunity/public/images/apps/1029150/8554c4b5eb18e484a11a9ceadb04b5eb8403f9c5.jpg"
  },
  {
    "name": "alone",
    "defaultvalue": 0,
    "displayName": "Who Needs Romance?",
    "hidden": 1,
    "icon": "https://steamcdn-a.akamaihd.net/steamcommunity/public/images/apps/1029150/ea8e9f5bc2cdaf139ea01b415c7f48b7820dc2f5.jpg",
    "icongray": "https://steamcdn-a.akamaihd.net/steamcommunity/public/images/apps/1029150/8554c4b5eb18e484a11a9ceadb04b5eb8403f9c5.jpg"
  },
  {
    "name": "standard",
    "defaultvalue": 0,
    "displayName": "The Continuation",
    "hidden": 1,
    "icon": "https://steamcdn-a.akamaihd.net/steamcommunity/public/images/apps/1029150/57a5476c2c116e9153aa7eec78cd1fef65a55a8f.jpg",
    "icongray": "https://steamcdn-a.akamaihd.net/steamcommunity/public/images/apps/1029150/8554c4b5eb18e484a11a9ceadb04b5eb8403f9c5.jpg"
  },
  {
    "name": "army",
    "defaultvalue": 0,
    "displayName": "The Army Minion",
    "hidden": 1,
    "icon": "https://steamcdn-a.akamaihd.net/steamcommunity/public/images/apps/1029150/57a5476c2c116e9153aa7eec78cd1fef65a55a8f.jpg",
    "icongray": "https://steamcdn-a.akamaihd.net/steamcommunity/public/images/apps/1029150/8554c4b5eb18e484a11a9ceadb04b5eb8403f9c5.jpg"
  },
  {
    "name": "noarmy",
    "defaultvalue": 0,
    "displayName": "The Army Minion (Not)",
    "hidden": 1,
    "icon": "https://steamcdn-a.akamaihd.net/steamcommunity/public/images/apps/1029150/57a5476c2c116e9153aa7eec78cd1fef65a55a8f.jpg",
    "icongray": "https://steamcdn-a.akamaihd.net/steamcommunity/public/images/apps/1029150/8554c4b5eb18e484a11a9ceadb04b5eb8403f9c5.jpg"
  },
  {
    "name": "sacrifice",
    "defaultvalue": 0,
    "displayName": "The Sacrifice",
    "hidden": 1,
    "icon": "https://steamcdn-a.akamaihd.net/steamcommunity/public/images/apps/1029150/57a5476c2c116e9153aa7eec78cd1fef65a55a8f.jpg",
    "icongray": "https://steamcdn-a.akamaihd.net/steamcommunity/public/images/apps/1029150/8554c4b5eb18e484a11a9ceadb04b5eb8403f9c5.jpg"
  },
  {
    "name": "wearekurtesh",
    "defaultvalue": 0,
    "displayName": "We Are Kurtesh",
    "hidden": 1,
    "icon": "https://steamcdn-a.akamaihd.net/steamcommunity/public/images/apps/1029150/57a5476c2c116e9153aa7eec78cd1fef65a55a8f.jpg",
    "icongray": "https://steamcdn-a.akamaihd.net/steamcommunity/public/images/apps/1029150/8554c4b5eb18e484a11a9ceadb04b5eb8403f9c5.jpg"
  },
  {
    "name": "labrat",
    "defaultvalue": 0,
    "displayName": "Vivisection",
    "hidden": 1,
    "icon": "https://steamcdn-a.akamaihd.net/steamcommunity/public/images/apps/1029150/57a5476c2c116e9153aa7eec78cd1fef65a55a8f.jpg",
    "icongray": "https://steamcdn-a.akamaihd.net/steamcommunity/public/images/apps/1029150/8554c4b5eb18e484a11a9ceadb04b5eb8403f9c5.jpg"
  },
  {
    "name": "overlord",
    "defaultvalue": 0,
    "displayName": "The Overlord",
    "hidden": 1,
    "icon": "https://steamcdn-a.akamaihd.net/steamcommunity/public/images/apps/1029150/57a5476c2c116e9153aa7eec78cd1fef65a55a8f.jpg",
    "icongray": "https://steamcdn-a.akamaihd.net/steamcommunity/public/images/apps/1029150/8554c4b5eb18e484a11a9ceadb04b5eb8403f9c5.jpg"
  },
  {
    "name": "newyou",
    "defaultvalue": 0,
    "displayName": "The New You",
    "hidden": 1,
    "icon": "https://steamcdn-a.akamaihd.net/steamcommunity/public/images/apps/1029150/57a5476c2c116e9153aa7eec78cd1fef65a55a8f.jpg",
    "icongray": "https://steamcdn-a.akamaihd.net/steamcommunity/public/images/apps/1029150/8554c4b5eb18e484a11a9ceadb04b5eb8403f9c5.jpg"
  },
  {
    "name": "penguin2",
    "defaultvalue": 0,
    "displayName": "A Penguin Really Is A Man's Best Friend",
    "hidden": 1,
    "icon": "https://steamcdn-a.akamaihd.net/steamcommunity/public/images/apps/1029150/57a5476c2c116e9153aa7eec78cd1fef65a55a8f.jpg",
    "icongray": "https://steamcdn-a.akamaihd.net/steamcommunity/public/images/apps/1029150/8554c4b5eb18e484a11a9ceadb04b5eb8403f9c5.jpg"
  }
]