{
  "Dlcs": {
    "369430": {
      "Name": "Flem - Soundtrack",
      "ImageUrl": "https://steamcdn-a.akamaihd.net/steam/apps/369430/header.jpg?t=1447374145"
    }
  },
  "Name": "Flem",
  "AppId": "341760",
  "ImageUrl": "https://steamcdn-a.akamaihd.net/steam/apps/341760/header.jpg?t=1585052553",
  "Languages": [
    "english"
  ],
  "Platforms": {
    "windows": true,
    "mac": true,
    "linux": false
  }
}