{
  "Dlcs": {},
  "Name": "Peter World",
  "AppId": "730460",
  "ImageUrl": "https://steamcdn-a.akamaihd.net/steam/apps/730460/header.jpg?t=1534806342",
  "Languages": [
    "english",
    "portuguese"
  ],
  "Platforms": {
    "windows": true,
    "mac": false,
    "linux": false
  }
}