[
  {
    "name": "ACH_1",
    "defaultvalue": 0,
    "displayName": "Oops!",
    "hidden": 0,
    "description": "Skeleton in the closet",
    "icon": "https://steamcdn-a.akamaihd.net/steamcommunity/public/images/apps/1077520/80eec96b5a7a3de157e082446693eb5637f5edf8.jpg",
    "icongray": "https://steamcdn-a.akamaihd.net/steamcommunity/public/images/apps/1077520/425b9bfa6b51ee72b8e80a92664a47f69668edcc.jpg"
  },
  {
    "name": "ACH_2",
    "defaultvalue": 0,
    "displayName": "Glad to see you!",
    "hidden": 0,
    "description": "Meeting with the beautiful",
    "icon": "https://steamcdn-a.akamaihd.net/steamcommunity/public/images/apps/1077520/dcb3beb198806a2a6cb319dd2f0f490b9d32dc21.jpg",
    "icongray": "https://steamcdn-a.akamaihd.net/steamcommunity/public/images/apps/1077520/425b9bfa6b51ee72b8e80a92664a47f69668edcc.jpg"
  },
  {
    "name": "ACH_3",
    "defaultvalue": 0,
    "displayName": "Bus cracker",
    "hidden": 0,
    "description": "Open the door!",
    "icon": "https://steamcdn-a.akamaihd.net/steamcommunity/public/images/apps/1077520/f53e74a68cd0039afa523f41f87af61db9997351.jpg",
    "icongray": "https://steamcdn-a.akamaihd.net/steamcommunity/public/images/apps/1077520/425b9bfa6b51ee72b8e80a92664a47f69668edcc.jpg"
  },
  {
    "name": "ACH_4",
    "defaultvalue": 0,
    "displayName": "Place",
    "hidden": 0,
    "description": "There,down...",
    "icon": "https://steamcdn-a.akamaihd.net/steamcommunity/public/images/apps/1077520/c7e8bca155c0e888276c7decc0191b02e9feea13.jpg",
    "icongray": "https://steamcdn-a.akamaihd.net/steamcommunity/public/images/apps/1077520/425b9bfa6b51ee72b8e80a92664a47f69668edcc.jpg"
  },
  {
    "name": "ACH_5",
    "defaultvalue": 0,
    "displayName": "Plan",
    "hidden": 0,
    "description": "The map will help you",
    "icon": "https://steamcdn-a.akamaihd.net/steamcommunity/public/images/apps/1077520/0126af30d1b70c0a02808b492a80196cb0b08f4f.jpg",
    "icongray": "https://steamcdn-a.akamaihd.net/steamcommunity/public/images/apps/1077520/425b9bfa6b51ee72b8e80a92664a47f69668edcc.jpg"
  },
  {
    "name": "ACH_6",
    "defaultvalue": 0,
    "displayName": "Voice from back",
    "hidden": 0,
    "description": "Take phone tube",
    "icon": "https://steamcdn-a.akamaihd.net/steamcommunity/public/images/apps/1077520/c9b6d1315bba62b675a4a36c7e310c1ddd073193.jpg",
    "icongray": "https://steamcdn-a.akamaihd.net/steamcommunity/public/images/apps/1077520/425b9bfa6b51ee72b8e80a92664a47f69668edcc.jpg"
  },
  {
    "name": "ACH_7",
    "defaultvalue": 0,
    "displayName": "To be light",
    "hidden": 0,
    "description": "Start generator",
    "icon": "https://steamcdn-a.akamaihd.net/steamcommunity/public/images/apps/1077520/700c0c3f426c4bd96fa5f736bc52b371d3cbfb8b.jpg",
    "icongray": "https://steamcdn-a.akamaihd.net/steamcommunity/public/images/apps/1077520/425b9bfa6b51ee72b8e80a92664a47f69668edcc.jpg"
  },
  {
    "name": "ACH_8",
    "defaultvalue": 0,
    "displayName": "Play!",
    "hidden": 0,
    "description": "Play videofilm",
    "icon": "https://steamcdn-a.akamaihd.net/steamcommunity/public/images/apps/1077520/a8f3792202790c06afa91c9d9a137a5bf2c9ae46.jpg",
    "icongray": "https://steamcdn-a.akamaihd.net/steamcommunity/public/images/apps/1077520/425b9bfa6b51ee72b8e80a92664a47f69668edcc.jpg"
  },
  {
    "name": "ACH_9",
    "defaultvalue": 0,
    "displayName": "Reader",
    "hidden": 0,
    "description": "Read all notes",
    "icon": "https://steamcdn-a.akamaihd.net/steamcommunity/public/images/apps/1077520/c204fca9da2f1b7258b68b2590a8048a086fe501.jpg",
    "icongray": "https://steamcdn-a.akamaihd.net/steamcommunity/public/images/apps/1077520/425b9bfa6b51ee72b8e80a92664a47f69668edcc.jpg"
  },
  {
    "name": "ACH_10",
    "defaultvalue": 0,
    "displayName": "To Light",
    "hidden": 0,
    "description": "Don't be afraid of the light",
    "icon": "https://steamcdn-a.akamaihd.net/steamcommunity/public/images/apps/1077520/bd2c756a46682fa2ce2ae84f0b869e6709f7c31e.jpg",
    "icongray": "https://steamcdn-a.akamaihd.net/steamcommunity/public/images/apps/1077520/425b9bfa6b51ee72b8e80a92664a47f69668edcc.jpg"
  },
  {
    "name": "ACH_11",
    "defaultvalue": 0,
    "displayName": "Forever",
    "hidden": 0,
    "description": "Stay in the shade",
    "icon": "https://steamcdn-a.akamaihd.net/steamcommunity/public/images/apps/1077520/2e39d2eeeb38585ea380a686ed0e1d2ae54c01bf.jpg",
    "icongray": "https://steamcdn-a.akamaihd.net/steamcommunity/public/images/apps/1077520/425b9bfa6b51ee72b8e80a92664a47f69668edcc.jpg"
  },
  {
    "name": "ACH_12",
    "defaultvalue": 0,
    "displayName": "Secret",
    "hidden": 0,
    "description": "Watch secret film",
    "icon": "https://steamcdn-a.akamaihd.net/steamcommunity/public/images/apps/1077520/f552c8daac99543949bfc79853e4627b449a8f95.jpg",
    "icongray": "https://steamcdn-a.akamaihd.net/steamcommunity/public/images/apps/1077520/425b9bfa6b51ee72b8e80a92664a47f69668edcc.jpg"
  },
  {
    "name": "ACH_13",
    "defaultvalue": 0,
    "displayName": "God of walking simulator!",
    "hidden": 0,
    "description": "Walk 5km",
    "icon": "https://steamcdn-a.akamaihd.net/steamcommunity/public/images/apps/1077520/50124b224ae8ef22d7572b03a0a8bd1b9a767155.jpg",
    "icongray": "https://steamcdn-a.akamaihd.net/steamcommunity/public/images/apps/1077520/425b9bfa6b51ee72b8e80a92664a47f69668edcc.jpg"
  },
  {
    "name": "ACH_14",
    "defaultvalue": 0,
    "displayName": "I just checked it...",
    "hidden": 0,
    "description": "Do you want soda?",
    "icon": "https://steamcdn-a.akamaihd.net/steamcommunity/public/images/apps/1077520/f481ca1e03a24f558b8461c75812c287562b8a55.jpg",
    "icongray": "https://steamcdn-a.akamaihd.net/steamcommunity/public/images/apps/1077520/425b9bfa6b51ee72b8e80a92664a47f69668edcc.jpg"
  },
  {
    "name": "ACH_15",
    "defaultvalue": 0,
    "displayName": "Trophy",
    "hidden": 0,
    "description": "Yes, the same can of soda",
    "icon": "https://steamcdn-a.akamaihd.net/steamcommunity/public/images/apps/1077520/261f4723479d9b01a7091f039b969daf832c3792.jpg",
    "icongray": "https://steamcdn-a.akamaihd.net/steamcommunity/public/images/apps/1077520/425b9bfa6b51ee72b8e80a92664a47f69668edcc.jpg"
  }
]