{
  "Dlcs": {},
  "Name": "DragonSnake VR",
  "AppId": "972950",
  "ImageUrl": "https://steamcdn-a.akamaihd.net/steam/apps/972950/header.jpg?t=1558033538",
  "Languages": [
    "english",
    "french",
    "german",
    "spanish",
    "schinese",
    "russian"
  ],
  "Platforms": {
    "windows": true,
    "mac": false,
    "linux": false
  }
}