﻿[
  {
    "name": "cerb",
    "defaultvalue": 0,
    "displayName": "Meeting Cerberus",
    "hidden": 1,
    "icon": "https://steamcdn-a.akamaihd.net/steamcommunity/public/images/apps/1274200/0004ebb59891db80ca1e60509ee42b706d208421.jpg",
    "icongray": "https://steamcdn-a.akamaihd.net/steamcommunity/public/images/apps/1274200/c62ff7cf6e1f954284899368266bf3386928e278.jpg"
  },
  {
    "name": "finn",
    "defaultvalue": 0,
    "displayName": "Vampire Goth Bride",
    "hidden": 0,
    "description": "Finished Finn's route.",
    "icon": "https://steamcdn-a.akamaihd.net/steamcommunity/public/images/apps/1274200/6b5b0ea74f36b047e33b5bcbd303ab42f263a138.jpg",
    "icongray": "https://steamcdn-a.akamaihd.net/steamcommunity/public/images/apps/1274200/400dfb41671077b5239016da733cde961b306880.jpg"
  },
  {
    "name": "paxton",
    "defaultvalue": 0,
    "displayName": "Rolled for Charisma and Got a 20",
    "hidden": 0,
    "description": "Finished Paxton's route.",
    "icon": "https://steamcdn-a.akamaihd.net/steamcommunity/public/images/apps/1274200/a9d41b06bc584300a0f4d9acaaf6577d1aff22db.jpg",
    "icongray": "https://steamcdn-a.akamaihd.net/steamcommunity/public/images/apps/1274200/6aafcbdef1300d953a070290cfa29d6cec6b70b1.jpg"
  },
  {
    "name": "zaina",
    "defaultvalue": 0,
    "displayName": "Yay, We Gay",
    "hidden": 0,
    "description": "Finished Zaina's route.",
    "icon": "https://steamcdn-a.akamaihd.net/steamcommunity/public/images/apps/1274200/c98c1f5bdb8a8ae32b21050bbdbb4140d6faaaaa.jpg",
    "icongray": "https://steamcdn-a.akamaihd.net/steamcommunity/public/images/apps/1274200/74f36d6ab6733b29974e89e376691ee0a2bcd7bd.jpg"
  },
  {
    "name": "laugh",
    "defaultvalue": 0,
    "displayName": "Laughter is the Best Medicine",
    "hidden": 1,
    "icon": "https://steamcdn-a.akamaihd.net/steamcommunity/public/images/apps/1274200/54687a10713b73c9cb9eb56d6e5d4f38b53efc72.jpg",
    "icongray": "https://steamcdn-a.akamaihd.net/steamcommunity/public/images/apps/1274200/ceec72b64af19f03225b95725c4067119ccb200d.jpg"
  }
]