﻿[
  {
    "name": "ACH_FLAP_OVER",
    "defaultvalue": 0,
    "displayName": "Flap Over It",
    "hidden": 0,
    "description": "End the game",
    "icon": "https://steamcdn-a.akamaihd.net/steamcommunity/public/images/apps/843270/31d0117f474845a9753d4e9431e15289b1143280.jpg",
    "icongray": "https://steamcdn-a.akamaihd.net/steamcommunity/public/images/apps/843270/9aa466419daad8d288b648e9980a8bd4cd92c66b.jpg"
  },
  {
    "name": "ACH_PLACE_1",
    "defaultvalue": 0,
    "displayName": "First flap!",
    "hidden": 0,
    "description": "Get to the start",
    "icon": "https://steamcdn-a.akamaihd.net/steamcommunity/public/images/apps/843270/4ded61d3264be7bca25e649a7570e237632429c5.jpg",
    "icongray": "https://steamcdn-a.akamaihd.net/steamcommunity/public/images/apps/843270/a19febc4a1f31a1cac380d49b4881344c27d2afa.jpg"
  },
  {
    "name": "ACH_PLACE_2",
    "defaultvalue": 0,
    "displayName": "Up!",
    "hidden": 0,
    "description": "Get to the columns.",
    "icon": "https://steamcdn-a.akamaihd.net/steamcommunity/public/images/apps/843270/c3918214d2ee2130bfc455dc9cf6b80998db532e.jpg",
    "icongray": "https://steamcdn-a.akamaihd.net/steamcommunity/public/images/apps/843270/19456a895e69d30f5747b71eba42b8cd8f2af0c9.jpg"
  },
  {
    "name": "ACH_PLACE_3",
    "defaultvalue": 0,
    "displayName": "The Forest",
    "hidden": 0,
    "description": "Get to the forest.",
    "icon": "https://steamcdn-a.akamaihd.net/steamcommunity/public/images/apps/843270/816a8c457bee89c7d9a0f447a10989762818c9e2.jpg",
    "icongray": "https://steamcdn-a.akamaihd.net/steamcommunity/public/images/apps/843270/93d029f5baabc89a2b3cb5f7fcd57cd922c53019.jpg"
  },
  {
    "name": "ACH_PLACE_4",
    "defaultvalue": 0,
    "displayName": "Happy New Year",
    "hidden": 0,
    "description": "Get to the trees",
    "icon": "https://steamcdn-a.akamaihd.net/steamcommunity/public/images/apps/843270/689098915ff8a9cc2d971bbffc813643875bbc36.jpg",
    "icongray": "https://steamcdn-a.akamaihd.net/steamcommunity/public/images/apps/843270/9c4e9ba17943f43f753ea20462f0a8e580508572.jpg"
  },
  {
    "name": "ACH_PLACE_5",
    "defaultvalue": 0,
    "displayName": "Let's rest on the beach",
    "hidden": 0,
    "description": "Get to the beach",
    "icon": "https://steamcdn-a.akamaihd.net/steamcommunity/public/images/apps/843270/edfd7c1c5ce706ca282e68e59d30469f8f553133.jpg",
    "icongray": "https://steamcdn-a.akamaihd.net/steamcommunity/public/images/apps/843270/b5c4187ba66c8f3d07faa8c54f293f3d436c9d45.jpg"
  },
  {
    "name": "ACH_FLAP_FAST",
    "defaultvalue": 0,
    "displayName": "Flap over it fast",
    "hidden": 0,
    "description": "End the game by 10 minutes",
    "icon": "https://steamcdn-a.akamaihd.net/steamcommunity/public/images/apps/843270/8137e8b6d665d14fb15fccafb0ea2ce0b8778a74.jpg",
    "icongray": "https://steamcdn-a.akamaihd.net/steamcommunity/public/images/apps/843270/4df31563191adb5b97fb595f7619a8cd75b09b08.jpg"
  }
]