﻿{
  "Dlcs": {},
  "Name": "法洛伊幻境 Fareo Shadowlands",
  "AppId": "1218810",
  "ImageUrl": "https://steamcdn-a.akamaihd.net/steam/apps/1218810/header.jpg?t=1597552234",
  "Languages": [
    "english",
    "schinese"
  ],
  "Platforms": {
    "windows": true,
    "mac": false,
    "linux": false
  }
}