[
  {
    "name": "NEW_ACHIEVEMENT_1_0",
    "defaultvalue": 0,
    "displayName": "First win!",
    "hidden": 0,
    "description": "Drive away the bad beasts.",
    "icon": "https://steamcdn-a.akamaihd.net/steamcommunity/public/images/apps/979290/c87bc4cc0e58fbca2b47ad197737fc04ca428478.jpg",
    "icongray": "https://steamcdn-a.akamaihd.net/steamcommunity/public/images/apps/979290/ed74d125b5e7278c4e4fc45c5bf74f3dbcc0ad7f.jpg"
  },
  {
    "name": "NEW_ACHIEVEMENT_1_1",
    "defaultvalue": 0,
    "displayName": "Thorn",
    "hidden": 0,
    "description": "Hedgehog takes a position.",
    "icon": "https://steamcdn-a.akamaihd.net/steamcommunity/public/images/apps/979290/71ea612c3ad1ca88c0f7e7a521af3b33472a3fbf.jpg",
    "icongray": "https://steamcdn-a.akamaihd.net/steamcommunity/public/images/apps/979290/548d34cda36edc46951c9ac05280f1e2d8de3a5b.jpg"
  },
  {
    "name": "NEW_ACHIEVEMENT_1_2",
    "defaultvalue": 0,
    "displayName": "Triple prick",
    "hidden": 0,
    "description": "Hedgehog attacks at least 3 animals.",
    "icon": "https://steamcdn-a.akamaihd.net/steamcommunity/public/images/apps/979290/ce71791fa33b508e2004fae84e42d206fcae7413.jpg",
    "icongray": "https://steamcdn-a.akamaihd.net/steamcommunity/public/images/apps/979290/7f67b1a93192db891180fe8790060e75ab1d05eb.jpg"
  },
  {
    "name": "NEW_ACHIEVEMENT_1_3",
    "defaultvalue": 0,
    "displayName": "Drive away in 60 seconds",
    "hidden": 0,
    "description": "Go through the level of not more than 60 seconds.",
    "icon": "https://steamcdn-a.akamaihd.net/steamcommunity/public/images/apps/979290/0ad3735c9199b2209a66ec7b343b7f632252e2bc.jpg",
    "icongray": "https://steamcdn-a.akamaihd.net/steamcommunity/public/images/apps/979290/c988ba769dffafe0ec309c471788ae7b584dbb1d.jpg"
  },
  {
    "name": "NEW_ACHIEVEMENT_1_4",
    "defaultvalue": 0,
    "displayName": "Dog power",
    "hidden": 0,
    "description": "Complete the level using only dogs.",
    "icon": "https://steamcdn-a.akamaihd.net/steamcommunity/public/images/apps/979290/ba414cb463be9b92523a603691a06cdd345b61d5.jpg",
    "icongray": "https://steamcdn-a.akamaihd.net/steamcommunity/public/images/apps/979290/2b567b409239dde6127cbbb4e069328ee9161407.jpg"
  },
  {
    "name": "NEW_ACHIEVEMENT_1_5",
    "defaultvalue": 0,
    "displayName": "Nut attack",
    "hidden": 0,
    "description": "Complete the level using only squirrels.",
    "icon": "https://steamcdn-a.akamaihd.net/steamcommunity/public/images/apps/979290/cccbd6e263b6d394644712b6f5858230a01d8d9b.jpg",
    "icongray": "https://steamcdn-a.akamaihd.net/steamcommunity/public/images/apps/979290/2a4bc997c4d566b6b7ee1548c696c8d591cc7310.jpg"
  },
  {
    "name": "NEW_ACHIEVEMENT_1_6",
    "defaultvalue": 0,
    "displayName": "No dogs.",
    "hidden": 0,
    "description": "Complete the level without using dogs.",
    "icon": "https://steamcdn-a.akamaihd.net/steamcommunity/public/images/apps/979290/1d6fa1b1dda48e9f19ec1695b9f3794ded78bb4c.jpg",
    "icongray": "https://steamcdn-a.akamaihd.net/steamcommunity/public/images/apps/979290/91f56d1bade74d9a4a80c49837a9fa59bce9b68d.jpg"
  },
  {
    "name": "NEW_ACHIEVEMENT_1_7",
    "defaultvalue": 0,
    "displayName": "Good commander.",
    "hidden": 0,
    "description": "Go through 3 levels.",
    "icon": "https://steamcdn-a.akamaihd.net/steamcommunity/public/images/apps/979290/efb4623eebbdaba5e429e48cc512cc1c0a1c89ac.jpg",
    "icongray": "https://steamcdn-a.akamaihd.net/steamcommunity/public/images/apps/979290/6aed70ee6458d3dbe59e8566c84c34c35732906f.jpg"
  },
  {
    "name": "NEW_ACHIEVEMENT_1_8",
    "defaultvalue": 0,
    "displayName": "Great protector",
    "hidden": 0,
    "description": "Go through 9 levels.",
    "icon": "https://steamcdn-a.akamaihd.net/steamcommunity/public/images/apps/979290/dd2ebdb064092150fedf8467b73f70a99417af9a.jpg",
    "icongray": "https://steamcdn-a.akamaihd.net/steamcommunity/public/images/apps/979290/0c844e5b5d64faa17b28e4defdae866e932e9c38.jpg"
  },
  {
    "name": "NEW_ACHIEVEMENT_1_9",
    "defaultvalue": 0,
    "displayName": "BOOM!!!",
    "hidden": 0,
    "description": "Scare at least 10 bad animals with a petard.",
    "icon": "https://steamcdn-a.akamaihd.net/steamcommunity/public/images/apps/979290/d65e3c826b073db085e8c9d194d48774d914ff7c.jpg",
    "icongray": "https://steamcdn-a.akamaihd.net/steamcommunity/public/images/apps/979290/e2f6454177c247c52aa3c4a82b792abdcffafd34.jpg"
  },
  {
    "name": "NEW_ACHIEVEMENT_1_10",
    "defaultvalue": 0,
    "displayName": "Thrifty",
    "hidden": 0,
    "description": "Accumulate 20 buttons.",
    "icon": "https://steamcdn-a.akamaihd.net/steamcommunity/public/images/apps/979290/1815f32951adb0b2f7569e703325791863787272.jpg",
    "icongray": "https://steamcdn-a.akamaihd.net/steamcommunity/public/images/apps/979290/febdb912cbcad264f509e3c4066023f30ad9be56.jpg"
  },
  {
    "name": "NEW_ACHIEVEMENT_1_11",
    "defaultvalue": 0,
    "displayName": "Hero of the forest",
    "hidden": 0,
    "description": "Go through 12 levels.",
    "icon": "https://steamcdn-a.akamaihd.net/steamcommunity/public/images/apps/979290/2f15fdc6ff5d1d0db9a7a3765bb9382e200fdc5f.jpg",
    "icongray": "https://steamcdn-a.akamaihd.net/steamcommunity/public/images/apps/979290/7436a748b67f0fa3f9b05f7d5f41a6274f6cb009.jpg"
  }
]