{
  "Name": "Figure Drawing Fundamentals: Drawing Gestures 30 Second and 2 Minute Examples",
  "ImageUrl": "https://steamcdn-a.akamaihd.net/steam/apps/700971/header.jpg?t=1522174381",
  "Type": "episode"
}