[
  {
    "name": "Getting Started Stat",
    "defaultvalue": 1,
    "displayName": "Getting Started Stat"
  },
  {
    "name": "The Progresser Stat",
    "defaultvalue": 1,
    "displayName": "The Progresser Stat"
  },
  {
    "name": "Halfway There Stat",
    "defaultvalue": 1,
    "displayName": "Halfway There Stat"
  },
  {
    "name": "Dedication Stat",
    "defaultvalue": 1,
    "displayName": "Dedication Stat"
  },
  {
    "name": "Maxed Out Stat",
    "defaultvalue": 1,
    "displayName": "Maxed Out Stat"
  },
  {
    "name": "Giting gud Stat",
    "defaultvalue": 0,
    "displayName": "Giting gud Stat"
  },
  {
    "name": "Master Stat",
    "defaultvalue": 0,
    "displayName": "Master Stat"
  },
  {
    "name": "The clumsy Stat",
    "defaultvalue": 0,
    "displayName": "The clumsy Stat"
  },
  {
    "name": "Gold Digger Stat",
    "defaultvalue": 0,
    "displayName": "Deep Pockets"
  }
]