{
  "Dlcs": {},
  "Name": "The Raven - Legacy of a Master Thief",
  "AppId": "233370",
  "ImageUrl": "https://steamcdn-a.akamaihd.net/steam/apps/233370/header.jpg?t=1562058409",
  "Languages": [
    "english",
    "german",
    "russian"
  ],
  "Platforms": {
    "windows": true,
    "mac": true,
    "linux": true
  }
}