﻿{
  "Dlcs": {
    "782310": {
      "Name": "Glass Masquerade - Soundtrack",
      "ImageUrl": "https://steamcdn-a.akamaihd.net/steam/apps/782310/header.jpg?t=1560616528"
    },
    "801310": {
      "Name": "Glass Masquerade - Lunar Year Puzzle",
      "ImageUrl": "https://steamcdn-a.akamaihd.net/steam/apps/801310/header.jpg?t=1560616752"
    },
    "938030": {
      "Name": "Glass Masquerade - Inceptions Puzzle Pack",
      "ImageUrl": "https://steamcdn-a.akamaihd.net/steam/apps/938030/header.jpg?t=1560616211"
    },
    "969270": {
      "Name": "Glass Masquerade - Halloween Puzzle Pack",
      "ImageUrl": "https://steamcdn-a.akamaihd.net/steam/apps/969270/header.jpg?t=1560616060"
    },
    "1004130": {
      "Name": "Glass Masquerade - Christmas Day Puzzle",
      "ImageUrl": "https://steamcdn-a.akamaihd.net/steam/apps/1004130/header.jpg?t=1560616365"
    },
    "1105630": {
      "Name": "Glass Masquerade - Heritages Puzzle Pack",
      "ImageUrl": "https://steamcdn-a.akamaihd.net/steam/apps/1105630/header.jpg?t=1560781152"
    }
  },
  "Name": "Glass Masquerade",
  "AppId": "511470",
  "ImageUrl": "https://steamcdn-a.akamaihd.net/steam/apps/511470/header.jpg?t=1563119840",
  "Languages": [
    "english",
    "french",
    "italian",
    "german",
    "spanish",
    "japanese",
    "korean",
    "portuguese",
    "russian",
    "schinese",
    "tchinese",
    "polish"
  ],
  "Platforms": {
    "windows": true,
    "mac": true,
    "linux": false
  }
}