{
  "Dlcs": {},
  "Name": "The Artifact",
  "AppId": "532920",
  "ImageUrl": "https://steamcdn-a.akamaihd.net/steam/apps/532920/header.jpg?t=1591972013",
  "Languages": [
    "english"
  ],
  "Platforms": {
    "windows": true,
    "mac": false,
    "linux": false
  }
}