{
  "Dlcs": {},
  "Name": "Strange Encounter",
  "AppId": "958650",
  "ImageUrl": "https://steamcdn-a.akamaihd.net/steam/apps/958650/header.jpg?t=1574431360",
  "Languages": [
    "english",
    "french",
    "spanish"
  ],
  "Platforms": {
    "windows": true,
    "mac": false,
    "linux": false
  }
}