{
  "Dlcs": {},
  "Name": "Club Dance Party VR",
  "AppId": "845400",
  "ImageUrl": "https://steamcdn-a.akamaihd.net/steam/apps/845400/header.jpg?t=1538394161",
  "Languages": [
    "english",
    "japanese",
    "schinese",
    "korean"
  ],
  "Platforms": {
    "windows": true,
    "mac": false,
    "linux": false
  }
}