[
  {
    "name": "NEW_ACHIEVEMENT_ACTIVATED",
    "defaultvalue": 0,
    "displayName": "Activated",
    "hidden": 0,
    "description": "Activate First Tablet",
    "icon": "https://steamcdn-a.akamaihd.net/steamcommunity/public/images/apps/603090/44a5ac8a65d29d314f432861bed5088266154143.jpg",
    "icongray": "https://steamcdn-a.akamaihd.net/steamcommunity/public/images/apps/603090/450fa01e6a34767a8935b1f5ef2462bf6b1ea1a6.jpg"
  },
  {
    "name": "NEW_ACHIEVEMENT_DARKSTONE",
    "defaultvalue": 0,
    "displayName": "Dark Stone",
    "hidden": 0,
    "description": "Acquire Dream Stone From Dark Dream Chapter",
    "icon": "https://steamcdn-a.akamaihd.net/steamcommunity/public/images/apps/603090/fbb0b8409fa9b883364490bd5dff0e72f2ac0150.jpg",
    "icongray": "https://steamcdn-a.akamaihd.net/steamcommunity/public/images/apps/603090/450fa01e6a34767a8935b1f5ef2462bf6b1ea1a6.jpg"
  },
  {
    "name": "NEW_ACHIEVEMENT_COLORSTONE",
    "defaultvalue": 0,
    "displayName": "Color Stone",
    "hidden": 0,
    "description": "Acquire Dream Stone From Colorful Dream Chapter",
    "icon": "https://steamcdn-a.akamaihd.net/steamcommunity/public/images/apps/603090/4212c7107705cf54c8f7588f667ee01b3042eae5.jpg",
    "icongray": "https://steamcdn-a.akamaihd.net/steamcommunity/public/images/apps/603090/450fa01e6a34767a8935b1f5ef2462bf6b1ea1a6.jpg"
  },
  {
    "name": "NEW_ACHIEVEMENT_DAZZLESTONE",
    "defaultvalue": 0,
    "displayName": "Dazzle Stone",
    "hidden": 0,
    "description": "Acquire Dream Stone From Dazzle Dream Chapter",
    "icon": "https://steamcdn-a.akamaihd.net/steamcommunity/public/images/apps/603090/578f5ad68135adf7655036558c8201ca296ff994.jpg",
    "icongray": "https://steamcdn-a.akamaihd.net/steamcommunity/public/images/apps/603090/450fa01e6a34767a8935b1f5ef2462bf6b1ea1a6.jpg"
  },
  {
    "name": "NEW_ACHIEVEMENT_COMPLETED",
    "defaultvalue": 0,
    "displayName": "Completed",
    "hidden": 0,
    "description": "Acquire All Dream Stones And Open The Exit Gate",
    "icon": "https://steamcdn-a.akamaihd.net/steamcommunity/public/images/apps/603090/d83492f19218707925e35eea13f4d09569e13ee9.jpg",
    "icongray": "https://steamcdn-a.akamaihd.net/steamcommunity/public/images/apps/603090/450fa01e6a34767a8935b1f5ef2462bf6b1ea1a6.jpg"
  }
]