{
  "Dlcs": {},
  "Name": "The Black Masses",
  "AppId": "992910",
  "ImageUrl": "https://steamcdn-a.akamaihd.net/steam/apps/992910/header.jpg?t=1588371184",
  "Languages": [
    "english"
  ],
  "Platforms": {
    "windows": true,
    "mac": false,
    "linux": false
  }
}