{
  "Dlcs": {},
  "Name": "Le Havre: The Inland Port",
  "AppId": "511820",
  "ImageUrl": "https://steamcdn-a.akamaihd.net/steam/apps/511820/header.jpg?t=1576161840",
  "Languages": [
    "english",
    "french",
    "german",
    "spanish"
  ],
  "Platforms": {
    "windows": true,
    "mac": true,
    "linux": true
  }
}