﻿{
  "Dlcs": {},
  "Name": "Guardian's Oath",
  "AppId": "531890",
  "ImageUrl": "https://steamcdn-a.akamaihd.net/steam/apps/531890/header.jpg?t=1507472822",
  "Languages": [
    "english",
    "turkish"
  ],
  "Platforms": {
    "windows": true,
    "mac": false,
    "linux": false
  }
}