[
  {
    "name": "bestsellerStat",
    "defaultvalue": 0,
    "displayName": ""
  },
  {
    "name": "catalystStat",
    "defaultvalue": 0,
    "displayName": ""
  },
  {
    "name": "isaElite3",
    "defaultvalue": 0,
    "displayName": ""
  },
  {
    "name": "isaElite2",
    "defaultvalue": 0,
    "displayName": ""
  },
  {
    "name": "isaElite1",
    "defaultvalue": 0,
    "displayName": ""
  },
  {
    "name": "hunter",
    "defaultvalue": 0,
    "displayName": ""
  },
  {
    "name": "liberator",
    "defaultvalue": 0,
    "displayName": ""
  },
  {
    "name": "collector",
    "defaultvalue": 0,
    "displayName": ""
  }
]