[
  {
    "name": "stat_passenger_fatalities",
    "defaultvalue": 0,
    "displayName": "Passenger Fatalities"
  },
  {
    "name": "stat_levels_completed",
    "defaultvalue": 0,
    "displayName": "Levels Completed"
  }
]