[
  {
    "name": "stat_version",
    "defaultvalue": 0,
    "displayName": ""
  },
  {
    "name": "stat_games_played",
    "defaultvalue": 0,
    "displayName": "Games played"
  },
  {
    "name": "stat_total_enemies_killed",
    "defaultvalue": 0,
    "displayName": "Enemies killed"
  },
  {
    "name": "stat_total_modifiers_collected",
    "defaultvalue": 0,
    "displayName": "Modifiers collected"
  },
  {
    "name": "stat_total_ultimateorbs_collected",
    "defaultvalue": 0,
    "displayName": "Ultimate orbs collected"
  },
  {
    "name": "stat_total_ultimates_activated",
    "defaultvalue": 0,
    "displayName": "Ultimates activated"
  },
  {
    "name": "stat_total_combokills",
    "defaultvalue": 0,
    "displayName": "Combo kills"
  },
  {
    "name": "stat_total_minibosses_killed",
    "defaultvalue": 0,
    "displayName": "Mini-bosses killed"
  },
  {
    "name": "stat_total_epicbosses_killed",
    "defaultvalue": 0,
    "displayName": "Epic bosses killed"
  },
  {
    "name": "stat_upgrades_seen",
    "defaultvalue": 0,
    "displayName": ""
  },
  {
    "name": "stat_upgrades_chosen",
    "defaultvalue": 0,
    "displayName": ""
  },
  {
    "name": "stat_total_epicbosses_killed_beard",
    "defaultvalue": 0,
    "displayName": ""
  },
  {
    "name": "stat_total_epicbosses_killed_trinity",
    "defaultvalue": 0,
    "displayName": ""
  },
  {
    "name": "stat_total_epicbosses_killed_digit",
    "defaultvalue": 0,
    "displayName": ""
  },
  {
    "name": "stat_total_epicbosses_killed_arrow",
    "defaultvalue": 0,
    "displayName": ""
  },
  {
    "name": "stat_total_epicbosses_killed_bat",
    "defaultvalue": 0,
    "displayName": ""
  },
  {
    "name": "stat_total_epicbosses_killed_n0p3",
    "defaultvalue": 0,
    "displayName": ""
  },
  {
    "name": "stat_total_epicbosses_killed_coop",
    "defaultvalue": 0,
    "displayName": ""
  },
  {
    "name": "stat_games_played_solo",
    "defaultvalue": 0,
    "displayName": "Single player games played"
  },
  {
    "name": "stat_games_played_coop",
    "defaultvalue": 0,
    "displayName": "Coop games played"
  },
  {
    "name": "stat_total_damage_done_1k",
    "defaultvalue": 0,
    "displayName": ""
  },
  {
    "name": "stat_total_damage_absorbed",
    "defaultvalue": 0,
    "displayName": ""
  },
  {
    "name": "system_version_stats",
    "defaultvalue": 0,
    "displayName": ""
  },
  {
    "name": "system_version_achievements",
    "defaultvalue": 0,
    "displayName": ""
  },
  {
    "name": "stat_total_epicbosses_killed_lily",
    "defaultvalue": 0,
    "displayName": ""
  },
  {
    "name": "stat_total_epicbosses_killed_crab",
    "defaultvalue": 0,
    "displayName": ""
  },
  {
    "name": "stat_total_upgrades",
    "defaultvalue": 0,
    "displayName": ""
  }
]