{
  "Dlcs": {},
  "Name": "Break The Food Chain",
  "AppId": "635980",
  "ImageUrl": "https://steamcdn-a.akamaihd.net/steam/apps/635980/header.jpg?t=1500294465",
  "Languages": [
    "english"
  ],
  "Platforms": {
    "windows": true,
    "mac": false,
    "linux": false
  }
}