[
  {
    "name": "BEAT THE GAME",
    "defaultvalue": 0,
    "displayName": "BEAT THE GAME",
    "hidden": 1,
    "icon": "https://steamcdn-a.akamaihd.net/steamcommunity/public/images/apps/779550/a6eaa1cb836d63d7f046951d4949a6a335f82cb1.jpg",
    "icongray": "https://steamcdn-a.akamaihd.net/steamcommunity/public/images/apps/779550/fc457844ca59332868344081e5416e89f5dff66c.jpg"
  },
  {
    "name": "ONE HOUR PLAYED",
    "defaultvalue": 0,
    "displayName": "ONE HOUR PLAYED IN ONE FILE",
    "hidden": 1,
    "icon": "https://steamcdn-a.akamaihd.net/steamcommunity/public/images/apps/779550/c36a8de92ba136ae79104987118beaba441a9dfa.jpg",
    "icongray": "https://steamcdn-a.akamaihd.net/steamcommunity/public/images/apps/779550/004eac7110a63d5061fa4e9ff100b22fb3179094.jpg"
  },
  {
    "name": "SO MANY BOMBS",
    "defaultvalue": 0,
    "displayName": "SO MANY BOMBS",
    "hidden": 1,
    "icon": "https://steamcdn-a.akamaihd.net/steamcommunity/public/images/apps/779550/79081bfc02cc47b781cb663c987c88bcc08a7e50.jpg",
    "icongray": "https://steamcdn-a.akamaihd.net/steamcommunity/public/images/apps/779550/118104dc0cdc007220e69b8ab456406931901fca.jpg"
  },
  {
    "name": "FIREWORKS",
    "defaultvalue": 0,
    "displayName": "FIREWORKS",
    "hidden": 1,
    "icon": "https://steamcdn-a.akamaihd.net/steamcommunity/public/images/apps/779550/ad08b23450bb0fcc12c4e2417ea911861fe02219.jpg",
    "icongray": "https://steamcdn-a.akamaihd.net/steamcommunity/public/images/apps/779550/259f22737eb68a87f54e874a7385dc7bcb7b5e7f.jpg"
  },
  {
    "name": "HEAVY LOAD",
    "defaultvalue": 0,
    "displayName": "HEAVY LOAD",
    "hidden": 1,
    "icon": "https://steamcdn-a.akamaihd.net/steamcommunity/public/images/apps/779550/d7724e1963df8d8b19882b91a3c49e387ee3966d.jpg",
    "icongray": "https://steamcdn-a.akamaihd.net/steamcommunity/public/images/apps/779550/d900d8ccef2d80e2ee2abbfa8e5c8bd505194fa1.jpg"
  }
]