[
  {
    "name": "game_play_count",
    "defaultvalue": 0,
    "displayName": "Game Play Count"
  },
  {
    "name": "play_time",
    "defaultvalue": 0,
    "displayName": "Total game play time"
  },
  {
    "name": "average_play_time",
    "defaultvalue": 0,
    "displayName": "Average game play time"
  },
  {
    "name": "total_game_play",
    "defaultvalue": 0,
    "displayName": "Total User"
  }
]