{
  "Dlcs": {},
  "Name": "Buff Knight Advanced",
  "AppId": "385440",
  "ImageUrl": "https://steamcdn-a.akamaihd.net/steam/apps/385440/header.jpg?t=1470640429",
  "Languages": [
    "italian",
    "german",
    "spanish",
    "japanese",
    "portuguese",
    "russian",
    "schinese",
    "tchinese",
    "turkish",
    "korean",
    "english"
  ],
  "Platforms": {
    "windows": true,
    "mac": true,
    "linux": false
  }
}