{
  "Dlcs": {},
  "Name": "Aurora",
  "AppId": "973260",
  "ImageUrl": "https://steamcdn-a.akamaihd.net/steam/apps/973260/header.jpg?t=1545901749",
  "Languages": [
    "english"
  ],
  "Platforms": {
    "windows": true,
    "mac": false,
    "linux": false
  }
}