﻿[
  {
    "name": "2",
    "defaultvalue": 0,
    "displayName": "In for the Long Haul",
    "hidden": 0,
    "description": "Reach 10 hours playing time in a single savegame",
    "icon": "https://steamcdn-a.akamaihd.net/steamcommunity/public/images/apps/447020/fd353e964f1f33ca087c8825368e3a919fb63ccd.jpg",
    "icongray": "https://steamcdn-a.akamaihd.net/steamcommunity/public/images/apps/447020/fd353e964f1f33ca087c8825368e3a919fb63ccd.jpg"
  },
  {
    "name": "3",
    "defaultvalue": 0,
    "displayName": "Breakneck Bankruptcy",
    "hidden": 0,
    "description": "Reach a negative balance on your very first day",
    "icon": "https://steamcdn-a.akamaihd.net/steamcommunity/public/images/apps/447020/439d625994aa594c07d6e5e45c35e393fefe4a38.jpg",
    "icongray": "https://steamcdn-a.akamaihd.net/steamcommunity/public/images/apps/447020/8517e7c81f7ab5083b99246ad576637f7eba94a1.jpg"
  },
  {
    "name": "4",
    "defaultvalue": 0,
    "displayName": "Financial Independence",
    "hidden": 0,
    "description": "Pay back an entire bank loan",
    "icon": "https://steamcdn-a.akamaihd.net/steamcommunity/public/images/apps/447020/fc4547286f3b6ddc4d135deede97a7c72474461c.jpg",
    "icongray": "https://steamcdn-a.akamaihd.net/steamcommunity/public/images/apps/447020/8f28382a1b1fba29cc45b6f3777d279064ca9c86.jpg"
  },
  {
    "name": "5",
    "defaultvalue": 0,
    "displayName": "Peak Profits",
    "hidden": 0,
    "description": "Own a bank account with 1 million ingame money",
    "icon": "https://steamcdn-a.akamaihd.net/steamcommunity/public/images/apps/447020/2af7276b1071dfcff73dfa7d8bfa6b9af443eb28.jpg",
    "icongray": "https://steamcdn-a.akamaihd.net/steamcommunity/public/images/apps/447020/f82d4dd693c2daa03ea80a4cba86c273b7faf2d1.jpg"
  },
  {
    "name": "6",
    "defaultvalue": 0,
    "displayName": "Help a Fella out",
    "hidden": 0,
    "description": "Complete a task for another farmer",
    "icon": "https://steamcdn-a.akamaihd.net/steamcommunity/public/images/apps/447020/d38b5acd0c603d01dcabc2243b0cc9c2f91c2931.jpg",
    "icongray": "https://steamcdn-a.akamaihd.net/steamcommunity/public/images/apps/447020/d847a28b310e33661e5daba8614a50071d4d422b.jpg"
  },
  {
    "name": "7",
    "defaultvalue": 0,
    "displayName": "Farmers' Favorite",
    "hidden": 0,
    "description": "Help each farmer at least once",
    "icon": "https://steamcdn-a.akamaihd.net/steamcommunity/public/images/apps/447020/ca5a165ab7e1aa848ae54c922f03a3b7141aaf9f.jpg",
    "icongray": "https://steamcdn-a.akamaihd.net/steamcommunity/public/images/apps/447020/6a47ea8bde5b68d50075c617d40eaf2a39944ab3.jpg"
  },
  {
    "name": "8",
    "defaultvalue": 0,
    "displayName": "Three-Pointer",
    "hidden": 0,
    "description": "Score a three-point field goal in basketball",
    "icon": "https://steamcdn-a.akamaihd.net/steamcommunity/public/images/apps/447020/347ffd9c4a5f83e0c4ab1e63d4a5b2f78e8e0921.jpg",
    "icongray": "https://steamcdn-a.akamaihd.net/steamcommunity/public/images/apps/447020/0f03925c94567e7a68e7a6021d322530f202b848.jpg"
  },
  {
    "name": "9",
    "defaultvalue": 0,
    "displayName": "All That Glitters...",
    "hidden": 0,
    "description": "Find all 100 gold nuggets",
    "icon": "https://steamcdn-a.akamaihd.net/steamcommunity/public/images/apps/447020/94ca211278468ca02c2feec3cf256782f7bf34a4.jpg",
    "icongray": "https://steamcdn-a.akamaihd.net/steamcommunity/public/images/apps/447020/a5e0161e8d695d952bc1a533dcbd826b5886abae.jpg"
  },
  {
    "name": "10",
    "defaultvalue": 0,
    "displayName": "Preparation Is Key",
    "hidden": 0,
    "description": "Cultivate 10 hectares",
    "icon": "https://steamcdn-a.akamaihd.net/steamcommunity/public/images/apps/447020/05c1c35814e6bb45b0d9ed879ea395ee423b085e.jpg",
    "icongray": "https://steamcdn-a.akamaihd.net/steamcommunity/public/images/apps/447020/fb597b22729215e241afd4ea0960ad265bc6b8e0.jpg"
  },
  {
    "name": "11",
    "defaultvalue": 0,
    "displayName": "Into the Soil",
    "hidden": 0,
    "description": "Sow 10 hectares",
    "icon": "https://steamcdn-a.akamaihd.net/steamcommunity/public/images/apps/447020/da046179f9434429fd02280f772ad261770031a5.jpg",
    "icongray": "https://steamcdn-a.akamaihd.net/steamcommunity/public/images/apps/447020/3fa8abb61e195e2aa8e8bd0615bc708d1c0fa3f2.jpg"
  },
  {
    "name": "12",
    "defaultvalue": 0,
    "displayName": "Make 'em Grow",
    "hidden": 0,
    "description": "Fertilize 10 hectares",
    "icon": "https://steamcdn-a.akamaihd.net/steamcommunity/public/images/apps/447020/1ea89bc8279fd1375feb71f4f068dfbeed78bf12.jpg",
    "icongray": "https://steamcdn-a.akamaihd.net/steamcommunity/public/images/apps/447020/06a80c324941af7cc823b8b5a96a65a41c7b0dab.jpg"
  },
  {
    "name": "13",
    "defaultvalue": 0,
    "displayName": "Bumper Harvest",
    "hidden": 0,
    "description": "Harvest 10 hectares",
    "icon": "https://steamcdn-a.akamaihd.net/steamcommunity/public/images/apps/447020/38a1a08ed618772aa9eb2bf19f6546537425f4e8.jpg",
    "icongray": "https://steamcdn-a.akamaihd.net/steamcommunity/public/images/apps/447020/38a1a08ed618772aa9eb2bf19f6546537425f4e8.jpg"
  },
  {
    "name": "14",
    "defaultvalue": 0,
    "displayName": "Lumber...",
    "hidden": 0,
    "description": "Cut down a tree",
    "icon": "https://steamcdn-a.akamaihd.net/steamcommunity/public/images/apps/447020/32d77ee107b979deff9059df0fb5cacabffeff52.jpg",
    "icongray": "https://steamcdn-a.akamaihd.net/steamcommunity/public/images/apps/447020/32d77ee107b979deff9059df0fb5cacabffeff52.jpg"
  },
  {
    "name": "15",
    "defaultvalue": 0,
    "displayName": "...jack",
    "hidden": 0,
    "description": "Cut down 50 trees",
    "icon": "https://steamcdn-a.akamaihd.net/steamcommunity/public/images/apps/447020/7b39e6ddef11ab26d6798618e577a32cbb13a6a4.jpg",
    "icongray": "https://steamcdn-a.akamaihd.net/steamcommunity/public/images/apps/447020/7b39e6ddef11ab26d6798618e577a32cbb13a6a4.jpg"
  },
  {
    "name": "16",
    "defaultvalue": 0,
    "displayName": "Cowboy",
    "hidden": 0,
    "description": "Breed 20 cows",
    "icon": "https://steamcdn-a.akamaihd.net/steamcommunity/public/images/apps/447020/ba9c8949580cf7d5a1c92691d49f23d287f43247.jpg",
    "icongray": "https://steamcdn-a.akamaihd.net/steamcommunity/public/images/apps/447020/ba9c8949580cf7d5a1c92691d49f23d287f43247.jpg"
  },
  {
    "name": "17",
    "defaultvalue": 0,
    "displayName": "Sweet Dreams",
    "hidden": 0,
    "description": "Breed 30 sheep",
    "icon": "https://steamcdn-a.akamaihd.net/steamcommunity/public/images/apps/447020/ef93d8fca4be510ffca31aa91122673fd8866c70.jpg",
    "icongray": "https://steamcdn-a.akamaihd.net/steamcommunity/public/images/apps/447020/ef93d8fca4be510ffca31aa91122673fd8866c70.jpg"
  },
  {
    "name": "18",
    "defaultvalue": 0,
    "displayName": "Oink Oink!",
    "hidden": 0,
    "description": "Breed 50 pigs",
    "icon": "https://steamcdn-a.akamaihd.net/steamcommunity/public/images/apps/447020/089476c0e26c269dcae585be9fcd6bd3778fc549.jpg",
    "icongray": "https://steamcdn-a.akamaihd.net/steamcommunity/public/images/apps/447020/089476c0e26c269dcae585be9fcd6bd3778fc549.jpg"
  }
]