﻿{
  "Dlcs": {},
  "Name": "Worlds Adrift Island Creator",
  "AppId": "271920",
  "ImageUrl": "https://steamcdn-a.akamaihd.net/steam/apps/271920/header.jpg?t=1586716220",
  "Languages": [
    "english"
  ],
  "Platforms": {
    "windows": true,
    "mac": false,
    "linux": false
  }
}