[
  {
    "name": "ps_perfection_denied",
    "defaultvalue": 0,
    "displayName": "Perfection Denied",
    "hidden": 0,
    "description": "Finish a song in Expert with only 1 missed note",
    "icon": "https://steamcdn-a.akamaihd.net/steamcommunity/public/images/apps/865250/6d68412456ee573abfd0c6ec4df5923123e36964.jpg",
    "icongray": "https://steamcdn-a.akamaihd.net/steamcommunity/public/images/apps/865250/a70d470cd8be856bd267466d75d99339a0f3740c.jpg"
  },
  {
    "name": "ps_perfection",
    "defaultvalue": 0,
    "displayName": "Perfection",
    "hidden": 0,
    "description": "FC a song in Expert",
    "icon": "https://steamcdn-a.akamaihd.net/steamcommunity/public/images/apps/865250/6d68412456ee573abfd0c6ec4df5923123e36964.jpg",
    "icongray": "https://steamcdn-a.akamaihd.net/steamcommunity/public/images/apps/865250/a70d470cd8be856bd267466d75d99339a0f3740c.jpg"
  },
  {
    "name": "ps_perfection_step",
    "defaultvalue": 0,
    "displayName": "Step to perfection",
    "hidden": 0,
    "description": "FC a song in Hard",
    "icon": "https://steamcdn-a.akamaihd.net/steamcommunity/public/images/apps/865250/4b2a15feee208ffbd0d9dc4482c5c00c48100cce.jpg",
    "icongray": "https://steamcdn-a.akamaihd.net/steamcommunity/public/images/apps/865250/a70d470cd8be856bd267466d75d99339a0f3740c.jpg"
  },
  {
    "name": "ps_fc_multi",
    "defaultvalue": 0,
    "displayName": "FC Multi",
    "hidden": 0,
    "description": "FC a song in a multiplayer game",
    "icon": "https://steamcdn-a.akamaihd.net/steamcommunity/public/images/apps/865250/4b2a15feee208ffbd0d9dc4482c5c00c48100cce.jpg",
    "icongray": "https://steamcdn-a.akamaihd.net/steamcommunity/public/images/apps/865250/a70d470cd8be856bd267466d75d99339a0f3740c.jpg"
  },
  {
    "name": "ps_rank_6",
    "defaultvalue": 0,
    "displayName": "Rank 6",
    "hidden": 0,
    "description": "Get rank 6 on a song",
    "icon": "https://steamcdn-a.akamaihd.net/steamcommunity/public/images/apps/865250/4b2a15feee208ffbd0d9dc4482c5c00c48100cce.jpg",
    "icongray": "https://steamcdn-a.akamaihd.net/steamcommunity/public/images/apps/865250/a70d470cd8be856bd267466d75d99339a0f3740c.jpg"
  },
  {
    "name": "ps_rank_6_multi",
    "defaultvalue": 0,
    "displayName": "Rank 6 Multi",
    "hidden": 0,
    "description": "Get rank 6 on a song in a multiplayer game",
    "icon": "https://steamcdn-a.akamaihd.net/steamcommunity/public/images/apps/865250/4b2a15feee208ffbd0d9dc4482c5c00c48100cce.jpg",
    "icongray": "https://steamcdn-a.akamaihd.net/steamcommunity/public/images/apps/865250/a70d470cd8be856bd267466d75d99339a0f3740c.jpg"
  },
  {
    "name": "ps_rising_star",
    "defaultvalue": 0,
    "displayName": "Rising Star",
    "hidden": 0,
    "description": "Enable Phase Shift 7 times in a single song",
    "icon": "https://steamcdn-a.akamaihd.net/steamcommunity/public/images/apps/865250/4b2a15feee208ffbd0d9dc4482c5c00c48100cce.jpg",
    "icongray": "https://steamcdn-a.akamaihd.net/steamcommunity/public/images/apps/865250/a70d470cd8be856bd267466d75d99339a0f3740c.jpg"
  },
  {
    "name": "ps_oh_no",
    "defaultvalue": 0,
    "displayName": "Oh S**T!",
    "hidden": 0,
    "description": "Don't let the pressure get to you",
    "icon": "https://steamcdn-a.akamaihd.net/steamcommunity/public/images/apps/865250/4b2a15feee208ffbd0d9dc4482c5c00c48100cce.jpg",
    "icongray": "https://steamcdn-a.akamaihd.net/steamcommunity/public/images/apps/865250/a70d470cd8be856bd267466d75d99339a0f3740c.jpg"
  },
  {
    "name": "ps_letdown",
    "defaultvalue": 0,
    "displayName": "Letdown",
    "hidden": 0,
    "description": "Oh, the shame of it all",
    "icon": "https://steamcdn-a.akamaihd.net/steamcommunity/public/images/apps/865250/4b2a15feee208ffbd0d9dc4482c5c00c48100cce.jpg",
    "icongray": "https://steamcdn-a.akamaihd.net/steamcommunity/public/images/apps/865250/a70d470cd8be856bd267466d75d99339a0f3740c.jpg"
  }
]