{
  "Dlcs": {},
  "Name": "HUMAN LIVE-HOW LONG CAN HUMAN BEINGS EXIST?地球世界末日，人类能生存多久？冒险策略模拟经营游戏",
  "AppId": "843790",
  "ImageUrl": "https://steamcdn-a.akamaihd.net/steam/apps/843790/header.jpg?t=1577427529",
  "Languages": [
    "schinese"
  ],
  "Platforms": {
    "windows": true,
    "mac": false,
    "linux": false
  }
}