{
  "Dlcs": {},
  "Name": "RCRacer VR",
  "AppId": "977270",
  "ImageUrl": "https://steamcdn-a.akamaihd.net/steam/apps/977270/header.jpg?t=1588590109",
  "Languages": [
    "english"
  ],
  "Platforms": {
    "windows": true,
    "mac": false,
    "linux": false
  }
}