{
  "Dlcs": {},
  "Name": "VR Fantasy Island",
  "AppId": "1213400",
  "ImageUrl": "https://steamcdn-a.akamaihd.net/steam/apps/1213400/header.jpg?t=1577943147",
  "Languages": [
    "english"
  ],
  "Platforms": {
    "windows": true,
    "mac": false,
    "linux": false
  }
}