[
  {
    "name": "ALL_BIRDS",
    "defaultvalue": 0,
    "displayName": "Serves Them Right",
    "hidden": 0,
    "description": "In a level with at least three enemies, knock everyone out with the first serve.",
    "icon": "https://steamcdn-a.akamaihd.net/steamcommunity/public/images/apps/394290/ba38a45376fa227a54d7f6060363c1c50fa3dc09.jpg",
    "icongray": "https://steamcdn-a.akamaihd.net/steamcommunity/public/images/apps/394290/03fd531650562a4d565eb7f8ce3a345626978032.jpg"
  },
  {
    "name": "COMBO_X5",
    "defaultvalue": 0,
    "displayName": "Sparing Bounces",
    "hidden": 0,
    "description": "Knock out 5 enemies before the fourth bounce.",
    "icon": "https://steamcdn-a.akamaihd.net/steamcommunity/public/images/apps/394290/79263a3f0e74e23d2484e8732dc0ed579d1e21e9.jpg",
    "icongray": "https://steamcdn-a.akamaihd.net/steamcommunity/public/images/apps/394290/03fd531650562a4d565eb7f8ce3a345626978032.jpg"
  },
  {
    "name": "3BALLS",
    "defaultvalue": 0,
    "displayName": "Ball Saver",
    "hidden": 0,
    "description": "Earn at least one extra ball from every level in the first district.",
    "icon": "https://steamcdn-a.akamaihd.net/steamcommunity/public/images/apps/394290/c956bccf836e775b1a0d54cf24383df278388389.jpg",
    "icongray": "https://steamcdn-a.akamaihd.net/steamcommunity/public/images/apps/394290/03fd531650562a4d565eb7f8ce3a345626978032.jpg"
  },
  {
    "name": "SCORE_25000",
    "defaultvalue": 0,
    "displayName": "25k",
    "hidden": 0,
    "description": "Score 25,000 points with a single serve.",
    "icon": "https://steamcdn-a.akamaihd.net/steamcommunity/public/images/apps/394290/fcd1fc408aa7a4a01812c49209fda6389dadbdb6.jpg",
    "icongray": "https://steamcdn-a.akamaihd.net/steamcommunity/public/images/apps/394290/03fd531650562a4d565eb7f8ce3a345626978032.jpg"
  },
  {
    "name": "HEADSHOTS",
    "defaultvalue": 0,
    "displayName": "Tennis In The Face",
    "hidden": 0,
    "description": "Get five headshots with a single serve.",
    "icon": "https://steamcdn-a.akamaihd.net/steamcommunity/public/images/apps/394290/03cae43674f8e98588e9b70fcff86cef4de1dfbb.jpg",
    "icongray": "https://steamcdn-a.akamaihd.net/steamcommunity/public/images/apps/394290/03fd531650562a4d565eb7f8ce3a345626978032.jpg"
  },
  {
    "name": "100BOUNCES",
    "defaultvalue": 0,
    "displayName": "100 Bounces",
    "hidden": 0,
    "description": "Serve a ball that bounces 100 times.",
    "icon": "https://steamcdn-a.akamaihd.net/steamcommunity/public/images/apps/394290/af9b4e936e9b2a571f59bd8e8988c013dc6a4a88.jpg",
    "icongray": "https://steamcdn-a.akamaihd.net/steamcommunity/public/images/apps/394290/03fd531650562a4d565eb7f8ce3a345626978032.jpg"
  },
  {
    "name": "EXPLOZ_JUNKIE",
    "defaultvalue": 0,
    "displayName": "Explodz Junkie",
    "hidden": 0,
    "description": "Knock out six opponents with a single Explodz explosion.",
    "icon": "https://steamcdn-a.akamaihd.net/steamcommunity/public/images/apps/394290/d92db26fa72971a022b2379036b22ba9031e81a5.jpg",
    "icongray": "https://steamcdn-a.akamaihd.net/steamcommunity/public/images/apps/394290/03fd531650562a4d565eb7f8ce3a345626978032.jpg"
  },
  {
    "name": "GLASS_DESTROYER",
    "defaultvalue": 0,
    "displayName": "Glass Destroyer",
    "hidden": 0,
    "description": "Destroy 10 pieces of glass during one level.",
    "icon": "https://steamcdn-a.akamaihd.net/steamcommunity/public/images/apps/394290/2af7c5e35fc1f3fa1bc4b04e45ec29da24db4414.jpg",
    "icongray": "https://steamcdn-a.akamaihd.net/steamcommunity/public/images/apps/394290/03fd531650562a4d565eb7f8ce3a345626978032.jpg"
  },
  {
    "name": "MENU_SCORE",
    "defaultvalue": 0,
    "displayName": "Main Menu Enthusiast",
    "hidden": 0,
    "description": "Earn 1,000,000 points in the main menu.",
    "icon": "https://steamcdn-a.akamaihd.net/steamcommunity/public/images/apps/394290/3381603837533917b2d9016c3a478809052b5365.jpg",
    "icongray": "https://steamcdn-a.akamaihd.net/steamcommunity/public/images/apps/394290/03fd531650562a4d565eb7f8ce3a345626978032.jpg"
  },
  {
    "name": "VENDOR",
    "defaultvalue": 0,
    "displayName": "Vending Champion",
    "hidden": 0,
    "description": "Destroy three vending machines with a ball and a single serve.",
    "icon": "https://steamcdn-a.akamaihd.net/steamcommunity/public/images/apps/394290/3b2cb1a8288a929a74bfe9c30f1e9814727ead48.jpg",
    "icongray": "https://steamcdn-a.akamaihd.net/steamcommunity/public/images/apps/394290/03fd531650562a4d565eb7f8ce3a345626978032.jpg"
  },
  {
    "name": "DEFEAT_10TONS",
    "defaultvalue": 0,
    "displayName": "10tons Defeater",
    "hidden": 0,
    "description": "Defeat the 10tons crew.",
    "icon": "https://steamcdn-a.akamaihd.net/steamcommunity/public/images/apps/394290/7334acd35afb74d9e98283c77d02a6c6a2578c12.jpg",
    "icongray": "https://steamcdn-a.akamaihd.net/steamcommunity/public/images/apps/394290/03fd531650562a4d565eb7f8ce3a345626978032.jpg"
  },
  {
    "name": "CASHCOW",
    "defaultvalue": 0,
    "displayName": "Cash Cow",
    "hidden": 0,
    "description": "Collect three briefcases with a single serve.",
    "icon": "https://steamcdn-a.akamaihd.net/steamcommunity/public/images/apps/394290/0d5af9fd7807808917320a8bbf5c6d4a52742295.jpg",
    "icongray": "https://steamcdn-a.akamaihd.net/steamcommunity/public/images/apps/394290/03fd531650562a4d565eb7f8ce3a345626978032.jpg"
  }
]