﻿[
  {
    "name": "One_1",
    "defaultvalue": 0,
    "displayName": "Score Achiever 1",
    "hidden": 0,
    "description": "Unlocks randomly for every 500 points scored",
    "icon": "https://steamcdn-a.akamaihd.net/steamcommunity/public/images/apps/715510/dead4c0f3fa21a2889b6bbfbfb3ebbd5d5003a78.jpg",
    "icongray": "https://steamcdn-a.akamaihd.net/steamcommunity/public/images/apps/715510/0ad0b9338c5fe3574c96288c8d10b4bd77acb8ad.jpg"
  },
  {
    "name": "Two_1",
    "defaultvalue": 0,
    "displayName": "Score Achiever 2",
    "hidden": 0,
    "description": "Unlocks randomly for every 500 points scored",
    "icon": "https://steamcdn-a.akamaihd.net/steamcommunity/public/images/apps/715510/b2e007caa2b7961d3ab9a8a1d5b03343bc81bb50.jpg",
    "icongray": "https://steamcdn-a.akamaihd.net/steamcommunity/public/images/apps/715510/c2de5c816efee4b0e6abf2ada6266a843ef48861.jpg"
  },
  {
    "name": "Three_1",
    "defaultvalue": 0,
    "displayName": "Score Achiever 3",
    "hidden": 0,
    "description": "Unlocks randomly for every 500 points scored",
    "icon": "https://steamcdn-a.akamaihd.net/steamcommunity/public/images/apps/715510/de3ae1f1d731da0e1ae9286de9e27be115f68b6e.jpg",
    "icongray": "https://steamcdn-a.akamaihd.net/steamcommunity/public/images/apps/715510/bb661695e019f92024da42670ea97bbe6119d9d7.jpg"
  },
  {
    "name": "Four_1",
    "defaultvalue": 0,
    "displayName": "Score Achiever 4",
    "hidden": 0,
    "description": "Unlocks randomly for every 500 points scored",
    "icon": "https://steamcdn-a.akamaihd.net/steamcommunity/public/images/apps/715510/ff888c6532c2c0f464a88c2cfd21a0af494527fd.jpg",
    "icongray": "https://steamcdn-a.akamaihd.net/steamcommunity/public/images/apps/715510/de3dd50dabf7af1c5522ab80c05540e1295e39bd.jpg"
  },
  {
    "name": "Five_1",
    "defaultvalue": 0,
    "displayName": "Score Achiever 5",
    "hidden": 0,
    "description": "Unlocks randomly for every 500 points scored",
    "icon": "https://steamcdn-a.akamaihd.net/steamcommunity/public/images/apps/715510/2c1b0dd93dc94725f5a90127497e5ab9c084fb2b.jpg",
    "icongray": "https://steamcdn-a.akamaihd.net/steamcommunity/public/images/apps/715510/1ae7f701f230d4dbdb9e36f0fac673981eda12a2.jpg"
  },
  {
    "name": "Six_1",
    "defaultvalue": 0,
    "displayName": "Score Achiever 6",
    "hidden": 0,
    "description": "Unlocks randomly for every 500 points scored",
    "icon": "https://steamcdn-a.akamaihd.net/steamcommunity/public/images/apps/715510/463c00a2cdc9b5251ab040bb037b15afd2fabc37.jpg",
    "icongray": "https://steamcdn-a.akamaihd.net/steamcommunity/public/images/apps/715510/126f6804447aaaca39a304de04e73994d87e9607.jpg"
  },
  {
    "name": "Seven_1",
    "defaultvalue": 0,
    "displayName": "Score Achiever 7",
    "hidden": 0,
    "description": "Unlocks randomly for every 500 points scored",
    "icon": "https://steamcdn-a.akamaihd.net/steamcommunity/public/images/apps/715510/50733a7d7d1987e2e68c80b00281e303914ac5df.jpg",
    "icongray": "https://steamcdn-a.akamaihd.net/steamcommunity/public/images/apps/715510/659356c06cec13abb8e1648b62487f4bdbc5028c.jpg"
  },
  {
    "name": "Eight_1",
    "defaultvalue": 0,
    "displayName": "Score Achiever 8",
    "hidden": 0,
    "description": "Unlocks randomly for every 500 points scored",
    "icon": "https://steamcdn-a.akamaihd.net/steamcommunity/public/images/apps/715510/284ea02b8594dc6d992722beb2b6b81e7daa2556.jpg",
    "icongray": "https://steamcdn-a.akamaihd.net/steamcommunity/public/images/apps/715510/7265e3fd41285ad9713cac7b1d4380f91542e9d5.jpg"
  },
  {
    "name": "Nine_1",
    "defaultvalue": 0,
    "displayName": "Score Achiever 9",
    "hidden": 0,
    "description": "Unlocks randomly for every 500 points scored",
    "icon": "https://steamcdn-a.akamaihd.net/steamcommunity/public/images/apps/715510/f78204cf9f5a0d24bcf194df295a4b0c1a5bd44e.jpg",
    "icongray": "https://steamcdn-a.akamaihd.net/steamcommunity/public/images/apps/715510/299eb2b644bec67a1491791bb636312ac7217e95.jpg"
  },
  {
    "name": "Zero_1",
    "defaultvalue": 0,
    "displayName": "Score Achiever 0",
    "hidden": 0,
    "description": "Unlocks randomly for every 500 points scored",
    "icon": "https://steamcdn-a.akamaihd.net/steamcommunity/public/images/apps/715510/4d84ad6398ebe8ae84851bc36d801b45ae3a309b.jpg",
    "icongray": "https://steamcdn-a.akamaihd.net/steamcommunity/public/images/apps/715510/6904bf180aca40657003297e055ade8121cd818d.jpg"
  },
  {
    "name": "One_2",
    "defaultvalue": 0,
    "displayName": "Score Achiever 1",
    "hidden": 0,
    "description": "Unlocks randomly for every 500 points scored",
    "icon": "https://steamcdn-a.akamaihd.net/steamcommunity/public/images/apps/715510/6371f8b1991bd02ff6c813c071dd8bcf7716fbb6.jpg",
    "icongray": "https://steamcdn-a.akamaihd.net/steamcommunity/public/images/apps/715510/9e8ae69925aa9085fd9a33597284b203c572f35f.jpg"
  },
  {
    "name": "Two_2",
    "defaultvalue": 0,
    "displayName": "Score Achiever 2",
    "hidden": 0,
    "description": "Unlocks randomly for every 500 points scored",
    "icon": "https://steamcdn-a.akamaihd.net/steamcommunity/public/images/apps/715510/6e90e0f7e3655763d3576ebe30a57976342dd587.jpg",
    "icongray": "https://steamcdn-a.akamaihd.net/steamcommunity/public/images/apps/715510/c951eb5f62f76903e298a24c11e5922f765d5793.jpg"
  },
  {
    "name": "Three_2",
    "defaultvalue": 0,
    "displayName": "Score Achiever 3",
    "hidden": 0,
    "description": "Unlocks randomly for every 500 points scored",
    "icon": "https://steamcdn-a.akamaihd.net/steamcommunity/public/images/apps/715510/b808290e96b62f49ec383e30d3cfcffffb13f642.jpg",
    "icongray": "https://steamcdn-a.akamaihd.net/steamcommunity/public/images/apps/715510/20ebfba5261d1f1591ce6ec4f8f9a5f3542d8926.jpg"
  },
  {
    "name": "Four_2",
    "defaultvalue": 0,
    "displayName": "Score Achiever 4",
    "hidden": 0,
    "description": "Unlocks randomly for every 500 points scored",
    "icon": "https://steamcdn-a.akamaihd.net/steamcommunity/public/images/apps/715510/a36fa2a75e38795d5c65e02b199b05957729e44d.jpg",
    "icongray": "https://steamcdn-a.akamaihd.net/steamcommunity/public/images/apps/715510/41a10dc6fa0c7b3350971153b0cd08c171230c2f.jpg"
  },
  {
    "name": "Five_2",
    "defaultvalue": 0,
    "displayName": "Score Achiever 5",
    "hidden": 0,
    "description": "Unlocks randomly for every 500 points scored",
    "icon": "https://steamcdn-a.akamaihd.net/steamcommunity/public/images/apps/715510/c80ecbc87150374fd2bbe189ca6ef973d03731f3.jpg",
    "icongray": "https://steamcdn-a.akamaihd.net/steamcommunity/public/images/apps/715510/db9bd267a53c7b864e2de066569bcf5f0543f66c.jpg"
  },
  {
    "name": "Six_2",
    "defaultvalue": 0,
    "displayName": "Score Achiever 6",
    "hidden": 0,
    "description": "Unlocks randomly for every 500 points scored",
    "icon": "https://steamcdn-a.akamaihd.net/steamcommunity/public/images/apps/715510/b1de21f0f4fc52509facd5314aef9f512b0cc06a.jpg",
    "icongray": "https://steamcdn-a.akamaihd.net/steamcommunity/public/images/apps/715510/fe0ef375ceb6a415fab391e564c3b3589f10c649.jpg"
  },
  {
    "name": "Seven_2",
    "defaultvalue": 0,
    "displayName": "Score Achiever 7",
    "hidden": 0,
    "description": "Unlocks randomly for every 500 points scored",
    "icon": "https://steamcdn-a.akamaihd.net/steamcommunity/public/images/apps/715510/6af8c3d2dbdc2778c472fc8d9184c17000dcea66.jpg",
    "icongray": "https://steamcdn-a.akamaihd.net/steamcommunity/public/images/apps/715510/965aaa2ec2dd5dde246b2325753cd227c9351119.jpg"
  },
  {
    "name": "Eight_2",
    "defaultvalue": 0,
    "displayName": "Score Achiever 8",
    "hidden": 0,
    "description": "Unlocks randomly for every 500 points scored",
    "icon": "https://steamcdn-a.akamaihd.net/steamcommunity/public/images/apps/715510/03241716c6b94c37375b12c92f79ec8e2340c8ae.jpg",
    "icongray": "https://steamcdn-a.akamaihd.net/steamcommunity/public/images/apps/715510/162ac81fb229c8ddbee3f33461bc04dcc878871b.jpg"
  },
  {
    "name": "Nine_2",
    "defaultvalue": 0,
    "displayName": "Score Achiever 9",
    "hidden": 0,
    "description": "Unlocks randomly for every 500 points scored",
    "icon": "https://steamcdn-a.akamaihd.net/steamcommunity/public/images/apps/715510/c61b9b76acace629319bb0c0355cc4aed4363f3b.jpg",
    "icongray": "https://steamcdn-a.akamaihd.net/steamcommunity/public/images/apps/715510/9d1d28c7264db066255e63eff39dc1f1bc245a8a.jpg"
  },
  {
    "name": "A_1",
    "defaultvalue": 0,
    "displayName": "Coin Hunter A",
    "hidden": 0,
    "description": "Unlocks randomly for every 50 coins collected",
    "icon": "https://steamcdn-a.akamaihd.net/steamcommunity/public/images/apps/715510/a0aeb3409d3c238cd13762199a69d4b0c2191431.jpg",
    "icongray": "https://steamcdn-a.akamaihd.net/steamcommunity/public/images/apps/715510/31bc14d4f42a7ccbc86ac4362d20031f999fe46e.jpg"
  },
  {
    "name": "B_1",
    "defaultvalue": 0,
    "displayName": "Coin Hunter B",
    "hidden": 0,
    "description": "Unlocks randomly for every 50 coins collected",
    "icon": "https://steamcdn-a.akamaihd.net/steamcommunity/public/images/apps/715510/e1603160066d6892ef875e910d899076c03fd90b.jpg",
    "icongray": "https://steamcdn-a.akamaihd.net/steamcommunity/public/images/apps/715510/f4bca2ca42b84910c552d90248fa71c42de2aa9c.jpg"
  },
  {
    "name": "C_1",
    "defaultvalue": 0,
    "displayName": "Coin Hunter C",
    "hidden": 0,
    "description": "Unlocks randomly for every 50 coins collected",
    "icon": "https://steamcdn-a.akamaihd.net/steamcommunity/public/images/apps/715510/1250e38e1b49066ee1832b008a58a51e6030e732.jpg",
    "icongray": "https://steamcdn-a.akamaihd.net/steamcommunity/public/images/apps/715510/8f0aef7bbc9ae461b7cd8bcf74a573d8c6e0c33c.jpg"
  },
  {
    "name": "D_1",
    "defaultvalue": 0,
    "displayName": "Coin Hunter D",
    "hidden": 0,
    "description": "Unlocks randomly for every 50 coins collected",
    "icon": "https://steamcdn-a.akamaihd.net/steamcommunity/public/images/apps/715510/8e8c37b080c43dbdb30dc85867da64bae5d6c644.jpg",
    "icongray": "https://steamcdn-a.akamaihd.net/steamcommunity/public/images/apps/715510/3fc76259f450f47c3f394258a0c19f72c19486c4.jpg"
  },
  {
    "name": "E_1",
    "defaultvalue": 0,
    "displayName": "Coin Hunter E",
    "hidden": 0,
    "description": "Unlocks randomly for every 50 coins collected",
    "icon": "https://steamcdn-a.akamaihd.net/steamcommunity/public/images/apps/715510/5f02f0bcd6eb4f368979fe4caaa4be1df984b0a0.jpg",
    "icongray": "https://steamcdn-a.akamaihd.net/steamcommunity/public/images/apps/715510/180a63e31fe7d1af2df201686d019a23a8af46c0.jpg"
  },
  {
    "name": "F_1",
    "defaultvalue": 0,
    "displayName": "Coin Hunter F",
    "hidden": 0,
    "description": "Unlocks randomly for every 50 coins collected",
    "icon": "https://steamcdn-a.akamaihd.net/steamcommunity/public/images/apps/715510/0b80aca2c0f86d91458e48493fb840a46d54422b.jpg",
    "icongray": "https://steamcdn-a.akamaihd.net/steamcommunity/public/images/apps/715510/a718c24326ee3502c2e79a745d7657129080ec2a.jpg"
  },
  {
    "name": "G_1",
    "defaultvalue": 0,
    "displayName": "Coin Hunter G",
    "hidden": 0,
    "description": "Unlocks randomly for every 50 coins collected",
    "icon": "https://steamcdn-a.akamaihd.net/steamcommunity/public/images/apps/715510/a3cf8755eb0edf14633870be96aa3303798a3d1e.jpg",
    "icongray": "https://steamcdn-a.akamaihd.net/steamcommunity/public/images/apps/715510/9ef16eed2c4b692e561644f498519f3ec9810ec2.jpg"
  },
  {
    "name": "H_1",
    "defaultvalue": 0,
    "displayName": "Coin Hunter H",
    "hidden": 0,
    "description": "Unlocks randomly for every 50 coins collected",
    "icon": "https://steamcdn-a.akamaihd.net/steamcommunity/public/images/apps/715510/48ab3e1a00539a30a06ff303b7d2aa6e3e167c39.jpg",
    "icongray": "https://steamcdn-a.akamaihd.net/steamcommunity/public/images/apps/715510/7642a5575587a444abc14da2c450fe50ab67b300.jpg"
  },
  {
    "name": "I_1",
    "defaultvalue": 0,
    "displayName": "Coin Hunter I",
    "hidden": 0,
    "description": "Unlocks randomly for every 50 coins collected",
    "icon": "https://steamcdn-a.akamaihd.net/steamcommunity/public/images/apps/715510/2b18a854695b0ab70520ee340bac111c8c7aafbf.jpg",
    "icongray": "https://steamcdn-a.akamaihd.net/steamcommunity/public/images/apps/715510/28d6906fcd676a684436bb732d6c809361ad72a3.jpg"
  },
  {
    "name": "J_1",
    "defaultvalue": 0,
    "displayName": "Coin Hunter J",
    "hidden": 0,
    "description": "Unlocks randomly for every 50 coins collected",
    "icon": "https://steamcdn-a.akamaihd.net/steamcommunity/public/images/apps/715510/a31cb6b1f0c5cdee521f4aa5ab977ba16f0e6a55.jpg",
    "icongray": "https://steamcdn-a.akamaihd.net/steamcommunity/public/images/apps/715510/83768775291e8910de6ec3625110e7c940bf6231.jpg"
  },
  {
    "name": "K_1",
    "defaultvalue": 0,
    "displayName": "Coin Hunter K",
    "hidden": 0,
    "description": "Unlocks randomly for every 50 coins collected",
    "icon": "https://steamcdn-a.akamaihd.net/steamcommunity/public/images/apps/715510/bab04f3e3e6f5e6e37bccf4b65d40ef8655321fe.jpg",
    "icongray": "https://steamcdn-a.akamaihd.net/steamcommunity/public/images/apps/715510/0df5bff9d0b22d910edec721135d4d07b2a8c1e9.jpg"
  },
  {
    "name": "L_1",
    "defaultvalue": 0,
    "displayName": "Coin Hunter L",
    "hidden": 0,
    "description": "Unlocks randomly for every 50 coins collected",
    "icon": "https://steamcdn-a.akamaihd.net/steamcommunity/public/images/apps/715510/78267e9a0a3141d9317468e9787cba2ed4ddce62.jpg",
    "icongray": "https://steamcdn-a.akamaihd.net/steamcommunity/public/images/apps/715510/bf7fb76b4533c9a40a33800787fe2484c95f76af.jpg"
  },
  {
    "name": "M_1",
    "defaultvalue": 0,
    "displayName": "Coin Hunter M",
    "hidden": 0,
    "description": "Unlocks randomly for every 50 coins collected",
    "icon": "https://steamcdn-a.akamaihd.net/steamcommunity/public/images/apps/715510/2078afef724e6a9be9378ef3866b793de2784402.jpg",
    "icongray": "https://steamcdn-a.akamaihd.net/steamcommunity/public/images/apps/715510/3bf8ff2c4f0836376783de55ca67efa19899bcb0.jpg"
  },
  {
    "name": "N_1",
    "defaultvalue": 0,
    "displayName": "Coin Hunter N",
    "hidden": 0,
    "description": "Unlocks randomly for every 50 coins collected",
    "icon": "https://steamcdn-a.akamaihd.net/steamcommunity/public/images/apps/715510/921cafd201f37a56df213ed43195cce70036616f.jpg",
    "icongray": "https://steamcdn-a.akamaihd.net/steamcommunity/public/images/apps/715510/410f2757c480d9d100219ad0acdc4a91778d8f0d.jpg"
  },
  {
    "name": "O_1",
    "defaultvalue": 0,
    "displayName": "Coin Hunter O",
    "hidden": 0,
    "description": "Unlocks randomly for every 50 coins collected",
    "icon": "https://steamcdn-a.akamaihd.net/steamcommunity/public/images/apps/715510/afe4ff2a2c7bbdf14995c671cb0c2d6ed53249bd.jpg",
    "icongray": "https://steamcdn-a.akamaihd.net/steamcommunity/public/images/apps/715510/2c8d94db269a34a9fc23a3a3b12d22648c529186.jpg"
  },
  {
    "name": "P_1",
    "defaultvalue": 0,
    "displayName": "Coin Hunter P",
    "hidden": 0,
    "description": "Unlocks randomly for every 50 coins collected",
    "icon": "https://steamcdn-a.akamaihd.net/steamcommunity/public/images/apps/715510/5181cb17d44d551244ea6391376a0c827be99d35.jpg",
    "icongray": "https://steamcdn-a.akamaihd.net/steamcommunity/public/images/apps/715510/76c5626dceff3738c1dac4566bb164618c9214a0.jpg"
  },
  {
    "name": "Q_1",
    "defaultvalue": 0,
    "displayName": "Coin Hunter Q",
    "hidden": 0,
    "description": "Unlocks randomly for every 50 coins collected",
    "icon": "https://steamcdn-a.akamaihd.net/steamcommunity/public/images/apps/715510/9d969b051b07c21b9235bce6946429d5f30a5c27.jpg",
    "icongray": "https://steamcdn-a.akamaihd.net/steamcommunity/public/images/apps/715510/a2073d0d3193ccb500172a3bd5bc8bf386e7b2cd.jpg"
  },
  {
    "name": "R_1",
    "defaultvalue": 0,
    "displayName": "Coin Hunter R",
    "hidden": 0,
    "description": "Unlocks randomly for every 50 coins collected",
    "icon": "https://steamcdn-a.akamaihd.net/steamcommunity/public/images/apps/715510/a035d19adfa3a29b13013c66d9239e27d971c115.jpg",
    "icongray": "https://steamcdn-a.akamaihd.net/steamcommunity/public/images/apps/715510/3619914c8af60ab6cc9ca285c759c6e8dfe21609.jpg"
  },
  {
    "name": "S_1",
    "defaultvalue": 0,
    "displayName": "Coin Hunter S",
    "hidden": 0,
    "description": "Unlocks randomly for every 50 coins collected",
    "icon": "https://steamcdn-a.akamaihd.net/steamcommunity/public/images/apps/715510/99d78afbcfe6c4b1de191a89fc887864e06e938b.jpg",
    "icongray": "https://steamcdn-a.akamaihd.net/steamcommunity/public/images/apps/715510/932f09edff7eaf19896201dcddf5011f89f4395c.jpg"
  },
  {
    "name": "T_1",
    "defaultvalue": 0,
    "displayName": "Coin Hunter T",
    "hidden": 0,
    "description": "Unlocks randomly for every 50 coins collected",
    "icon": "https://steamcdn-a.akamaihd.net/steamcommunity/public/images/apps/715510/67fe8083e67c07afc84c28567a4b9f68c9f06823.jpg",
    "icongray": "https://steamcdn-a.akamaihd.net/steamcommunity/public/images/apps/715510/178e13f8d463c3cdf54b97769aa23d97e588763e.jpg"
  },
  {
    "name": "U_1",
    "defaultvalue": 0,
    "displayName": "Coin Hunter U",
    "hidden": 0,
    "description": "Unlocks randomly for every 50 coins collected",
    "icon": "https://steamcdn-a.akamaihd.net/steamcommunity/public/images/apps/715510/887ad4fe016df09d4d73880f8579a7db8a51897b.jpg",
    "icongray": "https://steamcdn-a.akamaihd.net/steamcommunity/public/images/apps/715510/fc40dc4bef713f255d3ac88c4f5f5681de790305.jpg"
  },
  {
    "name": "V_1",
    "defaultvalue": 0,
    "displayName": "Coin Hunter V",
    "hidden": 0,
    "description": "Unlocks randomly for every 50 coins collected",
    "icon": "https://steamcdn-a.akamaihd.net/steamcommunity/public/images/apps/715510/c16be5421bf621842da53e555bcd1e48f388b4cc.jpg",
    "icongray": "https://steamcdn-a.akamaihd.net/steamcommunity/public/images/apps/715510/e398906495b31752ab3c0f3d020a1846ec4c5784.jpg"
  },
  {
    "name": "W_1",
    "defaultvalue": 0,
    "displayName": "Coin Hunter W",
    "hidden": 0,
    "description": "Unlocks randomly for every 50 coins collected",
    "icon": "https://steamcdn-a.akamaihd.net/steamcommunity/public/images/apps/715510/e1ba49c71d63507c60ed6994d1dc6caf0f66fe12.jpg",
    "icongray": "https://steamcdn-a.akamaihd.net/steamcommunity/public/images/apps/715510/971647d81540301c0b7586df5d99880a0d0d6893.jpg"
  },
  {
    "name": "X_1",
    "defaultvalue": 0,
    "displayName": "Coin Hunter X",
    "hidden": 0,
    "description": "Unlocks randomly for every 50 coins collected",
    "icon": "https://steamcdn-a.akamaihd.net/steamcommunity/public/images/apps/715510/941d635bdf1fe63bdf2e114a7c25a1441ed0bf83.jpg",
    "icongray": "https://steamcdn-a.akamaihd.net/steamcommunity/public/images/apps/715510/9cd23c1f8ae1c08f5927f0a12c59726d62bfe415.jpg"
  },
  {
    "name": "Y_1",
    "defaultvalue": 0,
    "displayName": "Coin Hunter Y",
    "hidden": 0,
    "description": "Unlocks randomly for every 50 coins collected",
    "icon": "https://steamcdn-a.akamaihd.net/steamcommunity/public/images/apps/715510/702a71c8d62d868d34f9162324069cdbeaf767ec.jpg",
    "icongray": "https://steamcdn-a.akamaihd.net/steamcommunity/public/images/apps/715510/830b60fe1a8d29f8127281cd4db600161ac84223.jpg"
  },
  {
    "name": "Z_1",
    "defaultvalue": 0,
    "displayName": "Coin Hunter Z",
    "hidden": 0,
    "description": "Unlocks randomly for every 50 coins collected",
    "icon": "https://steamcdn-a.akamaihd.net/steamcommunity/public/images/apps/715510/8ec7928ce2741b1059abdc1b6904c36620d17186.jpg",
    "icongray": "https://steamcdn-a.akamaihd.net/steamcommunity/public/images/apps/715510/1349223fc998732322ea3356ac75f1664eebdaaa.jpg"
  },
  {
    "name": "A_2",
    "defaultvalue": 0,
    "displayName": "Coin Hunter A",
    "hidden": 0,
    "description": "Unlocks randomly for every 50 coins collected",
    "icon": "https://steamcdn-a.akamaihd.net/steamcommunity/public/images/apps/715510/eb4803a7e78ddf2aa774adb97e68325b8c7c0489.jpg",
    "icongray": "https://steamcdn-a.akamaihd.net/steamcommunity/public/images/apps/715510/adffbbb7176608cfdef8c4da5bbf8f0a39fbb03e.jpg"
  },
  {
    "name": "B_2",
    "defaultvalue": 0,
    "displayName": "Coin Hunter B",
    "hidden": 0,
    "description": "Unlocks randomly for every 50 coins collected",
    "icon": "https://steamcdn-a.akamaihd.net/steamcommunity/public/images/apps/715510/62a89cb61127e555c7724122f59bbd2ddeee7f05.jpg",
    "icongray": "https://steamcdn-a.akamaihd.net/steamcommunity/public/images/apps/715510/6ea5bd000b4bed0c91c11a832f5ea4a2a118c957.jpg"
  },
  {
    "name": "C_2",
    "defaultvalue": 0,
    "displayName": "Coin Hunter C",
    "hidden": 0,
    "description": "Unlocks randomly for every 50 coins collected",
    "icon": "https://steamcdn-a.akamaihd.net/steamcommunity/public/images/apps/715510/97cb0c012ace14fe4025f5803a94746d3c22084c.jpg",
    "icongray": "https://steamcdn-a.akamaihd.net/steamcommunity/public/images/apps/715510/283bb9ea4250d4f105151798fe3f73641e46eda6.jpg"
  },
  {
    "name": "D_2",
    "defaultvalue": 0,
    "displayName": "Coin Hunter D",
    "hidden": 0,
    "description": "Unlocks randomly for every 50 coins collected",
    "icon": "https://steamcdn-a.akamaihd.net/steamcommunity/public/images/apps/715510/64c0640f9e324e31e83ceea8b24aa4125cbd27ea.jpg",
    "icongray": "https://steamcdn-a.akamaihd.net/steamcommunity/public/images/apps/715510/8b619af24a3f61a3d746a5c57305aa620a784358.jpg"
  },
  {
    "name": "E_2",
    "defaultvalue": 0,
    "displayName": "Coin Hunter E",
    "hidden": 0,
    "description": "Unlocks randomly for every 50 coins collected",
    "icon": "https://steamcdn-a.akamaihd.net/steamcommunity/public/images/apps/715510/2980cd4f157fddd41c4bff2d98dd7b64e8bad53a.jpg",
    "icongray": "https://steamcdn-a.akamaihd.net/steamcommunity/public/images/apps/715510/f31ef68ecb22f6611eb89656bb9d0caf700a193c.jpg"
  },
  {
    "name": "F_2",
    "defaultvalue": 0,
    "displayName": "Coin Hunter F",
    "hidden": 0,
    "description": "Unlocks randomly for every 50 coins collected",
    "icon": "https://steamcdn-a.akamaihd.net/steamcommunity/public/images/apps/715510/527e3164eb7c913400cba796cefaeff3d199282d.jpg",
    "icongray": "https://steamcdn-a.akamaihd.net/steamcommunity/public/images/apps/715510/41306735cc18af4181434d429a76608247d8a432.jpg"
  },
  {
    "name": "G_2",
    "defaultvalue": 0,
    "displayName": "Coin Hunter G",
    "hidden": 0,
    "description": "Unlocks randomly for every 50 coins collected",
    "icon": "https://steamcdn-a.akamaihd.net/steamcommunity/public/images/apps/715510/7d27db49b4443da51dff46f58dde5f9bd285cebe.jpg",
    "icongray": "https://steamcdn-a.akamaihd.net/steamcommunity/public/images/apps/715510/a3896d1d6f39d0760754acefa5dcb9c9039b4bb1.jpg"
  },
  {
    "name": "H_2",
    "defaultvalue": 0,
    "displayName": "Coin Hunter H",
    "hidden": 0,
    "description": "Unlocks randomly for every 50 coins collected",
    "icon": "https://steamcdn-a.akamaihd.net/steamcommunity/public/images/apps/715510/ea1755770befc2b07cbea63408446a1668d99f7a.jpg",
    "icongray": "https://steamcdn-a.akamaihd.net/steamcommunity/public/images/apps/715510/52180e2f77eed8017b015447be471f38d29615d4.jpg"
  },
  {
    "name": "I_2",
    "defaultvalue": 0,
    "displayName": "Coin Hunter I",
    "hidden": 0,
    "description": "Unlocks randomly for every 50 coins collected",
    "icon": "https://steamcdn-a.akamaihd.net/steamcommunity/public/images/apps/715510/c16fb55bf625316e2995b13b1a8acf3101c2ddb5.jpg",
    "icongray": "https://steamcdn-a.akamaihd.net/steamcommunity/public/images/apps/715510/0025c0397e3e90e40ebd8f92e0c5c6562f55f8af.jpg"
  },
  {
    "name": "J_2",
    "defaultvalue": 0,
    "displayName": "Coin Hunter J",
    "hidden": 0,
    "description": "Unlocks randomly for every 50 coins collected",
    "icon": "https://steamcdn-a.akamaihd.net/steamcommunity/public/images/apps/715510/7d0904fba5125e4191b276962201f02f1bd528ab.jpg",
    "icongray": "https://steamcdn-a.akamaihd.net/steamcommunity/public/images/apps/715510/c899a692507ff607bbdae575ad79926936f948cb.jpg"
  },
  {
    "name": "K_2",
    "defaultvalue": 0,
    "displayName": "Coin Hunter K",
    "hidden": 0,
    "description": "Unlocks randomly for every 50 coins collected",
    "icon": "https://steamcdn-a.akamaihd.net/steamcommunity/public/images/apps/715510/bfce50ddf3f88e513207b1167623d78a32bcb2d8.jpg",
    "icongray": "https://steamcdn-a.akamaihd.net/steamcommunity/public/images/apps/715510/72613ec0f53e0c3233afe6a76a75392ce11e42de.jpg"
  },
  {
    "name": "L_2",
    "defaultvalue": 0,
    "displayName": "Coin Hunter L",
    "hidden": 0,
    "description": "Unlocks randomly for every 50 coins collected",
    "icon": "https://steamcdn-a.akamaihd.net/steamcommunity/public/images/apps/715510/806571b2e024a38ff4f8eb377c73b4d93c022209.jpg",
    "icongray": "https://steamcdn-a.akamaihd.net/steamcommunity/public/images/apps/715510/55a1b521d9b5206ba24c2b9a2f5aa0dfd08547e7.jpg"
  },
  {
    "name": "M_2",
    "defaultvalue": 0,
    "displayName": "Coin Hunter M",
    "hidden": 0,
    "description": "Unlocks randomly for every 50 coins collected",
    "icon": "https://steamcdn-a.akamaihd.net/steamcommunity/public/images/apps/715510/9b1cb748529b739c0f99f16350f5b90f0b6ae8fc.jpg",
    "icongray": "https://steamcdn-a.akamaihd.net/steamcommunity/public/images/apps/715510/5495cd008fe2743abb3a780c94ff196ee2367008.jpg"
  },
  {
    "name": "N_2",
    "defaultvalue": 0,
    "displayName": "Coin Hunter N",
    "hidden": 0,
    "description": "Unlocks randomly for every 50 coins collected",
    "icon": "https://steamcdn-a.akamaihd.net/steamcommunity/public/images/apps/715510/040c58fd392b848c0dcf0cbce3e8ce7ac0e70373.jpg",
    "icongray": "https://steamcdn-a.akamaihd.net/steamcommunity/public/images/apps/715510/8ec28c989cfe5faf028e1aab44a54f978000b81b.jpg"
  },
  {
    "name": "O_2",
    "defaultvalue": 0,
    "displayName": "Coin Hunter O",
    "hidden": 0,
    "description": "Unlocks randomly for every 50 coins collected",
    "icon": "https://steamcdn-a.akamaihd.net/steamcommunity/public/images/apps/715510/bffd4e04d5e421190833f0381fad93487704c5cb.jpg",
    "icongray": "https://steamcdn-a.akamaihd.net/steamcommunity/public/images/apps/715510/b58334d53212e20bab8f407494658f69d0066487.jpg"
  },
  {
    "name": "P_2",
    "defaultvalue": 0,
    "displayName": "Coin Hunter P",
    "hidden": 0,
    "description": "Unlocks randomly for every 50 coins collected",
    "icon": "https://steamcdn-a.akamaihd.net/steamcommunity/public/images/apps/715510/7643c4c3e03a07cb95992b9f13d9e66375a40999.jpg",
    "icongray": "https://steamcdn-a.akamaihd.net/steamcommunity/public/images/apps/715510/d4956f922df51e68578d155a3b961a9cc5a5fca8.jpg"
  },
  {
    "name": "Q_2",
    "defaultvalue": 0,
    "displayName": "Coin Hunter Q",
    "hidden": 0,
    "description": "Unlocks randomly for every 50 coins collected",
    "icon": "https://steamcdn-a.akamaihd.net/steamcommunity/public/images/apps/715510/b7301015ff40fc10496dc8d52e0af6cd3e5fa697.jpg",
    "icongray": "https://steamcdn-a.akamaihd.net/steamcommunity/public/images/apps/715510/dabec58342d5c244d5ba6b2e36b221b4d29c2ca7.jpg"
  },
  {
    "name": "R_2",
    "defaultvalue": 0,
    "displayName": "Coin Hunter R",
    "hidden": 0,
    "description": "Unlocks randomly for every 50 coins collected",
    "icon": "https://steamcdn-a.akamaihd.net/steamcommunity/public/images/apps/715510/e663415a9babf298632048208b7198049a800945.jpg",
    "icongray": "https://steamcdn-a.akamaihd.net/steamcommunity/public/images/apps/715510/dad15d5d7339333ff85fff7771f906a29e747b7f.jpg"
  },
  {
    "name": "S_2",
    "defaultvalue": 0,
    "displayName": "Coin Hunter S",
    "hidden": 0,
    "description": "Unlocks randomly for every 50 coins collected",
    "icon": "https://steamcdn-a.akamaihd.net/steamcommunity/public/images/apps/715510/d26224fe173edd09cdb815b914df980665df83d2.jpg",
    "icongray": "https://steamcdn-a.akamaihd.net/steamcommunity/public/images/apps/715510/73a790990acc4991e4ef7ca5a120b5962797d0e7.jpg"
  },
  {
    "name": "T_2",
    "defaultvalue": 0,
    "displayName": "Coin Hunter T",
    "hidden": 0,
    "description": "Unlocks randomly for every 50 coins collected",
    "icon": "https://steamcdn-a.akamaihd.net/steamcommunity/public/images/apps/715510/3461d71e72ea5c7fd7f4d5dbc0a02908111d3b74.jpg",
    "icongray": "https://steamcdn-a.akamaihd.net/steamcommunity/public/images/apps/715510/f1e4c194718da8c6015d43b3be392e115f1fbd12.jpg"
  },
  {
    "name": "U_2",
    "defaultvalue": 0,
    "displayName": "Coin Hunter U",
    "hidden": 0,
    "description": "Unlocks randomly for every 50 coins collected",
    "icon": "https://steamcdn-a.akamaihd.net/steamcommunity/public/images/apps/715510/4aa5a6ce690fbf6e179da6e44ae12d269f758a75.jpg",
    "icongray": "https://steamcdn-a.akamaihd.net/steamcommunity/public/images/apps/715510/719bb1778b72bc7e4c5b1137d10a8bcd8efb93e7.jpg"
  },
  {
    "name": "V_2",
    "defaultvalue": 0,
    "displayName": "Coin Hunter V",
    "hidden": 0,
    "description": "Unlocks randomly for every 50 coins collected",
    "icon": "https://steamcdn-a.akamaihd.net/steamcommunity/public/images/apps/715510/49e222ee4fe822d6612da68dfb1bfbd10a3ecb1a.jpg",
    "icongray": "https://steamcdn-a.akamaihd.net/steamcommunity/public/images/apps/715510/6dcf3a776ec6357269d677b0d8c4713a787f972a.jpg"
  },
  {
    "name": "W_2",
    "defaultvalue": 0,
    "displayName": "Coin Hunter W",
    "hidden": 0,
    "description": "Unlocks randomly for every 50 coins collected",
    "icon": "https://steamcdn-a.akamaihd.net/steamcommunity/public/images/apps/715510/42d9fe96e533a3df5b2410575077d4c8bd8344cb.jpg",
    "icongray": "https://steamcdn-a.akamaihd.net/steamcommunity/public/images/apps/715510/d85bc793bf0c92a6e867d5dd11f0aa728da09e28.jpg"
  },
  {
    "name": "X_2",
    "defaultvalue": 0,
    "displayName": "Coin Hunter X",
    "hidden": 0,
    "description": "Unlocks randomly for every 50 coins collected",
    "icon": "https://steamcdn-a.akamaihd.net/steamcommunity/public/images/apps/715510/48c252cfa331ec6ea9d37ac5528152f065307d14.jpg",
    "icongray": "https://steamcdn-a.akamaihd.net/steamcommunity/public/images/apps/715510/9eef905deea120466e3819c013764f509012a289.jpg"
  },
  {
    "name": "Y_2",
    "defaultvalue": 0,
    "displayName": "Coin Hunter Y",
    "hidden": 0,
    "description": "Unlocks randomly for every 50 coins collected",
    "icon": "https://steamcdn-a.akamaihd.net/steamcommunity/public/images/apps/715510/936cc39bcb4719f0911aa54af90a5481e5ff6cd4.jpg",
    "icongray": "https://steamcdn-a.akamaihd.net/steamcommunity/public/images/apps/715510/f197f78a97fe6137b7def792f81689973edf84bb.jpg"
  },
  {
    "name": "Z_2",
    "defaultvalue": 0,
    "displayName": "Coin Hunter Z",
    "hidden": 0,
    "description": "Unlocks randomly for every 50 coins collected",
    "icon": "https://steamcdn-a.akamaihd.net/steamcommunity/public/images/apps/715510/11062315d3497d26d25641d679c3fc0d8b531e40.jpg",
    "icongray": "https://steamcdn-a.akamaihd.net/steamcommunity/public/images/apps/715510/dfc4d3069c5e30632f10e344cfa3010860c0c134.jpg"
  },
  {
    "name": "A_3",
    "defaultvalue": 0,
    "displayName": "Coin Hunter A",
    "hidden": 0,
    "description": "Unlocks randomly for every 50 coins collected",
    "icon": "https://steamcdn-a.akamaihd.net/steamcommunity/public/images/apps/715510/97b7f76d206fb87eadcb0c642bf994e3f152f259.jpg",
    "icongray": "https://steamcdn-a.akamaihd.net/steamcommunity/public/images/apps/715510/4f6306653b84552a052d659d3e7a99140346b25e.jpg"
  },
  {
    "name": "B_3",
    "defaultvalue": 0,
    "displayName": "Coin Hunter B",
    "hidden": 0,
    "description": "Unlocks randomly for every 50 coins collected",
    "icon": "https://steamcdn-a.akamaihd.net/steamcommunity/public/images/apps/715510/b8b42b1604ebfbbbfce9a182dfe1c54c709e3186.jpg",
    "icongray": "https://steamcdn-a.akamaihd.net/steamcommunity/public/images/apps/715510/3cfbd415126b7fe9f89c7250e8fd14d70e0e376e.jpg"
  },
  {
    "name": "C_3",
    "defaultvalue": 0,
    "displayName": "Coin Hunter C",
    "hidden": 0,
    "description": "Unlocks randomly for every 50 coins collected",
    "icon": "https://steamcdn-a.akamaihd.net/steamcommunity/public/images/apps/715510/d2efe7d480783bfd63bd9418406d4da7a2e68607.jpg",
    "icongray": "https://steamcdn-a.akamaihd.net/steamcommunity/public/images/apps/715510/97f290e0d0add4af3c66211068aa78817eed72da.jpg"
  },
  {
    "name": "D_3",
    "defaultvalue": 0,
    "displayName": "Coin Hunter C",
    "hidden": 0,
    "description": "Unlocks randomly for every 50 coins collected",
    "icon": "https://steamcdn-a.akamaihd.net/steamcommunity/public/images/apps/715510/c753d1f78c78abc35e44f6a4e724718f0ecf4b58.jpg",
    "icongray": "https://steamcdn-a.akamaihd.net/steamcommunity/public/images/apps/715510/6f980b8ff9a6a596c09e900437fb7f9dc1333fc3.jpg"
  },
  {
    "name": "E_3",
    "defaultvalue": 0,
    "displayName": "Coin Hunter E",
    "hidden": 0,
    "description": "Unlocks randomly for every 50 coins collected",
    "icon": "https://steamcdn-a.akamaihd.net/steamcommunity/public/images/apps/715510/906b3028eb9a61a2f541980f21e287b49148bf92.jpg",
    "icongray": "https://steamcdn-a.akamaihd.net/steamcommunity/public/images/apps/715510/f974b892fe73ade18aa262629a72f7621363f3f3.jpg"
  },
  {
    "name": "F_3",
    "defaultvalue": 0,
    "displayName": "Coin Hunter F",
    "hidden": 0,
    "description": "Unlocks randomly for every 50 coins collected",
    "icon": "https://steamcdn-a.akamaihd.net/steamcommunity/public/images/apps/715510/7106aac168df507fcc03ab23be407a43a86d586e.jpg",
    "icongray": "https://steamcdn-a.akamaihd.net/steamcommunity/public/images/apps/715510/8e223ca347303edfd9375247428cd7d8a1dd418c.jpg"
  },
  {
    "name": "G_3",
    "defaultvalue": 0,
    "displayName": "Coin Hunter G",
    "hidden": 0,
    "description": "Unlocks randomly for every 50 coins collected",
    "icon": "https://steamcdn-a.akamaihd.net/steamcommunity/public/images/apps/715510/1d78145f17082bbab41c4fe4cf0a54760a1e006c.jpg",
    "icongray": "https://steamcdn-a.akamaihd.net/steamcommunity/public/images/apps/715510/253e809b2abee2593de7659a73645f4df3dc4c13.jpg"
  },
  {
    "name": "H_3",
    "defaultvalue": 0,
    "displayName": "Coin Hunter H",
    "hidden": 0,
    "description": "Unlocks randomly for every 50 coins collected",
    "icon": "https://steamcdn-a.akamaihd.net/steamcommunity/public/images/apps/715510/2d262c417de8d39bf05fe02866815f3b3a1297f2.jpg",
    "icongray": "https://steamcdn-a.akamaihd.net/steamcommunity/public/images/apps/715510/50143f6a969f682e114e9f259ea07e956f56f2b9.jpg"
  },
  {
    "name": "I_3",
    "defaultvalue": 0,
    "displayName": "Coin Hunter I",
    "hidden": 0,
    "description": "Unlocks randomly for every 50 coins collected",
    "icon": "https://steamcdn-a.akamaihd.net/steamcommunity/public/images/apps/715510/f2224910dfee5bb486371a4492090d4fa2beeea3.jpg",
    "icongray": "https://steamcdn-a.akamaihd.net/steamcommunity/public/images/apps/715510/28d6906fcd676a684436bb732d6c809361ad72a3.jpg"
  },
  {
    "name": "J_3",
    "defaultvalue": 0,
    "displayName": "Coin Hunter J",
    "hidden": 0,
    "description": "Unlocks randomly for every 50 coins collected",
    "icon": "https://steamcdn-a.akamaihd.net/steamcommunity/public/images/apps/715510/d25793cffc5248a403a9cf573411833d75ee2e98.jpg",
    "icongray": "https://steamcdn-a.akamaihd.net/steamcommunity/public/images/apps/715510/5a23ecf2d2da4d723ea24b83f13aea58ba216eed.jpg"
  },
  {
    "name": "K_3",
    "defaultvalue": 0,
    "displayName": "Coin Hunter K",
    "hidden": 0,
    "description": "Unlocks randomly for every 50 coins collected",
    "icon": "https://steamcdn-a.akamaihd.net/steamcommunity/public/images/apps/715510/849325eeb4cfcd9d3acf4927366a2ce52d18c1ff.jpg",
    "icongray": "https://steamcdn-a.akamaihd.net/steamcommunity/public/images/apps/715510/cd1f8fb642be890f5cfd651a166962c02aa666db.jpg"
  },
  {
    "name": "L_3",
    "defaultvalue": 0,
    "displayName": "Coin Hunter L",
    "hidden": 0,
    "description": "Unlocks randomly for every 50 coins collected",
    "icon": "https://steamcdn-a.akamaihd.net/steamcommunity/public/images/apps/715510/e7c172a9dac48922f4859f0c2c650e0ca52bfeb1.jpg",
    "icongray": "https://steamcdn-a.akamaihd.net/steamcommunity/public/images/apps/715510/f3a9cb945ef436301f612dd64d10d145a1dd10e2.jpg"
  },
  {
    "name": "M_3",
    "defaultvalue": 0,
    "displayName": "Coin Hunter M",
    "hidden": 0,
    "description": "Unlocks randomly for every 50 coins collected",
    "icon": "https://steamcdn-a.akamaihd.net/steamcommunity/public/images/apps/715510/75f79c45fe67e07a22e4753c7550515bbeec2d33.jpg",
    "icongray": "https://steamcdn-a.akamaihd.net/steamcommunity/public/images/apps/715510/21ad334f5b7acda5f2eaab059ad47cefac42b5f3.jpg"
  },
  {
    "name": "N_3",
    "defaultvalue": 0,
    "displayName": "Coin Hunter N",
    "hidden": 0,
    "description": "Unlocks randomly for every 50 coins collected",
    "icon": "https://steamcdn-a.akamaihd.net/steamcommunity/public/images/apps/715510/166e329f25bdceeb9a32c72638b3c5a21f7973b6.jpg",
    "icongray": "https://steamcdn-a.akamaihd.net/steamcommunity/public/images/apps/715510/fac5f22e110b1e2356bfada0ff88435268d5cad1.jpg"
  },
  {
    "name": "O_3",
    "defaultvalue": 0,
    "displayName": "Coin Hunter O",
    "hidden": 0,
    "description": "Unlocks randomly for every 50 coins collected",
    "icon": "https://steamcdn-a.akamaihd.net/steamcommunity/public/images/apps/715510/9b9e2d48ebdb5e9018e457ac133e9bc3b9859768.jpg",
    "icongray": "https://steamcdn-a.akamaihd.net/steamcommunity/public/images/apps/715510/cd40cb35b6128723bf940a54c822c03e9bf0c8d0.jpg"
  },
  {
    "name": "P_3",
    "defaultvalue": 0,
    "displayName": "Coin Hunter P",
    "hidden": 0,
    "description": "Unlocks randomly for every 50 coins collected",
    "icon": "https://steamcdn-a.akamaihd.net/steamcommunity/public/images/apps/715510/a610db443779eb86f4ffe852251d0233442142af.jpg",
    "icongray": "https://steamcdn-a.akamaihd.net/steamcommunity/public/images/apps/715510/8c0746a078e615a9b0febd436e0080a44f6f2375.jpg"
  },
  {
    "name": "Q_3",
    "defaultvalue": 0,
    "displayName": "Coin Hunter Q",
    "hidden": 0,
    "description": "Unlocks randomly for every 50 coins collected",
    "icon": "https://steamcdn-a.akamaihd.net/steamcommunity/public/images/apps/715510/de516dde324a4b1bc57185426914b4df63a6b4d3.jpg",
    "icongray": "https://steamcdn-a.akamaihd.net/steamcommunity/public/images/apps/715510/c77e1850d4cae9f9d937a6f7d59f22c990c4463e.jpg"
  },
  {
    "name": "R_3",
    "defaultvalue": 0,
    "displayName": "Coin Hunter R",
    "hidden": 0,
    "description": "Unlocks randomly for every 50 coins collected",
    "icon": "https://steamcdn-a.akamaihd.net/steamcommunity/public/images/apps/715510/ec246d100b93190b52130fcf4e2e2c96e43a09e0.jpg",
    "icongray": "https://steamcdn-a.akamaihd.net/steamcommunity/public/images/apps/715510/93bece3299e51734ccfab266e90eca5bbe9e763a.jpg"
  },
  {
    "name": "S_3",
    "defaultvalue": 0,
    "displayName": "Coin Hunter S",
    "hidden": 0,
    "description": "Unlocks randomly for every 50 coins collected",
    "icon": "https://steamcdn-a.akamaihd.net/steamcommunity/public/images/apps/715510/9bd7ba99c7c80b494ae8e2e6ce3620b935f690c2.jpg",
    "icongray": "https://steamcdn-a.akamaihd.net/steamcommunity/public/images/apps/715510/615b2524d2770ccc5523b27ca4ac490cb9da40a7.jpg"
  },
  {
    "name": "T_3",
    "defaultvalue": 0,
    "displayName": "Coin Hunter T",
    "hidden": 0,
    "description": "Unlocks randomly for every 50 coins collected",
    "icon": "https://steamcdn-a.akamaihd.net/steamcommunity/public/images/apps/715510/bb62b29bb3d10bbe7ce0f989fbc67b79770447b0.jpg",
    "icongray": "https://steamcdn-a.akamaihd.net/steamcommunity/public/images/apps/715510/670b33f45196f2cc5af42aaa470f35f0b485b7cb.jpg"
  },
  {
    "name": "U_3",
    "defaultvalue": 0,
    "displayName": "Coin Hunter U",
    "hidden": 0,
    "description": "Unlocks randomly for every 50 coins collected",
    "icon": "https://steamcdn-a.akamaihd.net/steamcommunity/public/images/apps/715510/a790db73142874d8ef756d852745530eaafa10ec.jpg",
    "icongray": "https://steamcdn-a.akamaihd.net/steamcommunity/public/images/apps/715510/ede8bdb156b6bd0aa3fe20d3cc4b3c0c794832bd.jpg"
  },
  {
    "name": "V_3",
    "defaultvalue": 0,
    "displayName": "Coin Hunter V",
    "hidden": 0,
    "description": "Unlocks randomly for every 50 coins collected",
    "icon": "https://steamcdn-a.akamaihd.net/steamcommunity/public/images/apps/715510/682859f22bc5417ef137c32095f78dccf199e070.jpg",
    "icongray": "https://steamcdn-a.akamaihd.net/steamcommunity/public/images/apps/715510/49bfa7e02fb612361bed6505ff86699f6a7c6bce.jpg"
  },
  {
    "name": "W_3",
    "defaultvalue": 0,
    "displayName": "Coin Hunter W",
    "hidden": 0,
    "description": "Unlocks randomly for every 50 coins collected",
    "icon": "https://steamcdn-a.akamaihd.net/steamcommunity/public/images/apps/715510/db81479a5e4518fbf46b1ff7e0330722b2d8eea5.jpg",
    "icongray": "https://steamcdn-a.akamaihd.net/steamcommunity/public/images/apps/715510/c0e4ab115e3a00751a78e4de0521d51bfb80f5ca.jpg"
  },
  {
    "name": "X_3",
    "defaultvalue": 0,
    "displayName": "Coin Hunter X",
    "hidden": 0,
    "description": "Unlocks randomly for every 50 coins collected",
    "icon": "https://steamcdn-a.akamaihd.net/steamcommunity/public/images/apps/715510/107b389f7349ed220305e1df23bbd3928956506d.jpg",
    "icongray": "https://steamcdn-a.akamaihd.net/steamcommunity/public/images/apps/715510/d9ac6a0b3ba2cb38175dffb96e3a960d540972d8.jpg"
  },
  {
    "name": "Y_3",
    "defaultvalue": 0,
    "displayName": "Coin Hunter Y",
    "hidden": 0,
    "description": "Unlocks randomly for every 50 coins collected",
    "icon": "https://steamcdn-a.akamaihd.net/steamcommunity/public/images/apps/715510/f5c52143834062a62aba21d6481668de9e0efdfb.jpg",
    "icongray": "https://steamcdn-a.akamaihd.net/steamcommunity/public/images/apps/715510/f22e07e6173e921fed7eda676f44bee087cbf37d.jpg"
  },
  {
    "name": "Z_3",
    "defaultvalue": 0,
    "displayName": "Coin Hunter Z",
    "hidden": 0,
    "description": "Unlocks randomly for every 50 coins collected",
    "icon": "https://steamcdn-a.akamaihd.net/steamcommunity/public/images/apps/715510/6e3f7e203173be5d5671921d342c7de655a3b824.jpg",
    "icongray": "https://steamcdn-a.akamaihd.net/steamcommunity/public/images/apps/715510/1ca1c9c971e332bfe2af7e10edbe66b460b8a3cf.jpg"
  },
  {
    "name": "A_4",
    "defaultvalue": 0,
    "displayName": "Coin Hunter A",
    "hidden": 0,
    "description": "Unlocks randomly for every 50 coins collected",
    "icon": "https://steamcdn-a.akamaihd.net/steamcommunity/public/images/apps/715510/9b4c9cc0cf8442162199bb83396e6c0b131d6bb7.jpg",
    "icongray": "https://steamcdn-a.akamaihd.net/steamcommunity/public/images/apps/715510/bc66efecc45895decff3b7d856b8ae2fbcc1b826.jpg"
  },
  {
    "name": "B_4",
    "defaultvalue": 0,
    "displayName": "Coin Hunter B",
    "hidden": 0,
    "description": "Unlocks randomly for every 50 coins collected",
    "icon": "https://steamcdn-a.akamaihd.net/steamcommunity/public/images/apps/715510/f7dc00e3e1f7147d8587c406bb7f5ff872c8e3a9.jpg",
    "icongray": "https://steamcdn-a.akamaihd.net/steamcommunity/public/images/apps/715510/c1c660170a59e878c21802362a0d9e653a78984b.jpg"
  },
  {
    "name": "C_4",
    "defaultvalue": 0,
    "displayName": "Coin Hunter C",
    "hidden": 0,
    "description": "Unlocks randomly for every 50 coins collected",
    "icon": "https://steamcdn-a.akamaihd.net/steamcommunity/public/images/apps/715510/5737ba8a303939a5b281fe902504226914b8df1d.jpg",
    "icongray": "https://steamcdn-a.akamaihd.net/steamcommunity/public/images/apps/715510/9072187db42f02544d4089f227b6967412abdcea.jpg"
  },
  {
    "name": "D_4",
    "defaultvalue": 0,
    "displayName": "Coin Hunter D",
    "hidden": 0,
    "description": "Unlocks randomly for every 50 coins collected",
    "icon": "https://steamcdn-a.akamaihd.net/steamcommunity/public/images/apps/715510/a30630e92c3435ce6c538e6a4f9b16d2d77c385b.jpg",
    "icongray": "https://steamcdn-a.akamaihd.net/steamcommunity/public/images/apps/715510/ec36c924c59f6fa1d7471b938aedd3f36629a638.jpg"
  },
  {
    "name": "E_4",
    "defaultvalue": 0,
    "displayName": "Coin Hunter E",
    "hidden": 0,
    "description": "Unlocks randomly for every 50 coins collected",
    "icon": "https://steamcdn-a.akamaihd.net/steamcommunity/public/images/apps/715510/46054a1483787b34a261d347b42b5082aeec7dff.jpg",
    "icongray": "https://steamcdn-a.akamaihd.net/steamcommunity/public/images/apps/715510/7461a9acb98edf96c51c3d6fbb6956abee3c6ea4.jpg"
  },
  {
    "name": "F_4",
    "defaultvalue": 0,
    "displayName": "Coin Hunter F",
    "hidden": 0,
    "description": "Unlocks randomly for every 50 coins collected",
    "icon": "https://steamcdn-a.akamaihd.net/steamcommunity/public/images/apps/715510/2283090006044844cce616aca90d62c3f1aa0b1e.jpg",
    "icongray": "https://steamcdn-a.akamaihd.net/steamcommunity/public/images/apps/715510/a352727a717cee7793dae6389f23eda721604b91.jpg"
  },
  {
    "name": "G_4",
    "defaultvalue": 0,
    "displayName": "Coin Hunter G",
    "hidden": 0,
    "description": "Unlocks randomly for every 50 coins collected",
    "icon": "https://steamcdn-a.akamaihd.net/steamcommunity/public/images/apps/715510/1a239fd300ff3fbdac93f01bdc3aac61f1bd811d.jpg",
    "icongray": "https://steamcdn-a.akamaihd.net/steamcommunity/public/images/apps/715510/50a2d43a26298868a3a10c8aad3f60204221f255.jpg"
  },
  {
    "name": "H_4",
    "defaultvalue": 0,
    "displayName": "Coin Hunter H",
    "hidden": 0,
    "description": "Unlocks randomly for every 50 coins collected",
    "icon": "https://steamcdn-a.akamaihd.net/steamcommunity/public/images/apps/715510/df01f3a9bfb327232c4d22031ae495e641e252c2.jpg",
    "icongray": "https://steamcdn-a.akamaihd.net/steamcommunity/public/images/apps/715510/34c48a611d8f6931735e4ac6d620783822f58877.jpg"
  },
  {
    "name": "I_4",
    "defaultvalue": 0,
    "displayName": "Coin Hunter I",
    "hidden": 0,
    "description": "Unlocks randomly for every 50 coins collected",
    "icon": "https://steamcdn-a.akamaihd.net/steamcommunity/public/images/apps/715510/a18d5050ae311ade9d38ba81ee5c59f233b18efc.jpg",
    "icongray": "https://steamcdn-a.akamaihd.net/steamcommunity/public/images/apps/715510/8fe27fa1690f81916a8866ea03b0a9ab9527ef94.jpg"
  },
  {
    "name": "J_4",
    "defaultvalue": 0,
    "displayName": "Coin Hunter J",
    "hidden": 0,
    "description": "Unlocks randomly for every 50 coins collected",
    "icon": "https://steamcdn-a.akamaihd.net/steamcommunity/public/images/apps/715510/cf9ef17bb6bad02471261ead8680237c624feb2e.jpg",
    "icongray": "https://steamcdn-a.akamaihd.net/steamcommunity/public/images/apps/715510/e931eb77d0a9dff42b540cb354fe0fe649832c4e.jpg"
  },
  {
    "name": "K_4",
    "defaultvalue": 0,
    "displayName": "Coin Hunter K",
    "hidden": 0,
    "description": "Unlocks randomly for every 50 coins collected",
    "icon": "https://steamcdn-a.akamaihd.net/steamcommunity/public/images/apps/715510/1db084ac1238d5a7651b6cbc8e0ab17979e833d1.jpg",
    "icongray": "https://steamcdn-a.akamaihd.net/steamcommunity/public/images/apps/715510/dbc2871d7c03e8201782f166e958b874e15427fe.jpg"
  },
  {
    "name": "L_4",
    "defaultvalue": 0,
    "displayName": "Coin Hunter L",
    "hidden": 0,
    "description": "Unlocks randomly for every 50 coins collected",
    "icon": "https://steamcdn-a.akamaihd.net/steamcommunity/public/images/apps/715510/d1ba12ae4cd8cb921a6bd965ab95c1b3a6bb5d8c.jpg",
    "icongray": "https://steamcdn-a.akamaihd.net/steamcommunity/public/images/apps/715510/be21c8ea9f1ca5c9a8251426f650a5f3d9ac3c9b.jpg"
  },
  {
    "name": "M_4",
    "defaultvalue": 0,
    "displayName": "Coin Hunter M",
    "hidden": 0,
    "description": "Unlocks randomly for every 50 coins collected",
    "icon": "https://steamcdn-a.akamaihd.net/steamcommunity/public/images/apps/715510/84d8c0735ff127ac8598391c60945fa27269d050.jpg",
    "icongray": "https://steamcdn-a.akamaihd.net/steamcommunity/public/images/apps/715510/84e79eb51e4a85666b53c6793572d3b844f6ca90.jpg"
  },
  {
    "name": "N_4",
    "defaultvalue": 0,
    "displayName": "Coin Hunter N",
    "hidden": 0,
    "description": "Unlocks randomly for every 50 coins collected",
    "icon": "https://steamcdn-a.akamaihd.net/steamcommunity/public/images/apps/715510/6cb342b38c348076b072e58933848bd1bd79892e.jpg",
    "icongray": "https://steamcdn-a.akamaihd.net/steamcommunity/public/images/apps/715510/afde6089d17b7815c93520ec857615931e9cb3d8.jpg"
  },
  {
    "name": "O_4",
    "defaultvalue": 0,
    "displayName": "Coin Hunter O",
    "hidden": 0,
    "description": "Unlocks randomly for every 50 coins collected",
    "icon": "https://steamcdn-a.akamaihd.net/steamcommunity/public/images/apps/715510/b6b1b7096759fd4c6cb51280a1850c04eae7be33.jpg",
    "icongray": "https://steamcdn-a.akamaihd.net/steamcommunity/public/images/apps/715510/4864ce8c57fa286766bc4e35ef28898b36ae281b.jpg"
  },
  {
    "name": "P_4",
    "defaultvalue": 0,
    "displayName": "Coin Hunter P",
    "hidden": 0,
    "description": "Unlocks randomly for every 50 coins collected",
    "icon": "https://steamcdn-a.akamaihd.net/steamcommunity/public/images/apps/715510/521643b2773ef8f574810ee06b3407b27695f425.jpg",
    "icongray": "https://steamcdn-a.akamaihd.net/steamcommunity/public/images/apps/715510/8db21e132d4ea8c1a894f751e78317fc2bb850a0.jpg"
  },
  {
    "name": "Q_4",
    "defaultvalue": 0,
    "displayName": "Coin Hunter Q",
    "hidden": 0,
    "description": "Unlocks randomly for every 50 coins collected",
    "icon": "https://steamcdn-a.akamaihd.net/steamcommunity/public/images/apps/715510/5314960f129df1692bcf6935fd509c2aeb592bab.jpg",
    "icongray": "https://steamcdn-a.akamaihd.net/steamcommunity/public/images/apps/715510/0f852c9ba9d7de18d7c6bbb5ca16302dac8cd671.jpg"
  },
  {
    "name": "R_4",
    "defaultvalue": 0,
    "displayName": "Coin Hunter R",
    "hidden": 0,
    "description": "Unlocks randomly for every 50 coins collected",
    "icon": "https://steamcdn-a.akamaihd.net/steamcommunity/public/images/apps/715510/2e911ee8c043d94e6d1ec3ea8404b91bdcdca504.jpg",
    "icongray": "https://steamcdn-a.akamaihd.net/steamcommunity/public/images/apps/715510/50bff88cf4816631cc4e55fbdd2c8b9124731061.jpg"
  },
  {
    "name": "S_4",
    "defaultvalue": 0,
    "displayName": "Coin Hunter S",
    "hidden": 0,
    "description": "Unlocks randomly for every 50 coins collected",
    "icon": "https://steamcdn-a.akamaihd.net/steamcommunity/public/images/apps/715510/cc079d888d663fb02366e5e5b0c972f220b56362.jpg",
    "icongray": "https://steamcdn-a.akamaihd.net/steamcommunity/public/images/apps/715510/67a69c80821cda0ce74c6c1a10776f9ba8fbde6c.jpg"
  },
  {
    "name": "T_4",
    "defaultvalue": 0,
    "displayName": "Coin Hunter T",
    "hidden": 0,
    "description": "Unlocks randomly for every 50 coins collected",
    "icon": "https://steamcdn-a.akamaihd.net/steamcommunity/public/images/apps/715510/51bd89a8928de53967e0f608b0373d5c36877962.jpg",
    "icongray": "https://steamcdn-a.akamaihd.net/steamcommunity/public/images/apps/715510/5319c9939bd8e11de94c2f0976eccf670f998e62.jpg"
  },
  {
    "name": "U_4",
    "defaultvalue": 0,
    "displayName": "Coin Hunter U",
    "hidden": 0,
    "description": "Unlocks randomly for every 50 coins collected",
    "icon": "https://steamcdn-a.akamaihd.net/steamcommunity/public/images/apps/715510/0b73cbba994df89b9c72801c2c2440aea74099cd.jpg",
    "icongray": "https://steamcdn-a.akamaihd.net/steamcommunity/public/images/apps/715510/561da20f0964360d560991dc8f898d90a29950af.jpg"
  },
  {
    "name": "V_4",
    "defaultvalue": 0,
    "displayName": "Coin Hunter V",
    "hidden": 0,
    "description": "Unlocks randomly for every 50 coins collected",
    "icon": "https://steamcdn-a.akamaihd.net/steamcommunity/public/images/apps/715510/fc8ecfc0812126639dfd828a6ca6de751f2fc57f.jpg",
    "icongray": "https://steamcdn-a.akamaihd.net/steamcommunity/public/images/apps/715510/28073d1317cb48ebddb96e497e39ae6e770788fb.jpg"
  },
  {
    "name": "W_4",
    "defaultvalue": 0,
    "displayName": "Coin Hunter W",
    "hidden": 0,
    "description": "Unlocks randomly for every 50 coins collected",
    "icon": "https://steamcdn-a.akamaihd.net/steamcommunity/public/images/apps/715510/917c41bc46e0e472fa91bb4303ae6fd404043860.jpg",
    "icongray": "https://steamcdn-a.akamaihd.net/steamcommunity/public/images/apps/715510/917c41bc46e0e472fa91bb4303ae6fd404043860.jpg"
  },
  {
    "name": "X_4",
    "defaultvalue": 0,
    "displayName": "Coin Hunter X",
    "hidden": 0,
    "description": "Unlocks randomly for every 50 coins collected",
    "icon": "https://steamcdn-a.akamaihd.net/steamcommunity/public/images/apps/715510/9a4fe40c59dfd394e337e5a8daa02dadc2c7f21f.jpg",
    "icongray": "https://steamcdn-a.akamaihd.net/steamcommunity/public/images/apps/715510/754a9e7e2621443f0284d42cb678ac8b713a2c37.jpg"
  },
  {
    "name": "Y_4",
    "defaultvalue": 0,
    "displayName": "Coin Hunter Y",
    "hidden": 0,
    "description": "Unlocks randomly for every 50 coins collected",
    "icon": "https://steamcdn-a.akamaihd.net/steamcommunity/public/images/apps/715510/81a081beeaa9ad197bb3124c961f1d8ea8482968.jpg",
    "icongray": "https://steamcdn-a.akamaihd.net/steamcommunity/public/images/apps/715510/e9f9dd8c11c1eb6bc0a3a1db1e72359bd3e6790d.jpg"
  },
  {
    "name": "Z_4",
    "defaultvalue": 0,
    "displayName": "Coin Hunter Z",
    "hidden": 0,
    "description": "Unlocks randomly for every 50 coins collected",
    "icon": "https://steamcdn-a.akamaihd.net/steamcommunity/public/images/apps/715510/8bff1f2233037079041a704d20cf361f585f452d.jpg",
    "icongray": "https://steamcdn-a.akamaihd.net/steamcommunity/public/images/apps/715510/3227412ec04e5e7b66b22d0c8604cad111113947.jpg"
  },
  {
    "name": "Symbol_1",
    "defaultvalue": 0,
    "displayName": "Monster Slayer 1",
    "hidden": 0,
    "description": "Unlocks randomly for every 3 monsters killed",
    "icon": "https://steamcdn-a.akamaihd.net/steamcommunity/public/images/apps/715510/ee217c03c59b52aceb8d79eeef820eb68fc42779.jpg",
    "icongray": "https://steamcdn-a.akamaihd.net/steamcommunity/public/images/apps/715510/d83b3100c9b918b80362618a85e2b8e1e3350dab.jpg"
  },
  {
    "name": "Symbol_2",
    "defaultvalue": 0,
    "displayName": "Monster Slayer 2",
    "hidden": 0,
    "description": "Unlocks randomly for every 3 monsters killed",
    "icon": "https://steamcdn-a.akamaihd.net/steamcommunity/public/images/apps/715510/e1efec7c12569043d6799e634fffb2e31f51b881.jpg",
    "icongray": "https://steamcdn-a.akamaihd.net/steamcommunity/public/images/apps/715510/338a4986e6d32616b1dc59fa2351a05058a05c7b.jpg"
  },
  {
    "name": "Symbol_3",
    "defaultvalue": 0,
    "displayName": "Monster Slayer 3",
    "hidden": 0,
    "description": "Unlocks randomly for every 3 monsters killed",
    "icon": "https://steamcdn-a.akamaihd.net/steamcommunity/public/images/apps/715510/4dc96edce40da91b2617954f293bde21639d0ecb.jpg",
    "icongray": "https://steamcdn-a.akamaihd.net/steamcommunity/public/images/apps/715510/d758b768018280f1b31e8e31c727f60285f9c41d.jpg"
  },
  {
    "name": "Symbol_4",
    "defaultvalue": 0,
    "displayName": "Monster Slayer 4",
    "hidden": 0,
    "description": "Unlocks randomly for every 3 monsters killed",
    "icon": "https://steamcdn-a.akamaihd.net/steamcommunity/public/images/apps/715510/89e897d2de30f39dd82ea35c24d1a315291da3a1.jpg",
    "icongray": "https://steamcdn-a.akamaihd.net/steamcommunity/public/images/apps/715510/f6e1117d0f2683d49bc363b09757711d0f158f63.jpg"
  },
  {
    "name": "Symbol_5",
    "defaultvalue": 0,
    "displayName": "Monster Slayer 5",
    "hidden": 0,
    "description": "Unlocks randomly for every 3 monsters killed",
    "icon": "https://steamcdn-a.akamaihd.net/steamcommunity/public/images/apps/715510/eb672adfc5380a50bd3e242fad95218976f6b3e0.jpg",
    "icongray": "https://steamcdn-a.akamaihd.net/steamcommunity/public/images/apps/715510/cc1491137b87dc5be0a225730ff19cdccd677608.jpg"
  },
  {
    "name": "Symbol_6",
    "defaultvalue": 0,
    "displayName": "Monster Slayer 6",
    "hidden": 0,
    "description": "Unlocks randomly for every 3 monsters killed",
    "icon": "https://steamcdn-a.akamaihd.net/steamcommunity/public/images/apps/715510/74eff278888c29cd173148a44413799398ccef0d.jpg",
    "icongray": "https://steamcdn-a.akamaihd.net/steamcommunity/public/images/apps/715510/e6baf21372d160284ab7389319f6cb62a8328093.jpg"
  },
  {
    "name": "Symbol_7",
    "defaultvalue": 0,
    "displayName": "Monster Slayer 7",
    "hidden": 0,
    "description": "Unlocks randomly for every 3 monsters killed",
    "icon": "https://steamcdn-a.akamaihd.net/steamcommunity/public/images/apps/715510/e657eaf9e61e04bc3b86e0e4de543020a68e5ada.jpg",
    "icongray": "https://steamcdn-a.akamaihd.net/steamcommunity/public/images/apps/715510/ffcf8b595ebea21654b315011bcfc872114a6a3d.jpg"
  },
  {
    "name": "Symbol_8",
    "defaultvalue": 0,
    "displayName": "Monster Slayer 8",
    "hidden": 0,
    "description": "Unlocks randomly for every 3 monsters killed",
    "icon": "https://steamcdn-a.akamaihd.net/steamcommunity/public/images/apps/715510/d84cfa987dd86d823383beb1fb1fe21eec9ff040.jpg",
    "icongray": "https://steamcdn-a.akamaihd.net/steamcommunity/public/images/apps/715510/cdb4f6c824bd74d5fb8c064b35e6368761419915.jpg"
  },
  {
    "name": "Symbol_9",
    "defaultvalue": 0,
    "displayName": "Monster Slayer 9",
    "hidden": 0,
    "description": "Unlocks randomly for every 3 monsters killed",
    "icon": "https://steamcdn-a.akamaihd.net/steamcommunity/public/images/apps/715510/46fa299c0216d0fa8412327fbba3b55d1ae6c7d5.jpg",
    "icongray": "https://steamcdn-a.akamaihd.net/steamcommunity/public/images/apps/715510/c938f43c236cb3a6fd110a987c023780f101e324.jpg"
  },
  {
    "name": "Symbol_10",
    "defaultvalue": 0,
    "displayName": "Monster Slayer 10",
    "hidden": 0,
    "description": "Unlocks randomly for every 3 monsters killed",
    "icon": "https://steamcdn-a.akamaihd.net/steamcommunity/public/images/apps/715510/e0136bd04042ac412415ed77931c1ba38fea7e8d.jpg",
    "icongray": "https://steamcdn-a.akamaihd.net/steamcommunity/public/images/apps/715510/1020bf31aae4120c1691b713bc7ece1d99dfcc40.jpg"
  },
  {
    "name": "Symbol_11",
    "defaultvalue": 0,
    "displayName": "Monster Slayer 1",
    "hidden": 0,
    "description": "Unlocks randomly for every 3 monsters killed",
    "icon": "https://steamcdn-a.akamaihd.net/steamcommunity/public/images/apps/715510/661c04da911cd5103383d8f07305e7b5909e8aad.jpg",
    "icongray": "https://steamcdn-a.akamaihd.net/steamcommunity/public/images/apps/715510/8653617ebd9a82b76a6ba7b80c01fdca6c067e69.jpg"
  },
  {
    "name": "Symbol_12",
    "defaultvalue": 0,
    "displayName": "Monster Slayer 2",
    "hidden": 0,
    "description": "Unlocks randomly for every 3 monsters killed",
    "icon": "https://steamcdn-a.akamaihd.net/steamcommunity/public/images/apps/715510/0c84009d13086e9b641116afb87beda6e665be5b.jpg",
    "icongray": "https://steamcdn-a.akamaihd.net/steamcommunity/public/images/apps/715510/3c349bd51552784adc00eb1e649b00c0ee4ea537.jpg"
  },
  {
    "name": "Symbol_13",
    "defaultvalue": 0,
    "displayName": "Monster Slayer 3",
    "hidden": 0,
    "description": "Unlocks randomly for every 3 monsters killed",
    "icon": "https://steamcdn-a.akamaihd.net/steamcommunity/public/images/apps/715510/155cc93b8fb453faf21ebd07fe85a3605633536b.jpg",
    "icongray": "https://steamcdn-a.akamaihd.net/steamcommunity/public/images/apps/715510/1f64ba13bda15e5bc00c2bb035056c4a27c294a2.jpg"
  },
  {
    "name": "Symbol_14",
    "defaultvalue": 0,
    "displayName": "Monster Slayer 4",
    "hidden": 0,
    "description": "Unlocks randomly for every 3 monsters killed",
    "icon": "https://steamcdn-a.akamaihd.net/steamcommunity/public/images/apps/715510/db2ccb1b75bd5fa915f4b717933bdc5ed4649651.jpg",
    "icongray": "https://steamcdn-a.akamaihd.net/steamcommunity/public/images/apps/715510/c207fedd5fb76fa8b1624dbb5c313120bbacfc3c.jpg"
  },
  {
    "name": "Symbol_15",
    "defaultvalue": 0,
    "displayName": "Monster Slayer 5",
    "hidden": 0,
    "description": "Unlocks randomly for every 3 monsters killed",
    "icon": "https://steamcdn-a.akamaihd.net/steamcommunity/public/images/apps/715510/b4f46321fb1611e1dece50cdf0ff20922130d0ab.jpg",
    "icongray": "https://steamcdn-a.akamaihd.net/steamcommunity/public/images/apps/715510/808b72f946fad4f8edeb4ea56130049bf25380ce.jpg"
  },
  {
    "name": "Symbol_16",
    "defaultvalue": 0,
    "displayName": "Monster Slayer 6",
    "hidden": 0,
    "description": "Unlocks randomly for every 3 monsters killed",
    "icon": "https://steamcdn-a.akamaihd.net/steamcommunity/public/images/apps/715510/b4e88c8dcb23f1af9e32d4d886b4c6b42ab4fab7.jpg",
    "icongray": "https://steamcdn-a.akamaihd.net/steamcommunity/public/images/apps/715510/7304cbba6e2ae655910585b1d550b8404e294350.jpg"
  },
  {
    "name": "Symbol_17",
    "defaultvalue": 0,
    "displayName": "Monster Slayer 7",
    "hidden": 0,
    "description": "Unlocks randomly for every 3 monsters killed",
    "icon": "https://steamcdn-a.akamaihd.net/steamcommunity/public/images/apps/715510/2ffc8c0e7e88ecaaa8693de8c311c28c05c5a27d.jpg",
    "icongray": "https://steamcdn-a.akamaihd.net/steamcommunity/public/images/apps/715510/e0111e0fa6ca4a9a03c3e54388d4a49579dbfae2.jpg"
  },
  {
    "name": "Symbol_18",
    "defaultvalue": 0,
    "displayName": "Monster Slayer 8",
    "hidden": 0,
    "description": "Unlocks randomly for every 3 monsters killed",
    "icon": "https://steamcdn-a.akamaihd.net/steamcommunity/public/images/apps/715510/b63c988af1283307aee7c403ee5fbaadd5646c1b.jpg",
    "icongray": "https://steamcdn-a.akamaihd.net/steamcommunity/public/images/apps/715510/c57fd11c1f1cd0bb9356078f4ed053b9dc587350.jpg"
  },
  {
    "name": "Symbol_19",
    "defaultvalue": 0,
    "displayName": "Monster Slayer 9",
    "hidden": 0,
    "description": "Unlocks randomly for every 3 monsters killed",
    "icon": "https://steamcdn-a.akamaihd.net/steamcommunity/public/images/apps/715510/9e7f52aa09ed21997dd8f4ae0b6c7d01d72bdea6.jpg",
    "icongray": "https://steamcdn-a.akamaihd.net/steamcommunity/public/images/apps/715510/78a68b615a2efdcae2b8c20f076155dfe29ff49d.jpg"
  },
  {
    "name": "Symbol_20",
    "defaultvalue": 0,
    "displayName": "Monster Slayer 10",
    "hidden": 0,
    "description": "Unlocks randomly for every 3 monsters killed",
    "icon": "https://steamcdn-a.akamaihd.net/steamcommunity/public/images/apps/715510/b8ed7816ba428011edbfcab49a20dde813e89c8c.jpg",
    "icongray": "https://steamcdn-a.akamaihd.net/steamcommunity/public/images/apps/715510/7e070a75cfa35f25ce357c7a3d4fd4ccb305c781.jpg"
  },
  {
    "name": "Emoticon_1",
    "defaultvalue": 0,
    "displayName": "High Scorer 1",
    "hidden": 0,
    "description": "Unlocks at reaching High Score of 1000",
    "icon": "https://steamcdn-a.akamaihd.net/steamcommunity/public/images/apps/715510/18cf0b238a64133ba543a9dc6c25e6e27fb86957.jpg",
    "icongray": "https://steamcdn-a.akamaihd.net/steamcommunity/public/images/apps/715510/67ab97ef5ad3809f27c549d62d1caa749d62e954.jpg"
  },
  {
    "name": "Emoticon_2",
    "defaultvalue": 0,
    "displayName": "High Scorer 2",
    "hidden": 0,
    "description": "Unlocks at reaching High Score of 2000",
    "icon": "https://steamcdn-a.akamaihd.net/steamcommunity/public/images/apps/715510/7e16b8055f5cf94ff947ba22b2f8f8eea1e63365.jpg",
    "icongray": "https://steamcdn-a.akamaihd.net/steamcommunity/public/images/apps/715510/2a64439dd8e2cf89d747252b8fb6054f669b884b.jpg"
  },
  {
    "name": "Emoticon_3",
    "defaultvalue": 0,
    "displayName": "High Scorer 3",
    "hidden": 0,
    "description": "Unlocks at reaching High Score of 3000",
    "icon": "https://steamcdn-a.akamaihd.net/steamcommunity/public/images/apps/715510/e13dda178a49edc7965b596b236ed4f152682044.jpg",
    "icongray": "https://steamcdn-a.akamaihd.net/steamcommunity/public/images/apps/715510/50357a390094d7c2dda35ad8e0417216e563f657.jpg"
  },
  {
    "name": "Emoticon_4",
    "defaultvalue": 0,
    "displayName": "High Scorer 4",
    "hidden": 0,
    "description": "Unlocks at reaching High Score of 4000",
    "icon": "https://steamcdn-a.akamaihd.net/steamcommunity/public/images/apps/715510/b2410191af93fcb27f765b7f1c14a0108bbd067f.jpg",
    "icongray": "https://steamcdn-a.akamaihd.net/steamcommunity/public/images/apps/715510/76b7325bf682b86d6a406f5a56556a37a69f5c46.jpg"
  },
  {
    "name": "Emoticon_5",
    "defaultvalue": 0,
    "displayName": "High Scorer 5",
    "hidden": 0,
    "description": "Unlocks at reaching High Score of 5000",
    "icon": "https://steamcdn-a.akamaihd.net/steamcommunity/public/images/apps/715510/492c6bd61d7c3bcbdd05edfd5aeff37d991f9f68.jpg",
    "icongray": "https://steamcdn-a.akamaihd.net/steamcommunity/public/images/apps/715510/cd58f1fcda4b77282b5c5dd16e24d4fd9e1cae81.jpg"
  },
  {
    "name": "Emoticon_6",
    "defaultvalue": 0,
    "displayName": "Coin Collector 1",
    "hidden": 0,
    "description": "Unlocks at collecting 200 Total Coins",
    "icon": "https://steamcdn-a.akamaihd.net/steamcommunity/public/images/apps/715510/320aaccacf97449b9aa4b29ff301f9e9b373a575.jpg",
    "icongray": "https://steamcdn-a.akamaihd.net/steamcommunity/public/images/apps/715510/88429c744b3d2c91b5e91e3770c6709d02284a5b.jpg"
  },
  {
    "name": "Emoticon_7",
    "defaultvalue": 0,
    "displayName": "Coin Collector 2",
    "hidden": 0,
    "description": "Unlocks at collecting 400 Total Coins",
    "icon": "https://steamcdn-a.akamaihd.net/steamcommunity/public/images/apps/715510/4de28493d478a419ff412593d323621c752492b4.jpg",
    "icongray": "https://steamcdn-a.akamaihd.net/steamcommunity/public/images/apps/715510/219e6b7a32612fd46e04100eff6aa09d56e61a7a.jpg"
  },
  {
    "name": "Emoticon_8",
    "defaultvalue": 0,
    "displayName": "Coin Collector 3",
    "hidden": 0,
    "description": "Unlocks at collecting 600 Total Coins",
    "icon": "https://steamcdn-a.akamaihd.net/steamcommunity/public/images/apps/715510/f81c00a9b340398070a347dec2f29216adf61299.jpg",
    "icongray": "https://steamcdn-a.akamaihd.net/steamcommunity/public/images/apps/715510/0151f182ec5a204672be1934fc94e56e8facfaef.jpg"
  },
  {
    "name": "Emoticon_9",
    "defaultvalue": 0,
    "displayName": "Coin Collector 4",
    "hidden": 0,
    "description": "Unlocks at collecting 800 Total Coins",
    "icon": "https://steamcdn-a.akamaihd.net/steamcommunity/public/images/apps/715510/024251166df3e4664e98144988d74852140e8537.jpg",
    "icongray": "https://steamcdn-a.akamaihd.net/steamcommunity/public/images/apps/715510/10429f5fb325705a48a2ae01c54bd2f39b38c23f.jpg"
  },
  {
    "name": "Emoticon_10",
    "defaultvalue": 0,
    "displayName": "Coin Collector 5",
    "hidden": 0,
    "description": "Unlocks at collecting 1000 Total Coins",
    "icon": "https://steamcdn-a.akamaihd.net/steamcommunity/public/images/apps/715510/a8c25f4ffbab8f88c211196f6f60b332dd05d340.jpg",
    "icongray": "https://steamcdn-a.akamaihd.net/steamcommunity/public/images/apps/715510/6d89216136b3aea3778687181492295b0073f4b3.jpg"
  },
  {
    "name": "Emoticon_11",
    "defaultvalue": 0,
    "displayName": "Monster Killer 1",
    "hidden": 0,
    "description": "Unlocks after killing 20 Monsters",
    "icon": "https://steamcdn-a.akamaihd.net/steamcommunity/public/images/apps/715510/3df6081fe089677007ab1674e144fb624f2934bc.jpg",
    "icongray": "https://steamcdn-a.akamaihd.net/steamcommunity/public/images/apps/715510/54109a678a18c48d5c1b031a2ada43344dab27d4.jpg"
  },
  {
    "name": "Emoticon_12",
    "defaultvalue": 0,
    "displayName": "Monster Killer 2",
    "hidden": 0,
    "description": "Unlocks after killing 40 Monsters",
    "icon": "https://steamcdn-a.akamaihd.net/steamcommunity/public/images/apps/715510/88745577c221a4bd4027676a8514de2f1e55eb41.jpg",
    "icongray": "https://steamcdn-a.akamaihd.net/steamcommunity/public/images/apps/715510/7f4fc2e5540e71bc637295af1b9ada8e9786e3fd.jpg"
  },
  {
    "name": "Emoticon_13",
    "defaultvalue": 0,
    "displayName": "Monster Killer 3",
    "hidden": 0,
    "description": "Unlocks after killing 60 Monsters",
    "icon": "https://steamcdn-a.akamaihd.net/steamcommunity/public/images/apps/715510/f14ae780fb9b7fd68ab00afd301391a846ee11b5.jpg",
    "icongray": "https://steamcdn-a.akamaihd.net/steamcommunity/public/images/apps/715510/6999561e71055570920277aabfc1fc35f98b306d.jpg"
  },
  {
    "name": "Emoticon_14",
    "defaultvalue": 0,
    "displayName": "Monster Killer 4",
    "hidden": 0,
    "description": "Unlocks after killing 80 Monsters",
    "icon": "https://steamcdn-a.akamaihd.net/steamcommunity/public/images/apps/715510/fc596ce53dbf38fcb62992948bb16d31257593ef.jpg",
    "icongray": "https://steamcdn-a.akamaihd.net/steamcommunity/public/images/apps/715510/422e46585ae81f21e9cd6597c5eabc808823c5cb.jpg"
  },
  {
    "name": "Emoticon_15",
    "defaultvalue": 0,
    "displayName": "Monster Killer 5",
    "hidden": 0,
    "description": "Unlocks after killing 100 Monsters",
    "icon": "https://steamcdn-a.akamaihd.net/steamcommunity/public/images/apps/715510/104ae1b4a6a624edfc207ac192cfac8ab8d54259.jpg",
    "icongray": "https://steamcdn-a.akamaihd.net/steamcommunity/public/images/apps/715510/9f334ba6863bb3fc81c85097613b6ebff73a600f.jpg"
  },
  {
    "name": "Emoji_1",
    "defaultvalue": 0,
    "displayName": "Community Treasurer 1",
    "hidden": 0,
    "description": "Unlocks for EVERYONE when Total Coins collected by the community reaches 100,000",
    "icon": "https://steamcdn-a.akamaihd.net/steamcommunity/public/images/apps/715510/6cd2dc50cc7fa021c95e923e13d62d72018a2f0c.jpg",
    "icongray": "https://steamcdn-a.akamaihd.net/steamcommunity/public/images/apps/715510/7519d9c48dce4436d6da50177d360589829fdc62.jpg"
  },
  {
    "name": "Emoji_2",
    "defaultvalue": 0,
    "displayName": "Community Treasurer 2",
    "hidden": 0,
    "description": "Unlocks for EVERYONE when Total Coins collected by the community reaches 250,000",
    "icon": "https://steamcdn-a.akamaihd.net/steamcommunity/public/images/apps/715510/1bfcee1ed7ec42499a99f2614a5ec6a6823134da.jpg",
    "icongray": "https://steamcdn-a.akamaihd.net/steamcommunity/public/images/apps/715510/744f5c32a649baf772d9f6617edaad462360b222.jpg"
  },
  {
    "name": "Emoji_3",
    "defaultvalue": 0,
    "displayName": "Community Treasurer 3",
    "hidden": 0,
    "description": "Unlocks for EVERYONE when Total Coins collected by the community reaches 500,000",
    "icon": "https://steamcdn-a.akamaihd.net/steamcommunity/public/images/apps/715510/d20d85ae18769daa3c6cd9cad4ae998aa51ae3a6.jpg",
    "icongray": "https://steamcdn-a.akamaihd.net/steamcommunity/public/images/apps/715510/6f2bedcaaaf69dad7d8419f577ee184ccf30d0d9.jpg"
  },
  {
    "name": "Emoji_4",
    "defaultvalue": 0,
    "displayName": "Community Runner 1",
    "hidden": 0,
    "description": "Unlocks for EVERYONE when Total Score achieved by the community reaches 1,000,000",
    "icon": "https://steamcdn-a.akamaihd.net/steamcommunity/public/images/apps/715510/6b04c73a5b2c9ef11ad894c511180aaca4384e79.jpg",
    "icongray": "https://steamcdn-a.akamaihd.net/steamcommunity/public/images/apps/715510/4cb9821db61ae263d7f59e5e9a288fa6fc356245.jpg"
  },
  {
    "name": "Emoji_5",
    "defaultvalue": 0,
    "displayName": "Community Runner 2",
    "hidden": 0,
    "description": "Unlocks for EVERYONE when Total Score achieved by the community reaches 2,500,000",
    "icon": "https://steamcdn-a.akamaihd.net/steamcommunity/public/images/apps/715510/140540a5d35cf2930e490631fb6984d250015233.jpg",
    "icongray": "https://steamcdn-a.akamaihd.net/steamcommunity/public/images/apps/715510/e689c6fbf5e2f255a3e547dec993689b36872eed.jpg"
  },
  {
    "name": "Emoji_6",
    "defaultvalue": 0,
    "displayName": "Community Runner 3",
    "hidden": 0,
    "description": "Unlocks for EVERYONE when Total Score achieved by the community reaches 5,000,000",
    "icon": "https://steamcdn-a.akamaihd.net/steamcommunity/public/images/apps/715510/7c4ae58a6467d376dc2e25085f7b25c6d804b3fd.jpg",
    "icongray": "https://steamcdn-a.akamaihd.net/steamcommunity/public/images/apps/715510/c927e3b737ee9ca278de6e1c0aeda8845e7bdef1.jpg"
  },
  {
    "name": "Emoji_7",
    "defaultvalue": 0,
    "displayName": "Community Attacker 1",
    "hidden": 0,
    "description": "Unlocks for EVERYONE when Total Monsters killed by the community reaches 10,000",
    "icon": "https://steamcdn-a.akamaihd.net/steamcommunity/public/images/apps/715510/a30a42d7472c1806e5823eafb2fce1e6246ba3f0.jpg",
    "icongray": "https://steamcdn-a.akamaihd.net/steamcommunity/public/images/apps/715510/0ce1ead9a8f1407facc506d45010598345ab838a.jpg"
  },
  {
    "name": "Emoji_8",
    "defaultvalue": 0,
    "displayName": "Community Attacker 2",
    "hidden": 0,
    "description": "Unlocks for EVERYONE when Total Monsters killed by the community reaches 25,000",
    "icon": "https://steamcdn-a.akamaihd.net/steamcommunity/public/images/apps/715510/cb9f08ff9dfef036a7edd4b33dff2966c3bdb850.jpg",
    "icongray": "https://steamcdn-a.akamaihd.net/steamcommunity/public/images/apps/715510/a354b2c9ce951544209e141b99f182a79aaacbee.jpg"
  },
  {
    "name": "Emoji_9",
    "defaultvalue": 0,
    "displayName": "Community Attacker 3",
    "hidden": 0,
    "description": "Unlocks for EVERYONE when Total Monsters killed by the community reaches 50,000",
    "icon": "https://steamcdn-a.akamaihd.net/steamcommunity/public/images/apps/715510/0db882e2d5242d1518db7aebd43eb682183798ff.jpg",
    "icongray": "https://steamcdn-a.akamaihd.net/steamcommunity/public/images/apps/715510/ff04bef921b466796a47077124e6088921e42c1d.jpg"
  },
  {
    "name": "Emoji_10",
    "defaultvalue": 0,
    "displayName": "Champion of Olympus",
    "hidden": 0,
    "description": "Unlocks when all achievements for Score Achiever, Coin Hunter and Monster Slayer have been unlocked",
    "icon": "https://steamcdn-a.akamaihd.net/steamcommunity/public/images/apps/715510/40d24cb9fceb4fbedebb1bcb4d799f095771adf6.jpg",
    "icongray": "https://steamcdn-a.akamaihd.net/steamcommunity/public/images/apps/715510/69c1280f10a2156664c1f7c75007b3015e6ffdc7.jpg"
  },
  {
    "name": "Emoji_11",
    "defaultvalue": 0,
    "displayName": "King of Olympus",
    "hidden": 0,
    "description": "Unlocks when all achievements for High Scorer, Coin Collector and Monster Killer have been unlocked",
    "icon": "https://steamcdn-a.akamaihd.net/steamcommunity/public/images/apps/715510/1e6f48271f5252eaaf129e08c1eb999fbc527a89.jpg",
    "icongray": "https://steamcdn-a.akamaihd.net/steamcommunity/public/images/apps/715510/d8db49e1f80f87b3330526b9153a2151b1dfb183.jpg"
  },
  {
    "name": "Emoji_12",
    "defaultvalue": 0,
    "displayName": "God of Olympus",
    "hidden": 0,
    "description": "Unlocks when all other achievements have been unlocked",
    "icon": "https://steamcdn-a.akamaihd.net/steamcommunity/public/images/apps/715510/1d8b3170ec270295770062c645ddd6101550ee79.jpg",
    "icongray": "https://steamcdn-a.akamaihd.net/steamcommunity/public/images/apps/715510/c9bf94768e733289e31ebb1bf4ac5e1bbe66b3f5.jpg"
  }
]