{
  "Dlcs": {},
  "Name": "Footy Ball Tournament 2018",
  "AppId": "862190",
  "ImageUrl": "https://steamcdn-a.akamaihd.net/steam/apps/862190/header.jpg?t=1535638063",
  "Languages": [
    "english"
  ],
  "Platforms": {
    "windows": true,
    "mac": false,
    "linux": false
  }
}