{
  "Dlcs": {},
  "Name": "Ventura Inc",
  "AppId": "660730",
  "ImageUrl": "https://steamcdn-a.akamaihd.net/steam/apps/660730/header.jpg?t=1527842853",
  "Languages": [
    "english"
  ],
  "Platforms": {
    "windows": true,
    "mac": false,
    "linux": false
  }
}