{
  "Dlcs": {},
  "Name": "War Of The Zombie",
  "AppId": "828660",
  "ImageUrl": "https://steamcdn-a.akamaihd.net/steam/apps/828660/header.jpg?t=1575260510",
  "Languages": [
    "english",
    "french",
    "german",
    "spanish",
    "portuguese",
    "russian"
  ],
  "Platforms": {
    "windows": true,
    "mac": true,
    "linux": false
  }
}