{
  "Dlcs": {
    "807150": {
      "Name": "Avalon: The Journey Begins - Ocean Worlds",
      "ImageUrl": "https://steamcdn-a.akamaihd.net/steam/apps/807150/header.jpg?t=1565085039"
    },
    "848040": {
      "Name": "Avalon: The Journey Begins - Ship Upgrades",
      "ImageUrl": "https://steamcdn-a.akamaihd.net/steam/apps/848040/header.jpg?t=1562385754"
    },
    "848041": {
      "Name": "Avalon: The Journey Begins - Moons",
      "ImageUrl": "https://steamcdn-a.akamaihd.net/steam/apps/848041/header.jpg?t=1562385790"
    },
    "848042": {
      "Name": "Avalon: The Journey Begins - Planetary Facilities",
      "ImageUrl": "https://steamcdn-a.akamaihd.net/steam/apps/848042/header.jpg?t=1562385844"
    },
    "848043": {
      "Name": "Avalon: The Journey Begins - Ship Builders",
      "ImageUrl": "https://steamcdn-a.akamaihd.net/steam/apps/848043/header.jpg?t=1569256237"
    }
  },
  "Name": "Avalon: The Journey Begins",
  "AppId": "502780",
  "ImageUrl": "https://steamcdn-a.akamaihd.net/steam/apps/502780/header.jpg?t=1586673574",
  "Languages": [
    "english"
  ],
  "Platforms": {
    "windows": true,
    "mac": false,
    "linux": false
  }
}