﻿[
  {
    "name": "AchievementID1",
    "defaultvalue": 0,
    "displayName": "High Five",
    "hidden": 0,
    "description": "Chain 5 matches together.",
    "icon": "https://steamcdn-a.akamaihd.net/steamcommunity/public/images/apps/496850/d1cc811a1deb17c1a43db72a6ac2179db0bc56a6.jpg",
    "icongray": "https://steamcdn-a.akamaihd.net/steamcommunity/public/images/apps/496850/1bbf705867837df18755ce39854973486e4228b8.jpg"
  },
  {
    "name": "AchievementID2",
    "defaultvalue": 0,
    "displayName": "Break the Chains",
    "hidden": 0,
    "description": "Chain 7 matches together.",
    "icon": "https://steamcdn-a.akamaihd.net/steamcommunity/public/images/apps/496850/e5d1a5eec457444afddc0f377875efef54d389b7.jpg",
    "icongray": "https://steamcdn-a.akamaihd.net/steamcommunity/public/images/apps/496850/49dd8231e503e80a34be4ec308338d1323c72a53.jpg"
  },
  {
    "name": "AchievementID3",
    "defaultvalue": 0,
    "displayName": "Professional Chainer",
    "hidden": 0,
    "description": "Chain 9 matches together.",
    "icon": "https://steamcdn-a.akamaihd.net/steamcommunity/public/images/apps/496850/213ccf7c1c4d576ebf91e92307e6bb0d79f6fb2d.jpg",
    "icongray": "https://steamcdn-a.akamaihd.net/steamcommunity/public/images/apps/496850/5fef624949882a14d511d7756c7e1d733279dff9.jpg"
  },
  {
    "name": "AchievementID4",
    "defaultvalue": 0,
    "displayName": "Did I Do That?",
    "hidden": 0,
    "description": "Chain 12 matches together.",
    "icon": "https://steamcdn-a.akamaihd.net/steamcommunity/public/images/apps/496850/c115f055673f728bb113b11d5acb2acb7bd8d097.jpg",
    "icongray": "https://steamcdn-a.akamaihd.net/steamcommunity/public/images/apps/496850/4f4a8f957e3cae02139c2aa94de8ea007b4104be.jpg"
  },
  {
    "name": "AchievementID5",
    "defaultvalue": 0,
    "displayName": "Sparta!",
    "hidden": 0,
    "description": "Create 300 chained matches.",
    "icon": "https://steamcdn-a.akamaihd.net/steamcommunity/public/images/apps/496850/a2c8d35e3a59aa672977f68573877f4594fa4608.jpg",
    "icongray": "https://steamcdn-a.akamaihd.net/steamcommunity/public/images/apps/496850/103aa974a402bed5f375f0bbf40f4d5dc19ddb79.jpg"
  },
  {
    "name": "AchievementID6",
    "defaultvalue": 0,
    "displayName": "Slick Chainy",
    "hidden": 0,
    "description": "Create 2,500 chained matches.",
    "icon": "https://steamcdn-a.akamaihd.net/steamcommunity/public/images/apps/496850/c00cd25efe477505f6d894eff6d46ba73a704ae2.jpg",
    "icongray": "https://steamcdn-a.akamaihd.net/steamcommunity/public/images/apps/496850/595f3f3299c564c682bdd4c896081dfbc058b964.jpg"
  },
  {
    "name": "AchievementID7",
    "defaultvalue": 0,
    "displayName": "Love Chains, Love Life",
    "hidden": 0,
    "description": "Create 10,000 chained matches.",
    "icon": "https://steamcdn-a.akamaihd.net/steamcommunity/public/images/apps/496850/1ff425d998e0bc58029a3b1ba91db0cae832522c.jpg",
    "icongray": "https://steamcdn-a.akamaihd.net/steamcommunity/public/images/apps/496850/5f8c22c8abed07e34cd7cede42eb53a07416783e.jpg"
  },
  {
    "name": "AchievementID8",
    "defaultvalue": 0,
    "displayName": "Chained to the Game",
    "hidden": 0,
    "description": "Create 100,000 chained matches.",
    "icon": "https://steamcdn-a.akamaihd.net/steamcommunity/public/images/apps/496850/644e3997109fe330ecfe3ea0dd8f1476b8b46598.jpg",
    "icongray": "https://steamcdn-a.akamaihd.net/steamcommunity/public/images/apps/496850/3b476b82c58bb3131c7290b8c8cb6f77ccedbfd3.jpg"
  },
  {
    "name": "AchievementID9",
    "defaultvalue": 0,
    "displayName": "Connect the Dots",
    "hidden": 0,
    "description": "Create a 7 piece match.",
    "icon": "https://steamcdn-a.akamaihd.net/steamcommunity/public/images/apps/496850/d3c79839dcf1249cfe68dd3e19c1e71459c7f5b7.jpg",
    "icongray": "https://steamcdn-a.akamaihd.net/steamcommunity/public/images/apps/496850/5129885f0632450ff0f5b08b3f3faa99a5bb8c82.jpg"
  },
  {
    "name": "AchievementID10",
    "defaultvalue": 0,
    "displayName": "Piece of Cake",
    "hidden": 0,
    "description": "Create a 12 piece match.",
    "icon": "https://steamcdn-a.akamaihd.net/steamcommunity/public/images/apps/496850/2e8e4ec2dc1f6e04c2d3e6c96a8e5af0c78b07e8.jpg",
    "icongray": "https://steamcdn-a.akamaihd.net/steamcommunity/public/images/apps/496850/9c0a5149ba6aced6388a63cbbc98dee7311d0d0d.jpg"
  },
  {
    "name": "AchievementID11",
    "defaultvalue": 0,
    "displayName": "Matchmaking Machine",
    "hidden": 0,
    "description": "Create a 21 piece match.",
    "icon": "https://steamcdn-a.akamaihd.net/steamcommunity/public/images/apps/496850/d1b3392644067bcf1e260c93f6bf28332a47d71b.jpg",
    "icongray": "https://steamcdn-a.akamaihd.net/steamcommunity/public/images/apps/496850/a4611f68a3e4c089a6c1ae7112dcc44463c8f377.jpg"
  },
  {
    "name": "AchievementID12",
    "defaultvalue": 0,
    "displayName": "Millionaire",
    "hidden": 0,
    "description": "Earn one million points.",
    "icon": "https://steamcdn-a.akamaihd.net/steamcommunity/public/images/apps/496850/a1b4228a771010d0c431f94bedbbb090a1af2efe.jpg",
    "icongray": "https://steamcdn-a.akamaihd.net/steamcommunity/public/images/apps/496850/97dd14837e50da08a07cf2b841f658788e252c1c.jpg"
  },
  {
    "name": "AchievementID13",
    "defaultvalue": 0,
    "displayName": "Making a Point",
    "hidden": 0,
    "description": "Earn five hundred million points.",
    "icon": "https://steamcdn-a.akamaihd.net/steamcommunity/public/images/apps/496850/c365fefce308e06751e30a07f9ed7a6dbb0085f0.jpg",
    "icongray": "https://steamcdn-a.akamaihd.net/steamcommunity/public/images/apps/496850/3954b0aa05b619b2336dab1f55146a3f3f886db9.jpg"
  },
  {
    "name": "AchievementID14",
    "defaultvalue": 0,
    "displayName": "Billionaire",
    "hidden": 0,
    "description": "Earn one billion points.",
    "icon": "https://steamcdn-a.akamaihd.net/steamcommunity/public/images/apps/496850/750d729d77ea7158cfaf14492882563122c8499c.jpg",
    "icongray": "https://steamcdn-a.akamaihd.net/steamcommunity/public/images/apps/496850/52c46321946886de923fe03edd21e3f1af7eacde.jpg"
  },
  {
    "name": "AchievementID15",
    "defaultvalue": 0,
    "displayName": "Boom, Headshot!",
    "hidden": 0,
    "description": "Win a 1v1 on the first attack with a 7+ chain.",
    "icon": "https://steamcdn-a.akamaihd.net/steamcommunity/public/images/apps/496850/05ca5a992c37552006686d6a90b39221e7c5aca8.jpg",
    "icongray": "https://steamcdn-a.akamaihd.net/steamcommunity/public/images/apps/496850/6dd401c078827663ae36fc528dd95ed9bfa84744.jpg"
  },
  {
    "name": "AchievementID16",
    "defaultvalue": 0,
    "displayName": "Carried the Team",
    "hidden": 0,
    "description": "Win 10 4v4 matches as the MVP.",
    "icon": "https://steamcdn-a.akamaihd.net/steamcommunity/public/images/apps/496850/a73d55105b21995ee47a99a8a34289f3d5bf090c.jpg",
    "icongray": "https://steamcdn-a.akamaihd.net/steamcommunity/public/images/apps/496850/9b83f610d9f0cb7c009ec8699bf0223bc56c166d.jpg"
  },
  {
    "name": "AchievementID17",
    "defaultvalue": 0,
    "displayName": "All Clear",
    "hidden": 0,
    "description": "Win a match with no pieces on the board.",
    "icon": "https://steamcdn-a.akamaihd.net/steamcommunity/public/images/apps/496850/5d732cf921b0b3a4959b17e6353c4e4e6260d6ed.jpg",
    "icongray": "https://steamcdn-a.akamaihd.net/steamcommunity/public/images/apps/496850/c7bc041cfcafb6b1ea8914aa167c129621003448.jpg"
  },
  {
    "name": "AchievementID18",
    "defaultvalue": 0,
    "displayName": "Win 10 1v1",
    "hidden": 0,
    "description": "Win 10 ranked 1v1 matches.",
    "icon": "https://steamcdn-a.akamaihd.net/steamcommunity/public/images/apps/496850/d50365c950a81452771e544e7d215c12afa6a7a5.jpg",
    "icongray": "https://steamcdn-a.akamaihd.net/steamcommunity/public/images/apps/496850/60843ab9afefc6f4f19a59e14c6a70f10f6abcc0.jpg"
  },
  {
    "name": "AchievementID19",
    "defaultvalue": 0,
    "displayName": "Win 25 1v1",
    "hidden": 0,
    "description": "Win 25 ranked 1v1 matches.",
    "icon": "https://steamcdn-a.akamaihd.net/steamcommunity/public/images/apps/496850/6526b8554eba4a6ed76fada9befa55212a4abbd8.jpg",
    "icongray": "https://steamcdn-a.akamaihd.net/steamcommunity/public/images/apps/496850/37761e30940ebb1819f07abe4be251bb1d936a1b.jpg"
  },
  {
    "name": "AchievementID20",
    "defaultvalue": 0,
    "displayName": "Win 100 1v1",
    "hidden": 0,
    "description": "Win 100 ranked 1v1 matches.",
    "icon": "https://steamcdn-a.akamaihd.net/steamcommunity/public/images/apps/496850/eeea24145a2cf6670237530f59d3f018c54eb82c.jpg",
    "icongray": "https://steamcdn-a.akamaihd.net/steamcommunity/public/images/apps/496850/9d459bf1aa74ed63624622551a8a05c37c4805a2.jpg"
  },
  {
    "name": "AchievementID21",
    "defaultvalue": 0,
    "displayName": "Win 250 1v1",
    "hidden": 0,
    "description": "Win 250 ranked 1v1 matches.",
    "icon": "https://steamcdn-a.akamaihd.net/steamcommunity/public/images/apps/496850/c115f055673f728bb113b11d5acb2acb7bd8d097.jpg",
    "icongray": "https://steamcdn-a.akamaihd.net/steamcommunity/public/images/apps/496850/4f4a8f957e3cae02139c2aa94de8ea007b4104be.jpg"
  },
  {
    "name": "AchievementID22",
    "defaultvalue": 0,
    "displayName": "Win 10 2v2",
    "hidden": 0,
    "description": "Win 10 ranked 2v2 matches.",
    "icon": "https://steamcdn-a.akamaihd.net/steamcommunity/public/images/apps/496850/91203be91dd8c36e16265573aa2154d3575acbfb.jpg",
    "icongray": "https://steamcdn-a.akamaihd.net/steamcommunity/public/images/apps/496850/c9825f256d05855fa8684c31c7e49c0e4e304504.jpg"
  },
  {
    "name": "AchievementID23",
    "defaultvalue": 0,
    "displayName": "Win 25 2v2",
    "hidden": 0,
    "description": "Win 25 ranked 2v2 matches.",
    "icon": "https://steamcdn-a.akamaihd.net/steamcommunity/public/images/apps/496850/bcedd820c6f6354ce5906f136bb83ff54a34d5df.jpg",
    "icongray": "https://steamcdn-a.akamaihd.net/steamcommunity/public/images/apps/496850/59ff007829a7466f888e441aa1e867477325e7d4.jpg"
  },
  {
    "name": "AchievementID24",
    "defaultvalue": 0,
    "displayName": "Win 100 2v2",
    "hidden": 0,
    "description": "Win 100 ranked 2v2 matches.",
    "icon": "https://steamcdn-a.akamaihd.net/steamcommunity/public/images/apps/496850/bc667e3de886979b18a144fb49a83dc9da93378f.jpg",
    "icongray": "https://steamcdn-a.akamaihd.net/steamcommunity/public/images/apps/496850/91df8972b001022e2ca78afc39217e2e0a81d92d.jpg"
  },
  {
    "name": "AchievementID25",
    "defaultvalue": 0,
    "displayName": "Win 250 2v2",
    "hidden": 0,
    "description": "Win 250 ranked 2v2 matches.",
    "icon": "https://steamcdn-a.akamaihd.net/steamcommunity/public/images/apps/496850/d16bb3bb599e4ef506618703b54a96c14374268d.jpg",
    "icongray": "https://steamcdn-a.akamaihd.net/steamcommunity/public/images/apps/496850/f195e3de307eac3b2557f69cfffc41056828cc12.jpg"
  },
  {
    "name": "AchievementID26",
    "defaultvalue": 0,
    "displayName": "Win 10 3v3",
    "hidden": 0,
    "description": "Win 10 ranked 3v3 matches.",
    "icon": "https://steamcdn-a.akamaihd.net/steamcommunity/public/images/apps/496850/2ba3fcb69f6a9cd288c04f20591d74b08a88dd7f.jpg",
    "icongray": "https://steamcdn-a.akamaihd.net/steamcommunity/public/images/apps/496850/7f59682692bcae8aad95b33d62379235eb1b61e3.jpg"
  },
  {
    "name": "AchievementID27",
    "defaultvalue": 0,
    "displayName": "Win 25 3v3",
    "hidden": 0,
    "description": "Win 25 ranked 3v3 matches.",
    "icon": "https://steamcdn-a.akamaihd.net/steamcommunity/public/images/apps/496850/80063e51ef7d5cec18c9b573bfa8e9d48bc297d0.jpg",
    "icongray": "https://steamcdn-a.akamaihd.net/steamcommunity/public/images/apps/496850/6d3985c6b41cec2009b9ac9ffa6c5c9226dc6f12.jpg"
  },
  {
    "name": "AchievementID28",
    "defaultvalue": 0,
    "displayName": "Win 100 3v3",
    "hidden": 0,
    "description": "Win 100 ranked 3v3 matches.",
    "icon": "https://steamcdn-a.akamaihd.net/steamcommunity/public/images/apps/496850/1ff425d998e0bc58029a3b1ba91db0cae832522c.jpg",
    "icongray": "https://steamcdn-a.akamaihd.net/steamcommunity/public/images/apps/496850/5f8c22c8abed07e34cd7cede42eb53a07416783e.jpg"
  },
  {
    "name": "AchievementID29",
    "defaultvalue": 0,
    "displayName": "Win 250 3v3",
    "hidden": 0,
    "description": "Win 250 ranked 3v3 matches.",
    "icon": "https://steamcdn-a.akamaihd.net/steamcommunity/public/images/apps/496850/644e3997109fe330ecfe3ea0dd8f1476b8b46598.jpg",
    "icongray": "https://steamcdn-a.akamaihd.net/steamcommunity/public/images/apps/496850/3b476b82c58bb3131c7290b8c8cb6f77ccedbfd3.jpg"
  },
  {
    "name": "AchievementID30",
    "defaultvalue": 0,
    "displayName": "Win 10 4v4",
    "hidden": 0,
    "description": "Win 10 ranked 4v4 matches.",
    "icon": "https://steamcdn-a.akamaihd.net/steamcommunity/public/images/apps/496850/b7dfb9ecf988f5503e9de0ba9ea1f6862d917274.jpg",
    "icongray": "https://steamcdn-a.akamaihd.net/steamcommunity/public/images/apps/496850/aed2e38c57963c6c9ce25c54597074c91910bd70.jpg"
  },
  {
    "name": "AchievementID31",
    "defaultvalue": 0,
    "displayName": "WIn 25 4v4",
    "hidden": 0,
    "description": "Win 25 ranked 4v4 matches.",
    "icon": "https://steamcdn-a.akamaihd.net/steamcommunity/public/images/apps/496850/7fc2c2bcc580c5be365513455bebe7efde1db913.jpg",
    "icongray": "https://steamcdn-a.akamaihd.net/steamcommunity/public/images/apps/496850/4a4a84e0a1c04d4e4ca780c20a84a7bcfc059cd9.jpg"
  },
  {
    "name": "AchievementID32",
    "defaultvalue": 0,
    "displayName": "Win 100 4v4",
    "hidden": 0,
    "description": "Win 100 ranked 4v4 matches.",
    "icon": "https://steamcdn-a.akamaihd.net/steamcommunity/public/images/apps/496850/137fd7724e057abef6f617e14e6ebbdec5bb45cd.jpg",
    "icongray": "https://steamcdn-a.akamaihd.net/steamcommunity/public/images/apps/496850/78ae8d70b736069402346c64f4057bfda811580e.jpg"
  },
  {
    "name": "AchievementID33",
    "defaultvalue": 0,
    "displayName": "Win 250 4v4",
    "hidden": 0,
    "description": "Win 250 ranked 4v4 matches.",
    "icon": "https://steamcdn-a.akamaihd.net/steamcommunity/public/images/apps/496850/0a251fca7c3bac1e29ca6cb333260face50a7069.jpg",
    "icongray": "https://steamcdn-a.akamaihd.net/steamcommunity/public/images/apps/496850/c8e27fb8c5299c2423a23820585c7dd64e077912.jpg"
  },
  {
    "name": "AchievementID34",
    "defaultvalue": 0,
    "displayName": "Win 10 FFA",
    "hidden": 0,
    "description": "Win 10 ranked FFA matches.",
    "icon": "https://steamcdn-a.akamaihd.net/steamcommunity/public/images/apps/496850/45253b1190efbd202c978e18f7bb6461baed55eb.jpg",
    "icongray": "https://steamcdn-a.akamaihd.net/steamcommunity/public/images/apps/496850/fd7ee123634c6cedf226fbe57d4d46d54b10b2ef.jpg"
  },
  {
    "name": "AchievementID35",
    "defaultvalue": 0,
    "displayName": "Win 25 FFA",
    "hidden": 0,
    "description": "Win 25 ranked FFA matches.",
    "icon": "https://steamcdn-a.akamaihd.net/steamcommunity/public/images/apps/496850/8e19a971c5cf42d2f54a3eacd0250d915983858b.jpg",
    "icongray": "https://steamcdn-a.akamaihd.net/steamcommunity/public/images/apps/496850/4ecafbaca0a55f9d4a81231909a74db2b66f4b33.jpg"
  },
  {
    "name": "AchievementID36",
    "defaultvalue": 0,
    "displayName": "Win 100 FFA",
    "hidden": 0,
    "description": "Win 100 ranked FFA matches.",
    "icon": "https://steamcdn-a.akamaihd.net/steamcommunity/public/images/apps/496850/8930b301535e6c523219216f214a7f3e2c517e8c.jpg",
    "icongray": "https://steamcdn-a.akamaihd.net/steamcommunity/public/images/apps/496850/0d5a966daeb64684409b386fb52279bb2a8f5e63.jpg"
  },
  {
    "name": "AchievementID37",
    "defaultvalue": 0,
    "displayName": "Win 250 FFA",
    "hidden": 0,
    "description": "Win 250 ranked FFA matches.",
    "icon": "https://steamcdn-a.akamaihd.net/steamcommunity/public/images/apps/496850/e524b36fa1e7949336af434cb3056fb578e6d1d3.jpg",
    "icongray": "https://steamcdn-a.akamaihd.net/steamcommunity/public/images/apps/496850/4fd34f44b0790b93e182057e23c5874e6cac6925.jpg"
  },
  {
    "name": "AchievementID38",
    "defaultvalue": 0,
    "displayName": "Win 10 1v1 Easy AI",
    "hidden": 0,
    "description": "Win 10 1v1 Easy AI matches.",
    "icon": "https://steamcdn-a.akamaihd.net/steamcommunity/public/images/apps/496850/c9fe3e16daccb684518fb42fe5bc2ba9c30c45be.jpg",
    "icongray": "https://steamcdn-a.akamaihd.net/steamcommunity/public/images/apps/496850/faa7d003aadba232137e71b8a065174deb930444.jpg"
  },
  {
    "name": "AchievementID39",
    "defaultvalue": 0,
    "displayName": "Win 25 1v1 Easy AI",
    "hidden": 0,
    "description": "Win 25 1v1 Easy AI matches.",
    "icon": "https://steamcdn-a.akamaihd.net/steamcommunity/public/images/apps/496850/ad525a2c16f07f130d3b0df6d84c2c401acdcef6.jpg",
    "icongray": "https://steamcdn-a.akamaihd.net/steamcommunity/public/images/apps/496850/70cde08f5efe9b59b7863df1df51f6468f9639f6.jpg"
  },
  {
    "name": "AchievementID40",
    "defaultvalue": 0,
    "displayName": "Win 100 1v1 Easy AI",
    "hidden": 0,
    "description": "Win 100 1v1 Easy AI matches.",
    "icon": "https://steamcdn-a.akamaihd.net/steamcommunity/public/images/apps/496850/5ef613f4f8134ce3addb87633be91f2db676a2fd.jpg",
    "icongray": "https://steamcdn-a.akamaihd.net/steamcommunity/public/images/apps/496850/467b3a1f44a80502aebd1ed2d37739bdd3735e70.jpg"
  },
  {
    "name": "AchievementID41",
    "defaultvalue": 0,
    "displayName": "Win 250 1v1 Easy AI",
    "hidden": 0,
    "description": "Win 250 1v1 Easy AI matches.",
    "icon": "https://steamcdn-a.akamaihd.net/steamcommunity/public/images/apps/496850/2da89b09b7ab345afee0fb7743be24eec839fe53.jpg",
    "icongray": "https://steamcdn-a.akamaihd.net/steamcommunity/public/images/apps/496850/21c7fd2442a3db4709e029496e793330291ab16d.jpg"
  },
  {
    "name": "AchievementID42",
    "defaultvalue": 0,
    "displayName": "Win 10 1v1 Medium AI",
    "hidden": 0,
    "description": "Win 10 1v1 Medium AI matches.",
    "icon": "https://steamcdn-a.akamaihd.net/steamcommunity/public/images/apps/496850/da6138a815d3eb4faa0f1d92780ff3de6f4c4fc9.jpg",
    "icongray": "https://steamcdn-a.akamaihd.net/steamcommunity/public/images/apps/496850/c1d0c1175a63751a631cee17997fadd5969e0241.jpg"
  },
  {
    "name": "AchievementID43",
    "defaultvalue": 0,
    "displayName": "Win 25 1v1 Medium AI",
    "hidden": 0,
    "description": "Win 25 1v1 Medium AI matches.",
    "icon": "https://steamcdn-a.akamaihd.net/steamcommunity/public/images/apps/496850/fba7db189dea5449a1593259f5f28bef9dc2b15b.jpg",
    "icongray": "https://steamcdn-a.akamaihd.net/steamcommunity/public/images/apps/496850/e2bd4a0af8a722f1760c56d591bbda36f2c53191.jpg"
  },
  {
    "name": "AchievementID44",
    "defaultvalue": 0,
    "displayName": "Win 100 1v1 Medium AI",
    "hidden": 0,
    "description": "Win 100 1v1 Medium AI matches.",
    "icon": "https://steamcdn-a.akamaihd.net/steamcommunity/public/images/apps/496850/49b9831f610b7cc23b08e7ff829a4ce9784a536e.jpg",
    "icongray": "https://steamcdn-a.akamaihd.net/steamcommunity/public/images/apps/496850/31db4f14275a4eea27735eba811afeb7bdaf1033.jpg"
  },
  {
    "name": "AchievementID45",
    "defaultvalue": 0,
    "displayName": "Win 250 1v1 Medium AI",
    "hidden": 0,
    "description": "Win 250 1v1 Medium AI matches.",
    "icon": "https://steamcdn-a.akamaihd.net/steamcommunity/public/images/apps/496850/fccac00b2c99f534ea59ef2b54c1236133009626.jpg",
    "icongray": "https://steamcdn-a.akamaihd.net/steamcommunity/public/images/apps/496850/3f6ecafa684332e1bcba73806f583e2a8f6e6ab0.jpg"
  },
  {
    "name": "AchievementID46",
    "defaultvalue": 0,
    "displayName": "Win 10 1v1 Hard AI",
    "hidden": 0,
    "description": "Win 10 1v1 Hard AI matches.",
    "icon": "https://steamcdn-a.akamaihd.net/steamcommunity/public/images/apps/496850/796fa7562b70559ae5a33f58d378db3897c881a3.jpg",
    "icongray": "https://steamcdn-a.akamaihd.net/steamcommunity/public/images/apps/496850/fd158c88a428c39124a6c0d043af9d2b554b0988.jpg"
  },
  {
    "name": "AchievementID47",
    "defaultvalue": 0,
    "displayName": "Win 25 1v1 Hard AI",
    "hidden": 0,
    "description": "Win 25 1v1 Hard AI matches.",
    "icon": "https://steamcdn-a.akamaihd.net/steamcommunity/public/images/apps/496850/78812bd59c6688f6f0ef9e68f4ec2f821a3cd88b.jpg",
    "icongray": "https://steamcdn-a.akamaihd.net/steamcommunity/public/images/apps/496850/fa81af8d3ea8eff68fd1be6ed0f0fee2fe006c9a.jpg"
  },
  {
    "name": "AchievementID48",
    "defaultvalue": 0,
    "displayName": "Win 100 1v1 Hard AI",
    "hidden": 0,
    "description": "Win 100 1v1 Hard AI matches.",
    "icon": "https://steamcdn-a.akamaihd.net/steamcommunity/public/images/apps/496850/10e6a9cea723b89e96751951b2739fe7e75f5adc.jpg",
    "icongray": "https://steamcdn-a.akamaihd.net/steamcommunity/public/images/apps/496850/1bf1d4f8155ecf7fb70243bdef9eb3759e6213ff.jpg"
  },
  {
    "name": "AchievementID49",
    "defaultvalue": 0,
    "displayName": "Win 250 1v1 Hard AI",
    "hidden": 0,
    "description": "Win 250 1v1 Hard AI matches.",
    "icon": "https://steamcdn-a.akamaihd.net/steamcommunity/public/images/apps/496850/96ea9de79b7a7103fe16b809ef05601b798917fa.jpg",
    "icongray": "https://steamcdn-a.akamaihd.net/steamcommunity/public/images/apps/496850/a641331aaff0d66b426ea3cdfb27e20a6199f6da.jpg"
  },
  {
    "name": "AchievementID50",
    "defaultvalue": 0,
    "displayName": "Win 10 1v1 Very Hard AI",
    "hidden": 0,
    "description": "Win 10 1v1 Very Hard AI matches.",
    "icon": "https://steamcdn-a.akamaihd.net/steamcommunity/public/images/apps/496850/74b9ffc0255762cb81b8f6f85765efb804660858.jpg",
    "icongray": "https://steamcdn-a.akamaihd.net/steamcommunity/public/images/apps/496850/0f73ad39a317d81a6ac7d74e38c281d4a725f982.jpg"
  },
  {
    "name": "AchievementID51",
    "defaultvalue": 0,
    "displayName": "Win 25 1v1 Very Hard AI",
    "hidden": 0,
    "description": "Win 25 1v1 Very Hard AI matches.",
    "icon": "https://steamcdn-a.akamaihd.net/steamcommunity/public/images/apps/496850/98f5aa086006f931041ca92555c900c5e46896cf.jpg",
    "icongray": "https://steamcdn-a.akamaihd.net/steamcommunity/public/images/apps/496850/4b316bb2f4e329394d3f079d581b2ae7115706e6.jpg"
  },
  {
    "name": "AchievementID52",
    "defaultvalue": 0,
    "displayName": "Win 100 1v1 Very Hard AI",
    "hidden": 0,
    "description": "Win 100 1v1 Very Hard AI matches.",
    "icon": "https://steamcdn-a.akamaihd.net/steamcommunity/public/images/apps/496850/c365fefce308e06751e30a07f9ed7a6dbb0085f0.jpg",
    "icongray": "https://steamcdn-a.akamaihd.net/steamcommunity/public/images/apps/496850/3954b0aa05b619b2336dab1f55146a3f3f886db9.jpg"
  },
  {
    "name": "AchievementID53",
    "defaultvalue": 0,
    "displayName": "Win 250 1v1 Very Hard AI",
    "hidden": 0,
    "description": "Win 250 1v1 Very Hard AI matches.",
    "icon": "https://steamcdn-a.akamaihd.net/steamcommunity/public/images/apps/496850/750d729d77ea7158cfaf14492882563122c8499c.jpg",
    "icongray": "https://steamcdn-a.akamaihd.net/steamcommunity/public/images/apps/496850/52c46321946886de923fe03edd21e3f1af7eacde.jpg"
  },
  {
    "name": "AchievementID54",
    "defaultvalue": 0,
    "displayName": "Win 10 Team Easy AI",
    "hidden": 0,
    "description": "Win 10 Team Easy AI matches.",
    "icon": "https://steamcdn-a.akamaihd.net/steamcommunity/public/images/apps/496850/215c638c07fb33741a0e2b93b2021c434f434293.jpg",
    "icongray": "https://steamcdn-a.akamaihd.net/steamcommunity/public/images/apps/496850/c35134776071521d2b6125563cf046ce797e0906.jpg"
  },
  {
    "name": "AchievementID55",
    "defaultvalue": 0,
    "displayName": "Win 25 Team Easy AI",
    "hidden": 0,
    "description": "Win 25 Team Easy AI matches.",
    "icon": "https://steamcdn-a.akamaihd.net/steamcommunity/public/images/apps/496850/a9e94ba8b968820129072cb896ca4f9ca7e1282b.jpg",
    "icongray": "https://steamcdn-a.akamaihd.net/steamcommunity/public/images/apps/496850/ef5549922530a5a7dd29caa4082f71f3db9ee15e.jpg"
  },
  {
    "name": "AchievementID56",
    "defaultvalue": 0,
    "displayName": "Win 100 Team Easy AI",
    "hidden": 0,
    "description": "Win 100 Team Easy AI matches.",
    "icon": "https://steamcdn-a.akamaihd.net/steamcommunity/public/images/apps/496850/b3b2ff9bbc6f04fc6f8f6e7b6fc2c0587ef76568.jpg",
    "icongray": "https://steamcdn-a.akamaihd.net/steamcommunity/public/images/apps/496850/a931a5ecf3cdcd422a2f59c015503ac708f029e3.jpg"
  },
  {
    "name": "AchievementID57",
    "defaultvalue": 0,
    "displayName": "Win 250 Team Easy AI",
    "hidden": 0,
    "description": "Win 250 Team Easy AI matches.",
    "icon": "https://steamcdn-a.akamaihd.net/steamcommunity/public/images/apps/496850/49f112250b6846c75079df3af3cd088b8e433305.jpg",
    "icongray": "https://steamcdn-a.akamaihd.net/steamcommunity/public/images/apps/496850/595cd60e5de26d7d612d3ddd6c52c9ad26f6a645.jpg"
  },
  {
    "name": "AchievementID58",
    "defaultvalue": 0,
    "displayName": "Win 10 Team Medium AI",
    "hidden": 0,
    "description": "Win 10 Team Medium AI matches.",
    "icon": "https://steamcdn-a.akamaihd.net/steamcommunity/public/images/apps/496850/2d4a2a0493681f2b13d424254db55b0668610f0c.jpg",
    "icongray": "https://steamcdn-a.akamaihd.net/steamcommunity/public/images/apps/496850/a27c2737eeba3c6c8310d68667f595a24b7123c4.jpg"
  },
  {
    "name": "AchievementID59",
    "defaultvalue": 0,
    "displayName": "Win 25 Team Medium AI",
    "hidden": 0,
    "description": "Win 25 Team Medium AI matches.",
    "icon": "https://steamcdn-a.akamaihd.net/steamcommunity/public/images/apps/496850/b9f21fc44c79ef02d315d9ba45fe29fc9fddf3f9.jpg",
    "icongray": "https://steamcdn-a.akamaihd.net/steamcommunity/public/images/apps/496850/6f5f619467b3108c10cc58d04ca8dc7e57ac6ca5.jpg"
  },
  {
    "name": "AchievementID60",
    "defaultvalue": 0,
    "displayName": "Win 100 Team Medium AI",
    "hidden": 0,
    "description": "Win 100 Team Medium AI matches.",
    "icon": "https://steamcdn-a.akamaihd.net/steamcommunity/public/images/apps/496850/302a5ba7230ea429ea43051bdfe84010ef57ea49.jpg",
    "icongray": "https://steamcdn-a.akamaihd.net/steamcommunity/public/images/apps/496850/16d870d29539db29268e7a781033614f44c35b35.jpg"
  },
  {
    "name": "AchievementID61",
    "defaultvalue": 0,
    "displayName": "Win 250 Team Medium AI",
    "hidden": 0,
    "description": "Win 250 Team Medium AI matches.",
    "icon": "https://steamcdn-a.akamaihd.net/steamcommunity/public/images/apps/496850/bed4c655ba4cb301a3d8fccbc3b79e3c17a7bfe8.jpg",
    "icongray": "https://steamcdn-a.akamaihd.net/steamcommunity/public/images/apps/496850/c4703cea9ba6cf182d66cdcb8b2d452857e03acc.jpg"
  },
  {
    "name": "AchievementID62",
    "defaultvalue": 0,
    "displayName": "Win 10 Team Hard AI",
    "hidden": 0,
    "description": "Win 10 Team Hard AI matches.",
    "icon": "https://steamcdn-a.akamaihd.net/steamcommunity/public/images/apps/496850/787feddb4ddc16c8deb3dd12292d6063b7fb8f9d.jpg",
    "icongray": "https://steamcdn-a.akamaihd.net/steamcommunity/public/images/apps/496850/b80c5def1531854753d602ae7f132b47846aa397.jpg"
  },
  {
    "name": "AchievementID63",
    "defaultvalue": 0,
    "displayName": "Win 25 Team Hard AI",
    "hidden": 0,
    "description": "Win 25 Team Hard AI matches.",
    "icon": "https://steamcdn-a.akamaihd.net/steamcommunity/public/images/apps/496850/1e034495613752842be17711710c191b1fc5d975.jpg",
    "icongray": "https://steamcdn-a.akamaihd.net/steamcommunity/public/images/apps/496850/137c5b3f18fd3b02381a2a909e2b03d97366dfe9.jpg"
  },
  {
    "name": "AchievementID64",
    "defaultvalue": 0,
    "displayName": "Win 100 Team Hard AI",
    "hidden": 0,
    "description": "Win 100 Team Hard AI matches.",
    "icon": "https://steamcdn-a.akamaihd.net/steamcommunity/public/images/apps/496850/c6322f53eccf23f4215bc223efa2e331eb67c771.jpg",
    "icongray": "https://steamcdn-a.akamaihd.net/steamcommunity/public/images/apps/496850/750d8e09c84dbaa2975badd14962b7117e45a6f0.jpg"
  },
  {
    "name": "AchievementID65",
    "defaultvalue": 0,
    "displayName": "Win 250 Team Hard AI",
    "hidden": 0,
    "description": "Win 250 Team Hard AI matches.",
    "icon": "https://steamcdn-a.akamaihd.net/steamcommunity/public/images/apps/496850/174b18d02732e2555045435d2c3c073a77ada4ea.jpg",
    "icongray": "https://steamcdn-a.akamaihd.net/steamcommunity/public/images/apps/496850/d9cfe29995a49ad139f5dfa65cef08006256863f.jpg"
  },
  {
    "name": "AchievementID66",
    "defaultvalue": 0,
    "displayName": "Win 10 Team Very Hard AI",
    "hidden": 0,
    "description": "Win 10 Team Very Hard AI matches.",
    "icon": "https://steamcdn-a.akamaihd.net/steamcommunity/public/images/apps/496850/1192cd692abde4bf729e358cce38ab17214a8278.jpg",
    "icongray": "https://steamcdn-a.akamaihd.net/steamcommunity/public/images/apps/496850/e04bbc04a16ef6591417c0a78e62669303f5b9ab.jpg"
  },
  {
    "name": "AchievementID67",
    "defaultvalue": 0,
    "displayName": "Win 25 Team Very Hard AI",
    "hidden": 0,
    "description": "Win 25 Team Very Hard AI matches.",
    "icon": "https://steamcdn-a.akamaihd.net/steamcommunity/public/images/apps/496850/9907e4899c962a06b7c08d0a19b678438e2bca3e.jpg",
    "icongray": "https://steamcdn-a.akamaihd.net/steamcommunity/public/images/apps/496850/215a5cbb2c46ebace016dcf7c52c287db40cc60b.jpg"
  },
  {
    "name": "AchievementID68",
    "defaultvalue": 0,
    "displayName": "Win 100 Team Very Hard AI",
    "hidden": 0,
    "description": "Win 100 Team Very Hard AI matches.",
    "icon": "https://steamcdn-a.akamaihd.net/steamcommunity/public/images/apps/496850/8a62c1362dd3e3f9f30cd24027540da6542b9227.jpg",
    "icongray": "https://steamcdn-a.akamaihd.net/steamcommunity/public/images/apps/496850/61cd2daeb8ced2deaaf4455b241ae34c1a5b5c2e.jpg"
  },
  {
    "name": "AchievementID69",
    "defaultvalue": 0,
    "displayName": "Win 250 Team Very Hard AI",
    "hidden": 0,
    "description": "Win 250 Team Very Hard AI matches.",
    "icon": "https://steamcdn-a.akamaihd.net/steamcommunity/public/images/apps/496850/81ff6563bc4320ffd6e2dbcfd80d105d44287c92.jpg",
    "icongray": "https://steamcdn-a.akamaihd.net/steamcommunity/public/images/apps/496850/5d7ddd5454c10153d597b7778048fb3f21034c74.jpg"
  },
  {
    "name": "AchievementID70",
    "defaultvalue": 0,
    "displayName": "Point Man",
    "hidden": 0,
    "description": "Earn 250k points in a single practice match.",
    "icon": "https://steamcdn-a.akamaihd.net/steamcommunity/public/images/apps/496850/6f0b28740f41fb2baeaf62caf9d8f414b0a9e6f5.jpg",
    "icongray": "https://steamcdn-a.akamaihd.net/steamcommunity/public/images/apps/496850/b482a44e0287c099df2c11d1b7f8658875b5d3ab.jpg"
  },
  {
    "name": "AchievementID71",
    "defaultvalue": 0,
    "displayName": "You Get the Point",
    "hidden": 0,
    "description": "Earn 500k points in a single practice match.",
    "icon": "https://steamcdn-a.akamaihd.net/steamcommunity/public/images/apps/496850/2252480a59c0301f2d3ee5cf2282919e26e7adab.jpg",
    "icongray": "https://steamcdn-a.akamaihd.net/steamcommunity/public/images/apps/496850/b11af1389874553c9391329a64e5685205864906.jpg"
  },
  {
    "name": "AchievementID72",
    "defaultvalue": 0,
    "displayName": "I Don't Need Pointers",
    "hidden": 0,
    "description": "Earn one million points in a single practice match.",
    "icon": "https://steamcdn-a.akamaihd.net/steamcommunity/public/images/apps/496850/393858445974c8ba0f527c0bea2838a6216ffdf5.jpg",
    "icongray": "https://steamcdn-a.akamaihd.net/steamcommunity/public/images/apps/496850/c1fbb58b82f563aeb2242fe8e8eb3cad958616a4.jpg"
  },
  {
    "name": "AchievementID73",
    "defaultvalue": 0,
    "displayName": "Level Up",
    "hidden": 0,
    "description": "Get to level 10 in a single practice match.",
    "icon": "https://steamcdn-a.akamaihd.net/steamcommunity/public/images/apps/496850/c3b602530662ab0788f97a98294c55784e36878b.jpg",
    "icongray": "https://steamcdn-a.akamaihd.net/steamcommunity/public/images/apps/496850/acd08b8b207b20788f2f205f5033405573c50fea.jpg"
  },
  {
    "name": "AchievementID74",
    "defaultvalue": 0,
    "displayName": "Like an RPG",
    "hidden": 0,
    "description": "Get to level 25 in a single practice match.",
    "icon": "https://steamcdn-a.akamaihd.net/steamcommunity/public/images/apps/496850/a979a0660849662787f8d317457362ec753d124d.jpg",
    "icongray": "https://steamcdn-a.akamaihd.net/steamcommunity/public/images/apps/496850/696ae5082774d5de4cb57c5786f746c144fd438e.jpg"
  },
  {
    "name": "AchievementID75",
    "defaultvalue": 0,
    "displayName": "Does It Ever End?",
    "hidden": 0,
    "description": "Get to level 50 in a single practice match.",
    "icon": "https://steamcdn-a.akamaihd.net/steamcommunity/public/images/apps/496850/496c287edb7368dfb60c8445029d8811404664ad.jpg",
    "icongray": "https://steamcdn-a.akamaihd.net/steamcommunity/public/images/apps/496850/69d88b512e40f4e538a9238d8c6e69b0827f732d.jpg"
  },
  {
    "name": "AchievementID76",
    "defaultvalue": 0,
    "displayName": "Just Warming Up",
    "hidden": 0,
    "description": "Defeat 10 enemies in a single gauntlet match.",
    "icon": "https://steamcdn-a.akamaihd.net/steamcommunity/public/images/apps/496850/419061e42d1902398e8aeaa4b54fef85fffa55f7.jpg",
    "icongray": "https://steamcdn-a.akamaihd.net/steamcommunity/public/images/apps/496850/7adf0a283538a3e8f37f0e145eefa7013f691532.jpg"
  },
  {
    "name": "AchievementID77",
    "defaultvalue": 0,
    "displayName": "Rampage",
    "hidden": 0,
    "description": "Defeat 25 enemies in a single gauntlet match.",
    "icon": "https://steamcdn-a.akamaihd.net/steamcommunity/public/images/apps/496850/22484f18cc872ddf563d391b23ee0cf6c961108f.jpg",
    "icongray": "https://steamcdn-a.akamaihd.net/steamcommunity/public/images/apps/496850/51727275bcd0b2fa0a4eb9b47387a9a0c439190e.jpg"
  },
  {
    "name": "AchievementID78",
    "defaultvalue": 0,
    "displayName": "Bring Me Some Pizza",
    "hidden": 0,
    "description": "Defeat 50 enemies in a single gauntlet match.",
    "icon": "https://steamcdn-a.akamaihd.net/steamcommunity/public/images/apps/496850/721aaa54dade51c1c03e5865cf0ed117c05d3eea.jpg",
    "icongray": "https://steamcdn-a.akamaihd.net/steamcommunity/public/images/apps/496850/616a308755973147bc1295f8bc961ca8809679a8.jpg"
  }
]