{
  "Dlcs": {},
  "Name": "PostCollapse",
  "AppId": "509770",
  "ImageUrl": "https://steamcdn-a.akamaihd.net/steam/apps/509770/header.jpg?t=1565701397",
  "Languages": [
    "english",
    "german",
    "russian",
    "spanish"
  ],
  "Platforms": {
    "windows": true,
    "mac": false,
    "linux": false
  }
}