[
  {
    "name": "ROUTE_ONE",
    "defaultvalue": 0,
    "displayName": "Warm Up",
    "hidden": 0,
    "description": "Complete a Discovery trip",
    "icon": "https://steamcdn-a.akamaihd.net/steamcommunity/public/images/apps/773740/b9f5eeb00b7c37a15c455cfcfe4ed6e8876246c6.jpg",
    "icongray": "https://steamcdn-a.akamaihd.net/steamcommunity/public/images/apps/773740/dd54bab5be6bbe1656fa3a784f11c3a0412847bc.jpg"
  },
  {
    "name": "ROUTE_LONG",
    "defaultvalue": 0,
    "displayName": "Not In Any Rush",
    "hidden": 0,
    "description": "Complete Discovery Mode using the most number of Tracks",
    "icon": "https://steamcdn-a.akamaihd.net/steamcommunity/public/images/apps/773740/8d9c76b6f2a5a1588599f4537366bfcfea0d7d8f.jpg",
    "icongray": "https://steamcdn-a.akamaihd.net/steamcommunity/public/images/apps/773740/cb1f39353162e9f67251ac0d6beddcff89fb66aa.jpg"
  },
  {
    "name": "CLEAR_ONE",
    "defaultvalue": 0,
    "displayName": "Cleared!",
    "hidden": 0,
    "description": "Clear a Track",
    "icon": "https://steamcdn-a.akamaihd.net/steamcommunity/public/images/apps/773740/e97b062f7f8a7b719839ca6b1f83de658c547625.jpg",
    "icongray": "https://steamcdn-a.akamaihd.net/steamcommunity/public/images/apps/773740/dd54bab5be6bbe1656fa3a784f11c3a0412847bc.jpg"
  },
  {
    "name": "CLEAR_ALL",
    "defaultvalue": 0,
    "displayName": "Seen It All",
    "hidden": 0,
    "description": "Clear every Track",
    "icon": "https://steamcdn-a.akamaihd.net/steamcommunity/public/images/apps/773740/9903fe931ad9e768320bef76b761a035a579b242.jpg",
    "icongray": "https://steamcdn-a.akamaihd.net/steamcommunity/public/images/apps/773740/dd54bab5be6bbe1656fa3a784f11c3a0412847bc.jpg"
  },
  {
    "name": "PERFECT_ONE",
    "defaultvalue": 0,
    "displayName": "Focus",
    "hidden": 0,
    "description": "Perfect a Track",
    "icon": "https://steamcdn-a.akamaihd.net/steamcommunity/public/images/apps/773740/fde22969ebf3aeb445b5760d26d065f788fa3c69.jpg",
    "icongray": "https://steamcdn-a.akamaihd.net/steamcommunity/public/images/apps/773740/dd54bab5be6bbe1656fa3a784f11c3a0412847bc.jpg"
  },
  {
    "name": "PERFECT_ALL",
    "defaultvalue": 0,
    "displayName": "Perfectionist",
    "hidden": 0,
    "description": "Perfect every Track",
    "icon": "https://steamcdn-a.akamaihd.net/steamcommunity/public/images/apps/773740/663b88519f34322dcfb5c70543af82b784222678.jpg",
    "icongray": "https://steamcdn-a.akamaihd.net/steamcommunity/public/images/apps/773740/dd54bab5be6bbe1656fa3a784f11c3a0412847bc.jpg"
  },
  {
    "name": "LIT_ONE",
    "defaultvalue": 0,
    "displayName": "Let's Get Lit",
    "hidden": 0,
    "description": "Lit a Track",
    "icon": "https://steamcdn-a.akamaihd.net/steamcommunity/public/images/apps/773740/2471367c63f57c3bc0f322fad69fc2a4091c6fea.jpg",
    "icongray": "https://steamcdn-a.akamaihd.net/steamcommunity/public/images/apps/773740/cb1f39353162e9f67251ac0d6beddcff89fb66aa.jpg"
  },
  {
    "name": "LIT_ALL",
    "defaultvalue": 0,
    "displayName": "Lit AF",
    "hidden": 0,
    "description": "Lit every Track",
    "icon": "https://steamcdn-a.akamaihd.net/steamcommunity/public/images/apps/773740/0cff27d1d23a3f7f8b006c6d9d3df0588d39719d.jpg",
    "icongray": "https://steamcdn-a.akamaihd.net/steamcommunity/public/images/apps/773740/dd54bab5be6bbe1656fa3a784f11c3a0412847bc.jpg"
  },
  {
    "name": "MEDALS_ONE",
    "defaultvalue": 0,
    "displayName": "Decorated",
    "hidden": 0,
    "description": "All medals in a Track",
    "icon": "https://steamcdn-a.akamaihd.net/steamcommunity/public/images/apps/773740/91f1c8f6a7b17daa414a6b74892ab1027748a853.jpg",
    "icongray": "https://steamcdn-a.akamaihd.net/steamcommunity/public/images/apps/773740/dd54bab5be6bbe1656fa3a784f11c3a0412847bc.jpg"
  },
  {
    "name": "MEDALS_ALL",
    "defaultvalue": 0,
    "displayName": "So Medal",
    "hidden": 0,
    "description": "All medals in every Track",
    "icon": "https://steamcdn-a.akamaihd.net/steamcommunity/public/images/apps/773740/b2e49c17f967fa47aaf94bcdf2bf3d465aae66e0.jpg",
    "icongray": "https://steamcdn-a.akamaihd.net/steamcommunity/public/images/apps/773740/dd54bab5be6bbe1656fa3a784f11c3a0412847bc.jpg"
  },
  {
    "name": "DETOUR_ONE",
    "defaultvalue": 0,
    "displayName": "Scenic Route",
    "hidden": 1,
    "icon": "https://steamcdn-a.akamaihd.net/steamcommunity/public/images/apps/773740/895aea3923bd1771d7029c6cf734498427826852.jpg",
    "icongray": "https://steamcdn-a.akamaihd.net/steamcommunity/public/images/apps/773740/dd54bab5be6bbe1656fa3a784f11c3a0412847bc.jpg"
  },
  {
    "name": "DETOUR_ALL",
    "defaultvalue": 0,
    "displayName": "Zoologist",
    "hidden": 1,
    "icon": "https://steamcdn-a.akamaihd.net/steamcommunity/public/images/apps/773740/425d6f40e116acdf84da4ed19f3c87330470e1b9.jpg",
    "icongray": "https://steamcdn-a.akamaihd.net/steamcommunity/public/images/apps/773740/dd54bab5be6bbe1656fa3a784f11c3a0412847bc.jpg"
  },
  {
    "name": "ROUTE_ALL_DETOURS",
    "defaultvalue": 0,
    "displayName": "Detour de Force",
    "hidden": 1,
    "icon": "https://steamcdn-a.akamaihd.net/steamcommunity/public/images/apps/773740/5f50d9e7428340ca7594f1ab6c403ede96f4210c.jpg",
    "icongray": "https://steamcdn-a.akamaihd.net/steamcommunity/public/images/apps/773740/dd54bab5be6bbe1656fa3a784f11c3a0412847bc.jpg"
  },
  {
    "name": "CONT_CLEAR",
    "defaultvalue": 0,
    "displayName": "Road Trip",
    "hidden": 1,
    "icon": "https://steamcdn-a.akamaihd.net/steamcommunity/public/images/apps/773740/d2b0043ed3bf40ca06c3b70e80522ba73196c132.jpg",
    "icongray": "https://steamcdn-a.akamaihd.net/steamcommunity/public/images/apps/773740/dd54bab5be6bbe1656fa3a784f11c3a0412847bc.jpg"
  },
  {
    "name": "CONT_UNBROKEN",
    "defaultvalue": 0,
    "displayName": "Making Good Time",
    "hidden": 1,
    "icon": "https://steamcdn-a.akamaihd.net/steamcommunity/public/images/apps/773740/cce20687d81fbd7f39222dffe9825125273eff57.jpg",
    "icongray": "https://steamcdn-a.akamaihd.net/steamcommunity/public/images/apps/773740/dd54bab5be6bbe1656fa3a784f11c3a0412847bc.jpg"
  },
  {
    "name": "CONT_PERFECT",
    "defaultvalue": 0,
    "displayName": "Perfect Summer",
    "hidden": 1,
    "icon": "https://steamcdn-a.akamaihd.net/steamcommunity/public/images/apps/773740/9bf5b771a487b3905a13eb32faf9011feaff53a3.jpg",
    "icongray": "https://steamcdn-a.akamaihd.net/steamcommunity/public/images/apps/773740/dd54bab5be6bbe1656fa3a784f11c3a0412847bc.jpg"
  },
  {
    "name": "USER_CLEAR_ONE",
    "defaultvalue": 0,
    "displayName": "A New Adventure",
    "hidden": 0,
    "description": "Clear a World Track",
    "icon": "https://steamcdn-a.akamaihd.net/steamcommunity/public/images/apps/773740/7f6cd2be1098abf5b96ff151a7b8059891309665.jpg",
    "icongray": "https://steamcdn-a.akamaihd.net/steamcommunity/public/images/apps/773740/dd54bab5be6bbe1656fa3a784f11c3a0412847bc.jpg"
  },
  {
    "name": "USER_CLEAR_100",
    "defaultvalue": 0,
    "displayName": "World Traveler",
    "hidden": 0,
    "description": "Clear 25 World Tracks",
    "icon": "https://steamcdn-a.akamaihd.net/steamcommunity/public/images/apps/773740/971bf827954c0e3b5bc86dcf2362e5085fbdd2cd.jpg",
    "icongray": "https://steamcdn-a.akamaihd.net/steamcommunity/public/images/apps/773740/dd54bab5be6bbe1656fa3a784f11c3a0412847bc.jpg"
  },
  {
    "name": "USER_CREATE",
    "defaultvalue": 0,
    "displayName": "Creator",
    "hidden": 0,
    "description": "Create & share a World Track",
    "icon": "https://steamcdn-a.akamaihd.net/steamcommunity/public/images/apps/773740/8eb91baffbe3924cdcc11ab14c4f2e437b4098ad.jpg",
    "icongray": "https://steamcdn-a.akamaihd.net/steamcommunity/public/images/apps/773740/dd54bab5be6bbe1656fa3a784f11c3a0412847bc.jpg"
  },
  {
    "name": "CUSTOM_ONE",
    "defaultvalue": 0,
    "displayName": "Having Options",
    "hidden": 1,
    "icon": "https://steamcdn-a.akamaihd.net/steamcommunity/public/images/apps/773740/26790aecc34475861c09b7b0587f7d57cacf1f3f.jpg",
    "icongray": "https://steamcdn-a.akamaihd.net/steamcommunity/public/images/apps/773740/dd54bab5be6bbe1656fa3a784f11c3a0412847bc.jpg"
  },
  {
    "name": "CUSTOM_ALL",
    "defaultvalue": 0,
    "displayName": "FABULOUS",
    "hidden": 1,
    "icon": "https://steamcdn-a.akamaihd.net/steamcommunity/public/images/apps/773740/5adebd7598d89a96684aa9fd0e71efe6db31bb95.jpg",
    "icongray": "https://steamcdn-a.akamaihd.net/steamcommunity/public/images/apps/773740/cb1f39353162e9f67251ac0d6beddcff89fb66aa.jpg"
  },
  {
    "name": "DASH_ONE",
    "defaultvalue": 0,
    "displayName": "Co-Pilot",
    "hidden": 1,
    "icon": "https://steamcdn-a.akamaihd.net/steamcommunity/public/images/apps/773740/26a6a899c2af47837c3e4882d109b105c16f35f8.jpg",
    "icongray": "https://steamcdn-a.akamaihd.net/steamcommunity/public/images/apps/773740/dd54bab5be6bbe1656fa3a784f11c3a0412847bc.jpg"
  },
  {
    "name": "DASH_ALL",
    "defaultvalue": 0,
    "displayName": "There's a Party in My Car and Everyone's Invited",
    "hidden": 1,
    "icon": "https://steamcdn-a.akamaihd.net/steamcommunity/public/images/apps/773740/d952728df15fb3ef53f9911a19c5516ab47d5a63.jpg",
    "icongray": "https://steamcdn-a.akamaihd.net/steamcommunity/public/images/apps/773740/dd54bab5be6bbe1656fa3a784f11c3a0412847bc.jpg"
  },
  {
    "name": "IMPERFECT",
    "defaultvalue": 0,
    "displayName": "Imperfect",
    "hidden": 0,
    "description": "Get an Unbroken medal on a Track with 0 Perfects",
    "icon": "https://steamcdn-a.akamaihd.net/steamcommunity/public/images/apps/773740/247384ac63147ebc6a175ab33e021c09cfbb372c.jpg",
    "icongray": "https://steamcdn-a.akamaihd.net/steamcommunity/public/images/apps/773740/dd54bab5be6bbe1656fa3a784f11c3a0412847bc.jpg"
  },
  {
    "name": "NO_VOL",
    "defaultvalue": 0,
    "displayName": "Noise Cancel",
    "hidden": 0,
    "description": "Get all medals on a Track with music and sfx set to 0",
    "icon": "https://steamcdn-a.akamaihd.net/steamcommunity/public/images/apps/773740/cc83eab957242650156098722cb7c710f4527d7b.jpg",
    "icongray": "https://steamcdn-a.akamaihd.net/steamcommunity/public/images/apps/773740/dd54bab5be6bbe1656fa3a784f11c3a0412847bc.jpg"
  },
  {
    "name": "MEM_CLEAR",
    "defaultvalue": 0,
    "displayName": "Beginning to Believe",
    "hidden": 1,
    "icon": "https://steamcdn-a.akamaihd.net/steamcommunity/public/images/apps/773740/461cdd4c6d9b210b3c4f3ee7929adc123b8c8ac3.jpg",
    "icongray": "https://steamcdn-a.akamaihd.net/steamcommunity/public/images/apps/773740/dd54bab5be6bbe1656fa3a784f11c3a0412847bc.jpg"
  },
  {
    "name": "MEM_ALL",
    "defaultvalue": 0,
    "displayName": "The One",
    "hidden": 1,
    "icon": "https://steamcdn-a.akamaihd.net/steamcommunity/public/images/apps/773740/a58e26493db2e5204e4033f2917627e761f9c396.jpg",
    "icongray": "https://steamcdn-a.akamaihd.net/steamcommunity/public/images/apps/773740/dd54bab5be6bbe1656fa3a784f11c3a0412847bc.jpg"
  },
  {
    "name": "ROUTE_SHORT",
    "defaultvalue": 0,
    "displayName": "Cutting Corners",
    "hidden": 0,
    "description": "Complete Discovery Mode using the fewest number of Tracks",
    "icon": "https://steamcdn-a.akamaihd.net/steamcommunity/public/images/apps/773740/7470fa7b54c4e2c11f607c0ccd0b3e63e9cd62ea.jpg",
    "icongray": "https://steamcdn-a.akamaihd.net/steamcommunity/public/images/apps/773740/dd54bab5be6bbe1656fa3a784f11c3a0412847bc.jpg"
  }
]