{
  "Dlcs": {},
  "Name": "ReSizE",
  "AppId": "634150",
  "ImageUrl": "https://steamcdn-a.akamaihd.net/steam/apps/634150/header.jpg?t=1519916416",
  "Languages": [
    "english",
    "ukrainian",
    "russian",
    "polish"
  ],
  "Platforms": {
    "windows": true,
    "mac": false,
    "linux": false
  }
}