[
  {
    "name": "ACH_Complete_Stage_One_Noob",
    "defaultvalue": 0,
    "displayName": "Survival Noob",
    "hidden": 0,
    "description": "You have safely made your way out of Anna's first trap on the easiest setting possible. Try harder, noob.",
    "icon": "https://steamcdn-a.akamaihd.net/steamcommunity/public/images/apps/691650/",
    "icongray": "https://steamcdn-a.akamaihd.net/steamcommunity/public/images/apps/691650/"
  },
  {
    "name": "ACH_Complete_Stage_One_Gud",
    "defaultvalue": 0,
    "displayName": "Survival More Gooder",
    "hidden": 0,
    "description": "You have safely made your way out of Anna's first trap with an average amount of competency. If you were a real pro you'd do it on Nightmare setting.",
    "icon": "https://steamcdn-a.akamaihd.net/steamcommunity/public/images/apps/691650/",
    "icongray": "https://steamcdn-a.akamaihd.net/steamcommunity/public/images/apps/691650/"
  },
  {
    "name": "ACH_Complete_Stage_One_Nightmare",
    "defaultvalue": 0,
    "displayName": "Nightmare Survivalist",
    "hidden": 0,
    "description": "You have bested Anna's first nightmare stage. Don't let it go to your head, there are more to go.",
    "icon": "https://steamcdn-a.akamaihd.net/steamcommunity/public/images/apps/691650/",
    "icongray": "https://steamcdn-a.akamaihd.net/steamcommunity/public/images/apps/691650/"
  },
  {
    "name": "ACH_Larry_Failboat_10",
    "defaultvalue": 0,
    "displayName": "Failboat Scrub",
    "hidden": 0,
    "description": "You have died to zombie kills 10 times. Way to man the failboat, scrub.",
    "icon": "https://steamcdn-a.akamaihd.net/steamcommunity/public/images/apps/691650/",
    "icongray": "https://steamcdn-a.akamaihd.net/steamcommunity/public/images/apps/691650/"
  },
  {
    "name": "ACH_Larry_Failboat_50",
    "defaultvalue": 0,
    "displayName": "Failboat Captain",
    "hidden": 0,
    "description": "You have died to zombie kills 50 times. You're moving on up the failboat foodchain; you're so bad you are now a Failboat Captain.",
    "icon": "https://steamcdn-a.akamaihd.net/steamcommunity/public/images/apps/691650/",
    "icongray": "https://steamcdn-a.akamaihd.net/steamcommunity/public/images/apps/691650/"
  },
  {
    "name": "ACH_Larry_Failboat_100",
    "defaultvalue": 0,
    "displayName": "Failboat Admiral",
    "hidden": 0,
    "description": "You have died to zombie kills 100 times. You're now the Admiral of the Failboat fleet. You're mother will be so proud of you.",
    "icon": "https://steamcdn-a.akamaihd.net/steamcommunity/public/images/apps/691650/",
    "icongray": "https://steamcdn-a.akamaihd.net/steamcommunity/public/images/apps/691650/"
  },
  {
    "name": "ACH_Sanity_Specialist",
    "defaultvalue": 0,
    "displayName": "Sanity Specialist",
    "hidden": 0,
    "description": "You have survived the first sewer level without losing a single point of sanity. Congrats, you figured out how to stay in the light.",
    "icon": "https://steamcdn-a.akamaihd.net/steamcommunity/public/images/apps/691650/",
    "icongray": "https://steamcdn-a.akamaihd.net/steamcommunity/public/images/apps/691650/"
  },
  {
    "name": "ACH_Sanity_Elite",
    "defaultvalue": 0,
    "displayName": "Sanity Elite",
    "hidden": 0,
    "description": "You have survived the more difficult task of besting Annalinnia's second sewer system nightmare without losing a single point of sanity. Hurrah to you, great work at basically being as good as a flashlight.",
    "icon": "https://steamcdn-a.akamaihd.net/steamcommunity/public/images/apps/691650/",
    "icongray": "https://steamcdn-a.akamaihd.net/steamcommunity/public/images/apps/691650/"
  },
  {
    "name": "ACH_Sanity_God",
    "defaultvalue": 0,
    "displayName": "Sanity God",
    "hidden": 0,
    "description": "This is actually impressive, you've survived Annalinnia's mountain path nightmares without losing a single point of sanity. Although she begrudgingly gives you some respect for this, she believes you must have cheated somehow.",
    "icon": "https://steamcdn-a.akamaihd.net/steamcommunity/public/images/apps/691650/",
    "icongray": "https://steamcdn-a.akamaihd.net/steamcommunity/public/images/apps/691650/"
  },
  {
    "name": "ACH_Mushroom_Gatherer",
    "defaultvalue": 0,
    "displayName": "Mushroom Gatherer",
    "hidden": 0,
    "description": "You have collected 100 mushrooms. Congrats on staying sane a little longer.",
    "icon": "https://steamcdn-a.akamaihd.net/steamcommunity/public/images/apps/691650/",
    "icongray": "https://steamcdn-a.akamaihd.net/steamcommunity/public/images/apps/691650/"
  },
  {
    "name": "ACH_Mushroom_Collector",
    "defaultvalue": 0,
    "displayName": "Mushroom Collector",
    "hidden": 0,
    "description": "You have collected 1000 mushrooms. Maybe you should have looked for the clue's instead of following dead end paths.",
    "icon": "https://steamcdn-a.akamaihd.net/steamcommunity/public/images/apps/691650/",
    "icongray": "https://steamcdn-a.akamaihd.net/steamcommunity/public/images/apps/691650/"
  },
  {
    "name": "ACH_Mushroom_Hunter",
    "defaultvalue": 0,
    "displayName": "Mushroom Hunter",
    "hidden": 0,
    "description": "You have collected 10,000 mushrooms. Your dedication towards mindlessly picking up shiny objects is exemplary.",
    "icon": "https://steamcdn-a.akamaihd.net/steamcommunity/public/images/apps/691650/",
    "icongray": "https://steamcdn-a.akamaihd.net/steamcommunity/public/images/apps/691650/"
  },
  {
    "name": "ACH_Blood_Thrall",
    "defaultvalue": 0,
    "displayName": "Blood Thrall",
    "hidden": 0,
    "description": "You have absorbed 100 pints of blood. Your stomach may have trouble digesting all of that.",
    "icon": "https://steamcdn-a.akamaihd.net/steamcommunity/public/images/apps/691650/",
    "icongray": "https://steamcdn-a.akamaihd.net/steamcommunity/public/images/apps/691650/"
  },
  {
    "name": "ACH_Blood_Bat",
    "defaultvalue": 0,
    "displayName": "Blood Bat",
    "hidden": 0,
    "description": "You have absorbed 1,000 pints of blood. You are officially a vampire bat, now flap away little fella.",
    "icon": "https://steamcdn-a.akamaihd.net/steamcommunity/public/images/apps/691650/",
    "icongray": "https://steamcdn-a.akamaihd.net/steamcommunity/public/images/apps/691650/"
  },
  {
    "name": "ACH_Blood_Vampire",
    "defaultvalue": 0,
    "displayName": "Blood Vampire",
    "hidden": 0,
    "description": "You have absorbed 10,000 pints of blood. Welcome home Vlad, your steak shall be served raw and your goblets overflowing with type O Negative.",
    "icon": "https://steamcdn-a.akamaihd.net/steamcommunity/public/images/apps/691650/",
    "icongray": "https://steamcdn-a.akamaihd.net/steamcommunity/public/images/apps/691650/"
  },
  {
    "name": "ACH_Skull_Gatherer",
    "defaultvalue": 0,
    "displayName": "Skull Gatherer",
    "hidden": 0,
    "description": "You have collected 100 power skulls. Did you remember to use any of them?",
    "icon": "https://steamcdn-a.akamaihd.net/steamcommunity/public/images/apps/691650/",
    "icongray": "https://steamcdn-a.akamaihd.net/steamcommunity/public/images/apps/691650/"
  },
  {
    "name": "ACH_Skull_Collector",
    "defaultvalue": 0,
    "displayName": "Skull Collector",
    "hidden": 0,
    "description": "You have collected 1,000 power skulls. With all that bone density osteoporosis will never affect you.",
    "icon": "https://steamcdn-a.akamaihd.net/steamcommunity/public/images/apps/691650/",
    "icongray": "https://steamcdn-a.akamaihd.net/steamcommunity/public/images/apps/691650/"
  },
  {
    "name": "ACH_Skull_Hunter",
    "defaultvalue": 0,
    "displayName": "Skull Hunter",
    "hidden": 0,
    "description": "You have collected 10,000 power skulls. Time to build your skull throne and sit atop of it while living in your skull mansion.",
    "icon": "https://steamcdn-a.akamaihd.net/steamcommunity/public/images/apps/691650/",
    "icongray": "https://steamcdn-a.akamaihd.net/steamcommunity/public/images/apps/691650/"
  },
  {
    "name": "ACH_Larry_Failboat_1000",
    "defaultvalue": 0,
    "displayName": "Riding the FailBoat Eternal",
    "hidden": 0,
    "description": "You have managed to die to stationary enemies 1,000 times. They never moved, not even once.",
    "icon": "https://steamcdn-a.akamaihd.net/steamcommunity/public/images/apps/691650/",
    "icongray": "https://steamcdn-a.akamaihd.net/steamcommunity/public/images/apps/691650/"
  },
  {
    "name": "ACH_Annas_Nightmare",
    "defaultvalue": 0,
    "displayName": "Annalinnia's Nightmare",
    "hidden": 0,
    "description": "You have beaten Annalinnia's entire murder dungeon without dying a single time on the Nightmare difficulty. She didn't believe it was possible, neither does anyone else, cheater.",
    "icon": "https://steamcdn-a.akamaihd.net/steamcommunity/public/images/apps/691650/",
    "icongray": "https://steamcdn-a.akamaihd.net/steamcommunity/public/images/apps/691650/"
  },
  {
    "name": "ACH_Zebukiel",
    "defaultvalue": 0,
    "displayName": "Zebukiel",
    "hidden": 0,
    "description": "You found Zebukiel. Now go watch his Twitch stream.",
    "icon": "https://steamcdn-a.akamaihd.net/steamcommunity/public/images/apps/691650/",
    "icongray": "https://steamcdn-a.akamaihd.net/steamcommunity/public/images/apps/691650/"
  }
]