[
  {
    "name": "BOSS_MOUSE",
    "defaultvalue": 0,
    "displayName": "Mouse slipped into the hole",
    "hidden": 0,
    "description": "Deploy the virus \"Mouse\"",
    "icon": "https://steamcdn-a.akamaihd.net/steamcommunity/public/images/apps/503460/c13c43be8d06f397553aee0160214f328de94731.jpg",
    "icongray": "https://steamcdn-a.akamaihd.net/steamcommunity/public/images/apps/503460/f6708f65c469e96c9221e207ef9a3bacbe67308c.jpg"
  },
  {
    "name": "BOSS_COBRA",
    "defaultvalue": 0,
    "displayName": "Snake venom",
    "hidden": 0,
    "description": "Deploy the virus \"Cobra\"",
    "icon": "https://steamcdn-a.akamaihd.net/steamcommunity/public/images/apps/503460/276bc66efcb71dfb562ed805c5967d0b5f866eb9.jpg",
    "icongray": "https://steamcdn-a.akamaihd.net/steamcommunity/public/images/apps/503460/ce24dea45d40ecee2f491ed16226320fe9be3057.jpg"
  },
  {
    "name": "BOSS_LIZARD",
    "defaultvalue": 0,
    "displayName": "Mistress of the Copper Mountain",
    "hidden": 0,
    "description": "Deploy the virus \"Lizard\"",
    "icon": "https://steamcdn-a.akamaihd.net/steamcommunity/public/images/apps/503460/0c3bb4bd64ff0c821895cb3070c7b10a2f5af6e7.jpg",
    "icongray": "https://steamcdn-a.akamaihd.net/steamcommunity/public/images/apps/503460/2dcf76d4e280cd90dcc033d7425c551645c6495a.jpg"
  },
  {
    "name": "BOSS_TURTLE",
    "defaultvalue": 0,
    "displayName": "Slow and steady wins the race",
    "hidden": 0,
    "description": "Deploy the virus \"Turtle\"",
    "icon": "https://steamcdn-a.akamaihd.net/steamcommunity/public/images/apps/503460/6eb2d60e753ae10467340a92afdae6af5ff3f8c0.jpg",
    "icongray": "https://steamcdn-a.akamaihd.net/steamcommunity/public/images/apps/503460/825599d2e92f1b15d5e120028956595e8beadfd0.jpg"
  },
  {
    "name": "BOSS_SEX",
    "defaultvalue": 0,
    "displayName": "Law of nature",
    "hidden": 0,
    "description": "Deploy the virus \"Gender\"",
    "icon": "https://steamcdn-a.akamaihd.net/steamcommunity/public/images/apps/503460/c8dccc77334416ebc09361bdda346d159745efd3.jpg",
    "icongray": "https://steamcdn-a.akamaihd.net/steamcommunity/public/images/apps/503460/cbadc02487990e957b298a4818e664b2218ad940.jpg"
  },
  {
    "name": "BOSS_LOCK",
    "defaultvalue": 0,
    "displayName": "Locked heart",
    "hidden": 0,
    "description": "Deploy the virus \"Padlock\"",
    "icon": "https://steamcdn-a.akamaihd.net/steamcommunity/public/images/apps/503460/a6cc9e6112c4041cfe6787ad694edbbbc897b99a.jpg",
    "icongray": "https://steamcdn-a.akamaihd.net/steamcommunity/public/images/apps/503460/d7209f96b2bb5a9e8fc22be1964bd3415e8a5327.jpg"
  },
  {
    "name": "BOSS_KEY",
    "defaultvalue": 0,
    "displayName": "Key to the heart",
    "hidden": 0,
    "description": "Deploy the virus \"Key\"",
    "icon": "https://steamcdn-a.akamaihd.net/steamcommunity/public/images/apps/503460/1626b423191d7e9f8d7f91dcf37b3d54d25cffba.jpg",
    "icongray": "https://steamcdn-a.akamaihd.net/steamcommunity/public/images/apps/503460/6f70477d9e4afd0e91d186cd5176c86ff727d764.jpg"
  },
  {
    "name": "BOSS_ARROW",
    "defaultvalue": 0,
    "displayName": "Cupid's arrow",
    "hidden": 0,
    "description": "Deploy the virus \"Arrow\"",
    "icon": "https://steamcdn-a.akamaihd.net/steamcommunity/public/images/apps/503460/ad7135c5a2537c0eb7426e40861925ad03d09996.jpg",
    "icongray": "https://steamcdn-a.akamaihd.net/steamcommunity/public/images/apps/503460/4c64e55ab6ce680123b0162ae9770ab44eaa2300.jpg"
  },
  {
    "name": "BOSS_HEARTS",
    "defaultvalue": 0,
    "displayName": "Beat in time",
    "hidden": 0,
    "description": "Deploy the virus \"Hearts\"",
    "icon": "https://steamcdn-a.akamaihd.net/steamcommunity/public/images/apps/503460/3e02a3ca6a26211033a49d426ef02c481d11f6c0.jpg",
    "icongray": "https://steamcdn-a.akamaihd.net/steamcommunity/public/images/apps/503460/48977cd9eeaaeaa87ef56db59978ef377a607086.jpg"
  },
  {
    "name": "BOSS_BUTTERFLY",
    "defaultvalue": 0,
    "displayName": "The butterfly effect",
    "hidden": 0,
    "description": "Deploy the virus \"Butterfly\"",
    "icon": "https://steamcdn-a.akamaihd.net/steamcommunity/public/images/apps/503460/21bb59e712a56dd15583c32e469aedc174e3e594.jpg",
    "icongray": "https://steamcdn-a.akamaihd.net/steamcommunity/public/images/apps/503460/5cfbe759f5e516161689ce7f58f21c44cb8fee76.jpg"
  },
  {
    "name": "BOSS_SHURIKEN",
    "defaultvalue": 0,
    "displayName": "Ninja weapon",
    "hidden": 0,
    "description": "Deploy the virus \"Shuriken\"",
    "icon": "https://steamcdn-a.akamaihd.net/steamcommunity/public/images/apps/503460/b49e062685df2c68d7375e6451e9e0b8cf3f4124.jpg",
    "icongray": "https://steamcdn-a.akamaihd.net/steamcommunity/public/images/apps/503460/fc179a5774d8f6e716ed2c28b5e269abd991d563.jpg"
  },
  {
    "name": "BOSS_STRONGHOLD",
    "defaultvalue": 0,
    "displayName": "Digital fortress",
    "hidden": 0,
    "description": "Deploy the virus \"Stronghold\"",
    "icon": "https://steamcdn-a.akamaihd.net/steamcommunity/public/images/apps/503460/dc7d189ae8c0e14fa509592b24b9813f09a3cfad.jpg",
    "icongray": "https://steamcdn-a.akamaihd.net/steamcommunity/public/images/apps/503460/b2000f0b7bf300b434ce55796efd3add801e4f2b.jpg"
  },
  {
    "name": "BOSS_CROWN",
    "defaultvalue": 0,
    "displayName": "Symbol of power",
    "hidden": 0,
    "description": "Deploy the virus \"Crown\"",
    "icon": "https://steamcdn-a.akamaihd.net/steamcommunity/public/images/apps/503460/506e04282d2e7a3b7be3601289e6802071735851.jpg",
    "icongray": "https://steamcdn-a.akamaihd.net/steamcommunity/public/images/apps/503460/c3e6c62b4bda3b8eb6f4764e32594c22b05975e3.jpg"
  },
  {
    "name": "BOSS_SNOWFLAKE",
    "defaultvalue": 0,
    "displayName": "Natural symmetry",
    "hidden": 0,
    "description": "Deploy the virus \"Snowflake\"",
    "icon": "https://steamcdn-a.akamaihd.net/steamcommunity/public/images/apps/503460/66b858d23f19177eddddb39b9ffd37eac6b07804.jpg",
    "icongray": "https://steamcdn-a.akamaihd.net/steamcommunity/public/images/apps/503460/cdb2f7d4372ed03b3f7d1e500edc0895d0ebd23b.jpg"
  },
  {
    "name": "BOSS_NET",
    "defaultvalue": 0,
    "displayName": "Web spread out",
    "hidden": 0,
    "description": "Deploy the virus \"Web\"",
    "icon": "https://steamcdn-a.akamaihd.net/steamcommunity/public/images/apps/503460/3ddd6622681249791ea62d63e9e329cb87664f7d.jpg",
    "icongray": "https://steamcdn-a.akamaihd.net/steamcommunity/public/images/apps/503460/7576d7c6fd0a924c4eabac9761174c3edfdef755.jpg"
  },
  {
    "name": "BOSS_SPIDER",
    "defaultvalue": 0,
    "displayName": "Web spinner",
    "hidden": 0,
    "description": "Deploy the virus \"Spider\"",
    "icon": "https://steamcdn-a.akamaihd.net/steamcommunity/public/images/apps/503460/989ba141eb187937ed15b1d98d4390e99c5fa24b.jpg",
    "icongray": "https://steamcdn-a.akamaihd.net/steamcommunity/public/images/apps/503460/e12fa135130d316b89077c8c51f0e763d862d1f3.jpg"
  },
  {
    "name": "BOSS_DRAGON",
    "defaultvalue": 0,
    "displayName": "The wisdom of millennia",
    "hidden": 0,
    "description": "Deploy the virus \"Dragon\"",
    "icon": "https://steamcdn-a.akamaihd.net/steamcommunity/public/images/apps/503460/782e6527064fb47b22beda1be223c26d4a177f1c.jpg",
    "icongray": "https://steamcdn-a.akamaihd.net/steamcommunity/public/images/apps/503460/0064eb96a923592ea888f44d5e067bb496346277.jpg"
  },
  {
    "name": "BOSS_HEDGEHOG",
    "defaultvalue": 0,
    "displayName": "You can't take it with bare hands",
    "hidden": 0,
    "description": "Deploy the virus \"Hedgehog\"",
    "icon": "https://steamcdn-a.akamaihd.net/steamcommunity/public/images/apps/503460/2f6f2adca36639c05a709651726449bd3760ba24.jpg",
    "icongray": "https://steamcdn-a.akamaihd.net/steamcommunity/public/images/apps/503460/3782e7fa5709c767105ffa3a54baec4ceeb7d8b8.jpg"
  },
  {
    "name": "BOSS_FRACTAL",
    "defaultvalue": 0,
    "displayName": "Cube in a cube",
    "hidden": 0,
    "description": "Deploy the virus \"Cube\"",
    "icon": "https://steamcdn-a.akamaihd.net/steamcommunity/public/images/apps/503460/6eb4df021e8da83ef269335b06c6928096715e9e.jpg",
    "icongray": "https://steamcdn-a.akamaihd.net/steamcommunity/public/images/apps/503460/f0497ff9d754d2897b98451ed8f0144551e0505e.jpg"
  },
  {
    "name": "BOSS_PYRAMID",
    "defaultvalue": 0,
    "displayName": "Sierpinski triangle",
    "hidden": 0,
    "description": "Deploy the virus \"Tetrahedron\"",
    "icon": "https://steamcdn-a.akamaihd.net/steamcommunity/public/images/apps/503460/d4530b1ff117ea8e4f5f1a4e4eb6d9aeef8b270e.jpg",
    "icongray": "https://steamcdn-a.akamaihd.net/steamcommunity/public/images/apps/503460/16c75fc913d9ddd950d6f59cbf993c2909ca893c.jpg"
  },
  {
    "name": "BOSS_MEDUSA",
    "defaultvalue": 0,
    "displayName": "Flutters and sting like a jellyfish",
    "hidden": 1,
    "icon": "https://steamcdn-a.akamaihd.net/steamcommunity/public/images/apps/503460/9ae58dc6e38c58fa8919c6dabc814cfe824ac2ef.jpg",
    "icongray": "https://steamcdn-a.akamaihd.net/steamcommunity/public/images/apps/503460/c58c2ec1475eb4b1e4c12082ca46bfd7b21c60fe.jpg"
  },
  {
    "name": "BOSS_SHARK",
    "defaultvalue": 0,
    "displayName": "Dangerous predator",
    "hidden": 1,
    "icon": "https://steamcdn-a.akamaihd.net/steamcommunity/public/images/apps/503460/aeff9885f7e032c840a797acf3b20dc92e15e095.jpg",
    "icongray": "https://steamcdn-a.akamaihd.net/steamcommunity/public/images/apps/503460/952bc882acc35d85554472be0ff3ee8f0818cd2f.jpg"
  },
  {
    "name": "BOSS_RABBIT",
    "defaultvalue": 0,
    "displayName": "Follow the White Rabbit",
    "hidden": 1,
    "icon": "https://steamcdn-a.akamaihd.net/steamcommunity/public/images/apps/503460/879225986ca054d524864575fb891a400bf233fd.jpg",
    "icongray": "https://steamcdn-a.akamaihd.net/steamcommunity/public/images/apps/503460/61cfbcc81f34aa618b84a9f33c223f0b3654eade.jpg"
  },
  {
    "name": "BOSS_SPHERE",
    "defaultvalue": 0,
    "displayName": "Source of energy",
    "hidden": 1,
    "icon": "https://steamcdn-a.akamaihd.net/steamcommunity/public/images/apps/503460/6d5e6067ca640c7989c50c974b942469a8c52d99.jpg",
    "icongray": "https://steamcdn-a.akamaihd.net/steamcommunity/public/images/apps/503460/9d204b4ee903627868d3157ac6cb1f7f6511d41d.jpg"
  },
  {
    "name": "BOSS_DNA",
    "defaultvalue": 0,
    "displayName": "Basis of life",
    "hidden": 1,
    "icon": "https://steamcdn-a.akamaihd.net/steamcommunity/public/images/apps/503460/271a1b7305289fbba73a9f558679c14c859d0424.jpg",
    "icongray": "https://steamcdn-a.akamaihd.net/steamcommunity/public/images/apps/503460/f3d036a5facc8b29760d586dc6793239a724cce5.jpg"
  },
  {
    "name": "BOSSPROPASS",
    "defaultvalue": 0,
    "displayName": "Boss pro pass",
    "hidden": 0,
    "description": "Deploy any virus consisting of 100+ clusters without boosters",
    "icon": "https://steamcdn-a.akamaihd.net/steamcommunity/public/images/apps/503460/3c076fbf5c5182a0e64b4fb907c842caa68f5fbf.jpg",
    "icongray": "https://steamcdn-a.akamaihd.net/steamcommunity/public/images/apps/503460/3f63b9cd4064fdcf7ff614d39eed74afd16f19e3.jpg"
  },
  {
    "name": "BOSSCLEANPASS",
    "defaultvalue": 0,
    "displayName": "Clean boss pass",
    "hidden": 0,
    "description": "Deploy any virus consisting of 100+ clusters using a minimal amount of holes",
    "icon": "https://steamcdn-a.akamaihd.net/steamcommunity/public/images/apps/503460/04eae76282ebf7706d72fd3943cf3ee1e46f6f07.jpg",
    "icongray": "https://steamcdn-a.akamaihd.net/steamcommunity/public/images/apps/503460/d975b67900d84e0f2bf56986dfd476f2bbbafb9e.jpg"
  },
  {
    "name": "MAP_SAVEME",
    "defaultvalue": 0,
    "displayName": "Back home",
    "hidden": 0,
    "description": "Help Sybry to get back home",
    "icon": "https://steamcdn-a.akamaihd.net/steamcommunity/public/images/apps/503460/9663248ef3530bab08ca54d82fb5a11ebd3c68de.jpg",
    "icongray": "https://steamcdn-a.akamaihd.net/steamcommunity/public/images/apps/503460/e588907b9841b8cdee4f1324ec17328ddcc239de.jpg"
  },
  {
    "name": "MAP_ALMAMATER",
    "defaultvalue": 0,
    "displayName": "Following Semetsky",
    "hidden": 1,
    "icon": "https://steamcdn-a.akamaihd.net/steamcommunity/public/images/apps/503460/a2bf20cfcaef44bef662aeda1393a490c0a40701.jpg",
    "icongray": "https://steamcdn-a.akamaihd.net/steamcommunity/public/images/apps/503460/9f2e319defba05b305d4ba5c0a90e107b5485db4.jpg"
  },
  {
    "name": "MAP_VALENTINE",
    "defaultvalue": 0,
    "displayName": "Cherchez la femme",
    "hidden": 1,
    "icon": "https://steamcdn-a.akamaihd.net/steamcommunity/public/images/apps/503460/af61e0a67cd36e194dc783bf8565617df188c9c9.jpg",
    "icongray": "https://steamcdn-a.akamaihd.net/steamcommunity/public/images/apps/503460/ac35cef32535367d2838b87c8b817b9d3211f809.jpg"
  },
  {
    "name": "MAP_BOTNET",
    "defaultvalue": 0,
    "displayName": "Broadcast network",
    "hidden": 1,
    "icon": "https://steamcdn-a.akamaihd.net/steamcommunity/public/images/apps/503460/3d1c02185e2ebe8be44b9c478a29e180d8b26a76.jpg",
    "icongray": "https://steamcdn-a.akamaihd.net/steamcommunity/public/images/apps/503460/888bd3dad597dc5ad64fe8062751e4ae5e16f558.jpg"
  },
  {
    "name": "MAP_FBI",
    "defaultvalue": 0,
    "displayName": "X-files",
    "hidden": 1,
    "icon": "https://steamcdn-a.akamaihd.net/steamcommunity/public/images/apps/503460/2a7f351ec72afbebd565302d7f79e31c6cf449c4.jpg",
    "icongray": "https://steamcdn-a.akamaihd.net/steamcommunity/public/images/apps/503460/10b2956dd354f55a239a1b8f2c38a96eeb8b31c0.jpg"
  },
  {
    "name": "MAP_R78",
    "defaultvalue": 0,
    "displayName": "The answer is close",
    "hidden": 1,
    "icon": "https://steamcdn-a.akamaihd.net/steamcommunity/public/images/apps/503460/59d5efdbf543a87bbdde39e0ba7a1a84b39d8e11.jpg",
    "icongray": "https://steamcdn-a.akamaihd.net/steamcommunity/public/images/apps/503460/cbb6dcc5bd24c3b6c1b3b62e905cfd561adaf92d.jpg"
  },
  {
    "name": "MAP_KERNEL",
    "defaultvalue": 0,
    "displayName": "One more chance",
    "hidden": 1,
    "icon": "https://steamcdn-a.akamaihd.net/steamcommunity/public/images/apps/503460/ec378937fe568f054d6d72e6b0c00b4572343a48.jpg",
    "icongray": "https://steamcdn-a.akamaihd.net/steamcommunity/public/images/apps/503460/df8c7ff8878210e67e799c25f73b20eed6938e9f.jpg"
  },
  {
    "name": "FUNNEL_SYBRYSAVED",
    "defaultvalue": 0,
    "displayName": "I appreciate it",
    "hidden": 0,
    "description": "Save a beautiful stranger",
    "icon": "https://steamcdn-a.akamaihd.net/steamcommunity/public/images/apps/503460/5903d60f03ef38018e4992c8a8df6e00230758bd.jpg",
    "icongray": "https://steamcdn-a.akamaihd.net/steamcommunity/public/images/apps/503460/76c117ad3755b0185944c6b513615ca592f0f404.jpg"
  },
  {
    "name": "FUNNEL_NONTRIVIALTHINKING",
    "defaultvalue": 0,
    "displayName": "Thinking outside the box",
    "hidden": 0,
    "description": "Breach a non-standard security hole with a virus block",
    "icon": "https://steamcdn-a.akamaihd.net/steamcommunity/public/images/apps/503460/120f6ed3d15d7a6fbaefb65ebcfa76580fc2db49.jpg",
    "icongray": "https://steamcdn-a.akamaihd.net/steamcommunity/public/images/apps/503460/6019029018b250deb1988e4385a7d94ac9b9895c.jpg"
  },
  {
    "name": "FUNNEL_STAYUNNOTICED",
    "defaultvalue": 0,
    "displayName": "Become invisible",
    "hidden": 0,
    "description": "Cheat a hypersensitive antivirus",
    "icon": "https://steamcdn-a.akamaihd.net/steamcommunity/public/images/apps/503460/b5d2b5009c61777056b55a78d99a840746f282e8.jpg",
    "icongray": "https://steamcdn-a.akamaihd.net/steamcommunity/public/images/apps/503460/898a40e45e50223afe4d83cd788e8e723feb5d6c.jpg"
  },
  {
    "name": "FUNNEL_DOUBLEPROTECTION",
    "defaultvalue": 0,
    "displayName": "Semetsky record",
    "hidden": 0,
    "description": "Hack a server with dual protection",
    "icon": "https://steamcdn-a.akamaihd.net/steamcommunity/public/images/apps/503460/2dabdf279df831277505187a39404251bd436b88.jpg",
    "icongray": "https://steamcdn-a.akamaihd.net/steamcommunity/public/images/apps/503460/5aba63c4b30473078d5530a9b74150e2cb0dfd71.jpg"
  },
  {
    "name": "FUNNEL_RESCUEDDOCUMENT",
    "defaultvalue": 0,
    "displayName": "Saved file",
    "hidden": 0,
    "description": "Frighten the spider away",
    "icon": "https://steamcdn-a.akamaihd.net/steamcommunity/public/images/apps/503460/c14e04262d3fcab26a9fb0870e7efb0e21125413.jpg",
    "icongray": "https://steamcdn-a.akamaihd.net/steamcommunity/public/images/apps/503460/c7369783ae91325802e5c33de6aa617507481d19.jpg"
  },
  {
    "name": "FORKS_TERRARIUM",
    "defaultvalue": 0,
    "displayName": "Terrarium",
    "hidden": 1,
    "icon": "https://steamcdn-a.akamaihd.net/steamcommunity/public/images/apps/503460/a88dbd242080c2204c83ea61546aa6ee0a92cac3.jpg",
    "icongray": "https://steamcdn-a.akamaihd.net/steamcommunity/public/images/apps/503460/6510e49401198df607d479f59b0ffa49cd4692f6.jpg"
  },
  {
    "name": "FORKS_KEYINTHELOCK",
    "defaultvalue": 0,
    "displayName": "Key in the lock",
    "hidden": 1,
    "icon": "https://steamcdn-a.akamaihd.net/steamcommunity/public/images/apps/503460/5000576bbb0b3eb40f824bcdd79a340256ccb3e1.jpg",
    "icongray": "https://steamcdn-a.akamaihd.net/steamcommunity/public/images/apps/503460/1c0a31e95bef9be17afffd19229f0fc457fd8e06.jpg"
  },
  {
    "name": "FORKS_ARROWHITTHETARGET",
    "defaultvalue": 0,
    "displayName": "Arrow hit the target",
    "hidden": 1,
    "icon": "https://steamcdn-a.akamaihd.net/steamcommunity/public/images/apps/503460/a239ea24ed8c92ccf626b3f15133d7190a598448.jpg",
    "icongray": "https://steamcdn-a.akamaihd.net/steamcommunity/public/images/apps/503460/554bfcde7d095ea9b29caee527169641f9681ae1.jpg"
  },
  {
    "name": "FORKS_PIONEER",
    "defaultvalue": 0,
    "displayName": "Pioneer",
    "hidden": 1,
    "icon": "https://steamcdn-a.akamaihd.net/steamcommunity/public/images/apps/503460/53293cf5eb4510dc29ad07fbaa4978e904580a55.jpg",
    "icongray": "https://steamcdn-a.akamaihd.net/steamcommunity/public/images/apps/503460/5e4889b17428b17ac9a938d93988def1d11839c9.jpg"
  },
  {
    "name": "FORKS_STRONGHOLDLANDLORD",
    "defaultvalue": 0,
    "displayName": "Stronghold landlord",
    "hidden": 1,
    "icon": "https://steamcdn-a.akamaihd.net/steamcommunity/public/images/apps/503460/8b8ece91a2cbf5c41009564734eb53986e29efdb.jpg",
    "icongray": "https://steamcdn-a.akamaihd.net/steamcommunity/public/images/apps/503460/bca254f03112e83a1ac33591d8d44d047a362ad3.jpg"
  },
  {
    "name": "FORKS_TRAVELLER",
    "defaultvalue": 0,
    "displayName": "Traveller",
    "hidden": 1,
    "icon": "https://steamcdn-a.akamaihd.net/steamcommunity/public/images/apps/503460/de80628e5376f67b20201a2e58e1a4b782904008.jpg",
    "icongray": "https://steamcdn-a.akamaihd.net/steamcommunity/public/images/apps/503460/84c665f52a04bd33942cc61703e30ae828ed1d44.jpg"
  },
  {
    "name": "FORKS_SPIDERINTHENET",
    "defaultvalue": 0,
    "displayName": "Spider in the web",
    "hidden": 1,
    "icon": "https://steamcdn-a.akamaihd.net/steamcommunity/public/images/apps/503460/edd89aa794c07cbcbc12eab41039fb80dd513ca1.jpg",
    "icongray": "https://steamcdn-a.akamaihd.net/steamcommunity/public/images/apps/503460/8332fcc0e84827e3a08e121c4b216320f6e1204a.jpg"
  },
  {
    "name": "FORKS_SELFSIMILARITY",
    "defaultvalue": 0,
    "displayName": "Self-similarity",
    "hidden": 1,
    "icon": "https://steamcdn-a.akamaihd.net/steamcommunity/public/images/apps/503460/d6b2f62fbcaabbc5a741acd63f36336411baeb8c.jpg",
    "icongray": "https://steamcdn-a.akamaihd.net/steamcommunity/public/images/apps/503460/ae3d1b88d2664c11a809145e5f441e86305eb0b9.jpg"
  },
  {
    "name": "FORKS_EXPLORER",
    "defaultvalue": 0,
    "displayName": "Explorer",
    "hidden": 1,
    "icon": "https://steamcdn-a.akamaihd.net/steamcommunity/public/images/apps/503460/8095edadfdcd0c8fa532c513adfa3324f3f4aba7.jpg",
    "icongray": "https://steamcdn-a.akamaihd.net/steamcommunity/public/images/apps/503460/217ee9a383b5329eeb354a862e74c298ca069967.jpg"
  },
  {
    "name": "FORKS_PREDATORORPREY",
    "defaultvalue": 0,
    "displayName": "Predator or prey",
    "hidden": 1,
    "icon": "https://steamcdn-a.akamaihd.net/steamcommunity/public/images/apps/503460/70cd5fdce15f777849f5ae5d673d7e00883dc7b3.jpg",
    "icongray": "https://steamcdn-a.akamaihd.net/steamcommunity/public/images/apps/503460/43ffaf738d9b4d59a2e072f2166ab08eca86c67d.jpg"
  },
  {
    "name": "FORKS_ADVENTURESEEKER",
    "defaultvalue": 0,
    "displayName": "Adventurer",
    "hidden": 1,
    "icon": "https://steamcdn-a.akamaihd.net/steamcommunity/public/images/apps/503460/88f86b5ec151b3fa35991df8e5683da17f838056.jpg",
    "icongray": "https://steamcdn-a.akamaihd.net/steamcommunity/public/images/apps/503460/0fb5952f7668be80d2bdf33081125fc6f8082a32.jpg"
  },
  {
    "name": "DETECTIVE",
    "defaultvalue": 0,
    "displayName": "Detective",
    "hidden": 0,
    "description": "Read all of the found documents",
    "icon": "https://steamcdn-a.akamaihd.net/steamcommunity/public/images/apps/503460/3930e7cd4942f6a3c2f4da2ecda660f8436df54b.jpg",
    "icongray": "https://steamcdn-a.akamaihd.net/steamcommunity/public/images/apps/503460/96ccfb19aa7cca978e3c1a4c10397a1a42c79575.jpg"
  },
  {
    "name": "FULLYHACKED",
    "defaultvalue": 0,
    "displayName": "Full hack",
    "hidden": 0,
    "description": "Pass all levels on all maps",
    "icon": "https://steamcdn-a.akamaihd.net/steamcommunity/public/images/apps/503460/cf2733c791d6df42fbac4f2ea52bf93f665396fd.jpg",
    "icongray": "https://steamcdn-a.akamaihd.net/steamcommunity/public/images/apps/503460/78d3b9a7cae56f768267e98a86b3d701c5d36f4b.jpg"
  },
  {
    "name": "HOLES_ANY_TIER1",
    "defaultvalue": 0,
    "displayName": "Hole Surfer lvl 1",
    "hidden": 0,
    "description": "Breach 15 security holes",
    "icon": "https://steamcdn-a.akamaihd.net/steamcommunity/public/images/apps/503460/805f2b5bedf2160aac63610f8dc1590139588802.jpg",
    "icongray": "https://steamcdn-a.akamaihd.net/steamcommunity/public/images/apps/503460/11230a3ca5cd2a4934cb73172c14a0600686a857.jpg"
  },
  {
    "name": "HOLES_ANY_TIER2",
    "defaultvalue": 0,
    "displayName": "Hole Surfer lvl 2",
    "hidden": 0,
    "description": "Breach 100 security holes",
    "icon": "https://steamcdn-a.akamaihd.net/steamcommunity/public/images/apps/503460/1c4a247b1822b001e6aadd07692a02616ac94c2b.jpg",
    "icongray": "https://steamcdn-a.akamaihd.net/steamcommunity/public/images/apps/503460/4b72930ae9391b3522a3f79e5c161fcda0316dfd.jpg"
  },
  {
    "name": "HOLES_ANY_TIER3",
    "defaultvalue": 0,
    "displayName": "Hole Surfer lvl 3",
    "hidden": 0,
    "description": "Breach 1'000 security holes",
    "icon": "https://steamcdn-a.akamaihd.net/steamcommunity/public/images/apps/503460/283c5227216a5a1ff9a3d655b8204857f7ae4395.jpg",
    "icongray": "https://steamcdn-a.akamaihd.net/steamcommunity/public/images/apps/503460/43cb23ff71b710b626f5c3511d461cf80f4dfdf3.jpg"
  },
  {
    "name": "ROUNDS_PHANTOM_TIER1",
    "defaultvalue": 0,
    "displayName": "Ghost Master lvl 1",
    "hidden": 0,
    "description": "Pass 5 phantom rounds",
    "icon": "https://steamcdn-a.akamaihd.net/steamcommunity/public/images/apps/503460/c46f94deae9d2fd66e5226d787cf3db75162b2ee.jpg",
    "icongray": "https://steamcdn-a.akamaihd.net/steamcommunity/public/images/apps/503460/551e9f5f6178f9260fdafd2b24c4cb12a6ac722f.jpg"
  },
  {
    "name": "ROUNDS_PHANTOM_TIER2",
    "defaultvalue": 0,
    "displayName": "Ghost Master lvl 2",
    "hidden": 0,
    "description": "Pass 15 phantom rounds",
    "icon": "https://steamcdn-a.akamaihd.net/steamcommunity/public/images/apps/503460/d645e0d540fc44baa5616f92b50f6635ce76f2fe.jpg",
    "icongray": "https://steamcdn-a.akamaihd.net/steamcommunity/public/images/apps/503460/a3ccf7c4d4ca0c6f95ce558aef9d075501493c38.jpg"
  },
  {
    "name": "ROUNDS_PHANTOM_TIER3",
    "defaultvalue": 0,
    "displayName": "Ghost Master lvl 3",
    "hidden": 0,
    "description": "Pass 50 phantom rounds",
    "icon": "https://steamcdn-a.akamaihd.net/steamcommunity/public/images/apps/503460/c839602fd66c5210159d6ed4e4c0e1be09d7b867.jpg",
    "icongray": "https://steamcdn-a.akamaihd.net/steamcommunity/public/images/apps/503460/10f28432c7f41b9d5965aa09b12cd2b68b271e63.jpg"
  },
  {
    "name": "BLOCKS_CUBE_TIER1",
    "defaultvalue": 0,
    "displayName": "Cube penetrator lvl 1",
    "hidden": 0,
    "description": "Breach 200 cubes through a security hole",
    "icon": "https://steamcdn-a.akamaihd.net/steamcommunity/public/images/apps/503460/a20cc5a84ee5c56b9369c136e27e8bb3320f17ff.jpg",
    "icongray": "https://steamcdn-a.akamaihd.net/steamcommunity/public/images/apps/503460/1eefd81f79df4666e3e55a4d07b024b8bd7923a4.jpg"
  },
  {
    "name": "BLOCKS_CUBE_TIER2",
    "defaultvalue": 0,
    "displayName": "Cube penetrator lvl 2",
    "hidden": 0,
    "description": "Breach 2'500 cubes through a security hole",
    "icon": "https://steamcdn-a.akamaihd.net/steamcommunity/public/images/apps/503460/e39403ec0b1aa0a1326080a378ffe9b9c63db1fe.jpg",
    "icongray": "https://steamcdn-a.akamaihd.net/steamcommunity/public/images/apps/503460/25396c29fa69549f9541f6e6a1413d07ca9859bb.jpg"
  },
  {
    "name": "BLOCKS_CUBE_TIER3",
    "defaultvalue": 0,
    "displayName": "Cube penetrator lvl 3",
    "hidden": 0,
    "description": "Breach 10'000 cubes through a security hole",
    "icon": "https://steamcdn-a.akamaihd.net/steamcommunity/public/images/apps/503460/c4f264648c533533371d838327027905cbe7fc5b.jpg",
    "icongray": "https://steamcdn-a.akamaihd.net/steamcommunity/public/images/apps/503460/03a6182a373c5a62a41a4fc20a7efb3e31cd82e4.jpg"
  },
  {
    "name": "BLOCKS_BAR_TIER1",
    "defaultvalue": 0,
    "displayName": "Bar penetrator lvl 1",
    "hidden": 0,
    "description": "Breach 60 bars through a security hole",
    "icon": "https://steamcdn-a.akamaihd.net/steamcommunity/public/images/apps/503460/365b306e3dfc6b5ae7ea5483c756d4ad5a6c412c.jpg",
    "icongray": "https://steamcdn-a.akamaihd.net/steamcommunity/public/images/apps/503460/818a77aae75c29ccf15bc5728616d3c678922c53.jpg"
  },
  {
    "name": "BLOCKS_BAR_TIER2",
    "defaultvalue": 0,
    "displayName": "Bar penetrator lvl 2",
    "hidden": 0,
    "description": "Breach 600 bars through a security hole",
    "icon": "https://steamcdn-a.akamaihd.net/steamcommunity/public/images/apps/503460/05d3de8c25d5e403f78e49d538b08e159f98efc8.jpg",
    "icongray": "https://steamcdn-a.akamaihd.net/steamcommunity/public/images/apps/503460/d1db6b986c91e1648c01a0c9333768ad70666372.jpg"
  },
  {
    "name": "BLOCKS_BAR_TIER3",
    "defaultvalue": 0,
    "displayName": "Bar penetrator lvl 3",
    "hidden": 0,
    "description": "Breach 3'000 bars through a security hole",
    "icon": "https://steamcdn-a.akamaihd.net/steamcommunity/public/images/apps/503460/1a9369093790267426e3de0ddcbbb616e222f3c5.jpg",
    "icongray": "https://steamcdn-a.akamaihd.net/steamcommunity/public/images/apps/503460/78abcfe7c50f44fdb9935c2c61de5229b14a448a.jpg"
  },
  {
    "name": "BLOCKS_TETRAHEDRON_TIER1",
    "defaultvalue": 0,
    "displayName": "Tetrahedron penetrator lvl 1",
    "hidden": 0,
    "description": "Breach 50 tetrahedrons through a security hole",
    "icon": "https://steamcdn-a.akamaihd.net/steamcommunity/public/images/apps/503460/3abf44e86fb1520eda7029a1217dd86ec8d942a6.jpg",
    "icongray": "https://steamcdn-a.akamaihd.net/steamcommunity/public/images/apps/503460/131849f6f94a5261a4044047818dd044aaa58eb9.jpg"
  },
  {
    "name": "BLOCKS_TETRAHEDRON_TIER2",
    "defaultvalue": 0,
    "displayName": "Tetrahedron penetrator lvl 2",
    "hidden": 0,
    "description": "Breach 400 tetrahedrons through a security hole",
    "icon": "https://steamcdn-a.akamaihd.net/steamcommunity/public/images/apps/503460/be09a5cd46ca12bf23bc9d379d19084bbd99c9c7.jpg",
    "icongray": "https://steamcdn-a.akamaihd.net/steamcommunity/public/images/apps/503460/ddc1ba21da2a98ec495b44cc2bbf0f1b212b9275.jpg"
  },
  {
    "name": "BLOCKS_TETRAHEDRON_TIER3",
    "defaultvalue": 0,
    "displayName": "Tetrahedron penetrator lvl 3",
    "hidden": 0,
    "description": "Breach 2'000 tetrahedrons through a security hole",
    "icon": "https://steamcdn-a.akamaihd.net/steamcommunity/public/images/apps/503460/fcea49c5ef5cd5fdd8922966cccd513a2e2de52e.jpg",
    "icongray": "https://steamcdn-a.akamaihd.net/steamcommunity/public/images/apps/503460/573a0a2e3d8cb249ae6fc1d5a927a7930a70dc54.jpg"
  },
  {
    "name": "BLOCKS_CAPSULE_TIER1",
    "defaultvalue": 0,
    "displayName": "Capsule penetrator lvl 1",
    "hidden": 1,
    "icon": "https://steamcdn-a.akamaihd.net/steamcommunity/public/images/apps/503460/932c56ea6395806073b7d4159d113b710ab0f840.jpg",
    "icongray": "https://steamcdn-a.akamaihd.net/steamcommunity/public/images/apps/503460/76c117ba4d9eaaffa69e92f7416fb27e638260e8.jpg"
  },
  {
    "name": "BLOCKS_CAPSULE_TIER2",
    "defaultvalue": 0,
    "displayName": "Capsule penetrator lvl 2",
    "hidden": 1,
    "icon": "https://steamcdn-a.akamaihd.net/steamcommunity/public/images/apps/503460/f20540662beb3065f39480e488bfa2d30040bdbd.jpg",
    "icongray": "https://steamcdn-a.akamaihd.net/steamcommunity/public/images/apps/503460/c71f93d3447c74f4cdd102d6b9ee6d3b48a7aba0.jpg"
  },
  {
    "name": "BLOCKS_CAPSULE_TIER3",
    "defaultvalue": 0,
    "displayName": "Capsule penetrator lvl 3",
    "hidden": 1,
    "icon": "https://steamcdn-a.akamaihd.net/steamcommunity/public/images/apps/503460/be00334ecdc4aa108cb3b946074a32c4d9b02fa1.jpg",
    "icongray": "https://steamcdn-a.akamaihd.net/steamcommunity/public/images/apps/503460/bb23b4f4d32d413dabd20548cdc1f52885f5b09e.jpg"
  },
  {
    "name": "BLOCKS_OCTAHEDRON_TIER1",
    "defaultvalue": 0,
    "displayName": "Octahedron penetrator lvl 1",
    "hidden": 0,
    "description": "Breach 50 octahedrons through a security hole",
    "icon": "https://steamcdn-a.akamaihd.net/steamcommunity/public/images/apps/503460/1346b11cb076f7857430965134dad07963504b43.jpg",
    "icongray": "https://steamcdn-a.akamaihd.net/steamcommunity/public/images/apps/503460/50b9980267646dc8cf04c1030f7cea18a0ca6b5e.jpg"
  },
  {
    "name": "BLOCKS_OCTAHEDRON_TIER2",
    "defaultvalue": 0,
    "displayName": "Octahedron penetrator lvl 2",
    "hidden": 0,
    "description": "Breach 400 octahedrons through a security hole",
    "icon": "https://steamcdn-a.akamaihd.net/steamcommunity/public/images/apps/503460/ac47ad24e181d9fae647d9561d1a1652e3bbb68d.jpg",
    "icongray": "https://steamcdn-a.akamaihd.net/steamcommunity/public/images/apps/503460/d818aee49f3aad3a8dd92c2825e4442e23ccc033.jpg"
  },
  {
    "name": "BLOCKS_OCTAHEDRON_TIER3",
    "defaultvalue": 0,
    "displayName": "Octahedron penetrator lvl 3",
    "hidden": 0,
    "description": "Breach 2'000 octahedrons through a security hole",
    "icon": "https://steamcdn-a.akamaihd.net/steamcommunity/public/images/apps/503460/ee3204d26a0cc305b988b7dd8629b55bf0013c53.jpg",
    "icongray": "https://steamcdn-a.akamaihd.net/steamcommunity/public/images/apps/503460/0897437f8febc2cf72725d0025ef1487b48f1ebf.jpg"
  },
  {
    "name": "BLOCKS_DODECAHEDRON_TIER1",
    "defaultvalue": 0,
    "displayName": "Bronze dodecahedron penetrator",
    "hidden": 0,
    "description": "Breach 50 dodecahedrons through a security hole",
    "icon": "https://steamcdn-a.akamaihd.net/steamcommunity/public/images/apps/503460/10788ebd8371e428fb0dcb64e586de6a558aafd3.jpg",
    "icongray": "https://steamcdn-a.akamaihd.net/steamcommunity/public/images/apps/503460/55ba2c60bcac9885a909665c54d0c6f96b6cd7b7.jpg"
  },
  {
    "name": "BLOCKS_DODECAHEDRON_TIER2",
    "defaultvalue": 0,
    "displayName": "Dodecahedron penetrator lvl 2",
    "hidden": 0,
    "description": "Breach 500 dodecahedrons through a security hole",
    "icon": "https://steamcdn-a.akamaihd.net/steamcommunity/public/images/apps/503460/37c3d7ac58e7e6421d7bbf06e917bcbc6c8be5bc.jpg",
    "icongray": "https://steamcdn-a.akamaihd.net/steamcommunity/public/images/apps/503460/ca06c2371bbf53e157a1da92f1ba84798e5306e7.jpg"
  },
  {
    "name": "BLOCKS_DODECAHEDRON_TIER3",
    "defaultvalue": 0,
    "displayName": "Golden dodecahedron penetrator",
    "hidden": 0,
    "description": "Breach 2'500 dodecahedrons through a security hole",
    "icon": "https://steamcdn-a.akamaihd.net/steamcommunity/public/images/apps/503460/f65e60d2fefcb371e094282d9cd1b79953974955.jpg",
    "icongray": "https://steamcdn-a.akamaihd.net/steamcommunity/public/images/apps/503460/9c7cc22cc17fa0932e9738331ca0f05c6d364ed4.jpg"
  },
  {
    "name": "ANTI_ROTATIONLIMITFAILURES",
    "defaultvalue": 0,
    "displayName": "A bull in a china shop",
    "hidden": 1,
    "icon": "https://steamcdn-a.akamaihd.net/steamcommunity/public/images/apps/503460/70e9a798e666518b2aa6ac529b428896a3fbd8fd.jpg",
    "icongray": "https://steamcdn-a.akamaihd.net/steamcommunity/public/images/apps/503460/d784b280f6a572c3ca337ad226677f4561aa8c7c.jpg"
  },
  {
    "name": "ANTI_ALLFAILURES",
    "defaultvalue": 0,
    "displayName": "It's not over until it's over",
    "hidden": 1,
    "icon": "https://steamcdn-a.akamaihd.net/steamcommunity/public/images/apps/503460/296611f5c5062fadbb678bdfef5cb3415ebf9c3a.jpg",
    "icongray": "https://steamcdn-a.akamaihd.net/steamcommunity/public/images/apps/503460/0381863b9a5469dd76413e09269cadcd572c2f10.jpg"
  },
  {
    "name": "HOLES_TRICKY_TIER1",
    "defaultvalue": 0,
    "displayName": "Smart Hacker lvl 1",
    "hidden": 0,
    "description": "Breach 10 non-standard security holes",
    "icon": "https://steamcdn-a.akamaihd.net/steamcommunity/public/images/apps/503460/4a97bcdfae6ecddeef5cc32b84bac33769c4726b.jpg",
    "icongray": "https://steamcdn-a.akamaihd.net/steamcommunity/public/images/apps/503460/4e15716fd7eafaba47d3cdf5b6435d58f0a48c94.jpg"
  },
  {
    "name": "HOLES_TRICKY_TIER2",
    "defaultvalue": 0,
    "displayName": "Smart Hacker lvl 2",
    "hidden": 0,
    "description": "Breach 50 non-standard security holes",
    "icon": "https://steamcdn-a.akamaihd.net/steamcommunity/public/images/apps/503460/8455a44a686d778d498179adb6a5c4f916f2803a.jpg",
    "icongray": "https://steamcdn-a.akamaihd.net/steamcommunity/public/images/apps/503460/c3caefc117f5aa1cfe1d028e79431f71aa2c5a19.jpg"
  },
  {
    "name": "HOLES_TRICKY_TIER3",
    "defaultvalue": 0,
    "displayName": "Smart Hacker lvl 3",
    "hidden": 0,
    "description": "Breach 200 non-standard security holes",
    "icon": "https://steamcdn-a.akamaihd.net/steamcommunity/public/images/apps/503460/6358cb3a1b806ea47242fe58b1181582b5aef421.jpg",
    "icongray": "https://steamcdn-a.akamaihd.net/steamcommunity/public/images/apps/503460/edfd6738c6f2aeb240acf4f2cf54e36798e4fb2a.jpg"
  },
  {
    "name": "PROGRESSRESET",
    "defaultvalue": 0,
    "displayName": "From scratch",
    "hidden": 1,
    "icon": "https://steamcdn-a.akamaihd.net/steamcommunity/public/images/apps/503460/792302b46a17e21e92cfd7a683213344d824d7e1.jpg",
    "icongray": "https://steamcdn-a.akamaihd.net/steamcommunity/public/images/apps/503460/87b27f45b7bbd0b22e41372dd28ff53884b24ece.jpg"
  },
  {
    "name": "ATLEASTONETIMEWITHOUTBOOSTERS",
    "defaultvalue": 0,
    "displayName": "Game master",
    "hidden": 0,
    "description": "Pass every single level at least once without boosters",
    "icon": "https://steamcdn-a.akamaihd.net/steamcommunity/public/images/apps/503460/9cd7115baceaa3aa075014c9e71124686f423027.jpg",
    "icongray": "https://steamcdn-a.akamaihd.net/steamcommunity/public/images/apps/503460/abbed8405017d24b1346022f09772a0b618c08f0.jpg"
  },
  {
    "name": "NOBOOSTERS",
    "defaultvalue": 0,
    "displayName": "Hardcore gamer",
    "hidden": 0,
    "description": "Complete the game without using any boosters (each passed level at least once without boosters)",
    "icon": "https://steamcdn-a.akamaihd.net/steamcommunity/public/images/apps/503460/86071a285cbb681ad8eda6b570b1dd71ee2d8fdf.jpg",
    "icongray": "https://steamcdn-a.akamaihd.net/steamcommunity/public/images/apps/503460/ebdcb73faa24b6a46b68c7d86691e94ce8fa601f.jpg"
  },
  {
    "name": "HOLES_ROTATIONLIMIT_TIER1",
    "defaultvalue": 0,
    "displayName": "Stealth Master lvl 1",
    "hidden": 0,
    "description": "Breach 10 security holes with motion detection",
    "icon": "https://steamcdn-a.akamaihd.net/steamcommunity/public/images/apps/503460/bb6d48e254e4e18197c94efb906ac067a7e92460.jpg",
    "icongray": "https://steamcdn-a.akamaihd.net/steamcommunity/public/images/apps/503460/d852a588068a1aa4a1a18b0fd7ab8c7285dc206d.jpg"
  },
  {
    "name": "HOLES_ROTATIONLIMIT_TIER2",
    "defaultvalue": 0,
    "displayName": "Stealth Master lvl 2",
    "hidden": 0,
    "description": "Breach 50 security holes with motion detection",
    "icon": "https://steamcdn-a.akamaihd.net/steamcommunity/public/images/apps/503460/edd76d1437682666222c422346275625daf5691b.jpg",
    "icongray": "https://steamcdn-a.akamaihd.net/steamcommunity/public/images/apps/503460/5b6c7b63cfeb9e70dd429a726c1cff5a1695d5f6.jpg"
  },
  {
    "name": "HOLES_ROTATIONLIMIT_TIER3",
    "defaultvalue": 0,
    "displayName": "Stealth Master lvl 3",
    "hidden": 0,
    "description": "Breach 400 security holes with motion detection",
    "icon": "https://steamcdn-a.akamaihd.net/steamcommunity/public/images/apps/503460/5c25b4466a8f40fb8caeb4380b2ec80d3c5d7d94.jpg",
    "icongray": "https://steamcdn-a.akamaihd.net/steamcommunity/public/images/apps/503460/3da22c22602483f303013c49839154625fc02ce9.jpg"
  },
  {
    "name": "SUPERSPEED",
    "defaultvalue": 0,
    "displayName": "Super speed",
    "hidden": 0,
    "description": "Breach a security hole with a nontrivial virus block in less than 1 second",
    "icon": "https://steamcdn-a.akamaihd.net/steamcommunity/public/images/apps/503460/d72453af99ce0230bd324f2b7d0a87298e3e2392.jpg",
    "icongray": "https://steamcdn-a.akamaihd.net/steamcommunity/public/images/apps/503460/5c4634bc12fb81bb2be7a18970d799b356f5d793.jpg"
  }
]