[
  {
    "name": "Original_Achievement_1_0",
    "defaultvalue": 0,
    "displayName": "Chapter 1",
    "hidden": 0,
    "description": "Finished chapter 1 of Campaign",
    "icon": "https://steamcdn-a.akamaihd.net/steamcommunity/public/images/apps/918430/526b521c39a7e58a5d6e5f13e6783d12cbda9604.jpg",
    "icongray": "https://steamcdn-a.akamaihd.net/steamcommunity/public/images/apps/918430/5fea3d9df2e43c6ca297d2095132d9035f5369f8.jpg"
  },
  {
    "name": "Original_Achievement_1_1",
    "defaultvalue": 0,
    "displayName": "Chapter 2",
    "hidden": 0,
    "description": "Finished chapter 2 of Campaign",
    "icon": "https://steamcdn-a.akamaihd.net/steamcommunity/public/images/apps/918430/3a442155a0cc10ae6d9b172b1895bc4ff25603ff.jpg",
    "icongray": "https://steamcdn-a.akamaihd.net/steamcommunity/public/images/apps/918430/9dc14e696cd1d9b476483513de6d08d215539d5a.jpg"
  },
  {
    "name": "Original_Achievement_1_2",
    "defaultvalue": 0,
    "displayName": "Chapter 3",
    "hidden": 0,
    "description": "Finished chapter 3 of Campaign",
    "icon": "https://steamcdn-a.akamaihd.net/steamcommunity/public/images/apps/918430/62842aa9329ef12bcffedabd86c0ed3639a830a3.jpg",
    "icongray": "https://steamcdn-a.akamaihd.net/steamcommunity/public/images/apps/918430/6eab764c457fa0d50f2f049319a887b49e57d74e.jpg"
  },
  {
    "name": "Original_Achievement_1_3",
    "defaultvalue": 0,
    "displayName": "Chapter 4",
    "hidden": 0,
    "description": "Finished chapter 4 of Campaign",
    "icon": "https://steamcdn-a.akamaihd.net/steamcommunity/public/images/apps/918430/68512c8f98e0581a853897c8bc3f1af2625f7d0f.jpg",
    "icongray": "https://steamcdn-a.akamaihd.net/steamcommunity/public/images/apps/918430/c6fdeedd919e3867c5cc0c18191ae0ec1614c55c.jpg"
  },
  {
    "name": "Original_Achievement_1_4",
    "defaultvalue": 0,
    "displayName": "Chapter 5",
    "hidden": 0,
    "description": "Finished chapter 5 of Campaign",
    "icon": "https://steamcdn-a.akamaihd.net/steamcommunity/public/images/apps/918430/fd98b265efd4d96d945a4947627a792d83ba4cfa.jpg",
    "icongray": "https://steamcdn-a.akamaihd.net/steamcommunity/public/images/apps/918430/0b6b8e40276cad0cbf0572ee075728d9554bc1a0.jpg"
  },
  {
    "name": "Original_Achievement_1_5",
    "defaultvalue": 0,
    "displayName": "Madness",
    "hidden": 0,
    "description": "Used \"Rampage\" card",
    "icon": "https://steamcdn-a.akamaihd.net/steamcommunity/public/images/apps/918430/a1181f078f464c85bcbde13ba2550a91722a40ad.jpg",
    "icongray": "https://steamcdn-a.akamaihd.net/steamcommunity/public/images/apps/918430/98a94659a40b6142a232ea36d6dd24a55e1d895e.jpg"
  },
  {
    "name": "Original_Achievement_1_6",
    "defaultvalue": 0,
    "displayName": "Revenge",
    "hidden": 0,
    "description": "Won a battle with only 1 HP left",
    "icon": "https://steamcdn-a.akamaihd.net/steamcommunity/public/images/apps/918430/4b937036cbd5eabd954c7c186969a0be98ba69db.jpg",
    "icongray": "https://steamcdn-a.akamaihd.net/steamcommunity/public/images/apps/918430/e068a4b7ee6ce6470bf3e4d3bb515ad25feaea9d.jpg"
  },
  {
    "name": "Original_Achievement_1_7",
    "defaultvalue": 0,
    "displayName": "Survivor",
    "hidden": 0,
    "description": "Killed an enemy without over damaging it with \"Exact Time\" condition satisfied",
    "icon": "https://steamcdn-a.akamaihd.net/steamcommunity/public/images/apps/918430/80f663711d112e653794d0c6e8425e1bd1748dbd.jpg",
    "icongray": "https://steamcdn-a.akamaihd.net/steamcommunity/public/images/apps/918430/2750b864c4064d5a25746d060b2ad41899ba9f6c.jpg"
  },
  {
    "name": "Original_Achievement_1_8",
    "defaultvalue": 0,
    "displayName": "Wanderer",
    "hidden": 0,
    "description": "Cleared Standard Mode with only three slots in the deck",
    "icon": "https://steamcdn-a.akamaihd.net/steamcommunity/public/images/apps/918430/a8b0eff688acc42b37daf59713625b00fe55ef49.jpg",
    "icongray": "https://steamcdn-a.akamaihd.net/steamcommunity/public/images/apps/918430/b9f70492a8b75a695fcf25b62274e410d7e0d874.jpg"
  },
  {
    "name": "Original_Achievement_1_9",
    "defaultvalue": 0,
    "displayName": "Rebuild",
    "hidden": 0,
    "description": "Cleared Standard Mode with Eins",
    "icon": "https://steamcdn-a.akamaihd.net/steamcommunity/public/images/apps/918430/52d98e97e501d631c5e844ddc382f17bb1adcb27.jpg",
    "icongray": "https://steamcdn-a.akamaihd.net/steamcommunity/public/images/apps/918430/386e1e319381150b19f40c82673fec0370c26a71.jpg"
  },
  {
    "name": "Original_Achievement_1_10",
    "defaultvalue": 0,
    "displayName": "Obsession",
    "hidden": 0,
    "description": "Won a battle with shield remaining",
    "icon": "https://steamcdn-a.akamaihd.net/steamcommunity/public/images/apps/918430/77e37f097ab929cd4693aaa0d8d475a86f11fe7b.jpg",
    "icongray": "https://steamcdn-a.akamaihd.net/steamcommunity/public/images/apps/918430/4fc19fdac382c5856f836d597b4cdc6fba0dfcef.jpg"
  },
  {
    "name": "Original_Achievement_1_11",
    "defaultvalue": 0,
    "displayName": "Reminiscence",
    "hidden": 0,
    "description": "Cleared Standard Mode with Dos",
    "icon": "https://steamcdn-a.akamaihd.net/steamcommunity/public/images/apps/918430/9f8440951e2b42d9d4c70f4eeb22807d280c6e72.jpg",
    "icongray": "https://steamcdn-a.akamaihd.net/steamcommunity/public/images/apps/918430/867dae8afe323a0375a663e7b718776cda9e0741.jpg"
  },
  {
    "name": "Original_Achievement_1_12",
    "defaultvalue": 0,
    "displayName": "Expert",
    "hidden": 0,
    "description": "Cleared Standard Mode without killing an elite enemy",
    "icon": "https://steamcdn-a.akamaihd.net/steamcommunity/public/images/apps/918430/f1279cd47c94461fab48b0eed456d6a637d1eab0.jpg",
    "icongray": "https://steamcdn-a.akamaihd.net/steamcommunity/public/images/apps/918430/900dcdace225782a3a00262848b1f9f7d98cbf96.jpg"
  },
  {
    "name": "Original_Achievement_1_13",
    "defaultvalue": 0,
    "displayName": "Distrust",
    "hidden": 0,
    "description": "Opened card pack at its level 20",
    "icon": "https://steamcdn-a.akamaihd.net/steamcommunity/public/images/apps/918430/0f512cd9088c88fcdd46e28763d7d95a4aa4a65a.jpg",
    "icongray": "https://steamcdn-a.akamaihd.net/steamcommunity/public/images/apps/918430/c9a31ea3f5f9639ba06126fa2c4274ab1cdeb461.jpg"
  },
  {
    "name": "Original_Achievement_1_14",
    "defaultvalue": 0,
    "displayName": "Troubleshooter",
    "hidden": 0,
    "description": "Cleared Standard Mode with maximum cards in deck",
    "icon": "https://steamcdn-a.akamaihd.net/steamcommunity/public/images/apps/918430/7d31bbfea0410ca4a49c8e7fd96ef98aa88f4840.jpg",
    "icongray": "https://steamcdn-a.akamaihd.net/steamcommunity/public/images/apps/918430/552ccc23314603eefd7152c8736b78590ec24781.jpg"
  },
  {
    "name": "Original_Achievement_1_15",
    "defaultvalue": 0,
    "displayName": "Thoughness",
    "hidden": 0,
    "description": "Won a battle with maximum HP",
    "icon": "https://steamcdn-a.akamaihd.net/steamcommunity/public/images/apps/918430/272aef90a52f1cfc5355200a9aefdd31749ba305.jpg",
    "icongray": "https://steamcdn-a.akamaihd.net/steamcommunity/public/images/apps/918430/d71bfc35cb4788398134086779ed8e4eb68ba9fa.jpg"
  },
  {
    "name": "Original_Achievement_1_16",
    "defaultvalue": 0,
    "displayName": "Obedience",
    "hidden": 0,
    "description": "Cleared Standard Mode without any cards in inventory",
    "icon": "https://steamcdn-a.akamaihd.net/steamcommunity/public/images/apps/918430/aca5d923050736001053be532d355ce4cde232d5.jpg",
    "icongray": "https://steamcdn-a.akamaihd.net/steamcommunity/public/images/apps/918430/e16e76c3515c6159481b18a310e2df6548a392df.jpg"
  },
  {
    "name": "Original_Achievement_1_17",
    "defaultvalue": 0,
    "displayName": "Overthrow",
    "hidden": 0,
    "description": "Cleared Standard Mode with Null",
    "icon": "https://steamcdn-a.akamaihd.net/steamcommunity/public/images/apps/918430/f1a59f5c37ad0e210e478214c3e1ad5716aa6d84.jpg",
    "icongray": "https://steamcdn-a.akamaihd.net/steamcommunity/public/images/apps/918430/6548b5a549f25765930faeb8935a202109e4150b.jpg"
  },
  {
    "name": "Original_Achievement_1_18",
    "defaultvalue": 0,
    "displayName": "Resistance",
    "hidden": 0,
    "description": "Won a battle with all the cards exhausted",
    "icon": "https://steamcdn-a.akamaihd.net/steamcommunity/public/images/apps/918430/603f1af7cc4ec3701a24c62a0242bb9e9ce4c52f.jpg",
    "icongray": "https://steamcdn-a.akamaihd.net/steamcommunity/public/images/apps/918430/ed254dc75de9df8fd29252a75f50f6b38ef0d424.jpg"
  },
  {
    "name": "Original_Achievement_1_19",
    "defaultvalue": 0,
    "displayName": "Leader",
    "hidden": 0,
    "description": "Cleared Standard Mode with all different slots",
    "icon": "https://steamcdn-a.akamaihd.net/steamcommunity/public/images/apps/918430/24f361e9fa95e3d963d791095eadabc8839ca6ea.jpg",
    "icongray": "https://steamcdn-a.akamaihd.net/steamcommunity/public/images/apps/918430/995513a1c4fc6563e8cb80641a9dfe406f1f7dcd.jpg"
  },
  {
    "name": "Original_Achievement_1_20",
    "defaultvalue": 0,
    "displayName": "Standard AI Lv 1",
    "hidden": 0,
    "description": "Cleared Standard Mode with level 1 AI",
    "icon": "https://steamcdn-a.akamaihd.net/steamcommunity/public/images/apps/918430/e2c3ea3c2a2497fb0ece9a45a9fe6c74184f92f5.jpg",
    "icongray": "https://steamcdn-a.akamaihd.net/steamcommunity/public/images/apps/918430/5b791cfc0ef8f06e4627146cb2f6692e3977e6e8.jpg"
  },
  {
    "name": "Original_Achievement_1_21",
    "defaultvalue": 0,
    "displayName": "Standard AI Lv 2",
    "hidden": 0,
    "description": "Cleared Standard Mode with level 2 AI",
    "icon": "https://steamcdn-a.akamaihd.net/steamcommunity/public/images/apps/918430/9cf60f08a4ea213661f1a50cc2f2e91f2021c65d.jpg",
    "icongray": "https://steamcdn-a.akamaihd.net/steamcommunity/public/images/apps/918430/e5e0f8df5ae615bae84d91b9cfd1b396bc31baee.jpg"
  },
  {
    "name": "Original_Achievement_1_22",
    "defaultvalue": 0,
    "displayName": "Standard AI Lv 3",
    "hidden": 0,
    "description": "Cleared Standard Mode with level 3 AI",
    "icon": "https://steamcdn-a.akamaihd.net/steamcommunity/public/images/apps/918430/cdcd45b89b4a0ec2ee2a1b3af929bbfd537c5087.jpg",
    "icongray": "https://steamcdn-a.akamaihd.net/steamcommunity/public/images/apps/918430/b3a42719e9df3e6d455131dc3961886c757e90ec.jpg"
  },
  {
    "name": "Original_Achievement_1_23",
    "defaultvalue": 0,
    "displayName": "Standard AI Lv 4",
    "hidden": 0,
    "description": "Cleared Standard Mode with level 4 AI",
    "icon": "https://steamcdn-a.akamaihd.net/steamcommunity/public/images/apps/918430/2360d83d5cc72d42b7e4485b7dae75377d2b300c.jpg",
    "icongray": "https://steamcdn-a.akamaihd.net/steamcommunity/public/images/apps/918430/fe137b12f18ec2fa7cfe948acbd6c5bf8ebf23ed.jpg"
  },
  {
    "name": "Original_Achievement_1_24",
    "defaultvalue": 0,
    "displayName": "Standard AI Lv 5",
    "hidden": 0,
    "description": "Cleared Standard Mode with level 5 AI",
    "icon": "https://steamcdn-a.akamaihd.net/steamcommunity/public/images/apps/918430/813e97abf8d312107c2b98c0b48acb9468b14f24.jpg",
    "icongray": "https://steamcdn-a.akamaihd.net/steamcommunity/public/images/apps/918430/4df08d099da2765e56a4b9d657dba48a91029176.jpg"
  },
  {
    "name": "Original_Achievement_1_25",
    "defaultvalue": 0,
    "displayName": "Standard AI Lv 6",
    "hidden": 0,
    "description": "Cleared Standard Mode with level 6 AI",
    "icon": "https://steamcdn-a.akamaihd.net/steamcommunity/public/images/apps/918430/b76b478b7c0eaca148eb52199ce32751369a36bc.jpg",
    "icongray": "https://steamcdn-a.akamaihd.net/steamcommunity/public/images/apps/918430/c74134fdc376d64a6508b18176641c4dc524a58f.jpg"
  },
  {
    "name": "Original_Achievement_1_26",
    "defaultvalue": 0,
    "displayName": "Standard AI Lv 7",
    "hidden": 0,
    "description": "Cleared Standard Mode with level 7 AI",
    "icon": "https://steamcdn-a.akamaihd.net/steamcommunity/public/images/apps/918430/59dac4b9bf0cff9f20f29a980a1f301080885ea0.jpg",
    "icongray": "https://steamcdn-a.akamaihd.net/steamcommunity/public/images/apps/918430/7ec2f1ed0fe2319304b379ddc41f59e4e88ca07b.jpg"
  },
  {
    "name": "Original_Achievement_1_27",
    "defaultvalue": 0,
    "displayName": "Standard AI Lv 8",
    "hidden": 0,
    "description": "Cleared Standard Mode with level 8 AI",
    "icon": "https://steamcdn-a.akamaihd.net/steamcommunity/public/images/apps/918430/4f7670a8037bba40b6b6eb9557555750d41280e5.jpg",
    "icongray": "https://steamcdn-a.akamaihd.net/steamcommunity/public/images/apps/918430/55d4b8904731a00e10af96db14c36bbf396f5e54.jpg"
  },
  {
    "name": "Original_Achievement_1_28",
    "defaultvalue": 0,
    "displayName": "Standard AI Lv 9",
    "hidden": 0,
    "description": "Cleared Standard Mode with level 9 AI",
    "icon": "https://steamcdn-a.akamaihd.net/steamcommunity/public/images/apps/918430/8e88684dbdb733f9bf77f85bd7c72464902894c3.jpg",
    "icongray": "https://steamcdn-a.akamaihd.net/steamcommunity/public/images/apps/918430/3f2b12df37af5c1831fab3e97e71393fe00b0024.jpg"
  },
  {
    "name": "Original_Achievement_1_29",
    "defaultvalue": 0,
    "displayName": "SEDOL",
    "hidden": 0,
    "description": "Cleared Standard Mode with level 10 AI",
    "icon": "https://steamcdn-a.akamaihd.net/steamcommunity/public/images/apps/918430/63aa7ab4ee68ce1b5bdd20feaddaf449ae762071.jpg",
    "icongray": "https://steamcdn-a.akamaihd.net/steamcommunity/public/images/apps/918430/bd281bc39482c07e86bb271bad3de7f8e3eac8d5.jpg"
  },
  {
    "name": "Original_Achievement_1_30",
    "defaultvalue": 0,
    "displayName": "Eins Basic LV 10",
    "hidden": 0,
    "description": "Finished Standard Mode LV10 with Eins Basic preset",
    "icon": "https://steamcdn-a.akamaihd.net/steamcommunity/public/images/apps/918430/36adb9f10d695fb19b65472ca0b340bbde7a3c5f.jpg",
    "icongray": "https://steamcdn-a.akamaihd.net/steamcommunity/public/images/apps/918430/46041163d9e980675e5d3f3d6b4cf81a5b78acc7.jpg"
  },
  {
    "name": "Original_Achievement_1_31",
    "defaultvalue": 0,
    "displayName": "Madness LV 10",
    "hidden": 0,
    "description": "Finished Standard Mode LV10 with Madness preset",
    "icon": "https://steamcdn-a.akamaihd.net/steamcommunity/public/images/apps/918430/8305d34985d4d5392ecb1461cc3c13ef977d64a5.jpg",
    "icongray": "https://steamcdn-a.akamaihd.net/steamcommunity/public/images/apps/918430/cfeb823b4d71f9975aa64df1921cd4b2fba20da5.jpg"
  },
  {
    "name": "Original_Achievement_2_0",
    "defaultvalue": 0,
    "displayName": "Revenge LV 10",
    "hidden": 0,
    "description": "Finished Standard Mode LV10 with Revenge preset",
    "icon": "https://steamcdn-a.akamaihd.net/steamcommunity/public/images/apps/918430/ec670f2e9b95a0b84613b15e34de532e19b131ec.jpg",
    "icongray": "https://steamcdn-a.akamaihd.net/steamcommunity/public/images/apps/918430/97d9e7308995abd8a7523932b017aa2fa0d0da48.jpg"
  },
  {
    "name": "Original_Achievement_2_1",
    "defaultvalue": 0,
    "displayName": "Survivor LV 10",
    "hidden": 0,
    "description": "Finished Standard Mode LV10 with Survivor preset",
    "icon": "https://steamcdn-a.akamaihd.net/steamcommunity/public/images/apps/918430/86087b48a1f1d59b901e8f9e92b4c7effa48595d.jpg",
    "icongray": "https://steamcdn-a.akamaihd.net/steamcommunity/public/images/apps/918430/f4912c9576ae094e873ae459caf7d2884529de94.jpg"
  },
  {
    "name": "Original_Achievement_2_2",
    "defaultvalue": 0,
    "displayName": "Wanderer LV 10",
    "hidden": 0,
    "description": "Finished Standard Mode LV10 with Wanderer preset",
    "icon": "https://steamcdn-a.akamaihd.net/steamcommunity/public/images/apps/918430/23551b3ea3d7d292df0894ec2cacabba1756accb.jpg",
    "icongray": "https://steamcdn-a.akamaihd.net/steamcommunity/public/images/apps/918430/0b45b8bb80970ce1af906377ba0938c199d824b8.jpg"
  },
  {
    "name": "Original_Achievement_2_3",
    "defaultvalue": 0,
    "displayName": "Rebuild LV 10",
    "hidden": 0,
    "description": "Finished Standard Mode LV10 with Rebuild preset",
    "icon": "https://steamcdn-a.akamaihd.net/steamcommunity/public/images/apps/918430/1e43dc56a1eabf292423611b42ab1b723470e7ad.jpg",
    "icongray": "https://steamcdn-a.akamaihd.net/steamcommunity/public/images/apps/918430/5b18bc8df188c870b34f5c7ffe83f73650a0f64c.jpg"
  },
  {
    "name": "Original_Achievement_2_4",
    "defaultvalue": 0,
    "displayName": "Dos Basic LV 10",
    "hidden": 0,
    "description": "Finished Standard Mode LV10 with Dos Basic preset",
    "icon": "https://steamcdn-a.akamaihd.net/steamcommunity/public/images/apps/918430/bcc77bc7bd847c26d254ccdf13893215b4d60e03.jpg",
    "icongray": "https://steamcdn-a.akamaihd.net/steamcommunity/public/images/apps/918430/1a60a329274ce3aac9d923a68c430e331f059326.jpg"
  },
  {
    "name": "Original_Achievement_2_5",
    "defaultvalue": 0,
    "displayName": "Obsession LV 10",
    "hidden": 0,
    "description": "Finished Standard Mode LV10 with Obsession preset",
    "icon": "https://steamcdn-a.akamaihd.net/steamcommunity/public/images/apps/918430/393cf438fea40a41ebb256060703c3870139f4fa.jpg",
    "icongray": "https://steamcdn-a.akamaihd.net/steamcommunity/public/images/apps/918430/1c8121937fb886a6a12c53540943e2e1ba9e98ae.jpg"
  },
  {
    "name": "Original_Achievement_2_6",
    "defaultvalue": 0,
    "displayName": "Reminiscence LV 10",
    "hidden": 0,
    "description": "Finished Standard Mode LV10 with Reminiscence preset",
    "icon": "https://steamcdn-a.akamaihd.net/steamcommunity/public/images/apps/918430/d3d410508c40aba59c22b923c8a1aa3d8922f67c.jpg",
    "icongray": "https://steamcdn-a.akamaihd.net/steamcommunity/public/images/apps/918430/9be98dabb52bbdf87e94a0cfc4852b2012d84466.jpg"
  },
  {
    "name": "Original_Achievement_2_7",
    "defaultvalue": 0,
    "displayName": "Expert LV 10",
    "hidden": 0,
    "description": "Finished Standard Mode LV10 with Expert preset",
    "icon": "https://steamcdn-a.akamaihd.net/steamcommunity/public/images/apps/918430/ac57f76ea1b93dbe479b16efce05a00ecae4b8ed.jpg",
    "icongray": "https://steamcdn-a.akamaihd.net/steamcommunity/public/images/apps/918430/8c2cb551b6687f9112fde773e4eddd639ba9a071.jpg"
  },
  {
    "name": "Original_Achievement_2_8",
    "defaultvalue": 0,
    "displayName": "Distrust LV 10",
    "hidden": 0,
    "description": "Finished Standard Mode LV10 with Distrust preset",
    "icon": "https://steamcdn-a.akamaihd.net/steamcommunity/public/images/apps/918430/40faa9248eaaa5409157a559ffd97ee43573bb08.jpg",
    "icongray": "https://steamcdn-a.akamaihd.net/steamcommunity/public/images/apps/918430/24c8d5d2c90db1b984071cff28ca07bee51b4f1c.jpg"
  },
  {
    "name": "Original_Achievement_2_9",
    "defaultvalue": 0,
    "displayName": "Troubleshooter LV 10",
    "hidden": 0,
    "description": "Finished Standard Mode LV10 with Troubleshooter preset",
    "icon": "https://steamcdn-a.akamaihd.net/steamcommunity/public/images/apps/918430/d25008da54c43a193a7cd6a56d713822eef327f8.jpg",
    "icongray": "https://steamcdn-a.akamaihd.net/steamcommunity/public/images/apps/918430/911339d676e29f9f14192b07168f0b374a307e9c.jpg"
  },
  {
    "name": "Original_Achievement_2_10",
    "defaultvalue": 0,
    "displayName": "Null Basic LV 10",
    "hidden": 0,
    "description": "Finished Standard Mode LV10 with Null Basic preset",
    "icon": "https://steamcdn-a.akamaihd.net/steamcommunity/public/images/apps/918430/a4b0902fc25f20909015bc20a971dc6cced3eeef.jpg",
    "icongray": "https://steamcdn-a.akamaihd.net/steamcommunity/public/images/apps/918430/03e58f924aa1e6217669b783ca82d848e5ca97a3.jpg"
  },
  {
    "name": "Original_Achievement_2_11",
    "defaultvalue": 0,
    "displayName": "Thoughness LV 10",
    "hidden": 0,
    "description": "Finished Standard Mode LV10 with Toughness preset",
    "icon": "https://steamcdn-a.akamaihd.net/steamcommunity/public/images/apps/918430/e790d4eb037ad4a02740e2ca0699bda512a65010.jpg",
    "icongray": "https://steamcdn-a.akamaihd.net/steamcommunity/public/images/apps/918430/b4860b70398200b5bd827fadd583dbeaf3de95a3.jpg"
  },
  {
    "name": "Original_Achievement_2_12",
    "defaultvalue": 0,
    "displayName": "Obedience LV 10",
    "hidden": 0,
    "description": "Finished Standard Mode LV10 with Obedience preset",
    "icon": "https://steamcdn-a.akamaihd.net/steamcommunity/public/images/apps/918430/b476dc0361605c7459388a3b5456484856915ac0.jpg",
    "icongray": "https://steamcdn-a.akamaihd.net/steamcommunity/public/images/apps/918430/650e87abce0482cb936433b8729c6f625d2e608b.jpg"
  },
  {
    "name": "Original_Achievement_2_13",
    "defaultvalue": 0,
    "displayName": "Overthrow LV 10",
    "hidden": 0,
    "description": "Finished Standard Mode LV10 with Overthrow preset",
    "icon": "https://steamcdn-a.akamaihd.net/steamcommunity/public/images/apps/918430/00091579e44740e514f0a0beca855d624154d1c0.jpg",
    "icongray": "https://steamcdn-a.akamaihd.net/steamcommunity/public/images/apps/918430/466b5ef62e55ba5a9ed57ec0cef2600390d3ab96.jpg"
  },
  {
    "name": "Original_Achievement_2_14",
    "defaultvalue": 0,
    "displayName": "Resistance LV 10",
    "hidden": 0,
    "description": "Finished Standard Mode LV10 with Resistance preset",
    "icon": "https://steamcdn-a.akamaihd.net/steamcommunity/public/images/apps/918430/e39d239972c9c03ac32e260512448927fd5355d7.jpg",
    "icongray": "https://steamcdn-a.akamaihd.net/steamcommunity/public/images/apps/918430/a21dd11320ba03ff5e3eaf2cedbc45bbd8fd2d9c.jpg"
  },
  {
    "name": "Original_Achievement_2_15",
    "defaultvalue": 0,
    "displayName": "Leader LV 10",
    "hidden": 0,
    "description": "Finished Standard Mode LV10 with Leader preset",
    "icon": "https://steamcdn-a.akamaihd.net/steamcommunity/public/images/apps/918430/82e47d29deeb5ade9eb4f9b9eefbe1b7446110de.jpg",
    "icongray": "https://steamcdn-a.akamaihd.net/steamcommunity/public/images/apps/918430/b39feac6976527be1b0f23b65562f21a57874287.jpg"
  },
  {
    "name": "Original_Achievement_2_16",
    "defaultvalue": 0,
    "displayName": "Eins Master",
    "hidden": 0,
    "description": "Finished Standard Mode LV 10 with all of Eins' presets",
    "icon": "https://steamcdn-a.akamaihd.net/steamcommunity/public/images/apps/918430/018d6e82ea5d7dfa343d7d885e03a42d66688ecd.jpg",
    "icongray": "https://steamcdn-a.akamaihd.net/steamcommunity/public/images/apps/918430/527d60f217671d5688b33ab69ce57828a8fe3414.jpg"
  },
  {
    "name": "Original_Achievement_2_17",
    "defaultvalue": 0,
    "displayName": "Dos Master",
    "hidden": 0,
    "description": "Finished Standard Mode LV 10 with all of Dos' presets",
    "icon": "https://steamcdn-a.akamaihd.net/steamcommunity/public/images/apps/918430/221e10c658675b8e8fae773ba9b1abadfd5a7654.jpg",
    "icongray": "https://steamcdn-a.akamaihd.net/steamcommunity/public/images/apps/918430/0e10ecf3d5024c8c5159f22c2fb9b51659817eb8.jpg"
  },
  {
    "name": "Original_Achievement_2_18",
    "defaultvalue": 0,
    "displayName": "Null Master",
    "hidden": 0,
    "description": "Finished Standard Mode LV 10 with all of Null's presets",
    "icon": "https://steamcdn-a.akamaihd.net/steamcommunity/public/images/apps/918430/9a09663bdd0495e80f04fa118e000b236cde908c.jpg",
    "icongray": "https://steamcdn-a.akamaihd.net/steamcommunity/public/images/apps/918430/584a8518115ad10bcbbf6f9d087db04617ffd22f.jpg"
  },
  {
    "name": "Original_Achievement_2_19",
    "defaultvalue": 0,
    "displayName": "Fossil",
    "hidden": 0,
    "description": "Finished Standard Mode LV 10 with every presets",
    "icon": "https://steamcdn-a.akamaihd.net/steamcommunity/public/images/apps/918430/83ba3042909109812d12f6aca0784009ddab1335.jpg",
    "icongray": "https://steamcdn-a.akamaihd.net/steamcommunity/public/images/apps/918430/d836448d271ba9190cada0905d27afba2a4ff568.jpg"
  }
]