[
  {
    "name": "ACH_VAGON",
    "defaultvalue": 0,
    "displayName": "Begin the quest",
    "hidden": 0,
    "description": "",
    "icon": "https://steamcdn-a.akamaihd.net/steamcommunity/public/images/apps/629360/f7947c3fb0496c0ac6868d3db543731d3ea49e66.jpg",
    "icongray": "https://steamcdn-a.akamaihd.net/steamcommunity/public/images/apps/629360/6864cd8f19297ff3e66e6d19fb40c32fc13d3cf3.jpg"
  },
  {
    "name": "ACH_PRIMER_SUSTO",
    "defaultvalue": 0,
    "displayName": "Welcome",
    "hidden": 0,
    "description": "",
    "icon": "https://steamcdn-a.akamaihd.net/steamcommunity/public/images/apps/629360/81f29a4b4c8cdace5bfdfb5c45237baa0317dddb.jpg",
    "icongray": "https://steamcdn-a.akamaihd.net/steamcommunity/public/images/apps/629360/d1341d16db7c023c5309f5704cf06227294f48b0.jpg"
  },
  {
    "name": "ACH_PRIMERA_BATERIA",
    "defaultvalue": 0,
    "displayName": "The first one of many",
    "hidden": 0,
    "description": "You got the first battery.",
    "icon": "https://steamcdn-a.akamaihd.net/steamcommunity/public/images/apps/629360/38b197152e4a0a15460fe3acd97e6cccaaa7ed16.jpg",
    "icongray": "https://steamcdn-a.akamaihd.net/steamcommunity/public/images/apps/629360/ca5bae8d8aa2b767d44dde3ad8e133cef4f579df.jpg"
  },
  {
    "name": "ACH_COLEC_CAJA",
    "defaultvalue": 0,
    "displayName": "The gift from a mother",
    "hidden": 0,
    "description": "You found a collectable.",
    "icon": "https://steamcdn-a.akamaihd.net/steamcommunity/public/images/apps/629360/cffd80392ff7e60b4b012852dc12c988baa81ce2.jpg",
    "icongray": "https://steamcdn-a.akamaihd.net/steamcommunity/public/images/apps/629360/c1aa8eb870c56ec02dbdcdf04d6c9d90fd0bd606.jpg"
  },
  {
    "name": "ACH_COLEC_RELOJ",
    "defaultvalue": 0,
    "displayName": "Time for a break",
    "hidden": 0,
    "description": "You found a collectable.",
    "icon": "https://steamcdn-a.akamaihd.net/steamcommunity/public/images/apps/629360/42b99db322e566ae8bc09bbe9b3557e3287977d1.jpg",
    "icongray": "https://steamcdn-a.akamaihd.net/steamcommunity/public/images/apps/629360/f54879e1a1a94bc24b7f34313f4ea71b2c658a73.jpg"
  },
  {
    "name": "ACH_DOS_ZONAS",
    "defaultvalue": 0,
    "displayName": "Let there be light",
    "hidden": 0,
    "description": "",
    "icon": "https://steamcdn-a.akamaihd.net/steamcommunity/public/images/apps/629360/5b588203204210ba36dee5bf4ac785fcbc9dfbc2.jpg",
    "icongray": "https://steamcdn-a.akamaihd.net/steamcommunity/public/images/apps/629360/16ac1dd2eecbef2d6b0f8316545a76e37a071565.jpg"
  },
  {
    "name": "ACH_COLEC_TODOS_ESTACION",
    "defaultvalue": 0,
    "displayName": "Thief",
    "hidden": 0,
    "description": "You got all the collectibles from the station.",
    "icon": "https://steamcdn-a.akamaihd.net/steamcommunity/public/images/apps/629360/3a39f24db81d739fb819beb5ec668a3c7f9d58e3.jpg",
    "icongray": "https://steamcdn-a.akamaihd.net/steamcommunity/public/images/apps/629360/7911adfa0de64a525b6949d642d19c200484c8c3.jpg"
  },
  {
    "name": "ACH_EXPLOR_SOTANO",
    "defaultvalue": 0,
    "displayName": "Underground explorer",
    "hidden": 0,
    "description": "You just got to the basement of the station.",
    "icon": "https://steamcdn-a.akamaihd.net/steamcommunity/public/images/apps/629360/22c1c635e9718651eb74ac479001bd9eca3480b6.jpg",
    "icongray": "https://steamcdn-a.akamaihd.net/steamcommunity/public/images/apps/629360/3b15c0a3529f3952b3a358a2371347ab6c2803b5.jpg"
  },
  {
    "name": "ACH_WC_ESTACION",
    "defaultvalue": 0,
    "displayName": "Occupied!",
    "hidden": 0,
    "description": "",
    "icon": "https://steamcdn-a.akamaihd.net/steamcommunity/public/images/apps/629360/c7d199200cce365c619c65995958e43d860cace1.jpg",
    "icongray": "https://steamcdn-a.akamaihd.net/steamcommunity/public/images/apps/629360/bf5e92d0163ee0a19d83bdb9eb196757598396dd.jpg"
  },
  {
    "name": "ACH_CINCO_BATERIAS_ESTACION",
    "defaultvalue": 0,
    "displayName": "I don't fear nothing",
    "hidden": 0,
    "description": "You came out from the station with 5 batteries.",
    "icon": "https://steamcdn-a.akamaihd.net/steamcommunity/public/images/apps/629360/1d1c06f348a342c17e6755cfa1e4034fcb6cf519.jpg",
    "icongray": "https://steamcdn-a.akamaihd.net/steamcommunity/public/images/apps/629360/bbc790919ed04cbee042b3809501c5fe698eba8d.jpg"
  },
  {
    "name": "ACH_SIN_MORIR_ESTACION",
    "defaultvalue": 0,
    "displayName": "Qualified",
    "hidden": 0,
    "description": "You came out from the station without dying.",
    "icon": "https://steamcdn-a.akamaihd.net/steamcommunity/public/images/apps/629360/eb6f2358b2846ebf5556cbc58c3e42b2970feefa.jpg",
    "icongray": "https://steamcdn-a.akamaihd.net/steamcommunity/public/images/apps/629360/790f6a810c101241add12b707381ade79cc44b00.jpg"
  },
  {
    "name": "ACH_HOMBRE_LLAMAS",
    "defaultvalue": 0,
    "displayName": "Man on fire",
    "hidden": 0,
    "description": "",
    "icon": "https://steamcdn-a.akamaihd.net/steamcommunity/public/images/apps/629360/e5b7306db9a42273a8b91b9868e0d545ccda43a1.jpg",
    "icongray": "https://steamcdn-a.akamaihd.net/steamcommunity/public/images/apps/629360/bd5533b6f8c2c8272a97ccdb2b3234878a60611a.jpg"
  },
  {
    "name": "ACH_TODAS_LLAVES_ESTACION",
    "defaultvalue": 0,
    "displayName": "Who needs a locksmith?",
    "hidden": 0,
    "description": "You found all the keys from the station.",
    "icon": "https://steamcdn-a.akamaihd.net/steamcommunity/public/images/apps/629360/6fb704a9787d60892345800096af2fc0840ac0bd.jpg",
    "icongray": "https://steamcdn-a.akamaihd.net/steamcommunity/public/images/apps/629360/d2d1e95a69a7322bc583c3a97d66f51dfb6e8dbf.jpg"
  },
  {
    "name": "ACH_POSTER_ESTACION",
    "defaultvalue": 0,
    "displayName": "Augury",
    "hidden": 0,
    "description": "",
    "icon": "https://steamcdn-a.akamaihd.net/steamcommunity/public/images/apps/629360/4e9111520c2d92ed8ba79f215f3925a97c4c257a.jpg",
    "icongray": "https://steamcdn-a.akamaihd.net/steamcommunity/public/images/apps/629360/6815e3893d4384f78febddc76b8d1a5f4c2da349.jpg"
  },
  {
    "name": "ACH_TODAS_BITACORAS_ESTACION",
    "defaultvalue": 0,
    "displayName": "Curious",
    "hidden": 0,
    "description": "You took all the binacles from the station.",
    "icon": "https://steamcdn-a.akamaihd.net/steamcommunity/public/images/apps/629360/f154d32c1bbbdc672709d340b60158fc9fb88813.jpg",
    "icongray": "https://steamcdn-a.akamaihd.net/steamcommunity/public/images/apps/629360/19a9fbbc6e36bff08f7dbacad35be4848ac2c008.jpg"
  },
  {
    "name": "ACH_SALIR_ESTACION",
    "defaultvalue": 0,
    "displayName": "Nightlife",
    "hidden": 1,
    "icon": "https://steamcdn-a.akamaihd.net/steamcommunity/public/images/apps/629360/a9e5f2886bdff00a7abf2b6c450ea7aa2c3f0c25.jpg",
    "icongray": "https://steamcdn-a.akamaihd.net/steamcommunity/public/images/apps/629360/639a05bbade6141e7352d9a55c528d5b67fe6261.jpg"
  },
  {
    "name": "ACH_GAS_EXTRA",
    "defaultvalue": 0,
    "displayName": "Just in case",
    "hidden": 0,
    "description": "You got extra gas.",
    "icon": "https://steamcdn-a.akamaihd.net/steamcommunity/public/images/apps/629360/e270905aebb8e63313d3aca60f75f1d91dc4c570.jpg",
    "icongray": "https://steamcdn-a.akamaihd.net/steamcommunity/public/images/apps/629360/7174e67a3e1631c5fdddfc19422347d18e434ead.jpg"
  },
  {
    "name": "ACH_GENERADOR_CIUDAD",
    "defaultvalue": 0,
    "displayName": "Extremist",
    "hidden": 0,
    "description": "You activated the engine.",
    "icon": "https://steamcdn-a.akamaihd.net/steamcommunity/public/images/apps/629360/e161b8a35067445bb0d08450c225116c6f52aead.jpg",
    "icongray": "https://steamcdn-a.akamaihd.net/steamcommunity/public/images/apps/629360/e2e9b74d9f3246f24f625f1c1508d659e96c1a67.jpg"
  },
  {
    "name": "ACH_PARQUE_CIUDAD",
    "defaultvalue": 0,
    "displayName": "Did someone hear that?",
    "hidden": 0,
    "description": "",
    "icon": "https://steamcdn-a.akamaihd.net/steamcommunity/public/images/apps/629360/09cc68e7b7afa03a541841f3df20654fcb4dd7be.jpg",
    "icongray": "https://steamcdn-a.akamaihd.net/steamcommunity/public/images/apps/629360/a7f0f4744d9e2ab567df626eeaa6dc31dbdd59ba.jpg"
  },
  {
    "name": "ACH_AUTO_CIUDAD",
    "defaultvalue": 0,
    "displayName": "Next Stop: Reint City",
    "hidden": 0,
    "description": "",
    "icon": "https://steamcdn-a.akamaihd.net/steamcommunity/public/images/apps/629360/d22174a2de79d6b6132fd605249619f30ccfb615.jpg",
    "icongray": "https://steamcdn-a.akamaihd.net/steamcommunity/public/images/apps/629360/37c45f2acef7790679434f7e4e0dbac2c1536dbe.jpg"
  },
  {
    "name": "ACH_CHICA_CAE",
    "defaultvalue": 0,
    "displayName": "Are you ok?",
    "hidden": 0,
    "description": "",
    "icon": "https://steamcdn-a.akamaihd.net/steamcommunity/public/images/apps/629360/8d1902192581293a464c8f0e7f1b5376bbf1e13f.jpg",
    "icongray": "https://steamcdn-a.akamaihd.net/steamcommunity/public/images/apps/629360/9e281edd2bc92818b913413e910de05e89a5965d.jpg"
  },
  {
    "name": "ACH_PRIMER_FANTASMA",
    "defaultvalue": 0,
    "displayName": "Stop",
    "hidden": 0,
    "description": "You stopped the first ghost.",
    "icon": "https://steamcdn-a.akamaihd.net/steamcommunity/public/images/apps/629360/8257fdfb1b43c5c8f27a394061ddd1d53dd9df2e.jpg",
    "icongray": "https://steamcdn-a.akamaihd.net/steamcommunity/public/images/apps/629360/df466808dc51b6b983e472cde4d435c429057986.jpg"
  },
  {
    "name": "ACH_CASA_CIUDAD",
    "defaultvalue": 0,
    "displayName": "Home Hauler",
    "hidden": 1,
    "icon": "https://steamcdn-a.akamaihd.net/steamcommunity/public/images/apps/629360/7a9c6d3f92abb0f2a305d7aea7bffa9b8bcecef3.jpg",
    "icongray": "https://steamcdn-a.akamaihd.net/steamcommunity/public/images/apps/629360/4d7a4650ac73108977cd118a76aa3bb753f140e7.jpg"
  },
  {
    "name": "ACH_COLEC_CUADRO",
    "defaultvalue": 0,
    "displayName": "Yoga",
    "hidden": 0,
    "description": "You found a collectable.",
    "icon": "https://steamcdn-a.akamaihd.net/steamcommunity/public/images/apps/629360/c5e04f8e8899bf85cf29e31fc924aea6a5282576.jpg",
    "icongray": "https://steamcdn-a.akamaihd.net/steamcommunity/public/images/apps/629360/1b50e606e44c6f718d2c1585a830d0f5b982a344.jpg"
  },
  {
    "name": "ACH_COLEC_AUTO",
    "defaultvalue": 0,
    "displayName": "What's Reint City?",
    "hidden": 0,
    "description": "You found a collectable.",
    "icon": "https://steamcdn-a.akamaihd.net/steamcommunity/public/images/apps/629360/bbc733c2703f2c5befbf4e4e0ac44380b2105d0f.jpg",
    "icongray": "https://steamcdn-a.akamaihd.net/steamcommunity/public/images/apps/629360/d0a220e31e25bbde515e8a6d4d853901b59e7e7d.jpg"
  },
  {
    "name": "ACH_COLEC_TROFEO",
    "defaultvalue": 0,
    "displayName": "Marathon runner",
    "hidden": 0,
    "description": "You found a collectable.",
    "icon": "https://steamcdn-a.akamaihd.net/steamcommunity/public/images/apps/629360/7a3e27eaff0a993cfd614a63a1b1f858ecd7ffcc.jpg",
    "icongray": "https://steamcdn-a.akamaihd.net/steamcommunity/public/images/apps/629360/1ae890c7944c7f0c2581993776415d810db59d54.jpg"
  },
  {
    "name": "ACH_TODOS_COLEC_CIUDAD",
    "defaultvalue": 0,
    "displayName": "Hurler",
    "hidden": 0,
    "description": "You got all the collectibles from the city.",
    "icon": "https://steamcdn-a.akamaihd.net/steamcommunity/public/images/apps/629360/ff304bdbcab1459f12a636ef60c2fe69248ef1a4.jpg",
    "icongray": "https://steamcdn-a.akamaihd.net/steamcommunity/public/images/apps/629360/8d08bdd77c187ccb10a3ba6df080f3fcc60b0137.jpg"
  },
  {
    "name": "ACH_TODAS_BIT_CIUDAD",
    "defaultvalue": 0,
    "displayName": "Snooper",
    "hidden": 0,
    "description": "You took all the binacles from the city.",
    "icon": "https://steamcdn-a.akamaihd.net/steamcommunity/public/images/apps/629360/c7f020f977006f02b658ea855579169f885d5e10.jpg",
    "icongray": "https://steamcdn-a.akamaihd.net/steamcommunity/public/images/apps/629360/786ff84cd5d73f537bad4294840c2314edefe355.jpg"
  },
  {
    "name": "ACH_ENTRAR_HOSPITAL",
    "defaultvalue": 0,
    "displayName": "In Ruins",
    "hidden": 1,
    "icon": "https://steamcdn-a.akamaihd.net/steamcommunity/public/images/apps/629360/655fc5520e2477f18b00961d90d3920e596153f2.jpg",
    "icongray": "https://steamcdn-a.akamaihd.net/steamcommunity/public/images/apps/629360/d4a64b862e5b13e041b921e3792887c16e7f3845.jpg"
  },
  {
    "name": "ACH_SODA",
    "defaultvalue": 0,
    "displayName": "Thirsty",
    "hidden": 0,
    "description": "",
    "icon": "https://steamcdn-a.akamaihd.net/steamcommunity/public/images/apps/629360/f8683067d679510de8bc0a5f6ea52b32d0856f40.jpg",
    "icongray": "https://steamcdn-a.akamaihd.net/steamcommunity/public/images/apps/629360/1aeeba3983a4fae78b2ef8ab26e8c7babdee4d16.jpg"
  },
  {
    "name": "ACH_WC_TODAS",
    "defaultvalue": 0,
    "displayName": "Scare to death",
    "hidden": 0,
    "description": "",
    "icon": "https://steamcdn-a.akamaihd.net/steamcommunity/public/images/apps/629360/479fd6a6142b6ae0b7e3cd677cade433e62fbf54.jpg",
    "icongray": "https://steamcdn-a.akamaihd.net/steamcommunity/public/images/apps/629360/d1d9c5ae48bc31a8b74d8e9fcf489ce39ad02e0f.jpg"
  },
  {
    "name": "ACH_ENERGIA_HOSPITAL",
    "defaultvalue": 0,
    "displayName": "Mayor sacrifice",
    "hidden": 0,
    "description": "You deactivated the energy from the second floor.",
    "icon": "https://steamcdn-a.akamaihd.net/steamcommunity/public/images/apps/629360/ada175a034d351dd0fa3cf17bdf5a73b87b23e16.jpg",
    "icongray": "https://steamcdn-a.akamaihd.net/steamcommunity/public/images/apps/629360/86e92aa24ab9a42b71b6d45c5e5e67eb59af2308.jpg"
  },
  {
    "name": "ACH_GEMA_PRIMERA",
    "defaultvalue": 0,
    "displayName": "Crimson rain",
    "hidden": 0,
    "description": "You found a gem.",
    "icon": "https://steamcdn-a.akamaihd.net/steamcommunity/public/images/apps/629360/32f5a1f01abfc9de481fb770c938b250dffd6a09.jpg",
    "icongray": "https://steamcdn-a.akamaihd.net/steamcommunity/public/images/apps/629360/2bac3f8ae88640e892b65921e31151c3deca1480.jpg"
  },
  {
    "name": "ACH_GEMA_SEGUNDA",
    "defaultvalue": 0,
    "displayName": "Heraldic Soul",
    "hidden": 0,
    "description": "You found another gem.",
    "icon": "https://steamcdn-a.akamaihd.net/steamcommunity/public/images/apps/629360/813acfe72c7169d29a3e4aa36af15a9e85615a82.jpg",
    "icongray": "https://steamcdn-a.akamaihd.net/steamcommunity/public/images/apps/629360/2bac3f8ae88640e892b65921e31151c3deca1480.jpg"
  },
  {
    "name": "ACH_GEMA_TERCERA",
    "defaultvalue": 0,
    "displayName": "Baltic dream",
    "hidden": 0,
    "description": "You found the last gem.",
    "icon": "https://steamcdn-a.akamaihd.net/steamcommunity/public/images/apps/629360/72eeceac71481b448521fd9ccc05361e34233bf1.jpg",
    "icongray": "https://steamcdn-a.akamaihd.net/steamcommunity/public/images/apps/629360/2bac3f8ae88640e892b65921e31151c3deca1480.jpg"
  },
  {
    "name": "ACH_ELEVADOR",
    "defaultvalue": 0,
    "displayName": "Go up",
    "hidden": 0,
    "description": "You activated the lift.",
    "icon": "https://steamcdn-a.akamaihd.net/steamcommunity/public/images/apps/629360/28f812658173db39f593d8ccabeaeb2fb52b1bcb.jpg",
    "icongray": "https://steamcdn-a.akamaihd.net/steamcommunity/public/images/apps/629360/5dd5304058be33d700bb8b5fa4cd12733e5d7e35.jpg"
  },
  {
    "name": "ACH_PATRICIA_VIVA",
    "defaultvalue": 0,
    "displayName": "Wich conditioner do you use?",
    "hidden": 1,
    "icon": "https://steamcdn-a.akamaihd.net/steamcommunity/public/images/apps/629360/c0c2b10f7e9d06740c5cf43754a5deeac99880b3.jpg",
    "icongray": "https://steamcdn-a.akamaihd.net/steamcommunity/public/images/apps/629360/ec91bfb63a7f34f1c6c42e0c5e95f1b96ca55717.jpg"
  },
  {
    "name": "ACH_BITACORAS_TODAS_HOSPITAL",
    "defaultvalue": 0,
    "displayName": "Nosy",
    "hidden": 0,
    "description": "You took all the binacles from the hospital.",
    "icon": "https://steamcdn-a.akamaihd.net/steamcommunity/public/images/apps/629360/7967a2dc389f79faf1011cbc1f9568b570a8961f.jpg",
    "icongray": "https://steamcdn-a.akamaihd.net/steamcommunity/public/images/apps/629360/ad806111ec7abc5210077c42124821f94fe102a3.jpg"
  },
  {
    "name": "ACH_BITACORAS_TODAS_JUEGO",
    "defaultvalue": 0,
    "displayName": "You are a whole wise",
    "hidden": 0,
    "description": "You took all the binacles from the game.",
    "icon": "https://steamcdn-a.akamaihd.net/steamcommunity/public/images/apps/629360/ed0d2d5f1c56537c631af2cfd3f7dc73d79e4c25.jpg",
    "icongray": "https://steamcdn-a.akamaihd.net/steamcommunity/public/images/apps/629360/339465340c9e2b608ca3abadd7790f18ed8d1469.jpg"
  },
  {
    "name": "ACH_COLEC_CRANEO",
    "defaultvalue": 0,
    "displayName": "Where is the body?",
    "hidden": 0,
    "description": "You found a collectable.",
    "icon": "https://steamcdn-a.akamaihd.net/steamcommunity/public/images/apps/629360/e78e860b1e52ecf802ecb13c5cccbad48b9cb6d6.jpg",
    "icongray": "https://steamcdn-a.akamaihd.net/steamcommunity/public/images/apps/629360/d5d0be0b670b5abed4937f009feab48c1f00fdd5.jpg"
  },
  {
    "name": "ACH_COLEC_LIBRO",
    "defaultvalue": 0,
    "displayName": "First copy",
    "hidden": 0,
    "description": "You found a collectable.",
    "icon": "https://steamcdn-a.akamaihd.net/steamcommunity/public/images/apps/629360/a0fd35d3702854d3d1e9fb42dd33ebf6f01908a7.jpg",
    "icongray": "https://steamcdn-a.akamaihd.net/steamcommunity/public/images/apps/629360/c233bed14de4538b7c00cc9ed25e48fa932727b2.jpg"
  },
  {
    "name": "ACH_COLEC_COPA",
    "defaultvalue": 0,
    "displayName": "Cheers",
    "hidden": 0,
    "description": "You found a collectable.",
    "icon": "https://steamcdn-a.akamaihd.net/steamcommunity/public/images/apps/629360/eca214b41db88c26487bc7bb104244dfbdfe4a9e.jpg",
    "icongray": "https://steamcdn-a.akamaihd.net/steamcommunity/public/images/apps/629360/83e96437b6149a446fa530e1c5b539eb6729b1c7.jpg"
  },
  {
    "name": "ACH_COLEC_TODOS_HOSPITAL",
    "defaultvalue": 0,
    "displayName": "New decoration",
    "hidden": 0,
    "description": "You got all the collectibles from the hospital.",
    "icon": "https://steamcdn-a.akamaihd.net/steamcommunity/public/images/apps/629360/509a4466f986b0c5c0dd5a180fb055de8a6402e6.jpg",
    "icongray": "https://steamcdn-a.akamaihd.net/steamcommunity/public/images/apps/629360/ae9428b5ce9e241a34f1bc1a38918fd1bc22a9a3.jpg"
  },
  {
    "name": "ACH_COLEC_TODOS_JUEGO",
    "defaultvalue": 0,
    "displayName": "Antique store",
    "hidden": 0,
    "description": "You got all the collectibles from the game.",
    "icon": "https://steamcdn-a.akamaihd.net/steamcommunity/public/images/apps/629360/5286374a3cba1236aa4eb50f5ce74232c7fa2599.jpg",
    "icongray": "https://steamcdn-a.akamaihd.net/steamcommunity/public/images/apps/629360/5809d1744eccae7efe3c8b5d9f525cdeb9eb39d5.jpg"
  },
  {
    "name": "ACH_TERMINAR_JUEGO",
    "defaultvalue": 0,
    "displayName": "Paper prision",
    "hidden": 0,
    "description": "You just finished the game.",
    "icon": "https://steamcdn-a.akamaihd.net/steamcommunity/public/images/apps/629360/b6ee732a04ea89f6ebcbe91bf2f8002f09d08c66.jpg",
    "icongray": "https://steamcdn-a.akamaihd.net/steamcommunity/public/images/apps/629360/359133275c352f70d7a75b0f2f8d07f7464f8261.jpg"
  },
  {
    "name": "ACH_JUEGO_SIN_BATERIAS",
    "defaultvalue": 0,
    "displayName": "Dark hours",
    "hidden": 0,
    "description": "Finish the game without using bateries.",
    "icon": "https://steamcdn-a.akamaihd.net/steamcommunity/public/images/apps/629360/7f473fb1fe0397c6e3e4552d5b32bd38b86ab043.jpg",
    "icongray": "https://steamcdn-a.akamaihd.net/steamcommunity/public/images/apps/629360/da64918445b3960d7277bdf466c8decce3031dac.jpg"
  },
  {
    "name": "ACH_JUEGO_SIN_TOMAR_BATERIAS",
    "defaultvalue": 0,
    "displayName": "Inner light",
    "hidden": 0,
    "description": "Finish the game without taking any batteries.",
    "icon": "https://steamcdn-a.akamaihd.net/steamcommunity/public/images/apps/629360/58a83ac087c42ef0d7e99b795a7fade06161ef72.jpg",
    "icongray": "https://steamcdn-a.akamaihd.net/steamcommunity/public/images/apps/629360/cd086ee5db1fab30a227cec6a3262746fc7f5f53.jpg"
  },
  {
    "name": "ACH_JUEGO_SIN_MORIR",
    "defaultvalue": 0,
    "displayName": "Unreachable",
    "hidden": 0,
    "description": "Finish the game without dying.",
    "icon": "https://steamcdn-a.akamaihd.net/steamcommunity/public/images/apps/629360/b41d9e78aac44bcbf16c81a415232bcc39416ecd.jpg",
    "icongray": "https://steamcdn-a.akamaihd.net/steamcommunity/public/images/apps/629360/4a050ee2ff1575e64473dce379b14642d4086084.jpg"
  },
  {
    "name": "ACH_SUSTO_LINTERNA",
    "defaultvalue": 0,
    "displayName": "Inciting fear",
    "hidden": 1,
    "icon": "https://steamcdn-a.akamaihd.net/steamcommunity/public/images/apps/629360/b155f6efa17ed08444f94dc7d56b94427264d2f1.jpg",
    "icongray": "https://steamcdn-a.akamaihd.net/steamcommunity/public/images/apps/629360/795109927bfa093b03b6558ec447a06e6f209325.jpg"
  },
  {
    "name": "ACH_TODAS_BATERIAS_JUEGO",
    "defaultvalue": 0,
    "displayName": "Recharged",
    "hidden": 0,
    "description": "You took all the batteries of the game.",
    "icon": "https://steamcdn-a.akamaihd.net/steamcommunity/public/images/apps/629360/38937d1524a3973e42cfe930f14b48e9f384a93a.jpg",
    "icongray": "https://steamcdn-a.akamaihd.net/steamcommunity/public/images/apps/629360/a207ce8496c09eeddf7120ec837072ad9d2e1c35.jpg"
  }
]