{
  "Dlcs": {},
  "Name": "Home Sheep Home: Farmageddon Party Edition",
  "AppId": "259810",
  "ImageUrl": "https://steamcdn-a.akamaihd.net/steam/apps/259810/header.jpg?t=1571415187",
  "Languages": [
    "english",
    "french",
    "italian",
    "german",
    "spanish",
    "schinese"
  ],
  "Platforms": {
    "windows": true,
    "mac": false,
    "linux": false
  }
}