{
  "Dlcs": {
    "506600": {
      "Name": "Polandball: Can Into Space! - Original Soundtrack",
      "ImageUrl": "https://steamcdn-a.akamaihd.net/steam/apps/506600/header.jpg?t=1469675285"
    }
  },
  "Name": "Polandball: Can into Space!",
  "AppId": "441050",
  "ImageUrl": "https://steamcdn-a.akamaihd.net/steam/apps/441050/header.jpg?t=1598044171",
  "Languages": [
    "english"
  ],
  "Platforms": {
    "windows": true,
    "mac": true,
    "linux": true
  }
}