{
  "Dlcs": {},
  "Name": "Captured King",
  "AppId": "758030",
  "ImageUrl": "https://steamcdn-a.akamaihd.net/steam/apps/758030/header.jpg?t=1528192031",
  "Languages": [
    "english"
  ],
  "Platforms": {
    "windows": true,
    "mac": false,
    "linux": false
  }
}