[
  {
    "name": "ACHIEVEMENT_WIRE",
    "defaultvalue": 0,
    "displayName": "Oh my God it's a Mirage!",
    "hidden": 1,
    "icon": "https://steamcdn-a.akamaihd.net/steamcommunity/public/images/apps/262940/2b334d93e591bb9d19b4d1d71c04dc6f4c324c13.jpg",
    "icongray": "https://steamcdn-a.akamaihd.net/steamcommunity/public/images/apps/262940/7074b04410276fdeb50990ec4d6912f4a0b1d26a.jpg"
  },
  {
    "name": "ACHIEVEMENT_MOUE",
    "defaultvalue": 0,
    "displayName": "Breaking the Seal",
    "hidden": 1,
    "icon": "https://steamcdn-a.akamaihd.net/steamcommunity/public/images/apps/262940/a6ec77492191914da1e103e9ddde738eee914b50.jpg",
    "icongray": "https://steamcdn-a.akamaihd.net/steamcommunity/public/images/apps/262940/7074b04410276fdeb50990ec4d6912f4a0b1d26a.jpg"
  },
  {
    "name": "ACHIEVEMENT_OUROBOROS",
    "defaultvalue": 0,
    "displayName": "Chasing your Tail",
    "hidden": 1,
    "icon": "https://steamcdn-a.akamaihd.net/steamcommunity/public/images/apps/262940/cb3bd4cc7e2f3b77b8fc8a8d891ff1a4cb6bd952.jpg",
    "icongray": "https://steamcdn-a.akamaihd.net/steamcommunity/public/images/apps/262940/7074b04410276fdeb50990ec4d6912f4a0b1d26a.jpg"
  },
  {
    "name": "ACHIEVEMENT_BASSAM",
    "defaultvalue": 0,
    "displayName": "Brand is Everything",
    "hidden": 1,
    "icon": "https://steamcdn-a.akamaihd.net/steamcommunity/public/images/apps/262940/38fbdabac59668b0adff8506f47d70bbe8449e84.jpg",
    "icongray": "https://steamcdn-a.akamaihd.net/steamcommunity/public/images/apps/262940/7074b04410276fdeb50990ec4d6912f4a0b1d26a.jpg"
  },
  {
    "name": "ACHIEVEMENT_VERA",
    "defaultvalue": 0,
    "displayName": "Roll 'em Up",
    "hidden": 1,
    "icon": "https://steamcdn-a.akamaihd.net/steamcommunity/public/images/apps/262940/0de79e4baa3ad2bd47f71e672dde601a80689e0a.jpg",
    "icongray": "https://steamcdn-a.akamaihd.net/steamcommunity/public/images/apps/262940/7074b04410276fdeb50990ec4d6912f4a0b1d26a.jpg"
  },
  {
    "name": "ACHIEVEMENT_TATTOO",
    "defaultvalue": 0,
    "displayName": "Ink Trail",
    "hidden": 1,
    "icon": "https://steamcdn-a.akamaihd.net/steamcommunity/public/images/apps/262940/6d5a9686285d402b09e7dec90e3cad2caa8ed332.jpg",
    "icongray": "https://steamcdn-a.akamaihd.net/steamcommunity/public/images/apps/262940/7074b04410276fdeb50990ec4d6912f4a0b1d26a.jpg"
  },
  {
    "name": "ACHIEVEMENT_LAINE",
    "defaultvalue": 0,
    "displayName": "Suited and Fluted",
    "hidden": 1,
    "icon": "https://steamcdn-a.akamaihd.net/steamcommunity/public/images/apps/262940/e7d8c52e34af7dd6257d6427f8424693e9ecfd88.jpg",
    "icongray": "https://steamcdn-a.akamaihd.net/steamcommunity/public/images/apps/262940/7074b04410276fdeb50990ec4d6912f4a0b1d26a.jpg"
  },
  {
    "name": "ACHIEVEMENT_MEDOVSKY",
    "defaultvalue": 0,
    "displayName": "Russian Evolution",
    "hidden": 1,
    "icon": "https://steamcdn-a.akamaihd.net/steamcommunity/public/images/apps/262940/4220c8401d7dcb5f185b2289eae3412e6d2fdba6.jpg",
    "icongray": "https://steamcdn-a.akamaihd.net/steamcommunity/public/images/apps/262940/7074b04410276fdeb50990ec4d6912f4a0b1d26a.jpg"
  },
  {
    "name": "ACHIEVEMENT_DRAWER",
    "defaultvalue": 0,
    "displayName": "Count Leo has the Answer",
    "hidden": 1,
    "icon": "https://steamcdn-a.akamaihd.net/steamcommunity/public/images/apps/262940/afe70752e3f1c5ad478a0debbf2a3f31c3c791e5.jpg",
    "icongray": "https://steamcdn-a.akamaihd.net/steamcommunity/public/images/apps/262940/7074b04410276fdeb50990ec4d6912f4a0b1d26a.jpg"
  },
  {
    "name": "ACHIEVEMENT_HOBBS",
    "defaultvalue": 0,
    "displayName": "Water of Life",
    "hidden": 1,
    "icon": "https://steamcdn-a.akamaihd.net/steamcommunity/public/images/apps/262940/32c2027460f89eab4130dc6dd3aa563992542dcd.jpg",
    "icongray": "https://steamcdn-a.akamaihd.net/steamcommunity/public/images/apps/262940/7074b04410276fdeb50990ec4d6912f4a0b1d26a.jpg"
  },
  {
    "name": "ACHIEVEMENT_MACHINE",
    "defaultvalue": 0,
    "displayName": "CSI: Deluded",
    "hidden": 1,
    "icon": "https://steamcdn-a.akamaihd.net/steamcommunity/public/images/apps/262940/cba7f20d8d9a1d83ff7229c420cf11ff52c654e0.jpg",
    "icongray": "https://steamcdn-a.akamaihd.net/steamcommunity/public/images/apps/262940/7074b04410276fdeb50990ec4d6912f4a0b1d26a.jpg"
  },
  {
    "name": "ACHIEVEMENT_BIJOU",
    "defaultvalue": 0,
    "displayName": "Boogie Nights",
    "hidden": 1,
    "icon": "https://steamcdn-a.akamaihd.net/steamcommunity/public/images/apps/262940/b396076a7d0a66cf9de9ee83d052fed99f92a3f8.jpg",
    "icongray": "https://steamcdn-a.akamaihd.net/steamcommunity/public/images/apps/262940/7074b04410276fdeb50990ec4d6912f4a0b1d26a.jpg"
  },
  {
    "name": "ACHIEVEMENT_DIAMOND",
    "defaultvalue": 0,
    "displayName": "Diamond Geezer",
    "hidden": 1,
    "icon": "https://steamcdn-a.akamaihd.net/steamcommunity/public/images/apps/262940/b1de81a9e87f7d019d7768332273a899340832b6.jpg",
    "icongray": "https://steamcdn-a.akamaihd.net/steamcommunity/public/images/apps/262940/7074b04410276fdeb50990ec4d6912f4a0b1d26a.jpg"
  },
  {
    "name": "ACHIEVEMENT_PUGS",
    "defaultvalue": 0,
    "displayName": "Notorious P.U.G",
    "hidden": 1,
    "icon": "https://steamcdn-a.akamaihd.net/steamcommunity/public/images/apps/262940/05ca47a26d843a41b6cefd57c89ba9ddd808dd29.jpg",
    "icongray": "https://steamcdn-a.akamaihd.net/steamcommunity/public/images/apps/262940/7074b04410276fdeb50990ec4d6912f4a0b1d26a.jpg"
  },
  {
    "name": "ACHIEVEMENT_MOUE2",
    "defaultvalue": 0,
    "displayName": "Fountain of Youth",
    "hidden": 1,
    "icon": "https://steamcdn-a.akamaihd.net/steamcommunity/public/images/apps/262940/cbade7183d1d07bff9b7f69a00b384b767958e4c.jpg",
    "icongray": "https://steamcdn-a.akamaihd.net/steamcommunity/public/images/apps/262940/7074b04410276fdeb50990ec4d6912f4a0b1d26a.jpg"
  },
  {
    "name": "ACHIEVEMENT_MAP",
    "defaultvalue": 0,
    "displayName": "No Parlo el Catala",
    "hidden": 1,
    "icon": "https://steamcdn-a.akamaihd.net/steamcommunity/public/images/apps/262940/8ba9859ed37e0788b4f692a5bb91d9985f0e9aa0.jpg",
    "icongray": "https://steamcdn-a.akamaihd.net/steamcommunity/public/images/apps/262940/7074b04410276fdeb50990ec4d6912f4a0b1d26a.jpg"
  },
  {
    "name": "ACHIEVEMENT_PART1",
    "defaultvalue": 0,
    "displayName": "The Mystery Deepens",
    "hidden": 1,
    "icon": "https://steamcdn-a.akamaihd.net/steamcommunity/public/images/apps/262940/f2b3c74999631e268fc9e7fa3073600af27a42a0.jpg",
    "icongray": "https://steamcdn-a.akamaihd.net/steamcommunity/public/images/apps/262940/7074b04410276fdeb50990ec4d6912f4a0b1d26a.jpg"
  },
  {
    "name": "ACHIEVEMENT_GAME_COMPLETE",
    "defaultvalue": 0,
    "displayName": "Game Complete",
    "hidden": 1,
    "icon": "https://steamcdn-a.akamaihd.net/steamcommunity/public/images/apps/262940/3225a77727dc7653900a1c33ad10debe6073252d.jpg",
    "icongray": "https://steamcdn-a.akamaihd.net/steamcommunity/public/images/apps/262940/7074b04410276fdeb50990ec4d6912f4a0b1d26a.jpg"
  },
  {
    "name": "ACHIEVEMENT_TUTORIAL",
    "defaultvalue": 0,
    "displayName": "Completed Tutorial",
    "hidden": 1,
    "icon": "https://steamcdn-a.akamaihd.net/steamcommunity/public/images/apps/262940/7bc03b2e09d738faecde98a00a8132ef3e534f87.jpg",
    "icongray": "https://steamcdn-a.akamaihd.net/steamcommunity/public/images/apps/262940/7074b04410276fdeb50990ec4d6912f4a0b1d26a.jpg"
  },
  {
    "name": "ACHIEVEMENT_JOEY",
    "defaultvalue": 0,
    "displayName": "Joey Easter Egg",
    "hidden": 1,
    "icon": "https://steamcdn-a.akamaihd.net/steamcommunity/public/images/apps/262940/07c3d3ddc50f783ed4f2bec20542bd278198bbcf.jpg",
    "icongray": "https://steamcdn-a.akamaihd.net/steamcommunity/public/images/apps/262940/7074b04410276fdeb50990ec4d6912f4a0b1d26a.jpg"
  },
  {
    "name": "ACHIEVEMENT_GOATSE",
    "defaultvalue": 0,
    "displayName": "Hidden Goat Easter Egg",
    "hidden": 1,
    "icon": "https://steamcdn-a.akamaihd.net/steamcommunity/public/images/apps/262940/6a1cae4814804424cd9421050fd64cd2e5c4bd9f.jpg",
    "icongray": "https://steamcdn-a.akamaihd.net/steamcommunity/public/images/apps/262940/7074b04410276fdeb50990ec4d6912f4a0b1d26a.jpg"
  },
  {
    "name": "ACHIEVEMENT_GOAT",
    "defaultvalue": 0,
    "displayName": "Order of the Goat",
    "hidden": 1,
    "icon": "https://steamcdn-a.akamaihd.net/steamcommunity/public/images/apps/262940/6a1cae4814804424cd9421050fd64cd2e5c4bd9f.jpg",
    "icongray": "https://steamcdn-a.akamaihd.net/steamcommunity/public/images/apps/262940/7074b04410276fdeb50990ec4d6912f4a0b1d26a.jpg"
  },
  {
    "name": "ACHIEVEMENT_CATHAR",
    "defaultvalue": 0,
    "displayName": "Bons Hommes",
    "hidden": 1,
    "icon": "https://steamcdn-a.akamaihd.net/steamcommunity/public/images/apps/262940/43ca9c0cca0691ab6a9d57c1253e24838e19b221.jpg",
    "icongray": "https://steamcdn-a.akamaihd.net/steamcommunity/public/images/apps/262940/7074b04410276fdeb50990ec4d6912f4a0b1d26a.jpg"
  },
  {
    "name": "ACHIEVEMENT_TABLET",
    "defaultvalue": 0,
    "displayName": "X Marks the Spot",
    "hidden": 1,
    "icon": "https://steamcdn-a.akamaihd.net/steamcommunity/public/images/apps/262940/c7653fd5bd3ce426064dcc43ac427f25ab4ea17c.jpg",
    "icongray": "https://steamcdn-a.akamaihd.net/steamcommunity/public/images/apps/262940/7074b04410276fdeb50990ec4d6912f4a0b1d26a.jpg"
  },
  {
    "name": "ACHIEVEMENT_CABLE",
    "defaultvalue": 0,
    "displayName": "Hot Wire",
    "hidden": 1,
    "icon": "https://steamcdn-a.akamaihd.net/steamcommunity/public/images/apps/262940/1835e04d2378c4b051a85c70607239c43ae57b04.jpg",
    "icongray": "https://steamcdn-a.akamaihd.net/steamcommunity/public/images/apps/262940/7074b04410276fdeb50990ec4d6912f4a0b1d26a.jpg"
  },
  {
    "name": "ACHIEVEMENT_TABLET2",
    "defaultvalue": 0,
    "displayName": "The Truth to the Grave",
    "hidden": 1,
    "icon": "https://steamcdn-a.akamaihd.net/steamcommunity/public/images/apps/262940/c7653fd5bd3ce426064dcc43ac427f25ab4ea17c.jpg",
    "icongray": "https://steamcdn-a.akamaihd.net/steamcommunity/public/images/apps/262940/7074b04410276fdeb50990ec4d6912f4a0b1d26a.jpg"
  },
  {
    "name": "ACHIEVEMENT_DREAMATORIUM",
    "defaultvalue": 0,
    "displayName": "I Call It The Dreamatorium",
    "hidden": 1,
    "icon": "https://steamcdn-a.akamaihd.net/steamcommunity/public/images/apps/262940/16c9d5c8c42b4f14b4e7abd57f7292be83934be4.jpg",
    "icongray": "https://steamcdn-a.akamaihd.net/steamcommunity/public/images/apps/262940/7074b04410276fdeb50990ec4d6912f4a0b1d26a.jpg"
  },
  {
    "name": "ACHIEVEMENT_GUARDS",
    "defaultvalue": 0,
    "displayName": "Gravity Depravity",
    "hidden": 1,
    "icon": "https://steamcdn-a.akamaihd.net/steamcommunity/public/images/apps/262940/ad3a5a6a15283667aaa237ba22c4485444162862.jpg",
    "icongray": "https://steamcdn-a.akamaihd.net/steamcommunity/public/images/apps/262940/7074b04410276fdeb50990ec4d6912f4a0b1d26a.jpg"
  },
  {
    "name": "ACHIEVEMENT_SHEARS",
    "defaultvalue": 0,
    "displayName": "Philosophy 101",
    "hidden": 1,
    "icon": "https://steamcdn-a.akamaihd.net/steamcommunity/public/images/apps/262940/e00372c9434bfcdda08da2480654126d7b36c6c4.jpg",
    "icongray": "https://steamcdn-a.akamaihd.net/steamcommunity/public/images/apps/262940/7074b04410276fdeb50990ec4d6912f4a0b1d26a.jpg"
  },
  {
    "name": "ACHIEVEMENT_DREAM",
    "defaultvalue": 0,
    "displayName": "Balance",
    "hidden": 1,
    "icon": "https://steamcdn-a.akamaihd.net/steamcommunity/public/images/apps/262940/fc9679657f5567d5ed5d7fb3702c12718938fa8a.jpg",
    "icongray": "https://steamcdn-a.akamaihd.net/steamcommunity/public/images/apps/262940/7074b04410276fdeb50990ec4d6912f4a0b1d26a.jpg"
  },
  {
    "name": "ACHIEVEMENT_GOAT2",
    "defaultvalue": 0,
    "displayName": "Cry Havoc!",
    "hidden": 1,
    "icon": "https://steamcdn-a.akamaihd.net/steamcommunity/public/images/apps/262940/6a1cae4814804424cd9421050fd64cd2e5c4bd9f.jpg",
    "icongray": "https://steamcdn-a.akamaihd.net/steamcommunity/public/images/apps/262940/7074b04410276fdeb50990ec4d6912f4a0b1d26a.jpg"
  },
  {
    "name": "ACHIEVEMENT_END",
    "defaultvalue": 0,
    "displayName": "What Just Happened There?",
    "hidden": 1,
    "icon": "https://steamcdn-a.akamaihd.net/steamcommunity/public/images/apps/262940/e9aa9bccc6f599f970c3b3e6fc445b862c58e0b2.jpg",
    "icongray": "https://steamcdn-a.akamaihd.net/steamcommunity/public/images/apps/262940/7074b04410276fdeb50990ec4d6912f4a0b1d26a.jpg"
  },
  {
    "name": "ACHIEVEMENT_RADIO",
    "defaultvalue": 0,
    "displayName": "Local Call",
    "hidden": 1,
    "icon": "https://steamcdn-a.akamaihd.net/steamcommunity/public/images/apps/262940/fa8ff8995e5397a7d4ebd7cd04db73264d45de2e.jpg",
    "icongray": "https://steamcdn-a.akamaihd.net/steamcommunity/public/images/apps/262940/7074b04410276fdeb50990ec4d6912f4a0b1d26a.jpg"
  },
  {
    "name": "ACHIEVEMENT_SUPERPOTPOURRI",
    "defaultvalue": 0,
    "displayName": "Super-Charged Potpourri Easter Egg",
    "hidden": 1,
    "icon": "https://steamcdn-a.akamaihd.net/steamcommunity/public/images/apps/262940/1646519b17c97279641a710de19529f9c014e20f.jpg",
    "icongray": "https://steamcdn-a.akamaihd.net/steamcommunity/public/images/apps/262940/7074b04410276fdeb50990ec4d6912f4a0b1d26a.jpg"
  },
  {
    "name": "ACHIEVEMENT_GOAT_CHAT",
    "defaultvalue": 0,
    "displayName": "Best buddies",
    "hidden": 1,
    "icon": "https://steamcdn-a.akamaihd.net/steamcommunity/public/images/apps/262940/99c0d2d20c8b3987ace039c1ae62c828baf4ae7b.jpg",
    "icongray": "https://steamcdn-a.akamaihd.net/steamcommunity/public/images/apps/262940/7074b04410276fdeb50990ec4d6912f4a0b1d26a.jpg"
  }
]