{
  "Dlcs": {},
  "Name": "Snow Horse",
  "AppId": "270030",
  "ImageUrl": "https://steamcdn-a.akamaihd.net/steam/apps/270030/header.jpg?t=1470436305",
  "Languages": [
    "english"
  ],
  "Platforms": {
    "windows": true,
    "mac": true,
    "linux": true
  }
}