{
  "Dlcs": {
    "1234570": {
      "Name": "Star Fetchers : Episode 1",
      "ImageUrl": "https://steamcdn-a.akamaihd.net/steam/apps/1234570/header.jpg?t=1580601393"
    }
  },
  "Name": "Star Fetchers",
  "AppId": "1178030",
  "ImageUrl": "https://steamcdn-a.akamaihd.net/steam/apps/1178030/header.jpg?t=1593551011",
  "Languages": [
    "english"
  ],
  "Platforms": {
    "windows": true,
    "mac": false,
    "linux": false
  }
}