[
  {
    "name": "punchmagic",
    "defaultvalue": 0,
    "displayName": "Punch Magic",
    "hidden": 0,
    "description": "Attack a foe the human way.",
    "icon": "https://steamcdn-a.akamaihd.net/steamcommunity/public/images/apps/1097670/ea8e9f5bc2cdaf139ea01b415c7f48b7820dc2f5.jpg",
    "icongray": "https://steamcdn-a.akamaihd.net/steamcommunity/public/images/apps/1097670/8554c4b5eb18e484a11a9ceadb04b5eb8403f9c5.jpg"
  },
  {
    "name": "becomehunter",
    "defaultvalue": 0,
    "displayName": "On the Hunt",
    "hidden": 0,
    "description": "Become a hunter.",
    "icon": "https://steamcdn-a.akamaihd.net/steamcommunity/public/images/apps/1097670/ea8e9f5bc2cdaf139ea01b415c7f48b7820dc2f5.jpg",
    "icongray": "https://steamcdn-a.akamaihd.net/steamcommunity/public/images/apps/1097670/8554c4b5eb18e484a11a9ceadb04b5eb8403f9c5.jpg"
  },
  {
    "name": "killedbyhunters",
    "defaultvalue": 0,
    "displayName": "You Were Warned",
    "hidden": 0,
    "description": "Be killed by hunters.",
    "icon": "https://steamcdn-a.akamaihd.net/steamcommunity/public/images/apps/1097670/639d976c7cdbdf684e8cd466ff2ac4360df2077c.jpg",
    "icongray": "https://steamcdn-a.akamaihd.net/steamcommunity/public/images/apps/1097670/8554c4b5eb18e484a11a9ceadb04b5eb8403f9c5.jpg"
  },
  {
    "name": "hallnotcollapse",
    "defaultvalue": 0,
    "displayName": "Weight of the World",
    "hidden": 0,
    "description": "Stop the destruction of a building.",
    "icon": "https://steamcdn-a.akamaihd.net/steamcommunity/public/images/apps/1097670/ea8e9f5bc2cdaf139ea01b415c7f48b7820dc2f5.jpg",
    "icongray": "https://steamcdn-a.akamaihd.net/steamcommunity/public/images/apps/1097670/8554c4b5eb18e484a11a9ceadb04b5eb8403f9c5.jpg"
  },
  {
    "name": "compulsionfail",
    "defaultvalue": 0,
    "displayName": "Mind Control Eyes",
    "hidden": 0,
    "description": "Be mind controlled by a foe.",
    "icon": "https://steamcdn-a.akamaihd.net/steamcommunity/public/images/apps/1097670/57a5476c2c116e9153aa7eec78cd1fef65a55a8f.jpg",
    "icongray": "https://steamcdn-a.akamaihd.net/steamcommunity/public/images/apps/1097670/8554c4b5eb18e484a11a9ceadb04b5eb8403f9c5.jpg"
  },
  {
    "name": "notcompelled",
    "defaultvalue": 0,
    "displayName": "Prison Break",
    "hidden": 0,
    "description": "Release an old foe.",
    "icon": "https://steamcdn-a.akamaihd.net/steamcommunity/public/images/apps/1097670/57a5476c2c116e9153aa7eec78cd1fef65a55a8f.jpg",
    "icongray": "https://steamcdn-a.akamaihd.net/steamcommunity/public/images/apps/1097670/8554c4b5eb18e484a11a9ceadb04b5eb8403f9c5.jpg"
  },
  {
    "name": "nocompulsion",
    "defaultvalue": 0,
    "displayName": "Good Role Model",
    "hidden": 0,
    "description": "Never use compulsion.",
    "icon": "https://steamcdn-a.akamaihd.net/steamcommunity/public/images/apps/1097670/57a5476c2c116e9153aa7eec78cd1fef65a55a8f.jpg",
    "icongray": "https://steamcdn-a.akamaihd.net/steamcommunity/public/images/apps/1097670/8554c4b5eb18e484a11a9ceadb04b5eb8403f9c5.jpg"
  },
  {
    "name": "stayingalive",
    "defaultvalue": 0,
    "displayName": "Staying Alive",
    "hidden": 0,
    "description": "Almost die in the final battle.",
    "icon": "https://steamcdn-a.akamaihd.net/steamcommunity/public/images/apps/1097670/5b63ef7d5089a28444e1c8b4a1e244d322c36a4f.jpg",
    "icongray": "https://steamcdn-a.akamaihd.net/steamcommunity/public/images/apps/1097670/8554c4b5eb18e484a11a9ceadb04b5eb8403f9c5.jpg"
  },
  {
    "name": "perfectfight",
    "defaultvalue": 0,
    "displayName": "We Are the Champions",
    "hidden": 0,
    "description": "Easily win the final battle.",
    "icon": "https://steamcdn-a.akamaihd.net/steamcommunity/public/images/apps/1097670/57a5476c2c116e9153aa7eec78cd1fef65a55a8f.jpg",
    "icongray": "https://steamcdn-a.akamaihd.net/steamcommunity/public/images/apps/1097670/8554c4b5eb18e484a11a9ceadb04b5eb8403f9c5.jpg"
  },
  {
    "name": "presents",
    "defaultvalue": 0,
    "displayName": "Not Even Your Birthday",
    "hidden": 0,
    "description": "Have a bountiful winter solstice. ",
    "icon": "https://steamcdn-a.akamaihd.net/steamcommunity/public/images/apps/1097670/c628c90fbed5a2227a85cecdf4e59a062310bfa4.jpg",
    "icongray": "https://steamcdn-a.akamaihd.net/steamcommunity/public/images/apps/1097670/8554c4b5eb18e484a11a9ceadb04b5eb8403f9c5.jpg"
  },
  {
    "name": "honorroll",
    "defaultvalue": 0,
    "displayName": "President's List",
    "hidden": 0,
    "description": "Get high marks for the first semester.",
    "icon": "https://steamcdn-a.akamaihd.net/steamcommunity/public/images/apps/1097670/c628c90fbed5a2227a85cecdf4e59a062310bfa4.jpg",
    "icongray": "https://steamcdn-a.akamaihd.net/steamcommunity/public/images/apps/1097670/8554c4b5eb18e484a11a9ceadb04b5eb8403f9c5.jpg"
  },
  {
    "name": "allbark",
    "defaultvalue": 0,
    "displayName": "All Bark and No Bite",
    "hidden": 0,
    "description": "Kill Davina's hellhounds.",
    "icon": "https://steamcdn-a.akamaihd.net/steamcommunity/public/images/apps/1097670/c628c90fbed5a2227a85cecdf4e59a062310bfa4.jpg",
    "icongray": "https://steamcdn-a.akamaihd.net/steamcommunity/public/images/apps/1097670/8554c4b5eb18e484a11a9ceadb04b5eb8403f9c5.jpg"
  },
  {
    "name": "secret8",
    "defaultvalue": 0,
    "displayName": "Shame If Something Happened...",
    "hidden": 1,
    "icon": "https://steamcdn-a.akamaihd.net/steamcommunity/public/images/apps/1097670/c628c90fbed5a2227a85cecdf4e59a062310bfa4.jpg",
    "icongray": "https://steamcdn-a.akamaihd.net/steamcommunity/public/images/apps/1097670/8554c4b5eb18e484a11a9ceadb04b5eb8403f9c5.jpg"
  },
  {
    "name": "secret1",
    "defaultvalue": 0,
    "displayName": "Icy Eyes",
    "hidden": 1,
    "icon": "https://steamcdn-a.akamaihd.net/steamcommunity/public/images/apps/1097670/c628c90fbed5a2227a85cecdf4e59a062310bfa4.jpg",
    "icongray": "https://steamcdn-a.akamaihd.net/steamcommunity/public/images/apps/1097670/8554c4b5eb18e484a11a9ceadb04b5eb8403f9c5.jpg"
  },
  {
    "name": "secret5",
    "defaultvalue": 0,
    "displayName": "The Hunter",
    "hidden": 1,
    "icon": "https://steamcdn-a.akamaihd.net/steamcommunity/public/images/apps/1097670/c628c90fbed5a2227a85cecdf4e59a062310bfa4.jpg",
    "icongray": "https://steamcdn-a.akamaihd.net/steamcommunity/public/images/apps/1097670/8554c4b5eb18e484a11a9ceadb04b5eb8403f9c5.jpg"
  },
  {
    "name": "secret7",
    "defaultvalue": 0,
    "displayName": "First Impressions",
    "hidden": 1,
    "icon": "https://steamcdn-a.akamaihd.net/steamcommunity/public/images/apps/1097670/c628c90fbed5a2227a85cecdf4e59a062310bfa4.jpg",
    "icongray": "https://steamcdn-a.akamaihd.net/steamcommunity/public/images/apps/1097670/8554c4b5eb18e484a11a9ceadb04b5eb8403f9c5.jpg"
  },
  {
    "name": "secret3",
    "defaultvalue": 0,
    "displayName": "All I Ask of You",
    "hidden": 1,
    "icon": "https://steamcdn-a.akamaihd.net/steamcommunity/public/images/apps/1097670/c628c90fbed5a2227a85cecdf4e59a062310bfa4.jpg",
    "icongray": "https://steamcdn-a.akamaihd.net/steamcommunity/public/images/apps/1097670/8554c4b5eb18e484a11a9ceadb04b5eb8403f9c5.jpg"
  },
  {
    "name": "secret2",
    "defaultvalue": 0,
    "displayName": "Somebody Told Me",
    "hidden": 1,
    "icon": "https://steamcdn-a.akamaihd.net/steamcommunity/public/images/apps/1097670/ff53c0aa16f399e2f600f933fe6ee8ab017d9748.jpg",
    "icongray": "https://steamcdn-a.akamaihd.net/steamcommunity/public/images/apps/1097670/8554c4b5eb18e484a11a9ceadb04b5eb8403f9c5.jpg"
  },
  {
    "name": "secret4",
    "defaultvalue": 0,
    "displayName": "Nightmares",
    "hidden": 1,
    "icon": "https://steamcdn-a.akamaihd.net/steamcommunity/public/images/apps/1097670/c628c90fbed5a2227a85cecdf4e59a062310bfa4.jpg",
    "icongray": "https://steamcdn-a.akamaihd.net/steamcommunity/public/images/apps/1097670/8554c4b5eb18e484a11a9ceadb04b5eb8403f9c5.jpg"
  },
  {
    "name": "secret6",
    "defaultvalue": 0,
    "displayName": "Successor",
    "hidden": 1,
    "icon": "https://steamcdn-a.akamaihd.net/steamcommunity/public/images/apps/1097670/c628c90fbed5a2227a85cecdf4e59a062310bfa4.jpg",
    "icongray": "https://steamcdn-a.akamaihd.net/steamcommunity/public/images/apps/1097670/8554c4b5eb18e484a11a9ceadb04b5eb8403f9c5.jpg"
  },
  {
    "name": "secretpossession",
    "defaultvalue": 0,
    "displayName": "Danny Dearest",
    "hidden": 1,
    "icon": "https://steamcdn-a.akamaihd.net/steamcommunity/public/images/apps/1097670/57a5476c2c116e9153aa7eec78cd1fef65a55a8f.jpg",
    "icongray": "https://steamcdn-a.akamaihd.net/steamcommunity/public/images/apps/1097670/8554c4b5eb18e484a11a9ceadb04b5eb8403f9c5.jpg"
  },
  {
    "name": "secretpurpose",
    "defaultvalue": 0,
    "displayName": "Reverse Exorcism",
    "hidden": 1,
    "icon": "https://steamcdn-a.akamaihd.net/steamcommunity/public/images/apps/1097670/57a5476c2c116e9153aa7eec78cd1fef65a55a8f.jpg",
    "icongray": "https://steamcdn-a.akamaihd.net/steamcommunity/public/images/apps/1097670/8554c4b5eb18e484a11a9ceadb04b5eb8403f9c5.jpg"
  },
  {
    "name": "secretconstellations",
    "defaultvalue": 0,
    "displayName": "The Constellation Project",
    "hidden": 1,
    "icon": "https://steamcdn-a.akamaihd.net/steamcommunity/public/images/apps/1097670/57a5476c2c116e9153aa7eec78cd1fef65a55a8f.jpg",
    "icongray": "https://steamcdn-a.akamaihd.net/steamcommunity/public/images/apps/1097670/8554c4b5eb18e484a11a9ceadb04b5eb8403f9c5.jpg"
  },
  {
    "name": "secretlist",
    "defaultvalue": 0,
    "displayName": "It's Personal",
    "hidden": 1,
    "icon": "https://steamcdn-a.akamaihd.net/steamcommunity/public/images/apps/1097670/57a5476c2c116e9153aa7eec78cd1fef65a55a8f.jpg",
    "icongray": "https://steamcdn-a.akamaihd.net/steamcommunity/public/images/apps/1097670/8554c4b5eb18e484a11a9ceadb04b5eb8403f9c5.jpg"
  },
  {
    "name": "secretfamily1",
    "defaultvalue": 0,
    "displayName": "Not a Happy Ending",
    "hidden": 1,
    "icon": "https://steamcdn-a.akamaihd.net/steamcommunity/public/images/apps/1097670/57a5476c2c116e9153aa7eec78cd1fef65a55a8f.jpg",
    "icongray": "https://steamcdn-a.akamaihd.net/steamcommunity/public/images/apps/1097670/8554c4b5eb18e484a11a9ceadb04b5eb8403f9c5.jpg"
  },
  {
    "name": "secretfamily2",
    "defaultvalue": 0,
    "displayName": "Lost and Found",
    "hidden": 1,
    "icon": "https://steamcdn-a.akamaihd.net/steamcommunity/public/images/apps/1097670/57a5476c2c116e9153aa7eec78cd1fef65a55a8f.jpg",
    "icongray": "https://steamcdn-a.akamaihd.net/steamcommunity/public/images/apps/1097670/8554c4b5eb18e484a11a9ceadb04b5eb8403f9c5.jpg"
  },
  {
    "name": "secretfamily3",
    "defaultvalue": 0,
    "displayName": "Behind the Mask",
    "hidden": 1,
    "icon": "https://steamcdn-a.akamaihd.net/steamcommunity/public/images/apps/1097670/57a5476c2c116e9153aa7eec78cd1fef65a55a8f.jpg",
    "icongray": "https://steamcdn-a.akamaihd.net/steamcommunity/public/images/apps/1097670/8554c4b5eb18e484a11a9ceadb04b5eb8403f9c5.jpg"
  }
]