{
  "Dlcs": {},
  "Name": "ViewTracker",
  "AppId": "929270",
  "ImageUrl": "https://steamcdn-a.akamaihd.net/steam/apps/929270/header.jpg?t=1565220890",
  "Languages": [
    "english"
  ],
  "Platforms": {
    "windows": true,
    "mac": false,
    "linux": false
  }
}