{
  "Dlcs": {},
  "Name": "Beyond Power VR",
  "AppId": "529820",
  "ImageUrl": "https://steamcdn-a.akamaihd.net/steam/apps/529820/header.jpg?t=1484506171",
  "Languages": [
    "english"
  ],
  "Platforms": {
    "windows": true,
    "mac": false,
    "linux": false
  }
}