{
  "Dlcs": {},
  "Name": "Beyond This Side",
  "AppId": "1254480",
  "ImageUrl": "https://steamcdn-a.akamaihd.net/steam/apps/1254480/header.jpg?t=1584706444",
  "Languages": [
    "english",
    "french",
    "german",
    "spanish"
  ],
  "Platforms": {
    "windows": true,
    "mac": false,
    "linux": false
  }
}