[
  {
    "name": "wincup_01",
    "defaultvalue": 0,
    "displayName": "Quick Finder",
    "hidden": 0,
    "description": "Find 3 hidden objects in 3 seconds.",
    "icon": "https://steamcdn-a.akamaihd.net/steamcommunity/public/images/apps/826420/7290531ef327179d5e89245bb6d4fa1cbfd20f3e.jpg",
    "icongray": "https://steamcdn-a.akamaihd.net/steamcommunity/public/images/apps/826420/c081598df20c0266a36cbf07a3d6e963958358d6.jpg"
  },
  {
    "name": "wincup_02",
    "defaultvalue": 0,
    "displayName": "Champion Finder",
    "hidden": 0,
    "description": "Find 5 hidden objects in 5 seconds.",
    "icon": "https://steamcdn-a.akamaihd.net/steamcommunity/public/images/apps/826420/6a5a57e11a948c9563f41b10a4ce617559dd62ed.jpg",
    "icongray": "https://steamcdn-a.akamaihd.net/steamcommunity/public/images/apps/826420/0f4419f085a23fef549b57d075695f1638ae68c2.jpg"
  },
  {
    "name": "wincup_03",
    "defaultvalue": 0,
    "displayName": "Ultimate Finder",
    "hidden": 0,
    "description": "Find 10 hidden objects in 10 seconds.",
    "icon": "https://steamcdn-a.akamaihd.net/steamcommunity/public/images/apps/826420/a580f79d6d197fc31388e941d77980e637228a64.jpg",
    "icongray": "https://steamcdn-a.akamaihd.net/steamcommunity/public/images/apps/826420/923a8757d6a80783021c27ce4dc651446c026645.jpg"
  },
  {
    "name": "medal_01",
    "defaultvalue": 0,
    "displayName": "Juggler",
    "hidden": 0,
    "description": "Finish a hidden-object puzzle without any hints.",
    "icon": "https://steamcdn-a.akamaihd.net/steamcommunity/public/images/apps/826420/5835f844e3225ab0594c75862ca97145b345ed93.jpg",
    "icongray": "https://steamcdn-a.akamaihd.net/steamcommunity/public/images/apps/826420/88da44502bcbf4a90ca3424eb2b6b36ecfc1a2fb.jpg"
  },
  {
    "name": "medal_02",
    "defaultvalue": 0,
    "displayName": "Magician",
    "hidden": 0,
    "description": "Finish 3 hidden-object puzzles without any hints.",
    "icon": "https://steamcdn-a.akamaihd.net/steamcommunity/public/images/apps/826420/a031d4a50733e26f7b22b37da629394eb9b71408.jpg",
    "icongray": "https://steamcdn-a.akamaihd.net/steamcommunity/public/images/apps/826420/055425a312bc8be9b195c87d90924c7dc981c713.jpg"
  },
  {
    "name": "medal_03",
    "defaultvalue": 0,
    "displayName": "Master Illusionist",
    "hidden": 0,
    "description": "Finish 5 hidden-object puzzles without any hints.",
    "icon": "https://steamcdn-a.akamaihd.net/steamcommunity/public/images/apps/826420/b281f1003f96db864f370ab47b7905903a5f7cb4.jpg",
    "icongray": "https://steamcdn-a.akamaihd.net/steamcommunity/public/images/apps/826420/ecd6de81182e6aa255da7e436d7dd1498547bac1.jpg"
  },
  {
    "name": "statue_01",
    "defaultvalue": 0,
    "displayName": "Dodger",
    "hidden": 0,
    "description": "Finish a hidden-object puzzle in one minute.",
    "icon": "https://steamcdn-a.akamaihd.net/steamcommunity/public/images/apps/826420/32ab3765cfcc763afee73b7ff32425f07b44c109.jpg",
    "icongray": "https://steamcdn-a.akamaihd.net/steamcommunity/public/images/apps/826420/1324f22a79ea60d69a39009c07403a7ad23bc485.jpg"
  },
  {
    "name": "statue_02",
    "defaultvalue": 0,
    "displayName": "Brave Dodger",
    "hidden": 0,
    "description": "Finish 3 hidden-object puzzles in a row in one minute each.",
    "icon": "https://steamcdn-a.akamaihd.net/steamcommunity/public/images/apps/826420/3a0d505ffe68ac67fbf7647c43f06c595501a825.jpg",
    "icongray": "https://steamcdn-a.akamaihd.net/steamcommunity/public/images/apps/826420/7ce6f4c38eba9cd2fde65178ea1ac8cfe00ae77a.jpg"
  },
  {
    "name": "statue_03",
    "defaultvalue": 0,
    "displayName": "Desperate Dodger",
    "hidden": 0,
    "description": "Finish 5 hidden-object puzzles in a row in one minute each.",
    "icon": "https://steamcdn-a.akamaihd.net/steamcommunity/public/images/apps/826420/3ac9bc048a8a52e0aef34ccf3c30a0c3124376b0.jpg",
    "icongray": "https://steamcdn-a.akamaihd.net/steamcommunity/public/images/apps/826420/961fe8bf997d03eacdf9e2aac1e2ffec7b7d8335.jpg"
  },
  {
    "name": "mg_without_skip_achievement_01",
    "defaultvalue": 0,
    "displayName": "Persistent",
    "hidden": 0,
    "description": "Solve a mini-game without skipping.",
    "icon": "https://steamcdn-a.akamaihd.net/steamcommunity/public/images/apps/826420/40c0836ce4472d67ca4c46bfdf13f5160952155b.jpg",
    "icongray": "https://steamcdn-a.akamaihd.net/steamcommunity/public/images/apps/826420/4a0f817b62fc32c50ac7f4c51692f38c00c02e68.jpg"
  },
  {
    "name": "mg_without_skip_achievement_02",
    "defaultvalue": 0,
    "displayName": "Irrepressible",
    "hidden": 0,
    "description": "Solve 3 mini-games without skipping.",
    "icon": "https://steamcdn-a.akamaihd.net/steamcommunity/public/images/apps/826420/96ce513a9822177e5b09ec94dd365bf596406aa8.jpg",
    "icongray": "https://steamcdn-a.akamaihd.net/steamcommunity/public/images/apps/826420/a9a63e19c32490a4c0317a20ac408aa7d60dd154.jpg"
  },
  {
    "name": "mg_without_skip_achievement_03",
    "defaultvalue": 0,
    "displayName": "Invincible",
    "hidden": 0,
    "description": "Complete 5 mini-games without skipping.",
    "icon": "https://steamcdn-a.akamaihd.net/steamcommunity/public/images/apps/826420/501ce2d3613167178ecd798f90c898798b50b602.jpg",
    "icongray": "https://steamcdn-a.akamaihd.net/steamcommunity/public/images/apps/826420/ac85e649d547b4de807d4879af050754840b91e7.jpg"
  },
  {
    "name": "mg_with_time_achievement_01",
    "defaultvalue": 0,
    "displayName": "Acrobat",
    "hidden": 0,
    "description": "Finish a mini-game in one minute.",
    "icon": "https://steamcdn-a.akamaihd.net/steamcommunity/public/images/apps/826420/047154997b6440953c515e06111c8aae14690ec7.jpg",
    "icongray": "https://steamcdn-a.akamaihd.net/steamcommunity/public/images/apps/826420/1b76fa9ed07b8fcfd49d97190a00ac5a918ef332.jpg"
  },
  {
    "name": "mg_with_time_achievement_02",
    "defaultvalue": 0,
    "displayName": "Virtuoso",
    "hidden": 0,
    "description": "Finish 3 mini-games in one minute each.",
    "icon": "https://steamcdn-a.akamaihd.net/steamcommunity/public/images/apps/826420/15c3053effda5a3ed39e9fe0ba1eaea0e8b385d3.jpg",
    "icongray": "https://steamcdn-a.akamaihd.net/steamcommunity/public/images/apps/826420/ceed7c67362f033699e58154f02af93802836ed7.jpg"
  },
  {
    "name": "mg_with_time_achievement_03",
    "defaultvalue": 0,
    "displayName": "Master",
    "hidden": 0,
    "description": "Finish 5 mini-games in one minute each.",
    "icon": "https://steamcdn-a.akamaihd.net/steamcommunity/public/images/apps/826420/fa8135d9225b6923aed8329740ea18eeb5bebc7a.jpg",
    "icongray": "https://steamcdn-a.akamaihd.net/steamcommunity/public/images/apps/826420/2434af5ed95e30856044b039e9b4f25b4ecfd32c.jpg"
  },
  {
    "name": "mg_without_achievement_01",
    "defaultvalue": 0,
    "displayName": "Telepathic",
    "hidden": 0,
    "description": "Finish all hidden-object puzzles without any hints.",
    "icon": "https://steamcdn-a.akamaihd.net/steamcommunity/public/images/apps/826420/1e61b1c6fd81a5116de5a1492ebfee6d99b58eeb.jpg",
    "icongray": "https://steamcdn-a.akamaihd.net/steamcommunity/public/images/apps/826420/359627edf4e222ae3c5844136459f2c7c7e547ca.jpg"
  },
  {
    "name": "get_all_achievement_01",
    "defaultvalue": 0,
    "displayName": "Absolutist",
    "hidden": 0,
    "description": "Earn every achievement.",
    "icon": "https://steamcdn-a.akamaihd.net/steamcommunity/public/images/apps/826420/0e5ae114a042f64aab163dbaea7dd15ee439e55c.jpg",
    "icongray": "https://steamcdn-a.akamaihd.net/steamcommunity/public/images/apps/826420/3dd004dd6e00235f2dc41feb537ba1f079b7d59d.jpg"
  },
  {
    "name": "poster_achiev_01",
    "defaultvalue": 0,
    "displayName": "Shocking Number",
    "hidden": 0,
    "description": "Find a magical artifact.",
    "icon": "https://steamcdn-a.akamaihd.net/steamcommunity/public/images/apps/826420/c4100f757e8e73b1c674aa4c20bb78c46fbdd9cf.jpg",
    "icongray": "https://steamcdn-a.akamaihd.net/steamcommunity/public/images/apps/826420/be7a5e00304cd6349fc60c4beeb3a0e513563d5e.jpg"
  },
  {
    "name": "poster_achiev_02",
    "defaultvalue": 0,
    "displayName": "Allies",
    "hidden": 0,
    "description": "Use the locket to switch between characters.",
    "icon": "https://steamcdn-a.akamaihd.net/steamcommunity/public/images/apps/826420/70a45a25160f5412c5275993cc77ff7e389b1b0a.jpg",
    "icongray": "https://steamcdn-a.akamaihd.net/steamcommunity/public/images/apps/826420/d5b6f1c8d97a62759988bbf46f78d8b99f752d85.jpg"
  },
  {
    "name": "poster_achiev_03",
    "defaultvalue": 0,
    "displayName": "Entomologist",
    "hidden": 0,
    "description": "Find a butterfly.",
    "icon": "https://steamcdn-a.akamaihd.net/steamcommunity/public/images/apps/826420/bce03a77e1a4cb356fa03bf957993c826cf740b1.jpg",
    "icongray": "https://steamcdn-a.akamaihd.net/steamcommunity/public/images/apps/826420/85a00735e3248985136fd5f5345d4bb203567377.jpg"
  },
  {
    "name": "poster_achiev_04",
    "defaultvalue": 0,
    "displayName": "Cat Lover",
    "hidden": 0,
    "description": "Meet the cat.",
    "icon": "https://steamcdn-a.akamaihd.net/steamcommunity/public/images/apps/826420/9f972a20edaf152f6ca8a68edf65214da2b6c427.jpg",
    "icongray": "https://steamcdn-a.akamaihd.net/steamcommunity/public/images/apps/826420/52809370356efccc277055485adc74473530e69a.jpg"
  },
  {
    "name": "poster_achiev_05",
    "defaultvalue": 0,
    "displayName": "Horsing Around",
    "hidden": 0,
    "description": "Befriend Nathan.",
    "icon": "https://steamcdn-a.akamaihd.net/steamcommunity/public/images/apps/826420/d1ceb1547ff67eb3d55477949d1eaacfa5b55bde.jpg",
    "icongray": "https://steamcdn-a.akamaihd.net/steamcommunity/public/images/apps/826420/f784971306ebd3db77166671f492d3e47bed7e87.jpg"
  },
  {
    "name": "poster_achiev_06",
    "defaultvalue": 0,
    "displayName": "Falconer",
    "hidden": 0,
    "description": "Befriend Caleb.",
    "icon": "https://steamcdn-a.akamaihd.net/steamcommunity/public/images/apps/826420/92c89c8bc87ee5ec122ee909d5960a55e3acbd26.jpg",
    "icongray": "https://steamcdn-a.akamaihd.net/steamcommunity/public/images/apps/826420/08e988db4ebd6cbc98a77fc9b2cb9b59d452a88f.jpg"
  },
  {
    "name": "poster_achiev_07",
    "defaultvalue": 0,
    "displayName": "Underwater",
    "hidden": 0,
    "description": "Meet the fish.",
    "icon": "https://steamcdn-a.akamaihd.net/steamcommunity/public/images/apps/826420/c87d8da7ca6ff698379971ede8e9c10de0a77657.jpg",
    "icongray": "https://steamcdn-a.akamaihd.net/steamcommunity/public/images/apps/826420/386baf37a71758d2c88af19269dcc260499aa219.jpg"
  }
]