{
  "Dlcs": {},
  "Name": "Two Bit Hero",
  "AppId": "1288380",
  "ImageUrl": "https://steamcdn-a.akamaihd.net/steam/apps/1288380/header.jpg?t=1590141050",
  "Languages": [
    "english"
  ],
  "Platforms": {
    "windows": true,
    "mac": false,
    "linux": true
  }
}