{
  "Dlcs": {},
  "Name": "Dark Renaissance",
  "AppId": "1293440",
  "ImageUrl": "https://steamcdn-a.akamaihd.net/steam/apps/1293440/header.jpg?t=1595333523",
  "Languages": [
    "english",
    "italian",
    "german",
    "russian",
    "schinese"
  ],
  "Platforms": {
    "windows": true,
    "mac": false,
    "linux": false
  }
}