{
  "Dlcs": {},
  "Name": "Xark",
  "AppId": "546670",
  "ImageUrl": "https://steamcdn-a.akamaihd.net/steam/apps/546670/header.jpg?t=1496844245",
  "Languages": [
    "english"
  ],
  "Platforms": {
    "windows": true,
    "mac": false,
    "linux": false
  }
}