{
  "Dlcs": {},
  "Name": "VIRUS OF SURVIVORS:LIFE SIMULATOR",
  "AppId": "709020",
  "ImageUrl": "https://steamcdn-a.akamaihd.net/steam/apps/709020/header.jpg?t=1505575407",
  "Languages": [
    "english"
  ],
  "Platforms": {
    "windows": true,
    "mac": true,
    "linux": false
  }
}