﻿{
  "Dlcs": {},
  "Name": "Call of Juarez: Gunslinger",
  "AppId": "204450",
  "ImageUrl": "https://steamcdn-a.akamaihd.net/steam/apps/204450/header.jpg?t=1589443440",
  "Languages": [
    "english",
    "german",
    "french",
    "italian",
    "spanish",
    "russian",
    "japanese",
    "polish",
    "portuguese"
  ],
  "Platforms": {
    "windows": true,
    "mac": false,
    "linux": false
  }
}