[
  {
    "name": "DDQ_ACHIEVEMENT_00",
    "defaultvalue": 0,
    "displayName": "Beginning of Their Journey",
    "hidden": 0,
    "description": "Clear 1 stage in the Althur City area.",
    "icon": "https://steamcdn-a.akamaihd.net/steamcommunity/public/images/apps/658770/e319291e4db62a0ce828e4aeab3a339a1cd27a60.jpg",
    "icongray": "https://steamcdn-a.akamaihd.net/steamcommunity/public/images/apps/658770/cbd5d316a39b12c7d47bd0ec71a0ef89bb5a4554.jpg"
  },
  {
    "name": "DDQ_ACHIEVEMENT_01",
    "defaultvalue": 0,
    "displayName": "Ecleon Ruins Discovered",
    "hidden": 0,
    "description": "Clear 10 stages in the Althur City area, or earn 40 Stage Rating Stars.",
    "icon": "https://steamcdn-a.akamaihd.net/steamcommunity/public/images/apps/658770/e319291e4db62a0ce828e4aeab3a339a1cd27a60.jpg",
    "icongray": "https://steamcdn-a.akamaihd.net/steamcommunity/public/images/apps/658770/cbd5d316a39b12c7d47bd0ec71a0ef89bb5a4554.jpg"
  },
  {
    "name": "DDQ_ACHIEVEMENT_02",
    "defaultvalue": 0,
    "displayName": "Lanx Mountains Discovered",
    "hidden": 0,
    "description": "Clear 10 stages in the Ecleon Ruins area, or earn 40 Stage Rating Stars.",
    "icon": "https://steamcdn-a.akamaihd.net/steamcommunity/public/images/apps/658770/e319291e4db62a0ce828e4aeab3a339a1cd27a60.jpg",
    "icongray": "https://steamcdn-a.akamaihd.net/steamcommunity/public/images/apps/658770/cbd5d316a39b12c7d47bd0ec71a0ef89bb5a4554.jpg"
  },
  {
    "name": "DDQ_ACHIEVEMENT_03",
    "defaultvalue": 0,
    "displayName": "Arion Island Discovered",
    "hidden": 0,
    "description": "Clear Stage 15 in the Althur City area.",
    "icon": "https://steamcdn-a.akamaihd.net/steamcommunity/public/images/apps/658770/e319291e4db62a0ce828e4aeab3a339a1cd27a60.jpg",
    "icongray": "https://steamcdn-a.akamaihd.net/steamcommunity/public/images/apps/658770/cbd5d316a39b12c7d47bd0ec71a0ef89bb5a4554.jpg"
  },
  {
    "name": "DDQ_ACHIEVEMENT_04",
    "defaultvalue": 0,
    "displayName": "Cat's Eye Obtained",
    "hidden": 0,
    "description": "Clear Stage 15 in the Althur City area.",
    "icon": "https://steamcdn-a.akamaihd.net/steamcommunity/public/images/apps/658770/e319291e4db62a0ce828e4aeab3a339a1cd27a60.jpg",
    "icongray": "https://steamcdn-a.akamaihd.net/steamcommunity/public/images/apps/658770/cbd5d316a39b12c7d47bd0ec71a0ef89bb5a4554.jpg"
  },
  {
    "name": "DDQ_ACHIEVEMENT_05",
    "defaultvalue": 0,
    "displayName": "Wind Feather Obtained",
    "hidden": 0,
    "description": "Clear Stage 15 in the Ecleon Ruins area.",
    "icon": "https://steamcdn-a.akamaihd.net/steamcommunity/public/images/apps/658770/e319291e4db62a0ce828e4aeab3a339a1cd27a60.jpg",
    "icongray": "https://steamcdn-a.akamaihd.net/steamcommunity/public/images/apps/658770/cbd5d316a39b12c7d47bd0ec71a0ef89bb5a4554.jpg"
  },
  {
    "name": "DDQ_ACHIEVEMENT_06",
    "defaultvalue": 0,
    "displayName": "Obsidian Horn Obtained",
    "hidden": 0,
    "description": "Clear Stage 15 in the Lanx Mountains area.",
    "icon": "https://steamcdn-a.akamaihd.net/steamcommunity/public/images/apps/658770/11730f8a5642e5391595d1004d2bf6c643c6bce9.jpg",
    "icongray": "https://steamcdn-a.akamaihd.net/steamcommunity/public/images/apps/658770/cbd5d316a39b12c7d47bd0ec71a0ef89bb5a4554.jpg"
  },
  {
    "name": "DDQ_ACHIEVEMENT_07",
    "defaultvalue": 0,
    "displayName": "Dream Fish Breath Obtained",
    "hidden": 0,
    "description": "Clear Stage 15 in the Arion Island area.",
    "icon": "https://steamcdn-a.akamaihd.net/steamcommunity/public/images/apps/658770/11730f8a5642e5391595d1004d2bf6c643c6bce9.jpg",
    "icongray": "https://steamcdn-a.akamaihd.net/steamcommunity/public/images/apps/658770/cbd5d316a39b12c7d47bd0ec71a0ef89bb5a4554.jpg"
  },
  {
    "name": "DDQ_ACHIEVEMENT_08",
    "defaultvalue": 0,
    "displayName": "Bad Rabbit",
    "hidden": 0,
    "description": "Clear Stage 15 in the Underworld area.",
    "icon": "https://steamcdn-a.akamaihd.net/steamcommunity/public/images/apps/658770/11730f8a5642e5391595d1004d2bf6c643c6bce9.jpg",
    "icongray": "https://steamcdn-a.akamaihd.net/steamcommunity/public/images/apps/658770/cbd5d316a39b12c7d47bd0ec71a0ef89bb5a4554.jpg"
  },
  {
    "name": "DDQ_ACHIEVEMENT_09",
    "defaultvalue": 0,
    "displayName": "Dreamland Explorer",
    "hidden": 0,
    "description": "Clear Stage 15 in the Moon area.",
    "icon": "https://steamcdn-a.akamaihd.net/steamcommunity/public/images/apps/658770/9bc0e6117e28d48c22274590cc19db4c9fd58203.jpg",
    "icongray": "https://steamcdn-a.akamaihd.net/steamcommunity/public/images/apps/658770/cbd5d316a39b12c7d47bd0ec71a0ef89bb5a4554.jpg"
  },
  {
    "name": "DDQ_ACHIEVEMENT_10",
    "defaultvalue": 0,
    "displayName": "Althur City Explorer",
    "hidden": 1,
    "icon": "https://steamcdn-a.akamaihd.net/steamcommunity/public/images/apps/658770/9bc0e6117e28d48c22274590cc19db4c9fd58203.jpg",
    "icongray": "https://steamcdn-a.akamaihd.net/steamcommunity/public/images/apps/658770/cbd5d316a39b12c7d47bd0ec71a0ef89bb5a4554.jpg"
  },
  {
    "name": "DDQ_ACHIEVEMENT_11",
    "defaultvalue": 0,
    "displayName": "Ecleon Ruins Explorer",
    "hidden": 1,
    "icon": "https://steamcdn-a.akamaihd.net/steamcommunity/public/images/apps/658770/9bc0e6117e28d48c22274590cc19db4c9fd58203.jpg",
    "icongray": "https://steamcdn-a.akamaihd.net/steamcommunity/public/images/apps/658770/cbd5d316a39b12c7d47bd0ec71a0ef89bb5a4554.jpg"
  },
  {
    "name": "DDQ_ACHIEVEMENT_12",
    "defaultvalue": 0,
    "displayName": "Lanx Mountains Explorer",
    "hidden": 1,
    "icon": "https://steamcdn-a.akamaihd.net/steamcommunity/public/images/apps/658770/9bc0e6117e28d48c22274590cc19db4c9fd58203.jpg",
    "icongray": "https://steamcdn-a.akamaihd.net/steamcommunity/public/images/apps/658770/cbd5d316a39b12c7d47bd0ec71a0ef89bb5a4554.jpg"
  },
  {
    "name": "DDQ_ACHIEVEMENT_13",
    "defaultvalue": 0,
    "displayName": "Arion Island Explorer",
    "hidden": 1,
    "icon": "https://steamcdn-a.akamaihd.net/steamcommunity/public/images/apps/658770/9bc0e6117e28d48c22274590cc19db4c9fd58203.jpg",
    "icongray": "https://steamcdn-a.akamaihd.net/steamcommunity/public/images/apps/658770/cbd5d316a39b12c7d47bd0ec71a0ef89bb5a4554.jpg"
  },
  {
    "name": "DDQ_ACHIEVEMENT_14",
    "defaultvalue": 0,
    "displayName": "Underworld Explorer",
    "hidden": 1,
    "icon": "https://steamcdn-a.akamaihd.net/steamcommunity/public/images/apps/658770/9bc0e6117e28d48c22274590cc19db4c9fd58203.jpg",
    "icongray": "https://steamcdn-a.akamaihd.net/steamcommunity/public/images/apps/658770/cbd5d316a39b12c7d47bd0ec71a0ef89bb5a4554.jpg"
  },
  {
    "name": "DDQ_ACHIEVEMENT_15",
    "defaultvalue": 0,
    "displayName": "Moon Explorer",
    "hidden": 1,
    "icon": "https://steamcdn-a.akamaihd.net/steamcommunity/public/images/apps/658770/9bc0e6117e28d48c22274590cc19db4c9fd58203.jpg",
    "icongray": "https://steamcdn-a.akamaihd.net/steamcommunity/public/images/apps/658770/cbd5d316a39b12c7d47bd0ec71a0ef89bb5a4554.jpg"
  },
  {
    "name": "DDQ_ACHIEVEMENT_16",
    "defaultvalue": 0,
    "displayName": "New Dream Keeper of Dreamland",
    "hidden": 1,
    "icon": "https://steamcdn-a.akamaihd.net/steamcommunity/public/images/apps/658770/9bc0e6117e28d48c22274590cc19db4c9fd58203.jpg",
    "icongray": "https://steamcdn-a.akamaihd.net/steamcommunity/public/images/apps/658770/cbd5d316a39b12c7d47bd0ec71a0ef89bb5a4554.jpg"
  },
  {
    "name": "DDQ_ACHIEVEMENT_17",
    "defaultvalue": 0,
    "displayName": "Star Seeker",
    "hidden": 0,
    "description": "Earn at least 90 Stage Rating Stars.",
    "icon": "https://steamcdn-a.akamaihd.net/steamcommunity/public/images/apps/658770/e319291e4db62a0ce828e4aeab3a339a1cd27a60.jpg",
    "icongray": "https://steamcdn-a.akamaihd.net/steamcommunity/public/images/apps/658770/cbd5d316a39b12c7d47bd0ec71a0ef89bb5a4554.jpg"
  },
  {
    "name": "DDQ_ACHIEVEMENT_18",
    "defaultvalue": 0,
    "displayName": "Star Collector",
    "hidden": 0,
    "description": "Earn at least 190 Stage Rating Stars.",
    "icon": "https://steamcdn-a.akamaihd.net/steamcommunity/public/images/apps/658770/e319291e4db62a0ce828e4aeab3a339a1cd27a60.jpg",
    "icongray": "https://steamcdn-a.akamaihd.net/steamcommunity/public/images/apps/658770/cbd5d316a39b12c7d47bd0ec71a0ef89bb5a4554.jpg"
  },
  {
    "name": "DDQ_ACHIEVEMENT_19",
    "defaultvalue": 0,
    "displayName": "Experienced Star Collector",
    "hidden": 0,
    "description": "Earn at least 290 Stage Rating Stars.",
    "icon": "https://steamcdn-a.akamaihd.net/steamcommunity/public/images/apps/658770/11730f8a5642e5391595d1004d2bf6c643c6bce9.jpg",
    "icongray": "https://steamcdn-a.akamaihd.net/steamcommunity/public/images/apps/658770/"
  },
  {
    "name": "DDQ_ACHIEVEMENT_20",
    "defaultvalue": 0,
    "displayName": "Expert Star Collector",
    "hidden": 0,
    "description": "Earn at least 390 Stage Rating Stars.",
    "icon": "https://steamcdn-a.akamaihd.net/steamcommunity/public/images/apps/658770/11730f8a5642e5391595d1004d2bf6c643c6bce9.jpg",
    "icongray": "https://steamcdn-a.akamaihd.net/steamcommunity/public/images/apps/658770/cbd5d316a39b12c7d47bd0ec71a0ef89bb5a4554.jpg"
  },
  {
    "name": "DDQ_ACHIEVEMENT_21",
    "defaultvalue": 0,
    "displayName": "Master Star Collector",
    "hidden": 0,
    "description": "Earn at least 490 Stage Rating Stars.",
    "icon": "https://steamcdn-a.akamaihd.net/steamcommunity/public/images/apps/658770/9bc0e6117e28d48c22274590cc19db4c9fd58203.jpg",
    "icongray": "https://steamcdn-a.akamaihd.net/steamcommunity/public/images/apps/658770/cbd5d316a39b12c7d47bd0ec71a0ef89bb5a4554.jpg"
  }
]