[
  {
    "name": "ACHIEVEMENT_BACK_IN_BED",
    "defaultvalue": 0,
    "displayName": "Back in Bed",
    "hidden": 0,
    "description": "You successfully got the boy back to bed for the first time.",
    "icon": "https://steamcdn-a.akamaihd.net/steamcommunity/public/images/apps/905120/701df952d789dbb3a0edcf2b89d075fbe1374cd3.jpg",
    "icongray": "https://steamcdn-a.akamaihd.net/steamcommunity/public/images/apps/905120/66e1018f3169b6d34b5f81cb176177eed5db784c.jpg"
  },
  {
    "name": "ACHIEVEMENT_FOUND_BEAR",
    "defaultvalue": 0,
    "displayName": "Bear Hunter",
    "hidden": 0,
    "description": "You spotted the bear for the first time.",
    "icon": "https://steamcdn-a.akamaihd.net/steamcommunity/public/images/apps/905120/1812e2bdbc47cd6ff060fc864d130df87360a0e3.jpg",
    "icongray": "https://steamcdn-a.akamaihd.net/steamcommunity/public/images/apps/905120/491e938de73a26bf385e7607c6740f532f124b2d.jpg"
  },
  {
    "name": "ACHIEVEMENT_REUNITER",
    "defaultvalue": 0,
    "displayName": "Bear Reuniter",
    "hidden": 0,
    "description": "Got him back to bed with his bear.",
    "icon": "https://steamcdn-a.akamaihd.net/steamcommunity/public/images/apps/905120/c358efe45cb4c856619c2b89537fd31de88cf20b.jpg",
    "icongray": "https://steamcdn-a.akamaihd.net/steamcommunity/public/images/apps/905120/88319e96ebf0eb005dd369d4bc4e084743e7c7ba.jpg"
  },
  {
    "name": "ACHIEVEMENT_HORSE",
    "defaultvalue": 0,
    "displayName": "Horse Whisperer",
    "hidden": 0,
    "description": "You saw the music horse and didn't mess your pants.",
    "icon": "https://steamcdn-a.akamaihd.net/steamcommunity/public/images/apps/905120/3cc11eac68be247dab10a75f15c68847e30bf6e4.jpg",
    "icongray": "https://steamcdn-a.akamaihd.net/steamcommunity/public/images/apps/905120/635c50b9ff89d92310cfc4728d4878d4108cae39.jpg"
  },
  {
    "name": "ACHIEVEMENT_PSYCH",
    "defaultvalue": 0,
    "displayName": "Got Psyched",
    "hidden": 0,
    "description": "You met the psychologist.",
    "icon": "https://steamcdn-a.akamaihd.net/steamcommunity/public/images/apps/905120/adba8babf65eb2ad2785da93e5f9a058f9cb3aa1.jpg",
    "icongray": "https://steamcdn-a.akamaihd.net/steamcommunity/public/images/apps/905120/bbdca309b92b6dc1db04bdf7a132ccda047bf849.jpg"
  },
  {
    "name": "ACHIEVEMENT_DRONE",
    "defaultvalue": 0,
    "displayName": "Drone's Drive",
    "hidden": 0,
    "description": "You launched the drone.",
    "icon": "https://steamcdn-a.akamaihd.net/steamcommunity/public/images/apps/905120/216666b4be844c3f4f7361d3a7967a71f9d1465d.jpg",
    "icongray": "https://steamcdn-a.akamaihd.net/steamcommunity/public/images/apps/905120/8698a6eb4d63d5095db647208d846bc388f185cd.jpg"
  },
  {
    "name": "ACHIEVEMENT_BDAY",
    "defaultvalue": 0,
    "displayName": "Birthday Boy",
    "hidden": 0,
    "description": "You made it to the birthday party!",
    "icon": "https://steamcdn-a.akamaihd.net/steamcommunity/public/images/apps/905120/fb14fd1b4d3fb1b6293791cb8c5b087586fa96e0.jpg",
    "icongray": "https://steamcdn-a.akamaihd.net/steamcommunity/public/images/apps/905120/c223037fa07745bf7320eb7e0686fcafbca84d09.jpg"
  },
  {
    "name": "ACHIEVEMENT_DOOR",
    "defaultvalue": 0,
    "displayName": "Door Destroyer",
    "hidden": 0,
    "description": "No door can stop you!",
    "icon": "https://steamcdn-a.akamaihd.net/steamcommunity/public/images/apps/905120/e0c955cb4c60fdc4e8469b05680b100957a7e4b6.jpg",
    "icongray": "https://steamcdn-a.akamaihd.net/steamcommunity/public/images/apps/905120/48352567b94c7f1487bddd96926061340eb05faf.jpg"
  },
  {
    "name": "ACHIEVEMENT_COOKIEJAR",
    "defaultvalue": 0,
    "displayName": "Caught in the Cookie Jar",
    "hidden": 0,
    "description": "You got him back from the kitchen.",
    "icon": "https://steamcdn-a.akamaihd.net/steamcommunity/public/images/apps/905120/d867f760f607acf7f94c9c3faae9c25f2718cc6e.jpg",
    "icongray": "https://steamcdn-a.akamaihd.net/steamcommunity/public/images/apps/905120/ecdbfb5bc38a06fa33d9b31a498d737665160bf8.jpg"
  }
]