{
  "Dlcs": {},
  "Name": "KOLOBOK",
  "AppId": "757170",
  "ImageUrl": "https://steamcdn-a.akamaihd.net/steam/apps/757170/header.jpg?t=1512980014",
  "Languages": [
    "english"
  ],
  "Platforms": {
    "windows": true,
    "mac": false,
    "linux": false
  }
}