﻿{
  "Dlcs": {},
  "Name": "Angels of Death Episode.Eddie",
  "AppId": "1321230",
  "ImageUrl": "https://steamcdn-a.akamaihd.net/steam/apps/1321230/header.jpg?t=1594983722",
  "Languages": [
    "english",
    "japanese",
    "schinese",
    "korean",
    "tchinese"
  ],
  "Platforms": {
    "windows": true,
    "mac": false,
    "linux": false
  }
}