{
  "Dlcs": {},
  "Name": "Clam Man 2: Open Mic",
  "AppId": "1278360",
  "ImageUrl": "https://steamcdn-a.akamaihd.net/steam/apps/1278360/header.jpg?t=1593638682",
  "Languages": [
    "english"
  ],
  "Platforms": {
    "windows": true,
    "mac": true,
    "linux": true
  }
}