{
  "Dlcs": {},
  "Name": "Valley Run",
  "AppId": "1091350",
  "ImageUrl": "https://steamcdn-a.akamaihd.net/steam/apps/1091350/header.jpg?t=1562158911",
  "Languages": [
    "english"
  ],
  "Platforms": {
    "windows": true,
    "mac": false,
    "linux": false
  }
}