{
  "Dlcs": {},
  "Name": "她2 : 我还想再见到你   Her2 : I Want To See You Again",
  "AppId": "1003750",
  "ImageUrl": "https://steamcdn-a.akamaihd.net/steam/apps/1003750/header.jpg?t=1577640855",
  "Languages": [
    "schinese",
    "english"
  ],
  "Platforms": {
    "windows": true,
    "mac": false,
    "linux": false
  }
}