{
  "Dlcs": {
    "1028702": {
      "Name": "Fate/EXTELLA LINK - Burning Bikini",
      "ImageUrl": "https://steamcdn-a.akamaihd.net/steam/apps/1028702/header.jpg?t=1553016092"
    },
    "1028703": {
      "Name": "Fate/EXTELLA LINK - Beach Flower",
      "ImageUrl": "https://steamcdn-a.akamaihd.net/steam/apps/1028703/header.jpg?t=1553014564"
    },
    "1028704": {
      "Name": "Fate/EXTELLA LINK - Cool & Sporty",
      "ImageUrl": "https://steamcdn-a.akamaihd.net/steam/apps/1028704/header.jpg?t=1553014572"
    },
    "1028705": {
      "Name": "Fate/EXTELLA LINK - Beach Bloody Demoness",
      "ImageUrl": "https://steamcdn-a.akamaihd.net/steam/apps/1028705/header.jpg?t=1553014726"
    },
    "1028710": {
      "Name": "Fate/EXTELLA LINK - Captain's Glorious Summer Vacation",
      "ImageUrl": "https://steamcdn-a.akamaihd.net/steam/apps/1028710/header.jpg?t=1553015403"
    },
    "1028711": {
      "Name": "Fate/EXTELLA LINK - Brave King’s Surf Shorts",
      "ImageUrl": "https://steamcdn-a.akamaihd.net/steam/apps/1028711/header.jpg?t=1553015367"
    },
    "1028712": {
      "Name": "Fate/EXTELLA LINK - Li'l Nero",
      "ImageUrl": "https://steamcdn-a.akamaihd.net/steam/apps/1028712/header.jpg?t=1553705524"
    },
    "1028720": {
      "Name": "Fate/EXTELLA LINK - Li'l Tamamo",
      "ImageUrl": "https://steamcdn-a.akamaihd.net/steam/apps/1028720/header.jpg?t=1553706019"
    },
    "1028721": {
      "Name": "Fate/EXTELLA LINK - Li'l Altera",
      "ImageUrl": "https://steamcdn-a.akamaihd.net/steam/apps/1028721/header.jpg?t=1553706189"
    },
    "1029280": {
      "Name": "Fate/EXTELLA LINK - Li'l Eliza",
      "ImageUrl": "https://steamcdn-a.akamaihd.net/steam/apps/1029280/header.jpg?t=1553015421"
    },
    "1029290": {
      "Name": "Fate/EXTELLA LINK - Li'l Nameless",
      "ImageUrl": "https://steamcdn-a.akamaihd.net/steam/apps/1029290/header.jpg?t=1553015425"
    },
    "1029300": {
      "Name": "Fate/EXTELLA LINK - Li'l Gil",
      "ImageUrl": "https://steamcdn-a.akamaihd.net/steam/apps/1029300/header.jpg?t=1553015436"
    },
    "1029301": {
      "Name": "Fate/EXTELLA LINK - Li'l Jeanne",
      "ImageUrl": "https://steamcdn-a.akamaihd.net/steam/apps/1029301/header.jpg?t=1553015568"
    },
    "1029310": {
      "Name": "Fate/EXTELLA LINK - Li'l Artoria",
      "ImageUrl": "https://steamcdn-a.akamaihd.net/steam/apps/1029310/header.jpg?t=1553015571"
    },
    "1029311": {
      "Name": "Fate/EXTELLA LINK - Li'l Charlie",
      "ImageUrl": "https://steamcdn-a.akamaihd.net/steam/apps/1029311/header.jpg?t=1553015615"
    },
    "1029312": {
      "Name": "Fate/EXTELLA LINK - Li'l Scathach",
      "ImageUrl": "https://steamcdn-a.akamaihd.net/steam/apps/1029312/header.jpg?t=1553015643"
    },
    "1029320": {
      "Name": "Fate/EXTELLA LINK - Young Altera",
      "ImageUrl": "https://steamcdn-a.akamaihd.net/steam/apps/1029320/header.jpg?t=1553015718"
    },
    "1029321": {
      "Name": "Fate/EXTELLA LINK - Wild Swim",
      "ImageUrl": "https://steamcdn-a.akamaihd.net/steam/apps/1029321/header.jpg?t=1553619812"
    },
    "1029322": {
      "Name": "Fate/EXTELLA LINK - Masque du Gorgon",
      "ImageUrl": "https://steamcdn-a.akamaihd.net/steam/apps/1029322/header.jpg?t=1553619818"
    },
    "1029323": {
      "Name": "Fate/EXTELLA LINK - Summer Battle Clothes",
      "ImageUrl": "https://steamcdn-a.akamaihd.net/steam/apps/1029323/header.jpg?t=1553619820"
    },
    "1029330": {
      "Name": "Fate/EXTELLA LINK - Beach Crisis",
      "ImageUrl": "https://steamcdn-a.akamaihd.net/steam/apps/1029330/header.jpg?t=1553619825"
    },
    "1029331": {
      "Name": "Fate/EXTELLA LINK - Sparkling Frills",
      "ImageUrl": "https://steamcdn-a.akamaihd.net/steam/apps/1029331/header.jpg?t=1553619830"
    },
    "1029350": {
      "Name": "Fate/EXTELLA LINK - Sun Set Sun",
      "ImageUrl": "https://steamcdn-a.akamaihd.net/steam/apps/1029350/header.jpg?t=1553619835"
    },
    "1029351": {
      "Name": "Fate/EXTELLA LINK - Shiva Bathing Suit",
      "ImageUrl": "https://steamcdn-a.akamaihd.net/steam/apps/1029351/header.jpg?t=1553619839"
    },
    "1029352": {
      "Name": "Fate/EXTELLA LINK - Emperor in Villager's Clothing",
      "ImageUrl": "https://steamcdn-a.akamaihd.net/steam/apps/1029352/header.jpg?t=1554223816"
    },
    "1029360": {
      "Name": "Fate/EXTELLA LINK - Planetary Arabian",
      "ImageUrl": "https://steamcdn-a.akamaihd.net/steam/apps/1029360/header.jpg?t=1554223886"
    },
    "1029361": {
      "Name": "Fate/EXTELLA LINK - Kilenc Hunter Outfit",
      "ImageUrl": "https://steamcdn-a.akamaihd.net/steam/apps/1029361/header.jpg?t=1554223895"
    },
    "1029362": {
      "Name": "Fate/EXTELLA LINK - Afterglow of the Old Days",
      "ImageUrl": "https://steamcdn-a.akamaihd.net/steam/apps/1029362/header.jpg?t=1554223905"
    },
    "1029370": {
      "Name": "Fate/EXTELLA LINK - Heretic Acolyte Garb",
      "ImageUrl": "https://steamcdn-a.akamaihd.net/steam/apps/1029370/header.jpg?t=1554223910"
    },
    "1029371": {
      "Name": "Fate/EXTELLA LINK - Achaemenes Bone Armor Shell",
      "ImageUrl": "https://steamcdn-a.akamaihd.net/steam/apps/1029371/header.jpg?t=1554223917"
    },
    "1029372": {
      "Name": "Fate/EXTELLA LINK - Dark Elf Armor",
      "ImageUrl": "https://steamcdn-a.akamaihd.net/steam/apps/1029372/header.jpg?t=1554223923"
    },
    "1029390": {
      "Name": "Fate/EXTELLA LINK - Magical Tamamo",
      "ImageUrl": "https://steamcdn-a.akamaihd.net/steam/apps/1029390/header.jpg?t=1554827462"
    },
    "1029391": {
      "Name": "Fate/EXTELLA LINK - Rune Priestess Garb",
      "ImageUrl": "https://steamcdn-a.akamaihd.net/steam/apps/1029391/header.jpg?t=1554827497"
    },
    "1029392": {
      "Name": "Fate/EXTELLA LINK - Pegasus Warrior Dress",
      "ImageUrl": "https://steamcdn-a.akamaihd.net/steam/apps/1029392/header.jpg?t=1554827509"
    },
    "1029400": {
      "Name": "Fate/EXTELLA LINK - Robin, the Forest Ninja",
      "ImageUrl": "https://steamcdn-a.akamaihd.net/steam/apps/1029400/header.jpg?t=1554827532"
    },
    "1029401": {
      "Name": "Fate/EXTELLA LINK - Adventurous & Educated Gentleman",
      "ImageUrl": "https://steamcdn-a.akamaihd.net/steam/apps/1029401/header.jpg?t=1554827574"
    },
    "1029402": {
      "Name": "Fate/EXTELLA LINK - Macedonian Rider Armor",
      "ImageUrl": "https://steamcdn-a.akamaihd.net/steam/apps/1029402/header.jpg?t=1554827582"
    },
    "1029410": {
      "Name": "Fate/EXTELLA LINK - Conqueror of Turbulent Times",
      "ImageUrl": "https://steamcdn-a.akamaihd.net/steam/apps/1029410/header.jpg?t=1554827591"
    },
    "1029411": {
      "Name": "Fate/EXTELLA LINK - The Hero",
      "ImageUrl": "https://steamcdn-a.akamaihd.net/steam/apps/1029411/header.jpg?t=1554827604"
    },
    "1029412": {
      "Name": "Fate/EXTELLA LINK - Black Elegance",
      "ImageUrl": "https://steamcdn-a.akamaihd.net/steam/apps/1029412/header.jpg?t=1555434073"
    },
    "1029430": {
      "Name": "Fate/EXTELLA LINK - Sky Blue Dress",
      "ImageUrl": "https://steamcdn-a.akamaihd.net/steam/apps/1029430/header.jpg?t=1555434080"
    },
    "1029431": {
      "Name": "Fate/EXTELLA LINK - Perfectly Flawless Special Ops",
      "ImageUrl": "https://steamcdn-a.akamaihd.net/steam/apps/1029431/header.jpg?t=1555434084"
    },
    "1029432": {
      "Name": "Fate/EXTELLA LINK - Generous Bartender",
      "ImageUrl": "https://steamcdn-a.akamaihd.net/steam/apps/1029432/header.jpg?t=1555434089"
    },
    "1029440": {
      "Name": "Fate/EXTELLA LINK - Wild Western",
      "ImageUrl": "https://steamcdn-a.akamaihd.net/steam/apps/1029440/header.jpg?t=1555434095"
    },
    "1029441": {
      "Name": "Fate/EXTELLA LINK - Blue Diver",
      "ImageUrl": "https://steamcdn-a.akamaihd.net/steam/apps/1029441/header.jpg?t=1555434100"
    },
    "1029450": {
      "Name": "Fate/EXTELLA LINK - Candy Pink",
      "ImageUrl": "https://steamcdn-a.akamaihd.net/steam/apps/1029450/header.jpg?t=1555434108"
    },
    "1029451": {
      "Name": "Fate/EXTELLA LINK - Divine Spear's Combat Outfit",
      "ImageUrl": "https://steamcdn-a.akamaihd.net/steam/apps/1029451/header.jpg?t=1555434115"
    }
  },
  "Name": "Fate/EXTELLA LINK",
  "AppId": "622220",
  "ImageUrl": "https://steamcdn-a.akamaihd.net/steam/apps/622220/header.jpg?t=1571845973",
  "Languages": [
    "english",
    "japanese",
    "korean",
    "schinese",
    "tchinese"
  ],
  "Platforms": {
    "windows": true,
    "mac": false,
    "linux": false
  }
}