﻿[
  {
    "name": "P001",
    "defaultvalue": 0,
    "displayName": "Conqueror of the Moon",
    "hidden": 0,
    "description": "Acquired all other Trophies.",
    "icon": "https://steamcdn-a.akamaihd.net/steamcommunity/public/images/apps/622220/1d95df7f596fe7cdce527731ecc29368d427e9df.jpg",
    "icongray": "https://steamcdn-a.akamaihd.net/steamcommunity/public/images/apps/622220/3135f46e4b761d0b3de9dcbf2483108c9609c7a7.jpg"
  },
  {
    "name": "B002",
    "defaultvalue": 0,
    "displayName": "Meet Charlemagne",
    "hidden": 0,
    "description": "Viewed the event in which Charlemagne first appears.",
    "icon": "https://steamcdn-a.akamaihd.net/steamcommunity/public/images/apps/622220/af8ad293c1660201cf3b18ff9564bc5b0c3d6e07.jpg",
    "icongray": "https://steamcdn-a.akamaihd.net/steamcommunity/public/images/apps/622220/8f1c31b9b30fdebe45376deab2f2bef50b557006.jpg"
  },
  {
    "name": "B003",
    "defaultvalue": 0,
    "displayName": "A New Battle Begins",
    "hidden": 0,
    "description": "Cleared Day 1.",
    "icon": "https://steamcdn-a.akamaihd.net/steamcommunity/public/images/apps/622220/a5ef1cd98a157702e18e59e78da3949454c08366.jpg",
    "icongray": "https://steamcdn-a.akamaihd.net/steamcommunity/public/images/apps/622220/4fe0f3b8ef3301dd255fa0e324840df3a2069624.jpg"
  },
  {
    "name": "B004",
    "defaultvalue": 0,
    "displayName": "Commence Counterattack",
    "hidden": 0,
    "description": "Cleared Day 2.",
    "icon": "https://steamcdn-a.akamaihd.net/steamcommunity/public/images/apps/622220/85c56f1bd649e6f17b5b7611878ef9eb80c5639f.jpg",
    "icongray": "https://steamcdn-a.akamaihd.net/steamcommunity/public/images/apps/622220/0e149446af0400e3f0b26a8123c077e22d08f7c7.jpg"
  },
  {
    "name": "B005",
    "defaultvalue": 0,
    "displayName": "An Alliance Gathers",
    "hidden": 0,
    "description": "Cleared Day 3.",
    "icon": "https://steamcdn-a.akamaihd.net/steamcommunity/public/images/apps/622220/8d08e2926420b3bd141da499d1381ceabe78c28e.jpg",
    "icongray": "https://steamcdn-a.akamaihd.net/steamcommunity/public/images/apps/622220/5b7e79611f3cd27df287dbb0619ea79a198dd124.jpg"
  },
  {
    "name": "B006",
    "defaultvalue": 0,
    "displayName": "Victory",
    "hidden": 0,
    "description": "Cleared Stage 9 or 10.",
    "icon": "https://steamcdn-a.akamaihd.net/steamcommunity/public/images/apps/622220/cc2b95d09dee4775f57700a1bca4c921415d593f.jpg",
    "icongray": "https://steamcdn-a.akamaihd.net/steamcommunity/public/images/apps/622220/fb2993af18415efca2486f9882e7fb585cac4f28.jpg"
  },
  {
    "name": "B007",
    "defaultvalue": 0,
    "displayName": "Facts about Facsimiles",
    "hidden": 0,
    "description": "Cleared stage 13 or 14.",
    "icon": "https://steamcdn-a.akamaihd.net/steamcommunity/public/images/apps/622220/68326e95a04566ffdd0e8536f86de3f84b33e691.jpg",
    "icongray": "https://steamcdn-a.akamaihd.net/steamcommunity/public/images/apps/622220/202b64282baea63cc29e79f1f082e06ef4106b80.jpg"
  },
  {
    "name": "B008",
    "defaultvalue": 0,
    "displayName": "St. Metropolita Decanonized",
    "hidden": 0,
    "description": "Cleared Stage 15 or 16.",
    "icon": "https://steamcdn-a.akamaihd.net/steamcommunity/public/images/apps/622220/86c6eab8b1f5bdc502701de9caee63eb28e1db57.jpg",
    "icongray": "https://steamcdn-a.akamaihd.net/steamcommunity/public/images/apps/622220/e7a156eecf97c76f535e1fc11ccb8bdedd89fd47.jpg"
  },
  {
    "name": "S009",
    "defaultvalue": 0,
    "displayName": "The Journey",
    "hidden": 0,
    "description": "Cleared Stage 18 and viewed the ending.",
    "icon": "https://steamcdn-a.akamaihd.net/steamcommunity/public/images/apps/622220/e158cb1289ad2ea9034e85729d8e821b683fb8d2.jpg",
    "icongray": "https://steamcdn-a.akamaihd.net/steamcommunity/public/images/apps/622220/774810271daaf81889ef7038e5da615f4a4f8380.jpg"
  },
  {
    "name": "B010",
    "defaultvalue": 0,
    "displayName": "The King of Knights Attacks",
    "hidden": 0,
    "description": "Cleared Stage 11.",
    "icon": "https://steamcdn-a.akamaihd.net/steamcommunity/public/images/apps/622220/49a1380a077390194882ad0b267695c76e9c78f3.jpg",
    "icongray": "https://steamcdn-a.akamaihd.net/steamcommunity/public/images/apps/622220/f54615210f907edc8fb3c109a4c2609cd8ceab48.jpg"
  },
  {
    "name": "S011",
    "defaultvalue": 0,
    "displayName": "Fading Illusions",
    "hidden": 0,
    "description": "Cleared Stage 19 and viewed the ending.",
    "icon": "https://steamcdn-a.akamaihd.net/steamcommunity/public/images/apps/622220/dc57f446432d8d4873fef37bbafde75257718fbb.jpg",
    "icongray": "https://steamcdn-a.akamaihd.net/steamcommunity/public/images/apps/622220/76c720f3e3afd301c69fdb5ba6bb76c032589c54.jpg"
  },
  {
    "name": "B012",
    "defaultvalue": 0,
    "displayName": "You Sound Trustworthy",
    "hidden": 0,
    "description": "Chose to listen to Archimedes.",
    "icon": "https://steamcdn-a.akamaihd.net/steamcommunity/public/images/apps/622220/3ffccae3d61752916b59061a73722f3a775a447f.jpg",
    "icongray": "https://steamcdn-a.akamaihd.net/steamcommunity/public/images/apps/622220/612ac99ac2d1a053c26acea9b333c3e036085469.jpg"
  },
  {
    "name": "G013",
    "defaultvalue": 0,
    "displayName": "Until the Day We Are Rebooted",
    "hidden": 0,
    "description": "Cleared Stage 27 and viewed the ending.",
    "icon": "https://steamcdn-a.akamaihd.net/steamcommunity/public/images/apps/622220/93d28adc3c08c7689ed5434e7347be4cd3f0b067.jpg",
    "icongray": "https://steamcdn-a.akamaihd.net/steamcommunity/public/images/apps/622220/55e15aa7b4ccc7c751f917937a1c687743483b7e.jpg"
  },
  {
    "name": "B014",
    "defaultvalue": 0,
    "displayName": "The Extra Beginner",
    "hidden": 0,
    "description": "Cleared one Extra Stage.",
    "icon": "https://steamcdn-a.akamaihd.net/steamcommunity/public/images/apps/622220/205b14ed2f826454a6fb8ec505eb254a9805974e.jpg",
    "icongray": "https://steamcdn-a.akamaihd.net/steamcommunity/public/images/apps/622220/41b991a7018ae4e8946c4e3eafeb181eabd71d5f.jpg"
  },
  {
    "name": "B015",
    "defaultvalue": 0,
    "displayName": "The Extra Warrior",
    "hidden": 0,
    "description": "Cleared eight Extra Stages.",
    "icon": "https://steamcdn-a.akamaihd.net/steamcommunity/public/images/apps/622220/07793b97838351a73ae4b9f68877385473d70892.jpg",
    "icongray": "https://steamcdn-a.akamaihd.net/steamcommunity/public/images/apps/622220/d9e913c6bfa435fd57c2a6fcf779e99c79ca41cc.jpg"
  },
  {
    "name": "B016",
    "defaultvalue": 0,
    "displayName": "The Extra Expert",
    "hidden": 0,
    "description": "Cleared 16 Extra Stages.",
    "icon": "https://steamcdn-a.akamaihd.net/steamcommunity/public/images/apps/622220/ec0c6d5972b8b1e69fea00ea896039595e526f55.jpg",
    "icongray": "https://steamcdn-a.akamaihd.net/steamcommunity/public/images/apps/622220/7f7eac47e48ca7b3010df53aa511dac7fa783662.jpg"
  },
  {
    "name": "B017",
    "defaultvalue": 0,
    "displayName": "The Extra King",
    "hidden": 0,
    "description": "Cleared 24 Extra Stages.",
    "icon": "https://steamcdn-a.akamaihd.net/steamcommunity/public/images/apps/622220/919559f83c80a996a89919ebd3119cbc50f5137f.jpg",
    "icongray": "https://steamcdn-a.akamaihd.net/steamcommunity/public/images/apps/622220/5c0993749aa8dd33f9162fa018e35b5df5a7f2c1.jpg"
  },
  {
    "name": "B018",
    "defaultvalue": 0,
    "displayName": "The Extra Hero",
    "hidden": 0,
    "description": "Cleared 32 Extra Strages.",
    "icon": "https://steamcdn-a.akamaihd.net/steamcommunity/public/images/apps/622220/4712d31f0ae137501287974cde1df05a42141d7f.jpg",
    "icongray": "https://steamcdn-a.akamaihd.net/steamcommunity/public/images/apps/622220/e12bb5869269370c234c064c030f7fafb05af44c.jpg"
  },
  {
    "name": "S019",
    "defaultvalue": 0,
    "displayName": "The Extra Conqueror",
    "hidden": 0,
    "description": "Cleared all Extra Stages.",
    "icon": "https://steamcdn-a.akamaihd.net/steamcommunity/public/images/apps/622220/01017b87a2e978368334d6585557fa7ef8415707.jpg",
    "icongray": "https://steamcdn-a.akamaihd.net/steamcommunity/public/images/apps/622220/d1713a3cd6dfaade228a3cd12370ba2ebb157d1b.jpg"
  },
  {
    "name": "S020",
    "defaultvalue": 0,
    "displayName": "I Praise Your Bravery!",
    "hidden": 0,
    "description": "Defeated two bosses in the \"EX: Facsimile Fortress Nightmare\" stage.",
    "icon": "https://steamcdn-a.akamaihd.net/steamcommunity/public/images/apps/622220/54a5752cceb04910d617fdbf0725c249743e7e64.jpg",
    "icongray": "https://steamcdn-a.akamaihd.net/steamcommunity/public/images/apps/622220/8e97e9708b47321e0bbf9abaff13d0f115c43b45.jpg"
  },
  {
    "name": "B021",
    "defaultvalue": 0,
    "displayName": "Battle Preparations Complete",
    "hidden": 0,
    "description": "Crafted a Mystic Code.",
    "icon": "https://steamcdn-a.akamaihd.net/steamcommunity/public/images/apps/622220/29913f47ae2e4db332992914560d74e94fd78894.jpg",
    "icongray": "https://steamcdn-a.akamaihd.net/steamcommunity/public/images/apps/622220/deb2f568446d59c8cdc3cffa2fc9efaa2e9cc0ba.jpg"
  },
  {
    "name": "B022",
    "defaultvalue": 0,
    "displayName": "Item Workshop ",
    "hidden": 0,
    "description": "Combined two Install Skills.",
    "icon": "https://steamcdn-a.akamaihd.net/steamcommunity/public/images/apps/622220/fa1867aa6d8e8e4a33b87eb735a73a2fd4bbc98e.jpg",
    "icongray": "https://steamcdn-a.akamaihd.net/steamcommunity/public/images/apps/622220/0e1820df74223f28ec05bbe2af2ec500ba2f1730.jpg"
  },
  {
    "name": "B023",
    "defaultvalue": 0,
    "displayName": "Item Workshop Expert",
    "hidden": 0,
    "description": "Combined two combined Install Skills.",
    "icon": "https://steamcdn-a.akamaihd.net/steamcommunity/public/images/apps/622220/0f4ba99312de81c86654d32f1a8f9c664c0ba0d5.jpg",
    "icongray": "https://steamcdn-a.akamaihd.net/steamcommunity/public/images/apps/622220/f75da16c7b64dcb476a3af153ecf7f95fb4d13f4.jpg"
  },
  {
    "name": "B024",
    "defaultvalue": 0,
    "displayName": "Violent Moonstorm",
    "hidden": 0,
    "description": "Activated Moon Drive four times in one stage.",
    "icon": "https://steamcdn-a.akamaihd.net/steamcommunity/public/images/apps/622220/41bb59bb3952d34dc8c9a1fdc5a185de873a4de6.jpg",
    "icongray": "https://steamcdn-a.akamaihd.net/steamcommunity/public/images/apps/622220/c57d333e418cdec215ad90eaba2061a533776b93.jpg"
  },
  {
    "name": "B025",
    "defaultvalue": 0,
    "displayName": "Multiple Noble Phantasms?!",
    "hidden": 0,
    "description": "Used a Noble Phantasm twice in one stage.",
    "icon": "https://steamcdn-a.akamaihd.net/steamcommunity/public/images/apps/622220/dbf40c10ec39ed8352bf806cd13100754f008df7.jpg",
    "icongray": "https://steamcdn-a.akamaihd.net/steamcommunity/public/images/apps/622220/47f401590eeab203e5da6306a6d6ce1d68b407c6.jpg"
  },
  {
    "name": "G026",
    "defaultvalue": 0,
    "displayName": "Awesomest Day Ever!",
    "hidden": 0,
    "description": "Cleared Stages 1 through 27 on Very Hard.",
    "icon": "https://steamcdn-a.akamaihd.net/steamcommunity/public/images/apps/622220/a970418cbf3e022946ca6bafa81f278d87925d39.jpg",
    "icongray": "https://steamcdn-a.akamaihd.net/steamcommunity/public/images/apps/622220/11f2fab46cdee84060018f249ce8066d924e2926.jpg"
  },
  {
    "name": "B027",
    "defaultvalue": 0,
    "displayName": "Threshold Upgrade",
    "hidden": 0,
    "description": "Maxed out an Install Skill.",
    "icon": "https://steamcdn-a.akamaihd.net/steamcommunity/public/images/apps/622220/fe98aafabdc25074e66d3321a1104e40fba25348.jpg",
    "icongray": "https://steamcdn-a.akamaihd.net/steamcommunity/public/images/apps/622220/631fb18b5185c84cb505db45680aea86136a6cd6.jpg"
  },
  {
    "name": "B028",
    "defaultvalue": 0,
    "displayName": "Rush Hour",
    "hidden": 0,
    "description": "Executed 8 Rush Attacks in one stage.",
    "icon": "https://steamcdn-a.akamaihd.net/steamcommunity/public/images/apps/622220/5d12410a155044a7bbb95ba482237a7febfdfe97.jpg",
    "icongray": "https://steamcdn-a.akamaihd.net/steamcommunity/public/images/apps/622220/f17b3021556c36aff836de7504e52d45f953bf07.jpg"
  },
  {
    "name": "B029",
    "defaultvalue": 0,
    "displayName": "Who Is the One that Can Kill Me?",
    "hidden": 0,
    "description": "Gained 1000 KO's in one stage.",
    "icon": "https://steamcdn-a.akamaihd.net/steamcommunity/public/images/apps/622220/4ece18beafab3341d021509db515afe2b5a1864f.jpg",
    "icongray": "https://steamcdn-a.akamaihd.net/steamcommunity/public/images/apps/622220/5e7288eb773ee488949dd5f87b28dbacba215dad.jpg"
  },
  {
    "name": "B030",
    "defaultvalue": 0,
    "displayName": "Just For You",
    "hidden": 0,
    "description": "Earned a Mystic Code for strengthening a bond or clearing a stage.",
    "icon": "https://steamcdn-a.akamaihd.net/steamcommunity/public/images/apps/622220/b22690bbc266ec50ca0a34fb6f1ce878ddad9b7a.jpg",
    "icongray": "https://steamcdn-a.akamaihd.net/steamcommunity/public/images/apps/622220/47682833ebf797957c39818e1578db387eee6e8e.jpg"
  },
  {
    "name": "B031",
    "defaultvalue": 0,
    "displayName": "Costume Hunter",
    "hidden": 0,
    "description": "Earned three Mystic Codes for strengthening bonds or clearing stages.",
    "icon": "https://steamcdn-a.akamaihd.net/steamcommunity/public/images/apps/622220/63a129f120c7ee9e87083624ab2b3cb82363c2e4.jpg",
    "icongray": "https://steamcdn-a.akamaihd.net/steamcommunity/public/images/apps/622220/1c45ddad8368585b96299b91f9afec01b78b3011.jpg"
  },
  {
    "name": "B032",
    "defaultvalue": 0,
    "displayName": "Comrade",
    "hidden": 0,
    "description": "Raised a Servant's Bond level to MAX.",
    "icon": "https://steamcdn-a.akamaihd.net/steamcommunity/public/images/apps/622220/5b7e6d1c96f03a0080846d15f5dc54d77b0e5aa0.jpg",
    "icongray": "https://steamcdn-a.akamaihd.net/steamcommunity/public/images/apps/622220/cdcfbe278c6f2f129c569e44b4b67ea4b8173314.jpg"
  },
  {
    "name": "S033",
    "defaultvalue": 0,
    "displayName": "The Best Master",
    "hidden": 0,
    "description": "Raised three Servants' Bond levels to MAX.",
    "icon": "https://steamcdn-a.akamaihd.net/steamcommunity/public/images/apps/622220/afe64b2e8c2e02939201b19767c67705dd49915f.jpg",
    "icongray": "https://steamcdn-a.akamaihd.net/steamcommunity/public/images/apps/622220/872217b4c6741c1a58af64201cfa5ba8c60b9323.jpg"
  },
  {
    "name": "B034",
    "defaultvalue": 0,
    "displayName": "We're Lancers on the Moon, We Carry a Harpoon",
    "hidden": 0,
    "description": "Defeated Scathach as Cu Chulainn.",
    "icon": "https://steamcdn-a.akamaihd.net/steamcommunity/public/images/apps/622220/afba90b2f8a1351b5ec26f584ff18c0a648cc72d.jpg",
    "icongray": "https://steamcdn-a.akamaihd.net/steamcommunity/public/images/apps/622220/ec0b15b06aba3e070b64785a5d1712aa50e0ef19.jpg"
  },
  {
    "name": "B035",
    "defaultvalue": 0,
    "displayName": "Destined Duel",
    "hidden": 0,
    "description": "Defeated Karna as Arjuna.",
    "icon": "https://steamcdn-a.akamaihd.net/steamcommunity/public/images/apps/622220/8a2258465be6c1c78d69dc5d2f9f73e8fdf717f0.jpg",
    "icongray": "https://steamcdn-a.akamaihd.net/steamcommunity/public/images/apps/622220/8dcde91638162c3c3c37c31ede57e4d1231a4549.jpg"
  },
  {
    "name": "B036",
    "defaultvalue": 0,
    "displayName": "A True Hero Kills With His Eyes",
    "hidden": 0,
    "description": "Used Karna's \"Oh Brahma, Cover the Earth\" or \"Oh Brahma, Split the Earth\" skills.",
    "icon": "https://steamcdn-a.akamaihd.net/steamcommunity/public/images/apps/622220/8cc9d3847c0755fc313d100951be6c83f8c74bef.jpg",
    "icongray": "https://steamcdn-a.akamaihd.net/steamcommunity/public/images/apps/622220/45305dfa924477faedf2f00276bc8fe9aaeaa389.jpg"
  },
  {
    "name": "B037",
    "defaultvalue": 0,
    "displayName": "I'm a Mile High and I'm the Scariest",
    "hidden": 0,
    "description": "Defeated Iskandar as Darius III.",
    "icon": "https://steamcdn-a.akamaihd.net/steamcommunity/public/images/apps/622220/240940fd24b1bf052187db6e5e12591cd40223b3.jpg",
    "icongray": "https://steamcdn-a.akamaihd.net/steamcommunity/public/images/apps/622220/04fbb1d7893b2c1dfc194cb7bb2ba72277fa7f98.jpg"
  },
  {
    "name": "B038",
    "defaultvalue": 0,
    "displayName": "Arrrthurrr!",
    "hidden": 0,
    "description": "Defeat Artoria as Lancelot.",
    "icon": "https://steamcdn-a.akamaihd.net/steamcommunity/public/images/apps/622220/3d558803f586d733b13ebd3f05bab019795c8b6a.jpg",
    "icongray": "https://steamcdn-a.akamaihd.net/steamcommunity/public/images/apps/622220/3b1b33eba8b8fb99efb9ffcafc078ab1a5bbfd69.jpg"
  },
  {
    "name": "B039",
    "defaultvalue": 0,
    "displayName": "Chronicles of Charlemagne: Vol. 1",
    "hidden": 0,
    "description": "Unlock 25% of the Gallery.",
    "icon": "https://steamcdn-a.akamaihd.net/steamcommunity/public/images/apps/622220/af8ad293c1660201cf3b18ff9564bc5b0c3d6e07.jpg",
    "icongray": "https://steamcdn-a.akamaihd.net/steamcommunity/public/images/apps/622220/8f1c31b9b30fdebe45376deab2f2bef50b557006.jpg"
  },
  {
    "name": "B040",
    "defaultvalue": 0,
    "displayName": "Chronicles of Charlemagne: Vol. 2",
    "hidden": 0,
    "description": "Unlock 50% of the Gallery.",
    "icon": "https://steamcdn-a.akamaihd.net/steamcommunity/public/images/apps/622220/e934aed10c45a8f5aedd349082ff519d89989b90.jpg",
    "icongray": "https://steamcdn-a.akamaihd.net/steamcommunity/public/images/apps/622220/2dc2400b489f52ea6d6e1c8d1ecce3e54350c0be.jpg"
  },
  {
    "name": "B041",
    "defaultvalue": 0,
    "displayName": "Chronicles of Charlemagne: Vol. 3",
    "hidden": 0,
    "description": "Unlock 75% of the Gallery.",
    "icon": "https://steamcdn-a.akamaihd.net/steamcommunity/public/images/apps/622220/cb5abf75acf525620025d31814ceeed047a1319a.jpg",
    "icongray": "https://steamcdn-a.akamaihd.net/steamcommunity/public/images/apps/622220/fd057f789dafbc321506f7c20e46d74848d0ecea.jpg"
  },
  {
    "name": "G042",
    "defaultvalue": 0,
    "displayName": "Chronicles of Charlemagne: Compendium",
    "hidden": 0,
    "description": "Unlock 100% of the Gallery.",
    "icon": "https://steamcdn-a.akamaihd.net/steamcommunity/public/images/apps/622220/19bc2c3fe202c84390f980a3c2e9599f76dbf514.jpg",
    "icongray": "https://steamcdn-a.akamaihd.net/steamcommunity/public/images/apps/622220/6dd098c72f7f4f6d20e6a5520cd8fa71ef5686d8.jpg"
  },
  {
    "name": "B043",
    "defaultvalue": 0,
    "displayName": "Mystic Code Maniac",
    "hidden": 0,
    "description": "Unlock 100% of the Mystic Codes.",
    "icon": "https://steamcdn-a.akamaihd.net/steamcommunity/public/images/apps/622220/b73b54aa486483bee63821f0e8398922f677091c.jpg",
    "icongray": "https://steamcdn-a.akamaihd.net/steamcommunity/public/images/apps/622220/a4e8297db35ad2f16b1d45cd2803aadf1f00d139.jpg"
  },
  {
    "name": "B044",
    "defaultvalue": 0,
    "displayName": "Skill Collector",
    "hidden": 0,
    "description": "Unlock 100% of the Install Skills.",
    "icon": "https://steamcdn-a.akamaihd.net/steamcommunity/public/images/apps/622220/5e919bbdde18cb164309fdf0e53c790d3069cbab.jpg",
    "icongray": "https://steamcdn-a.akamaihd.net/steamcommunity/public/images/apps/622220/8db5a5514b5a22996994c349ae44fb261974d385.jpg"
  }
]