{
  "Dlcs": {},
  "Name": "IRON GUARD VR",
  "AppId": "1213220",
  "ImageUrl": "https://steamcdn-a.akamaihd.net/steam/apps/1213220/header.jpg?t=1589754320",
  "Languages": [
    "english",
    "russian"
  ],
  "Platforms": {
    "windows": true,
    "mac": false,
    "linux": false
  }
}