{
  "Dlcs": {
    "924920": {
      "Name": "Siberian Dawn Mission Pack 1",
      "ImageUrl": "https://steamcdn-a.akamaihd.net/steam/apps/924920/header.jpg?t=1576072247"
    },
    "1149650": {
      "Name": "Siberian Dawn Mission Pack 2",
      "ImageUrl": "https://steamcdn-a.akamaihd.net/steam/apps/1149650/header.jpg?t=1576232461"
    }
  },
  "Name": "Siberian Dawn",
  "AppId": "922880",
  "ImageUrl": "https://steamcdn-a.akamaihd.net/steam/apps/922880/header.jpg?t=1576142652",
  "Languages": [
    "english"
  ],
  "Platforms": {
    "windows": true,
    "mac": false,
    "linux": false
  }
}