﻿[
  {
    "name": "DUMMY_SLAYER",
    "defaultvalue": 0,
    "displayName": "Dummy Slayer",
    "hidden": 0,
    "description": "Slice 1000 dummies",
    "icon": "https://steamcdn-a.akamaihd.net/steamcommunity/public/images/apps/1194830/8f5335c3c08272782d5e41a6a32b56fb456cda06.jpg",
    "icongray": "https://steamcdn-a.akamaihd.net/steamcommunity/public/images/apps/1194830/4466278bedff0c47c16d8c691ebbd2bc60ee8c3f.jpg"
  },
  {
    "name": "LEVEL_100",
    "defaultvalue": 0,
    "displayName": "Dummies Obliterated",
    "hidden": 0,
    "description": "Complete levels 1-99",
    "icon": "https://steamcdn-a.akamaihd.net/steamcommunity/public/images/apps/1194830/a9d3858c7fbbc014141a96e97c5b8616e25e93a1.jpg",
    "icongray": "https://steamcdn-a.akamaihd.net/steamcommunity/public/images/apps/1194830/9a963064b007f73ce2c505902440f94175ff4b04.jpg"
  },
  {
    "name": "LEVEL_200",
    "defaultvalue": 0,
    "displayName": "Sunken Depths",
    "hidden": 0,
    "description": "Complete levels 100-199",
    "icon": "https://steamcdn-a.akamaihd.net/steamcommunity/public/images/apps/1194830/e267549e42bd382f0e1fdca0f77636e7ddcad8f1.jpg",
    "icongray": "https://steamcdn-a.akamaihd.net/steamcommunity/public/images/apps/1194830/06d766c362916b34bbeb74ccad7b9a5ca7c173c5.jpg"
  },
  {
    "name": "LEVEL_300",
    "defaultvalue": 0,
    "displayName": "Raiders of the Lost Temple",
    "hidden": 0,
    "description": "Complete levels 200-299",
    "icon": "https://steamcdn-a.akamaihd.net/steamcommunity/public/images/apps/1194830/043b306217eaef88c3fec47764b0b22f54e237fa.jpg",
    "icongray": "https://steamcdn-a.akamaihd.net/steamcommunity/public/images/apps/1194830/3d0f741ae0e483ca2c4ba097f429f45c3dc4c103.jpg"
  },
  {
    "name": "LEVEL_400",
    "defaultvalue": 0,
    "displayName": "Mined Out",
    "hidden": 0,
    "description": "Completed levels 300-399",
    "icon": "https://steamcdn-a.akamaihd.net/steamcommunity/public/images/apps/1194830/e19da19a71979a2021f3257ce4e925554b9b7544.jpg",
    "icongray": "https://steamcdn-a.akamaihd.net/steamcommunity/public/images/apps/1194830/f39e1ee98d8913f7f9d48cc458400c905d56985e.jpg"
  },
  {
    "name": "LEVEL_500",
    "defaultvalue": 0,
    "displayName": "Magical Dominance",
    "hidden": 0,
    "description": "Completed levels 400-499",
    "icon": "https://steamcdn-a.akamaihd.net/steamcommunity/public/images/apps/1194830/75a6a36d2dcf4b176461deb8ebd0c0fd67fcd52c.jpg",
    "icongray": "https://steamcdn-a.akamaihd.net/steamcommunity/public/images/apps/1194830/05e58d44821a468001d2b27e3e29cd800e099548.jpg"
  },
  {
    "name": "LEVEL_600",
    "defaultvalue": 0,
    "displayName": "Burning Inferno",
    "hidden": 0,
    "description": "Completed levels 500-599",
    "icon": "https://steamcdn-a.akamaihd.net/steamcommunity/public/images/apps/1194830/a89a04a55cc0ca6260fae6b9f209b380d8fdb719.jpg",
    "icongray": "https://steamcdn-a.akamaihd.net/steamcommunity/public/images/apps/1194830/ec77f0e1fb667df92dff273219713a79295a3fe5.jpg"
  },
  {
    "name": "LEVEL_700",
    "defaultvalue": 0,
    "displayName": "Gravedigger",
    "hidden": 0,
    "description": "Completed levels 600-699",
    "icon": "https://steamcdn-a.akamaihd.net/steamcommunity/public/images/apps/1194830/77ec31a21112cac5df4a7c1579f45fa647b9c6f2.jpg",
    "icongray": "https://steamcdn-a.akamaihd.net/steamcommunity/public/images/apps/1194830/91742f0b4c228666308f47132d704ed68c0688dc.jpg"
  },
  {
    "name": "LEVEL_800",
    "defaultvalue": 0,
    "displayName": "Frozen Wasteland",
    "hidden": 0,
    "description": "Completed levels 700-799",
    "icon": "https://steamcdn-a.akamaihd.net/steamcommunity/public/images/apps/1194830/460b8add5cc4f6b497295f486c62d448a40b0d4c.jpg",
    "icongray": "https://steamcdn-a.akamaihd.net/steamcommunity/public/images/apps/1194830/43ee0f9597b4e2e1875e6d702f81db79395d515e.jpg"
  },
  {
    "name": "LEVEL_900",
    "defaultvalue": 0,
    "displayName": "Rocky Limits",
    "hidden": 0,
    "description": "Completed levels 800-899",
    "icon": "https://steamcdn-a.akamaihd.net/steamcommunity/public/images/apps/1194830/a144d0bc46c31a87676f99e7ad8ae39bf796be54.jpg",
    "icongray": "https://steamcdn-a.akamaihd.net/steamcommunity/public/images/apps/1194830/ced801112c9962ae4023dbd1e025c40902a333ba.jpg"
  },
  {
    "name": "LEVEL_1000",
    "defaultvalue": 0,
    "displayName": "Out of Time",
    "hidden": 0,
    "description": "Completed levels 900-999",
    "icon": "https://steamcdn-a.akamaihd.net/steamcommunity/public/images/apps/1194830/28dd484a73ea6ca9c5c500e973829421553299eb.jpg",
    "icongray": "https://steamcdn-a.akamaihd.net/steamcommunity/public/images/apps/1194830/60d2cc6633fea8ddffb7a3b4e52c1f30a8a02062.jpg"
  },
  {
    "name": "TUTORIAL_COMPLETE",
    "defaultvalue": 0,
    "displayName": "Knowledge is Power",
    "hidden": 0,
    "description": "Complete all tutorial sequences",
    "icon": "https://steamcdn-a.akamaihd.net/steamcommunity/public/images/apps/1194830/e544ffa0260adcafb772b4e00cf39cca874e7974.jpg",
    "icongray": "https://steamcdn-a.akamaihd.net/steamcommunity/public/images/apps/1194830/a36ec1ac1d077f507b88bc253ced0e68f87bd6f7.jpg"
  },
  {
    "name": "FIRST_CHEST",
    "defaultvalue": 0,
    "displayName": "Treasure Seeker",
    "hidden": 0,
    "description": "Open your first chest",
    "icon": "https://steamcdn-a.akamaihd.net/steamcommunity/public/images/apps/1194830/fc79b3e056cc1f985fa8ab8ab8556be259aad040.jpg",
    "icongray": "https://steamcdn-a.akamaihd.net/steamcommunity/public/images/apps/1194830/cad3cd2bcd1dffd7e287bc2ec3e54fe8b0241fa7.jpg"
  },
  {
    "name": "ALL_BULLSEYES",
    "defaultvalue": 0,
    "displayName": "Marksman",
    "hidden": 0,
    "description": "Get bullseyes on all targets in an arrow level",
    "icon": "https://steamcdn-a.akamaihd.net/steamcommunity/public/images/apps/1194830/038ea1c075c84a94c75db06181461029f35965fb.jpg",
    "icongray": "https://steamcdn-a.akamaihd.net/steamcommunity/public/images/apps/1194830/6a50e82f2c83ac69c53c4da94b6e052825128510.jpg"
  },
  {
    "name": "COPPER",
    "defaultvalue": 0,
    "displayName": "Poor Mans Bounty ",
    "hidden": 0,
    "description": "Get your first copper",
    "icon": "https://steamcdn-a.akamaihd.net/steamcommunity/public/images/apps/1194830/a4b1caa4df65123cb7dea5873fbf6a996e7cb50d.jpg",
    "icongray": "https://steamcdn-a.akamaihd.net/steamcommunity/public/images/apps/1194830/f586da2caf0c64e38b9b297eac1795429ac8a09f.jpg"
  },
  {
    "name": "SILVER",
    "defaultvalue": 0,
    "displayName": "Polished Piece",
    "hidden": 0,
    "description": "Get your first silver",
    "icon": "https://steamcdn-a.akamaihd.net/steamcommunity/public/images/apps/1194830/bdcaaad9e2717946e742e911646453db4945fabd.jpg",
    "icongray": "https://steamcdn-a.akamaihd.net/steamcommunity/public/images/apps/1194830/4f33dbe2688327c471df7650445941d19acd25e3.jpg"
  },
  {
    "name": "GOLD",
    "defaultvalue": 0,
    "displayName": "Bite to test it",
    "hidden": 0,
    "description": "Get your fist gold",
    "icon": "https://steamcdn-a.akamaihd.net/steamcommunity/public/images/apps/1194830/870b395a0d990a18f49a5244688d7e9cf59e6ce2.jpg",
    "icongray": "https://steamcdn-a.akamaihd.net/steamcommunity/public/images/apps/1194830/aca42ced88081cc800bdb9d2eb20adf1fa59c50c.jpg"
  },
  {
    "name": "PLATINUM",
    "defaultvalue": 0,
    "displayName": "Prosperous Warrior",
    "hidden": 0,
    "description": "Get your first platinum",
    "icon": "https://steamcdn-a.akamaihd.net/steamcommunity/public/images/apps/1194830/07e9827fa26869ef9041fb150a64bd9522288302.jpg",
    "icongray": "https://steamcdn-a.akamaihd.net/steamcommunity/public/images/apps/1194830/879a31a62bc2fa6f2c2e92aac69980aa367dd13e.jpg"
  },
  {
    "name": "100_PLAT",
    "defaultvalue": 0,
    "displayName": "Stinking Rich ",
    "hidden": 0,
    "description": "Get 100 platinum",
    "icon": "https://steamcdn-a.akamaihd.net/steamcommunity/public/images/apps/1194830/239d615e954984dd8a485b932d8876c1e9af1ef2.jpg",
    "icongray": "https://steamcdn-a.akamaihd.net/steamcommunity/public/images/apps/1194830/65fb06d67a29a1a04fa1436ecc58b28cf346f6a8.jpg"
  },
  {
    "name": "SMITHING_BOOK_1",
    "defaultvalue": 0,
    "displayName": "Beginner Smithing",
    "hidden": 0,
    "description": "Get the first smithing book",
    "icon": "https://steamcdn-a.akamaihd.net/steamcommunity/public/images/apps/1194830/8ec6bf1a63700f6c102a877695730ae4c196c889.jpg",
    "icongray": "https://steamcdn-a.akamaihd.net/steamcommunity/public/images/apps/1194830/5ecbfa80232d5d5a7bd6f30e13ef6ee766bb40a4.jpg"
  },
  {
    "name": "SMITHING_BOOK_2",
    "defaultvalue": 0,
    "displayName": "Intermediate Smithing",
    "hidden": 0,
    "description": "Get the second smithing book",
    "icon": "https://steamcdn-a.akamaihd.net/steamcommunity/public/images/apps/1194830/80f0fd7cf867e1acff8558b4859ab0850f572b81.jpg",
    "icongray": "https://steamcdn-a.akamaihd.net/steamcommunity/public/images/apps/1194830/5ecbfa80232d5d5a7bd6f30e13ef6ee766bb40a4.jpg"
  },
  {
    "name": "SMITHING_BOOK_3",
    "defaultvalue": 0,
    "displayName": "Advanced Smithing",
    "hidden": 0,
    "description": "Get the third smithing book",
    "icon": "https://steamcdn-a.akamaihd.net/steamcommunity/public/images/apps/1194830/704a7e3aefa7d0224154bc8185bdf77b256ee2be.jpg",
    "icongray": "https://steamcdn-a.akamaihd.net/steamcommunity/public/images/apps/1194830/5ecbfa80232d5d5a7bd6f30e13ef6ee766bb40a4.jpg"
  },
  {
    "name": "SMITHING_BOOK_4",
    "defaultvalue": 0,
    "displayName": "Master Smithing",
    "hidden": 0,
    "description": "Get the fourth smithing book",
    "icon": "https://steamcdn-a.akamaihd.net/steamcommunity/public/images/apps/1194830/264db51363cb313c106149aa4cfdbfe493a547f0.jpg",
    "icongray": "https://steamcdn-a.akamaihd.net/steamcommunity/public/images/apps/1194830/5ecbfa80232d5d5a7bd6f30e13ef6ee766bb40a4.jpg"
  },
  {
    "name": "TITLE_1",
    "defaultvalue": 0,
    "displayName": "Amateur Bladesmith",
    "hidden": 0,
    "description": "Achieve the title of Amateur Bladesmith",
    "icon": "https://steamcdn-a.akamaihd.net/steamcommunity/public/images/apps/1194830/3e9d4d583c9af3abace48cc6e300ac3162aac203.jpg",
    "icongray": "https://steamcdn-a.akamaihd.net/steamcommunity/public/images/apps/1194830/d18fb73072d85c1662e13fcadb1a03ad1816f248.jpg"
  },
  {
    "name": "TITLE_2",
    "defaultvalue": 0,
    "displayName": "Novice Bladesmith",
    "hidden": 0,
    "description": "Achieve the title of Novice Bladesmith",
    "icon": "https://steamcdn-a.akamaihd.net/steamcommunity/public/images/apps/1194830/11da951ac2534571a1edc1d81f0b03ccbb086d8c.jpg",
    "icongray": "https://steamcdn-a.akamaihd.net/steamcommunity/public/images/apps/1194830/d18fb73072d85c1662e13fcadb1a03ad1816f248.jpg"
  },
  {
    "name": "TITLE_3",
    "defaultvalue": 0,
    "displayName": "Apprentice Bladesmith",
    "hidden": 0,
    "description": "Achieve the title of Apprentice Bladesmith",
    "icon": "https://steamcdn-a.akamaihd.net/steamcommunity/public/images/apps/1194830/054d0953ebe063aad5daa1613f2ac031fcd1d298.jpg",
    "icongray": "https://steamcdn-a.akamaihd.net/steamcommunity/public/images/apps/1194830/d18fb73072d85c1662e13fcadb1a03ad1816f248.jpg"
  },
  {
    "name": "TITLE_4",
    "defaultvalue": 0,
    "displayName": "Seasoned Bladesmith",
    "hidden": 0,
    "description": "Achieve the title of Seasoned Bladesmith",
    "icon": "https://steamcdn-a.akamaihd.net/steamcommunity/public/images/apps/1194830/8616df9856c8914dfe50b2dd6144f9254a65f008.jpg",
    "icongray": "https://steamcdn-a.akamaihd.net/steamcommunity/public/images/apps/1194830/d18fb73072d85c1662e13fcadb1a03ad1816f248.jpg"
  },
  {
    "name": "TITLE_5",
    "defaultvalue": 0,
    "displayName": "Veteran Bladesmith",
    "hidden": 0,
    "description": "Achieved the title of Veteran Bladesmith",
    "icon": "https://steamcdn-a.akamaihd.net/steamcommunity/public/images/apps/1194830/5df785ba0b88318687ebe2e0c952c6965679996a.jpg",
    "icongray": "https://steamcdn-a.akamaihd.net/steamcommunity/public/images/apps/1194830/d18fb73072d85c1662e13fcadb1a03ad1816f248.jpg"
  },
  {
    "name": "TITLE_6",
    "defaultvalue": 0,
    "displayName": "Expert Bladesmith",
    "hidden": 0,
    "description": "Achieve the title of Expert Bladesmith",
    "icon": "https://steamcdn-a.akamaihd.net/steamcommunity/public/images/apps/1194830/fdb12b17444df0e3c25a180d624ad2e8ade2c1ee.jpg",
    "icongray": "https://steamcdn-a.akamaihd.net/steamcommunity/public/images/apps/1194830/d18fb73072d85c1662e13fcadb1a03ad1816f248.jpg"
  },
  {
    "name": "TITLE_7",
    "defaultvalue": 0,
    "displayName": "Master Bladesmith",
    "hidden": 0,
    "description": "Achieve the title of Master Bladesmith",
    "icon": "https://steamcdn-a.akamaihd.net/steamcommunity/public/images/apps/1194830/79cc53d5cf7883b759cd0e280aefbf5f5839c05f.jpg",
    "icongray": "https://steamcdn-a.akamaihd.net/steamcommunity/public/images/apps/1194830/d18fb73072d85c1662e13fcadb1a03ad1816f248.jpg"
  },
  {
    "name": "TITLE_8",
    "defaultvalue": 0,
    "displayName": "Grandmaster Bladesmith",
    "hidden": 0,
    "description": "Achieve the title of Grandmaster Bladesmith",
    "icon": "https://steamcdn-a.akamaihd.net/steamcommunity/public/images/apps/1194830/d336ce43ca671058152a0b2309b4b179a7bd0dec.jpg",
    "icongray": "https://steamcdn-a.akamaihd.net/steamcommunity/public/images/apps/1194830/d18fb73072d85c1662e13fcadb1a03ad1816f248.jpg"
  },
  {
    "name": "TITLE_9",
    "defaultvalue": 0,
    "displayName": "Legendary Bladesmith",
    "hidden": 0,
    "description": "Achieve the title of Legendary Bladesmith",
    "icon": "https://steamcdn-a.akamaihd.net/steamcommunity/public/images/apps/1194830/32d6989f5fef92f336b42fb1e410d71a7fdd0df8.jpg",
    "icongray": "https://steamcdn-a.akamaihd.net/steamcommunity/public/images/apps/1194830/d18fb73072d85c1662e13fcadb1a03ad1816f248.jpg"
  },
  {
    "name": "FLAWLESS",
    "defaultvalue": 0,
    "displayName": "Flawless",
    "hidden": 0,
    "description": "Complete 5 consecutive levels without taking damage",
    "icon": "https://steamcdn-a.akamaihd.net/steamcommunity/public/images/apps/1194830/a2a7f0ffe5fa8795729203f92a120852bd2064fc.jpg",
    "icongray": "https://steamcdn-a.akamaihd.net/steamcommunity/public/images/apps/1194830/85208d86fab16043100c9884b78d9fecff3f1fa8.jpg"
  },
  {
    "name": "EASTER_EGG_1",
    "defaultvalue": 0,
    "displayName": "Right at the Start",
    "hidden": 0,
    "description": "Find the first easter egg",
    "icon": "https://steamcdn-a.akamaihd.net/steamcommunity/public/images/apps/1194830/3d5754c3d2ded17cc6e7098271988f3e7dc0305e.jpg",
    "icongray": "https://steamcdn-a.akamaihd.net/steamcommunity/public/images/apps/1194830/b15b49b90c5d3e6221b3b5f4ffdb3fdb92cb3e68.jpg"
  },
  {
    "name": "EASTER_EGG_2",
    "defaultvalue": 0,
    "displayName": "Up High",
    "hidden": 0,
    "description": "Find the second easter egg",
    "icon": "https://steamcdn-a.akamaihd.net/steamcommunity/public/images/apps/1194830/ac5855d41f6bb2ebafa8981022a5b5ec839a9e40.jpg",
    "icongray": "https://steamcdn-a.akamaihd.net/steamcommunity/public/images/apps/1194830/b15b49b90c5d3e6221b3b5f4ffdb3fdb92cb3e68.jpg"
  },
  {
    "name": "EASTER_EGG_3",
    "defaultvalue": 0,
    "displayName": "Undisclosed Academic",
    "hidden": 0,
    "description": "Find the third easter egg",
    "icon": "https://steamcdn-a.akamaihd.net/steamcommunity/public/images/apps/1194830/1f53073196b7781128dbd4b161db03e8088062ac.jpg",
    "icongray": "https://steamcdn-a.akamaihd.net/steamcommunity/public/images/apps/1194830/b15b49b90c5d3e6221b3b5f4ffdb3fdb92cb3e68.jpg"
  },
  {
    "name": "EASTER_EGG_4",
    "defaultvalue": 0,
    "displayName": "Down Low",
    "hidden": 0,
    "description": "Find the fourth easter egg",
    "icon": "https://steamcdn-a.akamaihd.net/steamcommunity/public/images/apps/1194830/15a937ad3058b824e16e4e285678a128a70dee6f.jpg",
    "icongray": "https://steamcdn-a.akamaihd.net/steamcommunity/public/images/apps/1194830/b15b49b90c5d3e6221b3b5f4ffdb3fdb92cb3e68.jpg"
  }
]