{
  "Dlcs": {},
  "Name": "Hunter's Trial: The fight never ends",
  "AppId": "945850",
  "ImageUrl": "https://steamcdn-a.akamaihd.net/steam/apps/945850/header.jpg?t=1544615148",
  "Languages": [
    "english"
  ],
  "Platforms": {
    "windows": true,
    "mac": false,
    "linux": false
  }
}