{
  "Dlcs": {},
  "Name": "Drawngeon: Dungeons of Ink and Paper",
  "AppId": "1000470",
  "ImageUrl": "https://steamcdn-a.akamaihd.net/steam/apps/1000470/header.jpg?t=1561466739",
  "Languages": [
    "english",
    "russian",
    "french",
    "german",
    "spanish"
  ],
  "Platforms": {
    "windows": true,
    "mac": false,
    "linux": false
  }
}