{
  "Dlcs": {},
  "Name": "#Funtime",
  "AppId": "1100350",
  "ImageUrl": "https://steamcdn-a.akamaihd.net/steam/apps/1100350/header.jpg?t=1597688793",
  "Languages": [
    "english",
    "french",
    "italian",
    "german",
    "spanish",
    "czech",
    "danish",
    "dutch",
    "finnish",
    "hungarian",
    "japanese",
    "korean",
    "norwegian",
    "polish",
    "russian",
    "schinese",
    "swedish",
    "thai",
    "tchinese",
    "turkish",
    "portuguese"
  ],
  "Platforms": {
    "windows": true,
    "mac": true,
    "linux": true
  }
}