{
  "Dlcs": {},
  "Name": "CityBattle | Virtual Earth",
  "AppId": "611020",
  "ImageUrl": "https://steamcdn-a.akamaihd.net/steam/apps/611020/header.jpg?t=1576491848",
  "Languages": [
    "russian",
    "english"
  ],
  "Platforms": {
    "windows": true,
    "mac": false,
    "linux": false
  }
}