{
  "Dlcs": {},
  "Name": "N++ (NPLUSPLUS)",
  "AppId": "230270",
  "ImageUrl": "https://steamcdn-a.akamaihd.net/steam/apps/230270/header.jpg?t=1584895921",
  "Languages": [
    "english",
    "french",
    "italian",
    "german",
    "spanish",
    "japanese",
    "korean",
    "polish",
    "portuguese",
    "schinese",
    "latam",
    "tchinese"
  ],
  "Platforms": {
    "windows": true,
    "mac": true,
    "linux": true
  }
}