{
  "Dlcs": {},
  "Name": "Phaser",
  "AppId": "1320400",
  "ImageUrl": "https://steamcdn-a.akamaihd.net/steam/apps/1320400/header.jpg?t=1600456141",
  "Languages": [
    "english"
  ],
  "Platforms": {
    "windows": true,
    "mac": true,
    "linux": false
  }
}