{
  "Dlcs": {},
  "Name": "Thirty Flights of Loving",
  "AppId": "214700",
  "ImageUrl": "https://steamcdn-a.akamaihd.net/steam/apps/214700/header.jpg?t=1586734438",
  "Languages": [
    "english"
  ],
  "Platforms": {
    "windows": true,
    "mac": true,
    "linux": false
  }
}