{
  "Name": "Monster Musume : Japanese Audio with English Subtitles: Species 2: \"Everyday Life with Harpy and Centaur",
  "ImageUrl": "https://steamcdn-a.akamaihd.net/steam/apps/920880/header.jpg?t=1552516835",
  "Type": "episode"
}