{
  "Dlcs": {},
  "Name": "Space Drift Squad",
  "AppId": "825110",
  "ImageUrl": "https://steamcdn-a.akamaihd.net/steam/apps/825110/header.jpg?t=1533143071",
  "Languages": [
    "english",
    "portuguese"
  ],
  "Platforms": {
    "windows": true,
    "mac": false,
    "linux": false
  }
}