{
  "Dlcs": {},
  "Name": "These nights in Cairo",
  "AppId": "612100",
  "ImageUrl": "https://steamcdn-a.akamaihd.net/steam/apps/612100/header.jpg?t=1573285056",
  "Languages": [
    "english",
    "russian"
  ],
  "Platforms": {
    "windows": true,
    "mac": true,
    "linux": true
  }
}