﻿[
  {
    "name": "stat_1500",
    "defaultvalue": 0,
    "displayName": ""
  },
  {
    "name": "stat_1501",
    "defaultvalue": 0,
    "displayName": ""
  },
  {
    "name": "stat_1502",
    "defaultvalue": 0,
    "displayName": ""
  },
  {
    "name": "stat_1503",
    "defaultvalue": 0,
    "displayName": ""
  },
  {
    "name": "stat_1505",
    "defaultvalue": 0,
    "displayName": ""
  },
  {
    "name": "stat_1506",
    "defaultvalue": 0,
    "displayName": ""
  },
  {
    "name": "stat_1507",
    "defaultvalue": 0,
    "displayName": ""
  },
  {
    "name": "stat_1508",
    "defaultvalue": 0,
    "displayName": ""
  },
  {
    "name": "stat_1510",
    "defaultvalue": 0,
    "displayName": ""
  },
  {
    "name": "stat_1516",
    "defaultvalue": 0,
    "displayName": ""
  },
  {
    "name": "stat_1517",
    "defaultvalue": 0,
    "displayName": ""
  },
  {
    "name": "stat_1518",
    "defaultvalue": 0,
    "displayName": ""
  },
  {
    "name": "stat_1534",
    "defaultvalue": 0,
    "displayName": ""
  },
  {
    "name": "stat_1538",
    "defaultvalue": 0,
    "displayName": ""
  },
  {
    "name": "stat_1539",
    "defaultvalue": 0,
    "displayName": ""
  },
  {
    "name": "stat_1541",
    "defaultvalue": 0,
    "displayName": ""
  },
  {
    "name": "stat_1542",
    "defaultvalue": 0,
    "displayName": ""
  },
  {
    "name": "stat_1543",
    "defaultvalue": 0,
    "displayName": ""
  },
  {
    "name": "stat_1544",
    "defaultvalue": 0,
    "displayName": ""
  },
  {
    "name": "stat_1545",
    "defaultvalue": 0,
    "displayName": ""
  },
  {
    "name": "stat_1546",
    "defaultvalue": 0,
    "displayName": ""
  },
  {
    "name": "stat_1547",
    "defaultvalue": 0,
    "displayName": ""
  },
  {
    "name": "stat_1548",
    "defaultvalue": 0,
    "displayName": ""
  },
  {
    "name": "stat_1549",
    "defaultvalue": 0,
    "displayName": ""
  },
  {
    "name": "stat_1550",
    "defaultvalue": 0,
    "displayName": ""
  },
  {
    "name": "stat_1551",
    "defaultvalue": 0,
    "displayName": ""
  },
  {
    "name": "stat_1552",
    "defaultvalue": 0,
    "displayName": ""
  },
  {
    "name": "stat_1553",
    "defaultvalue": 0,
    "displayName": ""
  },
  {
    "name": "stat_1554",
    "defaultvalue": 0,
    "displayName": ""
  },
  {
    "name": "stat_1555",
    "defaultvalue": 0,
    "displayName": ""
  },
  {
    "name": "stat_1557",
    "defaultvalue": 0,
    "displayName": ""
  },
  {
    "name": "stat_1558",
    "defaultvalue": 0,
    "displayName": ""
  }
]