[
  {
    "name": "totalCoins",
    "defaultvalue": 0,
    "displayName": "Total Coins"
  },
  {
    "name": "song1Locked",
    "defaultvalue": 11000000,
    "displayName": ""
  },
  {
    "name": "song2Locked",
    "defaultvalue": 10000000,
    "displayName": ""
  },
  {
    "name": "song3Locked",
    "defaultvalue": 10000000,
    "displayName": ""
  },
  {
    "name": "song4Locked",
    "defaultvalue": 10000000,
    "displayName": ""
  },
  {
    "name": "song5Locked",
    "defaultvalue": 10000000,
    "displayName": ""
  },
  {
    "name": "song6Locked",
    "defaultvalue": 10000000,
    "displayName": ""
  },
  {
    "name": "song7Locked",
    "defaultvalue": 10000000,
    "displayName": ""
  },
  {
    "name": "song8Locked",
    "defaultvalue": 10000000,
    "displayName": ""
  },
  {
    "name": "song9Locked",
    "defaultvalue": 10000000,
    "displayName": ""
  },
  {
    "name": "song10Locked",
    "defaultvalue": 10000000,
    "displayName": ""
  },
  {
    "name": "song11Locked",
    "defaultvalue": 10000000,
    "displayName": ""
  },
  {
    "name": "song12Locked",
    "defaultvalue": 10000000,
    "displayName": ""
  },
  {
    "name": "song13Locked",
    "defaultvalue": 10000000,
    "displayName": ""
  },
  {
    "name": "song14Locked",
    "defaultvalue": 10000000,
    "displayName": ""
  },
  {
    "name": "song15Locked",
    "defaultvalue": 10000000,
    "displayName": ""
  },
  {
    "name": "musicVolume",
    "defaultvalue": 0,
    "displayName": ""
  },
  {
    "name": "effectsVolume",
    "defaultvalue": 0,
    "displayName": ""
  },
  {
    "name": "scoreVolume",
    "defaultvalue": 0,
    "displayName": ""
  },
  {
    "name": "totalCollectedCoins",
    "defaultvalue": 0,
    "displayName": ""
  },
  {
    "name": "mouseBlueBeats",
    "defaultvalue": 0,
    "displayName": ""
  },
  {
    "name": "mouseYellowBeats",
    "defaultvalue": 0,
    "displayName": ""
  },
  {
    "name": "mouseRedBeats",
    "defaultvalue": 0,
    "displayName": ""
  },
  {
    "name": "mousePurpleBeats",
    "defaultvalue": 0,
    "displayName": ""
  },
  {
    "name": "mouseOrangeBeats",
    "defaultvalue": 0,
    "displayName": ""
  },
  {
    "name": "mouseGreenBeats",
    "defaultvalue": 0,
    "displayName": ""
  },
  {
    "name": "arrowsLeft",
    "defaultvalue": 0,
    "displayName": ""
  },
  {
    "name": "arrowsUp",
    "defaultvalue": 0,
    "displayName": ""
  },
  {
    "name": "arrowsRight",
    "defaultvalue": 0,
    "displayName": ""
  },
  {
    "name": "arrowsDown",
    "defaultvalue": 0,
    "displayName": ""
  },
  {
    "name": "arrowsIgnite",
    "defaultvalue": 0,
    "displayName": ""
  },
  {
    "name": "number0",
    "defaultvalue": 0,
    "displayName": ""
  },
  {
    "name": "number1",
    "defaultvalue": 0,
    "displayName": ""
  },
  {
    "name": "number2",
    "defaultvalue": 0,
    "displayName": ""
  },
  {
    "name": "number3",
    "defaultvalue": 0,
    "displayName": ""
  },
  {
    "name": "number4",
    "defaultvalue": 0,
    "displayName": ""
  },
  {
    "name": "number5",
    "defaultvalue": 0,
    "displayName": ""
  },
  {
    "name": "number6",
    "defaultvalue": 0,
    "displayName": ""
  },
  {
    "name": "number7",
    "defaultvalue": 0,
    "displayName": ""
  },
  {
    "name": "number8",
    "defaultvalue": 0,
    "displayName": ""
  },
  {
    "name": "number9",
    "defaultvalue": 0,
    "displayName": ""
  },
  {
    "name": "cubeJump",
    "defaultvalue": 0,
    "displayName": ""
  },
  {
    "name": "cubeWall",
    "defaultvalue": 0,
    "displayName": ""
  },
  {
    "name": "cubeCollect",
    "defaultvalue": 0,
    "displayName": ""
  },
  {
    "name": "spaceCollect",
    "defaultvalue": 0,
    "displayName": ""
  },
  {
    "name": "wordsCollect",
    "defaultvalue": 0,
    "displayName": ""
  },
  {
    "name": "letterA",
    "defaultvalue": 0,
    "displayName": ""
  },
  {
    "name": "letterB",
    "defaultvalue": 0,
    "displayName": ""
  },
  {
    "name": "letterC",
    "defaultvalue": 0,
    "displayName": ""
  },
  {
    "name": "letterD",
    "defaultvalue": 0,
    "displayName": ""
  },
  {
    "name": "letterE",
    "defaultvalue": 0,
    "displayName": ""
  },
  {
    "name": "letterF",
    "defaultvalue": 0,
    "displayName": ""
  },
  {
    "name": "letterG",
    "defaultvalue": 0,
    "displayName": ""
  },
  {
    "name": "letterH",
    "defaultvalue": 0,
    "displayName": ""
  },
  {
    "name": "letterI",
    "defaultvalue": 0,
    "displayName": ""
  },
  {
    "name": "letterJ",
    "defaultvalue": 0,
    "displayName": ""
  },
  {
    "name": "letterK",
    "defaultvalue": 0,
    "displayName": ""
  },
  {
    "name": "letterL",
    "defaultvalue": 0,
    "displayName": ""
  },
  {
    "name": "letterM",
    "defaultvalue": 0,
    "displayName": ""
  },
  {
    "name": "letterN",
    "defaultvalue": 0,
    "displayName": ""
  },
  {
    "name": "letterO",
    "defaultvalue": 0,
    "displayName": ""
  },
  {
    "name": "letterP",
    "defaultvalue": 0,
    "displayName": ""
  },
  {
    "name": "letterQ",
    "defaultvalue": 0,
    "displayName": ""
  },
  {
    "name": "letterR",
    "defaultvalue": 0,
    "displayName": ""
  },
  {
    "name": "letterS",
    "defaultvalue": 0,
    "displayName": ""
  },
  {
    "name": "letterT",
    "defaultvalue": 0,
    "displayName": ""
  },
  {
    "name": "letterU",
    "defaultvalue": 0,
    "displayName": ""
  },
  {
    "name": "letterV",
    "defaultvalue": 0,
    "displayName": ""
  },
  {
    "name": "letterW",
    "defaultvalue": 0,
    "displayName": ""
  },
  {
    "name": "letterX",
    "defaultvalue": 0,
    "displayName": ""
  },
  {
    "name": "letterY",
    "defaultvalue": 0,
    "displayName": ""
  },
  {
    "name": "letterZ",
    "defaultvalue": 0,
    "displayName": ""
  },
  {
    "name": "currentGameVersion",
    "defaultvalue": 0,
    "displayName": ""
  },
  {
    "name": "achievementsOn",
    "defaultvalue": 1,
    "displayName": ""
  },
  {
    "name": "backgroundEffectsOn",
    "defaultvalue": 1,
    "displayName": ""
  },
  {
    "name": "leaderboardsOn",
    "defaultvalue": 1,
    "displayName": ""
  },
  {
    "name": "isArrowsTutorial",
    "defaultvalue": 0,
    "displayName": ""
  },
  {
    "name": "isMouseTutorial",
    "defaultvalue": 0,
    "displayName": ""
  },
  {
    "name": "isNumbersTutorial",
    "defaultvalue": 0,
    "displayName": ""
  },
  {
    "name": "isAlphabetTutorial",
    "defaultvalue": 0,
    "displayName": ""
  },
  {
    "name": "isSpaceTutorial",
    "defaultvalue": 0,
    "displayName": ""
  },
  {
    "name": "isCubeTutorial",
    "defaultvalue": 0,
    "displayName": ""
  },
  {
    "name": "isWordsTutorial",
    "defaultvalue": 0,
    "displayName": ""
  },
  {
    "name": "AverageExperience",
    "defaultvalue": 0,
    "displayName": ""
  },
  {
    "name": "AverageCoins",
    "defaultvalue": 0,
    "displayName": ""
  },
  {
    "name": "AverageAccuracy",
    "defaultvalue": 0,
    "displayName": ""
  },
  {
    "name": "arrowPlays",
    "defaultvalue": 0,
    "displayName": ""
  },
  {
    "name": "mousePlays",
    "defaultvalue": 0,
    "displayName": ""
  },
  {
    "name": "numbersPlays",
    "defaultvalue": 0,
    "displayName": ""
  },
  {
    "name": "alphabetPlays",
    "defaultvalue": 0,
    "displayName": ""
  },
  {
    "name": "cubePlays",
    "defaultvalue": 0,
    "displayName": ""
  },
  {
    "name": "spacePlays",
    "defaultvalue": 0,
    "displayName": ""
  },
  {
    "name": "wordsPlays",
    "defaultvalue": 0,
    "displayName": ""
  },
  {
    "name": "unlockProgress",
    "defaultvalue": 1,
    "displayName": ""
  },
  {
    "name": "totalPlays",
    "defaultvalue": 0,
    "displayName": ""
  },
  {
    "name": "level",
    "defaultvalue": 1,
    "displayName": ""
  },
  {
    "name": "experience",
    "defaultvalue": 0,
    "displayName": ""
  },
  {
    "name": "selectedIcon",
    "defaultvalue": 0,
    "displayName": ""
  },
  {
    "name": "totalAccuracy",
    "defaultvalue": 0,
    "displayName": ""
  },
  {
    "name": "experienceToNextLevel",
    "defaultvalue": 0,
    "displayName": ""
  }
]