{
  "Dlcs": {
    "1408180": {
      "Name": "Bounty Hunter: Stampede - Population Pack 1",
      "ImageUrl": "https://steamcdn-a.akamaihd.net/steam/apps/1408180/header.jpg?t=1599478302"
    },
    "1408181": {
      "Name": "Bounty Hunter: Stampede - Population Pack 2",
      "ImageUrl": "https://steamcdn-a.akamaihd.net/steam/apps/1408181/header.jpg?t=1599478299"
    },
    "1408182": {
      "Name": "Bounty Hunter: Stampede - Population Pack 3",
      "ImageUrl": "https://steamcdn-a.akamaihd.net/steam/apps/1408182/header.jpg?t=1599478334"
    },
    "1408183": {
      "Name": "Bounty Hunter: Stampede - Population Pack 4",
      "ImageUrl": "https://steamcdn-a.akamaihd.net/steam/apps/1408183/header.jpg?t=1599478350"
    },
    "1408184": {
      "Name": "Bounty Hunter: Stampede - Population Pack 5",
      "ImageUrl": "https://steamcdn-a.akamaihd.net/steam/apps/1408184/header.jpg?t=1599478317"
    },
    "1408185": {
      "Name": "Bounty Hunter: Stampede - Population Pack 6",
      "ImageUrl": "https://steamcdn-a.akamaihd.net/steam/apps/1408185/header.jpg?t=1599478312"
    },
    "1408186": {
      "Name": "Bounty Hunter: Stampede - Population Pack 7",
      "ImageUrl": "https://steamcdn-a.akamaihd.net/steam/apps/1408186/header.jpg?t=1599478384"
    },
    "1408187": {
      "Name": "Bounty Hunter: Stampede - Population Pack 8",
      "ImageUrl": "https://steamcdn-a.akamaihd.net/steam/apps/1408187/header.jpg?t=1599478326"
    },
    "1408188": {
      "Name": "Bounty Hunter: Stampede - Population Pack 9",
      "ImageUrl": "https://steamcdn-a.akamaihd.net/steam/apps/1408188/header.jpg?t=1599478332"
    },
    "1408189": {
      "Name": "Bounty Hunter: Stampede - Population Pack 10",
      "ImageUrl": "https://steamcdn-a.akamaihd.net/steam/apps/1408189/header.jpg?t=1599478346"
    }
  },
  "Name": "Bounty Hunter: Stampede",
  "AppId": "827900",
  "ImageUrl": "https://steamcdn-a.akamaihd.net/steam/apps/827900/header.jpg?t=1599479484",
  "Languages": [
    "english"
  ],
  "Platforms": {
    "windows": true,
    "mac": false,
    "linux": false
  }
}