﻿{
  "Dlcs": {},
  "Name": "Janus VR",
  "AppId": "602090",
  "ImageUrl": "https://steamcdn-a.akamaihd.net/steam/apps/602090/header.jpg?t=1581434541",
  "Languages": [
    "english"
  ],
  "Platforms": {
    "windows": true,
    "mac": false,
    "linux": true
  }
}