[
  {
    "name": "Cuento",
    "defaultvalue": 0,
    "displayName": "Cuento de Hadas",
    "hidden": 0,
    "description": "¡Comienza la Aventura!",
    "icon": "https://steamcdn-a.akamaihd.net/steamcommunity/public/images/apps/1149180/36f4f0300ba8b6867dd5635567550afcee892fdb.jpg",
    "icongray": "https://steamcdn-a.akamaihd.net/steamcommunity/public/images/apps/1149180/05ff1ab3d8ffc609a796051801403007ba8c3693.jpg"
  },
  {
    "name": "Cap2",
    "defaultvalue": 0,
    "displayName": "Mundos Conectados",
    "hidden": 0,
    "description": "Alcanzaste el capítulo 2",
    "icon": "https://steamcdn-a.akamaihd.net/steamcommunity/public/images/apps/1149180/eb138de09d0c919010d0df8a3ba9c9a334e72fde.jpg",
    "icongray": "https://steamcdn-a.akamaihd.net/steamcommunity/public/images/apps/1149180/b6ba21fe076ecb186dc60c7e61294106e26a49a0.jpg"
  },
  {
    "name": "City",
    "defaultvalue": 0,
    "displayName": "¡Bienvenido a la Ciudad!",
    "hidden": 0,
    "description": "Conoces la Ciudad de la Esperanza.",
    "icon": "https://steamcdn-a.akamaihd.net/steamcommunity/public/images/apps/1149180/d71619390fb54980debcccc2d6021392b87097a8.jpg",
    "icongray": "https://steamcdn-a.akamaihd.net/steamcommunity/public/images/apps/1149180/653e1d68c30e2ca13e194fd12a7f3abe8bf9ff1f.jpg"
  },
  {
    "name": "Wind",
    "defaultvalue": 0,
    "displayName": "Mi elemento es el Aire",
    "hidden": 0,
    "description": "Descubriste el Elemento principal de Thomas",
    "icon": "https://steamcdn-a.akamaihd.net/steamcommunity/public/images/apps/1149180/005dcc5b07c4546e5e26073a717923d59fa4a3c7.jpg",
    "icongray": "https://steamcdn-a.akamaihd.net/steamcommunity/public/images/apps/1149180/d6e740c26e10eaf23e852390e758a9104efd5948.jpg"
  },
  {
    "name": "level",
    "defaultvalue": 0,
    "displayName": "Aumenta mi poder",
    "hidden": 0,
    "description": "Alcanzaste el nivel 5 con Thomas",
    "icon": "https://steamcdn-a.akamaihd.net/steamcommunity/public/images/apps/1149180/9198ee0f333180389004193256e97c2763ceeffa.jpg",
    "icongray": "https://steamcdn-a.akamaihd.net/steamcommunity/public/images/apps/1149180/f0a2f5173e92fad6b362c5d132865b1f1215a771.jpg"
  },
  {
    "name": "CAP3",
    "defaultvalue": 0,
    "displayName": "Rebelión",
    "hidden": 0,
    "description": "Alcanzaste el capítulo 3 del juego.",
    "icon": "https://steamcdn-a.akamaihd.net/steamcommunity/public/images/apps/1149180/65d54f3a0f932aea4f9963ff68d37842fc7048f8.jpg",
    "icongray": "https://steamcdn-a.akamaihd.net/steamcommunity/public/images/apps/1149180/18e81c552151f85896cc9c72eb41e4d1be1db6a4.jpg"
  }
]