[
  {
    "name": "????? ? ????",
    "defaultvalue": 0,
    "displayName": "Вечер в хату!",
    "hidden": 0,
    "description": "Вечер в хату!",
    "icon": "https://steamcdn-a.akamaihd.net/steamcommunity/public/images/apps/873190/b70060e2d09a6b68b96d82ca3f6e0f620689f0af.jpg",
    "icongray": "https://steamcdn-a.akamaihd.net/steamcommunity/public/images/apps/873190/b70060e2d09a6b68b96d82ca3f6e0f620689f0af.jpg"
  },
  {
    "name": "NEW_ACHIEVEMENT_1_1",
    "defaultvalue": 0,
    "displayName": "Реальный пацан",
    "hidden": 0,
    "description": "Пройди игру",
    "icon": "https://steamcdn-a.akamaihd.net/steamcommunity/public/images/apps/873190/e81cce08ec2e10449bbdd4c908901ca49f2f529b.jpg",
    "icongray": "https://steamcdn-a.akamaihd.net/steamcommunity/public/images/apps/873190/e81cce08ec2e10449bbdd4c908901ca49f2f529b.jpg"
  },
  {
    "name": "NEW_ACHIEVEMENT_1_2",
    "defaultvalue": 0,
    "displayName": "Авторитет",
    "hidden": 0,
    "description": "Пройди игру",
    "icon": "https://steamcdn-a.akamaihd.net/steamcommunity/public/images/apps/873190/d61e7d1c7c859dbff2b90deaa11878c8cdc53e69.jpg",
    "icongray": "https://steamcdn-a.akamaihd.net/steamcommunity/public/images/apps/873190/d61e7d1c7c859dbff2b90deaa11878c8cdc53e69.jpg"
  },
  {
    "name": "NEW_ACHIEVEMENT_1_3",
    "defaultvalue": 0,
    "displayName": "Сидевший",
    "hidden": 0,
    "description": "Пройди игру",
    "icon": "https://steamcdn-a.akamaihd.net/steamcommunity/public/images/apps/873190/bb8886e0f0023fe50a1e658a4e2b84546131d5f4.jpg",
    "icongray": "https://steamcdn-a.akamaihd.net/steamcommunity/public/images/apps/873190/bb8886e0f0023fe50a1e658a4e2b84546131d5f4.jpg"
  },
  {
    "name": "NEW_ACHIEVEMENT_1_4",
    "defaultvalue": 0,
    "displayName": "Дерзкий как пуля резкий",
    "hidden": 0,
    "description": "Нахами псу",
    "icon": "https://steamcdn-a.akamaihd.net/steamcommunity/public/images/apps/873190/6158f60f8a75707f796e9b24ec4da5291effff6c.jpg",
    "icongray": "https://steamcdn-a.akamaihd.net/steamcommunity/public/images/apps/873190/6158f60f8a75707f796e9b24ec4da5291effff6c.jpg"
  },
  {
    "name": "NEW_ACHIEVEMENT_1_5",
    "defaultvalue": 0,
    "displayName": "Революционер, образованный",
    "hidden": 0,
    "description": "Революционер, образованный",
    "icon": "https://steamcdn-a.akamaihd.net/steamcommunity/public/images/apps/873190/9065754264846fb9cb3a0b07085119926eb9c7df.jpg",
    "icongray": "https://steamcdn-a.akamaihd.net/steamcommunity/public/images/apps/873190/9065754264846fb9cb3a0b07085119926eb9c7df.jpg"
  },
  {
    "name": "NEW_ACHIEVEMENT_1_7",
    "defaultvalue": 0,
    "displayName": "Чифир в сладость",
    "hidden": 0,
    "description": "Чифир в сладость",
    "icon": "https://steamcdn-a.akamaihd.net/steamcommunity/public/images/apps/873190/2066b24192220e538e1aff44258afb3bd6e7a030.jpg",
    "icongray": "https://steamcdn-a.akamaihd.net/steamcommunity/public/images/apps/873190/2066b24192220e538e1aff44258afb3bd6e7a030.jpg"
  },
  {
    "name": "NEW_ACHIEVEMENT_1_8",
    "defaultvalue": 0,
    "displayName": "Я гей и не скрываю это!",
    "hidden": 0,
    "description": "Открыто заяви о своих желаниях",
    "icon": "https://steamcdn-a.akamaihd.net/steamcommunity/public/images/apps/873190/9ed02ca20f34944034b374fe65db9c835cfd38ca.jpg",
    "icongray": "https://steamcdn-a.akamaihd.net/steamcommunity/public/images/apps/873190/9ed02ca20f34944034b374fe65db9c835cfd38ca.jpg"
  },
  {
    "name": "NEW_ACHIEVEMENT_1_9",
    "defaultvalue": 0,
    "displayName": "Петух закукарекал",
    "hidden": 0,
    "description": "Закукарекай как петух",
    "icon": "https://steamcdn-a.akamaihd.net/steamcommunity/public/images/apps/873190/005cb2adbf13dde573250552bb7fa52b9aba90e9.jpg",
    "icongray": "https://steamcdn-a.akamaihd.net/steamcommunity/public/images/apps/873190/005cb2adbf13dde573250552bb7fa52b9aba90e9.jpg"
  },
  {
    "name": "NEW_ACHIEVEMENT_1_10",
    "defaultvalue": 0,
    "displayName": "Блатной",
    "hidden": 0,
    "description": "Тебя посчитали блатным",
    "icon": "https://steamcdn-a.akamaihd.net/steamcommunity/public/images/apps/873190/daab161c63718343ee63c62454f1cc8931c4bff0.jpg",
    "icongray": "https://steamcdn-a.akamaihd.net/steamcommunity/public/images/apps/873190/daab161c63718343ee63c62454f1cc8931c4bff0.jpg"
  },
  {
    "name": "NEW_ACHIEVEMENT_1_11",
    "defaultvalue": 0,
    "displayName": "Дырявая ложка",
    "hidden": 0,
    "description": "Дырявая ложка",
    "icon": "https://steamcdn-a.akamaihd.net/steamcommunity/public/images/apps/873190/0c8b298d8fb064c74e380c16d0facc5bac8051cc.jpg",
    "icongray": "https://steamcdn-a.akamaihd.net/steamcommunity/public/images/apps/873190/0c8b298d8fb064c74e380c16d0facc5bac8051cc.jpg"
  },
  {
    "name": "NEW_ACHIEVEMENT_1_12",
    "defaultvalue": 0,
    "displayName": "Одноглазый",
    "hidden": 0,
    "description": "Одноглазый",
    "icon": "https://steamcdn-a.akamaihd.net/steamcommunity/public/images/apps/873190/9ee280950dde1650ac3f0e184a87f99c152c3828.jpg",
    "icongray": "https://steamcdn-a.akamaihd.net/steamcommunity/public/images/apps/873190/9ee280950dde1650ac3f0e184a87f99c152c3828.jpg"
  },
  {
    "name": "NEW_ACHIEVEMENT_1_13",
    "defaultvalue": 0,
    "displayName": "Есть два стула",
    "hidden": 0,
    "description": "Есть два стула",
    "icon": "https://steamcdn-a.akamaihd.net/steamcommunity/public/images/apps/873190/1d2184e503049a7887daa7555829bcacf3cae034.jpg",
    "icongray": "https://steamcdn-a.akamaihd.net/steamcommunity/public/images/apps/873190/1d2184e503049a7887daa7555829bcacf3cae034.jpg"
  },
  {
    "name": "NEW_ACHIEVEMENT_1_14",
    "defaultvalue": 0,
    "displayName": "Неудачный побег",
    "hidden": 0,
    "description": "Отсюда нет выхода",
    "icon": "https://steamcdn-a.akamaihd.net/steamcommunity/public/images/apps/873190/e4aed372d047c7428f1fafdb92d98214a5673b6d.jpg",
    "icongray": "https://steamcdn-a.akamaihd.net/steamcommunity/public/images/apps/873190/e4aed372d047c7428f1fafdb92d98214a5673b6d.jpg"
  }
]