{
  "Dlcs": {},
  "Name": "My Little Kitties",
  "AppId": "407320",
  "ImageUrl": "https://steamcdn-a.akamaihd.net/steam/apps/407320/header.jpg?t=1580428327",
  "Languages": [
    "english"
  ],
  "Platforms": {
    "windows": true,
    "mac": false,
    "linux": false
  }
}