{
  "Dlcs": {},
  "Name": "Pirates of First Star",
  "AppId": "1071740",
  "ImageUrl": "https://steamcdn-a.akamaihd.net/steam/apps/1071740/header.jpg?t=1561411906",
  "Languages": [
    "english"
  ],
  "Platforms": {
    "windows": true,
    "mac": false,
    "linux": false
  }
}