﻿{
  "Dlcs": {},
  "Name": "VRIQ",
  "AppId": "612050",
  "ImageUrl": "https://steamcdn-a.akamaihd.net/steam/apps/612050/header.jpg?t=1493834710",
  "Languages": [
    "english"
  ],
  "Platforms": {
    "windows": true,
    "mac": false,
    "linux": false
  }
}