{
  "Dlcs": {
    "864050": {
      "Name": "Sacred Stones OST",
      "ImageUrl": "https://steamcdn-a.akamaihd.net/steam/apps/864050/header.jpg?t=1532972063"
    }
  },
  "Name": "Sacred Stones",
  "AppId": "826040",
  "ImageUrl": "https://steamcdn-a.akamaihd.net/steam/apps/826040/header.jpg?t=1577084219",
  "Languages": [
    "english"
  ],
  "Platforms": {
    "windows": true,
    "mac": true,
    "linux": false
  }
}