{
  "Dlcs": {
    "689890": {
      "Name": "Qbike: Synthwave Soundtrack",
      "ImageUrl": "https://steamcdn-a.akamaihd.net/steam/apps/689890/header.jpg?t=1504525838"
    }
  },
  "Name": "Qbike: Cyberpunk Motorcycles",
  "AppId": "614970",
  "ImageUrl": "https://steamcdn-a.akamaihd.net/steam/apps/614970/header.jpg?t=1567096850",
  "Languages": [
    "english",
    "german",
    "spanish",
    "portuguese",
    "schinese",
    "russian",
    "czech",
    "korean",
    "french",
    "dutch"
  ],
  "Platforms": {
    "windows": true,
    "mac": false,
    "linux": false
  }
}