﻿{
  "Dlcs": {},
  "Name": "Starship EVO",
  "AppId": "711980",
  "ImageUrl": "https://steamcdn-a.akamaihd.net/steam/apps/711980/header.jpg?t=1593228566",
  "Languages": [
    "english"
  ],
  "Platforms": {
    "windows": true,
    "mac": false,
    "linux": false
  }
}