[
  {
    "name": "ACH_1",
    "defaultvalue": 0,
    "displayName": "Baby Steps",
    "hidden": 1,
    "icon": "https://steamcdn-a.akamaihd.net/steamcommunity/public/images/apps/859340/7daa79f5389a23297ff65440dcc562bed371ba04.jpg",
    "icongray": "https://steamcdn-a.akamaihd.net/steamcommunity/public/images/apps/859340/9a064b371ffd7e9e464ee5468471b903fce08008.jpg"
  },
  {
    "name": "ACH_2",
    "defaultvalue": 0,
    "displayName": "Mayday",
    "hidden": 1,
    "icon": "https://steamcdn-a.akamaihd.net/steamcommunity/public/images/apps/859340/6e86448780fc0f211b3c0f5598d4482db7415c5b.jpg",
    "icongray": "https://steamcdn-a.akamaihd.net/steamcommunity/public/images/apps/859340/1aab4e01f92c598e6c1c196de6a3bf7553f0dd7a.jpg"
  },
  {
    "name": "ACH_3",
    "defaultvalue": 0,
    "displayName": "Sorry, were you using that?",
    "hidden": 1,
    "icon": "https://steamcdn-a.akamaihd.net/steamcommunity/public/images/apps/859340/1c2d3b65461f3ee7bdce8b4eef99d1c04e2c5ed0.jpg",
    "icongray": "https://steamcdn-a.akamaihd.net/steamcommunity/public/images/apps/859340/1b5b33016f13e10db414d79a580a1f01acf4f942.jpg"
  },
  {
    "name": "ACH_4",
    "defaultvalue": 0,
    "displayName": "Dodged a Bullet",
    "hidden": 1,
    "icon": "https://steamcdn-a.akamaihd.net/steamcommunity/public/images/apps/859340/34f2c5b2497c4f759c6e11498076968d7b99f5c5.jpg",
    "icongray": "https://steamcdn-a.akamaihd.net/steamcommunity/public/images/apps/859340/e5a5011957f4ba5a6c1d18ec2ef32c1986025690.jpg"
  },
  {
    "name": "ACH_5",
    "defaultvalue": 0,
    "displayName": "The Source",
    "hidden": 1,
    "icon": "https://steamcdn-a.akamaihd.net/steamcommunity/public/images/apps/859340/44bfadb396fbb134996fe43ddacdb6a2477ba056.jpg",
    "icongray": "https://steamcdn-a.akamaihd.net/steamcommunity/public/images/apps/859340/656898e2e62dde80b68b5d173afe48291e9b5c52.jpg"
  },
  {
    "name": "ACH_6",
    "defaultvalue": 0,
    "displayName": "Coming of the Dawn",
    "hidden": 1,
    "icon": "https://steamcdn-a.akamaihd.net/steamcommunity/public/images/apps/859340/19ba026febbb811d507667f0f6b5fb8ee39a8a29.jpg",
    "icongray": "https://steamcdn-a.akamaihd.net/steamcommunity/public/images/apps/859340/6265ce7ff548f4c09396c0049c6fe54b57d72737.jpg"
  },
  {
    "name": "ACH_7",
    "defaultvalue": 0,
    "displayName": "Well, crap",
    "hidden": 0,
    "description": "Throw poop at a friend.",
    "icon": "https://steamcdn-a.akamaihd.net/steamcommunity/public/images/apps/859340/084f55364ef2b3179ed6670c9e93ed7cb50d2fed.jpg",
    "icongray": "https://steamcdn-a.akamaihd.net/steamcommunity/public/images/apps/859340/13de39571e3d1be874e29b9b0b0d258aa1ec8d1d.jpg"
  },
  {
    "name": "ACH_8",
    "defaultvalue": 0,
    "displayName": "Called in the cavalry",
    "hidden": 0,
    "description": "Kill a boss in multiplayer mode.",
    "icon": "https://steamcdn-a.akamaihd.net/steamcommunity/public/images/apps/859340/86774e097e6b99e98890df784058239b7a66b1a5.jpg",
    "icongray": "https://steamcdn-a.akamaihd.net/steamcommunity/public/images/apps/859340/402a485567e71e33235799bb492ba39998e3885d.jpg"
  },
  {
    "name": "ACH_9",
    "defaultvalue": 0,
    "displayName": "Who's your Daddy",
    "hidden": 0,
    "description": "Open the in-game console...",
    "icon": "https://steamcdn-a.akamaihd.net/steamcommunity/public/images/apps/859340/d1deb52c1a2e776f1782424f2531d25ede748327.jpg",
    "icongray": "https://steamcdn-a.akamaihd.net/steamcommunity/public/images/apps/859340/6416a28a2efc8ee7fd8313c217b41ab67d84fe57.jpg"
  },
  {
    "name": "ACH_10",
    "defaultvalue": 0,
    "displayName": "Copper Key",
    "hidden": 1,
    "icon": "https://steamcdn-a.akamaihd.net/steamcommunity/public/images/apps/859340/7c63917f172ed6066d4a7544bd8966c95757ce8e.jpg",
    "icongray": "https://steamcdn-a.akamaihd.net/steamcommunity/public/images/apps/859340/6a62a7a77b1ed2ceb6c94e886dee131962a98360.jpg"
  },
  {
    "name": "ACH_11",
    "defaultvalue": 0,
    "displayName": "Jade Key",
    "hidden": 1,
    "icon": "https://steamcdn-a.akamaihd.net/steamcommunity/public/images/apps/859340/7c63917f172ed6066d4a7544bd8966c95757ce8e.jpg",
    "icongray": "https://steamcdn-a.akamaihd.net/steamcommunity/public/images/apps/859340/6a62a7a77b1ed2ceb6c94e886dee131962a98360.jpg"
  },
  {
    "name": "ACH_12",
    "defaultvalue": 0,
    "displayName": "Crystal Key",
    "hidden": 1,
    "icon": "https://steamcdn-a.akamaihd.net/steamcommunity/public/images/apps/859340/7c63917f172ed6066d4a7544bd8966c95757ce8e.jpg",
    "icongray": "https://steamcdn-a.akamaihd.net/steamcommunity/public/images/apps/859340/6a62a7a77b1ed2ceb6c94e886dee131962a98360.jpg"
  },
  {
    "name": "ACH_13",
    "defaultvalue": 0,
    "displayName": "Gotta Catch ‘Em All",
    "hidden": 1,
    "icon": "https://steamcdn-a.akamaihd.net/steamcommunity/public/images/apps/859340/d2fd93120971f5c0ddfd17a731ac226cfb8621a4.jpg",
    "icongray": "https://steamcdn-a.akamaihd.net/steamcommunity/public/images/apps/859340/e6d43e7ead5d84013b209bfa84e5e909a89d034d.jpg"
  },
  {
    "name": "ACH_14",
    "defaultvalue": 0,
    "displayName": "Just a power nap",
    "hidden": 1,
    "icon": "https://steamcdn-a.akamaihd.net/steamcommunity/public/images/apps/859340/fcabd3d2de0e44b6d824e949a9fa5361c66fd9cf.jpg",
    "icongray": "https://steamcdn-a.akamaihd.net/steamcommunity/public/images/apps/859340/b0f082f96eef4723cded457e87d279d0c77df26f.jpg"
  },
  {
    "name": "ACH_15",
    "defaultvalue": 0,
    "displayName": "Weaponsmith",
    "hidden": 0,
    "description": "Craft all the weapons.",
    "icon": "https://steamcdn-a.akamaihd.net/steamcommunity/public/images/apps/859340/1c1a484045d66e8f7686232b25a4a927967585e2.jpg",
    "icongray": "https://steamcdn-a.akamaihd.net/steamcommunity/public/images/apps/859340/b12d0bf4a6d2dd27dc10fbf1a7eb0a7b1bb348c9.jpg"
  },
  {
    "name": "ACH_16",
    "defaultvalue": 0,
    "displayName": "Pooper Scooper",
    "hidden": 0,
    "description": "Pick up the poop.",
    "icon": "https://steamcdn-a.akamaihd.net/steamcommunity/public/images/apps/859340/b041dffd0038025a12f3eac13d5e4506a6643284.jpg",
    "icongray": "https://steamcdn-a.akamaihd.net/steamcommunity/public/images/apps/859340/204c7d08a8f33e3967b5dc1006be07864713c643.jpg"
  },
  {
    "name": "ACH_17",
    "defaultvalue": 0,
    "displayName": "Sharpshooter",
    "hidden": 0,
    "description": "Kill an enemy with a critical hit at 30m away...",
    "icon": "https://steamcdn-a.akamaihd.net/steamcommunity/public/images/apps/859340/d8d47f060262aa3484e4f1edd8d7438196f01732.jpg",
    "icongray": "https://steamcdn-a.akamaihd.net/steamcommunity/public/images/apps/859340/c37aa877e19b55032555315515a3971177a33bde.jpg"
  },
  {
    "name": "ACH_18",
    "defaultvalue": 0,
    "displayName": "Overcompensating",
    "hidden": 0,
    "description": "Have 10 turrets operational at once.",
    "icon": "https://steamcdn-a.akamaihd.net/steamcommunity/public/images/apps/859340/7aa72dfe4cb880434d053972acc107e39d52ead2.jpg",
    "icongray": "https://steamcdn-a.akamaihd.net/steamcommunity/public/images/apps/859340/4fb78638b90b9e30fba3756a9f3d3d72dba748ee.jpg"
  },
  {
    "name": "ACH_19",
    "defaultvalue": 0,
    "displayName": "Glutton",
    "hidden": 0,
    "description": "Eat a hamburger when your satiety level is at 100%.",
    "icon": "https://steamcdn-a.akamaihd.net/steamcommunity/public/images/apps/859340/3f5245de263c5dc5ffea21bdb669a47e7632a5f5.jpg",
    "icongray": "https://steamcdn-a.akamaihd.net/steamcommunity/public/images/apps/859340/087a25ceb803dba1583edcc875f10fdcee34a5d1.jpg"
  },
  {
    "name": "ACH_20",
    "defaultvalue": 0,
    "displayName": "Survivalist",
    "hidden": 0,
    "description": "Have 2500 of any ammunition type in your inventory.",
    "icon": "https://steamcdn-a.akamaihd.net/steamcommunity/public/images/apps/859340/b13a9ab3ff4ea03d5c6f109a2e33b38219b28859.jpg",
    "icongray": "https://steamcdn-a.akamaihd.net/steamcommunity/public/images/apps/859340/138e13ec51f0dd3e41201a40f9ef06cd5fe7a390.jpg"
  },
  {
    "name": "ACH_21",
    "defaultvalue": 0,
    "displayName": "Tough Guy",
    "hidden": 0,
    "description": "Obtain full set of second level armor.",
    "icon": "https://steamcdn-a.akamaihd.net/steamcommunity/public/images/apps/859340/7bc80f1f4f1b49d544d5f3d83d15e58c96b270e5.jpg",
    "icongray": "https://steamcdn-a.akamaihd.net/steamcommunity/public/images/apps/859340/9e4db28151a1cb5841bc299d56a2cf28b4f11721.jpg"
  },
  {
    "name": "ACH_22",
    "defaultvalue": 0,
    "displayName": "Dragonfly slayer",
    "hidden": 0,
    "description": "Kill 30 dragonflies.",
    "icon": "https://steamcdn-a.akamaihd.net/steamcommunity/public/images/apps/859340/d3ff6a7205bf9b12214ccb2f48dfe2ba9a6b7d40.jpg",
    "icongray": "https://steamcdn-a.akamaihd.net/steamcommunity/public/images/apps/859340/2041f9b76dbaaab1bdbaf47d69abb8acb55b56b3.jpg"
  },
  {
    "name": "ACH_23",
    "defaultvalue": 0,
    "displayName": "Desperate measures",
    "hidden": 0,
    "description": "Use the Woodchucker to kill an enemy.",
    "icon": "https://steamcdn-a.akamaihd.net/steamcommunity/public/images/apps/859340/697f2d2bc082c0555ac00765b6f49c7eb684f1c2.jpg",
    "icongray": "https://steamcdn-a.akamaihd.net/steamcommunity/public/images/apps/859340/6b6d900b07ca59a64a9bd5aa8bb8e596d276c675.jpg"
  },
  {
    "name": "ACH_24",
    "defaultvalue": 0,
    "displayName": "True survivor",
    "hidden": 0,
    "description": "Clear the game without dying once.",
    "icon": "https://steamcdn-a.akamaihd.net/steamcommunity/public/images/apps/859340/efa56e802a322cffee3309f818fafbcdc04892f7.jpg",
    "icongray": "https://steamcdn-a.akamaihd.net/steamcommunity/public/images/apps/859340/3b3aa552e6ebc8fed51949680c6162d183151525.jpg"
  },
  {
    "name": "ACH_25",
    "defaultvalue": 0,
    "displayName": "Stand by me",
    "hidden": 1,
    "icon": "https://steamcdn-a.akamaihd.net/steamcommunity/public/images/apps/859340/26943cc8c023df5b40f4abbfdef97aa1ff69de4a.jpg",
    "icongray": "https://steamcdn-a.akamaihd.net/steamcommunity/public/images/apps/859340/8c52e5a823738f77126802c69857ec4e12573194.jpg"
  },
  {
    "name": "ACH_26",
    "defaultvalue": 0,
    "displayName": "The Last Jedi",
    "hidden": 1,
    "icon": "https://steamcdn-a.akamaihd.net/steamcommunity/public/images/apps/859340/f0901253072c2f793e72c1cdc2de018af29dd595.jpg",
    "icongray": "https://steamcdn-a.akamaihd.net/steamcommunity/public/images/apps/859340/e5380f00aa50ff6c64621f5af0051a07eb4c24d7.jpg"
  },
  {
    "name": "ACH_27",
    "defaultvalue": 0,
    "displayName": "Master Alliance",
    "hidden": 1,
    "icon": "https://steamcdn-a.akamaihd.net/steamcommunity/public/images/apps/859340/a3b065079308c05ea1a8da6d9b9042008bade2f8.jpg",
    "icongray": "https://steamcdn-a.akamaihd.net/steamcommunity/public/images/apps/859340/74a1bf30d8ef4f37021c554b0d63ff83185e6548.jpg"
  },
  {
    "name": "ACH_28",
    "defaultvalue": 0,
    "displayName": "Almighty",
    "hidden": 1,
    "icon": "https://steamcdn-a.akamaihd.net/steamcommunity/public/images/apps/859340/00fa9c7628f1528927ff5681505180e03fc48207.jpg",
    "icongray": "https://steamcdn-a.akamaihd.net/steamcommunity/public/images/apps/859340/9f00b3de9c672af3ca039a4d2802d53830354ba0.jpg"
  },
  {
    "name": "ACH_29",
    "defaultvalue": 0,
    "displayName": "Weaponsmith",
    "hidden": 1,
    "icon": "https://steamcdn-a.akamaihd.net/steamcommunity/public/images/apps/859340/721d0fc0b530f5a47256a7f8be08c0d9bb626731.jpg",
    "icongray": "https://steamcdn-a.akamaihd.net/steamcommunity/public/images/apps/859340/88f28ecd44ca5f50623540de5e2c92a95fe24a71.jpg"
  },
  {
    "name": "ACH_30",
    "defaultvalue": 0,
    "displayName": "Super Weaponsmith",
    "hidden": 1,
    "icon": "https://steamcdn-a.akamaihd.net/steamcommunity/public/images/apps/859340/a286b57e61e35ba8d5f6aab8be3799906344e14a.jpg",
    "icongray": "https://steamcdn-a.akamaihd.net/steamcommunity/public/images/apps/859340/7896154d1586d21436bdebc6006e4d7dc68b0cd8.jpg"
  },
  {
    "name": "ACH_31",
    "defaultvalue": 0,
    "displayName": "King of Weapon",
    "hidden": 1,
    "icon": "https://steamcdn-a.akamaihd.net/steamcommunity/public/images/apps/859340/0b6c37de67883f639983ffc3e29a995bc79b824e.jpg",
    "icongray": "https://steamcdn-a.akamaihd.net/steamcommunity/public/images/apps/859340/16a0fb2b8751a31588f3525def0587d7cd238d74.jpg"
  },
  {
    "name": "ACH_32",
    "defaultvalue": 0,
    "displayName": "Emperor of Weapon",
    "hidden": 1,
    "icon": "https://steamcdn-a.akamaihd.net/steamcommunity/public/images/apps/859340/14516c52b59f4bbb9a4981dc581a9fc72ef9be82.jpg",
    "icongray": "https://steamcdn-a.akamaihd.net/steamcommunity/public/images/apps/859340/5f6fd775b3ef59915bbeadf29a581a594b05cb01.jpg"
  },
  {
    "name": "ACH_33",
    "defaultvalue": 0,
    "displayName": "Flashing Bridge",
    "hidden": 1,
    "icon": "https://steamcdn-a.akamaihd.net/steamcommunity/public/images/apps/859340/1108633a3b558cad0d6cac7764b4c6ac1f8e592b.jpg",
    "icongray": "https://steamcdn-a.akamaihd.net/steamcommunity/public/images/apps/859340/ec9953de024be15713c1653395c0f8eedc461a6a.jpg"
  },
  {
    "name": "ACH_34",
    "defaultvalue": 0,
    "displayName": "The Climber",
    "hidden": 1,
    "icon": "https://steamcdn-a.akamaihd.net/steamcommunity/public/images/apps/859340/03cd3ec123d8f1862dcd6cda2f2224b1b68d5ca1.jpg",
    "icongray": "https://steamcdn-a.akamaihd.net/steamcommunity/public/images/apps/859340/51577d225156e94fdb7ee0b3e0ac32ce2a168474.jpg"
  },
  {
    "name": "ACH_35",
    "defaultvalue": 0,
    "displayName": "Be Calm",
    "hidden": 1,
    "icon": "https://steamcdn-a.akamaihd.net/steamcommunity/public/images/apps/859340/4a4c449f6a1aecefeed3aac837f8fb0b4695bb8a.jpg",
    "icongray": "https://steamcdn-a.akamaihd.net/steamcommunity/public/images/apps/859340/ddef4d23c2bf62104c6fec2e67f8cc44eca007a8.jpg"
  }
]