{
  "Dlcs": {},
  "Name": "East Tower - Kurenai (East Tower Series Vol. 4)",
  "AppId": "356560",
  "ImageUrl": "https://steamcdn-a.akamaihd.net/steam/apps/356560/header.jpg?t=1572083838",
  "Languages": [
    "english",
    "japanese",
    "german"
  ],
  "Platforms": {
    "windows": true,
    "mac": true,
    "linux": false
  }
}