{
  "Dlcs": {},
  "Name": "Ralf",
  "AppId": "958200",
  "ImageUrl": "https://steamcdn-a.akamaihd.net/steam/apps/958200/header.jpg?t=1553465895",
  "Languages": [
    "english"
  ],
  "Platforms": {
    "windows": true,
    "mac": false,
    "linux": false
  }
}