[
  {
    "name": "crossbow100",
    "defaultvalue": 0,
    "displayName": "100 Levels of Phantom Warriors",
    "hidden": 0,
    "description": "100 Levels of Phantom Warrios spell in a single life.",
    "icon": "https://steamcdn-a.akamaihd.net/steamcommunity/public/images/apps/1011510/fc611cfcec88ad1b8594faf152b320ac4b644311.jpg",
    "icongray": "https://steamcdn-a.akamaihd.net/steamcommunity/public/images/apps/1011510/f18c49b8fcf277e0b2a45bb056772da90a9acca9.jpg"
  },
  {
    "name": "AllLeftConjures",
    "defaultvalue": 0,
    "displayName": "Master Conjurer",
    "hidden": 0,
    "description": "All left side Conjurings completed.",
    "icon": "https://steamcdn-a.akamaihd.net/steamcommunity/public/images/apps/1011510/1069cb3bf72081f334da7c52ca4d15c91e56f42d.jpg",
    "icongray": "https://steamcdn-a.akamaihd.net/steamcommunity/public/images/apps/1011510/92f4f38be3f86847e7db5c9c94c5f626d8118d04.jpg"
  },
  {
    "name": "demonhorde",
    "defaultvalue": 0,
    "displayName": "Demon Horde",
    "hidden": 0,
    "description": "Have 500 demons",
    "icon": "https://steamcdn-a.akamaihd.net/steamcommunity/public/images/apps/1011510/eb50c25632c2efe33936605e9673cf2fdd6a82f2.jpg",
    "icongray": "https://steamcdn-a.akamaihd.net/steamcommunity/public/images/apps/1011510/f376ebc6c49bffc3519b75cbe29f13387055d0fc.jpg"
  },
  {
    "name": "demonhorde2",
    "defaultvalue": 0,
    "displayName": "Demon Horde II",
    "hidden": 0,
    "description": "Have 2000 demons",
    "icon": "https://steamcdn-a.akamaihd.net/steamcommunity/public/images/apps/1011510/d25b6296465c22c4ee62ae3662dda6583397a33e.jpg",
    "icongray": "https://steamcdn-a.akamaihd.net/steamcommunity/public/images/apps/1011510/f376ebc6c49bffc3519b75cbe29f13387055d0fc.jpg"
  },
  {
    "name": "temples95",
    "defaultvalue": 0,
    "displayName": "Max Temples",
    "hidden": 0,
    "description": "Have 95 temples built",
    "icon": "https://steamcdn-a.akamaihd.net/steamcommunity/public/images/apps/1011510/27313d3a8460d2fd62ff02b990dceb6bf217813e.jpg",
    "icongray": "https://steamcdn-a.akamaihd.net/steamcommunity/public/images/apps/1011510/42db8a06ed7d70f245907a71eeb118b68badba8b.jpg"
  },
  {
    "name": "demonrepro",
    "defaultvalue": 0,
    "displayName": "Demon Reproduction",
    "hidden": 1,
    "icon": "https://steamcdn-a.akamaihd.net/steamcommunity/public/images/apps/1011510/29b3d7611562ccb52317e4e1d847c137506b1696.jpg",
    "icongray": "https://steamcdn-a.akamaihd.net/steamcommunity/public/images/apps/1011510/8fbf6ede64a42b8989c63b6321773d0fbafae430.jpg"
  },
  {
    "name": "minionunlocked",
    "defaultvalue": 0,
    "displayName": "Made a Buddy",
    "hidden": 1,
    "icon": "https://steamcdn-a.akamaihd.net/steamcommunity/public/images/apps/1011510/20eac054bd3af72d9992b46049c1728143503ef4.jpg",
    "icongray": "https://steamcdn-a.akamaihd.net/steamcommunity/public/images/apps/1011510/39d4e357a9b40f5e04cf81df8526db5d4869ea5f.jpg"
  },
  {
    "name": "at1done",
    "defaultvalue": 0,
    "displayName": "Beat portal",
    "hidden": 1,
    "icon": "https://steamcdn-a.akamaihd.net/steamcommunity/public/images/apps/1011510/02c47ccb016838405618bed3d4da16f475327bf4.jpg",
    "icongray": "https://steamcdn-a.akamaihd.net/steamcommunity/public/images/apps/1011510/0f61b46daaef0293de6984a284741480e6ba63a5.jpg"
  },
  {
    "name": "firstmaxlegendary",
    "defaultvalue": 0,
    "displayName": "Maxed a legendary",
    "hidden": 0,
    "description": "Level 200 on any legendary item.",
    "icon": "https://steamcdn-a.akamaihd.net/steamcommunity/public/images/apps/1011510/24aa46bb726fa57e936fbea1d85e82f1354d16f9.jpg",
    "icongray": "https://steamcdn-a.akamaihd.net/steamcommunity/public/images/apps/1011510/1e82dc33b5ae256cfca6eebaf561a6ea3e18b0cd.jpg"
  },
  {
    "name": "allcrunchy",
    "defaultvalue": 0,
    "displayName": "All Crunchy",
    "hidden": 0,
    "description": "Get all the Crunchy Gear",
    "icon": "https://steamcdn-a.akamaihd.net/steamcommunity/public/images/apps/1011510/3c67416a616b4f7b0d9a28a4a6944a93b4884357.jpg",
    "icongray": "https://steamcdn-a.akamaihd.net/steamcommunity/public/images/apps/1011510/3b4cd3209ade01f495dd6b05e3469e7bdb2c84c2.jpg"
  },
  {
    "name": "craftingunlocked",
    "defaultvalue": 0,
    "displayName": "Crafting Unlocked",
    "hidden": 0,
    "description": "Reached stage 140",
    "icon": "https://steamcdn-a.akamaihd.net/steamcommunity/public/images/apps/1011510/d5d4fbfe50ffa05b50c4709b2e1c253fea070c15.jpg",
    "icongray": "https://steamcdn-a.akamaihd.net/steamcommunity/public/images/apps/1011510/5108edce1567dd48846a02f65350c92598c3c0f3.jpg"
  },
  {
    "name": "fishingunlocked",
    "defaultvalue": 0,
    "displayName": "Let's get fishin' 'n' cookin'",
    "hidden": 1,
    "icon": "https://steamcdn-a.akamaihd.net/steamcommunity/public/images/apps/1011510/5539b7de6a32501ecc6718da85f56ae3029d4950.jpg",
    "icongray": "https://steamcdn-a.akamaihd.net/steamcommunity/public/images/apps/1011510/9c7b2930fa687d0c17ccce1044515375fbc051c1.jpg"
  },
  {
    "name": "gencharges",
    "defaultvalue": 0,
    "displayName": "Charge it to my generator",
    "hidden": 0,
    "description": "10 charges used in the generator.",
    "icon": "https://steamcdn-a.akamaihd.net/steamcommunity/public/images/apps/1011510/a9552327442c1fb7ef373ce2d63b9ea5d65f30a5.jpg",
    "icongray": "https://steamcdn-a.akamaihd.net/steamcommunity/public/images/apps/1011510/fc15730d8a8f43f0bdc61b62ad1577bfe0f1533f.jpg"
  },
  {
    "name": "adungeonfloors",
    "defaultvalue": 0,
    "displayName": "Spellunker",
    "hidden": 0,
    "description": "Cleared 10 floors of dungeons",
    "icon": "https://steamcdn-a.akamaihd.net/steamcommunity/public/images/apps/1011510/c3abc0b0b4663ff4194e4ffd0b3db3802a6f3a4c.jpg",
    "icongray": "https://steamcdn-a.akamaihd.net/steamcommunity/public/images/apps/1011510/73b64d9ede8ffb8c30b7a9adb6af1221910116d2.jpg"
  },
  {
    "name": "firststeps1",
    "defaultvalue": 0,
    "displayName": "First Steps",
    "hidden": 0,
    "description": "Beat the first steps challenge.",
    "icon": "https://steamcdn-a.akamaihd.net/steamcommunity/public/images/apps/1011510/6355e74af1dcb821418a1b93aff53c1d59e8b27e.jpg",
    "icongray": "https://steamcdn-a.akamaihd.net/steamcommunity/public/images/apps/1011510/aaa1d2df4828a810b8ec5776b23894d1e95730f7.jpg"
  },
  {
    "name": "firststeps3",
    "defaultvalue": 0,
    "displayName": "First Steps II",
    "hidden": 0,
    "description": "Did it again (and again).",
    "icon": "https://steamcdn-a.akamaihd.net/steamcommunity/public/images/apps/1011510/54a9262a8d22d04a3438e00cd65133ddea100430.jpg",
    "icongray": "https://steamcdn-a.akamaihd.net/steamcommunity/public/images/apps/1011510/aaa1d2df4828a810b8ec5776b23894d1e95730f7.jpg"
  },
  {
    "name": "firststeps5",
    "defaultvalue": 0,
    "displayName": "First Steps III",
    "hidden": 0,
    "description": "Well, those are done, now if only there was a second steps challenge.",
    "icon": "https://steamcdn-a.akamaihd.net/steamcommunity/public/images/apps/1011510/98456b8e3f384e5b649fd0473989dc9072171424.jpg",
    "icongray": "https://steamcdn-a.akamaihd.net/steamcommunity/public/images/apps/1011510/aaa1d2df4828a810b8ec5776b23894d1e95730f7.jpg"
  },
  {
    "name": "trainingfield1",
    "defaultvalue": 0,
    "displayName": "Inferno Challenge",
    "hidden": 0,
    "description": "Cleared the first Inferno Challenge",
    "icon": "https://steamcdn-a.akamaihd.net/steamcommunity/public/images/apps/1011510/2d83712d2f964860e17163e0a67e6446f7c836db.jpg",
    "icongray": "https://steamcdn-a.akamaihd.net/steamcommunity/public/images/apps/1011510/c44089786dfda4fdab0e1ab49045867757f93347.jpg"
  },
  {
    "name": "trainingfield3",
    "defaultvalue": 0,
    "displayName": "Inferno Challenge II",
    "hidden": 0,
    "description": "Cleared the third Inferno Challenge",
    "icon": "https://steamcdn-a.akamaihd.net/steamcommunity/public/images/apps/1011510/0c745f0bcbf89c7c66a953f99e472db9a9223132.jpg",
    "icongray": "https://steamcdn-a.akamaihd.net/steamcommunity/public/images/apps/1011510/c44089786dfda4fdab0e1ab49045867757f93347.jpg"
  },
  {
    "name": "demonmasterchallenge1",
    "defaultvalue": 0,
    "displayName": "Demon Master",
    "hidden": 0,
    "description": "You mastered the demons?",
    "icon": "https://steamcdn-a.akamaihd.net/steamcommunity/public/images/apps/1011510/eb50c25632c2efe33936605e9673cf2fdd6a82f2.jpg",
    "icongray": "https://steamcdn-a.akamaihd.net/steamcommunity/public/images/apps/1011510/f376ebc6c49bffc3519b75cbe29f13387055d0fc.jpg"
  },
  {
    "name": "demonmasterchallenge2",
    "defaultvalue": 0,
    "displayName": "Demon Master II",
    "hidden": 0,
    "description": "Yep, definitely mastered the demons.",
    "icon": "https://steamcdn-a.akamaihd.net/steamcommunity/public/images/apps/1011510/d25b6296465c22c4ee62ae3662dda6583397a33e.jpg",
    "icongray": "https://steamcdn-a.akamaihd.net/steamcommunity/public/images/apps/1011510/f376ebc6c49bffc3519b75cbe29f13387055d0fc.jpg"
  },
  {
    "name": "noconjuringchallenge1",
    "defaultvalue": 0,
    "displayName": "No Conjuring",
    "hidden": 0,
    "description": "I'm a wizard Jim, not a Doctor!",
    "icon": "https://steamcdn-a.akamaihd.net/steamcommunity/public/images/apps/1011510/961eff30549334b1be7271a96216b51cfa6fd801.jpg",
    "icongray": "https://steamcdn-a.akamaihd.net/steamcommunity/public/images/apps/1011510/b96ac53808c7dbbe74ab7baad8746638ee085394.jpg"
  },
  {
    "name": "noconjuringchallenge3",
    "defaultvalue": 0,
    "displayName": "No Conjuring II",
    "hidden": 0,
    "description": "I'm a gladiator wizard!",
    "icon": "https://steamcdn-a.akamaihd.net/steamcommunity/public/images/apps/1011510/bb3c24030a3c2f87396e6e4ff8fde09fe8abf140.jpg",
    "icongray": "https://steamcdn-a.akamaihd.net/steamcommunity/public/images/apps/1011510/98c66866891542c5a9e6d9445a496774513cafbe.jpg"
  },
  {
    "name": "katanachallenge1",
    "defaultvalue": 0,
    "displayName": "Blade Storm",
    "hidden": 0,
    "description": "First Blade Storm challenge completed",
    "icon": "https://steamcdn-a.akamaihd.net/steamcommunity/public/images/apps/1011510/d23dbf57ac287b322018519174804e388ed77dfb.jpg",
    "icongray": "https://steamcdn-a.akamaihd.net/steamcommunity/public/images/apps/1011510/1a6519206b2a78cdc46bf29be8461cb6c2fe7af4.jpg"
  },
  {
    "name": "katanachallenge5",
    "defaultvalue": 0,
    "displayName": "Blade Storm II",
    "hidden": 0,
    "description": "Collect fedora and trench coat as you exit through the gift shop.",
    "icon": "https://steamcdn-a.akamaihd.net/steamcommunity/public/images/apps/1011510/5526715e12b67a31659eece760ef302be61f75cf.jpg",
    "icongray": "https://steamcdn-a.akamaihd.net/steamcommunity/public/images/apps/1011510/1a6519206b2a78cdc46bf29be8461cb6c2fe7af4.jpg"
  },
  {
    "name": "inspirituschallenge1",
    "defaultvalue": 0,
    "displayName": "In Spiritus",
    "hidden": 0,
    "description": "Got a lil drunk this time.",
    "icon": "https://steamcdn-a.akamaihd.net/steamcommunity/public/images/apps/1011510/0a8a5cc66854b140673b0ad3ccc92151b4f2bdb5.jpg",
    "icongray": "https://steamcdn-a.akamaihd.net/steamcommunity/public/images/apps/1011510/5f2d49eb7f1e7abd507cf7826206aa3e9c7ebbb7.jpg"
  },
  {
    "name": "inspirituschallenge2",
    "defaultvalue": 0,
    "displayName": "In Spiritus II",
    "hidden": 0,
    "description": "Go tal ot drukn, drunk wit hpowar.",
    "icon": "https://steamcdn-a.akamaihd.net/steamcommunity/public/images/apps/1011510/5123281e127954d21217e1583fa9b83c97cc1b86.jpg",
    "icongray": "https://steamcdn-a.akamaihd.net/steamcommunity/public/images/apps/1011510/5f2d49eb7f1e7abd507cf7826206aa3e9c7ebbb7.jpg"
  },
  {
    "name": "timeloopchallenge1",
    "defaultvalue": 0,
    "displayName": "Time Loop Challenge",
    "hidden": 0,
    "description": "I just got here in 5 minutes from now.",
    "icon": "https://steamcdn-a.akamaihd.net/steamcommunity/public/images/apps/1011510/d635e2e7b3d9003f74213635ee0b42404cc56b32.jpg",
    "icongray": "https://steamcdn-a.akamaihd.net/steamcommunity/public/images/apps/1011510/73ecf78a991b2718e7fd53fc5dc35646086488f8.jpg"
  },
  {
    "name": "timeloopchallenge3",
    "defaultvalue": 0,
    "displayName": "Time Loop II",
    "hidden": 0,
    "description": "I was definitely here before I got here.",
    "icon": "https://steamcdn-a.akamaihd.net/steamcommunity/public/images/apps/1011510/b329dd42c7224da61f062d7ad75d42114b88d06e.jpg",
    "icongray": "https://steamcdn-a.akamaihd.net/steamcommunity/public/images/apps/1011510/73ecf78a991b2718e7fd53fc5dc35646086488f8.jpg"
  },
  {
    "name": "farmerslifechallenge1",
    "defaultvalue": 0,
    "displayName": "Farmers Life",
    "hidden": 0,
    "description": "5000 gathers completed, never again.",
    "icon": "https://steamcdn-a.akamaihd.net/steamcommunity/public/images/apps/1011510/03f7c95b9903095d52362bd57a71e6ff49acf55b.jpg",
    "icongray": "https://steamcdn-a.akamaihd.net/steamcommunity/public/images/apps/1011510/5deb088c6c9f40e638f936dd72e045c24116c90d.jpg"
  },
  {
    "name": "farmerslifechallenge2",
    "defaultvalue": 0,
    "displayName": "Farmers Life II",
    "hidden": 0,
    "description": "50,000?!??! Well, never again for real this time!",
    "icon": "https://steamcdn-a.akamaihd.net/steamcommunity/public/images/apps/1011510/95f4e400f20a4d21c3dae0a26e315af85c3fa3a3.jpg",
    "icongray": "https://steamcdn-a.akamaihd.net/steamcommunity/public/images/apps/1011510/5deb088c6c9f40e638f936dd72e045c24116c90d.jpg"
  },
  {
    "name": "guibdochallenge1",
    "defaultvalue": 0,
    "displayName": "Air Elemental Challenge",
    "hidden": 0,
    "description": "Completed the Air Elemental Challenge",
    "icon": "https://steamcdn-a.akamaihd.net/steamcommunity/public/images/apps/1011510/b172f61065d6ce7d25bc98e2a3123234aaab07e5.jpg",
    "icongray": "https://steamcdn-a.akamaihd.net/steamcommunity/public/images/apps/1011510/cb170899cc44a5aabc265a739c52422d40746f0c.jpg"
  },
  {
    "name": "guibdochallenge3",
    "defaultvalue": 0,
    "displayName": "Air Elemental Challenge II",
    "hidden": 0,
    "description": "Completed all Air Elemental Challenges",
    "icon": "https://steamcdn-a.akamaihd.net/steamcommunity/public/images/apps/1011510/a0d47d4920bbe0f027e6264c6dc7eaaf4b62203e.jpg",
    "icongray": "https://steamcdn-a.akamaihd.net/steamcommunity/public/images/apps/1011510/cb170899cc44a5aabc265a739c52422d40746f0c.jpg"
  },
  {
    "name": "worldboss1kill",
    "defaultvalue": 0,
    "displayName": "Dullahan Defeated",
    "hidden": 0,
    "description": "Probably won't be seeing that guy again any time soon.",
    "icon": "https://steamcdn-a.akamaihd.net/steamcommunity/public/images/apps/1011510/caeeb1a84960da67984b6084b15e394046acc8bf.jpg",
    "icongray": "https://steamcdn-a.akamaihd.net/steamcommunity/public/images/apps/1011510/747432d8b35526f1fa2dabb6afab38bb2d60f84f.jpg"
  },
  {
    "name": "worldboss2kill",
    "defaultvalue": 0,
    "displayName": "Galg Defeated",
    "hidden": 0,
    "description": "He's a forest golem, golems have no souls.",
    "icon": "https://steamcdn-a.akamaihd.net/steamcommunity/public/images/apps/1011510/73c3a878c4689bdaf7ae9fa888246f7cd3649507.jpg",
    "icongray": "https://steamcdn-a.akamaihd.net/steamcommunity/public/images/apps/1011510/e88b1133cf619c0b7d1129768fbf09857f67aeb4.jpg"
  },
  {
    "name": "battlefieldunlocked",
    "defaultvalue": 0,
    "displayName": "Battlefield Unlocked",
    "hidden": 1,
    "icon": "https://steamcdn-a.akamaihd.net/steamcommunity/public/images/apps/1011510/fb377416c588b6d7df77484ba06eacccac26e010.jpg",
    "icongray": "https://steamcdn-a.akamaihd.net/steamcommunity/public/images/apps/1011510/cf8ee773aba09f77f937e99d69b87644e392d4f2.jpg"
  },
  {
    "name": "reincarnations1",
    "defaultvalue": 0,
    "displayName": "Reincarnated",
    "hidden": 0,
    "description": "Reincarneted for the very first time.",
    "icon": "https://steamcdn-a.akamaihd.net/steamcommunity/public/images/apps/1011510/3bd75e7d4bef8205efb262bbca656e3c6016d6f5.jpg",
    "icongray": "https://steamcdn-a.akamaihd.net/steamcommunity/public/images/apps/1011510/e4393de1c8ea71ad8ab899a4c355f6fd1945dc7c.jpg"
  },
  {
    "name": "reincarnations2",
    "defaultvalue": 0,
    "displayName": "Reincarnated II",
    "hidden": 0,
    "description": "Always practice safe reincarnating.",
    "icon": "https://steamcdn-a.akamaihd.net/steamcommunity/public/images/apps/1011510/9e072953bd7db887b4a0d6591a8974d257d233fd.jpg",
    "icongray": "https://steamcdn-a.akamaihd.net/steamcommunity/public/images/apps/1011510/e4393de1c8ea71ad8ab899a4c355f6fd1945dc7c.jpg"
  },
  {
    "name": "reincarnations3",
    "defaultvalue": 0,
    "displayName": "Reincarnated III",
    "hidden": 0,
    "description": "You reincarnate damn near every time you change your underwear.",
    "icon": "https://steamcdn-a.akamaihd.net/steamcommunity/public/images/apps/1011510/f5e52523f695c34bb8c7dd8abd262aeea30e5015.jpg",
    "icongray": "https://steamcdn-a.akamaihd.net/steamcommunity/public/images/apps/1011510/e4393de1c8ea71ad8ab899a4c355f6fd1945dc7c.jpg"
  },
  {
    "name": "reincarnationpower1",
    "defaultvalue": 0,
    "displayName": "Warming up",
    "hidden": 0,
    "description": "Over 100% reincarnation bonus, totally unstopable.",
    "icon": "https://steamcdn-a.akamaihd.net/steamcommunity/public/images/apps/1011510/3bd75e7d4bef8205efb262bbca656e3c6016d6f5.jpg",
    "icongray": "https://steamcdn-a.akamaihd.net/steamcommunity/public/images/apps/1011510/e4393de1c8ea71ad8ab899a4c355f6fd1945dc7c.jpg"
  },
  {
    "name": "reincarnationpower2",
    "defaultvalue": 0,
    "displayName": "Getting Hot",
    "hidden": 0,
    "description": "500% reincarnation bonus, super totally unstoppable?",
    "icon": "https://steamcdn-a.akamaihd.net/steamcommunity/public/images/apps/1011510/a2783f5e429987f260c4b2217967528be89b29c3.jpg",
    "icongray": "https://steamcdn-a.akamaihd.net/steamcommunity/public/images/apps/1011510/e4393de1c8ea71ad8ab899a4c355f6fd1945dc7c.jpg"
  },
  {
    "name": "reincarnationpower3",
    "defaultvalue": 0,
    "displayName": "On Fire",
    "hidden": 0,
    "description": "Over 200000% reincarnation bonus, is this even possible? Developer has obviously typoed the achievement here.",
    "icon": "https://steamcdn-a.akamaihd.net/steamcommunity/public/images/apps/1011510/f5e52523f695c34bb8c7dd8abd262aeea30e5015.jpg",
    "icongray": "https://steamcdn-a.akamaihd.net/steamcommunity/public/images/apps/1011510/e4393de1c8ea71ad8ab899a4c355f6fd1945dc7c.jpg"
  },
  {
    "name": "proofofsoul1",
    "defaultvalue": 0,
    "displayName": "Proof of Soul",
    "hidden": 0,
    "description": "50000 souls, that's enough to almost buy one of the good bonuses",
    "icon": "https://steamcdn-a.akamaihd.net/steamcommunity/public/images/apps/1011510/d397edccf232ea53f11d0a56af818cfd33267d72.jpg",
    "icongray": "https://steamcdn-a.akamaihd.net/steamcommunity/public/images/apps/1011510/12febe805e527c21883e836106f1929e358947dd.jpg"
  },
  {
    "name": "proofofsoul2",
    "defaultvalue": 0,
    "displayName": "Proof of Soul II",
    "hidden": 0,
    "description": "Over 1 million total souls earned, clearly someone has made some kind of deal with a demon.",
    "icon": "https://steamcdn-a.akamaihd.net/steamcommunity/public/images/apps/1011510/b5d7f22327bc11f3855b407490d03d9c8cdbbd8a.jpg",
    "icongray": "https://steamcdn-a.akamaihd.net/steamcommunity/public/images/apps/1011510/12febe805e527c21883e836106f1929e358947dd.jpg"
  },
  {
    "name": "proofofsoul3",
    "defaultvalue": 0,
    "displayName": "Proof of Soul III",
    "hidden": 0,
    "description": "You didn't make a deal with a demon, you ARE the demon making the deals!",
    "icon": "https://steamcdn-a.akamaihd.net/steamcommunity/public/images/apps/1011510/fe25c19b1afd144918f89bbb5a90b8fe3a27c7a5.jpg",
    "icongray": "https://steamcdn-a.akamaihd.net/steamcommunity/public/images/apps/1011510/12febe805e527c21883e836106f1929e358947dd.jpg"
  },
  {
    "name": "bossitemsmax",
    "defaultvalue": 0,
    "displayName": "Like a Boss",
    "hidden": 0,
    "description": "Yes I max the boss items",
    "icon": "https://steamcdn-a.akamaihd.net/steamcommunity/public/images/apps/1011510/6a5c57f03d7e5209fb804a99935377505e8a4e6a.jpg",
    "icongray": "https://steamcdn-a.akamaihd.net/steamcommunity/public/images/apps/1011510/3c11a551b3e9fd5cdc237ed5dd2ee311e365e2be.jpg"
  },
  {
    "name": "waifufound1",
    "defaultvalue": 0,
    "displayName": "First slime",
    "hidden": 0,
    "description": "You just found your first slime, cuddly... thing?",
    "icon": "https://steamcdn-a.akamaihd.net/steamcommunity/public/images/apps/1011510/53fac3804607c19bee4eeb44bb188f6ab2878c47.jpg",
    "icongray": "https://steamcdn-a.akamaihd.net/steamcommunity/public/images/apps/1011510/3384ff9e7c8b7d2fee77cf9428f2e0344786d821.jpg"
  },
  {
    "name": "waifufound2",
    "defaultvalue": 0,
    "displayName": "Slime Enthusiast",
    "hidden": 0,
    "description": "25 Slimes met, all of them slippery when wet.",
    "icon": "https://steamcdn-a.akamaihd.net/steamcommunity/public/images/apps/1011510/5e0ca4c37f77610c68f075f22e99b100adbc6c0a.jpg",
    "icongray": "https://steamcdn-a.akamaihd.net/steamcommunity/public/images/apps/1011510/3384ff9e7c8b7d2fee77cf9428f2e0344786d821.jpg"
  },
  {
    "name": "waifufound3",
    "defaultvalue": 0,
    "displayName": "All the slimes",
    "hidden": 0,
    "description": "Well, probably not all of them, but enough that it's probably illegal to have this many at once.",
    "icon": "https://steamcdn-a.akamaihd.net/steamcommunity/public/images/apps/1011510/291923f0affdedb99cc9a466276fd15277d1d004.jpg",
    "icongray": "https://steamcdn-a.akamaihd.net/steamcommunity/public/images/apps/1011510/3384ff9e7c8b7d2fee77cf9428f2e0344786d821.jpg"
  },
  {
    "name": "loyallover",
    "defaultvalue": 0,
    "displayName": "Best Friends",
    "hidden": 0,
    "description": "You've leveled a slime all the way to 30, don't judge us.",
    "icon": "https://steamcdn-a.akamaihd.net/steamcommunity/public/images/apps/1011510/e40e59e3d107091dad25c9ae2ea32352c5d296e3.jpg",
    "icongray": "https://steamcdn-a.akamaihd.net/steamcommunity/public/images/apps/1011510/066c769d1207de15a3b9aae0c2860de7eea59d1d.jpg"
  },
  {
    "name": "genealogy",
    "defaultvalue": 0,
    "displayName": "Slime Trainer",
    "hidden": 0,
    "description": "It takes time to learn how to slime.",
    "icon": "https://steamcdn-a.akamaihd.net/steamcommunity/public/images/apps/1011510/c6c35264d078953f8b90ed78ccbd914f828ea117.jpg",
    "icongray": "https://steamcdn-a.akamaihd.net/steamcommunity/public/images/apps/1011510/11113dac100722b4fdb282fe6b49d5a93422118d.jpg"
  },
  {
    "name": "genealogy2",
    "defaultvalue": 0,
    "displayName": "Slime Trainer II",
    "hidden": 0,
    "description": "With great slime comes great rhymes?",
    "icon": "https://steamcdn-a.akamaihd.net/steamcommunity/public/images/apps/1011510/8113bd0adac1789a813649ce0828433cf3b6c636.jpg",
    "icongray": "https://steamcdn-a.akamaihd.net/steamcommunity/public/images/apps/1011510/11113dac100722b4fdb282fe6b49d5a93422118d.jpg"
  },
  {
    "name": "genealogy3",
    "defaultvalue": 0,
    "displayName": "Slime Trainer III",
    "hidden": 0,
    "description": "You are the prime slime training guy, maximizing the enzymes and never missing their mealtimes.",
    "icon": "https://steamcdn-a.akamaihd.net/steamcommunity/public/images/apps/1011510/84209fd64cc3e83c2375d216d5488342f27e8b77.jpg",
    "icongray": "https://steamcdn-a.akamaihd.net/steamcommunity/public/images/apps/1011510/11113dac100722b4fdb282fe6b49d5a93422118d.jpg"
  },
  {
    "name": "aplazat1",
    "defaultvalue": 0,
    "displayName": "Plaza T1",
    "hidden": 0,
    "description": "10 T1 Plaza buildings.",
    "icon": "https://steamcdn-a.akamaihd.net/steamcommunity/public/images/apps/1011510/9e9922c2a07d665f353c4af63aaf879d65ad5b22.jpg",
    "icongray": "https://steamcdn-a.akamaihd.net/steamcommunity/public/images/apps/1011510/aade890c8dad8a0e3068eaf6008c5ea8a4c850b8.jpg"
  },
  {
    "name": "aplazat2",
    "defaultvalue": 0,
    "displayName": "Plaza T2",
    "hidden": 0,
    "description": "Battlefield never looked so good.",
    "icon": "https://steamcdn-a.akamaihd.net/steamcommunity/public/images/apps/1011510/dd2b1f20bd65d84522350b48ac73feb9b05de029.jpg",
    "icongray": "https://steamcdn-a.akamaihd.net/steamcommunity/public/images/apps/1011510/dd2b1f20bd65d84522350b48ac73feb9b05de029.jpg"
  },
  {
    "name": "aplazat3",
    "defaultvalue": 0,
    "displayName": "Plaza T3",
    "hidden": 0,
    "description": "Conjuring and meditation, now we're playing with power.",
    "icon": "https://steamcdn-a.akamaihd.net/steamcommunity/public/images/apps/1011510/08848016094d21ecb057d8ed0639b03827686015.jpg",
    "icongray": "https://steamcdn-a.akamaihd.net/steamcommunity/public/images/apps/1011510/a769d89ff46936f067bffaf6c394e09a8766c721.jpg"
  },
  {
    "name": "aplazat4",
    "defaultvalue": 0,
    "displayName": "Plaza T4",
    "hidden": 0,
    "description": "The incredible power of dungeons and generators, combined to form mega wizard!",
    "icon": "https://steamcdn-a.akamaihd.net/steamcommunity/public/images/apps/1011510/aaee69eba4bf04e7e3c2a878f55aba449d2e1216.jpg",
    "icongray": "https://steamcdn-a.akamaihd.net/steamcommunity/public/images/apps/1011510/aaee69eba4bf04e7e3c2a878f55aba449d2e1216.jpg"
  },
  {
    "name": "aplazat5",
    "defaultvalue": 0,
    "displayName": "Plaza T5",
    "hidden": 0,
    "description": "Gather like no one is watching.",
    "icon": "https://steamcdn-a.akamaihd.net/steamcommunity/public/images/apps/1011510/6cde752e626d13e0dd1b1fec8e7dede81aa6a0ab.jpg",
    "icongray": "https://steamcdn-a.akamaihd.net/steamcommunity/public/images/apps/1011510/ec18ff44e4016005612bc600dce83d9a16ac7be2.jpg"
  },
  {
    "name": "aplazat6",
    "defaultvalue": 0,
    "displayName": "Plaza T6",
    "hidden": 0,
    "description": "The forbidden knowledge of the ancient library. Yeah, it's all comic books about reincarnation.",
    "icon": "https://steamcdn-a.akamaihd.net/steamcommunity/public/images/apps/1011510/443dee2ac88fcd244a8d7e57fd372f7beff13993.jpg",
    "icongray": "https://steamcdn-a.akamaihd.net/steamcommunity/public/images/apps/1011510/caed2ebac4663853a6b50d0810d8cca00a3a1d75.jpg"
  },
  {
    "name": "aplazat7",
    "defaultvalue": 0,
    "displayName": "Plaza T7",
    "hidden": 0,
    "description": "Demon market, this sounds suspiciously like slavery...",
    "icon": "https://steamcdn-a.akamaihd.net/steamcommunity/public/images/apps/1011510/09111ad017f4fa9f5f621eeea82b855b713e1c6d.jpg",
    "icongray": "https://steamcdn-a.akamaihd.net/steamcommunity/public/images/apps/1011510/0d00f10b9456751be2b4c524e10ca10ebb751592.jpg"
  },
  {
    "name": "perkpoints1",
    "defaultvalue": 0,
    "displayName": "Perking Up",
    "hidden": 0,
    "description": "It's probably not your first prestige but it definitely won't be your last.",
    "icon": "https://steamcdn-a.akamaihd.net/steamcommunity/public/images/apps/1011510/d43629a0e0fdc0a036c0930bc72f94318027b5a9.jpg",
    "icongray": "https://steamcdn-a.akamaihd.net/steamcommunity/public/images/apps/1011510/faf81b0f0d198211aba7c4459ef967f8f6c54aa8.jpg"
  },
  {
    "name": "perkpoints2",
    "defaultvalue": 0,
    "displayName": "Perking Up II",
    "hidden": 0,
    "description": "You are a very perky person, perky enough to have most of the easy perk purchases.",
    "icon": "https://steamcdn-a.akamaihd.net/steamcommunity/public/images/apps/1011510/f9ba8a071373fb7ed595e69e1ede4502eef97fe1.jpg",
    "icongray": "https://steamcdn-a.akamaihd.net/steamcommunity/public/images/apps/1011510/faf81b0f0d198211aba7c4459ef967f8f6c54aa8.jpg"
  },
  {
    "name": "perkpoints3",
    "defaultvalue": 0,
    "displayName": "Perking Up III",
    "hidden": 0,
    "description": "Perkin while you're working, perkin at the club, just perks of the job.",
    "icon": "https://steamcdn-a.akamaihd.net/steamcommunity/public/images/apps/1011510/51ee45a836c12d82dbc6072b90796a07ab584d07.jpg",
    "icongray": "https://steamcdn-a.akamaihd.net/steamcommunity/public/images/apps/1011510/4026dd5cae63d061e07be72bcb1b1113bd688e79.jpg"
  },
  {
    "name": "ababydemons",
    "defaultvalue": 0,
    "displayName": "Baby Demons",
    "hidden": 0,
    "description": "Well by golly they've done it, they've finally done it. Unlocked Demon Reproduction 2",
    "icon": "https://steamcdn-a.akamaihd.net/steamcommunity/public/images/apps/1011510/2ed58dc491a174204753f0b6aac373aae3c9b0ef.jpg",
    "icongray": "https://steamcdn-a.akamaihd.net/steamcommunity/public/images/apps/1011510/9f620478259374aa50e0045fd2880597e3cd7329.jpg"
  },
  {
    "name": "at2done",
    "defaultvalue": 0,
    "displayName": "Portal Defeated II",
    "hidden": 0,
    "description": "Yeah, still not THAT portal.",
    "icon": "https://steamcdn-a.akamaihd.net/steamcommunity/public/images/apps/1011510/8dcf32ce12e4219e2b3c4a0e7fbab6e54c55c2c9.jpg",
    "icongray": "https://steamcdn-a.akamaihd.net/steamcommunity/public/images/apps/1011510/0f61b46daaef0293de6984a284741480e6ba63a5.jpg"
  },
  {
    "name": "opmchallengea",
    "defaultvalue": 0,
    "displayName": "OPM",
    "hidden": 0,
    "description": "No training necessary, ",
    "icon": "https://steamcdn-a.akamaihd.net/steamcommunity/public/images/apps/1011510/32dd434e976caede794c4c94fbf5553295effe07.jpg",
    "icongray": "https://steamcdn-a.akamaihd.net/steamcommunity/public/images/apps/1011510/2c386497a927a20f34db573c2eff7640efba906a.jpg"
  },
  {
    "name": "opmchallengea2",
    "defaultvalue": 0,
    "displayName": "OPM II",
    "hidden": 0,
    "description": "All the things done with none of the trainings.",
    "icon": "https://steamcdn-a.akamaihd.net/steamcommunity/public/images/apps/1011510/8d775392b05a0886cc2c84da163e93d39018c22c.jpg",
    "icongray": "https://steamcdn-a.akamaihd.net/steamcommunity/public/images/apps/1011510/2c386497a927a20f34db573c2eff7640efba906a.jpg"
  },
  {
    "name": "noreincarnation1",
    "defaultvalue": 0,
    "displayName": "No Reincarnations",
    "hidden": 0,
    "description": "No problem",
    "icon": "https://steamcdn-a.akamaihd.net/steamcommunity/public/images/apps/1011510/609cb37f016c41c380854276531ebdc4fe84ce9a.jpg",
    "icongray": "https://steamcdn-a.akamaihd.net/steamcommunity/public/images/apps/1011510/4d5ef0d043650ba8afd54ac195b6ba7ed1a1fde3.jpg"
  },
  {
    "name": "noreincnarnation2",
    "defaultvalue": 0,
    "displayName": "No Reincarnations II",
    "hidden": 0,
    "description": "No more, no reincarnations, anymore.",
    "icon": "https://steamcdn-a.akamaihd.net/steamcommunity/public/images/apps/1011510/b430ef251efa3f0cf2ab71ec4232d7000dc88dc7.jpg",
    "icongray": "https://steamcdn-a.akamaihd.net/steamcommunity/public/images/apps/1011510/4d5ef0d043650ba8afd54ac195b6ba7ed1a1fde3.jpg"
  }
]