{
  "Dlcs": {},
  "Name": "Dead forest",
  "AppId": "1051350",
  "ImageUrl": "https://steamcdn-a.akamaihd.net/steam/apps/1051350/header.jpg?t=1586195019",
  "Languages": [
    "english",
    "russian"
  ],
  "Platforms": {
    "windows": true,
    "mac": true,
    "linux": true
  }
}