{
  "Dlcs": {},
  "Name": "Spoorky",
  "AppId": "858080",
  "ImageUrl": "https://steamcdn-a.akamaihd.net/steam/apps/858080/header.jpg?t=1553188824",
  "Languages": [
    "english",
    "spanish",
    "latam"
  ],
  "Platforms": {
    "windows": true,
    "mac": true,
    "linux": false
  }
}