[
  {
    "name": "CLEAR_1_1",
    "defaultvalue": 0,
    "displayName": "Clear Level 1 - 1",
    "hidden": 0,
    "description": "Clear Level 1 - 1",
    "icon": "https://steamcdn-a.akamaihd.net/steamcommunity/public/images/apps/771860/27e1fee24c76be3891c4790304462aecc4becd57.jpg",
    "icongray": "https://steamcdn-a.akamaihd.net/steamcommunity/public/images/apps/771860/f1964017a2b65edc7e6db46fda16e784cfcff4b0.jpg"
  },
  {
    "name": "CLEAR_1_3",
    "defaultvalue": 0,
    "displayName": "Clear Level 1 - 3",
    "hidden": 0,
    "description": "Clear Level 1 - 3",
    "icon": "https://steamcdn-a.akamaihd.net/steamcommunity/public/images/apps/771860/27e1fee24c76be3891c4790304462aecc4becd57.jpg",
    "icongray": "https://steamcdn-a.akamaihd.net/steamcommunity/public/images/apps/771860/c0168f8647f5b4745610cbc4e75cffb32e75729b.jpg"
  },
  {
    "name": "CLEAR_1_5",
    "defaultvalue": 0,
    "displayName": "Clear Level 1 - 5",
    "hidden": 0,
    "description": "Clear Level 1 - 5",
    "icon": "https://steamcdn-a.akamaihd.net/steamcommunity/public/images/apps/771860/27e1fee24c76be3891c4790304462aecc4becd57.jpg",
    "icongray": "https://steamcdn-a.akamaihd.net/steamcommunity/public/images/apps/771860/c0168f8647f5b4745610cbc4e75cffb32e75729b.jpg"
  },
  {
    "name": "CLEAR_1_7",
    "defaultvalue": 0,
    "displayName": "Clear Level 1 - 7",
    "hidden": 0,
    "description": "Clear Level 1 - 7",
    "icon": "https://steamcdn-a.akamaihd.net/steamcommunity/public/images/apps/771860/27e1fee24c76be3891c4790304462aecc4becd57.jpg",
    "icongray": "https://steamcdn-a.akamaihd.net/steamcommunity/public/images/apps/771860/c0168f8647f5b4745610cbc4e75cffb32e75729b.jpg"
  },
  {
    "name": "CLEAR_1_10",
    "defaultvalue": 0,
    "displayName": "Clear Level 1 - 10",
    "hidden": 0,
    "description": "Clear Level 1 - 10",
    "icon": "https://steamcdn-a.akamaihd.net/steamcommunity/public/images/apps/771860/27e1fee24c76be3891c4790304462aecc4becd57.jpg",
    "icongray": "https://steamcdn-a.akamaihd.net/steamcommunity/public/images/apps/771860/f1964017a2b65edc7e6db46fda16e784cfcff4b0.jpg"
  },
  {
    "name": "CLEAR_2_1",
    "defaultvalue": 0,
    "displayName": "Clear Level 2 - 1",
    "hidden": 0,
    "description": "Clear Level 2 - 1",
    "icon": "https://steamcdn-a.akamaihd.net/steamcommunity/public/images/apps/771860/d951ce0c6b3c2d914f21632b6a4b1ce24f52eae3.jpg",
    "icongray": "https://steamcdn-a.akamaihd.net/steamcommunity/public/images/apps/771860/ad9be3f5dbce85d8829846debe3a15ee0248ac02.jpg"
  },
  {
    "name": "CLEAR_2_3",
    "defaultvalue": 0,
    "displayName": "Clear Level 2 - 3",
    "hidden": 0,
    "description": "Clear Level 2 - 3",
    "icon": "https://steamcdn-a.akamaihd.net/steamcommunity/public/images/apps/771860/5147c38e4f275cf723ca328341910d11e18052b7.jpg",
    "icongray": "https://steamcdn-a.akamaihd.net/steamcommunity/public/images/apps/771860/ad9be3f5dbce85d8829846debe3a15ee0248ac02.jpg"
  },
  {
    "name": "CLEAR_2_5",
    "defaultvalue": 0,
    "displayName": "Clear Level 2 - 5",
    "hidden": 0,
    "description": "Clear Level 2 - 5",
    "icon": "https://steamcdn-a.akamaihd.net/steamcommunity/public/images/apps/771860/5147c38e4f275cf723ca328341910d11e18052b7.jpg",
    "icongray": "https://steamcdn-a.akamaihd.net/steamcommunity/public/images/apps/771860/ad9be3f5dbce85d8829846debe3a15ee0248ac02.jpg"
  },
  {
    "name": "CLEAR_2_7",
    "defaultvalue": 0,
    "displayName": "Clear Level 2 - 7",
    "hidden": 0,
    "description": "Clear Level 2 - 7",
    "icon": "https://steamcdn-a.akamaihd.net/steamcommunity/public/images/apps/771860/5147c38e4f275cf723ca328341910d11e18052b7.jpg",
    "icongray": "https://steamcdn-a.akamaihd.net/steamcommunity/public/images/apps/771860/ad9be3f5dbce85d8829846debe3a15ee0248ac02.jpg"
  },
  {
    "name": "CLEAR_2_10",
    "defaultvalue": 0,
    "displayName": "Clear Level 2 - 10",
    "hidden": 0,
    "description": "Clear Level 2 - 10",
    "icon": "https://steamcdn-a.akamaihd.net/steamcommunity/public/images/apps/771860/5147c38e4f275cf723ca328341910d11e18052b7.jpg",
    "icongray": "https://steamcdn-a.akamaihd.net/steamcommunity/public/images/apps/771860/ad9be3f5dbce85d8829846debe3a15ee0248ac02.jpg"
  },
  {
    "name": "CLEAR_3_1",
    "defaultvalue": 0,
    "displayName": "Clear Level 3 - 1",
    "hidden": 0,
    "description": "Clear Level 3 - 1",
    "icon": "https://steamcdn-a.akamaihd.net/steamcommunity/public/images/apps/771860/e61ea2a61a125c439817b34beb6e0a4263a246af.jpg",
    "icongray": "https://steamcdn-a.akamaihd.net/steamcommunity/public/images/apps/771860/eca2dd8af67bdb41b3cdd8fe39396ee8a4239cc0.jpg"
  },
  {
    "name": "CLEAR_3_3",
    "defaultvalue": 0,
    "displayName": "Clear Level 3 - 3",
    "hidden": 0,
    "description": "Clear Level 3 - 3",
    "icon": "https://steamcdn-a.akamaihd.net/steamcommunity/public/images/apps/771860/e61ea2a61a125c439817b34beb6e0a4263a246af.jpg",
    "icongray": "https://steamcdn-a.akamaihd.net/steamcommunity/public/images/apps/771860/eca2dd8af67bdb41b3cdd8fe39396ee8a4239cc0.jpg"
  },
  {
    "name": "CLEAR_3_5",
    "defaultvalue": 0,
    "displayName": "Clear Level 3 - 5",
    "hidden": 0,
    "description": "Clear Level 3 - 5",
    "icon": "https://steamcdn-a.akamaihd.net/steamcommunity/public/images/apps/771860/12b96d5085b517560728b3c2a96dbf592ea9f12b.jpg",
    "icongray": "https://steamcdn-a.akamaihd.net/steamcommunity/public/images/apps/771860/eca2dd8af67bdb41b3cdd8fe39396ee8a4239cc0.jpg"
  },
  {
    "name": "CLEAR_3_7",
    "defaultvalue": 0,
    "displayName": "Clear Level 3 - 7",
    "hidden": 0,
    "description": "Clear Level 3 - 7",
    "icon": "https://steamcdn-a.akamaihd.net/steamcommunity/public/images/apps/771860/e61ea2a61a125c439817b34beb6e0a4263a246af.jpg",
    "icongray": "https://steamcdn-a.akamaihd.net/steamcommunity/public/images/apps/771860/96c022b67fa5ebb68700dbc7c2cfa66e8cdb72eb.jpg"
  },
  {
    "name": "CLEAR_3_10",
    "defaultvalue": 0,
    "displayName": "Clear Level 3 - 10",
    "hidden": 0,
    "description": "Clear Level 3 - 10",
    "icon": "https://steamcdn-a.akamaihd.net/steamcommunity/public/images/apps/771860/e61ea2a61a125c439817b34beb6e0a4263a246af.jpg",
    "icongray": "https://steamcdn-a.akamaihd.net/steamcommunity/public/images/apps/771860/eca2dd8af67bdb41b3cdd8fe39396ee8a4239cc0.jpg"
  },
  {
    "name": "CLEAR_4_1",
    "defaultvalue": 0,
    "displayName": "Clear Level 4 - 1",
    "hidden": 0,
    "description": "Clear Level 4 - 1",
    "icon": "https://steamcdn-a.akamaihd.net/steamcommunity/public/images/apps/771860/f9c88e5d2f70cc0dcd0dbe1e7cb46ffddf5a5619.jpg",
    "icongray": "https://steamcdn-a.akamaihd.net/steamcommunity/public/images/apps/771860/00fdec3befe59298d2781a0c432872508d0acb13.jpg"
  },
  {
    "name": "CLEAR_4_3",
    "defaultvalue": 0,
    "displayName": "Clear Level 4 - 3",
    "hidden": 0,
    "description": "Clear Level 4 - 3",
    "icon": "https://steamcdn-a.akamaihd.net/steamcommunity/public/images/apps/771860/f9c88e5d2f70cc0dcd0dbe1e7cb46ffddf5a5619.jpg",
    "icongray": "https://steamcdn-a.akamaihd.net/steamcommunity/public/images/apps/771860/00fdec3befe59298d2781a0c432872508d0acb13.jpg"
  },
  {
    "name": "CLEAR_4_5",
    "defaultvalue": 0,
    "displayName": "Clear Level 4 - 5",
    "hidden": 0,
    "description": "Clear Level 4 - 5",
    "icon": "https://steamcdn-a.akamaihd.net/steamcommunity/public/images/apps/771860/f9c88e5d2f70cc0dcd0dbe1e7cb46ffddf5a5619.jpg",
    "icongray": "https://steamcdn-a.akamaihd.net/steamcommunity/public/images/apps/771860/00fdec3befe59298d2781a0c432872508d0acb13.jpg"
  },
  {
    "name": "CLEAR_4_7",
    "defaultvalue": 0,
    "displayName": "Clear Level 4 - 7",
    "hidden": 0,
    "description": "Clear Level 4 - 7",
    "icon": "https://steamcdn-a.akamaihd.net/steamcommunity/public/images/apps/771860/f9c88e5d2f70cc0dcd0dbe1e7cb46ffddf5a5619.jpg",
    "icongray": "https://steamcdn-a.akamaihd.net/steamcommunity/public/images/apps/771860/815ade2d321f50a293651fb3265c1b6c588b862e.jpg"
  },
  {
    "name": "CLEAR_4_10",
    "defaultvalue": 0,
    "displayName": "Clear Level 4 - 10",
    "hidden": 0,
    "description": "Clear Level 4 - 10",
    "icon": "https://steamcdn-a.akamaihd.net/steamcommunity/public/images/apps/771860/f9c88e5d2f70cc0dcd0dbe1e7cb46ffddf5a5619.jpg",
    "icongray": "https://steamcdn-a.akamaihd.net/steamcommunity/public/images/apps/771860/00fdec3befe59298d2781a0c432872508d0acb13.jpg"
  },
  {
    "name": "CLEAR_5_1",
    "defaultvalue": 0,
    "displayName": "Clear Level 5 - 1",
    "hidden": 0,
    "description": "Clear Level 5 - 1",
    "icon": "https://steamcdn-a.akamaihd.net/steamcommunity/public/images/apps/771860/f1bdc794a58b6f8bda6cc28a224726e510cd2de6.jpg",
    "icongray": "https://steamcdn-a.akamaihd.net/steamcommunity/public/images/apps/771860/7e6d44c25cafb5f195a9b844470027c12e01aa81.jpg"
  },
  {
    "name": "CLEAR_5_3",
    "defaultvalue": 0,
    "displayName": "Clear Level 5 - 3",
    "hidden": 0,
    "description": "Clear Level 5 - 3",
    "icon": "https://steamcdn-a.akamaihd.net/steamcommunity/public/images/apps/771860/2eb5a13d70b6347c1c29699b9d5e9330189655d8.jpg",
    "icongray": "https://steamcdn-a.akamaihd.net/steamcommunity/public/images/apps/771860/7e6d44c25cafb5f195a9b844470027c12e01aa81.jpg"
  },
  {
    "name": "CLEAR_5_5",
    "defaultvalue": 0,
    "displayName": "Clear Level 5 - 5",
    "hidden": 0,
    "description": "Clear Level 5 - 5",
    "icon": "https://steamcdn-a.akamaihd.net/steamcommunity/public/images/apps/771860/2eb5a13d70b6347c1c29699b9d5e9330189655d8.jpg",
    "icongray": "https://steamcdn-a.akamaihd.net/steamcommunity/public/images/apps/771860/7e6d44c25cafb5f195a9b844470027c12e01aa81.jpg"
  },
  {
    "name": "CLEAR_5_7",
    "defaultvalue": 0,
    "displayName": "Clear Level 5 - 7",
    "hidden": 0,
    "description": "Clear Level 5 - 7",
    "icon": "https://steamcdn-a.akamaihd.net/steamcommunity/public/images/apps/771860/f1bdc794a58b6f8bda6cc28a224726e510cd2de6.jpg",
    "icongray": "https://steamcdn-a.akamaihd.net/steamcommunity/public/images/apps/771860/7e6d44c25cafb5f195a9b844470027c12e01aa81.jpg"
  },
  {
    "name": "CLEAR_5_10",
    "defaultvalue": 0,
    "displayName": "Clear Level 5 - 10",
    "hidden": 0,
    "description": "Clear Level 5 - 10",
    "icon": "https://steamcdn-a.akamaihd.net/steamcommunity/public/images/apps/771860/2eb5a13d70b6347c1c29699b9d5e9330189655d8.jpg",
    "icongray": "https://steamcdn-a.akamaihd.net/steamcommunity/public/images/apps/771860/fa9853a57902e89437df9becbf49eb60c1c2108d.jpg"
  },
  {
    "name": "CLEAR_6_1",
    "defaultvalue": 0,
    "displayName": "Clear Level 6 - 1",
    "hidden": 0,
    "description": "Clear Level 6 - 1",
    "icon": "https://steamcdn-a.akamaihd.net/steamcommunity/public/images/apps/771860/0163923f0bc4683738bea74983d249ef5e37c3d2.jpg",
    "icongray": "https://steamcdn-a.akamaihd.net/steamcommunity/public/images/apps/771860/4255e7fce89cf5863ea8f8d25ac332c69cc3f9d4.jpg"
  },
  {
    "name": "CLEAR_6_3",
    "defaultvalue": 0,
    "displayName": "Clear Level 6 - 3",
    "hidden": 0,
    "description": "Clear Level 6 - 3",
    "icon": "https://steamcdn-a.akamaihd.net/steamcommunity/public/images/apps/771860/0163923f0bc4683738bea74983d249ef5e37c3d2.jpg",
    "icongray": "https://steamcdn-a.akamaihd.net/steamcommunity/public/images/apps/771860/f4daf184fee422e12ce387967d56865fbb676eb7.jpg"
  },
  {
    "name": "CLEAR_6_5",
    "defaultvalue": 0,
    "displayName": "Clear Level 6 - 5",
    "hidden": 0,
    "description": "Clear Level 6 - 5",
    "icon": "https://steamcdn-a.akamaihd.net/steamcommunity/public/images/apps/771860/0163923f0bc4683738bea74983d249ef5e37c3d2.jpg",
    "icongray": "https://steamcdn-a.akamaihd.net/steamcommunity/public/images/apps/771860/4255e7fce89cf5863ea8f8d25ac332c69cc3f9d4.jpg"
  },
  {
    "name": "CLEAR_6_7",
    "defaultvalue": 0,
    "displayName": "Clear Level 6 - 7",
    "hidden": 0,
    "description": "Clear Level 6 - 7",
    "icon": "https://steamcdn-a.akamaihd.net/steamcommunity/public/images/apps/771860/0163923f0bc4683738bea74983d249ef5e37c3d2.jpg",
    "icongray": "https://steamcdn-a.akamaihd.net/steamcommunity/public/images/apps/771860/4255e7fce89cf5863ea8f8d25ac332c69cc3f9d4.jpg"
  },
  {
    "name": "CLEAR_6_10",
    "defaultvalue": 0,
    "displayName": "Clear Level 6 - 10",
    "hidden": 0,
    "description": "Clear Level 6 - 10",
    "icon": "https://steamcdn-a.akamaihd.net/steamcommunity/public/images/apps/771860/9b1aaea9af47c3354fb295f5a650da25d2f33ab6.jpg",
    "icongray": "https://steamcdn-a.akamaihd.net/steamcommunity/public/images/apps/771860/4255e7fce89cf5863ea8f8d25ac332c69cc3f9d4.jpg"
  },
  {
    "name": "CHAR_2",
    "defaultvalue": 0,
    "displayName": "Collect 2 Character",
    "hidden": 0,
    "description": "Collect 2 Character",
    "icon": "https://steamcdn-a.akamaihd.net/steamcommunity/public/images/apps/771860/e5a06d1dbb64e441818d1ce2235dff6f9959eb5c.jpg",
    "icongray": "https://steamcdn-a.akamaihd.net/steamcommunity/public/images/apps/771860/b2fc3a85a976f801c4bbcde4baa048d8c629bfa4.jpg"
  },
  {
    "name": "CHAR_3",
    "defaultvalue": 0,
    "displayName": "Collect 3 Character",
    "hidden": 0,
    "description": "Collect 3 Character",
    "icon": "https://steamcdn-a.akamaihd.net/steamcommunity/public/images/apps/771860/e5a06d1dbb64e441818d1ce2235dff6f9959eb5c.jpg",
    "icongray": "https://steamcdn-a.akamaihd.net/steamcommunity/public/images/apps/771860/b2fc3a85a976f801c4bbcde4baa048d8c629bfa4.jpg"
  },
  {
    "name": "CHAR_5",
    "defaultvalue": 0,
    "displayName": "Collect 5 Character",
    "hidden": 0,
    "description": "Collect 5 Character",
    "icon": "https://steamcdn-a.akamaihd.net/steamcommunity/public/images/apps/771860/e5a06d1dbb64e441818d1ce2235dff6f9959eb5c.jpg",
    "icongray": "https://steamcdn-a.akamaihd.net/steamcommunity/public/images/apps/771860/b2fc3a85a976f801c4bbcde4baa048d8c629bfa4.jpg"
  },
  {
    "name": "CHAR_8",
    "defaultvalue": 0,
    "displayName": "Collect 8 Character",
    "hidden": 0,
    "description": "Collect 8 Character",
    "icon": "https://steamcdn-a.akamaihd.net/steamcommunity/public/images/apps/771860/e5a06d1dbb64e441818d1ce2235dff6f9959eb5c.jpg",
    "icongray": "https://steamcdn-a.akamaihd.net/steamcommunity/public/images/apps/771860/b2fc3a85a976f801c4bbcde4baa048d8c629bfa4.jpg"
  },
  {
    "name": "CHAR_10",
    "defaultvalue": 0,
    "displayName": "Collect 10 Character",
    "hidden": 0,
    "description": "Collect 10 Character",
    "icon": "https://steamcdn-a.akamaihd.net/steamcommunity/public/images/apps/771860/e5a06d1dbb64e441818d1ce2235dff6f9959eb5c.jpg",
    "icongray": "https://steamcdn-a.akamaihd.net/steamcommunity/public/images/apps/771860/b2fc3a85a976f801c4bbcde4baa048d8c629bfa4.jpg"
  },
  {
    "name": "CHAR_15",
    "defaultvalue": 0,
    "displayName": "Collect 15 Character",
    "hidden": 0,
    "description": "Collect 15 Character",
    "icon": "https://steamcdn-a.akamaihd.net/steamcommunity/public/images/apps/771860/e5a06d1dbb64e441818d1ce2235dff6f9959eb5c.jpg",
    "icongray": "https://steamcdn-a.akamaihd.net/steamcommunity/public/images/apps/771860/b2fc3a85a976f801c4bbcde4baa048d8c629bfa4.jpg"
  },
  {
    "name": "CHAR_20",
    "defaultvalue": 0,
    "displayName": "Collect 20 Character",
    "hidden": 0,
    "description": "Collect 20 Character",
    "icon": "https://steamcdn-a.akamaihd.net/steamcommunity/public/images/apps/771860/e5a06d1dbb64e441818d1ce2235dff6f9959eb5c.jpg",
    "icongray": "https://steamcdn-a.akamaihd.net/steamcommunity/public/images/apps/771860/b2fc3a85a976f801c4bbcde4baa048d8c629bfa4.jpg"
  },
  {
    "name": "CHAR_25",
    "defaultvalue": 0,
    "displayName": "Collect 25 Character",
    "hidden": 0,
    "description": "Collect 25 Character",
    "icon": "https://steamcdn-a.akamaihd.net/steamcommunity/public/images/apps/771860/a249a0400bdab7f1f1dabe0233722627e8be8ec3.jpg",
    "icongray": "https://steamcdn-a.akamaihd.net/steamcommunity/public/images/apps/771860/b2fc3a85a976f801c4bbcde4baa048d8c629bfa4.jpg"
  },
  {
    "name": "CHAR_30",
    "defaultvalue": 0,
    "displayName": "Collect 30 Character",
    "hidden": 0,
    "description": "Collect 30 Character",
    "icon": "https://steamcdn-a.akamaihd.net/steamcommunity/public/images/apps/771860/e5a06d1dbb64e441818d1ce2235dff6f9959eb5c.jpg",
    "icongray": "https://steamcdn-a.akamaihd.net/steamcommunity/public/images/apps/771860/b2fc3a85a976f801c4bbcde4baa048d8c629bfa4.jpg"
  },
  {
    "name": "CHAR_35",
    "defaultvalue": 0,
    "displayName": "Collect 35 Character",
    "hidden": 0,
    "description": "Collect 35 Character",
    "icon": "https://steamcdn-a.akamaihd.net/steamcommunity/public/images/apps/771860/e5a06d1dbb64e441818d1ce2235dff6f9959eb5c.jpg",
    "icongray": "https://steamcdn-a.akamaihd.net/steamcommunity/public/images/apps/771860/b2fc3a85a976f801c4bbcde4baa048d8c629bfa4.jpg"
  },
  {
    "name": "CHAR_40",
    "defaultvalue": 0,
    "displayName": "Collect 40 Character",
    "hidden": 0,
    "description": "Collect 40 Character",
    "icon": "https://steamcdn-a.akamaihd.net/steamcommunity/public/images/apps/771860/a249a0400bdab7f1f1dabe0233722627e8be8ec3.jpg",
    "icongray": "https://steamcdn-a.akamaihd.net/steamcommunity/public/images/apps/771860/b2fc3a85a976f801c4bbcde4baa048d8c629bfa4.jpg"
  },
  {
    "name": "CHAR_45",
    "defaultvalue": 0,
    "displayName": "Collect 45 Character",
    "hidden": 0,
    "description": "Collect 45 Character",
    "icon": "https://steamcdn-a.akamaihd.net/steamcommunity/public/images/apps/771860/a249a0400bdab7f1f1dabe0233722627e8be8ec3.jpg",
    "icongray": "https://steamcdn-a.akamaihd.net/steamcommunity/public/images/apps/771860/b2fc3a85a976f801c4bbcde4baa048d8c629bfa4.jpg"
  },
  {
    "name": "CHAR_50",
    "defaultvalue": 0,
    "displayName": "Collect 50 Character",
    "hidden": 0,
    "description": "Collect 50 Character",
    "icon": "https://steamcdn-a.akamaihd.net/steamcommunity/public/images/apps/771860/e5a06d1dbb64e441818d1ce2235dff6f9959eb5c.jpg",
    "icongray": "https://steamcdn-a.akamaihd.net/steamcommunity/public/images/apps/771860/b2fc3a85a976f801c4bbcde4baa048d8c629bfa4.jpg"
  },
  {
    "name": "CHAR_55",
    "defaultvalue": 0,
    "displayName": "Collect 55 Character",
    "hidden": 0,
    "description": "Collect 55 Character",
    "icon": "https://steamcdn-a.akamaihd.net/steamcommunity/public/images/apps/771860/e5a06d1dbb64e441818d1ce2235dff6f9959eb5c.jpg",
    "icongray": "https://steamcdn-a.akamaihd.net/steamcommunity/public/images/apps/771860/b2fc3a85a976f801c4bbcde4baa048d8c629bfa4.jpg"
  },
  {
    "name": "CHAR_60",
    "defaultvalue": 0,
    "displayName": "Collect 60 Character",
    "hidden": 0,
    "description": "Collect 60 Character",
    "icon": "https://steamcdn-a.akamaihd.net/steamcommunity/public/images/apps/771860/a249a0400bdab7f1f1dabe0233722627e8be8ec3.jpg",
    "icongray": "https://steamcdn-a.akamaihd.net/steamcommunity/public/images/apps/771860/b2fc3a85a976f801c4bbcde4baa048d8c629bfa4.jpg"
  },
  {
    "name": "CHAR_65",
    "defaultvalue": 0,
    "displayName": "Collect 65 Character",
    "hidden": 0,
    "description": "Collect 65 Character",
    "icon": "https://steamcdn-a.akamaihd.net/steamcommunity/public/images/apps/771860/e5a06d1dbb64e441818d1ce2235dff6f9959eb5c.jpg",
    "icongray": "https://steamcdn-a.akamaihd.net/steamcommunity/public/images/apps/771860/b2fc3a85a976f801c4bbcde4baa048d8c629bfa4.jpg"
  },
  {
    "name": "CHAR_70",
    "defaultvalue": 0,
    "displayName": "Collect 70 Character",
    "hidden": 0,
    "description": "Collect 70 Character",
    "icon": "https://steamcdn-a.akamaihd.net/steamcommunity/public/images/apps/771860/a249a0400bdab7f1f1dabe0233722627e8be8ec3.jpg",
    "icongray": "https://steamcdn-a.akamaihd.net/steamcommunity/public/images/apps/771860/b2fc3a85a976f801c4bbcde4baa048d8c629bfa4.jpg"
  },
  {
    "name": "CHAR_75",
    "defaultvalue": 0,
    "displayName": "Collect 75 Character",
    "hidden": 0,
    "description": "Collect 75 Character",
    "icon": "https://steamcdn-a.akamaihd.net/steamcommunity/public/images/apps/771860/e5a06d1dbb64e441818d1ce2235dff6f9959eb5c.jpg",
    "icongray": "https://steamcdn-a.akamaihd.net/steamcommunity/public/images/apps/771860/1a135c4aa7d037ef7884bb2871178f546e5f3629.jpg"
  },
  {
    "name": "CHAR_80",
    "defaultvalue": 0,
    "displayName": "Collect 80 Character",
    "hidden": 0,
    "description": "Collect 80 Character",
    "icon": "https://steamcdn-a.akamaihd.net/steamcommunity/public/images/apps/771860/e5a06d1dbb64e441818d1ce2235dff6f9959eb5c.jpg",
    "icongray": "https://steamcdn-a.akamaihd.net/steamcommunity/public/images/apps/771860/b2fc3a85a976f801c4bbcde4baa048d8c629bfa4.jpg"
  },
  {
    "name": "CHAR_108",
    "defaultvalue": 0,
    "displayName": "Collect 108 Character",
    "hidden": 0,
    "description": "Collect 108 Character",
    "icon": "https://steamcdn-a.akamaihd.net/steamcommunity/public/images/apps/771860/e5a06d1dbb64e441818d1ce2235dff6f9959eb5c.jpg",
    "icongray": "https://steamcdn-a.akamaihd.net/steamcommunity/public/images/apps/771860/b2fc3a85a976f801c4bbcde4baa048d8c629bfa4.jpg"
  },
  {
    "name": "ITEM_1",
    "defaultvalue": 0,
    "displayName": "Collect 1 Item",
    "hidden": 0,
    "description": "Collect 1 Item",
    "icon": "https://steamcdn-a.akamaihd.net/steamcommunity/public/images/apps/771860/7c516ed90ca810a9e9b4811c629f0c7f620ceff9.jpg",
    "icongray": "https://steamcdn-a.akamaihd.net/steamcommunity/public/images/apps/771860/27f41a35ed33a98e7e3a54253b7be6793da2c4de.jpg"
  },
  {
    "name": "ITEM_2",
    "defaultvalue": 0,
    "displayName": "Collect 2 Item",
    "hidden": 0,
    "description": "Collect 2 Item",
    "icon": "https://steamcdn-a.akamaihd.net/steamcommunity/public/images/apps/771860/7c516ed90ca810a9e9b4811c629f0c7f620ceff9.jpg",
    "icongray": "https://steamcdn-a.akamaihd.net/steamcommunity/public/images/apps/771860/27f41a35ed33a98e7e3a54253b7be6793da2c4de.jpg"
  },
  {
    "name": "ITEM_3",
    "defaultvalue": 0,
    "displayName": "Collect 3 Item",
    "hidden": 0,
    "description": "Collect 3 Item",
    "icon": "https://steamcdn-a.akamaihd.net/steamcommunity/public/images/apps/771860/7c516ed90ca810a9e9b4811c629f0c7f620ceff9.jpg",
    "icongray": "https://steamcdn-a.akamaihd.net/steamcommunity/public/images/apps/771860/27f41a35ed33a98e7e3a54253b7be6793da2c4de.jpg"
  },
  {
    "name": "ITEM_5",
    "defaultvalue": 0,
    "displayName": "Collect 5 Item",
    "hidden": 0,
    "description": "Collect 5 Item",
    "icon": "https://steamcdn-a.akamaihd.net/steamcommunity/public/images/apps/771860/7c516ed90ca810a9e9b4811c629f0c7f620ceff9.jpg",
    "icongray": "https://steamcdn-a.akamaihd.net/steamcommunity/public/images/apps/771860/29856d3973a8821891d02be805b448f6cfbccb62.jpg"
  },
  {
    "name": "ITEM_10",
    "defaultvalue": 0,
    "displayName": "Collect 10 Item",
    "hidden": 0,
    "description": "Collect 10 Item",
    "icon": "https://steamcdn-a.akamaihd.net/steamcommunity/public/images/apps/771860/7c516ed90ca810a9e9b4811c629f0c7f620ceff9.jpg",
    "icongray": "https://steamcdn-a.akamaihd.net/steamcommunity/public/images/apps/771860/27f41a35ed33a98e7e3a54253b7be6793da2c4de.jpg"
  },
  {
    "name": "ITEM_15",
    "defaultvalue": 0,
    "displayName": "Collect 15 Item",
    "hidden": 0,
    "description": "Collect 15 Item",
    "icon": "https://steamcdn-a.akamaihd.net/steamcommunity/public/images/apps/771860/7c516ed90ca810a9e9b4811c629f0c7f620ceff9.jpg",
    "icongray": "https://steamcdn-a.akamaihd.net/steamcommunity/public/images/apps/771860/29856d3973a8821891d02be805b448f6cfbccb62.jpg"
  },
  {
    "name": "ITEM_20",
    "defaultvalue": 0,
    "displayName": "Collect 20 Item",
    "hidden": 0,
    "description": "Collect 20 Item",
    "icon": "https://steamcdn-a.akamaihd.net/steamcommunity/public/images/apps/771860/7c516ed90ca810a9e9b4811c629f0c7f620ceff9.jpg",
    "icongray": "https://steamcdn-a.akamaihd.net/steamcommunity/public/images/apps/771860/29856d3973a8821891d02be805b448f6cfbccb62.jpg"
  },
  {
    "name": "ITEM_25",
    "defaultvalue": 0,
    "displayName": "Collect 25 Item",
    "hidden": 0,
    "description": "Collect 25 Item",
    "icon": "https://steamcdn-a.akamaihd.net/steamcommunity/public/images/apps/771860/7c516ed90ca810a9e9b4811c629f0c7f620ceff9.jpg",
    "icongray": "https://steamcdn-a.akamaihd.net/steamcommunity/public/images/apps/771860/27f41a35ed33a98e7e3a54253b7be6793da2c4de.jpg"
  },
  {
    "name": "ITEM_30",
    "defaultvalue": 0,
    "displayName": "Collect 30 Item",
    "hidden": 0,
    "description": "Collect 30 Item",
    "icon": "https://steamcdn-a.akamaihd.net/steamcommunity/public/images/apps/771860/7c516ed90ca810a9e9b4811c629f0c7f620ceff9.jpg",
    "icongray": "https://steamcdn-a.akamaihd.net/steamcommunity/public/images/apps/771860/27f41a35ed33a98e7e3a54253b7be6793da2c4de.jpg"
  },
  {
    "name": "ITEM_35",
    "defaultvalue": 0,
    "displayName": "Collect 35 Item",
    "hidden": 0,
    "description": "Collect 35 Item",
    "icon": "https://steamcdn-a.akamaihd.net/steamcommunity/public/images/apps/771860/7c516ed90ca810a9e9b4811c629f0c7f620ceff9.jpg",
    "icongray": "https://steamcdn-a.akamaihd.net/steamcommunity/public/images/apps/771860/27f41a35ed33a98e7e3a54253b7be6793da2c4de.jpg"
  },
  {
    "name": "ITEM_40",
    "defaultvalue": 0,
    "displayName": "Collect 40 Item",
    "hidden": 0,
    "description": "Collect 40 Item",
    "icon": "https://steamcdn-a.akamaihd.net/steamcommunity/public/images/apps/771860/7c516ed90ca810a9e9b4811c629f0c7f620ceff9.jpg",
    "icongray": "https://steamcdn-a.akamaihd.net/steamcommunity/public/images/apps/771860/27f41a35ed33a98e7e3a54253b7be6793da2c4de.jpg"
  },
  {
    "name": "ITEM_45",
    "defaultvalue": 0,
    "displayName": "Collect 45 Item",
    "hidden": 0,
    "description": "Collect 45 Item",
    "icon": "https://steamcdn-a.akamaihd.net/steamcommunity/public/images/apps/771860/7c516ed90ca810a9e9b4811c629f0c7f620ceff9.jpg",
    "icongray": "https://steamcdn-a.akamaihd.net/steamcommunity/public/images/apps/771860/27f41a35ed33a98e7e3a54253b7be6793da2c4de.jpg"
  },
  {
    "name": "ITEM_50",
    "defaultvalue": 0,
    "displayName": "Collect 50 Item",
    "hidden": 0,
    "description": "Collect 50 Item",
    "icon": "https://steamcdn-a.akamaihd.net/steamcommunity/public/images/apps/771860/7c516ed90ca810a9e9b4811c629f0c7f620ceff9.jpg",
    "icongray": "https://steamcdn-a.akamaihd.net/steamcommunity/public/images/apps/771860/27f41a35ed33a98e7e3a54253b7be6793da2c4de.jpg"
  },
  {
    "name": "ITEM_60",
    "defaultvalue": 0,
    "displayName": "Collect 60 Item",
    "hidden": 0,
    "description": "Collect 60 Item",
    "icon": "https://steamcdn-a.akamaihd.net/steamcommunity/public/images/apps/771860/7c516ed90ca810a9e9b4811c629f0c7f620ceff9.jpg",
    "icongray": "https://steamcdn-a.akamaihd.net/steamcommunity/public/images/apps/771860/27f41a35ed33a98e7e3a54253b7be6793da2c4de.jpg"
  },
  {
    "name": "ITEM_70",
    "defaultvalue": 0,
    "displayName": "Collect 70 Item",
    "hidden": 0,
    "description": "Collect 70 Item",
    "icon": "https://steamcdn-a.akamaihd.net/steamcommunity/public/images/apps/771860/7c516ed90ca810a9e9b4811c629f0c7f620ceff9.jpg",
    "icongray": "https://steamcdn-a.akamaihd.net/steamcommunity/public/images/apps/771860/27f41a35ed33a98e7e3a54253b7be6793da2c4de.jpg"
  },
  {
    "name": "ITEM_80",
    "defaultvalue": 0,
    "displayName": "Collect 80 Item",
    "hidden": 0,
    "description": "Collect 80 Item",
    "icon": "https://steamcdn-a.akamaihd.net/steamcommunity/public/images/apps/771860/7c516ed90ca810a9e9b4811c629f0c7f620ceff9.jpg",
    "icongray": "https://steamcdn-a.akamaihd.net/steamcommunity/public/images/apps/771860/27f41a35ed33a98e7e3a54253b7be6793da2c4de.jpg"
  },
  {
    "name": "ITEM_90",
    "defaultvalue": 0,
    "displayName": "Collect 90 Item",
    "hidden": 0,
    "description": "Collect 90 Item",
    "icon": "https://steamcdn-a.akamaihd.net/steamcommunity/public/images/apps/771860/7c516ed90ca810a9e9b4811c629f0c7f620ceff9.jpg",
    "icongray": "https://steamcdn-a.akamaihd.net/steamcommunity/public/images/apps/771860/27f41a35ed33a98e7e3a54253b7be6793da2c4de.jpg"
  },
  {
    "name": "ITEM_100",
    "defaultvalue": 0,
    "displayName": "Collect 100 Item",
    "hidden": 0,
    "description": "Collect 100 Item",
    "icon": "https://steamcdn-a.akamaihd.net/steamcommunity/public/images/apps/771860/7c516ed90ca810a9e9b4811c629f0c7f620ceff9.jpg",
    "icongray": "https://steamcdn-a.akamaihd.net/steamcommunity/public/images/apps/771860/27f41a35ed33a98e7e3a54253b7be6793da2c4de.jpg"
  },
  {
    "name": "ITEM_110",
    "defaultvalue": 0,
    "displayName": "Collect 110 Item",
    "hidden": 0,
    "description": "Collect 110 Item",
    "icon": "https://steamcdn-a.akamaihd.net/steamcommunity/public/images/apps/771860/7c516ed90ca810a9e9b4811c629f0c7f620ceff9.jpg",
    "icongray": "https://steamcdn-a.akamaihd.net/steamcommunity/public/images/apps/771860/27f41a35ed33a98e7e3a54253b7be6793da2c4de.jpg"
  },
  {
    "name": "ITEM_122",
    "defaultvalue": 0,
    "displayName": "Collect 122 Item",
    "hidden": 0,
    "description": "Collect 122 Item",
    "icon": "https://steamcdn-a.akamaihd.net/steamcommunity/public/images/apps/771860/404dff109b386289ec93afe41e80cab4b55830d7.jpg",
    "icongray": "https://steamcdn-a.akamaihd.net/steamcommunity/public/images/apps/771860/27f41a35ed33a98e7e3a54253b7be6793da2c4de.jpg"
  }
]