﻿{
  "Dlcs": {},
  "Name": "The LEGO® NINJAGO® Movie Video Game",
  "AppId": "640590",
  "ImageUrl": "https://steamcdn-a.akamaihd.net/steam/apps/640590/header.jpg?t=1589821053",
  "Languages": [
    "english",
    "french",
    "spanish",
    "portuguese",
    "italian",
    "german",
    "arabic",
    "danish",
    "dutch",
    "korean",
    "polish",
    "russian",
    "tchinese"
  ],
  "Platforms": {
    "windows": true,
    "mac": false,
    "linux": false
  }
}