[
  {
    "name": "award1",
    "defaultvalue": 0,
    "displayName": "Star Striker",
    "hidden": 0,
    "description": "Gather 100 Stars",
    "icon": "https://steamcdn-a.akamaihd.net/steamcommunity/public/images/apps/1035770/97629beb27a41c98427350bfb6f34e7947dbb0c0.jpg",
    "icongray": "https://steamcdn-a.akamaihd.net/steamcommunity/public/images/apps/1035770/0c98e613203fa6073d4c9011670d50283436dfa2.jpg"
  },
  {
    "name": "award2",
    "defaultvalue": 0,
    "displayName": "Constellation Striker",
    "hidden": 0,
    "description": "Gather 500 Stars",
    "icon": "https://steamcdn-a.akamaihd.net/steamcommunity/public/images/apps/1035770/30a2330fc4e45641ee0408336d591867e6efb20d.jpg",
    "icongray": "https://steamcdn-a.akamaihd.net/steamcommunity/public/images/apps/1035770/a048fb13c02edfa091b9ef24e8be054e0060193f.jpg"
  },
  {
    "name": "award3",
    "defaultvalue": 0,
    "displayName": "Stylish Jack",
    "hidden": 0,
    "description": "Try the Custom Cursor",
    "icon": "https://steamcdn-a.akamaihd.net/steamcommunity/public/images/apps/1035770/11c21cf6ea8ed7841c818636769810a6e4599aae.jpg",
    "icongray": "https://steamcdn-a.akamaihd.net/steamcommunity/public/images/apps/1035770/416fb0b11b4e8fb5bef16d77dfec22769c0953e1.jpg"
  },
  {
    "name": "award4",
    "defaultvalue": 0,
    "displayName": "Master Planner",
    "hidden": 0,
    "description": "Make a Combo of 20 or More",
    "icon": "https://steamcdn-a.akamaihd.net/steamcommunity/public/images/apps/1035770/fd56e506a8ef2e6a0a9ae342615991608daafb05.jpg",
    "icongray": "https://steamcdn-a.akamaihd.net/steamcommunity/public/images/apps/1035770/c853dff9cd26cf3be6eab8a9458485b6a66e34d7.jpg"
  },
  {
    "name": "award5",
    "defaultvalue": 0,
    "displayName": "Sisyphus’ Apprentice",
    "hidden": 0,
    "description": "Replay a Level",
    "icon": "https://steamcdn-a.akamaihd.net/steamcommunity/public/images/apps/1035770/ebddc35cb19c876fd327df043fda7295e90b6b16.jpg",
    "icongray": "https://steamcdn-a.akamaihd.net/steamcommunity/public/images/apps/1035770/7f05ec4fbdce41d3d20094cab69e7182c8546e85.jpg"
  },
  {
    "name": "award6",
    "defaultvalue": 0,
    "displayName": "Treasurer",
    "hidden": 0,
    "description": "Have 1000 Gold in the Bank",
    "icon": "https://steamcdn-a.akamaihd.net/steamcommunity/public/images/apps/1035770/8983486b2cd3690c884922aa1690d3b8b71d10f2.jpg",
    "icongray": "https://steamcdn-a.akamaihd.net/steamcommunity/public/images/apps/1035770/e402cb28f45d840a17d200f3cdbcf87fd613b343.jpg"
  },
  {
    "name": "award7",
    "defaultvalue": 0,
    "displayName": "Thrifty",
    "hidden": 0,
    "description": "Earn 5000 Gold Cumulatively",
    "icon": "https://steamcdn-a.akamaihd.net/steamcommunity/public/images/apps/1035770/33f6ad48500b5ad7bef197100e4e874759a67dfa.jpg",
    "icongray": "https://steamcdn-a.akamaihd.net/steamcommunity/public/images/apps/1035770/96c9bcbf66e2fac30bb3abdfce5820b90c172507.jpg"
  },
  {
    "name": "award8",
    "defaultvalue": 0,
    "displayName": "Decorator",
    "hidden": 0,
    "description": "Set a Wallpaper",
    "icon": "https://steamcdn-a.akamaihd.net/steamcommunity/public/images/apps/1035770/f155ca7671be1847349b465f2906f3bb75d588f4.jpg",
    "icongray": "https://steamcdn-a.akamaihd.net/steamcommunity/public/images/apps/1035770/cf203ec1a786163ad24d200c6ba6170a703e392e.jpg"
  },
  {
    "name": "award9",
    "defaultvalue": 0,
    "displayName": "Fanatic",
    "hidden": 0,
    "description": "Play More Than 5 Hours Total",
    "icon": "https://steamcdn-a.akamaihd.net/steamcommunity/public/images/apps/1035770/e30e298eb221348e9a3e65ae984450037fb67324.jpg",
    "icongray": "https://steamcdn-a.akamaihd.net/steamcommunity/public/images/apps/1035770/34c17d9ec51580ab89d563c6bd80a3ec2e66abb4.jpg"
  },
  {
    "name": "award10",
    "defaultvalue": 0,
    "displayName": "Perfectionist",
    "hidden": 0,
    "description": "Complete 50 Levels with 3 Stars",
    "icon": "https://steamcdn-a.akamaihd.net/steamcommunity/public/images/apps/1035770/a52db5406315d8ae6292348a2570611b7c82395e.jpg",
    "icongray": "https://steamcdn-a.akamaihd.net/steamcommunity/public/images/apps/1035770/b9ffe9c0d2fd71c39a502bfeaa7c5b2f88cc30cd.jpg"
  },
  {
    "name": "award11",
    "defaultvalue": 0,
    "displayName": "Absolute Perfectionist",
    "hidden": 0,
    "description": "Complete 150 Levels with 3 Stars",
    "icon": "https://steamcdn-a.akamaihd.net/steamcommunity/public/images/apps/1035770/40ecf0f0a77aff11e46a08076e3bf5af64336fa5.jpg",
    "icongray": "https://steamcdn-a.akamaihd.net/steamcommunity/public/images/apps/1035770/a9246c6ff82b67b9a1d54a849891735e68e96854.jpg"
  },
  {
    "name": "award12",
    "defaultvalue": 0,
    "displayName": "Swift Fox",
    "hidden": 0,
    "description": "Play 5 Cards in 5 Seconds",
    "icon": "https://steamcdn-a.akamaihd.net/steamcommunity/public/images/apps/1035770/5280d60d65b7b2683d256565a603aac6a84671f4.jpg",
    "icongray": "https://steamcdn-a.akamaihd.net/steamcommunity/public/images/apps/1035770/2016b8711653c6348c58790c2860bf038015e151.jpg"
  },
  {
    "name": "award13",
    "defaultvalue": 0,
    "displayName": "Liberator",
    "hidden": 0,
    "description": "Win 3 Bonus Games",
    "icon": "https://steamcdn-a.akamaihd.net/steamcommunity/public/images/apps/1035770/f75cf18fc75cbafb99d09930f5027537d52b1b67.jpg",
    "icongray": "https://steamcdn-a.akamaihd.net/steamcommunity/public/images/apps/1035770/1e112a0fe71a9a6f42a78b2d1ef84514d8fefe16.jpg"
  },
  {
    "name": "award14",
    "defaultvalue": 0,
    "displayName": "Ace",
    "hidden": 0,
    "description": "Win 10 Bonus Games",
    "icon": "https://steamcdn-a.akamaihd.net/steamcommunity/public/images/apps/1035770/3b2666f60e2bb0a797121cb09cc408e1c2515657.jpg",
    "icongray": "https://steamcdn-a.akamaihd.net/steamcommunity/public/images/apps/1035770/16175fa4521df718c4039cbe03f9e6b2b0943a14.jpg"
  },
  {
    "name": "award15",
    "defaultvalue": 0,
    "displayName": "Royal Architect",
    "hidden": 0,
    "description": "Rebuild 35 Upgrades to the castles",
    "icon": "https://steamcdn-a.akamaihd.net/steamcommunity/public/images/apps/1035770/82c5daf6fad0da878ef032248e3f784beeb6337f.jpg",
    "icongray": "https://steamcdn-a.akamaihd.net/steamcommunity/public/images/apps/1035770/c41349f32d52608f519798c666214b3072cb1c6d.jpg"
  },
  {
    "name": "award16",
    "defaultvalue": 0,
    "displayName": "Master Royal Architect",
    "hidden": 0,
    "description": "Rebuild 75 Upgrades to the castles",
    "icon": "https://steamcdn-a.akamaihd.net/steamcommunity/public/images/apps/1035770/3293fc76d8d5e18caaecf6bcf60cb999f4bdb3a6.jpg",
    "icongray": "https://steamcdn-a.akamaihd.net/steamcommunity/public/images/apps/1035770/91ea85bb961da47c058d8084d8479cac020e522e.jpg"
  },
  {
    "name": "award17",
    "defaultvalue": 0,
    "displayName": "Tycoon",
    "hidden": 0,
    "description": "Buy 5 Items from the Shop",
    "icon": "https://steamcdn-a.akamaihd.net/steamcommunity/public/images/apps/1035770/96ecdfe86d4f3acc517911a627883fac41849de7.jpg",
    "icongray": "https://steamcdn-a.akamaihd.net/steamcommunity/public/images/apps/1035770/cb032344db20e7e27b5bbc369eca34ed6086b434.jpg"
  },
  {
    "name": "award18",
    "defaultvalue": 0,
    "displayName": "Jailbreaker",
    "hidden": 0,
    "description": "Clear 100 Chains",
    "icon": "https://steamcdn-a.akamaihd.net/steamcommunity/public/images/apps/1035770/c601dbfed873fea74eabbe95116ddb748e397d33.jpg",
    "icongray": "https://steamcdn-a.akamaihd.net/steamcommunity/public/images/apps/1035770/9255f82a0d15c53c281dc495083ba50b2dbfed20.jpg"
  },
  {
    "name": "award19",
    "defaultvalue": 0,
    "displayName": "Sealed In Fate",
    "hidden": 0,
    "description": "Clear 100 Seals",
    "icon": "https://steamcdn-a.akamaihd.net/steamcommunity/public/images/apps/1035770/a40b590e012135c763cd189affb17b6ffdbd2605.jpg",
    "icongray": "https://steamcdn-a.akamaihd.net/steamcommunity/public/images/apps/1035770/d4a968c52af414b9bd70ced77d5fb5512f4062fa.jpg"
  },
  {
    "name": "award20",
    "defaultvalue": 0,
    "displayName": "Inquisitor",
    "hidden": 0,
    "description": "View Entire Credits",
    "icon": "https://steamcdn-a.akamaihd.net/steamcommunity/public/images/apps/1035770/f96e676415c44314ff1518a7970417f7c8e678a3.jpg",
    "icongray": "https://steamcdn-a.akamaihd.net/steamcommunity/public/images/apps/1035770/b4d863d0a74bd3b723ca1b40afb00549b9e7a0f4.jpg"
  },
  {
    "name": "award21",
    "defaultvalue": 0,
    "displayName": "Queensland",
    "hidden": 0,
    "description": "Play 100 Queens",
    "icon": "https://steamcdn-a.akamaihd.net/steamcommunity/public/images/apps/1035770/d2e0043ef691749f02d65a417585f33ebafddd9a.jpg",
    "icongray": "https://steamcdn-a.akamaihd.net/steamcommunity/public/images/apps/1035770/08319704e02467e9d04fb69dcb0ec564fd71e2c9.jpg"
  },
  {
    "name": "award22",
    "defaultvalue": 0,
    "displayName": "Kingdom",
    "hidden": 0,
    "description": "Play 300 Kings",
    "icon": "https://steamcdn-a.akamaihd.net/steamcommunity/public/images/apps/1035770/0391ea5617eaac1dc7fad9f639b626d79bc4a3b3.jpg",
    "icongray": "https://steamcdn-a.akamaihd.net/steamcommunity/public/images/apps/1035770/df74e8ea1c3b9ebc7dd073c29f68c8e4c987881e.jpg"
  },
  {
    "name": "award23",
    "defaultvalue": 0,
    "displayName": "Expert Strategist",
    "hidden": 0,
    "description": "Make 20 Combos of 6 or More",
    "icon": "https://steamcdn-a.akamaihd.net/steamcommunity/public/images/apps/1035770/daf73cab8e3a66f101213a081a4d877951f13621.jpg",
    "icongray": "https://steamcdn-a.akamaihd.net/steamcommunity/public/images/apps/1035770/b9d13d1b63cfbcff95a22eed49bd6df84588cee2.jpg"
  },
  {
    "name": "award24",
    "defaultvalue": 0,
    "displayName": "Master Strategist",
    "hidden": 0,
    "description": "Make 100 Combos of 6 or More",
    "icon": "https://steamcdn-a.akamaihd.net/steamcommunity/public/images/apps/1035770/a9be4e9e6eba7fe28e1fc66a74ad4180baaaeaa7.jpg",
    "icongray": "https://steamcdn-a.akamaihd.net/steamcommunity/public/images/apps/1035770/d0b0e88ff191ba8930e5cdaab1044af71ae7a867.jpg"
  },
  {
    "name": "award25",
    "defaultvalue": 0,
    "displayName": "Royal Flush",
    "hidden": 0,
    "description": "Play 10, Jack, Queen, King and Ace of a suit in a row",
    "icon": "https://steamcdn-a.akamaihd.net/steamcommunity/public/images/apps/1035770/a662e0d8c0811e82a671cb5b4ff22da32f9136ac.jpg",
    "icongray": "https://steamcdn-a.akamaihd.net/steamcommunity/public/images/apps/1035770/6e22f3c8b2883a4b134e9f7c16b111d3c55669fb.jpg"
  },
  {
    "name": "award26",
    "defaultvalue": 0,
    "displayName": "Flush",
    "hidden": 0,
    "description": "Play 5 cards of the same suite in a row",
    "icon": "https://steamcdn-a.akamaihd.net/steamcommunity/public/images/apps/1035770/7cb2d46a64928f2c948aaf6f2a4860751f28866e.jpg",
    "icongray": "https://steamcdn-a.akamaihd.net/steamcommunity/public/images/apps/1035770/e8bbc93e5399520a888dfd2385ce1a6b53477d8f.jpg"
  },
  {
    "name": "award27",
    "defaultvalue": 0,
    "displayName": "Handyman",
    "hidden": 0,
    "description": "Play four tools in a row without a 'normal' card.",
    "icon": "https://steamcdn-a.akamaihd.net/steamcommunity/public/images/apps/1035770/6d46fe44b3a58e67534a3f1446b17c1a18613e8d.jpg",
    "icongray": "https://steamcdn-a.akamaihd.net/steamcommunity/public/images/apps/1035770/b516ae2a67cf7fbc135120f45927ee0f6d3226f9.jpg"
  },
  {
    "name": "award28",
    "defaultvalue": 0,
    "displayName": "Speedy Gonzales",
    "hidden": 0,
    "description": "Solve a level with 3 stars in less than a minute",
    "icon": "https://steamcdn-a.akamaihd.net/steamcommunity/public/images/apps/1035770/7d0202550934ceb50fed0943b4ab5a917298505e.jpg",
    "icongray": "https://steamcdn-a.akamaihd.net/steamcommunity/public/images/apps/1035770/33ede85532b1faf526fe0cc19a0f764d7743f0e5.jpg"
  },
  {
    "name": "award29",
    "defaultvalue": 0,
    "displayName": "Combo King",
    "hidden": 0,
    "description": "Make 4 combos in one level",
    "icon": "https://steamcdn-a.akamaihd.net/steamcommunity/public/images/apps/1035770/5f1097faed64a618f8254341264620f4c68f5b71.jpg",
    "icongray": "https://steamcdn-a.akamaihd.net/steamcommunity/public/images/apps/1035770/e36ccc78c02000572fa347b054d9eeed5c03702f.jpg"
  },
  {
    "name": "award30",
    "defaultvalue": 0,
    "displayName": "Star Geezer",
    "hidden": 0,
    "description": "Solve 250 levels with 3 stars",
    "icon": "https://steamcdn-a.akamaihd.net/steamcommunity/public/images/apps/1035770/a8f53109590e891d63a9551068ceb0d9f3b914d9.jpg",
    "icongray": "https://steamcdn-a.akamaihd.net/steamcommunity/public/images/apps/1035770/698ce568327f3e6a439b327519aa47d3499c120b.jpg"
  },
  {
    "name": "award31",
    "defaultvalue": 0,
    "displayName": "Shopping Queen",
    "hidden": 0,
    "description": "Buy all items from the shop",
    "icon": "https://steamcdn-a.akamaihd.net/steamcommunity/public/images/apps/1035770/29934a21a1adec9a3692d185032edfdd5d55a4f1.jpg",
    "icongray": "https://steamcdn-a.akamaihd.net/steamcommunity/public/images/apps/1035770/33ede85532b1faf526fe0cc19a0f764d7743f0e5.jpg"
  },
  {
    "name": "award32",
    "defaultvalue": 0,
    "displayName": "Master",
    "hidden": 0,
    "description": "Play Level 320 with 3 stars",
    "icon": "https://steamcdn-a.akamaihd.net/steamcommunity/public/images/apps/1035770/285858f0a59b19f8e86c6cba9f8968427fa32e4e.jpg",
    "icongray": "https://steamcdn-a.akamaihd.net/steamcommunity/public/images/apps/1035770/56083a5a8f04b75bc3dba2c251e58111ef0544c7.jpg"
  }
]