[
  {
    "name": "ACHIEVEMENT_1",
    "defaultvalue": 0,
    "displayName": "Complete level 1",
    "hidden": 0,
    "description": "Complete level 1",
    "icon": "https://steamcdn-a.akamaihd.net/steamcommunity/public/images/apps/963690/029e78b1e4511dcbd8355651e87f854bba343218.jpg",
    "icongray": "https://steamcdn-a.akamaihd.net/steamcommunity/public/images/apps/963690/2db099a0a0b650958623d070e764d993e8bf6914.jpg"
  },
  {
    "name": "ACHIEVEMENT_2",
    "defaultvalue": 0,
    "displayName": "Complete level 1",
    "hidden": 0,
    "description": "Complete level 1",
    "icon": "https://steamcdn-a.akamaihd.net/steamcommunity/public/images/apps/963690/e5ff280675ba51a3d0da235d34dbcafd1cdf6f32.jpg",
    "icongray": "https://steamcdn-a.akamaihd.net/steamcommunity/public/images/apps/963690/c08e4c3b73efa3af50509f65c8291211b229a8c1.jpg"
  },
  {
    "name": "ACHIEVEMENT_3",
    "defaultvalue": 0,
    "displayName": "Complete level 1",
    "hidden": 0,
    "description": "Complete level 1",
    "icon": "https://steamcdn-a.akamaihd.net/steamcommunity/public/images/apps/963690/ebd5c278951ea9d5c06843fa4cfa3697d4970f77.jpg",
    "icongray": "https://steamcdn-a.akamaihd.net/steamcommunity/public/images/apps/963690/27c532afe7b1f27abd4967c23fd30482abed0f19.jpg"
  },
  {
    "name": "ACHIEVEMENT_4",
    "defaultvalue": 0,
    "displayName": "Complete level 1",
    "hidden": 0,
    "description": "Complete level 1",
    "icon": "https://steamcdn-a.akamaihd.net/steamcommunity/public/images/apps/963690/a0694f5b56af36d9139b86239536f96ac9da69bc.jpg",
    "icongray": "https://steamcdn-a.akamaihd.net/steamcommunity/public/images/apps/963690/838725504b78bf40f93643edb480748d60141c92.jpg"
  },
  {
    "name": "ACHIEVEMENT_5",
    "defaultvalue": 0,
    "displayName": "Complete level 1",
    "hidden": 0,
    "description": "Complete level 1",
    "icon": "https://steamcdn-a.akamaihd.net/steamcommunity/public/images/apps/963690/1a4a03287d189ca8f40a97ce436ee02f96675ec7.jpg",
    "icongray": "https://steamcdn-a.akamaihd.net/steamcommunity/public/images/apps/963690/d2e90157c5de00a3e77b0124ef1214527f30c056.jpg"
  },
  {
    "name": "ACHIEVEMENT_6",
    "defaultvalue": 0,
    "displayName": "Complete level 1",
    "hidden": 0,
    "description": "Complete level 1",
    "icon": "https://steamcdn-a.akamaihd.net/steamcommunity/public/images/apps/963690/5e3830d7302a128497abb761d40f9595a50b34c9.jpg",
    "icongray": "https://steamcdn-a.akamaihd.net/steamcommunity/public/images/apps/963690/92d40ce1465f9d04c3fb4e4eec4594f83013a5ef.jpg"
  },
  {
    "name": "ACHIEVEMENT_7",
    "defaultvalue": 0,
    "displayName": "Complete level 1",
    "hidden": 0,
    "description": "Complete level 1",
    "icon": "https://steamcdn-a.akamaihd.net/steamcommunity/public/images/apps/963690/86db4cb803bfafd1e2ebdc26e709190818477485.jpg",
    "icongray": "https://steamcdn-a.akamaihd.net/steamcommunity/public/images/apps/963690/d34280f984ae67fe375638d4af056e15d7b8a00f.jpg"
  },
  {
    "name": "ACHIEVEMENT_8",
    "defaultvalue": 0,
    "displayName": "Complete level 1",
    "hidden": 0,
    "description": "Complete level 1",
    "icon": "https://steamcdn-a.akamaihd.net/steamcommunity/public/images/apps/963690/5f2aa14a6dfcf707107caf56d60b956ba7f48e18.jpg",
    "icongray": "https://steamcdn-a.akamaihd.net/steamcommunity/public/images/apps/963690/86edf2bc5f95527b4de5749ce0788f3a8ac28334.jpg"
  },
  {
    "name": "ACHIEVEMENT_9",
    "defaultvalue": 0,
    "displayName": "Complete level 1",
    "hidden": 0,
    "description": "Complete level 1",
    "icon": "https://steamcdn-a.akamaihd.net/steamcommunity/public/images/apps/963690/ad91202aa4b4bf126ff47df5cfff435229bc804a.jpg",
    "icongray": "https://steamcdn-a.akamaihd.net/steamcommunity/public/images/apps/963690/b303b9ea42511428c7ea9979e7e45d5547afcbdc.jpg"
  },
  {
    "name": "ACHIEVEMENT_10",
    "defaultvalue": 0,
    "displayName": "Complete level 1",
    "hidden": 0,
    "description": "Complete level 1",
    "icon": "https://steamcdn-a.akamaihd.net/steamcommunity/public/images/apps/963690/07feb6ca2c9c06479e9d1be705451415f680379c.jpg",
    "icongray": "https://steamcdn-a.akamaihd.net/steamcommunity/public/images/apps/963690/29cba54756dc2f9d66767822cd122fb4631adb45.jpg"
  },
  {
    "name": "ACHIEVEMENT_11",
    "defaultvalue": 0,
    "displayName": "Complete level 2",
    "hidden": 0,
    "description": "Complete level 2",
    "icon": "https://steamcdn-a.akamaihd.net/steamcommunity/public/images/apps/963690/78f715749a926170e81e54b78bb7210211e3d6f7.jpg",
    "icongray": "https://steamcdn-a.akamaihd.net/steamcommunity/public/images/apps/963690/c78703b87a01c0a073bcc2c3982a5d033bef5034.jpg"
  },
  {
    "name": "ACHIEVEMENT_12",
    "defaultvalue": 0,
    "displayName": "Complete level 2",
    "hidden": 0,
    "description": "Complete level 2",
    "icon": "https://steamcdn-a.akamaihd.net/steamcommunity/public/images/apps/963690/e8fad0c7d70eb5534b2772db00b052080cc88ce7.jpg",
    "icongray": "https://steamcdn-a.akamaihd.net/steamcommunity/public/images/apps/963690/f24fd05facbe1f183f888c749d2474c613dbb7a5.jpg"
  },
  {
    "name": "ACHIEVEMENT_13",
    "defaultvalue": 0,
    "displayName": "Complete level 2",
    "hidden": 0,
    "description": "Complete level 2",
    "icon": "https://steamcdn-a.akamaihd.net/steamcommunity/public/images/apps/963690/12b3e664ef5a7dc2456a73d5c65962135a75a7fe.jpg",
    "icongray": "https://steamcdn-a.akamaihd.net/steamcommunity/public/images/apps/963690/28e7907e94be401f7d7ebee98310b1751ad42d54.jpg"
  },
  {
    "name": "ACHIEVEMENT_14",
    "defaultvalue": 0,
    "displayName": "Complete level 2",
    "hidden": 0,
    "description": "Complete level 2",
    "icon": "https://steamcdn-a.akamaihd.net/steamcommunity/public/images/apps/963690/03969ef3d121dd229be6f36a6fa7b7116a211de1.jpg",
    "icongray": "https://steamcdn-a.akamaihd.net/steamcommunity/public/images/apps/963690/d3a2b126dc40728acd50f13b40dbd5274185cc54.jpg"
  },
  {
    "name": "ACHIEVEMENT_15",
    "defaultvalue": 0,
    "displayName": "Complete level 2",
    "hidden": 0,
    "description": "Complete level 2",
    "icon": "https://steamcdn-a.akamaihd.net/steamcommunity/public/images/apps/963690/91ee88a3451e9d1216d2c4abe064393f358a99ab.jpg",
    "icongray": "https://steamcdn-a.akamaihd.net/steamcommunity/public/images/apps/963690/2cf2fa17d32cedeeb8e35ac5a7cd26a62f5a6f76.jpg"
  },
  {
    "name": "ACHIEVEMENT_16",
    "defaultvalue": 0,
    "displayName": "Complete level 2",
    "hidden": 0,
    "description": "Complete level 2",
    "icon": "https://steamcdn-a.akamaihd.net/steamcommunity/public/images/apps/963690/d474e7a4f6db48bf063b023089a5d1f000baa451.jpg",
    "icongray": "https://steamcdn-a.akamaihd.net/steamcommunity/public/images/apps/963690/94ec8cc7cb6b57f66b2c02c424914bf6a2195555.jpg"
  },
  {
    "name": "ACHIEVEMENT_17",
    "defaultvalue": 0,
    "displayName": "Complete level 2",
    "hidden": 0,
    "description": "Complete level 2",
    "icon": "https://steamcdn-a.akamaihd.net/steamcommunity/public/images/apps/963690/6ae2e36c1beda0c4644083178d8b3f8c5c7836f1.jpg",
    "icongray": "https://steamcdn-a.akamaihd.net/steamcommunity/public/images/apps/963690/6b945c3d85df36cf8f0ed60e97d97001baf61caf.jpg"
  },
  {
    "name": "ACHIEVEMENT_18",
    "defaultvalue": 0,
    "displayName": "Complete level 2",
    "hidden": 0,
    "description": "Complete level 2",
    "icon": "https://steamcdn-a.akamaihd.net/steamcommunity/public/images/apps/963690/6fc0512ba9e722a9ad1f530726eadd69d8e22448.jpg",
    "icongray": "https://steamcdn-a.akamaihd.net/steamcommunity/public/images/apps/963690/483af8ff5cc0be57b625bd0b840fa189042693b5.jpg"
  },
  {
    "name": "ACHIEVEMENT_19",
    "defaultvalue": 0,
    "displayName": "Complete level 2",
    "hidden": 0,
    "description": "Complete level 2",
    "icon": "https://steamcdn-a.akamaihd.net/steamcommunity/public/images/apps/963690/4a99b88377d364ce5a44011bd5ccc7604417a1b8.jpg",
    "icongray": "https://steamcdn-a.akamaihd.net/steamcommunity/public/images/apps/963690/80c050a50c7a84fd7161a8e9971cc5db2d8bbe62.jpg"
  },
  {
    "name": "ACHIEVEMENT_20",
    "defaultvalue": 0,
    "displayName": "Complete level 2",
    "hidden": 0,
    "description": "Complete level 2",
    "icon": "https://steamcdn-a.akamaihd.net/steamcommunity/public/images/apps/963690/9cb804eeec80a43bf75eb088ae0d5bc9a1ad612f.jpg",
    "icongray": "https://steamcdn-a.akamaihd.net/steamcommunity/public/images/apps/963690/f33fa75d376e24851a5c34057adcb110aef306df.jpg"
  },
  {
    "name": "ACHIEVEMENT_21",
    "defaultvalue": 0,
    "displayName": "Complete level 3",
    "hidden": 0,
    "description": "Complete level 3",
    "icon": "https://steamcdn-a.akamaihd.net/steamcommunity/public/images/apps/963690/fb06de6457e9a6fdd37c6a15499e67d7861d2c43.jpg",
    "icongray": "https://steamcdn-a.akamaihd.net/steamcommunity/public/images/apps/963690/2eb8c1af2f995a7867841b418b49136dc0b33c5d.jpg"
  },
  {
    "name": "ACHIEVEMENT_22",
    "defaultvalue": 0,
    "displayName": "Complete level 3",
    "hidden": 0,
    "description": "Complete level 3",
    "icon": "https://steamcdn-a.akamaihd.net/steamcommunity/public/images/apps/963690/700ed3d60c542066f3ae24de28efb610fd76770b.jpg",
    "icongray": "https://steamcdn-a.akamaihd.net/steamcommunity/public/images/apps/963690/af0707b3ec24a95f3a851fbdc474a4ca7f2bdad9.jpg"
  },
  {
    "name": "ACHIEVEMENT_23",
    "defaultvalue": 0,
    "displayName": "Complete level 3",
    "hidden": 0,
    "description": "Complete level 3",
    "icon": "https://steamcdn-a.akamaihd.net/steamcommunity/public/images/apps/963690/f1b8761357b1592d5f3c170c4311099ae32f51cf.jpg",
    "icongray": "https://steamcdn-a.akamaihd.net/steamcommunity/public/images/apps/963690/a8354cebcff5a05409c32124b65f87c131f1866c.jpg"
  },
  {
    "name": "ACHIEVEMENT_24",
    "defaultvalue": 0,
    "displayName": "Complete level 3",
    "hidden": 0,
    "description": "Complete level 3",
    "icon": "https://steamcdn-a.akamaihd.net/steamcommunity/public/images/apps/963690/5eb73913fdaabec999d5c9f3d23a09254ee15288.jpg",
    "icongray": "https://steamcdn-a.akamaihd.net/steamcommunity/public/images/apps/963690/2eb2d8a71a4277661c808dab559acea17d427352.jpg"
  },
  {
    "name": "ACHIEVEMENT_25",
    "defaultvalue": 0,
    "displayName": "Complete level 3",
    "hidden": 0,
    "description": "Complete level 3",
    "icon": "https://steamcdn-a.akamaihd.net/steamcommunity/public/images/apps/963690/4acccdbcf7c59bd88abdece513acf1e75db2f02c.jpg",
    "icongray": "https://steamcdn-a.akamaihd.net/steamcommunity/public/images/apps/963690/55742e20e70d14537dd93bfd6a16af5188891b5c.jpg"
  },
  {
    "name": "ACHIEVEMENT_26",
    "defaultvalue": 0,
    "displayName": "Complete level 3",
    "hidden": 0,
    "description": "Complete level 3",
    "icon": "https://steamcdn-a.akamaihd.net/steamcommunity/public/images/apps/963690/55df66f62fd8afd3052218d3a872d497f4f7f356.jpg",
    "icongray": "https://steamcdn-a.akamaihd.net/steamcommunity/public/images/apps/963690/b5daa21086e47fd8e2d8898ac6017cb681a0a1b0.jpg"
  },
  {
    "name": "ACHIEVEMENT_27",
    "defaultvalue": 0,
    "displayName": "Complete level 3",
    "hidden": 0,
    "description": "Complete level 3",
    "icon": "https://steamcdn-a.akamaihd.net/steamcommunity/public/images/apps/963690/a347e1b222ef1aed8e005cc1289ecb4ca74773ec.jpg",
    "icongray": "https://steamcdn-a.akamaihd.net/steamcommunity/public/images/apps/963690/89a2352fd32ee3b9934167dde2c4f849382fdf85.jpg"
  },
  {
    "name": "ACHIEVEMENT_28",
    "defaultvalue": 0,
    "displayName": "Complete level 3",
    "hidden": 0,
    "description": "Complete level 3",
    "icon": "https://steamcdn-a.akamaihd.net/steamcommunity/public/images/apps/963690/68ed295019be3e7e7b1429c960a5166e33364bdc.jpg",
    "icongray": "https://steamcdn-a.akamaihd.net/steamcommunity/public/images/apps/963690/d21774619be1c03b6c8b52c093835318c57bfd39.jpg"
  },
  {
    "name": "ACHIEVEMENT_29",
    "defaultvalue": 0,
    "displayName": "Complete level 3",
    "hidden": 0,
    "description": "Complete level 3",
    "icon": "https://steamcdn-a.akamaihd.net/steamcommunity/public/images/apps/963690/05dbf12bfa55eeab8535ef5a40146ef3185ec164.jpg",
    "icongray": "https://steamcdn-a.akamaihd.net/steamcommunity/public/images/apps/963690/37c9b744db1103bf89fadcf340b247451704c045.jpg"
  },
  {
    "name": "ACHIEVEMENT_30",
    "defaultvalue": 0,
    "displayName": "Complete level 3",
    "hidden": 0,
    "description": "Complete level 3",
    "icon": "https://steamcdn-a.akamaihd.net/steamcommunity/public/images/apps/963690/fe0db00e24a3ae0d67300706ce0f10d4544b4e60.jpg",
    "icongray": "https://steamcdn-a.akamaihd.net/steamcommunity/public/images/apps/963690/39ace5ba22baccdf9e3ea4cac0c1094b86244f00.jpg"
  },
  {
    "name": "ACHIEVEMENT_31",
    "defaultvalue": 0,
    "displayName": "Complete level 4",
    "hidden": 0,
    "description": "Complete level 4",
    "icon": "https://steamcdn-a.akamaihd.net/steamcommunity/public/images/apps/963690/15a233afcdf2be5eaf8807df087c5453b81bdc44.jpg",
    "icongray": "https://steamcdn-a.akamaihd.net/steamcommunity/public/images/apps/963690/45340a8919f1e75a827ea73c00aee747566aac5c.jpg"
  },
  {
    "name": "ACHIEVEMENT_32",
    "defaultvalue": 0,
    "displayName": "Complete level 4",
    "hidden": 0,
    "description": "Complete level 4",
    "icon": "https://steamcdn-a.akamaihd.net/steamcommunity/public/images/apps/963690/5c672c7d67c29f7a7617d651d2ca1bec7171b784.jpg",
    "icongray": "https://steamcdn-a.akamaihd.net/steamcommunity/public/images/apps/963690/d4613eb22deaae6e78f10ef3bb4b1df7b80a52f9.jpg"
  },
  {
    "name": "ACHIEVEMENT_33",
    "defaultvalue": 0,
    "displayName": "Complete level 4",
    "hidden": 0,
    "description": "Complete level 4",
    "icon": "https://steamcdn-a.akamaihd.net/steamcommunity/public/images/apps/963690/ee5e7929cba1fc685351547010294f8eddcd8dce.jpg",
    "icongray": "https://steamcdn-a.akamaihd.net/steamcommunity/public/images/apps/963690/fe027cbb7de35ff6df57a4faf05b0f1ba31070db.jpg"
  },
  {
    "name": "ACHIEVEMENT_34",
    "defaultvalue": 0,
    "displayName": "Complete level 4",
    "hidden": 0,
    "description": "Complete level 4",
    "icon": "https://steamcdn-a.akamaihd.net/steamcommunity/public/images/apps/963690/7541b280ca062dfa613dc0dd09e7b827d9284ecd.jpg",
    "icongray": "https://steamcdn-a.akamaihd.net/steamcommunity/public/images/apps/963690/ae95c49706e067a2d0a14d39da43bd1e1faa03b8.jpg"
  },
  {
    "name": "ACHIEVEMENT_35",
    "defaultvalue": 0,
    "displayName": "Complete level 4",
    "hidden": 0,
    "description": "Complete level 4",
    "icon": "https://steamcdn-a.akamaihd.net/steamcommunity/public/images/apps/963690/14825122a0b3ddaace2ca56c33d2d9f4faa0cf7a.jpg",
    "icongray": "https://steamcdn-a.akamaihd.net/steamcommunity/public/images/apps/963690/d878f03ed53a5422d37b082aba7f5fad19006b71.jpg"
  },
  {
    "name": "ACHIEVEMENT_36",
    "defaultvalue": 0,
    "displayName": "Complete level 4",
    "hidden": 0,
    "description": "Complete level 4",
    "icon": "https://steamcdn-a.akamaihd.net/steamcommunity/public/images/apps/963690/42c5562075e62fc6b648cab9f5eb3890a2991122.jpg",
    "icongray": "https://steamcdn-a.akamaihd.net/steamcommunity/public/images/apps/963690/376fce7e7e0049a71959f42738ef7e16783de0de.jpg"
  },
  {
    "name": "ACHIEVEMENT_37",
    "defaultvalue": 0,
    "displayName": "Complete level 4",
    "hidden": 0,
    "description": "Complete level 4",
    "icon": "https://steamcdn-a.akamaihd.net/steamcommunity/public/images/apps/963690/daea7825086bb61908bcc523c79bd6f15fdf7516.jpg",
    "icongray": "https://steamcdn-a.akamaihd.net/steamcommunity/public/images/apps/963690/00384943e892185834c96750261c5088c366f3a7.jpg"
  },
  {
    "name": "ACHIEVEMENT_38",
    "defaultvalue": 0,
    "displayName": "Complete level 4",
    "hidden": 0,
    "description": "Complete level 4",
    "icon": "https://steamcdn-a.akamaihd.net/steamcommunity/public/images/apps/963690/fe04267fb27e4b7f7f5c430cb33ffb3dd029d22e.jpg",
    "icongray": "https://steamcdn-a.akamaihd.net/steamcommunity/public/images/apps/963690/1208293fe3da828663b8728b3f8ff36655864ae1.jpg"
  },
  {
    "name": "ACHIEVEMENT_39",
    "defaultvalue": 0,
    "displayName": "Complete level 4",
    "hidden": 0,
    "description": "Complete level 4",
    "icon": "https://steamcdn-a.akamaihd.net/steamcommunity/public/images/apps/963690/2af06ec014de78c733231011a7e849c6de973a7a.jpg",
    "icongray": "https://steamcdn-a.akamaihd.net/steamcommunity/public/images/apps/963690/a884912c876d8156923ec9f0e4d20bc46aae47a0.jpg"
  },
  {
    "name": "ACHIEVEMENT_40",
    "defaultvalue": 0,
    "displayName": "Complete level 4",
    "hidden": 0,
    "description": "Complete level 4",
    "icon": "https://steamcdn-a.akamaihd.net/steamcommunity/public/images/apps/963690/93405ea14f6466b1c83bb32175067587a94c4588.jpg",
    "icongray": "https://steamcdn-a.akamaihd.net/steamcommunity/public/images/apps/963690/cac38f803ad60895a33ecccc1cf5b5f347a2f730.jpg"
  },
  {
    "name": "ACHIEVEMENT_41",
    "defaultvalue": 0,
    "displayName": "Complete level 5",
    "hidden": 0,
    "description": "Complete level 5",
    "icon": "https://steamcdn-a.akamaihd.net/steamcommunity/public/images/apps/963690/7749a9a95b21b22f0841507d8e90efd99ccb8877.jpg",
    "icongray": "https://steamcdn-a.akamaihd.net/steamcommunity/public/images/apps/963690/0465fe00bac5bae2cef9ff5408b6b267c70ebb70.jpg"
  },
  {
    "name": "ACHIEVEMENT_42",
    "defaultvalue": 0,
    "displayName": "Complete level 5",
    "hidden": 0,
    "description": "Complete level 5",
    "icon": "https://steamcdn-a.akamaihd.net/steamcommunity/public/images/apps/963690/d2d342bfb06c9fc4defe2a3668e83198b07ac7dd.jpg",
    "icongray": "https://steamcdn-a.akamaihd.net/steamcommunity/public/images/apps/963690/3324a541873074dc375a321368d13f15c79dab2b.jpg"
  },
  {
    "name": "ACHIEVEMENT_43",
    "defaultvalue": 0,
    "displayName": "Complete level 5",
    "hidden": 0,
    "description": "Complete level 5",
    "icon": "https://steamcdn-a.akamaihd.net/steamcommunity/public/images/apps/963690/0db5c7bb18423740ee13352acc921078d3213cdf.jpg",
    "icongray": "https://steamcdn-a.akamaihd.net/steamcommunity/public/images/apps/963690/24a2bf8e6f0b01c2a6eed1898c0a375566a2de08.jpg"
  },
  {
    "name": "ACHIEVEMENT_44",
    "defaultvalue": 0,
    "displayName": "Complete level 5",
    "hidden": 0,
    "description": "Complete level 5",
    "icon": "https://steamcdn-a.akamaihd.net/steamcommunity/public/images/apps/963690/0707c67fa344e102124f63526a30b69818fc5e12.jpg",
    "icongray": "https://steamcdn-a.akamaihd.net/steamcommunity/public/images/apps/963690/7fa691e5e0dea229b291d02327c6046a9dfb1fd2.jpg"
  },
  {
    "name": "ACHIEVEMENT_45",
    "defaultvalue": 0,
    "displayName": "Complete level 5",
    "hidden": 0,
    "description": "Complete level 5",
    "icon": "https://steamcdn-a.akamaihd.net/steamcommunity/public/images/apps/963690/a899d44a90ad858a8f73530319266681ba1cdfca.jpg",
    "icongray": "https://steamcdn-a.akamaihd.net/steamcommunity/public/images/apps/963690/c103e5144338d9380f95eba346d51652bc63a0bf.jpg"
  },
  {
    "name": "ACHIEVEMENT_46",
    "defaultvalue": 0,
    "displayName": "Complete level 5",
    "hidden": 0,
    "description": "Complete level 5",
    "icon": "https://steamcdn-a.akamaihd.net/steamcommunity/public/images/apps/963690/33290be919c5f4194703929a2500f6fcbdbbfb0e.jpg",
    "icongray": "https://steamcdn-a.akamaihd.net/steamcommunity/public/images/apps/963690/77bca3951433f856f193320045530b7feef22293.jpg"
  },
  {
    "name": "ACHIEVEMENT_47",
    "defaultvalue": 0,
    "displayName": "Complete level 5",
    "hidden": 0,
    "description": "Complete level 5",
    "icon": "https://steamcdn-a.akamaihd.net/steamcommunity/public/images/apps/963690/89a50dc05ea7ceb1a7008573a39aa88e1dfbbbf4.jpg",
    "icongray": "https://steamcdn-a.akamaihd.net/steamcommunity/public/images/apps/963690/641e8769cb3421b96e7a5a5d8694cf78f4a609cb.jpg"
  },
  {
    "name": "ACHIEVEMENT_48",
    "defaultvalue": 0,
    "displayName": "Complete level 5",
    "hidden": 0,
    "description": "Complete level 5",
    "icon": "https://steamcdn-a.akamaihd.net/steamcommunity/public/images/apps/963690/3cb3c1ee18a556f0ba3313685ab1f61746686723.jpg",
    "icongray": "https://steamcdn-a.akamaihd.net/steamcommunity/public/images/apps/963690/35ab933a7520e04934fa4281ed7d07c1f5924c1c.jpg"
  },
  {
    "name": "ACHIEVEMENT_49",
    "defaultvalue": 0,
    "displayName": "Complete level 5",
    "hidden": 0,
    "description": "Complete level 5",
    "icon": "https://steamcdn-a.akamaihd.net/steamcommunity/public/images/apps/963690/38420f5677f3efd984cb3bb3d0102244ce36bef7.jpg",
    "icongray": "https://steamcdn-a.akamaihd.net/steamcommunity/public/images/apps/963690/f99fde1e1fee5cf96ce78cbe2be2da05200ba99a.jpg"
  },
  {
    "name": "ACHIEVEMENT_50",
    "defaultvalue": 0,
    "displayName": "Complete level 5",
    "hidden": 0,
    "description": "Complete level 5",
    "icon": "https://steamcdn-a.akamaihd.net/steamcommunity/public/images/apps/963690/f4264c5c32c30b3117f72a9b77cf30dc94a5ab85.jpg",
    "icongray": "https://steamcdn-a.akamaihd.net/steamcommunity/public/images/apps/963690/82a99ad37857dab2d39318847d5f439d6f6ba87a.jpg"
  },
  {
    "name": "ACHIEVEMENT_51",
    "defaultvalue": 0,
    "displayName": "Complete level 6",
    "hidden": 0,
    "description": "Complete level 6",
    "icon": "https://steamcdn-a.akamaihd.net/steamcommunity/public/images/apps/963690/f6085589228296080834752550d4ae0c89fcd945.jpg",
    "icongray": "https://steamcdn-a.akamaihd.net/steamcommunity/public/images/apps/963690/2db099a0a0b650958623d070e764d993e8bf6914.jpg"
  },
  {
    "name": "ACHIEVEMENT_52",
    "defaultvalue": 0,
    "displayName": "Complete level 6",
    "hidden": 0,
    "description": "Complete level 6",
    "icon": "https://steamcdn-a.akamaihd.net/steamcommunity/public/images/apps/963690/c4f211937a661717fecac288c47a11591d6f63ae.jpg",
    "icongray": "https://steamcdn-a.akamaihd.net/steamcommunity/public/images/apps/963690/9efa74d0ab6a2ad63b00b55fdfcea6d89501c010.jpg"
  },
  {
    "name": "ACHIEVEMENT_53",
    "defaultvalue": 0,
    "displayName": "Complete level 6",
    "hidden": 0,
    "description": "Complete level 6",
    "icon": "https://steamcdn-a.akamaihd.net/steamcommunity/public/images/apps/963690/7a3e9d918792bf84e61e28122949671729ee2e24.jpg",
    "icongray": "https://steamcdn-a.akamaihd.net/steamcommunity/public/images/apps/963690/27c532afe7b1f27abd4967c23fd30482abed0f19.jpg"
  },
  {
    "name": "ACHIEVEMENT_54",
    "defaultvalue": 0,
    "displayName": "Complete level 6",
    "hidden": 0,
    "description": "Complete level 6",
    "icon": "https://steamcdn-a.akamaihd.net/steamcommunity/public/images/apps/963690/13d1aeea201eec17277e5072c3710c23e5a28ee9.jpg",
    "icongray": "https://steamcdn-a.akamaihd.net/steamcommunity/public/images/apps/963690/1b937acaf6f08e37efe0b9c05d990dac0d070c57.jpg"
  },
  {
    "name": "ACHIEVEMENT_55",
    "defaultvalue": 0,
    "displayName": "Complete level 6",
    "hidden": 0,
    "description": "Complete level 6",
    "icon": "https://steamcdn-a.akamaihd.net/steamcommunity/public/images/apps/963690/6fbc3b8b500dd8da789a099e84a4b327a84b3c0f.jpg",
    "icongray": "https://steamcdn-a.akamaihd.net/steamcommunity/public/images/apps/963690/d2e90157c5de00a3e77b0124ef1214527f30c056.jpg"
  },
  {
    "name": "ACHIEVEMENT_56",
    "defaultvalue": 0,
    "displayName": "Complete level 6",
    "hidden": 0,
    "description": "Complete level 6",
    "icon": "https://steamcdn-a.akamaihd.net/steamcommunity/public/images/apps/963690/c1a6bf6f58b36a249c0cf9bd905079fb9378c8bb.jpg",
    "icongray": "https://steamcdn-a.akamaihd.net/steamcommunity/public/images/apps/963690/92d40ce1465f9d04c3fb4e4eec4594f83013a5ef.jpg"
  },
  {
    "name": "ACHIEVEMENT_57",
    "defaultvalue": 0,
    "displayName": "Complete level 6",
    "hidden": 0,
    "description": "Complete level 6",
    "icon": "https://steamcdn-a.akamaihd.net/steamcommunity/public/images/apps/963690/16d645638140977164c5492a9c9aa7a6439e4e27.jpg",
    "icongray": "https://steamcdn-a.akamaihd.net/steamcommunity/public/images/apps/963690/d34280f984ae67fe375638d4af056e15d7b8a00f.jpg"
  },
  {
    "name": "ACHIEVEMENT_58",
    "defaultvalue": 0,
    "displayName": "Complete level 6",
    "hidden": 0,
    "description": "Complete level 6",
    "icon": "https://steamcdn-a.akamaihd.net/steamcommunity/public/images/apps/963690/8eea30532d92f830192ae9575dbcb07c568154d8.jpg",
    "icongray": "https://steamcdn-a.akamaihd.net/steamcommunity/public/images/apps/963690/bf681ad8b158e9e07f6cbd0e943ec66032afb576.jpg"
  },
  {
    "name": "ACHIEVEMENT_59",
    "defaultvalue": 0,
    "displayName": "Complete level 6",
    "hidden": 0,
    "description": "Complete level 6",
    "icon": "https://steamcdn-a.akamaihd.net/steamcommunity/public/images/apps/963690/17e69224a87285cf28d7f1ad54806a5a7febcbc8.jpg",
    "icongray": "https://steamcdn-a.akamaihd.net/steamcommunity/public/images/apps/963690/b303b9ea42511428c7ea9979e7e45d5547afcbdc.jpg"
  },
  {
    "name": "ACHIEVEMENT_60",
    "defaultvalue": 0,
    "displayName": "Complete level 6",
    "hidden": 0,
    "description": "Complete level 6",
    "icon": "https://steamcdn-a.akamaihd.net/steamcommunity/public/images/apps/963690/0a8821533f34e7066396490f24c4838fb88cdabf.jpg",
    "icongray": "https://steamcdn-a.akamaihd.net/steamcommunity/public/images/apps/963690/29cba54756dc2f9d66767822cd122fb4631adb45.jpg"
  },
  {
    "name": "ACHIEVEMENT_61",
    "defaultvalue": 0,
    "displayName": "Complete level 7",
    "hidden": 0,
    "description": "Complete level 7",
    "icon": "https://steamcdn-a.akamaihd.net/steamcommunity/public/images/apps/963690/a1da32fe7b0768face6ab160685d1737cd6e8d9b.jpg",
    "icongray": "https://steamcdn-a.akamaihd.net/steamcommunity/public/images/apps/963690/be42ad671bad397a22d77a7845424e785d8caa04.jpg"
  },
  {
    "name": "ACHIEVEMENT_62",
    "defaultvalue": 0,
    "displayName": "Complete level 7",
    "hidden": 0,
    "description": "Complete level 7",
    "icon": "https://steamcdn-a.akamaihd.net/steamcommunity/public/images/apps/963690/23788eac54c2eb5cac0c36307b43dfa39710e7e1.jpg",
    "icongray": "https://steamcdn-a.akamaihd.net/steamcommunity/public/images/apps/963690/f24fd05facbe1f183f888c749d2474c613dbb7a5.jpg"
  },
  {
    "name": "ACHIEVEMENT_63",
    "defaultvalue": 0,
    "displayName": "Complete level 7",
    "hidden": 0,
    "description": "Complete level 7",
    "icon": "https://steamcdn-a.akamaihd.net/steamcommunity/public/images/apps/963690/c83c67452b9e2b99e9d611022202a445c8d6ea2f.jpg",
    "icongray": "https://steamcdn-a.akamaihd.net/steamcommunity/public/images/apps/963690/28e7907e94be401f7d7ebee98310b1751ad42d54.jpg"
  },
  {
    "name": "ACHIEVEMENT_64",
    "defaultvalue": 0,
    "displayName": "Complete level 7",
    "hidden": 0,
    "description": "Complete level 7",
    "icon": "https://steamcdn-a.akamaihd.net/steamcommunity/public/images/apps/963690/86876682ac78d53bcd75a0727ae8fa3758ae61b9.jpg",
    "icongray": "https://steamcdn-a.akamaihd.net/steamcommunity/public/images/apps/963690/5d407368d5e738f83e1478ade8f9fbb355abb890.jpg"
  },
  {
    "name": "ACHIEVEMENT_65",
    "defaultvalue": 0,
    "displayName": "Complete level 7",
    "hidden": 0,
    "description": "Complete level 7",
    "icon": "https://steamcdn-a.akamaihd.net/steamcommunity/public/images/apps/963690/2e7fa3347cbb69a911b7559e71d72bfa0b5c9b3b.jpg",
    "icongray": "https://steamcdn-a.akamaihd.net/steamcommunity/public/images/apps/963690/2cf2fa17d32cedeeb8e35ac5a7cd26a62f5a6f76.jpg"
  },
  {
    "name": "ACHIEVEMENT_66",
    "defaultvalue": 0,
    "displayName": "Complete level 7",
    "hidden": 0,
    "description": "Complete level 7",
    "icon": "https://steamcdn-a.akamaihd.net/steamcommunity/public/images/apps/963690/0e5c993c9c7da689b6c10ca74cf9ca09fe347c53.jpg",
    "icongray": "https://steamcdn-a.akamaihd.net/steamcommunity/public/images/apps/963690/94ec8cc7cb6b57f66b2c02c424914bf6a2195555.jpg"
  },
  {
    "name": "ACHIEVEMENT_67",
    "defaultvalue": 0,
    "displayName": "Complete level 7",
    "hidden": 0,
    "description": "Complete level 7",
    "icon": "https://steamcdn-a.akamaihd.net/steamcommunity/public/images/apps/963690/8775ec6cf21eb13752a2fffd448046c1756a520a.jpg",
    "icongray": "https://steamcdn-a.akamaihd.net/steamcommunity/public/images/apps/963690/6b945c3d85df36cf8f0ed60e97d97001baf61caf.jpg"
  },
  {
    "name": "ACHIEVEMENT_68",
    "defaultvalue": 0,
    "displayName": "Complete level 7",
    "hidden": 0,
    "description": "Complete level 7",
    "icon": "https://steamcdn-a.akamaihd.net/steamcommunity/public/images/apps/963690/e8f156abb65d9e60aa43c4b3155b22fff2f605f3.jpg",
    "icongray": "https://steamcdn-a.akamaihd.net/steamcommunity/public/images/apps/963690/483af8ff5cc0be57b625bd0b840fa189042693b5.jpg"
  },
  {
    "name": "ACHIEVEMENT_69",
    "defaultvalue": 0,
    "displayName": "Complete level 7",
    "hidden": 0,
    "description": "Complete level 7",
    "icon": "https://steamcdn-a.akamaihd.net/steamcommunity/public/images/apps/963690/90b8fe8bc6357b4b1f99aa4c65920af007a6a2dc.jpg",
    "icongray": "https://steamcdn-a.akamaihd.net/steamcommunity/public/images/apps/963690/80c050a50c7a84fd7161a8e9971cc5db2d8bbe62.jpg"
  },
  {
    "name": "ACHIEVEMENT_70",
    "defaultvalue": 0,
    "displayName": "Complete level 7",
    "hidden": 0,
    "description": "Complete level 7",
    "icon": "https://steamcdn-a.akamaihd.net/steamcommunity/public/images/apps/963690/0a24ef2d91a4b4b0452738804abd0ea0d0ba2f22.jpg",
    "icongray": "https://steamcdn-a.akamaihd.net/steamcommunity/public/images/apps/963690/f33fa75d376e24851a5c34057adcb110aef306df.jpg"
  },
  {
    "name": "ACHIEVEMENT_71",
    "defaultvalue": 0,
    "displayName": "Complete level 8",
    "hidden": 0,
    "description": "Complete level 8",
    "icon": "https://steamcdn-a.akamaihd.net/steamcommunity/public/images/apps/963690/df69ccf7e18a35f8d6cb64ca210e8c432ff9a0a7.jpg",
    "icongray": "https://steamcdn-a.akamaihd.net/steamcommunity/public/images/apps/963690/2eb8c1af2f995a7867841b418b49136dc0b33c5d.jpg"
  },
  {
    "name": "ACHIEVEMENT_72",
    "defaultvalue": 0,
    "displayName": "Complete level 8",
    "hidden": 0,
    "description": "Complete level 8",
    "icon": "https://steamcdn-a.akamaihd.net/steamcommunity/public/images/apps/963690/6d4625b36a344a0d5ec40da85bc47e35efee9e51.jpg",
    "icongray": "https://steamcdn-a.akamaihd.net/steamcommunity/public/images/apps/963690/af0707b3ec24a95f3a851fbdc474a4ca7f2bdad9.jpg"
  },
  {
    "name": "ACHIEVEMENT_73",
    "defaultvalue": 0,
    "displayName": "Complete level 8",
    "hidden": 0,
    "description": "Complete level 8",
    "icon": "https://steamcdn-a.akamaihd.net/steamcommunity/public/images/apps/963690/a2c7c7aa064ec56f77b3058fc90dd51dca739496.jpg",
    "icongray": "https://steamcdn-a.akamaihd.net/steamcommunity/public/images/apps/963690/a8354cebcff5a05409c32124b65f87c131f1866c.jpg"
  },
  {
    "name": "ACHIEVEMENT_74",
    "defaultvalue": 0,
    "displayName": "Complete level 8",
    "hidden": 0,
    "description": "Complete level 8",
    "icon": "https://steamcdn-a.akamaihd.net/steamcommunity/public/images/apps/963690/446f337a0fe3ef2012a359722d2dca702b54c460.jpg",
    "icongray": "https://steamcdn-a.akamaihd.net/steamcommunity/public/images/apps/963690/2eb2d8a71a4277661c808dab559acea17d427352.jpg"
  },
  {
    "name": "ACHIEVEMENT_75",
    "defaultvalue": 0,
    "displayName": "Complete level 8",
    "hidden": 0,
    "description": "Complete level 8",
    "icon": "https://steamcdn-a.akamaihd.net/steamcommunity/public/images/apps/963690/cb37aa8667dc87e0f65df5115e479819227103ca.jpg",
    "icongray": "https://steamcdn-a.akamaihd.net/steamcommunity/public/images/apps/963690/55742e20e70d14537dd93bfd6a16af5188891b5c.jpg"
  },
  {
    "name": "ACHIEVEMENT_76",
    "defaultvalue": 0,
    "displayName": "Complete level 8",
    "hidden": 0,
    "description": "Complete level 8",
    "icon": "https://steamcdn-a.akamaihd.net/steamcommunity/public/images/apps/963690/576df471843948439acd940b8e7040c199b305d6.jpg",
    "icongray": "https://steamcdn-a.akamaihd.net/steamcommunity/public/images/apps/963690/b5daa21086e47fd8e2d8898ac6017cb681a0a1b0.jpg"
  },
  {
    "name": "ACHIEVEMENT_77",
    "defaultvalue": 0,
    "displayName": "Complete level 8",
    "hidden": 0,
    "description": "Complete level 8",
    "icon": "https://steamcdn-a.akamaihd.net/steamcommunity/public/images/apps/963690/63b7c5a0c87a3b37c2ca3576aff7a1af11d8c9ce.jpg",
    "icongray": "https://steamcdn-a.akamaihd.net/steamcommunity/public/images/apps/963690/89a2352fd32ee3b9934167dde2c4f849382fdf85.jpg"
  },
  {
    "name": "ACHIEVEMENT_78",
    "defaultvalue": 0,
    "displayName": "Complete level 8",
    "hidden": 0,
    "description": "Complete level 8",
    "icon": "https://steamcdn-a.akamaihd.net/steamcommunity/public/images/apps/963690/58a4c6aa9a868b93b78ba46aa86a18e38f3be75b.jpg",
    "icongray": "https://steamcdn-a.akamaihd.net/steamcommunity/public/images/apps/963690/d21774619be1c03b6c8b52c093835318c57bfd39.jpg"
  },
  {
    "name": "ACHIEVEMENT_79",
    "defaultvalue": 0,
    "displayName": "Complete level 8",
    "hidden": 0,
    "description": "Complete level 8",
    "icon": "https://steamcdn-a.akamaihd.net/steamcommunity/public/images/apps/963690/de18cf2febd21d9bb473b2ecb12c12d76f87c1b3.jpg",
    "icongray": "https://steamcdn-a.akamaihd.net/steamcommunity/public/images/apps/963690/37c9b744db1103bf89fadcf340b247451704c045.jpg"
  },
  {
    "name": "ACHIEVEMENT_80",
    "defaultvalue": 0,
    "displayName": "Complete level 8",
    "hidden": 0,
    "description": "Complete level 8",
    "icon": "https://steamcdn-a.akamaihd.net/steamcommunity/public/images/apps/963690/26c1291fb3a978135554d2033e84a46ad92388d6.jpg",
    "icongray": "https://steamcdn-a.akamaihd.net/steamcommunity/public/images/apps/963690/39ace5ba22baccdf9e3ea4cac0c1094b86244f00.jpg"
  },
  {
    "name": "ACHIEVEMENT_81",
    "defaultvalue": 0,
    "displayName": "Complete level 9",
    "hidden": 0,
    "description": "Complete level 9",
    "icon": "https://steamcdn-a.akamaihd.net/steamcommunity/public/images/apps/963690/f8a45ea24f0798a9e218fb1e30fb2d49dffeb62a.jpg",
    "icongray": "https://steamcdn-a.akamaihd.net/steamcommunity/public/images/apps/963690/45340a8919f1e75a827ea73c00aee747566aac5c.jpg"
  },
  {
    "name": "ACHIEVEMENT_82",
    "defaultvalue": 0,
    "displayName": "Complete level 9",
    "hidden": 0,
    "description": "Complete level 9",
    "icon": "https://steamcdn-a.akamaihd.net/steamcommunity/public/images/apps/963690/0eadd243ea67c3740046b9f95a193ae7d248719a.jpg",
    "icongray": "https://steamcdn-a.akamaihd.net/steamcommunity/public/images/apps/963690/d4613eb22deaae6e78f10ef3bb4b1df7b80a52f9.jpg"
  },
  {
    "name": "ACHIEVEMENT_83",
    "defaultvalue": 0,
    "displayName": "Complete level 9",
    "hidden": 0,
    "description": "Complete level 9",
    "icon": "https://steamcdn-a.akamaihd.net/steamcommunity/public/images/apps/963690/1f5798a9192cdea09bd744ef4c2300db6a665041.jpg",
    "icongray": "https://steamcdn-a.akamaihd.net/steamcommunity/public/images/apps/963690/fe027cbb7de35ff6df57a4faf05b0f1ba31070db.jpg"
  },
  {
    "name": "ACHIEVEMENT_84",
    "defaultvalue": 0,
    "displayName": "Complete level 9",
    "hidden": 0,
    "description": "Complete level 9",
    "icon": "https://steamcdn-a.akamaihd.net/steamcommunity/public/images/apps/963690/5f6a293a68cf38eb009226e67e27e2102d38ca3a.jpg",
    "icongray": "https://steamcdn-a.akamaihd.net/steamcommunity/public/images/apps/963690/ae95c49706e067a2d0a14d39da43bd1e1faa03b8.jpg"
  },
  {
    "name": "ACHIEVEMENT_85",
    "defaultvalue": 0,
    "displayName": "Complete level 9",
    "hidden": 0,
    "description": "Complete level 9",
    "icon": "https://steamcdn-a.akamaihd.net/steamcommunity/public/images/apps/963690/0e1238680d5a8b2febe62c21513ca22abc9d0c1d.jpg",
    "icongray": "https://steamcdn-a.akamaihd.net/steamcommunity/public/images/apps/963690/d878f03ed53a5422d37b082aba7f5fad19006b71.jpg"
  },
  {
    "name": "ACHIEVEMENT_86",
    "defaultvalue": 0,
    "displayName": "Complete level 9",
    "hidden": 0,
    "description": "Complete level 9",
    "icon": "https://steamcdn-a.akamaihd.net/steamcommunity/public/images/apps/963690/cceb6c6e17e9836237702f49b015b88992066b10.jpg",
    "icongray": "https://steamcdn-a.akamaihd.net/steamcommunity/public/images/apps/963690/376fce7e7e0049a71959f42738ef7e16783de0de.jpg"
  },
  {
    "name": "ACHIEVEMENT_87",
    "defaultvalue": 0,
    "displayName": "Complete level 9",
    "hidden": 0,
    "description": "Complete level 9",
    "icon": "https://steamcdn-a.akamaihd.net/steamcommunity/public/images/apps/963690/ca49fcc1c4be63cd792d46ed185c09ba66d6e7e5.jpg",
    "icongray": "https://steamcdn-a.akamaihd.net/steamcommunity/public/images/apps/963690/00384943e892185834c96750261c5088c366f3a7.jpg"
  },
  {
    "name": "ACHIEVEMENT_88",
    "defaultvalue": 0,
    "displayName": "Complete level 9",
    "hidden": 0,
    "description": "Complete level 9",
    "icon": "https://steamcdn-a.akamaihd.net/steamcommunity/public/images/apps/963690/8e840642626720094cba82fb1e023f7fbded33cf.jpg",
    "icongray": "https://steamcdn-a.akamaihd.net/steamcommunity/public/images/apps/963690/93eff77f8bcfd942b3fa6ee6253bc92d80451020.jpg"
  },
  {
    "name": "ACHIEVEMENT_89",
    "defaultvalue": 0,
    "displayName": "Complete level 9",
    "hidden": 0,
    "description": "Complete level 9",
    "icon": "https://steamcdn-a.akamaihd.net/steamcommunity/public/images/apps/963690/931b4ac55f314e713d06022bde03ea0051b59a5e.jpg",
    "icongray": "https://steamcdn-a.akamaihd.net/steamcommunity/public/images/apps/963690/a884912c876d8156923ec9f0e4d20bc46aae47a0.jpg"
  },
  {
    "name": "ACHIEVEMENT_90",
    "defaultvalue": 0,
    "displayName": "Complete level 9",
    "hidden": 0,
    "description": "Complete level 9",
    "icon": "https://steamcdn-a.akamaihd.net/steamcommunity/public/images/apps/963690/48ef36805d374310a341fa276a2ffe2f0a4a5245.jpg",
    "icongray": "https://steamcdn-a.akamaihd.net/steamcommunity/public/images/apps/963690/cac38f803ad60895a33ecccc1cf5b5f347a2f730.jpg"
  },
  {
    "name": "ACHIEVEMENT_91",
    "defaultvalue": 0,
    "displayName": "Complete level 10",
    "hidden": 0,
    "description": "Complete level 10",
    "icon": "https://steamcdn-a.akamaihd.net/steamcommunity/public/images/apps/963690/255610d0baa0f1f953f98b12df14447472fa809f.jpg",
    "icongray": "https://steamcdn-a.akamaihd.net/steamcommunity/public/images/apps/963690/0465fe00bac5bae2cef9ff5408b6b267c70ebb70.jpg"
  },
  {
    "name": "ACHIEVEMENT_92",
    "defaultvalue": 0,
    "displayName": "Complete level 10",
    "hidden": 0,
    "description": "Complete level 10",
    "icon": "https://steamcdn-a.akamaihd.net/steamcommunity/public/images/apps/963690/3e930888d04396ff681f3ea5fd8b8c2550e424be.jpg",
    "icongray": "https://steamcdn-a.akamaihd.net/steamcommunity/public/images/apps/963690/3324a541873074dc375a321368d13f15c79dab2b.jpg"
  },
  {
    "name": "ACHIEVEMENT_93",
    "defaultvalue": 0,
    "displayName": "Complete level 10",
    "hidden": 0,
    "description": "Complete level 10",
    "icon": "https://steamcdn-a.akamaihd.net/steamcommunity/public/images/apps/963690/11797762c34489be634f3834d52fafb60128f75b.jpg",
    "icongray": "https://steamcdn-a.akamaihd.net/steamcommunity/public/images/apps/963690/24a2bf8e6f0b01c2a6eed1898c0a375566a2de08.jpg"
  },
  {
    "name": "ACHIEVEMENT_94",
    "defaultvalue": 0,
    "displayName": "Complete level 10",
    "hidden": 0,
    "description": "Complete level 10",
    "icon": "https://steamcdn-a.akamaihd.net/steamcommunity/public/images/apps/963690/a43025f8a9bcfd72ece9958f8f52cdb7362e4b4b.jpg",
    "icongray": "https://steamcdn-a.akamaihd.net/steamcommunity/public/images/apps/963690/7fa691e5e0dea229b291d02327c6046a9dfb1fd2.jpg"
  },
  {
    "name": "ACHIEVEMENT_95",
    "defaultvalue": 0,
    "displayName": "Complete level 10",
    "hidden": 0,
    "description": "Complete level 10",
    "icon": "https://steamcdn-a.akamaihd.net/steamcommunity/public/images/apps/963690/c45bd59295c489ffa8cb3ad12d82198dcdeea0e3.jpg",
    "icongray": "https://steamcdn-a.akamaihd.net/steamcommunity/public/images/apps/963690/c103e5144338d9380f95eba346d51652bc63a0bf.jpg"
  },
  {
    "name": "ACHIEVEMENT_96",
    "defaultvalue": 0,
    "displayName": "Complete level 10",
    "hidden": 0,
    "description": "Complete level 10",
    "icon": "https://steamcdn-a.akamaihd.net/steamcommunity/public/images/apps/963690/a99ee2a5c3262329384cc19a3008eb02c5078472.jpg",
    "icongray": "https://steamcdn-a.akamaihd.net/steamcommunity/public/images/apps/963690/77bca3951433f856f193320045530b7feef22293.jpg"
  },
  {
    "name": "ACHIEVEMENT_97",
    "defaultvalue": 0,
    "displayName": "Complete level 10",
    "hidden": 0,
    "description": "Complete level 10",
    "icon": "https://steamcdn-a.akamaihd.net/steamcommunity/public/images/apps/963690/cd027990219ba718d41565ca5644420c80b9962f.jpg",
    "icongray": "https://steamcdn-a.akamaihd.net/steamcommunity/public/images/apps/963690/641e8769cb3421b96e7a5a5d8694cf78f4a609cb.jpg"
  },
  {
    "name": "ACHIEVEMENT_98",
    "defaultvalue": 0,
    "displayName": "Complete level 10",
    "hidden": 0,
    "description": "Complete level 10",
    "icon": "https://steamcdn-a.akamaihd.net/steamcommunity/public/images/apps/963690/381cb358646d38f0fa39aba891fdb48d8aae31ef.jpg",
    "icongray": "https://steamcdn-a.akamaihd.net/steamcommunity/public/images/apps/963690/35ab933a7520e04934fa4281ed7d07c1f5924c1c.jpg"
  },
  {
    "name": "ACHIEVEMENT_99",
    "defaultvalue": 0,
    "displayName": "Complete level 10",
    "hidden": 0,
    "description": "Complete level 10",
    "icon": "https://steamcdn-a.akamaihd.net/steamcommunity/public/images/apps/963690/64b7668bbfdc7b6733a2b2e2d07d01e0a1acbf9a.jpg",
    "icongray": "https://steamcdn-a.akamaihd.net/steamcommunity/public/images/apps/963690/a57117cd3a5217ae148e1310bfea03b2aa59f3d0.jpg"
  },
  {
    "name": "ACHIEVEMENT_100",
    "defaultvalue": 0,
    "displayName": "Complete level 10",
    "hidden": 0,
    "description": "Complete level 10",
    "icon": "https://steamcdn-a.akamaihd.net/steamcommunity/public/images/apps/963690/902cd24b5e5aa9c14d28b18d4ca7ef39d86ebd91.jpg",
    "icongray": "https://steamcdn-a.akamaihd.net/steamcommunity/public/images/apps/963690/82a99ad37857dab2d39318847d5f439d6f6ba87a.jpg"
  }
]