[
  {
    "name": "NEW_ACHIEVEMENT_1_0",
    "defaultvalue": 0,
    "displayName": "FUMIKO_STAGE_1",
    "hidden": 0,
    "description": "FUMIKO_STAGE_1",
    "icon": "https://steamcdn-a.akamaihd.net/steamcommunity/public/images/apps/990500/5c59df980fce7ae321d5043309a54437d744202c.jpg",
    "icongray": "https://steamcdn-a.akamaihd.net/steamcommunity/public/images/apps/990500/e1c38beed27d7ee094a5a449786212951131f827.jpg"
  },
  {
    "name": "NEW_ACHIEVEMENT_1_1",
    "defaultvalue": 0,
    "displayName": "FUMIKO_STAGE_2",
    "hidden": 0,
    "description": "FUMIKO_STAGE_2",
    "icon": "https://steamcdn-a.akamaihd.net/steamcommunity/public/images/apps/990500/e7cef4622f435ddb69a396b6c758831bcb57b047.jpg",
    "icongray": "https://steamcdn-a.akamaihd.net/steamcommunity/public/images/apps/990500/60a554f0fe4ec6db1980a144849f30ccc55f3342.jpg"
  },
  {
    "name": "NEW_ACHIEVEMENT_1_2",
    "defaultvalue": 0,
    "displayName": "FUMIKO_STAGE_3",
    "hidden": 0,
    "description": "FUMIKO_STAGE_3",
    "icon": "https://steamcdn-a.akamaihd.net/steamcommunity/public/images/apps/990500/bd56f8d454ed19005dd4aed7d20b8d6f8eb7fcb6.jpg",
    "icongray": "https://steamcdn-a.akamaihd.net/steamcommunity/public/images/apps/990500/b0ecd1fd1d9aa93f035200e7135d0122c301e96d.jpg"
  },
  {
    "name": "NEW_ACHIEVEMENT_1_3",
    "defaultvalue": 0,
    "displayName": "FUMIKO_STAGE_4",
    "hidden": 0,
    "description": "FUMIKO_STAGE_4",
    "icon": "https://steamcdn-a.akamaihd.net/steamcommunity/public/images/apps/990500/db63ea63d5689e13acc830ef23db18dc1eadb9cd.jpg",
    "icongray": "https://steamcdn-a.akamaihd.net/steamcommunity/public/images/apps/990500/3a9e90614d36d9d20916a2c04b4371a741106a38.jpg"
  },
  {
    "name": "NEW_ACHIEVEMENT_1_4",
    "defaultvalue": 0,
    "displayName": "FUMIKO_STAGE_5",
    "hidden": 0,
    "description": "FUMIKO_STAGE_5",
    "icon": "https://steamcdn-a.akamaihd.net/steamcommunity/public/images/apps/990500/c8f30f4653a1697b3169a393349a2b6e8c79bf2d.jpg",
    "icongray": "https://steamcdn-a.akamaihd.net/steamcommunity/public/images/apps/990500/9bab28cb84d39b0c1b90f57076234676aa7800a2.jpg"
  },
  {
    "name": "NEW_ACHIEVEMENT_1_5",
    "defaultvalue": 0,
    "displayName": "REN_STAGE_1",
    "hidden": 0,
    "description": "REN_STAGE_1",
    "icon": "https://steamcdn-a.akamaihd.net/steamcommunity/public/images/apps/990500/971e85bcff49c98dd1c531eeff4b6404222789ec.jpg",
    "icongray": "https://steamcdn-a.akamaihd.net/steamcommunity/public/images/apps/990500/8070c20599d1ea227c75d99585f5b9d482d9809b.jpg"
  },
  {
    "name": "NEW_ACHIEVEMENT_1_6",
    "defaultvalue": 0,
    "displayName": "REN_STAGE_2",
    "hidden": 0,
    "description": "REN_STAGE_2",
    "icon": "https://steamcdn-a.akamaihd.net/steamcommunity/public/images/apps/990500/706d88ee50df996bf85c803311f60eff8f9da9e5.jpg",
    "icongray": "https://steamcdn-a.akamaihd.net/steamcommunity/public/images/apps/990500/17fe9929fe7b1b790d3926f1f1fd982d052cbd48.jpg"
  },
  {
    "name": "NEW_ACHIEVEMENT_1_7",
    "defaultvalue": 0,
    "displayName": "REN_STAGE_3",
    "hidden": 0,
    "description": "REN_STAGE_3",
    "icon": "https://steamcdn-a.akamaihd.net/steamcommunity/public/images/apps/990500/4aaa41380e64c78346950370e5f4a981fa436213.jpg",
    "icongray": "https://steamcdn-a.akamaihd.net/steamcommunity/public/images/apps/990500/509343d607bacdb72568df9124bf829cf21167cb.jpg"
  },
  {
    "name": "NEW_ACHIEVEMENT_1_8",
    "defaultvalue": 0,
    "displayName": "REN_STAGE_4",
    "hidden": 0,
    "description": "REN_STAGE_4",
    "icon": "https://steamcdn-a.akamaihd.net/steamcommunity/public/images/apps/990500/5637ac9e3ae89b101eb0890bbe68861272044cf7.jpg",
    "icongray": "https://steamcdn-a.akamaihd.net/steamcommunity/public/images/apps/990500/0e7d5ac8be3baa427b6ef00e2a35298e0c912f62.jpg"
  },
  {
    "name": "NEW_ACHIEVEMENT_1_9",
    "defaultvalue": 0,
    "displayName": "REN_STAGE_5",
    "hidden": 0,
    "description": "REN_STAGE_5",
    "icon": "https://steamcdn-a.akamaihd.net/steamcommunity/public/images/apps/990500/f374ac6637651fb03a4ce402ed5327cc9f6c0698.jpg",
    "icongray": "https://steamcdn-a.akamaihd.net/steamcommunity/public/images/apps/990500/b756eeeb12ff657824ee451f3df33f8560f87bd4.jpg"
  },
  {
    "name": "NEW_ACHIEVEMENT_1_10",
    "defaultvalue": 0,
    "displayName": "NANA_STAGE_1",
    "hidden": 0,
    "description": "NANA_STAGE_1",
    "icon": "https://steamcdn-a.akamaihd.net/steamcommunity/public/images/apps/990500/40ec8fc1fe42a16d819f35d554b079bd10db50cb.jpg",
    "icongray": "https://steamcdn-a.akamaihd.net/steamcommunity/public/images/apps/990500/fb9e46f0e2dab8423716fb70c278e3ea94a1483a.jpg"
  },
  {
    "name": "NEW_ACHIEVEMENT_1_11",
    "defaultvalue": 0,
    "displayName": "NANA_STAGE_2",
    "hidden": 0,
    "description": "NANA_STAGE_2",
    "icon": "https://steamcdn-a.akamaihd.net/steamcommunity/public/images/apps/990500/af23ded93d194aabe1eee2e3f3d9e20ca5f70517.jpg",
    "icongray": "https://steamcdn-a.akamaihd.net/steamcommunity/public/images/apps/990500/10452563a1092af877985da3522b49c76fd079b8.jpg"
  },
  {
    "name": "NEW_ACHIEVEMENT_1_12",
    "defaultvalue": 0,
    "displayName": "NANA_STAGE_3",
    "hidden": 0,
    "description": "NANA_STAGE_3",
    "icon": "https://steamcdn-a.akamaihd.net/steamcommunity/public/images/apps/990500/172209e70ed4ff72fa02c79abf3d16a49e947ef7.jpg",
    "icongray": "https://steamcdn-a.akamaihd.net/steamcommunity/public/images/apps/990500/1d9e3d2ce6c8a69ae63165575d67f5398bd31501.jpg"
  },
  {
    "name": "NEW_ACHIEVEMENT_1_13",
    "defaultvalue": 0,
    "displayName": "NANA_STAGE_4",
    "hidden": 0,
    "description": "NANA_STAGE_4",
    "icon": "https://steamcdn-a.akamaihd.net/steamcommunity/public/images/apps/990500/d4ecc6caefde2b8fd28e0e59b6ec344963b853f1.jpg",
    "icongray": "https://steamcdn-a.akamaihd.net/steamcommunity/public/images/apps/990500/3fdb23bc5f0a425839d6ce7c9a3a99ca91692885.jpg"
  },
  {
    "name": "NEW_ACHIEVEMENT_1_14",
    "defaultvalue": 0,
    "displayName": "NANA_STAGE_5",
    "hidden": 0,
    "description": "NANA_STAGE_5",
    "icon": "https://steamcdn-a.akamaihd.net/steamcommunity/public/images/apps/990500/e0366f66c29859f49de1b69d37c183bf3ab8393e.jpg",
    "icongray": "https://steamcdn-a.akamaihd.net/steamcommunity/public/images/apps/990500/e366f42c6256673970309c751c64fd9ad92a3e5a.jpg"
  }
]