﻿[
  {
    "name": "ACH_STORY1",
    "defaultvalue": 0,
    "displayName": "Happy Birthday",
    "hidden": 1,
    "icon": "https://steamcdn-a.akamaihd.net/steamcommunity/public/images/apps/274350/5e97102ba11a43105780f3b4137b5c7993a9bea0.jpg",
    "icongray": "https://steamcdn-a.akamaihd.net/steamcommunity/public/images/apps/274350/72aadfa3439375ab638bfbb26976f0682fc627be.jpg"
  },
  {
    "name": "ACH_STORY2",
    "defaultvalue": 0,
    "displayName": "Furry Friend",
    "hidden": 1,
    "icon": "https://steamcdn-a.akamaihd.net/steamcommunity/public/images/apps/274350/38209d5770566ac88218466253658e9d5e004548.jpg",
    "icongray": "https://steamcdn-a.akamaihd.net/steamcommunity/public/images/apps/274350/72aadfa3439375ab638bfbb26976f0682fc627be.jpg"
  },
  {
    "name": "ACH_STORY3",
    "defaultvalue": 0,
    "displayName": "Mouspionage",
    "hidden": 1,
    "icon": "https://steamcdn-a.akamaihd.net/steamcommunity/public/images/apps/274350/c86d0dc71350534ecb48b756b3b514cb6164bd4c.jpg",
    "icongray": "https://steamcdn-a.akamaihd.net/steamcommunity/public/images/apps/274350/72aadfa3439375ab638bfbb26976f0682fc627be.jpg"
  },
  {
    "name": "ACH_STORY4",
    "defaultvalue": 0,
    "displayName": "Animal Lover",
    "hidden": 1,
    "icon": "https://steamcdn-a.akamaihd.net/steamcommunity/public/images/apps/274350/0ed1079d50efaebc403dcc7e7b78c5dcea18b818.jpg",
    "icongray": "https://steamcdn-a.akamaihd.net/steamcommunity/public/images/apps/274350/72aadfa3439375ab638bfbb26976f0682fc627be.jpg"
  },
  {
    "name": "ACH_STORY5",
    "defaultvalue": 0,
    "displayName": "Gainfully Employed",
    "hidden": 1,
    "icon": "https://steamcdn-a.akamaihd.net/steamcommunity/public/images/apps/274350/135269f0778dab9d3a6435737b3d5f206b8e0465.jpg",
    "icongray": "https://steamcdn-a.akamaihd.net/steamcommunity/public/images/apps/274350/72aadfa3439375ab638bfbb26976f0682fc627be.jpg"
  },
  {
    "name": "ACH_STORY6",
    "defaultvalue": 0,
    "displayName": "Daywalker",
    "hidden": 1,
    "icon": "https://steamcdn-a.akamaihd.net/steamcommunity/public/images/apps/274350/69c2f1c3cf391c76e181066de868d208526acf69.jpg",
    "icongray": "https://steamcdn-a.akamaihd.net/steamcommunity/public/images/apps/274350/72aadfa3439375ab638bfbb26976f0682fc627be.jpg"
  },
  {
    "name": "ACH_STORY7",
    "defaultvalue": 0,
    "displayName": "Spelunking",
    "hidden": 1,
    "icon": "https://steamcdn-a.akamaihd.net/steamcommunity/public/images/apps/274350/d8312b66d9cf0accb736dc5982be91b70c856f91.jpg",
    "icongray": "https://steamcdn-a.akamaihd.net/steamcommunity/public/images/apps/274350/72aadfa3439375ab638bfbb26976f0682fc627be.jpg"
  },
  {
    "name": "ACH_STORY8",
    "defaultvalue": 0,
    "displayName": "Ramsay the Clown",
    "hidden": 1,
    "icon": "https://steamcdn-a.akamaihd.net/steamcommunity/public/images/apps/274350/22f5ef3414858c6c2464bb7cf524c10586e223ca.jpg",
    "icongray": "https://steamcdn-a.akamaihd.net/steamcommunity/public/images/apps/274350/72aadfa3439375ab638bfbb26976f0682fc627be.jpg"
  },
  {
    "name": "ACH_STORY9",
    "defaultvalue": 0,
    "displayName": "This isn't even my final form!",
    "hidden": 1,
    "icon": "https://steamcdn-a.akamaihd.net/steamcommunity/public/images/apps/274350/07e3fd54ebb2680165fa1915c579467b79bc166d.jpg",
    "icongray": "https://steamcdn-a.akamaihd.net/steamcommunity/public/images/apps/274350/72aadfa3439375ab638bfbb26976f0682fc627be.jpg"
  },
  {
    "name": "ACH_STORY10",
    "defaultvalue": 0,
    "displayName": "The Longest Hug",
    "hidden": 1,
    "icon": "https://steamcdn-a.akamaihd.net/steamcommunity/public/images/apps/274350/6bea7f199c1d62a56940eb5faad9d0849069522f.jpg",
    "icongray": "https://steamcdn-a.akamaihd.net/steamcommunity/public/images/apps/274350/72aadfa3439375ab638bfbb26976f0682fc627be.jpg"
  },
  {
    "name": "ACH_TAPEWORM",
    "defaultvalue": 0,
    "displayName": "Tapeworm",
    "hidden": 1,
    "icon": "https://steamcdn-a.akamaihd.net/steamcommunity/public/images/apps/274350/d861788586de9f7697e8e70c43ad7d8025fe2ed2.jpg",
    "icongray": "https://steamcdn-a.akamaihd.net/steamcommunity/public/images/apps/274350/72aadfa3439375ab638bfbb26976f0682fc627be.jpg"
  },
  {
    "name": "ACH_HUGGALO",
    "defaultvalue": 0,
    "displayName": "Huggalo",
    "hidden": 1,
    "icon": "https://steamcdn-a.akamaihd.net/steamcommunity/public/images/apps/274350/82d5f66c10188a92dca0efa3566d69d0e566da2f.jpg",
    "icongray": "https://steamcdn-a.akamaihd.net/steamcommunity/public/images/apps/274350/72aadfa3439375ab638bfbb26976f0682fc627be.jpg"
  },
  {
    "name": "ACH_TREEHUGGER",
    "defaultvalue": 0,
    "displayName": "Treehugger",
    "hidden": 1,
    "icon": "https://steamcdn-a.akamaihd.net/steamcommunity/public/images/apps/274350/b7acb43f5179bc6f34661a23d97a11a81e62b39e.jpg",
    "icongray": "https://steamcdn-a.akamaihd.net/steamcommunity/public/images/apps/274350/72aadfa3439375ab638bfbb26976f0682fc627be.jpg"
  },
  {
    "name": "ACH_MOISTENING",
    "defaultvalue": 0,
    "displayName": "The Moistening",
    "hidden": 1,
    "icon": "https://steamcdn-a.akamaihd.net/steamcommunity/public/images/apps/274350/b7bc2556ce79301dae0c3d7eee9bf306c759f92f.jpg",
    "icongray": "https://steamcdn-a.akamaihd.net/steamcommunity/public/images/apps/274350/72aadfa3439375ab638bfbb26976f0682fc627be.jpg"
  },
  {
    "name": "ACH_TIGHTPANTS",
    "defaultvalue": 0,
    "displayName": "Tight Pants",
    "hidden": 1,
    "icon": "https://steamcdn-a.akamaihd.net/steamcommunity/public/images/apps/274350/44b7489c60dec456163965c6dd787dff978a09dd.jpg",
    "icongray": "https://steamcdn-a.akamaihd.net/steamcommunity/public/images/apps/274350/72aadfa3439375ab638bfbb26976f0682fc627be.jpg"
  },
  {
    "name": "ACH_SECRETINGREDIENT",
    "defaultvalue": 0,
    "displayName": "Secret Ingredient",
    "hidden": 1,
    "icon": "https://steamcdn-a.akamaihd.net/steamcommunity/public/images/apps/274350/07a0be22561d829fb4cbdcef22e013cb32e6e67b.jpg",
    "icongray": "https://steamcdn-a.akamaihd.net/steamcommunity/public/images/apps/274350/72aadfa3439375ab638bfbb26976f0682fc627be.jpg"
  },
  {
    "name": "ACH_CLOWNOGRAPHER",
    "defaultvalue": 0,
    "displayName": "Clownographer",
    "hidden": 1,
    "icon": "https://steamcdn-a.akamaihd.net/steamcommunity/public/images/apps/274350/46790baa11abe656b4d8f55d9c4eca1d39de7bdb.jpg",
    "icongray": "https://steamcdn-a.akamaihd.net/steamcommunity/public/images/apps/274350/72aadfa3439375ab638bfbb26976f0682fc627be.jpg"
  },
  {
    "name": "ACH_TREASUREHUNTER",
    "defaultvalue": 0,
    "displayName": "Treasure Hunter",
    "hidden": 1,
    "icon": "https://steamcdn-a.akamaihd.net/steamcommunity/public/images/apps/274350/0010504846746c888b3f1fdade9e3e5f727dfa01.jpg",
    "icongray": "https://steamcdn-a.akamaihd.net/steamcommunity/public/images/apps/274350/72aadfa3439375ab638bfbb26976f0682fc627be.jpg"
  },
  {
    "name": "ACH_CLOWNFISH",
    "defaultvalue": 0,
    "displayName": "Clownfish",
    "hidden": 1,
    "icon": "https://steamcdn-a.akamaihd.net/steamcommunity/public/images/apps/274350/da5098ff631c467b3ce5cd96106509a12fc12110.jpg",
    "icongray": "https://steamcdn-a.akamaihd.net/steamcommunity/public/images/apps/274350/72aadfa3439375ab638bfbb26976f0682fc627be.jpg"
  },
  {
    "name": "ACH_PISSUP",
    "defaultvalue": 0,
    "displayName": "Piss-Up",
    "hidden": 1,
    "icon": "https://steamcdn-a.akamaihd.net/steamcommunity/public/images/apps/274350/19cf130f3280be6276c16c4507d8de03e5386b1e.jpg",
    "icongray": "https://steamcdn-a.akamaihd.net/steamcommunity/public/images/apps/274350/72aadfa3439375ab638bfbb26976f0682fc627be.jpg"
  },
  {
    "name": "ACH_DREAMWEAVER",
    "defaultvalue": 0,
    "displayName": "Dreamweaver",
    "hidden": 1,
    "icon": "https://steamcdn-a.akamaihd.net/steamcommunity/public/images/apps/274350/583fb031567d8523c39b0149e78a8521e448eb93.jpg",
    "icongray": "https://steamcdn-a.akamaihd.net/steamcommunity/public/images/apps/274350/72aadfa3439375ab638bfbb26976f0682fc627be.jpg"
  },
  {
    "name": "ACH_CLOWNABOUTTOWN",
    "defaultvalue": 0,
    "displayName": "Clown About Town",
    "hidden": 1,
    "icon": "https://steamcdn-a.akamaihd.net/steamcommunity/public/images/apps/274350/4b1be3a7dffbf8701dcf51a398a41b7070aeefe1.jpg",
    "icongray": "https://steamcdn-a.akamaihd.net/steamcommunity/public/images/apps/274350/72aadfa3439375ab638bfbb26976f0682fc627be.jpg"
  },
  {
    "name": "ACH_GASSY",
    "defaultvalue": 0,
    "displayName": "The Perfect Storm",
    "hidden": 1,
    "icon": "https://steamcdn-a.akamaihd.net/steamcommunity/public/images/apps/274350/2087d0af7013e6b0f52a3845882229ecfdf3c646.jpg",
    "icongray": "https://steamcdn-a.akamaihd.net/steamcommunity/public/images/apps/274350/72aadfa3439375ab638bfbb26976f0682fc627be.jpg"
  },
  {
    "name": "ACH_REGULARCLOWN",
    "defaultvalue": 0,
    "displayName": "A Regular Clown",
    "hidden": 1,
    "icon": "https://steamcdn-a.akamaihd.net/steamcommunity/public/images/apps/274350/f82159193a58f0de2d27ce0877485a3d1035c260.jpg",
    "icongray": "https://steamcdn-a.akamaihd.net/steamcommunity/public/images/apps/274350/72aadfa3439375ab638bfbb26976f0682fc627be.jpg"
  },
  {
    "name": "ACH_GREENNUBS",
    "defaultvalue": 0,
    "displayName": "Green Nubs",
    "hidden": 1,
    "icon": "https://steamcdn-a.akamaihd.net/steamcommunity/public/images/apps/274350/c84fcf82670cc85f18d93dd6d54997b52f1a10b3.jpg",
    "icongray": "https://steamcdn-a.akamaihd.net/steamcommunity/public/images/apps/274350/72aadfa3439375ab638bfbb26976f0682fc627be.jpg"
  },
  {
    "name": "ACH_CHURCHOFCLOWN",
    "defaultvalue": 0,
    "displayName": "Church of Clown",
    "hidden": 1,
    "icon": "https://steamcdn-a.akamaihd.net/steamcommunity/public/images/apps/274350/245ab6c6637b65f26d30fbbff1517c3f20597a40.jpg",
    "icongray": "https://steamcdn-a.akamaihd.net/steamcommunity/public/images/apps/274350/72aadfa3439375ab638bfbb26976f0682fc627be.jpg"
  },
  {
    "name": "ACH_PROBINGFORHUGS",
    "defaultvalue": 0,
    "displayName": "Probing for Hugs",
    "hidden": 1,
    "icon": "https://steamcdn-a.akamaihd.net/steamcommunity/public/images/apps/274350/c8518dd09ecfa9cbdfc158481d1cce75329d82a7.jpg",
    "icongray": "https://steamcdn-a.akamaihd.net/steamcommunity/public/images/apps/274350/72aadfa3439375ab638bfbb26976f0682fc627be.jpg"
  },
  {
    "name": "ACH_REUNION",
    "defaultvalue": 0,
    "displayName": "Family Reunion",
    "hidden": 1,
    "icon": "https://steamcdn-a.akamaihd.net/steamcommunity/public/images/apps/274350/72d4c320cbcbf98c6ca2d76811b9d997a5849444.jpg",
    "icongray": "https://steamcdn-a.akamaihd.net/steamcommunity/public/images/apps/274350/72aadfa3439375ab638bfbb26976f0682fc627be.jpg"
  },
  {
    "name": "ACH_GOODSAMARICLOWN",
    "defaultvalue": 0,
    "displayName": "Good Samariclown",
    "hidden": 1,
    "icon": "https://steamcdn-a.akamaihd.net/steamcommunity/public/images/apps/274350/c3a8126f250af8bccf21c639f2b644537dabdacd.jpg",
    "icongray": "https://steamcdn-a.akamaihd.net/steamcommunity/public/images/apps/274350/72aadfa3439375ab638bfbb26976f0682fc627be.jpg"
  },
  {
    "name": "ACH_CLOWNLEVEL",
    "defaultvalue": 0,
    "displayName": "What Does It Say About His Clown Level!?",
    "hidden": 1,
    "icon": "https://steamcdn-a.akamaihd.net/steamcommunity/public/images/apps/274350/287c0c65a8666ff84f93fc36b438c8c4475fb732.jpg",
    "icongray": "https://steamcdn-a.akamaihd.net/steamcommunity/public/images/apps/274350/72aadfa3439375ab638bfbb26976f0682fc627be.jpg"
  }
]