{
  "Dlcs": {
    "1150970": {
      "Name": "SteamDolls - Order Of Chaos : Graphic Novels DLC",
      "ImageUrl": "https://steamcdn-a.akamaihd.net/steam/apps/1150970/header.jpg?t=1573761882"
    },
    "1153820": {
      "Name": "SteamDolls - Order Of Chaos : OST",
      "ImageUrl": "https://steamcdn-a.akamaihd.net/steam/apps/1153820/header.jpg?t=1573761968"
    }
  },
  "Name": "SteamDolls - Order Of Chaos : Concept Demo",
  "AppId": "1030760",
  "ImageUrl": "https://steamcdn-a.akamaihd.net/steam/apps/1030760/header.jpg?t=1588651049",
  "Languages": [
    "english"
  ],
  "Platforms": {
    "windows": true,
    "mac": false,
    "linux": false
  }
}