{
  "Dlcs": {},
  "Name": "Bunka no Kenkyu - Revival of Queen Leyak -",
  "AppId": "521420",
  "ImageUrl": "https://steamcdn-a.akamaihd.net/steam/apps/521420/header.jpg?t=1512155846",
  "Languages": [
    "english"
  ],
  "Platforms": {
    "windows": true,
    "mac": true,
    "linux": false
  }
}