{
  "Dlcs": {},
  "Name": "D.R.I.L.L.",
  "AppId": "766650",
  "ImageUrl": "https://steamcdn-a.akamaihd.net/steam/apps/766650/header.jpg?t=1516759064",
  "Languages": [
    "english"
  ],
  "Platforms": {
    "windows": true,
    "mac": false,
    "linux": false
  }
}