[
  {
    "name": "STATS_TOTALDISTANCE",
    "defaultvalue": 0,
    "displayName": "Total Distance"
  },
  {
    "name": "STATS_TOTALCRASHES",
    "defaultvalue": 0,
    "displayName": "Total Crashes"
  },
  {
    "name": "STATS_TOTALTRIES",
    "defaultvalue": 0,
    "displayName": "Total Tries"
  },
  {
    "name": "STATS_TOTALCOMPLETEDRUNS",
    "defaultvalue": 0,
    "displayName": "Completed Runs"
  },
  {
    "name": "STATS_TOTALCOMPLETEDSECTIONS",
    "defaultvalue": 0,
    "displayName": "Completed Sections"
  },
  {
    "name": "STATS_MAXTRIESPERSECTION",
    "defaultvalue": 0,
    "displayName": "Max Tries Per Section"
  },
  {
    "name": "STATS_MAXSPEED",
    "defaultvalue": 0,
    "displayName": "Top Speed"
  },
  {
    "name": "STATS_TOTALRESETS",
    "defaultvalue": 0,
    "displayName": "Total Resets"
  },
  {
    "name": "STATS_TOTALDROPHEIGHT",
    "defaultvalue": 0,
    "displayName": "Total Drop Height"
  },
  {
    "name": "STATS_MAXCRASHESINRUN",
    "defaultvalue": 0,
    "displayName": "Max Crashes in One Run"
  },
  {
    "name": "STATS_MAXRUNSWITHOUTCRASH",
    "defaultvalue": 0,
    "displayName": "Max Runs Without A Crash In A Row"
  },
  {
    "name": "STATS_MAXTRIESPERRUN",
    "defaultvalue": 0,
    "displayName": "Max Tries Per Run"
  },
  {
    "name": "STATS_CURRENTRUNSWITHOUTCRASH",
    "defaultvalue": 0,
    "displayName": "Current Perfect Run Streak"
  },
  {
    "name": "STATS_TOTALVERTICALDISTANCEASCENT",
    "defaultvalue": 0,
    "displayName": "Total Vertical Ascent"
  },
  {
    "name": "STATS_TOTALVERTICALDISTANCEDESCENT",
    "defaultvalue": 0,
    "displayName": "Total Vertical Descent"
  },
  {
    "name": "STATS_TOTALJUMPDISTANCE",
    "defaultvalue": 0,
    "displayName": "Total Jump Distance"
  },
  {
    "name": "STATS_TOTALSPRINTTIME",
    "defaultvalue": 0,
    "displayName": "Total Sprint Time"
  },
  {
    "name": "STATS_TOTALDISTANCEWITHOUTPEDALING",
    "defaultvalue": 0,
    "displayName": "Total Distance Without Pedaling"
  },
  {
    "name": "STATS_TOTALDISTANCEWITHOUTBRAKING",
    "defaultvalue": 0,
    "displayName": "Total Distance WIthout Braking"
  },
  {
    "name": "STATS_MAXTRAVELDISTANCEINRUN",
    "defaultvalue": 0,
    "displayName": "Max Travel Distance In One Run"
  },
  {
    "name": "STATS_MAXTRAVELTIMEINRUN",
    "defaultvalue": 0,
    "displayName": "Max Travel Time in One Run"
  },
  {
    "name": "STATS_MAXDROPHEIGHT",
    "defaultvalue": 0,
    "displayName": "Max Drop Height"
  },
  {
    "name": "STATS_MAXJUMPDISTANCE",
    "defaultvalue": 0,
    "displayName": "Max Jump Distance"
  },
  {
    "name": "STATS_MAXCRASHIMPACT",
    "defaultvalue": 0,
    "displayName": "Max Crash Impace"
  },
  {
    "name": "STATS_MAXDISTANCEWITHOUTPEDALING",
    "defaultvalue": 0,
    "displayName": "Max Distance Without Pedaling In One Run"
  },
  {
    "name": "STATS_MAXDISTANCEWITHOUTBRAKING",
    "defaultvalue": 0,
    "displayName": "Max Distance Without Braking In One Run"
  },
  {
    "name": "STATS_TOTALCRASHESAGAINSTTREE",
    "defaultvalue": 0,
    "displayName": "Total Crashes Against Trees"
  },
  {
    "name": "STATS_TOTALCRASHESAGAINSTROCK",
    "defaultvalue": 0,
    "displayName": "Total Crashes Against Rocks"
  },
  {
    "name": "STATS_TOTALCRASHESAGAINSTCACTUS",
    "defaultvalue": 0,
    "displayName": "Total Crashes Against Cactusses"
  },
  {
    "name": "STATS_TOTALCRASHESINWATER",
    "defaultvalue": 0,
    "displayName": "Total Crashes Into Water"
  },
  {
    "name": "STATS_TOTALCRASHESINLAVA",
    "defaultvalue": 0,
    "displayName": "Total Crashes Into Lava"
  }
]