{
  "Dlcs": {},
  "Name": "Space Battlecruiser",
  "AppId": "673740",
  "ImageUrl": "https://steamcdn-a.akamaihd.net/steam/apps/673740/header.jpg?t=1529876199",
  "Languages": [
    "english"
  ],
  "Platforms": {
    "windows": true,
    "mac": false,
    "linux": false
  }
}