﻿{
  "Dlcs": {},
  "Name": "Quarantine simulator",
  "AppId": "1414990",
  "ImageUrl": "https://steamcdn-a.akamaihd.net/steam/apps/1414990/header.jpg?t=1600525253",
  "Languages": [
    "english",
    "russian"
  ],
  "Platforms": {
    "windows": true,
    "mac": false,
    "linux": false
  }
}