[
  {
    "name": "ENDING_BESTGOOD",
    "defaultvalue": 0,
    "displayName": "Blood ties",
    "hidden": 0,
    "description": "Get your closest person out of the orphanage.",
    "icon": "https://steamcdn-a.akamaihd.net/steamcommunity/public/images/apps/1085160/09fec8514099ae5a5f414a2e3adcf5def5cc8c06.jpg",
    "icongray": "https://steamcdn-a.akamaihd.net/steamcommunity/public/images/apps/1085160/6a32d55c74e9dad573b1eef7e545543814489b4b.jpg"
  },
  {
    "name": "ENDING_GOOD",
    "defaultvalue": 0,
    "displayName": "Freedom and peace",
    "hidden": 0,
    "description": "Release the specters and leave their jailer behind.",
    "icon": "https://steamcdn-a.akamaihd.net/steamcommunity/public/images/apps/1085160/942de57ce6a4c572fe5027ed8002ba47445f9b95.jpg",
    "icongray": "https://steamcdn-a.akamaihd.net/steamcommunity/public/images/apps/1085160/b4ac5618d585c84a532cb50039439eadda42a4e3.jpg"
  },
  {
    "name": "ENDING_BAD",
    "defaultvalue": 0,
    "displayName": "Strict order",
    "hidden": 0,
    "description": "Leave the shelter, and let its specters to be under control.",
    "icon": "https://steamcdn-a.akamaihd.net/steamcommunity/public/images/apps/1085160/122132bd815c84f700c115c27c508d90b4b9f29d.jpg",
    "icongray": "https://steamcdn-a.akamaihd.net/steamcommunity/public/images/apps/1085160/fc9a9b239dc20fb26d1da0b24a8dd14a9a2fdf46.jpg"
  },
  {
    "name": "ENDING_VERYBAD",
    "defaultvalue": 0,
    "displayName": "The word is \"Eternity\"",
    "hidden": 0,
    "description": "Stay at the orphanage to keep an order in it.",
    "icon": "https://steamcdn-a.akamaihd.net/steamcommunity/public/images/apps/1085160/089c9d90bf31e84cfcaa36174601ec4658e5fb4e.jpg",
    "icongray": "https://steamcdn-a.akamaihd.net/steamcommunity/public/images/apps/1085160/7e69cbbb4427c39f08dd4313d58589c19c142172.jpg"
  },
  {
    "name": "ENDING_SECRET",
    "defaultvalue": 0,
    "displayName": "Screw this stuff, I'm out",
    "hidden": 0,
    "description": "Leave the orphanage after the first sign of danger.",
    "icon": "https://steamcdn-a.akamaihd.net/steamcommunity/public/images/apps/1085160/0214f8b11d918c51a9ee47118b0da0676e486198.jpg",
    "icongray": "https://steamcdn-a.akamaihd.net/steamcommunity/public/images/apps/1085160/82e4230856ee9d7f4985bdf6600728eef542ff5a.jpg"
  },
  {
    "name": "SHKAF_2MIN",
    "defaultvalue": 0,
    "displayName": "This is my shelter",
    "hidden": 0,
    "description": "Spend two minutes in a row in the closet.",
    "icon": "https://steamcdn-a.akamaihd.net/steamcommunity/public/images/apps/1085160/ff24406781e48d99472e8111e89c8efb4f84c8e1.jpg",
    "icongray": "https://steamcdn-a.akamaihd.net/steamcommunity/public/images/apps/1085160/7f2b66b91ff63063f6dba56edc4a3adace991828.jpg"
  },
  {
    "name": "SVECHI10",
    "defaultvalue": 0,
    "displayName": "Are you afraid of the dark?",
    "hidden": 0,
    "description": "Light 10 candles.",
    "icon": "https://steamcdn-a.akamaihd.net/steamcommunity/public/images/apps/1085160/8998d48897f3077ef1705c1d3ae223a60e9b741c.jpg",
    "icongray": "https://steamcdn-a.akamaihd.net/steamcommunity/public/images/apps/1085160/7cdc8dfe3088cef87912e0eb02be7b327bc63488.jpg"
  },
  {
    "name": "SUP",
    "defaultvalue": 0,
    "displayName": "Dinner is ready",
    "hidden": 0,
    "description": "Cook soup for dinner.",
    "icon": "https://steamcdn-a.akamaihd.net/steamcommunity/public/images/apps/1085160/f5cd00ca9036584e9fad56efc711ac1d6bbfaba4.jpg",
    "icongray": "https://steamcdn-a.akamaihd.net/steamcommunity/public/images/apps/1085160/7dc9447ebd1a5bea6d725b18686b225588b12383.jpg"
  },
  {
    "name": "BASSEIN",
    "defaultvalue": 0,
    "displayName": "Under the blood",
    "hidden": 0,
    "description": "Go down on the bottom of the pool.",
    "icon": "https://steamcdn-a.akamaihd.net/steamcommunity/public/images/apps/1085160/ceaae155e060f6e90c48848819b9e9567ad2f31c.jpg",
    "icongray": "https://steamcdn-a.akamaihd.net/steamcommunity/public/images/apps/1085160/c5aa1969f7cd6f09b843cdaa57e02288c2d5bb74.jpg"
  },
  {
    "name": "RADIO",
    "defaultvalue": 0,
    "displayName": "Whispers of the past",
    "hidden": 0,
    "description": "Listen some radio.",
    "icon": "https://steamcdn-a.akamaihd.net/steamcommunity/public/images/apps/1085160/ad1e81b1066134e70ced7fc435921bb954636d85.jpg",
    "icongray": "https://steamcdn-a.akamaihd.net/steamcommunity/public/images/apps/1085160/9404caf19cfcef387732a486c79c61df1272cffc.jpg"
  },
  {
    "name": "VODKA",
    "defaultvalue": 0,
    "displayName": "Royal liquid",
    "hidden": 0,
    "description": "Prepare an aqua regia.",
    "icon": "https://steamcdn-a.akamaihd.net/steamcommunity/public/images/apps/1085160/83596e8eef9a0d8546d4da307eede3ba97220e5b.jpg",
    "icongray": "https://steamcdn-a.akamaihd.net/steamcommunity/public/images/apps/1085160/75a628aa82a5b83067f305b74bec7b385d6055b3.jpg"
  },
  {
    "name": "UBEGI",
    "defaultvalue": 0,
    "displayName": "Still alive",
    "hidden": 0,
    "description": "Run away from the pursuer after he noticed you.",
    "icon": "https://steamcdn-a.akamaihd.net/steamcommunity/public/images/apps/1085160/66bcc20c6583be82d40646668b04b62a94a033fd.jpg",
    "icongray": "https://steamcdn-a.akamaihd.net/steamcommunity/public/images/apps/1085160/cfcbb9828e788661bc5e9d252e05db4a05bf31c8.jpg"
  },
  {
    "name": "ZAJIGALKA",
    "defaultvalue": 0,
    "displayName": "Let it be light",
    "hidden": 0,
    "description": "Use the lighter for the first time.",
    "icon": "https://steamcdn-a.akamaihd.net/steamcommunity/public/images/apps/1085160/9ad8cd096a171075a79333b2201250d1e27d44e0.jpg",
    "icongray": "https://steamcdn-a.akamaihd.net/steamcommunity/public/images/apps/1085160/019c05b9414bf35e4fb60b80b766f90a7984b274.jpg"
  },
  {
    "name": "KARTINKI10",
    "defaultvalue": 0,
    "displayName": "Pictures of the past",
    "hidden": 0,
    "description": "Find 10 different drawings.",
    "icon": "https://steamcdn-a.akamaihd.net/steamcommunity/public/images/apps/1085160/1de06584a600e6562e6e3006009350809ee386b3.jpg",
    "icongray": "https://steamcdn-a.akamaihd.net/steamcommunity/public/images/apps/1085160/283d430a90c14319e0b839ac3873b744a5946bf0.jpg"
  },
  {
    "name": "ZJIGA7MIN",
    "defaultvalue": 0,
    "displayName": "This is my humble flame",
    "hidden": 0,
    "description": "Make sure that the lighter burns for 7 minutes in a row.",
    "icon": "https://steamcdn-a.akamaihd.net/steamcommunity/public/images/apps/1085160/b7a276a39d1363b4039e13693989c299652866fc.jpg",
    "icongray": "https://steamcdn-a.akamaihd.net/steamcommunity/public/images/apps/1085160/bdb6864ca4be968d80077e129e3da10fde8789dc.jpg"
  },
  {
    "name": "SHKAF_UBICA",
    "defaultvalue": 0,
    "displayName": "About cats and curiosity",
    "hidden": 0,
    "description": "Open the mysterious wardrobe.",
    "icon": "https://steamcdn-a.akamaihd.net/steamcommunity/public/images/apps/1085160/d8f2d2686a38f61b578d57174ac522a70d5319d4.jpg",
    "icongray": "https://steamcdn-a.akamaihd.net/steamcommunity/public/images/apps/1085160/9a2ad49786c16f7eb94064ccb1c2d92e918b8c9a.jpg"
  }
]