[
  {
    "name": "3skulls",
    "defaultvalue": 0,
    "displayName": "BAD LUCK",
    "hidden": 0,
    "description": "Pick 3rd skull from the wheel ",
    "icon": "https://steamcdn-a.akamaihd.net/steamcommunity/public/images/apps/998830/e693501a57e449ab91c251f689e5f3e4b067ed57.jpg",
    "icongray": "https://steamcdn-a.akamaihd.net/steamcommunity/public/images/apps/998830/430ab1ccecd1c84d537ad889653840e5477f0fc1.jpg"
  },
  {
    "name": "skulls0",
    "defaultvalue": 0,
    "displayName": "LUCKIEST ROMAN",
    "hidden": 0,
    "description": "Never pick a skull from the wheel ",
    "icon": "https://steamcdn-a.akamaihd.net/steamcommunity/public/images/apps/998830/89b9c83b90fa4fc449ce3f15594a4eeb580a8e81.jpg",
    "icongray": "https://steamcdn-a.akamaihd.net/steamcommunity/public/images/apps/998830/430ab1ccecd1c84d537ad889653840e5477f0fc1.jpg"
  },
  {
    "name": "income200",
    "defaultvalue": 0,
    "displayName": "TAX COLLECTOR",
    "hidden": 0,
    "description": "Gain 200 coins income",
    "icon": "https://steamcdn-a.akamaihd.net/steamcommunity/public/images/apps/998830/8e6edfb914cc8064a9dd7de4d5f9a58a235b87ef.jpg",
    "icongray": "https://steamcdn-a.akamaihd.net/steamcommunity/public/images/apps/998830/430ab1ccecd1c84d537ad889653840e5477f0fc1.jpg"
  },
  {
    "name": "dog",
    "defaultvalue": 0,
    "displayName": "BEST FRIEND",
    "hidden": 0,
    "description": "Unlock the dog",
    "icon": "https://steamcdn-a.akamaihd.net/steamcommunity/public/images/apps/998830/1ac4999fd2c9c40bf1a4fa5b58b8255a42c0c48a.jpg",
    "icongray": "https://steamcdn-a.akamaihd.net/steamcommunity/public/images/apps/998830/430ab1ccecd1c84d537ad889653840e5477f0fc1.jpg"
  },
  {
    "name": "100enemies",
    "defaultvalue": 0,
    "displayName": "DO NOT MESS WITH ME",
    "hidden": 0,
    "description": "Defeat 100 Enemies",
    "icon": "https://steamcdn-a.akamaihd.net/steamcommunity/public/images/apps/998830/befde919602cca9ecf5a94f534ab8b02f04e4482.jpg",
    "icongray": "https://steamcdn-a.akamaihd.net/steamcommunity/public/images/apps/998830/430ab1ccecd1c84d537ad889653840e5477f0fc1.jpg"
  },
  {
    "name": "lv5towerwall",
    "defaultvalue": 0,
    "displayName": "DEFENCE IS EVERYTHING",
    "hidden": 0,
    "description": "Have a level 5 wall and tower",
    "icon": "https://steamcdn-a.akamaihd.net/steamcommunity/public/images/apps/998830/d723129c23fe0396b4de7a41da4d183ba63da1e1.jpg",
    "icongray": "https://steamcdn-a.akamaihd.net/steamcommunity/public/images/apps/998830/430ab1ccecd1c84d537ad889653840e5477f0fc1.jpg"
  },
  {
    "name": "gameover",
    "defaultvalue": 0,
    "displayName": "IT WAS THE LAST ROMAN VILLAGE ",
    "hidden": 0,
    "description": "Game Over",
    "icon": "https://steamcdn-a.akamaihd.net/steamcommunity/public/images/apps/998830/526e6095348bc949e49d76a3a73ab8960d9e00cf.jpg",
    "icongray": "https://steamcdn-a.akamaihd.net/steamcommunity/public/images/apps/998830/430ab1ccecd1c84d537ad889653840e5477f0fc1.jpg"
  },
  {
    "name": "healer",
    "defaultvalue": 0,
    "displayName": "NEED A HEALER ?",
    "hidden": 0,
    "description": "Have a healer",
    "icon": "https://steamcdn-a.akamaihd.net/steamcommunity/public/images/apps/998830/493ed9dca96df2b27ce21f79e47d033df6de927c.jpg",
    "icongray": "https://steamcdn-a.akamaihd.net/steamcommunity/public/images/apps/998830/430ab1ccecd1c84d537ad889653840e5477f0fc1.jpg"
  },
  {
    "name": "fastspeed",
    "defaultvalue": 0,
    "displayName": "ATHLETE",
    "hidden": 0,
    "description": "General walking speed is faster ",
    "icon": "https://steamcdn-a.akamaihd.net/steamcommunity/public/images/apps/998830/c5407c3472c1d392427a3ef978a839de813da5ad.jpg",
    "icongray": "https://steamcdn-a.akamaihd.net/steamcommunity/public/images/apps/998830/430ab1ccecd1c84d537ad889653840e5477f0fc1.jpg"
  },
  {
    "name": "arrowrain",
    "defaultvalue": 0,
    "displayName": "RAINY WEATHER",
    "hidden": 0,
    "description": "Unlock arrow rain magic",
    "icon": "https://steamcdn-a.akamaihd.net/steamcommunity/public/images/apps/998830/f1eb1ed3b7c56835007ab183a602c06edae9f08c.jpg",
    "icongray": "https://steamcdn-a.akamaihd.net/steamcommunity/public/images/apps/998830/430ab1ccecd1c84d537ad889653840e5477f0fc1.jpg"
  },
  {
    "name": "attack_30",
    "defaultvalue": 0,
    "displayName": "STRONG SWORDS",
    "hidden": 0,
    "description": "Have at least +30% more attack ",
    "icon": "https://steamcdn-a.akamaihd.net/steamcommunity/public/images/apps/998830/6261206cd159060c02708f4b3db69741b7dbb62c.jpg",
    "icongray": "https://steamcdn-a.akamaihd.net/steamcommunity/public/images/apps/998830/430ab1ccecd1c84d537ad889653840e5477f0fc1.jpg"
  },
  {
    "name": "defense_30",
    "defaultvalue": 0,
    "displayName": "STRONG SHIELDS",
    "hidden": 0,
    "description": "Have at least 30% more defense",
    "icon": "https://steamcdn-a.akamaihd.net/steamcommunity/public/images/apps/998830/0a3853d1577d66547e392883ac45f575853de7a4.jpg",
    "icongray": "https://steamcdn-a.akamaihd.net/steamcommunity/public/images/apps/998830/430ab1ccecd1c84d537ad889653840e5477f0fc1.jpg"
  },
  {
    "name": "soldiers_12",
    "defaultvalue": 0,
    "displayName": "GENERAL OF POWER",
    "hidden": 0,
    "description": "Have 12 soldiers in your village",
    "icon": "https://steamcdn-a.akamaihd.net/steamcommunity/public/images/apps/998830/da21200b2a11f4690fb655e881b00cf6d755b1d4.jpg",
    "icongray": "https://steamcdn-a.akamaihd.net/steamcommunity/public/images/apps/998830/430ab1ccecd1c84d537ad889653840e5477f0fc1.jpg"
  },
  {
    "name": "summonsoldier",
    "defaultvalue": 0,
    "displayName": "ANOTHER SOLDIER ON MY SIDE",
    "hidden": 0,
    "description": "Summon a warrior ",
    "icon": "https://steamcdn-a.akamaihd.net/steamcommunity/public/images/apps/998830/288b409b2cfe862bef01597e98cf0d0039b429e6.jpg",
    "icongray": "https://steamcdn-a.akamaihd.net/steamcommunity/public/images/apps/998830/430ab1ccecd1c84d537ad889653840e5477f0fc1.jpg"
  },
  {
    "name": "snow",
    "defaultvalue": 0,
    "displayName": "FIRST SNOW",
    "hidden": 0,
    "description": "Weather change to winter",
    "icon": "https://steamcdn-a.akamaihd.net/steamcommunity/public/images/apps/998830/c60b1eeb8fbc9154be9a03c7c4b52013ab8dc596.jpg",
    "icongray": "https://steamcdn-a.akamaihd.net/steamcommunity/public/images/apps/998830/430ab1ccecd1c84d537ad889653840e5477f0fc1.jpg"
  },
  {
    "name": "spearkill",
    "defaultvalue": 0,
    "displayName": "SPEAR THROW",
    "hidden": 0,
    "description": "Kill 20 enemies with spear",
    "icon": "https://steamcdn-a.akamaihd.net/steamcommunity/public/images/apps/998830/81d34de8d4f95daa18c49458ea040705e79a917b.jpg",
    "icongray": "https://steamcdn-a.akamaihd.net/steamcommunity/public/images/apps/998830/430ab1ccecd1c84d537ad889653840e5477f0fc1.jpg"
  },
  {
    "name": "allSpells",
    "defaultvalue": 0,
    "displayName": "I AM MAGICIAN ",
    "hidden": 0,
    "description": "Unlock all 3 spell",
    "icon": "https://steamcdn-a.akamaihd.net/steamcommunity/public/images/apps/998830/56170e386f05367f4085753395a00d32a1b7858d.jpg",
    "icongray": "https://steamcdn-a.akamaihd.net/steamcommunity/public/images/apps/998830/430ab1ccecd1c84d537ad889653840e5477f0fc1.jpg"
  },
  {
    "name": "attackwheel",
    "defaultvalue": 0,
    "displayName": "ATTACK IS THE BEST DEFENSE",
    "hidden": 0,
    "description": "Unlock Tower Attack on the wheel",
    "icon": "https://steamcdn-a.akamaihd.net/steamcommunity/public/images/apps/998830/03763f22511997f204eea05b8131f091f98eec90.jpg",
    "icongray": "https://steamcdn-a.akamaihd.net/steamcommunity/public/images/apps/998830/430ab1ccecd1c84d537ad889653840e5477f0fc1.jpg"
  },
  {
    "name": "win",
    "defaultvalue": 0,
    "displayName": "SUN IS SHINING AGAIN",
    "hidden": 0,
    "description": "Beat the game ",
    "icon": "https://steamcdn-a.akamaihd.net/steamcommunity/public/images/apps/998830/e60a51801388ef32031b04e4344f19d823d0db62.jpg",
    "icongray": "https://steamcdn-a.akamaihd.net/steamcommunity/public/images/apps/998830/430ab1ccecd1c84d537ad889653840e5477f0fc1.jpg"
  },
  {
    "name": "50romans",
    "defaultvalue": 0,
    "displayName": "ROMAN GRAVEYARD",
    "hidden": 0,
    "description": "Lost 50 Romans",
    "icon": "https://steamcdn-a.akamaihd.net/steamcommunity/public/images/apps/998830/0488f09401efb96fc0e2dc57ba9e869e90a54647.jpg",
    "icongray": "https://steamcdn-a.akamaihd.net/steamcommunity/public/images/apps/998830/430ab1ccecd1c84d537ad889653840e5477f0fc1.jpg"
  },
  {
    "name": "build1",
    "defaultvalue": 0,
    "displayName": "A NEW BEGINNING",
    "hidden": 0,
    "description": "Build your first building",
    "icon": "https://steamcdn-a.akamaihd.net/steamcommunity/public/images/apps/998830/fa71fcfa79772fa3adeb79f48dc6f61f09c0d728.jpg",
    "icongray": "https://steamcdn-a.akamaihd.net/steamcommunity/public/images/apps/998830/430ab1ccecd1c84d537ad889653840e5477f0fc1.jpg"
  },
  {
    "name": "waves10",
    "defaultvalue": 0,
    "displayName": "STILL ALIVE",
    "hidden": 0,
    "description": "Survive 10 waves",
    "icon": "https://steamcdn-a.akamaihd.net/steamcommunity/public/images/apps/998830/b1fbfd96e4da3b894905f2e61a4c1a91d07d4c9d.jpg",
    "icongray": "https://steamcdn-a.akamaihd.net/steamcommunity/public/images/apps/998830/430ab1ccecd1c84d537ad889653840e5477f0fc1.jpg"
  },
  {
    "name": "waves40",
    "defaultvalue": 0,
    "displayName": "STILL BREATHING",
    "hidden": 0,
    "description": "Survive 40 waves",
    "icon": "https://steamcdn-a.akamaihd.net/steamcommunity/public/images/apps/998830/0859675b242d5a4a4e7a1d6a48b836aa5fecb0f3.jpg",
    "icongray": "https://steamcdn-a.akamaihd.net/steamcommunity/public/images/apps/998830/430ab1ccecd1c84d537ad889653840e5477f0fc1.jpg"
  },
  {
    "name": "beat_game_on_hard",
    "defaultvalue": 0,
    "displayName": "BULLY",
    "hidden": 0,
    "description": "Beat the game on Hard",
    "icon": "https://steamcdn-a.akamaihd.net/steamcommunity/public/images/apps/998830/458523ac9d422d3d26402274ea6839684f7e83d4.jpg",
    "icongray": "https://steamcdn-a.akamaihd.net/steamcommunity/public/images/apps/998830/430ab1ccecd1c84d537ad889653840e5477f0fc1.jpg"
  }
]