{
  "Dlcs": {},
  "Name": "Dr. Dungeon's MADMAN!",
  "AppId": "684570",
  "ImageUrl": "https://steamcdn-a.akamaihd.net/steam/apps/684570/header.jpg?t=1502569308",
  "Languages": [
    "english"
  ],
  "Platforms": {
    "windows": true,
    "mac": false,
    "linux": false
  }
}