{
  "Dlcs": {},
  "Name": "Totally Realistic Sledding VR",
  "AppId": "746500",
  "ImageUrl": "https://steamcdn-a.akamaihd.net/steam/apps/746500/header.jpg?t=1544760477",
  "Languages": [
    "english"
  ],
  "Platforms": {
    "windows": true,
    "mac": false,
    "linux": false
  }
}