{
  "Dlcs": {},
  "Name": "Hipster Attack",
  "AppId": "909490",
  "ImageUrl": "https://steamcdn-a.akamaihd.net/steam/apps/909490/header.jpg?t=1542815184",
  "Languages": [
    "english"
  ],
  "Platforms": {
    "windows": true,
    "mac": false,
    "linux": false
  }
}