{
  "Dlcs": {},
  "Name": "Spartan",
  "AppId": "685050",
  "ImageUrl": "https://steamcdn-a.akamaihd.net/steam/apps/685050/header.jpg?t=1546562395",
  "Languages": [
    "english"
  ],
  "Platforms": {
    "windows": true,
    "mac": false,
    "linux": false
  }
}