[
  {
    "name": "NumConsecutiveWins",
    "defaultvalue": 0,
    "displayName": "Wins"
  },
  {
    "name": "NumChapter",
    "defaultvalue": 0,
    "displayName": "Chapter"
  },
  {
    "name": "NumBattleRoyalWins",
    "defaultvalue": 0,
    "displayName": "Battle Royal Win"
  },
  {
    "name": "NumPvPWins",
    "defaultvalue": 0,
    "displayName": "PvP Wins"
  },
  {
    "name": "UseDark",
    "defaultvalue": 0,
    "displayName": "Use Dark Character"
  },
  {
    "name": "Use4TierFire",
    "defaultvalue": 0,
    "displayName": "Use 4Tier  Fire"
  },
  {
    "name": "Use4TierWater",
    "defaultvalue": 0,
    "displayName": "Use 4Tier  Water"
  },
  {
    "name": "Use4TierEarth",
    "defaultvalue": 0,
    "displayName": "Use 4Tier  Earth"
  },
  {
    "name": "Use4TierIce",
    "defaultvalue": 0,
    "displayName": "Use 4Tier  Ice"
  },
  {
    "name": "Use4TierThunder",
    "defaultvalue": 0,
    "displayName": "Use 4Tier  Thunder"
  },
  {
    "name": "Use4TierDark",
    "defaultvalue": 0,
    "displayName": "Use 4Tier  Dark"
  },
  {
    "name": "Use1TierLastAttack",
    "defaultvalue": 0,
    "displayName": "Use 1Tier At Last Attack"
  }
]