{
  "Dlcs": {},
  "Name": "Furries & Scalies: Friendswood",
  "AppId": "1106950",
  "ImageUrl": "https://steamcdn-a.akamaihd.net/steam/apps/1106950/header.jpg?t=1590885610",
  "Languages": [
    "english"
  ],
  "Platforms": {
    "windows": true,
    "mac": false,
    "linux": true
  }
}