{
  "Dlcs": {},
  "Name": "The Corridor: On Behalf Of The Dead",
  "AppId": "340840",
  "ImageUrl": "https://steamcdn-a.akamaihd.net/steam/apps/340840/header.jpg?t=1593590401",
  "Languages": [
    "english"
  ],
  "Platforms": {
    "windows": true,
    "mac": false,
    "linux": false
  }
}