﻿{
  "Dlcs": {},
  "Name": "IKAROS",
  "AppId": "669440",
  "ImageUrl": "https://steamcdn-a.akamaihd.net/steam/apps/669440/header.jpg?t=1504359684",
  "Languages": [
    "english"
  ],
  "Platforms": {
    "windows": true,
    "mac": false,
    "linux": false
  }
}