{
  "Dlcs": {},
  "Name": "The Unachievable Game",
  "AppId": "1361870",
  "ImageUrl": "https://steamcdn-a.akamaihd.net/steam/apps/1361870/header.jpg?t=1594649879",
  "Languages": [
    "english"
  ],
  "Platforms": {
    "windows": true,
    "mac": false,
    "linux": false
  }
}