{
  "Dlcs": {
    "552820": {
      "Name": "Heart and Seoul Soundtrack and Director's Commentary",
      "ImageUrl": "https://steamcdn-a.akamaihd.net/steam/apps/552820/header.jpg?t=1551826481"
    }
  },
  "Name": "Heart and Seoul",
  "AppId": "546490",
  "ImageUrl": "https://steamcdn-a.akamaihd.net/steam/apps/546490/header.jpg?t=1551826141",
  "Languages": [
    "english",
    "schinese"
  ],
  "Platforms": {
    "windows": true,
    "mac": true,
    "linux": true
  }
}