[
  {
    "name": "NEW_ACHIEVEMENT_1_0",
    "defaultvalue": 0,
    "displayName": "Level 1",
    "hidden": 0,
    "description": "Complete level 1",
    "icon": "https://steamcdn-a.akamaihd.net/steamcommunity/public/images/apps/1031570/6837917bf19163c1a55be004db4a5dd2ccceb732.jpg",
    "icongray": "https://steamcdn-a.akamaihd.net/steamcommunity/public/images/apps/1031570/9c870b9602daa5a34aef50ad2b695c66b72d2cc5.jpg"
  },
  {
    "name": "NEW_ACHIEVEMENT_1_1",
    "defaultvalue": 0,
    "displayName": "Level 2",
    "hidden": 0,
    "description": "Complete level 2",
    "icon": "https://steamcdn-a.akamaihd.net/steamcommunity/public/images/apps/1031570/03ffc4c76b65a8ea3ebf64d719fed1000b6b2be5.jpg",
    "icongray": "https://steamcdn-a.akamaihd.net/steamcommunity/public/images/apps/1031570/908da017fb1a5162c388f15442e34d4413001784.jpg"
  },
  {
    "name": "NEW_ACHIEVEMENT_1_2",
    "defaultvalue": 0,
    "displayName": "Level 3",
    "hidden": 0,
    "description": "Complete level 3",
    "icon": "https://steamcdn-a.akamaihd.net/steamcommunity/public/images/apps/1031570/f90cae5a392f4dc94cd31d842171b49ea9fc9ff3.jpg",
    "icongray": "https://steamcdn-a.akamaihd.net/steamcommunity/public/images/apps/1031570/3eda8867bb5fbd770b6c8178d98a3424673b5bd4.jpg"
  },
  {
    "name": "NEW_ACHIEVEMENT_1_3",
    "defaultvalue": 0,
    "displayName": "Level 4",
    "hidden": 0,
    "description": "Complete level 4",
    "icon": "https://steamcdn-a.akamaihd.net/steamcommunity/public/images/apps/1031570/62fdef4eb1aff7edfaab87c842ccb14d191a0edc.jpg",
    "icongray": "https://steamcdn-a.akamaihd.net/steamcommunity/public/images/apps/1031570/225e67ad5fcf91a5d09097f1b60b450f7d201eb1.jpg"
  },
  {
    "name": "NEW_ACHIEVEMENT_1_4",
    "defaultvalue": 0,
    "displayName": "Level 5",
    "hidden": 0,
    "description": "Complete level 5",
    "icon": "https://steamcdn-a.akamaihd.net/steamcommunity/public/images/apps/1031570/9cb206d7b20746f495e203dd8a44a223792e0894.jpg",
    "icongray": "https://steamcdn-a.akamaihd.net/steamcommunity/public/images/apps/1031570/fcda13eb7668061f2485a508824616e5c44bf57c.jpg"
  },
  {
    "name": "NEW_ACHIEVEMENT_1_5",
    "defaultvalue": 0,
    "displayName": "Level 6",
    "hidden": 0,
    "description": "Complete level 6",
    "icon": "https://steamcdn-a.akamaihd.net/steamcommunity/public/images/apps/1031570/92e9c8fb780bdc525ad047dd19a4b1f6e6a54640.jpg",
    "icongray": "https://steamcdn-a.akamaihd.net/steamcommunity/public/images/apps/1031570/6be2a14295a4739c9f46dff33fef972f31d78051.jpg"
  },
  {
    "name": "NEW_ACHIEVEMENT_1_6",
    "defaultvalue": 0,
    "displayName": "Level 7",
    "hidden": 0,
    "description": "Complete level 7",
    "icon": "https://steamcdn-a.akamaihd.net/steamcommunity/public/images/apps/1031570/2f137b6f47514891c8b40dbd3c52857c4c32f0a1.jpg",
    "icongray": "https://steamcdn-a.akamaihd.net/steamcommunity/public/images/apps/1031570/5e51604373dc32cfd2107b63c6c37e0dc7cecad4.jpg"
  },
  {
    "name": "NEW_ACHIEVEMENT_1_7",
    "defaultvalue": 0,
    "displayName": "Level 8",
    "hidden": 0,
    "description": "Complete level 8",
    "icon": "https://steamcdn-a.akamaihd.net/steamcommunity/public/images/apps/1031570/745515473181846999850f888e5bd9f5ce4f247a.jpg",
    "icongray": "https://steamcdn-a.akamaihd.net/steamcommunity/public/images/apps/1031570/a38bd978c2b7feddd285e4f121056edc6063dd0b.jpg"
  },
  {
    "name": "NEW_ACHIEVEMENT_1_8",
    "defaultvalue": 0,
    "displayName": "Level 9",
    "hidden": 0,
    "description": "Complete level 9",
    "icon": "https://steamcdn-a.akamaihd.net/steamcommunity/public/images/apps/1031570/c3597bdc7a5edb438620b10f9614036b4fc19f5d.jpg",
    "icongray": "https://steamcdn-a.akamaihd.net/steamcommunity/public/images/apps/1031570/812ec4f1e9b9945be1e04746ac9b35eef86721a3.jpg"
  },
  {
    "name": "NEW_ACHIEVEMENT_1_9",
    "defaultvalue": 0,
    "displayName": "Level 10",
    "hidden": 0,
    "description": "Complete level 10",
    "icon": "https://steamcdn-a.akamaihd.net/steamcommunity/public/images/apps/1031570/802872714b70be5df210584e226a2d866d5986e5.jpg",
    "icongray": "https://steamcdn-a.akamaihd.net/steamcommunity/public/images/apps/1031570/06b1823efd9b27158be6fd00fab849fd47b145a3.jpg"
  },
  {
    "name": "NEW_ACHIEVEMENT_1_10",
    "defaultvalue": 0,
    "displayName": "Level 11",
    "hidden": 0,
    "description": "Complete level 11",
    "icon": "https://steamcdn-a.akamaihd.net/steamcommunity/public/images/apps/1031570/ca7ec6f615105dd2fb17f898150fe335b4041e8b.jpg",
    "icongray": "https://steamcdn-a.akamaihd.net/steamcommunity/public/images/apps/1031570/93f59f977ca55cceea7c42bc539428098725ee94.jpg"
  },
  {
    "name": "NEW_ACHIEVEMENT_1_11",
    "defaultvalue": 0,
    "displayName": "Level 12",
    "hidden": 0,
    "description": "Complete level 12",
    "icon": "https://steamcdn-a.akamaihd.net/steamcommunity/public/images/apps/1031570/54216f1dba788173be7e71d99263f50121451563.jpg",
    "icongray": "https://steamcdn-a.akamaihd.net/steamcommunity/public/images/apps/1031570/b43016b5aeeb72373af80e927dae1d9e25a6df04.jpg"
  },
  {
    "name": "NEW_ACHIEVEMENT_1_12",
    "defaultvalue": 0,
    "displayName": "Level 13",
    "hidden": 0,
    "description": "Complete level 13",
    "icon": "https://steamcdn-a.akamaihd.net/steamcommunity/public/images/apps/1031570/eb7bd00fc5000b471be5113f5fe48f3d6bd28e21.jpg",
    "icongray": "https://steamcdn-a.akamaihd.net/steamcommunity/public/images/apps/1031570/473928b3b08afed14d2a620892cbae6482a329d6.jpg"
  },
  {
    "name": "NEW_ACHIEVEMENT_1_13",
    "defaultvalue": 0,
    "displayName": "Level 14",
    "hidden": 0,
    "description": "Complete level 14",
    "icon": "https://steamcdn-a.akamaihd.net/steamcommunity/public/images/apps/1031570/01fcbd3d9604d43382514410981fb6f356d1e98b.jpg",
    "icongray": "https://steamcdn-a.akamaihd.net/steamcommunity/public/images/apps/1031570/28b739efc6e08f315194aa79c454767a2ff54033.jpg"
  },
  {
    "name": "NEW_ACHIEVEMENT_1_14",
    "defaultvalue": 0,
    "displayName": "Level 15",
    "hidden": 0,
    "description": "Complete level 15",
    "icon": "https://steamcdn-a.akamaihd.net/steamcommunity/public/images/apps/1031570/951a1f4185ba1a29149eef436322245868b3c100.jpg",
    "icongray": "https://steamcdn-a.akamaihd.net/steamcommunity/public/images/apps/1031570/84d8af1636ffa15d4619ea2256e4c1f8bd3ccaaa.jpg"
  },
  {
    "name": "NEW_ACHIEVEMENT_1_15",
    "defaultvalue": 0,
    "displayName": "Level 16",
    "hidden": 0,
    "description": "Complete level 16",
    "icon": "https://steamcdn-a.akamaihd.net/steamcommunity/public/images/apps/1031570/8809de268ba5308f604f6adad49bf0875ac5b10c.jpg",
    "icongray": "https://steamcdn-a.akamaihd.net/steamcommunity/public/images/apps/1031570/bdcb0fcc0da2d4fe7d6eddca9032d4e05de09f2c.jpg"
  },
  {
    "name": "NEW_ACHIEVEMENT_1_16",
    "defaultvalue": 0,
    "displayName": "Level 17",
    "hidden": 0,
    "description": "Complete level 17",
    "icon": "https://steamcdn-a.akamaihd.net/steamcommunity/public/images/apps/1031570/33871438a7580a951cbbb5b68a7466eee307c659.jpg",
    "icongray": "https://steamcdn-a.akamaihd.net/steamcommunity/public/images/apps/1031570/dfa3d55ca96c72a41ce797d2ffb3798efe062fe1.jpg"
  },
  {
    "name": "NEW_ACHIEVEMENT_1_17",
    "defaultvalue": 0,
    "displayName": "Level 18",
    "hidden": 0,
    "description": "Complete level 18",
    "icon": "https://steamcdn-a.akamaihd.net/steamcommunity/public/images/apps/1031570/22fdb371b5bb0439160d10ff1f97c34cbf477c9c.jpg",
    "icongray": "https://steamcdn-a.akamaihd.net/steamcommunity/public/images/apps/1031570/8d4eb3970b73ae977ddeed2b8415c63a6e0ee82b.jpg"
  },
  {
    "name": "NEW_ACHIEVEMENT_1_18",
    "defaultvalue": 0,
    "displayName": "Level 19",
    "hidden": 0,
    "description": "Complete level 19",
    "icon": "https://steamcdn-a.akamaihd.net/steamcommunity/public/images/apps/1031570/0f665d1e88dbabe2baeee15d40729d53ea7b3528.jpg",
    "icongray": "https://steamcdn-a.akamaihd.net/steamcommunity/public/images/apps/1031570/24a949534a7983f46690ffa398ea904f698d7292.jpg"
  },
  {
    "name": "NEW_ACHIEVEMENT_1_19",
    "defaultvalue": 0,
    "displayName": "Level 20",
    "hidden": 0,
    "description": "Complete level 20",
    "icon": "https://steamcdn-a.akamaihd.net/steamcommunity/public/images/apps/1031570/7b8cf0f732f28d1840f43b378097fc756e939a7c.jpg",
    "icongray": "https://steamcdn-a.akamaihd.net/steamcommunity/public/images/apps/1031570/be4318da7ac7031bc19c3ea3bcffdfc115783ff0.jpg"
  },
  {
    "name": "NEW_ACHIEVEMENT_1_20",
    "defaultvalue": 0,
    "displayName": "Level 21",
    "hidden": 0,
    "description": "Complete level 21",
    "icon": "https://steamcdn-a.akamaihd.net/steamcommunity/public/images/apps/1031570/7275296805c9882478977e04db379aca114701ea.jpg",
    "icongray": "https://steamcdn-a.akamaihd.net/steamcommunity/public/images/apps/1031570/f5a822af0eeec44ec09ff5c696a19201674737b9.jpg"
  },
  {
    "name": "NEW_ACHIEVEMENT_1_21",
    "defaultvalue": 0,
    "displayName": "Level 22",
    "hidden": 0,
    "description": "Complete level 22",
    "icon": "https://steamcdn-a.akamaihd.net/steamcommunity/public/images/apps/1031570/0c51bff234a7ce23f2ce05a595bb746c199380e0.jpg",
    "icongray": "https://steamcdn-a.akamaihd.net/steamcommunity/public/images/apps/1031570/844c50eae8935930fcf3324eb861286b99a5db57.jpg"
  },
  {
    "name": "NEW_ACHIEVEMENT_1_22",
    "defaultvalue": 0,
    "displayName": "Level 23",
    "hidden": 0,
    "description": "Complete level 23",
    "icon": "https://steamcdn-a.akamaihd.net/steamcommunity/public/images/apps/1031570/a662b116729028a5244e9be8f5fd392a494fec99.jpg",
    "icongray": "https://steamcdn-a.akamaihd.net/steamcommunity/public/images/apps/1031570/307a0ed71a49d3bdc61ab36574fc2b03372b9bbb.jpg"
  },
  {
    "name": "NEW_ACHIEVEMENT_1_23",
    "defaultvalue": 0,
    "displayName": "Level 24",
    "hidden": 0,
    "description": "Complete level 24",
    "icon": "https://steamcdn-a.akamaihd.net/steamcommunity/public/images/apps/1031570/6abc565ffa45441249c190904a89763117c7a46c.jpg",
    "icongray": "https://steamcdn-a.akamaihd.net/steamcommunity/public/images/apps/1031570/49c21251c4fba76e09dc0dd2dce0e106c3bf78c7.jpg"
  }
]