﻿{
  "Dlcs": {},
  "Name": "Fragments of Him",
  "AppId": "428540",
  "ImageUrl": "https://steamcdn-a.akamaihd.net/steam/apps/428540/header.jpg?t=1572516004",
  "Languages": [
    "english"
  ],
  "Platforms": {
    "windows": true,
    "mac": false,
    "linux": false
  }
}