{
  "Dlcs": {},
  "Name": "RX Racing 2020 Pro",
  "AppId": "1377980",
  "ImageUrl": "https://steamcdn-a.akamaihd.net/steam/apps/1377980/header.jpg?t=1599299479",
  "Languages": [
    "english"
  ],
  "Platforms": {
    "windows": true,
    "mac": true,
    "linux": true
  }
}