{
  "Dlcs": {
    "704150": {
      "Name": "BLUE REFLECTION - Season Pass",
      "ImageUrl": "https://steamcdn-a.akamaihd.net/steam/apps/704150/header.jpg?t=1550187141"
    },
    "688241": {
      "Name": "BLUE REFLECTION - Sailor Swimsuits set A (Hinako, Sarasa, Mao)",
      "ImageUrl": "https://steamcdn-a.akamaihd.net/steam/apps/688241/header.jpg?t=1550186750"
    },
    "688242": {
      "Name": "BLUE REFLECTION - Sailor Swimsuits set B (Yuzu, Shihori, Kei)",
      "ImageUrl": "https://steamcdn-a.akamaihd.net/steam/apps/688242/header.jpg?t=1550186765"
    },
    "688243": {
      "Name": "BLUE REFLECTION - Sailor Swimsuits set C (Lime, Fumio, Chihiro)",
      "ImageUrl": "https://steamcdn-a.akamaihd.net/steam/apps/688243/header.jpg?t=1550186780"
    },
    "688244": {
      "Name": "BLUE REFLECTION - Sailor Swimsuits set D (Sanae, Ako, Yuri)",
      "ImageUrl": "https://steamcdn-a.akamaihd.net/steam/apps/688244/header.jpg?t=1550186796"
    },
    "688245": {
      "Name": "BLUE REFLECTION - Sailor Swimsuits set E (Rin, Kaori, Rika)",
      "ImageUrl": "https://steamcdn-a.akamaihd.net/steam/apps/688245/header.jpg?t=1550186810"
    },
    "688246": {
      "Name": "BLUE REFLECTION - Arland Maid Costumes (Yuzuki)",
      "ImageUrl": "https://steamcdn-a.akamaihd.net/steam/apps/688246/header.jpg?t=1575961573"
    },
    "688247": {
      "Name": "BLUE REFLECTION - Arland Maid Costumes (Lime)",
      "ImageUrl": "https://steamcdn-a.akamaihd.net/steam/apps/688247/header.jpg?t=1575961569"
    },
    "688248": {
      "Name": "BLUE REFLECTION - Summer Clothes Set A (Hinako, Sarasa, Mao)",
      "ImageUrl": "https://steamcdn-a.akamaihd.net/steam/apps/688248/header.jpg?t=1550186855"
    },
    "688249": {
      "Name": "BLUE REFLECTION - Summer Clothes Set B (Yuzu, Shihori, Kei)",
      "ImageUrl": "https://steamcdn-a.akamaihd.net/steam/apps/688249/header.jpg?t=1550186869"
    },
    "688250": {
      "Name": "BLUE REFLECTION - Summer Clothes Set C (Lime, Fumio, Chihiro)",
      "ImageUrl": "https://steamcdn-a.akamaihd.net/steam/apps/688250/header.jpg?t=1550186884"
    },
    "688251": {
      "Name": "BLUE REFLECTION - Summer Clothes Set D (Sanae, Ako, Yuri)",
      "ImageUrl": "https://steamcdn-a.akamaihd.net/steam/apps/688251/header.jpg?t=1550186904"
    },
    "688252": {
      "Name": "BLUE REFLECTION - Summer Clothes Set E (Rin, Kaori, Rika)",
      "ImageUrl": "https://steamcdn-a.akamaihd.net/steam/apps/688252/header.jpg?t=1550186919"
    },
    "688253": {
      "Name": "BLUE REFLECTION - Bath Towels Set A (Hinako, Sarasa, Mao)",
      "ImageUrl": "https://steamcdn-a.akamaihd.net/steam/apps/688253/header.jpg?t=1550186934"
    },
    "688254": {
      "Name": "BLUE REFLECTION - Bath Towels Set B (Yuzu, Shihori, Kei)",
      "ImageUrl": "https://steamcdn-a.akamaihd.net/steam/apps/688254/header.jpg?t=1550186950"
    },
    "688255": {
      "Name": "BLUE REFLECTION - Bath Towels Set C (Lime, Fumio, Chihiro)",
      "ImageUrl": "https://steamcdn-a.akamaihd.net/steam/apps/688255/header.jpg?t=1550186966"
    },
    "688256": {
      "Name": "BLUE REFLECTION - Bath Towels Set D (Sanae, Ako, Yuri)",
      "ImageUrl": "https://steamcdn-a.akamaihd.net/steam/apps/688256/header.jpg?t=1550186982"
    },
    "688257": {
      "Name": "BLUE REFLECTION - Bath Towels Set E (Rin, Kaori, Rika)",
      "ImageUrl": "https://steamcdn-a.akamaihd.net/steam/apps/688257/header.jpg?t=1550186997"
    },
    "688258": {
      "Name": "BLUE REFLECTION - Vacation Style Set A (Hinako, Sarasa, Mao)",
      "ImageUrl": "https://steamcdn-a.akamaihd.net/steam/apps/688258/header.jpg?t=1550187011"
    },
    "688259": {
      "Name": "BLUE REFLECTION - Vacation Style Set B (Yuzu, Shihori, Kei)",
      "ImageUrl": "https://steamcdn-a.akamaihd.net/steam/apps/688259/header.jpg?t=1550187026"
    },
    "688270": {
      "Name": "BLUE REFLECTION - Vacation Style Set C (Lime, Fumio, Chihiro)",
      "ImageUrl": "https://steamcdn-a.akamaihd.net/steam/apps/688270/header.jpg?t=1550187041"
    },
    "688271": {
      "Name": "BLUE REFLECTION - Vacation Style Set D (Sanae, Ako, Yuri)",
      "ImageUrl": "https://steamcdn-a.akamaihd.net/steam/apps/688271/header.jpg?t=1550187056"
    },
    "688272": {
      "Name": "BLUE REFLECTION - Vacation Style Set E (Rin, Kaori, Rika)",
      "ImageUrl": "https://steamcdn-a.akamaihd.net/steam/apps/688272/header.jpg?t=1550187071"
    },
    "688273": {
      "Name": "BLUE REFLECTION - Special Event",
      "ImageUrl": "https://steamcdn-a.akamaihd.net/steam/apps/688273/header.jpg?t=1550187086"
    },
    "688274": {
      "Name": "BLUE REFLECTION: Bonus Costume, Nightless Saber",
      "ImageUrl": "https://steamcdn-a.akamaihd.net/steam/apps/688274/header.jpg?t=1550187101"
    }
  },
  "Name": "BLUE REFLECTION / BLUE REFLECTION　幻に舞う少女の剣",
  "AppId": "658260",
  "ImageUrl": "https://steamcdn-a.akamaihd.net/steam/apps/658260/header.jpg?t=1583141621",
  "Languages": [
    "english",
    "japanese",
    "tchinese"
  ],
  "Platforms": {
    "windows": true,
    "mac": false,
    "linux": false
  }
}