{
  "Dlcs": {},
  "Name": "Another FPS Game",
  "AppId": "1294920",
  "ImageUrl": "https://steamcdn-a.akamaihd.net/steam/apps/1294920/header.jpg?t=1594652898",
  "Languages": [
    "english"
  ],
  "Platforms": {
    "windows": true,
    "mac": false,
    "linux": false
  }
}