﻿[
  {
    "name": "RAPIDFIRE_GAMES_COMPLETED_1",
    "defaultvalue": 0,
    "displayName": "Rapid Fire Rookie",
    "hidden": 0,
    "description": "Complete 1 game of Rapid Fire",
    "icon": "https://steamcdn-a.akamaihd.net/steamcommunity/public/images/apps/496790/c50cae368318c6fffbdda2fc7e5cb4f153c52420.jpg",
    "icongray": "https://steamcdn-a.akamaihd.net/steamcommunity/public/images/apps/496790/463b56c0b5d274887f0bbae8eb0c046056ecfe2e.jpg"
  },
  {
    "name": "RAPIDFIRE_GAMES_COMPLETED_10",
    "defaultvalue": 0,
    "displayName": "Rapid Fire All Star",
    "hidden": 0,
    "description": "Complete 10 games of  Rapid Fire",
    "icon": "https://steamcdn-a.akamaihd.net/steamcommunity/public/images/apps/496790/de3c3a63bed9daaa25fcb682376f5dfdfe27f1bf.jpg",
    "icongray": "https://steamcdn-a.akamaihd.net/steamcommunity/public/images/apps/496790/9d66c6f7d2e438ae636aa43f75358191aee3637e.jpg"
  },
  {
    "name": "RAPIDFIRE_GAMES_COMPLETED_50",
    "defaultvalue": 0,
    "displayName": "Rapid Fire Super Star",
    "hidden": 0,
    "description": "Complete 50 games of Rapid Fire",
    "icon": "https://steamcdn-a.akamaihd.net/steamcommunity/public/images/apps/496790/84bbecc91c68f39fb020ec7e821242e47755422e.jpg",
    "icongray": "https://steamcdn-a.akamaihd.net/steamcommunity/public/images/apps/496790/247b43794b27275e388578aac4516ae1db26c16e.jpg"
  },
  {
    "name": "RAPIDFIRE_GAMES_COMPLETED_100",
    "defaultvalue": 0,
    "displayName": "Rapid Fire Hall of Famer",
    "hidden": 0,
    "description": "Complete 100 games of Rapid Fire",
    "icon": "https://steamcdn-a.akamaihd.net/steamcommunity/public/images/apps/496790/33b66398416d5e31dbe72e9c7be7a84cdb9c195f.jpg",
    "icongray": "https://steamcdn-a.akamaihd.net/steamcommunity/public/images/apps/496790/90070eace4537c0456b677442240400c010c3070.jpg"
  },
  {
    "name": "THREEPTSO_GAMES_COMPLETED_1",
    "defaultvalue": 0,
    "displayName": "Three Point Shootout Rookie",
    "hidden": 0,
    "description": "Complete 1 game of Three Point Shootout",
    "icon": "https://steamcdn-a.akamaihd.net/steamcommunity/public/images/apps/496790/4b80356842def5477a80f3b5a950fa108efca117.jpg",
    "icongray": "https://steamcdn-a.akamaihd.net/steamcommunity/public/images/apps/496790/a917d330b4e835bd9cc8fd7d0340ff2c7eb98514.jpg"
  },
  {
    "name": "THREEPTSO_GAMES_COMPLETED_10",
    "defaultvalue": 0,
    "displayName": "Three Point Shootout All Star",
    "hidden": 0,
    "description": "Complete 10 games of  Three Point Shootout",
    "icon": "https://steamcdn-a.akamaihd.net/steamcommunity/public/images/apps/496790/c9e201d607e39fb1211c79d02a3b7d85cf1f4ac7.jpg",
    "icongray": "https://steamcdn-a.akamaihd.net/steamcommunity/public/images/apps/496790/2083d67b16c1c81169de92e5078ad23c45a422fb.jpg"
  },
  {
    "name": "THREEPTSO_GAMES_COMPLETED_50",
    "defaultvalue": 0,
    "displayName": "Three Point Shootout Super Star",
    "hidden": 0,
    "description": "Complete 50 games of Three Point Shootout",
    "icon": "https://steamcdn-a.akamaihd.net/steamcommunity/public/images/apps/496790/10f7e154190a2013541be75fa1bda334bc7c6ac8.jpg",
    "icongray": "https://steamcdn-a.akamaihd.net/steamcommunity/public/images/apps/496790/8a2cfccd40eedbcfe5533ee3212fe30503d2f282.jpg"
  },
  {
    "name": "THREEPTSO_GAMES_COMPLETED_100",
    "defaultvalue": 0,
    "displayName": "Three Point Shootout Hall of Famer",
    "hidden": 0,
    "description": "Complete 100 games of Three Point Shootout",
    "icon": "https://steamcdn-a.akamaihd.net/steamcommunity/public/images/apps/496790/f1a5ba0fcc7afb728f97b7d49edf4258a50f259b.jpg",
    "icongray": "https://steamcdn-a.akamaihd.net/steamcommunity/public/images/apps/496790/896a5f28bb23c7de358c8e81ade30489d1738b26.jpg"
  },
  {
    "name": "HORSE_GAMES_COMPLETED_1",
    "defaultvalue": 0,
    "displayName": "H-O-R-S-E Rookie",
    "hidden": 0,
    "description": "Complete 1 game of H-O-R-S-E",
    "icon": "https://steamcdn-a.akamaihd.net/steamcommunity/public/images/apps/496790/1a4209392731a6a7195a9f6e53bad28412e35558.jpg",
    "icongray": "https://steamcdn-a.akamaihd.net/steamcommunity/public/images/apps/496790/3af15c2bbfa4098a33c6d6af2744737a68c9e93f.jpg"
  },
  {
    "name": "HORSE_GAMES_COMPLETED_10",
    "defaultvalue": 0,
    "displayName": "H-O-R-S-E All Star",
    "hidden": 0,
    "description": "Complete 10 games of  H-O-R-S-E",
    "icon": "https://steamcdn-a.akamaihd.net/steamcommunity/public/images/apps/496790/03878517bf2bb85697d96730c25e17f1015976a6.jpg",
    "icongray": "https://steamcdn-a.akamaihd.net/steamcommunity/public/images/apps/496790/8b062c9c3dc1a7f4fe2129b6e6962a030574115f.jpg"
  },
  {
    "name": "HORSE_GAMES_COMPLETED_50",
    "defaultvalue": 0,
    "displayName": "H-O-R-S-E Super Star",
    "hidden": 0,
    "description": "Complete 50 games of H-O-R-S-E",
    "icon": "https://steamcdn-a.akamaihd.net/steamcommunity/public/images/apps/496790/11991ddb3e951c8aeaabc5c64c32043f40998261.jpg",
    "icongray": "https://steamcdn-a.akamaihd.net/steamcommunity/public/images/apps/496790/2149de28d628fcb3df9c9b54fed6a6e407a51775.jpg"
  },
  {
    "name": "HORSE_GAMES_COMPLETED_100",
    "defaultvalue": 0,
    "displayName": "H-O-R-S-E Hall of Famer",
    "hidden": 0,
    "description": "Complete 100 games of H-O-R-S-E",
    "icon": "https://steamcdn-a.akamaihd.net/steamcommunity/public/images/apps/496790/1761889029dc0ed621b1019306a0d902bca67fa5.jpg",
    "icongray": "https://steamcdn-a.akamaihd.net/steamcommunity/public/images/apps/496790/783fb380edcd7a2066bd45bd6ad17c767fa03778.jpg"
  },
  {
    "name": "MIXUP_GAMES_COMPLETED_1",
    "defaultvalue": 0,
    "displayName": "Mix-Up Rookie",
    "hidden": 0,
    "description": "Complete 1 game of Mix-Up",
    "icon": "https://steamcdn-a.akamaihd.net/steamcommunity/public/images/apps/496790/c51d0cec4d0d25b30e9952867bc4b2a56e041e9b.jpg",
    "icongray": "https://steamcdn-a.akamaihd.net/steamcommunity/public/images/apps/496790/483dfbf97e5fc5df7b8688dea6934c2bddc3b183.jpg"
  },
  {
    "name": "MIXUP_GAMES_COMPLETED_10",
    "defaultvalue": 0,
    "displayName": "Mix-Up All Star",
    "hidden": 0,
    "description": "Complete 10 games of  Mix-Up",
    "icon": "https://steamcdn-a.akamaihd.net/steamcommunity/public/images/apps/496790/00e61153badd7a76519709409eaf922cee48b973.jpg",
    "icongray": "https://steamcdn-a.akamaihd.net/steamcommunity/public/images/apps/496790/d20161eedc0040fe38a007ac0c40fcf509748432.jpg"
  },
  {
    "name": "MIXUP_GAMES_COMPLETED_50",
    "defaultvalue": 0,
    "displayName": "Mix-Up Super Star",
    "hidden": 0,
    "description": "Complete 50 games of Mix-Up",
    "icon": "https://steamcdn-a.akamaihd.net/steamcommunity/public/images/apps/496790/60a0daa24dce6eebe68a988f43bf58e8088a1ecf.jpg",
    "icongray": "https://steamcdn-a.akamaihd.net/steamcommunity/public/images/apps/496790/0de92de005c90270bf124542588f328184393177.jpg"
  },
  {
    "name": "MIXUP_GAMES_COMPLETED_100",
    "defaultvalue": 0,
    "displayName": "Mix-Up Hall of Famer",
    "hidden": 0,
    "description": "Complete 100 games of Mix-Up",
    "icon": "https://steamcdn-a.akamaihd.net/steamcommunity/public/images/apps/496790/bbdff061e5e099bf6ac5d03f79ee17a78456ac46.jpg",
    "icongray": "https://steamcdn-a.akamaihd.net/steamcommunity/public/images/apps/496790/5529ba7bc9dfcd765bb649c821739699e8838add.jpg"
  },
  {
    "name": "POWERSHOT_GAMES_COMPLETED_1",
    "defaultvalue": 0,
    "displayName": "Power Shot Rookie",
    "hidden": 0,
    "description": "Complete 1 game of Power Shot",
    "icon": "https://steamcdn-a.akamaihd.net/steamcommunity/public/images/apps/496790/cbe771ea56bafb96d0a2ad0b4dcdd1e83a439e8c.jpg",
    "icongray": "https://steamcdn-a.akamaihd.net/steamcommunity/public/images/apps/496790/9999ec3354c035d055f93404f34a04ef196667cb.jpg"
  },
  {
    "name": "POWERSHOT_GAMES_COMPLETED_10",
    "defaultvalue": 0,
    "displayName": "Power Shot All Star",
    "hidden": 0,
    "description": "Complete 10 games of  Power Shot",
    "icon": "https://steamcdn-a.akamaihd.net/steamcommunity/public/images/apps/496790/50ce4d68621212fe81a27b102f5448e83cba741d.jpg",
    "icongray": "https://steamcdn-a.akamaihd.net/steamcommunity/public/images/apps/496790/2d313a088b42857ac20224e7ddfff191307bba75.jpg"
  },
  {
    "name": "POWERSHOT_GAMES_COMPLETED_50",
    "defaultvalue": 0,
    "displayName": "Power Shot Super Star",
    "hidden": 0,
    "description": "Complete 50 games of Power Shot",
    "icon": "https://steamcdn-a.akamaihd.net/steamcommunity/public/images/apps/496790/ea0fa7bbeb70915f706b4db81fbfc0287c7af1a6.jpg",
    "icongray": "https://steamcdn-a.akamaihd.net/steamcommunity/public/images/apps/496790/f042f130c22349362aec87ea06d0799864613ff1.jpg"
  },
  {
    "name": "POWERSHOT_GAMES_COMPLETED_100",
    "defaultvalue": 0,
    "displayName": "Power Shot Hall of Famer",
    "hidden": 0,
    "description": "Complete 100 games of Power Shot",
    "icon": "https://steamcdn-a.akamaihd.net/steamcommunity/public/images/apps/496790/21cd1b12fd3254336f4bf09cf175e986e759886d.jpg",
    "icongray": "https://steamcdn-a.akamaihd.net/steamcommunity/public/images/apps/496790/0dc7dd7dee7babbbc03ba152f13f4b42548ce7cf.jpg"
  },
  {
    "name": "HALF_COURT_SHOT",
    "defaultvalue": 0,
    "displayName": "Half Court Master",
    "hidden": 0,
    "description": "Make a half court shot",
    "icon": "https://steamcdn-a.akamaihd.net/steamcommunity/public/images/apps/496790/a6ce33ac13139c6bbb260dd759832ead0b5ff1ef.jpg",
    "icongray": "https://steamcdn-a.akamaihd.net/steamcommunity/public/images/apps/496790/616322a3ba35fbf9174a8541e709200ea5340712.jpg"
  },
  {
    "name": "FULL_COURT_SHOT",
    "defaultvalue": 0,
    "displayName": "Shooting Legend",
    "hidden": 0,
    "description": "Make a full court shot",
    "icon": "https://steamcdn-a.akamaihd.net/steamcommunity/public/images/apps/496790/c0eeee645e0352184b1c0c0d1714ec7eccb874ae.jpg",
    "icongray": "https://steamcdn-a.akamaihd.net/steamcommunity/public/images/apps/496790/eb1311837cd3decc58b7c00724140393acdf8e83.jpg"
  },
  {
    "name": "PLAYER_SCALE_ABNORMAL_SHOT",
    "defaultvalue": 0,
    "displayName": "A Player of a Different Stature",
    "hidden": 0,
    "description": "Score a basket with your player scale changed",
    "icon": "https://steamcdn-a.akamaihd.net/steamcommunity/public/images/apps/496790/fbab3f0922583d2d88219abf584c0f3b7c31fb4f.jpg",
    "icongray": "https://steamcdn-a.akamaihd.net/steamcommunity/public/images/apps/496790/3553aedcc328bba172e857dc7f7c64c60356765d.jpg"
  },
  {
    "name": "FIRST_2PT_SHOT",
    "defaultvalue": 0,
    "displayName": "My First 2 Point Basket",
    "hidden": 0,
    "description": "My First 2 Point Basket",
    "icon": "https://steamcdn-a.akamaihd.net/steamcommunity/public/images/apps/496790/3dfe0b34b5b3c4655db5c96b79843aeb352fc555.jpg",
    "icongray": "https://steamcdn-a.akamaihd.net/steamcommunity/public/images/apps/496790/6eb5bffa33986dc79ba9b07f2e6025d80811440b.jpg"
  },
  {
    "name": "FIRST_3PT_SHOT",
    "defaultvalue": 0,
    "displayName": "My First 3 Point Basket",
    "hidden": 0,
    "description": "My First 3 Point Basket",
    "icon": "https://steamcdn-a.akamaihd.net/steamcommunity/public/images/apps/496790/ba00a5389cbc2c3599bdde6bbfaa6dca369178e6.jpg",
    "icongray": "https://steamcdn-a.akamaihd.net/steamcommunity/public/images/apps/496790/679f970ec992a5cd600e660272d91947dc5a6dbf.jpg"
  },
  {
    "name": "TRICK_SHOT_MENU",
    "defaultvalue": 0,
    "displayName": "You See Settings, I See Opportunities!",
    "hidden": 0,
    "description": "Bounce a ball of of a menu before having it go into the basket",
    "icon": "https://steamcdn-a.akamaihd.net/steamcommunity/public/images/apps/496790/608aff056b92b1b33610fa761521fcded1858659.jpg",
    "icongray": "https://steamcdn-a.akamaihd.net/steamcommunity/public/images/apps/496790/a02da5ec4cfc572feca0233626dbda1c9e6c65f1.jpg"
  },
  {
    "name": "SPIN_TIME_5_SECONDS",
    "defaultvalue": 0,
    "displayName": "Novice Spinner",
    "hidden": 0,
    "description": "Spin the ball for 5 seconds",
    "icon": "https://steamcdn-a.akamaihd.net/steamcommunity/public/images/apps/496790/d10b384c08e1e2b19b9a28088ea05576885022ef.jpg",
    "icongray": "https://steamcdn-a.akamaihd.net/steamcommunity/public/images/apps/496790/7a97763fd6295bf02a9cb02f3db25cd992461040.jpg"
  },
  {
    "name": "SPIN_TIME_20_SECONDS",
    "defaultvalue": 0,
    "displayName": "Pro Spinner",
    "hidden": 0,
    "description": "Spin the ball for 20 seconds",
    "icon": "https://steamcdn-a.akamaihd.net/steamcommunity/public/images/apps/496790/a5dfc6c9bbf6e7cf56a4e7f33fc84a5ec86fb58c.jpg",
    "icongray": "https://steamcdn-a.akamaihd.net/steamcommunity/public/images/apps/496790/3ffb3df465ca8f02cc29fecbb76db8cc4034cc44.jpg"
  },
  {
    "name": "SPIN_TIME_60_SECONDS",
    "defaultvalue": 0,
    "displayName": "Master Spinner",
    "hidden": 0,
    "description": "Spin the ball for 60 seconds",
    "icon": "https://steamcdn-a.akamaihd.net/steamcommunity/public/images/apps/496790/b9ce2ab5e5e6dc6db35d5387c3712c61a4544e38.jpg",
    "icongray": "https://steamcdn-a.akamaihd.net/steamcommunity/public/images/apps/496790/256755110b0ba5b742fcb19d2d0163be753fe9a2.jpg"
  },
  {
    "name": "DRIBBLING_HITS_100",
    "defaultvalue": 0,
    "displayName": "That's a Lot of Dribblin'",
    "hidden": 0,
    "description": "That's a Lot of Dribblin'",
    "icon": "https://steamcdn-a.akamaihd.net/steamcommunity/public/images/apps/496790/9a90c37b738fd9248d285e7f13054c5e51654789.jpg",
    "icongray": "https://steamcdn-a.akamaihd.net/steamcommunity/public/images/apps/496790/a793e4130fd2b2bec95bf7d35ca80427bf964892.jpg"
  },
  {
    "name": "TUTORIAL_COMPLETED",
    "defaultvalue": 0,
    "displayName": "A Noob No More!",
    "hidden": 0,
    "description": "Complete the tutorial",
    "icon": "https://steamcdn-a.akamaihd.net/steamcommunity/public/images/apps/496790/31a00d8a55c664b61c4242837f0a1d711fa7a27e.jpg",
    "icongray": "https://steamcdn-a.akamaihd.net/steamcommunity/public/images/apps/496790/82a101cde100e4c6e43b897e88db9f7195e139f4.jpg"
  },
  {
    "name": "BASKETS_SCORED_50",
    "defaultvalue": 0,
    "displayName": "Nothin' But Net All Star",
    "hidden": 0,
    "description": "Make 50 baskets",
    "icon": "https://steamcdn-a.akamaihd.net/steamcommunity/public/images/apps/496790/c4fef18b6e16d3dc129f5d22aae3569ede1fa7d3.jpg",
    "icongray": "https://steamcdn-a.akamaihd.net/steamcommunity/public/images/apps/496790/2dd335f42e2705a07c728053a619ea10f577b0ba.jpg"
  },
  {
    "name": "BASKETS_SCORED_100",
    "defaultvalue": 0,
    "displayName": "Nothin' But Net Super Star",
    "hidden": 0,
    "description": "Make 100 baskets",
    "icon": "https://steamcdn-a.akamaihd.net/steamcommunity/public/images/apps/496790/386aa4c5bad327880f354dd23683f6f5f18ffb4b.jpg",
    "icongray": "https://steamcdn-a.akamaihd.net/steamcommunity/public/images/apps/496790/21240391445e83cab836b39bb0e21391483f9418.jpg"
  },
  {
    "name": "BASKETS_SCORED_500",
    "defaultvalue": 0,
    "displayName": "Nothin' But Net Hall of Famer",
    "hidden": 0,
    "description": "Make 500 baskets",
    "icon": "https://steamcdn-a.akamaihd.net/steamcommunity/public/images/apps/496790/bb68f47fc92d1a1483610871fb579d80fbf7bcba.jpg",
    "icongray": "https://steamcdn-a.akamaihd.net/steamcommunity/public/images/apps/496790/2a5c1aad4c3c01d7910345ee336a7d34c1bd5cbe.jpg"
  },
  {
    "name": "BASKETS_SCORED_1000",
    "defaultvalue": 0,
    "displayName": "Nothin' But Net Legend",
    "hidden": 0,
    "description": "Make 1000 baskets",
    "icon": "https://steamcdn-a.akamaihd.net/steamcommunity/public/images/apps/496790/964bd9acd62536701015eff0884d8d3eab7b0e67.jpg",
    "icongray": "https://steamcdn-a.akamaihd.net/steamcommunity/public/images/apps/496790/37fead1a6034063e3b45b2d9782118d11705a5ce.jpg"
  },
  {
    "name": "LIGHT_BROKEN",
    "defaultvalue": 0,
    "displayName": "Didn't Need That Light Anyway...",
    "hidden": 0,
    "description": "Didn't Need That Light Anyway...",
    "icon": "https://steamcdn-a.akamaihd.net/steamcommunity/public/images/apps/496790/6977e2c4d6a9fea23f22bd65fe067672bdbf8849.jpg",
    "icongray": "https://steamcdn-a.akamaihd.net/steamcommunity/public/images/apps/496790/6b4d5ca8068c4fad6561791108ed47b9a05dabb2.jpg"
  },
  {
    "name": "FIRST_COURT_CUSTOMIZATION",
    "defaultvalue": 0,
    "displayName": "Look at My Court Now!",
    "hidden": 0,
    "description": "Look at My Court Now!",
    "icon": "https://steamcdn-a.akamaihd.net/steamcommunity/public/images/apps/496790/b5937bec3e6eaff519c97a6501c5e5b56c69479e.jpg",
    "icongray": "https://steamcdn-a.akamaihd.net/steamcommunity/public/images/apps/496790/02dec2e7f2b22e9d0c84cb0a1a5e6ab1d5b21715.jpg"
  },
  {
    "name": "OBJECT_STACKED_HEIGHT",
    "defaultvalue": 0,
    "displayName": "To the Moon!",
    "hidden": 0,
    "description": "To the Moon!",
    "icon": "https://steamcdn-a.akamaihd.net/steamcommunity/public/images/apps/496790/09b0452897faa253608bce4697b96045a9271bc7.jpg",
    "icongray": "https://steamcdn-a.akamaihd.net/steamcommunity/public/images/apps/496790/444a597f4716e51f9c4f351035dad09a31059da6.jpg"
  },
  {
    "name": "RIM_TIME_CONTACT",
    "defaultvalue": 0,
    "displayName": "No, No, No... Yes!",
    "hidden": 1,
    "icon": "https://steamcdn-a.akamaihd.net/steamcommunity/public/images/apps/496790/b1274eb7264f74ed5f230e5969a9a2e00efb6524.jpg",
    "icongray": "https://steamcdn-a.akamaihd.net/steamcommunity/public/images/apps/496790/3f3d2866d501e47e9494350f7856b137851468c1.jpg"
  },
  {
    "name": "HIT_KEVIN_BALL",
    "defaultvalue": 0,
    "displayName": "Oh, Hai Kevin!",
    "hidden": 1,
    "icon": "https://steamcdn-a.akamaihd.net/steamcommunity/public/images/apps/496790/f95ce9d7e4a093a83cf646b43e83456c91040868.jpg",
    "icongray": "https://steamcdn-a.akamaihd.net/steamcommunity/public/images/apps/496790/fa65074e9dda587a3c7a84158638af29d027fb7f.jpg"
  }
]