﻿{
  "Dlcs": {
    "392400": {
      "Name": "INK - Soundtrack + Art",
      "ImageUrl": "https://steamcdn-a.akamaihd.net/steam/apps/392400/header.jpg?t=1485335808"
    }
  },
  "Name": "INK",
  "AppId": "385710",
  "ImageUrl": "https://steamcdn-a.akamaihd.net/steam/apps/385710/header.jpg?t=1478029120",
  "Languages": [
    "english"
  ],
  "Platforms": {
    "windows": true,
    "mac": true,
    "linux": true
  }
}