﻿[
  {
    "name": "CHARMED",
    "defaultvalue": 0,
    "displayName": "Charmed",
    "hidden": 0,
    "description": "Acquire your first Charm",
    "icon": "https://steamcdn-a.akamaihd.net/steamcommunity/public/images/apps/367520/6d15e62c48ba57d23e72b8f24fb775a44223cb8f.jpg",
    "icongray": "https://steamcdn-a.akamaihd.net/steamcommunity/public/images/apps/367520/8342f6c2630943b056978593315dfb8676e5bbd9.jpg"
  },
  {
    "name": "ENCHANTED",
    "defaultvalue": 0,
    "displayName": "Enchanted",
    "hidden": 0,
    "description": "Acquire half of Hallownest's Charms",
    "icon": "https://steamcdn-a.akamaihd.net/steamcommunity/public/images/apps/367520/70ff5ba41548568aad51c3bd0d4a53d5c17399ed.jpg",
    "icongray": "https://steamcdn-a.akamaihd.net/steamcommunity/public/images/apps/367520/16cab0ef2c0b0acac9779a6cd9776158faa77a8a.jpg"
  },
  {
    "name": "BLESSED",
    "defaultvalue": 0,
    "displayName": "Blessed",
    "hidden": 0,
    "description": "Acquire all Charms and receive Salubra's blessing",
    "icon": "https://steamcdn-a.akamaihd.net/steamcommunity/public/images/apps/367520/d53ad10288be837b8aab693b8fcc6549960460f1.jpg",
    "icongray": "https://steamcdn-a.akamaihd.net/steamcommunity/public/images/apps/367520/a577316f7ae64c8cfdd0568209a915a9fad0f8ad.jpg"
  },
  {
    "name": "PROTECTED",
    "defaultvalue": 0,
    "displayName": "Protected",
    "hidden": 0,
    "description": "Acquire 4 Mask Shards",
    "icon": "https://steamcdn-a.akamaihd.net/steamcommunity/public/images/apps/367520/2461c5d7f6595602443a0bf0da24f48795873671.jpg",
    "icongray": "https://steamcdn-a.akamaihd.net/steamcommunity/public/images/apps/367520/4764a78f55fbf49a82f479414a1198d182bcb43d.jpg"
  },
  {
    "name": "MASKED",
    "defaultvalue": 0,
    "displayName": "Masked",
    "hidden": 0,
    "description": "Acquire all Mask Shards",
    "icon": "https://steamcdn-a.akamaihd.net/steamcommunity/public/images/apps/367520/bc53e3b71da8b6997a92ee2085f8029daa520d17.jpg",
    "icongray": "https://steamcdn-a.akamaihd.net/steamcommunity/public/images/apps/367520/6073f18f0da90c88ce535826b716ddc098723ae7.jpg"
  },
  {
    "name": "SOULFUL",
    "defaultvalue": 0,
    "displayName": "Soulful",
    "hidden": 0,
    "description": "Acquire 3 Vessel Fragments",
    "icon": "https://steamcdn-a.akamaihd.net/steamcommunity/public/images/apps/367520/4913c263116ee38deb0a17c724e04cda290210e0.jpg",
    "icongray": "https://steamcdn-a.akamaihd.net/steamcommunity/public/images/apps/367520/83ad82ce253a66e89e6ee51eb37db2fd0f781e10.jpg"
  },
  {
    "name": "WORLDSOUL",
    "defaultvalue": 0,
    "displayName": "Worldsoul",
    "hidden": 0,
    "description": "Acquire all Vessel Fragments",
    "icon": "https://steamcdn-a.akamaihd.net/steamcommunity/public/images/apps/367520/9093ee5b02a988b32deedd9fe89b72c733ba0bf6.jpg",
    "icongray": "https://steamcdn-a.akamaihd.net/steamcommunity/public/images/apps/367520/7830df3185b0252edd0e4830da6dcc008b162541.jpg"
  },
  {
    "name": "FK_DEFEAT",
    "defaultvalue": 0,
    "displayName": "Falsehood",
    "hidden": 0,
    "description": "Defeat the False Knight",
    "icon": "https://steamcdn-a.akamaihd.net/steamcommunity/public/images/apps/367520/ef1f6b825646067c63f5703d1c7ba38b52d94259.jpg",
    "icongray": "https://steamcdn-a.akamaihd.net/steamcommunity/public/images/apps/367520/e92b8a9b1382393740a658d9ece0bcad21d0bb03.jpg"
  },
  {
    "name": "DREAM_FK",
    "defaultvalue": 0,
    "displayName": "Strength",
    "hidden": 1,
    "icon": "https://steamcdn-a.akamaihd.net/steamcommunity/public/images/apps/367520/4d81411b14d5537f01df55ace0b63494875de2fc.jpg",
    "icongray": "https://steamcdn-a.akamaihd.net/steamcommunity/public/images/apps/367520/9f449ef6aacd0ef2423439931ef68466cd762456.jpg"
  },
  {
    "name": "HORNET_1",
    "defaultvalue": 0,
    "displayName": "Test of Resolve",
    "hidden": 0,
    "description": "Defeat Hornet in Greenpath",
    "icon": "https://steamcdn-a.akamaihd.net/steamcommunity/public/images/apps/367520/341793aae218e6b14c571ee2daf55b87cf11a784.jpg",
    "icongray": "https://steamcdn-a.akamaihd.net/steamcommunity/public/images/apps/367520/80ba52f035a3418b241c62c1eae7c924ec5705e8.jpg"
  },
  {
    "name": "HORNET_2",
    "defaultvalue": 0,
    "displayName": "Proof of Resolve",
    "hidden": 1,
    "icon": "https://steamcdn-a.akamaihd.net/steamcommunity/public/images/apps/367520/55742641984670952a75a1b80f3380bc85a8fcce.jpg",
    "icongray": "https://steamcdn-a.akamaihd.net/steamcommunity/public/images/apps/367520/ce3e486770249d317f47c8277de5e7047d175cb0.jpg"
  },
  {
    "name": "SOUL_MASTER_DEFEAT",
    "defaultvalue": 0,
    "displayName": "Illumination",
    "hidden": 0,
    "description": "Defeat the Soul Master",
    "icon": "https://steamcdn-a.akamaihd.net/steamcommunity/public/images/apps/367520/2d3e4c6217b6d911d8a211f3ab4f3f37e49a584c.jpg",
    "icongray": "https://steamcdn-a.akamaihd.net/steamcommunity/public/images/apps/367520/4f4fedac5e0f99fe9ac8d849296fbe6a202cdb5e.jpg"
  },
  {
    "name": "BROKEN_VESSEL",
    "defaultvalue": 0,
    "displayName": "Release",
    "hidden": 0,
    "description": "Defeat the Broken Vessel",
    "icon": "https://steamcdn-a.akamaihd.net/steamcommunity/public/images/apps/367520/fe4da7f785348feab3845233c0050d660b23c9d7.jpg",
    "icongray": "https://steamcdn-a.akamaihd.net/steamcommunity/public/images/apps/367520/b252c4bde96e9b00acc82780dd4aa32b26a5253b.jpg"
  },
  {
    "name": "DREAM_BROKEN_VESSEL",
    "defaultvalue": 0,
    "displayName": "Peace",
    "hidden": 1,
    "icon": "https://steamcdn-a.akamaihd.net/steamcommunity/public/images/apps/367520/c1d1c0d98374a06efa17e183ef3121ac6c8cc156.jpg",
    "icongray": "https://steamcdn-a.akamaihd.net/steamcommunity/public/images/apps/367520/1eb53b3fb180df87b48b07a5898aeb8b872b49d4.jpg"
  },
  {
    "name": "DUNG_DEFENDER",
    "defaultvalue": 0,
    "displayName": "Honour",
    "hidden": 0,
    "description": "Defeat the Dung Defender",
    "icon": "https://steamcdn-a.akamaihd.net/steamcommunity/public/images/apps/367520/7505670c8e4283da41ce575341bc35f72ff2639b.jpg",
    "icongray": "https://steamcdn-a.akamaihd.net/steamcommunity/public/images/apps/367520/c98d546145ff3a8b0eed20ca5426b94d714127bd.jpg"
  },
  {
    "name": "MANTIS_LORDS",
    "defaultvalue": 0,
    "displayName": "Respect",
    "hidden": 0,
    "description": "Defeat the Mantis Lords",
    "icon": "https://steamcdn-a.akamaihd.net/steamcommunity/public/images/apps/367520/1a695a0e9bf011f800f3a52e4a04a02776011765.jpg",
    "icongray": "https://steamcdn-a.akamaihd.net/steamcommunity/public/images/apps/367520/1720e3ef2802441c9f6f3d4b3ae62ba05109ec1c.jpg"
  },
  {
    "name": "COLLECTOR",
    "defaultvalue": 0,
    "displayName": "Obsession",
    "hidden": 1,
    "icon": "https://steamcdn-a.akamaihd.net/steamcommunity/public/images/apps/367520/a39ee369bc9d5dc54d419ad7cae6c1dd346fc632.jpg",
    "icongray": "https://steamcdn-a.akamaihd.net/steamcommunity/public/images/apps/367520/109bb2a566d9a5841d634ac4cf778b0bb5421eb6.jpg"
  },
  {
    "name": "ZOTE",
    "defaultvalue": 0,
    "displayName": "Rivalry",
    "hidden": 1,
    "icon": "https://steamcdn-a.akamaihd.net/steamcommunity/public/images/apps/367520/e8a35f548dcdeb1753fdc880a2df6de8fe245c8e.jpg",
    "icongray": "https://steamcdn-a.akamaihd.net/steamcommunity/public/images/apps/367520/00938958cda9497220f141c415a7ca7bdcdd27e7.jpg"
  },
  {
    "name": "ATTUNEMENT",
    "defaultvalue": 0,
    "displayName": "Attunement",
    "hidden": 0,
    "description": "Collect 600 Essence",
    "icon": "https://steamcdn-a.akamaihd.net/steamcommunity/public/images/apps/367520/a0864e337fe427586613b09e8799109deccdbcf4.jpg",
    "icongray": "https://steamcdn-a.akamaihd.net/steamcommunity/public/images/apps/367520/8415033a505e66a207bc4c34229154e8c860d73c.jpg"
  },
  {
    "name": "AWAKENING",
    "defaultvalue": 0,
    "displayName": "Awakening",
    "hidden": 0,
    "description": "Collect 1800 Essence and awaken the Dream Nail",
    "icon": "https://steamcdn-a.akamaihd.net/steamcommunity/public/images/apps/367520/e8f543149d1ccfe831740ad989260d15e57a4de0.jpg",
    "icongray": "https://steamcdn-a.akamaihd.net/steamcommunity/public/images/apps/367520/d1f3d14cf7b0b0cf8a7bb4a71a43f5c950fd982c.jpg"
  },
  {
    "name": "ASCENSION",
    "defaultvalue": 0,
    "displayName": "Ascension",
    "hidden": 0,
    "description": "Collect 2400 Essence and hear the Seer's final words",
    "icon": "https://steamcdn-a.akamaihd.net/steamcommunity/public/images/apps/367520/054a9800b71efbf708869cb55f611658ecffa2f3.jpg",
    "icongray": "https://steamcdn-a.akamaihd.net/steamcommunity/public/images/apps/367520/1b88bf9ae2b7d4b90ea3ad86470c98df618a8229.jpg"
  },
  {
    "name": "GRUBFRIEND",
    "defaultvalue": 0,
    "displayName": "Grubfriend",
    "hidden": 0,
    "description": "Rescue half of the imprisoned grubs",
    "icon": "https://steamcdn-a.akamaihd.net/steamcommunity/public/images/apps/367520/7d3e6f275570f47e11c53342e989bc70152789cf.jpg",
    "icongray": "https://steamcdn-a.akamaihd.net/steamcommunity/public/images/apps/367520/585f5c9dc4d8fc9a7ba24c808e184837fa1c28c4.jpg"
  },
  {
    "name": "METAMORPHOSIS",
    "defaultvalue": 0,
    "displayName": "Metamorphosis",
    "hidden": 0,
    "description": "Rescue all of the imprisoned grubs",
    "icon": "https://steamcdn-a.akamaihd.net/steamcommunity/public/images/apps/367520/378ed9b1dcccd43bfbf39295b17caad3fb398c64.jpg",
    "icongray": "https://steamcdn-a.akamaihd.net/steamcommunity/public/images/apps/367520/a1a99a2d1308a47ea46df2eff56301584d070246.jpg"
  },
  {
    "name": "NEGLECT",
    "defaultvalue": 0,
    "displayName": "Neglect",
    "hidden": 0,
    "description": "Leave Zote to die",
    "icon": "https://steamcdn-a.akamaihd.net/steamcommunity/public/images/apps/367520/c0bf9a28a5aed3500c2409e1699d8b3cf041dbfd.jpg",
    "icongray": "https://steamcdn-a.akamaihd.net/steamcommunity/public/images/apps/367520/512e98007863df71f4531d08676464c6aceea95d.jpg"
  },
  {
    "name": "NAILSMITH_KILL",
    "defaultvalue": 0,
    "displayName": "Purity",
    "hidden": 1,
    "icon": "https://steamcdn-a.akamaihd.net/steamcommunity/public/images/apps/367520/bc17dc680e57f3a108d964f171388109b3dd02e2.jpg",
    "icongray": "https://steamcdn-a.akamaihd.net/steamcommunity/public/images/apps/367520/23f190fe7fdc961652855d6134a096b2703bf479.jpg"
  },
  {
    "name": "NAILSMITH_SPARE",
    "defaultvalue": 0,
    "displayName": "Happy Couple",
    "hidden": 1,
    "icon": "https://steamcdn-a.akamaihd.net/steamcommunity/public/images/apps/367520/39c48696aca3c6ccf64eb4a069ab6a44971308a4.jpg",
    "icongray": "https://steamcdn-a.akamaihd.net/steamcommunity/public/images/apps/367520/2a2f11ae513ba698b9fde0790f82f9a1292176d9.jpg"
  },
  {
    "name": "QUIRREL_EPILOGUE",
    "defaultvalue": 0,
    "displayName": "Witness",
    "hidden": 1,
    "icon": "https://steamcdn-a.akamaihd.net/steamcommunity/public/images/apps/367520/b2de92ce9fadeae94fc2b25f116a95ff575047d2.jpg",
    "icongray": "https://steamcdn-a.akamaihd.net/steamcommunity/public/images/apps/367520/bebc7daebbce3dd0cef06f83e0b4ae69975062cc.jpg"
  },
  {
    "name": "MOURNER",
    "defaultvalue": 0,
    "displayName": "Solace",
    "hidden": 0,
    "description": "Bring peace to the Grey Mourner",
    "icon": "https://steamcdn-a.akamaihd.net/steamcommunity/public/images/apps/367520/5599c786f2c5a411951563f33abed35f08ad76e4.jpg",
    "icongray": "https://steamcdn-a.akamaihd.net/steamcommunity/public/images/apps/367520/b85715be313f8be45edaebbdf16d6d794766da24.jpg"
  },
  {
    "name": "TRAITOR_LORD",
    "defaultvalue": 0,
    "displayName": "Execution",
    "hidden": 0,
    "description": "Defeat the Traitor Lord",
    "icon": "https://steamcdn-a.akamaihd.net/steamcommunity/public/images/apps/367520/e7205c4c78fefef7894a6731d1a188e992011ec8.jpg",
    "icongray": "https://steamcdn-a.akamaihd.net/steamcommunity/public/images/apps/367520/9204e1e5c4d80aa514583957e57d9ae86ebd0976.jpg"
  },
  {
    "name": "STAG_STATION_HALF",
    "defaultvalue": 0,
    "displayName": "Connection",
    "hidden": 0,
    "description": "Open half of Hallownest's Stag Stations",
    "icon": "https://steamcdn-a.akamaihd.net/steamcommunity/public/images/apps/367520/dad457a73d6612846c24053b76d41a2415ace552.jpg",
    "icongray": "https://steamcdn-a.akamaihd.net/steamcommunity/public/images/apps/367520/6d16598ac798eef2f915b7a9a2619be365c768b5.jpg"
  },
  {
    "name": "STAG_STATION_ALL",
    "defaultvalue": 0,
    "displayName": "Hope",
    "hidden": 0,
    "description": "Open all of Hallownest's Stag Stations and discover the Stag Nest",
    "icon": "https://steamcdn-a.akamaihd.net/steamcommunity/public/images/apps/367520/96d2673f15230fb83dd61384eb05458f1e0475bc.jpg",
    "icongray": "https://steamcdn-a.akamaihd.net/steamcommunity/public/images/apps/367520/502e5ea328ab9c1e226544bd85a5771c12f2d723.jpg"
  },
  {
    "name": "TEACHER",
    "defaultvalue": 0,
    "displayName": "Teacher",
    "hidden": 0,
    "description": "Destroy Monomon the Teacher",
    "icon": "https://steamcdn-a.akamaihd.net/steamcommunity/public/images/apps/367520/f35cd67af303aa5d609cd1183e9eb29295b302b7.jpg",
    "icongray": "https://steamcdn-a.akamaihd.net/steamcommunity/public/images/apps/367520/5a85ae25f9102058a0ac5bf541d08a510b466764.jpg"
  },
  {
    "name": "WATCHER",
    "defaultvalue": 0,
    "displayName": "Watcher",
    "hidden": 0,
    "description": "Destroy Lurien the Watcher",
    "icon": "https://steamcdn-a.akamaihd.net/steamcommunity/public/images/apps/367520/4e6e4ddce73c59559901d5bc7c86481d36a45988.jpg",
    "icongray": "https://steamcdn-a.akamaihd.net/steamcommunity/public/images/apps/367520/9a7f425e2757c29513ef86473b76fa093c9e7c0e.jpg"
  },
  {
    "name": "BEAST",
    "defaultvalue": 0,
    "displayName": "Beast",
    "hidden": 0,
    "description": "Destroy Herrah the Beast",
    "icon": "https://steamcdn-a.akamaihd.net/steamcommunity/public/images/apps/367520/460d5ab4af6dc0ff8c053c42649fa856949f01b4.jpg",
    "icongray": "https://steamcdn-a.akamaihd.net/steamcommunity/public/images/apps/367520/4fe01dcb8d9665de684eb7f8bda003ebfa938e82.jpg"
  },
  {
    "name": "MAP",
    "defaultvalue": 0,
    "displayName": "Cartographer",
    "hidden": 0,
    "description": "Acquire a map of each area",
    "icon": "https://steamcdn-a.akamaihd.net/steamcommunity/public/images/apps/367520/7e671e6e88cbe98b9dce57281980fea84a70de9b.jpg",
    "icongray": "https://steamcdn-a.akamaihd.net/steamcommunity/public/images/apps/367520/9db745f7f05c507991e224f2ca73e8d4af36a114.jpg"
  },
  {
    "name": "COLOSSEUM_1",
    "defaultvalue": 0,
    "displayName": "Warrior",
    "hidden": 0,
    "description": "Complete the Trial of the Warrior",
    "icon": "https://steamcdn-a.akamaihd.net/steamcommunity/public/images/apps/367520/11d67c16467ae72066c2a3d33388325c65e9f7f7.jpg",
    "icongray": "https://steamcdn-a.akamaihd.net/steamcommunity/public/images/apps/367520/9f9fca30082bf6d65e8beb8cf5eb9955c0ed0bbf.jpg"
  },
  {
    "name": "COLOSSEUM_2",
    "defaultvalue": 0,
    "displayName": "Conqueror",
    "hidden": 0,
    "description": "Complete the Trial of the Conqueror",
    "icon": "https://steamcdn-a.akamaihd.net/steamcommunity/public/images/apps/367520/1e6a0d37618ba408e9c6ee4e77585ba1b69ee2c1.jpg",
    "icongray": "https://steamcdn-a.akamaihd.net/steamcommunity/public/images/apps/367520/4dce442376a62900d7064dbb04f66125678d0a99.jpg"
  },
  {
    "name": "COLOSSEUM_3",
    "defaultvalue": 0,
    "displayName": "Fool",
    "hidden": 0,
    "description": "Complete the Trial of the Fool",
    "icon": "https://steamcdn-a.akamaihd.net/steamcommunity/public/images/apps/367520/29d538fcf448baafe7bb427d7788b416f0e2e00f.jpg",
    "icongray": "https://steamcdn-a.akamaihd.net/steamcommunity/public/images/apps/367520/cf3a66560ca2f5a33665283ef854e518b7c8269e.jpg"
  },
  {
    "name": "ENDING_A",
    "defaultvalue": 0,
    "displayName": "The Hollow Knight",
    "hidden": 1,
    "icon": "https://steamcdn-a.akamaihd.net/steamcommunity/public/images/apps/367520/39db59cf079011e52d49a621de9c540652f9d2d4.jpg",
    "icongray": "https://steamcdn-a.akamaihd.net/steamcommunity/public/images/apps/367520/f62b5c62df1ccfcf68b18da288ee220e6bc34b2b.jpg"
  },
  {
    "name": "ENDING_B",
    "defaultvalue": 0,
    "displayName": "Sealed Siblings",
    "hidden": 1,
    "icon": "https://steamcdn-a.akamaihd.net/steamcommunity/public/images/apps/367520/f63e26d501935466c304bf51159fd7144a157e69.jpg",
    "icongray": "https://steamcdn-a.akamaihd.net/steamcommunity/public/images/apps/367520/d9a08fbe0afb16ffae9ebcd67c41bb73388a8c26.jpg"
  },
  {
    "name": "ENDING_C",
    "defaultvalue": 0,
    "displayName": "Dream No More",
    "hidden": 1,
    "icon": "https://steamcdn-a.akamaihd.net/steamcommunity/public/images/apps/367520/8236b05d402215e4cd497af18248d19210d8fbea.jpg",
    "icongray": "https://steamcdn-a.akamaihd.net/steamcommunity/public/images/apps/367520/a43f645a3916af81765b548b85fe19e826ba4c42.jpg"
  },
  {
    "name": "VOID",
    "defaultvalue": 0,
    "displayName": "Void",
    "hidden": 1,
    "icon": "https://steamcdn-a.akamaihd.net/steamcommunity/public/images/apps/367520/7695d5ad3fbe1c09af8feb887cd887846ec115b8.jpg",
    "icongray": "https://steamcdn-a.akamaihd.net/steamcommunity/public/images/apps/367520/e11d971b5f2c1e977fd5679ad15cbf40b2cb2a4a.jpg"
  },
  {
    "name": "SPEEDRUN_1",
    "defaultvalue": 0,
    "displayName": "Speedrun 1",
    "hidden": 0,
    "description": "Complete the game in under 10 hours",
    "icon": "https://steamcdn-a.akamaihd.net/steamcommunity/public/images/apps/367520/95cb373a7b6309360f0f12fb18c993b013102f77.jpg",
    "icongray": "https://steamcdn-a.akamaihd.net/steamcommunity/public/images/apps/367520/d273e50186bcfe48d2c0a07b20bd0efa8d843293.jpg"
  },
  {
    "name": "SPEEDRUN_2",
    "defaultvalue": 0,
    "displayName": "Speedrun 2",
    "hidden": 0,
    "description": "Complete the game in under 5 hours",
    "icon": "https://steamcdn-a.akamaihd.net/steamcommunity/public/images/apps/367520/23dd899f5f08281f920f8db73e825884a5d9ebe8.jpg",
    "icongray": "https://steamcdn-a.akamaihd.net/steamcommunity/public/images/apps/367520/426bfd57af49ba6c1e199f6dffb6393fdd87e98c.jpg"
  },
  {
    "name": "COMPLETION",
    "defaultvalue": 0,
    "displayName": "Completion",
    "hidden": 0,
    "description": "Achieve 100% game completion and finish the game",
    "icon": "https://steamcdn-a.akamaihd.net/steamcommunity/public/images/apps/367520/1f0cab3df919fd1d48aaacd2db3a4d10334bae1d.jpg",
    "icongray": "https://steamcdn-a.akamaihd.net/steamcommunity/public/images/apps/367520/eba8bd5fc8e2d0b968bc2eb80433b8112a0d337c.jpg"
  },
  {
    "name": "SPEED_COMPLETION",
    "defaultvalue": 0,
    "displayName": "Speed Completion",
    "hidden": 0,
    "description": "Achieve 100% game completion and finish the game in under 20 hours",
    "icon": "https://steamcdn-a.akamaihd.net/steamcommunity/public/images/apps/367520/990df88f2440225e3c9ee49fc68233c1cc476807.jpg",
    "icongray": "https://steamcdn-a.akamaihd.net/steamcommunity/public/images/apps/367520/6efa8b82b7062070451e05e3569356d0a871dce3.jpg"
  },
  {
    "name": "STEELSOUL",
    "defaultvalue": 0,
    "displayName": "Steel Soul",
    "hidden": 0,
    "description": "Finish the game in Steel Soul mode",
    "icon": "https://steamcdn-a.akamaihd.net/steamcommunity/public/images/apps/367520/c2a017099150e32a6d014c318d921a5a2deec181.jpg",
    "icongray": "https://steamcdn-a.akamaihd.net/steamcommunity/public/images/apps/367520/af3a37a198cd9c0eabea41f92128c0f82b12b44b.jpg"
  },
  {
    "name": "STEELSOUL_COMPLETION",
    "defaultvalue": 0,
    "displayName": "Steel Heart",
    "hidden": 0,
    "description": "Achieve 100% game completion and finish the game in Steel Soul mode",
    "icon": "https://steamcdn-a.akamaihd.net/steamcommunity/public/images/apps/367520/e3b29bb02a500134a1112b6f925820fd57fe8bf9.jpg",
    "icongray": "https://steamcdn-a.akamaihd.net/steamcommunity/public/images/apps/367520/7e987f4454a86176979f97b80af057ba62689db2.jpg"
  },
  {
    "name": "HUNTER_1",
    "defaultvalue": 0,
    "displayName": "Keen Hunter",
    "hidden": 0,
    "description": "Record all of Hallownest's creatures in the Hunter's Journal",
    "icon": "https://steamcdn-a.akamaihd.net/steamcommunity/public/images/apps/367520/6ce519c75d52fd938a9212358682048d1298af3c.jpg",
    "icongray": "https://steamcdn-a.akamaihd.net/steamcommunity/public/images/apps/367520/4d6373b0678c444e8ec841f81b4789d36438b8c3.jpg"
  },
  {
    "name": "HUNTER_2",
    "defaultvalue": 0,
    "displayName": "True Hunter",
    "hidden": 0,
    "description": "Receive the Hunter's Mark",
    "icon": "https://steamcdn-a.akamaihd.net/steamcommunity/public/images/apps/367520/f379e29e46d7edf73abd865cfb593d5fb1c6d4af.jpg",
    "icongray": "https://steamcdn-a.akamaihd.net/steamcommunity/public/images/apps/367520/ed0b80dee5a89c1ac24907b4fa9048512d95e705.jpg"
  },
  {
    "name": "MR_MUSHROOM",
    "defaultvalue": 0,
    "displayName": "Passing of the Age",
    "hidden": 1,
    "icon": "https://steamcdn-a.akamaihd.net/steamcommunity/public/images/apps/367520/781ccaf816379f217f53dfb86fb8c3a77daed9d1.jpg",
    "icongray": "https://steamcdn-a.akamaihd.net/steamcommunity/public/images/apps/367520/b5ee4828c750bcf90def63aaffe4a1b27f418efd.jpg"
  },
  {
    "name": "DREAM_SOUL_MASTER_DEFEAT",
    "defaultvalue": 0,
    "displayName": "Mortality",
    "hidden": 1,
    "icon": "https://steamcdn-a.akamaihd.net/steamcommunity/public/images/apps/367520/a26f0ff5d81835545c86d358c49a1a15bf74a299.jpg",
    "icongray": "https://steamcdn-a.akamaihd.net/steamcommunity/public/images/apps/367520/f922c5de7ecfb30d3f7287e5fc472d669ec67fb8.jpg"
  },
  {
    "name": "WHITE_DEFENDER",
    "defaultvalue": 0,
    "displayName": "Memory",
    "hidden": 1,
    "icon": "https://steamcdn-a.akamaihd.net/steamcommunity/public/images/apps/367520/ea0958727cca3be88c8e200f7c3008fa01775ccd.jpg",
    "icongray": "https://steamcdn-a.akamaihd.net/steamcommunity/public/images/apps/367520/53bbcbddf3f54a192796ae729edd1b56e9190fc0.jpg"
  },
  {
    "name": "GREY_PRINCE",
    "defaultvalue": 0,
    "displayName": "Dark Romance",
    "hidden": 1,
    "icon": "https://steamcdn-a.akamaihd.net/steamcommunity/public/images/apps/367520/8c26d557c3582c7784f338523316f56068e4426d.jpg",
    "icongray": "https://steamcdn-a.akamaihd.net/steamcommunity/public/images/apps/367520/e9699d861ee64eb0b3bfd57f2571896be5db12b4.jpg"
  },
  {
    "name": "GRIMM",
    "defaultvalue": 0,
    "displayName": "Grand Performance",
    "hidden": 1,
    "icon": "https://steamcdn-a.akamaihd.net/steamcommunity/public/images/apps/367520/982f6bd69415e06696e2fc414bc595700663ab37.jpg",
    "icongray": "https://steamcdn-a.akamaihd.net/steamcommunity/public/images/apps/367520/549b3980b3a8d04368758d1bd59e007bf31cae1b.jpg"
  },
  {
    "name": "NIGHTMARE_GRIMM",
    "defaultvalue": 0,
    "displayName": "Ritual",
    "hidden": 1,
    "icon": "https://steamcdn-a.akamaihd.net/steamcommunity/public/images/apps/367520/11a174017fa3baa8169c362c0740deababb5c241.jpg",
    "icongray": "https://steamcdn-a.akamaihd.net/steamcommunity/public/images/apps/367520/11e465df607e6c5338c241612abd25bd31f44986.jpg"
  },
  {
    "name": "BANISHMENT",
    "defaultvalue": 0,
    "displayName": "Banishment",
    "hidden": 1,
    "icon": "https://steamcdn-a.akamaihd.net/steamcommunity/public/images/apps/367520/d08c26c6b6b675dc3135b43fdd124eec41e351f6.jpg",
    "icongray": "https://steamcdn-a.akamaihd.net/steamcommunity/public/images/apps/367520/c31aefeb1a1a66ea8df5973948938943e990def6.jpg"
  },
  {
    "name": "PANTHEON1",
    "defaultvalue": 0,
    "displayName": "Brotherhood",
    "hidden": 1,
    "icon": "https://steamcdn-a.akamaihd.net/steamcommunity/public/images/apps/367520/9937e1fabc4f0ea2feebafd0b6f20c025b52aeec.jpg",
    "icongray": "https://steamcdn-a.akamaihd.net/steamcommunity/public/images/apps/367520/"
  },
  {
    "name": "PANTHEON2",
    "defaultvalue": 0,
    "displayName": "Inspiration",
    "hidden": 1,
    "icon": "https://steamcdn-a.akamaihd.net/steamcommunity/public/images/apps/367520/17f7d048decf5c20bab0a7bd11f2fac5caca050a.jpg",
    "icongray": "https://steamcdn-a.akamaihd.net/steamcommunity/public/images/apps/367520/"
  },
  {
    "name": "PANTHEON3",
    "defaultvalue": 0,
    "displayName": "Focus",
    "hidden": 1,
    "icon": "https://steamcdn-a.akamaihd.net/steamcommunity/public/images/apps/367520/382c7998e9b0b60a850d8bdf4c7f4a515a8b3481.jpg",
    "icongray": "https://steamcdn-a.akamaihd.net/steamcommunity/public/images/apps/367520/"
  },
  {
    "name": "PANTHEON4",
    "defaultvalue": 0,
    "displayName": "Soul & Shade",
    "hidden": 1,
    "icon": "https://steamcdn-a.akamaihd.net/steamcommunity/public/images/apps/367520/5857ae3a16211b09755b086f37f411adead38131.jpg",
    "icongray": "https://steamcdn-a.akamaihd.net/steamcommunity/public/images/apps/367520/"
  },
  {
    "name": "ENDINGD",
    "defaultvalue": 0,
    "displayName": "Embrace the Void",
    "hidden": 1,
    "icon": "https://steamcdn-a.akamaihd.net/steamcommunity/public/images/apps/367520/671c16432f460cdd9eff88d5c01b4abc7cfe2703.jpg",
    "icongray": "https://steamcdn-a.akamaihd.net/steamcommunity/public/images/apps/367520/"
  },
  {
    "name": "COMPLETIONGG",
    "defaultvalue": 0,
    "displayName": "Pure Completion",
    "hidden": 0,
    "description": "Achieve 112% game completion and finish the game.",
    "icon": "https://steamcdn-a.akamaihd.net/steamcommunity/public/images/apps/367520/6b7a9e0fa49788c8ad8b56ddff75ac6250330b92.jpg",
    "icongray": "https://steamcdn-a.akamaihd.net/steamcommunity/public/images/apps/367520/817c85e5f17fcab76b7d08979b0b076afbae509d.jpg"
  }
]