﻿[
  {
    "name": "endingFire",
    "defaultvalue": 0,
    "displayName": "ENDING_FIRE"
  },
  {
    "name": "jumpTimes",
    "defaultvalue": 0,
    "displayName": "JUMP_TIMES"
  },
  {
    "name": "endingIce",
    "defaultvalue": 0,
    "displayName": "ENDING_ICE"
  },
  {
    "name": "endingPlagues",
    "defaultvalue": 0,
    "displayName": "ENDING_PLAGUES"
  },
  {
    "name": "endingWind",
    "defaultvalue": 0,
    "displayName": "ENDING_WIND"
  },
  {
    "name": "endingLightning",
    "defaultvalue": 0,
    "displayName": "ENDING_LIGHTNING"
  },
  {
    "name": "endingEarth",
    "defaultvalue": 0,
    "displayName": "ENDING_EARTH"
  },
  {
    "name": "endingDemon",
    "defaultvalue": 0,
    "displayName": "ENDING_DEMON"
  },
  {
    "name": "peacebringer",
    "defaultvalue": 0,
    "displayName": "PEACEBRINGER"
  },
  {
    "name": "immortal",
    "defaultvalue": 0,
    "displayName": "IMMORTAL"
  },
  {
    "name": "godsAvatar",
    "defaultvalue": 0,
    "displayName": "GODS_AVATAR"
  },
  {
    "name": "innerStrenght",
    "defaultvalue": 0,
    "displayName": "INNER_STRENGHT"
  },
  {
    "name": "sonOfTheEighties",
    "defaultvalue": 0,
    "displayName": "SON_OF_THE_EIGHTIES"
  },
  {
    "name": "finderKeeper",
    "defaultvalue": 0,
    "displayName": "FINDER_KEEPER"
  },
  {
    "name": "adaptation",
    "defaultvalue": 0,
    "displayName": "ADAPTATION"
  },
  {
    "name": "beastTamer",
    "defaultvalue": 0,
    "displayName": "BEAST_TAMER"
  },
  {
    "name": "rockBreaker",
    "defaultvalue": 0,
    "displayName": "ROCK_BREAKER"
  },
  {
    "name": "youShallNotPass",
    "defaultvalue": 0,
    "displayName": "YOU_SHALL_NOT_PASS"
  },
  {
    "name": "iceBreaker",
    "defaultvalue": 0,
    "displayName": "ICE_BREAKER"
  },
  {
    "name": "dragonKiller",
    "defaultvalue": 0,
    "displayName": "DRAGON_KILLER"
  },
  {
    "name": "towerCrusher",
    "defaultvalue": 0,
    "displayName": "TOWER_CRUSHER"
  },
  {
    "name": "defeatedNemesis",
    "defaultvalue": 0,
    "displayName": "DEFEATED_NEMESIS"
  },
  {
    "name": "dontComeBack",
    "defaultvalue": 0,
    "displayName": "DONT_COME_BACK"
  },
  {
    "name": "firstSon",
    "defaultvalue": 0,
    "displayName": "FIRST_SON"
  },
  {
    "name": "secondSon",
    "defaultvalue": 0,
    "displayName": "SECOND_SON"
  },
  {
    "name": "paricidium",
    "defaultvalue": 0,
    "displayName": "PARICIDIUM"
  },
  {
    "name": "punishingPlagues",
    "defaultvalue": 0,
    "displayName": "PUNISHING_PLAGUES"
  },
  {
    "name": "coldIce",
    "defaultvalue": 0,
    "displayName": "COLD_ICE"
  },
  {
    "name": "burningSoul",
    "defaultvalue": 0,
    "displayName": "BURNING_SOUL"
  },
  {
    "name": "spark",
    "defaultvalue": 0,
    "displayName": "SPARK"
  },
  {
    "name": "motherEarth",
    "defaultvalue": 0,
    "displayName": "MOTHER_EARTH"
  },
  {
    "name": "windDominus",
    "defaultvalue": 0,
    "displayName": "WIND_DOMINUS"
  },
  {
    "name": "divineBlood",
    "defaultvalue": 0,
    "displayName": "DIVINE_BLOOD"
  },
  {
    "name": "aztothepsGift",
    "defaultvalue": 0,
    "displayName": "AZTOTHEPS_GIFT"
  },
  {
    "name": "eruelGift",
    "defaultvalue": 0,
    "displayName": "ERUEL_GIFT"
  },
  {
    "name": "efaistosGift",
    "defaultvalue": 0,
    "displayName": "EFAISTOS_GIFT"
  },
  {
    "name": "tharGift",
    "defaultvalue": 0,
    "displayName": "THAR_GIFT"
  },
  {
    "name": "gaeinGift",
    "defaultvalue": 0,
    "displayName": "GAEIN_GIFT"
  },
  {
    "name": "erarinnGift",
    "defaultvalue": 0,
    "displayName": "ERARINN_GIFT"
  },
  {
    "name": "wasThatJust",
    "defaultvalue": 0,
    "displayName": "WAS_THAT_JUST"
  },
  {
    "name": "gunner",
    "defaultvalue": 0,
    "displayName": "GUNNER"
  },
  {
    "name": "killer",
    "defaultvalue": 0,
    "displayName": "KILLER"
  },
  {
    "name": "furyOfPlagues",
    "defaultvalue": 0,
    "displayName": "FURY_OF_PLAGUES"
  },
  {
    "name": "furyIce",
    "defaultvalue": 0,
    "displayName": "FURY_ICE"
  },
  {
    "name": "furyOfFire",
    "defaultvalue": 0,
    "displayName": "FURY_OF_FIRE"
  },
  {
    "name": "furyElectric",
    "defaultvalue": 0,
    "displayName": "FURY_ELECTRIC"
  },
  {
    "name": "furyOfEarth",
    "defaultvalue": 0,
    "displayName": "FURY_OF_EARTH"
  },
  {
    "name": "furyOfWind",
    "defaultvalue": 0,
    "displayName": "FURY_OF_WIND"
  },
  {
    "name": "demonicFury",
    "defaultvalue": 0,
    "displayName": "DEMONIC_FURY"
  },
  {
    "name": "godsends",
    "defaultvalue": 0,
    "displayName": "GODSENDS"
  },
  {
    "name": "7IsTheNumber",
    "defaultvalue": 0,
    "displayName": "7_IS_THE_NUMBER"
  },
  {
    "name": "1DayOfGame",
    "defaultvalue": 0,
    "displayName": "1_DAY_OF_GAME"
  },
  {
    "name": "dontStop",
    "defaultvalue": 0,
    "displayName": "DONT_STOP"
  },
  {
    "name": "keepGoing",
    "defaultvalue": 0,
    "displayName": "KEEP_GOING"
  },
  {
    "name": "OldSchool",
    "defaultvalue": 0,
    "displayName": "OLD_SCHOOL"
  }
]