﻿{
  "Dlcs": {},
  "Name": "Quest: Escape Room",
  "AppId": "1416450",
  "ImageUrl": "https://steamcdn-a.akamaihd.net/steam/apps/1416450/header.jpg?t=1600551787",
  "Languages": [
    "english",
    "russian"
  ],
  "Platforms": {
    "windows": true,
    "mac": false,
    "linux": false
  }
}