{
  "Dlcs": {},
  "Name": "Disney's The Jungle Book",
  "AppId": "561110",
  "ImageUrl": "https://steamcdn-a.akamaihd.net/steam/apps/561110/header.jpg?t=1571776915",
  "Languages": [
    "english"
  ],
  "Platforms": {
    "windows": true,
    "mac": true,
    "linux": true
  }
}