{
  "Dlcs": {},
  "Name": "Emergency 2012",
  "AppId": "40370",
  "ImageUrl": "https://steamcdn-a.akamaihd.net/steam/apps/40370/header.jpg?t=1572882809",
  "Languages": [
    "english",
    "french",
    "german",
    "spanish"
  ],
  "Platforms": {
    "windows": true,
    "mac": false,
    "linux": false
  }
}