{
  "Dlcs": {},
  "Name": "Alone in the War",
  "AppId": "1114910",
  "ImageUrl": "https://steamcdn-a.akamaihd.net/steam/apps/1114910/header.jpg?t=1599066225",
  "Languages": [
    "english"
  ],
  "Platforms": {
    "windows": true,
    "mac": false,
    "linux": false
  }
}