﻿{
  "Dlcs": {
    "407800": {
      "Name": "Steam Pack",
      "ImageUrl": "https://steamcdn-a.akamaihd.net/steam/apps/407800/header.jpg?t=1462877351"
    },
    "410450": {
      "Name": "Universal Pack",
      "ImageUrl": "https://steamcdn-a.akamaihd.net/steam/apps/410450/header.jpg?t=1462877289"
    },
    "410460": {
      "Name": "Ammunition Pack",
      "ImageUrl": "https://steamcdn-a.akamaihd.net/steam/apps/410460/header.jpg?t=1462877315"
    }
  },
  "Name": "Affected Zone Tactics",
  "AppId": "386640",
  "ImageUrl": "https://steamcdn-a.akamaihd.net/steam/apps/386640/header.jpg?t=1468568718",
  "Languages": [
    "english",
    "russian",
    "french",
    "spanish",
    "italian",
    "german",
    "polish",
    "turkish",
    "czech",
    "portuguese"
  ],
  "Platforms": {
    "windows": true,
    "mac": false,
    "linux": false
  }
}