﻿[
  {
    "name": "ACH_0",
    "defaultvalue": 0,
    "displayName": "Platinum",
    "hidden": 0,
    "description": "Platinum Trophy",
    "icon": "https://steamcdn-a.akamaihd.net/steamcommunity/public/images/apps/1064840/fc3c6a78e1e1a304dd668a9b61d38293bf44fa1b.jpg",
    "icongray": "https://steamcdn-a.akamaihd.net/steamcommunity/public/images/apps/1064840/96ec2eb80a8c3d343ff195dc48b4addfc731731b.jpg"
  },
  {
    "name": "ACH_1",
    "defaultvalue": 0,
    "displayName": "Open Sesame",
    "hidden": 0,
    "description": "Open a firefly door",
    "icon": "https://steamcdn-a.akamaihd.net/steamcommunity/public/images/apps/1064840/a05fde6577a4b3f84752ecc7b4c3a3350e8717b4.jpg",
    "icongray": "https://steamcdn-a.akamaihd.net/steamcommunity/public/images/apps/1064840/3de5a407cda891b7ccf893c65556ad8b1035cb4b.jpg"
  },
  {
    "name": "ACH_2",
    "defaultvalue": 0,
    "displayName": "Two hands too many",
    "hidden": 0,
    "description": "Defeat a molebug",
    "icon": "https://steamcdn-a.akamaihd.net/steamcommunity/public/images/apps/1064840/4289ad9be3089e5f59c47434a3c5af8091914068.jpg",
    "icongray": "https://steamcdn-a.akamaihd.net/steamcommunity/public/images/apps/1064840/02258196386efa7874cc4309e3b3705b2fe740a9.jpg"
  },
  {
    "name": "ACH_3",
    "defaultvalue": 0,
    "displayName": "Monkey Burglar",
    "hidden": 1,
    "icon": "https://steamcdn-a.akamaihd.net/steamcommunity/public/images/apps/1064840/cd01103ec872c00d0f2745be566d8863b915d76a.jpg",
    "icongray": "https://steamcdn-a.akamaihd.net/steamcommunity/public/images/apps/1064840/96b113cb95a280ef86264c9f4d46b9776412a2da.jpg"
  },
  {
    "name": "ACH_4",
    "defaultvalue": 0,
    "displayName": "Insect Collector",
    "hidden": 0,
    "description": "Collect 50 insect tokens",
    "icon": "https://steamcdn-a.akamaihd.net/steamcommunity/public/images/apps/1064840/6d66c723ec0a2f240e56684d4581d9a145579c1d.jpg",
    "icongray": "https://steamcdn-a.akamaihd.net/steamcommunity/public/images/apps/1064840/da03c839fb0bc41908148b72b3f71ac8ba4206e5.jpg"
  },
  {
    "name": "ACH_5",
    "defaultvalue": 0,
    "displayName": "Golden Pinecones",
    "hidden": 0,
    "description": "Collect 6 pinecones",
    "icon": "https://steamcdn-a.akamaihd.net/steamcommunity/public/images/apps/1064840/d3f81d05c4d0c7aec88e66df442581ad0b4ce08c.jpg",
    "icongray": "https://steamcdn-a.akamaihd.net/steamcommunity/public/images/apps/1064840/9c0e6e161691123d59ffd31858012ebcea1ecf7e.jpg"
  },
  {
    "name": "ACH_6",
    "defaultvalue": 0,
    "displayName": "Invincible",
    "hidden": 0,
    "description": "Collect an invincibility flower",
    "icon": "https://steamcdn-a.akamaihd.net/steamcommunity/public/images/apps/1064840/311b78ba24e9b02553757ed4753fc6985d31f91f.jpg",
    "icongray": "https://steamcdn-a.akamaihd.net/steamcommunity/public/images/apps/1064840/3a753b652c3626b463e549df6e9d41d3b3f0662b.jpg"
  },
  {
    "name": "ACH_7",
    "defaultvalue": 0,
    "displayName": "Snake Blood",
    "hidden": 0,
    "description": "Defeat a snake",
    "icon": "https://steamcdn-a.akamaihd.net/steamcommunity/public/images/apps/1064840/49a51e88de685c62917cfd7a88803ec27225fe03.jpg",
    "icongray": "https://steamcdn-a.akamaihd.net/steamcommunity/public/images/apps/1064840/af8df6b50cdea0e9e4f5be01d612d1b3e262ab0d.jpg"
  },
  {
    "name": "ACH_8",
    "defaultvalue": 0,
    "displayName": "Take that! Buzza'",
    "hidden": 0,
    "description": "Defeat a damselfly",
    "icon": "https://steamcdn-a.akamaihd.net/steamcommunity/public/images/apps/1064840/6f120da37768877c9e6066360a08a340d8e3d894.jpg",
    "icongray": "https://steamcdn-a.akamaihd.net/steamcommunity/public/images/apps/1064840/b4dcd45415c0c9c6f1ef2a3516161f62ef59a8d9.jpg"
  },
  {
    "name": "ACH_9",
    "defaultvalue": 0,
    "displayName": "Certified Acrobat",
    "hidden": 0,
    "description": "Do a turnjump",
    "icon": "https://steamcdn-a.akamaihd.net/steamcommunity/public/images/apps/1064840/cd01103ec872c00d0f2745be566d8863b915d76a.jpg",
    "icongray": "https://steamcdn-a.akamaihd.net/steamcommunity/public/images/apps/1064840/96b113cb95a280ef86264c9f4d46b9776412a2da.jpg"
  },
  {
    "name": "ACH_10",
    "defaultvalue": 0,
    "displayName": "Beetle Juice",
    "hidden": 0,
    "description": "Defeat a beetle",
    "icon": "https://steamcdn-a.akamaihd.net/steamcommunity/public/images/apps/1064840/ef84e7ea5615c3edb102ea0758f0d1566dbbf173.jpg",
    "icongray": "https://steamcdn-a.akamaihd.net/steamcommunity/public/images/apps/1064840/e917c9a879b7badcafb0679ae6f155c84b9970bf.jpg"
  },
  {
    "name": "ACH_11",
    "defaultvalue": 0,
    "displayName": "Black Vitamins",
    "hidden": 0,
    "description": "Collect all blackccurrants",
    "icon": "https://steamcdn-a.akamaihd.net/steamcommunity/public/images/apps/1064840/34728188422113ba2d78bc6df7cc0055a511f587.jpg",
    "icongray": "https://steamcdn-a.akamaihd.net/steamcommunity/public/images/apps/1064840/f4e31842c84a3d858623b34b7bad367f69f4806f.jpg"
  },
  {
    "name": "ACH_12",
    "defaultvalue": 0,
    "displayName": "Baby Love",
    "hidden": 1,
    "icon": "https://steamcdn-a.akamaihd.net/steamcommunity/public/images/apps/1064840/179dad2fb45e4280491180c7816f6ecac6be31de.jpg",
    "icongray": "https://steamcdn-a.akamaihd.net/steamcommunity/public/images/apps/1064840/422744cab0e5bfa313dbd44d5aed51199c0c7117.jpg"
  },
  {
    "name": "ACH_13",
    "defaultvalue": 0,
    "displayName": "Brother Rubba",
    "hidden": 1,
    "icon": "https://steamcdn-a.akamaihd.net/steamcommunity/public/images/apps/1064840/f87cf3367133112788b481abf6a56fcfb219bb8a.jpg",
    "icongray": "https://steamcdn-a.akamaihd.net/steamcommunity/public/images/apps/1064840/25060ef852203f04b44945d9d673e8ab25cd93fe.jpg"
  },
  {
    "name": "ACH_14",
    "defaultvalue": 0,
    "displayName": "Home Again",
    "hidden": 1,
    "icon": "https://steamcdn-a.akamaihd.net/steamcommunity/public/images/apps/1064840/2f2469dc3c478e74f382b47b8c3082d0d17bbeb8.jpg",
    "icongray": "https://steamcdn-a.akamaihd.net/steamcommunity/public/images/apps/1064840/ffe819774a9179d5c41b2c49f172129b731217fc.jpg"
  },
  {
    "name": "ACH_15",
    "defaultvalue": 0,
    "displayName": "Cave Dweller",
    "hidden": 1,
    "icon": "https://steamcdn-a.akamaihd.net/steamcommunity/public/images/apps/1064840/cd01103ec872c00d0f2745be566d8863b915d76a.jpg",
    "icongray": "https://steamcdn-a.akamaihd.net/steamcommunity/public/images/apps/1064840/96b113cb95a280ef86264c9f4d46b9776412a2da.jpg"
  },
  {
    "name": "ACH_16",
    "defaultvalue": 0,
    "displayName": "Somewhere In My Memory",
    "hidden": 0,
    "description": "Find all memoirs",
    "icon": "https://steamcdn-a.akamaihd.net/steamcommunity/public/images/apps/1064840/cd01103ec872c00d0f2745be566d8863b915d76a.jpg",
    "icongray": "https://steamcdn-a.akamaihd.net/steamcommunity/public/images/apps/1064840/dd0d62c80b9dd1773d9e089560123c9f27446522.jpg"
  },
  {
    "name": "ACH_17",
    "defaultvalue": 0,
    "displayName": "Power to Squash",
    "hidden": 1,
    "icon": "https://steamcdn-a.akamaihd.net/steamcommunity/public/images/apps/1064840/3a167b81915c8cc575d8aabb3033a4032c579d04.jpg",
    "icongray": "https://steamcdn-a.akamaihd.net/steamcommunity/public/images/apps/1064840/d68c7e6d7b57dbe3497c04ab124206e4adeef778.jpg"
  },
  {
    "name": "ACH_18",
    "defaultvalue": 0,
    "displayName": "The Army",
    "hidden": 0,
    "description": "Defeat 100 ants",
    "icon": "https://steamcdn-a.akamaihd.net/steamcommunity/public/images/apps/1064840/98fe4617914cdc18ddd4c8053f8851c1ea4d5e69.jpg",
    "icongray": "https://steamcdn-a.akamaihd.net/steamcommunity/public/images/apps/1064840/7ca7a51e5b5a109aa4c59410ccf3513d26ae5569.jpg"
  },
  {
    "name": "ACH_19",
    "defaultvalue": 0,
    "displayName": "The Airforce",
    "hidden": 0,
    "description": "Defeat 200 airborne enemies",
    "icon": "https://steamcdn-a.akamaihd.net/steamcommunity/public/images/apps/1064840/5c29551e499de7d82ad26d073f9e357cc530c35d.jpg",
    "icongray": "https://steamcdn-a.akamaihd.net/steamcommunity/public/images/apps/1064840/e3714154168f9dab7d41916c461c2d406f9b7fba.jpg"
  },
  {
    "name": "ACH_20",
    "defaultvalue": 0,
    "displayName": "License to kill",
    "hidden": 0,
    "description": "5 ant headshots in a row",
    "icon": "https://steamcdn-a.akamaihd.net/steamcommunity/public/images/apps/1064840/fa81bf7ba153d98ddd69782bbd752f14067d56fd.jpg",
    "icongray": "https://steamcdn-a.akamaihd.net/steamcommunity/public/images/apps/1064840/7ca7a51e5b5a109aa4c59410ccf3513d26ae5569.jpg"
  },
  {
    "name": "ACH_21",
    "defaultvalue": 0,
    "displayName": "Ninja Monkey",
    "hidden": 1,
    "icon": "https://steamcdn-a.akamaihd.net/steamcommunity/public/images/apps/1064840/d512de39a464039cf62a7b0e250bd7c22561b40b.jpg",
    "icongray": "https://steamcdn-a.akamaihd.net/steamcommunity/public/images/apps/1064840/40e56867a53cd777819317c454d55c38a8f0d506.jpg"
  },
  {
    "name": "ACH_22",
    "defaultvalue": 0,
    "displayName": "Circus Monkey",
    "hidden": 1,
    "icon": "https://steamcdn-a.akamaihd.net/steamcommunity/public/images/apps/1064840/cd01103ec872c00d0f2745be566d8863b915d76a.jpg",
    "icongray": "https://steamcdn-a.akamaihd.net/steamcommunity/public/images/apps/1064840/dd0d62c80b9dd1773d9e089560123c9f27446522.jpg"
  },
  {
    "name": "ACH_23",
    "defaultvalue": 0,
    "displayName": "A Hundred Bugs",
    "hidden": 0,
    "description": "Defeat 100 groundbugs",
    "icon": "https://steamcdn-a.akamaihd.net/steamcommunity/public/images/apps/1064840/647c34b453800d625136ec41709b43d8cad8ce9d.jpg",
    "icongray": "https://steamcdn-a.akamaihd.net/steamcommunity/public/images/apps/1064840/09ce718b5d5ae9ab7f7277a7afc653402fa678ac.jpg"
  },
  {
    "name": "ACH_24",
    "defaultvalue": 0,
    "displayName": "Sweet Sap",
    "hidden": 0,
    "description": "Full sap capacity",
    "icon": "https://steamcdn-a.akamaihd.net/steamcommunity/public/images/apps/1064840/254b84f40ce512d3ce23be9a08fb7fb7924167be.jpg",
    "icongray": "https://steamcdn-a.akamaihd.net/steamcommunity/public/images/apps/1064840/08e371392c4b24a38e6fbf2990dc2a49a0a4329c.jpg"
  },
  {
    "name": "ACH_25",
    "defaultvalue": 0,
    "displayName": "Generalissimus",
    "hidden": 0,
    "description": "Upgrade to maximum capacity",
    "icon": "https://steamcdn-a.akamaihd.net/steamcommunity/public/images/apps/1064840/d96ab479925ab57dee8e69ae7f5e98b235adbb4d.jpg",
    "icongray": "https://steamcdn-a.akamaihd.net/steamcommunity/public/images/apps/1064840/8a2f3b89cfe138d84ef59b6e57661bcf6fb56f91.jpg"
  },
  {
    "name": "ACH_26",
    "defaultvalue": 0,
    "displayName": "Tweet! Tweet! Birds are sweet!",
    "hidden": 0,
    "description": "Rescue all birds",
    "icon": "https://steamcdn-a.akamaihd.net/steamcommunity/public/images/apps/1064840/b025506135c789cbcb3c609ad2fd03e932209551.jpg",
    "icongray": "https://steamcdn-a.akamaihd.net/steamcommunity/public/images/apps/1064840/bc49e86c00e447372c181d2ebf75f3a5b5887898.jpg"
  },
  {
    "name": "ACH_27",
    "defaultvalue": 0,
    "displayName": "Redcurrant Jam",
    "hidden": 0,
    "description": "Collect all currants in Eyja Mountain",
    "icon": "https://steamcdn-a.akamaihd.net/steamcommunity/public/images/apps/1064840/34728188422113ba2d78bc6df7cc0055a511f587.jpg",
    "icongray": "https://steamcdn-a.akamaihd.net/steamcommunity/public/images/apps/1064840/f4e31842c84a3d858623b34b7bad367f69f4806f.jpg"
  },
  {
    "name": "ACH_28",
    "defaultvalue": 0,
    "displayName": "Redcurrant Jelly",
    "hidden": 0,
    "description": "Collect all currants in Lyngna Fjord",
    "icon": "https://steamcdn-a.akamaihd.net/steamcommunity/public/images/apps/1064840/34728188422113ba2d78bc6df7cc0055a511f587.jpg",
    "icongray": "https://steamcdn-a.akamaihd.net/steamcommunity/public/images/apps/1064840/eb76bd07517e76f7bb6bd46da136aee4e0b18cee.jpg"
  },
  {
    "name": "ACH_29",
    "defaultvalue": 0,
    "displayName": "Redcurrant Juice",
    "hidden": 0,
    "description": "Collect all currants in Fraena Forest",
    "icon": "https://steamcdn-a.akamaihd.net/steamcommunity/public/images/apps/1064840/34728188422113ba2d78bc6df7cc0055a511f587.jpg",
    "icongray": "https://steamcdn-a.akamaihd.net/steamcommunity/public/images/apps/1064840/f4e31842c84a3d858623b34b7bad367f69f4806f.jpg"
  },
  {
    "name": "ACH_30",
    "defaultvalue": 0,
    "displayName": "Firefly Magic",
    "hidden": 0,
    "description": "Collect all fireflies",
    "icon": "https://steamcdn-a.akamaihd.net/steamcommunity/public/images/apps/1064840/86f53ae60f1a2e45ddbf8e19c7a39dcbbbf77e00.jpg",
    "icongray": "https://steamcdn-a.akamaihd.net/steamcommunity/public/images/apps/1064840/bd1837f55dfbfb9cc01821d0fcaffcdd319076c5.jpg"
  }
]