﻿[
  {
    "name": "jump_count",
    "defaultvalue": 0,
    "displayName": "Light Jumps"
  },
  {
    "name": "distance_travelled",
    "defaultvalue": 0,
    "displayName": "Distance Travelled"
  },
  {
    "name": "planet_count",
    "defaultvalue": 0,
    "displayName": "Points of Interest Visited"
  },
  {
    "name": "food_count",
    "defaultvalue": 0,
    "displayName": "Food Consumed"
  },
  {
    "name": "memento_count",
    "defaultvalue": 0,
    "displayName": "Mementos Collected"
  },
  {
    "name": "research_count",
    "defaultvalue": 0,
    "displayName": "Research Completed"
  },
  {
    "name": "crew_saved",
    "defaultvalue": 0,
    "displayName": "Surviving Crew"
  },
  {
    "name": "crew_killed",
    "defaultvalue": 0,
    "displayName": "Killed Crew"
  },
  {
    "name": "fuel_count",
    "defaultvalue": 0,
    "displayName": "Fuel Consumed"
  }
]