{
  "Dlcs": {
    "903090": {
      "Name": "PUZZLE: CATS & DOGS - Puzzle Pack: Summer Cats",
      "ImageUrl": "https://steamcdn-a.akamaihd.net/steam/apps/903090/header.jpg?t=1570903237"
    },
    "906040": {
      "Name": "PUZZLE: CATS & DOGS - Puzzle Pack: Summer Dogs",
      "ImageUrl": "https://steamcdn-a.akamaihd.net/steam/apps/906040/header.jpg?t=1570903311"
    }
  },
  "Name": "PUZZLE: CATS & DOGS",
  "AppId": "896570",
  "ImageUrl": "https://steamcdn-a.akamaihd.net/steam/apps/896570/header.jpg?t=1580497476",
  "Languages": [
    "english",
    "french",
    "italian",
    "german",
    "spanish",
    "arabic",
    "bulgarian",
    "portuguese",
    "hungarian",
    "greek",
    "danish",
    "tchinese",
    "schinese",
    "korean",
    "dutch",
    "norwegian",
    "polish",
    "portuguese",
    "romanian",
    "russian",
    "thai",
    "turkish",
    "ukrainian",
    "finnish",
    "czech",
    "swedish",
    "japanese"
  ],
  "Platforms": {
    "windows": true,
    "mac": false,
    "linux": false
  }
}