﻿[
  {
    "name": "ACHIEVEMENT_01",
    "defaultvalue": 0,
    "displayName": "Top Rung",
    "hidden": 0,
    "description": "Complete Classic Battle with all characters",
    "icon": "https://steamcdn-a.akamaihd.net/steamcommunity/public/images/apps/242700/481965bd99d631658f3b6eea1caf2b1d1b6f2f39.jpg",
    "icongray": "https://steamcdn-a.akamaihd.net/steamcommunity/public/images/apps/242700/a9197365fd62f685f0ce17cf74e444b9499c89a8.jpg"
  },
  {
    "name": "ACHIEVEMENT_02",
    "defaultvalue": 0,
    "displayName": "Rise to the Top",
    "hidden": 0,
    "description": "Complete Classic Battle with any character",
    "icon": "https://steamcdn-a.akamaihd.net/steamcommunity/public/images/apps/242700/f2f36cd1b4abfa8357f0a72e0c02e4723cd091e9.jpg",
    "icongray": "https://steamcdn-a.akamaihd.net/steamcommunity/public/images/apps/242700/a9197365fd62f685f0ce17cf74e444b9499c89a8.jpg"
  },
  {
    "name": "ACHIEVEMENT_03",
    "defaultvalue": 0,
    "displayName": "Ultimate Battler",
    "hidden": 0,
    "description": "Complete Battle Mode",
    "icon": "https://steamcdn-a.akamaihd.net/steamcommunity/public/images/apps/242700/98fb6ed80d3a9c76879294bc4872affe7e2e1883.jpg",
    "icongray": "https://steamcdn-a.akamaihd.net/steamcommunity/public/images/apps/242700/a9197365fd62f685f0ce17cf74e444b9499c89a8.jpg"
  },
  {
    "name": "ACHIEVEMENT_04",
    "defaultvalue": 0,
    "displayName": "Throwdown!",
    "hidden": 0,
    "description": "Perform 8 throws and win in a multiplayer match",
    "icon": "https://steamcdn-a.akamaihd.net/steamcommunity/public/images/apps/242700/3e106ddc5bef0eaa9900b364008abfb0eb917404.jpg",
    "icongray": "https://steamcdn-a.akamaihd.net/steamcommunity/public/images/apps/242700/a9197365fd62f685f0ce17cf74e444b9499c89a8.jpg"
  },
  {
    "name": "ACHIEVEMENT_05",
    "defaultvalue": 0,
    "displayName": "Groundbreaking",
    "hidden": 0,
    "description": "Use every interactable and win in a multiplayer match",
    "icon": "https://steamcdn-a.akamaihd.net/steamcommunity/public/images/apps/242700/67f00605619c67c9fe94c040fd631517e87a278b.jpg",
    "icongray": "https://steamcdn-a.akamaihd.net/steamcommunity/public/images/apps/242700/a9197365fd62f685f0ce17cf74e444b9499c89a8.jpg"
  },
  {
    "name": "ACHIEVEMENT_06",
    "defaultvalue": 0,
    "displayName": "Go Sit in the Corner",
    "hidden": 0,
    "description": "Win a multiplayer match with a timeout",
    "icon": "https://steamcdn-a.akamaihd.net/steamcommunity/public/images/apps/242700/b557f13d09bde3efc2a15a0f8d25f3e7de5bec78.jpg",
    "icongray": "https://steamcdn-a.akamaihd.net/steamcommunity/public/images/apps/242700/a9197365fd62f685f0ce17cf74e444b9499c89a8.jpg"
  },
  {
    "name": "ACHIEVEMENT_07",
    "defaultvalue": 0,
    "displayName": "I Conquered All",
    "hidden": 0,
    "description": "Beat All S.T.A.R. Lab Missions (Excluding DLC)",
    "icon": "https://steamcdn-a.akamaihd.net/steamcommunity/public/images/apps/242700/3686e39c4cc761cecb9a26b80e8ff4766b31b488.jpg",
    "icongray": "https://steamcdn-a.akamaihd.net/steamcommunity/public/images/apps/242700/a9197365fd62f685f0ce17cf74e444b9499c89a8.jpg"
  },
  {
    "name": "ACHIEVEMENT_08",
    "defaultvalue": 0,
    "displayName": "Mini-Master",
    "hidden": 0,
    "description": "Win all story mode minigames",
    "icon": "https://steamcdn-a.akamaihd.net/steamcommunity/public/images/apps/242700/6a656c99c1000c80aec963b6820b75b37b1e9003.jpg",
    "icongray": "https://steamcdn-a.akamaihd.net/steamcommunity/public/images/apps/242700/a9197365fd62f685f0ce17cf74e444b9499c89a8.jpg"
  },
  {
    "name": "ACHIEVEMENT_09",
    "defaultvalue": 0,
    "displayName": "Statistical Advantage",
    "hidden": 0,
    "description": "View Your Hero Card",
    "icon": "https://steamcdn-a.akamaihd.net/steamcommunity/public/images/apps/242700/1478b55ef687f06b5825affbe641c68b053af75c.jpg",
    "icongray": "https://steamcdn-a.akamaihd.net/steamcommunity/public/images/apps/242700/a9197365fd62f685f0ce17cf74e444b9499c89a8.jpg"
  },
  {
    "name": "ACHIEVEMENT_10",
    "defaultvalue": 0,
    "displayName": "Sidekick",
    "hidden": 0,
    "description": "Reach Level 10",
    "icon": "https://steamcdn-a.akamaihd.net/steamcommunity/public/images/apps/242700/3c0eb37f39d348468f4426bf0f5da451f45af6af.jpg",
    "icongray": "https://steamcdn-a.akamaihd.net/steamcommunity/public/images/apps/242700/a9197365fd62f685f0ce17cf74e444b9499c89a8.jpg"
  },
  {
    "name": "ACHIEVEMENT_11",
    "defaultvalue": 0,
    "displayName": "The Hero We Deserve",
    "hidden": 0,
    "description": "Reach Level 100",
    "icon": "https://steamcdn-a.akamaihd.net/steamcommunity/public/images/apps/242700/4a4354840fe2304d7a21cceb7a40b25f5de15fe9.jpg",
    "icongray": "https://steamcdn-a.akamaihd.net/steamcommunity/public/images/apps/242700/a9197365fd62f685f0ce17cf74e444b9499c89a8.jpg"
  },
  {
    "name": "ACHIEVEMENT_12",
    "defaultvalue": 0,
    "displayName": "Almost There",
    "hidden": 0,
    "description": "Complete 50% of Story Mode",
    "icon": "https://steamcdn-a.akamaihd.net/steamcommunity/public/images/apps/242700/5faf805c23caa6b05cf2e696f1ff4c69f6d2f8e1.jpg",
    "icongray": "https://steamcdn-a.akamaihd.net/steamcommunity/public/images/apps/242700/a9197365fd62f685f0ce17cf74e444b9499c89a8.jpg"
  },
  {
    "name": "ACHIEVEMENT_13",
    "defaultvalue": 0,
    "displayName": "Justice for All",
    "hidden": 0,
    "description": "Complete 100% of Story Mode",
    "icon": "https://steamcdn-a.akamaihd.net/steamcommunity/public/images/apps/242700/651deb390485a65eec82069ada4f1bf4eb13dedb.jpg",
    "icongray": "https://steamcdn-a.akamaihd.net/steamcommunity/public/images/apps/242700/a9197365fd62f685f0ce17cf74e444b9499c89a8.jpg"
  },
  {
    "name": "ACHIEVEMENT_14",
    "defaultvalue": 0,
    "displayName": "Beginner's Luck!",
    "hidden": 0,
    "description": "Win a single online match",
    "icon": "https://steamcdn-a.akamaihd.net/steamcommunity/public/images/apps/242700/267c0bb42afc050c404f15c53e54ad64f1f07b8e.jpg",
    "icongray": "https://steamcdn-a.akamaihd.net/steamcommunity/public/images/apps/242700/a9197365fd62f685f0ce17cf74e444b9499c89a8.jpg"
  },
  {
    "name": "ACHIEVEMENT_15",
    "defaultvalue": 0,
    "displayName": "Overthrown",
    "hidden": 0,
    "description": "Dethrone the King in an online match",
    "icon": "https://steamcdn-a.akamaihd.net/steamcommunity/public/images/apps/242700/09808ee1262e0bd03e77c15d965bf7d96866d5c5.jpg",
    "icongray": "https://steamcdn-a.akamaihd.net/steamcommunity/public/images/apps/242700/a9197365fd62f685f0ce17cf74e444b9499c89a8.jpg"
  },
  {
    "name": "ACHIEVEMENT_16",
    "defaultvalue": 0,
    "displayName": "I Voted!",
    "hidden": 0,
    "description": "Vote Correctly in a KOTH match",
    "icon": "https://steamcdn-a.akamaihd.net/steamcommunity/public/images/apps/242700/3945d7a7afd76ebdbf398b70ffaeb89ba1e3bf47.jpg",
    "icongray": "https://steamcdn-a.akamaihd.net/steamcommunity/public/images/apps/242700/a9197365fd62f685f0ce17cf74e444b9499c89a8.jpg"
  },
  {
    "name": "ACHIEVEMENT_17",
    "defaultvalue": 0,
    "displayName": "Streak Ender",
    "hidden": 0,
    "description": "Defeat a Survivor",
    "icon": "https://steamcdn-a.akamaihd.net/steamcommunity/public/images/apps/242700/d70458db48077f911ad5c58383564cc52b723298.jpg",
    "icongray": "https://steamcdn-a.akamaihd.net/steamcommunity/public/images/apps/242700/a9197365fd62f685f0ce17cf74e444b9499c89a8.jpg"
  },
  {
    "name": "ACHIEVEMENT_18",
    "defaultvalue": 0,
    "displayName": "Breaking Records",
    "hidden": 0,
    "description": "Win 100 complete Online Matches",
    "icon": "https://steamcdn-a.akamaihd.net/steamcommunity/public/images/apps/242700/4d7135ebf568655b19ec7ef0b1ed996ef641dbd8.jpg",
    "icongray": "https://steamcdn-a.akamaihd.net/steamcommunity/public/images/apps/242700/a9197365fd62f685f0ce17cf74e444b9499c89a8.jpg"
  },
  {
    "name": "ACHIEVEMENT_19",
    "defaultvalue": 0,
    "displayName": "Over The Top!",
    "hidden": 0,
    "description": "Play 200 complete Online Matches",
    "icon": "https://steamcdn-a.akamaihd.net/steamcommunity/public/images/apps/242700/d49e5bf24db5af8b5abce5a1c87658023e614d94.jpg",
    "icongray": "https://steamcdn-a.akamaihd.net/steamcommunity/public/images/apps/242700/a9197365fd62f685f0ce17cf74e444b9499c89a8.jpg"
  },
  {
    "name": "ACHIEVEMENT_20",
    "defaultvalue": 0,
    "displayName": "Lucky Break",
    "hidden": 0,
    "description": "Win 1 complete Ranked match",
    "icon": "https://steamcdn-a.akamaihd.net/steamcommunity/public/images/apps/242700/efd66a293cee0415caa55cf26e2d51ee0a04d722.jpg",
    "icongray": "https://steamcdn-a.akamaihd.net/steamcommunity/public/images/apps/242700/a9197365fd62f685f0ce17cf74e444b9499c89a8.jpg"
  },
  {
    "name": "ACHIEVEMENT_21",
    "defaultvalue": 0,
    "displayName": "Holy Knockout Batman!",
    "hidden": 0,
    "description": "Win 10 complete Ranked matches",
    "icon": "https://steamcdn-a.akamaihd.net/steamcommunity/public/images/apps/242700/39b148bce2015eceb8ecdca3ca6f67e2c2973063.jpg",
    "icongray": "https://steamcdn-a.akamaihd.net/steamcommunity/public/images/apps/242700/a9197365fd62f685f0ce17cf74e444b9499c89a8.jpg"
  },
  {
    "name": "ACHIEVEMENT_22",
    "defaultvalue": 0,
    "displayName": "Buddy System",
    "hidden": 0,
    "description": "Enter Online Practice with someone on your friends list",
    "icon": "https://steamcdn-a.akamaihd.net/steamcommunity/public/images/apps/242700/29fd2efa8e2484db39587c23aaa9d8cd4a069118.jpg",
    "icongray": "https://steamcdn-a.akamaihd.net/steamcommunity/public/images/apps/242700/a9197365fd62f685f0ce17cf74e444b9499c89a8.jpg"
  },
  {
    "name": "ACHIEVEMENT_23",
    "defaultvalue": 0,
    "displayName": "Practice Makes Perfect",
    "hidden": 0,
    "description": "Enter Practice Mode",
    "icon": "https://steamcdn-a.akamaihd.net/steamcommunity/public/images/apps/242700/63a32901b817c8015f053d049a0c679d581a8cf9.jpg",
    "icongray": "https://steamcdn-a.akamaihd.net/steamcommunity/public/images/apps/242700/a9197365fd62f685f0ce17cf74e444b9499c89a8.jpg"
  },
  {
    "name": "ACHIEVEMENT_24",
    "defaultvalue": 0,
    "displayName": "Learning is Fun",
    "hidden": 0,
    "description": "Complete Tutorial",
    "icon": "https://steamcdn-a.akamaihd.net/steamcommunity/public/images/apps/242700/2cc4c59b7ebaa9df117367fd8c8857299c34c85e.jpg",
    "icongray": "https://steamcdn-a.akamaihd.net/steamcommunity/public/images/apps/242700/a9197365fd62f685f0ce17cf74e444b9499c89a8.jpg"
  },
  {
    "name": "ACHIEVEMENT_25",
    "defaultvalue": 0,
    "displayName": "It Has Begun",
    "hidden": 0,
    "description": "Complete 1 S.T.A.R. Lab Mission",
    "icon": "https://steamcdn-a.akamaihd.net/steamcommunity/public/images/apps/242700/a4056983fd6897ad57b3e7cec45c5353050ddf81.jpg",
    "icongray": "https://steamcdn-a.akamaihd.net/steamcommunity/public/images/apps/242700/a9197365fd62f685f0ce17cf74e444b9499c89a8.jpg"
  },
  {
    "name": "ACHIEVEMENT_26",
    "defaultvalue": 0,
    "displayName": "Overachiever",
    "hidden": 0,
    "description": "Get 3 stars on 1 S.T.A.R. Lab Mission",
    "icon": "https://steamcdn-a.akamaihd.net/steamcommunity/public/images/apps/242700/3928aaf27f24311a4bb6175550eca6deadd2f447.jpg",
    "icongray": "https://steamcdn-a.akamaihd.net/steamcommunity/public/images/apps/242700/a9197365fd62f685f0ce17cf74e444b9499c89a8.jpg"
  },
  {
    "name": "ACHIEVEMENT_27",
    "defaultvalue": 0,
    "displayName": "All Star",
    "hidden": 0,
    "description": "Get 100 Stars in S.T.A.R. Lab Mode",
    "icon": "https://steamcdn-a.akamaihd.net/steamcommunity/public/images/apps/242700/a0de48cfd37e9ed123ff7922a5a5c46076294ca0.jpg",
    "icongray": "https://steamcdn-a.akamaihd.net/steamcommunity/public/images/apps/242700/a9197365fd62f685f0ce17cf74e444b9499c89a8.jpg"
  },
  {
    "name": "ACHIEVEMENT_28",
    "defaultvalue": 0,
    "displayName": "World's Finest",
    "hidden": 0,
    "description": "Complete All S.T.A.R. Lab Missions with 3 Stars",
    "icon": "https://steamcdn-a.akamaihd.net/steamcommunity/public/images/apps/242700/09d33ada2ecf4dc2956821a53bd0928fbb2191dd.jpg",
    "icongray": "https://steamcdn-a.akamaihd.net/steamcommunity/public/images/apps/242700/a9197365fd62f685f0ce17cf74e444b9499c89a8.jpg"
  },
  {
    "name": "ACHIEVEMENT_29",
    "defaultvalue": 0,
    "displayName": "Heavy Hitter",
    "hidden": 0,
    "description": "Perform a 10 hit combo with every character",
    "icon": "https://steamcdn-a.akamaihd.net/steamcommunity/public/images/apps/242700/24ccf74f2c6e673efbc69f2f6bea6224c28ee7de.jpg",
    "icongray": "https://steamcdn-a.akamaihd.net/steamcommunity/public/images/apps/242700/a9197365fd62f685f0ce17cf74e444b9499c89a8.jpg"
  },
  {
    "name": "ACHIEVEMENT_30",
    "defaultvalue": 0,
    "displayName": "Unstoppable Force",
    "hidden": 0,
    "description": "Win a Clash sequence with any character",
    "icon": "https://steamcdn-a.akamaihd.net/steamcommunity/public/images/apps/242700/be210c42b4e010c1f7db524019a7ea2a8d4644f4.jpg",
    "icongray": "https://steamcdn-a.akamaihd.net/steamcommunity/public/images/apps/242700/a9197365fd62f685f0ce17cf74e444b9499c89a8.jpg"
  },
  {
    "name": "ACHIEVEMENT_31",
    "defaultvalue": 0,
    "displayName": "Wrecking Ball",
    "hidden": 0,
    "description": "Knock an opponent through a transition",
    "icon": "https://steamcdn-a.akamaihd.net/steamcommunity/public/images/apps/242700/201599f023a904f4e25ea54720c0fbf84904d166.jpg",
    "icongray": "https://steamcdn-a.akamaihd.net/steamcommunity/public/images/apps/242700/a9197365fd62f685f0ce17cf74e444b9499c89a8.jpg"
  },
  {
    "name": "ACHIEVEMENT_32",
    "defaultvalue": 0,
    "displayName": "Around The World",
    "hidden": 0,
    "description": "Knock opponent through all transitions across all levels",
    "icon": "https://steamcdn-a.akamaihd.net/steamcommunity/public/images/apps/242700/df3f88847d12e6b227bbfac305dbeca5a542d3e9.jpg",
    "icongray": "https://steamcdn-a.akamaihd.net/steamcommunity/public/images/apps/242700/a9197365fd62f685f0ce17cf74e444b9499c89a8.jpg"
  },
  {
    "name": "ACHIEVEMENT_33",
    "defaultvalue": 0,
    "displayName": "FINISHED",
    "hidden": 0,
    "description": "Win a match with the super move of any character",
    "icon": "https://steamcdn-a.akamaihd.net/steamcommunity/public/images/apps/242700/f94e08619f8a5f0ec64c3456475f4dfaec1bc160.jpg",
    "icongray": "https://steamcdn-a.akamaihd.net/steamcommunity/public/images/apps/242700/a9197365fd62f685f0ce17cf74e444b9499c89a8.jpg"
  },
  {
    "name": "ACHIEVEMENT_34",
    "defaultvalue": 0,
    "displayName": "Superhuman!",
    "hidden": 0,
    "description": "Perform every character's supermove",
    "icon": "https://steamcdn-a.akamaihd.net/steamcommunity/public/images/apps/242700/e7ab008b10bef5375a36837e06a1985b6678c8ea.jpg",
    "icongray": "https://steamcdn-a.akamaihd.net/steamcommunity/public/images/apps/242700/a9197365fd62f685f0ce17cf74e444b9499c89a8.jpg"
  },
  {
    "name": "ACHIEVEMENT_35",
    "defaultvalue": 0,
    "displayName": "Metahuman",
    "hidden": 0,
    "description": "Perform every special move of every character",
    "icon": "https://steamcdn-a.akamaihd.net/steamcommunity/public/images/apps/242700/6ba090736b01c92a92a59ab2ffe15d41218ad1e8.jpg",
    "icongray": "https://steamcdn-a.akamaihd.net/steamcommunity/public/images/apps/242700/a9197365fd62f685f0ce17cf74e444b9499c89a8.jpg"
  },
  {
    "name": "ACHIEVEMENT_36",
    "defaultvalue": 0,
    "displayName": "Feel the Burn!",
    "hidden": 0,
    "description": "Perform every Meter Burn special move of every character",
    "icon": "https://steamcdn-a.akamaihd.net/steamcommunity/public/images/apps/242700/175775091f19623be110a1bcfef7eb1221ee2149.jpg",
    "icongray": "https://steamcdn-a.akamaihd.net/steamcommunity/public/images/apps/242700/a9197365fd62f685f0ce17cf74e444b9499c89a8.jpg"
  },
  {
    "name": "ACHIEVEMENT_37",
    "defaultvalue": 0,
    "displayName": "True Marksman",
    "hidden": 0,
    "description": "Win a match with Green Arrow using only arrows",
    "icon": "https://steamcdn-a.akamaihd.net/steamcommunity/public/images/apps/242700/7315a47bdc822f48af1fa8f8d9bbd332887e8cdb.jpg",
    "icongray": "https://steamcdn-a.akamaihd.net/steamcommunity/public/images/apps/242700/a9197365fd62f685f0ce17cf74e444b9499c89a8.jpg"
  },
  {
    "name": "ACHIEVEMENT_38",
    "defaultvalue": 0,
    "displayName": "The Caped Crusader",
    "hidden": 0,
    "description": "Win with Batman using every special move and his Supermove",
    "icon": "https://steamcdn-a.akamaihd.net/steamcommunity/public/images/apps/242700/e7ebbc3d18d58af45369fb8359a9e823f91e931c.jpg",
    "icongray": "https://steamcdn-a.akamaihd.net/steamcommunity/public/images/apps/242700/a9197365fd62f685f0ce17cf74e444b9499c89a8.jpg"
  },
  {
    "name": "ACHIEVEMENT_39",
    "defaultvalue": 0,
    "displayName": "Around and Around We Go",
    "hidden": 0,
    "description": "Perform every level interaction once",
    "icon": "https://steamcdn-a.akamaihd.net/steamcommunity/public/images/apps/242700/1521c6db633a5ca447f7c669edf1f5508c35afcd.jpg",
    "icongray": "https://steamcdn-a.akamaihd.net/steamcommunity/public/images/apps/242700/a9197365fd62f685f0ce17cf74e444b9499c89a8.jpg"
  },
  {
    "name": "ACHIEVEMENT_40",
    "defaultvalue": 0,
    "displayName": "Arkham City Lockdown",
    "hidden": 0,
    "description": "Defeat every Villain With Batman",
    "icon": "https://steamcdn-a.akamaihd.net/steamcommunity/public/images/apps/242700/9febaef7584d7ab41a47cdee872da4dd47fe0ec2.jpg",
    "icongray": "https://steamcdn-a.akamaihd.net/steamcommunity/public/images/apps/242700/a9197365fd62f685f0ce17cf74e444b9499c89a8.jpg"
  },
  {
    "name": "ACHIEVEMENT_41",
    "defaultvalue": 0,
    "displayName": "Only a Real Master",
    "hidden": 0,
    "description": "Make a comeback when at low health (10% or less)",
    "icon": "https://steamcdn-a.akamaihd.net/steamcommunity/public/images/apps/242700/a7a9987fba7f10e9fb8e853ae6fb6f56f7a322bb.jpg",
    "icongray": "https://steamcdn-a.akamaihd.net/steamcommunity/public/images/apps/242700/a9197365fd62f685f0ce17cf74e444b9499c89a8.jpg"
  },
  {
    "name": "ACHIEVEMENT_42",
    "defaultvalue": 0,
    "displayName": "Perfect Aim",
    "hidden": 0,
    "description": "Win a match as Deathstroke without missing a shot (minimum 12 shots)",
    "icon": "https://steamcdn-a.akamaihd.net/steamcommunity/public/images/apps/242700/b90ea35daa9750c5d5b9ae6ab4bd61d660afba6c.jpg",
    "icongray": "https://steamcdn-a.akamaihd.net/steamcommunity/public/images/apps/242700/a9197365fd62f685f0ce17cf74e444b9499c89a8.jpg"
  },
  {
    "name": "ACHIEVEMENT_43",
    "defaultvalue": 0,
    "displayName": "Tourist",
    "hidden": 0,
    "description": "Send an opponent through all three Metropolis transitions in one fight",
    "icon": "https://steamcdn-a.akamaihd.net/steamcommunity/public/images/apps/242700/271973ee19a31a8d86f0f6b39d760b49f01ac80e.jpg",
    "icongray": "https://steamcdn-a.akamaihd.net/steamcommunity/public/images/apps/242700/a9197365fd62f685f0ce17cf74e444b9499c89a8.jpg"
  },
  {
    "name": "ACHIEVEMENT_44",
    "defaultvalue": 0,
    "displayName": "Cosplay",
    "hidden": 0,
    "description": "Unlock a costume in the Archives",
    "icon": "https://steamcdn-a.akamaihd.net/steamcommunity/public/images/apps/242700/a7bfa030fe9b713911dec9dbe8e628f92b4ab631.jpg",
    "icongray": "https://steamcdn-a.akamaihd.net/steamcommunity/public/images/apps/242700/a9197365fd62f685f0ce17cf74e444b9499c89a8.jpg"
  },
  {
    "name": "ACHIEVEMENT_45",
    "defaultvalue": 0,
    "displayName": "Gonna Need More Closet Space",
    "hidden": 0,
    "description": "Unlock All costumes in the Archives",
    "icon": "https://steamcdn-a.akamaihd.net/steamcommunity/public/images/apps/242700/50e6e706f90150c1010720448daceeadcf827112.jpg",
    "icongray": "https://steamcdn-a.akamaihd.net/steamcommunity/public/images/apps/242700/a9197365fd62f685f0ce17cf74e444b9499c89a8.jpg"
  },
  {
    "name": "ACHIEVEMENT_46",
    "defaultvalue": 0,
    "displayName": "Hoarder",
    "hidden": 0,
    "description": "Unlock everything in the Archives",
    "icon": "https://steamcdn-a.akamaihd.net/steamcommunity/public/images/apps/242700/c8c1dd601a016fb3f6259f93e7dab627e6919e56.jpg",
    "icongray": "https://steamcdn-a.akamaihd.net/steamcommunity/public/images/apps/242700/a9197365fd62f685f0ce17cf74e444b9499c89a8.jpg"
  },
  {
    "name": "ACHIEVEMENT_47",
    "defaultvalue": 0,
    "displayName": "I Can Back it Up",
    "hidden": 0,
    "description": "Equip a new Background Image",
    "icon": "https://steamcdn-a.akamaihd.net/steamcommunity/public/images/apps/242700/7244076e1437221fb30df2276d95dd6e74d967c2.jpg",
    "icongray": "https://steamcdn-a.akamaihd.net/steamcommunity/public/images/apps/242700/a9197365fd62f685f0ce17cf74e444b9499c89a8.jpg"
  },
  {
    "name": "ACHIEVEMENT_48",
    "defaultvalue": 0,
    "displayName": "Iconic Representation",
    "hidden": 0,
    "description": "Equip a new Icon",
    "icon": "https://steamcdn-a.akamaihd.net/steamcommunity/public/images/apps/242700/184063bd3dae10f72784c76a6a795182ce07b9af.jpg",
    "icongray": "https://steamcdn-a.akamaihd.net/steamcommunity/public/images/apps/242700/a9197365fd62f685f0ce17cf74e444b9499c89a8.jpg"
  },
  {
    "name": "ACHIEVEMENT_49",
    "defaultvalue": 0,
    "displayName": "Looking Good!",
    "hidden": 0,
    "description": "Equip a new Character Portrait",
    "icon": "https://steamcdn-a.akamaihd.net/steamcommunity/public/images/apps/242700/c6f4c7db4ada31982fb80b3cfda093de69decb3d.jpg",
    "icongray": "https://steamcdn-a.akamaihd.net/steamcommunity/public/images/apps/242700/a9197365fd62f685f0ce17cf74e444b9499c89a8.jpg"
  },
  {
    "name": "ACHIEVEMENT_50",
    "defaultvalue": 0,
    "displayName": "Bull in a China Shop",
    "hidden": 0,
    "description": "Cause maximum damage in all Arenas (does not include Practice mode)",
    "icon": "https://steamcdn-a.akamaihd.net/steamcommunity/public/images/apps/242700/44af1e833d6bdbf0dc103dc19655eeff4e6a4922.jpg",
    "icongray": "https://steamcdn-a.akamaihd.net/steamcommunity/public/images/apps/242700/a9197365fd62f685f0ce17cf74e444b9499c89a8.jpg"
  }
]