{
  "Dlcs": {
    "1237850": {
      "Name": "浮世万千之前世今生-修仙攻略",
      "ImageUrl": "https://steamcdn-a.akamaihd.net/steam/apps/1237850/header.jpg?t=1588129910"
    }
  },
  "Name": "浮世万千之前世今生",
  "AppId": "1217190",
  "ImageUrl": "https://steamcdn-a.akamaihd.net/steam/apps/1217190/header.jpg?t=1598194325",
  "Languages": [
    "schinese"
  ],
  "Platforms": {
    "windows": true,
    "mac": false,
    "linux": false
  }
}