{
  "Dlcs": {},
  "Name": "Cube Runner",
  "AppId": "567280",
  "ImageUrl": "https://steamcdn-a.akamaihd.net/steam/apps/567280/header.jpg?t=1588756674",
  "Languages": [
    "english"
  ],
  "Platforms": {
    "windows": true,
    "mac": true,
    "linux": false
  }
}