{
  "Dlcs": {},
  "Name": "Smart Junior Academy - Winter",
  "AppId": "755100",
  "ImageUrl": "https://steamcdn-a.akamaihd.net/steam/apps/755100/header.jpg?t=1512980470",
  "Languages": [
    "english"
  ],
  "Platforms": {
    "windows": true,
    "mac": false,
    "linux": false
  }
}