{
  "Dlcs": {},
  "Name": "Saturnine",
  "AppId": "912120",
  "ImageUrl": "https://steamcdn-a.akamaihd.net/steam/apps/912120/header.jpg?t=1585634888",
  "Languages": [
    "english"
  ],
  "Platforms": {
    "windows": true,
    "mac": true,
    "linux": false
  }
}