[
  {
    "name": "entered_hell",
    "defaultvalue": 0,
    "displayName": "Orpheus",
    "hidden": 0,
    "description": "Visit hell.",
    "icon": "https://steamcdn-a.akamaihd.net/steamcommunity/public/images/apps/1344800/527f9f7b72ab2c59bb549481cf7c1b2620e0017f.jpg",
    "icongray": "https://steamcdn-a.akamaihd.net/steamcommunity/public/images/apps/1344800/f0a7b978198b9a70151baa6d30ee6c913d08d7bd.jpg"
  },
  {
    "name": "complete_campaign",
    "defaultvalue": 0,
    "displayName": "Complete campaign",
    "hidden": 0,
    "description": "Complete Twin-Turbo Supercharged Nitro-Fueled campaign.",
    "icon": "https://steamcdn-a.akamaihd.net/steamcommunity/public/images/apps/1344800/6c40cd2113f85fa540d91412966a9475c87e3efd.jpg",
    "icongray": "https://steamcdn-a.akamaihd.net/steamcommunity/public/images/apps/1344800/c3dc71ead67495ab5c2276107c7cef042e713208.jpg"
  },
  {
    "name": "be_killed",
    "defaultvalue": 0,
    "displayName": "Assassin's triumph",
    "hidden": 0,
    "description": "Die at the hands of the killer machine from the past.",
    "icon": "https://steamcdn-a.akamaihd.net/steamcommunity/public/images/apps/1344800/f93f7d2ea15203ac059b623540d7e21214079493.jpg",
    "icongray": "https://steamcdn-a.akamaihd.net/steamcommunity/public/images/apps/1344800/73aaa717081d04b6acff5f4953f1d50b17ffd85c.jpg"
  },
  {
    "name": "pull_up",
    "defaultvalue": 0,
    "displayName": "Pull up!",
    "hidden": 0,
    "description": "Fall from the sky...",
    "icon": "https://steamcdn-a.akamaihd.net/steamcommunity/public/images/apps/1344800/9144ded48d89e39cf67d352178657e2830b8dc83.jpg",
    "icongray": "https://steamcdn-a.akamaihd.net/steamcommunity/public/images/apps/1344800/0a12defee45e41348d7e4a8f2c243a67da8566c9.jpg"
  }
]