﻿{
  "Dlcs": {},
  "Name": "Conga Master",
  "AppId": "489720",
  "ImageUrl": "https://steamcdn-a.akamaihd.net/steam/apps/489720/header.jpg?t=1587728056",
  "Languages": [
    "english",
    "french",
    "italian",
    "german",
    "spanish",
    "japanese",
    "portuguese"
  ],
  "Platforms": {
    "windows": true,
    "mac": true,
    "linux": true
  }
}