﻿{
  "Dlcs": {},
  "Name": "DIRT 5",
  "AppId": "1038250",
  "ImageUrl": "https://steamcdn-a.akamaihd.net/steam/apps/1038250/header.jpg?t=1600077522",
  "Languages": [
    "english",
    "french",
    "italian",
    "german",
    "spanish",
    "portuguese"
  ],
  "Platforms": {
    "windows": true,
    "mac": false,
    "linux": false
  }
}