{
  "Dlcs": {},
  "Name": "Strazeal",
  "AppId": "1126970",
  "ImageUrl": "https://steamcdn-a.akamaihd.net/steam/apps/1126970/header.jpg?t=1579768867",
  "Languages": [
    "english"
  ],
  "Platforms": {
    "windows": true,
    "mac": false,
    "linux": false
  }
}