[
  {
    "name": "portal_shard",
    "defaultvalue": 0,
    "displayName": "Beyond Limits",
    "hidden": 0,
    "description": "Explore a second planet!",
    "icon": "https://steamcdn-a.akamaihd.net/steamcommunity/public/images/apps/950810/6d5718f1409f813af2fd576b141ed57398e57a1e.jpg",
    "icongray": "https://steamcdn-a.akamaihd.net/steamcommunity/public/images/apps/950810/97b87f4cafd90aa4c94921ddd2b66ec71c9a122d.jpg"
  },
  {
    "name": "airship",
    "defaultvalue": 0,
    "displayName": "Explore the sky!",
    "hidden": 0,
    "description": "Fly an airship!",
    "icon": "https://steamcdn-a.akamaihd.net/steamcommunity/public/images/apps/950810/09a402b550f8baaceafcf071842326fa45ea7fad.jpg",
    "icongray": "https://steamcdn-a.akamaihd.net/steamcommunity/public/images/apps/950810/b3e56185976776848fc1b17b66c2503002b9f576.jpg"
  },
  {
    "name": "anvil_gold",
    "defaultvalue": 0,
    "displayName": "Unnecessary Complex",
    "hidden": 0,
    "description": "Craft a helmet out of 4 different materials",
    "icon": "https://steamcdn-a.akamaihd.net/steamcommunity/public/images/apps/950810/34076b50681795ac47f53fef1bc830bc9479b0e1.jpg",
    "icongray": "https://steamcdn-a.akamaihd.net/steamcommunity/public/images/apps/950810/b7aced605c3b570b561002ada5b37e292894c195.jpg"
  },
  {
    "name": "anvil_iron",
    "defaultvalue": 0,
    "displayName": "Level Up!",
    "hidden": 0,
    "description": "Get level 5 on a tool.",
    "icon": "https://steamcdn-a.akamaihd.net/steamcommunity/public/images/apps/950810/f087cae1298bd03c2f1589a8f907f404f9735484.jpg",
    "icongray": "https://steamcdn-a.akamaihd.net/steamcommunity/public/images/apps/950810/9e24abb15f353e533f0a29ebf1a5c420d8a55d90.jpg"
  },
  {
    "name": "anvil_stone",
    "defaultvalue": 0,
    "displayName": "Fully Equipped",
    "hidden": 0,
    "description": "Modify a tool three times on the grindstone.",
    "icon": "https://steamcdn-a.akamaihd.net/steamcommunity/public/images/apps/950810/55af2eac1eaef4962c633cc57d7e688fb0031bea.jpg",
    "icongray": "https://steamcdn-a.akamaihd.net/steamcommunity/public/images/apps/950810/98827b3bcc33d55dcca7852d9703b7c51eabd935.jpg"
  },
  {
    "name": "apple",
    "defaultvalue": 0,
    "displayName": "Pick a fruit",
    "hidden": 0,
    "description": "Harvest 100 fruits from trees!",
    "icon": "https://steamcdn-a.akamaihd.net/steamcommunity/public/images/apps/950810/54edde3167a2815b2091766a3b2a6356e62a4374.jpg",
    "icongray": "https://steamcdn-a.akamaihd.net/steamcommunity/public/images/apps/950810/1512255050673f99d2948d7d61432707494b9a47.jpg"
  },
  {
    "name": "book_1",
    "defaultvalue": 0,
    "displayName": "Student",
    "hidden": 0,
    "description": "Research 5 pages of the bestarium.",
    "icon": "https://steamcdn-a.akamaihd.net/steamcommunity/public/images/apps/950810/61f0bd80afa7a4c95b492d72cdce1de02fb9f3e7.jpg",
    "icongray": "https://steamcdn-a.akamaihd.net/steamcommunity/public/images/apps/950810/69ce2f4a947ff3c4c84669677cc0e639397d11ec.jpg"
  },
  {
    "name": "book_2",
    "defaultvalue": 0,
    "displayName": "Researcher",
    "hidden": 0,
    "description": "Research 10 pages of the bestarium.",
    "icon": "https://steamcdn-a.akamaihd.net/steamcommunity/public/images/apps/950810/a7cd016f160481aa75bee6fa6323389119e506c1.jpg",
    "icongray": "https://steamcdn-a.akamaihd.net/steamcommunity/public/images/apps/950810/6ce832093b5a350ff726c0049002b59ffb86ccac.jpg"
  },
  {
    "name": "book_3",
    "defaultvalue": 0,
    "displayName": "Professor",
    "hidden": 0,
    "description": "Research 15 pages of the bestarium.",
    "icon": "https://steamcdn-a.akamaihd.net/steamcommunity/public/images/apps/950810/d8e41e83903e473ba8dfbda8a9d674c8e632fde0.jpg",
    "icongray": "https://steamcdn-a.akamaihd.net/steamcommunity/public/images/apps/950810/2eac1e3fccf70219bef08ea397b66a7aab085529.jpg"
  },
  {
    "name": "book_4",
    "defaultvalue": 0,
    "displayName": "Eldest",
    "hidden": 0,
    "description": "Research 20 pages of the bestarium.",
    "icon": "https://steamcdn-a.akamaihd.net/steamcommunity/public/images/apps/950810/26760c300707df02289d801ea32faef195ca607f.jpg",
    "icongray": "https://steamcdn-a.akamaihd.net/steamcommunity/public/images/apps/950810/32446d229a9c1fd7a3f78da0d53556ff0fe029f7.jpg"
  }
]