[
  {
    "name": "suicide.masta",
    "defaultvalue": 0,
    "displayName": "Suicide Masta",
    "hidden": 0,
    "description": "Die 5 times from the spikes on same level",
    "icon": "https://steamcdn-a.akamaihd.net/steamcommunity/public/images/apps/331570/25486d6b1ffa83f46bbe4db30ecb7e25a1ac88bd.jpg",
    "icongray": "https://steamcdn-a.akamaihd.net/steamcommunity/public/images/apps/331570/3cd14eeed9cc4e0c0e1b561dc00cb4b03d90e3fa.jpg"
  },
  {
    "name": "critical.miss",
    "defaultvalue": 0,
    "displayName": "Cirtical Miss",
    "hidden": 0,
    "description": "Having died lose the ultimate roll",
    "icon": "https://steamcdn-a.akamaihd.net/steamcommunity/public/images/apps/331570/a6fefb4f9d0174abc8621154ccbd47c260d252df.jpg",
    "icongray": "https://steamcdn-a.akamaihd.net/steamcommunity/public/images/apps/331570/8c607bf75f7e016e44b07e800df42e66aa352521.jpg"
  },
  {
    "name": "cleaner",
    "defaultvalue": 0,
    "displayName": "Cleaner",
    "hidden": 0,
    "description": "Slay the enemy into the acid",
    "icon": "https://steamcdn-a.akamaihd.net/steamcommunity/public/images/apps/331570/2a03797e1046a8cffa7655310e68cf7511ae71dd.jpg",
    "icongray": "https://steamcdn-a.akamaihd.net/steamcommunity/public/images/apps/331570/2ff93e1838cc87f83c5cca83fc36033b84b99655.jpg"
  },
  {
    "name": "fatality",
    "defaultvalue": 0,
    "displayName": "Fatality!",
    "hidden": 0,
    "description": "Slay the enemy on the saw",
    "icon": "https://steamcdn-a.akamaihd.net/steamcommunity/public/images/apps/331570/5bed438c9120691b6ad8a454446938620819abe2.jpg",
    "icongray": "https://steamcdn-a.akamaihd.net/steamcommunity/public/images/apps/331570/635179d3a84da261b17c3b96e3ee1a80b83b5720.jpg"
  },
  {
    "name": "take.it.easy",
    "defaultvalue": 0,
    "displayName": "Take it easy, Bro!",
    "hidden": 0,
    "description": "Put out Wimp into the water",
    "icon": "https://steamcdn-a.akamaihd.net/steamcommunity/public/images/apps/331570/de1bd2493f0da25588133d52fdbb488ca7687fe5.jpg",
    "icongray": "https://steamcdn-a.akamaihd.net/steamcommunity/public/images/apps/331570/aa492254b8a9ebe3f591f121b714012041f9985c.jpg"
  },
  {
    "name": "rusty.champion",
    "defaultvalue": 0,
    "displayName": "Rusty quest champion!",
    "hidden": 0,
    "description": "Score all rolls on Rusty Quest",
    "icon": "https://steamcdn-a.akamaihd.net/steamcommunity/public/images/apps/331570/5fb55192cd51b79bd6de7fc2226456b4238e175d.jpg",
    "icongray": "https://steamcdn-a.akamaihd.net/steamcommunity/public/images/apps/331570/f30c695c96273f56fbeff7d1d05e8048300dcc20.jpg"
  },
  {
    "name": "cold.champion",
    "defaultvalue": 0,
    "displayName": "Cold quest champion!",
    "hidden": 0,
    "description": "Score all rolls on Cold Quest",
    "icon": "https://steamcdn-a.akamaihd.net/steamcommunity/public/images/apps/331570/b3dc8bc747399e3bb07912fd5220bd9fd5168072.jpg",
    "icongray": "https://steamcdn-a.akamaihd.net/steamcommunity/public/images/apps/331570/6540d7e4d34ad992a85af98d983ab1a344a7f414.jpg"
  },
  {
    "name": "lucky.man",
    "defaultvalue": 0,
    "displayName": "Lucky man!",
    "hidden": 0,
    "description": "Finish 10 levels with no a death",
    "icon": "https://steamcdn-a.akamaihd.net/steamcommunity/public/images/apps/331570/21b6346acfb97df3742451b2e34b8aec9f33cd5d.jpg",
    "icongray": "https://steamcdn-a.akamaihd.net/steamcommunity/public/images/apps/331570/d3e97de2a1ca2adcd8eed2864a67dd8466e27df5.jpg"
  },
  {
    "name": "prestige",
    "defaultvalue": 0,
    "displayName": "Prestige",
    "hidden": 0,
    "description": "Solve the mortal puzzle with the help of teleporting",
    "icon": "https://steamcdn-a.akamaihd.net/steamcommunity/public/images/apps/331570/89735fa4f941b6d5bee1957167971900418b28e3.jpg",
    "icongray": "https://steamcdn-a.akamaihd.net/steamcommunity/public/images/apps/331570/e5225b3bc7629bbb37ef7eba457a157180505152.jpg"
  },
  {
    "name": "under.the.sea",
    "defaultvalue": 0,
    "displayName": "9000 Leagues Under the Sea",
    "hidden": 0,
    "description": "Stand 1 min in the water",
    "icon": "https://steamcdn-a.akamaihd.net/steamcommunity/public/images/apps/331570/17f8b05244673c99aaed79d737cf78dcf3703241.jpg",
    "icongray": "https://steamcdn-a.akamaihd.net/steamcommunity/public/images/apps/331570/e77751e86d404a4b2b7b91e948ad8fc49eff8dff.jpg"
  },
  {
    "name": "barbecue.boy",
    "defaultvalue": 0,
    "displayName": "Barbecue Boy",
    "hidden": 0,
    "description": "Spend 2 min in the fire state",
    "icon": "https://steamcdn-a.akamaihd.net/steamcommunity/public/images/apps/331570/a0eb22d2891026b2c21e48ef0454d898c6ac8f59.jpg",
    "icongray": "https://steamcdn-a.akamaihd.net/steamcommunity/public/images/apps/331570/c3b8bdda80a0b72ce541182aadf822b17c06e6a3.jpg"
  },
  {
    "name": "demolition.kid",
    "defaultvalue": 0,
    "displayName": "Demolition Kid",
    "hidden": 0,
    "description": "Destroy 5 explosive platform",
    "icon": "https://steamcdn-a.akamaihd.net/steamcommunity/public/images/apps/331570/826fca51d26a6b90d3a950b20a4edcc15e23369b.jpg",
    "icongray": "https://steamcdn-a.akamaihd.net/steamcommunity/public/images/apps/331570/109a8c0e963e48aca5d7defd8bf7717cb06c768c.jpg"
  },
  {
    "name": "you.shall.not.pass",
    "defaultvalue": 0,
    "displayName": "You shall not pass!",
    "hidden": 0,
    "description": "Have a death from the enemy in Stony Chasing",
    "icon": "https://steamcdn-a.akamaihd.net/steamcommunity/public/images/apps/331570/84da0504f2585f1b28c430ce92c262e4519e72ec.jpg",
    "icongray": "https://steamcdn-a.akamaihd.net/steamcommunity/public/images/apps/331570/1727a5fb3aade375ab55f3841896ad69aab0e960.jpg"
  },
  {
    "name": "rider.of.the.lost.pants",
    "defaultvalue": 0,
    "displayName": "Rider of the lost pants",
    "hidden": 0,
    "description": "Don't have a death from Stony",
    "icon": "https://steamcdn-a.akamaihd.net/steamcommunity/public/images/apps/331570/48510cf0054536bcfeb53aaf0d3415e7fb48e825.jpg",
    "icongray": "https://steamcdn-a.akamaihd.net/steamcommunity/public/images/apps/331570/a412d565065fdfb4b78105bc94ab09d2c7e2dfd0.jpg"
  },
  {
    "name": "leap.of.faith",
    "defaultvalue": 0,
    "displayName": "Leap of Faith",
    "hidden": 0,
    "description": "Get first roll at level 13 of Junk Quest in first try",
    "icon": "https://steamcdn-a.akamaihd.net/steamcommunity/public/images/apps/331570/a4d29117fef1219f7344c26ac8648135e497d199.jpg",
    "icongray": "https://steamcdn-a.akamaihd.net/steamcommunity/public/images/apps/331570/39e090dfc58cd29f53c2616a05054f6dbb73aa2e.jpg"
  },
  {
    "name": "this.is.sparta",
    "defaultvalue": 0,
    "displayName": "This is Spartaaa!!!",
    "hidden": 0,
    "description": "Push the enemies into the acid at level 8 of Junk Quest ",
    "icon": "https://steamcdn-a.akamaihd.net/steamcommunity/public/images/apps/331570/a44ad794509d9aeda5ce3ab3f148e4080238c774.jpg",
    "icongray": "https://steamcdn-a.akamaihd.net/steamcommunity/public/images/apps/331570/5249875f6f877ddf8ddbadc4159d258accb304cc.jpg"
  },
  {
    "name": "captain.wimp.the.blob",
    "defaultvalue": 0,
    "displayName": "Captain Wimp the Blob",
    "hidden": 0,
    "description": "Complete the seafaring successfully",
    "icon": "https://steamcdn-a.akamaihd.net/steamcommunity/public/images/apps/331570/30b56950cb2acc179a0c180c25ef47b37af172b5.jpg",
    "icongray": "https://steamcdn-a.akamaihd.net/steamcommunity/public/images/apps/331570/ee038592c752e49daafbfbe29fc71b405a5717c3.jpg"
  },
  {
    "name": "mission.is.possible",
    "defaultvalue": 0,
    "displayName": "Mission is possible",
    "hidden": 0,
    "description": "Have a successful descent on the rope at level 12 of Teddy Quest",
    "icon": "https://steamcdn-a.akamaihd.net/steamcommunity/public/images/apps/331570/305815ef9a24a903249264a02802ec81a8d170f8.jpg",
    "icongray": "https://steamcdn-a.akamaihd.net/steamcommunity/public/images/apps/331570/da27ca9a632590a1189a4cbce2184e1bb3b14588.jpg"
  },
  {
    "name": "master.rogue",
    "defaultvalue": 0,
    "displayName": "Master Rogue",
    "hidden": 0,
    "description": "Stick to the ceiling at level 9 of  Junk Quest",
    "icon": "https://steamcdn-a.akamaihd.net/steamcommunity/public/images/apps/331570/d2d153acea52d8115c99aebfe4726f54e4610705.jpg",
    "icongray": "https://steamcdn-a.akamaihd.net/steamcommunity/public/images/apps/331570/1d9a9f5a6c90205139e47a5eb0beff61978ef45e.jpg"
  },
  {
    "name": "there.and.back.again",
    "defaultvalue": 0,
    "displayName": "Wimp: There and Back Again",
    "hidden": 0,
    "description": "Get first and second rolls with no death at level 15 of Junk Quest ",
    "icon": "https://steamcdn-a.akamaihd.net/steamcommunity/public/images/apps/331570/4906b4c00eccf94246172a2617f6a16ba1303531.jpg",
    "icongray": "https://steamcdn-a.akamaihd.net/steamcommunity/public/images/apps/331570/e885006825821b87e9a67867ab0d93b98c7fea1f.jpg"
  },
  {
    "name": "keep.calm",
    "defaultvalue": 0,
    "displayName": "Keep a calm",
    "hidden": 0,
    "description": "Don't have a death at start in level 9 of Teddy Quest ",
    "icon": "https://steamcdn-a.akamaihd.net/steamcommunity/public/images/apps/331570/91824daf2ab30fb500775c93e07a7d3f935e831b.jpg",
    "icongray": "https://steamcdn-a.akamaihd.net/steamcommunity/public/images/apps/331570/4138c876eb20770702263c9e3cd10e165a0e8079.jpg"
  },
  {
    "name": "saboteur3",
    "defaultvalue": 0,
    "displayName": "Saboteur 3: Critical Mass",
    "hidden": 0,
    "description": "Free the Stony at level 14 of Teddy Quest ",
    "icon": "https://steamcdn-a.akamaihd.net/steamcommunity/public/images/apps/331570/a4dc96787f557529cfad9dc607ea7ce3689002e9.jpg",
    "icongray": "https://steamcdn-a.akamaihd.net/steamcommunity/public/images/apps/331570/cbca3433871a2a7dd8eb46fadc77819cac3339a5.jpg"
  },
  {
    "name": "impossibru",
    "defaultvalue": 0,
    "displayName": "Impossibru!",
    "hidden": 0,
    "description": "Get two rolls in the same time",
    "icon": "https://steamcdn-a.akamaihd.net/steamcommunity/public/images/apps/331570/a9cb28511e76bf23b4134f4efdf1a97808e52591.jpg",
    "icongray": "https://steamcdn-a.akamaihd.net/steamcommunity/public/images/apps/331570/561dfdf5b1b1e2dfd5a889fdd21301b72a1ef4f0.jpg"
  },
  {
    "name": "super.blob.boy",
    "defaultvalue": 0,
    "displayName": "Super Blob Boy",
    "hidden": 0,
    "description": "Don't have a death from the saws at level 6 of Rusty Quest",
    "icon": "https://steamcdn-a.akamaihd.net/steamcommunity/public/images/apps/331570/133c4b60367a49e08ffa94a1b98d250551942e93.jpg",
    "icongray": "https://steamcdn-a.akamaihd.net/steamcommunity/public/images/apps/331570/67a3ec0dfa1c8b753913f07a084914294d2ef755.jpg"
  },
  {
    "name": "sticky.business",
    "defaultvalue": 0,
    "displayName": "Sticky business",
    "hidden": 0,
    "description": "Accomplish Junk Quest ",
    "icon": "https://steamcdn-a.akamaihd.net/steamcommunity/public/images/apps/331570/9379e815e2852110b0686464634456f1d327913d.jpg",
    "icongray": "https://steamcdn-a.akamaihd.net/steamcommunity/public/images/apps/331570/1f18ff1a38cd18efa7e40fe59c920fdf08aea31d.jpg"
  },
  {
    "name": "back.to.the.childhood",
    "defaultvalue": 0,
    "displayName": "Back to the childhood",
    "hidden": 0,
    "description": "Accomplish Teddy quest",
    "icon": "https://steamcdn-a.akamaihd.net/steamcommunity/public/images/apps/331570/1c6ab2d118a29fd1938932a61364060a2b32fc5a.jpg",
    "icongray": "https://steamcdn-a.akamaihd.net/steamcommunity/public/images/apps/331570/7c2739728c6a7aa1f2b08b46e6c87a2ae1d37402.jpg"
  },
  {
    "name": "pie.is.a.lie",
    "defaultvalue": 0,
    "displayName": "Pie is a lie!",
    "hidden": 0,
    "description": "Accomplish Rusty quest",
    "icon": "https://steamcdn-a.akamaihd.net/steamcommunity/public/images/apps/331570/c8e10c35b5504275977fe2d831c204a464f8d6a4.jpg",
    "icongray": "https://steamcdn-a.akamaihd.net/steamcommunity/public/images/apps/331570/b48e2be451d2f7b9aecde3adc49eb13839212f20.jpg"
  },
  {
    "name": "frozen.breath",
    "defaultvalue": 0,
    "displayName": "Frozen breath",
    "hidden": 0,
    "description": "Accomplish Cold quest",
    "icon": "https://steamcdn-a.akamaihd.net/steamcommunity/public/images/apps/331570/f9916c02516a86fe0b7c4560ace0c176c24ed53d.jpg",
    "icongray": "https://steamcdn-a.akamaihd.net/steamcommunity/public/images/apps/331570/83062cc2f759b567f9cbfd52f423f626730114af.jpg"
  },
  {
    "name": "junkyard.avenger",
    "defaultvalue": 0,
    "displayName": "Junkyard Avenger",
    "hidden": 0,
    "description": "Kill Boss at Junk Quest ",
    "icon": "https://steamcdn-a.akamaihd.net/steamcommunity/public/images/apps/331570/baf23d62c81990dc7bed85c409a668f9032afebe.jpg",
    "icongray": "https://steamcdn-a.akamaihd.net/steamcommunity/public/images/apps/331570/65b9457f9547dbff9ee8849805205ec82bed585b.jpg"
  },
  {
    "name": "teddy.rescuer",
    "defaultvalue": 0,
    "displayName": "Teddy Rescuer",
    "hidden": 0,
    "description": "Kill Boss at Teddy quest",
    "icon": "https://steamcdn-a.akamaihd.net/steamcommunity/public/images/apps/331570/586220cd7563b9e8e161b2552fc2839e859dc04c.jpg",
    "icongray": "https://steamcdn-a.akamaihd.net/steamcommunity/public/images/apps/331570/6ddd421fb8c96e849012eda03f8bcaf9737fbda6.jpg"
  },
  {
    "name": "cold.monster",
    "defaultvalue": 0,
    "displayName": "Cold Monster",
    "hidden": 0,
    "description": "Kill Boss at Cold quest",
    "icon": "https://steamcdn-a.akamaihd.net/steamcommunity/public/images/apps/331570/ad999a60750f874469eba323c960bf617cdb6d6a.jpg",
    "icongray": "https://steamcdn-a.akamaihd.net/steamcommunity/public/images/apps/331570/72801ae91f15ccd33538d031ebed3f89f6aaba9e.jpg"
  }
]