﻿[
  {
    "name": "s_1_0",
    "defaultvalue": 0,
    "displayName": "1-0"
  },
  {
    "name": "s_0_1k",
    "defaultvalue": 0,
    "displayName": "From 0 to 1000"
  },
  {
    "name": "s_0_1m",
    "defaultvalue": 0,
    "displayName": "From 0 to 1m"
  },
  {
    "name": "s_50",
    "defaultvalue": 0,
    "displayName": "50%"
  },
  {
    "name": "s_1_1",
    "defaultvalue": 0,
    "displayName": "1-1"
  },
  {
    "name": "s_1_2",
    "defaultvalue": 0,
    "displayName": "1-2"
  },
  {
    "name": "s_1_3",
    "defaultvalue": 0,
    "displayName": "1-3"
  },
  {
    "name": "s_1_17",
    "defaultvalue": 0,
    "displayName": "1-17"
  },
  {
    "name": "s_1_18",
    "defaultvalue": 0,
    "displayName": "1-18"
  },
  {
    "name": "s_1_19",
    "defaultvalue": 0,
    "displayName": "1-19"
  },
  {
    "name": "s_1_7",
    "defaultvalue": 0,
    "displayName": "1-7"
  },
  {
    "name": "s_1_20",
    "defaultvalue": 0,
    "displayName": "1-20"
  },
  {
    "name": "s_1_21",
    "defaultvalue": 0,
    "displayName": "1-21"
  },
  {
    "name": "s_1_10",
    "defaultvalue": 0,
    "displayName": "1-10"
  },
  {
    "name": "s_1_11",
    "defaultvalue": 0,
    "displayName": "1-11"
  },
  {
    "name": "s_1_12",
    "defaultvalue": 0,
    "displayName": "1-12"
  },
  {
    "name": "s_1_13",
    "defaultvalue": 0,
    "displayName": "1-13"
  },
  {
    "name": "s_1_14",
    "defaultvalue": 0,
    "displayName": "1-14"
  },
  {
    "name": "s_1_15",
    "defaultvalue": 0,
    "displayName": "1-15"
  },
  {
    "name": "s_1_16",
    "defaultvalue": 0,
    "displayName": "1-16"
  },
  {
    "name": "stat_22",
    "defaultvalue": 0,
    "displayName": "2-1"
  },
  {
    "name": "stat_23",
    "defaultvalue": 0,
    "displayName": "2-2"
  },
  {
    "name": "stat_24",
    "defaultvalue": 0,
    "displayName": "2-3"
  },
  {
    "name": "stat_25",
    "defaultvalue": 0,
    "displayName": "2-4"
  },
  {
    "name": "stat_26",
    "defaultvalue": 0,
    "displayName": "2-5"
  },
  {
    "name": "stat_27",
    "defaultvalue": 0,
    "displayName": "3-1"
  },
  {
    "name": "stat_28",
    "defaultvalue": 0,
    "displayName": "3-2"
  },
  {
    "name": "stat_29",
    "defaultvalue": 0,
    "displayName": "3-3"
  },
  {
    "name": "stat_30",
    "defaultvalue": 0,
    "displayName": "3-4"
  }
]