{
  "Dlcs": {},
  "Name": "NEON KNIGHT",
  "AppId": "1338950",
  "ImageUrl": "https://steamcdn-a.akamaihd.net/steam/apps/1338950/header.jpg?t=1591291873",
  "Languages": [
    "english"
  ],
  "Platforms": {
    "windows": true,
    "mac": false,
    "linux": false
  }
}