[
  {
    "name": "ACH_LUCKY_DUCK",
    "defaultvalue": 0,
    "displayName": "Lucky Duck",
    "hidden": 0,
    "description": "Obtained the Tungsten Drake",
    "icon": "https://steamcdn-a.akamaihd.net/steamcommunity/public/images/apps/314120/44a864072a91d3bbc1a39d9b0695c781cd4b9149.jpg",
    "icongray": "https://steamcdn-a.akamaihd.net/steamcommunity/public/images/apps/314120/7a15b9e9f7629b8863d48dfe5d8151c6f47d8511.jpg"
  },
  {
    "name": "ACH_SKULL_GAINED",
    "defaultvalue": 0,
    "displayName": "Skull of S'makh-Daon",
    "hidden": 0,
    "description": "Obtained the Skull of S'makh-Daon",
    "icon": "https://steamcdn-a.akamaihd.net/steamcommunity/public/images/apps/314120/e7cf0b766cdd0e57edba9d924eafe00d7fedc1bb.jpg",
    "icongray": "https://steamcdn-a.akamaihd.net/steamcommunity/public/images/apps/314120/9787d96a6f1f514dc2bda1684aa00fb434f651cb.jpg"
  },
  {
    "name": "ACH_OOPS",
    "defaultvalue": 0,
    "displayName": "Oops!",
    "hidden": 0,
    "description": "Set off a trap.",
    "icon": "https://steamcdn-a.akamaihd.net/steamcommunity/public/images/apps/314120/1e11a8b93f1e43c8e7f664a427be332e12a02610.jpg",
    "icongray": "https://steamcdn-a.akamaihd.net/steamcommunity/public/images/apps/314120/56cbaaa051424195ca58d411d21b9eaec6fedb16.jpg"
  },
  {
    "name": "ACH_BIOLOGIST",
    "defaultvalue": 0,
    "displayName": "Biologist",
    "hidden": 0,
    "description": "Party member has become a monster watcher",
    "icon": "https://steamcdn-a.akamaihd.net/steamcommunity/public/images/apps/314120/9abea8fef8769e0a5e0d421add0d72f6967e55e5.jpg",
    "icongray": "https://steamcdn-a.akamaihd.net/steamcommunity/public/images/apps/314120/0387d722f53233f2892869a5118ce69999d1f9dc.jpg"
  },
  {
    "name": "ACH_LEVELED",
    "defaultvalue": 0,
    "displayName": "What Happened to One?",
    "hidden": 0,
    "description": "Leveled Up for the first time",
    "icon": "https://steamcdn-a.akamaihd.net/steamcommunity/public/images/apps/314120/d7db0fe6c3b665df80d3799d01def5862fbd0819.jpg",
    "icongray": "https://steamcdn-a.akamaihd.net/steamcommunity/public/images/apps/314120/4ca5e587640485435c7e391b8a38329e04a28728.jpg"
  },
  {
    "name": "ACH_DEFENESTRATE",
    "defaultvalue": 0,
    "displayName": "Defenestration!",
    "hidden": 0,
    "description": "Sent an enemy through a window",
    "icon": "https://steamcdn-a.akamaihd.net/steamcommunity/public/images/apps/314120/cfa9cc601f1d622eaffb452f314eca4eaedef836.jpg",
    "icongray": "https://steamcdn-a.akamaihd.net/steamcommunity/public/images/apps/314120/5cac7c02bf149678775bc0713d70a1bf2c72fb27.jpg"
  },
  {
    "name": "ACH_TPK",
    "defaultvalue": 0,
    "displayName": "TPK",
    "hidden": 0,
    "description": "Aw, the entire party was wiped out for the first time.",
    "icon": "https://steamcdn-a.akamaihd.net/steamcommunity/public/images/apps/314120/9326f5f76ffb64bd495f3321287291a6d0ad9241.jpg",
    "icongray": "https://steamcdn-a.akamaihd.net/steamcommunity/public/images/apps/314120/cdf9d01e0713a25fc0e928b4d43089cc88a5274f.jpg"
  },
  {
    "name": "ACH_IN_OTHER_PANTS",
    "defaultvalue": 0,
    "displayName": "In My Other Pants?",
    "hidden": 0,
    "description": "Party lost the Skull of S'makh-Daon",
    "icon": "https://steamcdn-a.akamaihd.net/steamcommunity/public/images/apps/314120/5b6a5278eb2110194e60a4f72d84fd45320078cf.jpg",
    "icongray": "https://steamcdn-a.akamaihd.net/steamcommunity/public/images/apps/314120/cfd21080203e66012b8f3f659e41f95d6bc89034.jpg"
  },
  {
    "name": "ACH_DRAMATIC_RECOVERY",
    "defaultvalue": 0,
    "displayName": "Dramatic Recovery",
    "hidden": 0,
    "description": "Bring a character back from the brink with drama stars",
    "icon": "https://steamcdn-a.akamaihd.net/steamcommunity/public/images/apps/314120/cfbbdca9203c5393b8b9061fe10573ea5a6677e9.jpg",
    "icongray": "https://steamcdn-a.akamaihd.net/steamcommunity/public/images/apps/314120/73af113de4a0e2f904727c04ca7f8929dbb4ce42.jpg"
  },
  {
    "name": "ACH_DIMENSION_HOPPER",
    "defaultvalue": 0,
    "displayName": "Dimension Hopper",
    "hidden": 0,
    "description": "Party has visited another dimension",
    "icon": "https://steamcdn-a.akamaihd.net/steamcommunity/public/images/apps/314120/5bc25166c645aff8e806bc3f05a02a1740bc7c73.jpg",
    "icongray": "https://steamcdn-a.akamaihd.net/steamcommunity/public/images/apps/314120/02e05ad771344580b51093f744a457dfd56572ef.jpg"
  },
  {
    "name": "ACH_FIERY_MICRODOOM",
    "defaultvalue": 0,
    "displayName": "Fiery Microdoom",
    "hidden": 0,
    "description": "Obtained the Axe of Fiery Microdoom",
    "icon": "https://steamcdn-a.akamaihd.net/steamcommunity/public/images/apps/314120/6cf5494a137f9c4e630d8968d940b7f01a816a7d.jpg",
    "icongray": "https://steamcdn-a.akamaihd.net/steamcommunity/public/images/apps/314120/b82e04bfe4fe16a441834c55d585881b2640861c.jpg"
  },
  {
    "name": "ACH_HELLACIOUS",
    "defaultvalue": 0,
    "displayName": "Hellacious!",
    "hidden": 0,
    "description": "Cast a spell augmented to Hellacious level",
    "icon": "https://steamcdn-a.akamaihd.net/steamcommunity/public/images/apps/314120/714892a2b64cb91ac6cf87ccaf55e4638eed1cb5.jpg",
    "icongray": "https://steamcdn-a.akamaihd.net/steamcommunity/public/images/apps/314120/3514d3b5a3deb76b9ec06c25153e314c0c9cba03.jpg"
  },
  {
    "name": "ACH_CAPPED",
    "defaultvalue": 0,
    "displayName": "Capped!",
    "hidden": 0,
    "description": "Achieved the highest level",
    "icon": "https://steamcdn-a.akamaihd.net/steamcommunity/public/images/apps/314120/067a2f2c47d92cdd088055c570141a3a91a6669f.jpg",
    "icongray": "https://steamcdn-a.akamaihd.net/steamcommunity/public/images/apps/314120/e60c23e617caa41711adbb011a73666eb96f2a2e.jpg"
  },
  {
    "name": "ACH_RING_CHAMPION",
    "defaultvalue": 0,
    "displayName": "Champion of the Ring",
    "hidden": 0,
    "description": "Won the Ancient Championship. Got the ring. And a thousand-year contract.",
    "icon": "https://steamcdn-a.akamaihd.net/steamcommunity/public/images/apps/314120/4ad84b08e7c80d4fc3243b163e91ee2b67e7efca.jpg",
    "icongray": "https://steamcdn-a.akamaihd.net/steamcommunity/public/images/apps/314120/33bb8867f2c136cb898e8f61934e76d81eb23a91.jpg"
  },
  {
    "name": "ACH_TREASURE_HUNTER",
    "defaultvalue": 0,
    "displayName": "Treasure Hunter",
    "hidden": 0,
    "description": "Find five secret treasures by searching",
    "icon": "https://steamcdn-a.akamaihd.net/steamcommunity/public/images/apps/314120/df2b44f431a69e5f4fd8500fa8600fff7c497f36.jpg",
    "icongray": "https://steamcdn-a.akamaihd.net/steamcommunity/public/images/apps/314120/cbe2df5c8514bee650b1e1242af1f6bbc5f3ea91.jpg"
  },
  {
    "name": "ACH_FOOLS_LUCK",
    "defaultvalue": 0,
    "displayName": "Fool's Luck",
    "hidden": 0,
    "description": "Use drama stars to almost definitely get lucky next time",
    "icon": "https://steamcdn-a.akamaihd.net/steamcommunity/public/images/apps/314120/73fb6da7b070f392fb8659fa99cd7525a31f89db.jpg",
    "icongray": "https://steamcdn-a.akamaihd.net/steamcommunity/public/images/apps/314120/0db3e6e8f941167859e8ec044020d1022e495150.jpg"
  },
  {
    "name": "ACH_REASON_FOR_RHYME",
    "defaultvalue": 0,
    "displayName": "Rhyme and Reason",
    "hidden": 0,
    "description": "Poetry and plausible deniability. What a combo!",
    "icon": "https://steamcdn-a.akamaihd.net/steamcommunity/public/images/apps/314120/b1a184425ab7b459c665201f6bd91f42979f2f70.jpg",
    "icongray": "https://steamcdn-a.akamaihd.net/steamcommunity/public/images/apps/314120/f436b4f666135636c529cbd7d16263ed911b2167.jpg"
  },
  {
    "name": "ACH_DEATH_BY_LITERACY",
    "defaultvalue": 0,
    "displayName": "Death by Literacy",
    "hidden": 0,
    "description": "Cast a spell directly from a scroll",
    "icon": "https://steamcdn-a.akamaihd.net/steamcommunity/public/images/apps/314120/3cddab4eb4782aa9ca8808ea8bfc8c89585df5ec.jpg",
    "icongray": "https://steamcdn-a.akamaihd.net/steamcommunity/public/images/apps/314120/2236454531c4e6f1dc20196a98b71fbaf5f49897.jpg"
  },
  {
    "name": "ACH_ALSO_DOES_TRICKS",
    "defaultvalue": 0,
    "displayName": "Also Does Tricks",
    "hidden": 0,
    "description": "Teach Dirk or Arianna to cast spells",
    "icon": "https://steamcdn-a.akamaihd.net/steamcommunity/public/images/apps/314120/60d86bbc735152b43236cc1e5f846c6daf7a8042.jpg",
    "icongray": "https://steamcdn-a.akamaihd.net/steamcommunity/public/images/apps/314120/68fa924205489174d9e786ac3476d95f9f07b101.jpg"
  },
  {
    "name": "ACH_RATS_IN_THE_CELLAR",
    "defaultvalue": 0,
    "displayName": "Rats in the Cellar",
    "hidden": 0,
    "description": "Defeat the menace in Farmer Brown's cellar!",
    "icon": "https://steamcdn-a.akamaihd.net/steamcommunity/public/images/apps/314120/38d6de8ac517e9e79db283642b24be958346b3f5.jpg",
    "icongray": "https://steamcdn-a.akamaihd.net/steamcommunity/public/images/apps/314120/d346f7b43f18dd9eae77672321c942bf97199219.jpg"
  },
  {
    "name": "ACH_HOSS_TREASURE",
    "defaultvalue": 0,
    "displayName": "Old-School Treasure Hoard",
    "hidden": 0,
    "description": "Recover Hoss's treasure and return him his stone",
    "icon": "https://steamcdn-a.akamaihd.net/steamcommunity/public/images/apps/314120/ecf3f8df230b424fd6a1be5ead2bbf2e535e241b.jpg",
    "icongray": "https://steamcdn-a.akamaihd.net/steamcommunity/public/images/apps/314120/17c9423a9497cfa1fe1b10959dd6acd66154398c.jpg"
  },
  {
    "name": "ACH_NOT_SO_CUTE_NOW",
    "defaultvalue": 0,
    "displayName": "Not So Cute Now",
    "hidden": 0,
    "description": "De-Ferret a mage",
    "icon": "https://steamcdn-a.akamaihd.net/steamcommunity/public/images/apps/314120/47e90466b2239c7ccb365bff862c76fc8c3727ac.jpg",
    "icongray": "https://steamcdn-a.akamaihd.net/steamcommunity/public/images/apps/314120/60f1f1dc5e630107d045ed38ee5388ad3f9843a5.jpg"
  },
  {
    "name": "ACH_KILL_10_RATS",
    "defaultvalue": 0,
    "displayName": "Kill 10 Rats",
    "hidden": 0,
    "description": "Not such an easy quest now, is it?",
    "icon": "https://steamcdn-a.akamaihd.net/steamcommunity/public/images/apps/314120/d166f6d5418e9201f51871dd8d56d6d2a53ffd01.jpg",
    "icongray": "https://steamcdn-a.akamaihd.net/steamcommunity/public/images/apps/314120/f9b5eeb450b5b44326980ee15990cb39cfc2729c.jpg"
  },
  {
    "name": "ACH_DRAMA_QUEEN",
    "defaultvalue": 0,
    "displayName": "Drama Queen",
    "hidden": 0,
    "description": "Earn 1000 drama points",
    "icon": "https://steamcdn-a.akamaihd.net/steamcommunity/public/images/apps/314120/baa7a7ac79490a22e745da90e0df96f0a5949d0a.jpg",
    "icongray": "https://steamcdn-a.akamaihd.net/steamcommunity/public/images/apps/314120/82fc6dd8c33277d5253849571b69d84678ba6ef2.jpg"
  },
  {
    "name": "ACH_USE_DRAMA",
    "defaultvalue": 0,
    "displayName": "Use It Or Lose It",
    "hidden": 0,
    "description": "Spend 1000 drama points",
    "icon": "https://steamcdn-a.akamaihd.net/steamcommunity/public/images/apps/314120/f79a957b2975d30bc7e29a8719e4419217b83620.jpg",
    "icongray": "https://steamcdn-a.akamaihd.net/steamcommunity/public/images/apps/314120/3cfe9a08c451b50d23e7b223d50c15eacd93baeb.jpg"
  },
  {
    "name": "ACH_OUT_WITH_BANG",
    "defaultvalue": 0,
    "displayName": "Out with a Bang!",
    "hidden": 0,
    "description": "Completed Frayed Knights: The Skull of S'makh-Daon",
    "icon": "https://steamcdn-a.akamaihd.net/steamcommunity/public/images/apps/314120/4bf8b967fa2cc3d0e47f99461b5d8708657d0553.jpg",
    "icongray": "https://steamcdn-a.akamaihd.net/steamcommunity/public/images/apps/314120/fbe4a742ac9d935f2efa606a6098afc5e9d4a829.jpg"
  },
  {
    "name": "ACH_WORM_TURNED",
    "defaultvalue": 0,
    "displayName": "Turned Worm",
    "hidden": 0,
    "description": "Defeated a really big worm",
    "icon": "https://steamcdn-a.akamaihd.net/steamcommunity/public/images/apps/314120/9e807716910ed7494dfca6a4c8a49ee50b36a89d.jpg",
    "icongray": "https://steamcdn-a.akamaihd.net/steamcommunity/public/images/apps/314120/9c3daef8af25e762cebc6af9d7899924f3ebbe0a.jpg"
  },
  {
    "name": "ACH_PIT_DOOM",
    "defaultvalue": 0,
    "displayName": "Pit O' Doom",
    "hidden": 0,
    "description": "Faced the evil at the bottom of the Pit O' Doom",
    "icon": "https://steamcdn-a.akamaihd.net/steamcommunity/public/images/apps/314120/af61bdac88f6f1cc051ba5449ea308bc107be45d.jpg",
    "icongray": "https://steamcdn-a.akamaihd.net/steamcommunity/public/images/apps/314120/6ac1ef9a0c81d6603ac21df0d32bba8ecb237124.jpg"
  }
]