﻿[
  {
    "name": "ACHIEV_001",
    "defaultvalue": 0,
    "displayName": "Strike!",
    "hidden": 0,
    "description": "Can you hit two in the same?!",
    "icon": "https://steamcdn-a.akamaihd.net/steamcommunity/public/images/apps/615490/f44a3a61e280467ae529e7892fb48e4b52798d79.jpg",
    "icongray": "https://steamcdn-a.akamaihd.net/steamcommunity/public/images/apps/615490/000e5f8c9161da0c9114fa5961a71039296aad19.jpg"
  },
  {
    "name": "ACHIEV_002",
    "defaultvalue": 0,
    "displayName": "Unicorn Ray",
    "hidden": 0,
    "description": "It's an unicorn bazooka!",
    "icon": "https://steamcdn-a.akamaihd.net/steamcommunity/public/images/apps/615490/5d49c5add8ae71ef0485e4e27fe1b2500b4ba7ff.jpg",
    "icongray": "https://steamcdn-a.akamaihd.net/steamcommunity/public/images/apps/615490/b057afc2d9d0de2d36bcd67305e7b6506e9896b2.jpg"
  },
  {
    "name": "ACHIEV_003",
    "defaultvalue": 0,
    "displayName": "Vrrruuum!",
    "hidden": 0,
    "description": "Not so fast and furious.",
    "icon": "https://steamcdn-a.akamaihd.net/steamcommunity/public/images/apps/615490/0e24d906ba8ffca725a9087d01a67f1421a6911e.jpg",
    "icongray": "https://steamcdn-a.akamaihd.net/steamcommunity/public/images/apps/615490/0cde1815fd7073e019abcdd63e3fc31f60a692c3.jpg"
  },
  {
    "name": "ACHIEV_004",
    "defaultvalue": 0,
    "displayName": "Monkey Business",
    "hidden": 0,
    "description": "Shut up and take my monkey!",
    "icon": "https://steamcdn-a.akamaihd.net/steamcommunity/public/images/apps/615490/1e21101ef528196d73c4e9eaeb43fd78ebf82ac4.jpg",
    "icongray": "https://steamcdn-a.akamaihd.net/steamcommunity/public/images/apps/615490/57fa0b76aa9e5818d03b4d177572a0bee19385d1.jpg"
  },
  {
    "name": "ACHIEV_005",
    "defaultvalue": 0,
    "displayName": "Old Timer",
    "hidden": 0,
    "description": "You've been a really bad grandpa.",
    "icon": "https://steamcdn-a.akamaihd.net/steamcommunity/public/images/apps/615490/8885630127b1d45cf88113c17f2af2acd9aa2430.jpg",
    "icongray": "https://steamcdn-a.akamaihd.net/steamcommunity/public/images/apps/615490/54cdc3190e39b7cb0bbfa405cacfec07d3133cbd.jpg"
  },
  {
    "name": "ACHIEV_006",
    "defaultvalue": 0,
    "displayName": "Twist and Shout",
    "hidden": 0,
    "description": "You know you twist so fine :)",
    "icon": "https://steamcdn-a.akamaihd.net/steamcommunity/public/images/apps/615490/042d763650ae69a6ee989f4d4ea7e564d107b576.jpg",
    "icongray": "https://steamcdn-a.akamaihd.net/steamcommunity/public/images/apps/615490/d5df5b514c61c460f978182423574ded98c47bda.jpg"
  },
  {
    "name": "ACHIEV_007",
    "defaultvalue": 0,
    "displayName": "Conga Rookie",
    "hidden": 0,
    "description": "They call me Cuban Pete...",
    "icon": "https://steamcdn-a.akamaihd.net/steamcommunity/public/images/apps/615490/f0fa47a6e1ad11edf2cc21948adc569651924b27.jpg",
    "icongray": "https://steamcdn-a.akamaihd.net/steamcommunity/public/images/apps/615490/99ff965088e1cbb0c8d5e498f80d81183e175daa.jpg"
  },
  {
    "name": "ACHIEV_008",
    "defaultvalue": 0,
    "displayName": "Conga Master",
    "hidden": 0,
    "description": "...Chick-chicky-boom!",
    "icon": "https://steamcdn-a.akamaihd.net/steamcommunity/public/images/apps/615490/eda6d8c470fa114af4d352acd84776e8ade8b4f2.jpg",
    "icongray": "https://steamcdn-a.akamaihd.net/steamcommunity/public/images/apps/615490/f93a38121fe6b4d0efa4680e7f04d82ef54198cb.jpg"
  },
  {
    "name": "ACHIEV_009",
    "defaultvalue": 0,
    "displayName": "Combo Rookie",
    "hidden": 0,
    "description": "Seriously, that's it?",
    "icon": "https://steamcdn-a.akamaihd.net/steamcommunity/public/images/apps/615490/4fc28a8c392f706efc463b67d4d7f2dffc831944.jpg",
    "icongray": "https://steamcdn-a.akamaihd.net/steamcommunity/public/images/apps/615490/1d0d1b5ad8c640b7659c6e9cdfd8a5570dd6f761.jpg"
  },
  {
    "name": "ACHIEV_010",
    "defaultvalue": 0,
    "displayName": "Combo Master",
    "hidden": 0,
    "description": "That's what I'm talking about.",
    "icon": "https://steamcdn-a.akamaihd.net/steamcommunity/public/images/apps/615490/f2bb19332e60f3bc38f08fc14c7b324bf8d6b3eb.jpg",
    "icongray": "https://steamcdn-a.akamaihd.net/steamcommunity/public/images/apps/615490/27c2335178cd704e156f3305d63255de9f724628.jpg"
  },
  {
    "name": "ACHIEV_011",
    "defaultvalue": 0,
    "displayName": "Stick Rookie",
    "hidden": 0,
    "description": "Size matters.",
    "icon": "https://steamcdn-a.akamaihd.net/steamcommunity/public/images/apps/615490/f3ab62cbf1c2218cda4b48c63ddebdacbe768092.jpg",
    "icongray": "https://steamcdn-a.akamaihd.net/steamcommunity/public/images/apps/615490/94f4fa31c321a0dda46ac14c6c416b245eb67937.jpg"
  },
  {
    "name": "ACHIEV_012",
    "defaultvalue": 0,
    "displayName": "Stick Master",
    "hidden": 0,
    "description": "My pleasure, dear.",
    "icon": "https://steamcdn-a.akamaihd.net/steamcommunity/public/images/apps/615490/1770d4ecaf77622ecddb40883290b04f4623d52e.jpg",
    "icongray": "https://steamcdn-a.akamaihd.net/steamcommunity/public/images/apps/615490/4bb984dc05ddf2d970dc65694a919631a799ea04.jpg"
  },
  {
    "name": "ACHIEV_013",
    "defaultvalue": 0,
    "displayName": "You Broke The Thingy",
    "hidden": 1,
    "icon": "https://steamcdn-a.akamaihd.net/steamcommunity/public/images/apps/615490/f42c52cab8e52f2b16d8d5562552498e095c1bc7.jpg",
    "icongray": "https://steamcdn-a.akamaihd.net/steamcommunity/public/images/apps/615490/37ae4952a91495c088c8d8129ef50b24ded8a63a.jpg"
  },
  {
    "name": "ACHIEV_014",
    "defaultvalue": 0,
    "displayName": "E.T. Escapee",
    "hidden": 1,
    "icon": "https://steamcdn-a.akamaihd.net/steamcommunity/public/images/apps/615490/bffb755f6bb3fed651b487e1e0e25f4b7419bbb6.jpg",
    "icongray": "https://steamcdn-a.akamaihd.net/steamcommunity/public/images/apps/615490/658bb31ce3eb5f4f4a2906bfe4031f74a534873d.jpg"
  },
  {
    "name": "ACHIEV_015",
    "defaultvalue": 0,
    "displayName": "I'm Awesome!",
    "hidden": 1,
    "icon": "https://steamcdn-a.akamaihd.net/steamcommunity/public/images/apps/615490/6199eb810fee611a1e11b9c6ed84cc8760d35483.jpg",
    "icongray": "https://steamcdn-a.akamaihd.net/steamcommunity/public/images/apps/615490/0e2c3b3f5c09459fa14eeb3d8c053985607f127c.jpg"
  }
]