[
  {
    "name": "MASTER_OF_THE_ARCADE",
    "defaultvalue": 0,
    "displayName": "Master of The Arcade!",
    "hidden": 0,
    "description": "You need to complete the Arcade to get this achievement.",
    "icon": "https://steamcdn-a.akamaihd.net/steamcommunity/public/images/apps/320670/c9fafd4058e09f58b5d1ab63c185f96346b47828.jpg",
    "icongray": "https://steamcdn-a.akamaihd.net/steamcommunity/public/images/apps/320670/0e410d7d89c668b0729042e04b32cd77c13c0ba7.jpg"
  },
  {
    "name": "THE_SECRET_OF_THE_WITCH_CROW",
    "defaultvalue": 0,
    "displayName": "The Secret of the Witch Crow!",
    "hidden": 0,
    "description": "You need to complete the Arcade to get this achievement.",
    "icon": "https://steamcdn-a.akamaihd.net/steamcommunity/public/images/apps/320670/15321e22d5ddbf4461f403ccda71bb4ec827af6b.jpg",
    "icongray": "https://steamcdn-a.akamaihd.net/steamcommunity/public/images/apps/320670/784a7f05639ee072215a78320af6a6481c075953.jpg"
  },
  {
    "name": "LORD_OF_THE_SEASONS",
    "defaultvalue": 0,
    "displayName": "Lord of the Seasons!",
    "hidden": 0,
    "description": "You need to complete the Arcade, the Story and earn more than 5000000 scores to get this achievement.",
    "icon": "https://steamcdn-a.akamaihd.net/steamcommunity/public/images/apps/320670/300cab567fa42d7ba36a1233112a2b9f56b6f375.jpg",
    "icongray": "https://steamcdn-a.akamaihd.net/steamcommunity/public/images/apps/320670/bd7ce3634aa9d40c54924c04d256d0983b5d5f1e.jpg"
  },
  {
    "name": "SCORE_500000",
    "defaultvalue": 0,
    "displayName": "Score 500000!",
    "hidden": 0,
    "description": "You need to earn more than 500000 scores to get this achievement.",
    "icon": "https://steamcdn-a.akamaihd.net/steamcommunity/public/images/apps/320670/ae3b31cce74e0ac80dfe9d17d0c9247d9ee4fa83.jpg",
    "icongray": "https://steamcdn-a.akamaihd.net/steamcommunity/public/images/apps/320670/d0b2d9e7d1b6c379c5d2f78be7bd7b9bb136f9a0.jpg"
  },
  {
    "name": "SCORE_1000000",
    "defaultvalue": 0,
    "displayName": "Score 1000000!",
    "hidden": 0,
    "description": "You need to earn more than 1000000 scores to get this achievement.",
    "icon": "https://steamcdn-a.akamaihd.net/steamcommunity/public/images/apps/320670/3f768cd4d3dc5f8615a4c26dda37b0f6508201a1.jpg",
    "icongray": "https://steamcdn-a.akamaihd.net/steamcommunity/public/images/apps/320670/5b10b0ae766677d6debeffd4d97524f0020d8097.jpg"
  },
  {
    "name": "SCORE_2000000",
    "defaultvalue": 0,
    "displayName": "Score 2000000!",
    "hidden": 0,
    "description": "You need to earn more than 2000000 scores to get this achievement.",
    "icon": "https://steamcdn-a.akamaihd.net/steamcommunity/public/images/apps/320670/4fb1b3f945c912cdc28645ad0043af50cc5470f9.jpg",
    "icongray": "https://steamcdn-a.akamaihd.net/steamcommunity/public/images/apps/320670/9fb00931998fc5de55d13ab957b8e5a1e5c4a389.jpg"
  },
  {
    "name": "SCORE_5000000",
    "defaultvalue": 0,
    "displayName": "Score 5000000!",
    "hidden": 0,
    "description": "You need to earn more than 5000000 scores to get this achievement.",
    "icon": "https://steamcdn-a.akamaihd.net/steamcommunity/public/images/apps/320670/c1f42e31aa3edced0951f1c526e19edb59952112.jpg",
    "icongray": "https://steamcdn-a.akamaihd.net/steamcommunity/public/images/apps/320670/cf4494ab02338c64163b1d3fa4cd841522ffae45.jpg"
  },
  {
    "name": "SAVIOR_OF_JANUARY",
    "defaultvalue": 0,
    "displayName": "Savior of January!",
    "hidden": 0,
    "description": "You need to save the prince January!",
    "icon": "https://steamcdn-a.akamaihd.net/steamcommunity/public/images/apps/320670/eda147c5d2e8048d682e640c21c12fe3d4cfaed1.jpg",
    "icongray": "https://steamcdn-a.akamaihd.net/steamcommunity/public/images/apps/320670/9201d0524556dd2e949e1a583acbb41e25fc41d3.jpg"
  },
  {
    "name": "SAVIOR_OF_FEBRUARY",
    "defaultvalue": 0,
    "displayName": "Savior of February!",
    "hidden": 0,
    "description": "You need to save the wizard February!",
    "icon": "https://steamcdn-a.akamaihd.net/steamcommunity/public/images/apps/320670/81b60519da0c6690accdad345a85641f13e2a68f.jpg",
    "icongray": "https://steamcdn-a.akamaihd.net/steamcommunity/public/images/apps/320670/195b374be5dd371a10b9e0892307d884ad01660c.jpg"
  },
  {
    "name": "SAVIOR_OF_MARCH",
    "defaultvalue": 0,
    "displayName": "Savior of March!",
    "hidden": 0,
    "description": "You need to save the princess March!",
    "icon": "https://steamcdn-a.akamaihd.net/steamcommunity/public/images/apps/320670/23884d23f9f24b60c4fd16887134b2eefd8115d5.jpg",
    "icongray": "https://steamcdn-a.akamaihd.net/steamcommunity/public/images/apps/320670/3484975c2ac29afea60945ce9ca97b20f6ba5db7.jpg"
  },
  {
    "name": "SAVIOR_OF_APRIL",
    "defaultvalue": 0,
    "displayName": "Savior of April!",
    "hidden": 0,
    "description": "You need to save the princess April!",
    "icon": "https://steamcdn-a.akamaihd.net/steamcommunity/public/images/apps/320670/8f7839be768d62b40d8442b5d8e26fbb0753f90c.jpg",
    "icongray": "https://steamcdn-a.akamaihd.net/steamcommunity/public/images/apps/320670/50afb21da89a41e3a9922531d10335edec5cf675.jpg"
  },
  {
    "name": "SAVIOR_OF_MAY",
    "defaultvalue": 0,
    "displayName": "Savior of May!",
    "hidden": 0,
    "description": "You need to save the princess May!",
    "icon": "https://steamcdn-a.akamaihd.net/steamcommunity/public/images/apps/320670/df2bedc448b35fe4549737054a38b1ed65c1d1d2.jpg",
    "icongray": "https://steamcdn-a.akamaihd.net/steamcommunity/public/images/apps/320670/b9f1341ce4bff976cedf00942beb099ed3025223.jpg"
  },
  {
    "name": "SAVIOR_OF_JUNE",
    "defaultvalue": 0,
    "displayName": "Savior of June!",
    "hidden": 0,
    "description": "You need to save the princess June!",
    "icon": "https://steamcdn-a.akamaihd.net/steamcommunity/public/images/apps/320670/4f46f8ae6658bacff7f3646c753aa91319d8f49a.jpg",
    "icongray": "https://steamcdn-a.akamaihd.net/steamcommunity/public/images/apps/320670/542bc26b8852d2e5eb16e2a0f3f8e2f1340ce4db.jpg"
  },
  {
    "name": "SAVIOR_OF_JULY",
    "defaultvalue": 0,
    "displayName": "Savior of July!",
    "hidden": 0,
    "description": "You need to save the princess July!",
    "icon": "https://steamcdn-a.akamaihd.net/steamcommunity/public/images/apps/320670/3a6a02f1080b8e07549e5f27c6cf31e20add76ed.jpg",
    "icongray": "https://steamcdn-a.akamaihd.net/steamcommunity/public/images/apps/320670/25eb987d6ec9d7ccd24de7e221a1940d9321d977.jpg"
  },
  {
    "name": "SAVIOR_OF_AUGUST",
    "defaultvalue": 0,
    "displayName": "Savior of August!",
    "hidden": 0,
    "description": "You need to save the princess August!",
    "icon": "https://steamcdn-a.akamaihd.net/steamcommunity/public/images/apps/320670/7ce0fec9679525864a789ce4730ef11e864dbced.jpg",
    "icongray": "https://steamcdn-a.akamaihd.net/steamcommunity/public/images/apps/320670/32f5a10ca5a41345f9aea95cfe62a42d8b5bf388.jpg"
  },
  {
    "name": "SAVIOR_OF_SEPTEMBER",
    "defaultvalue": 0,
    "displayName": "Savior of September!",
    "hidden": 0,
    "description": "You need to save the princess September!",
    "icon": "https://steamcdn-a.akamaihd.net/steamcommunity/public/images/apps/320670/1799e4dd63ce7bbe110b183626b44f321a5d5d38.jpg",
    "icongray": "https://steamcdn-a.akamaihd.net/steamcommunity/public/images/apps/320670/11d59412c2e041a8f16b31157e9e185035723a55.jpg"
  },
  {
    "name": "SAVIOR_OF_OCTOBER",
    "defaultvalue": 0,
    "displayName": "Savior of October!",
    "hidden": 0,
    "description": "You need to save the old October!",
    "icon": "https://steamcdn-a.akamaihd.net/steamcommunity/public/images/apps/320670/371a4c0855a8cb3cb4bd6a61653bde4a376187df.jpg",
    "icongray": "https://steamcdn-a.akamaihd.net/steamcommunity/public/images/apps/320670/06ccc07b5f23b0e4b07905fbdf869f117551ed74.jpg"
  },
  {
    "name": "SAVIOR_OF_NOVEMBER",
    "defaultvalue": 0,
    "displayName": "Savior of November!",
    "hidden": 0,
    "description": "You need to save the prince November!",
    "icon": "https://steamcdn-a.akamaihd.net/steamcommunity/public/images/apps/320670/57891d1435cfef452ff58f0d24ee54d22078a417.jpg",
    "icongray": "https://steamcdn-a.akamaihd.net/steamcommunity/public/images/apps/320670/368c523eaa2ac560965c821d1fba26f7955652f5.jpg"
  },
  {
    "name": "SAVIOR_OF_DECEMBER",
    "defaultvalue": 0,
    "displayName": "Savior of December!",
    "hidden": 0,
    "description": "You need to save the knight December!",
    "icon": "https://steamcdn-a.akamaihd.net/steamcommunity/public/images/apps/320670/60aa8475d666d2a07a76957b7d1ec50ecf2d6eb3.jpg",
    "icongray": "https://steamcdn-a.akamaihd.net/steamcommunity/public/images/apps/320670/07416daf6f9df186e11d1491aa9ec6c17260dc10.jpg"
  },
  {
    "name": "CASTLE_OF_SNOW_QUEEN",
    "defaultvalue": 0,
    "displayName": "Castle of Snow Queen!",
    "hidden": 0,
    "description": "You need to release the castle of the Snow Queen!",
    "icon": "https://steamcdn-a.akamaihd.net/steamcommunity/public/images/apps/320670/53fcc8f46025e8b9f540f6bed09c50d3d179a994.jpg",
    "icongray": "https://steamcdn-a.akamaihd.net/steamcommunity/public/images/apps/320670/92e041185b09c67b617d91f461d4f4c912e0f79b.jpg"
  },
  {
    "name": "CASTLE_OF_JANUARY",
    "defaultvalue": 0,
    "displayName": "Castle of January!",
    "hidden": 0,
    "description": "You need to release the castle of the January!",
    "icon": "https://steamcdn-a.akamaihd.net/steamcommunity/public/images/apps/320670/a9c9fb6135a7bcce83281234a28917696f70dcc7.jpg",
    "icongray": "https://steamcdn-a.akamaihd.net/steamcommunity/public/images/apps/320670/ae5fbecbc7b22bf29bfb2fb7c8460b998accf837.jpg"
  },
  {
    "name": "CASTLE_OF_FEBRUARY",
    "defaultvalue": 0,
    "displayName": "Castle of February!",
    "hidden": 0,
    "description": "You need to release the castle of the February!",
    "icon": "https://steamcdn-a.akamaihd.net/steamcommunity/public/images/apps/320670/2c6089b59af6d09e6d978b357ce4b0ea295925d3.jpg",
    "icongray": "https://steamcdn-a.akamaihd.net/steamcommunity/public/images/apps/320670/ded1e586a2317921ffc61dc79a6264de9da9d5f6.jpg"
  },
  {
    "name": "CASTLE_OF_MARCH",
    "defaultvalue": 0,
    "displayName": "Castle of March!",
    "hidden": 0,
    "description": "You need to release the castle of the March!",
    "icon": "https://steamcdn-a.akamaihd.net/steamcommunity/public/images/apps/320670/f5956ffb3a14cc45d25000a4053a19295cf80d2e.jpg",
    "icongray": "https://steamcdn-a.akamaihd.net/steamcommunity/public/images/apps/320670/e2cc1f21177debd9afac24b4e3c17c8fb1e82970.jpg"
  },
  {
    "name": "CASTLE_OF_APRIL",
    "defaultvalue": 0,
    "displayName": "Castle of April!",
    "hidden": 0,
    "description": "You need to release the castle of the April!",
    "icon": "https://steamcdn-a.akamaihd.net/steamcommunity/public/images/apps/320670/63fc2a83379bd90e8d10ad52c62d36a09d222d01.jpg",
    "icongray": "https://steamcdn-a.akamaihd.net/steamcommunity/public/images/apps/320670/632e02a2e5e1beb3a3be98f6ef34f1eac9d44c0e.jpg"
  },
  {
    "name": "CASTLE_OF_MAY",
    "defaultvalue": 0,
    "displayName": "Castle of May!",
    "hidden": 0,
    "description": "You need to release the castle of the May!",
    "icon": "https://steamcdn-a.akamaihd.net/steamcommunity/public/images/apps/320670/369a380367d942fdf4f392929b901483666fd58e.jpg",
    "icongray": "https://steamcdn-a.akamaihd.net/steamcommunity/public/images/apps/320670/2584cd54101d0490694b95e18482ee0fa4e2cf06.jpg"
  },
  {
    "name": "CASTLE_OF_JUNE",
    "defaultvalue": 0,
    "displayName": "Castle of June!",
    "hidden": 0,
    "description": "You need to release the castle of the June!",
    "icon": "https://steamcdn-a.akamaihd.net/steamcommunity/public/images/apps/320670/e7b2c2fccae5de14743720ce792f159813fc222d.jpg",
    "icongray": "https://steamcdn-a.akamaihd.net/steamcommunity/public/images/apps/320670/7d28c71be1de147f4d7ed2d747f2060f2df2e299.jpg"
  },
  {
    "name": "CASTLE_OF_JULY",
    "defaultvalue": 0,
    "displayName": "Castle of July!",
    "hidden": 0,
    "description": "You need to release the castle of the July!",
    "icon": "https://steamcdn-a.akamaihd.net/steamcommunity/public/images/apps/320670/2bea741b9a72f9a96aff69fb70bcc8e0f7bc9f9f.jpg",
    "icongray": "https://steamcdn-a.akamaihd.net/steamcommunity/public/images/apps/320670/5d68d17bb658185a1462e18e3055056c5cfbd5a6.jpg"
  },
  {
    "name": "CASTLE_OF_AUGUST",
    "defaultvalue": 0,
    "displayName": "Castle of August!",
    "hidden": 0,
    "description": "You need to release the castle of the August!",
    "icon": "https://steamcdn-a.akamaihd.net/steamcommunity/public/images/apps/320670/7636deb6188bc61146fd4cd1f5c54f7823443d69.jpg",
    "icongray": "https://steamcdn-a.akamaihd.net/steamcommunity/public/images/apps/320670/e7ccc599a28d568cfddf4eea10a1dd9506c857c0.jpg"
  },
  {
    "name": "CASTLE_OF_SEPTEMBER",
    "defaultvalue": 0,
    "displayName": "Castle of September!",
    "hidden": 0,
    "description": "You need to release the castle of the September!",
    "icon": "https://steamcdn-a.akamaihd.net/steamcommunity/public/images/apps/320670/274ecb83a742828e201082c172ce84e5cdd24749.jpg",
    "icongray": "https://steamcdn-a.akamaihd.net/steamcommunity/public/images/apps/320670/7c48b4f73a719619bb505633defd9873fbbdb7c2.jpg"
  },
  {
    "name": "CASTLE_OF_OCTOBER",
    "defaultvalue": 0,
    "displayName": "Castle of October!",
    "hidden": 0,
    "description": "You need to release the castle of the October!",
    "icon": "https://steamcdn-a.akamaihd.net/steamcommunity/public/images/apps/320670/0a4ee4cf4dc9030d6b74e5046d86e73f9ce41368.jpg",
    "icongray": "https://steamcdn-a.akamaihd.net/steamcommunity/public/images/apps/320670/b7c19164224e00d5da3d26c8ff088ae8f78e50f9.jpg"
  },
  {
    "name": "CASTLE_OF_NOVEMBER",
    "defaultvalue": 0,
    "displayName": "Castle of November!",
    "hidden": 0,
    "description": "You need to release the castle of the November!",
    "icon": "https://steamcdn-a.akamaihd.net/steamcommunity/public/images/apps/320670/eb1d9766e7dc93234f5cd0fe09e7a8c752055318.jpg",
    "icongray": "https://steamcdn-a.akamaihd.net/steamcommunity/public/images/apps/320670/352a6673905c9824a82fb0b63f89b2296bf83127.jpg"
  }
]