{
  "Dlcs": {},
  "Name": "SCP: Fragmented Minds",
  "AppId": "1184790",
  "ImageUrl": "https://steamcdn-a.akamaihd.net/steam/apps/1184790/header.jpg?t=1598166403",
  "Languages": [
    "english"
  ],
  "Platforms": {
    "windows": true,
    "mac": false,
    "linux": false
  }
}