{
  "Dlcs": {},
  "Name": "Radio the Universe",
  "AppId": "1053900",
  "ImageUrl": "https://steamcdn-a.akamaihd.net/steam/apps/1053900/header.jpg?t=1593273217",
  "Languages": [
    "english"
  ],
  "Platforms": {
    "windows": true,
    "mac": false,
    "linux": false
  }
}