{
  "Dlcs": {
    "676250": {
      "Name": "DvDrum - Hi-Hat Sound Pack",
      "ImageUrl": "https://steamcdn-a.akamaihd.net/steam/apps/676250/header.jpg?t=1564049217"
    },
    "676251": {
      "Name": "DvDrum - Snare Sound Pack",
      "ImageUrl": "https://steamcdn-a.akamaihd.net/steam/apps/676251/header.jpg?t=1564049862"
    },
    "676252": {
      "Name": "DvDrum - Kick Sound Pack",
      "ImageUrl": "https://steamcdn-a.akamaihd.net/steam/apps/676252/header.jpg?t=1564048843"
    },
    "676253": {
      "Name": "DvDrum - Tom Sound Pack",
      "ImageUrl": "https://steamcdn-a.akamaihd.net/steam/apps/676253/header.jpg?t=1564049730"
    },
    "676254": {
      "Name": "DvDrum - Crash Sound Pack",
      "ImageUrl": "https://steamcdn-a.akamaihd.net/steam/apps/676254/header.jpg?t=1564049135"
    },
    "676255": {
      "Name": "DvDrum - Ride Sound Pack",
      "ImageUrl": "https://steamcdn-a.akamaihd.net/steam/apps/676255/header.jpg?t=1564048954"
    },
    "676256": {
      "Name": "DvDrum - Cowbell Sound Pack",
      "ImageUrl": "https://steamcdn-a.akamaihd.net/steam/apps/676256/header.jpg?t=1564048410"
    },
    "676257": {
      "Name": "DvDrum - Exotic Sound Pack",
      "ImageUrl": "https://steamcdn-a.akamaihd.net/steam/apps/676257/header.jpg?t=1564049178"
    },
    "676258": {
      "Name": "DvDrum - Latin Sound Pack",
      "ImageUrl": "https://steamcdn-a.akamaihd.net/steam/apps/676258/header.jpg?t=1564050217"
    }
  },
  "Name": "DvDrum, Ultimate Drum Simulator!",
  "AppId": "385130",
  "ImageUrl": "https://steamcdn-a.akamaihd.net/steam/apps/385130/header.jpg?t=1560340370",
  "Languages": [
    "english"
  ],
  "Platforms": {
    "windows": true,
    "mac": false,
    "linux": false
  }
}