﻿{
  "Dlcs": {},
  "Name": "Glider Island",
  "AppId": "500110",
  "ImageUrl": "https://steamcdn-a.akamaihd.net/steam/apps/500110/header.jpg?t=1575491192",
  "Languages": [
    "english"
  ],
  "Platforms": {
    "windows": true,
    "mac": false,
    "linux": false
  }
}