{
  "Dlcs": {},
  "Name": "Hive Slayer",
  "AppId": "910190",
  "ImageUrl": "https://steamcdn-a.akamaihd.net/steam/apps/910190/header.jpg?t=1601515948",
  "Languages": [
    "english"
  ],
  "Platforms": {
    "windows": true,
    "mac": false,
    "linux": false
  }
}