{
  "Dlcs": {},
  "Name": "Fly Punch Boom: First Impact!",
  "AppId": "1269150",
  "ImageUrl": "https://steamcdn-a.akamaihd.net/steam/apps/1269150/header.jpg?t=1600272556",
  "Languages": [
    "english",
    "french",
    "italian",
    "german",
    "spanish",
    "japanese",
    "portuguese",
    "portuguese",
    "russian",
    "schinese",
    "latam",
    "tchinese",
    "korean"
  ],
  "Platforms": {
    "windows": true,
    "mac": false,
    "linux": false
  }
}