{
  "Dlcs": {},
  "Name": "心境 VR / Mind VR Exploration",
  "AppId": "1383450",
  "ImageUrl": "https://steamcdn-a.akamaihd.net/steam/apps/1383450/header.jpg?t=1600851631",
  "Languages": [
    "english",
    "schinese"
  ],
  "Platforms": {
    "windows": true,
    "mac": false,
    "linux": false
  }
}