{
  "Dlcs": {
    "552680": {
      "Name": "ASSASSINATION BOX - OST",
      "ImageUrl": "https://steamcdn-a.akamaihd.net/steam/apps/552680/header.jpg?t=1478444450"
    }
  },
  "Name": "ASSASSINATION BOX",
  "AppId": "551550",
  "ImageUrl": "https://steamcdn-a.akamaihd.net/steam/apps/551550/header.jpg?t=1595157453",
  "Languages": [
    "english",
    "russian"
  ],
  "Platforms": {
    "windows": true,
    "mac": false,
    "linux": false
  }
}