[
  {
    "name": "SOFT_TOUCH",
    "defaultvalue": 0,
    "displayName": "Soft Touch",
    "hidden": 0,
    "description": "Give Allen some hope before he goes",
    "icon": "https://steamcdn-a.akamaihd.net/steamcommunity/public/images/apps/80350/b1eb8d8c5a5c1659ae5cb703b92f185f75f7ddeb.jpg",
    "icongray": "https://steamcdn-a.akamaihd.net/steamcommunity/public/images/apps/80350/39bb236f58f9223ac680455e0bfd7c04a61ff22e.jpg"
  },
  {
    "name": "LUSH_LIFE",
    "defaultvalue": 0,
    "displayName": "Lush Life",
    "hidden": 0,
    "description": "Have a few drinks, but you might regret it in the morning",
    "icon": "https://steamcdn-a.akamaihd.net/steamcommunity/public/images/apps/80350/074efb21041f005817b3d42021a2e9439c3776dd.jpg",
    "icongray": "https://steamcdn-a.akamaihd.net/steamcommunity/public/images/apps/80350/39bb236f58f9223ac680455e0bfd7c04a61ff22e.jpg"
  },
  {
    "name": "SOBER",
    "defaultvalue": 0,
    "displayName": "Sober Solidarity",
    "hidden": 0,
    "description": "Keep a clear head, but others might think less of you",
    "icon": "https://steamcdn-a.akamaihd.net/steamcommunity/public/images/apps/80350/584af0055cbb8750f7a0d8f443bd0f8aedb649fb.jpg",
    "icongray": "https://steamcdn-a.akamaihd.net/steamcommunity/public/images/apps/80350/39bb236f58f9223ac680455e0bfd7c04a61ff22e.jpg"
  },
  {
    "name": "CAT_TRICK",
    "defaultvalue": 0,
    "displayName": "Cat Trick",
    "hidden": 0,
    "description": "Distract the cat only once",
    "icon": "https://steamcdn-a.akamaihd.net/steamcommunity/public/images/apps/80350/cd8f4b63d23a6db0460c930b8c40b533308227f2.jpg",
    "icongray": "https://steamcdn-a.akamaihd.net/steamcommunity/public/images/apps/80350/39bb236f58f9223ac680455e0bfd7c04a61ff22e.jpg"
  },
  {
    "name": "LEADING_LADY",
    "defaultvalue": 0,
    "displayName": "Leading Lady",
    "hidden": 0,
    "description": "While holding Frank's script, get though a performance without flubbing a single line",
    "icon": "https://steamcdn-a.akamaihd.net/steamcommunity/public/images/apps/80350/7ef468313d2307f1710c0718a198c81b57fec9e4.jpg",
    "icongray": "https://steamcdn-a.akamaihd.net/steamcommunity/public/images/apps/80350/39bb236f58f9223ac680455e0bfd7c04a61ff22e.jpg"
  },
  {
    "name": "ART_MEDIUM",
    "defaultvalue": 0,
    "displayName": "Art Medium",
    "hidden": 0,
    "description": "Convince Frank that you are an artist on your first try",
    "icon": "https://steamcdn-a.akamaihd.net/steamcommunity/public/images/apps/80350/be07d31c26a1d07d3db742aa09b344b29b484d42.jpg",
    "icongray": "https://steamcdn-a.akamaihd.net/steamcommunity/public/images/apps/80350/39bb236f58f9223ac680455e0bfd7c04a61ff22e.jpg"
  },
  {
    "name": "WONDER_WOMAN",
    "defaultvalue": 0,
    "displayName": "Wonder Woman",
    "hidden": 0,
    "description": "Defeat the Countess with one throw of an improvised lasso",
    "icon": "https://steamcdn-a.akamaihd.net/steamcommunity/public/images/apps/80350/30eaea1020ca8518a2b3cc8079ef6d6585f41fc9.jpg",
    "icongray": "https://steamcdn-a.akamaihd.net/steamcommunity/public/images/apps/80350/39bb236f58f9223ac680455e0bfd7c04a61ff22e.jpg"
  },
  {
    "name": "SOLO",
    "defaultvalue": 0,
    "displayName": "Solo",
    "hidden": 0,
    "description": "Finish the game without asking Joey for a single hint",
    "icon": "https://steamcdn-a.akamaihd.net/steamcommunity/public/images/apps/80350/052151e51e38df1c2d8fb7ee2c8a4bc6bb9b0fa0.jpg",
    "icongray": "https://steamcdn-a.akamaihd.net/steamcommunity/public/images/apps/80350/39bb236f58f9223ac680455e0bfd7c04a61ff22e.jpg"
  },
  {
    "name": "SAVIOR",
    "defaultvalue": 0,
    "displayName": "Reluctant Savior",
    "hidden": 0,
    "description": "Save Charlie Meltzer's life",
    "icon": "https://steamcdn-a.akamaihd.net/steamcommunity/public/images/apps/80350/cd9c9c4b20712f66a96116f371e70cf4d32f77bc.jpg",
    "icongray": "https://steamcdn-a.akamaihd.net/steamcommunity/public/images/apps/80350/39bb236f58f9223ac680455e0bfd7c04a61ff22e.jpg"
  },
  {
    "name": "MEDIUM_WELL_DONE",
    "defaultvalue": 0,
    "displayName": "Medium Well Done",
    "hidden": 0,
    "description": "Finish the game at least once",
    "icon": "https://steamcdn-a.akamaihd.net/steamcommunity/public/images/apps/80350/842b0e4b398e89e346d151b784fe4448443ca1ac.jpg",
    "icongray": "https://steamcdn-a.akamaihd.net/steamcommunity/public/images/apps/80350/39bb236f58f9223ac680455e0bfd7c04a61ff22e.jpg"
  },
  {
    "name": "COMMENTARY",
    "defaultvalue": 0,
    "displayName": "Convergence Commentary",
    "hidden": 0,
    "description": "Finish the game in commentary mode, from the opening menu till the end",
    "icon": "https://steamcdn-a.akamaihd.net/steamcommunity/public/images/apps/80350/35880be566d55b0c5e33aa92efd5e377b4f1c921.jpg",
    "icongray": "https://steamcdn-a.akamaihd.net/steamcommunity/public/images/apps/80350/39bb236f58f9223ac680455e0bfd7c04a61ff22e.jpg"
  },
  {
    "name": "SECRET_FINDER",
    "defaultvalue": 0,
    "displayName": "Secret Finder",
    "hidden": 0,
    "description": "Find the secret extras menu",
    "icon": "https://steamcdn-a.akamaihd.net/steamcommunity/public/images/apps/80350/4cd49a57ea9aa84b7c392b60a9f242aef1a58d40.jpg",
    "icongray": "https://steamcdn-a.akamaihd.net/steamcommunity/public/images/apps/80350/39bb236f58f9223ac680455e0bfd7c04a61ff22e.jpg"
  }
]