{
  "Dlcs": {},
  "Name": "OutBreak Zombie",
  "AppId": "792900",
  "ImageUrl": "https://steamcdn-a.akamaihd.net/steam/apps/792900/header.jpg?t=1518024419",
  "Languages": [
    "english"
  ],
  "Platforms": {
    "windows": true,
    "mac": false,
    "linux": false
  }
}