[
  {
    "name": "dashanmen",
    "defaultvalue": 0,
    "displayName": "Dashanmen",
    "hidden": 0,
    "description": "Will you survive the dashanmen?",
    "icon": "https://steamcdn-a.akamaihd.net/steamcommunity/public/images/apps/423440/af1a1b1c736a1acce04a96d1fe9d29fe361bf676.jpg",
    "icongray": "https://steamcdn-a.akamaihd.net/steamcommunity/public/images/apps/423440/01111b5de1b66b970b2ed8dcfa02bcbc455c633c.jpg"
  },
  {
    "name": "test",
    "defaultvalue": 0,
    "displayName": "Test Mastery",
    "hidden": 0,
    "description": "How will you prove your worth?",
    "icon": "https://steamcdn-a.akamaihd.net/steamcommunity/public/images/apps/423440/aea185fa7dec405597a851830d3730d4964aedd7.jpg",
    "icongray": "https://steamcdn-a.akamaihd.net/steamcommunity/public/images/apps/423440/01111b5de1b66b970b2ed8dcfa02bcbc455c633c.jpg"
  },
  {
    "name": "urn",
    "defaultvalue": 0,
    "displayName": "Urn of Coals",
    "hidden": 0,
    "description": "How far can you carry the urn of coals?",
    "icon": "https://steamcdn-a.akamaihd.net/steamcommunity/public/images/apps/423440/af1a1b1c736a1acce04a96d1fe9d29fe361bf676.jpg",
    "icongray": "https://steamcdn-a.akamaihd.net/steamcommunity/public/images/apps/423440/01111b5de1b66b970b2ed8dcfa02bcbc455c633c.jpg"
  },
  {
    "name": "scroll",
    "defaultvalue": 0,
    "displayName": "Scroll of Destiny",
    "hidden": 0,
    "description": "What lies inside the scroll of destiny?",
    "icon": "https://steamcdn-a.akamaihd.net/steamcommunity/public/images/apps/423440/af1a1b1c736a1acce04a96d1fe9d29fe361bf676.jpg",
    "icongray": "https://steamcdn-a.akamaihd.net/steamcommunity/public/images/apps/423440/01111b5de1b66b970b2ed8dcfa02bcbc455c633c.jpg"
  },
  {
    "name": "foxed",
    "defaultvalue": 0,
    "displayName": "Foxed",
    "hidden": 0,
    "description": "What manner of creature is this?",
    "icon": "https://steamcdn-a.akamaihd.net/steamcommunity/public/images/apps/423440/af1a1b1c736a1acce04a96d1fe9d29fe361bf676.jpg",
    "icongray": "https://steamcdn-a.akamaihd.net/steamcommunity/public/images/apps/423440/01111b5de1b66b970b2ed8dcfa02bcbc455c633c.jpg"
  },
  {
    "name": "foxed2",
    "defaultvalue": 0,
    "displayName": "Double Foxed",
    "hidden": 1,
    "icon": "https://steamcdn-a.akamaihd.net/steamcommunity/public/images/apps/423440/af1a1b1c736a1acce04a96d1fe9d29fe361bf676.jpg",
    "icongray": "https://steamcdn-a.akamaihd.net/steamcommunity/public/images/apps/423440/01111b5de1b66b970b2ed8dcfa02bcbc455c633c.jpg"
  },
  {
    "name": "foxed3",
    "defaultvalue": 0,
    "displayName": "Thrice Foxed",
    "hidden": 1,
    "icon": "https://steamcdn-a.akamaihd.net/steamcommunity/public/images/apps/423440/af1a1b1c736a1acce04a96d1fe9d29fe361bf676.jpg",
    "icongray": "https://steamcdn-a.akamaihd.net/steamcommunity/public/images/apps/423440/01111b5de1b66b970b2ed8dcfa02bcbc455c633c.jpg"
  },
  {
    "name": "foxed4",
    "defaultvalue": 0,
    "displayName": "Foxy Lover",
    "hidden": 1,
    "icon": "https://steamcdn-a.akamaihd.net/steamcommunity/public/images/apps/423440/af1a1b1c736a1acce04a96d1fe9d29fe361bf676.jpg",
    "icongray": "https://steamcdn-a.akamaihd.net/steamcommunity/public/images/apps/423440/01111b5de1b66b970b2ed8dcfa02bcbc455c633c.jpg"
  },
  {
    "name": "frenemy1",
    "defaultvalue": 0,
    "displayName": "Friends or Enemies",
    "hidden": 0,
    "description": "What will your rival become?",
    "icon": "https://steamcdn-a.akamaihd.net/steamcommunity/public/images/apps/423440/af1a1b1c736a1acce04a96d1fe9d29fe361bf676.jpg",
    "icongray": "https://steamcdn-a.akamaihd.net/steamcommunity/public/images/apps/423440/01111b5de1b66b970b2ed8dcfa02bcbc455c633c.jpg"
  },
  {
    "name": "frenemy2",
    "defaultvalue": 0,
    "displayName": "Enemies or Friends",
    "hidden": 1,
    "icon": "https://steamcdn-a.akamaihd.net/steamcommunity/public/images/apps/423440/af1a1b1c736a1acce04a96d1fe9d29fe361bf676.jpg",
    "icongray": "https://steamcdn-a.akamaihd.net/steamcommunity/public/images/apps/423440/01111b5de1b66b970b2ed8dcfa02bcbc455c633c.jpg"
  },
  {
    "name": "frenemy3",
    "defaultvalue": 0,
    "displayName": "Rivals in Love",
    "hidden": 1,
    "icon": "https://steamcdn-a.akamaihd.net/steamcommunity/public/images/apps/423440/af1a1b1c736a1acce04a96d1fe9d29fe361bf676.jpg",
    "icongray": "https://steamcdn-a.akamaihd.net/steamcommunity/public/images/apps/423440/01111b5de1b66b970b2ed8dcfa02bcbc455c633c.jpg"
  },
  {
    "name": "champion",
    "defaultvalue": 0,
    "displayName": "Imperial Champion",
    "hidden": 0,
    "description": "Become the Imperial Champion.",
    "icon": "https://steamcdn-a.akamaihd.net/steamcommunity/public/images/apps/423440/aea185fa7dec405597a851830d3730d4964aedd7.jpg",
    "icongray": "https://steamcdn-a.akamaihd.net/steamcommunity/public/images/apps/423440/01111b5de1b66b970b2ed8dcfa02bcbc455c633c.jpg"
  },
  {
    "name": "schooled",
    "defaultvalue": 0,
    "displayName": "School Master",
    "hidden": 0,
    "description": "Start a kung fu school.",
    "icon": "https://steamcdn-a.akamaihd.net/steamcommunity/public/images/apps/423440/af1a1b1c736a1acce04a96d1fe9d29fe361bf676.jpg",
    "icongray": "https://steamcdn-a.akamaihd.net/steamcommunity/public/images/apps/423440/01111b5de1b66b970b2ed8dcfa02bcbc455c633c.jpg"
  },
  {
    "name": "defender",
    "defaultvalue": 0,
    "displayName": "Style Defender",
    "hidden": 0,
    "description": "Successfully defend your school's honor.",
    "icon": "https://steamcdn-a.akamaihd.net/steamcommunity/public/images/apps/423440/aea185fa7dec405597a851830d3730d4964aedd7.jpg",
    "icongray": "https://steamcdn-a.akamaihd.net/steamcommunity/public/images/apps/423440/01111b5de1b66b970b2ed8dcfa02bcbc455c633c.jpg"
  },
  {
    "name": "heir",
    "defaultvalue": 0,
    "displayName": "Zhuge Heir",
    "hidden": 0,
    "description": "Become heir to the Zhuge style.",
    "icon": "https://steamcdn-a.akamaihd.net/steamcommunity/public/images/apps/423440/07e43523227eb4284e05de1292e888e1e21e4900.jpg",
    "icongray": "https://steamcdn-a.akamaihd.net/steamcommunity/public/images/apps/423440/01111b5de1b66b970b2ed8dcfa02bcbc455c633c.jpg"
  },
  {
    "name": "demonslayer",
    "defaultvalue": 0,
    "displayName": "Demon Slayer",
    "hidden": 0,
    "description": "Kill a demon.",
    "icon": "https://steamcdn-a.akamaihd.net/steamcommunity/public/images/apps/423440/07e43523227eb4284e05de1292e888e1e21e4900.jpg",
    "icongray": "https://steamcdn-a.akamaihd.net/steamcommunity/public/images/apps/423440/01111b5de1b66b970b2ed8dcfa02bcbc455c633c.jpg"
  },
  {
    "name": "mindmaster",
    "defaultvalue": 0,
    "displayName": "Mind Master",
    "hidden": 0,
    "description": "Win a mental martial combat.",
    "icon": "https://steamcdn-a.akamaihd.net/steamcommunity/public/images/apps/423440/07e43523227eb4284e05de1292e888e1e21e4900.jpg",
    "icongray": "https://steamcdn-a.akamaihd.net/steamcommunity/public/images/apps/423440/01111b5de1b66b970b2ed8dcfa02bcbc455c633c.jpg"
  },
  {
    "name": "mountainclimber",
    "defaultvalue": 0,
    "displayName": "Mountain Climber",
    "hidden": 0,
    "description": "Reach the mountain peak.",
    "icon": "https://steamcdn-a.akamaihd.net/steamcommunity/public/images/apps/423440/07e43523227eb4284e05de1292e888e1e21e4900.jpg",
    "icongray": "https://steamcdn-a.akamaihd.net/steamcommunity/public/images/apps/423440/01111b5de1b66b970b2ed8dcfa02bcbc455c633c.jpg"
  },
  {
    "name": "gomaster",
    "defaultvalue": 0,
    "displayName": "Go Master",
    "hidden": 0,
    "description": "Admirably play a game of Go.",
    "icon": "https://steamcdn-a.akamaihd.net/steamcommunity/public/images/apps/423440/07e43523227eb4284e05de1292e888e1e21e4900.jpg",
    "icongray": "https://steamcdn-a.akamaihd.net/steamcommunity/public/images/apps/423440/01111b5de1b66b970b2ed8dcfa02bcbc455c633c.jpg"
  },
  {
    "name": "poet",
    "defaultvalue": 0,
    "displayName": "Poet",
    "hidden": 0,
    "description": "Learn poetry under the master.",
    "icon": "https://steamcdn-a.akamaihd.net/steamcommunity/public/images/apps/423440/07e43523227eb4284e05de1292e888e1e21e4900.jpg",
    "icongray": "https://steamcdn-a.akamaihd.net/steamcommunity/public/images/apps/423440/01111b5de1b66b970b2ed8dcfa02bcbc455c633c.jpg"
  },
  {
    "name": "ghost",
    "defaultvalue": 0,
    "displayName": "Ghost",
    "hidden": 1,
    "icon": "https://steamcdn-a.akamaihd.net/steamcommunity/public/images/apps/423440/af1a1b1c736a1acce04a96d1fe9d29fe361bf676.jpg",
    "icongray": "https://steamcdn-a.akamaihd.net/steamcommunity/public/images/apps/423440/01111b5de1b66b970b2ed8dcfa02bcbc455c633c.jpg"
  },
  {
    "name": "peachsave",
    "defaultvalue": 0,
    "displayName": "Peach Tree",
    "hidden": 1,
    "icon": "https://steamcdn-a.akamaihd.net/steamcommunity/public/images/apps/423440/aea185fa7dec405597a851830d3730d4964aedd7.jpg",
    "icongray": "https://steamcdn-a.akamaihd.net/steamcommunity/public/images/apps/423440/01111b5de1b66b970b2ed8dcfa02bcbc455c633c.jpg"
  },
  {
    "name": "chosen",
    "defaultvalue": 0,
    "displayName": "Chosen",
    "hidden": 0,
    "description": "Chosen to consult Dragon Sage.",
    "icon": "https://steamcdn-a.akamaihd.net/steamcommunity/public/images/apps/423440/aea185fa7dec405597a851830d3730d4964aedd7.jpg",
    "icongray": "https://steamcdn-a.akamaihd.net/steamcommunity/public/images/apps/423440/01111b5de1b66b970b2ed8dcfa02bcbc455c633c.jpg"
  },
  {
    "name": "wellrested",
    "defaultvalue": 0,
    "displayName": "Well Rested",
    "hidden": 1,
    "icon": "https://steamcdn-a.akamaihd.net/steamcommunity/public/images/apps/423440/af1a1b1c736a1acce04a96d1fe9d29fe361bf676.jpg",
    "icongray": "https://steamcdn-a.akamaihd.net/steamcommunity/public/images/apps/423440/01111b5de1b66b970b2ed8dcfa02bcbc455c633c.jpg"
  },
  {
    "name": "dishonored",
    "defaultvalue": 0,
    "displayName": "Dishonored",
    "hidden": 1,
    "icon": "https://steamcdn-a.akamaihd.net/steamcommunity/public/images/apps/423440/af1a1b1c736a1acce04a96d1fe9d29fe361bf676.jpg",
    "icongray": "https://steamcdn-a.akamaihd.net/steamcommunity/public/images/apps/423440/01111b5de1b66b970b2ed8dcfa02bcbc455c633c.jpg"
  }
]