{
  "Dlcs": {},
  "Name": "Botanica: Earthbound Collector's Edition",
  "AppId": "758610",
  "ImageUrl": "https://steamcdn-a.akamaihd.net/steam/apps/758610/header.jpg?t=1531434758",
  "Languages": [
    "english"
  ],
  "Platforms": {
    "windows": true,
    "mac": false,
    "linux": false
  }
}