{
  "Dlcs": {},
  "Name": "Legends of Iskaria: Days of Thieves",
  "AppId": "664530",
  "ImageUrl": "https://steamcdn-a.akamaihd.net/steam/apps/664530/header.jpg?t=1561384125",
  "Languages": [
    "english",
    "french"
  ],
  "Platforms": {
    "windows": true,
    "mac": false,
    "linux": false
  }
}