[
  {
    "name": "ACH_OpenGame",
    "defaultvalue": 0,
    "displayName": "Game Opener",
    "hidden": 0,
    "description": "Successfully open the game once!",
    "icon": "https://steamcdn-a.akamaihd.net/steamcommunity/public/images/apps/411720/aa518ef44e84c3ebcd8915ce04ee242d0055aadd.jpg",
    "icongray": "https://steamcdn-a.akamaihd.net/steamcommunity/public/images/apps/411720/717726e254966f2e8c194b268f2bbfa3cc97ff6d.jpg"
  },
  {
    "name": "ACH_Win_First",
    "defaultvalue": 0,
    "displayName": "Cryptonaut I",
    "hidden": 0,
    "description": "Win your first game of Quantum Lock!",
    "icon": "https://steamcdn-a.akamaihd.net/steamcommunity/public/images/apps/411720/f4893d5409571fb39b2ccd3160447936d4573be4.jpg",
    "icongray": "https://steamcdn-a.akamaihd.net/steamcommunity/public/images/apps/411720/6a2047f03feffd85aafc6e07f9ddfd03b0a6c3c4.jpg"
  },
  {
    "name": "ACH_Win_Fifth",
    "defaultvalue": 0,
    "displayName": "Cryptonaut II",
    "hidden": 0,
    "description": "Wow, you managed to win 5 games go you!",
    "icon": "https://steamcdn-a.akamaihd.net/steamcommunity/public/images/apps/411720/1285877a96469aea050acfbd1f273a5111be9a36.jpg",
    "icongray": "https://steamcdn-a.akamaihd.net/steamcommunity/public/images/apps/411720/c7bc7fd721a93365680620c1919d7b299983c346.jpg"
  },
  {
    "name": "ACH_Win_Tenth",
    "defaultvalue": 0,
    "displayName": "Cryptonaut III",
    "hidden": 0,
    "description": "Holy Moley, You have won 10 whole games, you're a big kid now!",
    "icon": "https://steamcdn-a.akamaihd.net/steamcommunity/public/images/apps/411720/dedacffc9cf093df28cb4d8367539cc99144708c.jpg",
    "icongray": "https://steamcdn-a.akamaihd.net/steamcommunity/public/images/apps/411720/d057586f4ae5d78751ba0a063bd6b106f0e4f234.jpg"
  },
  {
    "name": "ACH_Win_Fiftieth",
    "defaultvalue": 0,
    "displayName": "Cryptonaut IV",
    "hidden": 0,
    "description": "Hot Damn! You've managed to get 50 wins under your belt",
    "icon": "https://steamcdn-a.akamaihd.net/steamcommunity/public/images/apps/411720/815ffa896fb55f0031e57823d97d8f355ed6baf8.jpg",
    "icongray": "https://steamcdn-a.akamaihd.net/steamcommunity/public/images/apps/411720/9e659306d594311a5837e6e38ea30626efc4f084.jpg"
  },
  {
    "name": "ACH_Win_Thousandeth",
    "defaultvalue": 0,
    "displayName": "Cryptonaut V",
    "hidden": 0,
    "description": "You've some how managed to spend enough time to win 1000 games, you are probably a developer!",
    "icon": "https://steamcdn-a.akamaihd.net/steamcommunity/public/images/apps/411720/3a671ab217821e975bfc143f2bc5923846662dde.jpg",
    "icongray": "https://steamcdn-a.akamaihd.net/steamcommunity/public/images/apps/411720/414ee7cc02e79c4398addbfee4027122f4f32751.jpg"
  },
  {
    "name": "ACH_Loss_First",
    "defaultvalue": 0,
    "displayName": "Disconnect Error",
    "hidden": 0,
    "description": "Your first loss! Stay in their champ, you'll get them next time!",
    "icon": "https://steamcdn-a.akamaihd.net/steamcommunity/public/images/apps/411720/0dfdcecbddf3b8bd77e7b725b2b7c43aeaa49df2.jpg",
    "icongray": "https://steamcdn-a.akamaihd.net/steamcommunity/public/images/apps/411720/587ae58e8ee46fa7218f3352c93df0b7f3f5bb77.jpg"
  },
  {
    "name": "ACH_GamesPlayed_First",
    "defaultvalue": 0,
    "displayName": "Simulation Beginner",
    "hidden": 0,
    "description": "You've played 10 Matches!",
    "icon": "https://steamcdn-a.akamaihd.net/steamcommunity/public/images/apps/411720/0c95bf2f467105a798728412492a3daa5b2733b1.jpg",
    "icongray": "https://steamcdn-a.akamaihd.net/steamcommunity/public/images/apps/411720/ecc2d5cf3ba7ddc83f77b1ab089c0f3342f89b07.jpg"
  },
  {
    "name": "ACH_GamesPlayed_Second",
    "defaultvalue": 0,
    "displayName": "Simulation Novice",
    "hidden": 0,
    "description": "You've played 25 Matches!",
    "icon": "https://steamcdn-a.akamaihd.net/steamcommunity/public/images/apps/411720/8eb04f7178bc1ace4ef831d93311291f51e19e83.jpg",
    "icongray": "https://steamcdn-a.akamaihd.net/steamcommunity/public/images/apps/411720/18cea73aa88bbae05ed7cff26a2caad984f1a467.jpg"
  },
  {
    "name": "ACH_GamesPlayed_Third",
    "defaultvalue": 0,
    "displayName": "Simulation Expert",
    "hidden": 0,
    "description": "You've played 100 Matches",
    "icon": "https://steamcdn-a.akamaihd.net/steamcommunity/public/images/apps/411720/a93d8f2b58a7803149f040b455c6169494ebb858.jpg",
    "icongray": "https://steamcdn-a.akamaihd.net/steamcommunity/public/images/apps/411720/33c992d42adbc99b877b5466e5fad7cb730e809d.jpg"
  },
  {
    "name": "ACH_GamesPlayed_Fourth",
    "defaultvalue": 0,
    "displayName": "Simulation God",
    "hidden": 0,
    "description": "Wow! You've played 1000 matches, That's bananas!",
    "icon": "https://steamcdn-a.akamaihd.net/steamcommunity/public/images/apps/411720/957bf10133b19127db7065551b412437ccb054e4.jpg",
    "icongray": "https://steamcdn-a.akamaihd.net/steamcommunity/public/images/apps/411720/06da4ac952c83576d9dbdf69702d94ad39e2f69d.jpg"
  },
  {
    "name": "ACH_1",
    "defaultvalue": 0,
    "displayName": "Clunkered Down",
    "hidden": 0,
    "description": "Finish all 4 waves of Clunkered Down!",
    "icon": "https://steamcdn-a.akamaihd.net/steamcommunity/public/images/apps/411720/3d0c97ece0a6432c02eb11004277fb6ba8b58fdd.jpg",
    "icongray": "https://steamcdn-a.akamaihd.net/steamcommunity/public/images/apps/411720/ea029fbd9903f656998e7b73bc23136c9e51ac3a.jpg"
  },
  {
    "name": "ACH_2",
    "defaultvalue": 0,
    "displayName": "Rhino Rumble",
    "hidden": 0,
    "description": "Finish all 4 waves of Rhino Rumble!",
    "icon": "https://steamcdn-a.akamaihd.net/steamcommunity/public/images/apps/411720/037ea9f4f26b7f5cc74ceaf1d3166178e9e7c28f.jpg",
    "icongray": "https://steamcdn-a.akamaihd.net/steamcommunity/public/images/apps/411720/1eb90042f2808acc1f724d275a5b9356d91683df.jpg"
  },
  {
    "name": "ACH_3",
    "defaultvalue": 0,
    "displayName": "Dance Party",
    "hidden": 0,
    "description": "Finish all 4 waves of Dance Party!",
    "icon": "https://steamcdn-a.akamaihd.net/steamcommunity/public/images/apps/411720/934b7713e986a2b5e943cec2574861facab8b6b1.jpg",
    "icongray": "https://steamcdn-a.akamaihd.net/steamcommunity/public/images/apps/411720/2c8cd37dc0d872e56884d1a727fb93120d49ea5d.jpg"
  },
  {
    "name": "ACH_4",
    "defaultvalue": 0,
    "displayName": "Stalker Hunt",
    "hidden": 0,
    "description": "Finish all 4 waves of Stalker Hunt!",
    "icon": "https://steamcdn-a.akamaihd.net/steamcommunity/public/images/apps/411720/51e57a809332f52a8b895e7dc76533e0a8797ab0.jpg",
    "icongray": "https://steamcdn-a.akamaihd.net/steamcommunity/public/images/apps/411720/ad826cba47c1fcc9277dca89bc9c6e0fbf071eb8.jpg"
  },
  {
    "name": "ACH_5",
    "defaultvalue": 0,
    "displayName": "Skip Trap",
    "hidden": 0,
    "description": "Finish all 4 waves of Skip Trap!",
    "icon": "https://steamcdn-a.akamaihd.net/steamcommunity/public/images/apps/411720/e1f737613fea96bac2a4a6959aaf9411b1f34134.jpg",
    "icongray": "https://steamcdn-a.akamaihd.net/steamcommunity/public/images/apps/411720/0f02fae33d5eae9e22f530468569fcaafc253e02.jpg"
  },
  {
    "name": "ACH_6",
    "defaultvalue": 0,
    "displayName": "Adjudication",
    "hidden": 0,
    "description": "Finish all 4 waves of Adjudication!",
    "icon": "https://steamcdn-a.akamaihd.net/steamcommunity/public/images/apps/411720/69a1ca3c246ba0cdfd169e17cfd017fca43d881a.jpg",
    "icongray": "https://steamcdn-a.akamaihd.net/steamcommunity/public/images/apps/411720/753463cbf7d2a275c6d05149287d9ad1a9d8c45e.jpg"
  },
  {
    "name": "ACH_7",
    "defaultvalue": 0,
    "displayName": "Arbitration",
    "hidden": 0,
    "description": "Finish all 4 waves of Arbitration!",
    "icon": "https://steamcdn-a.akamaihd.net/steamcommunity/public/images/apps/411720/97c93c95eeffd9aa898a8d9b42b0005287562adf.jpg",
    "icongray": "https://steamcdn-a.akamaihd.net/steamcommunity/public/images/apps/411720/91fb69bf367204f7763e2e5fd2a72a0dd4adfb69.jpg"
  },
  {
    "name": "ACH_8",
    "defaultvalue": 0,
    "displayName": "SapTrap",
    "hidden": 0,
    "description": "Finish all 4 waves of SapTrap!",
    "icon": "https://steamcdn-a.akamaihd.net/steamcommunity/public/images/apps/411720/f717ca003f358020b8f0867141f1fbf5e7cdd689.jpg",
    "icongray": "https://steamcdn-a.akamaihd.net/steamcommunity/public/images/apps/411720/0036c13d11a916679398446f959cb6662b3be6ed.jpg"
  },
  {
    "name": "ACH_9",
    "defaultvalue": 0,
    "displayName": "Guardian's Temple",
    "hidden": 0,
    "description": "Finish all 4 waves of Guardian's Temple!",
    "icon": "https://steamcdn-a.akamaihd.net/steamcommunity/public/images/apps/411720/d946d0311b18a71c282ce87e63f71ca4636517e5.jpg",
    "icongray": "https://steamcdn-a.akamaihd.net/steamcommunity/public/images/apps/411720/aa6bc2585f85dd78bc1314dbda62ad312308119a.jpg"
  },
  {
    "name": "ACH_10",
    "defaultvalue": 0,
    "displayName": "Hellfire",
    "hidden": 0,
    "description": "Finish all 4 waves of Hellfire!",
    "icon": "https://steamcdn-a.akamaihd.net/steamcommunity/public/images/apps/411720/fddb05620a65baff2d7fae50c0fb80e6df60fef1.jpg",
    "icongray": "https://steamcdn-a.akamaihd.net/steamcommunity/public/images/apps/411720/7f1ad7381541e0b5ab8a4078c597fa099001d761.jpg"
  }
]