[
  {
    "name": "ACHIEVEMENT_ARTIFACT_1",
    "defaultvalue": 0,
    "displayName": "Artifact 1",
    "hidden": 1,
    "icon": "https://steamcdn-a.akamaihd.net/steamcommunity/public/images/apps/928070/5241a5484dc52a6e50f7685ce78565aa091fbc75.jpg",
    "icongray": "https://steamcdn-a.akamaihd.net/steamcommunity/public/images/apps/928070/8e4a0e7f1bdb1cff8cc204719e1ff71b66068775.jpg"
  },
  {
    "name": "ACHIEVEMENT_ARTIFACT_2",
    "defaultvalue": 0,
    "displayName": "Artifact 2",
    "hidden": 1,
    "icon": "https://steamcdn-a.akamaihd.net/steamcommunity/public/images/apps/928070/f00d4650b40040b8ef17ddb68a79a5ac722b7531.jpg",
    "icongray": "https://steamcdn-a.akamaihd.net/steamcommunity/public/images/apps/928070/43466e5c8ed824b53b9292d11c05008c4691335d.jpg"
  },
  {
    "name": "ACHIEVEMENT_ARTIFACT_3",
    "defaultvalue": 0,
    "displayName": "Artifact 3",
    "hidden": 1,
    "icon": "https://steamcdn-a.akamaihd.net/steamcommunity/public/images/apps/928070/6fdf013a575b5fab9ae0ecae658ed6be99a8c679.jpg",
    "icongray": "https://steamcdn-a.akamaihd.net/steamcommunity/public/images/apps/928070/3de1067621f5159c822bb0934f7ab74d79301904.jpg"
  },
  {
    "name": "ACHIEVEMENT_ARTIFACT_4",
    "defaultvalue": 0,
    "displayName": "Artifact 4",
    "hidden": 1,
    "icon": "https://steamcdn-a.akamaihd.net/steamcommunity/public/images/apps/928070/670a89ec3b9c324de1780e06a2fa289c6812121c.jpg",
    "icongray": "https://steamcdn-a.akamaihd.net/steamcommunity/public/images/apps/928070/9c639355fb738151e4bc58587d1cc569acfcef15.jpg"
  },
  {
    "name": "ACHIEVEMENT_ARTIFACT_5",
    "defaultvalue": 0,
    "displayName": "Artifact 5",
    "hidden": 1,
    "icon": "https://steamcdn-a.akamaihd.net/steamcommunity/public/images/apps/928070/0d9f68b377f44c03ba08e500392745f00e5fb7d7.jpg",
    "icongray": "https://steamcdn-a.akamaihd.net/steamcommunity/public/images/apps/928070/f06bc08de3ed3435de939091dcb90e6b7d234aa1.jpg"
  },
  {
    "name": "ACHIEVEMENT_WATCHTOWERS",
    "defaultvalue": 0,
    "displayName": "Watch Towers",
    "hidden": 0,
    "description": "You found all the watch towers",
    "icon": "https://steamcdn-a.akamaihd.net/steamcommunity/public/images/apps/928070/c923c7cdc0d00600b48d2799f6cffc245f9efa71.jpg",
    "icongray": "https://steamcdn-a.akamaihd.net/steamcommunity/public/images/apps/928070/d7cf582f7787a97adf1eb7deda019c96bdb5e07d.jpg"
  },
  {
    "name": "ACHIEVEMENT_END_1",
    "defaultvalue": 0,
    "displayName": "One Last Goodbye",
    "hidden": 1,
    "icon": "https://steamcdn-a.akamaihd.net/steamcommunity/public/images/apps/928070/f24d4afcfff5b49c1367c838b4f921fb48785537.jpg",
    "icongray": "https://steamcdn-a.akamaihd.net/steamcommunity/public/images/apps/928070/0881937d94e5b8c4f35e0307ae255caafc584369.jpg"
  },
  {
    "name": "ACHIEVEMENT_SPOTTED_MOOSE",
    "defaultvalue": 0,
    "displayName": "Moose Spotted",
    "hidden": 0,
    "description": "You spotted a moose",
    "icon": "https://steamcdn-a.akamaihd.net/steamcommunity/public/images/apps/928070/957066a12fef93ac57d978fd96381a4c3aab6079.jpg",
    "icongray": "https://steamcdn-a.akamaihd.net/steamcommunity/public/images/apps/928070/82402073e0a7535423695c9504f61164952cfc2b.jpg"
  },
  {
    "name": "ACHIEVEMENT_SPOTTED_DEER",
    "defaultvalue": 0,
    "displayName": "Deer Spotted",
    "hidden": 0,
    "description": "You spotted a deer",
    "icon": "https://steamcdn-a.akamaihd.net/steamcommunity/public/images/apps/928070/73b122cee53718619be1b87587491eb292f527c9.jpg",
    "icongray": "https://steamcdn-a.akamaihd.net/steamcommunity/public/images/apps/928070/c7343d26361576dbaa1da6a8996c6b8bd64c6d80.jpg"
  },
  {
    "name": "ACHIEVEMENT_KILLED_WOLF",
    "defaultvalue": 0,
    "displayName": "Wolf Hunter",
    "hidden": 0,
    "description": "You killed a wolf",
    "icon": "https://steamcdn-a.akamaihd.net/steamcommunity/public/images/apps/928070/e11ed547304d6d586eb1cef286c8e39d430ec2cb.jpg",
    "icongray": "https://steamcdn-a.akamaihd.net/steamcommunity/public/images/apps/928070/67f6c9ceb169ee539cbfa3ed8771f51009ece313.jpg"
  },
  {
    "name": "ACHIEVEMENT_KILLED_BEAR",
    "defaultvalue": 0,
    "displayName": "Bear Hunter",
    "hidden": 0,
    "description": "You killed a bear",
    "icon": "https://steamcdn-a.akamaihd.net/steamcommunity/public/images/apps/928070/d4d1d9adee805d5af9c6398396ac71b38b607c18.jpg",
    "icongray": "https://steamcdn-a.akamaihd.net/steamcommunity/public/images/apps/928070/00b7abe972bc18b89d3c22b669525c9799f934a9.jpg"
  },
  {
    "name": "ACHIEVEMENT_RIFLE",
    "defaultvalue": 0,
    "displayName": "Big Game Hunter",
    "hidden": 0,
    "description": "You found the hunting rifle",
    "icon": "https://steamcdn-a.akamaihd.net/steamcommunity/public/images/apps/928070/8a07f0ae40473e09509062b179294c78320fd8be.jpg",
    "icongray": "https://steamcdn-a.akamaihd.net/steamcommunity/public/images/apps/928070/43a7f92c9c8763804f02fcb9be7d7ab196530fcc.jpg"
  },
  {
    "name": "ACHIEVEMENT_KILLED_HARE",
    "defaultvalue": 0,
    "displayName": "Ssh, I'm Hunting Wabbits",
    "hidden": 0,
    "description": "You killed a hare",
    "icon": "https://steamcdn-a.akamaihd.net/steamcommunity/public/images/apps/928070/5ee88211df86d9979e1c72712aa14460b1763c68.jpg",
    "icongray": "https://steamcdn-a.akamaihd.net/steamcommunity/public/images/apps/928070/aaeabe7a4b6e35fd427011879f740db8bb35ced4.jpg"
  },
  {
    "name": "ACHIEVEMENT_SLEUTH",
    "defaultvalue": 0,
    "displayName": "Sleuth",
    "hidden": 0,
    "description": "You have read all the notes",
    "icon": "https://steamcdn-a.akamaihd.net/steamcommunity/public/images/apps/928070/514780d1b25d6afacb32be90279ba09a137a27e7.jpg",
    "icongray": "https://steamcdn-a.akamaihd.net/steamcommunity/public/images/apps/928070/a6c7644aa71cf6d626b60179022a7307ae81f75c.jpg"
  },
  {
    "name": "ACHIEVEMENT_HUNT_HUNTED",
    "defaultvalue": 0,
    "displayName": "Hunt. Or Be Hunted.",
    "hidden": 1,
    "icon": "https://steamcdn-a.akamaihd.net/steamcommunity/public/images/apps/928070/396cf30fb05b6dcb72f4a705dcf6f6935e9fb490.jpg",
    "icongray": "https://steamcdn-a.akamaihd.net/steamcommunity/public/images/apps/928070/003b1df0c4f09af369bec278685344d47928129b.jpg"
  },
  {
    "name": "ACHIEVEMENT_FLASHLIGHT",
    "defaultvalue": 0,
    "displayName": "Light The Way",
    "hidden": 0,
    "description": "You found the flashlight",
    "icon": "https://steamcdn-a.akamaihd.net/steamcommunity/public/images/apps/928070/fb5d8962a9a1cbeed57fca9f298657c0eb9b160d.jpg",
    "icongray": "https://steamcdn-a.akamaihd.net/steamcommunity/public/images/apps/928070/6335d1f9b40d672b7a2c9a9cda86af0446df8c57.jpg"
  },
  {
    "name": "ACHIEVEMENT_SPOTTED_FOX",
    "defaultvalue": 0,
    "displayName": "Fox Spotted",
    "hidden": 0,
    "description": "You spotted a fox",
    "icon": "https://steamcdn-a.akamaihd.net/steamcommunity/public/images/apps/928070/c23fe132fa4d6acd7ebe2e7b36d489699391cd12.jpg",
    "icongray": "https://steamcdn-a.akamaihd.net/steamcommunity/public/images/apps/928070/41f35be7d5f7b144a6f259c51d37ff85bc6f41ff.jpg"
  },
  {
    "name": "ACHIEVEMENT_SPOTTED_LYNX",
    "defaultvalue": 0,
    "displayName": "Lynx Spotted",
    "hidden": 0,
    "description": "You spotted a lynx",
    "icon": "https://steamcdn-a.akamaihd.net/steamcommunity/public/images/apps/928070/cbdcd0448cac046afc7e5bf9a97b4972f98ac1d0.jpg",
    "icongray": "https://steamcdn-a.akamaihd.net/steamcommunity/public/images/apps/928070/726ec03c6baa1c8fa351a623f94a43fa1ded2239.jpg"
  },
  {
    "name": "ACHIEVEMENT_KNIFE",
    "defaultvalue": 0,
    "displayName": "Close Quarters",
    "hidden": 0,
    "description": "You found the hunting knife",
    "icon": "https://steamcdn-a.akamaihd.net/steamcommunity/public/images/apps/928070/73794b770a219f89532273bab5598b506785ec4e.jpg",
    "icongray": "https://steamcdn-a.akamaihd.net/steamcommunity/public/images/apps/928070/424911f341f57d08c74bbed5d8f31978e3cc0330.jpg"
  },
  {
    "name": "ACHIEVEMENT_BREACH",
    "defaultvalue": 0,
    "displayName": "King Of The Castle",
    "hidden": 1,
    "icon": "https://steamcdn-a.akamaihd.net/steamcommunity/public/images/apps/928070/e7d33873c16cd5b7cf45bc18bd999abb54aa9d19.jpg",
    "icongray": "https://steamcdn-a.akamaihd.net/steamcommunity/public/images/apps/928070/c47b94adad34572008d40cf0725b11a3d6a5db77.jpg"
  }
]