[
  {
    "name": "ach_complete",
    "defaultvalue": 0,
    "displayName": "Beach Hunted",
    "hidden": 0,
    "description": "Find every item.",
    "icon": "https://steamcdn-a.akamaihd.net/steamcommunity/public/images/apps/1135030/758d437c82d185d42d8030c531bd2fc71933c65f.jpg",
    "icongray": "https://steamcdn-a.akamaihd.net/steamcommunity/public/images/apps/1135030/74160e6a52b14ce789412cb41b15795627bb8560.jpg"
  }
]