{
  "Dlcs": {
    "694380": {
      "Name": "Castle Explorer - The Dark Below",
      "ImageUrl": "https://steamcdn-a.akamaihd.net/steam/apps/694380/header.jpg?t=1518938403"
    },
    "1334270": {
      "Name": "Castle Explorer - Heroes and rings",
      "ImageUrl": "https://steamcdn-a.akamaihd.net/steam/apps/1334270/header.jpg?t=1601030497"
    }
  },
  "Name": "Castle Explorer",
  "AppId": "531780",
  "ImageUrl": "https://steamcdn-a.akamaihd.net/steam/apps/531780/header.jpg?t=1599903314",
  "Languages": [
    "english"
  ],
  "Platforms": {
    "windows": true,
    "mac": true,
    "linux": true
  }
}