[
  {
    "name": "ACH_WIN_1_GAME",
    "defaultvalue": 0,
    "displayName": "Win one game.",
    "hidden": 0,
    "description": "Win one game.",
    "icon": "https://steamcdn-a.akamaihd.net/steamcommunity/public/images/apps/952970/c13bc753a694dcecbcee9a07edd25f00c32c2bfe.jpg",
    "icongray": "https://steamcdn-a.akamaihd.net/steamcommunity/public/images/apps/952970/57a054549fb0c3741eabe5ec575d0ea8c6c37ccd.jpg"
  },
  {
    "name": "ACH_WIN_5_GAMES",
    "defaultvalue": 0,
    "displayName": "Win 5 games.",
    "hidden": 0,
    "description": "Win 5 games.",
    "icon": "https://steamcdn-a.akamaihd.net/steamcommunity/public/images/apps/952970/d8abb3c94fe75eb6e0ca05ea1fcaa61d83f1e887.jpg",
    "icongray": "https://steamcdn-a.akamaihd.net/steamcommunity/public/images/apps/952970/c4532f02d0b8b1cd8c36f2cda12284136c5d47a2.jpg"
  },
  {
    "name": "ACH_WIN_10_GAMES",
    "defaultvalue": 0,
    "displayName": "Win 10 games.",
    "hidden": 0,
    "description": "Win 10 games.",
    "icon": "https://steamcdn-a.akamaihd.net/steamcommunity/public/images/apps/952970/f21cebb13b7e85270a49403af3bac94b6b1634e3.jpg",
    "icongray": "https://steamcdn-a.akamaihd.net/steamcommunity/public/images/apps/952970/b166c66677f153c426eb3023e41eefbab1d04550.jpg"
  },
  {
    "name": "ACH_WIN_15_GAMES",
    "defaultvalue": 0,
    "displayName": "Win 15 games.",
    "hidden": 0,
    "description": "Win 15 games.",
    "icon": "https://steamcdn-a.akamaihd.net/steamcommunity/public/images/apps/952970/52511009c6a10bf493ec77ee1a68b9af868a9377.jpg",
    "icongray": "https://steamcdn-a.akamaihd.net/steamcommunity/public/images/apps/952970/aa8833fd184ca5b8d3fda3d311d5a6ff0c0db4f7.jpg"
  },
  {
    "name": "ACH_WIN_20_GAMES",
    "defaultvalue": 0,
    "displayName": "Win 20 games.",
    "hidden": 0,
    "description": "Win 20 games.",
    "icon": "https://steamcdn-a.akamaihd.net/steamcommunity/public/images/apps/952970/df0733e2785f488511bbbcfb169463771a6e6944.jpg",
    "icongray": "https://steamcdn-a.akamaihd.net/steamcommunity/public/images/apps/952970/cfa1db9c935c956118e021c12d51ad54294ec78c.jpg"
  },
  {
    "name": "ACH_WIN_25_GAMES",
    "defaultvalue": 0,
    "displayName": "Win 25 games.",
    "hidden": 0,
    "description": "Win 25 games.",
    "icon": "https://steamcdn-a.akamaihd.net/steamcommunity/public/images/apps/952970/9a1b4681a3072b59bc4de52407c1c2906657640e.jpg",
    "icongray": "https://steamcdn-a.akamaihd.net/steamcommunity/public/images/apps/952970/dcbd25595cc892e4f1b143abb8337b45b2a960ab.jpg"
  },
  {
    "name": "ACH_WIN_30_GAMES",
    "defaultvalue": 0,
    "displayName": "Win 30 games.",
    "hidden": 0,
    "description": "Win 30 games.",
    "icon": "https://steamcdn-a.akamaihd.net/steamcommunity/public/images/apps/952970/ea2261b02ed39fd25b0fcabab4b72911ac26d3fd.jpg",
    "icongray": "https://steamcdn-a.akamaihd.net/steamcommunity/public/images/apps/952970/391d1540e54fe00dd190d787cadb1b92a64b2623.jpg"
  },
  {
    "name": "ACH_WIN_35_GAMES",
    "defaultvalue": 0,
    "displayName": "Win 35 games.",
    "hidden": 0,
    "description": "Win 35 games.",
    "icon": "https://steamcdn-a.akamaihd.net/steamcommunity/public/images/apps/952970/b842a55bc28fb2e3e1a5e0f050622af62fb6fc3a.jpg",
    "icongray": "https://steamcdn-a.akamaihd.net/steamcommunity/public/images/apps/952970/bd7bedc4b52a56723c18ece97bd4af2e49486a1e.jpg"
  },
  {
    "name": "ACH_WIN_40_GAMES",
    "defaultvalue": 0,
    "displayName": "Win 40 games.",
    "hidden": 0,
    "description": "Win 40 games.",
    "icon": "https://steamcdn-a.akamaihd.net/steamcommunity/public/images/apps/952970/c4706cbaa53d5976efc7f0650fe94eaffc8dfc81.jpg",
    "icongray": "https://steamcdn-a.akamaihd.net/steamcommunity/public/images/apps/952970/9ae6b8da3051ce0147563ab200f7af54a7bcd4cc.jpg"
  },
  {
    "name": "ACH_WIN_45_GAMES",
    "defaultvalue": 0,
    "displayName": "Win 45 games.",
    "hidden": 0,
    "description": "Win 45 games.",
    "icon": "https://steamcdn-a.akamaihd.net/steamcommunity/public/images/apps/952970/9877ff9912cef9eb6830cacd5dab9870457deb8d.jpg",
    "icongray": "https://steamcdn-a.akamaihd.net/steamcommunity/public/images/apps/952970/181cd5c94dedb094873c25777ad847e3d744b1ef.jpg"
  },
  {
    "name": "ACH_WIN_50_GAMES",
    "defaultvalue": 0,
    "displayName": "Win 50 games.",
    "hidden": 0,
    "description": "Win 50 games.",
    "icon": "https://steamcdn-a.akamaihd.net/steamcommunity/public/images/apps/952970/197513cb889451ea374bb1f4245297bdbc9de86d.jpg",
    "icongray": "https://steamcdn-a.akamaihd.net/steamcommunity/public/images/apps/952970/9626a48ec487a962e5f3adf3168220711cb3b4c6.jpg"
  }
]