{
  "Dlcs": {},
  "Name": "Fear the Dark Unknown: James",
  "AppId": "1322550",
  "ImageUrl": "https://steamcdn-a.akamaihd.net/steam/apps/1322550/header.jpg?t=1598087622",
  "Languages": [
    "english",
    "french",
    "italian",
    "german",
    "spanish",
    "russian"
  ],
  "Platforms": {
    "windows": true,
    "mac": false,
    "linux": false
  }
}