[
  {
    "name": "stat_test",
    "defaultvalue": 0,
    "displayName": "stat_test_display_name"
  },
  {
    "name": "singleplayerScore_singleplayerScore",
    "defaultvalue": 0,
    "displayName": "singleplayerScore_singleplayerScoreDN"
  }
]