{
  "Dlcs": {},
  "Name": "SPACE HUNT",
  "AppId": "831670",
  "ImageUrl": "https://steamcdn-a.akamaihd.net/steam/apps/831670/header.jpg?t=1557568403",
  "Languages": [
    "english"
  ],
  "Platforms": {
    "windows": true,
    "mac": false,
    "linux": false
  }
}