{
  "Dlcs": {},
  "Name": "Disjoint",
  "AppId": "788120",
  "ImageUrl": "https://steamcdn-a.akamaihd.net/steam/apps/788120/header.jpg?t=1527791347",
  "Languages": [
    "english"
  ],
  "Platforms": {
    "windows": true,
    "mac": false,
    "linux": false
  }
}