{
  "Dlcs": {},
  "Name": "The Forgettable Dungeon",
  "AppId": "375810",
  "ImageUrl": "https://steamcdn-a.akamaihd.net/steam/apps/375810/header.jpg?t=1593074009",
  "Languages": [
    "english"
  ],
  "Platforms": {
    "windows": true,
    "mac": false,
    "linux": false
  }
}