{
  "Dlcs": {},
  "Name": "Rencounter",
  "AppId": "431810",
  "ImageUrl": "https://steamcdn-a.akamaihd.net/steam/apps/431810/header.jpg?t=1502288877",
  "Languages": [
    "english",
    "russian",
    "german",
    "hungarian",
    "french"
  ],
  "Platforms": {
    "windows": true,
    "mac": true,
    "linux": true
  }
}