{
  "Dlcs": {},
  "Name": "Inferno - Beyond the 7th Circle",
  "AppId": "1251850",
  "ImageUrl": "https://steamcdn-a.akamaihd.net/steam/apps/1251850/header.jpg?t=1599679595",
  "Languages": [
    "english"
  ],
  "Platforms": {
    "windows": true,
    "mac": false,
    "linux": false
  }
}