[
  {
    "name": "matchesPlayed",
    "defaultvalue": 0,
    "displayName": "Matches Played"
  },
  {
    "name": "minsPlayed",
    "defaultvalue": 0,
    "displayName": "Minutes Played"
  },
  {
    "name": "globalMatchesPlayed",
    "defaultvalue": 0,
    "displayName": "Global Matches Played"
  },
  {
    "name": "playedAsOtomo",
    "defaultvalue": 0,
    "displayName": "Played As Otomo"
  },
  {
    "name": "playedAsKurosawa",
    "defaultvalue": 0,
    "displayName": "Played As Kurosawa"
  },
  {
    "name": "playedAsHiroshige",
    "defaultvalue": 0,
    "displayName": "Played As Hiroshige"
  },
  {
    "name": "playedAsHayao",
    "defaultvalue": 0,
    "displayName": "Played As Hayao"
  },
  {
    "name": "playedAsKabuki",
    "defaultvalue": 0,
    "displayName": "Played As Kabuki"
  },
  {
    "name": "globalMinsPlayed",
    "defaultvalue": 0,
    "displayName": "Global Minutes Played"
  },
  {
    "name": "avgMatchTime",
    "defaultvalue": 0,
    "displayName": "Average Match Time (mins)"
  },
  {
    "name": "globalAvgMatchTime",
    "defaultvalue": 0,
    "displayName": "Global Average Match Time (mins)"
  },
  {
    "name": "PAOtomoChar1",
    "defaultvalue": 0,
    "displayName": "Played As Otomo (Char 1)"
  },
  {
    "name": "PAOtomoChar2",
    "defaultvalue": 0,
    "displayName": "Played As Otomo (Char 2)"
  },
  {
    "name": "PAOtomoChar3",
    "defaultvalue": 0,
    "displayName": "Played As Otomo (Char 3)"
  },
  {
    "name": "PAKurosawaChar1",
    "defaultvalue": 0,
    "displayName": "Played As Kurosawa (Char 1)"
  },
  {
    "name": "PAKurosawaChar2",
    "defaultvalue": 0,
    "displayName": "Played As Kurosawa (Char 2)"
  },
  {
    "name": "PAKurosawaChar3",
    "defaultvalue": 0,
    "displayName": "Played As Kurosawa (Char 3)"
  },
  {
    "name": "PAHiroshigeChar1",
    "defaultvalue": 0,
    "displayName": "Played As Hiroshige (Char 1)"
  },
  {
    "name": "PAHiroshigeChar2",
    "defaultvalue": 0,
    "displayName": "Played As Hiroshige (Char 2)"
  },
  {
    "name": "PAHiroshigeChar3",
    "defaultvalue": 0,
    "displayName": "Played As Hiroshige (Char 3)"
  },
  {
    "name": "PAHayaoChar1",
    "defaultvalue": 0,
    "displayName": "Played As Hayao (Char 1)"
  },
  {
    "name": "PAHayaoChar2",
    "defaultvalue": 0,
    "displayName": "Played As Hayao (Char 2)"
  },
  {
    "name": "PAHayaoChar3",
    "defaultvalue": 0,
    "displayName": "Played As Hayao (Char 2)"
  },
  {
    "name": "PAKabukiChar1",
    "defaultvalue": 0,
    "displayName": "Played As Kabuki (Char 1)"
  },
  {
    "name": "PAKabukiChar2",
    "defaultvalue": 0,
    "displayName": "Played As Kabuki (Char 2)"
  },
  {
    "name": "PAKabukiChar3",
    "defaultvalue": 0,
    "displayName": "Played As Kabuki (Char 3)"
  }
]