{
  "Dlcs": {},
  "Name": "Djilyaro",
  "AppId": "740320",
  "ImageUrl": "https://steamcdn-a.akamaihd.net/steam/apps/740320/header.jpg?t=1511538063",
  "Languages": [
    "english"
  ],
  "Platforms": {
    "windows": true,
    "mac": false,
    "linux": false
  }
}