{
  "Dlcs": {},
  "Name": "Dreamland Defender",
  "AppId": "729520",
  "ImageUrl": "https://steamcdn-a.akamaihd.net/steam/apps/729520/header.jpg?t=1570133962",
  "Languages": [
    "english"
  ],
  "Platforms": {
    "windows": true,
    "mac": false,
    "linux": false
  }
}