{
  "Dlcs": {},
  "Name": "Match Point",
  "AppId": "764890",
  "ImageUrl": "https://steamcdn-a.akamaihd.net/steam/apps/764890/header.jpg?t=1561393223",
  "Languages": [
    "english"
  ],
  "Platforms": {
    "windows": true,
    "mac": false,
    "linux": false
  }
}