{
  "Dlcs": {},
  "Name": "Naked Story",
  "AppId": "1092000",
  "ImageUrl": "https://steamcdn-a.akamaihd.net/steam/apps/1092000/header.jpg?t=1585177102",
  "Languages": [
    "japanese",
    "english"
  ],
  "Platforms": {
    "windows": true,
    "mac": false,
    "linux": false
  }
}