﻿{
  "LevelsWon": {
    "description": "Levels you won",
    "value": 0
  },
  "LevelsJugoWon": {
    "description": "Levels Jugo won",
    "value": 0
  },
  "VoidsCreated": {
    "description": "Voids created",
    "value": 0
  },
  "LevelsStarted": {
    "description": "Levels started",
    "value": 0
  },
  "PerfectScores": {
    "description": "Pefect scores",
    "value": 0
  },
  "DesignScores": {
    "description": "Target scores",
    "value": 0
  },
  "Sacrifices": {
    "description": "Sacrifices to the void",
    "value": 0
  },
  "Grabs": {
    "description": "Grabs by Jugo",
    "value": 0
  },
  "PiesCreated": {
    "description": "Pies created",
    "value": 0
  },
  "OmegasCreated": {
    "description": "Noms created",
    "value": 0
  },
  "NumberOfMoves": {
    "description": "Number of moves",
    "value": 0
  },
  "PlayerHighScore": {
    "description": "High score",
    "value": 0
  },
  "JugoHighScore": {
    "description": "Jugo's high score",
    "value": 0
  }
}