{
  "Dlcs": {},
  "Name": "Ghosts'n DJs",
  "AppId": "1207390",
  "ImageUrl": "https://steamcdn-a.akamaihd.net/steam/apps/1207390/header.jpg?t=1581019279",
  "Languages": [
    "english"
  ],
  "Platforms": {
    "windows": true,
    "mac": true,
    "linux": false
  }
}