{
  "Dlcs": {},
  "Name": "Ashes 2",
  "AppId": "1089590",
  "ImageUrl": "https://steamcdn-a.akamaihd.net/steam/apps/1089590/header.jpg?t=1578136240",
  "Languages": [
    "english",
    "russian"
  ],
  "Platforms": {
    "windows": true,
    "mac": false,
    "linux": false
  }
}