[
  {
    "name": "generator",
    "defaultvalue": 0,
    "displayName": "Generator",
    "hidden": 0,
    "description": "Create Generator",
    "icon": "https://steamcdn-a.akamaihd.net/steamcommunity/public/images/apps/1089590/bafa8b4b41b42262078730054d4bedc0f585149d.jpg",
    "icongray": "https://steamcdn-a.akamaihd.net/steamcommunity/public/images/apps/1089590/da88d23b3873f8675fa187f12a85585a16bce2f6.jpg"
  },
  {
    "name": "Fridge",
    "defaultvalue": 0,
    "displayName": "Fridge",
    "hidden": 0,
    "description": "Create Fridge",
    "icon": "https://steamcdn-a.akamaihd.net/steamcommunity/public/images/apps/1089590/683bfa9749cec487c5fc5191cb9791b9caf0c515.jpg",
    "icongray": "https://steamcdn-a.akamaihd.net/steamcommunity/public/images/apps/1089590/4d0adaeb5db9c62495af02d71396aabd0ed7dbac.jpg"
  },
  {
    "name": "Medicine_Box",
    "defaultvalue": 0,
    "displayName": "Medicine Box",
    "hidden": 0,
    "description": "Create Medicine Box",
    "icon": "https://steamcdn-a.akamaihd.net/steamcommunity/public/images/apps/1089590/f4f3a1d4db87f851c53da746c835d52cbd1fd198.jpg",
    "icongray": "https://steamcdn-a.akamaihd.net/steamcommunity/public/images/apps/1089590/3cbfba9fdba72ac9dce4164c0b752cfde4154dd8.jpg"
  },
  {
    "name": "Weapon_Table",
    "defaultvalue": 0,
    "displayName": "Weapon Table",
    "hidden": 0,
    "description": "Create Weapon Table",
    "icon": "https://steamcdn-a.akamaihd.net/steamcommunity/public/images/apps/1089590/85306848e36893dc50cff840a5ae2617f5714ff5.jpg",
    "icongray": "https://steamcdn-a.akamaihd.net/steamcommunity/public/images/apps/1089590/fd92b3edb827f0cec0191207aea03753c15466a7.jpg"
  },
  {
    "name": "Dumpster",
    "defaultvalue": 0,
    "displayName": "Dumpster",
    "hidden": 0,
    "description": "Create Dumpster",
    "icon": "https://steamcdn-a.akamaihd.net/steamcommunity/public/images/apps/1089590/fd8ceff88b363d64bd2fabd0ef33dbbd03e39aa4.jpg",
    "icongray": "https://steamcdn-a.akamaihd.net/steamcommunity/public/images/apps/1089590/fd47a53fb98a97304e3d1de81fb80597fd461857.jpg"
  },
  {
    "name": "Water_Container",
    "defaultvalue": 0,
    "displayName": "Water Container",
    "hidden": 0,
    "description": "Create Water Container",
    "icon": "https://steamcdn-a.akamaihd.net/steamcommunity/public/images/apps/1089590/890ce72f04ed606775d8746e64ff3e9bb3177bec.jpg",
    "icongray": "https://steamcdn-a.akamaihd.net/steamcommunity/public/images/apps/1089590/ddc539c4d074e63f26ea39d136c1f7113e93ba3b.jpg"
  },
  {
    "name": "Radio_Transmitter",
    "defaultvalue": 0,
    "displayName": "Radio Transmitter",
    "hidden": 0,
    "description": "Create Radio Transmitter",
    "icon": "https://steamcdn-a.akamaihd.net/steamcommunity/public/images/apps/1089590/65010af4ed905a1b989fd219042976ede3e4719a.jpg",
    "icongray": "https://steamcdn-a.akamaihd.net/steamcommunity/public/images/apps/1089590/cd6341440396322490631c96ad06c52b392a1227.jpg"
  },
  {
    "name": "Our_Army",
    "defaultvalue": 0,
    "displayName": "Our Army",
    "hidden": 0,
    "description": "Attract 4 survivors",
    "icon": "https://steamcdn-a.akamaihd.net/steamcommunity/public/images/apps/1089590/70727e95fecc0ed2b5d43ee0bd14d8eea8b0b728.jpg",
    "icongray": "https://steamcdn-a.akamaihd.net/steamcommunity/public/images/apps/1089590/8f94d164901f81ff675c4d704863e503f494aae4.jpg"
  },
  {
    "name": "Junk_collector",
    "defaultvalue": 0,
    "displayName": "Junk Collector",
    "hidden": 0,
    "description": "Collect 500 junk",
    "icon": "https://steamcdn-a.akamaihd.net/steamcommunity/public/images/apps/1089590/bfb6c53a2772f0321c27e83b487274185474fa52.jpg",
    "icongray": "https://steamcdn-a.akamaihd.net/steamcommunity/public/images/apps/1089590/b42584e7437c088efa343e5356433be0cc00f6ae.jpg"
  }
]