[
  {
    "name": "stat_2",
    "defaultvalue": 0,
    "displayName": "Total Kills"
  },
  {
    "name": "stat_3",
    "defaultvalue": 0,
    "displayName": "Times Stabby King was reached"
  },
  {
    "name": "stat_4",
    "defaultvalue": 0,
    "displayName": "Total Deaths"
  },
  {
    "name": "stat_5",
    "defaultvalue": 0,
    "displayName": "Bosses Killed"
  },
  {
    "name": "stat_6",
    "defaultvalue": 0,
    "displayName": "Shades Killed"
  },
  {
    "name": "stat_7",
    "defaultvalue": 0,
    "displayName": "Total Batteries Collected"
  },
  {
    "name": "coins",
    "defaultvalue": 0,
    "displayName": "Stabby Coins"
  },
  {
    "name": "coins_total",
    "defaultvalue": 0,
    "displayName": "Total Coins Collected"
  },
  {
    "name": "stat_11",
    "defaultvalue": 0,
    "displayName": "Total Times Stabby King was reached"
  },
  {
    "name": "records_0",
    "defaultvalue": 0,
    "displayName": "Records Off"
  },
  {
    "name": "records_1",
    "defaultvalue": 0,
    "displayName": "Records On"
  },
  {
    "name": "lighting_0",
    "defaultvalue": 0,
    "displayName": "Lighting On"
  },
  {
    "name": "lighting_1",
    "defaultvalue": 0,
    "displayName": "Lighting Off"
  },
  {
    "name": "bglow_0",
    "defaultvalue": 0,
    "displayName": "Battery Glow On"
  },
  {
    "name": "bglow_1",
    "defaultvalue": 0,
    "displayName": "Battery Glow Off"
  },
  {
    "name": "effects_0",
    "defaultvalue": 0,
    "displayName": "Effects On"
  },
  {
    "name": "effects_1",
    "defaultvalue": 0,
    "displayName": "Effects Off"
  },
  {
    "name": "skin_0",
    "defaultvalue": 0,
    "displayName": "Skin Unranked"
  },
  {
    "name": "skin_1",
    "defaultvalue": 0,
    "displayName": "Skin Novice"
  },
  {
    "name": "skin_2",
    "defaultvalue": 0,
    "displayName": "Skin Bronze"
  },
  {
    "name": "skin_3",
    "defaultvalue": 0,
    "displayName": "Skin Silver"
  },
  {
    "name": "skin_4",
    "defaultvalue": 0,
    "displayName": "Skin Gold"
  },
  {
    "name": "skin_5",
    "defaultvalue": 0,
    "displayName": "Skin Elite"
  },
  {
    "name": "skin_6",
    "defaultvalue": 0,
    "displayName": "Skin Master"
  },
  {
    "name": "skin_7",
    "defaultvalue": 0,
    "displayName": "Skin L Bronze"
  },
  {
    "name": "skin_8",
    "defaultvalue": 0,
    "displayName": "Skin L Silver"
  },
  {
    "name": "skin_9",
    "defaultvalue": 0,
    "displayName": "Skin L Gold"
  },
  {
    "name": "skin_10",
    "defaultvalue": 0,
    "displayName": "Skin L Elite"
  },
  {
    "name": "skin_11",
    "defaultvalue": 0,
    "displayName": "Skin L Master"
  },
  {
    "name": "skin_12",
    "defaultvalue": 0,
    "displayName": "Skin Stabby King"
  },
  {
    "name": "sword_0",
    "defaultvalue": 0,
    "displayName": "Sword Unranked"
  },
  {
    "name": "sword_1",
    "defaultvalue": 0,
    "displayName": "Sword Novice"
  },
  {
    "name": "sword_2",
    "defaultvalue": 0,
    "displayName": "Sword Bronze"
  },
  {
    "name": "sword_3",
    "defaultvalue": 0,
    "displayName": "Sword Silver"
  },
  {
    "name": "sword_4",
    "defaultvalue": 0,
    "displayName": "Sword Gold"
  },
  {
    "name": "sword_5",
    "defaultvalue": 0,
    "displayName": "Sword Elite"
  },
  {
    "name": "sword_6",
    "defaultvalue": 0,
    "displayName": "Sword Master"
  },
  {
    "name": "sword_7",
    "defaultvalue": 0,
    "displayName": "Sword L Bronze"
  },
  {
    "name": "sword_8",
    "defaultvalue": 0,
    "displayName": "Sword L Silver"
  },
  {
    "name": "sword_9",
    "defaultvalue": 0,
    "displayName": "Sword L Gold"
  },
  {
    "name": "sword_10",
    "defaultvalue": 0,
    "displayName": "Sword L Elite"
  },
  {
    "name": "sword_11",
    "defaultvalue": 0,
    "displayName": "Sword L Master"
  },
  {
    "name": "sword_12",
    "defaultvalue": 0,
    "displayName": "Sword Stabby King"
  },
  {
    "name": "gmode_0",
    "defaultvalue": 0,
    "displayName": "Gamemode Simple"
  },
  {
    "name": "gmode_1",
    "defaultvalue": 0,
    "displayName": "Gamemode Bosses"
  },
  {
    "name": "gmode_2",
    "defaultvalue": 0,
    "displayName": "Gamemode Shades"
  },
  {
    "name": "gmode_3",
    "defaultvalue": 0,
    "displayName": "Gamemode Demons"
  },
  {
    "name": "showbonus_0",
    "defaultvalue": 0,
    "displayName": "Show Bonus Off"
  },
  {
    "name": "showbonus_1",
    "defaultvalue": 0,
    "displayName": "Show Bonus On"
  },
  {
    "name": "practicetool",
    "defaultvalue": 0,
    "displayName": "Minutes spent in practice tool"
  },
  {
    "name": "abil_0",
    "defaultvalue": 0,
    "displayName": "Sprint Unlocked"
  },
  {
    "name": "abil_1",
    "defaultvalue": 0,
    "displayName": "Ghost Unlocked"
  },
  {
    "name": "abil_3",
    "defaultvalue": 0,
    "displayName": "Pulse Unlocked"
  },
  {
    "name": "abil_5",
    "defaultvalue": 0,
    "displayName": "Grapple Unlocked"
  },
  {
    "name": "cosmet_0",
    "defaultvalue": 0,
    "displayName": "Cosmetic: Talon Footprints"
  },
  {
    "name": "cosmet_1",
    "defaultvalue": 0,
    "displayName": "Cosmetic: Top Hat"
  },
  {
    "name": "cosmet_2",
    "defaultvalue": 0,
    "displayName": "Cosmetic: Cyclic Hue"
  },
  {
    "name": "quest_0",
    "defaultvalue": 0,
    "displayName": "First Quest"
  },
  {
    "name": "quest_1",
    "defaultvalue": 0,
    "displayName": "Second Quest"
  },
  {
    "name": "quest_2",
    "defaultvalue": 0,
    "displayName": "Third Quest"
  },
  {
    "name": "cosmet_3",
    "defaultvalue": 0,
    "displayName": "Cosmetic: Dual Swords"
  },
  {
    "name": "cosmet_4",
    "defaultvalue": 0,
    "displayName": "Cosmetic: Cape"
  },
  {
    "name": "cosmet_5",
    "defaultvalue": 0,
    "displayName": "Cosmetic: Horn"
  },
  {
    "name": "cosmet_6",
    "defaultvalue": 0,
    "displayName": "Cosmetic: Trail"
  }
]