{
  "Dlcs": {},
  "Name": "Drifting Cloud",
  "AppId": "773710",
  "ImageUrl": "https://steamcdn-a.akamaihd.net/steam/apps/773710/header.jpg?t=1525367033",
  "Languages": [
    "english"
  ],
  "Platforms": {
    "windows": true,
    "mac": false,
    "linux": false
  }
}