[
  {
    "name": "BuildHouse1",
    "defaultvalue": 0,
    "displayName": "Home Sweet Home!",
    "hidden": 0,
    "description": "Build the smallest home.",
    "icon": "https://steamcdn-a.akamaihd.net/steamcommunity/public/images/apps/730050/b06bdf8377826fa4adbff098a2a3073855761102.jpg",
    "icongray": "https://steamcdn-a.akamaihd.net/steamcommunity/public/images/apps/730050/2e7ad01a3fa4c1ce6559773f70a0861a0552bf77.jpg"
  },
  {
    "name": "BuildHouse2",
    "defaultvalue": 0,
    "displayName": "Mind Your Manor!",
    "hidden": 0,
    "description": "Upgrade your home.",
    "icon": "https://steamcdn-a.akamaihd.net/steamcommunity/public/images/apps/730050/e442167ec001761685b13fe8eb16ca1d8ba8ad89.jpg",
    "icongray": "https://steamcdn-a.akamaihd.net/steamcommunity/public/images/apps/730050/94418e0f2604a0814286d237be3e590f31a42172.jpg"
  },
  {
    "name": "BuildHouse3",
    "defaultvalue": 0,
    "displayName": "Estate of Mine!",
    "hidden": 0,
    "description": "Upgrade to the largest home.",
    "icon": "https://steamcdn-a.akamaihd.net/steamcommunity/public/images/apps/730050/2602a78943211f33ffabc8784835ee0b70ec5d8d.jpg",
    "icongray": "https://steamcdn-a.akamaihd.net/steamcommunity/public/images/apps/730050/d1daaf3744101eebe08d55126fc4d78a7d9f635f.jpg"
  },
  {
    "name": "BuildBridge",
    "defaultvalue": 0,
    "displayName": "Made with Love",
    "hidden": 0,
    "description": "Construct a bridge to the east bank.",
    "icon": "https://steamcdn-a.akamaihd.net/steamcommunity/public/images/apps/730050/eec344da8243721f7483e8cea8ca7b7c856fa331.jpg",
    "icongray": "https://steamcdn-a.akamaihd.net/steamcommunity/public/images/apps/730050/a4518553dd94a74defc7eff03d7e06b3d9453a79.jpg"
  },
  {
    "name": "AccessMountains",
    "defaultvalue": 0,
    "displayName": "Get Cracking!",
    "hidden": 0,
    "description": "Remove the boulder blocking the mountains.",
    "icon": "https://steamcdn-a.akamaihd.net/steamcommunity/public/images/apps/730050/67f3a8031cb43e03a7486c31079255e451327f4a.jpg",
    "icongray": "https://steamcdn-a.akamaihd.net/steamcommunity/public/images/apps/730050/061a52a4a3c602a63af8814c5d046788c6d6b6dc.jpg"
  },
  {
    "name": "BuildTownSquare",
    "defaultvalue": 0,
    "displayName": "We Built This City",
    "hidden": 0,
    "description": "Build Pioneer Plaza.",
    "icon": "https://steamcdn-a.akamaihd.net/steamcommunity/public/images/apps/730050/992e4951b99efb4ed6e2e5fc35d4fee016ff6684.jpg",
    "icongray": "https://steamcdn-a.akamaihd.net/steamcommunity/public/images/apps/730050/5bddd269b41e69337447b96605fb622ec97bc4da.jpg"
  },
  {
    "name": "BuildWestExpantion",
    "defaultvalue": 0,
    "displayName": "The West of the Colony",
    "hidden": 0,
    "description": "Build the Western Expansion.",
    "icon": "https://steamcdn-a.akamaihd.net/steamcommunity/public/images/apps/730050/35176cdda74e0f35a3219111ac6158967f07a01b.jpg",
    "icongray": "https://steamcdn-a.akamaihd.net/steamcommunity/public/images/apps/730050/03843b7850476e8811ab1e7a0d26fd694f395d06.jpg"
  },
  {
    "name": "UseWorkbench",
    "defaultvalue": 0,
    "displayName": "Well Read",
    "hidden": 0,
    "description": "Build one of each 5 bookcases.",
    "icon": "https://steamcdn-a.akamaihd.net/steamcommunity/public/images/apps/730050/fb9d824908098282be08ef689a3bbe233e9c8abd.jpg",
    "icongray": "https://steamcdn-a.akamaihd.net/steamcommunity/public/images/apps/730050/993a2a88a4f7a6ca2258ac04631b82637df76162.jpg"
  },
  {
    "name": "Use3DPrinter",
    "defaultvalue": 0,
    "displayName": "3D-lightful!",
    "hidden": 0,
    "description": "Print a processor unit.",
    "icon": "https://steamcdn-a.akamaihd.net/steamcommunity/public/images/apps/730050/97cc7c7fefd10b7d97b228b48fe3cf82ab99dad1.jpg",
    "icongray": "https://steamcdn-a.akamaihd.net/steamcommunity/public/images/apps/730050/9ad6232df4ca2decc7948a248803bb07e19521a8.jpg"
  },
  {
    "name": "UseExtractor",
    "defaultvalue": 0,
    "displayName": "Factory Farm",
    "hidden": 0,
    "description": "Extract seeds from 10 crops in one click.",
    "icon": "https://steamcdn-a.akamaihd.net/steamcommunity/public/images/apps/730050/2efa2b6919f8031e8b837971be6bd10879211271.jpg",
    "icongray": "https://steamcdn-a.akamaihd.net/steamcommunity/public/images/apps/730050/3686dd1e846dcc7d0b71f854dc5d05e96066f084.jpg"
  },
  {
    "name": "UseEasel",
    "defaultvalue": 0,
    "displayName": "It's an Original, I Swear!",
    "hidden": 0,
    "description": "Paint 10 of the same painting.",
    "icon": "https://steamcdn-a.akamaihd.net/steamcommunity/public/images/apps/730050/3dd58537d362cd08fdde5669557acbc829af5076.jpg",
    "icongray": "https://steamcdn-a.akamaihd.net/steamcommunity/public/images/apps/730050/f87ff8bcdbf8a10d7d1fe5852d87732abe817aae.jpg"
  },
  {
    "name": "UsePotteryWheel",
    "defaultvalue": 0,
    "displayName": "Turned Out Great!",
    "hidden": 0,
    "description": "Spin one of each type of pottery.",
    "icon": "https://steamcdn-a.akamaihd.net/steamcommunity/public/images/apps/730050/7b56934920599763bd4720e233e1634a123d5957.jpg",
    "icongray": "https://steamcdn-a.akamaihd.net/steamcommunity/public/images/apps/730050/100fc4334ea860f10770d51c7cbc5587f6d3ad88.jpg"
  },
  {
    "name": "UseKiln",
    "defaultvalue": 0,
    "displayName": "All Fired Up!",
    "hidden": 0,
    "description": "Use 3 pottery kilns at the same time.",
    "icon": "https://steamcdn-a.akamaihd.net/steamcommunity/public/images/apps/730050/1a84992568fddaeff9b2bd3f4e0a70a214bd0c08.jpg",
    "icongray": "https://steamcdn-a.akamaihd.net/steamcommunity/public/images/apps/730050/48cb3dc349f2da1bcccdfe90489930d38033309f.jpg"
  },
  {
    "name": "UseSplicer",
    "defaultvalue": 0,
    "displayName": "Seed Science!",
    "hidden": 0,
    "description": "Use the genetic combiner.",
    "icon": "https://steamcdn-a.akamaihd.net/steamcommunity/public/images/apps/730050/c3b528e4c68db6c9285da8adaa47a3c6ae4cfe24.jpg",
    "icongray": "https://steamcdn-a.akamaihd.net/steamcommunity/public/images/apps/730050/4392d0e4ec2813274673da44279ccb29f371a388.jpg"
  },
  {
    "name": "UseAnimalSplicer",
    "defaultvalue": 0,
    "displayName": "Sweet as Can Be!",
    "hidden": 0,
    "description": "Splice a purple crystal animal genome with the docile trait.",
    "icon": "https://steamcdn-a.akamaihd.net/steamcommunity/public/images/apps/730050/16387035f2182ddf0179996a3ff5993596e912d4.jpg",
    "icongray": "https://steamcdn-a.akamaihd.net/steamcommunity/public/images/apps/730050/e43e6e58ec4bf5ebd9ddacbf4dd7c44e0a02f4dc.jpg"
  },
  {
    "name": "UseAnimalIncubator",
    "defaultvalue": 0,
    "displayName": "Hatching a Plan!",
    "hidden": 0,
    "description": "Incubate an animal with the rare drops trait.",
    "icon": "https://steamcdn-a.akamaihd.net/steamcommunity/public/images/apps/730050/e9f63359a73170401ff24e5ff681b2c162b2ea11.jpg",
    "icongray": "https://steamcdn-a.akamaihd.net/steamcommunity/public/images/apps/730050/c3fc8f107880e7b06d02c89ce652bcc79a11d5c4.jpg"
  },
  {
    "name": "Harvest1",
    "defaultvalue": 0,
    "displayName": "I Can Dig It",
    "hidden": 0,
    "description": "Harvest your first crop.",
    "icon": "https://steamcdn-a.akamaihd.net/steamcommunity/public/images/apps/730050/8a17c95c4a9bb175ac80e5fa3120db3c32e93d50.jpg",
    "icongray": "https://steamcdn-a.akamaihd.net/steamcommunity/public/images/apps/730050/0610bfa6ad31e8ddda941a7d89189c84b41d6262.jpg"
  },
  {
    "name": "Harvest10",
    "defaultvalue": 0,
    "displayName": "They Can Dig It",
    "hidden": 0,
    "description": "Harvest a total of 10 crops.",
    "icon": "https://steamcdn-a.akamaihd.net/steamcommunity/public/images/apps/730050/8b07c1f15788292cdcfe47b5de3437edb82503e8.jpg",
    "icongray": "https://steamcdn-a.akamaihd.net/steamcommunity/public/images/apps/730050/30474630adf7f8c8793bc8e209975a281c4eca88.jpg"
  },
  {
    "name": "Harvest100",
    "defaultvalue": 0,
    "displayName": "Can You Dig It, Baby?",
    "hidden": 0,
    "description": "Harvest a total of 100 crops.",
    "icon": "https://steamcdn-a.akamaihd.net/steamcommunity/public/images/apps/730050/54d14107e2f6d100111f0365d2be7ce9378154e2.jpg",
    "icongray": "https://steamcdn-a.akamaihd.net/steamcommunity/public/images/apps/730050/f7b0a93c3275d12fd0844c05d14703dfaa8025ba.jpg"
  },
  {
    "name": "Fish1",
    "defaultvalue": 0,
    "displayName": "Spears a Fish!",
    "hidden": 0,
    "description": "Catch your first fish.",
    "icon": "https://steamcdn-a.akamaihd.net/steamcommunity/public/images/apps/730050/6e6ae5e987775aad928b471d9df09604c72b0728.jpg",
    "icongray": "https://steamcdn-a.akamaihd.net/steamcommunity/public/images/apps/730050/a6839a8653eec860ccba88a2d0903c912071d5e2.jpg"
  },
  {
    "name": "Fish2",
    "defaultvalue": 0,
    "displayName": "One Fish, Two Fish...",
    "hidden": 0,
    "description": "Two fish with one spear!",
    "icon": "https://steamcdn-a.akamaihd.net/steamcommunity/public/images/apps/730050/69c7dd6f1a56a6af6688d914896319ec2040c327.jpg",
    "icongray": "https://steamcdn-a.akamaihd.net/steamcommunity/public/images/apps/730050/89bde1f740937ea683c0e8d92b9e2c4247817c33.jpg"
  },
  {
    "name": "Fish3",
    "defaultvalue": 0,
    "displayName": "Oh Snapper!",
    "hidden": 0,
    "description": "Woah- three fish with one spear!",
    "icon": "https://steamcdn-a.akamaihd.net/steamcommunity/public/images/apps/730050/6c483a4ec4ee11ad89d1e03d5dffac38044baf04.jpg",
    "icongray": "https://steamcdn-a.akamaihd.net/steamcommunity/public/images/apps/730050/0bf96f06369fbc357aab996b5971ff3778840ef1.jpg"
  },
  {
    "name": "Scrap1",
    "defaultvalue": 0,
    "displayName": "This Pun Is Scrap",
    "hidden": 0,
    "description": "Find your first piece of scrap.",
    "icon": "https://steamcdn-a.akamaihd.net/steamcommunity/public/images/apps/730050/da07b3b5c6ba2cc633379406a61925051b0e9826.jpg",
    "icongray": "https://steamcdn-a.akamaihd.net/steamcommunity/public/images/apps/730050/0b26773b0de23e10d66b9c8c0ed843fb396a511d.jpg"
  },
  {
    "name": "Scrap20",
    "defaultvalue": 0,
    "displayName": "Get Wrecked",
    "hidden": 0,
    "description": "Scrap 20 pieces of pod wreckage.",
    "icon": "https://steamcdn-a.akamaihd.net/steamcommunity/public/images/apps/730050/539e61737835067666dcc8da3424d8de811e9fa6.jpg",
    "icongray": "https://steamcdn-a.akamaihd.net/steamcommunity/public/images/apps/730050/228e0ff6fb7229e16eb37e2d1994359a8c0939a3.jpg"
  },
  {
    "name": "Scrap100",
    "defaultvalue": 0,
    "displayName": "Salvage Garden",
    "hidden": 0,
    "description": "Salvage 100 scrap.",
    "icon": "https://steamcdn-a.akamaihd.net/steamcommunity/public/images/apps/730050/6c2b2ce6e986846282ebcc90b0e3b62362f7a485.jpg",
    "icongray": "https://steamcdn-a.akamaihd.net/steamcommunity/public/images/apps/730050/e4aca190c13e2cbd067db8063268fe348d6e9d49.jpg"
  },
  {
    "name": "Nest1",
    "defaultvalue": 0,
    "displayName": "Robbin' Nests",
    "hidden": 0,
    "description": "Search your first nest for seeds.",
    "icon": "https://steamcdn-a.akamaihd.net/steamcommunity/public/images/apps/730050/aff7380f93e574c0bf13324c685fb03538958ad7.jpg",
    "icongray": "https://steamcdn-a.akamaihd.net/steamcommunity/public/images/apps/730050/31586279fd4b5f21483c9ffee95261efbf3505bc.jpg"
  },
  {
    "name": "Nest10",
    "defaultvalue": 0,
    "displayName": "Pinches Finches",
    "hidden": 0,
    "description": "Search 10 nests.",
    "icon": "https://steamcdn-a.akamaihd.net/steamcommunity/public/images/apps/730050/a9c31d2f4ef0c629f49910b94326b6f4131c4b25.jpg",
    "icongray": "https://steamcdn-a.akamaihd.net/steamcommunity/public/images/apps/730050/b3f528a7eca02c9d05ef91a5275934d02264dbb5.jpg"
  },
  {
    "name": "Nest50",
    "defaultvalue": 0,
    "displayName": "Theft Is Ill-eagle",
    "hidden": 0,
    "description": "Search 50 nests!",
    "icon": "https://steamcdn-a.akamaihd.net/steamcommunity/public/images/apps/730050/92e2e6f3dab1acfbf1fff2dcda218f0d72b2707a.jpg",
    "icongray": "https://steamcdn-a.akamaihd.net/steamcommunity/public/images/apps/730050/a0823f38a42a950c7ebf2978e61cf389fad6da39.jpg"
  },
  {
    "name": "Flowers100",
    "defaultvalue": 0,
    "displayName": "Boo Koo Bouquets",
    "hidden": 0,
    "description": "Pick 100 Flowers!",
    "icon": "https://steamcdn-a.akamaihd.net/steamcommunity/public/images/apps/730050/bfdcec3cc444cbf7322de38533f8ad7aee177ee7.jpg",
    "icongray": "https://steamcdn-a.akamaihd.net/steamcommunity/public/images/apps/730050/3df2162be47d6b07d35b0526434c8f7aa031bde5.jpg"
  },
  {
    "name": "Flowers500",
    "defaultvalue": 0,
    "displayName": "All In for Pollen",
    "hidden": 0,
    "description": "Your true calling in life is flower picker.",
    "icon": "https://steamcdn-a.akamaihd.net/steamcommunity/public/images/apps/730050/c3120d46c11ed95ef3b90ac849aac36068211381.jpg",
    "icongray": "https://steamcdn-a.akamaihd.net/steamcommunity/public/images/apps/730050/5a8f6efce546863fff22d5f4324d9482823f62ec.jpg"
  },
  {
    "name": "UnlockWyatt",
    "defaultvalue": 0,
    "displayName": "Putting Down Roots",
    "hidden": 0,
    "description": "Unlock the botanist.",
    "icon": "https://steamcdn-a.akamaihd.net/steamcommunity/public/images/apps/730050/7e6bf1efb9c86889264ed3aefe9e21fc6f663efc.jpg",
    "icongray": "https://steamcdn-a.akamaihd.net/steamcommunity/public/images/apps/730050/285b1ecbaf49bae1955e37e3b48f390102802ecd.jpg"
  },
  {
    "name": "UnlockMiles",
    "defaultvalue": 0,
    "displayName": "Shopping Spree!",
    "hidden": 0,
    "description": "Unlock the shopkeep.",
    "icon": "https://steamcdn-a.akamaihd.net/steamcommunity/public/images/apps/730050/cfbe6878f55148cb2289d74041c705497a4a2fe1.jpg",
    "icongray": "https://steamcdn-a.akamaihd.net/steamcommunity/public/images/apps/730050/180e06d5a4984c3cbbe29f205b22fc32a1d44bdb.jpg"
  },
  {
    "name": "UnlockZaheen",
    "defaultvalue": 0,
    "displayName": "Do You Do House Calls?",
    "hidden": 0,
    "description": "Unlock the doctor.",
    "icon": "https://steamcdn-a.akamaihd.net/steamcommunity/public/images/apps/730050/d442a334b3a93e2d15e385387456c24ec35c2b90.jpg",
    "icongray": "https://steamcdn-a.akamaihd.net/steamcommunity/public/images/apps/730050/b63853552a4c7e9f91359b76eccd7e81fe3e2059.jpg"
  },
  {
    "name": "UnlockSkye",
    "defaultvalue": 0,
    "displayName": "#nofilter",
    "hidden": 0,
    "description": "Unlock the photojournalist.",
    "icon": "https://steamcdn-a.akamaihd.net/steamcommunity/public/images/apps/730050/67bfdcc9d9c4b3004f661cd6cc64cfeba4745c64.jpg",
    "icongray": "https://steamcdn-a.akamaihd.net/steamcommunity/public/images/apps/730050/8c505c14dd0f148449df98862550b32206b60877.jpg"
  },
  {
    "name": "UnlockRamon",
    "defaultvalue": 0,
    "displayName": "Tell Me Where It Hurts",
    "hidden": 0,
    "description": "Unlock the nurse.",
    "icon": "https://steamcdn-a.akamaihd.net/steamcommunity/public/images/apps/730050/97d61df7e5d6e27375dd62ed2758657bc1c4c4f3.jpg",
    "icongray": "https://steamcdn-a.akamaihd.net/steamcommunity/public/images/apps/730050/927fc0bd820b4bc9747b19ecab70c5288d752958.jpg"
  },
  {
    "name": "UnlockAnthony",
    "defaultvalue": 0,
    "displayName": "I'm Watchin' You",
    "hidden": 0,
    "description": "Unlock the security chief.",
    "icon": "https://steamcdn-a.akamaihd.net/steamcommunity/public/images/apps/730050/c0111e59ad37cf04a591de4ea49ce9636fbf089c.jpg",
    "icongray": "https://steamcdn-a.akamaihd.net/steamcommunity/public/images/apps/730050/1bc78725821897efeddad6e43867a8aba6803cee.jpg"
  },
  {
    "name": "UnlockNessa",
    "defaultvalue": 0,
    "displayName": "Animal House",
    "hidden": 0,
    "description": "Unlock the zoologist.",
    "icon": "https://steamcdn-a.akamaihd.net/steamcommunity/public/images/apps/730050/fd7ce2f579a7abf68c8ea91dadd8703f95eb87da.jpg",
    "icongray": "https://steamcdn-a.akamaihd.net/steamcommunity/public/images/apps/730050/6fa68be027c18bd6fb423a298618d749157e9092.jpg"
  },
  {
    "name": "UnlockKenji",
    "defaultvalue": 0,
    "displayName": "Painting by Numbers",
    "hidden": 0,
    "description": "Unlock the artist.",
    "icon": "https://steamcdn-a.akamaihd.net/steamcommunity/public/images/apps/730050/2fb3908e2c35ebfa6e3eb0da363833a0b92421c7.jpg",
    "icongray": "https://steamcdn-a.akamaihd.net/steamcommunity/public/images/apps/730050/651ad089d003ed080b7add86f9f58b52c26b04da.jpg"
  },
  {
    "name": "UnlockYuki",
    "defaultvalue": 0,
    "displayName": "I'm a Rocket (Wo)man!",
    "hidden": 0,
    "description": "Unlock the singer.",
    "icon": "https://steamcdn-a.akamaihd.net/steamcommunity/public/images/apps/730050/24d38c2b49adf9eca9c8b1768341867846174334.jpg",
    "icongray": "https://steamcdn-a.akamaihd.net/steamcommunity/public/images/apps/730050/4fd3c0d171814b6a110c645a10d53046cb75a237.jpg"
  },
  {
    "name": "UnlockSatine",
    "defaultvalue": 0,
    "displayName": "Reap What You Sew!",
    "hidden": 0,
    "description": "Unlock the tailor.",
    "icon": "https://steamcdn-a.akamaihd.net/steamcommunity/public/images/apps/730050/66d6f2927527d4f2ff64e88d6c883c0debc12fae.jpg",
    "icongray": "https://steamcdn-a.akamaihd.net/steamcommunity/public/images/apps/730050/f3c3836dbc3a18bb93e1279aafec1ea1e6cf51ad.jpg"
  },
  {
    "name": "FriendsEmma",
    "defaultvalue": 0,
    "displayName": "Nailed It!",
    "hidden": 0,
    "description": "Become friends with Rosie.",
    "icon": "https://steamcdn-a.akamaihd.net/steamcommunity/public/images/apps/730050/c32d031cd6def48bd820e98235d633ca1fc64867.jpg",
    "icongray": "https://steamcdn-a.akamaihd.net/steamcommunity/public/images/apps/730050/69bbbc30eec265d408e530785dea30bc03bb578a.jpg"
  },
  {
    "name": "FriendsHailey",
    "defaultvalue": 0,
    "displayName": "With Friends Like These...",
    "hidden": 0,
    "description": "Become friends with Jade.",
    "icon": "https://steamcdn-a.akamaihd.net/steamcommunity/public/images/apps/730050/7907201a51ac5ac8d118ba11c0680a64e284ea92.jpg",
    "icongray": "https://steamcdn-a.akamaihd.net/steamcommunity/public/images/apps/730050/2c7a7d886bad62cc47115ecea3f8b01d5d28065e.jpg"
  },
  {
    "name": "FriendsWyatt",
    "defaultvalue": 0,
    "displayName": "Peas In a Pod",
    "hidden": 0,
    "description": "Become friends with Wyatt.",
    "icon": "https://steamcdn-a.akamaihd.net/steamcommunity/public/images/apps/730050/c99479e0895d3ef5861c7efcbc3a0894f8b9c80a.jpg",
    "icongray": "https://steamcdn-a.akamaihd.net/steamcommunity/public/images/apps/730050/b15782fce71a8c453f82fec93195ed01067034fc.jpg"
  },
  {
    "name": "FriendsMiles",
    "defaultvalue": 0,
    "displayName": "Money Can't Buy You Friends",
    "hidden": 0,
    "description": "Become friends with Miles.",
    "icon": "https://steamcdn-a.akamaihd.net/steamcommunity/public/images/apps/730050/e9fbef7fc3d156f8f986721328d7346ab4dcb89b.jpg",
    "icongray": "https://steamcdn-a.akamaihd.net/steamcommunity/public/images/apps/730050/a91020c044f87cd0ea39122f159686516535a3b9.jpg"
  },
  {
    "name": "FriendsZaheen",
    "defaultvalue": 0,
    "displayName": "Prognosis: Pals",
    "hidden": 0,
    "description": "Become friends with Zaheen.",
    "icon": "https://steamcdn-a.akamaihd.net/steamcommunity/public/images/apps/730050/1212472e084832ba2cd92f09eb239502591f09e9.jpg",
    "icongray": "https://steamcdn-a.akamaihd.net/steamcommunity/public/images/apps/730050/a0ff7d12aa91bd97d4384e565899f941cd4a7ba7.jpg"
  },
  {
    "name": "FriendsSkye",
    "defaultvalue": 0,
    "displayName": "Progressing Swimmingly",
    "hidden": 0,
    "description": "Become friends with Skye.",
    "icon": "https://steamcdn-a.akamaihd.net/steamcommunity/public/images/apps/730050/55af179dedd51b5be58e71539c4ee6059640bf6a.jpg",
    "icongray": "https://steamcdn-a.akamaihd.net/steamcommunity/public/images/apps/730050/171bfedceb6941234137e75f87f4926315110f07.jpg"
  },
  {
    "name": "FriendsRamon",
    "defaultvalue": 0,
    "displayName": "A Double Dose of Friendship",
    "hidden": 0,
    "description": "Become friends with Ramón.",
    "icon": "https://steamcdn-a.akamaihd.net/steamcommunity/public/images/apps/730050/9f0aae861602ee4ede7513ff555a273cc4483892.jpg",
    "icongray": "https://steamcdn-a.akamaihd.net/steamcommunity/public/images/apps/730050/0a2ffcb7d39b2696f234a2e673b9d324796d2ffd.jpg"
  },
  {
    "name": "FriendsAnthony",
    "defaultvalue": 0,
    "displayName": "Friendship Secured",
    "hidden": 0,
    "description": "Become friends with Anthony.",
    "icon": "https://steamcdn-a.akamaihd.net/steamcommunity/public/images/apps/730050/9a35a6161d8eb68b2affeef7c1e3b96d725b5c8d.jpg",
    "icongray": "https://steamcdn-a.akamaihd.net/steamcommunity/public/images/apps/730050/48101a59294ccc7b05a0e69d8d01984226dd776a.jpg"
  },
  {
    "name": "FriendsNessa",
    "defaultvalue": 0,
    "displayName": "Paw-sitively Friends!",
    "hidden": 0,
    "description": "Become friends with Nessa.",
    "icon": "https://steamcdn-a.akamaihd.net/steamcommunity/public/images/apps/730050/2f5b3d4c75f6b1dc084f36410924c0e42d6c2c09.jpg",
    "icongray": "https://steamcdn-a.akamaihd.net/steamcommunity/public/images/apps/730050/6a1d884fa52cb74784e2369ca09db689b09e1a83.jpg"
  },
  {
    "name": "FriendsKenji",
    "defaultvalue": 0,
    "displayName": "The Art of Friendship",
    "hidden": 0,
    "description": "Become friends with Kenji.",
    "icon": "https://steamcdn-a.akamaihd.net/steamcommunity/public/images/apps/730050/3474f881888fb4706280db04fb7e4846a206a148.jpg",
    "icongray": "https://steamcdn-a.akamaihd.net/steamcommunity/public/images/apps/730050/9846e59ca2fd49f029650ab81f091dc4b316aa1f.jpg"
  },
  {
    "name": "FriendsYuki",
    "defaultvalue": 0,
    "displayName": "Friends? Let's Duet!",
    "hidden": 0,
    "description": "Become friends with Yuki.",
    "icon": "https://steamcdn-a.akamaihd.net/steamcommunity/public/images/apps/730050/c1eb6ff2730a6f322c9778703a450b079d2daf01.jpg",
    "icongray": "https://steamcdn-a.akamaihd.net/steamcommunity/public/images/apps/730050/4aa88bfe8af923e6c497951da4ae4e0700ff1800.jpg"
  },
  {
    "name": "FriendsSatine",
    "defaultvalue": 0,
    "displayName": "All Sewn Up",
    "hidden": 0,
    "description": "Become friends with Sasha.",
    "icon": "https://steamcdn-a.akamaihd.net/steamcommunity/public/images/apps/730050/ee45863047f5e668cf4fb8b2eade9ce5607b25c2.jpg",
    "icongray": "https://steamcdn-a.akamaihd.net/steamcommunity/public/images/apps/730050/5fd720ad02551dad345e6e7fe19b6b84d96f595a.jpg"
  },
  {
    "name": "DateSomeone",
    "defaultvalue": 0,
    "displayName": "I, Like, Like 'Like' You",
    "hidden": 0,
    "description": "Date Someone.",
    "icon": "https://steamcdn-a.akamaihd.net/steamcommunity/public/images/apps/730050/ca53a8a0757dc11213149d1ba225934c022ef193.jpg",
    "icongray": "https://steamcdn-a.akamaihd.net/steamcommunity/public/images/apps/730050/ba890649eeb80fbf506c49a8437d4fa102d62196.jpg"
  },
  {
    "name": "MarrySomeone",
    "defaultvalue": 0,
    "displayName": "Vow I've Got You!",
    "hidden": 0,
    "description": "Take commitment vows with someone.",
    "icon": "https://steamcdn-a.akamaihd.net/steamcommunity/public/images/apps/730050/db0c50a23c7613351618e47c577661a4bc959406.jpg",
    "icongray": "https://steamcdn-a.akamaihd.net/steamcommunity/public/images/apps/730050/4a35b3b35e5adb0e0e01b9f4223b93c3a5fd0a6c.jpg"
  },
  {
    "name": "HaveABaby",
    "defaultvalue": 0,
    "displayName": "Heirs Baby!",
    "hidden": 0,
    "description": "Have a child.",
    "icon": "https://steamcdn-a.akamaihd.net/steamcommunity/public/images/apps/730050/201cf5be76001607220ac25db766ababb5cdb6c1.jpg",
    "icongray": "https://steamcdn-a.akamaihd.net/steamcommunity/public/images/apps/730050/850414ec89100221cc6ae8076914b025ea316e2e.jpg"
  },
  {
    "name": "Ship1000",
    "defaultvalue": 0,
    "displayName": "Movin' On Up!",
    "hidden": 0,
    "description": "Ship 1,000 credits worth of items.",
    "icon": "https://steamcdn-a.akamaihd.net/steamcommunity/public/images/apps/730050/f48f26b58f41f6b9ad99f4f2b43dcd44a691f896.jpg",
    "icongray": "https://steamcdn-a.akamaihd.net/steamcommunity/public/images/apps/730050/5cfe96a3ec0ee51d1ea802c3041dedef239db9a6.jpg"
  },
  {
    "name": "Ship100000",
    "defaultvalue": 0,
    "displayName": "Nest Egg",
    "hidden": 0,
    "description": "Ship 25,000 credits worth of items.",
    "icon": "https://steamcdn-a.akamaihd.net/steamcommunity/public/images/apps/730050/3e805fd0911d7aa25ddd6a576ee0302a52e8c9db.jpg",
    "icongray": "https://steamcdn-a.akamaihd.net/steamcommunity/public/images/apps/730050/b0791370f0a59da00c09b31cceeeeeeba0b92c0e.jpg"
  },
  {
    "name": "Ship1000000",
    "defaultvalue": 0,
    "displayName": "The 1%",
    "hidden": 0,
    "description": "Ship 100,000 credits worth of items.",
    "icon": "https://steamcdn-a.akamaihd.net/steamcommunity/public/images/apps/730050/ad8419baaca4dcd8da29aeda0ab3b55d21fe6d9f.jpg",
    "icongray": "https://steamcdn-a.akamaihd.net/steamcommunity/public/images/apps/730050/38c8c382cd7438a90e9c8d9ebe127be1af2ae2b4.jpg"
  },
  {
    "name": "HighYield",
    "defaultvalue": 0,
    "displayName": "Quantity Over Quality",
    "hidden": 0,
    "description": "Create a seed with 3 yield traits.",
    "icon": "https://steamcdn-a.akamaihd.net/steamcommunity/public/images/apps/730050/ef757d7c9e2fe7481ac81b5d5890168f80c7f4b1.jpg",
    "icongray": "https://steamcdn-a.akamaihd.net/steamcommunity/public/images/apps/730050/aa68ca307043c28c232a6a9db278443c7b7f0e68.jpg"
  },
  {
    "name": "HighQuality",
    "defaultvalue": 0,
    "displayName": "Quality Over Quantity",
    "hidden": 0,
    "description": "Create a seed with 4 quality traits.",
    "icon": "https://steamcdn-a.akamaihd.net/steamcommunity/public/images/apps/730050/70e7d10fbe403e4c28ff748767812352e0bd8faf.jpg",
    "icongray": "https://steamcdn-a.akamaihd.net/steamcommunity/public/images/apps/730050/f807000a20f99dbec6a15e00fc54d45cd286b57f.jpg"
  },
  {
    "name": "OceanFish",
    "defaultvalue": 0,
    "displayName": "Deep Sea Angler",
    "hidden": 0,
    "description": "Catch all the ocean fish.",
    "icon": "https://steamcdn-a.akamaihd.net/steamcommunity/public/images/apps/730050/d2a2dbc9276f0506e88fe6c786eca694ecb16114.jpg",
    "icongray": "https://steamcdn-a.akamaihd.net/steamcommunity/public/images/apps/730050/510f59a75bfc3ecdc034411ec8f6594be2fe0045.jpg"
  },
  {
    "name": "PlainsFish",
    "defaultvalue": 0,
    "displayName": "Plains Pro Angler",
    "hidden": 0,
    "description": "Catch all the plains fish.",
    "icon": "https://steamcdn-a.akamaihd.net/steamcommunity/public/images/apps/730050/51576c3b14d00f1bc9295427ab274ecca55e8f1b.jpg",
    "icongray": "https://steamcdn-a.akamaihd.net/steamcommunity/public/images/apps/730050/8eaa312bbfb056c277a5a685a2eaa48c2322949e.jpg"
  },
  {
    "name": "MarshFish",
    "defaultvalue": 0,
    "displayName": "Marsh Master Angler",
    "hidden": 0,
    "description": "Catch all the marsh fish.",
    "icon": "https://steamcdn-a.akamaihd.net/steamcommunity/public/images/apps/730050/02adbe63e8e9ba9d7661603176f6693dca620fd5.jpg",
    "icongray": "https://steamcdn-a.akamaihd.net/steamcommunity/public/images/apps/730050/4b04b2fabfa07d7418d878c49862d50e8485aa95.jpg"
  },
  {
    "name": "MountainFish",
    "defaultvalue": 0,
    "displayName": "Mountain Ace Angler",
    "hidden": 0,
    "description": "Catch all the mountain fish.",
    "icon": "https://steamcdn-a.akamaihd.net/steamcommunity/public/images/apps/730050/16c1376da5ff90bd1f5e29eecb28fcf1be0b019b.jpg",
    "icongray": "https://steamcdn-a.akamaihd.net/steamcommunity/public/images/apps/730050/0696917efadb061ea1e4bb3650291ae338c3443a.jpg"
  },
  {
    "name": "CaveFish",
    "defaultvalue": 0,
    "displayName": "Cave Champion Angler",
    "hidden": 0,
    "description": "Catch all the cave fish.",
    "icon": "https://steamcdn-a.akamaihd.net/steamcommunity/public/images/apps/730050/3226e4e323447dac0a6c9653dce6529e0f8454e3.jpg",
    "icongray": "https://steamcdn-a.akamaihd.net/steamcommunity/public/images/apps/730050/34b655c5b9ed09604961562957931547939c30c0.jpg"
  },
  {
    "name": "PlainsInsects",
    "defaultvalue": 0,
    "displayName": "Plains Insect Pro",
    "hidden": 0,
    "description": "Catch all the plains insects.",
    "icon": "https://steamcdn-a.akamaihd.net/steamcommunity/public/images/apps/730050/6725640a12fbb23247092e00f5385c13987009b8.jpg",
    "icongray": "https://steamcdn-a.akamaihd.net/steamcommunity/public/images/apps/730050/6af875bffa62519ae81e7d08d3fb738b4d0049a2.jpg"
  },
  {
    "name": "MarshInsects",
    "defaultvalue": 0,
    "displayName": "Marsh Insect Master",
    "hidden": 0,
    "description": "Catch all the marsh insects.",
    "icon": "https://steamcdn-a.akamaihd.net/steamcommunity/public/images/apps/730050/2d83bc9749883a717e3e1503f634729b82999349.jpg",
    "icongray": "https://steamcdn-a.akamaihd.net/steamcommunity/public/images/apps/730050/641ddd61d7937b0ec0ce50dca6016f98ecd150ba.jpg"
  },
  {
    "name": "MountainInsects",
    "defaultvalue": 0,
    "displayName": "Mountain Insect Maestro",
    "hidden": 0,
    "description": "Catch all the mountain insects.",
    "icon": "https://steamcdn-a.akamaihd.net/steamcommunity/public/images/apps/730050/d7d36ee0195e2406aa2f95bcd4f5955865dbd87a.jpg",
    "icongray": "https://steamcdn-a.akamaihd.net/steamcommunity/public/images/apps/730050/63925abb6bec752a96d0a0a121e57bf45acda0c9.jpg"
  },
  {
    "name": "Flowers2500",
    "defaultvalue": 0,
    "displayName": "Flower Power",
    "hidden": 0,
    "description": "There are worse things you could be picking.",
    "icon": "https://steamcdn-a.akamaihd.net/steamcommunity/public/images/apps/730050/5bf6d93f92e4f1d550a9d915ec9ccdc3f0fd6f37.jpg",
    "icongray": "https://steamcdn-a.akamaihd.net/steamcommunity/public/images/apps/730050/e33cfdb82e9b40b3db991f1438d6b7a254188c8b.jpg"
  },
  {
    "name": "JustFriends",
    "defaultvalue": 0,
    "displayName": "We Make Great Friends!",
    "hidden": 0,
    "description": "Become good friends with someone.",
    "icon": "https://steamcdn-a.akamaihd.net/steamcommunity/public/images/apps/730050/6a4bbf91a98282cd7ffb3e1a28b467122cd4f458.jpg",
    "icongray": "https://steamcdn-a.akamaihd.net/steamcommunity/public/images/apps/730050/60aad3bf55eb1e550225be0e55f79ead558d6b1e.jpg"
  },
  {
    "name": "DateEveryone",
    "defaultvalue": 0,
    "displayName": "Colony Charmer",
    "hidden": 0,
    "description": "Date 7 people at once.",
    "icon": "https://steamcdn-a.akamaihd.net/steamcommunity/public/images/apps/730050/c8976b918bb7e9fdaaf0069eddd55fd234541a95.jpg",
    "icongray": "https://steamcdn-a.akamaihd.net/steamcommunity/public/images/apps/730050/4f3b783b980b051ad5e96e3d45d09aa16cb69315.jpg"
  }
]