[
  {
    "name": "ACH_LEVEL_1_T",
    "defaultvalue": 0,
    "displayName": "Finish level 1",
    "hidden": 0,
    "description": "level 1",
    "icon": "https://steamcdn-a.akamaihd.net/steamcommunity/public/images/apps/1108620/eb04cdec56b5113d7a1df84200d42f1984c20550.jpg",
    "icongray": "https://steamcdn-a.akamaihd.net/steamcommunity/public/images/apps/1108620/22b54dea167d7687b331b05af2f67b9509d3e9b7.jpg"
  },
  {
    "name": "ACH_LEVEL_2_T",
    "defaultvalue": 0,
    "displayName": "Finish level 2",
    "hidden": 0,
    "description": "level 2",
    "icon": "https://steamcdn-a.akamaihd.net/steamcommunity/public/images/apps/1108620/6b2c675062411548ff521acd6cfd5e9dca36cf18.jpg",
    "icongray": "https://steamcdn-a.akamaihd.net/steamcommunity/public/images/apps/1108620/22b54dea167d7687b331b05af2f67b9509d3e9b7.jpg"
  },
  {
    "name": "ACH_LEVEL_3_T",
    "defaultvalue": 0,
    "displayName": "Finish level 3",
    "hidden": 0,
    "description": "level 3",
    "icon": "https://steamcdn-a.akamaihd.net/steamcommunity/public/images/apps/1108620/a779e79dc0f3a1cf7102cb608d6ecc2651cbf55f.jpg",
    "icongray": "https://steamcdn-a.akamaihd.net/steamcommunity/public/images/apps/1108620/22b54dea167d7687b331b05af2f67b9509d3e9b7.jpg"
  },
  {
    "name": "ACH_LEVEL_4_T",
    "defaultvalue": 0,
    "displayName": "Finish level 4",
    "hidden": 0,
    "description": "level 4",
    "icon": "https://steamcdn-a.akamaihd.net/steamcommunity/public/images/apps/1108620/65fb29fb2d2896fd7d11069d66c954a0279f9062.jpg",
    "icongray": "https://steamcdn-a.akamaihd.net/steamcommunity/public/images/apps/1108620/22b54dea167d7687b331b05af2f67b9509d3e9b7.jpg"
  },
  {
    "name": "ACH_LEVEL_5_T",
    "defaultvalue": 0,
    "displayName": "Finish level 5",
    "hidden": 0,
    "description": "level 5",
    "icon": "https://steamcdn-a.akamaihd.net/steamcommunity/public/images/apps/1108620/86d771cd80f48a4ca3b719aa873ad5f17d1737f0.jpg",
    "icongray": "https://steamcdn-a.akamaihd.net/steamcommunity/public/images/apps/1108620/22b54dea167d7687b331b05af2f67b9509d3e9b7.jpg"
  },
  {
    "name": "ACH_LEVEL_6_T",
    "defaultvalue": 0,
    "displayName": "Finish level 6",
    "hidden": 0,
    "description": "level 6",
    "icon": "https://steamcdn-a.akamaihd.net/steamcommunity/public/images/apps/1108620/a1ba30f07f33bc8c929b5a7ac1e0fe84544f1a23.jpg",
    "icongray": "https://steamcdn-a.akamaihd.net/steamcommunity/public/images/apps/1108620/22b54dea167d7687b331b05af2f67b9509d3e9b7.jpg"
  }
]