﻿[
  {
    "name": "ID_01",
    "defaultvalue": 0,
    "displayName": "The Isle of Beauty",
    "hidden": 0,
    "description": "Finish La Route Corse.",
    "icon": "https://steamcdn-a.akamaihd.net/steamcommunity/public/images/apps/1287590/43944288580303007c77b024ceec08c2dfcd7e98.jpg",
    "icongray": "https://steamcdn-a.akamaihd.net/steamcommunity/public/images/apps/1287590/b259540a049e5ddeb58c1396a9e8884ab011c8e2.jpg"
  },
  {
    "name": "ID_02",
    "defaultvalue": 0,
    "displayName": "Where are the mountain passes?",
    "hidden": 0,
    "description": "Finish the Breizh Cup.",
    "icon": "https://steamcdn-a.akamaihd.net/steamcommunity/public/images/apps/1287590/43944288580303007c77b024ceec08c2dfcd7e98.jpg",
    "icongray": "https://steamcdn-a.akamaihd.net/steamcommunity/public/images/apps/1287590/b259540a049e5ddeb58c1396a9e8884ab011c8e2.jpg"
  },
  {
    "name": "ID_03",
    "defaultvalue": 0,
    "displayName": "Mini tour",
    "hidden": 0,
    "description": "Finish the Open Tour.",
    "icon": "https://steamcdn-a.akamaihd.net/steamcommunity/public/images/apps/1287590/43944288580303007c77b024ceec08c2dfcd7e98.jpg",
    "icongray": "https://steamcdn-a.akamaihd.net/steamcommunity/public/images/apps/1287590/b259540a049e5ddeb58c1396a9e8884ab011c8e2.jpg"
  },
  {
    "name": "ID_04",
    "defaultvalue": 0,
    "displayName": "All terrain",
    "hidden": 0,
    "description": "Finish the Euro Tour.",
    "icon": "https://steamcdn-a.akamaihd.net/steamcommunity/public/images/apps/1287590/43944288580303007c77b024ceec08c2dfcd7e98.jpg",
    "icongray": "https://steamcdn-a.akamaihd.net/steamcommunity/public/images/apps/1287590/b259540a049e5ddeb58c1396a9e8884ab011c8e2.jpg"
  },
  {
    "name": "ID_05",
    "defaultvalue": 0,
    "displayName": "Petite Boucle",
    "hidden": 0,
    "description": "Finish the Critérium du Dauphiné.",
    "icon": "https://steamcdn-a.akamaihd.net/steamcommunity/public/images/apps/1287590/43944288580303007c77b024ceec08c2dfcd7e98.jpg",
    "icongray": "https://steamcdn-a.akamaihd.net/steamcommunity/public/images/apps/1287590/b259540a049e5ddeb58c1396a9e8884ab011c8e2.jpg"
  },
  {
    "name": "ID_06",
    "defaultvalue": 0,
    "displayName": "The Race to the Sun",
    "hidden": 0,
    "description": "Finish Paris-Nice.",
    "icon": "https://steamcdn-a.akamaihd.net/steamcommunity/public/images/apps/1287590/43944288580303007c77b024ceec08c2dfcd7e98.jpg",
    "icongray": "https://steamcdn-a.akamaihd.net/steamcommunity/public/images/apps/1287590/b259540a049e5ddeb58c1396a9e8884ab011c8e2.jpg"
  },
  {
    "name": "ID_07",
    "defaultvalue": 0,
    "displayName": "The Hell of the North",
    "hidden": 0,
    "description": "Finish Paris-Roubaix.",
    "icon": "https://steamcdn-a.akamaihd.net/steamcommunity/public/images/apps/1287590/43944288580303007c77b024ceec08c2dfcd7e98.jpg",
    "icongray": "https://steamcdn-a.akamaihd.net/steamcommunity/public/images/apps/1287590/b259540a049e5ddeb58c1396a9e8884ab011c8e2.jpg"
  },
  {
    "name": "ID_08",
    "defaultvalue": 0,
    "displayName": "De Ronde",
    "hidden": 0,
    "description": "Finish the Vlaanderen Classic.",
    "icon": "https://steamcdn-a.akamaihd.net/steamcommunity/public/images/apps/1287590/43944288580303007c77b024ceec08c2dfcd7e98.jpg",
    "icongray": "https://steamcdn-a.akamaihd.net/steamcommunity/public/images/apps/1287590/b259540a049e5ddeb58c1396a9e8884ab011c8e2.jpg"
  },
  {
    "name": "ID_09",
    "defaultvalue": 0,
    "displayName": "The best of the best",
    "hidden": 0,
    "description": "Finish the World Championship.",
    "icon": "https://steamcdn-a.akamaihd.net/steamcommunity/public/images/apps/1287590/43944288580303007c77b024ceec08c2dfcd7e98.jpg",
    "icongray": "https://steamcdn-a.akamaihd.net/steamcommunity/public/images/apps/1287590/b259540a049e5ddeb58c1396a9e8884ab011c8e2.jpg"
  },
  {
    "name": "ID_10",
    "defaultvalue": 0,
    "displayName": "Grande Boucle",
    "hidden": 0,
    "description": "Finish the Tour de France.",
    "icon": "https://steamcdn-a.akamaihd.net/steamcommunity/public/images/apps/1287590/43944288580303007c77b024ceec08c2dfcd7e98.jpg",
    "icongray": "https://steamcdn-a.akamaihd.net/steamcommunity/public/images/apps/1287590/b259540a049e5ddeb58c1396a9e8884ab011c8e2.jpg"
  },
  {
    "name": "ID_11",
    "defaultvalue": 0,
    "displayName": "Baptism of fire",
    "hidden": 0,
    "description": "Finish a stage.",
    "icon": "https://steamcdn-a.akamaihd.net/steamcommunity/public/images/apps/1287590/43944288580303007c77b024ceec08c2dfcd7e98.jpg",
    "icongray": "https://steamcdn-a.akamaihd.net/steamcommunity/public/images/apps/1287590/b259540a049e5ddeb58c1396a9e8884ab011c8e2.jpg"
  },
  {
    "name": "ID_12",
    "defaultvalue": 0,
    "displayName": "Conquest",
    "hidden": 0,
    "description": "Win La Route Corse.",
    "icon": "https://steamcdn-a.akamaihd.net/steamcommunity/public/images/apps/1287590/a92986f639b75306fec5d2a3ee88c9ac56573204.jpg",
    "icongray": "https://steamcdn-a.akamaihd.net/steamcommunity/public/images/apps/1287590/b259540a049e5ddeb58c1396a9e8884ab011c8e2.jpg"
  },
  {
    "name": "ID_13",
    "defaultvalue": 0,
    "displayName": "Victory",
    "hidden": 0,
    "description": "Win the Breizh Cup.",
    "icon": "https://steamcdn-a.akamaihd.net/steamcommunity/public/images/apps/1287590/a92986f639b75306fec5d2a3ee88c9ac56573204.jpg",
    "icongray": "https://steamcdn-a.akamaihd.net/steamcommunity/public/images/apps/1287590/b259540a049e5ddeb58c1396a9e8884ab011c8e2.jpg"
  },
  {
    "name": "ID_14",
    "defaultvalue": 0,
    "displayName": "Success",
    "hidden": 0,
    "description": "Win the Open Tour.",
    "icon": "https://steamcdn-a.akamaihd.net/steamcommunity/public/images/apps/1287590/a92986f639b75306fec5d2a3ee88c9ac56573204.jpg",
    "icongray": "https://steamcdn-a.akamaihd.net/steamcommunity/public/images/apps/1287590/b259540a049e5ddeb58c1396a9e8884ab011c8e2.jpg"
  },
  {
    "name": "ID_15",
    "defaultvalue": 0,
    "displayName": "Performance",
    "hidden": 0,
    "description": "Win the Euro Tour.",
    "icon": "https://steamcdn-a.akamaihd.net/steamcommunity/public/images/apps/1287590/a92986f639b75306fec5d2a3ee88c9ac56573204.jpg",
    "icongray": "https://steamcdn-a.akamaihd.net/steamcommunity/public/images/apps/1287590/b259540a049e5ddeb58c1396a9e8884ab011c8e2.jpg"
  },
  {
    "name": "ID_16",
    "defaultvalue": 0,
    "displayName": "Feat",
    "hidden": 0,
    "description": "Win the Critérium du Dauphiné.",
    "icon": "https://steamcdn-a.akamaihd.net/steamcommunity/public/images/apps/1287590/a92986f639b75306fec5d2a3ee88c9ac56573204.jpg",
    "icongray": "https://steamcdn-a.akamaihd.net/steamcommunity/public/images/apps/1287590/b259540a049e5ddeb58c1396a9e8884ab011c8e2.jpg"
  },
  {
    "name": "ID_17",
    "defaultvalue": 0,
    "displayName": "Triumph",
    "hidden": 0,
    "description": "Win Paris-Nice.",
    "icon": "https://steamcdn-a.akamaihd.net/steamcommunity/public/images/apps/1287590/fcabc017340fec6cba93cffa3a6b9a391339a885.jpg",
    "icongray": "https://steamcdn-a.akamaihd.net/steamcommunity/public/images/apps/1287590/83fbe3a9ae661e60f9fcf221a0eb2c5b6163b3fb.jpg"
  },
  {
    "name": "ID_18",
    "defaultvalue": 0,
    "displayName": "Exploit",
    "hidden": 0,
    "description": "Win Paris-Roubaix.",
    "icon": "https://steamcdn-a.akamaihd.net/steamcommunity/public/images/apps/1287590/a92986f639b75306fec5d2a3ee88c9ac56573204.jpg",
    "icongray": "https://steamcdn-a.akamaihd.net/steamcommunity/public/images/apps/1287590/b259540a049e5ddeb58c1396a9e8884ab011c8e2.jpg"
  },
  {
    "name": "ID_19",
    "defaultvalue": 0,
    "displayName": "Consecration",
    "hidden": 0,
    "description": "Win the World Championship.",
    "icon": "https://steamcdn-a.akamaihd.net/steamcommunity/public/images/apps/1287590/a92986f639b75306fec5d2a3ee88c9ac56573204.jpg",
    "icongray": "https://steamcdn-a.akamaihd.net/steamcommunity/public/images/apps/1287590/b259540a049e5ddeb58c1396a9e8884ab011c8e2.jpg"
  },
  {
    "name": "ID_20",
    "defaultvalue": 0,
    "displayName": "King of the Hills",
    "hidden": 0,
    "description": "Win the Vlaanderen Classic.",
    "icon": "https://steamcdn-a.akamaihd.net/steamcommunity/public/images/apps/1287590/a92986f639b75306fec5d2a3ee88c9ac56573204.jpg",
    "icongray": "https://steamcdn-a.akamaihd.net/steamcommunity/public/images/apps/1287590/b259540a049e5ddeb58c1396a9e8884ab011c8e2.jpg"
  },
  {
    "name": "ID_21",
    "defaultvalue": 0,
    "displayName": "Pinnacle",
    "hidden": 0,
    "description": "Win the Tour de France.",
    "icon": "https://steamcdn-a.akamaihd.net/steamcommunity/public/images/apps/1287590/a92986f639b75306fec5d2a3ee88c9ac56573204.jpg",
    "icongray": "https://steamcdn-a.akamaihd.net/steamcommunity/public/images/apps/1287590/b259540a049e5ddeb58c1396a9e8884ab011c8e2.jpg"
  },
  {
    "name": "ID_22",
    "defaultvalue": 0,
    "displayName": "Unmitigated",
    "hidden": 0,
    "description": "Win the yellow, green and polka-dot jerseys during the same Tour de France.",
    "icon": "https://steamcdn-a.akamaihd.net/steamcommunity/public/images/apps/1287590/43944288580303007c77b024ceec08c2dfcd7e98.jpg",
    "icongray": "https://steamcdn-a.akamaihd.net/steamcommunity/public/images/apps/1287590/b259540a049e5ddeb58c1396a9e8884ab011c8e2.jpg"
  },
  {
    "name": "ID_23",
    "defaultvalue": 0,
    "displayName": "Scared of the peloton",
    "hidden": 0,
    "description": "Win the combativity classification of the Tour de France.",
    "icon": "https://steamcdn-a.akamaihd.net/steamcommunity/public/images/apps/1287590/43944288580303007c77b024ceec08c2dfcd7e98.jpg",
    "icongray": "https://steamcdn-a.akamaihd.net/steamcommunity/public/images/apps/1287590/83fbe3a9ae661e60f9fcf221a0eb2c5b6163b3fb.jpg"
  },
  {
    "name": "ID_24",
    "defaultvalue": 0,
    "displayName": "Together",
    "hidden": 0,
    "description": "Win the team classification of the Tour de France.",
    "icon": "https://steamcdn-a.akamaihd.net/steamcommunity/public/images/apps/1287590/3d16bce6efe778a91dd40eeead2f4976763aeacd.jpg",
    "icongray": "https://steamcdn-a.akamaihd.net/steamcommunity/public/images/apps/1287590/b259540a049e5ddeb58c1396a9e8884ab011c8e2.jpg"
  },
  {
    "name": "ID_25",
    "defaultvalue": 0,
    "displayName": "Promises",
    "hidden": 0,
    "description": "Win the young rider classification of the Tour de France.",
    "icon": "https://steamcdn-a.akamaihd.net/steamcommunity/public/images/apps/1287590/43944288580303007c77b024ceec08c2dfcd7e98.jpg",
    "icongray": "https://steamcdn-a.akamaihd.net/steamcommunity/public/images/apps/1287590/b259540a049e5ddeb58c1396a9e8884ab011c8e2.jpg"
  },
  {
    "name": "ID_26",
    "defaultvalue": 0,
    "displayName": "Measles",
    "hidden": 0,
    "description": "Win the mountains classification of the Tour de France.",
    "icon": "https://steamcdn-a.akamaihd.net/steamcommunity/public/images/apps/1287590/43944288580303007c77b024ceec08c2dfcd7e98.jpg",
    "icongray": "https://steamcdn-a.akamaihd.net/steamcommunity/public/images/apps/1287590/83fbe3a9ae661e60f9fcf221a0eb2c5b6163b3fb.jpg"
  },
  {
    "name": "ID_27",
    "defaultvalue": 0,
    "displayName": "Big thighs",
    "hidden": 0,
    "description": "Win the points classification of the Tour de France.",
    "icon": "https://steamcdn-a.akamaihd.net/steamcommunity/public/images/apps/1287590/43944288580303007c77b024ceec08c2dfcd7e98.jpg",
    "icongray": "https://steamcdn-a.akamaihd.net/steamcommunity/public/images/apps/1287590/b259540a049e5ddeb58c1396a9e8884ab011c8e2.jpg"
  },
  {
    "name": "ID_28",
    "defaultvalue": 0,
    "displayName": "Among the legendary",
    "hidden": 0,
    "description": "Win the Tour de France in Legend difficulty.",
    "icon": "https://steamcdn-a.akamaihd.net/steamcommunity/public/images/apps/1287590/0683c9c85298e9413bc29695d032ebc297d06874.jpg",
    "icongray": "https://steamcdn-a.akamaihd.net/steamcommunity/public/images/apps/1287590/b259540a049e5ddeb58c1396a9e8884ab011c8e2.jpg"
  },
  {
    "name": "ID_29",
    "defaultvalue": 0,
    "displayName": "Mister Paris-Roubaix",
    "hidden": 0,
    "description": "Win Paris-Roubaix in Legend difficulty.",
    "icon": "https://steamcdn-a.akamaihd.net/steamcommunity/public/images/apps/1287590/a92986f639b75306fec5d2a3ee88c9ac56573204.jpg",
    "icongray": "https://steamcdn-a.akamaihd.net/steamcommunity/public/images/apps/1287590/b259540a049e5ddeb58c1396a9e8884ab011c8e2.jpg"
  },
  {
    "name": "ID_30",
    "defaultvalue": 0,
    "displayName": "King of the world",
    "hidden": 0,
    "description": "Win the World Championship in Legend difficulty.",
    "icon": "https://steamcdn-a.akamaihd.net/steamcommunity/public/images/apps/1287590/a92986f639b75306fec5d2a3ee88c9ac56573204.jpg",
    "icongray": "https://steamcdn-a.akamaihd.net/steamcommunity/public/images/apps/1287590/b259540a049e5ddeb58c1396a9e8884ab011c8e2.jpg"
  },
  {
    "name": "ID_31",
    "defaultvalue": 0,
    "displayName": "King of Flanders",
    "hidden": 0,
    "description": "Win the Vlaanderen Classic in Legend difficulty.",
    "icon": "https://steamcdn-a.akamaihd.net/steamcommunity/public/images/apps/1287590/a92986f639b75306fec5d2a3ee88c9ac56573204.jpg",
    "icongray": "https://steamcdn-a.akamaihd.net/steamcommunity/public/images/apps/1287590/b259540a049e5ddeb58c1396a9e8884ab011c8e2.jpg"
  },
  {
    "name": "ID_32",
    "defaultvalue": 0,
    "displayName": "Team of the year",
    "hidden": 0,
    "description": "Come top of the team Pro Cycling ranking (Pro Team/Pro Cyclist mode).",
    "icon": "https://steamcdn-a.akamaihd.net/steamcommunity/public/images/apps/1287590/a92986f639b75306fec5d2a3ee88c9ac56573204.jpg",
    "icongray": "https://steamcdn-a.akamaihd.net/steamcommunity/public/images/apps/1287590/b259540a049e5ddeb58c1396a9e8884ab011c8e2.jpg"
  },
  {
    "name": "ID_33",
    "defaultvalue": 0,
    "displayName": "Pantheon",
    "hidden": 0,
    "description": "Come top of the individual Pro Cycling ranking (Pro Team/Pro Cyclist).",
    "icon": "https://steamcdn-a.akamaihd.net/steamcommunity/public/images/apps/1287590/a92986f639b75306fec5d2a3ee88c9ac56573204.jpg",
    "icongray": "https://steamcdn-a.akamaihd.net/steamcommunity/public/images/apps/1287590/b259540a049e5ddeb58c1396a9e8884ab011c8e2.jpg"
  },
  {
    "name": "ID_34",
    "defaultvalue": 0,
    "displayName": "Mastery",
    "hidden": 0,
    "description": "Win a gold medal (Downhill challenge mode).",
    "icon": "https://steamcdn-a.akamaihd.net/steamcommunity/public/images/apps/1287590/43944288580303007c77b024ceec08c2dfcd7e98.jpg",
    "icongray": "https://steamcdn-a.akamaihd.net/steamcommunity/public/images/apps/1287590/b259540a049e5ddeb58c1396a9e8884ab011c8e2.jpg"
  },
  {
    "name": "ID_35",
    "defaultvalue": 0,
    "displayName": "Total mastery",
    "hidden": 0,
    "description": "Win all the gold medals (Challenge mode).",
    "icon": "https://steamcdn-a.akamaihd.net/steamcommunity/public/images/apps/1287590/a92986f639b75306fec5d2a3ee88c9ac56573204.jpg",
    "icongray": "https://steamcdn-a.akamaihd.net/steamcommunity/public/images/apps/1287590/b259540a049e5ddeb58c1396a9e8884ab011c8e2.jpg"
  },
  {
    "name": "ID_36",
    "defaultvalue": 0,
    "displayName": "Fast",
    "hidden": 0,
    "description": "Win a gold medal (Sprint Challenge mode).",
    "icon": "https://steamcdn-a.akamaihd.net/steamcommunity/public/images/apps/1287590/43944288580303007c77b024ceec08c2dfcd7e98.jpg",
    "icongray": "https://steamcdn-a.akamaihd.net/steamcommunity/public/images/apps/1287590/b259540a049e5ddeb58c1396a9e8884ab011c8e2.jpg"
  },
  {
    "name": "ID_37",
    "defaultvalue": 0,
    "displayName": "So close!",
    "hidden": 0,
    "description": "Do a victory celebration when finishing 2nd.",
    "icon": "https://steamcdn-a.akamaihd.net/steamcommunity/public/images/apps/1287590/43944288580303007c77b024ceec08c2dfcd7e98.jpg",
    "icongray": "https://steamcdn-a.akamaihd.net/steamcommunity/public/images/apps/1287590/b259540a049e5ddeb58c1396a9e8884ab011c8e2.jpg"
  },
  {
    "name": "ID_38",
    "defaultvalue": 0,
    "displayName": "Rainbow Jersey ",
    "hidden": 0,
    "description": "Win the World Championship with your Pro Leader (Pro Leader mode).",
    "icon": "https://steamcdn-a.akamaihd.net/steamcommunity/public/images/apps/1287590/a92986f639b75306fec5d2a3ee88c9ac56573204.jpg",
    "icongray": "https://steamcdn-a.akamaihd.net/steamcommunity/public/images/apps/1287590/b259540a049e5ddeb58c1396a9e8884ab011c8e2.jpg"
  },
  {
    "name": "ID_39",
    "defaultvalue": 0,
    "displayName": "Doyenne",
    "hidden": 0,
    "description": "Finish Liège-Bastogne-Liège.",
    "icon": "https://steamcdn-a.akamaihd.net/steamcommunity/public/images/apps/1287590/43944288580303007c77b024ceec08c2dfcd7e98.jpg",
    "icongray": "https://steamcdn-a.akamaihd.net/steamcommunity/public/images/apps/1287590/b259540a049e5ddeb58c1396a9e8884ab011c8e2.jpg"
  },
  {
    "name": "ID_40",
    "defaultvalue": 0,
    "displayName": "Monument",
    "hidden": 0,
    "description": "Win Liège-Bastogne-Liège.",
    "icon": "https://steamcdn-a.akamaihd.net/steamcommunity/public/images/apps/1287590/a92986f639b75306fec5d2a3ee88c9ac56573204.jpg",
    "icongray": "https://steamcdn-a.akamaihd.net/steamcommunity/public/images/apps/1287590/b259540a049e5ddeb58c1396a9e8884ab011c8e2.jpg"
  },
  {
    "name": "ID_41",
    "defaultvalue": 0,
    "displayName": "King of the Ardennes",
    "hidden": 0,
    "description": "Win Liège-Bastogne-Liège in Legend difficulty.",
    "icon": "https://steamcdn-a.akamaihd.net/steamcommunity/public/images/apps/1287590/a92986f639b75306fec5d2a3ee88c9ac56573204.jpg",
    "icongray": "https://steamcdn-a.akamaihd.net/steamcommunity/public/images/apps/1287590/b259540a049e5ddeb58c1396a9e8884ab011c8e2.jpg"
  }
]