﻿{
  "Dlcs": {
    "316670": {
      "Name": "Cognition - Original Soundtrack Vol 1",
      "ImageUrl": "https://steamcdn-a.akamaihd.net/steam/apps/316670/header.jpg?t=1478025298"
    },
    "316671": {
      "Name": "Cognition - Original Soundtrack Vol 2",
      "ImageUrl": "https://steamcdn-a.akamaihd.net/steam/apps/316671/header.jpg?t=1478025301"
    }
  },
  "Name": "Cognition: An Erica Reed Thriller",
  "AppId": "242780",
  "ImageUrl": "https://steamcdn-a.akamaihd.net/steam/apps/242780/header.jpg?t=1478025368",
  "Languages": [
    "english",
    "italian",
    "german"
  ],
  "Platforms": {
    "windows": true,
    "mac": true,
    "linux": false
  }
}