﻿{
  "Dlcs": {},
  "Name": "RacetronicVR",
  "AppId": "542790",
  "ImageUrl": "https://steamcdn-a.akamaihd.net/steam/apps/542790/header.jpg?t=1510696192",
  "Languages": [
    "english"
  ],
  "Platforms": {
    "windows": true,
    "mac": false,
    "linux": false
  }
}