{
  "Dlcs": {},
  "Name": "Dark Gnome",
  "AppId": "960330",
  "ImageUrl": "https://steamcdn-a.akamaihd.net/steam/apps/960330/header.jpg?t=1583838644",
  "Languages": [
    "english",
    "german",
    "polish"
  ],
  "Platforms": {
    "windows": true,
    "mac": false,
    "linux": false
  }
}