{
  "Dlcs": {},
  "Name": "The Glade",
  "AppId": "637640",
  "ImageUrl": "https://steamcdn-a.akamaihd.net/steam/apps/637640/header.jpg?t=1496426571",
  "Languages": [
    "english"
  ],
  "Platforms": {
    "windows": true,
    "mac": false,
    "linux": false
  }
}