[
  {
    "name": "Trump",
    "defaultvalue": 0,
    "displayName": "Trump",
    "hidden": 0,
    "description": "Start the game",
    "icon": "https://steamcdn-a.akamaihd.net/steamcommunity/public/images/apps/791750/6f44ea25ee37f513f3739e4912046c5c50eb6255.jpg",
    "icongray": "https://steamcdn-a.akamaihd.net/steamcommunity/public/images/apps/791750/80956434dc5bdc53830fc4ea8fa22d2ea5dedc3d.jpg"
  },
  {
    "name": "Depressed Ghost",
    "defaultvalue": 0,
    "displayName": "Depressed Ghost",
    "hidden": 0,
    "description": "Completed level 1",
    "icon": "https://steamcdn-a.akamaihd.net/steamcommunity/public/images/apps/791750/468cedf1aec844a4cf6becdac06e29223b69fa1e.jpg",
    "icongray": "https://steamcdn-a.akamaihd.net/steamcommunity/public/images/apps/791750/80956434dc5bdc53830fc4ea8fa22d2ea5dedc3d.jpg"
  },
  {
    "name": "Uganda Warrior W.T.B",
    "defaultvalue": 0,
    "displayName": "Uganda Warrior W.T.B",
    "hidden": 0,
    "description": "Completed level 2",
    "icon": "https://steamcdn-a.akamaihd.net/steamcommunity/public/images/apps/791750/5e68c2fbbdbe46ce361822119f803c19e2e2f6a9.jpg",
    "icongray": "https://steamcdn-a.akamaihd.net/steamcommunity/public/images/apps/791750/80956434dc5bdc53830fc4ea8fa22d2ea5dedc3d.jpg"
  },
  {
    "name": "Trava",
    "defaultvalue": 0,
    "displayName": "Trava",
    "hidden": 0,
    "description": "Completed level 4",
    "icon": "https://steamcdn-a.akamaihd.net/steamcommunity/public/images/apps/791750/d71f06cea00dc65d28010c8ab667dd502b9ba8c5.jpg",
    "icongray": "https://steamcdn-a.akamaihd.net/steamcommunity/public/images/apps/791750/80956434dc5bdc53830fc4ea8fa22d2ea5dedc3d.jpg"
  },
  {
    "name": "Bitcoin",
    "defaultvalue": 0,
    "displayName": "Bitcoin",
    "hidden": 0,
    "description": "Completed level 6",
    "icon": "https://steamcdn-a.akamaihd.net/steamcommunity/public/images/apps/791750/9c04cd4c4dc754f4b98921cabc609672a4458724.jpg",
    "icongray": "https://steamcdn-a.akamaihd.net/steamcommunity/public/images/apps/791750/80956434dc5bdc53830fc4ea8fa22d2ea5dedc3d.jpg"
  },
  {
    "name": "Red animal",
    "defaultvalue": 0,
    "displayName": "Red animal",
    "hidden": 0,
    "description": "Completed level 8",
    "icon": "https://steamcdn-a.akamaihd.net/steamcommunity/public/images/apps/791750/151b39c1bbcf988f02cd9369656776e6aefc96a3.jpg",
    "icongray": "https://steamcdn-a.akamaihd.net/steamcommunity/public/images/apps/791750/80956434dc5bdc53830fc4ea8fa22d2ea5dedc3d.jpg"
  },
  {
    "name": "Death",
    "defaultvalue": 0,
    "displayName": "Death",
    "hidden": 0,
    "description": "Completed level 10",
    "icon": "https://steamcdn-a.akamaihd.net/steamcommunity/public/images/apps/791750/f198270bdf5308c479472655c5209236d4b1a318.jpg",
    "icongray": "https://steamcdn-a.akamaihd.net/steamcommunity/public/images/apps/791750/80956434dc5bdc53830fc4ea8fa22d2ea5dedc3d.jpg"
  },
  {
    "name": "Uganda",
    "defaultvalue": 0,
    "displayName": "Uganda",
    "hidden": 0,
    "description": "Completed level 12",
    "icon": "https://steamcdn-a.akamaihd.net/steamcommunity/public/images/apps/791750/736d6c87ef62d387c7130b9e1411cbb39c43e543.jpg",
    "icongray": "https://steamcdn-a.akamaihd.net/steamcommunity/public/images/apps/791750/80956434dc5bdc53830fc4ea8fa22d2ea5dedc3d.jpg"
  },
  {
    "name": "Eshkere",
    "defaultvalue": 0,
    "displayName": "Eshkere",
    "hidden": 0,
    "description": "Completed level 14",
    "icon": "https://steamcdn-a.akamaihd.net/steamcommunity/public/images/apps/791750/96bfaaaf0c3d0d5dd31eda552b888031a0b479c3.jpg",
    "icongray": "https://steamcdn-a.akamaihd.net/steamcommunity/public/images/apps/791750/80956434dc5bdc53830fc4ea8fa22d2ea5dedc3d.jpg"
  },
  {
    "name": "The de way",
    "defaultvalue": 0,
    "displayName": "The de way",
    "hidden": 0,
    "description": "Completed level 15",
    "icon": "https://steamcdn-a.akamaihd.net/steamcommunity/public/images/apps/791750/1e82e3e5638227051e5ef753a27935ccbc714973.jpg",
    "icongray": "https://steamcdn-a.akamaihd.net/steamcommunity/public/images/apps/791750/80956434dc5bdc53830fc4ea8fa22d2ea5dedc3d.jpg"
  }
]