{
  "Dlcs": {},
  "Name": "The Insider – interactive movie",
  "AppId": "1304620",
  "ImageUrl": "https://steamcdn-a.akamaihd.net/steam/apps/1304620/header.jpg?t=1590478396",
  "Languages": [
    "english",
    "tchinese"
  ],
  "Platforms": {
    "windows": true,
    "mac": false,
    "linux": false
  }
}