{
  "Dlcs": {},
  "Name": "Chief's Quest",
  "AppId": "957390",
  "ImageUrl": "https://steamcdn-a.akamaihd.net/steam/apps/957390/header.jpg?t=1582397257",
  "Languages": [
    "english"
  ],
  "Platforms": {
    "windows": true,
    "mac": false,
    "linux": false
  }
}