{
  "Dlcs": {},
  "Name": "Mecha Ace",
  "AppId": "318330",
  "ImageUrl": "https://steamcdn-a.akamaihd.net/steam/apps/318330/header.jpg?t=1575484508",
  "Languages": [
    "english"
  ],
  "Platforms": {
    "windows": true,
    "mac": true,
    "linux": true
  }
}