﻿{
  "Dlcs": {},
  "Name": "Splat the Blob",
  "AppId": "701900",
  "ImageUrl": "https://steamcdn-a.akamaihd.net/steam/apps/701900/header.jpg?t=1524893083",
  "Languages": [
    "english"
  ],
  "Platforms": {
    "windows": true,
    "mac": true,
    "linux": true
  }
}