[
  {
    "name": "RoadGame01",
    "defaultvalue": 0,
    "displayName": "Pro Adventurer",
    "hidden": 0,
    "description": "Reach 60% accuracy in a mid-stage minigame.",
    "icon": "https://steamcdn-a.akamaihd.net/steamcommunity/public/images/apps/941300/95039d2f76ac27cc105509876bd1b9ac18a09f19.jpg",
    "icongray": "https://steamcdn-a.akamaihd.net/steamcommunity/public/images/apps/941300/c60c60fc6f4e798a50e095aaf9bf45a9e2b4d37b.jpg"
  },
  {
    "name": "LastStageClear",
    "defaultvalue": 0,
    "displayName": "Thanks For Playing",
    "hidden": 0,
    "description": "Complete Touhou Nil Soul.",
    "icon": "https://steamcdn-a.akamaihd.net/steamcommunity/public/images/apps/941300/be33a4142b421bbd28cc250a99b66477000c5cfb.jpg",
    "icongray": "https://steamcdn-a.akamaihd.net/steamcommunity/public/images/apps/941300/a0b543995c8882afa6866b4cea1231629fbae029.jpg"
  },
  {
    "name": "Loser",
    "defaultvalue": 0,
    "displayName": "Full Body Wound",
    "hidden": 0,
    "description": "Fail 10 battles.",
    "icon": "https://steamcdn-a.akamaihd.net/steamcommunity/public/images/apps/941300/e962d1e9b7b3d04bde0d447e587c4bf6cb677a12.jpg",
    "icongray": "https://steamcdn-a.akamaihd.net/steamcommunity/public/images/apps/941300/cbf80114363c515738f8f7b8c6c5ecb43e1831c7.jpg"
  },
  {
    "name": "Winner",
    "defaultvalue": 0,
    "displayName": "Fighting Only Makes You Braver",
    "hidden": 0,
    "description": "Win 30 battles.",
    "icon": "https://steamcdn-a.akamaihd.net/steamcommunity/public/images/apps/941300/86fdb198e78c80d5f4bee1092fe9e58745ca37da.jpg",
    "icongray": "https://steamcdn-a.akamaihd.net/steamcommunity/public/images/apps/941300/9c2ea4e83059b9ba4d88a233f210347323590521.jpg"
  },
  {
    "name": "Collector",
    "defaultvalue": 0,
    "displayName": "Full Collection",
    "hidden": 0,
    "description": "Possess all kinds of weapons, armors, and accessories in your inventory.",
    "icon": "https://steamcdn-a.akamaihd.net/steamcommunity/public/images/apps/941300/bb11d1ddb4491763c0d42c68dc1fb95fecb394f9.jpg",
    "icongray": "https://steamcdn-a.akamaihd.net/steamcommunity/public/images/apps/941300/f4f34e0a0a2e67bf7edbafc7f1f7076304e3c524.jpg"
  },
  {
    "name": "Easy01Clear",
    "defaultvalue": 0,
    "displayName": "Easy Reimu",
    "hidden": 0,
    "description": "Beat Easy Reimu",
    "icon": "https://steamcdn-a.akamaihd.net/steamcommunity/public/images/apps/941300/03c8964bd560d63612e63d330b28b3c83b9a4a26.jpg",
    "icongray": "https://steamcdn-a.akamaihd.net/steamcommunity/public/images/apps/941300/359c251a07b704281a1d476c2c950074ca13062b.jpg"
  },
  {
    "name": "Normal01Clear",
    "defaultvalue": 0,
    "displayName": "Normal Reimu",
    "hidden": 0,
    "description": "Beat Normal Reimu",
    "icon": "https://steamcdn-a.akamaihd.net/steamcommunity/public/images/apps/941300/978566397db1fd1fd1659468a324debfc8cfc3d3.jpg",
    "icongray": "https://steamcdn-a.akamaihd.net/steamcommunity/public/images/apps/941300/465c630e80a04ca7cef41d2cce27cea1870608ae.jpg"
  },
  {
    "name": "Hard01Clear",
    "defaultvalue": 0,
    "displayName": "Hard Reimu",
    "hidden": 0,
    "description": "Beat Hard Reimu",
    "icon": "https://steamcdn-a.akamaihd.net/steamcommunity/public/images/apps/941300/d2e42327c0587137d49d853e8ce279d27416fd85.jpg",
    "icongray": "https://steamcdn-a.akamaihd.net/steamcommunity/public/images/apps/941300/02746954efec38099ca9d4931960917e3d728bc0.jpg"
  },
  {
    "name": "Lunatic01Clear",
    "defaultvalue": 0,
    "displayName": "Lunatic Reimu",
    "hidden": 0,
    "description": "Beat Lunatic Reimu",
    "icon": "https://steamcdn-a.akamaihd.net/steamcommunity/public/images/apps/941300/73ca2d11450b11bd126c97ff43eb377a773ac4be.jpg",
    "icongray": "https://steamcdn-a.akamaihd.net/steamcommunity/public/images/apps/941300/dd6d7e79d0d8e974e3afe55201db056c9cefbc1f.jpg"
  },
  {
    "name": "Extra01Clear",
    "defaultvalue": 0,
    "displayName": "Extra Reimu",
    "hidden": 0,
    "description": "Beat Extra Reimu",
    "icon": "https://steamcdn-a.akamaihd.net/steamcommunity/public/images/apps/941300/d2d72d73c1115fbb9ae27a37f00e5a02502ba836.jpg",
    "icongray": "https://steamcdn-a.akamaihd.net/steamcommunity/public/images/apps/941300/922514ffead609a2a97182484a6f986f55fc1082.jpg"
  },
  {
    "name": "Easy02Clear",
    "defaultvalue": 0,
    "displayName": "Easy Rumia",
    "hidden": 0,
    "description": "Beat Easy Rumia",
    "icon": "https://steamcdn-a.akamaihd.net/steamcommunity/public/images/apps/941300/9894322bedd4650e660b3263006d5bfb14b44c2b.jpg",
    "icongray": "https://steamcdn-a.akamaihd.net/steamcommunity/public/images/apps/941300/69be2d61cfb7a696d8e98f1df35d6a00091c7ac0.jpg"
  },
  {
    "name": "Normal02Clear",
    "defaultvalue": 0,
    "displayName": "Normal Rumia",
    "hidden": 0,
    "description": "Beat Normal Rumia",
    "icon": "https://steamcdn-a.akamaihd.net/steamcommunity/public/images/apps/941300/832cc0ec3a3c0b341630e17723b2132bb1ad494f.jpg",
    "icongray": "https://steamcdn-a.akamaihd.net/steamcommunity/public/images/apps/941300/ceb8bbf3c10050d6d871bc5058785db89144784e.jpg"
  },
  {
    "name": "Hard02Clear",
    "defaultvalue": 0,
    "displayName": "Hard Rumia",
    "hidden": 0,
    "description": "Beat Hard Rumia",
    "icon": "https://steamcdn-a.akamaihd.net/steamcommunity/public/images/apps/941300/caa0c404aabe4e59a905d224fd81efdfa5b72ce0.jpg",
    "icongray": "https://steamcdn-a.akamaihd.net/steamcommunity/public/images/apps/941300/50a5368bc362bea97c159a29aa0529feed45868d.jpg"
  },
  {
    "name": "Lunatic02Clear",
    "defaultvalue": 0,
    "displayName": "Lunatic Rumia",
    "hidden": 0,
    "description": "Beat Lunatic Rumia",
    "icon": "https://steamcdn-a.akamaihd.net/steamcommunity/public/images/apps/941300/e4f6c65a52f92ccafec204e8ad07a60dd3826851.jpg",
    "icongray": "https://steamcdn-a.akamaihd.net/steamcommunity/public/images/apps/941300/7d10bcb35fbd3a0c99be072350e84f1ce72221c8.jpg"
  },
  {
    "name": "Extra02Clear",
    "defaultvalue": 0,
    "displayName": "Extra Rumia",
    "hidden": 0,
    "description": "Beat Extra Rumia",
    "icon": "https://steamcdn-a.akamaihd.net/steamcommunity/public/images/apps/941300/9132c22820e2e2615ca0eb92f0471bbcd1222c4a.jpg",
    "icongray": "https://steamcdn-a.akamaihd.net/steamcommunity/public/images/apps/941300/3089a91e9d8c89ef3c197e6e3a4ba66cdbf4e688.jpg"
  },
  {
    "name": "Easy03Clear",
    "defaultvalue": 0,
    "displayName": "Easy Daiyosei",
    "hidden": 0,
    "description": "Beat Easy Daiyosei",
    "icon": "https://steamcdn-a.akamaihd.net/steamcommunity/public/images/apps/941300/3b29119edb76982563377c1d21a5e5b2c213be95.jpg",
    "icongray": "https://steamcdn-a.akamaihd.net/steamcommunity/public/images/apps/941300/a6f8606426fdb61e51599c926ffc4f27b3a3d822.jpg"
  },
  {
    "name": "Normal03Clear",
    "defaultvalue": 0,
    "displayName": "Normal Daiyosei",
    "hidden": 0,
    "description": "Beat Normal Daiyosei",
    "icon": "https://steamcdn-a.akamaihd.net/steamcommunity/public/images/apps/941300/e73a93ae4ad963b0771fabeb68487f8b61501527.jpg",
    "icongray": "https://steamcdn-a.akamaihd.net/steamcommunity/public/images/apps/941300/391d679692bce43a10ec36d4701ae04af8108b9e.jpg"
  },
  {
    "name": "Hard03Clear",
    "defaultvalue": 0,
    "displayName": "Hard Daiyosei",
    "hidden": 0,
    "description": "Beat Hard Daiyosei",
    "icon": "https://steamcdn-a.akamaihd.net/steamcommunity/public/images/apps/941300/12819f501a80aa91de1cb79e3b563afa4e6d0f6e.jpg",
    "icongray": "https://steamcdn-a.akamaihd.net/steamcommunity/public/images/apps/941300/0b5e1abc96d2fafa96413f5f154845880ce4b4f0.jpg"
  },
  {
    "name": "Lunatic03Clear",
    "defaultvalue": 0,
    "displayName": "Lunatic Daiyosei",
    "hidden": 0,
    "description": "Beat Lunatic Daiyosei",
    "icon": "https://steamcdn-a.akamaihd.net/steamcommunity/public/images/apps/941300/44d68e1b0e757fe31340fda63af700b2d9c264a4.jpg",
    "icongray": "https://steamcdn-a.akamaihd.net/steamcommunity/public/images/apps/941300/e12bcc3371a228ef38f0c7aed446c9d959efd507.jpg"
  },
  {
    "name": "Extra03Clear",
    "defaultvalue": 0,
    "displayName": "Extra Daiyosei",
    "hidden": 0,
    "description": "Beat Extra Daiyosei",
    "icon": "https://steamcdn-a.akamaihd.net/steamcommunity/public/images/apps/941300/bdc73eb432111e8979739881baa60996d74f9cfa.jpg",
    "icongray": "https://steamcdn-a.akamaihd.net/steamcommunity/public/images/apps/941300/310813727c2da7fc807b5c00afc6382f845319fd.jpg"
  },
  {
    "name": "Easy04Clear",
    "defaultvalue": 0,
    "displayName": "Easy Cirno",
    "hidden": 0,
    "description": "Beat Easy Cirno",
    "icon": "https://steamcdn-a.akamaihd.net/steamcommunity/public/images/apps/941300/01452680dc64adc1c3191e5dec40d44f06bc94f4.jpg",
    "icongray": "https://steamcdn-a.akamaihd.net/steamcommunity/public/images/apps/941300/92c0e34dc9f441000a5b1a16e57e5f299880c0f9.jpg"
  },
  {
    "name": "Normal04Clear",
    "defaultvalue": 0,
    "displayName": "Normal Cirno",
    "hidden": 0,
    "description": "Beat Normal Cirno",
    "icon": "https://steamcdn-a.akamaihd.net/steamcommunity/public/images/apps/941300/b958c79fe7730ce36690cb1245566b235d11e449.jpg",
    "icongray": "https://steamcdn-a.akamaihd.net/steamcommunity/public/images/apps/941300/7f256c15d396c2a3ec044f224c30b8490710e753.jpg"
  },
  {
    "name": "Hard04Clear",
    "defaultvalue": 0,
    "displayName": "Hard Cirno",
    "hidden": 0,
    "description": "Beat Hard Cirno",
    "icon": "https://steamcdn-a.akamaihd.net/steamcommunity/public/images/apps/941300/36759cd8f39a94318897f2f2334d93eaacd8b961.jpg",
    "icongray": "https://steamcdn-a.akamaihd.net/steamcommunity/public/images/apps/941300/a28a6ceeec04bfc842d66835c2ea77874c1a9fda.jpg"
  },
  {
    "name": "Lunatic04Clear",
    "defaultvalue": 0,
    "displayName": "Lunatic Cirno",
    "hidden": 0,
    "description": "Beat Lunatic Cirno",
    "icon": "https://steamcdn-a.akamaihd.net/steamcommunity/public/images/apps/941300/6cfcf2c56498f5956083b6cd98b8a9eda0f39c07.jpg",
    "icongray": "https://steamcdn-a.akamaihd.net/steamcommunity/public/images/apps/941300/7dcecd13125b7e26eb3958183893adae554c4228.jpg"
  },
  {
    "name": "Extra04Clear",
    "defaultvalue": 0,
    "displayName": "Extra Cirno",
    "hidden": 0,
    "description": "Beat Extra Cirno",
    "icon": "https://steamcdn-a.akamaihd.net/steamcommunity/public/images/apps/941300/d744cbc884887ee39e34b8c6ca620d097eb3f00f.jpg",
    "icongray": "https://steamcdn-a.akamaihd.net/steamcommunity/public/images/apps/941300/5c1f86fd3b991902339ae66d2244745f5bf47328.jpg"
  },
  {
    "name": "Easy05Clear",
    "defaultvalue": 0,
    "displayName": "Easy Meirin",
    "hidden": 0,
    "description": "Beat Easy Meirin",
    "icon": "https://steamcdn-a.akamaihd.net/steamcommunity/public/images/apps/941300/7f0383207165c5117ecdd607e8c36c96d1c9e9c8.jpg",
    "icongray": "https://steamcdn-a.akamaihd.net/steamcommunity/public/images/apps/941300/d08e8223a73ce93554e6dd075ed3d4691f43f93d.jpg"
  },
  {
    "name": "Normal05Clear",
    "defaultvalue": 0,
    "displayName": "Normal Meirin",
    "hidden": 0,
    "description": "Beat Normal Meirin",
    "icon": "https://steamcdn-a.akamaihd.net/steamcommunity/public/images/apps/941300/0910b06d9f7788fff95a1dcf2b137f813eb9d98d.jpg",
    "icongray": "https://steamcdn-a.akamaihd.net/steamcommunity/public/images/apps/941300/6c2facbc5da54e2508cf679176bac4ceead2a738.jpg"
  },
  {
    "name": "Hard05Clear",
    "defaultvalue": 0,
    "displayName": "Hard Meirin",
    "hidden": 0,
    "description": "Beat Hard Meirin",
    "icon": "https://steamcdn-a.akamaihd.net/steamcommunity/public/images/apps/941300/5167b6ff5f05ad6f985611f4c13551b589ef906e.jpg",
    "icongray": "https://steamcdn-a.akamaihd.net/steamcommunity/public/images/apps/941300/abacdf30f01d1c5a577a072b59e0b41453a2667d.jpg"
  },
  {
    "name": "Lunatic05Clear",
    "defaultvalue": 0,
    "displayName": "Lunatic Meirin",
    "hidden": 0,
    "description": "Beat Lunatic Meirin",
    "icon": "https://steamcdn-a.akamaihd.net/steamcommunity/public/images/apps/941300/d299d17c79d88d8d06564d69610fb62297fc5d7c.jpg",
    "icongray": "https://steamcdn-a.akamaihd.net/steamcommunity/public/images/apps/941300/f894816634f3c5f5f748156313cf06f89a0145cd.jpg"
  },
  {
    "name": "Extra05Clear",
    "defaultvalue": 0,
    "displayName": "Extra Meirin",
    "hidden": 0,
    "description": "Beat Extra Meirin",
    "icon": "https://steamcdn-a.akamaihd.net/steamcommunity/public/images/apps/941300/691013ddce2f9888d48f88e40f51e3e25466c0c1.jpg",
    "icongray": "https://steamcdn-a.akamaihd.net/steamcommunity/public/images/apps/941300/cad82d54aae579126a56b21e5ef4cfaef5458cf0.jpg"
  },
  {
    "name": "Easy06Clear",
    "defaultvalue": 0,
    "displayName": "Easy Koakuma",
    "hidden": 0,
    "description": "Beat Easy Koakuma",
    "icon": "https://steamcdn-a.akamaihd.net/steamcommunity/public/images/apps/941300/01c01652ebfe7e500d80ee4aeb9a83c0d9d1a272.jpg",
    "icongray": "https://steamcdn-a.akamaihd.net/steamcommunity/public/images/apps/941300/c790a0d84a26310e142088f357729741283ebe06.jpg"
  },
  {
    "name": "Normal06Clear",
    "defaultvalue": 0,
    "displayName": "Normal Koakuma",
    "hidden": 0,
    "description": "Beat Normal Koakuma",
    "icon": "https://steamcdn-a.akamaihd.net/steamcommunity/public/images/apps/941300/b717263c3250cd499e11d33b015706fa3d03d5e1.jpg",
    "icongray": "https://steamcdn-a.akamaihd.net/steamcommunity/public/images/apps/941300/8871be78688d7206dc128c1fa5ba8eb8624f5755.jpg"
  },
  {
    "name": "Hard06Clear",
    "defaultvalue": 0,
    "displayName": "Hard Koakuma",
    "hidden": 0,
    "description": "Beat Hard Koakuma",
    "icon": "https://steamcdn-a.akamaihd.net/steamcommunity/public/images/apps/941300/26d8e132d1627b7ef675b0e0adcc86beac77e0db.jpg",
    "icongray": "https://steamcdn-a.akamaihd.net/steamcommunity/public/images/apps/941300/39626aca9439c2a5a1cd0e8830012d84c6db574a.jpg"
  },
  {
    "name": "Lunatic06Clear",
    "defaultvalue": 0,
    "displayName": "Lunatic Koakuma",
    "hidden": 0,
    "description": "Beat Lunatic Koakuma",
    "icon": "https://steamcdn-a.akamaihd.net/steamcommunity/public/images/apps/941300/623993810534e707618cb119003bba502bb1aad7.jpg",
    "icongray": "https://steamcdn-a.akamaihd.net/steamcommunity/public/images/apps/941300/96a44dd8a61703832ba069fd5edb32cae54cca37.jpg"
  },
  {
    "name": "Extra06Clear",
    "defaultvalue": 0,
    "displayName": "Extra Koakuma",
    "hidden": 0,
    "description": "Beat Extra Koakuma",
    "icon": "https://steamcdn-a.akamaihd.net/steamcommunity/public/images/apps/941300/3d2a6a81f8eb2008c5af76302ef27cf128a3f212.jpg",
    "icongray": "https://steamcdn-a.akamaihd.net/steamcommunity/public/images/apps/941300/2450c3863f9c00d0084c6773b9cace4279a91aae.jpg"
  },
  {
    "name": "Easy07Clear",
    "defaultvalue": 0,
    "displayName": "Easy Patchouli",
    "hidden": 0,
    "description": "Beat Easy Patchouli",
    "icon": "https://steamcdn-a.akamaihd.net/steamcommunity/public/images/apps/941300/d15a73c45dbf71cf29384c3027d717b735ec87b1.jpg",
    "icongray": "https://steamcdn-a.akamaihd.net/steamcommunity/public/images/apps/941300/73bb5f92e67861bac293ab6215ff479df91e6521.jpg"
  },
  {
    "name": "Normal07Clear",
    "defaultvalue": 0,
    "displayName": "Normal Patchouli",
    "hidden": 0,
    "description": "Beat Normal Patchouli",
    "icon": "https://steamcdn-a.akamaihd.net/steamcommunity/public/images/apps/941300/98bc7f59fdff3eeb8feb6225cbada2c67809a476.jpg",
    "icongray": "https://steamcdn-a.akamaihd.net/steamcommunity/public/images/apps/941300/e9f8e5c4712e9a74259bcf7c7d69a61d051a3522.jpg"
  },
  {
    "name": "Hard07Clear",
    "defaultvalue": 0,
    "displayName": "Hard Patchouli",
    "hidden": 0,
    "description": "Beat Hard Patchouli",
    "icon": "https://steamcdn-a.akamaihd.net/steamcommunity/public/images/apps/941300/35822fb84a29ad7dfe47d16d250fd79ac3e0400c.jpg",
    "icongray": "https://steamcdn-a.akamaihd.net/steamcommunity/public/images/apps/941300/5816e8053445ad997f6b64e73a9b72afde14befb.jpg"
  },
  {
    "name": "Lunatic07Clear",
    "defaultvalue": 0,
    "displayName": "Lunatic Patchouli",
    "hidden": 0,
    "description": "Beat Lunatic Patchouli",
    "icon": "https://steamcdn-a.akamaihd.net/steamcommunity/public/images/apps/941300/fbbd5bd9150c356ce34ecf6eed3608ff813a95fa.jpg",
    "icongray": "https://steamcdn-a.akamaihd.net/steamcommunity/public/images/apps/941300/627a42c6c3599c7f3c5a068ab0c39d67531e2f09.jpg"
  },
  {
    "name": "Extra07Clear",
    "defaultvalue": 0,
    "displayName": "Extra Patchouli",
    "hidden": 0,
    "description": "Beat Extra Patchouli",
    "icon": "https://steamcdn-a.akamaihd.net/steamcommunity/public/images/apps/941300/909c702737c64c8341e5528f690e6a41ab1eadf3.jpg",
    "icongray": "https://steamcdn-a.akamaihd.net/steamcommunity/public/images/apps/941300/6a36e57d9393383cf46b2445d0a32e3349c36dc9.jpg"
  },
  {
    "name": "Easy08Clear",
    "defaultvalue": 0,
    "displayName": "Easy Sakuya",
    "hidden": 0,
    "description": "Beat Easy Sakuya",
    "icon": "https://steamcdn-a.akamaihd.net/steamcommunity/public/images/apps/941300/964fc7cef4480eeb6232af07b4320ccc3c25e4a0.jpg",
    "icongray": "https://steamcdn-a.akamaihd.net/steamcommunity/public/images/apps/941300/8ed13454d9f4fd75971dbd5b5212be353f925775.jpg"
  },
  {
    "name": "Normal08Clear",
    "defaultvalue": 0,
    "displayName": "Normal Sakuya",
    "hidden": 0,
    "description": "Beat Normal Sakuya",
    "icon": "https://steamcdn-a.akamaihd.net/steamcommunity/public/images/apps/941300/e4d066fc7de500fb7e34886f3c14e104484422d1.jpg",
    "icongray": "https://steamcdn-a.akamaihd.net/steamcommunity/public/images/apps/941300/6d1e989e6ddf6ddb1ef4492a82098fd47acadd5a.jpg"
  },
  {
    "name": "Hard08Clear",
    "defaultvalue": 0,
    "displayName": "Hard Sakuya",
    "hidden": 0,
    "description": "Beat Hard Sakuya",
    "icon": "https://steamcdn-a.akamaihd.net/steamcommunity/public/images/apps/941300/965a36a4ff1c105ada6e6d5679600e7b7ab5ed95.jpg",
    "icongray": "https://steamcdn-a.akamaihd.net/steamcommunity/public/images/apps/941300/c3fa819c06cef5139605a6504496575345cb7cbd.jpg"
  },
  {
    "name": "Lunatic08Clear",
    "defaultvalue": 0,
    "displayName": "Lunatic Sakuya",
    "hidden": 0,
    "description": "Beat Lunatic Sakuya",
    "icon": "https://steamcdn-a.akamaihd.net/steamcommunity/public/images/apps/941300/cd6ac5aac5306bd580e45efc25569a5eb93d24af.jpg",
    "icongray": "https://steamcdn-a.akamaihd.net/steamcommunity/public/images/apps/941300/70d0bb95958225adbf8bef0824b8286772cbe26d.jpg"
  },
  {
    "name": "Extra08Clear",
    "defaultvalue": 0,
    "displayName": "Extra Sakuya",
    "hidden": 0,
    "description": "Beat Extra Sakuya",
    "icon": "https://steamcdn-a.akamaihd.net/steamcommunity/public/images/apps/941300/2803abaf726048a13d7fdc4253a9c4b14b672956.jpg",
    "icongray": "https://steamcdn-a.akamaihd.net/steamcommunity/public/images/apps/941300/dd375e1a23190a6b53e135aecd2ec43e2d556ae5.jpg"
  },
  {
    "name": "Easy09Clear",
    "defaultvalue": 0,
    "displayName": "Easy Remilia",
    "hidden": 0,
    "description": "Beat Easy Remilia",
    "icon": "https://steamcdn-a.akamaihd.net/steamcommunity/public/images/apps/941300/a42c5cf8030e047da280f3ff40e1b1a436ef9a08.jpg",
    "icongray": "https://steamcdn-a.akamaihd.net/steamcommunity/public/images/apps/941300/df982620148aeb99f024f4541263c0c8d7b31b0d.jpg"
  },
  {
    "name": "Normal09Clear",
    "defaultvalue": 0,
    "displayName": "Normal Remilia",
    "hidden": 0,
    "description": "Beat Normal Remilia",
    "icon": "https://steamcdn-a.akamaihd.net/steamcommunity/public/images/apps/941300/7c2babafaefa8d6df7229755c5b3a97aa8edbdc5.jpg",
    "icongray": "https://steamcdn-a.akamaihd.net/steamcommunity/public/images/apps/941300/b735ab8ef4bdf8e824ba1e04498580b2e6f3a071.jpg"
  },
  {
    "name": "Hard09Clear",
    "defaultvalue": 0,
    "displayName": "Hard Remilia",
    "hidden": 0,
    "description": "Beat Hard Remilia",
    "icon": "https://steamcdn-a.akamaihd.net/steamcommunity/public/images/apps/941300/b0b4be11bed02febf05e8cb47937cf9e4b0fb795.jpg",
    "icongray": "https://steamcdn-a.akamaihd.net/steamcommunity/public/images/apps/941300/73383431ef2293b045c46f5e2cbb87b4273d86b6.jpg"
  },
  {
    "name": "Lunatic09Clear",
    "defaultvalue": 0,
    "displayName": "Lunatic Remilia",
    "hidden": 0,
    "description": "Beat Lunatic Remilia",
    "icon": "https://steamcdn-a.akamaihd.net/steamcommunity/public/images/apps/941300/db497651d4eac4e0a5665668b8f5c890b6a4221b.jpg",
    "icongray": "https://steamcdn-a.akamaihd.net/steamcommunity/public/images/apps/941300/136eb202dd8db84cf4525a2fccf344830fc31f1f.jpg"
  },
  {
    "name": "Extra09Clear",
    "defaultvalue": 0,
    "displayName": "Extra Remilia",
    "hidden": 0,
    "description": "Beat Extra Remilia",
    "icon": "https://steamcdn-a.akamaihd.net/steamcommunity/public/images/apps/941300/cdfd4985e685e3bfe407cbd9676c730340e1b826.jpg",
    "icongray": "https://steamcdn-a.akamaihd.net/steamcommunity/public/images/apps/941300/2b89476ae1d1ba7c5916203d89c7d66a6dfdbd9a.jpg"
  },
  {
    "name": "Easy10Clear",
    "defaultvalue": 0,
    "displayName": "Easy Marisa",
    "hidden": 0,
    "description": "Beat Easy Marisa",
    "icon": "https://steamcdn-a.akamaihd.net/steamcommunity/public/images/apps/941300/ff576b837b959c7d53170f0138d664f67623967d.jpg",
    "icongray": "https://steamcdn-a.akamaihd.net/steamcommunity/public/images/apps/941300/fa40faabaeeb6d70deaba0e1e22a48b0f83ce0f5.jpg"
  },
  {
    "name": "Normal10Clear",
    "defaultvalue": 0,
    "displayName": "Normal Marisa",
    "hidden": 0,
    "description": "Beat Normal Marisa",
    "icon": "https://steamcdn-a.akamaihd.net/steamcommunity/public/images/apps/941300/442d03518ba4cc0e5b81a1aec03171809c1433d1.jpg",
    "icongray": "https://steamcdn-a.akamaihd.net/steamcommunity/public/images/apps/941300/4d163a8cd117f8506f1d0774d1607d8d7744592a.jpg"
  },
  {
    "name": "Hard10Clear",
    "defaultvalue": 0,
    "displayName": "Hard Marisa",
    "hidden": 0,
    "description": "Beat Hard Marisa",
    "icon": "https://steamcdn-a.akamaihd.net/steamcommunity/public/images/apps/941300/b37bc9fdd1dafd074bf4c39af2673d9a23c77b82.jpg",
    "icongray": "https://steamcdn-a.akamaihd.net/steamcommunity/public/images/apps/941300/8a510a847062ad057015b90da263a4261d16e17f.jpg"
  },
  {
    "name": "Lunatic10Clear",
    "defaultvalue": 0,
    "displayName": "Lunatic Marisa",
    "hidden": 0,
    "description": "Beat Lunatic Marisa",
    "icon": "https://steamcdn-a.akamaihd.net/steamcommunity/public/images/apps/941300/8e38b82301debf117c11f19d09b7349ae90acd4d.jpg",
    "icongray": "https://steamcdn-a.akamaihd.net/steamcommunity/public/images/apps/941300/20e627a94b05edc0a770a0b4a4b730bd26051b7a.jpg"
  },
  {
    "name": "Extra10Clear",
    "defaultvalue": 0,
    "displayName": "Extra Marisa",
    "hidden": 0,
    "description": "Beat Extra Marisa",
    "icon": "https://steamcdn-a.akamaihd.net/steamcommunity/public/images/apps/941300/44720875cddcf0620e3cc057321a553427242b31.jpg",
    "icongray": "https://steamcdn-a.akamaihd.net/steamcommunity/public/images/apps/941300/59481146fd21eb5a6d5244446f2a9695939fd995.jpg"
  },
  {
    "name": "Easy11Clear",
    "defaultvalue": 0,
    "displayName": "Easy Flandre",
    "hidden": 0,
    "description": "Beat Easy Flandre",
    "icon": "https://steamcdn-a.akamaihd.net/steamcommunity/public/images/apps/941300/3ddb6cb3e00ca45c49f082dcf3f4794e7c1215ac.jpg",
    "icongray": "https://steamcdn-a.akamaihd.net/steamcommunity/public/images/apps/941300/dc7b73ddd40a8bba957390177f82b6907cc52e67.jpg"
  },
  {
    "name": "Normal11Clear",
    "defaultvalue": 0,
    "displayName": "Normal Flandre",
    "hidden": 0,
    "description": "Beat Normal Flandre",
    "icon": "https://steamcdn-a.akamaihd.net/steamcommunity/public/images/apps/941300/8043da9d7ac704730bee530ccf6125dd2d2e1585.jpg",
    "icongray": "https://steamcdn-a.akamaihd.net/steamcommunity/public/images/apps/941300/8c8a4b880aedc4b121feee9cc4abeae2c27cf1dc.jpg"
  },
  {
    "name": "Hard11Clear",
    "defaultvalue": 0,
    "displayName": "Hard Flandre",
    "hidden": 0,
    "description": "Beat Hard Flandre",
    "icon": "https://steamcdn-a.akamaihd.net/steamcommunity/public/images/apps/941300/08fcba00e0f88f8922610a84ee2f29d69b2519bb.jpg",
    "icongray": "https://steamcdn-a.akamaihd.net/steamcommunity/public/images/apps/941300/72849074910f26009351f7bfb8cfb7b050d23f67.jpg"
  },
  {
    "name": "Lunatic11Clear",
    "defaultvalue": 0,
    "displayName": "Lunatic Flandre",
    "hidden": 0,
    "description": "Beat Lunatic Flandre",
    "icon": "https://steamcdn-a.akamaihd.net/steamcommunity/public/images/apps/941300/6275212d088196cd0add9279d8647139fbf99839.jpg",
    "icongray": "https://steamcdn-a.akamaihd.net/steamcommunity/public/images/apps/941300/4d1d08c12993907d581ab7a00379019c12e4cc40.jpg"
  },
  {
    "name": "Extra11Clear",
    "defaultvalue": 0,
    "displayName": "Extra Flandre",
    "hidden": 0,
    "description": "Beat Extra Flandre",
    "icon": "https://steamcdn-a.akamaihd.net/steamcommunity/public/images/apps/941300/62aea8845a27d6ae203a803532f2bd91464dbc4f.jpg",
    "icongray": "https://steamcdn-a.akamaihd.net/steamcommunity/public/images/apps/941300/8657e99e59b8624d3b2a39241506b27ef81ddc6b.jpg"
  }
]