{
  "Dlcs": {},
  "Name": "Wildlife Park 2 - Dino World",
  "AppId": "307930",
  "ImageUrl": "https://steamcdn-a.akamaihd.net/steam/apps/307930/header.jpg?t=1549965536",
  "Languages": [
    "english",
    "german",
    "french",
    "russian",
    "spanish"
  ],
  "Platforms": {
    "windows": true,
    "mac": false,
    "linux": false
  }
}