{
  "Dlcs": {},
  "Name": "Nobody Knows",
  "AppId": "824520",
  "ImageUrl": "https://steamcdn-a.akamaihd.net/steam/apps/824520/header.jpg?t=1522749767",
  "Languages": [
    "schinese"
  ],
  "Platforms": {
    "windows": true,
    "mac": false,
    "linux": false
  }
}