{
  "Dlcs": {},
  "Name": "Until the Last Plane",
  "AppId": "1240550",
  "ImageUrl": "https://steamcdn-a.akamaihd.net/steam/apps/1240550/header.jpg?t=1601289764",
  "Languages": [
    "english",
    "italian",
    "french",
    "german"
  ],
  "Platforms": {
    "windows": true,
    "mac": false,
    "linux": false
  }
}