﻿{
  "Dlcs": {},
  "Name": "Turtle: Voidrunner",
  "AppId": "729180",
  "ImageUrl": "https://steamcdn-a.akamaihd.net/steam/apps/729180/header.jpg?t=1509066525",
  "Languages": [
    "english"
  ],
  "Platforms": {
    "windows": true,
    "mac": false,
    "linux": false
  }
}