[
  {
    "name": "ACH_0",
    "defaultvalue": 0,
    "displayName": "It's an Epidemic",
    "hidden": 0,
    "description": "Complete MEET YOUR MAKER.",
    "icon": "https://steamcdn-a.akamaihd.net/steamcommunity/public/images/apps/115320/8610bd9eec391e295089364e8616e1a241a72169.jpg",
    "icongray": "https://steamcdn-a.akamaihd.net/steamcommunity/public/images/apps/115320/f4b549f74b0417d8d9489b1090cbf3d2eb7f2cf9.jpg"
  },
  {
    "name": "ACH_1",
    "defaultvalue": 0,
    "displayName": "I Want Some More",
    "hidden": 0,
    "description": "Complete RESURRECTION.",
    "icon": "https://steamcdn-a.akamaihd.net/steamcommunity/public/images/apps/115320/4c7ea336ed513a9af827bf8daf2f12f513a97e86.jpg",
    "icongray": "https://steamcdn-a.akamaihd.net/steamcommunity/public/images/apps/115320/f4b549f74b0417d8d9489b1090cbf3d2eb7f2cf9.jpg"
  },
  {
    "name": "ACH_2",
    "defaultvalue": 0,
    "displayName": "Religious Experience",
    "hidden": 0,
    "description": "Meet Father Guerra.",
    "icon": "https://steamcdn-a.akamaihd.net/steamcommunity/public/images/apps/115320/55650868e862a5e02f062c6cf0ec184fcf4e49f3.jpg",
    "icongray": "https://steamcdn-a.akamaihd.net/steamcommunity/public/images/apps/115320/f4b549f74b0417d8d9489b1090cbf3d2eb7f2cf9.jpg"
  },
  {
    "name": "ACH_3",
    "defaultvalue": 0,
    "displayName": "This is a Knife",
    "hidden": 0,
    "description": "Acquire a Prototype Power.",
    "icon": "https://steamcdn-a.akamaihd.net/steamcommunity/public/images/apps/115320/15bdecceecd4ec5ca5bccfba60352cbed8d8c246.jpg",
    "icongray": "https://steamcdn-a.akamaihd.net/steamcommunity/public/images/apps/115320/f4b549f74b0417d8d9489b1090cbf3d2eb7f2cf9.jpg"
  },
  {
    "name": "ACH_4",
    "defaultvalue": 0,
    "displayName": "Project Closed",
    "hidden": 0,
    "description": "Complete a //BLACKNET operation.",
    "icon": "https://steamcdn-a.akamaihd.net/steamcommunity/public/images/apps/115320/bbd89b9f5c21752db39550b1c12ea6ae4049c586.jpg",
    "icongray": "https://steamcdn-a.akamaihd.net/steamcommunity/public/images/apps/115320/f4b549f74b0417d8d9489b1090cbf3d2eb7f2cf9.jpg"
  },
  {
    "name": "ACH_5",
    "defaultvalue": 0,
    "displayName": "The Mad Scientist",
    "hidden": 0,
    "description": "Complete NATURAL SELECTION.",
    "icon": "https://steamcdn-a.akamaihd.net/steamcommunity/public/images/apps/115320/2d8387b181dc437e7c127fa35a954e2d04d5d8a7.jpg",
    "icongray": "https://steamcdn-a.akamaihd.net/steamcommunity/public/images/apps/115320/f4b549f74b0417d8d9489b1090cbf3d2eb7f2cf9.jpg"
  },
  {
    "name": "ACH_6",
    "defaultvalue": 0,
    "displayName": "Something to Live For",
    "hidden": 0,
    "description": "Complete FALL FROM GRACE.",
    "icon": "https://steamcdn-a.akamaihd.net/steamcommunity/public/images/apps/115320/8fc337005ccd639918adea7335f75532462ff19a.jpg",
    "icongray": "https://steamcdn-a.akamaihd.net/steamcommunity/public/images/apps/115320/f4b549f74b0417d8d9489b1090cbf3d2eb7f2cf9.jpg"
  },
  {
    "name": "ACH_7",
    "defaultvalue": 0,
    "displayName": "What a Bitch",
    "hidden": 0,
    "description": "Complete LABOR OF LOVE.",
    "icon": "https://steamcdn-a.akamaihd.net/steamcommunity/public/images/apps/115320/0566a8362f347281929864e2defe2b9fda5970e1.jpg",
    "icongray": "https://steamcdn-a.akamaihd.net/steamcommunity/public/images/apps/115320/f4b549f74b0417d8d9489b1090cbf3d2eb7f2cf9.jpg"
  },
  {
    "name": "ACH_8",
    "defaultvalue": 0,
    "displayName": "Murder your Maker?",
    "hidden": 0,
    "description": "Complete the game.",
    "icon": "https://steamcdn-a.akamaihd.net/steamcommunity/public/images/apps/115320/45b49ff1ee11bbe1b2c9f13f01f7a6acf578f657.jpg",
    "icongray": "https://steamcdn-a.akamaihd.net/steamcommunity/public/images/apps/115320/f4b549f74b0417d8d9489b1090cbf3d2eb7f2cf9.jpg"
  },
  {
    "name": "ACH_9",
    "defaultvalue": 0,
    "displayName": "Follow Your Nose",
    "hidden": 0,
    "description": "Find all BlackBoxes.",
    "icon": "https://steamcdn-a.akamaihd.net/steamcommunity/public/images/apps/115320/8ba48f4a35256dc0787b4424c5ef0d6ef519d852.jpg",
    "icongray": "https://steamcdn-a.akamaihd.net/steamcommunity/public/images/apps/115320/f4b549f74b0417d8d9489b1090cbf3d2eb7f2cf9.jpg"
  },
  {
    "name": "ACH_10",
    "defaultvalue": 0,
    "displayName": "Up to No Good",
    "hidden": 0,
    "description": "Defeat all Field Ops teams.",
    "icon": "https://steamcdn-a.akamaihd.net/steamcommunity/public/images/apps/115320/54b913c0853a40d2b64f1c43214f06fc29eb08ce.jpg",
    "icongray": "https://steamcdn-a.akamaihd.net/steamcommunity/public/images/apps/115320/f4b549f74b0417d8d9489b1090cbf3d2eb7f2cf9.jpg"
  },
  {
    "name": "ACH_11",
    "defaultvalue": 0,
    "displayName": "Strike, You're Out.",
    "hidden": 0,
    "description": "Destroy a Strike Team in 15 seconds or less.",
    "icon": "https://steamcdn-a.akamaihd.net/steamcommunity/public/images/apps/115320/33c9e8be3f09e0dc28ff1ea841ce559ddcc4de67.jpg",
    "icongray": "https://steamcdn-a.akamaihd.net/steamcommunity/public/images/apps/115320/f4b549f74b0417d8d9489b1090cbf3d2eb7f2cf9.jpg"
  },
  {
    "name": "ACH_12",
    "defaultvalue": 0,
    "displayName": "Compulsive Eater",
    "hidden": 0,
    "description": "5 consumes in 10 seconds or less.",
    "icon": "https://steamcdn-a.akamaihd.net/steamcommunity/public/images/apps/115320/d9be8dbdc69f1734d5c4e4d3c792871022e8525e.jpg",
    "icongray": "https://steamcdn-a.akamaihd.net/steamcommunity/public/images/apps/115320/f4b549f74b0417d8d9489b1090cbf3d2eb7f2cf9.jpg"
  },
  {
    "name": "ACH_13",
    "defaultvalue": 0,
    "displayName": "Do the Evolution",
    "hidden": 0,
    "description": "Acquire 5 Mutations.",
    "icon": "https://steamcdn-a.akamaihd.net/steamcommunity/public/images/apps/115320/a27f38da9809a2eb2a0d7a5488cb60ef4ede3fe3.jpg",
    "icongray": "https://steamcdn-a.akamaihd.net/steamcommunity/public/images/apps/115320/f4b549f74b0417d8d9489b1090cbf3d2eb7f2cf9.jpg"
  },
  {
    "name": "ACH_14",
    "defaultvalue": 0,
    "displayName": "Just a Flesh Wound",
    "hidden": 0,
    "description": "Dismember a Brawler. ",
    "icon": "https://steamcdn-a.akamaihd.net/steamcommunity/public/images/apps/115320/c2493e864ddc9014c3af31bae5e0b64b99b65593.jpg",
    "icongray": "https://steamcdn-a.akamaihd.net/steamcommunity/public/images/apps/115320/f4b549f74b0417d8d9489b1090cbf3d2eb7f2cf9.jpg"
  },
  {
    "name": "ACH_15",
    "defaultvalue": 0,
    "displayName": "All Together Now",
    "hidden": 0,
    "description": "10 or more kills with a single Black Hole attack.",
    "icon": "https://steamcdn-a.akamaihd.net/steamcommunity/public/images/apps/115320/9e728087203e50ca0ad00455c06dacda4b7cd1de.jpg",
    "icongray": "https://steamcdn-a.akamaihd.net/steamcommunity/public/images/apps/115320/f4b549f74b0417d8d9489b1090cbf3d2eb7f2cf9.jpg"
  },
  {
    "name": "ACH_16",
    "defaultvalue": 0,
    "displayName": "Back Atcha!",
    "hidden": 0,
    "description": "Deflect 5 missiles at enemies using Shield Block.",
    "icon": "https://steamcdn-a.akamaihd.net/steamcommunity/public/images/apps/115320/21a97ad04842d1dc8a5f6c81c9cbedd9f251f153.jpg",
    "icongray": "https://steamcdn-a.akamaihd.net/steamcommunity/public/images/apps/115320/f4b549f74b0417d8d9489b1090cbf3d2eb7f2cf9.jpg"
  },
  {
    "name": "ACH_17",
    "defaultvalue": 0,
    "displayName": "Two for the Price of One",
    "hidden": 0,
    "description": "Simultaneously kill 2 Brawlers using a single Devastator.",
    "icon": "https://steamcdn-a.akamaihd.net/steamcommunity/public/images/apps/115320/8d8225acdf8c5a554edaaa773f51d55fdb8607ad.jpg",
    "icongray": "https://steamcdn-a.akamaihd.net/steamcommunity/public/images/apps/115320/f4b549f74b0417d8d9489b1090cbf3d2eb7f2cf9.jpg"
  },
  {
    "name": "ACH_18",
    "defaultvalue": 0,
    "displayName": "Lair to Rest",
    "hidden": 0,
    "description": "Destroy a single Lair.",
    "icon": "https://steamcdn-a.akamaihd.net/steamcommunity/public/images/apps/115320/fdb82112eeb460c7519b72c4aacb513157d7202d.jpg",
    "icongray": "https://steamcdn-a.akamaihd.net/steamcommunity/public/images/apps/115320/f4b549f74b0417d8d9489b1090cbf3d2eb7f2cf9.jpg"
  },
  {
    "name": "ACH_19",
    "defaultvalue": 0,
    "displayName": "Hijack Be Nimble",
    "hidden": 0,
    "description": "Stealth hijack 5 tanks or APCs.",
    "icon": "https://steamcdn-a.akamaihd.net/steamcommunity/public/images/apps/115320/140fed725299574c14ba4d0d5d6b2a23ceb34b06.jpg",
    "icongray": "https://steamcdn-a.akamaihd.net/steamcommunity/public/images/apps/115320/f4b549f74b0417d8d9489b1090cbf3d2eb7f2cf9.jpg"
  },
  {
    "name": "ACH_20",
    "defaultvalue": 0,
    "displayName": "Road Rage",
    "hidden": 0,
    "description": "Destroy 10 Blackwatch tanks, APCs or helicopters using a single hijacked tank or APC.",
    "icon": "https://steamcdn-a.akamaihd.net/steamcommunity/public/images/apps/115320/eef0effa7969eda4a51641b55a46f50d42980506.jpg",
    "icongray": "https://steamcdn-a.akamaihd.net/steamcommunity/public/images/apps/115320/f4b549f74b0417d8d9489b1090cbf3d2eb7f2cf9.jpg"
  },
  {
    "name": "ACH_21",
    "defaultvalue": 0,
    "displayName": "Who Watches the Watchers? ",
    "hidden": 0,
    "description": "Consume 10 //BLACKNET targets.",
    "icon": "https://steamcdn-a.akamaihd.net/steamcommunity/public/images/apps/115320/38e6b90dd1046a2d8cdf4a1d1ed1ad735300f2ba.jpg",
    "icongray": "https://steamcdn-a.akamaihd.net/steamcommunity/public/images/apps/115320/f4b549f74b0417d8d9489b1090cbf3d2eb7f2cf9.jpg"
  },
  {
    "name": "ACH_22",
    "defaultvalue": 0,
    "displayName": "Hard to Please",
    "hidden": 0,
    "description": "Acquire a Mutation in each of the 5 categories.",
    "icon": "https://steamcdn-a.akamaihd.net/steamcommunity/public/images/apps/115320/2089a7bcc97774009a298494354f349180702509.jpg",
    "icongray": "https://steamcdn-a.akamaihd.net/steamcommunity/public/images/apps/115320/f4b549f74b0417d8d9489b1090cbf3d2eb7f2cf9.jpg"
  },
  {
    "name": "ACH_23",
    "defaultvalue": 0,
    "displayName": "The Floor is Lava",
    "hidden": 0,
    "description": "Travel a half mile using only Wall Run, Glide, Jump and Air Dash.",
    "icon": "https://steamcdn-a.akamaihd.net/steamcommunity/public/images/apps/115320/4220636e2fd81e9bfa8c50a91ab1da3d9359fb2b.jpg",
    "icongray": "https://steamcdn-a.akamaihd.net/steamcommunity/public/images/apps/115320/f4b549f74b0417d8d9489b1090cbf3d2eb7f2cf9.jpg"
  },
  {
    "name": "ACH_24",
    "defaultvalue": 0,
    "displayName": "Cannonball!",
    "hidden": 0,
    "description": "20 or more kills with a single Hammerfist dive attack.",
    "icon": "https://steamcdn-a.akamaihd.net/steamcommunity/public/images/apps/115320/aaa728f3304e511b4d678165712723e378cd5e02.jpg",
    "icongray": "https://steamcdn-a.akamaihd.net/steamcommunity/public/images/apps/115320/f4b549f74b0417d8d9489b1090cbf3d2eb7f2cf9.jpg"
  },
  {
    "name": "ACH_25",
    "defaultvalue": 0,
    "displayName": "You're the Bomb",
    "hidden": 0,
    "description": "10 or more kills using a single Bio-Bomb.",
    "icon": "https://steamcdn-a.akamaihd.net/steamcommunity/public/images/apps/115320/0c6c3b7992b3276ab925952fe42d59d5d02ccee2.jpg",
    "icongray": "https://steamcdn-a.akamaihd.net/steamcommunity/public/images/apps/115320/f4b549f74b0417d8d9489b1090cbf3d2eb7f2cf9.jpg"
  },
  {
    "name": "ACH_26",
    "defaultvalue": 0,
    "displayName": "Sic 'em!",
    "hidden": 0,
    "description": "Destroy 5 helicopters using Pack Leader.",
    "icon": "https://steamcdn-a.akamaihd.net/steamcommunity/public/images/apps/115320/9298dd72e0c3792f9563425d676ff2d9fa956968.jpg",
    "icongray": "https://steamcdn-a.akamaihd.net/steamcommunity/public/images/apps/115320/f4b549f74b0417d8d9489b1090cbf3d2eb7f2cf9.jpg"
  },
  {
    "name": "ACH_27",
    "defaultvalue": 0,
    "displayName": "Over-Equipped",
    "hidden": 0,
    "description": "Weaponize 10 vehicles.",
    "icon": "https://steamcdn-a.akamaihd.net/steamcommunity/public/images/apps/115320/6e8e80445ae1bd3bd39b8b119bea0150123e2261.jpg",
    "icongray": "https://steamcdn-a.akamaihd.net/steamcommunity/public/images/apps/115320/f4b549f74b0417d8d9489b1090cbf3d2eb7f2cf9.jpg"
  },
  {
    "name": "ACH_28",
    "defaultvalue": 0,
    "displayName": "The Best Offense",
    "hidden": 0,
    "description": "Counter enemy attacks 20 times using Shield.",
    "icon": "https://steamcdn-a.akamaihd.net/steamcommunity/public/images/apps/115320/6f633817db0c40e3e4fa7cba0e8fb509cdd015fa.jpg",
    "icongray": "https://steamcdn-a.akamaihd.net/steamcommunity/public/images/apps/115320/f4b549f74b0417d8d9489b1090cbf3d2eb7f2cf9.jpg"
  },
  {
    "name": "ACH_29",
    "defaultvalue": 0,
    "displayName": "Arcade Action",
    "hidden": 0,
    "description": "Karate kick a helicopter.",
    "icon": "https://steamcdn-a.akamaihd.net/steamcommunity/public/images/apps/115320/4190756c729860002c05400fb0b53277d5ede774.jpg",
    "icongray": "https://steamcdn-a.akamaihd.net/steamcommunity/public/images/apps/115320/f4b549f74b0417d8d9489b1090cbf3d2eb7f2cf9.jpg"
  },
  {
    "name": "ACH_30",
    "defaultvalue": 0,
    "displayName": "I Caught a Big One!",
    "hidden": 0,
    "description": "Mount a helicopter using Whipfist.",
    "icon": "https://steamcdn-a.akamaihd.net/steamcommunity/public/images/apps/115320/538dd48896fec3066b2891f31fc70762f27a97a0.jpg",
    "icongray": "https://steamcdn-a.akamaihd.net/steamcommunity/public/images/apps/115320/f4b549f74b0417d8d9489b1090cbf3d2eb7f2cf9.jpg"
  },
  {
    "name": "ACH_31",
    "defaultvalue": 0,
    "displayName": "Anger Management",
    "hidden": 0,
    "description": "Destroy 5 vehicles using a Finisher. ",
    "icon": "https://steamcdn-a.akamaihd.net/steamcommunity/public/images/apps/115320/b96164ea4eb5cd23ce11f810cacfc4692a8e6441.jpg",
    "icongray": "https://steamcdn-a.akamaihd.net/steamcommunity/public/images/apps/115320/f4b549f74b0417d8d9489b1090cbf3d2eb7f2cf9.jpg"
  },
  {
    "name": "ACH_32",
    "defaultvalue": 0,
    "displayName": "So Above It All",
    "hidden": 0,
    "description": "Spend at least 25 consecutive seconds in the air (helicopters don't count).",
    "icon": "https://steamcdn-a.akamaihd.net/steamcommunity/public/images/apps/115320/a1311d6753b97eb1d60f9d59bc738f1ca6598281.jpg",
    "icongray": "https://steamcdn-a.akamaihd.net/steamcommunity/public/images/apps/115320/f4b549f74b0417d8d9489b1090cbf3d2eb7f2cf9.jpg"
  },
  {
    "name": "ACH_33",
    "defaultvalue": 0,
    "displayName": "Vitamin B-rains",
    "hidden": 0,
    "description": "Acquire 10 upgrades through Consumes.",
    "icon": "https://steamcdn-a.akamaihd.net/steamcommunity/public/images/apps/115320/460674dd895c4b8d802db236833a7b27e7e2e5ff.jpg",
    "icongray": "https://steamcdn-a.akamaihd.net/steamcommunity/public/images/apps/115320/f4b549f74b0417d8d9489b1090cbf3d2eb7f2cf9.jpg"
  },
  {
    "name": "ACH_34",
    "defaultvalue": 0,
    "displayName": "Eating Your Way to the Top",
    "hidden": 0,
    "description": "Acquire 30 upgrades through Consumes.",
    "icon": "https://steamcdn-a.akamaihd.net/steamcommunity/public/images/apps/115320/a7f30a30b95698828576609c71ab1a659f7dde6a.jpg",
    "icongray": "https://steamcdn-a.akamaihd.net/steamcommunity/public/images/apps/115320/f4b549f74b0417d8d9489b1090cbf3d2eb7f2cf9.jpg"
  },
  {
    "name": "ACH_35",
    "defaultvalue": 0,
    "displayName": "Finally Full",
    "hidden": 0,
    "description": "Acquire all 46 upgrades through Consumes.",
    "icon": "https://steamcdn-a.akamaihd.net/steamcommunity/public/images/apps/115320/36fc91fe7fbb565a7323773ff9a0c0d26228f845.jpg",
    "icongray": "https://steamcdn-a.akamaihd.net/steamcommunity/public/images/apps/115320/f4b549f74b0417d8d9489b1090cbf3d2eb7f2cf9.jpg"
  },
  {
    "name": "ACH_36",
    "defaultvalue": 0,
    "displayName": "Icarus",
    "hidden": 0,
    "description": "Reach the highest point in the world.",
    "icon": "https://steamcdn-a.akamaihd.net/steamcommunity/public/images/apps/115320/29f64bd314a769955a894fb95fc09af03f8d332c.jpg",
    "icongray": "https://steamcdn-a.akamaihd.net/steamcommunity/public/images/apps/115320/f4b549f74b0417d8d9489b1090cbf3d2eb7f2cf9.jpg"
  },
  {
    "name": "ACH_37",
    "defaultvalue": 0,
    "displayName": "Spindler's Search",
    "hidden": 0,
    "description": "Destroy all Lairs.",
    "icon": "https://steamcdn-a.akamaihd.net/steamcommunity/public/images/apps/115320/b24470209ea77f86b54e08b31f97d381a3384719.jpg",
    "icongray": "https://steamcdn-a.akamaihd.net/steamcommunity/public/images/apps/115320/f4b549f74b0417d8d9489b1090cbf3d2eb7f2cf9.jpg"
  },
  {
    "name": "ACH_38",
    "defaultvalue": 0,
    "displayName": "//BLACKNET Hacker",
    "hidden": 0,
    "description": "Complete all //BLACKNET dossiers.",
    "icon": "https://steamcdn-a.akamaihd.net/steamcommunity/public/images/apps/115320/6703884e68e39ef7a572da02637814d7081742e4.jpg",
    "icongray": "https://steamcdn-a.akamaihd.net/steamcommunity/public/images/apps/115320/f4b549f74b0417d8d9489b1090cbf3d2eb7f2cf9.jpg"
  },
  {
    "name": "ACH_39",
    "defaultvalue": 0,
    "displayName": "One by One",
    "hidden": 0,
    "description": "Stealth Consume 50 Blackwatch troopers.",
    "icon": "https://steamcdn-a.akamaihd.net/steamcommunity/public/images/apps/115320/46411f6c1750d8d5ecf6c094a45aed286a6f3828.jpg",
    "icongray": "https://steamcdn-a.akamaihd.net/steamcommunity/public/images/apps/115320/f4b549f74b0417d8d9489b1090cbf3d2eb7f2cf9.jpg"
  },
  {
    "name": "ACH_40",
    "defaultvalue": 0,
    "displayName": "Wanted Man",
    "hidden": 0,
    "description": "Trigger 50 alerts.",
    "icon": "https://steamcdn-a.akamaihd.net/steamcommunity/public/images/apps/115320/a1fd14651afdfece285e50b4bb8723266242bf40.jpg",
    "icongray": "https://steamcdn-a.akamaihd.net/steamcommunity/public/images/apps/115320/f4b549f74b0417d8d9489b1090cbf3d2eb7f2cf9.jpg"
  },
  {
    "name": "ACH_41",
    "defaultvalue": 0,
    "displayName": "All Growed Up",
    "hidden": 0,
    "description": "Fully upgrade Heller.",
    "icon": "https://steamcdn-a.akamaihd.net/steamcommunity/public/images/apps/115320/b30fc415dd7dabc318d21a7c53377fe8846967fd.jpg",
    "icongray": "https://steamcdn-a.akamaihd.net/steamcommunity/public/images/apps/115320/f4b549f74b0417d8d9489b1090cbf3d2eb7f2cf9.jpg"
  },
  {
    "name": "ACH_42",
    "defaultvalue": 0,
    "displayName": "Master Prototype",
    "hidden": 0,
    "description": "Complete the game on HARD difficulty.",
    "icon": "https://steamcdn-a.akamaihd.net/steamcommunity/public/images/apps/115320/30c3b9cf00e7c2ffcc12f8cefcebc919f58292cf.jpg",
    "icongray": "https://steamcdn-a.akamaihd.net/steamcommunity/public/images/apps/115320/f4b549f74b0417d8d9489b1090cbf3d2eb7f2cf9.jpg"
  }
]