[
  {
    "name": "ACHIEVEMENT_Fratricide",
    "defaultvalue": 0,
    "displayName": "Fratricide",
    "hidden": 1,
    "icon": "https://steamcdn-a.akamaihd.net/steamcommunity/public/images/apps/1244530/1d7a77092efc6bebe765407e1b37385340e7bb84.jpg",
    "icongray": "https://steamcdn-a.akamaihd.net/steamcommunity/public/images/apps/1244530/cc83383601a58f830e1e5e8f1062785741c552de.jpg"
  },
  {
    "name": "ACHIEVEMENT_Sacrifice",
    "defaultvalue": 0,
    "displayName": "Sacrifice",
    "hidden": 1,
    "icon": "https://steamcdn-a.akamaihd.net/steamcommunity/public/images/apps/1244530/928a87ea6c920fca2599bab3695f732968865c6e.jpg",
    "icongray": "https://steamcdn-a.akamaihd.net/steamcommunity/public/images/apps/1244530/95ee4dc3ff5e9a109448aa733db469c7c9024179.jpg"
  },
  {
    "name": "ACHIEVEMENT_ExplodingStar",
    "defaultvalue": 0,
    "displayName": "ExplodingStar",
    "hidden": 1,
    "icon": "https://steamcdn-a.akamaihd.net/steamcommunity/public/images/apps/1244530/a59ad27e6e6fe019f53e26cf40ed944fcc3f7143.jpg",
    "icongray": "https://steamcdn-a.akamaihd.net/steamcommunity/public/images/apps/1244530/0b97a3953d3f28b85b295dbaa9deedd5ef79eab5.jpg"
  },
  {
    "name": "ACHIEVEMENT_9IUnderstandNow",
    "defaultvalue": 0,
    "displayName": "I understand now!",
    "hidden": 0,
    "description": "Complete chapter 9",
    "icon": "https://steamcdn-a.akamaihd.net/steamcommunity/public/images/apps/1244530/5d0cdf68b22d47b0e5f18b52101f0b9fa3d053e7.jpg",
    "icongray": "https://steamcdn-a.akamaihd.net/steamcommunity/public/images/apps/1244530/78fd4f5dfb78430e28a0c7a83305d6f03998003f.jpg"
  },
  {
    "name": "ACHIEVEMENT_16DidYouUsePenAndPaper",
    "defaultvalue": 0,
    "displayName": "Desert",
    "hidden": 0,
    "description": "Complete chapter 16",
    "icon": "https://steamcdn-a.akamaihd.net/steamcommunity/public/images/apps/1244530/77721b33e8135356a70348c014cc785e138cdbb2.jpg",
    "icongray": "https://steamcdn-a.akamaihd.net/steamcommunity/public/images/apps/1244530/88ad9029d967d50c44f7b01be9939eb7676e8ad0.jpg"
  },
  {
    "name": "ACHIEVEMENT_1Fish",
    "defaultvalue": 0,
    "displayName": "Fish",
    "hidden": 0,
    "description": "Complete chapter 1",
    "icon": "https://steamcdn-a.akamaihd.net/steamcommunity/public/images/apps/1244530/a625592049bc63703eb6972091283ea83d79c916.jpg",
    "icongray": "https://steamcdn-a.akamaihd.net/steamcommunity/public/images/apps/1244530/a3e2c0fc72367bfbbd96e0b0d276b0ec23c6f616.jpg"
  },
  {
    "name": "ACHIEVEMENT_2GoldFish",
    "defaultvalue": 0,
    "displayName": "Goldfish",
    "hidden": 0,
    "description": "Complete chapter 2",
    "icon": "https://steamcdn-a.akamaihd.net/steamcommunity/public/images/apps/1244530/ba46657d979d17b10832166b9e55760763b9bc33.jpg",
    "icongray": "https://steamcdn-a.akamaihd.net/steamcommunity/public/images/apps/1244530/7587bd7bc868f82377a0745b9a029b25bd37d182.jpg"
  },
  {
    "name": "ACHIEVEMENT_3Duck",
    "defaultvalue": 0,
    "displayName": "Duck",
    "hidden": 0,
    "description": "Complete chapter 3",
    "icon": "https://steamcdn-a.akamaihd.net/steamcommunity/public/images/apps/1244530/0eb3f5d579ea70069202dbd3215c96b5c0af73b7.jpg",
    "icongray": "https://steamcdn-a.akamaihd.net/steamcommunity/public/images/apps/1244530/faa3c6f227a220634e9ce028c882454c0f3f11ed.jpg"
  },
  {
    "name": "ACHIEVEMENT_4GoldDuck",
    "defaultvalue": 0,
    "displayName": "Goose",
    "hidden": 0,
    "description": "Complete chapter 4",
    "icon": "https://steamcdn-a.akamaihd.net/steamcommunity/public/images/apps/1244530/370e03280e988d94967a681af7d91e6f1c07b475.jpg",
    "icongray": "https://steamcdn-a.akamaihd.net/steamcommunity/public/images/apps/1244530/9a8f4a5d8c8caea4c6b95cdaf2f6fd6bc23947bc.jpg"
  },
  {
    "name": "ACHIEVEMENT_5Ant",
    "defaultvalue": 0,
    "displayName": "Ant",
    "hidden": 0,
    "description": "Complete chapter 5",
    "icon": "https://steamcdn-a.akamaihd.net/steamcommunity/public/images/apps/1244530/82a7fc68fd782300ce4d587777c0029f0e0a5181.jpg",
    "icongray": "https://steamcdn-a.akamaihd.net/steamcommunity/public/images/apps/1244530/951b5021d5636e4bd38865e01be897863c381a6d.jpg"
  },
  {
    "name": "ACHIEVEMENT_6Fireant",
    "defaultvalue": 0,
    "displayName": "Fireant",
    "hidden": 0,
    "description": "Complete chapter 6",
    "icon": "https://steamcdn-a.akamaihd.net/steamcommunity/public/images/apps/1244530/9e56e17c1d86e493d318d73f9673e33df6e7ae95.jpg",
    "icongray": "https://steamcdn-a.akamaihd.net/steamcommunity/public/images/apps/1244530/e896b982d06e29d393cd1d8a75f60214e797f423.jpg"
  },
  {
    "name": "ACHIEVEMENT_7Dromedary",
    "defaultvalue": 0,
    "displayName": "Dromedary",
    "hidden": 0,
    "description": "Complete chapter 7",
    "icon": "https://steamcdn-a.akamaihd.net/steamcommunity/public/images/apps/1244530/ea2f3673b634ab7132a19d44987285ee9e5fb46c.jpg",
    "icongray": "https://steamcdn-a.akamaihd.net/steamcommunity/public/images/apps/1244530/6f07f1883baa6e590968b0160df167f9123ecb04.jpg"
  },
  {
    "name": "ACHIEVEMENT_8BactrianCamel",
    "defaultvalue": 0,
    "displayName": "Bactrian camel",
    "hidden": 0,
    "description": "Complete chapter 8",
    "icon": "https://steamcdn-a.akamaihd.net/steamcommunity/public/images/apps/1244530/bd51e8477023a4760c8e57a03ee494c8856c6c08.jpg",
    "icongray": "https://steamcdn-a.akamaihd.net/steamcommunity/public/images/apps/1244530/f1742c81ef392c7b9676f6d675794c6fe08f320b.jpg"
  },
  {
    "name": "ACHIEVEMENT_10Cockatoo",
    "defaultvalue": 0,
    "displayName": "Cockatoo",
    "hidden": 0,
    "description": "Complete chapter 10",
    "icon": "https://steamcdn-a.akamaihd.net/steamcommunity/public/images/apps/1244530/611a600e972897d9619f57fe3767de35375fa475.jpg",
    "icongray": "https://steamcdn-a.akamaihd.net/steamcommunity/public/images/apps/1244530/34faff270c821e97250c3c7821029c6c77776ce9.jpg"
  },
  {
    "name": "ACHIEVEMENT_11Snakes",
    "defaultvalue": 0,
    "displayName": "Snake",
    "hidden": 0,
    "description": "Complete chapter 11",
    "icon": "https://steamcdn-a.akamaihd.net/steamcommunity/public/images/apps/1244530/0ad5233e42eccf902d46ca4a25a750eee7e5c67a.jpg",
    "icongray": "https://steamcdn-a.akamaihd.net/steamcommunity/public/images/apps/1244530/1d855fd4800c7e64aa12b4a9c46049572556f68d.jpg"
  },
  {
    "name": "ACHIEVEMENT_12Cobra",
    "defaultvalue": 0,
    "displayName": "Cobra",
    "hidden": 0,
    "description": "Complete chapter 12",
    "icon": "https://steamcdn-a.akamaihd.net/steamcommunity/public/images/apps/1244530/87c8788ba3b1116b5ddfa8e3663da524137b960f.jpg",
    "icongray": "https://steamcdn-a.akamaihd.net/steamcommunity/public/images/apps/1244530/13637557b1a92b31ea3700893739afd6d85364b2.jpg"
  },
  {
    "name": "ACHIEVEMENT_13Oasis",
    "defaultvalue": 0,
    "displayName": "Oasis",
    "hidden": 0,
    "description": "Complete chapter 13",
    "icon": "https://steamcdn-a.akamaihd.net/steamcommunity/public/images/apps/1244530/6e42ed924882d46bb6bcb36b35767a93db8ca163.jpg",
    "icongray": "https://steamcdn-a.akamaihd.net/steamcommunity/public/images/apps/1244530/0d2608ee69ec1620b7c81d27cefd0d4933dfe631.jpg"
  },
  {
    "name": "ACHIEVEMENT_14Jungle",
    "defaultvalue": 0,
    "displayName": "Jungle",
    "hidden": 0,
    "description": "Complete chapter 14",
    "icon": "https://steamcdn-a.akamaihd.net/steamcommunity/public/images/apps/1244530/376456be6a652d35e0e556fdd28891b730bdcf16.jpg",
    "icongray": "https://steamcdn-a.akamaihd.net/steamcommunity/public/images/apps/1244530/5fa28cf8d29ddc48e439b58b6083c8ca09ecf929.jpg"
  },
  {
    "name": "ACHIEVEMENT_15Desert",
    "defaultvalue": 0,
    "displayName": "Dune",
    "hidden": 0,
    "description": "Complete chapter 15",
    "icon": "https://steamcdn-a.akamaihd.net/steamcommunity/public/images/apps/1244530/be2d74a1834861e052416983c5810562f22dece2.jpg",
    "icongray": "https://steamcdn-a.akamaihd.net/steamcommunity/public/images/apps/1244530/faf23f705a9939c51f5f58a9c58fe4b9fc9648b6.jpg"
  },
  {
    "name": "ACHIEVEMENT_17AlmostThere",
    "defaultvalue": 0,
    "displayName": "Almost there",
    "hidden": 0,
    "description": "Complete chapter 17",
    "icon": "https://steamcdn-a.akamaihd.net/steamcommunity/public/images/apps/1244530/4e58057b8b401b3aaf70cd0a2fe40e58c4847129.jpg",
    "icongray": "https://steamcdn-a.akamaihd.net/steamcommunity/public/images/apps/1244530/67d7cfbda1a2bd2025c35e3ccfa38f41a460a074.jpg"
  },
  {
    "name": "ACHIEVEMENT_18YouAreAwesome",
    "defaultvalue": 0,
    "displayName": "You are awesome",
    "hidden": 0,
    "description": "Complete chapter 18",
    "icon": "https://steamcdn-a.akamaihd.net/steamcommunity/public/images/apps/1244530/be6aba7bca2bae0ead3e6fed15e0dfe8ce34440c.jpg",
    "icongray": "https://steamcdn-a.akamaihd.net/steamcommunity/public/images/apps/1244530/382bc2077a0104cb1f1789ebd0eea0ec5aff0352.jpg"
  },
  {
    "name": "ACHIEVEMENT_Brave",
    "defaultvalue": 0,
    "displayName": "Brave",
    "hidden": 1,
    "icon": "https://steamcdn-a.akamaihd.net/steamcommunity/public/images/apps/1244530/d48358400e7362cb6ac049917db9f2ecbcebafd4.jpg",
    "icongray": "https://steamcdn-a.akamaihd.net/steamcommunity/public/images/apps/1244530/9411122cd1e181eddf2e4bfb4123f54c9dd71185.jpg"
  },
  {
    "name": "ACHIEVEMENT_Speedrunner",
    "defaultvalue": 0,
    "displayName": "Speedrunner",
    "hidden": 1,
    "icon": "https://steamcdn-a.akamaihd.net/steamcommunity/public/images/apps/1244530/18ceab81431cffd60e6665fa08dc8a4c5a3deda7.jpg",
    "icongray": "https://steamcdn-a.akamaihd.net/steamcommunity/public/images/apps/1244530/070fdf04ca6ede17d2df39f4b8e5b875bbfdc4c9.jpg"
  },
  {
    "name": "ACHIEVEMENT_Mathemacican",
    "defaultvalue": 0,
    "displayName": "Mathemacican",
    "hidden": 1,
    "icon": "https://steamcdn-a.akamaihd.net/steamcommunity/public/images/apps/1244530/6feefdb2b4124cc042eb62df6a81d33fb16c68b8.jpg",
    "icongray": "https://steamcdn-a.akamaihd.net/steamcommunity/public/images/apps/1244530/f6e1ab6abaabc172db917fd4afe2df52e6d41842.jpg"
  },
  {
    "name": "ACHIEVEMENT_Logistician",
    "defaultvalue": 0,
    "displayName": "Logistician",
    "hidden": 1,
    "icon": "https://steamcdn-a.akamaihd.net/steamcommunity/public/images/apps/1244530/58f5c62e7fbdeccf693aac2f6d69e85d6ab46d03.jpg",
    "icongray": "https://steamcdn-a.akamaihd.net/steamcommunity/public/images/apps/1244530/0e7260e4a904930c51c6d8a4f015ca4e459602d9.jpg"
  },
  {
    "name": "ACHIEVEMENT_Shortcut",
    "defaultvalue": 0,
    "displayName": "Shortcut",
    "hidden": 1,
    "icon": "https://steamcdn-a.akamaihd.net/steamcommunity/public/images/apps/1244530/592c2d526959e6025ab046eb96bebfbc52408d54.jpg",
    "icongray": "https://steamcdn-a.akamaihd.net/steamcommunity/public/images/apps/1244530/6993e26978e6e52b8477d6a72cf42c6d81143cb7.jpg"
  },
  {
    "name": "ACHIEVEMENT_Skater",
    "defaultvalue": 0,
    "displayName": "Skater",
    "hidden": 1,
    "icon": "https://steamcdn-a.akamaihd.net/steamcommunity/public/images/apps/1244530/be254161a0f149acc69b1930619e7835023012a4.jpg",
    "icongray": "https://steamcdn-a.akamaihd.net/steamcommunity/public/images/apps/1244530/be254161a0f149acc69b1930619e7835023012a4.jpg"
  },
  {
    "name": "ACHIEVEMENT_PerfectCombination",
    "defaultvalue": 0,
    "displayName": "Perfect combination",
    "hidden": 1,
    "icon": "https://steamcdn-a.akamaihd.net/steamcommunity/public/images/apps/1244530/be254161a0f149acc69b1930619e7835023012a4.jpg",
    "icongray": "https://steamcdn-a.akamaihd.net/steamcommunity/public/images/apps/1244530/be254161a0f149acc69b1930619e7835023012a4.jpg"
  },
  {
    "name": "ACHIEVEMENT_PaintItAll",
    "defaultvalue": 0,
    "displayName": "Paint it all",
    "hidden": 1,
    "icon": "https://steamcdn-a.akamaihd.net/steamcommunity/public/images/apps/1244530/be254161a0f149acc69b1930619e7835023012a4.jpg",
    "icongray": "https://steamcdn-a.akamaihd.net/steamcommunity/public/images/apps/1244530/be254161a0f149acc69b1930619e7835023012a4.jpg"
  },
  {
    "name": "ACHIEVEMENT_FriendlyGhost",
    "defaultvalue": 0,
    "displayName": "Friendly ghost",
    "hidden": 1,
    "icon": "https://steamcdn-a.akamaihd.net/steamcommunity/public/images/apps/1244530/be254161a0f149acc69b1930619e7835023012a4.jpg",
    "icongray": "https://steamcdn-a.akamaihd.net/steamcommunity/public/images/apps/1244530/be254161a0f149acc69b1930619e7835023012a4.jpg"
  },
  {
    "name": "ACHIEVEMENT_SandcakeIsALie",
    "defaultvalue": 0,
    "displayName": "Sandcake is a lie",
    "hidden": 1,
    "icon": "https://steamcdn-a.akamaihd.net/steamcommunity/public/images/apps/1244530/be254161a0f149acc69b1930619e7835023012a4.jpg",
    "icongray": "https://steamcdn-a.akamaihd.net/steamcommunity/public/images/apps/1244530/be254161a0f149acc69b1930619e7835023012a4.jpg"
  },
  {
    "name": "ACHIEVEMENT_AllSafe",
    "defaultvalue": 0,
    "displayName": "Protector of cubes",
    "hidden": 1,
    "icon": "https://steamcdn-a.akamaihd.net/steamcommunity/public/images/apps/1244530/5f56b9c7d38d9e70aaf5b6be9645aefaf18bc06e.jpg",
    "icongray": "https://steamcdn-a.akamaihd.net/steamcommunity/public/images/apps/1244530/60390c32318af875ba034294395537c056ff8a68.jpg"
  },
  {
    "name": "ACHIEVEMENT_KillThemAll",
    "defaultvalue": 0,
    "displayName": "Kill Them All",
    "hidden": 1,
    "icon": "https://steamcdn-a.akamaihd.net/steamcommunity/public/images/apps/1244530/be254161a0f149acc69b1930619e7835023012a4.jpg",
    "icongray": "https://steamcdn-a.akamaihd.net/steamcommunity/public/images/apps/1244530/be254161a0f149acc69b1930619e7835023012a4.jpg"
  }
]