{
  "Dlcs": {},
  "Name": "IIslands of War",
  "AppId": "1162470",
  "ImageUrl": "https://steamcdn-a.akamaihd.net/steam/apps/1162470/header.jpg?t=1584065750",
  "Languages": [
    "english"
  ],
  "Platforms": {
    "windows": true,
    "mac": true,
    "linux": false
  }
}