{
  "Dlcs": {},
  "Name": "Flatland: Prologue",
  "AppId": "1261660",
  "ImageUrl": "https://steamcdn-a.akamaihd.net/steam/apps/1261660/header.jpg?t=1600294792",
  "Languages": [
    "english"
  ],
  "Platforms": {
    "windows": true,
    "mac": false,
    "linux": false
  }
}