{
  "Dlcs": {},
  "Name": "Gal*Gun VR",
  "AppId": "678520",
  "ImageUrl": "https://steamcdn-a.akamaihd.net/steam/apps/678520/header.jpg?t=1510926229",
  "Languages": [
    "japanese",
    "english"
  ],
  "Platforms": {
    "windows": true,
    "mac": false,
    "linux": false
  }
}