[
  {
    "name": "ACH_5",
    "defaultvalue": 0,
    "displayName": "5 Points",
    "hidden": 0,
    "description": "Earn 5 Points in a single round",
    "icon": "https://steamcdn-a.akamaihd.net/steamcommunity/public/images/apps/843440/2c65e46133e538a9a0add29efa08b7d482caca9c.jpg",
    "icongray": "https://steamcdn-a.akamaihd.net/steamcommunity/public/images/apps/843440/521a6097bb3b35971d66230878b152d2a68643f4.jpg"
  },
  {
    "name": "ACH_10",
    "defaultvalue": 0,
    "displayName": "10 Points",
    "hidden": 0,
    "description": "Earn 10 Points in a single round",
    "icon": "https://steamcdn-a.akamaihd.net/steamcommunity/public/images/apps/843440/0f7ead77e84229ae71be37e5188c3a3fe8aa3258.jpg",
    "icongray": "https://steamcdn-a.akamaihd.net/steamcommunity/public/images/apps/843440/314cfbeb3b2b9510873eaf72733a14fef0a8fc89.jpg"
  },
  {
    "name": "ACH_15",
    "defaultvalue": 0,
    "displayName": "15 Points",
    "hidden": 0,
    "description": "Earn 15 Points in a single round",
    "icon": "https://steamcdn-a.akamaihd.net/steamcommunity/public/images/apps/843440/4a927f1d2ed5c4ec0eb13164d538a5dec67ebac8.jpg",
    "icongray": "https://steamcdn-a.akamaihd.net/steamcommunity/public/images/apps/843440/2951a10c7d0081076f95cce61352735a1d66f43b.jpg"
  },
  {
    "name": "ACH_20",
    "defaultvalue": 0,
    "displayName": "20 Points",
    "hidden": 0,
    "description": "Earn 20 Points in a single round",
    "icon": "https://steamcdn-a.akamaihd.net/steamcommunity/public/images/apps/843440/6d991c94af5a0a5303a5767c6760daa5218eb106.jpg",
    "icongray": "https://steamcdn-a.akamaihd.net/steamcommunity/public/images/apps/843440/b58ccd22582359276ef05222ff51a24c1e1106b0.jpg"
  },
  {
    "name": "ACH_25",
    "defaultvalue": 0,
    "displayName": "25 Points",
    "hidden": 0,
    "description": "Earn 25 Points in a single round",
    "icon": "https://steamcdn-a.akamaihd.net/steamcommunity/public/images/apps/843440/bd18b196b8bfb0b09251bea6b8447ab958898db5.jpg",
    "icongray": "https://steamcdn-a.akamaihd.net/steamcommunity/public/images/apps/843440/a2d4e590437911db68c70c77bc2fc2735919e6c2.jpg"
  },
  {
    "name": "ACH_30",
    "defaultvalue": 0,
    "displayName": "30 Points",
    "hidden": 0,
    "description": "Earn 30 Points in a single round",
    "icon": "https://steamcdn-a.akamaihd.net/steamcommunity/public/images/apps/843440/2ab2df15a126f7fd21e85b8e12682e5463f173a1.jpg",
    "icongray": "https://steamcdn-a.akamaihd.net/steamcommunity/public/images/apps/843440/084b5779a0c279396b4e92ab73a71a57216f26f8.jpg"
  },
  {
    "name": "ACH_35",
    "defaultvalue": 0,
    "displayName": "35 Points",
    "hidden": 0,
    "description": "Earn 35 Points in a single round",
    "icon": "https://steamcdn-a.akamaihd.net/steamcommunity/public/images/apps/843440/96e59fc9763a1903f9ea3be41ff4e4b8e9fa1cfa.jpg",
    "icongray": "https://steamcdn-a.akamaihd.net/steamcommunity/public/images/apps/843440/419bb7ef55173a7743a49746882ce6ae77a1fa74.jpg"
  },
  {
    "name": "ACH_40",
    "defaultvalue": 0,
    "displayName": "40 Points",
    "hidden": 0,
    "description": "Earn 40 Points in a single round",
    "icon": "https://steamcdn-a.akamaihd.net/steamcommunity/public/images/apps/843440/cc8701032441ef0da548800638d2f65ff403315c.jpg",
    "icongray": "https://steamcdn-a.akamaihd.net/steamcommunity/public/images/apps/843440/31c6a7f30f00a143e81e56f5be3725a7c26fa3c6.jpg"
  },
  {
    "name": "ACH_45",
    "defaultvalue": 0,
    "displayName": "45 Points",
    "hidden": 0,
    "description": "Earn 45 Points in a single round",
    "icon": "https://steamcdn-a.akamaihd.net/steamcommunity/public/images/apps/843440/382e0c4bd0e65cfd96d3c7fedf8d8d8e00c5da18.jpg",
    "icongray": "https://steamcdn-a.akamaihd.net/steamcommunity/public/images/apps/843440/6651f8f31e1686bdb1522fcbf353e975cc8737ae.jpg"
  },
  {
    "name": "ACH_50",
    "defaultvalue": 0,
    "displayName": "50 Points",
    "hidden": 0,
    "description": "Earn 50 Points in a single round",
    "icon": "https://steamcdn-a.akamaihd.net/steamcommunity/public/images/apps/843440/5aa1089193eadee31acb057b96bf3d648215fc6e.jpg",
    "icongray": "https://steamcdn-a.akamaihd.net/steamcommunity/public/images/apps/843440/af491016803a89ce1441e2d7005ed7c276fcfdd5.jpg"
  },
  {
    "name": "ACH_55",
    "defaultvalue": 0,
    "displayName": "55 Points",
    "hidden": 0,
    "description": "Earn 55 Points in a single round",
    "icon": "https://steamcdn-a.akamaihd.net/steamcommunity/public/images/apps/843440/b6e20e2794bd209ae304e53439ab92e1d4b645d5.jpg",
    "icongray": "https://steamcdn-a.akamaihd.net/steamcommunity/public/images/apps/843440/90eeffc1fb939509894464c59a0295232d39c66f.jpg"
  },
  {
    "name": "ACH_60",
    "defaultvalue": 0,
    "displayName": "60 Points",
    "hidden": 0,
    "description": "Earn 60 Points in a single round",
    "icon": "https://steamcdn-a.akamaihd.net/steamcommunity/public/images/apps/843440/2440703aef75275c7b0114f94ac81d0c9187112d.jpg",
    "icongray": "https://steamcdn-a.akamaihd.net/steamcommunity/public/images/apps/843440/a2b14e11242ddf7c43a3f32266453f1cbd2d4ca0.jpg"
  },
  {
    "name": "ACH_SCORETOTAL",
    "defaultvalue": 0,
    "displayName": "Over 1000!",
    "hidden": 0,
    "description": "Earn 1000 points across all rounds",
    "icon": "https://steamcdn-a.akamaihd.net/steamcommunity/public/images/apps/843440/6e716164796c8da7a626e48cc3e33a105031420d.jpg",
    "icongray": "https://steamcdn-a.akamaihd.net/steamcommunity/public/images/apps/843440/ed520662853147ca94116e62306aecf022388740.jpg"
  },
  {
    "name": "ACH_NEARMISSES",
    "defaultvalue": 0,
    "displayName": "That was close!",
    "hidden": 0,
    "description": "Have a total of 50 near misses",
    "icon": "https://steamcdn-a.akamaihd.net/steamcommunity/public/images/apps/843440/5e7a23f7c99e10bee1e84c08940547acd8dc2783.jpg",
    "icongray": "https://steamcdn-a.akamaihd.net/steamcommunity/public/images/apps/843440/c6794d576c422c9c535454128e963d1ac59b5ed8.jpg"
  },
  {
    "name": "ACH_PLAYER02",
    "defaultvalue": 0,
    "displayName": "Unlock Red",
    "hidden": 0,
    "description": "Unlock Red",
    "icon": "https://steamcdn-a.akamaihd.net/steamcommunity/public/images/apps/843440/885623188db9ecf58d1f7ab2fd1d469821528cdd.jpg",
    "icongray": "https://steamcdn-a.akamaihd.net/steamcommunity/public/images/apps/843440/5ffaf1b0c5b5d6fcbff41d0ace655466dca40b41.jpg"
  },
  {
    "name": "ACH_PLAYER03",
    "defaultvalue": 0,
    "displayName": "Unlock Green",
    "hidden": 0,
    "description": "Unlock Green",
    "icon": "https://steamcdn-a.akamaihd.net/steamcommunity/public/images/apps/843440/d48e19415cfef94f6408da2614b292718c68fb14.jpg",
    "icongray": "https://steamcdn-a.akamaihd.net/steamcommunity/public/images/apps/843440/cf1e7134761a331a4f9489f62a5872cb3c5afd19.jpg"
  },
  {
    "name": "ACH_PLAYER04",
    "defaultvalue": 0,
    "displayName": "Unlock Orange",
    "hidden": 0,
    "description": "Unlock Orange",
    "icon": "https://steamcdn-a.akamaihd.net/steamcommunity/public/images/apps/843440/5dca64aa7c1621764cdcf7423d0f72508e0b3fa3.jpg",
    "icongray": "https://steamcdn-a.akamaihd.net/steamcommunity/public/images/apps/843440/e62dfe19500d1bf9d84873d5622a617a4ded43c0.jpg"
  },
  {
    "name": "ACH_PLAYER05",
    "defaultvalue": 0,
    "displayName": "Unlock Purple",
    "hidden": 0,
    "description": "Unlock Purple",
    "icon": "https://steamcdn-a.akamaihd.net/steamcommunity/public/images/apps/843440/6933818fd92ea6debc18874a36edd38b1e6ce7b8.jpg",
    "icongray": "https://steamcdn-a.akamaihd.net/steamcommunity/public/images/apps/843440/30ca1fda241ff3b287de82581d370f4008e52fe5.jpg"
  },
  {
    "name": "ACH_PLAYER06",
    "defaultvalue": 0,
    "displayName": "Unlock Ding Dong",
    "hidden": 0,
    "description": "Unlock Ding Dong",
    "icon": "https://steamcdn-a.akamaihd.net/steamcommunity/public/images/apps/843440/7e23f88dfc4c990f3a93fd1d0efaf45bb22477b8.jpg",
    "icongray": "https://steamcdn-a.akamaihd.net/steamcommunity/public/images/apps/843440/1c8eca606cb5698b2c26654edaaa4e008d4a5ddc.jpg"
  },
  {
    "name": "ACH_PLAYER07",
    "defaultvalue": 0,
    "displayName": "Unlock Diamo",
    "hidden": 0,
    "description": "Unlock Diamo",
    "icon": "https://steamcdn-a.akamaihd.net/steamcommunity/public/images/apps/843440/80930bd343727d39126544bd84aebfacd6940769.jpg",
    "icongray": "https://steamcdn-a.akamaihd.net/steamcommunity/public/images/apps/843440/f244e1093d3cb8875a772d06bec4f8284e8d0614.jpg"
  },
  {
    "name": "ACH_PLAYER08",
    "defaultvalue": 0,
    "displayName": "Unlock Orbt",
    "hidden": 0,
    "description": "Unlock Orbt",
    "icon": "https://steamcdn-a.akamaihd.net/steamcommunity/public/images/apps/843440/92de691a35bffc5e464afdd96b670b91032afb07.jpg",
    "icongray": "https://steamcdn-a.akamaihd.net/steamcommunity/public/images/apps/843440/d6af25ceb3a529f15ffd9e7362475312a01b0f2c.jpg"
  },
  {
    "name": "ACH_PLAYER09",
    "defaultvalue": 0,
    "displayName": "Unlock Bit Blaster",
    "hidden": 0,
    "description": "Unlock Bit Blaster",
    "icon": "https://steamcdn-a.akamaihd.net/steamcommunity/public/images/apps/843440/704411f9a63b381fb142649c508a854353ac3e86.jpg",
    "icongray": "https://steamcdn-a.akamaihd.net/steamcommunity/public/images/apps/843440/295cbdc7ff1e0b6ddf635e2c1fab99f47422fd36.jpg"
  },
  {
    "name": "ACH_PLAYER10",
    "defaultvalue": 0,
    "displayName": "Unlock Mick and Rorty",
    "hidden": 0,
    "description": "Unlock Mick and Rorty",
    "icon": "https://steamcdn-a.akamaihd.net/steamcommunity/public/images/apps/843440/ea7e6432c3579a70d6262332503118a232da55b0.jpg",
    "icongray": "https://steamcdn-a.akamaihd.net/steamcommunity/public/images/apps/843440/562ac683aab1ce62ba04a2c80be02058feeeae79.jpg"
  },
  {
    "name": "ACH_UNLOCKED",
    "defaultvalue": 0,
    "displayName": "Unlock all skins",
    "hidden": 0,
    "description": "Unlock all skins in the game",
    "icon": "https://steamcdn-a.akamaihd.net/steamcommunity/public/images/apps/843440/20bc181dddbc92b55a1eb2d8389b1c65a0aa7c3e.jpg",
    "icongray": "https://steamcdn-a.akamaihd.net/steamcommunity/public/images/apps/843440/6e649a80c17d2f3ac3c516a504907940cf300dcc.jpg"
  }
]