{
  "Dlcs": {},
  "Name": "The Great Art Race",
  "AppId": "33580",
  "ImageUrl": "https://steamcdn-a.akamaihd.net/steam/apps/33580/header.jpg?t=1573747068",
  "Languages": [
    "english"
  ],
  "Platforms": {
    "windows": true,
    "mac": false,
    "linux": false
  }
}