{
  "Dlcs": {},
  "Name": "OboStar",
  "AppId": "846370",
  "ImageUrl": "https://steamcdn-a.akamaihd.net/steam/apps/846370/header.jpg?t=1525192660",
  "Languages": [
    "english"
  ],
  "Platforms": {
    "windows": true,
    "mac": false,
    "linux": false
  }
}