{
  "Dlcs": {},
  "Name": "XLaunchpad",
  "AppId": "995660",
  "ImageUrl": "https://steamcdn-a.akamaihd.net/steam/apps/995660/header.jpg?t=1585802344",
  "Languages": [
    "english",
    "schinese"
  ],
  "Platforms": {
    "windows": true,
    "mac": false,
    "linux": false
  }
}