﻿[
  {
    "name": "ACH_EP_PENULTIMOOFTHECARIBBEAN",
    "defaultvalue": 0,
    "displayName": "The Beginning of a Servantship",
    "hidden": 0,
    "description": "Complete Mission \"Penultimo of the Caribbean\"",
    "icon": "https://steamcdn-a.akamaihd.net/steamcommunity/public/images/apps/492720/876015434e2025511a1d5fd46b4054097a035e31.jpg",
    "icongray": "https://steamcdn-a.akamaihd.net/steamcommunity/public/images/apps/492720/1d464b4eb3a5e210b6931447ca8eb8530ea26d96.jpg"
  },
  {
    "name": "ACH_EP_SHACKLAND",
    "defaultvalue": 0,
    "displayName": "Shackadelic",
    "hidden": 0,
    "description": "Complete Mission \"Shackland\"",
    "icon": "https://steamcdn-a.akamaihd.net/steamcommunity/public/images/apps/492720/a7070a68b0a5097356172b92ad17db064058e086.jpg",
    "icongray": "https://steamcdn-a.akamaihd.net/steamcommunity/public/images/apps/492720/047f58bfc070b6ea33ae1b7f0493ec0487305a22.jpg"
  },
  {
    "name": "ACH_EP_CONCRETEBEACH",
    "defaultvalue": 0,
    "displayName": "Of Seals And Men",
    "hidden": 0,
    "description": "Complete Mission \"Concrete Beach\"",
    "icon": "https://steamcdn-a.akamaihd.net/steamcommunity/public/images/apps/492720/192a7fa865ea87c8cd3dc5bb5eeaa72790fc917d.jpg",
    "icongray": "https://steamcdn-a.akamaihd.net/steamcommunity/public/images/apps/492720/800f1dd30a2403a0d2ed227885e34529c15baa2a.jpg"
  },
  {
    "name": "ACH_EP_SPEAKEASY",
    "defaultvalue": 0,
    "displayName": "Number 18",
    "hidden": 0,
    "description": "Complete Mission \"Speakeasy\"",
    "icon": "https://steamcdn-a.akamaihd.net/steamcommunity/public/images/apps/492720/9dccedd7d3395746350ea6178aae986b2a4dc035.jpg",
    "icongray": "https://steamcdn-a.akamaihd.net/steamcommunity/public/images/apps/492720/2a8e442f35ecf2c3d63749738d39bdf1c0e86c0e.jpg"
  },
  {
    "name": "ACH_EP_PIRATEKING",
    "defaultvalue": 0,
    "displayName": "The Legend of Langostino",
    "hidden": 0,
    "description": "Complete Mission \"Pirate King\"",
    "icon": "https://steamcdn-a.akamaihd.net/steamcommunity/public/images/apps/492720/23249780fd29f40f0d4527b369c0a521a5cdb351.jpg",
    "icongray": "https://steamcdn-a.akamaihd.net/steamcommunity/public/images/apps/492720/911633986277a840ee7245aa14b209db5d7d0e76.jpg"
  },
  {
    "name": "ACH_EP_CHOCOLATEFACTORY",
    "defaultvalue": 0,
    "displayName": "The Dreamer of Dreams",
    "hidden": 0,
    "description": "Complete Mission \"Chocolate Factory\"",
    "icon": "https://steamcdn-a.akamaihd.net/steamcommunity/public/images/apps/492720/3c76f6c1edf88e68d05432e91de3e82ad2e50a03.jpg",
    "icongray": "https://steamcdn-a.akamaihd.net/steamcommunity/public/images/apps/492720/6a09e6a717d3ca81054981ba770e7b79c2c6438e.jpg"
  },
  {
    "name": "ACH_EP_BALLGAME",
    "defaultvalue": 0,
    "displayName": "Go Sovereigns!",
    "hidden": 0,
    "description": "Complete Mission \"Ballgame\"",
    "icon": "https://steamcdn-a.akamaihd.net/steamcommunity/public/images/apps/492720/a073cb31287f5f0a9f11b71c66881b4e3e296d15.jpg",
    "icongray": "https://steamcdn-a.akamaihd.net/steamcommunity/public/images/apps/492720/2f06e262481dd2b0027b466e5823661ae56b8426.jpg"
  },
  {
    "name": "ACH_EP_BETTERREDTHANDEAD",
    "defaultvalue": 0,
    "displayName": "Caribbean Comrade",
    "hidden": 0,
    "description": "Complete Mission \"Better Red Than Dead\"",
    "icon": "https://steamcdn-a.akamaihd.net/steamcommunity/public/images/apps/492720/b2862853e1fde873fa496b7749fa7c566c39bca6.jpg",
    "icongray": "https://steamcdn-a.akamaihd.net/steamcommunity/public/images/apps/492720/ab88615ec7876d213811fca59485be32f8af0b50.jpg"
  },
  {
    "name": "ACH_EP_SUPERPOWERDEFENCE",
    "defaultvalue": 0,
    "displayName": "Firestarter",
    "hidden": 0,
    "description": "Complete Mission \"Superpower Defense\"",
    "icon": "https://steamcdn-a.akamaihd.net/steamcommunity/public/images/apps/492720/ca54e98ce3e211ba51bfc5c6abdb0875245684a6.jpg",
    "icongray": "https://steamcdn-a.akamaihd.net/steamcommunity/public/images/apps/492720/cd49caf54cdb8e1c1c24f1d2d2a64553fae05fff.jpg"
  },
  {
    "name": "ACH_EP_TROPICOLAND",
    "defaultvalue": 0,
    "displayName": "For Science!",
    "hidden": 0,
    "description": "Complete Mission \"Tropicoland\"",
    "icon": "https://steamcdn-a.akamaihd.net/steamcommunity/public/images/apps/492720/ed90fcd2b3327d4e8bc0ed981b9f7e3d90358760.jpg",
    "icongray": "https://steamcdn-a.akamaihd.net/steamcommunity/public/images/apps/492720/a1c0af691a783de0a4dabe295f047d9e3c05aa0b.jpg"
  },
  {
    "name": "ACH_EP_ACTSOFGOD",
    "defaultvalue": 0,
    "displayName": "Happy Ending?",
    "hidden": 0,
    "description": "Complete Mission \"Acts of God\"",
    "icon": "https://steamcdn-a.akamaihd.net/steamcommunity/public/images/apps/492720/5864ac84a2d418f0309dfdaac925b3455b7d6955.jpg",
    "icongray": "https://steamcdn-a.akamaihd.net/steamcommunity/public/images/apps/492720/d55b4ea6868f3aae15ceb65fcab8b50bfcfae60d.jpg"
  },
  {
    "name": "ACH_EP_THEREFERENDUM",
    "defaultvalue": 0,
    "displayName": "Apocalypso",
    "hidden": 0,
    "description": "Complete Mission \"The Referendum\"",
    "icon": "https://steamcdn-a.akamaihd.net/steamcommunity/public/images/apps/492720/b510b8fee132afa794904a2581aba415be81872e.jpg",
    "icongray": "https://steamcdn-a.akamaihd.net/steamcommunity/public/images/apps/492720/2fe29be829561dd396ea6ed37bc2f828c45f6ab0.jpg"
  },
  {
    "name": "ACH_EP_BUREAUCRAZY",
    "defaultvalue": 0,
    "displayName": "Computer Says \"No\"",
    "hidden": 0,
    "description": "Complete Mission \"Bureaucrazy 2.0\"",
    "icon": "https://steamcdn-a.akamaihd.net/steamcommunity/public/images/apps/492720/124638454fa840b3e7662c3ac312f602473c3b37.jpg",
    "icongray": "https://steamcdn-a.akamaihd.net/steamcommunity/public/images/apps/492720/9f0ff8e5c1991cb6e87e42204257d1e59f4c4377.jpg"
  },
  {
    "name": "ACH_EP_ONEPERCENTERS",
    "defaultvalue": 0,
    "displayName": "Beware The Betman",
    "hidden": 0,
    "description": "Complete Mission \"The One-Percenters\"",
    "icon": "https://steamcdn-a.akamaihd.net/steamcommunity/public/images/apps/492720/a614df21591b565fd6b9d2971c668ef9ae27149e.jpg",
    "icongray": "https://steamcdn-a.akamaihd.net/steamcommunity/public/images/apps/492720/2d6837db4567c6f3a07659a59fe841ab857a5777.jpg"
  },
  {
    "name": "ACH_EP_BATTLEROYALE",
    "defaultvalue": 0,
    "displayName": "Viva Tropico!",
    "hidden": 0,
    "description": "Complete Mission \"Battle Royal\"",
    "icon": "https://steamcdn-a.akamaihd.net/steamcommunity/public/images/apps/492720/f7dfd765d13db3045370ea8fa6407cf270a60a9a.jpg",
    "icongray": "https://steamcdn-a.akamaihd.net/steamcommunity/public/images/apps/492720/f181d5c56b21e3d40439714b4f6e9a406b1d3358.jpg"
  },
  {
    "name": "ACH_EP_ALLMISSIONS",
    "defaultvalue": 0,
    "displayName": "Been there, Done That",
    "hidden": 0,
    "description": "Complete all Missions",
    "icon": "https://steamcdn-a.akamaihd.net/steamcommunity/public/images/apps/492720/249948634e0f7dcbfbe4b5927fdb4a75685bfc26.jpg",
    "icongray": "https://steamcdn-a.akamaihd.net/steamcommunity/public/images/apps/492720/99e440e5cbe8b4dceb036d5ed6e221604dca9a93.jpg"
  },
  {
    "name": "ACH_TERRAFORMER",
    "defaultvalue": 0,
    "displayName": "Terraformer",
    "hidden": 0,
    "description": "Generate 15 random maps",
    "icon": "https://steamcdn-a.akamaihd.net/steamcommunity/public/images/apps/492720/0cb74b7ec22208b1d57dc8063c2a98aadd491fa1.jpg",
    "icongray": "https://steamcdn-a.akamaihd.net/steamcommunity/public/images/apps/492720/192f5ecd345e8ab66a18dea3be9397ae53c84935.jpg"
  },
  {
    "name": "ACH_PROMISINGENDEAVORS",
    "defaultvalue": 0,
    "displayName": "Promising Endeavors",
    "hidden": 0,
    "description": "Perform 500 raids across all games",
    "icon": "https://steamcdn-a.akamaihd.net/steamcommunity/public/images/apps/492720/bcdca03c15ffc50fd4fc0bb68160a5efca7f7519.jpg",
    "icongray": "https://steamcdn-a.akamaihd.net/steamcommunity/public/images/apps/492720/a52c401c0d20f85f63b552b572aa612eeacc48f1.jpg"
  },
  {
    "name": "ACH_MYWAYS",
    "defaultvalue": 0,
    "displayName": "My Ways",
    "hidden": 0,
    "description": "End 50 protests by force or by bribing the protesters across all games",
    "icon": "https://steamcdn-a.akamaihd.net/steamcommunity/public/images/apps/492720/34290ff15a40fc6a5de67cfedf9055372b902ceb.jpg",
    "icongray": "https://steamcdn-a.akamaihd.net/steamcommunity/public/images/apps/492720/6690c4e2ba8622aa02b7f7252db83301c5069429.jpg"
  },
  {
    "name": "ACH_JUSTONEMORETERM",
    "defaultvalue": 0,
    "displayName": "Just One...More...Term...",
    "hidden": 0,
    "description": "Spend 5 hours playing Tropico 6",
    "icon": "https://steamcdn-a.akamaihd.net/steamcommunity/public/images/apps/492720/6ab42c457d4753ecbe5ab09e1f2c6709829ac1ce.jpg",
    "icongray": "https://steamcdn-a.akamaihd.net/steamcommunity/public/images/apps/492720/830dba37bf57411f76168ade00c3b498e84fdb43.jpg"
  },
  {
    "name": "ACH_KNIGHTTOLITTLEDUCK",
    "defaultvalue": 0,
    "displayName": "From Knight to Little Duck",
    "hidden": 0,
    "description": "Construct bridges with an accumulated length of 728 grid tiles",
    "icon": "https://steamcdn-a.akamaihd.net/steamcommunity/public/images/apps/492720/7d4e7de1bb21956cf5d5e253b09e16b92dfc22f1.jpg",
    "icongray": "https://steamcdn-a.akamaihd.net/steamcommunity/public/images/apps/492720/d1e92418dabdf2eedfa35882b2dd55e37041c2a8.jpg"
  },
  {
    "name": "ACH_TEAMPLAYER",
    "defaultvalue": 0,
    "displayName": "Teamplayer",
    "hidden": 0,
    "description": "Win a multiplayer game as a team",
    "icon": "https://steamcdn-a.akamaihd.net/steamcommunity/public/images/apps/492720/8bddb20245cfa5a9f8f7351b4af63cbfe32f5d57.jpg",
    "icongray": "https://steamcdn-a.akamaihd.net/steamcommunity/public/images/apps/492720/5877523bba3fa2c87cf6cfae863dbe78e59dc18c.jpg"
  },
  {
    "name": "ACH_TROPICOGREATAGAIN",
    "defaultvalue": 0,
    "displayName": "Make Tropico Great Again!",
    "hidden": 0,
    "description": "Finish a sandbox game without any imports",
    "icon": "https://steamcdn-a.akamaihd.net/steamcommunity/public/images/apps/492720/030be7cc4e59c06c65260fb2e584f8c31b4ec113.jpg",
    "icongray": "https://steamcdn-a.akamaihd.net/steamcommunity/public/images/apps/492720/0cc4abdd1f7c6fe0dff96c31ba3458ba70dddb1d.jpg"
  },
  {
    "name": "ACH_SURVIVOR",
    "defaultvalue": 0,
    "displayName": "Survivor",
    "hidden": 0,
    "description": "Win a sandbox game on a map with a volcano on it with Disasters set to \"Frequent\"",
    "icon": "https://steamcdn-a.akamaihd.net/steamcommunity/public/images/apps/492720/fb1067232265cd18f16dde3a427fb286a3b1e440.jpg",
    "icongray": "https://steamcdn-a.akamaihd.net/steamcommunity/public/images/apps/492720/bf5f49d02ee29309afd6da2d43ec6f21c9dcefbc.jpg"
  },
  {
    "name": "ACH_WATCHTHEWORLDBURN",
    "defaultvalue": 0,
    "displayName": "Watch The World Burn",
    "hidden": 0,
    "description": "Win a sandbox game without ever constructing a fire station",
    "icon": "https://steamcdn-a.akamaihd.net/steamcommunity/public/images/apps/492720/8586bca2cda6f7efba6e427997294fb2ff137e5a.jpg",
    "icongray": "https://steamcdn-a.akamaihd.net/steamcommunity/public/images/apps/492720/8ca4d41712fe8f75183a884b0e7df11e987cb3b8.jpg"
  },
  {
    "name": "ACH_THOUSANDPOPULATION",
    "defaultvalue": 0,
    "displayName": "Un-Lonely Island",
    "hidden": 0,
    "description": "Reach a population of 1000",
    "icon": "https://steamcdn-a.akamaihd.net/steamcommunity/public/images/apps/492720/2425e1ef41839f7542bfce691db5306ac4f9165b.jpg",
    "icongray": "https://steamcdn-a.akamaihd.net/steamcommunity/public/images/apps/492720/1f90108d2145b0e7114fa4c744f624613327159c.jpg"
  },
  {
    "name": "ACH_DONTPANIC",
    "defaultvalue": 0,
    "displayName": "Don't Panic!",
    "hidden": 0,
    "description": "Have a Space Mission end with a special event",
    "icon": "https://steamcdn-a.akamaihd.net/steamcommunity/public/images/apps/492720/4a2cb19174e293be3d8a382597dd82ebd28fcfa7.jpg",
    "icongray": "https://steamcdn-a.akamaihd.net/steamcommunity/public/images/apps/492720/1afd0ae2e6554c528cc4c8243335a010fd75281a.jpg"
  },
  {
    "name": "ACH_MILITARYCOUP",
    "defaultvalue": 0,
    "displayName": "One Does Not Simply Stage A Coup",
    "hidden": 0,
    "description": "Survive a military coup",
    "icon": "https://steamcdn-a.akamaihd.net/steamcommunity/public/images/apps/492720/e7d946b95f5705736626b5e4913067b955826e39.jpg",
    "icongray": "https://steamcdn-a.akamaihd.net/steamcommunity/public/images/apps/492720/446363d75fda2efa485233a441e9307e9bdbb80e.jpg"
  },
  {
    "name": "ACH_DOUBLEESCALATION",
    "defaultvalue": 0,
    "displayName": "Double Trouble",
    "hidden": 0,
    "description": "Have two faction escalations at the same time",
    "icon": "https://steamcdn-a.akamaihd.net/steamcommunity/public/images/apps/492720/462c4251d4ac03dc30a543207854afb5b2810a00.jpg",
    "icongray": "https://steamcdn-a.akamaihd.net/steamcommunity/public/images/apps/492720/9e4360baf37a01cab2a6fa896f19d8ff0aaa63e5.jpg"
  },
  {
    "name": "ACH_WONDER_FRENCHCONNECTION",
    "defaultvalue": 0,
    "displayName": "French Connection",
    "hidden": 0,
    "description": "Have the Statue of Liberty and the Eiffel Tower constructed at the same time",
    "icon": "https://steamcdn-a.akamaihd.net/steamcommunity/public/images/apps/492720/83dbb5f4b9ffcbbab52244ac2064ffee9f5c9fb0.jpg",
    "icongray": "https://steamcdn-a.akamaihd.net/steamcommunity/public/images/apps/492720/310a5157703bc68fe6ffbb7341b252e495e6dfe6.jpg"
  },
  {
    "name": "ACH_WONDER_MUMMY",
    "defaultvalue": 0,
    "displayName": "Curse of the Mummy",
    "hidden": 0,
    "description": "Have the Sphinx and the Great Pyramid constructed at the same time",
    "icon": "https://steamcdn-a.akamaihd.net/steamcommunity/public/images/apps/492720/3eb43ec6c2f4c4be44e670a49802a85ca1405077.jpg",
    "icongray": "https://steamcdn-a.akamaihd.net/steamcommunity/public/images/apps/492720/828db2d0a9273dcf911cd84eee1fb30180469e07.jpg"
  },
  {
    "name": "ACH_WONDER_FAIRYTALE",
    "defaultvalue": 0,
    "displayName": "Fairy Tale Come True",
    "hidden": 0,
    "description": "Have Neuschwanstein Castle and the Taj Mahal constructed at the same time",
    "icon": "https://steamcdn-a.akamaihd.net/steamcommunity/public/images/apps/492720/0d653b2c0d84e6014abd352ed4ceefc53ff99363.jpg",
    "icongray": "https://steamcdn-a.akamaihd.net/steamcommunity/public/images/apps/492720/0e9d1348e645744f9a4451c7dfe51e197fde1214.jpg"
  },
  {
    "name": "ACH_TRADEISMYTRAIT",
    "defaultvalue": 0,
    "displayName": "Trade Is My Trait",
    "hidden": 0,
    "description": "Have an active trade route for all trade licenses at the same time",
    "icon": "https://steamcdn-a.akamaihd.net/steamcommunity/public/images/apps/492720/3a2998b77cd9a2944e088ed01057d89e3cb0166c.jpg",
    "icongray": "https://steamcdn-a.akamaihd.net/steamcommunity/public/images/apps/492720/39ba92889b86a4e5a36e838dc952bd920d3ecbf6.jpg"
  },
  {
    "name": "ACH_TIMEFORWONDER",
    "defaultvalue": 0,
    "displayName": "The Time For Wonders",
    "hidden": 0,
    "description": "Have four heists active at the same time",
    "icon": "https://steamcdn-a.akamaihd.net/steamcommunity/public/images/apps/492720/c003fcffeb7ff5de5d55d931f46837091a28836e.jpg",
    "icongray": "https://steamcdn-a.akamaihd.net/steamcommunity/public/images/apps/492720/8d1d04497515d7cd2e794413eeeb67af8d4a4435.jpg"
  },
  {
    "name": "ACH_NARCISSIST",
    "defaultvalue": 0,
    "displayName": "Narcissist",
    "hidden": 0,
    "description": "Have 20 inspiring statues at the same time",
    "icon": "https://steamcdn-a.akamaihd.net/steamcommunity/public/images/apps/492720/596b68075439732d88b4fae8540cc1c4210c30b7.jpg",
    "icongray": "https://steamcdn-a.akamaihd.net/steamcommunity/public/images/apps/492720/347dda02b059a9b3599944fdfaebbb70bb748476.jpg"
  },
  {
    "name": "ACH_GOVERNATOR",
    "defaultvalue": 0,
    "displayName": "The Governator",
    "hidden": 0,
    "description": "Remain in colonial era for 30 years in one game",
    "icon": "https://steamcdn-a.akamaihd.net/steamcommunity/public/images/apps/492720/4ff45386355b669e9f4a7bd43b5ed65c5c8ac5d0.jpg",
    "icongray": "https://steamcdn-a.akamaihd.net/steamcommunity/public/images/apps/492720/11255269ded4e0fc81d645e9ff478cebab47eac1.jpg"
  },
  {
    "name": "ACH_SUBLIMESUBLIMINALSUPREME",
    "defaultvalue": 0,
    "displayName": "Sublime Subliminal Supreme",
    "hidden": 0,
    "description": "Have 90% of all Tropicans support the same faction",
    "icon": "https://steamcdn-a.akamaihd.net/steamcommunity/public/images/apps/492720/441ea4e85c42f09b38089ab4da0efe4b48f17c11.jpg",
    "icongray": "https://steamcdn-a.akamaihd.net/steamcommunity/public/images/apps/492720/e86bccbcfdf2ad84d8f8aafa55ebff33ea21cc72.jpg"
  },
  {
    "name": "ACH_CHAINGANG",
    "defaultvalue": 0,
    "displayName": "Chain Gang",
    "hidden": 0,
    "description": "Generate $3,500 in a month with convict labor",
    "icon": "https://steamcdn-a.akamaihd.net/steamcommunity/public/images/apps/492720/926d9602d0326c857ba4ba99e75e9078fdeeaac3.jpg",
    "icongray": "https://steamcdn-a.akamaihd.net/steamcommunity/public/images/apps/492720/267f8b52065315bbcd1e859bee690109dc7b024f.jpg"
  },
  {
    "name": "ACH_MISSION_SWISSBANK",
    "defaultvalue": 0,
    "displayName": "I Owe You Nothing",
    "hidden": 0,
    "description": "Reach a Swiss bank account credit of S$ 50k without ever accepting a single Broker request",
    "icon": "https://steamcdn-a.akamaihd.net/steamcommunity/public/images/apps/492720/63c5e17169aa200a8f91e1dc8d8e7e44a12dd569.jpg",
    "icongray": "https://steamcdn-a.akamaihd.net/steamcommunity/public/images/apps/492720/012bc6c99b15cc20815c35142f7e6e77ca8a5df2.jpg"
  },
  {
    "name": "ACH_MISSION_NOELECTION",
    "defaultvalue": 0,
    "displayName": "We Don't Have Time For That",
    "hidden": 0,
    "description": "Have no elections within a duration of 20 years",
    "icon": "https://steamcdn-a.akamaihd.net/steamcommunity/public/images/apps/492720/f0b272e3b7a250d68d6060a17b42dcb5d480738f.jpg",
    "icongray": "https://steamcdn-a.akamaihd.net/steamcommunity/public/images/apps/492720/bfb53d9ffa20b431f109cf7b199e0309b2829636.jpg"
  }
]