{
  "Dlcs": {},
  "Name": "Casino Blackjack",
  "AppId": "800350",
  "ImageUrl": "https://steamcdn-a.akamaihd.net/steam/apps/800350/header.jpg?t=1519385776",
  "Languages": [
    "english"
  ],
  "Platforms": {
    "windows": true,
    "mac": false,
    "linux": false
  }
}