{
  "Dlcs": {},
  "Name": "New Star Manager",
  "AppId": "883130",
  "ImageUrl": "https://steamcdn-a.akamaihd.net/steam/apps/883130/header.jpg?t=1560509063",
  "Languages": [
    "english",
    "french",
    "italian",
    "german",
    "spanish",
    "portuguese",
    "russian",
    "turkish"
  ],
  "Platforms": {
    "windows": true,
    "mac": true,
    "linux": false
  }
}