{
  "Dlcs": {},
  "Name": "Soul Shards",
  "AppId": "400070",
  "ImageUrl": "https://steamcdn-a.akamaihd.net/steam/apps/400070/header.jpg?t=1574987288",
  "Languages": [
    "english"
  ],
  "Platforms": {
    "windows": true,
    "mac": false,
    "linux": false
  }
}