{
  "Dlcs": {},
  "Name": "Giant Slayers",
  "AppId": "663970",
  "ImageUrl": "https://steamcdn-a.akamaihd.net/steam/apps/663970/header.jpg?t=1562281734",
  "Languages": [
    "english"
  ],
  "Platforms": {
    "windows": true,
    "mac": false,
    "linux": false
  }
}