{
  "Dlcs": {},
  "Name": "Beacon",
  "AppId": "856610",
  "ImageUrl": "https://steamcdn-a.akamaihd.net/steam/apps/856610/header.jpg?t=1585325377",
  "Languages": [
    "english"
  ],
  "Platforms": {
    "windows": true,
    "mac": false,
    "linux": false
  }
}