{
  "Dlcs": {},
  "Name": "Valzar",
  "AppId": "405810",
  "ImageUrl": "https://steamcdn-a.akamaihd.net/steam/apps/405810/header.jpg?t=1450810933",
  "Languages": [
    "english"
  ],
  "Platforms": {
    "windows": true,
    "mac": false,
    "linux": false
  }
}