﻿[
  {
    "name": "ACH_SR_WINNER",
    "defaultvalue": 0,
    "displayName": "Chicken Dinner",
    "hidden": 0,
    "description": "Win a battle",
    "icon": "https://steamcdn-a.akamaihd.net/steamcommunity/public/images/apps/502370/e4145f557fb090ff043f79c72a1d8acad6d3839f.jpg",
    "icongray": "https://steamcdn-a.akamaihd.net/steamcommunity/public/images/apps/502370/8e6a020efbd1bd0bc6edfd492cf9ea082b058662.jpg"
  },
  {
    "name": "ACH_SR_SANDBOX",
    "defaultvalue": 0,
    "displayName": "All The Toys",
    "hidden": 0,
    "description": "Win a sandbox game",
    "icon": "https://steamcdn-a.akamaihd.net/steamcommunity/public/images/apps/502370/fbe1f886d0abb497c84ead2de4b1519b26a55805.jpg",
    "icongray": "https://steamcdn-a.akamaihd.net/steamcommunity/public/images/apps/502370/e4a842c71037c461a41fa906bce5c0c47fb248fa.jpg"
  },
  {
    "name": "ACH_SR_PVP",
    "defaultvalue": 0,
    "displayName": "Street Fighting",
    "hidden": 0,
    "description": "Win a multiplayer game",
    "icon": "https://steamcdn-a.akamaihd.net/steamcommunity/public/images/apps/502370/f2910e0ebc8337d7e716447fbe78ebace7b19581.jpg",
    "icongray": "https://steamcdn-a.akamaihd.net/steamcommunity/public/images/apps/502370/b69b877bbd6fdba7940a8e6065bcbe905ff19fc4.jpg"
  },
  {
    "name": "ACH_SR_KILLER0",
    "defaultvalue": 0,
    "displayName": "Lupophobia",
    "hidden": 0,
    "description": "Kill 100 Space Wolves",
    "icon": "https://steamcdn-a.akamaihd.net/steamcommunity/public/images/apps/502370/69298a029cf5f3daa32474b6a98446d024c1ab99.jpg",
    "icongray": "https://steamcdn-a.akamaihd.net/steamcommunity/public/images/apps/502370/bff9b9b73af30c23d964f12782c69254092d7225.jpg"
  },
  {
    "name": "ACH_SR_KILLER1",
    "defaultvalue": 0,
    "displayName": "Ork's Bane",
    "hidden": 0,
    "description": "Kill 100 Orks",
    "icon": "https://steamcdn-a.akamaihd.net/steamcommunity/public/images/apps/502370/7eca6794a2a7c128684216af4e3a85623a6eff65.jpg",
    "icongray": "https://steamcdn-a.akamaihd.net/steamcommunity/public/images/apps/502370/5d71a77b892591f607f64b877d56e53a73a25ae5.jpg"
  },
  {
    "name": "ACH_SR_KILLER2",
    "defaultvalue": 0,
    "displayName": "Quis Custodiet Ipsos Custodes?",
    "hidden": 0,
    "description": "Kill 100 Astra Militarum",
    "icon": "https://steamcdn-a.akamaihd.net/steamcommunity/public/images/apps/502370/c392245e7a50abd3087b119fe3501e0fb0a56f41.jpg",
    "icongray": "https://steamcdn-a.akamaihd.net/steamcommunity/public/images/apps/502370/c4e4d5dd946a221c23af54737faa7e45e76f80f3.jpg"
  },
  {
    "name": "ACH_SR_KILLER3",
    "defaultvalue": 0,
    "displayName": "That’ll Tzeentch You!",
    "hidden": 0,
    "description": "Kill 100 Chaos units",
    "icon": "https://steamcdn-a.akamaihd.net/steamcommunity/public/images/apps/502370/338651995accce30f79e80b3f69c67193500d88f.jpg",
    "icongray": "https://steamcdn-a.akamaihd.net/steamcommunity/public/images/apps/502370/1a3a2544764e897ad698e51ee5adacc36dce0f7d.jpg"
  },
  {
    "name": "ACH_SR_FREEBLADE",
    "defaultvalue": 0,
    "displayName": "Play Freeblade!",
    "hidden": 0,
    "description": "Kill a Freeblade",
    "icon": "https://steamcdn-a.akamaihd.net/steamcommunity/public/images/apps/502370/46cef2d5233b865653d292526df1d0edcf600eff.jpg",
    "icongray": "https://steamcdn-a.akamaihd.net/steamcommunity/public/images/apps/502370/7eb16df8c30c535df1f85a1d9f000452a01ed481.jpg"
  },
  {
    "name": "ACH_SR_MORK",
    "defaultvalue": 0,
    "displayName": "Shazbot",
    "hidden": 0,
    "description": "Kill a Morkanout",
    "icon": "https://steamcdn-a.akamaihd.net/steamcommunity/public/images/apps/502370/b52806d45e902e19ed42727fd72f15b0c31dcdfa.jpg",
    "icongray": "https://steamcdn-a.akamaihd.net/steamcommunity/public/images/apps/502370/edcf799978d52ff5e9515b1e93981a7f281f23c6.jpg"
  },
  {
    "name": "ACH_SR_SHADOW",
    "defaultvalue": 0,
    "displayName": "That's Heavy Dude...",
    "hidden": 0,
    "description": "Destroy a Shadowsword",
    "icon": "https://steamcdn-a.akamaihd.net/steamcommunity/public/images/apps/502370/4c849530cc34383ba6fcad7499ccf60e560dfe6e.jpg",
    "icongray": "https://steamcdn-a.akamaihd.net/steamcommunity/public/images/apps/502370/c146f616e79d0683605c0e4e00f70c87f9dbfee4.jpg"
  },
  {
    "name": "ACH_SR_SKULLS",
    "defaultvalue": 0,
    "displayName": "Not So Thirsty Now!",
    "hidden": 0,
    "description": "Destroy a Lord of Skulls",
    "icon": "https://steamcdn-a.akamaihd.net/steamcommunity/public/images/apps/502370/3f6c770eac3181d901c3b2931d137d3b15c8b26a.jpg",
    "icongray": "https://steamcdn-a.akamaihd.net/steamcommunity/public/images/apps/502370/162eb22ee8d9a951e1b66b3a6cf5eea151b4a491.jpg"
  },
  {
    "name": "ACH_SR_BBQ",
    "defaultvalue": 0,
    "displayName": "That's Good Barbecue",
    "hidden": 0,
    "description": "Kill 25 units with flame attacks",
    "icon": "https://steamcdn-a.akamaihd.net/steamcommunity/public/images/apps/502370/1a9a60f9040b70a5f420072609b360b71d5121e4.jpg",
    "icongray": "https://steamcdn-a.akamaihd.net/steamcommunity/public/images/apps/502370/791db47ba645f42ba78e53383601191d449b6bbb.jpg"
  }
]