﻿{
  "Dlcs": {
    "489990": {
      "Name": ".EXE - OST",
      "ImageUrl": "https://steamcdn-a.akamaihd.net/steam/apps/489990/header.jpg?t=1552410473"
    }
  },
  "Name": ".EXE",
  "AppId": "471640",
  "ImageUrl": "https://steamcdn-a.akamaihd.net/steam/apps/471640/header.jpg?t=1551732471",
  "Languages": [
    "english"
  ],
  "Platforms": {
    "windows": true,
    "mac": true,
    "linux": true
  }
}