{
  "Dlcs": {},
  "Name": "Dark Blood",
  "AppId": "1080440",
  "ImageUrl": "https://steamcdn-a.akamaihd.net/steam/apps/1080440/header.jpg?t=1559045068",
  "Languages": [
    "english"
  ],
  "Platforms": {
    "windows": true,
    "mac": false,
    "linux": false
  }
}