{
  "Dlcs": {},
  "Name": "The Fan",
  "AppId": "572330",
  "ImageUrl": "https://steamcdn-a.akamaihd.net/steam/apps/572330/header.jpg?t=1593004829",
  "Languages": [
    "english",
    "french"
  ],
  "Platforms": {
    "windows": true,
    "mac": false,
    "linux": false
  }
}