{
  "Dlcs": {},
  "Name": "Dark Tales: Edgar Allan Poe's The Fall of the House of Usher Collector's Edition",
  "AppId": "678400",
  "ImageUrl": "https://steamcdn-a.akamaihd.net/steam/apps/678400/header.jpg?t=1531436388",
  "Languages": [
    "english"
  ],
  "Platforms": {
    "windows": true,
    "mac": false,
    "linux": false
  }
}