{
  "Dlcs": {},
  "Name": "Zether",
  "AppId": "924830",
  "ImageUrl": "https://steamcdn-a.akamaihd.net/steam/apps/924830/header.jpg?t=1542043142",
  "Languages": [
    "french"
  ],
  "Platforms": {
    "windows": true,
    "mac": false,
    "linux": false
  }
}