[
  {
    "name": "GameVersionStat",
    "defaultvalue": 0,
    "displayName": ""
  },
  {
    "name": "MaxCashInBankStat",
    "defaultvalue": 0,
    "displayName": ""
  },
  {
    "name": "NumKills_GruntStat",
    "defaultvalue": 0,
    "displayName": ""
  },
  {
    "name": "NumKills_InfantryStat",
    "defaultvalue": 0,
    "displayName": ""
  },
  {
    "name": "NumKills_ShieldGenStat",
    "defaultvalue": 0,
    "displayName": ""
  },
  {
    "name": "NumKills_HealerStat",
    "defaultvalue": 0,
    "displayName": ""
  },
  {
    "name": "NumKills_SniperStat",
    "defaultvalue": 0,
    "displayName": ""
  },
  {
    "name": "NumKills_CommanderStat",
    "defaultvalue": 0,
    "displayName": ""
  },
  {
    "name": "NumKills_HeroStat",
    "defaultvalue": 0,
    "displayName": ""
  },
  {
    "name": "NumKills_MartyrStat",
    "defaultvalue": 0,
    "displayName": ""
  },
  {
    "name": "NumKills_HeavyStat",
    "defaultvalue": 0,
    "displayName": ""
  },
  {
    "name": "NumKills_GiantStat",
    "defaultvalue": 0,
    "displayName": ""
  },
  {
    "name": "NumKills_SpawnerStat",
    "defaultvalue": 0,
    "displayName": ""
  },
  {
    "name": "NumKills_WheelerStat",
    "defaultvalue": 0,
    "displayName": ""
  },
  {
    "name": "NumKills_SmallSaucerStat",
    "defaultvalue": 0,
    "displayName": ""
  },
  {
    "name": "NumKills_BigSaucerStat",
    "defaultvalue": 0,
    "displayName": ""
  },
  {
    "name": "NumKills_FastFlyingStat",
    "defaultvalue": 0,
    "displayName": ""
  },
  {
    "name": "NumKills_DroneStat",
    "defaultvalue": 0,
    "displayName": ""
  },
  {
    "name": "NumKills_GroundDroneStat",
    "defaultvalue": 0,
    "displayName": ""
  },
  {
    "name": "NumKills_GruntTerminatorStat",
    "defaultvalue": 0,
    "displayName": ""
  },
  {
    "name": "NumKills_InfantryTerminatorStat",
    "defaultvalue": 0,
    "displayName": ""
  },
  {
    "name": "NumKills_HeavyTerminatorStat",
    "defaultvalue": 0,
    "displayName": ""
  },
  {
    "name": "NumKills_SpawnerTerminatorStat",
    "defaultvalue": 0,
    "displayName": ""
  },
  {
    "name": "NumKills_TotalStat",
    "defaultvalue": 0,
    "displayName": ""
  },
  {
    "name": "NumWins_TotalStat",
    "defaultvalue": 0,
    "displayName": ""
  },
  {
    "name": "NumKills_ByBombStat",
    "defaultvalue": 0,
    "displayName": ""
  },
  {
    "name": "NumKills_ByElectricStat",
    "defaultvalue": 0,
    "displayName": ""
  },
  {
    "name": "AbilitySlowMotion_CountStat",
    "defaultvalue": 0,
    "displayName": ""
  },
  {
    "name": "AbilityBomb_CountStat",
    "defaultvalue": 0,
    "displayName": ""
  },
  {
    "name": "NumKills_ByGrenadeStat",
    "defaultvalue": 0,
    "displayName": ""
  },
  {
    "name": "NumKills_ByRocketStat",
    "defaultvalue": 0,
    "displayName": ""
  },
  {
    "name": "NumKills_ByMissileStat",
    "defaultvalue": 0,
    "displayName": ""
  },
  {
    "name": "NumKills_ByEIGrenadeStat",
    "defaultvalue": 0,
    "displayName": ""
  },
  {
    "name": "NumKills_ByFireJetStat",
    "defaultvalue": 0,
    "displayName": ""
  },
  {
    "name": "NumKills_ByFireRainStat",
    "defaultvalue": 0,
    "displayName": ""
  },
  {
    "name": "NumSlowdowns_ByNGrenadeStat",
    "defaultvalue": 0,
    "displayName": ""
  },
  {
    "name": "NumSlowdowns_ByArcticLensStat",
    "defaultvalue": 0,
    "displayName": ""
  },
  {
    "name": "NumSlowdowns_ByGuidedBlizzardStat",
    "defaultvalue": 0,
    "displayName": ""
  },
  {
    "name": "NumKills_ByGlobularLightningStat",
    "defaultvalue": 0,
    "displayName": ""
  },
  {
    "name": "NumKills_ByElectronNestStat",
    "defaultvalue": 0,
    "displayName": ""
  },
  {
    "name": "NumKills_ByHorizonDischargeStat",
    "defaultvalue": 0,
    "displayName": ""
  }
]