[
  {
    "name": "achievement_1",
    "defaultvalue": 0,
    "displayName": "Prowler",
    "hidden": 0,
    "description": "Successfully break into someone's home.",
    "icon": "https://steamcdn-a.akamaihd.net/steamcommunity/public/images/apps/527820/17071b22049cd27087ede40d98a0d3e63d812790.jpg",
    "icongray": "https://steamcdn-a.akamaihd.net/steamcommunity/public/images/apps/527820/47c54e2086199836f7b9f6263ed415d3abbc3838.jpg"
  },
  {
    "name": "achievement_2",
    "defaultvalue": 0,
    "displayName": "Bookworm",
    "hidden": 0,
    "description": "Read several books.",
    "icon": "https://steamcdn-a.akamaihd.net/steamcommunity/public/images/apps/527820/37663a78baf79b348dce0c2a45842c71f56de679.jpg",
    "icongray": "https://steamcdn-a.akamaihd.net/steamcommunity/public/images/apps/527820/47c54e2086199836f7b9f6263ed415d3abbc3838.jpg"
  },
  {
    "name": "achievement_3",
    "defaultvalue": 0,
    "displayName": "Natural Born Thespian",
    "hidden": 0,
    "description": "Give one amazing homily.",
    "icon": "https://steamcdn-a.akamaihd.net/steamcommunity/public/images/apps/527820/95392fcdedee702791f9785ff3d9053c0e0719d8.jpg",
    "icongray": "https://steamcdn-a.akamaihd.net/steamcommunity/public/images/apps/527820/47c54e2086199836f7b9f6263ed415d3abbc3838.jpg"
  },
  {
    "name": "achievement_4",
    "defaultvalue": 0,
    "displayName": "Party Pooper",
    "hidden": 0,
    "description": "Turn down a social invitation.",
    "icon": "https://steamcdn-a.akamaihd.net/steamcommunity/public/images/apps/527820/179a7e4883d5e6541116457f7c218609217edaea.jpg",
    "icongray": "https://steamcdn-a.akamaihd.net/steamcommunity/public/images/apps/527820/47c54e2086199836f7b9f6263ed415d3abbc3838.jpg"
  },
  {
    "name": "achievement_5",
    "defaultvalue": 0,
    "displayName": "Man of the Cloth",
    "hidden": 0,
    "description": "Properly administer confession without a single mistake.",
    "icon": "https://steamcdn-a.akamaihd.net/steamcommunity/public/images/apps/527820/eaea47bb35db89c143ec7c6d915b9e05787cc9b1.jpg",
    "icongray": "https://steamcdn-a.akamaihd.net/steamcommunity/public/images/apps/527820/47c54e2086199836f7b9f6263ed415d3abbc3838.jpg"
  },
  {
    "name": "achievement_6",
    "defaultvalue": 0,
    "displayName": "Who You Gonna Call?",
    "hidden": 0,
    "description": "Experience a ghostly encounter.",
    "icon": "https://steamcdn-a.akamaihd.net/steamcommunity/public/images/apps/527820/21ace9cbb5fdcac85206a8794ed78fc44b303de2.jpg",
    "icongray": "https://steamcdn-a.akamaihd.net/steamcommunity/public/images/apps/527820/47c54e2086199836f7b9f6263ed415d3abbc3838.jpg"
  },
  {
    "name": "achievement_7",
    "defaultvalue": 0,
    "displayName": "Puzzlemaster",
    "hidden": 0,
    "description": "Find a way past the double portcullis.",
    "icon": "https://steamcdn-a.akamaihd.net/steamcommunity/public/images/apps/527820/e039b79b7508d3b49db775ed9ac29f77a3905e85.jpg",
    "icongray": "https://steamcdn-a.akamaihd.net/steamcommunity/public/images/apps/527820/47c54e2086199836f7b9f6263ed415d3abbc3838.jpg"
  },
  {
    "name": "achievement_8",
    "defaultvalue": 0,
    "displayName": "Common Thief",
    "hidden": 0,
    "description": "Steal back your car keys.",
    "icon": "https://steamcdn-a.akamaihd.net/steamcommunity/public/images/apps/527820/07b7e7117e29a96f453e93653512df223cae3d28.jpg",
    "icongray": "https://steamcdn-a.akamaihd.net/steamcommunity/public/images/apps/527820/47c54e2086199836f7b9f6263ed415d3abbc3838.jpg"
  },
  {
    "name": "achievement_9",
    "defaultvalue": 0,
    "displayName": "Guardian Angel",
    "hidden": 0,
    "description": "Help out someone in need.",
    "icon": "https://steamcdn-a.akamaihd.net/steamcommunity/public/images/apps/527820/a4ee19ad3b0de70c68a62c3b85b51ce4764f6e3d.jpg",
    "icongray": "https://steamcdn-a.akamaihd.net/steamcommunity/public/images/apps/527820/47c54e2086199836f7b9f6263ed415d3abbc3838.jpg"
  },
  {
    "name": "achievement_10",
    "defaultvalue": 0,
    "displayName": "Carpenter",
    "hidden": 0,
    "description": "Fix the garden well and retrieve its contents.",
    "icon": "https://steamcdn-a.akamaihd.net/steamcommunity/public/images/apps/527820/89a43468fa4deab34a28823a6316c8229a1b5e8c.jpg",
    "icongray": "https://steamcdn-a.akamaihd.net/steamcommunity/public/images/apps/527820/47c54e2086199836f7b9f6263ed415d3abbc3838.jpg"
  },
  {
    "name": "achievement_11",
    "defaultvalue": 0,
    "displayName": "Gembearer",
    "hidden": 0,
    "description": "Read some ancient documents and recover a sacred artifact.",
    "icon": "https://steamcdn-a.akamaihd.net/steamcommunity/public/images/apps/527820/61e79585a8580df7bad230390710079edb1ef552.jpg",
    "icongray": "https://steamcdn-a.akamaihd.net/steamcommunity/public/images/apps/527820/47c54e2086199836f7b9f6263ed415d3abbc3838.jpg"
  },
  {
    "name": "achievement_12",
    "defaultvalue": 0,
    "displayName": "Clockwork Ballerina",
    "hidden": 0,
    "description": "Showcase your love of music boxes.",
    "icon": "https://steamcdn-a.akamaihd.net/steamcommunity/public/images/apps/527820/be22d19048c9f7314bbcf222357dc11434a61400.jpg",
    "icongray": "https://steamcdn-a.akamaihd.net/steamcommunity/public/images/apps/527820/47c54e2086199836f7b9f6263ed415d3abbc3838.jpg"
  },
  {
    "name": "achievement_13",
    "defaultvalue": 0,
    "displayName": "Master Alchemist",
    "hidden": 0,
    "description": "Create the proper potion on the first try.",
    "icon": "https://steamcdn-a.akamaihd.net/steamcommunity/public/images/apps/527820/875b5f7ae13fc58f1efdf47f391cd6f13d107c41.jpg",
    "icongray": "https://steamcdn-a.akamaihd.net/steamcommunity/public/images/apps/527820/47c54e2086199836f7b9f6263ed415d3abbc3838.jpg"
  },
  {
    "name": "achievement_14",
    "defaultvalue": 0,
    "displayName": "Ghost Whisperer",
    "hidden": 0,
    "description": "Reach out to the other side.",
    "icon": "https://steamcdn-a.akamaihd.net/steamcommunity/public/images/apps/527820/343ac5cc9d634908a6b5ebef76ea77fa701d7d25.jpg",
    "icongray": "https://steamcdn-a.akamaihd.net/steamcommunity/public/images/apps/527820/47c54e2086199836f7b9f6263ed415d3abbc3838.jpg"
  },
  {
    "name": "achievement_15",
    "defaultvalue": 0,
    "displayName": "The Next Beethoven",
    "hidden": 0,
    "description": "Tune up your piano playing skills.",
    "icon": "https://steamcdn-a.akamaihd.net/steamcommunity/public/images/apps/527820/f5e21b92b6c9d948b63fe332f043d66d2d06ea8c.jpg",
    "icongray": "https://steamcdn-a.akamaihd.net/steamcommunity/public/images/apps/527820/47c54e2086199836f7b9f6263ed415d3abbc3838.jpg"
  },
  {
    "name": "achievement_16",
    "defaultvalue": 0,
    "displayName": "Detective",
    "hidden": 0,
    "description": "Find all the clues at the scene of a crime.",
    "icon": "https://steamcdn-a.akamaihd.net/steamcommunity/public/images/apps/527820/e177c5d6c8d782d1d5a1b8fd6bd7ec33747cd619.jpg",
    "icongray": "https://steamcdn-a.akamaihd.net/steamcommunity/public/images/apps/527820/47c54e2086199836f7b9f6263ed415d3abbc3838.jpg"
  },
  {
    "name": "achievement_17",
    "defaultvalue": 0,
    "displayName": "Art Lover",
    "hidden": 0,
    "description": "Thoroughly investigate a macabre painting.",
    "icon": "https://steamcdn-a.akamaihd.net/steamcommunity/public/images/apps/527820/7be6118e771899c704aa03c12fc4c07b419848b8.jpg",
    "icongray": "https://steamcdn-a.akamaihd.net/steamcommunity/public/images/apps/527820/47c54e2086199836f7b9f6263ed415d3abbc3838.jpg"
  },
  {
    "name": "achievement_18",
    "defaultvalue": 0,
    "displayName": "Truthseeker",
    "hidden": 0,
    "description": "Discover a dark secret.",
    "icon": "https://steamcdn-a.akamaihd.net/steamcommunity/public/images/apps/527820/14cfb464de8bdf6025f317a4f38bf35f66b24b84.jpg",
    "icongray": "https://steamcdn-a.akamaihd.net/steamcommunity/public/images/apps/527820/47c54e2086199836f7b9f6263ed415d3abbc3838.jpg"
  },
  {
    "name": "achievement_19",
    "defaultvalue": 0,
    "displayName": "Child at Heart",
    "hidden": 0,
    "description": "Reminisce about your childhood.",
    "icon": "https://steamcdn-a.akamaihd.net/steamcommunity/public/images/apps/527820/c5ee35e46d317b1484eca27131097d782e05f657.jpg",
    "icongray": "https://steamcdn-a.akamaihd.net/steamcommunity/public/images/apps/527820/47c54e2086199836f7b9f6263ed415d3abbc3838.jpg"
  },
  {
    "name": "achievement_20",
    "defaultvalue": 0,
    "displayName": "Black Out",
    "hidden": 0,
    "description": "See some stars.",
    "icon": "https://steamcdn-a.akamaihd.net/steamcommunity/public/images/apps/527820/05d04e4a0eb1cbddb9021f0b0fba0f2e54184cbd.jpg",
    "icongray": "https://steamcdn-a.akamaihd.net/steamcommunity/public/images/apps/527820/47c54e2086199836f7b9f6263ed415d3abbc3838.jpg"
  },
  {
    "name": "achievement_21",
    "defaultvalue": 0,
    "displayName": "Initiate",
    "hidden": 0,
    "description": "Face judgment.",
    "icon": "https://steamcdn-a.akamaihd.net/steamcommunity/public/images/apps/527820/bfb83035cdfc16f39ff0b17974d8468bde93ad99.jpg",
    "icongray": "https://steamcdn-a.akamaihd.net/steamcommunity/public/images/apps/527820/47c54e2086199836f7b9f6263ed415d3abbc3838.jpg"
  },
  {
    "name": "achievement_22",
    "defaultvalue": 0,
    "displayName": "Maze Runner",
    "hidden": 0,
    "description": "Successfully navigate the sewers.",
    "icon": "https://steamcdn-a.akamaihd.net/steamcommunity/public/images/apps/527820/83cb656abebabc7bcd08e9f099cad048ada1e4fe.jpg",
    "icongray": "https://steamcdn-a.akamaihd.net/steamcommunity/public/images/apps/527820/47c54e2086199836f7b9f6263ed415d3abbc3838.jpg"
  },
  {
    "name": "achievement_23",
    "defaultvalue": 0,
    "displayName": "Glutton for Punishment",
    "hidden": 0,
    "description": "Get every possible \"game over\" in a single playthrough.",
    "icon": "https://steamcdn-a.akamaihd.net/steamcommunity/public/images/apps/527820/a8ca56fe009cf619225aa4a9cad5aad038d52789.jpg",
    "icongray": "https://steamcdn-a.akamaihd.net/steamcommunity/public/images/apps/527820/47c54e2086199836f7b9f6263ed415d3abbc3838.jpg"
  },
  {
    "name": "achievement_24",
    "defaultvalue": 0,
    "displayName": "Acolyte",
    "hidden": 0,
    "description": "Complete the game.",
    "icon": "https://steamcdn-a.akamaihd.net/steamcommunity/public/images/apps/527820/598b78474f9969bf89593301d4bbf1b4e6f6dc0d.jpg",
    "icongray": "https://steamcdn-a.akamaihd.net/steamcommunity/public/images/apps/527820/47c54e2086199836f7b9f6263ed415d3abbc3838.jpg"
  },
  {
    "name": "achievement_25",
    "defaultvalue": 0,
    "displayName": "Meticulous",
    "hidden": 0,
    "description": "Achieve a final score of at least 700.",
    "icon": "https://steamcdn-a.akamaihd.net/steamcommunity/public/images/apps/527820/570d6162905fba88255cb8f307089a728cc2f09e.jpg",
    "icongray": "https://steamcdn-a.akamaihd.net/steamcommunity/public/images/apps/527820/47c54e2086199836f7b9f6263ed415d3abbc3838.jpg"
  },
  {
    "name": "achievement_26",
    "defaultvalue": 0,
    "displayName": "Coin Collector",
    "hidden": 0,
    "description": "Collect all three plastic coins.",
    "icon": "https://steamcdn-a.akamaihd.net/steamcommunity/public/images/apps/527820/118d562a9f1c96069426d19bd63bf2b131bf15c7.jpg",
    "icongray": "https://steamcdn-a.akamaihd.net/steamcommunity/public/images/apps/527820/47c54e2086199836f7b9f6263ed415d3abbc3838.jpg"
  },
  {
    "name": "achievement_27",
    "defaultvalue": 0,
    "displayName": "Journal Snoop",
    "hidden": 0,
    "description": "Find all of Randolph's journal entries.",
    "icon": "https://steamcdn-a.akamaihd.net/steamcommunity/public/images/apps/527820/18a77ada0d44d98a3cf15b12d33ee9da81237a28.jpg",
    "icongray": "https://steamcdn-a.akamaihd.net/steamcommunity/public/images/apps/527820/47c54e2086199836f7b9f6263ed415d3abbc3838.jpg"
  },
  {
    "name": "achievement_28",
    "defaultvalue": 0,
    "displayName": "Reverent",
    "hidden": 0,
    "description": "Pray several times.",
    "icon": "https://steamcdn-a.akamaihd.net/steamcommunity/public/images/apps/527820/13f62bca11e58353042b8f31fc2426d08b107e34.jpg",
    "icongray": "https://steamcdn-a.akamaihd.net/steamcommunity/public/images/apps/527820/47c54e2086199836f7b9f6263ed415d3abbc3838.jpg"
  },
  {
    "name": "achievement_29",
    "defaultvalue": 0,
    "displayName": "Lost and Found",
    "hidden": 0,
    "description": "Find something you previously lost.",
    "icon": "https://steamcdn-a.akamaihd.net/steamcommunity/public/images/apps/527820/c255c23202fd504713d1e6c11b35ed8125ca629e.jpg",
    "icongray": "https://steamcdn-a.akamaihd.net/steamcommunity/public/images/apps/527820/47c54e2086199836f7b9f6263ed415d3abbc3838.jpg"
  },
  {
    "name": "achievement_30",
    "defaultvalue": 0,
    "displayName": "Master Adventurer",
    "hidden": 0,
    "description": "Use no hints in a single playthrough.",
    "icon": "https://steamcdn-a.akamaihd.net/steamcommunity/public/images/apps/527820/08d45729859bd981b1c687468f1be825a93c2c6e.jpg",
    "icongray": "https://steamcdn-a.akamaihd.net/steamcommunity/public/images/apps/527820/47c54e2086199836f7b9f6263ed415d3abbc3838.jpg"
  }
]