{
  "Name": "Shonen Ashibe GO! GO! Goma-chan: It's Summer! It's the Pool! It's Goma-chan!",
  "ImageUrl": "https://steamcdn-a.akamaihd.net/steam/apps/653470/header.jpg?t=1552583698",
  "Type": "episode"
}