[
  {
    "name": "STAT_BADDIES_DROWNED",
    "defaultvalue": 0,
    "displayName": "Monsters drowned."
  },
  {
    "name": "STAT_BADDIES_KILLED",
    "defaultvalue": 0,
    "displayName": "Monsters killed."
  }
]