[
  {
    "name": "UNLOCKED_CHARS",
    "defaultvalue": 0,
    "displayName": "Unlocked Characters"
  },
  {
    "name": "KILL_MONSTERS",
    "defaultvalue": 0,
    "displayName": "Killed Monsters"
  },
  {
    "name": "KILL_ZOMBIES",
    "defaultvalue": 0,
    "displayName": "Killed Zombies"
  },
  {
    "name": "KILL_GHOSTS",
    "defaultvalue": 0,
    "displayName": "Killed Ghosts"
  },
  {
    "name": "KILL_CLOWNS",
    "defaultvalue": 0,
    "displayName": "Killed Clowns"
  },
  {
    "name": "KILL_GARGOYLES",
    "defaultvalue": 0,
    "displayName": "Killed Gargoyles"
  },
  {
    "name": "KILL_SKELETONS",
    "defaultvalue": 0,
    "displayName": "Killed Skeletons"
  },
  {
    "name": "COMPLETED_CASES",
    "defaultvalue": 0,
    "displayName": "Completed Cases"
  },
  {
    "name": "FORCED_DOORS",
    "defaultvalue": 0,
    "displayName": "Forced Doors"
  }
]