{
  "Dlcs": {},
  "Name": "Zen Chess: Mate in Two",
  "AppId": "1042980",
  "ImageUrl": "https://steamcdn-a.akamaihd.net/steam/apps/1042980/header.jpg?t=1597266681",
  "Languages": [
    "english",
    "french",
    "italian",
    "german",
    "spanish",
    "arabic",
    "bulgarian",
    "czech",
    "danish",
    "dutch",
    "finnish",
    "greek",
    "hungarian",
    "japanese",
    "korean",
    "norwegian",
    "polish",
    "portuguese",
    "portuguese",
    "romanian",
    "russian",
    "schinese",
    "latam",
    "swedish",
    "thai",
    "tchinese",
    "turkish",
    "ukrainian",
    "vietnamese"
  ],
  "Platforms": {
    "windows": true,
    "mac": true,
    "linux": false
  }
}