{
  "Dlcs": {
    "1083670": {
      "Name": "Epido - Second Move",
      "ImageUrl": "https://steamcdn-a.akamaihd.net/steam/apps/1083670/header.jpg?t=1568982122"
    }
  },
  "Name": "Epido",
  "AppId": "1012630",
  "ImageUrl": "https://steamcdn-a.akamaihd.net/steam/apps/1012630/header.jpg?t=1583680016",
  "Languages": [
    "english",
    "german",
    "russian",
    "japanese",
    "schinese",
    "tchinese",
    "korean",
    "french",
    "italian",
    "spanish",
    "latam",
    "portuguese",
    "portuguese",
    "polish"
  ],
  "Platforms": {
    "windows": true,
    "mac": false,
    "linux": false
  }
}