[
  {
    "name": "1ST_CLEARED",
    "defaultvalue": 0,
    "displayName": "1st Stage Cleared",
    "hidden": 0,
    "description": "1st Stage Cleared",
    "icon": "https://steamcdn-a.akamaihd.net/steamcommunity/public/images/apps/1012630/8adccf51dea26d1576d71e0ba6c57c7d30c3d824.jpg",
    "icongray": "https://steamcdn-a.akamaihd.net/steamcommunity/public/images/apps/1012630/4787226892bd8dc23ecb3b407da88c9352627e6e.jpg"
  },
  {
    "name": "2ND_CLEARED",
    "defaultvalue": 0,
    "displayName": "2nd Stage Cleared",
    "hidden": 0,
    "description": "2nd Stage Cleared",
    "icon": "https://steamcdn-a.akamaihd.net/steamcommunity/public/images/apps/1012630/275efb7d2c18354a5bb0f037f6e1694186af5748.jpg",
    "icongray": "https://steamcdn-a.akamaihd.net/steamcommunity/public/images/apps/1012630/1abe431235b6e625c04d0bee0a3f90b7eb4b38bd.jpg"
  },
  {
    "name": "3RD_CLEARED",
    "defaultvalue": 0,
    "displayName": "3rd Stage Cleared",
    "hidden": 0,
    "description": "3rd Stage Cleared",
    "icon": "https://steamcdn-a.akamaihd.net/steamcommunity/public/images/apps/1012630/43b06355620cb0b7ebc3cfb66385197c5875377e.jpg",
    "icongray": "https://steamcdn-a.akamaihd.net/steamcommunity/public/images/apps/1012630/7ad02dd1db298dd3aa3b8358982a6fb14c0f26cb.jpg"
  },
  {
    "name": "4TH_CLEARED",
    "defaultvalue": 0,
    "displayName": "4th Stage Cleared",
    "hidden": 0,
    "description": "4th Stage Cleared",
    "icon": "https://steamcdn-a.akamaihd.net/steamcommunity/public/images/apps/1012630/3ccfee0ea49a647d34d53834ecf09df0356eb31f.jpg",
    "icongray": "https://steamcdn-a.akamaihd.net/steamcommunity/public/images/apps/1012630/d3c3cd9c75a88e038454b17f3012689cdcad3bc8.jpg"
  },
  {
    "name": "5TH_CLEARED",
    "defaultvalue": 0,
    "displayName": "5th Stage Cleared",
    "hidden": 0,
    "description": "5th Stage Cleared",
    "icon": "https://steamcdn-a.akamaihd.net/steamcommunity/public/images/apps/1012630/7a15b338b63491235edf633948e08797bdd25e98.jpg",
    "icongray": "https://steamcdn-a.akamaihd.net/steamcommunity/public/images/apps/1012630/1ff6ccff0da606838cfce20e40a7a6d1899c5d20.jpg"
  },
  {
    "name": "6TH_CLEARED",
    "defaultvalue": 0,
    "displayName": "6th Stage Cleared",
    "hidden": 0,
    "description": "6th Stage Cleared",
    "icon": "https://steamcdn-a.akamaihd.net/steamcommunity/public/images/apps/1012630/1edbc3f02de83c9672c51e55e061b50fc714174b.jpg",
    "icongray": "https://steamcdn-a.akamaihd.net/steamcommunity/public/images/apps/1012630/f8376eec142858f780957082572a1152eebb2da1.jpg"
  },
  {
    "name": "7TH_CLEARED",
    "defaultvalue": 0,
    "displayName": "7th Stage Cleared",
    "hidden": 0,
    "description": "7th Stage Cleared",
    "icon": "https://steamcdn-a.akamaihd.net/steamcommunity/public/images/apps/1012630/ea5193dcd92e14ea06ffc7d477c53f05775213b6.jpg",
    "icongray": "https://steamcdn-a.akamaihd.net/steamcommunity/public/images/apps/1012630/e920ac07f0b78b71ff14eebe892dcc4015b0ac9f.jpg"
  },
  {
    "name": "1ST_COMPLETE",
    "defaultvalue": 0,
    "displayName": "1st Stage Completed",
    "hidden": 0,
    "description": "1st Stage Completed",
    "icon": "https://steamcdn-a.akamaihd.net/steamcommunity/public/images/apps/1012630/2ba4c476d5b703dba498bd3a3af9bd2e73f27268.jpg",
    "icongray": "https://steamcdn-a.akamaihd.net/steamcommunity/public/images/apps/1012630/473e31d5cd87adca3ba112f59e5c78995ad8308b.jpg"
  },
  {
    "name": "2ND_COMPLETE",
    "defaultvalue": 0,
    "displayName": "2nd Stage Completed",
    "hidden": 0,
    "description": "2nd Stage Completed",
    "icon": "https://steamcdn-a.akamaihd.net/steamcommunity/public/images/apps/1012630/4adb67a140f81a3aa0fbdae6c22cd7bb83e71164.jpg",
    "icongray": "https://steamcdn-a.akamaihd.net/steamcommunity/public/images/apps/1012630/e1018616cead539fa72a5f861de6b4fd8353f499.jpg"
  },
  {
    "name": "3RD_COMPLETE",
    "defaultvalue": 0,
    "displayName": "3rd Stage Completed",
    "hidden": 0,
    "description": "3rd Stage Completed",
    "icon": "https://steamcdn-a.akamaihd.net/steamcommunity/public/images/apps/1012630/3a1e8874c9e6f82a79d7d96d80696ddfc7d29883.jpg",
    "icongray": "https://steamcdn-a.akamaihd.net/steamcommunity/public/images/apps/1012630/079b2b587c4760c0537c8fbe30a3a15498c9eb86.jpg"
  },
  {
    "name": "4TH_COMPLETE",
    "defaultvalue": 0,
    "displayName": "4th Stage Completed",
    "hidden": 0,
    "description": "4th Stage Completed",
    "icon": "https://steamcdn-a.akamaihd.net/steamcommunity/public/images/apps/1012630/92fc8843c19b6789ba63d5a70a40f7f09e398c17.jpg",
    "icongray": "https://steamcdn-a.akamaihd.net/steamcommunity/public/images/apps/1012630/e2f00752d96b694af56c99e4f88625e64f993478.jpg"
  },
  {
    "name": "5TH_COMPLETE",
    "defaultvalue": 0,
    "displayName": "5th Stage Completed",
    "hidden": 0,
    "description": "5th Stage Completed",
    "icon": "https://steamcdn-a.akamaihd.net/steamcommunity/public/images/apps/1012630/b5e6214676f5295fc1110fe2e301f7d5913278c4.jpg",
    "icongray": "https://steamcdn-a.akamaihd.net/steamcommunity/public/images/apps/1012630/a579bce59fdf365ba927f108ce980d825ee4c461.jpg"
  },
  {
    "name": "6TH_COMPLETE",
    "defaultvalue": 0,
    "displayName": "6th Stage Completed",
    "hidden": 0,
    "description": "6th Stage Completed",
    "icon": "https://steamcdn-a.akamaihd.net/steamcommunity/public/images/apps/1012630/cbdd22a31969c542a76b4772508b05c40b84acd7.jpg",
    "icongray": "https://steamcdn-a.akamaihd.net/steamcommunity/public/images/apps/1012630/fbb7d36aaf099dacb70546d154346a7ec563db37.jpg"
  },
  {
    "name": "7TH_COMPLETE",
    "defaultvalue": 0,
    "displayName": "7th Stage Completed",
    "hidden": 0,
    "description": "7th Stage Completed",
    "icon": "https://steamcdn-a.akamaihd.net/steamcommunity/public/images/apps/1012630/de31693d72a79907bf9e5938242fce24f15937f8.jpg",
    "icongray": "https://steamcdn-a.akamaihd.net/steamcommunity/public/images/apps/1012630/eb888719a459590e3fbcf3b83e40824b06d2a750.jpg"
  },
  {
    "name": "MIEL_CLEARED",
    "defaultvalue": 0,
    "displayName": "Miel Cleared",
    "hidden": 0,
    "description": "Miel Cleared",
    "icon": "https://steamcdn-a.akamaihd.net/steamcommunity/public/images/apps/1012630/92a842cbd812e5ef5ca7ac4a09284e6e53d0250f.jpg",
    "icongray": "https://steamcdn-a.akamaihd.net/steamcommunity/public/images/apps/1012630/12cc879af98f2df16d21f675d3c3f09fd4847b67.jpg"
  },
  {
    "name": "MIEL_COMPLETED",
    "defaultvalue": 0,
    "displayName": "Miel Completed",
    "hidden": 0,
    "description": "Miel Completed",
    "icon": "https://steamcdn-a.akamaihd.net/steamcommunity/public/images/apps/1012630/e39ba907a64242eca43028f0643ae71116f3804e.jpg",
    "icongray": "https://steamcdn-a.akamaihd.net/steamcommunity/public/images/apps/1012630/29824f088191497621222befd4d38cf401e1e748.jpg"
  },
  {
    "name": "2ND_MOVE_1ST",
    "defaultvalue": 0,
    "displayName": "SecondMove - 1st Stage Completed",
    "hidden": 0,
    "description": "SecondMove - 1st Stage Completed",
    "icon": "https://steamcdn-a.akamaihd.net/steamcommunity/public/images/apps/1012630/5136a9375156a9f843e2f7c8c77f4f744fc31c24.jpg",
    "icongray": "https://steamcdn-a.akamaihd.net/steamcommunity/public/images/apps/1012630/d07b5c5187fa6df8f2e7afbca0f6c3c19fbb7f88.jpg"
  },
  {
    "name": "2ND_MOVE_2ND",
    "defaultvalue": 0,
    "displayName": "SecondMove - 2nd Stage Completed",
    "hidden": 0,
    "description": "SecondMove - 2nd Stage Completed",
    "icon": "https://steamcdn-a.akamaihd.net/steamcommunity/public/images/apps/1012630/e0d6c1c2118a11da143729ee8b9cb4a1f08d2790.jpg",
    "icongray": "https://steamcdn-a.akamaihd.net/steamcommunity/public/images/apps/1012630/473b33e1fcb5dcb530d0161e8aaa9dda4a383de4.jpg"
  },
  {
    "name": "2ND_MOVE_3RD",
    "defaultvalue": 0,
    "displayName": "SecondMove - 3rd Stage Completed",
    "hidden": 0,
    "description": "SecondMove - 3rd Stage Completed",
    "icon": "https://steamcdn-a.akamaihd.net/steamcommunity/public/images/apps/1012630/c373ce2f5738e72f05e81a6d56ff6fd20c9feea9.jpg",
    "icongray": "https://steamcdn-a.akamaihd.net/steamcommunity/public/images/apps/1012630/133be0abca9e11e1541bf41da698102df876fe39.jpg"
  },
  {
    "name": "2ND_MOVE_4TH",
    "defaultvalue": 0,
    "displayName": "SecondMove - 4th Stage Completed",
    "hidden": 0,
    "description": "SecondMove - 4th Stage Completed",
    "icon": "https://steamcdn-a.akamaihd.net/steamcommunity/public/images/apps/1012630/ddc3d438fa41c625fdce60b2fc8d81c11b7ceb24.jpg",
    "icongray": "https://steamcdn-a.akamaihd.net/steamcommunity/public/images/apps/1012630/d962ae37157f1277b80d030ed7f49d074d86a064.jpg"
  },
  {
    "name": "2ND_MOVE_5TH",
    "defaultvalue": 0,
    "displayName": "SecondMove - 5th Stage Completed",
    "hidden": 0,
    "description": "SecondMove - 5th Stage Completed",
    "icon": "https://steamcdn-a.akamaihd.net/steamcommunity/public/images/apps/1012630/b3e4faa0ccc9b08210322df9c390b274ea7e6605.jpg",
    "icongray": "https://steamcdn-a.akamaihd.net/steamcommunity/public/images/apps/1012630/7e58a0cee82f3b42755d3e58cafea5c85208a385.jpg"
  },
  {
    "name": "2ND_MOVE_6TH",
    "defaultvalue": 0,
    "displayName": "SecondMove - 6th Stage Completed",
    "hidden": 0,
    "description": "SecondMove - 6th Stage Completed",
    "icon": "https://steamcdn-a.akamaihd.net/steamcommunity/public/images/apps/1012630/57dd6554d84e43bb567ad068f35d7d0244e8b67f.jpg",
    "icongray": "https://steamcdn-a.akamaihd.net/steamcommunity/public/images/apps/1012630/113a66b4a9220da306e274e1847c67122941faac.jpg"
  },
  {
    "name": "2ND_MOVE_MIELBONUS",
    "defaultvalue": 0,
    "displayName": "SecondMove - Miel Bonus",
    "hidden": 0,
    "description": "SecondMove - Miel Bonus",
    "icon": "https://steamcdn-a.akamaihd.net/steamcommunity/public/images/apps/1012630/940465723addf6151fd4fddb908560d3e5d4e232.jpg",
    "icongray": "https://steamcdn-a.akamaihd.net/steamcommunity/public/images/apps/1012630/e69ca17f93d7aeae51176e20c9350f8d9c0f3c56.jpg"
  },
  {
    "name": "2ND_MOVE_ARCADE",
    "defaultvalue": 0,
    "displayName": "SecondMove - Arcade Cleared",
    "hidden": 0,
    "description": "SecondMove - Arcade Cleared",
    "icon": "https://steamcdn-a.akamaihd.net/steamcommunity/public/images/apps/1012630/aa85d1330ad02f04aeed772e8432dd4a634ff9ac.jpg",
    "icongray": "https://steamcdn-a.akamaihd.net/steamcommunity/public/images/apps/1012630/a61d191e733d78b2c9bc93836bbea6635da37b7c.jpg"
  }
]