{
  "Dlcs": {},
  "Name": "Virtual Warfighter",
  "AppId": "517020",
  "ImageUrl": "https://steamcdn-a.akamaihd.net/steam/apps/517020/header.jpg?t=1572983010",
  "Languages": [
    "english"
  ],
  "Platforms": {
    "windows": true,
    "mac": false,
    "linux": false
  }
}