[
  {
    "name": "jianchi",
    "defaultvalue": 0,
    "displayName": "有幸遇你",
    "hidden": 0,
    "description": "言景翊线HE达成",
    "icon": "https://steamcdn-a.akamaihd.net/steamcommunity/public/images/apps/897270/c9946a39ae2342569e1a87dea5d2e81ef6a0dccf.jpg",
    "icongray": "https://steamcdn-a.akamaihd.net/steamcommunity/public/images/apps/897270/2e8a3e93ca0fe7ba51105861ac73c43751e12dc9.jpg"
  },
  {
    "name": "shouhu",
    "defaultvalue": 0,
    "displayName": "守护你一人",
    "hidden": 0,
    "description": "赫连优线BE达成",
    "icon": "https://steamcdn-a.akamaihd.net/steamcommunity/public/images/apps/897270/f63dc9c72e0dac27fc9f7e6404381775346f86b7.jpg",
    "icongray": "https://steamcdn-a.akamaihd.net/steamcommunity/public/images/apps/897270/993cf44a3d3bac6b5b597d967818de89feb9b67f.jpg"
  },
  {
    "name": "huilai",
    "defaultvalue": 0,
    "displayName": "我会回来的",
    "hidden": 0,
    "description": "言景翊线BE达成",
    "icon": "https://steamcdn-a.akamaihd.net/steamcommunity/public/images/apps/897270/ae553a3c2300a522b3da4ec5eace21f3f9022bf5.jpg",
    "icongray": "https://steamcdn-a.akamaihd.net/steamcommunity/public/images/apps/897270/54c94834edc6658de6f82c2f32314e3a32c68116.jpg"
  },
  {
    "name": "chuanda",
    "defaultvalue": 0,
    "displayName": "传达给你的话",
    "hidden": 0,
    "description": "池月线HE达成",
    "icon": "https://steamcdn-a.akamaihd.net/steamcommunity/public/images/apps/897270/da2b8c19fd5f4a59b129c6265e12a25463aa495b.jpg",
    "icongray": "https://steamcdn-a.akamaihd.net/steamcommunity/public/images/apps/897270/74ed8df030695661a3d9e83b48975ae6038d21f5.jpg"
  },
  {
    "name": "dengni",
    "defaultvalue": 0,
    "displayName": "永恒等待",
    "hidden": 0,
    "description": "池月线BE达成",
    "icon": "https://steamcdn-a.akamaihd.net/steamcommunity/public/images/apps/897270/bafc118e3d4458e3f0d5dfc6dfd7a4af89abf725.jpg",
    "icongray": "https://steamcdn-a.akamaihd.net/steamcommunity/public/images/apps/897270/c495ca13b462cf940a085b2455ee2218718018c1.jpg"
  },
  {
    "name": "ganxie",
    "defaultvalue": 0,
    "displayName": "感谢有你",
    "hidden": 0,
    "description": "赫连优线HE达成",
    "icon": "https://steamcdn-a.akamaihd.net/steamcommunity/public/images/apps/897270/445a97aed262713f7c09a5925ddd9836677e6873.jpg",
    "icongray": "https://steamcdn-a.akamaihd.net/steamcommunity/public/images/apps/897270/e6a848d3bcf649956d057db0d63bf2e619019f5d.jpg"
  },
  {
    "name": "runi",
    "defaultvalue": 0,
    "displayName": "春风如你",
    "hidden": 0,
    "description": "江映霜线HE达成",
    "icon": "https://steamcdn-a.akamaihd.net/steamcommunity/public/images/apps/897270/e3c977697360d261a3bad139a09007f2511b137a.jpg",
    "icongray": "https://steamcdn-a.akamaihd.net/steamcommunity/public/images/apps/897270/2e461368d576df3457c14d257f6955ed842f9f4f.jpg"
  },
  {
    "name": "kuitan",
    "defaultvalue": 0,
    "displayName": "窥探的心",
    "hidden": 0,
    "description": "江映霜BE线达成",
    "icon": "https://steamcdn-a.akamaihd.net/steamcommunity/public/images/apps/897270/a3546905c0720900e7e9a97b100f3378c4cdc752.jpg",
    "icongray": "https://steamcdn-a.akamaihd.net/steamcommunity/public/images/apps/897270/c8ae9d585949d1592a6f25781003238e47c3fbd0.jpg"
  }
]