{
  "Dlcs": {},
  "Name": "Melting pot.",
  "AppId": "1042090",
  "ImageUrl": "https://steamcdn-a.akamaihd.net/steam/apps/1042090/header.jpg?t=1579400508",
  "Languages": [
    "english"
  ],
  "Platforms": {
    "windows": true,
    "mac": false,
    "linux": false
  }
}