[
  {
    "name": "ACH_NEW_PERSPECTIVE",
    "defaultvalue": 0,
    "displayName": "A new perspective!",
    "hidden": 0,
    "description": "Land upside down.",
    "icon": "https://steamcdn-a.akamaihd.net/steamcommunity/public/images/apps/366860/476652cded8d8c03f82b4b9c69c715a16a01faf1.jpg",
    "icongray": "https://steamcdn-a.akamaihd.net/steamcommunity/public/images/apps/366860/9fdaafe98026c0f4a442d5df6325bb3eddbc6046.jpg"
  },
  {
    "name": "ACH_JUST_BEGINNING",
    "defaultvalue": 0,
    "displayName": "This is just the beginning!",
    "hidden": 0,
    "description": "Win a game.",
    "icon": "https://steamcdn-a.akamaihd.net/steamcommunity/public/images/apps/366860/9f02bdef328d19adf21e318f3e1388763e26408b.jpg",
    "icongray": "https://steamcdn-a.akamaihd.net/steamcommunity/public/images/apps/366860/d574e8de0d9a35fb98b2a01e2ff3010aa36f583b.jpg"
  },
  {
    "name": "ACH_YOUR_INFO",
    "defaultvalue": 0,
    "displayName": "Your info, my info.",
    "hidden": 0,
    "description": "Win a Info Retrieve Match.",
    "icon": "https://steamcdn-a.akamaihd.net/steamcommunity/public/images/apps/366860/2c98ee3c971c21a60d1f84ff053be5344fcaa27d.jpg",
    "icongray": "https://steamcdn-a.akamaihd.net/steamcommunity/public/images/apps/366860/9b228f3eae7e930414c315a2af28e7d6155f4549.jpg"
  },
  {
    "name": "ACH_EASY_HACKING",
    "defaultvalue": 0,
    "displayName": "Easy hacking!",
    "hidden": 0,
    "description": "Win a Database Domination Match.",
    "icon": "https://steamcdn-a.akamaihd.net/steamcommunity/public/images/apps/366860/0b4f06728e9fdcadee347d1683ccd94b6100c25e.jpg",
    "icongray": "https://steamcdn-a.akamaihd.net/steamcommunity/public/images/apps/366860/051b87b06292b69e62b8fe648d93d09f2a7cbe8c.jpg"
  },
  {
    "name": "ACH_EARLY_BUG",
    "defaultvalue": 0,
    "displayName": "The early bug gets the worm.",
    "hidden": 1,
    "icon": "https://steamcdn-a.akamaihd.net/steamcommunity/public/images/apps/366860/68bf293ca96ec7d55c751acf64d6b86c311d9037.jpg",
    "icongray": "https://steamcdn-a.akamaihd.net/steamcommunity/public/images/apps/366860/79b428d31d43834075753a9edd23073bc98a398d.jpg"
  },
  {
    "name": "ACH_LADY_BUG",
    "defaultvalue": 0,
    "displayName": "A Lady's Bug!",
    "hidden": 1,
    "icon": "https://steamcdn-a.akamaihd.net/steamcommunity/public/images/apps/366860/aef8a729914374e296982edfd47c29afc033d48e.jpg",
    "icongray": "https://steamcdn-a.akamaihd.net/steamcommunity/public/images/apps/366860/bff99598be810fe3c2a7f658684850a0115beb53.jpg"
  },
  {
    "name": "ACH_RESCUE_ANT",
    "defaultvalue": 0,
    "displayName": "An ant has no quarrel with a boot.",
    "hidden": 1,
    "icon": "https://steamcdn-a.akamaihd.net/steamcommunity/public/images/apps/366860/67404fa5d94d3a186e28478a4838956487bf5e3d.jpg",
    "icongray": "https://steamcdn-a.akamaihd.net/steamcommunity/public/images/apps/366860/d004dcd63339a9e12260a78479345409359bf262.jpg"
  },
  {
    "name": "ACH_FOR_THE_QUEEN",
    "defaultvalue": 0,
    "displayName": "For the Queen!",
    "hidden": 1,
    "icon": "https://steamcdn-a.akamaihd.net/steamcommunity/public/images/apps/366860/938b558231f039a6473669fb77bd4759f611f46b.jpg",
    "icongray": "https://steamcdn-a.akamaihd.net/steamcommunity/public/images/apps/366860/be9189eea53b914ea9f81c484a154219b8f66641.jpg"
  },
  {
    "name": "ACH_BARREL_ROLL",
    "defaultvalue": 0,
    "displayName": "Do a Barrel Roll!",
    "hidden": 0,
    "description": "Execute a Barrel Roll.",
    "icon": "https://steamcdn-a.akamaihd.net/steamcommunity/public/images/apps/366860/ebb6a730b25c5f6e1d70d1ecc24bb548790b299f.jpg",
    "icongray": "https://steamcdn-a.akamaihd.net/steamcommunity/public/images/apps/366860/c0cce7c66e0d2fc61d0b67343a07c551d2a61e67.jpg"
  },
  {
    "name": "ACH_BUG_SQUASHED",
    "defaultvalue": 0,
    "displayName": "Bug Squashed!",
    "hidden": 0,
    "description": "Kill 10 enemy bugs in 1 match.",
    "icon": "https://steamcdn-a.akamaihd.net/steamcommunity/public/images/apps/366860/9619e15fd7f11a098bcd20e58acc9aba3fb34757.jpg",
    "icongray": "https://steamcdn-a.akamaihd.net/steamcommunity/public/images/apps/366860/05df1203a01abfde57309770d333690c69e6e1d9.jpg"
  },
  {
    "name": "ACH_CONQUEROR",
    "defaultvalue": 0,
    "displayName": "The conqueror.",
    "hidden": 0,
    "description": "Get a total of 20 wins.",
    "icon": "https://steamcdn-a.akamaihd.net/steamcommunity/public/images/apps/366860/74b617ff3598c0deacf0273927f26de9bbe3274a.jpg",
    "icongray": "https://steamcdn-a.akamaihd.net/steamcommunity/public/images/apps/366860/2db112e2567234c1b7b77ca6be4b233730222878.jpg"
  },
  {
    "name": "ACH_DESTROYER",
    "defaultvalue": 0,
    "displayName": "Bug destroyer!",
    "hidden": 0,
    "description": "Kill 15 enemy bugs in 1 match.",
    "icon": "https://steamcdn-a.akamaihd.net/steamcommunity/public/images/apps/366860/8db179721ca51c23bf4e8c3a88425d04da3438cd.jpg",
    "icongray": "https://steamcdn-a.akamaihd.net/steamcommunity/public/images/apps/366860/5145234a3c64550500f55cac1c38f82ee56747c2.jpg"
  },
  {
    "name": "ACH_INVISIBLE_KILL",
    "defaultvalue": 0,
    "displayName": "Invisibility cloak.",
    "hidden": 1,
    "icon": "https://steamcdn-a.akamaihd.net/steamcommunity/public/images/apps/366860/b1cb509ca0cc0bf8ef13361af4cca43fe210ba8c.jpg",
    "icongray": "https://steamcdn-a.akamaihd.net/steamcommunity/public/images/apps/366860/e0f054ccf0e23c19dddf9300eb187793580b692f.jpg"
  },
  {
    "name": "ACH_SUPER_BUG",
    "defaultvalue": 0,
    "displayName": "They call me the Super Bug!",
    "hidden": 0,
    "description": "Kill an enemy while landed upside down.",
    "icon": "https://steamcdn-a.akamaihd.net/steamcommunity/public/images/apps/366860/2909646e43046aad7497b3e76d5c9e00dbcbc064.jpg",
    "icongray": "https://steamcdn-a.akamaihd.net/steamcommunity/public/images/apps/366860/c7ccf6b1a24ea039b2e14439604070513d794c67.jpg"
  },
  {
    "name": "ACH_THE_PACKAGE",
    "defaultvalue": 0,
    "displayName": "The Package!",
    "hidden": 0,
    "description": "Capture 30 black boxes in Info Retrieve.",
    "icon": "https://steamcdn-a.akamaihd.net/steamcommunity/public/images/apps/366860/39a1e2feb6432b7f74d907c8a4a597e7c7a7f0fe.jpg",
    "icongray": "https://steamcdn-a.akamaihd.net/steamcommunity/public/images/apps/366860/1f9e6e280abf8ccf03ac3d5d83e03e379eb252d0.jpg"
  },
  {
    "name": "ACH_THE_ANTS",
    "defaultvalue": 0,
    "displayName": "The Ants!",
    "hidden": 1,
    "icon": "https://steamcdn-a.akamaihd.net/steamcommunity/public/images/apps/366860/6ab18e7f87b34e5ab39ad16a40f682a08295fb5f.jpg",
    "icongray": "https://steamcdn-a.akamaihd.net/steamcommunity/public/images/apps/366860/76d4af52f6af6b069c5397922b4f752141edde51.jpg"
  },
  {
    "name": "ACH_BUG_PROFICIENT",
    "defaultvalue": 0,
    "displayName": "Bug Proficient!",
    "hidden": 1,
    "icon": "https://steamcdn-a.akamaihd.net/steamcommunity/public/images/apps/366860/9610e8600b1b400625f034b23c01258ffffbd3e5.jpg",
    "icongray": "https://steamcdn-a.akamaihd.net/steamcommunity/public/images/apps/366860/b29f57097adbe8b58e12914f32e9a5f9c64cb558.jpg"
  },
  {
    "name": "ACH_UNLOCK_ALL_BUGS",
    "defaultvalue": 0,
    "displayName": "Bug collector!",
    "hidden": 1,
    "icon": "https://steamcdn-a.akamaihd.net/steamcommunity/public/images/apps/366860/3a488fb0f80bbb169204236dae38c6841b03de5f.jpg",
    "icongray": "https://steamcdn-a.akamaihd.net/steamcommunity/public/images/apps/366860/4246ac302b5021753c7bf06df7fbdf40fb080fca.jpg"
  },
  {
    "name": "ACH_SERIAL_BUG",
    "defaultvalue": 0,
    "displayName": "Serial Bug Killer!",
    "hidden": 0,
    "description": "Kill 25 enemy bugs in 1 match.",
    "icon": "https://steamcdn-a.akamaihd.net/steamcommunity/public/images/apps/366860/aa908693e72affd545a622c2b3268a52ec718ef5.jpg",
    "icongray": "https://steamcdn-a.akamaihd.net/steamcommunity/public/images/apps/366860/333b3796d2c6bba32ec813a6bc09f11113319aab.jpg"
  },
  {
    "name": "ACH_TRUST_ME",
    "defaultvalue": 0,
    "displayName": "Trust me, I'm a pro.",
    "hidden": 0,
    "description": "Get a total of 70 wins.",
    "icon": "https://steamcdn-a.akamaihd.net/steamcommunity/public/images/apps/366860/271a639efab7007a81a0668ed75d3343e1dab5ee.jpg",
    "icongray": "https://steamcdn-a.akamaihd.net/steamcommunity/public/images/apps/366860/c1ef4f61d998a6893d581c5946613398bd3d04bd.jpg"
  },
  {
    "name": "ACH_CANT_TOUCH",
    "defaultvalue": 0,
    "displayName": "Can't touch this.",
    "hidden": 0,
    "description": "Kill 15 or more enemy without dying in 1 Match.",
    "icon": "https://steamcdn-a.akamaihd.net/steamcommunity/public/images/apps/366860/0b8b848de6ddba3350e928155855137cf58e6620.jpg",
    "icongray": "https://steamcdn-a.akamaihd.net/steamcommunity/public/images/apps/366860/fb36b267ec7720e6ee875be4f4ae3b7225819e4d.jpg"
  },
  {
    "name": "ACH_UNLOCK_ALL_CUSTOM",
    "defaultvalue": 0,
    "displayName": "Fine Tunning.",
    "hidden": 1,
    "icon": "https://steamcdn-a.akamaihd.net/steamcommunity/public/images/apps/366860/9e099e8eabbd6903f6cb12c54d8c963e77551e4f.jpg",
    "icongray": "https://steamcdn-a.akamaihd.net/steamcommunity/public/images/apps/366860/df6efc5b54c76d6ae9b2a5415f1343e6269e0f94.jpg"
  },
  {
    "name": "ACH_SPY_MASTER",
    "defaultvalue": 0,
    "displayName": "Spy Master!",
    "hidden": 1,
    "icon": "https://steamcdn-a.akamaihd.net/steamcommunity/public/images/apps/366860/68ac16e9d4925f648150f57aecc3796427310678.jpg",
    "icongray": "https://steamcdn-a.akamaihd.net/steamcommunity/public/images/apps/366860/74a1a981f141eec6afb5b050d651aaab774186bf.jpg"
  }
]