﻿[
  {
    "name": "SHIPS_DESTROYED_1M",
    "defaultvalue": 0,
    "displayName": "Destroy 1 Million Ships",
    "hidden": 0,
    "description": " ",
    "icon": "https://steamcdn-a.akamaihd.net/steamcommunity/public/images/apps/529150/b5ff324bbf29eeeabe6ec244a5b843ee1fa8feb2.jpg",
    "icongray": "https://steamcdn-a.akamaihd.net/steamcommunity/public/images/apps/529150/3add4eb3ddec8c0ef63a935c31428f815870540f.jpg"
  },
  {
    "name": "SHIPS_DESTROYED_1K",
    "defaultvalue": 0,
    "displayName": "Destroy 1000 Ships",
    "hidden": 0,
    "description": " ",
    "icon": "https://steamcdn-a.akamaihd.net/steamcommunity/public/images/apps/529150/fe158052b0b5d53a475315d2acb3eb5ead2632c3.jpg",
    "icongray": "https://steamcdn-a.akamaihd.net/steamcommunity/public/images/apps/529150/fb79dbca356ab9e5f567728d8173c5194e98b714.jpg"
  },
  {
    "name": "SHIPS_DESTROYED_10K",
    "defaultvalue": 0,
    "displayName": "Destroy 10,000 Ships",
    "hidden": 0,
    "description": " ",
    "icon": "https://steamcdn-a.akamaihd.net/steamcommunity/public/images/apps/529150/5577bbfdd766104fa64cf584edb783451e590324.jpg",
    "icongray": "https://steamcdn-a.akamaihd.net/steamcommunity/public/images/apps/529150/f946e8890a88856c0ae5f071dd4c2611b11223ff.jpg"
  },
  {
    "name": "SHIPS_DESTROYED_100K",
    "defaultvalue": 0,
    "displayName": "Destroy 100,000 Ships",
    "hidden": 0,
    "description": " ",
    "icon": "https://steamcdn-a.akamaihd.net/steamcommunity/public/images/apps/529150/637bb2e6bb953c60e66496f1ffa608dadfe313a5.jpg",
    "icongray": "https://steamcdn-a.akamaihd.net/steamcommunity/public/images/apps/529150/3a6faafc3015b9c2f7cfc1727d3b7de09ace9ac4.jpg"
  }
]