{
  "Dlcs": {},
  "Name": "Deity Driving",
  "AppId": "1213460",
  "ImageUrl": "https://steamcdn-a.akamaihd.net/steam/apps/1213460/header.jpg?t=1579727135",
  "Languages": [
    "english"
  ],
  "Platforms": {
    "windows": true,
    "mac": false,
    "linux": false
  }
}