[
  {
    "name": "Musician",
    "defaultvalue": 0,
    "displayName": "Musician",
    "hidden": 0,
    "description": "Meet an owl",
    "icon": "https://steamcdn-a.akamaihd.net/steamcommunity/public/images/apps/773010/48d9317557d1192e152b8e4dede9cba5e37a4326.jpg",
    "icongray": "https://steamcdn-a.akamaihd.net/steamcommunity/public/images/apps/773010/0764a45b23f459486dba67f7d3f1b53132069fc0.jpg"
  },
  {
    "name": "RoachTV",
    "defaultvalue": 0,
    "displayName": "RoachTV",
    "hidden": 0,
    "description": "Find roachTV",
    "icon": "https://steamcdn-a.akamaihd.net/steamcommunity/public/images/apps/773010/da505ac235624c3052139d0ef992806833a0aa3c.jpg",
    "icongray": "https://steamcdn-a.akamaihd.net/steamcommunity/public/images/apps/773010/01f701a4c281cf0eac2ccd7e09c024e14cdd1d0d.jpg"
  },
  {
    "name": "Rocketman",
    "defaultvalue": 0,
    "displayName": "Rocketman",
    "hidden": 0,
    "description": "Get JetPack",
    "icon": "https://steamcdn-a.akamaihd.net/steamcommunity/public/images/apps/773010/f960276c9683b472c4a7810bbeb029096fe909d1.jpg",
    "icongray": "https://steamcdn-a.akamaihd.net/steamcommunity/public/images/apps/773010/b25cc9cab0d245e596b67473302256e1786f5def.jpg"
  },
  {
    "name": "Spiderman",
    "defaultvalue": 0,
    "displayName": "Spiderman",
    "hidden": 0,
    "description": "Defeat Big Spider",
    "icon": "https://steamcdn-a.akamaihd.net/steamcommunity/public/images/apps/773010/ec79a70fe3cb6bf52412629a301d87924c6c32a9.jpg",
    "icongray": "https://steamcdn-a.akamaihd.net/steamcommunity/public/images/apps/773010/ab79575b61225988258ce22f51d006b96c08b1e6.jpg"
  },
  {
    "name": "Brainy",
    "defaultvalue": 0,
    "displayName": "Brainy",
    "hidden": 0,
    "description": "Complete SixHead level",
    "icon": "https://steamcdn-a.akamaihd.net/steamcommunity/public/images/apps/773010/2deeb912362199214ebc7ce6791bf060582ccff1.jpg",
    "icongray": "https://steamcdn-a.akamaihd.net/steamcommunity/public/images/apps/773010/e4cfc5410a477271a89405226e8dae1e9e82fdc3.jpg"
  },
  {
    "name": "Sith",
    "defaultvalue": 0,
    "displayName": "Sith",
    "hidden": 0,
    "description": "Get lightsaber",
    "icon": "https://steamcdn-a.akamaihd.net/steamcommunity/public/images/apps/773010/3d40a2372169b7a47502778ae4f7a7b326d40453.jpg",
    "icongray": "https://steamcdn-a.akamaihd.net/steamcommunity/public/images/apps/773010/993c2f3dfd8254342a17ada379727feb247399cb.jpg"
  },
  {
    "name": "Raptor",
    "defaultvalue": 0,
    "displayName": "Raptor",
    "hidden": 0,
    "description": "Ride the raptor",
    "icon": "https://steamcdn-a.akamaihd.net/steamcommunity/public/images/apps/773010/e5a558223eff9108e4ad8baf1a0f8f3d8fc2c03e.jpg",
    "icongray": "https://steamcdn-a.akamaihd.net/steamcommunity/public/images/apps/773010/d95adab048b3747052c765e753104c101930b5bb.jpg"
  },
  {
    "name": "IBelieveICanFly",
    "defaultvalue": 0,
    "displayName": "IBelieveICanFly",
    "hidden": 0,
    "description": "Ride the rocket",
    "icon": "https://steamcdn-a.akamaihd.net/steamcommunity/public/images/apps/773010/616571087dafa1332218541ba21e861ca217fe77.jpg",
    "icongray": "https://steamcdn-a.akamaihd.net/steamcommunity/public/images/apps/773010/82df171841944df456fe938323b24639209c4c50.jpg"
  },
  {
    "name": "Runner",
    "defaultvalue": 0,
    "displayName": "Runner",
    "hidden": 0,
    "description": "Get away from falling rockets",
    "icon": "https://steamcdn-a.akamaihd.net/steamcommunity/public/images/apps/773010/932d59290f02885d9abc29e80d348dd79c08b35f.jpg",
    "icongray": "https://steamcdn-a.akamaihd.net/steamcommunity/public/images/apps/773010/31c89b7a7d2efc8baeaec84292567e0e1022e25b.jpg"
  },
  {
    "name": "Engineer",
    "defaultvalue": 0,
    "displayName": "Engineer",
    "hidden": 0,
    "description": "Complete Gear level",
    "icon": "https://steamcdn-a.akamaihd.net/steamcommunity/public/images/apps/773010/87e088ea1e388cb605d8a54ed52e3f21060b0f66.jpg",
    "icongray": "https://steamcdn-a.akamaihd.net/steamcommunity/public/images/apps/773010/9fc666da73de7715f6914a3b026aff3cd5bbdba5.jpg"
  },
  {
    "name": "Winner",
    "defaultvalue": 0,
    "displayName": "Winner",
    "hidden": 0,
    "description": "Defeat the Mechanoid",
    "icon": "https://steamcdn-a.akamaihd.net/steamcommunity/public/images/apps/773010/63847e459d8952b33edc3fdb13a04e358309375b.jpg",
    "icongray": "https://steamcdn-a.akamaihd.net/steamcommunity/public/images/apps/773010/f55fef468d7d7cb03dfa6ebc837bb8313fc77933.jpg"
  }
]