﻿{
  "STAT_DISTANCE_TRAVELLED": {
    "description": "Distance travelled (miles)",
    "value": 0
  },
  "STAT_TOWERS_DESTROYED": {
    "description": "Number of towers destroyed",
    "value": 0
  },
  "STAT_DRAGONS_CAPTURED": {
    "description": "Number of dragons captured",
    "value": 0
  },
  "STAT_POWERUPS_CAPTURED": {
    "description": "Number of powerups captured",
    "value": 0
  },
  "STAT_ZOO_MASK": {
    "description": "",
    "value": 0
  },
  "STAT_CAPTURES": {
    "description": "",
    "value": 0
  },
  "STAT_LEVELS_PLAYED": {
    "description": "",
    "value": 0
  },
  "STAT_ORC_TOWERS_CAPTURED": {
    "description": "",
    "value": 0
  },
  "STAT_POWERUP_MASK": {
    "description": "",
    "value": 0
  },
  "STAT_MONSTERS_SLAIN": {
    "description": "Number of monsters slain.",
    "value": 0
  },
  "STAT_NUM_SUNFLOWERS_COLLECTED": {
    "description": "Number of sunflowers collected.",
    "value": 0
  }
}