﻿{
  "Dlcs": {
    "542840": {
      "Name": "Age of Cavemen - Starter Pack",
      "ImageUrl": "https://steamcdn-a.akamaihd.net/steam/apps/542840/header.jpg?t=1481988168"
    }
  },
  "Name": "Age of Cavemen",
  "AppId": "454600",
  "ImageUrl": "https://steamcdn-a.akamaihd.net/steam/apps/454600/header.jpg?t=1488977678",
  "Languages": [
    "english",
    "french",
    "german",
    "spanish",
    "polish",
    "portuguese",
    "russian",
    "turkish"
  ],
  "Platforms": {
    "windows": true,
    "mac": false,
    "linux": false
  }
}