﻿{
  "Dlcs": {
    "1187630": {
      "Name": "Soviet Jump Game Starter Pack",
      "ImageUrl": "https://steamcdn-a.akamaihd.net/steam/apps/1187630/header.jpg?t=1584653923"
    },
    "1187631": {
      "Name": "Soviet Jump Game Founder's Pack",
      "ImageUrl": "https://steamcdn-a.akamaihd.net/steam/apps/1187631/header.jpg?t=1584653964"
    },
    "1362930": {
      "Name": "Soviet Jump Game Kaiju Chaos Bundle",
      "ImageUrl": "https://steamcdn-a.akamaihd.net/steam/apps/1362930/header.jpg?t=1594913332"
    }
  },
  "Name": "Soviet Jump Game",
  "AppId": "1072710",
  "ImageUrl": "https://steamcdn-a.akamaihd.net/steam/apps/1072710/header.jpg?t=1595046829",
  "Languages": [
    "english"
  ],
  "Platforms": {
    "windows": true,
    "mac": true,
    "linux": false
  }
}