{
  "Dlcs": {},
  "Name": "The Odyssey",
  "AppId": "516560",
  "ImageUrl": "https://steamcdn-a.akamaihd.net/steam/apps/516560/header.jpg?t=1560504557",
  "Languages": [
    "english",
    "french",
    "german",
    "spanish",
    "greek",
    "russian"
  ],
  "Platforms": {
    "windows": true,
    "mac": true,
    "linux": true
  }
}