{
  "Dlcs": {},
  "Name": "Mall Mayhem",
  "AppId": "629400",
  "ImageUrl": "https://steamcdn-a.akamaihd.net/steam/apps/629400/header.jpg?t=1507313231",
  "Languages": [
    "english"
  ],
  "Platforms": {
    "windows": true,
    "mac": false,
    "linux": false
  }
}