{
  "Dlcs": {},
  "Name": "Cannibal Crossing",
  "AppId": "1304090",
  "ImageUrl": "https://steamcdn-a.akamaihd.net/steam/apps/1304090/header.jpg?t=1601155593",
  "Languages": [
    "english",
    "spanish"
  ],
  "Platforms": {
    "windows": true,
    "mac": false,
    "linux": false
  }
}