{
  "Dlcs": {},
  "Name": "Streamer Simulator",
  "AppId": "519180",
  "ImageUrl": "https://steamcdn-a.akamaihd.net/steam/apps/519180/header.jpg?t=1503048665",
  "Languages": [
    "english"
  ],
  "Platforms": {
    "windows": true,
    "mac": false,
    "linux": false
  }
}