{
  "Dlcs": {},
  "Name": "Travel Riddles: Trip To Greece",
  "AppId": "654520",
  "ImageUrl": "https://steamcdn-a.akamaihd.net/steam/apps/654520/header.jpg?t=1498649779",
  "Languages": [
    "english",
    "german"
  ],
  "Platforms": {
    "windows": true,
    "mac": false,
    "linux": false
  }
}