[
  {
    "name": "ach_Blue",
    "defaultvalue": 0,
    "displayName": "Out of the Blue",
    "hidden": 0,
    "description": "Win a round as Blue Ballpoint.",
    "icon": "https://steamcdn-a.akamaihd.net/steamcommunity/public/images/apps/886460/67d72b3ae14475ed4b77ee20a68cf739d042340b.jpg",
    "icongray": "https://steamcdn-a.akamaihd.net/steamcommunity/public/images/apps/886460/00ec0b68c348964626ed70fb31b8d139af0ae296.jpg"
  },
  {
    "name": "ach_Pink",
    "defaultvalue": 0,
    "displayName": "In the Pink",
    "hidden": 0,
    "description": "Win a round as Pink Pencil.",
    "icon": "https://steamcdn-a.akamaihd.net/steamcommunity/public/images/apps/886460/1d5301054f8ed217b4f7da1d5ecdc650bdbb862d.jpg",
    "icongray": "https://steamcdn-a.akamaihd.net/steamcommunity/public/images/apps/886460/00ec0b68c348964626ed70fb31b8d139af0ae296.jpg"
  },
  {
    "name": "ach_Green",
    "defaultvalue": 0,
    "displayName": "Go Green",
    "hidden": 0,
    "description": "Win a round as Green Crayon.",
    "icon": "https://steamcdn-a.akamaihd.net/steamcommunity/public/images/apps/886460/fbd66c718c15ba5460cc944dfc76a23290a54f3d.jpg",
    "icongray": "https://steamcdn-a.akamaihd.net/steamcommunity/public/images/apps/886460/673477f3ff339552ce6b47a5b93bc82aa550997e.jpg"
  },
  {
    "name": "ach_OTL",
    "defaultvalue": 0,
    "displayName": "Outside the Lines",
    "hidden": 1,
    "icon": "https://steamcdn-a.akamaihd.net/steamcommunity/public/images/apps/886460/989fab41214831473d8c216f23ac5a26efb6f3fe.jpg",
    "icongray": "https://steamcdn-a.akamaihd.net/steamcommunity/public/images/apps/886460/00ec0b68c348964626ed70fb31b8d139af0ae296.jpg"
  },
  {
    "name": "ach_Magic",
    "defaultvalue": 0,
    "displayName": "Magic Touch",
    "hidden": 0,
    "description": "Work your magic on a piece of chalk.",
    "icon": "https://steamcdn-a.akamaihd.net/steamcommunity/public/images/apps/886460/ab38e3cbaa1810da4e56651046c8877992ab0a95.jpg",
    "icongray": "https://steamcdn-a.akamaihd.net/steamcommunity/public/images/apps/886460/00ec0b68c348964626ed70fb31b8d139af0ae296.jpg"
  },
  {
    "name": "ach_Buckets",
    "defaultvalue": 0,
    "displayName": "Sweating Buckets",
    "hidden": 0,
    "description": "Use a Paint Bucket in the last 10 seconds of a match.",
    "icon": "https://steamcdn-a.akamaihd.net/steamcommunity/public/images/apps/886460/67250b4d798a518409e85361c67533bbcef18671.jpg",
    "icongray": "https://steamcdn-a.akamaihd.net/steamcommunity/public/images/apps/886460/00ec0b68c348964626ed70fb31b8d139af0ae296.jpg"
  },
  {
    "name": "ach_Balloon",
    "defaultvalue": 0,
    "displayName": "Lead Balloon",
    "hidden": 0,
    "description": "Eliminate all three players with a single Water Balloon.",
    "icon": "https://steamcdn-a.akamaihd.net/steamcommunity/public/images/apps/886460/b34dff3c88d669d961c3e5cdf8df2cee434dab92.jpg",
    "icongray": "https://steamcdn-a.akamaihd.net/steamcommunity/public/images/apps/886460/00ec0b68c348964626ed70fb31b8d139af0ae296.jpg"
  }
]