[
  {
    "name": "ACH_LEAVE_HOME",
    "defaultvalue": 0,
    "displayName": "Out of the House",
    "hidden": 0,
    "description": " ",
    "icon": "https://steamcdn-a.akamaihd.net/steamcommunity/public/images/apps/1148290/6a3b717aeeaf85deb17ee06ddac509cda596d2f8.jpg",
    "icongray": "https://steamcdn-a.akamaihd.net/steamcommunity/public/images/apps/1148290/95e5d55ee525cc19351b1bee6f1200e6290f7a23.jpg"
  },
  {
    "name": "ACH_REACH_SKY",
    "defaultvalue": 0,
    "displayName": "Into the Sky",
    "hidden": 0,
    "description": " ",
    "icon": "https://steamcdn-a.akamaihd.net/steamcommunity/public/images/apps/1148290/324b86445d9045bcfe5c10d3a92e8ff262350fd6.jpg",
    "icongray": "https://steamcdn-a.akamaihd.net/steamcommunity/public/images/apps/1148290/94897947a2dfe755d6a1953248467c81ce10edb2.jpg"
  },
  {
    "name": "ACH_REACH_SPACE",
    "defaultvalue": 0,
    "displayName": "Then Space",
    "hidden": 0,
    "description": " ",
    "icon": "https://steamcdn-a.akamaihd.net/steamcommunity/public/images/apps/1148290/69b61eca132755e46ff9ebcdf3b01424295134c4.jpg",
    "icongray": "https://steamcdn-a.akamaihd.net/steamcommunity/public/images/apps/1148290/81687dd630f14c52c8e16439fc27b2a13005cf13.jpg"
  },
  {
    "name": "ACH_REACH_KINGDOM",
    "defaultvalue": 0,
    "displayName": "To the Kingdom",
    "hidden": 0,
    "description": " ",
    "icon": "https://steamcdn-a.akamaihd.net/steamcommunity/public/images/apps/1148290/15d0d2ca4e834b62866820cb5617de1319b349ca.jpg",
    "icongray": "https://steamcdn-a.akamaihd.net/steamcommunity/public/images/apps/1148290/159e8ba6091df7c3bf3ac4535e749be38ef87618.jpg"
  },
  {
    "name": "ACH_WIN_1_GAME",
    "defaultvalue": 0,
    "displayName": "Winner",
    "hidden": 0,
    "description": " ",
    "icon": "https://steamcdn-a.akamaihd.net/steamcommunity/public/images/apps/1148290/0a30bb5e3d8ecba336d451f7e6725b0791d98896.jpg",
    "icongray": "https://steamcdn-a.akamaihd.net/steamcommunity/public/images/apps/1148290/57a28cac2674c6fa7f95ec6cd2118b4420563276.jpg"
  },
  {
    "name": "ACH_WIN_7_GAMES",
    "defaultvalue": 0,
    "displayName": "A Productive Week",
    "hidden": 0,
    "description": "Win 7 times.",
    "icon": "https://steamcdn-a.akamaihd.net/steamcommunity/public/images/apps/1148290/63505b85e16f9bfb9ef06d190081b672d0340b40.jpg",
    "icongray": "https://steamcdn-a.akamaihd.net/steamcommunity/public/images/apps/1148290/a8bdea1a154f1a409070b4b10a10b9f4e55bc6eb.jpg"
  },
  {
    "name": "ACH_WIN_GAME_PLUS",
    "defaultvalue": 0,
    "displayName": "Winner +1",
    "hidden": 0,
    "description": " ",
    "icon": "https://steamcdn-a.akamaihd.net/steamcommunity/public/images/apps/1148290/0e795967fa032ee91c64b1331971fbfeaa2d5a72.jpg",
    "icongray": "https://steamcdn-a.akamaihd.net/steamcommunity/public/images/apps/1148290/7f62ae374d8aaa869d4b3075c8989e37ba20e658.jpg"
  },
  {
    "name": "ACH_WIN_WITHOUT_ABILITY",
    "defaultvalue": 0,
    "displayName": "No Handicap",
    "hidden": 0,
    "description": "Win without abilities.",
    "icon": "https://steamcdn-a.akamaihd.net/steamcommunity/public/images/apps/1148290/e0580ad293e222525806546e5aa2f0d48ccc668f.jpg",
    "icongray": "https://steamcdn-a.akamaihd.net/steamcommunity/public/images/apps/1148290/3da881ef68f2b7d42032015462b3ec48cd0db498.jpg"
  },
  {
    "name": "ACH_WIN_WITHOUT_SILVER",
    "defaultvalue": 0,
    "displayName": "Impoverished",
    "hidden": 0,
    "description": "Win without ever collecting silver.",
    "icon": "https://steamcdn-a.akamaihd.net/steamcommunity/public/images/apps/1148290/fc5cdbe585f707f185882776427a385e6e06cf13.jpg",
    "icongray": "https://steamcdn-a.akamaihd.net/steamcommunity/public/images/apps/1148290/f540788927d195e49243948a88deeb8e5eb7b511.jpg"
  },
  {
    "name": "ACH_WIN_WITH_30_SILVER",
    "defaultvalue": 0,
    "displayName": "\"Friend\"",
    "hidden": 0,
    "description": "Win with exactly 30 silver.",
    "icon": "https://steamcdn-a.akamaihd.net/steamcommunity/public/images/apps/1148290/5a11b669d9d0462a0ab900cd4dca79546a84c23d.jpg",
    "icongray": "https://steamcdn-a.akamaihd.net/steamcommunity/public/images/apps/1148290/3a4dc791dc6ba8c209c67cf9b0108b1965742d15.jpg"
  },
  {
    "name": "ACH_LEVEL_WITHOUT_DAMAGE",
    "defaultvalue": 0,
    "displayName": "Perfect Form",
    "hidden": 0,
    "description": "Win without taking damage.",
    "icon": "https://steamcdn-a.akamaihd.net/steamcommunity/public/images/apps/1148290/46b58c482ea61a4364898a2907889cde594121e7.jpg",
    "icongray": "https://steamcdn-a.akamaihd.net/steamcommunity/public/images/apps/1148290/3f45db6bec148695f4299e5990cdf4f72410e57f.jpg"
  }
]