[
  {
    "name": "BOTTLE",
    "defaultvalue": 0,
    "displayName": "Mysterious bottle.",
    "hidden": 0,
    "description": "You found the mysterious bottle!",
    "icon": "https://steamcdn-a.akamaihd.net/steamcommunity/public/images/apps/340370/cf1baf4ccaec67f54a534407fdc8493b6327ec4e.jpg",
    "icongray": "https://steamcdn-a.akamaihd.net/steamcommunity/public/images/apps/340370/76fb09b7d3f7f7625b08fc1a1d70ad02c9e6c85b.jpg"
  },
  {
    "name": "PIPE",
    "defaultvalue": 0,
    "displayName": "The last pipe.",
    "hidden": 0,
    "description": "You found the last pipe!",
    "icon": "https://steamcdn-a.akamaihd.net/steamcommunity/public/images/apps/340370/caf0ed03807dce52ac1da710b529d97ce6fcd7b5.jpg",
    "icongray": "https://steamcdn-a.akamaihd.net/steamcommunity/public/images/apps/340370/8f29467d3ff04496de4e8b626a963795b17dfc51.jpg"
  },
  {
    "name": "POEM",
    "defaultvalue": 0,
    "displayName": "The poem in the wallet.",
    "hidden": 0,
    "description": "You found the poem in the wallet!",
    "icon": "https://steamcdn-a.akamaihd.net/steamcommunity/public/images/apps/340370/e29906ee08e81cb80f85e198e7d568b6ac90f3d3.jpg",
    "icongray": "https://steamcdn-a.akamaihd.net/steamcommunity/public/images/apps/340370/c02a76fd2ce85362f296507c9afc3d8ce0d90a9c.jpg"
  },
  {
    "name": "BLINDFOLD",
    "defaultvalue": 0,
    "displayName": "The blindfold.",
    "hidden": 0,
    "description": "You found the blindfold!",
    "icon": "https://steamcdn-a.akamaihd.net/steamcommunity/public/images/apps/340370/bb2dc9d62b2de8e53e47b8466788a5504b385d48.jpg",
    "icongray": "https://steamcdn-a.akamaihd.net/steamcommunity/public/images/apps/340370/f59705cac6db7b519edb36b3ce3595c30eed039b.jpg"
  },
  {
    "name": "WINDOW",
    "defaultvalue": 0,
    "displayName": "The window in the sun cannon.",
    "hidden": 0,
    "description": "You found the window in the sun cannon!",
    "icon": "https://steamcdn-a.akamaihd.net/steamcommunity/public/images/apps/340370/7d311945d4555d57b28cd827e25bbf7f13212da7.jpg",
    "icongray": "https://steamcdn-a.akamaihd.net/steamcommunity/public/images/apps/340370/6410c058249e0617301907dea630b83f99f615bf.jpg"
  },
  {
    "name": "MINE_LADY",
    "defaultvalue": 0,
    "displayName": "Information about the Mine Lady.",
    "hidden": 0,
    "description": "You’ve discovered information about the Mine Lady!",
    "icon": "https://steamcdn-a.akamaihd.net/steamcommunity/public/images/apps/340370/acab3af0957680841b222feb1f21f9432cbcc91d.jpg",
    "icongray": "https://steamcdn-a.akamaihd.net/steamcommunity/public/images/apps/340370/acab3af0957680841b222feb1f21f9432cbcc91d.jpg"
  },
  {
    "name": "PENCIL",
    "defaultvalue": 0,
    "displayName": "Artistic pencil.",
    "hidden": 0,
    "description": "You found the artistic pencil!",
    "icon": "https://steamcdn-a.akamaihd.net/steamcommunity/public/images/apps/340370/6c38abe465bb31558541484d04116984f2611b9f.jpg",
    "icongray": "https://steamcdn-a.akamaihd.net/steamcommunity/public/images/apps/340370/ee01dcc7af0f179f7063f28239211a4385ad5979.jpg"
  },
  {
    "name": "NOTE",
    "defaultvalue": 0,
    "displayName": "Note from Rick.",
    "hidden": 0,
    "description": "You found the note from Rick!",
    "icon": "https://steamcdn-a.akamaihd.net/steamcommunity/public/images/apps/340370/17f54bab4c90bc28346f7fe33f904d68c0e7e231.jpg",
    "icongray": "https://steamcdn-a.akamaihd.net/steamcommunity/public/images/apps/340370/223d954feb96f56452c47b068b86f1184dbdb230.jpg"
  },
  {
    "name": "STONE",
    "defaultvalue": 0,
    "displayName": "Leaving no stone unturned.",
    "hidden": 0,
    "description": "You’ve left no stone unturned!",
    "icon": "https://steamcdn-a.akamaihd.net/steamcommunity/public/images/apps/340370/4632feb9a8a2b7dde3ebe22b43f3e137a32fa3ef.jpg",
    "icongray": "https://steamcdn-a.akamaihd.net/steamcommunity/public/images/apps/340370/6f81c582a493d019750ccfb7aa4ef8f615d0e95b.jpg"
  },
  {
    "name": "TESTING",
    "defaultvalue": 0,
    "displayName": "Testing the waters.",
    "hidden": 0,
    "description": "Testing the waters!",
    "icon": "https://steamcdn-a.akamaihd.net/steamcommunity/public/images/apps/340370/cd8613fafe9c269d583f3d2439ba947effc08ea7.jpg",
    "icongray": "https://steamcdn-a.akamaihd.net/steamcommunity/public/images/apps/340370/58629ea9247293217efd681a6513ecc3731576d9.jpg"
  }
]