{
  "Dlcs": {
    "891830": {
      "Name": "Dragon Spear MANA",
      "ImageUrl": "https://steamcdn-a.akamaihd.net/steam/apps/891830/header.jpg?t=1537501104"
    },
    "896620": {
      "Name": "Dragon Spear MU",
      "ImageUrl": "https://steamcdn-a.akamaihd.net/steam/apps/896620/header.jpg?t=1537500932"
    },
    "896630": {
      "Name": "Dragon Spear TANYA",
      "ImageUrl": "https://steamcdn-a.akamaihd.net/steam/apps/896630/header.jpg?t=1537501015"
    }
  },
  "Name": "Dragon Spear",
  "AppId": "886960",
  "ImageUrl": "https://steamcdn-a.akamaihd.net/steam/apps/886960/header.jpg?t=1547081518",
  "Languages": [
    "english",
    "korean",
    "schinese",
    "tchinese",
    "japanese"
  ],
  "Platforms": {
    "windows": true,
    "mac": true,
    "linux": false
  }
}