[
  {
    "name": "stat_8100010",
    "defaultvalue": 0,
    "displayName": ""
  },
  {
    "name": "stat_8100020",
    "defaultvalue": 0,
    "displayName": ""
  },
  {
    "name": "stat_8100030",
    "defaultvalue": 0,
    "displayName": ""
  },
  {
    "name": "stat_8100040",
    "defaultvalue": 0,
    "displayName": ""
  },
  {
    "name": "stat_8100050",
    "defaultvalue": 0,
    "displayName": ""
  },
  {
    "name": "stat_8100060",
    "defaultvalue": 0,
    "displayName": ""
  },
  {
    "name": "stat_8100070",
    "defaultvalue": 0,
    "displayName": ""
  },
  {
    "name": "stat_8100080",
    "defaultvalue": 0,
    "displayName": ""
  },
  {
    "name": "stat_8100090",
    "defaultvalue": 0,
    "displayName": ""
  },
  {
    "name": "stat_8100100",
    "defaultvalue": 0,
    "displayName": ""
  },
  {
    "name": "stat_8100110",
    "defaultvalue": 0,
    "displayName": ""
  },
  {
    "name": "stat_8100120",
    "defaultvalue": 0,
    "displayName": ""
  },
  {
    "name": "stat_8200010",
    "defaultvalue": 0,
    "displayName": ""
  },
  {
    "name": "stat_8200020",
    "defaultvalue": 0,
    "displayName": ""
  },
  {
    "name": "stat_8200030",
    "defaultvalue": 0,
    "displayName": ""
  },
  {
    "name": "stat_8200040",
    "defaultvalue": 0,
    "displayName": ""
  },
  {
    "name": "stat_8200050",
    "defaultvalue": 0,
    "displayName": ""
  },
  {
    "name": "stat_8200060",
    "defaultvalue": 0,
    "displayName": ""
  },
  {
    "name": "stat_8200070",
    "defaultvalue": 0,
    "displayName": ""
  },
  {
    "name": "stat_8200080",
    "defaultvalue": 0,
    "displayName": ""
  },
  {
    "name": "stat_8200090",
    "defaultvalue": 0,
    "displayName": ""
  },
  {
    "name": "stat_8200110",
    "defaultvalue": 0,
    "displayName": ""
  },
  {
    "name": "stat_8300010",
    "defaultvalue": 0,
    "displayName": ""
  },
  {
    "name": "stat_8300020",
    "defaultvalue": 0,
    "displayName": ""
  },
  {
    "name": "stat_8300030",
    "defaultvalue": 0,
    "displayName": ""
  },
  {
    "name": "stat_8300040",
    "defaultvalue": 0,
    "displayName": ""
  },
  {
    "name": "stat_8300050",
    "defaultvalue": 0,
    "displayName": ""
  },
  {
    "name": "stat_8300060",
    "defaultvalue": 0,
    "displayName": ""
  },
  {
    "name": "stat_8300070",
    "defaultvalue": 0,
    "displayName": ""
  },
  {
    "name": "stat_8300080",
    "defaultvalue": 0,
    "displayName": ""
  },
  {
    "name": "stat_8300090",
    "defaultvalue": 0,
    "displayName": ""
  },
  {
    "name": "stat_8300100",
    "defaultvalue": 0,
    "displayName": ""
  },
  {
    "name": "stat_8400010",
    "defaultvalue": 0,
    "displayName": ""
  },
  {
    "name": "stat_8400020",
    "defaultvalue": 0,
    "displayName": ""
  },
  {
    "name": "stat_8400030",
    "defaultvalue": 0,
    "displayName": ""
  },
  {
    "name": "stat_8400040",
    "defaultvalue": 0,
    "displayName": ""
  },
  {
    "name": "stat_8400050",
    "defaultvalue": 0,
    "displayName": ""
  },
  {
    "name": "stat_8400060",
    "defaultvalue": 0,
    "displayName": ""
  },
  {
    "name": "stat_8400070",
    "defaultvalue": 0,
    "displayName": ""
  },
  {
    "name": "stat_8400080",
    "defaultvalue": 0,
    "displayName": ""
  },
  {
    "name": "stat_8400090",
    "defaultvalue": 0,
    "displayName": ""
  },
  {
    "name": "stat_8400100",
    "defaultvalue": 0,
    "displayName": ""
  },
  {
    "name": "stat_8400110",
    "defaultvalue": 0,
    "displayName": ""
  },
  {
    "name": "stat_8500010",
    "defaultvalue": 0,
    "displayName": ""
  },
  {
    "name": "stat_8500020",
    "defaultvalue": 0,
    "displayName": ""
  },
  {
    "name": "stat_8500030",
    "defaultvalue": 0,
    "displayName": ""
  },
  {
    "name": "stat_8500040",
    "defaultvalue": 0,
    "displayName": ""
  },
  {
    "name": "stat_8500050",
    "defaultvalue": 0,
    "displayName": ""
  },
  {
    "name": "stat_8500060",
    "defaultvalue": 0,
    "displayName": ""
  },
  {
    "name": "stat_8500070",
    "defaultvalue": 0,
    "displayName": ""
  }
]