[
  {
    "name": "StatID_Stat_NumberOfSelfies",
    "defaultvalue": 0,
    "displayName": "Number of Selfies"
  },
  {
    "name": "StatID_Stat_NumberOfMirrors",
    "defaultvalue": 0,
    "displayName": "Number of Mirrors"
  },
  {
    "name": "StatID_Stat_NumberOfSnookers",
    "defaultvalue": 0,
    "displayName": "Number of Snookers"
  },
  {
    "name": "StatID_Stat_NumberOfStrikers",
    "defaultvalue": 0,
    "displayName": "Number of Strikers"
  },
  {
    "name": "StatID_Stat_NumberOfDominoes",
    "defaultvalue": 0,
    "displayName": "Number of Dominoes"
  },
  {
    "name": "StatID_Stat_KilledKamikazeDrone",
    "defaultvalue": 0,
    "displayName": "Number of killed kamikaze drones"
  },
  {
    "name": "StatID_Stat_KilledSpikeDrone",
    "defaultvalue": 0,
    "displayName": "Number of killed spike drones"
  },
  {
    "name": "StatID_Stat_KilledLaserDrone",
    "defaultvalue": 0,
    "displayName": "Number of killed laser drones"
  },
  {
    "name": "StatID_Stat_KilledMissileDrone",
    "defaultvalue": 0,
    "displayName": "Number of killed missile drones"
  },
  {
    "name": "StatID_Stat_KilledMissile",
    "defaultvalue": 0,
    "displayName": "Number of killed missiles"
  },
  {
    "name": "StatID_Stat_DeflectedLasers",
    "defaultvalue": 0,
    "displayName": "Number of deflected lasers"
  },
  {
    "name": "StatID_Stat_StoppedLasers",
    "defaultvalue": 0,
    "displayName": "Number of stopped lasers"
  },
  {
    "name": "StatID_Stat_LaserKills",
    "defaultvalue": 0,
    "displayName": "Number of hit laser shots"
  },
  {
    "name": "StatID_Stat_PunchKills",
    "defaultvalue": 0,
    "displayName": "Number of punches"
  },
  {
    "name": "StatID_Stat_ThrowKills",
    "defaultvalue": 0,
    "displayName": "Number of drones thrown"
  },
  {
    "name": "StatID_Stat_ChargedLaserKills",
    "defaultvalue": 0,
    "displayName": "Number of hit charged lasers"
  }
]