[
  {
    "name": "sos0",
    "defaultvalue": 0,
    "displayName": "Who Needs Bullets?",
    "hidden": 0,
    "description": "Complete a level without shooting a single bullet",
    "icon": "https://steamcdn-a.akamaihd.net/steamcommunity/public/images/apps/631490/792b9178de18dac363b7c038cbf6a51fbd9e5194.jpg",
    "icongray": "https://steamcdn-a.akamaihd.net/steamcommunity/public/images/apps/631490/2366a4f98863b7d0ec0a6db3c58d3f4ecf02b353.jpg"
  },
  {
    "name": "sos1",
    "defaultvalue": 0,
    "displayName": "Where's The Point?",
    "hidden": 0,
    "description": "Complete a level without scoring a single point",
    "icon": "https://steamcdn-a.akamaihd.net/steamcommunity/public/images/apps/631490/5550c37c2260325c37a032316803b5c8464ad00c.jpg",
    "icongray": "https://steamcdn-a.akamaihd.net/steamcommunity/public/images/apps/631490/2366a4f98863b7d0ec0a6db3c58d3f4ecf02b353.jpg"
  },
  {
    "name": "sos2",
    "defaultvalue": 0,
    "displayName": "Biscuit Aficionado",
    "hidden": 0,
    "description": "Find all of the King's biscuits",
    "icon": "https://steamcdn-a.akamaihd.net/steamcommunity/public/images/apps/631490/6efa9f1d429ebc17e662b85f451d55451bf1bbe6.jpg",
    "icongray": "https://steamcdn-a.akamaihd.net/steamcommunity/public/images/apps/631490/2366a4f98863b7d0ec0a6db3c58d3f4ecf02b353.jpg"
  },
  {
    "name": "sos3",
    "defaultvalue": 0,
    "displayName": "Figgy",
    "hidden": 0,
    "description": "Find the King's fig roll",
    "icon": "https://steamcdn-a.akamaihd.net/steamcommunity/public/images/apps/631490/c7a3205544340f78f909d5bea66731a52dca0d52.jpg",
    "icongray": "https://steamcdn-a.akamaihd.net/steamcommunity/public/images/apps/631490/2366a4f98863b7d0ec0a6db3c58d3f4ecf02b353.jpg"
  },
  {
    "name": "sos4",
    "defaultvalue": 0,
    "displayName": "Creamy",
    "hidden": 0,
    "description": "Find the King's custard cream",
    "icon": "https://steamcdn-a.akamaihd.net/steamcommunity/public/images/apps/631490/0848fa18180c66bc8567767f2d946b554bd64e2d.jpg",
    "icongray": "https://steamcdn-a.akamaihd.net/steamcommunity/public/images/apps/631490/2366a4f98863b7d0ec0a6db3c58d3f4ecf02b353.jpg"
  },
  {
    "name": "sos5",
    "defaultvalue": 0,
    "displayName": "Choccy",
    "hidden": 0,
    "description": "Find the King's chocolate digestive",
    "icon": "https://steamcdn-a.akamaihd.net/steamcommunity/public/images/apps/631490/0cf5bc5632044dc902e1948de86fd9be2ee50da0.jpg",
    "icongray": "https://steamcdn-a.akamaihd.net/steamcommunity/public/images/apps/631490/2366a4f98863b7d0ec0a6db3c58d3f4ecf02b353.jpg"
  },
  {
    "name": "sos6",
    "defaultvalue": 0,
    "displayName": "Bourbony",
    "hidden": 0,
    "description": "Find the King's bourbon",
    "icon": "https://steamcdn-a.akamaihd.net/steamcommunity/public/images/apps/631490/35f778113c685b240a4cf602636861be816c7062.jpg",
    "icongray": "https://steamcdn-a.akamaihd.net/steamcommunity/public/images/apps/631490/2366a4f98863b7d0ec0a6db3c58d3f4ecf02b353.jpg"
  },
  {
    "name": "sos7",
    "defaultvalue": 0,
    "displayName": "Wafery",
    "hidden": 0,
    "description": "Find the King's pink wafer ",
    "icon": "https://steamcdn-a.akamaihd.net/steamcommunity/public/images/apps/631490/c6bd1adb6dbb4961d56b90497d85ff5e8b1053b1.jpg",
    "icongray": "https://steamcdn-a.akamaihd.net/steamcommunity/public/images/apps/631490/2366a4f98863b7d0ec0a6db3c58d3f4ecf02b353.jpg"
  },
  {
    "name": "sos8",
    "defaultvalue": 0,
    "displayName": "Chippy",
    "hidden": 0,
    "description": "Find the King's chocolate chip",
    "icon": "https://steamcdn-a.akamaihd.net/steamcommunity/public/images/apps/631490/2ad19ddb92f9845c9efac29fb266c0f4480b4f1b.jpg",
    "icongray": "https://steamcdn-a.akamaihd.net/steamcommunity/public/images/apps/631490/2366a4f98863b7d0ec0a6db3c58d3f4ecf02b353.jpg"
  },
  {
    "name": "sos9",
    "defaultvalue": 0,
    "displayName": "Jammy",
    "hidden": 0,
    "description": "Find the King's jammy ring",
    "icon": "https://steamcdn-a.akamaihd.net/steamcommunity/public/images/apps/631490/50b2fcab4a0f16b0330f8e98f83a60a07c27795a.jpg",
    "icongray": "https://steamcdn-a.akamaihd.net/steamcommunity/public/images/apps/631490/2366a4f98863b7d0ec0a6db3c58d3f4ecf02b353.jpg"
  },
  {
    "name": "sos10",
    "defaultvalue": 0,
    "displayName": "Easy Street",
    "hidden": 0,
    "description": "From the start, complete the game taking only easy exits",
    "icon": "https://steamcdn-a.akamaihd.net/steamcommunity/public/images/apps/631490/061d1ce9243c2bce09ffe8da7f0aed39c233a19d.jpg",
    "icongray": "https://steamcdn-a.akamaihd.net/steamcommunity/public/images/apps/631490/2366a4f98863b7d0ec0a6db3c58d3f4ecf02b353.jpg"
  },
  {
    "name": "sos11",
    "defaultvalue": 0,
    "displayName": "Hardcore",
    "hidden": 0,
    "description": "From the start, complete the game taking only hard exits",
    "icon": "https://steamcdn-a.akamaihd.net/steamcommunity/public/images/apps/631490/9b2ca83d264da9a29ca44f8fc0079e21bb8b7cd6.jpg",
    "icongray": "https://steamcdn-a.akamaihd.net/steamcommunity/public/images/apps/631490/2366a4f98863b7d0ec0a6db3c58d3f4ecf02b353.jpg"
  },
  {
    "name": "sos12",
    "defaultvalue": 0,
    "displayName": "Mr. Multiplier",
    "hidden": 0,
    "description": "Get a 2000x multiplier",
    "icon": "https://steamcdn-a.akamaihd.net/steamcommunity/public/images/apps/631490/9f46e589d9826c401dcf10cce19209b57ab9c0e0.jpg",
    "icongray": "https://steamcdn-a.akamaihd.net/steamcommunity/public/images/apps/631490/2366a4f98863b7d0ec0a6db3c58d3f4ecf02b353.jpg"
  },
  {
    "name": "sos13",
    "defaultvalue": 0,
    "displayName": "Simply Score",
    "hidden": 0,
    "description": "Score over 600,000 on Gentle Start",
    "icon": "https://steamcdn-a.akamaihd.net/steamcommunity/public/images/apps/631490/b1ff789b3b5e8606dfe66c37f6b8f80b09332de9.jpg",
    "icongray": "https://steamcdn-a.akamaihd.net/steamcommunity/public/images/apps/631490/2366a4f98863b7d0ec0a6db3c58d3f4ecf02b353.jpg"
  },
  {
    "name": "sos14",
    "defaultvalue": 0,
    "displayName": "Imposter ",
    "hidden": 0,
    "description": "From the start, beat any boss using the Imposter",
    "icon": "https://steamcdn-a.akamaihd.net/steamcommunity/public/images/apps/631490/ddd83648466e0e8c009334d90a90d45ad5171693.jpg",
    "icongray": "https://steamcdn-a.akamaihd.net/steamcommunity/public/images/apps/631490/2366a4f98863b7d0ec0a6db3c58d3f4ecf02b353.jpg"
  },
  {
    "name": "sos15",
    "defaultvalue": 0,
    "displayName": "No Loitering",
    "hidden": 0,
    "description": "Get killed by the insta-death lasers ",
    "icon": "https://steamcdn-a.akamaihd.net/steamcommunity/public/images/apps/631490/8701405c3b1fadf73cb2f3ada18b271cd28df0fd.jpg",
    "icongray": "https://steamcdn-a.akamaihd.net/steamcommunity/public/images/apps/631490/2366a4f98863b7d0ec0a6db3c58d3f4ecf02b353.jpg"
  },
  {
    "name": "sos16",
    "defaultvalue": 0,
    "displayName": "Medallion Man",
    "hidden": 0,
    "description": "Earn every score medal",
    "icon": "https://steamcdn-a.akamaihd.net/steamcommunity/public/images/apps/631490/8c8945ab04cf71503a6bf47190788e4074525017.jpg",
    "icongray": "https://steamcdn-a.akamaihd.net/steamcommunity/public/images/apps/631490/2366a4f98863b7d0ec0a6db3c58d3f4ecf02b353.jpg"
  },
  {
    "name": "sos17",
    "defaultvalue": 0,
    "displayName": "The Expert",
    "hidden": 0,
    "description": "Defeat Expert Mode ",
    "icon": "https://steamcdn-a.akamaihd.net/steamcommunity/public/images/apps/631490/94cc2ebc4830f6c78ec44637be6345c09806c67b.jpg",
    "icongray": "https://steamcdn-a.akamaihd.net/steamcommunity/public/images/apps/631490/2366a4f98863b7d0ec0a6db3c58d3f4ecf02b353.jpg"
  }
]