[
  {
    "name": "chapter1.stick",
    "defaultvalue": 0,
    "displayName": "High-tech Weaponry",
    "hidden": 0,
    "description": "Receive the Woodsman's Finest Pokin' Stick",
    "icon": "https://steamcdn-a.akamaihd.net/steamcommunity/public/images/apps/327980/4dd49fe8348450b8c09279813f39e82e9faa65d6.jpg",
    "icongray": "https://steamcdn-a.akamaihd.net/steamcommunity/public/images/apps/327980/26dbd94f096f92044cfd2b2141a0d49896121b1e.jpg"
  },
  {
    "name": "chapter1.readBooks",
    "defaultvalue": 0,
    "displayName": "Well Educated",
    "hidden": 0,
    "description": "Read 30 Different Books in Ogden's Story",
    "icon": "https://steamcdn-a.akamaihd.net/steamcommunity/public/images/apps/327980/3deab49e88dad0a7bba2f7b38a44c61abde4a25a.jpg",
    "icongray": "https://steamcdn-a.akamaihd.net/steamcommunity/public/images/apps/327980/b83e5b72189c14408c8dd04cfedb0adf83a00e8c.jpg"
  },
  {
    "name": "chapter1.complete",
    "defaultvalue": 0,
    "displayName": "Ogden's Story",
    "hidden": 0,
    "description": "Complete Chapter 1: Dragon Fantasy",
    "icon": "https://steamcdn-a.akamaihd.net/steamcommunity/public/images/apps/327980/e98404814607b2628e0b553487545daddbe9ef90.jpg",
    "icongray": "https://steamcdn-a.akamaihd.net/steamcommunity/public/images/apps/327980/3cb5231326d46bb2818e70bc45a5da066a2e956a.jpg"
  },
  {
    "name": "chapter2.findFriends",
    "defaultvalue": 0,
    "displayName": "With a Little Help...",
    "hidden": 0,
    "description": "As Anders, Recruit Punchy, Casty, and Serps at the Same Time",
    "icon": "https://steamcdn-a.akamaihd.net/steamcommunity/public/images/apps/327980/256d3a67fda02221bc7c00dac12484fd62e10f8b.jpg",
    "icongray": "https://steamcdn-a.akamaihd.net/steamcommunity/public/images/apps/327980/7fa4e71eec8e57cba939335fb66233ac4c12e4b9.jpg"
  },
  {
    "name": "chapter2.manOfShadows",
    "defaultvalue": 0,
    "displayName": "Man of Shadows",
    "hidden": 0,
    "description": "See How the Cave Troll Acquires the Rusty Helmet",
    "icon": "https://steamcdn-a.akamaihd.net/steamcommunity/public/images/apps/327980/9ff1837350e59ba718ee483cccca1e4c19ab09b0.jpg",
    "icongray": "https://steamcdn-a.akamaihd.net/steamcommunity/public/images/apps/327980/02e85ccab338727e194b6842be5b9b758de4c0af.jpg"
  },
  {
    "name": "chapter2.complete",
    "defaultvalue": 0,
    "displayName": "Anders' Story",
    "hidden": 0,
    "description": "Complete Chapter 2: The Heir Unapparent",
    "icon": "https://steamcdn-a.akamaihd.net/steamcommunity/public/images/apps/327980/f8c35098f89bb09b978d1d28410755323a42f0b8.jpg",
    "icongray": "https://steamcdn-a.akamaihd.net/steamcommunity/public/images/apps/327980/82b79ee2039a65f7c9d80d7d7540c59542208506.jpg"
  },
  {
    "name": "chapter3.pickPockets",
    "defaultvalue": 0,
    "displayName": "Fund Raising",
    "hidden": 0,
    "description": "Have Jerald Pick-pocket 25 People",
    "icon": "https://steamcdn-a.akamaihd.net/steamcommunity/public/images/apps/327980/8dc081855e29b6d4ae274f9d3899b54df8345467.jpg",
    "icongray": "https://steamcdn-a.akamaihd.net/steamcommunity/public/images/apps/327980/c0cf484ef4df5552195e38a87c44cc7eeee12c7e.jpg"
  },
  {
    "name": "chapter3.banditTreasure",
    "defaultvalue": 0,
    "displayName": "Treasure Hunter",
    "hidden": 0,
    "description": "Find the Bandit Treasure Room in the Bandit Cave",
    "icon": "https://steamcdn-a.akamaihd.net/steamcommunity/public/images/apps/327980/fd884d62a383d8d62dae7eb809eb1d8477de2d2b.jpg",
    "icongray": "https://steamcdn-a.akamaihd.net/steamcommunity/public/images/apps/327980/df2d38228c785ad59a8d5b163cea088cb0201950.jpg"
  },
  {
    "name": "chapter3.complete",
    "defaultvalue": 0,
    "displayName": "Jerald's Story",
    "hidden": 0,
    "description": "Complete Chapter 3: Operation Desert Plunder",
    "icon": "https://steamcdn-a.akamaihd.net/steamcommunity/public/images/apps/327980/f47db0e38446d6ba23044c2c313b679c2296b0d4.jpg",
    "icongray": "https://steamcdn-a.akamaihd.net/steamcommunity/public/images/apps/327980/28b006c793d2a3adbb82968dd5c9bfec4cfe31d6.jpg"
  },
  {
    "name": "intermissionM.capturedMonsters",
    "defaultvalue": 0,
    "displayName": "Gotta Catch a Few",
    "hidden": 0,
    "description": "Have Woodsy Capture 4 Unique Monster Types",
    "icon": "https://steamcdn-a.akamaihd.net/steamcommunity/public/images/apps/327980/c1c380dfca7a4825cf2ed1be8c8c2dcc42d4cac8.jpg",
    "icongray": "https://steamcdn-a.akamaihd.net/steamcommunity/public/images/apps/327980/4115e2ae3ab1eb6e792272616cb15a5378620598.jpg"
  },
  {
    "name": "intermissionM.complete",
    "defaultvalue": 0,
    "displayName": "Intermission M",
    "hidden": 0,
    "description": "Complete Intermission M: A Minecraft Story",
    "icon": "https://steamcdn-a.akamaihd.net/steamcommunity/public/images/apps/327980/812cfee813b6cd5c81e5e648f93c532c543ecd89.jpg",
    "icongray": "https://steamcdn-a.akamaihd.net/steamcommunity/public/images/apps/327980/b24ee4db6dcf7112947ec8fe5dfa4a92a297aebe.jpg"
  },
  {
    "name": "game.complete",
    "defaultvalue": 0,
    "displayName": "The Fantastical Dragon!",
    "hidden": 0,
    "description": "Complete the main storyline in chapters 1, 2, and 3",
    "icon": "https://steamcdn-a.akamaihd.net/steamcommunity/public/images/apps/327980/ffe42882e96b16986b3a5976af28ff54c60d981c.jpg",
    "icongray": "https://steamcdn-a.akamaihd.net/steamcommunity/public/images/apps/327980/c8b04eb4430e34757ff600aee00b5caca5385211.jpg"
  }
]