[
  {
    "name": "games_played_pipes",
    "defaultvalue": 0,
    "displayName": ""
  },
  {
    "name": "games_played_ctiles",
    "defaultvalue": 0,
    "displayName": ""
  },
  {
    "name": "games_played_pom",
    "defaultvalue": 0,
    "displayName": ""
  },
  {
    "name": "games_played_tline",
    "defaultvalue": 0,
    "displayName": ""
  },
  {
    "name": "games_played_crib",
    "defaultvalue": 0,
    "displayName": ""
  },
  {
    "name": "games_played_tetriles",
    "defaultvalue": 0,
    "displayName": ""
  },
  {
    "name": "games_played_pixvil",
    "defaultvalue": 0,
    "displayName": ""
  },
  {
    "name": "games_played_dslide",
    "defaultvalue": 0,
    "displayName": ""
  },
  {
    "name": "games_played_match3",
    "defaultvalue": 0,
    "displayName": ""
  },
  {
    "name": "reserved_2",
    "defaultvalue": 0,
    "displayName": ""
  },
  {
    "name": "reserved_3",
    "defaultvalue": 0,
    "displayName": ""
  },
  {
    "name": "liczba_rozbitych_krysztalow",
    "defaultvalue": 0,
    "displayName": ""
  },
  {
    "name": "liczba_zebranych_eliksirow",
    "defaultvalue": 0,
    "displayName": ""
  },
  {
    "name": "liczba_przesunietych_pudel",
    "defaultvalue": 0,
    "displayName": ""
  },
  {
    "name": "total_hints_used",
    "defaultvalue": 0,
    "displayName": ""
  },
  {
    "name": "total_level_reset",
    "defaultvalue": 0,
    "displayName": ""
  },
  {
    "name": "total_undo_used",
    "defaultvalue": 0,
    "displayName": ""
  }
]