[
  {
    "name": "STAT_DEATH_TOLL",
    "defaultvalue": 0,
    "displayName": "Death Toll"
  },
  {
    "name": "STAT_PULSARHITMESSAGE",
    "defaultvalue": 0,
    "displayName": ""
  },
  {
    "name": "STAT_BLACKHOLEEXITHITMESSAGE",
    "defaultvalue": 0,
    "displayName": ""
  },
  {
    "name": "STAT_GASPLANETHITMESSAGE",
    "defaultvalue": 0,
    "displayName": ""
  },
  {
    "name": "STAT_SAWDEATHHITMESSAGE",
    "defaultvalue": 0,
    "displayName": ""
  },
  {
    "name": "STAT_TOTALCOLLECTIBLES_LIFETIME",
    "defaultvalue": 0,
    "displayName": ""
  },
  {
    "name": "STAT_TOTALDEATHS_LIFETIME",
    "defaultvalue": 0,
    "displayName": ""
  },
  {
    "name": "STAT_TOTALROLLS_LIFETIME",
    "defaultvalue": 0,
    "displayName": ""
  },
  {
    "name": "STAT_TOTALORBITS_LIFETIME",
    "defaultvalue": 0,
    "displayName": ""
  },
  {
    "name": "STAT_SCREENWRAPS_LIFETIME",
    "defaultvalue": 0,
    "displayName": ""
  },
  {
    "name": "STAT_GRUBPYRO_LIFETIME",
    "defaultvalue": 0,
    "displayName": ""
  },
  {
    "name": "STAT_PURCHASE_BRAKES",
    "defaultvalue": 0,
    "displayName": ""
  },
  {
    "name": "STAT_PURCHASE_BOMB",
    "defaultvalue": 0,
    "displayName": ""
  },
  {
    "name": "STAT_PURCHASE_FUEL",
    "defaultvalue": 0,
    "displayName": ""
  },
  {
    "name": "STAT_PURCHASE_RECHARGE",
    "defaultvalue": 0,
    "displayName": ""
  },
  {
    "name": "STAT_PURCHASE_SPEED",
    "defaultvalue": 0,
    "displayName": ""
  },
  {
    "name": "STAT_PURCHASE_ROLL",
    "defaultvalue": 0,
    "displayName": ""
  },
  {
    "name": "STAT_PURCHASE_MAGNETIZE",
    "defaultvalue": 0,
    "displayName": ""
  },
  {
    "name": "STAT_MEGABOOST_LIFETIME",
    "defaultvalue": 0,
    "displayName": ""
  },
  {
    "name": "STAT_UPGRADE_FIVE",
    "defaultvalue": 0,
    "displayName": ""
  },
  {
    "name": "STAT_FRAKKERHIT_LIFETIME",
    "defaultvalue": 0,
    "displayName": ""
  },
  {
    "name": "STAT_SURVIVOR_LIFETIME",
    "defaultvalue": 0,
    "displayName": ""
  },
  {
    "name": "STAT_SURVIVE",
    "defaultvalue": 0,
    "displayName": ""
  },
  {
    "name": "STAT_OBTAINIUM_LIFETIME",
    "defaultvalue": 0,
    "displayName": "Obtainium Total"
  },
  {
    "name": "STAT_TOTALTIME_GAMEPLAY",
    "defaultvalue": 0,
    "displayName": ""
  }
]