[
  {
    "name": "DOORS_OPENED",
    "defaultvalue": 0,
    "displayName": "Doors opened"
  },
  {
    "name": "DEATHS_COUNT",
    "defaultvalue": 0,
    "displayName": "Deaths count"
  },
  {
    "name": "TOTAL_KILLS",
    "defaultvalue": 0,
    "displayName": "Total kills"
  },
  {
    "name": "SPIKE_DEATH",
    "defaultvalue": 0,
    "displayName": "Deaths from spikes"
  },
  {
    "name": "FLAME_DEATH",
    "defaultvalue": 0,
    "displayName": "Deaths from flame"
  },
  {
    "name": "LASER_DEATH",
    "defaultvalue": 0,
    "displayName": "Deaths from lasers"
  },
  {
    "name": "PENDULUM_DEATH",
    "defaultvalue": 0,
    "displayName": "Deaths from pendulums"
  },
  {
    "name": "PRESS_DEATH",
    "defaultvalue": 0,
    "displayName": "Deaths from press"
  },
  {
    "name": "SAW_DEATH",
    "defaultvalue": 0,
    "displayName": "Deaths from saws"
  },
  {
    "name": "SHELL_DEATH",
    "defaultvalue": 0,
    "displayName": "Deaths from Shell"
  },
  {
    "name": "CREEPY_DEATH",
    "defaultvalue": 0,
    "displayName": "Deaths from Creepy"
  },
  {
    "name": "HELLHOUND_DEATH",
    "defaultvalue": 0,
    "displayName": "Deaths from Hellhound"
  },
  {
    "name": "WINS_COUNT",
    "defaultvalue": 0,
    "displayName": "Number of wins"
  },
  {
    "name": "SCIFI_WINS",
    "defaultvalue": 0,
    "displayName": "SciFi wins"
  },
  {
    "name": "ROOMS_WINS",
    "defaultvalue": 0,
    "displayName": "Rooms wins"
  },
  {
    "name": "MAZE_WINS",
    "defaultvalue": 0,
    "displayName": "Maze wins"
  },
  {
    "name": "SUBWAY_WINS",
    "defaultvalue": 0,
    "displayName": "Subway wins"
  }
]