{
  "Dlcs": {},
  "Name": "Red Beard Labyrinth",
  "AppId": "941200",
  "ImageUrl": "https://steamcdn-a.akamaihd.net/steam/apps/941200/header.jpg?t=1545403756",
  "Languages": [
    "english",
    "russian",
    "french",
    "schinese",
    "spanish"
  ],
  "Platforms": {
    "windows": true,
    "mac": true,
    "linux": true
  }
}