{
  "Dlcs": {},
  "Name": "Bloody Ending",
  "AppId": "1219980",
  "ImageUrl": "https://steamcdn-a.akamaihd.net/steam/apps/1219980/header.jpg?t=1582839285",
  "Languages": [
    "english",
    "french"
  ],
  "Platforms": {
    "windows": true,
    "mac": false,
    "linux": false
  }
}