[
  {
    "name": "FAKE_CHEST",
    "defaultvalue": 0,
    "displayName": "Fake Chest",
    "hidden": 0,
    "description": "Find the fake chest",
    "icon": "https://steamcdn-a.akamaihd.net/steamcommunity/public/images/apps/1219980/0f87817ee4d134fc5a20c96b97dabe19d3ebdcdf.jpg",
    "icongray": "https://steamcdn-a.akamaihd.net/steamcommunity/public/images/apps/1219980/dba89366158fdd7f247b232b1f45873a464a2e70.jpg"
  },
  {
    "name": "30TH_FLOOR",
    "defaultvalue": 0,
    "displayName": "30th Floor",
    "hidden": 0,
    "description": "Reach the 30th Infernal Floor",
    "icon": "https://steamcdn-a.akamaihd.net/steamcommunity/public/images/apps/1219980/02449349a722eee79fd58b7839787de7c380794f.jpg",
    "icongray": "https://steamcdn-a.akamaihd.net/steamcommunity/public/images/apps/1219980/2da822cab36921a2f24da5b4ee93ec947ffbd33f.jpg"
  },
  {
    "name": "BAD_ENDING",
    "defaultvalue": 0,
    "displayName": "Bad Ending",
    "hidden": 0,
    "description": "You choose the Bad Ending.",
    "icon": "https://steamcdn-a.akamaihd.net/steamcommunity/public/images/apps/1219980/253734451f0f85697eef3c21e12d562c7b878993.jpg",
    "icongray": "https://steamcdn-a.akamaihd.net/steamcommunity/public/images/apps/1219980/9ee151448f39e1d27994db3957a6066207183735.jpg"
  },
  {
    "name": "BLOOD_PART",
    "defaultvalue": 0,
    "displayName": "Blood Part",
    "hidden": 0,
    "description": "You reached the Blood Part",
    "icon": "https://steamcdn-a.akamaihd.net/steamcommunity/public/images/apps/1219980/52326c1e5b99d854a674d578c75ddba508f32717.jpg",
    "icongray": "https://steamcdn-a.akamaihd.net/steamcommunity/public/images/apps/1219980/93090498f1e098984698824068bb0f8c2f492987.jpg"
  },
  {
    "name": "FREE_CASH",
    "defaultvalue": 0,
    "displayName": "Pandurai Free Cash",
    "hidden": 0,
    "description": "Get free cash from Pandurai",
    "icon": "https://steamcdn-a.akamaihd.net/steamcommunity/public/images/apps/1219980/3dab580f1200a382a499d34e93a745dc27f1abda.jpg",
    "icongray": "https://steamcdn-a.akamaihd.net/steamcommunity/public/images/apps/1219980/fd67aad9da9ba81d46cd3cb84356e552f4e104e3.jpg"
  },
  {
    "name": "FINISH_GAME",
    "defaultvalue": 0,
    "displayName": "Game End",
    "hidden": 0,
    "description": "Congratulations you finished the game",
    "icon": "https://steamcdn-a.akamaihd.net/steamcommunity/public/images/apps/1219980/d773fef8cd3398dc49f466cfbc68eafa94bfa1ca.jpg",
    "icongray": "https://steamcdn-a.akamaihd.net/steamcommunity/public/images/apps/1219980/28b792ce9e7edabc21c7fb4cd83b168d4504700f.jpg"
  },
  {
    "name": "THE_DUEL",
    "defaultvalue": 0,
    "displayName": "The Duel",
    "hidden": 0,
    "description": "Win the Duel",
    "icon": "https://steamcdn-a.akamaihd.net/steamcommunity/public/images/apps/1219980/23d0de2ad7c985f16236bbc9620a6208fdcfafba.jpg",
    "icongray": "https://steamcdn-a.akamaihd.net/steamcommunity/public/images/apps/1219980/36875b7d675964a005fc8e519727e5caab8d44d8.jpg"
  },
  {
    "name": "BEAT_POUKY",
    "defaultvalue": 0,
    "displayName": "Pouky",
    "hidden": 0,
    "description": "You beated Pouky",
    "icon": "https://steamcdn-a.akamaihd.net/steamcommunity/public/images/apps/1219980/f6025184110516636848cddf84cbe62aabfb1bd2.jpg",
    "icongray": "https://steamcdn-a.akamaihd.net/steamcommunity/public/images/apps/1219980/8a265f37b94116b23466dc5b7274728a3e65bee9.jpg"
  },
  {
    "name": "COPPER_VEST",
    "defaultvalue": 0,
    "displayName": "Copper Vest",
    "hidden": 0,
    "description": "You made a Copper Vest",
    "icon": "https://steamcdn-a.akamaihd.net/steamcommunity/public/images/apps/1219980/f4f7ad1e1b5a89c1283c744a01f3941201d5b687.jpg",
    "icongray": "https://steamcdn-a.akamaihd.net/steamcommunity/public/images/apps/1219980/1f8095b459fce88268f9d2fff5c3a27847fb88e2.jpg"
  },
  {
    "name": "HIDE_OUT",
    "defaultvalue": 0,
    "displayName": "Hide Out",
    "hidden": 0,
    "description": "Infiltrate the Hide Out",
    "icon": "https://steamcdn-a.akamaihd.net/steamcommunity/public/images/apps/1219980/4c71ace19074487fcf8739cbec2370255b375034.jpg",
    "icongray": "https://steamcdn-a.akamaihd.net/steamcommunity/public/images/apps/1219980/e76e96ca25a6dba46509f07b4de470fb24963de4.jpg"
  },
  {
    "name": "THE_PENDENT",
    "defaultvalue": 0,
    "displayName": "Find The Pendent",
    "hidden": 0,
    "description": "You found the 1st pendent",
    "icon": "https://steamcdn-a.akamaihd.net/steamcommunity/public/images/apps/1219980/1cacddd44902005e99634bdbec77271102e9a809.jpg",
    "icongray": "https://steamcdn-a.akamaihd.net/steamcommunity/public/images/apps/1219980/cb8fb84fd4e2c21e7cf7469a9d1599844b786386.jpg"
  },
  {
    "name": "REFLECT_WAND",
    "defaultvalue": 0,
    "displayName": "Reflect Wand",
    "hidden": 0,
    "description": "You made a Reflect Wand",
    "icon": "https://steamcdn-a.akamaihd.net/steamcommunity/public/images/apps/1219980/fc37a17e006db4fbe398d2f162da0240a739632f.jpg",
    "icongray": "https://steamcdn-a.akamaihd.net/steamcommunity/public/images/apps/1219980/44dc810d5aee2b664a1af0f9337a0553a8572778.jpg"
  },
  {
    "name": "SELFMADE_POTION",
    "defaultvalue": 0,
    "displayName": "Potion",
    "hidden": 0,
    "description": "You made your own Potion",
    "icon": "https://steamcdn-a.akamaihd.net/steamcommunity/public/images/apps/1219980/7c9ea95c5d2272b5b1148d24f2c72d10272ccc64.jpg",
    "icongray": "https://steamcdn-a.akamaihd.net/steamcommunity/public/images/apps/1219980/cc4055d33f324c4b50e753118aa042c38fe88169.jpg"
  },
  {
    "name": "HOLY_SABER",
    "defaultvalue": 0,
    "displayName": "Holy Saber",
    "hidden": 0,
    "description": "You made a Holy Saber",
    "icon": "https://steamcdn-a.akamaihd.net/steamcommunity/public/images/apps/1219980/251824d317a6ae3669342a26e0f9ddf37edc31ea.jpg",
    "icongray": "https://steamcdn-a.akamaihd.net/steamcommunity/public/images/apps/1219980/9dea7396d710fca83ca46187c7f9bfdeaea896f6.jpg"
  },
  {
    "name": "BEAT_SUKINAY",
    "defaultvalue": 0,
    "displayName": "Sukinay",
    "hidden": 0,
    "description": "You beated Sukinay",
    "icon": "https://steamcdn-a.akamaihd.net/steamcommunity/public/images/apps/1219980/e9994528ee50a968b11e9d1f902cd8906be765bb.jpg",
    "icongray": "https://steamcdn-a.akamaihd.net/steamcommunity/public/images/apps/1219980/c7202df9fa2963abaec24278ead7e97143915e0a.jpg"
  },
  {
    "name": "BEAT_KEIDO",
    "defaultvalue": 0,
    "displayName": "Keido",
    "hidden": 0,
    "description": "You beated Keido",
    "icon": "https://steamcdn-a.akamaihd.net/steamcommunity/public/images/apps/1219980/d580685e04f13e95af3e610f14e65ed69fce3dba.jpg",
    "icongray": "https://steamcdn-a.akamaihd.net/steamcommunity/public/images/apps/1219980/ca8c8f3e7c500067bc30b9207ad1dc4f1390da3c.jpg"
  },
  {
    "name": "BEAT_ZOLFA",
    "defaultvalue": 0,
    "displayName": "Zolfa",
    "hidden": 0,
    "description": "You beated Zolfa",
    "icon": "https://steamcdn-a.akamaihd.net/steamcommunity/public/images/apps/1219980/19dafd186d6de6a4563ab2a9c1e18e70dd78da1f.jpg",
    "icongray": "https://steamcdn-a.akamaihd.net/steamcommunity/public/images/apps/1219980/abcc6abc09826f1641cebb181c52780c0043c5e0.jpg"
  }
]