[
  {
    "name": "marry",
    "defaultvalue": 0,
    "displayName": "Married",
    "hidden": 0,
    "description": "You have a spouse!",
    "icon": "https://steamcdn-a.akamaihd.net/steamcommunity/public/images/apps/1099630/8c640755958e4e201d0a050ae3668ef465bd4d1d.jpg",
    "icongray": "https://steamcdn-a.akamaihd.net/steamcommunity/public/images/apps/1099630/d3472d0d984a8a690f59b362338dc76f6f162016.jpg"
  },
  {
    "name": "bestFriend",
    "defaultvalue": 0,
    "displayName": "Best Friend",
    "hidden": 0,
    "description": "You have a best friend!",
    "icon": "https://steamcdn-a.akamaihd.net/steamcommunity/public/images/apps/1099630/d47c63842c0be1d681047743a8e124b411f43623.jpg",
    "icongray": "https://steamcdn-a.akamaihd.net/steamcommunity/public/images/apps/1099630/b0a31211a8f4335e6a32306dc3846139f1545815.jpg"
  },
  {
    "name": "lover",
    "defaultvalue": 0,
    "displayName": "Lover",
    "hidden": 0,
    "description": "You have a lover!",
    "icon": "https://steamcdn-a.akamaihd.net/steamcommunity/public/images/apps/1099630/44bcac7c1a72e270795c5488fc73e491f63c5e2d.jpg",
    "icongray": "https://steamcdn-a.akamaihd.net/steamcommunity/public/images/apps/1099630/a9fbc27d5f11b15c561b47192564afb8e9453f72.jpg"
  },
  {
    "name": "threeWay",
    "defaultvalue": 0,
    "displayName": "Menage a Trois",
    "hidden": 0,
    "description": "You have a 3 way!",
    "icon": "https://steamcdn-a.akamaihd.net/steamcommunity/public/images/apps/1099630/efce98a4936db496a1cf57e7eab248dc1c5c3d81.jpg",
    "icongray": "https://steamcdn-a.akamaihd.net/steamcommunity/public/images/apps/1099630/cbc129296026300de3eca6ad4cbba9f9197fd24b.jpg"
  },
  {
    "name": "bitten",
    "defaultvalue": 0,
    "displayName": "Bitten",
    "hidden": 0,
    "description": "You have been bitten by a zombie!",
    "icon": "https://steamcdn-a.akamaihd.net/steamcommunity/public/images/apps/1099630/d5c49a484079556009bcbc082ce0feaab4dcea7a.jpg",
    "icongray": "https://steamcdn-a.akamaihd.net/steamcommunity/public/images/apps/1099630/7c21298d8e54332d0062ef4495edff8fd711eb13.jpg"
  },
  {
    "name": "runAway",
    "defaultvalue": 0,
    "displayName": "Happy Feet",
    "hidden": 0,
    "description": "You ran away from a zombie!",
    "icon": "https://steamcdn-a.akamaihd.net/steamcommunity/public/images/apps/1099630/b5db3ef043f3c246b274b9d091d060633ec93123.jpg",
    "icongray": "https://steamcdn-a.akamaihd.net/steamcommunity/public/images/apps/1099630/efcd473323a6b255defb70b610673d495b090bfe.jpg"
  },
  {
    "name": "deathEldersHigh",
    "defaultvalue": 0,
    "displayName": "Removed from Power",
    "hidden": 0,
    "description": "The Elders have become too powerful and no longer need you as leader.",
    "icon": "https://steamcdn-a.akamaihd.net/steamcommunity/public/images/apps/1099630/9789532c6fc6b6cabfd3d65ad630b1c3f01281cc.jpg",
    "icongray": "https://steamcdn-a.akamaihd.net/steamcommunity/public/images/apps/1099630/58f5d8708e988f5e27a27fb30fdd5ebfca89db32.jpg"
  },
  {
    "name": "deathEldersLow",
    "defaultvalue": 0,
    "displayName": "Stepping Down",
    "hidden": 0,
    "description": "The Elders have agreed it's time for new leadership.",
    "icon": "https://steamcdn-a.akamaihd.net/steamcommunity/public/images/apps/1099630/10e6ebe27a4e718876bd5b0be1566a675af98f54.jpg",
    "icongray": "https://steamcdn-a.akamaihd.net/steamcommunity/public/images/apps/1099630/47e92b59a8e4105c6f235aa7cf126b96ad941468.jpg"
  },
  {
    "name": "deathFollowersHigh",
    "defaultvalue": 0,
    "displayName": "Elections",
    "hidden": 0,
    "description": "The Followers have become too powerful and elect their own leader.",
    "icon": "https://steamcdn-a.akamaihd.net/steamcommunity/public/images/apps/1099630/a5d96623331a80e0a8586710cac5ee3e166bb24c.jpg",
    "icongray": "https://steamcdn-a.akamaihd.net/steamcommunity/public/images/apps/1099630/ad246e18b7a6e20bd416cb4128d71f3f64a1b5df.jpg"
  },
  {
    "name": "deathFollowersLow",
    "defaultvalue": 0,
    "displayName": "Revolt",
    "hidden": 0,
    "description": "The Followers no longer believe in you and have revolted.",
    "icon": "https://steamcdn-a.akamaihd.net/steamcommunity/public/images/apps/1099630/1c5ebbb75b77e198f7107d138b30ed249d180bca.jpg",
    "icongray": "https://steamcdn-a.akamaihd.net/steamcommunity/public/images/apps/1099630/dbf316a1b0bdcbc9d37d19e5568f3d960c7dea09.jpg"
  },
  {
    "name": "deathResourcesHigh",
    "defaultvalue": 0,
    "displayName": "Grown Lazy",
    "hidden": 0,
    "description": "You have so much resources the people grow lazy and tired of your leadership.",
    "icon": "https://steamcdn-a.akamaihd.net/steamcommunity/public/images/apps/1099630/d3c8b8458a29bd3f36c95584fcb0b63e2a7f4bb4.jpg",
    "icongray": "https://steamcdn-a.akamaihd.net/steamcommunity/public/images/apps/1099630/3d5b6fad0193f8520a5d2158e0f11214cbafd971.jpg"
  },
  {
    "name": "deathResourcesLow",
    "defaultvalue": 0,
    "displayName": "Out of Food",
    "hidden": 0,
    "description": "Your group has run out of resources and is starving.",
    "icon": "https://steamcdn-a.akamaihd.net/steamcommunity/public/images/apps/1099630/f523a420a2982db13f2a3a4531e5b2eaed0c81ee.jpg",
    "icongray": "https://steamcdn-a.akamaihd.net/steamcommunity/public/images/apps/1099630/23e362515aae4df30fefa479728f3a0d594823ec.jpg"
  },
  {
    "name": "deathSoldiersHigh",
    "defaultvalue": 0,
    "displayName": "Overthrown",
    "hidden": 0,
    "description": "NEW_ACHIEVEMENT_DESC_1_12",
    "icon": "https://steamcdn-a.akamaihd.net/steamcommunity/public/images/apps/1099630/eea72984bc1002cf5001cdf60efca0b52aa85475.jpg",
    "icongray": "https://steamcdn-a.akamaihd.net/steamcommunity/public/images/apps/1099630/8f5773b2140e5bcdfa2fd27fd80e75852d0c8c1c.jpg"
  },
  {
    "name": "deathSoldiersLow",
    "defaultvalue": 0,
    "displayName": "Coup d'etat",
    "hidden": 0,
    "description": "The Soldiers have decided to end your command.",
    "icon": "https://steamcdn-a.akamaihd.net/steamcommunity/public/images/apps/1099630/5f519f2ff06464951e05edebcac63d64acf53ca3.jpg",
    "icongray": "https://steamcdn-a.akamaihd.net/steamcommunity/public/images/apps/1099630/e33895bc4635fa02c79c91782fd85b4a502d8035.jpg"
  },
  {
    "name": "deathBestFriendHigh",
    "defaultvalue": 0,
    "displayName": "No More Friends",
    "hidden": 0,
    "description": "The group permanently ends your relationship with your best friend.",
    "icon": "https://steamcdn-a.akamaihd.net/steamcommunity/public/images/apps/1099630/83cc52e07cb989eef126d814aaad8c16df78943a.jpg",
    "icongray": "https://steamcdn-a.akamaihd.net/steamcommunity/public/images/apps/1099630/7b5d4f1b75c5debf83fe3b4671cfc9ca736fd917.jpg"
  },
  {
    "name": "deathBestFriendLow",
    "defaultvalue": 0,
    "displayName": "Backstabbed",
    "hidden": 0,
    "description": "Your best friend decides to permanently end your friendship.",
    "icon": "https://steamcdn-a.akamaihd.net/steamcommunity/public/images/apps/1099630/7d1f4d6bef6bfd8f18e548a617668571fe5aae02.jpg",
    "icongray": "https://steamcdn-a.akamaihd.net/steamcommunity/public/images/apps/1099630/4aee2fd2c032e5ddc74e74ab64fd6d0a6dd86b1a.jpg"
  },
  {
    "name": "deathLoverHigh",
    "defaultvalue": 0,
    "displayName": "Too Hot to Trot",
    "hidden": 0,
    "description": "The group permanently ends your love affair with your lover.",
    "icon": "https://steamcdn-a.akamaihd.net/steamcommunity/public/images/apps/1099630/a8d28100f9f8783392120776d2da1e6f6d22a30f.jpg",
    "icongray": "https://steamcdn-a.akamaihd.net/steamcommunity/public/images/apps/1099630/6c6212f94ad7cb94d49bd873db9dc7bb68e7711a.jpg"
  },
  {
    "name": "deathLoverLow",
    "defaultvalue": 0,
    "displayName": "Lover's Quarrel",
    "hidden": 0,
    "description": "Your lover has decided to permanently end your love affair.",
    "icon": "https://steamcdn-a.akamaihd.net/steamcommunity/public/images/apps/1099630/b523508fcbe2c548a6e6b030172d3b73bcb98054.jpg",
    "icongray": "https://steamcdn-a.akamaihd.net/steamcommunity/public/images/apps/1099630/c92c25661e39b72ee934500a38ae04cb580634a6.jpg"
  },
  {
    "name": "deathSpouseHigh",
    "defaultvalue": 0,
    "displayName": "'Til Death Due Us Part",
    "hidden": 0,
    "description": "The group permanently ends your marriage with your spouse.",
    "icon": "https://steamcdn-a.akamaihd.net/steamcommunity/public/images/apps/1099630/1d2da5cd2858db93bf86974b43882cf88cb19378.jpg",
    "icongray": "https://steamcdn-a.akamaihd.net/steamcommunity/public/images/apps/1099630/fc910e4e666087dd51c1226a4f5883c15041ed44.jpg"
  },
  {
    "name": "deathSpouseLow",
    "defaultvalue": 0,
    "displayName": "Divorce",
    "hidden": 0,
    "description": "Your spouse has decided to permanently end your marriage.",
    "icon": "https://steamcdn-a.akamaihd.net/steamcommunity/public/images/apps/1099630/0f2d92498072e65e93d82003482f7c0bfaf2d97f.jpg",
    "icongray": "https://steamcdn-a.akamaihd.net/steamcommunity/public/images/apps/1099630/b42d310130f25f5ad1cdac3634a6451a7c40c998.jpg"
  },
  {
    "name": "deathZombieAttack",
    "defaultvalue": 0,
    "displayName": "Death by Zombie",
    "hidden": 0,
    "description": "You died from a zombie attack.",
    "icon": "https://steamcdn-a.akamaihd.net/steamcommunity/public/images/apps/1099630/499682aef75dd5ca25dc1c3d64d656df83e2c295.jpg",
    "icongray": "https://steamcdn-a.akamaihd.net/steamcommunity/public/images/apps/1099630/03a2890e6f74eba5c4929cb7755544cc20803997.jpg"
  },
  {
    "name": "deathBittenTurns",
    "defaultvalue": 0,
    "displayName": "Become a Zombie",
    "hidden": 0,
    "description": "You died and turn into a zombie.",
    "icon": "https://steamcdn-a.akamaihd.net/steamcommunity/public/images/apps/1099630/d5c49a484079556009bcbc082ce0feaab4dcea7a.jpg",
    "icongray": "https://steamcdn-a.akamaihd.net/steamcommunity/public/images/apps/1099630/7c21298d8e54332d0062ef4495edff8fd711eb13.jpg"
  },
  {
    "name": "deathBittenEndsLife",
    "defaultvalue": 0,
    "displayName": "End It",
    "hidden": 0,
    "description": "After being bitten, you have no other choice but to end it.",
    "icon": "https://steamcdn-a.akamaihd.net/steamcommunity/public/images/apps/1099630/95a9bfe38d33597a36c94d29284780c763514ba1.jpg",
    "icongray": "https://steamcdn-a.akamaihd.net/steamcommunity/public/images/apps/1099630/47d7bfc4f6d7d1708f023f705868c47bb29dcc64.jpg"
  },
  {
    "name": "deathBittenEndsLifeBFF",
    "defaultvalue": 0,
    "displayName": "Bestie Ends It",
    "hidden": 0,
    "description": "After being bitten, your best friend ends it for you.",
    "icon": "https://steamcdn-a.akamaihd.net/steamcommunity/public/images/apps/1099630/ac314515715a6ade1528d338ace0133e30c9fe9f.jpg",
    "icongray": "https://steamcdn-a.akamaihd.net/steamcommunity/public/images/apps/1099630/7d7d1660a29434ccaa40e5a0d8c3ebb3cba73f7d.jpg"
  },
  {
    "name": "deathBittenEndsLifeLover",
    "defaultvalue": 0,
    "displayName": "Lover Ends It",
    "hidden": 0,
    "description": "After being bitten, your lover ends it for you.",
    "icon": "https://steamcdn-a.akamaihd.net/steamcommunity/public/images/apps/1099630/170daee8e00aac4c1031f844c004885943fa3151.jpg",
    "icongray": "https://steamcdn-a.akamaihd.net/steamcommunity/public/images/apps/1099630/b3ca0eecd3f6553f6c379469f309184f45cc6ca3.jpg"
  },
  {
    "name": "deathBittenEndsLifeSpouse",
    "defaultvalue": 0,
    "displayName": "Spouse Ends It",
    "hidden": 0,
    "description": "After being bitten, your spouse ends it for you.",
    "icon": "https://steamcdn-a.akamaihd.net/steamcommunity/public/images/apps/1099630/5ee7e978debeedd2bef786170b4175090bb81911.jpg",
    "icongray": "https://steamcdn-a.akamaihd.net/steamcommunity/public/images/apps/1099630/00b67c0afb9e16ca8a5796abaf7c07946f3e7265.jpg"
  },
  {
    "name": "deathBittenFailedAmputation",
    "defaultvalue": 0,
    "displayName": "Failed Amputation",
    "hidden": 0,
    "description": "You die in a failed amputation to stop the infection from spreading.",
    "icon": "https://steamcdn-a.akamaihd.net/steamcommunity/public/images/apps/1099630/3849522413296679cbeb24c16127206b3e73b551.jpg",
    "icongray": "https://steamcdn-a.akamaihd.net/steamcommunity/public/images/apps/1099630/1de3e2962044fea815b836c3807c2be45b528678.jpg"
  },
  {
    "name": "amputatesArm",
    "defaultvalue": 0,
    "displayName": "Amputate Arm",
    "hidden": 0,
    "description": "You amputate your arm to stop the infection from spreading.",
    "icon": "https://steamcdn-a.akamaihd.net/steamcommunity/public/images/apps/1099630/fd0c2a80e3ec62610a9d1f9c72eda53f064de4c5.jpg",
    "icongray": "https://steamcdn-a.akamaihd.net/steamcommunity/public/images/apps/1099630/ce601716e4afd530ba871e5d277a66368d324292.jpg"
  },
  {
    "name": "amputatesLeg",
    "defaultvalue": 0,
    "displayName": "Amputate Leg",
    "hidden": 0,
    "description": "You amputate your leg to stop the infection from spreading.",
    "icon": "https://steamcdn-a.akamaihd.net/steamcommunity/public/images/apps/1099630/46a93cf2d5b5b259ed8693592a726905fc656092.jpg",
    "icongray": "https://steamcdn-a.akamaihd.net/steamcommunity/public/images/apps/1099630/044d7f44c627d26b21bb97d0d46062dc4be0a4f4.jpg"
  },
  {
    "name": "completeChapter1",
    "defaultvalue": 0,
    "displayName": "The Beginning",
    "hidden": 0,
    "description": "Chapter 1 is complete!",
    "icon": "https://steamcdn-a.akamaihd.net/steamcommunity/public/images/apps/1099630/81cfb7e321325cd51c86862fc1a0e506c594d2dd.jpg",
    "icongray": "https://steamcdn-a.akamaihd.net/steamcommunity/public/images/apps/1099630/64318c81feb1c6736955fdd2ebbc69384897d2c2.jpg"
  },
  {
    "name": "completeChapter2",
    "defaultvalue": 0,
    "displayName": "Risk vs Reward",
    "hidden": 0,
    "description": "Chapter 2 is complete!",
    "icon": "https://steamcdn-a.akamaihd.net/steamcommunity/public/images/apps/1099630/e0c448c4c835a8ea42dc9a7367f9a2b84ac1824c.jpg",
    "icongray": "https://steamcdn-a.akamaihd.net/steamcommunity/public/images/apps/1099630/3ccaccaca50197253948a846d97e0fa249f55c02.jpg"
  },
  {
    "name": "completeChapter3",
    "defaultvalue": 0,
    "displayName": "Deadly Frontiers",
    "hidden": 0,
    "description": "Chapter 3 is complete!",
    "icon": "https://steamcdn-a.akamaihd.net/steamcommunity/public/images/apps/1099630/3213612284b239576b89b19e663547cad6119e45.jpg",
    "icongray": "https://steamcdn-a.akamaihd.net/steamcommunity/public/images/apps/1099630/a1a7c551b8def753bafb41809e39cec419a95c4c.jpg"
  },
  {
    "name": "completeChapter4",
    "defaultvalue": 0,
    "displayName": "The Cure",
    "hidden": 0,
    "description": "Chapter 4 is complete!",
    "icon": "https://steamcdn-a.akamaihd.net/steamcommunity/public/images/apps/1099630/a57d1c7558d2051b4f916646e7f4666ce2196016.jpg",
    "icongray": "https://steamcdn-a.akamaihd.net/steamcommunity/public/images/apps/1099630/ad8877db978a0d8659f7da7f670ca4b0bc5d9289.jpg"
  },
  {
    "name": "completeChapter5",
    "defaultvalue": 0,
    "displayName": "Do or Die",
    "hidden": 0,
    "description": "Chapter 5 is complete!",
    "icon": "https://steamcdn-a.akamaihd.net/steamcommunity/public/images/apps/1099630/4594b0fe745c8325b21bd201a2cd6c9337ef7f64.jpg",
    "icongray": "https://steamcdn-a.akamaihd.net/steamcommunity/public/images/apps/1099630/111b9ce46c9932cd8cbab30b7135a6442c306e41.jpg"
  },
  {
    "name": "ruleDays5",
    "defaultvalue": 0,
    "displayName": "5 Days as Leader",
    "hidden": 0,
    "description": "Lead the group for 5 days!",
    "icon": "https://steamcdn-a.akamaihd.net/steamcommunity/public/images/apps/1099630/8042a1d6ff88988a9451f3d0fa2c12d966d4cdfa.jpg",
    "icongray": "https://steamcdn-a.akamaihd.net/steamcommunity/public/images/apps/1099630/6b0cee3743a022a771744ed0980f584badd0292f.jpg"
  },
  {
    "name": "ruleDays10",
    "defaultvalue": 0,
    "displayName": "10 Days as Leader",
    "hidden": 0,
    "description": "Lead the group for 10 days!",
    "icon": "https://steamcdn-a.akamaihd.net/steamcommunity/public/images/apps/1099630/a83a487e4bd261714ea370a9bfd68929a1b62ed0.jpg",
    "icongray": "https://steamcdn-a.akamaihd.net/steamcommunity/public/images/apps/1099630/93144b2a239ea18cc35d04cb71972189da41f86d.jpg"
  },
  {
    "name": "ruleDays25",
    "defaultvalue": 0,
    "displayName": "25 Days as Leader",
    "hidden": 0,
    "description": "Lead the group for 25 days!",
    "icon": "https://steamcdn-a.akamaihd.net/steamcommunity/public/images/apps/1099630/ffe2b06c5f3ea46dc56bf90149ffd23f4abf2e5b.jpg",
    "icongray": "https://steamcdn-a.akamaihd.net/steamcommunity/public/images/apps/1099630/cb6f8c3e92876a909ca8df2466797aa621fcfd8b.jpg"
  },
  {
    "name": "ruleDays50",
    "defaultvalue": 0,
    "displayName": "50 Days as Leader",
    "hidden": 0,
    "description": "Lead the group for 50 days!",
    "icon": "https://steamcdn-a.akamaihd.net/steamcommunity/public/images/apps/1099630/313d365b731b7da267acad845e2fd64a20ebe59f.jpg",
    "icongray": "https://steamcdn-a.akamaihd.net/steamcommunity/public/images/apps/1099630/9d907ae69adbe0803352eb7ef55523c34b7837ca.jpg"
  },
  {
    "name": "ruleDays100",
    "defaultvalue": 0,
    "displayName": "100 Days as Leader",
    "hidden": 0,
    "description": "Lead the group for 100 days!",
    "icon": "https://steamcdn-a.akamaihd.net/steamcommunity/public/images/apps/1099630/5d02542a1e75798ba503b4c92cc648152b7d9a5e.jpg",
    "icongray": "https://steamcdn-a.akamaihd.net/steamcommunity/public/images/apps/1099630/d070eb25b694803e84f897a339300dbc215068e4.jpg"
  },
  {
    "name": "ruleDays150",
    "defaultvalue": 0,
    "displayName": "150 Days as Leader",
    "hidden": 0,
    "description": "Lead the group for 150 days!",
    "icon": "https://steamcdn-a.akamaihd.net/steamcommunity/public/images/apps/1099630/21d6be2d9a9c664c9fde8b4a9d618efef1eb269f.jpg",
    "icongray": "https://steamcdn-a.akamaihd.net/steamcommunity/public/images/apps/1099630/0c7d51ed8ac2858991b844dec53d137b082a5f14.jpg"
  },
  {
    "name": "ruleDays250",
    "defaultvalue": 0,
    "displayName": "250 Days as Leader",
    "hidden": 0,
    "description": "Lead the group for 250 days!",
    "icon": "https://steamcdn-a.akamaihd.net/steamcommunity/public/images/apps/1099630/88c33853c248abe6e4129ca839d39eab46880614.jpg",
    "icongray": "https://steamcdn-a.akamaihd.net/steamcommunity/public/images/apps/1099630/99fc283a3f13f54ab53ca2ada53e659382d46f64.jpg"
  },
  {
    "name": "ruleDays350",
    "defaultvalue": 0,
    "displayName": "350 Days as Leader",
    "hidden": 0,
    "description": "Lead the group for 350 days!",
    "icon": "https://steamcdn-a.akamaihd.net/steamcommunity/public/images/apps/1099630/ba249e69b6a5276c6ed4f1e3beef0bb7ceeae74a.jpg",
    "icongray": "https://steamcdn-a.akamaihd.net/steamcommunity/public/images/apps/1099630/9a66d623c93b91b0e0e158f563463d2c59f69428.jpg"
  },
  {
    "name": "ruleDays500",
    "defaultvalue": 0,
    "displayName": "500 Days as Leader",
    "hidden": 0,
    "description": "Lead the group for 500 days!",
    "icon": "https://steamcdn-a.akamaihd.net/steamcommunity/public/images/apps/1099630/ab390791027338f9771c8bd667ef8a3183b56198.jpg",
    "icongray": "https://steamcdn-a.akamaihd.net/steamcommunity/public/images/apps/1099630/f8f5ad341860e73c278416b66537d82c395f3a6e.jpg"
  },
  {
    "name": "ruleDays750",
    "defaultvalue": 0,
    "displayName": "750 Days as Leader",
    "hidden": 0,
    "description": "Lead the group for 750 days!",
    "icon": "https://steamcdn-a.akamaihd.net/steamcommunity/public/images/apps/1099630/c88b6edcd63f6351c8b7ae3fdf3accc0520d97dc.jpg",
    "icongray": "https://steamcdn-a.akamaihd.net/steamcommunity/public/images/apps/1099630/b793b095ba70f8309c086a2c122e9c962d8e1e15.jpg"
  },
  {
    "name": "ruleDays1000",
    "defaultvalue": 0,
    "displayName": "1,000 Days as Leader",
    "hidden": 0,
    "description": "Lead the group for 1,000 days!",
    "icon": "https://steamcdn-a.akamaihd.net/steamcommunity/public/images/apps/1099630/d51c81aa3ca19a008473c7e7598671453267a2c8.jpg",
    "icongray": "https://steamcdn-a.akamaihd.net/steamcommunity/public/images/apps/1099630/7d8fd55629384374d1c657492eb8a85c96a14835.jpg"
  },
  {
    "name": "ruleDays2000",
    "defaultvalue": 0,
    "displayName": "2,000 Days as Leader",
    "hidden": 0,
    "description": "Lead the group for 2,000 days!",
    "icon": "https://steamcdn-a.akamaihd.net/steamcommunity/public/images/apps/1099630/2aedf5a1b4e82b6b80f9e0e64956aa90547647d0.jpg",
    "icongray": "https://steamcdn-a.akamaihd.net/steamcommunity/public/images/apps/1099630/1406dab197b97ad8db1cb6d34e6f8ffa5317e5f5.jpg"
  },
  {
    "name": "ruleDays4000",
    "defaultvalue": 0,
    "displayName": "4,000 Days as Leader",
    "hidden": 0,
    "description": "Lead the group for 4,000 days!",
    "icon": "https://steamcdn-a.akamaihd.net/steamcommunity/public/images/apps/1099630/fc49c932a612e6b26bd238c5c3c0bca94d8cd10d.jpg",
    "icongray": "https://steamcdn-a.akamaihd.net/steamcommunity/public/images/apps/1099630/a980e438dcdc980108338b93c7ac2c90b95ad47b.jpg"
  },
  {
    "name": "zombieKill1",
    "defaultvalue": 0,
    "displayName": "1 Zombie",
    "hidden": 0,
    "description": "You have killed 1 zombie!",
    "icon": "https://steamcdn-a.akamaihd.net/steamcommunity/public/images/apps/1099630/f49d1e9959c3427e943ba02e2c62ceea5ea70151.jpg",
    "icongray": "https://steamcdn-a.akamaihd.net/steamcommunity/public/images/apps/1099630/31ac6f8284464d230acb340eef132e983b8af056.jpg"
  },
  {
    "name": "zombieKill5",
    "defaultvalue": 0,
    "displayName": "5 Zombies",
    "hidden": 0,
    "description": "You have killed 5 zombies!",
    "icon": "https://steamcdn-a.akamaihd.net/steamcommunity/public/images/apps/1099630/b4980ba35c1d475473a23237e8a2485207808bc8.jpg",
    "icongray": "https://steamcdn-a.akamaihd.net/steamcommunity/public/images/apps/1099630/4199b4d8969de4760c5dfe8154110a6e2e2e19bb.jpg"
  },
  {
    "name": "zombieKill10",
    "defaultvalue": 0,
    "displayName": "10 Zombies",
    "hidden": 0,
    "description": "You have killed 10 zombies!",
    "icon": "https://steamcdn-a.akamaihd.net/steamcommunity/public/images/apps/1099630/1472215b8b943f0c5a3cf2d0b32035acdc8500aa.jpg",
    "icongray": "https://steamcdn-a.akamaihd.net/steamcommunity/public/images/apps/1099630/58358c2d59cb0f6fff2be80a0bdd436647ede77f.jpg"
  },
  {
    "name": "zombieKill25",
    "defaultvalue": 0,
    "displayName": "25 Zombies",
    "hidden": 0,
    "description": "You have killed 25 zombies!",
    "icon": "https://steamcdn-a.akamaihd.net/steamcommunity/public/images/apps/1099630/04f045487f572e0776b3c9c0c384e165395561e0.jpg",
    "icongray": "https://steamcdn-a.akamaihd.net/steamcommunity/public/images/apps/1099630/b2c0fc69cc0b846abc9bf2c60d680eae343d5b0a.jpg"
  },
  {
    "name": "zombieKill50",
    "defaultvalue": 0,
    "displayName": "50 Zombies",
    "hidden": 0,
    "description": "You have killed 50 zombies!",
    "icon": "https://steamcdn-a.akamaihd.net/steamcommunity/public/images/apps/1099630/6cc6957780d96b94f7644977030f76b8aa166988.jpg",
    "icongray": "https://steamcdn-a.akamaihd.net/steamcommunity/public/images/apps/1099630/57390b3ffb671b74915d1b61f96a3145d130bf73.jpg"
  },
  {
    "name": "zombieKill75",
    "defaultvalue": 0,
    "displayName": "75 Zombies",
    "hidden": 0,
    "description": "You have killed 75 zombies!",
    "icon": "https://steamcdn-a.akamaihd.net/steamcommunity/public/images/apps/1099630/06b84d3d5a054778df45477642b9206f8acee0ee.jpg",
    "icongray": "https://steamcdn-a.akamaihd.net/steamcommunity/public/images/apps/1099630/5f847707e5432d154554508e99259f67dede84a5.jpg"
  },
  {
    "name": "zombieKill100",
    "defaultvalue": 0,
    "displayName": "100 Zombies",
    "hidden": 0,
    "description": "You have killed 100 zombies!",
    "icon": "https://steamcdn-a.akamaihd.net/steamcommunity/public/images/apps/1099630/4f966f53a7871fe81ec2f6c6029ac479365c95ab.jpg",
    "icongray": "https://steamcdn-a.akamaihd.net/steamcommunity/public/images/apps/1099630/bbf7e5e095e5ae74b9dc7ef540ea58615e4546f3.jpg"
  },
  {
    "name": "zombieKill250",
    "defaultvalue": 0,
    "displayName": "250 Zombies",
    "hidden": 0,
    "description": "You have killed 250 zombies!",
    "icon": "https://steamcdn-a.akamaihd.net/steamcommunity/public/images/apps/1099630/3565323edc194f5156c232be907608bf026eebff.jpg",
    "icongray": "https://steamcdn-a.akamaihd.net/steamcommunity/public/images/apps/1099630/631db7c771843b473278bb9a56ebdd6a1e5bcf2b.jpg"
  },
  {
    "name": "survivorKill1",
    "defaultvalue": 0,
    "displayName": "1 Survivor",
    "hidden": 0,
    "description": "You have eliminated 1 survivor!",
    "icon": "https://steamcdn-a.akamaihd.net/steamcommunity/public/images/apps/1099630/fd231971ac4fe0edadfddc100672102fc944ffb3.jpg",
    "icongray": "https://steamcdn-a.akamaihd.net/steamcommunity/public/images/apps/1099630/d87347d014cc8588c59b915e2d08b04003dfbf71.jpg"
  },
  {
    "name": "survivorKill5",
    "defaultvalue": 0,
    "displayName": "5 Survivors",
    "hidden": 0,
    "description": "You have eliminated 5 survivors!",
    "icon": "https://steamcdn-a.akamaihd.net/steamcommunity/public/images/apps/1099630/0e6c7007e92a3fc2a7b4797d418b9df71f91a9e6.jpg",
    "icongray": "https://steamcdn-a.akamaihd.net/steamcommunity/public/images/apps/1099630/8024f0954bbab7aaa6386d3c355941900071cf67.jpg"
  },
  {
    "name": "survivorKill10",
    "defaultvalue": 0,
    "displayName": "10 Survivors",
    "hidden": 0,
    "description": "You have eliminated 10 survivors!",
    "icon": "https://steamcdn-a.akamaihd.net/steamcommunity/public/images/apps/1099630/7bc7bfa7bc6322ffdc1f5c05445d93c66f51407e.jpg",
    "icongray": "https://steamcdn-a.akamaihd.net/steamcommunity/public/images/apps/1099630/22228a8be0515961914760e1b657b73b3b621125.jpg"
  },
  {
    "name": "survivorKill25",
    "defaultvalue": 0,
    "displayName": "25 Survivors",
    "hidden": 0,
    "description": "You have eliminated 25 survivors!",
    "icon": "https://steamcdn-a.akamaihd.net/steamcommunity/public/images/apps/1099630/c25d324ce354ca99fd2f28ba704d8fff15701033.jpg",
    "icongray": "https://steamcdn-a.akamaihd.net/steamcommunity/public/images/apps/1099630/ffe4f954052655a7e7572e237d44e4e121fd8b06.jpg"
  },
  {
    "name": "survivorKill50",
    "defaultvalue": 0,
    "displayName": "50 Survivors",
    "hidden": 0,
    "description": "You have eliminated 50 survivors!",
    "icon": "https://steamcdn-a.akamaihd.net/steamcommunity/public/images/apps/1099630/ac89f1b605e1329e6d22cdbd29410784f0dc8341.jpg",
    "icongray": "https://steamcdn-a.akamaihd.net/steamcommunity/public/images/apps/1099630/1fa4f67f55918a7798d959be3127dcfb209c4ccb.jpg"
  },
  {
    "name": "survivorKill75",
    "defaultvalue": 0,
    "displayName": "75 Survivors",
    "hidden": 0,
    "description": "You have eliminated 75 survivors!",
    "icon": "https://steamcdn-a.akamaihd.net/steamcommunity/public/images/apps/1099630/7d852fef1294322bf598d1c6fd577a22b2901035.jpg",
    "icongray": "https://steamcdn-a.akamaihd.net/steamcommunity/public/images/apps/1099630/46fa286841c8e803023300c6ccffb96a5e255915.jpg"
  },
  {
    "name": "survivorKill100",
    "defaultvalue": 0,
    "displayName": "100 Survivors",
    "hidden": 0,
    "description": "You have eliminated 100 survivors!",
    "icon": "https://steamcdn-a.akamaihd.net/steamcommunity/public/images/apps/1099630/26734d6d68bdf062164d5b79bc949f6855b5e68a.jpg",
    "icongray": "https://steamcdn-a.akamaihd.net/steamcommunity/public/images/apps/1099630/07b459ac925edb637a9986b01dc6a6455a6ce4ff.jpg"
  },
  {
    "name": "survivorKill250",
    "defaultvalue": 0,
    "displayName": "250 Survivors",
    "hidden": 0,
    "description": "You have eliminated 250 survivors!",
    "icon": "https://steamcdn-a.akamaihd.net/steamcommunity/public/images/apps/1099630/01c31764d0000a131983b4f891367d3febab1b66.jpg",
    "icongray": "https://steamcdn-a.akamaihd.net/steamcommunity/public/images/apps/1099630/214b8567753710698ff85a18744b97d5397bd9fe.jpg"
  }
]