[
  {
    "name": "TIME_ACHIEVEMENT_20",
    "defaultvalue": 0,
    "displayName": "First Steps",
    "hidden": 0,
    "description": "Survive 20 seconds through a single level",
    "icon": "https://steamcdn-a.akamaihd.net/steamcommunity/public/images/apps/1222020/29dd1478d5798ed61c4d759ada9866344fe7599b.jpg",
    "icongray": "https://steamcdn-a.akamaihd.net/steamcommunity/public/images/apps/1222020/a5f7025155d9fd2ac947538ff895ad1bee10fe04.jpg"
  },
  {
    "name": "TIME_ACHIEVEMENT_40",
    "defaultvalue": 0,
    "displayName": "Getting there!",
    "hidden": 0,
    "description": "Survive 40 seconds through a single level",
    "icon": "https://steamcdn-a.akamaihd.net/steamcommunity/public/images/apps/1222020/a91754e871ec8df8268562c630635b0f5f424d7b.jpg",
    "icongray": "https://steamcdn-a.akamaihd.net/steamcommunity/public/images/apps/1222020/2803461d78db0634820389628ec5608ebf46c98d.jpg"
  },
  {
    "name": "TIME_ACHIEVEMENT_60",
    "defaultvalue": 0,
    "displayName": "Survive one",
    "hidden": 0,
    "description": "Survive 1 minute through a single level",
    "icon": "https://steamcdn-a.akamaihd.net/steamcommunity/public/images/apps/1222020/d69977bbb073fa1a834079b35b46bd449c07080e.jpg",
    "icongray": "https://steamcdn-a.akamaihd.net/steamcommunity/public/images/apps/1222020/b71109d28f086416412a42db208be36a8053e470.jpg"
  },
  {
    "name": "TIME_ACHIEVEMENT_120",
    "defaultvalue": 0,
    "displayName": "Survive two",
    "hidden": 0,
    "description": "Survive 2 minutes through a single level",
    "icon": "https://steamcdn-a.akamaihd.net/steamcommunity/public/images/apps/1222020/4ecdff4bad926be17e49d478d9ae20a386a61000.jpg",
    "icongray": "https://steamcdn-a.akamaihd.net/steamcommunity/public/images/apps/1222020/1bb145623bf486cb2f60bf5613f5ca7e186e3fa2.jpg"
  },
  {
    "name": "TIME_ACHIEVEMENT_240",
    "defaultvalue": 0,
    "displayName": "Survive four",
    "hidden": 0,
    "description": "Survive 4 minutes through a single level",
    "icon": "https://steamcdn-a.akamaihd.net/steamcommunity/public/images/apps/1222020/73b9c66f9dfbd801c13242be49b5d7fa21a0eb01.jpg",
    "icongray": "https://steamcdn-a.akamaihd.net/steamcommunity/public/images/apps/1222020/6debee303ea0973d7cdd7654dcfe21702c3916f5.jpg"
  },
  {
    "name": "TIME_ACHIEVEMENT_300",
    "defaultvalue": 0,
    "displayName": "Survive five",
    "hidden": 0,
    "description": "Make it 5 minutes through a single level",
    "icon": "https://steamcdn-a.akamaihd.net/steamcommunity/public/images/apps/1222020/5ffad1b256a31a3dd520d6ab7e333882da622e42.jpg",
    "icongray": "https://steamcdn-a.akamaihd.net/steamcommunity/public/images/apps/1222020/9a359f4d2e6ee8cb7878c1229eabacb35b0f0f0f.jpg"
  }
]