﻿[
  {
    "name": "FINISH_EASY_RACE",
    "defaultvalue": 0,
    "displayName": "Easy Race",
    "hidden": 0,
    "description": "Finish Easy Race",
    "icon": "https://steamcdn-a.akamaihd.net/steamcommunity/public/images/apps/468240/6e63d98ca51d16f9e16ad1fe4c343a0365b53b32.jpg",
    "icongray": "https://steamcdn-a.akamaihd.net/steamcommunity/public/images/apps/468240/b54cb0324bc3e67002b3cee71c615034a74836dc.jpg"
  },
  {
    "name": "FINISH_RACE",
    "defaultvalue": 0,
    "displayName": "Race",
    "hidden": 0,
    "description": "Finish Race",
    "icon": "https://steamcdn-a.akamaihd.net/steamcommunity/public/images/apps/468240/0167ad6c28811db8f88102e3c561c5ed78a0449f.jpg",
    "icongray": "https://steamcdn-a.akamaihd.net/steamcommunity/public/images/apps/468240/1a5e4fdf913416b726ba856897ee9dfc27a90d3e.jpg"
  },
  {
    "name": "FINISH_LONG_RACE",
    "defaultvalue": 0,
    "displayName": "Long Race",
    "hidden": 0,
    "description": "Finish Long Race",
    "icon": "https://steamcdn-a.akamaihd.net/steamcommunity/public/images/apps/468240/528f4261f639444bc0d4cda176f5d4eba36f9f20.jpg",
    "icongray": "https://steamcdn-a.akamaihd.net/steamcommunity/public/images/apps/468240/f1048393e9a04ace26c104724b29116f60290856.jpg"
  },
  {
    "name": "FINISH_SAILING_TERMS",
    "defaultvalue": 0,
    "displayName": "Sailing Terms",
    "hidden": 0,
    "description": "Find all the boat elements",
    "icon": "https://steamcdn-a.akamaihd.net/steamcommunity/public/images/apps/468240/7d9117c08f1928300764b77236532cea1b618359.jpg",
    "icongray": "https://steamcdn-a.akamaihd.net/steamcommunity/public/images/apps/468240/4e7e6acc5da5d76a7f092f6dbd5763134a73610f.jpg"
  },
  {
    "name": "CRASH_BOAT",
    "defaultvalue": 0,
    "displayName": "Crash boat",
    "hidden": 1,
    "icon": "https://steamcdn-a.akamaihd.net/steamcommunity/public/images/apps/468240/08434f069644888d4f6a515cb0c92f063dd94c7b.jpg",
    "icongray": "https://steamcdn-a.akamaihd.net/steamcommunity/public/images/apps/468240/0b068702f700b37746cf0113b80a95f548fa9e4d.jpg"
  },
  {
    "name": "VR_LEGS",
    "defaultvalue": 0,
    "displayName": "VR Legs",
    "hidden": 1,
    "icon": "https://steamcdn-a.akamaihd.net/steamcommunity/public/images/apps/468240/77091f0d9e6b3d36d33a1ae1331bb7c9b47efcdf.jpg",
    "icongray": "https://steamcdn-a.akamaihd.net/steamcommunity/public/images/apps/468240/e16c9b573ad497c79f5da13da25e0bed825b48bf.jpg"
  },
  {
    "name": "WALK_OF_FAME",
    "defaultvalue": 0,
    "displayName": "Hollywood Walk of Fame",
    "hidden": 1,
    "icon": "https://steamcdn-a.akamaihd.net/steamcommunity/public/images/apps/468240/8ed8c93f3e6ef761af776bf6dd1e225dfed946dc.jpg",
    "icongray": "https://steamcdn-a.akamaihd.net/steamcommunity/public/images/apps/468240/ddfa405d10a90bbcd92821a3c0a74c4800e5dee0.jpg"
  },
  {
    "name": "FRIEND_OF_OCEANS",
    "defaultvalue": 0,
    "displayName": "Friend of the oceans",
    "hidden": 1,
    "icon": "https://steamcdn-a.akamaihd.net/steamcommunity/public/images/apps/468240/814fee52afd0923e85a8cc34da017677488ef245.jpg",
    "icongray": "https://steamcdn-a.akamaihd.net/steamcommunity/public/images/apps/468240/558a7232f12e8c555209ea630a4e02b847263caf.jpg"
  },
  {
    "name": "GARBAGE_COLLECTION",
    "defaultvalue": 0,
    "displayName": "Garbage collection",
    "hidden": 0,
    "description": "Collect 10 MarineVerse boxes",
    "icon": "https://steamcdn-a.akamaihd.net/steamcommunity/public/images/apps/468240/b1ac7e38abf3d54bcf9b44725b1ab94c0d24d5c4.jpg",
    "icongray": "https://steamcdn-a.akamaihd.net/steamcommunity/public/images/apps/468240/8a7983ee63316e2bface0907543d92e98826ddde.jpg"
  },
  {
    "name": "BOX_COLLECTION",
    "defaultvalue": 0,
    "displayName": "Friend of the earth",
    "hidden": 0,
    "description": "Collect MarineVerse box",
    "icon": "https://steamcdn-a.akamaihd.net/steamcommunity/public/images/apps/468240/f5ba0f1ba0ebb6060a2efeb3d231bbff73185bd9.jpg",
    "icongray": "https://steamcdn-a.akamaihd.net/steamcommunity/public/images/apps/468240/fd2bb3a5f7bd3e197bfd1aa1214a29ca38226474.jpg"
  },
  {
    "name": "MATE_LEVEL",
    "defaultvalue": 0,
    "displayName": "Mate",
    "hidden": 1,
    "icon": "https://steamcdn-a.akamaihd.net/steamcommunity/public/images/apps/468240/1105329d26c8d833d669bf4d942368f90ca00988.jpg",
    "icongray": "https://steamcdn-a.akamaihd.net/steamcommunity/public/images/apps/468240/f4b1e49cf8b91be37242fe0278ac02b2dfa59efe.jpg"
  },
  {
    "name": "SKIPPER_LEVEL",
    "defaultvalue": 0,
    "displayName": "Skipper",
    "hidden": 1,
    "icon": "https://steamcdn-a.akamaihd.net/steamcommunity/public/images/apps/468240/689d03df0d8165e3579c86b4be758ebb71416f7b.jpg",
    "icongray": "https://steamcdn-a.akamaihd.net/steamcommunity/public/images/apps/468240/c5e3880a83be38a553567fabdfeacf0274ee7ee5.jpg"
  },
  {
    "name": "ORDINARY_SEAMAN_LEVEL",
    "defaultvalue": 0,
    "displayName": "Ordinary Seaman",
    "hidden": 1,
    "icon": "https://steamcdn-a.akamaihd.net/steamcommunity/public/images/apps/468240/886bc577ce2206b9bdb561d6067d2da1ea8fd5eb.jpg",
    "icongray": "https://steamcdn-a.akamaihd.net/steamcommunity/public/images/apps/468240/7903bd11716a5d712d6315bde6863e74665f513a.jpg"
  },
  {
    "name": "ABLE_SEAMAN_LEVEL",
    "defaultvalue": 0,
    "displayName": "Able Seaman",
    "hidden": 1,
    "icon": "https://steamcdn-a.akamaihd.net/steamcommunity/public/images/apps/468240/40eddb47a5d0b9b6b52b97ec9c972c8ac134f2ce.jpg",
    "icongray": "https://steamcdn-a.akamaihd.net/steamcommunity/public/images/apps/468240/4ed6ee6309e0263edcc30d74eebeab7fb2c67ab9.jpg"
  },
  {
    "name": "PETTY_OFFICER_LEVEL",
    "defaultvalue": 0,
    "displayName": "Petty Officer",
    "hidden": 1,
    "icon": "https://steamcdn-a.akamaihd.net/steamcommunity/public/images/apps/468240/9969037d91ce0deb190530550faa8a08e9b9b6d6.jpg",
    "icongray": "https://steamcdn-a.akamaihd.net/steamcommunity/public/images/apps/468240/37f5eb5d32cdfe1994aef6ca78b5402244a2c973.jpg"
  },
  {
    "name": "LJ_CHERRY_BLOSSOM",
    "defaultvalue": 0,
    "displayName": "Cherry blossom",
    "hidden": 0,
    "description": "Find cherry blossom",
    "icon": "https://steamcdn-a.akamaihd.net/steamcommunity/public/images/apps/468240/70818d3abce18e5f2d0d1bda85fe9ad38de32325.jpg",
    "icongray": "https://steamcdn-a.akamaihd.net/steamcommunity/public/images/apps/468240/88102eabb60d5e75cb8109e56927459ee63c3278.jpg"
  }
]