[
  {
    "name": "ALPHA_GO_FR",
    "defaultvalue": 0,
    "displayName": "ALPHA GO",
    "hidden": 0,
    "description": "Completed level 1",
    "icon": "https://steamcdn-a.akamaihd.net/steamcommunity/public/images/apps/611060/34d0032f88e7e0e6fd5e627406d125a3cc01f489.jpg",
    "icongray": "https://steamcdn-a.akamaihd.net/steamcommunity/public/images/apps/611060/92c7e209d12a8f8f255333705f737354a6fcb51a.jpg"
  },
  {
    "name": "HELLO_STRANGER_FR",
    "defaultvalue": 0,
    "displayName": "HELLO STRANGER",
    "hidden": 0,
    "description": "Completed level 2",
    "icon": "https://steamcdn-a.akamaihd.net/steamcommunity/public/images/apps/611060/5d355baaf4248eb5ffc48e5e5caa2cb22d32beb5.jpg",
    "icongray": "https://steamcdn-a.akamaihd.net/steamcommunity/public/images/apps/611060/f2594dbf504c13be03b8b34ac9a70960b0f324f1.jpg"
  },
  {
    "name": "LOST_TIME_FR",
    "defaultvalue": 0,
    "displayName": "LOST TIME",
    "hidden": 0,
    "description": "Completed level 3",
    "icon": "https://steamcdn-a.akamaihd.net/steamcommunity/public/images/apps/611060/d2be82cbac2e67c7dce8f16d03d313ebdf2e65cc.jpg",
    "icongray": "https://steamcdn-a.akamaihd.net/steamcommunity/public/images/apps/611060/21efde72ad91f1e8dd2531bcae61d03c0fe73244.jpg"
  },
  {
    "name": "GONE_ELVIS_FR",
    "defaultvalue": 0,
    "displayName": "GONE ELVIS",
    "hidden": 0,
    "description": "Completed level 4",
    "icon": "https://steamcdn-a.akamaihd.net/steamcommunity/public/images/apps/611060/8ee613cc73e81b770f4065b214f1ebd4167f22b9.jpg",
    "icongray": "https://steamcdn-a.akamaihd.net/steamcommunity/public/images/apps/611060/4e57fb979d00352f7255833c9c643740668a555b.jpg"
  },
  {
    "name": "TIGER_TRAP_FR",
    "defaultvalue": 0,
    "displayName": "TIGER TRAP",
    "hidden": 0,
    "description": "Completed level 5",
    "icon": "https://steamcdn-a.akamaihd.net/steamcommunity/public/images/apps/611060/fe4703d0df8709a2f0bc03472d221ccad1271a87.jpg",
    "icongray": "https://steamcdn-a.akamaihd.net/steamcommunity/public/images/apps/611060/32715decfbd1dda4e6122297e9dca89ca30ba5cb.jpg"
  },
  {
    "name": "PARALLAX_FR",
    "defaultvalue": 0,
    "displayName": "PARALLAX",
    "hidden": 0,
    "description": "Completed level 6",
    "icon": "https://steamcdn-a.akamaihd.net/steamcommunity/public/images/apps/611060/5b06c7c9fecba1b80e91b619f025812385ee1a3e.jpg",
    "icongray": "https://steamcdn-a.akamaihd.net/steamcommunity/public/images/apps/611060/9c0c1c23e2f0ae90dc57a3e217eed46027cd8874.jpg"
  },
  {
    "name": "GHOST_HARDWARE_FR",
    "defaultvalue": 0,
    "displayName": "GHOST HARDWARE",
    "hidden": 0,
    "description": "Completed level 7",
    "icon": "https://steamcdn-a.akamaihd.net/steamcommunity/public/images/apps/611060/d2ea19f218721a8f4c4619816575f3f05ca54431.jpg",
    "icongray": "https://steamcdn-a.akamaihd.net/steamcommunity/public/images/apps/611060/a4591bb2e471d6419b57afc42c9ff00d39c979bd.jpg"
  },
  {
    "name": "CLOCKWORK_FR",
    "defaultvalue": 0,
    "displayName": "CLOCKWORK",
    "hidden": 0,
    "description": "Completed level 8",
    "icon": "https://steamcdn-a.akamaihd.net/steamcommunity/public/images/apps/611060/828fd7029bf5674d61bd90e70f22a518d0f5bbac.jpg",
    "icongray": "https://steamcdn-a.akamaihd.net/steamcommunity/public/images/apps/611060/30cde1dcf9cd4de5e716f1cdb96d51790ece68be.jpg"
  },
  {
    "name": "FRIENDLY_FIRE_FR",
    "defaultvalue": 0,
    "displayName": "FRIENDLY FIRE",
    "hidden": 0,
    "description": "Completed level 9",
    "icon": "https://steamcdn-a.akamaihd.net/steamcommunity/public/images/apps/611060/d0e36746d3ffda5f7536e24bc930e7b6f639b97d.jpg",
    "icongray": "https://steamcdn-a.akamaihd.net/steamcommunity/public/images/apps/611060/82555c8830acaffce1f3778670226ab6fcabb3f5.jpg"
  },
  {
    "name": "SYNTAX_ERROR_FR",
    "defaultvalue": 0,
    "displayName": "SYNTAX ERROR",
    "hidden": 0,
    "description": "Completed level 10",
    "icon": "https://steamcdn-a.akamaihd.net/steamcommunity/public/images/apps/611060/eac26db81639d3093831b9810dbc456aa2001677.jpg",
    "icongray": "https://steamcdn-a.akamaihd.net/steamcommunity/public/images/apps/611060/d2d0d2632bf332655baead7e6ce0934e82e16e0b.jpg"
  },
  {
    "name": "COMMUNION_FR",
    "defaultvalue": 0,
    "displayName": "COMMUNION",
    "hidden": 0,
    "description": "Completed level 11",
    "icon": "https://steamcdn-a.akamaihd.net/steamcommunity/public/images/apps/611060/26f6b6d4d249ce0d6f44f7623e8467a74cfb9637.jpg",
    "icongray": "https://steamcdn-a.akamaihd.net/steamcommunity/public/images/apps/611060/5811ad5fff0a99048476a9b14d0d8198e00a9d0e.jpg"
  },
  {
    "name": "PROXIMITY_FR",
    "defaultvalue": 0,
    "displayName": "PROXIMITY",
    "hidden": 0,
    "description": "Completed level 12",
    "icon": "https://steamcdn-a.akamaihd.net/steamcommunity/public/images/apps/611060/04061e60de459f019b0bb2733662d7acb0908101.jpg",
    "icongray": "https://steamcdn-a.akamaihd.net/steamcommunity/public/images/apps/611060/67c95f6863b983df259f2f35d92248e31ebfa351.jpg"
  },
  {
    "name": "MOONBEAM_FR",
    "defaultvalue": 0,
    "displayName": "MOONBEAM",
    "hidden": 0,
    "description": "Completed level 13",
    "icon": "https://steamcdn-a.akamaihd.net/steamcommunity/public/images/apps/611060/74ec970cf545c3d34cc3ef1df20f14102bb236b2.jpg",
    "icongray": "https://steamcdn-a.akamaihd.net/steamcommunity/public/images/apps/611060/3edcbbed349ef57f65c2ba7aa5e3c939bb7dae67.jpg"
  },
  {
    "name": "TRANSFERENCE_FR",
    "defaultvalue": 0,
    "displayName": "TRANSFERENCE",
    "hidden": 0,
    "description": "Completed level 14",
    "icon": "https://steamcdn-a.akamaihd.net/steamcommunity/public/images/apps/611060/4389396b38dc005498e12b23e07224cfcf5d4512.jpg",
    "icongray": "https://steamcdn-a.akamaihd.net/steamcommunity/public/images/apps/611060/1c0ccd7d41cac41b923d24369eb47a2c4ffa3ea1.jpg"
  },
  {
    "name": "TEMPLE_BELL_FR",
    "defaultvalue": 0,
    "displayName": "TEMPLE BELL",
    "hidden": 0,
    "description": "Completed level 15",
    "icon": "https://steamcdn-a.akamaihd.net/steamcommunity/public/images/apps/611060/0e83b5b09b44d0feb8f42dd0e5101712409707b6.jpg",
    "icongray": "https://steamcdn-a.akamaihd.net/steamcommunity/public/images/apps/611060/e344b83524b594463d7b23548dd037eb7e384c32.jpg"
  },
  {
    "name": "MOMENTO_FR",
    "defaultvalue": 0,
    "displayName": "MOMENTO",
    "hidden": 0,
    "description": "Completed level 16",
    "icon": "https://steamcdn-a.akamaihd.net/steamcommunity/public/images/apps/611060/8ae0bd67004c84cd6a0741b2cae7a9a13ba2b2b1.jpg",
    "icongray": "https://steamcdn-a.akamaihd.net/steamcommunity/public/images/apps/611060/c7f9b083cd00552a8b59388f1dd217de265241af.jpg"
  },
  {
    "name": "GOD_PARTICLE_FR",
    "defaultvalue": 0,
    "displayName": "GOD PARTICLE",
    "hidden": 0,
    "description": "Completed level 17",
    "icon": "https://steamcdn-a.akamaihd.net/steamcommunity/public/images/apps/611060/3d74e95b1e183b892e36c35c962b4e1d37be2887.jpg",
    "icongray": "https://steamcdn-a.akamaihd.net/steamcommunity/public/images/apps/611060/cc6676be099773a2ed918a60ecf576d12b0b09ad.jpg"
  },
  {
    "name": "CHIMERA_FR",
    "defaultvalue": 0,
    "displayName": "CHIMERA",
    "hidden": 0,
    "description": "Completed level 18",
    "icon": "https://steamcdn-a.akamaihd.net/steamcommunity/public/images/apps/611060/897ccd629f0ea3028d4edebeb6e5c3d7fb0b35a8.jpg",
    "icongray": "https://steamcdn-a.akamaihd.net/steamcommunity/public/images/apps/611060/c7ed90b9ec3a5b6e3cd3f9c22366242592fe15ca.jpg"
  },
  {
    "name": "RECURSION_FR",
    "defaultvalue": 0,
    "displayName": "RECURSION",
    "hidden": 0,
    "description": "Completed level 19",
    "icon": "https://steamcdn-a.akamaihd.net/steamcommunity/public/images/apps/611060/efca8891904a6d50431d9bb190c6e5bb3988b840.jpg",
    "icongray": "https://steamcdn-a.akamaihd.net/steamcommunity/public/images/apps/611060/fd7b26549fca2dc04facf6c66379c02080677e8e.jpg"
  },
  {
    "name": "FALLS_FR",
    "defaultvalue": 0,
    "displayName": "FALLS",
    "hidden": 0,
    "description": "Completed level 20",
    "icon": "https://steamcdn-a.akamaihd.net/steamcommunity/public/images/apps/611060/1e39a51ca8b560128df1ccb4066db1d4db56b2d2.jpg",
    "icongray": "https://steamcdn-a.akamaihd.net/steamcommunity/public/images/apps/611060/a4b0a22427cee2652ae42bd0fa873cd72e67aee8.jpg"
  },
  {
    "name": "QUANTUM_LEAP_FR",
    "defaultvalue": 0,
    "displayName": "QUANTUM LEAP",
    "hidden": 0,
    "description": "Completed level 21",
    "icon": "https://steamcdn-a.akamaihd.net/steamcommunity/public/images/apps/611060/b8c615e8d01006b867538f64101ba7e7e8008ef4.jpg",
    "icongray": "https://steamcdn-a.akamaihd.net/steamcommunity/public/images/apps/611060/b7dcd599012f8d6fd4146796c13b85fb9adf758e.jpg"
  },
  {
    "name": "BLACK_SWAN_FR",
    "defaultvalue": 0,
    "displayName": "BLACK SWAN",
    "hidden": 0,
    "description": "Completed level 22",
    "icon": "https://steamcdn-a.akamaihd.net/steamcommunity/public/images/apps/611060/c58de4772061c8bf13a7a8ac59630ec3911fb1a8.jpg",
    "icongray": "https://steamcdn-a.akamaihd.net/steamcommunity/public/images/apps/611060/a9f7b2b4ccad961d42efe490440ecec57fe7aa24.jpg"
  },
  {
    "name": "HEAVY_TRAFFIC_FR",
    "defaultvalue": 0,
    "displayName": "HEAVY TRAFFIC",
    "hidden": 0,
    "description": "Completed level 23",
    "icon": "https://steamcdn-a.akamaihd.net/steamcommunity/public/images/apps/611060/d79ad1d0ac43a2da6a5f6d55114bbb1b6d676fe0.jpg",
    "icongray": "https://steamcdn-a.akamaihd.net/steamcommunity/public/images/apps/611060/947eaa078aef73d18a14559b35f4686e2a255723.jpg"
  },
  {
    "name": "SEQUENCING_FR",
    "defaultvalue": 0,
    "displayName": "SEQUENCING",
    "hidden": 0,
    "description": "Completed level 24",
    "icon": "https://steamcdn-a.akamaihd.net/steamcommunity/public/images/apps/611060/e7c5b3212ce6915913a484b2839c04dc5e02cd44.jpg",
    "icongray": "https://steamcdn-a.akamaihd.net/steamcommunity/public/images/apps/611060/4cbd5a139a7d5fd3b90f8b792314a8700791a9a0.jpg"
  },
  {
    "name": "FOLLOW_THE_LEADER_FR",
    "defaultvalue": 0,
    "displayName": "FOLLOW THE LEADER",
    "hidden": 0,
    "description": "Completed level 25",
    "icon": "https://steamcdn-a.akamaihd.net/steamcommunity/public/images/apps/611060/04f767d72e35b6e6e2eb68a762ec0ca97cf71b4b.jpg",
    "icongray": "https://steamcdn-a.akamaihd.net/steamcommunity/public/images/apps/611060/643f5bf0c9e6f858d6248cad78f1e3e802180300.jpg"
  },
  {
    "name": "CODA_FR",
    "defaultvalue": 0,
    "displayName": "CODA",
    "hidden": 0,
    "description": "Completed level 26",
    "icon": "https://steamcdn-a.akamaihd.net/steamcommunity/public/images/apps/611060/e7b5e14f02487c7a5b6bb360587ec7885c3d148e.jpg",
    "icongray": "https://steamcdn-a.akamaihd.net/steamcommunity/public/images/apps/611060/0c5a09cbadf9b9aebf57fd791c17d3f8c75e0e02.jpg"
  },
  {
    "name": "SIGNAL_TO_NOISE_FR",
    "defaultvalue": 0,
    "displayName": "SIGNAL TO NOISE",
    "hidden": 0,
    "description": "Completed level 27",
    "icon": "https://steamcdn-a.akamaihd.net/steamcommunity/public/images/apps/611060/e76beb16fa4cc0666c73275504590d21422ef612.jpg",
    "icongray": "https://steamcdn-a.akamaihd.net/steamcommunity/public/images/apps/611060/8b6f35927ad4ac6bb001f0a61765dd371bd03354.jpg"
  },
  {
    "name": "PERFECT_RUN_ROOKIE_FR",
    "defaultvalue": 0,
    "displayName": "PERFECT RUN ROOKIE",
    "hidden": 0,
    "description": "Ran 3 levels without expiry or restart",
    "icon": "https://steamcdn-a.akamaihd.net/steamcommunity/public/images/apps/611060/c8bc401fbf9cb214e3327d104015fd37998c4c1f.jpg",
    "icongray": "https://steamcdn-a.akamaihd.net/steamcommunity/public/images/apps/611060/83cf61c1e1b9b403e2069c5fd5abf09e28cd3fc3.jpg"
  },
  {
    "name": "PERFECT_RUN_HACKTIVIST_FR",
    "defaultvalue": 0,
    "displayName": "PERFECT RUN HACKTIVIST",
    "hidden": 0,
    "description": "Ran 5 levels without expiry or restart",
    "icon": "https://steamcdn-a.akamaihd.net/steamcommunity/public/images/apps/611060/4aa2617c9f76494cae98e1292eb8dc414769d76e.jpg",
    "icongray": "https://steamcdn-a.akamaihd.net/steamcommunity/public/images/apps/611060/161e4b454adb6f5d82b57e93dc17f9d04dd77b4e.jpg"
  },
  {
    "name": "PERFECT_RUN_EXPERT_FR",
    "defaultvalue": 0,
    "displayName": "PERFECT RUN EXPERT",
    "hidden": 0,
    "description": "Ran 9 levels without expiry or restart",
    "icon": "https://steamcdn-a.akamaihd.net/steamcommunity/public/images/apps/611060/dec9590b155b7d4c2436d9864e6db2b116ecf6fb.jpg",
    "icongray": "https://steamcdn-a.akamaihd.net/steamcommunity/public/images/apps/611060/d2090d35cdc38db7b246e6385a043fa0a58085ca.jpg"
  },
  {
    "name": "PERFECT_RUN_ELITE_FR",
    "defaultvalue": 0,
    "displayName": "PERFECT RUN ELITE",
    "hidden": 0,
    "description": "Ran 15 levels without expiry or restart",
    "icon": "https://steamcdn-a.akamaihd.net/steamcommunity/public/images/apps/611060/98c909a98b03eb07e36a58bb114aa285ae47864c.jpg",
    "icongray": "https://steamcdn-a.akamaihd.net/steamcommunity/public/images/apps/611060/595fcb743c5f438735878a655b20e6a4a5c712d2.jpg"
  },
  {
    "name": "PERFECT_RUN_MAJESTIC_FR",
    "defaultvalue": 0,
    "displayName": "PERFECT RUN MAJESTIC",
    "hidden": 0,
    "description": "Ran 27 levels without expiry or restart",
    "icon": "https://steamcdn-a.akamaihd.net/steamcommunity/public/images/apps/611060/1d5af072ce01856ebca013884b770b5ab1382d55.jpg",
    "icongray": "https://steamcdn-a.akamaihd.net/steamcommunity/public/images/apps/611060/428a534a54255848da99ace0f5f2b24e1627a6b7.jpg"
  },
  {
    "name": "TIME_ATTACK_FR",
    "defaultvalue": 0,
    "displayName": "TIME ATTACK",
    "hidden": 0,
    "description": "Completed first time trial",
    "icon": "https://steamcdn-a.akamaihd.net/steamcommunity/public/images/apps/611060/3e0b08d50e9eb09f7fc2dcd1a2f29b6f6b572d1d.jpg",
    "icongray": "https://steamcdn-a.akamaihd.net/steamcommunity/public/images/apps/611060/7f395f0ca3f54f56f438b048e344835eeb4f476c.jpg"
  },
  {
    "name": "BENDING_TIME_FR",
    "defaultvalue": 0,
    "displayName": "BENDING TIME",
    "hidden": 0,
    "description": "Completed time trial in under 17 minutes",
    "icon": "https://steamcdn-a.akamaihd.net/steamcommunity/public/images/apps/611060/12d9e9686a2f39bcc56e3e385f254fb0a9645806.jpg",
    "icongray": "https://steamcdn-a.akamaihd.net/steamcommunity/public/images/apps/611060/7d481cea998aa11b32b6d9c4a4046c45803da7d1.jpg"
  },
  {
    "name": "MINDS_EYE_FR",
    "defaultvalue": 0,
    "displayName": "THE MIND'S EYE",
    "hidden": 1,
    "icon": "https://steamcdn-a.akamaihd.net/steamcommunity/public/images/apps/611060/c36d0d976e86acb8eede997656b71ad92598602a.jpg",
    "icongray": "https://steamcdn-a.akamaihd.net/steamcommunity/public/images/apps/611060/1a675b7a3e8468701c68cce9bb90dcf9594a9c77.jpg"
  },
  {
    "name": "CLOSE_THE_LOOP_FR",
    "defaultvalue": 0,
    "displayName": "CLOSE THE LOOP",
    "hidden": 0,
    "description": "Completed the game",
    "icon": "https://steamcdn-a.akamaihd.net/steamcommunity/public/images/apps/611060/8b119da24d8d5f2e0352bd9d5399a67e50de6565.jpg",
    "icongray": "https://steamcdn-a.akamaihd.net/steamcommunity/public/images/apps/611060/bc0f42d4e94815dab526de401c8f53924e969b15.jpg"
  }
]