[
  {
    "name": "ACH_25K",
    "defaultvalue": 0,
    "displayName": "25K",
    "hidden": 0,
    "description": "Earn 25.000 points",
    "icon": "https://steamcdn-a.akamaihd.net/steamcommunity/public/images/apps/733750/a3184243307cbe2fa98108e02a1ee23ceaa48538.jpg",
    "icongray": "https://steamcdn-a.akamaihd.net/steamcommunity/public/images/apps/733750/04aa2dd9f7bc7dbd731984a2e4f8876a2d3a64cd.jpg"
  },
  {
    "name": "ACH_50K",
    "defaultvalue": 0,
    "displayName": "50K",
    "hidden": 0,
    "description": "Earn 50.000 points",
    "icon": "https://steamcdn-a.akamaihd.net/steamcommunity/public/images/apps/733750/9122b71cc790732a71750202f2ee0ef60027ba2f.jpg",
    "icongray": "https://steamcdn-a.akamaihd.net/steamcommunity/public/images/apps/733750/68a8e55b315dded79025021a3761bcf2d5973a69.jpg"
  },
  {
    "name": "ACH_100K",
    "defaultvalue": 0,
    "displayName": "100K",
    "hidden": 0,
    "description": "Earn 100.000 points",
    "icon": "https://steamcdn-a.akamaihd.net/steamcommunity/public/images/apps/733750/ba3550f6451e3798d8144ee36d147f3568d76b41.jpg",
    "icongray": "https://steamcdn-a.akamaihd.net/steamcommunity/public/images/apps/733750/c09acb545fd75c03e5b3efbe27c4b87540c8b9ac.jpg"
  },
  {
    "name": "ACH_200K",
    "defaultvalue": 0,
    "displayName": "200K",
    "hidden": 0,
    "description": "Earn 200.000 points",
    "icon": "https://steamcdn-a.akamaihd.net/steamcommunity/public/images/apps/733750/701459993f95a406bba152925ff2c04feb4ec43f.jpg",
    "icongray": "https://steamcdn-a.akamaihd.net/steamcommunity/public/images/apps/733750/cd9873ce602b69890984b51da3160d253439087e.jpg"
  },
  {
    "name": "ACH_100_FLYING",
    "defaultvalue": 0,
    "displayName": "100 FLYING",
    "hidden": 0,
    "description": "Destroy 100 flying enemies",
    "icon": "https://steamcdn-a.akamaihd.net/steamcommunity/public/images/apps/733750/45c7b4fc727d6299b79d867a49c84b7ff9d1921f.jpg",
    "icongray": "https://steamcdn-a.akamaihd.net/steamcommunity/public/images/apps/733750/98d12866910dada58f9cb8552035b2e46752dd5e.jpg"
  },
  {
    "name": "ACH_200_FLYING",
    "defaultvalue": 0,
    "displayName": "200 FLYING",
    "hidden": 0,
    "description": "Destroy 200 flying enemies",
    "icon": "https://steamcdn-a.akamaihd.net/steamcommunity/public/images/apps/733750/9e82754bdc6513451e84dc0002a800090ce11bb0.jpg",
    "icongray": "https://steamcdn-a.akamaihd.net/steamcommunity/public/images/apps/733750/b77cb648d078e2c8df86fc2f1bbde74d81d121fb.jpg"
  },
  {
    "name": "ACH_400_FLYING",
    "defaultvalue": 0,
    "displayName": "400 FLYING",
    "hidden": 0,
    "description": "Destroy 400 flying enemies",
    "icon": "https://steamcdn-a.akamaihd.net/steamcommunity/public/images/apps/733750/570a3bfe1466da8b95d511fc477198c89d0f1c97.jpg",
    "icongray": "https://steamcdn-a.akamaihd.net/steamcommunity/public/images/apps/733750/a393c71712a570c779d4858106053252aa6ffdf9.jpg"
  },
  {
    "name": "ACH_800_FLYING",
    "defaultvalue": 0,
    "displayName": "800 FLYING",
    "hidden": 0,
    "description": "Destroy 800 flying enemies",
    "icon": "https://steamcdn-a.akamaihd.net/steamcommunity/public/images/apps/733750/98166cf2eadb1f5662fcdea4ea31c886464742d6.jpg",
    "icongray": "https://steamcdn-a.akamaihd.net/steamcommunity/public/images/apps/733750/839be8a11e17fd59620786b08870b82f95c1771d.jpg"
  },
  {
    "name": "ACH_50_TOWERS",
    "defaultvalue": 0,
    "displayName": "50 TOWERS",
    "hidden": 0,
    "description": "Destroy 50 enemy towers",
    "icon": "https://steamcdn-a.akamaihd.net/steamcommunity/public/images/apps/733750/48c07c4c8400e14dd64c4a58a772365284b0db91.jpg",
    "icongray": "https://steamcdn-a.akamaihd.net/steamcommunity/public/images/apps/733750/a2be382cfae56a78eeef6f447b87e14090d36fef.jpg"
  },
  {
    "name": "ACH_100_TOWERS",
    "defaultvalue": 0,
    "displayName": "100 TOWERS",
    "hidden": 0,
    "description": "Destroy 100 enemy towers",
    "icon": "https://steamcdn-a.akamaihd.net/steamcommunity/public/images/apps/733750/e3d12d7694be6cbb2ed312c33e6bfcba467581ad.jpg",
    "icongray": "https://steamcdn-a.akamaihd.net/steamcommunity/public/images/apps/733750/c76d79496c1c21c53959546342ba6e85c2068ddd.jpg"
  },
  {
    "name": "ACH_200_TOWERS",
    "defaultvalue": 0,
    "displayName": "200 TOWERS",
    "hidden": 0,
    "description": "Destroy 200 enemy towers",
    "icon": "https://steamcdn-a.akamaihd.net/steamcommunity/public/images/apps/733750/7faa7097d9a8d529332f89632a0a0d4e0f4233c9.jpg",
    "icongray": "https://steamcdn-a.akamaihd.net/steamcommunity/public/images/apps/733750/03a4c4ba76e3ea22965fa3d26bc84b4d3be764f4.jpg"
  },
  {
    "name": "ACH_400_TOWERS",
    "defaultvalue": 0,
    "displayName": "400 TOWERS",
    "hidden": 0,
    "description": "Destroy 400 enemy towers",
    "icon": "https://steamcdn-a.akamaihd.net/steamcommunity/public/images/apps/733750/b2cca80dcba1ae8e51ff1b4e7ef2a84b03740298.jpg",
    "icongray": "https://steamcdn-a.akamaihd.net/steamcommunity/public/images/apps/733750/2c423c956210ae004ce4b488632925ec40d5dbc4.jpg"
  },
  {
    "name": "ACH_75_LAUNCHERS",
    "defaultvalue": 0,
    "displayName": "75 LAUNCHERS",
    "hidden": 0,
    "description": "Destroy 75 enemy launchers",
    "icon": "https://steamcdn-a.akamaihd.net/steamcommunity/public/images/apps/733750/8847793a88228a058524320e18eaa173bdff74ca.jpg",
    "icongray": "https://steamcdn-a.akamaihd.net/steamcommunity/public/images/apps/733750/1391d943b1fd16c6ecdb293934a2596f6941081d.jpg"
  },
  {
    "name": "ACH_150_LAUNCHERS",
    "defaultvalue": 0,
    "displayName": "150 LAUNCHERS",
    "hidden": 0,
    "description": "Destroy 150 enemy launchers",
    "icon": "https://steamcdn-a.akamaihd.net/steamcommunity/public/images/apps/733750/2847af6a5884961218ac8f33fb498bf6aa603d8f.jpg",
    "icongray": "https://steamcdn-a.akamaihd.net/steamcommunity/public/images/apps/733750/f19633b7a4814bac0b7d70559921fbdcf4ed7e81.jpg"
  },
  {
    "name": "ACH_300_LAUNCHERS",
    "defaultvalue": 0,
    "displayName": "300 LAUNCHERS",
    "hidden": 0,
    "description": "Destroy 300 enemy launchers",
    "icon": "https://steamcdn-a.akamaihd.net/steamcommunity/public/images/apps/733750/9abce91ff7f92a880704f6be76faf06b8178f1f5.jpg",
    "icongray": "https://steamcdn-a.akamaihd.net/steamcommunity/public/images/apps/733750/25e5619c6402869c60f1f978f1745858b790a49b.jpg"
  },
  {
    "name": "ACH_600_LAUNCHERS",
    "defaultvalue": 0,
    "displayName": "600 LAUNCHERS",
    "hidden": 0,
    "description": "Destroy 600 enemy launchers",
    "icon": "https://steamcdn-a.akamaihd.net/steamcommunity/public/images/apps/733750/a235da420952df213becba40cf1899ec04bc040c.jpg",
    "icongray": "https://steamcdn-a.akamaihd.net/steamcommunity/public/images/apps/733750/58ecca496c3b7619d3d9517e66b6a0cc6277f987.jpg"
  },
  {
    "name": "ACH_50_MOBILE_CANNONS",
    "defaultvalue": 0,
    "displayName": "50 MOBILE CANNONS",
    "hidden": 0,
    "description": "Destroy 50 mobile cannons",
    "icon": "https://steamcdn-a.akamaihd.net/steamcommunity/public/images/apps/733750/5cbb12e38a65e50dc318bd881ae27d5b8c10a6c5.jpg",
    "icongray": "https://steamcdn-a.akamaihd.net/steamcommunity/public/images/apps/733750/e819e28cc0a201ee6e8a0b971cb0989a1319f840.jpg"
  },
  {
    "name": "ACH_100_MOBILE_CANNONS",
    "defaultvalue": 0,
    "displayName": "100 MOBILE CANNONS",
    "hidden": 0,
    "description": "Destroy 100 mobile cannons",
    "icon": "https://steamcdn-a.akamaihd.net/steamcommunity/public/images/apps/733750/1915565eca8ad2eb0da1f639a0dea7a9637eef7d.jpg",
    "icongray": "https://steamcdn-a.akamaihd.net/steamcommunity/public/images/apps/733750/d9ee05d43969f4a17d86c99c51d2408ccfef4aa0.jpg"
  },
  {
    "name": "ACH_200_MOBILE_CANNONS",
    "defaultvalue": 0,
    "displayName": "200 MOBILE CANNONS",
    "hidden": 0,
    "description": "Destroy 200 mobile cannons",
    "icon": "https://steamcdn-a.akamaihd.net/steamcommunity/public/images/apps/733750/c4d6c1e980e778b4f2e19fe9037b060b9747f7ad.jpg",
    "icongray": "https://steamcdn-a.akamaihd.net/steamcommunity/public/images/apps/733750/5b9c436db9ae9f299eb9a9ff3a89318098e2e672.jpg"
  },
  {
    "name": "ACH_400_MOBILE_CANNONS",
    "defaultvalue": 0,
    "displayName": "400 MOBILE CANNONS",
    "hidden": 0,
    "description": "Destroy 400 mobile cannons",
    "icon": "https://steamcdn-a.akamaihd.net/steamcommunity/public/images/apps/733750/f217c5263f1f397fecf30d5f2894a4a8743c1141.jpg",
    "icongray": "https://steamcdn-a.akamaihd.net/steamcommunity/public/images/apps/733750/b49aaa2a2d4c8f67889c4478e343ef14b726fbca.jpg"
  },
  {
    "name": "ACH_50_MOBILE_LAUNCHERS",
    "defaultvalue": 0,
    "displayName": "50 MOBILE LAUNCHERS",
    "hidden": 0,
    "description": "Destroy 50 mobile launchers",
    "icon": "https://steamcdn-a.akamaihd.net/steamcommunity/public/images/apps/733750/7439971df8870233f595182a9c672e99d6f0a47d.jpg",
    "icongray": "https://steamcdn-a.akamaihd.net/steamcommunity/public/images/apps/733750/79510f0f9e7d6bdc89b0459b72c3abb7d81f6124.jpg"
  },
  {
    "name": "ACH_100_MOBILE_LAUNCHERS",
    "defaultvalue": 0,
    "displayName": "100 MOBILE LAUNCHERS",
    "hidden": 0,
    "description": "Destroy 100 mobile launchers",
    "icon": "https://steamcdn-a.akamaihd.net/steamcommunity/public/images/apps/733750/facf0d2ef47b09e9d866860ca6b6a0c7a821c71d.jpg",
    "icongray": "https://steamcdn-a.akamaihd.net/steamcommunity/public/images/apps/733750/dee52146376b5b4e05e3c233ebd82057e1e7ccba.jpg"
  },
  {
    "name": "ACH_200_MOBILE_LAUNCHERS",
    "defaultvalue": 0,
    "displayName": "200 MOBILE LAUNCHERS",
    "hidden": 0,
    "description": "Destroy 200 mobile launchers",
    "icon": "https://steamcdn-a.akamaihd.net/steamcommunity/public/images/apps/733750/267fe103f92bbd4526ef010f004e5aac0a265eb4.jpg",
    "icongray": "https://steamcdn-a.akamaihd.net/steamcommunity/public/images/apps/733750/706800cc754419a38b475cc1927851bf9480d1ba.jpg"
  },
  {
    "name": "ACH_400_MOBILE_LAUNCHERS",
    "defaultvalue": 0,
    "displayName": "400 MOBILE LAUNCHERS",
    "hidden": 0,
    "description": "Destroy 400 mobile launchers",
    "icon": "https://steamcdn-a.akamaihd.net/steamcommunity/public/images/apps/733750/2a88377f6cbf68e28482f7480fc7b6e32695b551.jpg",
    "icongray": "https://steamcdn-a.akamaihd.net/steamcommunity/public/images/apps/733750/9fa3d18055d44a894f7104e95e02ef929c0a2bf9.jpg"
  },
  {
    "name": "ACH_100_WARRIORS",
    "defaultvalue": 0,
    "displayName": "100 WARRIORS",
    "hidden": 0,
    "description": "Destroy 100 warriors",
    "icon": "https://steamcdn-a.akamaihd.net/steamcommunity/public/images/apps/733750/b7f303aef9e8ab6c3bc56fa052e8cde45f1608b5.jpg",
    "icongray": "https://steamcdn-a.akamaihd.net/steamcommunity/public/images/apps/733750/7eb981fa2b4b4e823fa61f31e09c563b45f1158a.jpg"
  },
  {
    "name": "ACH_200_WARRIORS",
    "defaultvalue": 0,
    "displayName": "200 WARRIORS",
    "hidden": 0,
    "description": "Destroy 200 warriors",
    "icon": "https://steamcdn-a.akamaihd.net/steamcommunity/public/images/apps/733750/b61e9925304cd27c561dfafba1e068999a2a5201.jpg",
    "icongray": "https://steamcdn-a.akamaihd.net/steamcommunity/public/images/apps/733750/4979e0c4896c580c08940f285f6a38ccdd937e3f.jpg"
  },
  {
    "name": "ACH_400_WARRIORS",
    "defaultvalue": 0,
    "displayName": "400 WARRIORS",
    "hidden": 0,
    "description": "Destroy 400 warriors",
    "icon": "https://steamcdn-a.akamaihd.net/steamcommunity/public/images/apps/733750/29007d61f8980467501b12af77b63b1fad01299b.jpg",
    "icongray": "https://steamcdn-a.akamaihd.net/steamcommunity/public/images/apps/733750/fdd7473a43ec66e093ec043445fa800557ae25e7.jpg"
  },
  {
    "name": "ACH_800_WARRIORS",
    "defaultvalue": 0,
    "displayName": "800 WARRIORS",
    "hidden": 0,
    "description": "Destroy 800 warriors",
    "icon": "https://steamcdn-a.akamaihd.net/steamcommunity/public/images/apps/733750/2e272357c2b06e47e58bfbbe49ebb35d3d6b6706.jpg",
    "icongray": "https://steamcdn-a.akamaihd.net/steamcommunity/public/images/apps/733750/e60ec267315d04d2030a0a74edd7017b46f5579a.jpg"
  },
  {
    "name": "ACH_GREENHORN",
    "defaultvalue": 0,
    "displayName": "GREENHORN",
    "hidden": 0,
    "description": "Destroy 100 flying enemies, 50 enemy towers, 75 enemy launcher, 50 enemy mobile cannons, 50 enemy mobile launchers, 100 enemy warriors",
    "icon": "https://steamcdn-a.akamaihd.net/steamcommunity/public/images/apps/733750/f8ebd8ec3cc4ba21923e5c8d4ea8e328b2485113.jpg",
    "icongray": "https://steamcdn-a.akamaihd.net/steamcommunity/public/images/apps/733750/2636d4dc1f31d5263e30b3beae649bab65564406.jpg"
  },
  {
    "name": "ACH_SPECIALIST",
    "defaultvalue": 0,
    "displayName": "SPECIALIST",
    "hidden": 0,
    "description": "Destroy 200 flying enemies, 100 enemy towers, 150 enemy launcher, 100 enemy mobile cannons, 100 enemy mobile launchers, 200 enemy warriors",
    "icon": "https://steamcdn-a.akamaihd.net/steamcommunity/public/images/apps/733750/220e104d0ebfe1a1d5464ee9074c2250c6053943.jpg",
    "icongray": "https://steamcdn-a.akamaihd.net/steamcommunity/public/images/apps/733750/bb958b00beffeb28d7447570777b2021f554daeb.jpg"
  },
  {
    "name": "ACH_VETERAN",
    "defaultvalue": 0,
    "displayName": "VETERAN",
    "hidden": 0,
    "description": "Destroy 400 flying enemies, 200 enemy towers, 300 enemy launcher, 200 enemy mobile cannons, 200 enemy mobile launchers, 400 enemy warriors",
    "icon": "https://steamcdn-a.akamaihd.net/steamcommunity/public/images/apps/733750/b53eb075b410d3319f877b864a7ee4bb4efe4cb6.jpg",
    "icongray": "https://steamcdn-a.akamaihd.net/steamcommunity/public/images/apps/733750/39048546f8cc3f83674e7a38335558a60f8d4e15.jpg"
  },
  {
    "name": "ACH_CHAMPION",
    "defaultvalue": 0,
    "displayName": "CHAMPION",
    "hidden": 0,
    "description": "Destroy 800 flying enemies, 400 enemy towers, 600 enemy launcher, 400 enemy mobile cannons, 400 enemy mobile launchers, 800 enemy warriors",
    "icon": "https://steamcdn-a.akamaihd.net/steamcommunity/public/images/apps/733750/d8f68ac7f561741199d2b24c4aa1a5c5c32abdf8.jpg",
    "icongray": "https://steamcdn-a.akamaihd.net/steamcommunity/public/images/apps/733750/d4f86f0ff164bb8365273874bdf01929f726b92b.jpg"
  },
  {
    "name": "ACH_PERMISSIBLE_EAGLE",
    "defaultvalue": 0,
    "displayName": "PERMISSIBLE EAGLE",
    "hidden": 0,
    "description": "Finish the game",
    "icon": "https://steamcdn-a.akamaihd.net/steamcommunity/public/images/apps/733750/e7e9df8883ec31a23168440d68fddd23226204a6.jpg",
    "icongray": "https://steamcdn-a.akamaihd.net/steamcommunity/public/images/apps/733750/c8c2fae52ada1b9c51eb4a88698cc0f98fc8aea0.jpg"
  }
]