{
  "Dlcs": {},
  "Name": "The Cursed Revolver",
  "AppId": "620670",
  "ImageUrl": "https://steamcdn-a.akamaihd.net/steam/apps/620670/header.jpg?t=1493189292",
  "Languages": [
    "english"
  ],
  "Platforms": {
    "windows": true,
    "mac": false,
    "linux": false
  }
}