{
  "Dlcs": {},
  "Name": "Cubrick",
  "AppId": "620340",
  "ImageUrl": "https://steamcdn-a.akamaihd.net/steam/apps/620340/header.jpg?t=1547314855",
  "Languages": [
    "english"
  ],
  "Platforms": {
    "windows": true,
    "mac": true,
    "linux": false
  }
}