[
  {
    "name": "Ach_First_Play",
    "defaultvalue": 0,
    "displayName": "Hello World!",
    "hidden": 0,
    "description": "Play the game for the first time",
    "icon": "https://steamcdn-a.akamaihd.net/steamcommunity/public/images/apps/712870/765af79c15190aa485d7a564e7a400e70ca2a69c.jpg",
    "icongray": "https://steamcdn-a.akamaihd.net/steamcommunity/public/images/apps/712870/6e1d8455ef5fb429106891ae9833e228a5d0cb8a.jpg"
  },
  {
    "name": "Ach_Clear_Level_1",
    "defaultvalue": 0,
    "displayName": "Pentagun",
    "hidden": 0,
    "description": "Defeat level 1",
    "icon": "https://steamcdn-a.akamaihd.net/steamcommunity/public/images/apps/712870/0cee129699215cb1fc25aa19e8fc804404d639c6.jpg",
    "icongray": "https://steamcdn-a.akamaihd.net/steamcommunity/public/images/apps/712870/386578145d75e050d8f2cde04ffddba61686a61f.jpg"
  },
  {
    "name": "Ach_Clear_Level_2",
    "defaultvalue": 0,
    "displayName": "Bullet Bully",
    "hidden": 0,
    "description": "Defeat level 2",
    "icon": "https://steamcdn-a.akamaihd.net/steamcommunity/public/images/apps/712870/e0ea35e08228abbd380b606b88e148b8bc166cda.jpg",
    "icongray": "https://steamcdn-a.akamaihd.net/steamcommunity/public/images/apps/712870/d281db72c195c667aaf038de04fff6f23facabed.jpg"
  },
  {
    "name": "Ach_Clear_Level_3",
    "defaultvalue": 0,
    "displayName": "Bulle'thulhu",
    "hidden": 0,
    "description": "Defeat level 3",
    "icon": "https://steamcdn-a.akamaihd.net/steamcommunity/public/images/apps/712870/316c18f9bb7a5145689ba882df8873343c3a8880.jpg",
    "icongray": "https://steamcdn-a.akamaihd.net/steamcommunity/public/images/apps/712870/ff9a04af7a17b52e2aaa4cd69b554ec4dbbe21a6.jpg"
  },
  {
    "name": "Ach_Clear_Level_4",
    "defaultvalue": 0,
    "displayName": "Super Tank",
    "hidden": 0,
    "description": "Defeat level 4",
    "icon": "https://steamcdn-a.akamaihd.net/steamcommunity/public/images/apps/712870/63b462d4b70963224c5b849c98a14414af9a01cc.jpg",
    "icongray": "https://steamcdn-a.akamaihd.net/steamcommunity/public/images/apps/712870/a6f1e25c5097ab492e7a3a1838e39056ad716e32.jpg"
  },
  {
    "name": "Ach_Clear_Level_5",
    "defaultvalue": 0,
    "displayName": "Turrettula",
    "hidden": 0,
    "description": "Defeat level 5",
    "icon": "https://steamcdn-a.akamaihd.net/steamcommunity/public/images/apps/712870/0183418514b893d6b64e2f1455b21483ddb1a3a2.jpg",
    "icongray": "https://steamcdn-a.akamaihd.net/steamcommunity/public/images/apps/712870/3b32ed13b0d6ea7870daf99a0623e665505aed38.jpg"
  },
  {
    "name": "Ach_Clear_Level_6",
    "defaultvalue": 0,
    "displayName": "Co'r'ossatron",
    "hidden": 0,
    "description": "Defeat level 6",
    "icon": "https://steamcdn-a.akamaihd.net/steamcommunity/public/images/apps/712870/45cb24ea8ee7767478103cc3e8dd1ea55162ef54.jpg",
    "icongray": "https://steamcdn-a.akamaihd.net/steamcommunity/public/images/apps/712870/aa40d75624eed1aeed5f86d483065a047a396698.jpg"
  },
  {
    "name": "Ach_Clear_Level_7",
    "defaultvalue": 0,
    "displayName": "Audio Dodger",
    "hidden": 0,
    "description": "Defeat level 7",
    "icon": "https://steamcdn-a.akamaihd.net/steamcommunity/public/images/apps/712870/9c9de724f9ce4e0afce288d6e50492c8452c2c7e.jpg",
    "icongray": "https://steamcdn-a.akamaihd.net/steamcommunity/public/images/apps/712870/4f059e7fab0a3c587f40bc4e0d50c7b3ac35e598.jpg"
  },
  {
    "name": "Ach_Clear_Level_8",
    "defaultvalue": 0,
    "displayName": "Gun Bird",
    "hidden": 0,
    "description": "Defeat level 8",
    "icon": "https://steamcdn-a.akamaihd.net/steamcommunity/public/images/apps/712870/c04f7a772e93256ccadb7184ba99f729c10a3bb1.jpg",
    "icongray": "https://steamcdn-a.akamaihd.net/steamcommunity/public/images/apps/712870/93cda8d573c78b5ff5f199128bbebb843ae59114.jpg"
  },
  {
    "name": "Ach_Clear_Level_9",
    "defaultvalue": 0,
    "displayName": "Scope-ion",
    "hidden": 0,
    "description": "Defeat level 9",
    "icon": "https://steamcdn-a.akamaihd.net/steamcommunity/public/images/apps/712870/0938c14cf083937346954d09ab4a9860fbf8c048.jpg",
    "icongray": "https://steamcdn-a.akamaihd.net/steamcommunity/public/images/apps/712870/fc34d1ab2b055b6ee3ae4ea59772d107d6d74327.jpg"
  },
  {
    "name": "Ach_Clear_Level_10",
    "defaultvalue": 0,
    "displayName": "Rifflesia",
    "hidden": 0,
    "description": "Defeat level 10",
    "icon": "https://steamcdn-a.akamaihd.net/steamcommunity/public/images/apps/712870/1cbc0206d2121d87c5ab5c779df3042366b9016d.jpg",
    "icongray": "https://steamcdn-a.akamaihd.net/steamcommunity/public/images/apps/712870/f6cec1c9583ef0be24b4a541591cbd2901a881c8.jpg"
  },
  {
    "name": "Ach_Clear_Level_11",
    "defaultvalue": 0,
    "displayName": "Hots",
    "hidden": 0,
    "description": "Defeat level 11",
    "icon": "https://steamcdn-a.akamaihd.net/steamcommunity/public/images/apps/712870/5c77f3f60ea63a95376a855f57e751324e902f72.jpg",
    "icongray": "https://steamcdn-a.akamaihd.net/steamcommunity/public/images/apps/712870/67e6e60d5411a228917d94dea7bbdf65987dc7ba.jpg"
  },
  {
    "name": "Ach_Clear_Level_12",
    "defaultvalue": 0,
    "displayName": "Three Musketeers",
    "hidden": 0,
    "description": "Defeat level 12",
    "icon": "https://steamcdn-a.akamaihd.net/steamcommunity/public/images/apps/712870/e462b17d7d203b1406ffcc47e08bf3737129c130.jpg",
    "icongray": "https://steamcdn-a.akamaihd.net/steamcommunity/public/images/apps/712870/0f6c37a3470a2bf18a78a8c3bfd43ce7b8a5c62b.jpg"
  },
  {
    "name": "Ach_Clear_Level_13",
    "defaultvalue": 0,
    "displayName": "SPLIT BULLET",
    "hidden": 0,
    "description": "Defeat level 13",
    "icon": "https://steamcdn-a.akamaihd.net/steamcommunity/public/images/apps/712870/87318c4669fa41a4347d590d6383352158a0febc.jpg",
    "icongray": "https://steamcdn-a.akamaihd.net/steamcommunity/public/images/apps/712870/cd38715cb0047ab0dab8171d2dfe20740c1b86e3.jpg"
  },
  {
    "name": "Ach_Clear_Level_14",
    "defaultvalue": 0,
    "displayName": "Jellet Fish",
    "hidden": 0,
    "description": "Defeat level 14",
    "icon": "https://steamcdn-a.akamaihd.net/steamcommunity/public/images/apps/712870/10ddd46b65d0ba15338015cb202249df4adad58d.jpg",
    "icongray": "https://steamcdn-a.akamaihd.net/steamcommunity/public/images/apps/712870/ac0467292fd3f160bdc7b2e70f3d69e65323220d.jpg"
  },
  {
    "name": "Ach_Clear_Level_15",
    "defaultvalue": 0,
    "displayName": "Devastator",
    "hidden": 0,
    "description": "Defeat level 15",
    "icon": "https://steamcdn-a.akamaihd.net/steamcommunity/public/images/apps/712870/98b3ba0b95c4e2d98a9e6ad8f13ba10452e9c07d.jpg",
    "icongray": "https://steamcdn-a.akamaihd.net/steamcommunity/public/images/apps/712870/455d6c5f0ee3a5d75fbcdd069e9ea9e418210715.jpg"
  },
  {
    "name": "Ach_First_Death",
    "defaultvalue": 0,
    "displayName": "Welcome to Vectorium",
    "hidden": 0,
    "description": "Get killed for the first time",
    "icon": "https://steamcdn-a.akamaihd.net/steamcommunity/public/images/apps/712870/ba595db3e22cbd4eb07d5c81202ffa256ed4df27.jpg",
    "icongray": "https://steamcdn-a.akamaihd.net/steamcommunity/public/images/apps/712870/810e642f880d644569b4ac41ea39d4682566e636.jpg"
  },
  {
    "name": "Ach_Clear_By_Plane",
    "defaultvalue": 0,
    "displayName": "Victory: Plane",
    "hidden": 0,
    "description": "Defeat any level using 'Plane'.",
    "icon": "https://steamcdn-a.akamaihd.net/steamcommunity/public/images/apps/712870/49cabfec861e59eb34f6490c1fd06febcf699ea6.jpg",
    "icongray": "https://steamcdn-a.akamaihd.net/steamcommunity/public/images/apps/712870/bb246d78060aee2bc6ca7736c980e7bd3e614c05.jpg"
  },
  {
    "name": "Ach_Clear_By_Beammer",
    "defaultvalue": 0,
    "displayName": "Victory: Beammer",
    "hidden": 0,
    "description": "Defeat any level using 'Beammer'.",
    "icon": "https://steamcdn-a.akamaihd.net/steamcommunity/public/images/apps/712870/461e158ac55f98434085175529d4af76192a4f53.jpg",
    "icongray": "https://steamcdn-a.akamaihd.net/steamcommunity/public/images/apps/712870/d39cbc9d80aa514b43045722b62719c36ce4eb04.jpg"
  },
  {
    "name": "Ach_Clear_By_Lord",
    "defaultvalue": 0,
    "displayName": "Victory: Lord",
    "hidden": 0,
    "description": "Defeat any level using 'Lord'.",
    "icon": "https://steamcdn-a.akamaihd.net/steamcommunity/public/images/apps/712870/aa4ae039e05aa6a962697441451ed6c53b798ae0.jpg",
    "icongray": "https://steamcdn-a.akamaihd.net/steamcommunity/public/images/apps/712870/cb2e9a8b679a84a01aaff056557320b46dc9aae5.jpg"
  },
  {
    "name": "Ach_Clear_By_Shocker",
    "defaultvalue": 0,
    "displayName": "Victory: Shocker",
    "hidden": 0,
    "description": "Defeat any level using 'Shocker'.",
    "icon": "https://steamcdn-a.akamaihd.net/steamcommunity/public/images/apps/712870/9428b5fd3466cc24625bbf60386e3dfbc58837ba.jpg",
    "icongray": "https://steamcdn-a.akamaihd.net/steamcommunity/public/images/apps/712870/2fc65e8c7374097960924b1864892e0f41857818.jpg"
  },
  {
    "name": "Ach_Clear_By_Slayer",
    "defaultvalue": 0,
    "displayName": "Victory: Slayer",
    "hidden": 0,
    "description": "Defeat any level using 'Slayer'.",
    "icon": "https://steamcdn-a.akamaihd.net/steamcommunity/public/images/apps/712870/77d217846583155e70754f56005f011a3c6c5340.jpg",
    "icongray": "https://steamcdn-a.akamaihd.net/steamcommunity/public/images/apps/712870/2de69732dc16477ffcce10305b4a0751b5100f74.jpg"
  },
  {
    "name": "Ach_Clear_By_Waver",
    "defaultvalue": 0,
    "displayName": "Victory: Waver",
    "hidden": 1,
    "icon": "https://steamcdn-a.akamaihd.net/steamcommunity/public/images/apps/712870/71cf37b3f142a1a17874bcdfe7c2db0a068a1cfe.jpg",
    "icongray": "https://steamcdn-a.akamaihd.net/steamcommunity/public/images/apps/712870/ecd5d74ca9e737948163ec80468ea6a66debb00d.jpg"
  },
  {
    "name": "Ach_Clear_By_Slasher",
    "defaultvalue": 0,
    "displayName": "Victory: Slasher",
    "hidden": 1,
    "icon": "https://steamcdn-a.akamaihd.net/steamcommunity/public/images/apps/712870/7b90047ff0b59cbd79b43bab390c22369b2bebaf.jpg",
    "icongray": "https://steamcdn-a.akamaihd.net/steamcommunity/public/images/apps/712870/6c0ad994cb46b29450865b937611f35807421a65.jpg"
  },
  {
    "name": "Ach_Unlock_Beammer",
    "defaultvalue": 0,
    "displayName": "Activate: Beammer",
    "hidden": 0,
    "description": "Unlock the 'Beammer'.",
    "icon": "https://steamcdn-a.akamaihd.net/steamcommunity/public/images/apps/712870/4791cbf0ba3cafebf30c95c85235e60ade025c4e.jpg",
    "icongray": "https://steamcdn-a.akamaihd.net/steamcommunity/public/images/apps/712870/857120abc2b61aa5c9978147f53ec55e08403a48.jpg"
  },
  {
    "name": "Ach_Unlock_Lord",
    "defaultvalue": 0,
    "displayName": "Activate: Lord",
    "hidden": 0,
    "description": "Unlock the 'Lord'.",
    "icon": "https://steamcdn-a.akamaihd.net/steamcommunity/public/images/apps/712870/2c45ab3aec4b34e93823f0919e4d355d801a551f.jpg",
    "icongray": "https://steamcdn-a.akamaihd.net/steamcommunity/public/images/apps/712870/883a0561d5dcc37c9a177ca0d71ab3eb72696ab9.jpg"
  },
  {
    "name": "Ach_Unlock_Shocker",
    "defaultvalue": 0,
    "displayName": "Activate: Shocker",
    "hidden": 0,
    "description": "Unlock the 'Shocker'.",
    "icon": "https://steamcdn-a.akamaihd.net/steamcommunity/public/images/apps/712870/3d00f3897e4e369b4dd8963373c1369f3b91ba52.jpg",
    "icongray": "https://steamcdn-a.akamaihd.net/steamcommunity/public/images/apps/712870/455f732600a23645c2875abea4634c237f38334e.jpg"
  },
  {
    "name": "Ach_Unlock_Slayer",
    "defaultvalue": 0,
    "displayName": "Activate: Slayer",
    "hidden": 0,
    "description": "Unlock the 'Slayer'.",
    "icon": "https://steamcdn-a.akamaihd.net/steamcommunity/public/images/apps/712870/d4ffe810a1f362f6dee8428903b7cf8f64bf88eb.jpg",
    "icongray": "https://steamcdn-a.akamaihd.net/steamcommunity/public/images/apps/712870/03aca65c402f7a55e785c7c0e738badfb6af47cc.jpg"
  },
  {
    "name": "Ach_Play_Waver",
    "defaultvalue": 0,
    "displayName": "Operate: Waver",
    "hidden": 1,
    "icon": "https://steamcdn-a.akamaihd.net/steamcommunity/public/images/apps/712870/d00b5d2a163dae0fa88f9974898e8717cdcbfaac.jpg",
    "icongray": "https://steamcdn-a.akamaihd.net/steamcommunity/public/images/apps/712870/2cd85ed8c02d1752d57aec1b03d7c6dbbfcfaefa.jpg"
  },
  {
    "name": "Ach_Play_Slasher",
    "defaultvalue": 0,
    "displayName": "Operate: Slasher",
    "hidden": 1,
    "icon": "https://steamcdn-a.akamaihd.net/steamcommunity/public/images/apps/712870/a9adf722f4eca77a22793f715f787eae8c261832.jpg",
    "icongray": "https://steamcdn-a.akamaihd.net/steamcommunity/public/images/apps/712870/6c9f493d9339c1301535b85b4dbe3e0b85ad63dc.jpg"
  },
  {
    "name": "Ach_Fail_At90_50",
    "defaultvalue": 0,
    "displayName": "Close enough...",
    "hidden": 0,
    "description": "Get killed for 50 times, with the record of 90%",
    "icon": "https://steamcdn-a.akamaihd.net/steamcommunity/public/images/apps/712870/279962049f29523567b2f3ec790f59ca2f069329.jpg",
    "icongray": "https://steamcdn-a.akamaihd.net/steamcommunity/public/images/apps/712870/d283e507f240505e5dd954698c7d3e25551082e3.jpg"
  },
  {
    "name": "Ach_Fail_100",
    "defaultvalue": 0,
    "displayName": "Keep Calm and Carry On",
    "hidden": 0,
    "description": "Get killed for 100 times",
    "icon": "https://steamcdn-a.akamaihd.net/steamcommunity/public/images/apps/712870/c6c61be2afc28e31ffd8708cb1889372c078a415.jpg",
    "icongray": "https://steamcdn-a.akamaihd.net/steamcommunity/public/images/apps/712870/8c5ec95fe87bb317eba8f6c05ae6c900368e3b09.jpg"
  },
  {
    "name": "Ach_Kill_Unit_5000",
    "defaultvalue": 0,
    "displayName": "5k Kills",
    "hidden": 0,
    "description": "Score 5,000 kills in total.",
    "icon": "https://steamcdn-a.akamaihd.net/steamcommunity/public/images/apps/712870/59db67b3c819a70d09b1a557666d7cb94cc9ea18.jpg",
    "icongray": "https://steamcdn-a.akamaihd.net/steamcommunity/public/images/apps/712870/8e959af226ef384ed42aa2b1688e0bcc66ff8ffb.jpg"
  },
  {
    "name": "Ach_Kill_Unit_10000",
    "defaultvalue": 0,
    "displayName": "10k Kills",
    "hidden": 0,
    "description": "Score 10,000 kills in total.",
    "icon": "https://steamcdn-a.akamaihd.net/steamcommunity/public/images/apps/712870/c88640f98fa912b15a93a7cd225ab42732ed9bb4.jpg",
    "icongray": "https://steamcdn-a.akamaihd.net/steamcommunity/public/images/apps/712870/bd55d767c79ed8101bc072ab3c935a14206f6dfa.jpg"
  },
  {
    "name": "Ach_Kill_Plane_500",
    "defaultvalue": 0,
    "displayName": "Top Gun",
    "hidden": 0,
    "description": "Score 500 kills with 'Plane'.",
    "icon": "https://steamcdn-a.akamaihd.net/steamcommunity/public/images/apps/712870/efd8cd6c626f07f1a56841acdc51d25877e36b13.jpg",
    "icongray": "https://steamcdn-a.akamaihd.net/steamcommunity/public/images/apps/712870/3cbaa38809080bf12efa83bc4801acc2e8e06e70.jpg"
  },
  {
    "name": "Ach_Kill_Beammer_500",
    "defaultvalue": 0,
    "displayName": "Superlaser",
    "hidden": 0,
    "description": "Score 500 kills with 'Beammer'.",
    "icon": "https://steamcdn-a.akamaihd.net/steamcommunity/public/images/apps/712870/1d8d22f3bd29f48518b594d0555171ee2cbc2cc8.jpg",
    "icongray": "https://steamcdn-a.akamaihd.net/steamcommunity/public/images/apps/712870/15ce4b0bf41de8ae0ea8012f4287855e66d1d956.jpg"
  },
  {
    "name": "Ach_Kill_Lord_500",
    "defaultvalue": 0,
    "displayName": "Overlord",
    "hidden": 0,
    "description": "Score 500 kills with 'Lord'.",
    "icon": "https://steamcdn-a.akamaihd.net/steamcommunity/public/images/apps/712870/ee8f67f2908a03fb8187681a9c50c4b56e1d627f.jpg",
    "icongray": "https://steamcdn-a.akamaihd.net/steamcommunity/public/images/apps/712870/44078f012882f330cbfaceffae82c5aab27ce4e6.jpg"
  },
  {
    "name": "Ach_Kill_Shocker_500",
    "defaultvalue": 0,
    "displayName": "Shocker Breaker",
    "hidden": 0,
    "description": "Score 500 kills with 'Shocker'.",
    "icon": "https://steamcdn-a.akamaihd.net/steamcommunity/public/images/apps/712870/3177c3bd0aaac8a101cefafc260cebb95433c72a.jpg",
    "icongray": "https://steamcdn-a.akamaihd.net/steamcommunity/public/images/apps/712870/9e6baa2888c4f72aa02b082296fb74eecbac1035.jpg"
  },
  {
    "name": "Ach_Kill_Slayer_500",
    "defaultvalue": 0,
    "displayName": "Shinobi",
    "hidden": 0,
    "description": "Score 500 kills with 'Slayer'.",
    "icon": "https://steamcdn-a.akamaihd.net/steamcommunity/public/images/apps/712870/348dda00d9d6c93791082c593f82b71721e3c44c.jpg",
    "icongray": "https://steamcdn-a.akamaihd.net/steamcommunity/public/images/apps/712870/71c4bcbb7fc0322e946de7a98b3b5a993f2bfe84.jpg"
  },
  {
    "name": "Ach_Kill_Waver_500",
    "defaultvalue": 0,
    "displayName": "Supersonic",
    "hidden": 1,
    "icon": "https://steamcdn-a.akamaihd.net/steamcommunity/public/images/apps/712870/b9a0c9a06011ac81f53bb256391cdd2c6b1ed979.jpg",
    "icongray": "https://steamcdn-a.akamaihd.net/steamcommunity/public/images/apps/712870/55ba1debed14febe23e7c4093d32a15449316802.jpg"
  },
  {
    "name": "Ach_Kill_Slasher_500",
    "defaultvalue": 0,
    "displayName": "Mayhem",
    "hidden": 1,
    "icon": "https://steamcdn-a.akamaihd.net/steamcommunity/public/images/apps/712870/3ecae404755963eef94db2736bc0249371bf66f9.jpg",
    "icongray": "https://steamcdn-a.akamaihd.net/steamcommunity/public/images/apps/712870/598c7c0473dfc1bf1a6751253bb79ff9de47b01b.jpg"
  }
]