{
  "Dlcs": {},
  "Name": "BallsBlasterVR",
  "AppId": "1222420",
  "ImageUrl": "https://steamcdn-a.akamaihd.net/steam/apps/1222420/header.jpg?t=1579954070",
  "Languages": [
    "english"
  ],
  "Platforms": {
    "windows": true,
    "mac": false,
    "linux": false
  }
}