﻿{
  "Dlcs": {},
  "Name": "Wasteland 2: Director's Cut",
  "AppId": "240760",
  "ImageUrl": "https://steamcdn-a.akamaihd.net/steam/apps/240760/header.jpg?t=1582926880",
  "Languages": [
    "english",
    "french",
    "german",
    "spanish",
    "polish",
    "russian",
    "italian",
    "turkish"
  ],
  "Platforms": {
    "windows": true,
    "mac": true,
    "linux": true
  }
}