{
  "Dlcs": {},
  "Name": "Sudoku3D 2: The Cube",
  "AppId": "1031560",
  "ImageUrl": "https://steamcdn-a.akamaihd.net/steam/apps/1031560/header.jpg?t=1597924181",
  "Languages": [
    "english",
    "russian"
  ],
  "Platforms": {
    "windows": true,
    "mac": false,
    "linux": false
  }
}