[
  {
    "name": "NEW_ACHIEVEMENT_1_0",
    "defaultvalue": 0,
    "displayName": "Dropout",
    "hidden": 0,
    "description": "Dropped out of college.",
    "icon": "https://steamcdn-a.akamaihd.net/steamcommunity/public/images/apps/288220/d71e1cee77fbc552cb02eab240b33fb177b1f4c5.jpg",
    "icongray": "https://steamcdn-a.akamaihd.net/steamcommunity/public/images/apps/288220/cac6d820d65d2c6d2464631022530fc598d5d29e.jpg"
  },
  {
    "name": "NEW_ACHIEVEMENT_1_1",
    "defaultvalue": 0,
    "displayName": "All by Myself",
    "hidden": 0,
    "description": "Got the alone ending at least five times.",
    "icon": "https://steamcdn-a.akamaihd.net/steamcommunity/public/images/apps/288220/f9eb699844d44892ac6384c0938208f61516c092.jpg",
    "icongray": "https://steamcdn-a.akamaihd.net/steamcommunity/public/images/apps/288220/620969803d785b2c0751dc56461f2c8f24dc0a12.jpg"
  },
  {
    "name": "NEW_ACHIEVEMENT_1_2",
    "defaultvalue": 0,
    "displayName": "Fashion Forward",
    "hidden": 0,
    "description": "Bought every article of clothing.",
    "icon": "https://steamcdn-a.akamaihd.net/steamcommunity/public/images/apps/288220/b4d24616ca4adaf3091bb128c75307988c5ba405.jpg",
    "icongray": "https://steamcdn-a.akamaihd.net/steamcommunity/public/images/apps/288220/3639bb0c3929bf16de6c1df78d8300baa37ed5de.jpg"
  },
  {
    "name": "NEW_ACHIEVEMENT_1_3",
    "defaultvalue": 0,
    "displayName": "Baking Champion",
    "hidden": 0,
    "description": "Filled Sian's cookbook with every cupcake recipe.",
    "icon": "https://steamcdn-a.akamaihd.net/steamcommunity/public/images/apps/288220/838929e66e002d1b3ddffc2749f35c6f35325fad.jpg",
    "icongray": "https://steamcdn-a.akamaihd.net/steamcommunity/public/images/apps/288220/05f07aa8272d3cee9e8d916094070bce08680cc0.jpg"
  },
  {
    "name": "NEW_ACHIEVEMENT_1_4",
    "defaultvalue": 0,
    "displayName": "Shopaholic",
    "hidden": 0,
    "description": "Bought every item.",
    "icon": "https://steamcdn-a.akamaihd.net/steamcommunity/public/images/apps/288220/7a4e564aaeeb4091cb5c0946f21d986c1cdc1285.jpg",
    "icongray": "https://steamcdn-a.akamaihd.net/steamcommunity/public/images/apps/288220/98e33a152ed79e5845f259a1b5988d87b6c781b7.jpg"
  },
  {
    "name": "NEW_ACHIEVEMENT_1_5",
    "defaultvalue": 0,
    "displayName": "Model Student",
    "hidden": 0,
    "description": "Ended the year with a 4.0 GPA.",
    "icon": "https://steamcdn-a.akamaihd.net/steamcommunity/public/images/apps/288220/8d022c08d2f66f46eea0a9b74a03165504dddde4.jpg",
    "icongray": "https://steamcdn-a.akamaihd.net/steamcommunity/public/images/apps/288220/e577077a1e96f48a1f2237846fee688094188101.jpg"
  },
  {
    "name": "NEW_ACHIEVEMENT_1_6",
    "defaultvalue": 0,
    "displayName": "All about the Money",
    "hidden": 0,
    "description": "Ended the year with tons of money.",
    "icon": "https://steamcdn-a.akamaihd.net/steamcommunity/public/images/apps/288220/dc08a1e58bc6175441584ff49d1a7d4834443e4f.jpg",
    "icongray": "https://steamcdn-a.akamaihd.net/steamcommunity/public/images/apps/288220/0d3751f6e25bbcb3233db6da464015382fdcc365.jpg"
  },
  {
    "name": "NEW_ACHIEVEMENT_1_7",
    "defaultvalue": 0,
    "displayName": "Palm Tree",
    "hidden": 0,
    "description": "Got the best end in Adam's friendship and romance routes.",
    "icon": "https://steamcdn-a.akamaihd.net/steamcommunity/public/images/apps/288220/8956ccf7e6d4625e3088343826e6792bb5718c34.jpg",
    "icongray": "https://steamcdn-a.akamaihd.net/steamcommunity/public/images/apps/288220/6739f23c83f493045d98db7ef1224ff75c12b2fa.jpg"
  },
  {
    "name": "NEW_ACHIEVEMENT_1_8",
    "defaultvalue": 0,
    "displayName": "Magic Boy",
    "hidden": 0,
    "description": "Got the best end in Benito's friendship and romance routes.",
    "icon": "https://steamcdn-a.akamaihd.net/steamcommunity/public/images/apps/288220/6327f4a186ed943e230e57d65d459cad1659199a.jpg",
    "icongray": "https://steamcdn-a.akamaihd.net/steamcommunity/public/images/apps/288220/b114903c3df2f155038a7fb8de8887479fc50bd6.jpg"
  },
  {
    "name": "NEW_ACHIEVEMENT_1_9",
    "defaultvalue": 0,
    "displayName": "Knight of Ages",
    "hidden": 0,
    "description": "Got the best end in John's friendship and romance routes.",
    "icon": "https://steamcdn-a.akamaihd.net/steamcommunity/public/images/apps/288220/f3bd4f39b69908ecae885f136ce2d71704367a55.jpg",
    "icongray": "https://steamcdn-a.akamaihd.net/steamcommunity/public/images/apps/288220/3aff3c83dd8797bea09eb72638eaca08f9c86881.jpg"
  },
  {
    "name": "NEW_ACHIEVEMENT_1_10",
    "defaultvalue": 0,
    "displayName": "Golden Prince",
    "hidden": 0,
    "description": "Got the best end in Matthew's friendship and romance routes.",
    "icon": "https://steamcdn-a.akamaihd.net/steamcommunity/public/images/apps/288220/fc7612e26c1bba9bec81cf7dcd04d6a9c4b895b1.jpg",
    "icongray": "https://steamcdn-a.akamaihd.net/steamcommunity/public/images/apps/288220/d924ecf773af61ceef83a30589774b31175aa9f3.jpg"
  },
  {
    "name": "NEW_ACHIEVEMENT_1_11",
    "defaultvalue": 0,
    "displayName": "Tutor",
    "hidden": 1,
    "icon": "https://steamcdn-a.akamaihd.net/steamcommunity/public/images/apps/288220/2a87ae5a92ddee1702a94bda128d33d748ef9477.jpg",
    "icongray": "https://steamcdn-a.akamaihd.net/steamcommunity/public/images/apps/288220/389b3678ad08420a7d0bf202003948e8f3a4e952.jpg"
  },
  {
    "name": "NEW_ACHIEVEMENT_1_12",
    "defaultvalue": 0,
    "displayName": "Golden Princess",
    "hidden": 1,
    "icon": "https://steamcdn-a.akamaihd.net/steamcommunity/public/images/apps/288220/145f8603b85a520c21c547199d42bb9ef53b5803.jpg",
    "icongray": "https://steamcdn-a.akamaihd.net/steamcommunity/public/images/apps/288220/57a876db8aaa57ebcfacd064ade320006eb54c5a.jpg"
  },
  {
    "name": "NEW_ACHIEVEMENT_1_13",
    "defaultvalue": 0,
    "displayName": "Director",
    "hidden": 1,
    "icon": "https://steamcdn-a.akamaihd.net/steamcommunity/public/images/apps/288220/421d6b1c76da12350ca53dfe82d0e7460bc110f1.jpg",
    "icongray": "https://steamcdn-a.akamaihd.net/steamcommunity/public/images/apps/288220/94f4f7d5c3d1b8b4229fb23058d54c1ee4a1fbdc.jpg"
  },
  {
    "name": "NEW_ACHIEVEMENT_1_14",
    "defaultvalue": 0,
    "displayName": "Life of a Pro",
    "hidden": 0,
    "description": "Became a famous makeup artist.",
    "icon": "https://steamcdn-a.akamaihd.net/steamcommunity/public/images/apps/288220/cf00f20f2564d25e26468d92f71f0c8fa9f9cd4b.jpg",
    "icongray": "https://steamcdn-a.akamaihd.net/steamcommunity/public/images/apps/288220/7759298994508e8abf76bc3e186eea8af08cd05b.jpg"
  },
  {
    "name": "NEW_ACHIEVEMENT_1_15",
    "defaultvalue": 0,
    "displayName": "Famous on the Internet",
    "hidden": 0,
    "description": "Became an online celebrity.",
    "icon": "https://steamcdn-a.akamaihd.net/steamcommunity/public/images/apps/288220/820b10504f29f697daae6847248eb44d823f69a0.jpg",
    "icongray": "https://steamcdn-a.akamaihd.net/steamcommunity/public/images/apps/288220/8d98b0029e26ace7a57e34d9021467bccba8c6ee.jpg"
  },
  {
    "name": "NEW_ACHIEVEMENT_1_16",
    "defaultvalue": 0,
    "displayName": "Moving Up",
    "hidden": 0,
    "description": "Became a producer.",
    "icon": "https://steamcdn-a.akamaihd.net/steamcommunity/public/images/apps/288220/6a7334461382a5dca9b768a4d6e86131fbcaf486.jpg",
    "icongray": "https://steamcdn-a.akamaihd.net/steamcommunity/public/images/apps/288220/72b13f53b1904016a0632d3c9f7e770700c0fdfe.jpg"
  },
  {
    "name": "NEW_ACHIEVEMENT_1_17",
    "defaultvalue": 0,
    "displayName": "Good at Everything",
    "hidden": 0,
    "description": "Maxed out all stats.",
    "icon": "https://steamcdn-a.akamaihd.net/steamcommunity/public/images/apps/288220/676e6860cc50c5dfa22d4c85d6c77b13acb24f7a.jpg",
    "icongray": "https://steamcdn-a.akamaihd.net/steamcommunity/public/images/apps/288220/eea13831f387efbb270db00dc85d7f836ae1a9a5.jpg"
  },
  {
    "name": "NEW_ACHIEVEMENT_1_18",
    "defaultvalue": 0,
    "displayName": "Uneventful Year",
    "hidden": 0,
    "description": "Ended the year in the same place you began.",
    "icon": "https://steamcdn-a.akamaihd.net/steamcommunity/public/images/apps/288220/e4a64a4f6397996f7ce9597f34a523c2f7c07b81.jpg",
    "icongray": "https://steamcdn-a.akamaihd.net/steamcommunity/public/images/apps/288220/aa1b32d3de966c1414be0beb6f5333d5ee3bef9d.jpg"
  },
  {
    "name": "NEW_ACHIEVEMENT_1_19",
    "defaultvalue": 0,
    "displayName": "Seen it All",
    "hidden": 0,
    "description": "Unlocked every ending.",
    "icon": "https://steamcdn-a.akamaihd.net/steamcommunity/public/images/apps/288220/18a720425e1b4be7690946e9f56849ee6f83f24a.jpg",
    "icongray": "https://steamcdn-a.akamaihd.net/steamcommunity/public/images/apps/288220/5c1d7044316cfdb345970818cb6c4e5306b562d5.jpg"
  }
]