[
  {
    "name": "ach_dotp_kubi_rule",
    "defaultvalue": 0,
    "displayName": "Kubi Rule",
    "hidden": 1,
    "icon": "https://steamcdn-a.akamaihd.net/steamcommunity/public/images/apps/245050/",
    "icongray": "https://steamcdn-a.akamaihd.net/steamcommunity/public/images/apps/245050/"
  },
  {
    "name": "ach_dotp_urban_law",
    "defaultvalue": 0,
    "displayName": "Urban Law",
    "hidden": 1,
    "icon": "https://steamcdn-a.akamaihd.net/steamcommunity/public/images/apps/245050/2aa58e391f2b3d242e20e48b48b41f244b101562.jpg",
    "icongray": "https://steamcdn-a.akamaihd.net/steamcommunity/public/images/apps/245050/d8f788e206bc7da1f3ecfec3df15a243c5ef9295.jpg"
  },
  {
    "name": "ach_dotp_p701_completed",
    "defaultvalue": 0,
    "displayName": "First steps",
    "hidden": 0,
    "description": "Complete Westguard",
    "icon": "https://steamcdn-a.akamaihd.net/steamcommunity/public/images/apps/245050/8a9eabb2a8d2394ec5cbfeac37f50eb4a0fa02a3.jpg",
    "icongray": "https://steamcdn-a.akamaihd.net/steamcommunity/public/images/apps/245050/181c2da682c6243e6899318bb4636146c5c73d91.jpg"
  },
  {
    "name": "ach_dotp_p702_completed",
    "defaultvalue": 0,
    "displayName": "Stepping up",
    "hidden": 0,
    "description": "Complete Stepping Stones",
    "icon": "https://steamcdn-a.akamaihd.net/steamcommunity/public/images/apps/245050/86c0899720070d3300189f7bc9fddb36d53d3066.jpg",
    "icongray": "https://steamcdn-a.akamaihd.net/steamcommunity/public/images/apps/245050/52edac30cb2d9708261df4621dd0a90b5887d09c.jpg"
  },
  {
    "name": "ach_dotp_p703_completed",
    "defaultvalue": 0,
    "displayName": "Walking among us",
    "hidden": 0,
    "description": "Complete Realm of the Gods",
    "icon": "https://steamcdn-a.akamaihd.net/steamcommunity/public/images/apps/245050/73516d803dd9283118fb6fd60a55bde2be4d24d2.jpg",
    "icongray": "https://steamcdn-a.akamaihd.net/steamcommunity/public/images/apps/245050/a6e0f207fe223cf8450071c171c15b928d9c87eb.jpg"
  },
  {
    "name": "ach_dotp_p704_completed",
    "defaultvalue": 0,
    "displayName": "Tour to the past",
    "hidden": 0,
    "description": "Complete The Citadel",
    "icon": "https://steamcdn-a.akamaihd.net/steamcommunity/public/images/apps/245050/775fcb4cebad4c80121136ab61e0b5099c151f58.jpg",
    "icongray": "https://steamcdn-a.akamaihd.net/steamcommunity/public/images/apps/245050/522678bf7a86e70dc1aa658bc7e9cb6453203968.jpg"
  },
  {
    "name": "ach_dotp_p706_completed",
    "defaultvalue": 0,
    "displayName": "Fly",
    "hidden": 0,
    "description": "Complete Depths of Kul’rath",
    "icon": "https://steamcdn-a.akamaihd.net/steamcommunity/public/images/apps/245050/de32341b124cae60a1796ea5cf7a9cfacfcdc880.jpg",
    "icongray": "https://steamcdn-a.akamaihd.net/steamcommunity/public/images/apps/245050/0f80e655eb77bb210317bd2867c2723914c28cd1.jpg"
  },
  {
    "name": "ach_dotp_p707_completed",
    "defaultvalue": 0,
    "displayName": "Footsteps in dust",
    "hidden": 0,
    "description": "Complete Remains of Steelcoast",
    "icon": "https://steamcdn-a.akamaihd.net/steamcommunity/public/images/apps/245050/bf7eea985f83ca9cf322af405b196bd2cf7ed515.jpg",
    "icongray": "https://steamcdn-a.akamaihd.net/steamcommunity/public/images/apps/245050/3d9e88d256e924cbe5e2c0550ffe3b8f761b0b09.jpg"
  },
  {
    "name": "ach_dotp_p708_completed",
    "defaultvalue": 0,
    "displayName": "Walking in the shadow",
    "hidden": 0,
    "description": "Complete Shadow Realm",
    "icon": "https://steamcdn-a.akamaihd.net/steamcommunity/public/images/apps/245050/fb591065069d775f93af47990ffa9b9c8fe934f1.jpg",
    "icongray": "https://steamcdn-a.akamaihd.net/steamcommunity/public/images/apps/245050/bffcc1ed60dacf5725f2113372499cfd10961ef8.jpg"
  },
  {
    "name": "ach_dotp_p709_completed",
    "defaultvalue": 0,
    "displayName": "Frozen steps",
    "hidden": 0,
    "description": "Complete Icewastes of Shalibar",
    "icon": "https://steamcdn-a.akamaihd.net/steamcommunity/public/images/apps/245050/14be30d6b28ce8cedacf81a5c14d95a1694c4c69.jpg",
    "icongray": "https://steamcdn-a.akamaihd.net/steamcommunity/public/images/apps/245050/c25fe08de3fe1e5592b44f9856ffd1340be2a3aa.jpg"
  },
  {
    "name": "ach_dotp_p710_completed",
    "defaultvalue": 0,
    "displayName": "The last march",
    "hidden": 0,
    "description": "Complete Forest of Argan",
    "icon": "https://steamcdn-a.akamaihd.net/steamcommunity/public/images/apps/245050/712eb0e1d3887ca2bba1f645be96ce889dfa851e.jpg",
    "icongray": "https://steamcdn-a.akamaihd.net/steamcommunity/public/images/apps/245050/326db03201f16aec283a4d526d9098e1f6ecd258.jpg"
  },
  {
    "name": "ach_dotp_completed",
    "defaultvalue": 0,
    "displayName": "Knowledge is power",
    "hidden": 0,
    "description": "Complete Demons of the Past on Easy or Normal level",
    "icon": "https://steamcdn-a.akamaihd.net/steamcommunity/public/images/apps/245050/211874b162c9652e1c71ea2603a7fe3bd921da3f.jpg",
    "icongray": "https://steamcdn-a.akamaihd.net/steamcommunity/public/images/apps/245050/1084d17e2f52617753c31b1ef580facbcba442a1.jpg"
  },
  {
    "name": "ach_dotp_completed_difficult",
    "defaultvalue": 0,
    "displayName": "Power leads knowledge",
    "hidden": 0,
    "description": "Complete Demons of the Past on Difficult level",
    "icon": "https://steamcdn-a.akamaihd.net/steamcommunity/public/images/apps/245050/d55ad6b363f12186576aaeef49baa637ca2d1cfa.jpg",
    "icongray": "https://steamcdn-a.akamaihd.net/steamcommunity/public/images/apps/245050/6d3a90a8486c7a7d4a0755bedb86069fd00274d8.jpg"
  },
  {
    "name": "ach_dotp_completed_verydifficult",
    "defaultvalue": 0,
    "displayName": "Master Investigator",
    "hidden": 0,
    "description": "Complete Demons of the Past on Very Difficult level",
    "icon": "https://steamcdn-a.akamaihd.net/steamcommunity/public/images/apps/245050/04ddc6d4f00d3e76e095cade4774db1d2f428859.jpg",
    "icongray": "https://steamcdn-a.akamaihd.net/steamcommunity/public/images/apps/245050/1c5b126b122ad67ca6c1778b5f7110c41b7a352e.jpg"
  },
  {
    "name": "ach_dotp_armory_of_eo",
    "defaultvalue": 0,
    "displayName": "Relics of the Gods",
    "hidden": 0,
    "description": "Collect Armory of the Eo",
    "icon": "https://steamcdn-a.akamaihd.net/steamcommunity/public/images/apps/245050/649314519b7fb78cb9319a4a80695b07efcf5c88.jpg",
    "icongray": "https://steamcdn-a.akamaihd.net/steamcommunity/public/images/apps/245050/e0b389305f941f28470b7d3c374088171021617a.jpg"
  },
  {
    "name": "ach_dotp_fireball",
    "defaultvalue": 0,
    "displayName": "Fire walk with me",
    "hidden": 0,
    "description": "Cast 40 Fireballs with the avatar",
    "icon": "https://steamcdn-a.akamaihd.net/steamcommunity/public/images/apps/245050/550ea3402c6708dd7cea7084dcf94b6ba893ca19.jpg",
    "icongray": "https://steamcdn-a.akamaihd.net/steamcommunity/public/images/apps/245050/86545bf1125c115f14c61d1ef5e0516cd9fb15ec.jpg"
  },
  {
    "name": "ach_dotp_charm",
    "defaultvalue": 0,
    "displayName": "Handsome",
    "hidden": 0,
    "description": "Charm 50 enemies with the avatar",
    "icon": "https://steamcdn-a.akamaihd.net/steamcommunity/public/images/apps/245050/77d6fd3f82c39b38c387c97df87a93f4f4fa4c11.jpg",
    "icongray": "https://steamcdn-a.akamaihd.net/steamcommunity/public/images/apps/245050/0f2887fff8df14a74590d9c520ea12eca3c6c053.jpg"
  },
  {
    "name": "ach_dotp_conjure",
    "defaultvalue": 0,
    "displayName": "Fight fire with fire",
    "hidden": 0,
    "description": "Conjure 66 demons with the avatar",
    "icon": "https://steamcdn-a.akamaihd.net/steamcommunity/public/images/apps/245050/d37f6d6553b527a0fe901b12cb8813d3b0e756ea.jpg",
    "icongray": "https://steamcdn-a.akamaihd.net/steamcommunity/public/images/apps/245050/4bfd912e09179d16bdd397b4f06d3672556c958d.jpg"
  },
  {
    "name": "ach_dotp_invulnerable",
    "defaultvalue": 0,
    "displayName": "Can't touch this",
    "hidden": 0,
    "description": "Get invulnerable 75 times with the avatar",
    "icon": "https://steamcdn-a.akamaihd.net/steamcommunity/public/images/apps/245050/160dbaeed37ec72b55312a74085f7579989fe67f.jpg",
    "icongray": "https://steamcdn-a.akamaihd.net/steamcommunity/public/images/apps/245050/4126215e659f9459f3f4dc2089833127a89e8dc5.jpg"
  },
  {
    "name": "ach_dotp_gold",
    "defaultvalue": 0,
    "displayName": "Bill Gates",
    "hidden": 0,
    "description": "Get 20.000 gold from rewards",
    "icon": "https://steamcdn-a.akamaihd.net/steamcommunity/public/images/apps/245050/5978ba4c32568c7b104c130e245580df348f7999.jpg",
    "icongray": "https://steamcdn-a.akamaihd.net/steamcommunity/public/images/apps/245050/e43e56d8ba51156aab2aaa7bb22ecfc85688807d.jpg"
  },
  {
    "name": "ach_dotp_gold_dd",
    "defaultvalue": 0,
    "displayName": "Donald Duck",
    "hidden": 0,
    "description": "Get 50.000 gold from rewards",
    "icon": "https://steamcdn-a.akamaihd.net/steamcommunity/public/images/apps/245050/bd4d6ba673b083468ed11b0570922bb85c2e3c00.jpg",
    "icongray": "https://steamcdn-a.akamaihd.net/steamcommunity/public/images/apps/245050/717129359ccfcd9dde23c595d4aa5a7488df620a.jpg"
  },
  {
    "name": "ach_dotp_battlecry",
    "defaultvalue": 0,
    "displayName": "Cry baby",
    "hidden": 0,
    "description": "Cast Battle Cry 50 times with the avatar",
    "icon": "https://steamcdn-a.akamaihd.net/steamcommunity/public/images/apps/245050/6a6beeee3bc3c1dbfd8c45e763394527bb228763.jpg",
    "icongray": "https://steamcdn-a.akamaihd.net/steamcommunity/public/images/apps/245050/a6b39433e458098ee4ad1285c91af1d138b32023.jpg"
  },
  {
    "name": "ach_dotp_slash",
    "defaultvalue": 0,
    "displayName": "If it bleeds, we can kill him",
    "hidden": 0,
    "description": "Hit enemies with Slash 50 times",
    "icon": "https://steamcdn-a.akamaihd.net/steamcommunity/public/images/apps/245050/043c82558fcdb76c6696108a751edc366222932a.jpg",
    "icongray": "https://steamcdn-a.akamaihd.net/steamcommunity/public/images/apps/245050/3bdd13d3ac443f7b04bd71ab7cb7f920d6291f50.jpg"
  },
  {
    "name": "ach_dotp_salvo",
    "defaultvalue": 0,
    "displayName": "Seven sins",
    "hidden": 0,
    "description": "Cast Salvo (Master) 40 times",
    "icon": "https://steamcdn-a.akamaihd.net/steamcommunity/public/images/apps/245050/5ee0b07e1f1b8a3c61ac5a1929cc8b11ab6dc5ca.jpg",
    "icongray": "https://steamcdn-a.akamaihd.net/steamcommunity/public/images/apps/245050/d5f379d50eaa6d3713352324044e64fe274b1586.jpg"
  },
  {
    "name": "ach_dotp_shaikan",
    "defaultvalue": 0,
    "displayName": "True Dragon",
    "hidden": 0,
    "description": "Cast 200 shaikan spells",
    "icon": "https://steamcdn-a.akamaihd.net/steamcommunity/public/images/apps/245050/655cadb424f08656aec3a66b6a49f8c573ae85a5.jpg",
    "icongray": "https://steamcdn-a.akamaihd.net/steamcommunity/public/images/apps/245050/f683be1dcf2363d50f82bd55e4035aa0a1badf2a.jpg"
  },
  {
    "name": "ach_dotp_lvl10",
    "defaultvalue": 0,
    "displayName": "Minor Hero",
    "hidden": 0,
    "description": "Reach level 10 with the Avatar",
    "icon": "https://steamcdn-a.akamaihd.net/steamcommunity/public/images/apps/245050/1ae39cbdd2179f03809b7637d99b245e29362c7d.jpg",
    "icongray": "https://steamcdn-a.akamaihd.net/steamcommunity/public/images/apps/245050/2f82e9eb7c4e9932cbda10cacd4c26abd20cfba9.jpg"
  },
  {
    "name": "ach_dotp_lvl20",
    "defaultvalue": 0,
    "displayName": "Major Hero",
    "hidden": 0,
    "description": "Reach level 20 with the Avatar",
    "icon": "https://steamcdn-a.akamaihd.net/steamcommunity/public/images/apps/245050/b735fe810af2ec6a68f6de1f59e1bab02f152454.jpg",
    "icongray": "https://steamcdn-a.akamaihd.net/steamcommunity/public/images/apps/245050/d69e2060cb7b33a807946ffa9823a95d01653743.jpg"
  },
  {
    "name": "ach_dotp_lvl30",
    "defaultvalue": 0,
    "displayName": "Epic Hero",
    "hidden": 0,
    "description": "Reach level 30 with the Avatar",
    "icon": "https://steamcdn-a.akamaihd.net/steamcommunity/public/images/apps/245050/928edbd00855e07fc55d1ec84ee2aa659790b40b.jpg",
    "icongray": "https://steamcdn-a.akamaihd.net/steamcommunity/public/images/apps/245050/29cdd127436a8cb43e181bd6d43ade56e357280f.jpg"
  },
  {
    "name": "ach_dotp_twiddle",
    "defaultvalue": 0,
    "displayName": "Back to the Future IV",
    "hidden": 0,
    "description": "Complete the Twiddle quest chain",
    "icon": "https://steamcdn-a.akamaihd.net/steamcommunity/public/images/apps/245050/569a081405fe0fe97c7aa1b232d0d40dca9f2460.jpg",
    "icongray": "https://steamcdn-a.akamaihd.net/steamcommunity/public/images/apps/245050/0c3854c4284f7de673d16b03d65ba0812722cd93.jpg"
  },
  {
    "name": "ach_dotp_nospawn",
    "defaultvalue": 0,
    "displayName": "You won't come back",
    "hidden": 0,
    "description": "Kill the Lich without him spawning back once on Difficult or Very Difficult level",
    "icon": "https://steamcdn-a.akamaihd.net/steamcommunity/public/images/apps/245050/bd85c2610f58082259d2feae83ddffb0e100cf17.jpg",
    "icongray": "https://steamcdn-a.akamaihd.net/steamcommunity/public/images/apps/245050/45a4d727ef3649af5efe30c23b30797c392e8929.jpg"
  },
  {
    "name": "ach_dotp_savior",
    "defaultvalue": 0,
    "displayName": "Save all",
    "hidden": 0,
    "description": "Save all the villagers and farmers on the map",
    "icon": "https://steamcdn-a.akamaihd.net/steamcommunity/public/images/apps/245050/676924b8b9644bac8ced349d744c054c33a2b9a9.jpg",
    "icongray": "https://steamcdn-a.akamaihd.net/steamcommunity/public/images/apps/245050/c55edd1466b731f67c863d8083d7a4f4e9109655.jpg"
  },
  {
    "name": "ach_dotp_darc",
    "defaultvalue": 0,
    "displayName": "Faster than Darc",
    "hidden": 0,
    "description": "Catch Darc before he can run around even once",
    "icon": "https://steamcdn-a.akamaihd.net/steamcommunity/public/images/apps/245050/2895d9dd735211c27b922cdb1fd0776abeacf3ea.jpg",
    "icongray": "https://steamcdn-a.akamaihd.net/steamcommunity/public/images/apps/245050/2dd966ac5940c216763fb1372350efe427894075.jpg"
  },
  {
    "name": "ach_dotp_zerbo1",
    "defaultvalue": 0,
    "displayName": "Difficulty courts",
    "hidden": 0,
    "description": "Sneak throu the city of Zerbo second times with the Mace of the Guardian on Very Difficult level",
    "icon": "https://steamcdn-a.akamaihd.net/steamcommunity/public/images/apps/245050/9464b0827cd88724e30841d81b606b50a4ddedcd.jpg",
    "icongray": "https://steamcdn-a.akamaihd.net/steamcommunity/public/images/apps/245050/b99a0715077ac2beb4de47fa37a03842b2d9b4af.jpg"
  },
  {
    "name": "ach_dotp_zerbo2",
    "defaultvalue": 0,
    "displayName": "Berserker thief",
    "hidden": 0,
    "description": "Kill all city guards in the city of Zerbo after the main quest (Mace of the Guardian is needed!)",
    "icon": "https://steamcdn-a.akamaihd.net/steamcommunity/public/images/apps/245050/cfcf3e3ef7ed9a76ee0a7e0863a96306df3534e1.jpg",
    "icongray": "https://steamcdn-a.akamaihd.net/steamcommunity/public/images/apps/245050/db94aee43155a9b087808bd5c3a36f3798cfe23b.jpg"
  },
  {
    "name": "ach_dotp_niethalf",
    "defaultvalue": 0,
    "displayName": "Dwarf gush",
    "hidden": 0,
    "description": "All of the dwarves must survive in dungeon of Niethalf on Difficult or Very Difficult level",
    "icon": "https://steamcdn-a.akamaihd.net/steamcommunity/public/images/apps/245050/b65bd67deebe446d390b820af9ebe1aaa65933cf.jpg",
    "icongray": "https://steamcdn-a.akamaihd.net/steamcommunity/public/images/apps/245050/08ee74c91c9215972af48c43fb86d0a130371a42.jpg"
  },
  {
    "name": "ach_dotp_alone",
    "defaultvalue": 0,
    "displayName": "I can do it alone!",
    "hidden": 0,
    "description": "Destroy the ballistas, the evil spirits and the portal without any help.",
    "icon": "https://steamcdn-a.akamaihd.net/steamcommunity/public/images/apps/245050/af563a7282b923ccf5e254ed6303f6d66c140c7c.jpg",
    "icongray": "https://steamcdn-a.akamaihd.net/steamcommunity/public/images/apps/245050/84b1e2df93a88578e098cb93071b2d960bb4c61b.jpg"
  },
  {
    "name": "ach_dotp_rabbit",
    "defaultvalue": 0,
    "displayName": "Behind the rabbit",
    "hidden": 0,
    "description": "Kill every monster in the arena.",
    "icon": "https://steamcdn-a.akamaihd.net/steamcommunity/public/images/apps/245050/83e03166bd372499ea7ea95b34eb1a0dc80a7d8f.jpg",
    "icongray": "https://steamcdn-a.akamaihd.net/steamcommunity/public/images/apps/245050/690d77669881cc1f8a036f3a59bb28ab8dc56bd3.jpg"
  },
  {
    "name": "ach_dotp_trolls",
    "defaultvalue": 0,
    "displayName": "Don't feed the trolls",
    "hidden": 0,
    "description": "Yes you do!",
    "icon": "https://steamcdn-a.akamaihd.net/steamcommunity/public/images/apps/245050/0d5d5b24a3363c661555f7cfcbe97f59b840175c.jpg",
    "icongray": "https://steamcdn-a.akamaihd.net/steamcommunity/public/images/apps/245050/9c44f94612f5337967ec56eb30c8c3e71200cdc5.jpg"
  },
  {
    "name": "ach_dotp_closed",
    "defaultvalue": 0,
    "displayName": "Thou shalt not pass",
    "hidden": 0,
    "description": "Close every gate after opening them",
    "icon": "https://steamcdn-a.akamaihd.net/steamcommunity/public/images/apps/245050/3a2120cf7659b56152978b811dc070cad985cbbb.jpg",
    "icongray": "https://steamcdn-a.akamaihd.net/steamcommunity/public/images/apps/245050/9a84ce673cefea3d7fbb643a9cce85bf1cc7c353.jpg"
  },
  {
    "name": "ach_dotp_changes",
    "defaultvalue": 0,
    "displayName": "Silly walk",
    "hidden": 0,
    "description": "Change your mind three times",
    "icon": "https://steamcdn-a.akamaihd.net/steamcommunity/public/images/apps/245050/07a92580c9ffac2c77df27d5fa09e6bc3a7892d0.jpg",
    "icongray": "https://steamcdn-a.akamaihd.net/steamcommunity/public/images/apps/245050/742a5d502aa5025ef1b9d675cb2cb69688c11ac9.jpg"
  },
  {
    "name": "ach_dotp_tough",
    "defaultvalue": 0,
    "displayName": "Tough one",
    "hidden": 0,
    "description": "Complete the 'The Citadel' map on Very Difficult level",
    "icon": "https://steamcdn-a.akamaihd.net/steamcommunity/public/images/apps/245050/4544a48bda7a6712e3e44ca820f45152a8ebdab8.jpg",
    "icongray": "https://steamcdn-a.akamaihd.net/steamcommunity/public/images/apps/245050/229c088605584c35110f3c0c1aee79dfcbe901c0.jpg"
  },
  {
    "name": "ach_dotp_silversmith",
    "defaultvalue": 0,
    "displayName": "Lost Recon",
    "hidden": 0,
    "description": "Find the lost orc soldiers",
    "icon": "https://steamcdn-a.akamaihd.net/steamcommunity/public/images/apps/245050/ce01944e102e33143df0f6ef92542bb4b2f47e1c.jpg",
    "icongray": "https://steamcdn-a.akamaihd.net/steamcommunity/public/images/apps/245050/54a1f03d6aa2c2e5fae028a12626406b5c847c72.jpg"
  },
  {
    "name": "ach_dotp_spider",
    "defaultvalue": 0,
    "displayName": "Spider-Hunter",
    "hidden": 0,
    "description": "Kill all the huge spiders on the mounds",
    "icon": "https://steamcdn-a.akamaihd.net/steamcommunity/public/images/apps/245050/473886ef2d44105f3ecea35c51b790442d67d97c.jpg",
    "icongray": "https://steamcdn-a.akamaihd.net/steamcommunity/public/images/apps/245050/2a43af8d2ce2917227b0b6690bfd478e3c00e937.jpg"
  },
  {
    "name": "ach_dotp_duel",
    "defaultvalue": 0,
    "displayName": "Duel-Master",
    "hidden": 0,
    "description": "Win the duel against the Shaikan boss at the first attempt",
    "icon": "https://steamcdn-a.akamaihd.net/steamcommunity/public/images/apps/245050/d22302b8816c4f764a95651e8a3370ed3c498b62.jpg",
    "icongray": "https://steamcdn-a.akamaihd.net/steamcommunity/public/images/apps/245050/29db1c578cce8009e7213501dc5d4e214a8f36e1.jpg"
  },
  {
    "name": "ach_dotp_p707_disinsection",
    "defaultvalue": 0,
    "displayName": "Disinfection",
    "hidden": 0,
    "description": "Hunt all the escaped monsters",
    "icon": "https://steamcdn-a.akamaihd.net/steamcommunity/public/images/apps/245050/f155670ea3b32b1e4e6e18ca3e6cc3179912e3ba.jpg",
    "icongray": "https://steamcdn-a.akamaihd.net/steamcommunity/public/images/apps/245050/87209e66de00dc67e6c826d5e77456d145199d1a.jpg"
  },
  {
    "name": "ach_dotp_p707_teamplay",
    "defaultvalue": 0,
    "displayName": "Team-play",
    "hidden": 0,
    "description": "Kick the seal with all the fire golems",
    "icon": "https://steamcdn-a.akamaihd.net/steamcommunity/public/images/apps/245050/e17c8ed9a94ed6f014c827faf2b7d137197bc068.jpg",
    "icongray": "https://steamcdn-a.akamaihd.net/steamcommunity/public/images/apps/245050/9359224be228103ae322eb899b873a2a5221bcf4.jpg"
  },
  {
    "name": "ach_dotp_p707_quickhack",
    "defaultvalue": 0,
    "displayName": "Mindhacker",
    "hidden": 0,
    "description": "Break all the mind walls of Sariel in 10 minutes on Difficult or Very Difficult level.",
    "icon": "https://steamcdn-a.akamaihd.net/steamcommunity/public/images/apps/245050/b182c71d760083a71f2c8b66dea29a9553158d92.jpg",
    "icongray": "https://steamcdn-a.akamaihd.net/steamcommunity/public/images/apps/245050/37b9aa954d208196d5622a1d9d226dc8b919cb6c.jpg"
  },
  {
    "name": "ach_dotp_noclosed",
    "defaultvalue": 0,
    "displayName": "On the fly",
    "hidden": 0,
    "description": "Kill the beast with the seal without trapping it on the bridge.",
    "icon": "https://steamcdn-a.akamaihd.net/steamcommunity/public/images/apps/245050/b71866eb65324e619d2ba278532420be39e527f9.jpg",
    "icongray": "https://steamcdn-a.akamaihd.net/steamcommunity/public/images/apps/245050/1c74f27eda2e52c58617cffddd1f2f2883b85121.jpg"
  },
  {
    "name": "ach_dotp_shadowarmy",
    "defaultvalue": 0,
    "displayName": "Shadow Army",
    "hidden": 0,
    "description": "Destroy the Demon base only with Shadows",
    "icon": "https://steamcdn-a.akamaihd.net/steamcommunity/public/images/apps/245050/00f08be090748cac587ee7e0c280e09110cf44f6.jpg",
    "icongray": "https://steamcdn-a.akamaihd.net/steamcommunity/public/images/apps/245050/34e5592ca26e970b1f8c8126c56d6c27f57e12b6.jpg"
  },
  {
    "name": "ach_dotp_maze",
    "defaultvalue": 0,
    "displayName": "Pathfinder",
    "hidden": 0,
    "description": "Walk through the maze without harming yourself",
    "icon": "https://steamcdn-a.akamaihd.net/steamcommunity/public/images/apps/245050/fea21d4dceb303e6e6b787f75cbccc76686fa20e.jpg",
    "icongray": "https://steamcdn-a.akamaihd.net/steamcommunity/public/images/apps/245050/143a2b110cc0ff1223f76d695209e61c7c51c7bd.jpg"
  },
  {
    "name": "ach_dotp_parrot",
    "defaultvalue": 0,
    "displayName": "Animal Protection",
    "hidden": 0,
    "description": "Get the \"parrot\" alive",
    "icon": "https://steamcdn-a.akamaihd.net/steamcommunity/public/images/apps/245050/5856335134d6339ccfa9dc9711b6a7f2cd14be81.jpg",
    "icongray": "https://steamcdn-a.akamaihd.net/steamcommunity/public/images/apps/245050/dd4a3bdba6234c5f9d6acbf8d7b92c08fd4f54a3.jpg"
  },
  {
    "name": "ach_dotp_steal",
    "defaultvalue": 0,
    "displayName": "Steal the Key",
    "hidden": 0,
    "description": "Get the puzzle key without killing the Lich on Difficult or Very Difficult level",
    "icon": "https://steamcdn-a.akamaihd.net/steamcommunity/public/images/apps/245050/b5440c1468c3c32f9a7a79a9b40f87782a0476f1.jpg",
    "icongray": "https://steamcdn-a.akamaihd.net/steamcommunity/public/images/apps/245050/9a8ddfdbc9c7c91c1c0fd724c5566dee739aa94b.jpg"
  },
  {
    "name": "ach_dotp_namelessbase01",
    "defaultvalue": 0,
    "displayName": "First strike still deadly",
    "hidden": 0,
    "description": "Destroy the southeastern Nameless base within 20 minutes on Difficult or Very Difficult level",
    "icon": "https://steamcdn-a.akamaihd.net/steamcommunity/public/images/apps/245050/c8cf8d28b049506ee0b93a3b738e8dae2ce57d65.jpg",
    "icongray": "https://steamcdn-a.akamaihd.net/steamcommunity/public/images/apps/245050/92c5e639d6cdf9cbcc411346f84c0e80342d70db.jpg"
  },
  {
    "name": "ach_dotp_towers",
    "defaultvalue": 0,
    "displayName": "Crystal Mountain",
    "hidden": 0,
    "description": "Collect every power crystal and power every tower before attacking Zazhut",
    "icon": "https://steamcdn-a.akamaihd.net/steamcommunity/public/images/apps/245050/5056642e0456ee9d9a86d8c6404657ed03369d1e.jpg",
    "icongray": "https://steamcdn-a.akamaihd.net/steamcommunity/public/images/apps/245050/841f1135ff05185eb9b615115051b0717d286bb8.jpg"
  },
  {
    "name": "ach_dotp_cabbage",
    "defaultvalue": 0,
    "displayName": "Green day",
    "hidden": 0,
    "description": "Find the mysterious green relic",
    "icon": "https://steamcdn-a.akamaihd.net/steamcommunity/public/images/apps/245050/9f64701390c317e602b7faefe4cb739cd0dbf34f.jpg",
    "icongray": "https://steamcdn-a.akamaihd.net/steamcommunity/public/images/apps/245050/f73b183fcd07f2d54deecdabbd46f1f4f30fad0d.jpg"
  }
]