[
  {
    "name": "ACH_DEFEAT_SS",
    "defaultvalue": 0,
    "displayName": "Snake Charmer",
    "hidden": 0,
    "description": "Defeat Skeleton Snake",
    "icon": "https://steamcdn-a.akamaihd.net/steamcommunity/public/images/apps/704760/1e261ea16ee1402177d6c08b334f058747c1b898.jpg",
    "icongray": "https://steamcdn-a.akamaihd.net/steamcommunity/public/images/apps/704760/3590668b363c238ccc610902ce9d1a10eeede21c.jpg"
  },
  {
    "name": "ACH_DEFEAT_DM",
    "defaultvalue": 0,
    "displayName": "Heartbroken",
    "hidden": 0,
    "description": "Defeat Dark Mechanism",
    "icon": "https://steamcdn-a.akamaihd.net/steamcommunity/public/images/apps/704760/3b33a6d662da825390e211bd6982623892067399.jpg",
    "icongray": "https://steamcdn-a.akamaihd.net/steamcommunity/public/images/apps/704760/fff0c7ea96cc5cc1e1bc2c78c41a955d708ab06e.jpg"
  },
  {
    "name": "ACH_DEFEAT_LC",
    "defaultvalue": 0,
    "displayName": "Ghost Buster",
    "hidden": 0,
    "description": "Defeat Lantern Carrier",
    "icon": "https://steamcdn-a.akamaihd.net/steamcommunity/public/images/apps/704760/795c89901efac7d31b2fb48cd1a22a884da76de0.jpg",
    "icongray": "https://steamcdn-a.akamaihd.net/steamcommunity/public/images/apps/704760/a1d76757c29c28b93052a19dc7d4bf0b3c9e7b1b.jpg"
  },
  {
    "name": "ACH_DEFEAT_BD",
    "defaultvalue": 0,
    "displayName": "Calm After the Storm",
    "hidden": 0,
    "description": "Defeat Bermuda Devil",
    "icon": "https://steamcdn-a.akamaihd.net/steamcommunity/public/images/apps/704760/1e2712a3390a89c4233e9bd115473ed6b6f9ed91.jpg",
    "icongray": "https://steamcdn-a.akamaihd.net/steamcommunity/public/images/apps/704760/61734a619103629d1116a4a3224c0b83feaa4246.jpg"
  },
  {
    "name": "ACH_DEFEAT_NODE",
    "defaultvalue": 0,
    "displayName": "Manual Disassembly",
    "hidden": 0,
    "description": "Defeat NODE",
    "icon": "https://steamcdn-a.akamaihd.net/steamcommunity/public/images/apps/704760/ff7b7a2817c162b73c8fc05eacbef5840385b908.jpg",
    "icongray": "https://steamcdn-a.akamaihd.net/steamcommunity/public/images/apps/704760/3a7aad1a700ec918934e5dda43c939669a379d0d.jpg"
  },
  {
    "name": "ACH_DEFEAT_WS",
    "defaultvalue": 0,
    "displayName": "Exorcism",
    "hidden": 0,
    "description": "Defeat Warrior Spirit",
    "icon": "https://steamcdn-a.akamaihd.net/steamcommunity/public/images/apps/704760/ddb8a320d736e56f11c19298288216d5466d6736.jpg",
    "icongray": "https://steamcdn-a.akamaihd.net/steamcommunity/public/images/apps/704760/16e0a986f9f04f63e3e04ef93867fe7b7082b3f8.jpg"
  },
  {
    "name": "ACH_DEFEAT_IR",
    "defaultvalue": 0,
    "displayName": "Showstopper",
    "hidden": 0,
    "description": "Defeat Immortal Ringmaster",
    "icon": "https://steamcdn-a.akamaihd.net/steamcommunity/public/images/apps/704760/78660aa24ddb0e0c6021f97a6375f2fcc3d24733.jpg",
    "icongray": "https://steamcdn-a.akamaihd.net/steamcommunity/public/images/apps/704760/7bb091978bcc38fe48a8707ea87f96d66aab33ae.jpg"
  },
  {
    "name": "ACH_WIN_BJORN",
    "defaultvalue": 0,
    "displayName": "From Beyond the Grave",
    "hidden": 0,
    "description": "Beat the game as Björn",
    "icon": "https://steamcdn-a.akamaihd.net/steamcommunity/public/images/apps/704760/a2e0aeb33addf347d28f5187fd6f0e69b15385bd.jpg",
    "icongray": "https://steamcdn-a.akamaihd.net/steamcommunity/public/images/apps/704760/21d28d60ef48bae21f60675028b0230579a0abc6.jpg"
  },
  {
    "name": "ACH_WIN_GERD",
    "defaultvalue": 0,
    "displayName": "Mad Science",
    "hidden": 0,
    "description": "Beat the game as Gerhardt",
    "icon": "https://steamcdn-a.akamaihd.net/steamcommunity/public/images/apps/704760/fa8618c746791e928bb7e7edb6f3c1604019fdfe.jpg",
    "icongray": "https://steamcdn-a.akamaihd.net/steamcommunity/public/images/apps/704760/f4c4741b505bcbdc5008d6dbcc4c3a7bc0cb61ca.jpg"
  },
  {
    "name": "ACH_WIN_KAHINA",
    "defaultvalue": 0,
    "displayName": "Spiritual Intervention",
    "hidden": 0,
    "description": "Beat the game as Kahina",
    "icon": "https://steamcdn-a.akamaihd.net/steamcommunity/public/images/apps/704760/1df4a347c009b6f58c8bdb8d92e288fb1e1d8bdc.jpg",
    "icongray": "https://steamcdn-a.akamaihd.net/steamcommunity/public/images/apps/704760/f4077fcc5e7caec8b347e2c1c0851ce52ef7aca6.jpg"
  },
  {
    "name": "ACH_WIN_NO_DEATH",
    "defaultvalue": 0,
    "displayName": "GRIM MASTER",
    "hidden": 0,
    "description": "Beat the game without dying",
    "icon": "https://steamcdn-a.akamaihd.net/steamcommunity/public/images/apps/704760/6e39c8c4c8471a7f3bf2656dd02be210959ebe81.jpg",
    "icongray": "https://steamcdn-a.akamaihd.net/steamcommunity/public/images/apps/704760/bed341ad256674b2162be3a2fc5dce43699b04ff.jpg"
  },
  {
    "name": "ACH_WIN_NO_SKILL",
    "defaultvalue": 0,
    "displayName": "Minimalist",
    "hidden": 0,
    "description": "Beat the game without taking any abilities",
    "icon": "https://steamcdn-a.akamaihd.net/steamcommunity/public/images/apps/704760/73e216266029ec5350d76872544d81c01966ca06.jpg",
    "icongray": "https://steamcdn-a.akamaihd.net/steamcommunity/public/images/apps/704760/2cdf85fee707518caab466b97cead935a12aa98d.jpg"
  },
  {
    "name": "ACH_WIN_HIGHSCORE",
    "defaultvalue": 0,
    "displayName": "SCORE MASTER",
    "hidden": 0,
    "description": "Finish the game with a score of 50,000 or more",
    "icon": "https://steamcdn-a.akamaihd.net/steamcommunity/public/images/apps/704760/a14b0882a46092606622459144cbe292b8c825d8.jpg",
    "icongray": "https://steamcdn-a.akamaihd.net/steamcommunity/public/images/apps/704760/ffacdbfa7e6a2d0b21356220c180814bd362e10a.jpg"
  },
  {
    "name": "ACH_WIN_FAST",
    "defaultvalue": 0,
    "displayName": "Speed Lover",
    "hidden": 0,
    "description": "Finish the game in under 25 minutes",
    "icon": "https://steamcdn-a.akamaihd.net/steamcommunity/public/images/apps/704760/a44f37721bbd08e909ec2c029108b4b38c6e3be7.jpg",
    "icongray": "https://steamcdn-a.akamaihd.net/steamcommunity/public/images/apps/704760/51ac033527dd0549cf4850ed4fcb9c6462562470.jpg"
  },
  {
    "name": "ACH_WIN_FASTER",
    "defaultvalue": 0,
    "displayName": "Speedy Speed Boy",
    "hidden": 0,
    "description": "Finish the game in under 20 minutes",
    "icon": "https://steamcdn-a.akamaihd.net/steamcommunity/public/images/apps/704760/e83705c2cfb42e943c871fe12d505afbc465aebe.jpg",
    "icongray": "https://steamcdn-a.akamaihd.net/steamcommunity/public/images/apps/704760/759f0d78af032e7d429e96b3e1fa601cd9be158f.jpg"
  },
  {
    "name": "ACH_WIN_DODGE",
    "defaultvalue": 0,
    "displayName": "Dodge Perfection",
    "hidden": 0,
    "description": "Finish the game with 100 or more perfect dodges",
    "icon": "https://steamcdn-a.akamaihd.net/steamcommunity/public/images/apps/704760/7e8532cc86389f7ff3e66d77a045068a5e8138cb.jpg",
    "icongray": "https://steamcdn-a.akamaihd.net/steamcommunity/public/images/apps/704760/805c41b13fce3c9023be9117f5f3e57c2a51f5ec.jpg"
  },
  {
    "name": "ACH_DAMAGE_BURST",
    "defaultvalue": 0,
    "displayName": "Burst of Power",
    "hidden": 0,
    "description": "Beat a phase of any boss in under 30 seconds",
    "icon": "https://steamcdn-a.akamaihd.net/steamcommunity/public/images/apps/704760/334cca5aee64c31e6f9bba9178d74838baa4880b.jpg",
    "icongray": "https://steamcdn-a.akamaihd.net/steamcommunity/public/images/apps/704760/66c7733b81e2d5d998c485bfd4aa5ef07e6849df.jpg"
  }
]