[
  {
    "name": "ach1",
    "defaultvalue": 0,
    "displayName": "Gliding!",
    "hidden": 0,
    "description": "Glide with style!",
    "icon": "https://steamcdn-a.akamaihd.net/steamcommunity/public/images/apps/1143440/169e0910cc354c2294bd00a7885cbeba6716f7b8.jpg",
    "icongray": "https://steamcdn-a.akamaihd.net/steamcommunity/public/images/apps/1143440/27abcf8cf627316a524a8ec02a7ab7f2de8f583b.jpg"
  },
  {
    "name": "ach2",
    "defaultvalue": 0,
    "displayName": "Jumping!",
    "hidden": 0,
    "description": "Show off your legs gringo!",
    "icon": "https://steamcdn-a.akamaihd.net/steamcommunity/public/images/apps/1143440/bb5cfaf55ea68928e2c5db77d4e5f3be77fbf152.jpg",
    "icongray": "https://steamcdn-a.akamaihd.net/steamcommunity/public/images/apps/1143440/4a068263a5121fe504706d45ea0fefecb8f8264c.jpg"
  },
  {
    "name": "ach3",
    "defaultvalue": 0,
    "displayName": "10 POINTS",
    "hidden": 0,
    "description": "Congratulations on your first 10 points!",
    "icon": "https://steamcdn-a.akamaihd.net/steamcommunity/public/images/apps/1143440/54a8fe32d08a13424d041a50c87db30f48e62ce3.jpg",
    "icongray": "https://steamcdn-a.akamaihd.net/steamcommunity/public/images/apps/1143440/810d84798022a26bdc327c3968b546fce142c81e.jpg"
  },
  {
    "name": "ach4",
    "defaultvalue": 0,
    "displayName": "20 POINTS",
    "hidden": 0,
    "description": "Congratulations on your first 20 points!",
    "icon": "https://steamcdn-a.akamaihd.net/steamcommunity/public/images/apps/1143440/a4eb07343fb959327f2206c6b7cffe558000f29c.jpg",
    "icongray": "https://steamcdn-a.akamaihd.net/steamcommunity/public/images/apps/1143440/a411b4b0bb83f429de36b9fcb6392f85d6744046.jpg"
  },
  {
    "name": "ach5",
    "defaultvalue": 0,
    "displayName": "25 POINTS",
    "hidden": 0,
    "description": "Congratulations on your first 25 points!",
    "icon": "https://steamcdn-a.akamaihd.net/steamcommunity/public/images/apps/1143440/bdeb47adb6de7a164bc62aa2469cae0639d89dd5.jpg",
    "icongray": "https://steamcdn-a.akamaihd.net/steamcommunity/public/images/apps/1143440/96dc165e454c8c6132cd474338d2b6ef94a4a1de.jpg"
  }
]