{
  "Dlcs": {},
  "Name": "Spells 'n' Stuff",
  "AppId": "448880",
  "ImageUrl": "https://steamcdn-a.akamaihd.net/steam/apps/448880/header.jpg?t=1600906554",
  "Languages": [
    "english"
  ],
  "Platforms": {
    "windows": true,
    "mac": false,
    "linux": false
  }
}