﻿{
  "Dlcs": {},
  "Name": "Peggle Extreme",
  "AppId": "3483",
  "ImageUrl": "https://steamcdn-a.akamaihd.net/steam/apps/3483/header.jpg?t=1567192558",
  "Languages": [
    "english"
  ],
  "Platforms": {
    "windows": true,
    "mac": false,
    "linux": false
  }
}