{
  "Dlcs": {},
  "Name": "Tranzient",
  "AppId": "903910",
  "ImageUrl": "https://steamcdn-a.akamaihd.net/steam/apps/903910/header.jpg?t=1586773300",
  "Languages": [
    "english"
  ],
  "Platforms": {
    "windows": true,
    "mac": false,
    "linux": false
  }
}