[
  {
    "name": "ID_AN_CB3_01",
    "defaultvalue": 0,
    "displayName": "WE HAVE LIFTOFF",
    "hidden": 0,
    "description": "Boot up the game!",
    "icon": "https://steamcdn-a.akamaihd.net/steamcommunity/public/images/apps/562480/e724031c2c17047a66f9e3df49aa1f12091a6ede.jpg",
    "icongray": "https://steamcdn-a.akamaihd.net/steamcommunity/public/images/apps/562480/55e3ef5230f09ede8d0f6428409e4af3f7cf3cf0.jpg"
  },
  {
    "name": "ID_AN_CB3_02",
    "defaultvalue": 0,
    "displayName": "WEALTH IN LOSS",
    "hidden": 0,
    "description": "Complete chapter 1, part 1!",
    "icon": "https://steamcdn-a.akamaihd.net/steamcommunity/public/images/apps/562480/badcf981f8b5f33c80ee5a455cefcd98cf3c347a.jpg",
    "icongray": "https://steamcdn-a.akamaihd.net/steamcommunity/public/images/apps/562480/bce4ee80736d977c2a08a8f5db88cf0574140699.jpg"
  },
  {
    "name": "ID_AN_CB3_03",
    "defaultvalue": 0,
    "displayName": "FATE'S TWISTED PATH",
    "hidden": 0,
    "description": "Complete chapter 1, part 2!",
    "icon": "https://steamcdn-a.akamaihd.net/steamcommunity/public/images/apps/562480/e2c79a273e898c94bb678195090d2db422f5899f.jpg",
    "icongray": "https://steamcdn-a.akamaihd.net/steamcommunity/public/images/apps/562480/80d6180e4290574e963dab6a8c9bc26c1deda0fb.jpg"
  },
  {
    "name": "ID_AN_CB3_04",
    "defaultvalue": 0,
    "displayName": "AS A MEMBER OF THIS TOWN",
    "hidden": 0,
    "description": "Complete chapter 2, part 1!",
    "icon": "https://steamcdn-a.akamaihd.net/steamcommunity/public/images/apps/562480/1b6a5f28501bcab0f7113c07f5185335236703cf.jpg",
    "icongray": "https://steamcdn-a.akamaihd.net/steamcommunity/public/images/apps/562480/8a5f8b2e78c76b258dc3e475e0daece3e8d53907.jpg"
  },
  {
    "name": "ID_AN_CB3_05",
    "defaultvalue": 0,
    "displayName": "CHASING THE STARS",
    "hidden": 0,
    "description": "Complete chapter 2, part 2!",
    "icon": "https://steamcdn-a.akamaihd.net/steamcommunity/public/images/apps/562480/767f582b655e239a9c3d6f3fc82e2ff77d1667fb.jpg",
    "icongray": "https://steamcdn-a.akamaihd.net/steamcommunity/public/images/apps/562480/0e4d004c42b7509752cb0b15e8678aebea018105.jpg"
  },
  {
    "name": "ID_AN_CB3_06",
    "defaultvalue": 0,
    "displayName": "REACH FOR THE HEAVENS",
    "hidden": 0,
    "description": "Complete chapter 2, part 3!",
    "icon": "https://steamcdn-a.akamaihd.net/steamcommunity/public/images/apps/562480/262f09a73ff5e3723506df202777fefe8cb4c527.jpg",
    "icongray": "https://steamcdn-a.akamaihd.net/steamcommunity/public/images/apps/562480/0d77540b72cbd47fe5ece1e6033eeeb6fe0763d2.jpg"
  },
  {
    "name": "ID_AN_CB3_07",
    "defaultvalue": 0,
    "displayName": "A PIRATE'S LIFE FOR ME",
    "hidden": 0,
    "description": "Complete chapter 3, part 1!",
    "icon": "https://steamcdn-a.akamaihd.net/steamcommunity/public/images/apps/562480/a209c54b6bd0ed2e792a8c3f4a2a690f36bee22d.jpg",
    "icongray": "https://steamcdn-a.akamaihd.net/steamcommunity/public/images/apps/562480/48053eb2ad61e4f86e9177f10c7e09a228319e1a.jpg"
  },
  {
    "name": "ID_AN_CB3_08",
    "defaultvalue": 0,
    "displayName": "A CERTAIN SUMMER DAY",
    "hidden": 0,
    "description": "Complete chapter 3, part 2!",
    "icon": "https://steamcdn-a.akamaihd.net/steamcommunity/public/images/apps/562480/536b92c4f031cc93df22376e95d319d133450e5f.jpg",
    "icongray": "https://steamcdn-a.akamaihd.net/steamcommunity/public/images/apps/562480/e84e6a1c853b8b6fde10a93019b2ae94e2a38c04.jpg"
  },
  {
    "name": "ID_AN_CB3_09",
    "defaultvalue": 0,
    "displayName": "FLOWER IN A STELLAR DRIFT",
    "hidden": 0,
    "description": "Complete chapter 3, part 3!",
    "icon": "https://steamcdn-a.akamaihd.net/steamcommunity/public/images/apps/562480/c13a1ed184ea6e2a12ba97479d3d6455fac1c34d.jpg",
    "icongray": "https://steamcdn-a.akamaihd.net/steamcommunity/public/images/apps/562480/1238809339e1b718f4c1e33d8b9309e2dd095c68.jpg"
  },
  {
    "name": "ID_AN_CB3_10",
    "defaultvalue": 0,
    "displayName": "TO BE FORGOTTEN",
    "hidden": 0,
    "description": "Complete chapter 4, part 1!",
    "icon": "https://steamcdn-a.akamaihd.net/steamcommunity/public/images/apps/562480/850f5425f2063eab3828bc92c3d6fe5ec5c11a95.jpg",
    "icongray": "https://steamcdn-a.akamaihd.net/steamcommunity/public/images/apps/562480/b80fe877bffd6c27f9cbf8f99c1470356ffdc564.jpg"
  },
  {
    "name": "ID_AN_CB3_11",
    "defaultvalue": 0,
    "displayName": "THE PEOPLE OF HANMA TOWN",
    "hidden": 0,
    "description": "Complete chapter 4, part 2!",
    "icon": "https://steamcdn-a.akamaihd.net/steamcommunity/public/images/apps/562480/dfafb4b8b6b121c4408dd5db38ba469ddf8e784d.jpg",
    "icongray": "https://steamcdn-a.akamaihd.net/steamcommunity/public/images/apps/562480/855bbbdab2b5a2af1527a87a6c14873d2af383e0.jpg"
  },
  {
    "name": "ID_AN_CB3_12",
    "defaultvalue": 0,
    "displayName": "PRESSED FOR TIME",
    "hidden": 0,
    "description": "Complete chapter 5, part 1!",
    "icon": "https://steamcdn-a.akamaihd.net/steamcommunity/public/images/apps/562480/43cd03cf4a46e7304fbb2a4faa7cce13d101f04e.jpg",
    "icongray": "https://steamcdn-a.akamaihd.net/steamcommunity/public/images/apps/562480/c5187f02909df53da501e3f96bdd2666531f498b.jpg"
  },
  {
    "name": "ID_AN_CB3_13",
    "defaultvalue": 0,
    "displayName": "SURPASSING EVEN OUR HEARTS",
    "hidden": 0,
    "description": "Complete chapter 5, part 2!",
    "icon": "https://steamcdn-a.akamaihd.net/steamcommunity/public/images/apps/562480/3945b5e7c032ba0925d48f377e7ac04c8705c249.jpg",
    "icongray": "https://steamcdn-a.akamaihd.net/steamcommunity/public/images/apps/562480/f7ea66c4c8295fef6b2a4d81555321247e44229e.jpg"
  },
  {
    "name": "ID_AN_CB3_14",
    "defaultvalue": 0,
    "displayName": "OUR SUMMER WITH R-NE",
    "hidden": 0,
    "description": "Complete the epilogue!",
    "icon": "https://steamcdn-a.akamaihd.net/steamcommunity/public/images/apps/562480/77ad498d4d83d023628a4d06936335bf9549b296.jpg",
    "icongray": "https://steamcdn-a.akamaihd.net/steamcommunity/public/images/apps/562480/195ef0ba87789d82c58938322566af0a1300a6d1.jpg"
  },
  {
    "name": "ID_AN_CB3_15",
    "defaultvalue": 0,
    "displayName": "Happy! Corona Blossom",
    "hidden": 0,
    "description": "Thanks for playing!",
    "icon": "https://steamcdn-a.akamaihd.net/steamcommunity/public/images/apps/562480/c0c81b8d34e2c91746ea7b2fac3b5e6c1b93d2a8.jpg",
    "icongray": "https://steamcdn-a.akamaihd.net/steamcommunity/public/images/apps/562480/cfe4564ccdea548cc2087fe0d908bef306105b02.jpg"
  },
  {
    "name": "ID_AN_CB3_16",
    "defaultvalue": 0,
    "displayName": "IS THAT A FISH IN YOUR EAR?",
    "hidden": 0,
    "description": "Play the game in English",
    "icon": "https://steamcdn-a.akamaihd.net/steamcommunity/public/images/apps/562480/dac90174bb0495a974f5f7d901d0dce366636399.jpg",
    "icongray": "https://steamcdn-a.akamaihd.net/steamcommunity/public/images/apps/562480/8c4f2594f07dae05955629351d6f935f04995916.jpg"
  },
  {
    "name": "ID_AN_CB3_17",
    "defaultvalue": 0,
    "displayName": "SO YOU CAN READ MOONRUNES?",
    "hidden": 0,
    "description": "Play the game in Japanese",
    "icon": "https://steamcdn-a.akamaihd.net/steamcommunity/public/images/apps/562480/15dd5157e3122ed28bdfc9e2bb5866df4bb910e3.jpg",
    "icongray": "https://steamcdn-a.akamaihd.net/steamcommunity/public/images/apps/562480/93624b0aa8a724acf9b299eac1a6f54b9969d45d.jpg"
  },
  {
    "name": "ID_AN_CB3_18",
    "defaultvalue": 0,
    "displayName": "A SINGLE STEP",
    "hidden": 0,
    "description": "Play the game in Chinese (Simplified)",
    "icon": "https://steamcdn-a.akamaihd.net/steamcommunity/public/images/apps/562480/f0b2ae0601c5b14268f90547ab93fbd683e9faa0.jpg",
    "icongray": "https://steamcdn-a.akamaihd.net/steamcommunity/public/images/apps/562480/fd49b5dda820b8d0e27e1dc7759e2b11cd7eda4a.jpg"
  }
]