[
  {
    "name": "ACHIEVEMENT_World01Clear",
    "defaultvalue": 0,
    "displayName": "Mozzie loves sushi",
    "hidden": 0,
    "description": "Clear all the stages in Mozzie's folder at least once",
    "icon": "https://steamcdn-a.akamaihd.net/steamcommunity/public/images/apps/976570/a1627dba0ec1267b4304e89c986564adfd2dfdcb.jpg",
    "icongray": "https://steamcdn-a.akamaihd.net/steamcommunity/public/images/apps/976570/101bbcc13104f20649c55af8eb5646026c44e6bb.jpg"
  },
  {
    "name": "ACHIEVEMENT_World02Clear",
    "defaultvalue": 0,
    "displayName": "Prideful Rudy",
    "hidden": 1,
    "icon": "https://steamcdn-a.akamaihd.net/steamcommunity/public/images/apps/976570/a1627dba0ec1267b4304e89c986564adfd2dfdcb.jpg",
    "icongray": "https://steamcdn-a.akamaihd.net/steamcommunity/public/images/apps/976570/101bbcc13104f20649c55af8eb5646026c44e6bb.jpg"
  },
  {
    "name": "ACHIEVEMENT_World03Clear",
    "defaultvalue": 0,
    "displayName": "Hudson is a kind, old man",
    "hidden": 1,
    "icon": "https://steamcdn-a.akamaihd.net/steamcommunity/public/images/apps/976570/a1627dba0ec1267b4304e89c986564adfd2dfdcb.jpg",
    "icongray": "https://steamcdn-a.akamaihd.net/steamcommunity/public/images/apps/976570/101bbcc13104f20649c55af8eb5646026c44e6bb.jpg"
  },
  {
    "name": "ACHIEVEMENT_World04Clear",
    "defaultvalue": 0,
    "displayName": "Greig is soooooo popular",
    "hidden": 1,
    "icon": "https://steamcdn-a.akamaihd.net/steamcommunity/public/images/apps/976570/a1627dba0ec1267b4304e89c986564adfd2dfdcb.jpg",
    "icongray": "https://steamcdn-a.akamaihd.net/steamcommunity/public/images/apps/976570/101bbcc13104f20649c55af8eb5646026c44e6bb.jpg"
  },
  {
    "name": "ACHIEVEMENT_World05Clear",
    "defaultvalue": 0,
    "displayName": "Stella and Code Shifter...",
    "hidden": 1,
    "icon": "https://steamcdn-a.akamaihd.net/steamcommunity/public/images/apps/976570/012c7e7c0dc8edec1207b989d44326f2f37feadc.jpg",
    "icongray": "https://steamcdn-a.akamaihd.net/steamcommunity/public/images/apps/976570/1e0f06224d9a335af7f6b762a2e95f988474dfc4.jpg"
  },
  {
    "name": "ACHIEVEMENT_WorldMission01Clear",
    "defaultvalue": 0,
    "displayName": "Text cleaning crew",
    "hidden": 0,
    "description": "Complete all the missions in Mozzie's folder",
    "icon": "https://steamcdn-a.akamaihd.net/steamcommunity/public/images/apps/976570/a1627dba0ec1267b4304e89c986564adfd2dfdcb.jpg",
    "icongray": "https://steamcdn-a.akamaihd.net/steamcommunity/public/images/apps/976570/101bbcc13104f20649c55af8eb5646026c44e6bb.jpg"
  },
  {
    "name": "ACHIEVEMENT_WorldMission02Clear",
    "defaultvalue": 0,
    "displayName": "The art of graphics",
    "hidden": 1,
    "icon": "https://steamcdn-a.akamaihd.net/steamcommunity/public/images/apps/976570/a1627dba0ec1267b4304e89c986564adfd2dfdcb.jpg",
    "icongray": "https://steamcdn-a.akamaihd.net/steamcommunity/public/images/apps/976570/101bbcc13104f20649c55af8eb5646026c44e6bb.jpg"
  },
  {
    "name": "ACHIEVEMENT_WorldMission03Clear",
    "defaultvalue": 0,
    "displayName": "Freeze bug destroying master",
    "hidden": 1,
    "icon": "https://steamcdn-a.akamaihd.net/steamcommunity/public/images/apps/976570/a1627dba0ec1267b4304e89c986564adfd2dfdcb.jpg",
    "icongray": "https://steamcdn-a.akamaihd.net/steamcommunity/public/images/apps/976570/101bbcc13104f20649c55af8eb5646026c44e6bb.jpg"
  },
  {
    "name": "ACHIEVEMENT_WorldMission04Clear",
    "defaultvalue": 0,
    "displayName": "The Gatekeeper's memory",
    "hidden": 1,
    "icon": "https://steamcdn-a.akamaihd.net/steamcommunity/public/images/apps/976570/a1627dba0ec1267b4304e89c986564adfd2dfdcb.jpg",
    "icongray": "https://steamcdn-a.akamaihd.net/steamcommunity/public/images/apps/976570/101bbcc13104f20649c55af8eb5646026c44e6bb.jpg"
  },
  {
    "name": "ACHIEVEMENT_WorldMission05Clear",
    "defaultvalue": 0,
    "displayName": "This is MY folder!",
    "hidden": 1,
    "icon": "https://steamcdn-a.akamaihd.net/steamcommunity/public/images/apps/976570/012c7e7c0dc8edec1207b989d44326f2f37feadc.jpg",
    "icongray": "https://steamcdn-a.akamaihd.net/steamcommunity/public/images/apps/976570/1e0f06224d9a335af7f6b762a2e95f988474dfc4.jpg"
  },
  {
    "name": "ACHIEVEMENT_WorldMissionAllClear",
    "defaultvalue": 0,
    "displayName": "Leave the debugging to me!",
    "hidden": 0,
    "description": "Complete all the missions",
    "icon": "https://steamcdn-a.akamaihd.net/steamcommunity/public/images/apps/976570/9adec522696b58e293edd67660d12d41be9bf625.jpg",
    "icongray": "https://steamcdn-a.akamaihd.net/steamcommunity/public/images/apps/976570/0691272290a4d6275bc18bac3a5bd090bf44db8e.jpg"
  },
  {
    "name": "ACHIEVEMENT_MultiModePlay",
    "defaultvalue": 0,
    "displayName": "First time playing Colorful Fighters",
    "hidden": 1,
    "icon": "https://steamcdn-a.akamaihd.net/steamcommunity/public/images/apps/976570/4d436185067fedf01f3e034801c84833ea7108b9.jpg",
    "icongray": "https://steamcdn-a.akamaihd.net/steamcommunity/public/images/apps/976570/affb477c9cfbd33228290cf2c4669e5651c0991b.jpg"
  },
  {
    "name": "ACHIEVEMENT_CoopModePlay",
    "defaultvalue": 0,
    "displayName": "Code:Shifter with friends",
    "hidden": 0,
    "description": "Clear the stage for the first time in Co-op Mode",
    "icon": "https://steamcdn-a.akamaihd.net/steamcommunity/public/images/apps/976570/b80500a4325576e98255e4a3fac149433870474c.jpg",
    "icongray": "https://steamcdn-a.akamaihd.net/steamcommunity/public/images/apps/976570/881892ebebe98595785fb163ea0cdf68b6298731.jpg"
  },
  {
    "name": "ACHIEVEMENT_FirstStageClear",
    "defaultvalue": 0,
    "displayName": "Let's get started",
    "hidden": 0,
    "description": "Clear the stage for the first time in Story Mode",
    "icon": "https://steamcdn-a.akamaihd.net/steamcommunity/public/images/apps/976570/44604f1ae6ce99531d64c2bf0bab0633c5f54b0e.jpg",
    "icongray": "https://steamcdn-a.akamaihd.net/steamcommunity/public/images/apps/976570/19d8d7d70aaf2fd18cd72e441ae74cbc412de1ee.jpg"
  },
  {
    "name": "ACHIEVEMENT_StageClear",
    "defaultvalue": 0,
    "displayName": "Light debugging",
    "hidden": 0,
    "description": "Clear the stage 20 times in Story Mode",
    "icon": "https://steamcdn-a.akamaihd.net/steamcommunity/public/images/apps/976570/573e831115d1d41db392b9f36844d1a79b60cf8e.jpg",
    "icongray": "https://steamcdn-a.akamaihd.net/steamcommunity/public/images/apps/976570/ff715ba02e026abb116314762f566b49fd2d9e46.jpg"
  },
  {
    "name": "ACHIEVEMENT_BattleCombo",
    "defaultvalue": 0,
    "displayName": "Man, combos feel amazing!",
    "hidden": 0,
    "description": "Land a 30 combo hit without being interrupted",
    "icon": "https://steamcdn-a.akamaihd.net/steamcommunity/public/images/apps/976570/da2e6817bd1ab74a2dd8c6f902922a36df3e8528.jpg",
    "icongray": "https://steamcdn-a.akamaihd.net/steamcommunity/public/images/apps/976570/22c1dfa33bc089f65f678486113dc996ea4bc577.jpg"
  },
  {
    "name": "ACHIEVEMENT_InvokeSpecialByPlayer",
    "defaultvalue": 0,
    "displayName": "My special attack",
    "hidden": 0,
    "description": "The heroine uses a total of 5 special attacks in Story Mode",
    "icon": "https://steamcdn-a.akamaihd.net/steamcommunity/public/images/apps/976570/ee9c9e705cc7669b29f502bd1af028ef7a9670e8.jpg",
    "icongray": "https://steamcdn-a.akamaihd.net/steamcommunity/public/images/apps/976570/761c1011d26fdbf87b74613664cb58e99eb55ce9.jpg"
  },
  {
    "name": "ACHIEVEMENT_InvokeSpecialByCollabo",
    "defaultvalue": 0,
    "displayName": "Our special attack",
    "hidden": 0,
    "description": "The heroine uses a total of 30 Hero Code special attacks in All Modes",
    "icon": "https://steamcdn-a.akamaihd.net/steamcommunity/public/images/apps/976570/991251d80fce639894b49f71a3c289235d362beb.jpg",
    "icongray": "https://steamcdn-a.akamaihd.net/steamcommunity/public/images/apps/976570/c7f63789db7407f175d3b5b74fd62d8591cf9b27.jpg"
  },
  {
    "name": "ACHIEVEMENT_SpawnAssist",
    "defaultvalue": 0,
    "displayName": "A promising existence",
    "hidden": 0,
    "description": "Summon Assist Characters 10 times in All Modes",
    "icon": "https://steamcdn-a.akamaihd.net/steamcommunity/public/images/apps/976570/2adb06a762759c30d2c6485047b69c3bf3635949.jpg",
    "icongray": "https://steamcdn-a.akamaihd.net/steamcommunity/public/images/apps/976570/1a770950757aa92fa9d5696d864d44f5c8796251.jpg"
  },
  {
    "name": "ACHIEVEMENT_DestroyEnemy",
    "defaultvalue": 0,
    "displayName": "Beginner debugger",
    "hidden": 0,
    "description": "Take out 30 enemies",
    "icon": "https://steamcdn-a.akamaihd.net/steamcommunity/public/images/apps/976570/97fdc28c0b1da77992a05fd5af151704542937a9.jpg",
    "icongray": "https://steamcdn-a.akamaihd.net/steamcommunity/public/images/apps/976570/33836b52ed53b7b5f599fab60bcd664b053e4ba7.jpg"
  },
  {
    "name": "ACHIEVEMENT_MultiModePlay2",
    "defaultvalue": 0,
    "displayName": "You're favorite game is Colorful Fighters",
    "hidden": 0,
    "description": "Play VS mode 30 times",
    "icon": "https://steamcdn-a.akamaihd.net/steamcommunity/public/images/apps/976570/0ba0e5aa0736450fd5bae45f08f6f94bbdd3952b.jpg",
    "icongray": "https://steamcdn-a.akamaihd.net/steamcommunity/public/images/apps/976570/f5c4c47667c6c15d9f621e88b1d7bf4a09eaa146.jpg"
  },
  {
    "name": "ACHIEVEMENT_StageClear2",
    "defaultvalue": 0,
    "displayName": "Detailed debugging",
    "hidden": 0,
    "description": "Clear the stage 100 times in Story Mode",
    "icon": "https://steamcdn-a.akamaihd.net/steamcommunity/public/images/apps/976570/82a2d6bc792dcfeee621c74b946c95172a4bbbe0.jpg",
    "icongray": "https://steamcdn-a.akamaihd.net/steamcommunity/public/images/apps/976570/066bb4a6847987060ea87812c28f0ec6e8f6e313.jpg"
  },
  {
    "name": "ACHIEVEMENT_BattleCombo2",
    "defaultvalue": 0,
    "displayName": "Sense of accomplishment",
    "hidden": 0,
    "description": "Land a 300 combo hit without being interrupted",
    "icon": "https://steamcdn-a.akamaihd.net/steamcommunity/public/images/apps/976570/54e76942e08f1a255c3cd51cef2a018e5b6c2ee2.jpg",
    "icongray": "https://steamcdn-a.akamaihd.net/steamcommunity/public/images/apps/976570/83e9b21b3f7b693dcb38f66d80912618f05439a5.jpg"
  },
  {
    "name": "ACHIEVEMENT_InvokeSpecialByPlayer2",
    "defaultvalue": 0,
    "displayName": "For precious friends",
    "hidden": 0,
    "description": "The heroine uses a total of 100 special attacks in Story Mode",
    "icon": "https://steamcdn-a.akamaihd.net/steamcommunity/public/images/apps/976570/51b2e215eecf20585950ff844480b04461ff0619.jpg",
    "icongray": "https://steamcdn-a.akamaihd.net/steamcommunity/public/images/apps/976570/771c40cfa41b1400ff8971c29448b617ab2d00b2.jpg"
  },
  {
    "name": "ACHIEVEMENT_InvokeSpecialByCollabo2",
    "defaultvalue": 0,
    "displayName": "For people to look forward to play game",
    "hidden": 0,
    "description": "The heroine uses a total of 300 Hero Code special attacks in All Modes",
    "icon": "https://steamcdn-a.akamaihd.net/steamcommunity/public/images/apps/976570/df2f2fb97f0fc88143980771ea24630e4923417e.jpg",
    "icongray": "https://steamcdn-a.akamaihd.net/steamcommunity/public/images/apps/976570/f7f60ca1db0c2aa533ed5866cfd42ca5b65f1bde.jpg"
  },
  {
    "name": "ACHIEVEMENT_SpawnAssist2",
    "defaultvalue": 0,
    "displayName": "A dependable existence",
    "hidden": 0,
    "description": "Summon Assist Characters 500 times in All Modes",
    "icon": "https://steamcdn-a.akamaihd.net/steamcommunity/public/images/apps/976570/894da6abbbaf1c8c489d1303c910dd34039596ff.jpg",
    "icongray": "https://steamcdn-a.akamaihd.net/steamcommunity/public/images/apps/976570/93ca61c2212a8332c7596d2698708354932e9591.jpg"
  },
  {
    "name": "ACHIEVEMENT_DestroyEnemy2",
    "defaultvalue": 0,
    "displayName": "Enemy debugger",
    "hidden": 0,
    "description": "Take out 300 enemies",
    "icon": "https://steamcdn-a.akamaihd.net/steamcommunity/public/images/apps/976570/f48dc4e5f2be3b02755e45aa0f79e7a42c918fc2.jpg",
    "icongray": "https://steamcdn-a.akamaihd.net/steamcommunity/public/images/apps/976570/3e5efef2a0c402ceff2eb37560306f831393a0be.jpg"
  },
  {
    "name": "ACHIEVEMENT_DestroyEnemy3",
    "defaultvalue": 0,
    "displayName": "Expert debugger",
    "hidden": 0,
    "description": "Take out 3000 enemies",
    "icon": "https://steamcdn-a.akamaihd.net/steamcommunity/public/images/apps/976570/5add4a7a2057a941e26ec74a2996549a58c78591.jpg",
    "icongray": "https://steamcdn-a.akamaihd.net/steamcommunity/public/images/apps/976570/5d92b95f0181dfaf245b9290033308a3cef592b8.jpg"
  }
]