{
  "Dlcs": {},
  "Name": "VR0GU3™: Unapologetic Hardcore VR Edition",
  "AppId": "458190",
  "ImageUrl": "https://steamcdn-a.akamaihd.net/steam/apps/458190/header.jpg?t=1588297836",
  "Languages": [
    "english"
  ],
  "Platforms": {
    "windows": true,
    "mac": false,
    "linux": false
  }
}