{
  "Dlcs": {},
  "Name": "The Frosted",
  "AppId": "1346350",
  "ImageUrl": "https://steamcdn-a.akamaihd.net/steam/apps/1346350/header.jpg?t=1595438546",
  "Languages": [
    "english",
    "russian"
  ],
  "Platforms": {
    "windows": true,
    "mac": false,
    "linux": false
  }
}