{
  "Dlcs": {},
  "Name": "Loot Hound™",
  "AppId": "411680",
  "ImageUrl": "https://steamcdn-a.akamaihd.net/steam/apps/411680/header.jpg?t=1596024504",
  "Languages": [
    "english"
  ],
  "Platforms": {
    "windows": true,
    "mac": true,
    "linux": false
  }
}