﻿{
  "Dlcs": {},
  "Name": "Four Realms",
  "AppId": "483820",
  "ImageUrl": "https://steamcdn-a.akamaihd.net/steam/apps/483820/header.jpg?t=1480874163",
  "Languages": [
    "english"
  ],
  "Platforms": {
    "windows": true,
    "mac": false,
    "linux": false
  }
}