﻿{
  "Dlcs": {},
  "Name": "Guide The Ball",
  "AppId": "739940",
  "ImageUrl": "https://steamcdn-a.akamaihd.net/steam/apps/739940/header.jpg?t=1510971628",
  "Languages": [
    "english"
  ],
  "Platforms": {
    "windows": true,
    "mac": false,
    "linux": false
  }
}