{
  "Dlcs": {},
  "Name": "Wire Lips",
  "AppId": "1186220",
  "ImageUrl": "https://steamcdn-a.akamaihd.net/steam/apps/1186220/header.jpg?t=1581622221",
  "Languages": [
    "english",
    "russian",
    "tchinese",
    "portuguese",
    "turkish"
  ],
  "Platforms": {
    "windows": true,
    "mac": false,
    "linux": false
  }
}