{
  "Dlcs": {},
  "Name": "Rozalin and the Palace of Flowers",
  "AppId": "1293980",
  "ImageUrl": "https://steamcdn-a.akamaihd.net/steam/apps/1293980/header.jpg?t=1594793646",
  "Languages": [
    "english"
  ],
  "Platforms": {
    "windows": true,
    "mac": false,
    "linux": false
  }
}