{
  "Dlcs": {
    "1125270": {
      "Name": "Iratus: Lord of the Dead - Supporter Pack",
      "ImageUrl": "https://steamcdn-a.akamaihd.net/steam/apps/1125270/header.jpg?t=1588087414"
    },
    "1293280": {
      "Name": "Iratus: Wrath of the Necromancer",
      "ImageUrl": "https://steamcdn-a.akamaihd.net/steam/apps/1293280/header.jpg?t=1600941344"
    },
    "1018320": {
      "Name": "Iratus: Lord of the Dead - Soundtrack",
      "ImageUrl": "https://steamcdn-a.akamaihd.net/steam/apps/1018320/header.jpg?t=1565694532"
    }
  },
  "Name": "Iratus: Lord of the Dead",
  "AppId": "807120",
  "ImageUrl": "https://steamcdn-a.akamaihd.net/steam/apps/807120/header.jpg?t=1593009110",
  "Languages": [
    "english",
    "russian",
    "french",
    "german",
    "spanish",
    "korean",
    "schinese",
    "tchinese",
    "japanese",
    "polish",
    "turkish"
  ],
  "Platforms": {
    "windows": true,
    "mac": true,
    "linux": true
  }
}