﻿[
  {
    "name": "BTD5_OnlyOne",
    "defaultvalue": 0,
    "displayName": "Highlander",
    "hidden": 0,
    "description": "Complete the There Can Only Be One Special Mission",
    "icon": "https://steamcdn-a.akamaihd.net/steamcommunity/public/images/apps/306020/24ab857d0ba3066d8e95a9b28b482e1ca8131e0e.jpg",
    "icongray": "https://steamcdn-a.akamaihd.net/steamcommunity/public/images/apps/306020/6ff615b71fc334f4c5592bd5ea8df3be85046c11.jpg"
  },
  {
    "name": "BTD5_3TimesAroundOlympian",
    "defaultvalue": 0,
    "displayName": "3 Times Around Olympian",
    "hidden": 0,
    "description": "Earn all 3 medals on 3 Times Around map",
    "icon": "https://steamcdn-a.akamaihd.net/steamcommunity/public/images/apps/306020/36f0033e41abafce2c5d45fb76b117210d9a2330.jpg",
    "icongray": "https://steamcdn-a.akamaihd.net/steamcommunity/public/images/apps/306020/6ff615b71fc334f4c5592bd5ea8df3be85046c11.jpg"
  },
  {
    "name": "BTD5_4OfAKind",
    "defaultvalue": 0,
    "displayName": "4 of a Kind",
    "hidden": 0,
    "description": "Complete all daily challenges in one day.",
    "icon": "https://steamcdn-a.akamaihd.net/steamcommunity/public/images/apps/306020/68b6c23f029eafc3a6a69ab273b0cf91baa1d4d8.jpg",
    "icongray": "https://steamcdn-a.akamaihd.net/steamcommunity/public/images/apps/306020/6ff615b71fc334f4c5592bd5ea8df3be85046c11.jpg"
  },
  {
    "name": "BTD5_AlpineLakeCoopOlympian",
    "defaultvalue": 0,
    "displayName": "Alpine Lake Co-Op Olympian",
    "hidden": 0,
    "description": "Earn all 3 medals on Alpine Lake co-op map",
    "icon": "https://steamcdn-a.akamaihd.net/steamcommunity/public/images/apps/306020/cb5ddb054a0cdc88c566c8546acb43c55d52052c.jpg",
    "icongray": "https://steamcdn-a.akamaihd.net/steamcommunity/public/images/apps/306020/6ff615b71fc334f4c5592bd5ea8df3be85046c11.jpg"
  },
  {
    "name": "BTD5_AlwaysOn",
    "defaultvalue": 0,
    "displayName": "Always On",
    "hidden": 0,
    "description": "Activate all upgrades for Ability Cooldowns",
    "icon": "https://steamcdn-a.akamaihd.net/steamcommunity/public/images/apps/306020/05f4a1c5d352dacb6936d56159fe911df09b912a.jpg",
    "icongray": "https://steamcdn-a.akamaihd.net/steamcommunity/public/images/apps/306020/6ff615b71fc334f4c5592bd5ea8df3be85046c11.jpg"
  },
  {
    "name": "BTD5_AmazinglyRandom",
    "defaultvalue": 0,
    "displayName": "Amazingly Random",
    "hidden": 0,
    "description": "Win 200 Random Missions",
    "icon": "https://steamcdn-a.akamaihd.net/steamcommunity/public/images/apps/306020/fc1e79b3ade49a2af6842ef50081e6c3092d23d3.jpg",
    "icongray": "https://steamcdn-a.akamaihd.net/steamcommunity/public/images/apps/306020/6ff615b71fc334f4c5592bd5ea8df3be85046c11.jpg"
  },
  {
    "name": "BTD5_ArchipelagoOlympian",
    "defaultvalue": 0,
    "displayName": "Archipelago Olympian",
    "hidden": 0,
    "description": "Earn all 3 medals on Archipelago map",
    "icon": "https://steamcdn-a.akamaihd.net/steamcommunity/public/images/apps/306020/708797ddca3593419acc56e2a0770292c4472134.jpg",
    "icongray": "https://steamcdn-a.akamaihd.net/steamcommunity/public/images/apps/306020/6ff615b71fc334f4c5592bd5ea8df3be85046c11.jpg"
  },
  {
    "name": "BTD5_ArtfulDodgersOlympian",
    "defaultvalue": 0,
    "displayName": "Roswell Olympian",
    "hidden": 0,
    "description": "Earn all 3 medals on Roswell map",
    "icon": "https://steamcdn-a.akamaihd.net/steamcommunity/public/images/apps/306020/5a0d27bba5b51e2d4f3db6466e6480617673f4c3.jpg",
    "icongray": "https://steamcdn-a.akamaihd.net/steamcommunity/public/images/apps/306020/6ff615b71fc334f4c5592bd5ea8df3be85046c11.jpg"
  },
  {
    "name": "BTD5_BFBBrawler",
    "defaultvalue": 0,
    "displayName": "BFB Brawler",
    "hidden": 0,
    "description": "Destroy 2000 BFBs",
    "icon": "https://steamcdn-a.akamaihd.net/steamcommunity/public/images/apps/306020/bb123ddc08c0b897b83c3537b91a548912c42366.jpg",
    "icongray": "https://steamcdn-a.akamaihd.net/steamcommunity/public/images/apps/306020/6ff615b71fc334f4c5592bd5ea8df3be85046c11.jpg"
  },
  {
    "name": "BTD5_BloonCirclesOlympian",
    "defaultvalue": 0,
    "displayName": "Bloon Circles Olympian",
    "hidden": 0,
    "description": "Earn all 3 medals on Bloon Circles map",
    "icon": "https://steamcdn-a.akamaihd.net/steamcommunity/public/images/apps/306020/a7867dc48a1940306236f5d586bdd6ddebdf824d.jpg",
    "icongray": "https://steamcdn-a.akamaihd.net/steamcommunity/public/images/apps/306020/6ff615b71fc334f4c5592bd5ea8df3be85046c11.jpg"
  },
  {
    "name": "BTD5_BloonsOfClubsOlympian",
    "defaultvalue": 0,
    "displayName": "Bloons Of Clubs Olympian",
    "hidden": 0,
    "description": "Earn all 3 medals on Bloons Of Clubs map",
    "icon": "https://steamcdn-a.akamaihd.net/steamcommunity/public/images/apps/306020/41dbb21212cc6ee8f464091b2ba90853c3f849e3.jpg",
    "icongray": "https://steamcdn-a.akamaihd.net/steamcommunity/public/images/apps/306020/6ff615b71fc334f4c5592bd5ea8df3be85046c11.jpg"
  },
  {
    "name": "BTD5_BloontoniumOlympian",
    "defaultvalue": 0,
    "displayName": "Bloontonium Lab Olympian",
    "hidden": 0,
    "description": "Earn all 3 medals on Bloontonium Lab map",
    "icon": "https://steamcdn-a.akamaihd.net/steamcommunity/public/images/apps/306020/de25c2ba476fed4047f898657b32b703e5106360.jpg",
    "icongray": "https://steamcdn-a.akamaihd.net/steamcommunity/public/images/apps/306020/6ff615b71fc334f4c5592bd5ea8df3be85046c11.jpg"
  },
  {
    "name": "BTD5_BrickWallOlympian",
    "defaultvalue": 0,
    "displayName": "Brick Wall Olympian",
    "hidden": 0,
    "description": "Earn all 3 medals on Brick Wall map",
    "icon": "https://steamcdn-a.akamaihd.net/steamcommunity/public/images/apps/306020/fa9a00c9f4b410be27e5cd277f6c9e81454a9a8a.jpg",
    "icongray": "https://steamcdn-a.akamaihd.net/steamcommunity/public/images/apps/306020/6ff615b71fc334f4c5592bd5ea8df3be85046c11.jpg"
  },
  {
    "name": "BTD5_CashMoneyCoopOlympian",
    "defaultvalue": 0,
    "displayName": "Cash Money Co-Op Olympian",
    "hidden": 0,
    "description": "Earn all 3 medals on Cash Money co-op map",
    "icon": "https://steamcdn-a.akamaihd.net/steamcommunity/public/images/apps/306020/fd35f478f1b10b765ec840cfc6d5b09ca2d572a8.jpg",
    "icongray": "https://steamcdn-a.akamaihd.net/steamcommunity/public/images/apps/306020/6ff615b71fc334f4c5592bd5ea8df3be85046c11.jpg"
  },
  {
    "name": "BTD5_CastleCoopOlympian",
    "defaultvalue": 0,
    "displayName": "Castle Co-Op Olympian",
    "hidden": 0,
    "description": "Earn all 3 medals on Castle co-op map",
    "icon": "https://steamcdn-a.akamaihd.net/steamcommunity/public/images/apps/306020/5fcb018caf80ff3d7756e02b53f602f3a05ca9a8.jpg",
    "icongray": "https://steamcdn-a.akamaihd.net/steamcommunity/public/images/apps/306020/6ff615b71fc334f4c5592bd5ea8df3be85046c11.jpg"
  },
  {
    "name": "BTD5_CastleOlympian",
    "defaultvalue": 0,
    "displayName": "Castle Olympian",
    "hidden": 0,
    "description": "Earn all 3 medals on Castle map",
    "icon": "https://steamcdn-a.akamaihd.net/steamcommunity/public/images/apps/306020/2f4edb9b37f64cd3407a2e2e3fd0dec30425d4c1.jpg",
    "icongray": "https://steamcdn-a.akamaihd.net/steamcommunity/public/images/apps/306020/6ff615b71fc334f4c5592bd5ea8df3be85046c11.jpg"
  },
  {
    "name": "BTD5_Centurion",
    "defaultvalue": 0,
    "displayName": "Centurion",
    "hidden": 0,
    "description": "Complete 100 daily challenges.",
    "icon": "https://steamcdn-a.akamaihd.net/steamcommunity/public/images/apps/306020/d25ac338acbd4eb7dda3487c216cfb6a9e8a0131.jpg",
    "icongray": "https://steamcdn-a.akamaihd.net/steamcommunity/public/images/apps/306020/6ff615b71fc334f4c5592bd5ea8df3be85046c11.jpg"
  },
  {
    "name": "BTD5_ChallengerDeepCoopOlympian",
    "defaultvalue": 0,
    "displayName": "Challenger Deep Co-Op Olympian",
    "hidden": 0,
    "description": "Earn all 3 medals on Challenger Deep co-op map",
    "icon": "https://steamcdn-a.akamaihd.net/steamcommunity/public/images/apps/306020/5374ff2c31b0d0e57810e18753c5b1ea919273f6.jpg",
    "icongray": "https://steamcdn-a.akamaihd.net/steamcommunity/public/images/apps/306020/6ff615b71fc334f4c5592bd5ea8df3be85046c11.jpg"
  },
  {
    "name": "BTD5_ChallengerDeepOlympian",
    "defaultvalue": 0,
    "displayName": "Challenger Deep Olympian",
    "hidden": 0,
    "description": "Earn all 3 medals on Challenger Deep map",
    "icon": "https://steamcdn-a.akamaihd.net/steamcommunity/public/images/apps/306020/d5a6d5c468d2df68788d3ca3f1c7ed5ac0d70477.jpg",
    "icongray": "https://steamcdn-a.akamaihd.net/steamcommunity/public/images/apps/306020/6ff615b71fc334f4c5592bd5ea8df3be85046c11.jpg"
  },
  {
    "name": "BTD5_ClockOlympian",
    "defaultvalue": 0,
    "displayName": "Clock Olympian",
    "hidden": 0,
    "description": "Earn all 3 medals on Clock map",
    "icon": "https://steamcdn-a.akamaihd.net/steamcommunity/public/images/apps/306020/9b23aee435f432248fbfa5d366d4d5ef09b457d7.jpg",
    "icongray": "https://steamcdn-a.akamaihd.net/steamcommunity/public/images/apps/306020/6ff615b71fc334f4c5592bd5ea8df3be85046c11.jpg"
  },
  {
    "name": "BTD5_CountryRoadCoopOlympian",
    "defaultvalue": 0,
    "displayName": "Country Road Co-Op Olympian",
    "hidden": 0,
    "description": "Earn all 3 medals on Country Road co-op map",
    "icon": "https://steamcdn-a.akamaihd.net/steamcommunity/public/images/apps/306020/627a1021ca16e0e45351e75cded56097093b6e20.jpg",
    "icongray": "https://steamcdn-a.akamaihd.net/steamcommunity/public/images/apps/306020/6ff615b71fc334f4c5592bd5ea8df3be85046c11.jpg"
  },
  {
    "name": "BTD5_CountryRoadOlympian",
    "defaultvalue": 0,
    "displayName": "Country Road Olympian",
    "hidden": 0,
    "description": "Earn all 3 medals on Country Road map",
    "icon": "https://steamcdn-a.akamaihd.net/steamcommunity/public/images/apps/306020/1cfe4d987bf6eb44ebbd1bdcb8a808f817e43c43.jpg",
    "icongray": "https://steamcdn-a.akamaihd.net/steamcommunity/public/images/apps/306020/6ff615b71fc334f4c5592bd5ea8df3be85046c11.jpg"
  },
  {
    "name": "BTD5_CovertPops",
    "defaultvalue": 0,
    "displayName": "Covert Pops",
    "hidden": 0,
    "description": "Complete the Covert Pops Special Mission",
    "icon": "https://steamcdn-a.akamaihd.net/steamcommunity/public/images/apps/306020/94d7e0fcb0b23c37e9b0148d59a6fa0ea3e065d0.jpg",
    "icongray": "https://steamcdn-a.akamaihd.net/steamcommunity/public/images/apps/306020/6ff615b71fc334f4c5592bd5ea8df3be85046c11.jpg"
  },
  {
    "name": "BTD5_DeathValleyOlympian",
    "defaultvalue": 0,
    "displayName": "Death Valley Olympian",
    "hidden": 0,
    "description": "Earn all 3 medals on Death Valley map",
    "icon": "https://steamcdn-a.akamaihd.net/steamcommunity/public/images/apps/306020/0ce61439832a425bee15a5848594f80b454067ca.jpg",
    "icongray": "https://steamcdn-a.akamaihd.net/steamcommunity/public/images/apps/306020/6ff615b71fc334f4c5592bd5ea8df3be85046c11.jpg"
  },
  {
    "name": "BTD5_DocksideOlympian",
    "defaultvalue": 0,
    "displayName": "Dockside Olympian",
    "hidden": 0,
    "description": "Earn all 3 medals on Dockside map",
    "icon": "https://steamcdn-a.akamaihd.net/steamcommunity/public/images/apps/306020/d5842da92907619f14242156f6fd64644cfe6218.jpg",
    "icongray": "https://steamcdn-a.akamaihd.net/steamcommunity/public/images/apps/306020/6ff615b71fc334f4c5592bd5ea8df3be85046c11.jpg"
  },
  {
    "name": "BTD5_DoubleDoubleCrossOlympian",
    "defaultvalue": 0,
    "displayName": "Double Double Cross Olympian",
    "hidden": 0,
    "description": "Earn all 3 medals on Double Double Cross map",
    "icon": "https://steamcdn-a.akamaihd.net/steamcommunity/public/images/apps/306020/fcf52a0cbac495ab7b6afa968448d956dc845b49.jpg",
    "icongray": "https://steamcdn-a.akamaihd.net/steamcommunity/public/images/apps/306020/6ff615b71fc334f4c5592bd5ea8df3be85046c11.jpg"
  },
  {
    "name": "BTD5_DownTheDrainCoopOlympian",
    "defaultvalue": 0,
    "displayName": "Down the Drain Co-Op Olympian",
    "hidden": 0,
    "description": "Earn all 3 medals on Down the Drain co-op map",
    "icon": "https://steamcdn-a.akamaihd.net/steamcommunity/public/images/apps/306020/aa7b3d28d467ebc81f28702461620c9c04f54d16.jpg",
    "icongray": "https://steamcdn-a.akamaihd.net/steamcommunity/public/images/apps/306020/6ff615b71fc334f4c5592bd5ea8df3be85046c11.jpg"
  },
  {
    "name": "BTD5_DownTheDrainOlympian",
    "defaultvalue": 0,
    "displayName": "Down the Drain Olympian",
    "hidden": 0,
    "description": "Earn all 3 medals on Down the Drain map",
    "icon": "https://steamcdn-a.akamaihd.net/steamcommunity/public/images/apps/306020/1d7fa2ff66413a1367aa926160ccdcfbfde2486f.jpg",
    "icongray": "https://steamcdn-a.akamaihd.net/steamcommunity/public/images/apps/306020/6ff615b71fc334f4c5592bd5ea8df3be85046c11.jpg"
  },
  {
    "name": "BTD5_DragStripOlympian",
    "defaultvalue": 0,
    "displayName": "Drag Strip Olympian",
    "hidden": 0,
    "description": "Earn all 3 medals on Drag Strip map",
    "icon": "https://steamcdn-a.akamaihd.net/steamcommunity/public/images/apps/306020/ad6c90a53058f35b54b6ae5cf4779574cb4629e5.jpg",
    "icongray": "https://steamcdn-a.akamaihd.net/steamcommunity/public/images/apps/306020/6ff615b71fc334f4c5592bd5ea8df3be85046c11.jpg"
  },
  {
    "name": "BTD5_DuneSeaCoopOlympian",
    "defaultvalue": 0,
    "displayName": "Dune Sea Co-Op Olympian",
    "hidden": 0,
    "description": "Earn all 3 medals on Dune Sea co-op map",
    "icon": "https://steamcdn-a.akamaihd.net/steamcommunity/public/images/apps/306020/e10641e578d3749529f5d44ba1668c82c0ef1845.jpg",
    "icongray": "https://steamcdn-a.akamaihd.net/steamcommunity/public/images/apps/306020/6ff615b71fc334f4c5592bd5ea8df3be85046c11.jpg"
  },
  {
    "name": "BTD5_DuneSeaOlympian",
    "defaultvalue": 0,
    "displayName": "Dune Sea Olympian",
    "hidden": 0,
    "description": "Earn all 3 medals on Dune Sea map",
    "icon": "https://steamcdn-a.akamaihd.net/steamcommunity/public/images/apps/306020/8687999562243306b2debf0eac6e5fd16a453481.jpg",
    "icongray": "https://steamcdn-a.akamaihd.net/steamcommunity/public/images/apps/306020/6ff615b71fc334f4c5592bd5ea8df3be85046c11.jpg"
  },
  {
    "name": "BTD5_EntirelyRandom",
    "defaultvalue": 0,
    "displayName": "Entirely Random",
    "hidden": 0,
    "description": "Win 250 Random Missions",
    "icon": "https://steamcdn-a.akamaihd.net/steamcommunity/public/images/apps/306020/bde0436cf3cec0bdcacb64dfb307d574c484366e.jpg",
    "icongray": "https://steamcdn-a.akamaihd.net/steamcommunity/public/images/apps/306020/6ff615b71fc334f4c5592bd5ea8df3be85046c11.jpg"
  },
  {
    "name": "BTD5_FastandFurious",
    "defaultvalue": 0,
    "displayName": "Fast And Furious",
    "hidden": 0,
    "description": "Activate all upgrades for Attack Speed",
    "icon": "https://steamcdn-a.akamaihd.net/steamcommunity/public/images/apps/306020/295c1c3036ae30245161abc4fa6e9b872bef7c04.jpg",
    "icongray": "https://steamcdn-a.akamaihd.net/steamcommunity/public/images/apps/306020/6ff615b71fc334f4c5592bd5ea8df3be85046c11.jpg"
  },
  {
    "name": "BTD5_FastTrack",
    "defaultvalue": 0,
    "displayName": "Fast Track",
    "hidden": 0,
    "description": "Complete the Fast Upgrades Special Mission",
    "icon": "https://steamcdn-a.akamaihd.net/steamcommunity/public/images/apps/306020/3e193a1e1f8816a841a4a6da710b54c15dfbe8bd.jpg",
    "icongray": "https://steamcdn-a.akamaihd.net/steamcommunity/public/images/apps/306020/6ff615b71fc334f4c5592bd5ea8df3be85046c11.jpg"
  },
  {
    "name": "BTD5_FireworksOlympian",
    "defaultvalue": 0,
    "displayName": "Fireworks Olympian",
    "hidden": 0,
    "description": "Earn all 3 medals on Fireworks map",
    "icon": "https://steamcdn-a.akamaihd.net/steamcommunity/public/images/apps/306020/d3f8939b312337616cb932ffad0db17a2d14c5a2.jpg",
    "icongray": "https://steamcdn-a.akamaihd.net/steamcommunity/public/images/apps/306020/6ff615b71fc334f4c5592bd5ea8df3be85046c11.jpg"
  },
  {
    "name": "BTD5_FullHouse",
    "defaultvalue": 0,
    "displayName": "Full House",
    "hidden": 0,
    "description": "Complete the Full House Special Mission",
    "icon": "https://steamcdn-a.akamaihd.net/steamcommunity/public/images/apps/306020/d4261815b9bb0f7f9857dae52277e4d6ae2df1d9.jpg",
    "icongray": "https://steamcdn-a.akamaihd.net/steamcommunity/public/images/apps/306020/6ff615b71fc334f4c5592bd5ea8df3be85046c11.jpg"
  },
  {
    "name": "BTD5_GreatDivide",
    "defaultvalue": 0,
    "displayName": "The Great Divide Olympian",
    "hidden": 0,
    "description": "Earn all 3 medals on The Great Divide map",
    "icon": "https://steamcdn-a.akamaihd.net/steamcommunity/public/images/apps/306020/f8a4cf0c01d8401360bb5809b04e38db2cc46ef7.jpg",
    "icongray": "https://steamcdn-a.akamaihd.net/steamcommunity/public/images/apps/306020/6ff615b71fc334f4c5592bd5ea8df3be85046c11.jpg"
  },
  {
    "name": "BTD5_GrottoCoopOlympian",
    "defaultvalue": 0,
    "displayName": "North Pole Co-Op Olympian",
    "hidden": 0,
    "description": "Earn all 3 medals on North Pole co-op map",
    "icon": "https://steamcdn-a.akamaihd.net/steamcommunity/public/images/apps/306020/41965d058375f8e9348a66eae921f3c86c3b199b.jpg",
    "icongray": "https://steamcdn-a.akamaihd.net/steamcommunity/public/images/apps/306020/6ff615b71fc334f4c5592bd5ea8df3be85046c11.jpg"
  },
  {
    "name": "BTD5_GrottoOlympian",
    "defaultvalue": 0,
    "displayName": "North Pole Olympian",
    "hidden": 0,
    "description": "Earn all 3 medals on North Pole map",
    "icon": "https://steamcdn-a.akamaihd.net/steamcommunity/public/images/apps/306020/5dc1d7eef96eb7123b69c4eef3ffd5c7e4543d00.jpg",
    "icongray": "https://steamcdn-a.akamaihd.net/steamcommunity/public/images/apps/306020/6ff615b71fc334f4c5592bd5ea8df3be85046c11.jpg"
  },
  {
    "name": "BTD5_HardBaked",
    "defaultvalue": 0,
    "displayName": "Hard Baked",
    "hidden": 0,
    "description": "Pop 250,000 Ceramic bloons",
    "icon": "https://steamcdn-a.akamaihd.net/steamcommunity/public/images/apps/306020/9e01199b42222ac04d1ba07a3d7e6e906a0f4165.jpg",
    "icongray": "https://steamcdn-a.akamaihd.net/steamcommunity/public/images/apps/306020/6ff615b71fc334f4c5592bd5ea8df3be85046c11.jpg"
  },
  {
    "name": "BTD5_HauntedSwampCoopOlympian",
    "defaultvalue": 0,
    "displayName": "Haunted Swamp Co-Op Olympian",
    "hidden": 0,
    "description": "Earn all 3 medals on Haunted Swamp co-op map",
    "icon": "https://steamcdn-a.akamaihd.net/steamcommunity/public/images/apps/306020/e5669ed9aa309938f87a370246d9e63260397d52.jpg",
    "icongray": "https://steamcdn-a.akamaihd.net/steamcommunity/public/images/apps/306020/6ff615b71fc334f4c5592bd5ea8df3be85046c11.jpg"
  },
  {
    "name": "BTD5_IceFlowCoopOlympian",
    "defaultvalue": 0,
    "displayName": "Ice Flow Co-Op Olympian",
    "hidden": 0,
    "description": "Earn all 3 medals on Ice Flow co-op map",
    "icon": "https://steamcdn-a.akamaihd.net/steamcommunity/public/images/apps/306020/5b0959938a8471db256b52e62019e4429c2045d9.jpg",
    "icongray": "https://steamcdn-a.akamaihd.net/steamcommunity/public/images/apps/306020/6ff615b71fc334f4c5592bd5ea8df3be85046c11.jpg"
  },
  {
    "name": "BTD5_IceFlowOlympian",
    "defaultvalue": 0,
    "displayName": "Ice Flow Olympian",
    "hidden": 0,
    "description": "Earn all 3 medals on Ice Flow map",
    "icon": "https://steamcdn-a.akamaihd.net/steamcommunity/public/images/apps/306020/cab93c261430e74d28b18d93c82a9f4ac2896b14.jpg",
    "icongray": "https://steamcdn-a.akamaihd.net/steamcommunity/public/images/apps/306020/6ff615b71fc334f4c5592bd5ea8df3be85046c11.jpg"
  },
  {
    "name": "BTD5_Impoppable",
    "defaultvalue": 0,
    "displayName": "Impoppable",
    "hidden": 0,
    "description": "Pop 50,000,000 bloons",
    "icon": "https://steamcdn-a.akamaihd.net/steamcommunity/public/images/apps/306020/18e2622fb1b16035c1777c1a0b245689b515d2b5.jpg",
    "icongray": "https://steamcdn-a.akamaihd.net/steamcommunity/public/images/apps/306020/6ff615b71fc334f4c5592bd5ea8df3be85046c11.jpg"
  },
  {
    "name": "BTD5_IncreasinglyRandom",
    "defaultvalue": 0,
    "displayName": "Increasingly Random",
    "hidden": 0,
    "description": "Win 50 Random Missions",
    "icon": "https://steamcdn-a.akamaihd.net/steamcommunity/public/images/apps/306020/6cfff58e6c9290bd60c9f3cc0fd0ab786242042a.jpg",
    "icongray": "https://steamcdn-a.akamaihd.net/steamcommunity/public/images/apps/306020/6ff615b71fc334f4c5592bd5ea8df3be85046c11.jpg"
  },
  {
    "name": "BTD5_Infrared",
    "defaultvalue": 0,
    "displayName": "Infrared",
    "hidden": 0,
    "description": "Pop 250,000 Camo bloons",
    "icon": "https://steamcdn-a.akamaihd.net/steamcommunity/public/images/apps/306020/d1537bd7d6110d541b83ae7e336fddbe07952901.jpg",
    "icongray": "https://steamcdn-a.akamaihd.net/steamcommunity/public/images/apps/306020/6ff615b71fc334f4c5592bd5ea8df3be85046c11.jpg"
  },
  {
    "name": "BTD5_JungleCoopOlympian",
    "defaultvalue": 0,
    "displayName": "Jungle Co-Op Olympian",
    "hidden": 0,
    "description": "Earn all 3 medals on Jungle co-op map",
    "icon": "https://steamcdn-a.akamaihd.net/steamcommunity/public/images/apps/306020/4d960e3e03c2ce609da343cd47ed5a97ae425e0c.jpg",
    "icongray": "https://steamcdn-a.akamaihd.net/steamcommunity/public/images/apps/306020/6ff615b71fc334f4c5592bd5ea8df3be85046c11.jpg"
  },
  {
    "name": "BTD5_JungleOlympian",
    "defaultvalue": 0,
    "displayName": "Jungle Olympian",
    "hidden": 0,
    "description": "Earn all 3 medals on Jungle map",
    "icon": "https://steamcdn-a.akamaihd.net/steamcommunity/public/images/apps/306020/4d960e3e03c2ce609da343cd47ed5a97ae425e0c.jpg",
    "icongray": "https://steamcdn-a.akamaihd.net/steamcommunity/public/images/apps/306020/6ff615b71fc334f4c5592bd5ea8df3be85046c11.jpg"
  },
  {
    "name": "BTD5_LavaFieldsCoopOlympian",
    "defaultvalue": 0,
    "displayName": "Lava Fields Co-op Olympian",
    "hidden": 0,
    "description": "Earn all 3 medals on Lava Fields co-op map",
    "icon": "https://steamcdn-a.akamaihd.net/steamcommunity/public/images/apps/306020/123f5a6c89d3537759fe5b16394dee7f62544641.jpg",
    "icongray": "https://steamcdn-a.akamaihd.net/steamcommunity/public/images/apps/306020/6ff615b71fc334f4c5592bd5ea8df3be85046c11.jpg"
  },
  {
    "name": "BTD5_LavaFieldsOlympian",
    "defaultvalue": 0,
    "displayName": "Lava Fields Olympian",
    "hidden": 0,
    "description": "Earn all 3 medals on Lava Fields map",
    "icon": "https://steamcdn-a.akamaihd.net/steamcommunity/public/images/apps/306020/8a8f80c0982d5bfa9e55b595380071836a9cc852.jpg",
    "icongray": "https://steamcdn-a.akamaihd.net/steamcommunity/public/images/apps/306020/6ff615b71fc334f4c5592bd5ea8df3be85046c11.jpg"
  },
  {
    "name": "BTD5_LightningScarOlympian",
    "defaultvalue": 0,
    "displayName": "Lightning Scar Olympian",
    "hidden": 0,
    "description": "Earn all 3 medals on Lightning Scar map",
    "icon": "https://steamcdn-a.akamaihd.net/steamcommunity/public/images/apps/306020/1de4b2abc1fc7e27f0ec58d6a6611d04f0f41fc1.jpg",
    "icongray": "https://steamcdn-a.akamaihd.net/steamcommunity/public/images/apps/306020/6ff615b71fc334f4c5592bd5ea8df3be85046c11.jpg"
  },
  {
    "name": "BTD5_LobbyOlympian",
    "defaultvalue": 0,
    "displayName": "Lobby Olympian",
    "hidden": 0,
    "description": "Earn all 3 medals on Lobby map",
    "icon": "https://steamcdn-a.akamaihd.net/steamcommunity/public/images/apps/306020/24b24502dfe72b27112b588e340c037873e2314c.jpg",
    "icongray": "https://steamcdn-a.akamaihd.net/steamcommunity/public/images/apps/306020/6ff615b71fc334f4c5592bd5ea8df3be85046c11.jpg"
  },
  {
    "name": "BTD5_LongLived",
    "defaultvalue": 0,
    "displayName": "Long Lived",
    "hidden": 0,
    "description": "Activate all upgrades for Starting Lives",
    "icon": "https://steamcdn-a.akamaihd.net/steamcommunity/public/images/apps/306020/79a4d2691b19209da43550b1fab26c874ab451c4.jpg",
    "icongray": "https://steamcdn-a.akamaihd.net/steamcommunity/public/images/apps/306020/6ff615b71fc334f4c5592bd5ea8df3be85046c11.jpg"
  },
  {
    "name": "BTD5_LongRangeCoopOlympian",
    "defaultvalue": 0,
    "displayName": "Long Range Co-Op Olympian",
    "hidden": 0,
    "description": "Earn all 3 medals on Long Range co-op map",
    "icon": "https://steamcdn-a.akamaihd.net/steamcommunity/public/images/apps/306020/ef0b1d2305b19fe633db8549a59075df5dddb6a8.jpg",
    "icongray": "https://steamcdn-a.akamaihd.net/steamcommunity/public/images/apps/306020/6ff615b71fc334f4c5592bd5ea8df3be85046c11.jpg"
  },
  {
    "name": "BTD5_LongRangeOlympian",
    "defaultvalue": 0,
    "displayName": "Long Range Olympian",
    "hidden": 0,
    "description": "Earn all 3 medals on Long Range map",
    "icon": "https://steamcdn-a.akamaihd.net/steamcommunity/public/images/apps/306020/beb1986c8a681ff776dce554cd158639cca8dca1.jpg",
    "icongray": "https://steamcdn-a.akamaihd.net/steamcommunity/public/images/apps/306020/6ff615b71fc334f4c5592bd5ea8df3be85046c11.jpg"
  },
  {
    "name": "BTD5_MainStreetOlympian",
    "defaultvalue": 0,
    "displayName": "Main Street Olympian",
    "hidden": 0,
    "description": "Earn all 3 medals on Main Street map",
    "icon": "https://steamcdn-a.akamaihd.net/steamcommunity/public/images/apps/306020/9408d5a99bd2b9acb652cb3991c7e0c604ca872d.jpg",
    "icongray": "https://steamcdn-a.akamaihd.net/steamcommunity/public/images/apps/306020/6ff615b71fc334f4c5592bd5ea8df3be85046c11.jpg"
  },
  {
    "name": "BTD5_MazeOlympian",
    "defaultvalue": 0,
    "displayName": "Maze Olympian",
    "hidden": 0,
    "description": "Earn all 3 medals on Maze map",
    "icon": "https://steamcdn-a.akamaihd.net/steamcommunity/public/images/apps/306020/a7dcd600522922bf4fdbbc308cde6e795be0d77e.jpg",
    "icongray": "https://steamcdn-a.akamaihd.net/steamcommunity/public/images/apps/306020/6ff615b71fc334f4c5592bd5ea8df3be85046c11.jpg"
  },
  {
    "name": "BTD5_MissionAccomplished",
    "defaultvalue": 0,
    "displayName": "Mission Accomplished",
    "hidden": 0,
    "description": "Win all 10 launch Special Missions",
    "icon": "https://steamcdn-a.akamaihd.net/steamcommunity/public/images/apps/306020/3807a4040a303dd0767e70119fdbe3df893410f5.jpg",
    "icongray": "https://steamcdn-a.akamaihd.net/steamcommunity/public/images/apps/306020/6ff615b71fc334f4c5592bd5ea8df3be85046c11.jpg"
  },
  {
    "name": "BTD5_MOABAssassin",
    "defaultvalue": 0,
    "displayName": "MOAB Assassin",
    "hidden": 0,
    "description": "Destroy 5000 MOABs",
    "icon": "https://steamcdn-a.akamaihd.net/steamcommunity/public/images/apps/306020/8ec10b2cc4291fd9db3f6d3d7ebf8b0bf2552746.jpg",
    "icongray": "https://steamcdn-a.akamaihd.net/steamcommunity/public/images/apps/306020/6ff615b71fc334f4c5592bd5ea8df3be85046c11.jpg"
  },
  {
    "name": "BTD5_MOABMadness",
    "defaultvalue": 0,
    "displayName": "MOAB Madness",
    "hidden": 0,
    "description": "Complete the MOAB Madness Special Mission",
    "icon": "https://steamcdn-a.akamaihd.net/steamcommunity/public/images/apps/306020/c7325d3b76b8dad35e365d5dd282e5c0c8dd5b59.jpg",
    "icongray": "https://steamcdn-a.akamaihd.net/steamcommunity/public/images/apps/306020/6ff615b71fc334f4c5592bd5ea8df3be85046c11.jpg"
  },
  {
    "name": "BTD5_MOABMauler",
    "defaultvalue": 0,
    "displayName": "MOAB Mauler",
    "hidden": 0,
    "description": "Activate all upgrades for Big Bloons Sabotage",
    "icon": "https://steamcdn-a.akamaihd.net/steamcommunity/public/images/apps/306020/4dbde45efe9bda60688bc48e45ff8bd560410a53.jpg",
    "icongray": "https://steamcdn-a.akamaihd.net/steamcommunity/public/images/apps/306020/6ff615b71fc334f4c5592bd5ea8df3be85046c11.jpg"
  },
  {
    "name": "BTD5_Moneybags",
    "defaultvalue": 0,
    "displayName": "Moneybags",
    "hidden": 0,
    "description": "Activate all upgrades for Starting Cash",
    "icon": "https://steamcdn-a.akamaihd.net/steamcommunity/public/images/apps/306020/a49d0d75a8463d3d740de7324df19feb2893de8a.jpg",
    "icongray": "https://steamcdn-a.akamaihd.net/steamcommunity/public/images/apps/306020/6ff615b71fc334f4c5592bd5ea8df3be85046c11.jpg"
  },
  {
    "name": "BTD5_MonkeyLaneOlympian",
    "defaultvalue": 0,
    "displayName": "Monkey Lane Olympian",
    "hidden": 0,
    "description": "Earn all 3 medals on Monkey Lane map",
    "icon": "https://steamcdn-a.akamaihd.net/steamcommunity/public/images/apps/306020/a7dfe26183ee165002c78492e4d4030ac4897214.jpg",
    "icongray": "https://steamcdn-a.akamaihd.net/steamcommunity/public/images/apps/306020/6ff615b71fc334f4c5592bd5ea8df3be85046c11.jpg"
  },
  {
    "name": "BTD5_MonkeyTown",
    "defaultvalue": 0,
    "displayName": "Protect Monkey Town",
    "hidden": 0,
    "description": "Complete the Protect Monkey Town Special Mission",
    "icon": "https://steamcdn-a.akamaihd.net/steamcommunity/public/images/apps/306020/c50e1a11c177d637a2c761664f6a6146f12c414e.jpg",
    "icongray": "https://steamcdn-a.akamaihd.net/steamcommunity/public/images/apps/306020/6ff615b71fc334f4c5592bd5ea8df3be85046c11.jpg"
  },
  {
    "name": "BTD5_MonkeyTycoon",
    "defaultvalue": 0,
    "displayName": "Monkey Tycoon",
    "hidden": 0,
    "description": "Activate all upgrades for Sell Percentage",
    "icon": "https://steamcdn-a.akamaihd.net/steamcommunity/public/images/apps/306020/8f97b335050ddd14c226a5504934fa8d29a8fb30.jpg",
    "icongray": "https://steamcdn-a.akamaihd.net/steamcommunity/public/images/apps/306020/6ff615b71fc334f4c5592bd5ea8df3be85046c11.jpg"
  },
  {
    "name": "BTD5_MountMagma",
    "defaultvalue": 0,
    "displayName": "Mount Magma Olympian",
    "hidden": 0,
    "description": "Earn all 3 medals on Mount Magma map",
    "icon": "https://steamcdn-a.akamaihd.net/steamcommunity/public/images/apps/306020/1f1ee2ac12d881c0eedda3b9f4fdc23ab66c3ad0.jpg",
    "icongray": "https://steamcdn-a.akamaihd.net/steamcommunity/public/images/apps/306020/6ff615b71fc334f4c5592bd5ea8df3be85046c11.jpg"
  },
  {
    "name": "BTD5_NighImpoppable",
    "defaultvalue": 0,
    "displayName": "Nigh Impoppable",
    "hidden": 0,
    "description": "Demonstrate your skills by winning the Impoppable difficulty medal on 25 or more maps",
    "icon": "https://steamcdn-a.akamaihd.net/steamcommunity/public/images/apps/306020/f3b8127596ac698e0e8f1cac0f0edf1a2bc8df6f.jpg",
    "icongray": "https://steamcdn-a.akamaihd.net/steamcommunity/public/images/apps/306020/6ff615b71fc334f4c5592bd5ea8df3be85046c11.jpg"
  },
  {
    "name": "BTD5_NoEscape",
    "defaultvalue": 0,
    "displayName": "No Escape",
    "hidden": 0,
    "description": "Complete the No Escape Special Mission",
    "icon": "https://steamcdn-a.akamaihd.net/steamcommunity/public/images/apps/306020/eeae3bc28287f89b75f715b42d73f9a48492a4e9.jpg",
    "icongray": "https://steamcdn-a.akamaihd.net/steamcommunity/public/images/apps/306020/6ff615b71fc334f4c5592bd5ea8df3be85046c11.jpg"
  },
  {
    "name": "BTD5_OneDirectionOlympian",
    "defaultvalue": 0,
    "displayName": "Phase Portals Olympian",
    "hidden": 0,
    "description": "Earn all 3 medals on Phase Portals map",
    "icon": "https://steamcdn-a.akamaihd.net/steamcommunity/public/images/apps/306020/893b0a0a5d6972ba26e6ff11dcaa9a95c114453c.jpg",
    "icongray": "https://steamcdn-a.akamaihd.net/steamcommunity/public/images/apps/306020/6ff615b71fc334f4c5592bd5ea8df3be85046c11.jpg"
  },
  {
    "name": "BTD5_ParkPathOlympian",
    "defaultvalue": 0,
    "displayName": "Park Path Olympian",
    "hidden": 0,
    "description": "Earn all 3 medals on Park Path map",
    "icon": "https://steamcdn-a.akamaihd.net/steamcommunity/public/images/apps/306020/1269c77d639671b43c9720e30af1aed5366e6cd4.jpg",
    "icongray": "https://steamcdn-a.akamaihd.net/steamcommunity/public/images/apps/306020/6ff615b71fc334f4c5592bd5ea8df3be85046c11.jpg"
  },
  {
    "name": "BTD5_PatchCoopOlympian",
    "defaultvalue": 0,
    "displayName": "Patch Co-Op Olympian",
    "hidden": 0,
    "description": "Earn all 3 medals on Patch co-op map",
    "icon": "https://steamcdn-a.akamaihd.net/steamcommunity/public/images/apps/306020/b102b3ce72b26ee7ac0a97d44b76a693bdc4dbbe.jpg",
    "icongray": "https://steamcdn-a.akamaihd.net/steamcommunity/public/images/apps/306020/6ff615b71fc334f4c5592bd5ea8df3be85046c11.jpg"
  },
  {
    "name": "BTD5_PatchOlympian",
    "defaultvalue": 0,
    "displayName": "Patch Olympian",
    "hidden": 0,
    "description": "Earn all 3 medals on Patch map",
    "icon": "https://steamcdn-a.akamaihd.net/steamcommunity/public/images/apps/306020/0c51dbc75a79a03f19512d08c98f642eaa1783bd.jpg",
    "icongray": "https://steamcdn-a.akamaihd.net/steamcommunity/public/images/apps/306020/6ff615b71fc334f4c5592bd5ea8df3be85046c11.jpg"
  },
  {
    "name": "BTD5_PerfectWeek",
    "defaultvalue": 0,
    "displayName": "Perfect Week",
    "hidden": 0,
    "description": "Complete all daily challenges in a week.",
    "icon": "https://steamcdn-a.akamaihd.net/steamcommunity/public/images/apps/306020/e849555d853df47f0d3167a6d00af0dd8af6500a.jpg",
    "icongray": "https://steamcdn-a.akamaihd.net/steamcommunity/public/images/apps/306020/6ff615b71fc334f4c5592bd5ea8df3be85046c11.jpg"
  },
  {
    "name": "BTD5_PersistentlyRandom",
    "defaultvalue": 0,
    "displayName": "Persistently Random",
    "hidden": 0,
    "description": "Win 100 Random Missions",
    "icon": "https://steamcdn-a.akamaihd.net/steamcommunity/public/images/apps/306020/860404da0c5328e3ffe72b4e72ec67c4a8faa4ee.jpg",
    "icongray": "https://steamcdn-a.akamaihd.net/steamcommunity/public/images/apps/306020/6ff615b71fc334f4c5592bd5ea8df3be85046c11.jpg"
  },
  {
    "name": "BTD5_PointyBits",
    "defaultvalue": 0,
    "displayName": "Pointy Bits",
    "hidden": 0,
    "description": "Activate all upgrades for Pierce",
    "icon": "https://steamcdn-a.akamaihd.net/steamcommunity/public/images/apps/306020/827d12bbf92e3eddbc575496302dca13667d85e3.jpg",
    "icongray": "https://steamcdn-a.akamaihd.net/steamcommunity/public/images/apps/306020/6ff615b71fc334f4c5592bd5ea8df3be85046c11.jpg"
  },
  {
    "name": "BTD5_Poppable",
    "defaultvalue": 0,
    "displayName": "Poppable",
    "hidden": 0,
    "description": "Achieve glorious victory on any map on Impoppable difficulty",
    "icon": "https://steamcdn-a.akamaihd.net/steamcommunity/public/images/apps/306020/0801880064e08ecb6ea3eaa9609b14fdef2a09b5.jpg",
    "icongray": "https://steamcdn-a.akamaihd.net/steamcommunity/public/images/apps/306020/6ff615b71fc334f4c5592bd5ea8df3be85046c11.jpg"
  },
  {
    "name": "BTD5_Reverse",
    "defaultvalue": 0,
    "displayName": "Role Reverser",
    "hidden": 0,
    "description": "Complete any track in reverse",
    "icon": "https://steamcdn-a.akamaihd.net/steamcommunity/public/images/apps/306020/93dee95bf489ad302afeb0d525f09c956bf985e9.jpg",
    "icongray": "https://steamcdn-a.akamaihd.net/steamcommunity/public/images/apps/306020/6ff615b71fc334f4c5592bd5ea8df3be85046c11.jpg"
  },
  {
    "name": "BTD5_RinkRevengeCoopOlympian",
    "defaultvalue": 0,
    "displayName": "Rink Revenge Co-Op Olympian",
    "hidden": 0,
    "description": "Earn all 3 medals on Rink Revenge co-op map",
    "icon": "https://steamcdn-a.akamaihd.net/steamcommunity/public/images/apps/306020/2ff5301fde7676614a34218931794f09386d7a0c.jpg",
    "icongray": "https://steamcdn-a.akamaihd.net/steamcommunity/public/images/apps/306020/6ff615b71fc334f4c5592bd5ea8df3be85046c11.jpg"
  },
  {
    "name": "BTD5_RinkRevengeOlympian",
    "defaultvalue": 0,
    "displayName": "Rink Revenge Olympian",
    "hidden": 0,
    "description": "Earn all 3 medals on Rink Revenge map",
    "icon": "https://steamcdn-a.akamaihd.net/steamcommunity/public/images/apps/306020/be10601694c58294d1c5ff3650d39829e5debfa9.jpg",
    "icongray": "https://steamcdn-a.akamaihd.net/steamcommunity/public/images/apps/306020/6ff615b71fc334f4c5592bd5ea8df3be85046c11.jpg"
  },
  {
    "name": "BTD5_RunwayCoopOlympian",
    "defaultvalue": 0,
    "displayName": "Runway Co-Op Olympian",
    "hidden": 0,
    "description": "Earn all 3 medals on Runway co-op map",
    "icon": "https://steamcdn-a.akamaihd.net/steamcommunity/public/images/apps/306020/a883dd2fa22c7224c56cd1ab0cbbc8fc3bb81190.jpg",
    "icongray": "https://steamcdn-a.akamaihd.net/steamcommunity/public/images/apps/306020/6ff615b71fc334f4c5592bd5ea8df3be85046c11.jpg"
  },
  {
    "name": "BTD5_RunwayOlympian",
    "defaultvalue": 0,
    "displayName": "Runway Olympian",
    "hidden": 0,
    "description": "Earn all 3 medals on Runway map",
    "icon": "https://steamcdn-a.akamaihd.net/steamcommunity/public/images/apps/306020/0012ab83c61fa31d369c2e221cb0c3e098d0b6b0.jpg",
    "icongray": "https://steamcdn-a.akamaihd.net/steamcommunity/public/images/apps/306020/6ff615b71fc334f4c5592bd5ea8df3be85046c11.jpg"
  },
  {
    "name": "BTD5_ScorchedEarthCoopOlympian",
    "defaultvalue": 0,
    "displayName": "Scorched Earth Co-Op Olympian",
    "hidden": 0,
    "description": "Earn all 3 medals on Scorched Earth co-op map",
    "icon": "https://steamcdn-a.akamaihd.net/steamcommunity/public/images/apps/306020/b360f3a433d727bec6d04060c8d2e63b5ebe5a71.jpg",
    "icongray": "https://steamcdn-a.akamaihd.net/steamcommunity/public/images/apps/306020/6ff615b71fc334f4c5592bd5ea8df3be85046c11.jpg"
  },
  {
    "name": "BTD5_ScorchedEarthOlympian",
    "defaultvalue": 0,
    "displayName": "Scorched Earth Olympian",
    "hidden": 0,
    "description": "Earn all 3 medals on Scorched Earth map",
    "icon": "https://steamcdn-a.akamaihd.net/steamcommunity/public/images/apps/306020/ed51281a77ad3a98fead71514a33837297511c9f.jpg",
    "icongray": "https://steamcdn-a.akamaihd.net/steamcommunity/public/images/apps/306020/6ff615b71fc334f4c5592bd5ea8df3be85046c11.jpg"
  },
  {
    "name": "BTD5_ShortLived",
    "defaultvalue": 0,
    "displayName": "Short-Lived",
    "hidden": 0,
    "description": "Complete the Short-Lived Special Mission",
    "icon": "https://steamcdn-a.akamaihd.net/steamcommunity/public/images/apps/306020/d537fa48e7728e5a8c141b4d7f2fd594fbe88289.jpg",
    "icongray": "https://steamcdn-a.akamaihd.net/steamcommunity/public/images/apps/306020/6ff615b71fc334f4c5592bd5ea8df3be85046c11.jpg"
  },
  {
    "name": "BTD5_SkullPeakOlympian",
    "defaultvalue": 0,
    "displayName": "Mountain Skull Peak Olympian",
    "hidden": 0,
    "description": "Earn all 3 medals on Mountain Skull Peak map",
    "icon": "https://steamcdn-a.akamaihd.net/steamcommunity/public/images/apps/306020/8f93cdbd1df6d42ce415097c50949259bdbd1b7c.jpg",
    "icongray": "https://steamcdn-a.akamaihd.net/steamcommunity/public/images/apps/306020/6ff615b71fc334f4c5592bd5ea8df3be85046c11.jpg"
  },
  {
    "name": "BTD5_SlalomOlympian",
    "defaultvalue": 0,
    "displayName": "Slalom Olympian",
    "hidden": 0,
    "description": "Earn all 3 medals on Slalom map",
    "icon": "https://steamcdn-a.akamaihd.net/steamcommunity/public/images/apps/306020/e436892de4fd5a49c9137d7f2b682622b3d0b801.jpg",
    "icongray": "https://steamcdn-a.akamaihd.net/steamcommunity/public/images/apps/306020/6ff615b71fc334f4c5592bd5ea8df3be85046c11.jpg"
  },
  {
    "name": "BTD5_SnakeRiverCoopOlympian",
    "defaultvalue": 0,
    "displayName": "Snake River Co-Op Olympian",
    "hidden": 0,
    "description": "Earn all 3 medals on Snake River co-op map",
    "icon": "https://steamcdn-a.akamaihd.net/steamcommunity/public/images/apps/306020/941da18540fe8dd63adfb1deed92ff6384c8dbe5.jpg",
    "icongray": "https://steamcdn-a.akamaihd.net/steamcommunity/public/images/apps/306020/6ff615b71fc334f4c5592bd5ea8df3be85046c11.jpg"
  },
  {
    "name": "BTD5_SnakeRiverOlympian",
    "defaultvalue": 0,
    "displayName": "Snake River Olympian",
    "hidden": 0,
    "description": "Earn all 3 medals on Snake River map",
    "icon": "https://steamcdn-a.akamaihd.net/steamcommunity/public/images/apps/306020/6db3379e1ad1f4cf29d5ef172df64a57178883b6.jpg",
    "icongray": "https://steamcdn-a.akamaihd.net/steamcommunity/public/images/apps/306020/6ff615b71fc334f4c5592bd5ea8df3be85046c11.jpg"
  },
  {
    "name": "BTD5_SomewhatRandom",
    "defaultvalue": 0,
    "displayName": "Somewhat Random",
    "hidden": 0,
    "description": "Win 10 Random Missions",
    "icon": "https://steamcdn-a.akamaihd.net/steamcommunity/public/images/apps/306020/11e5f13dc519ca822313dd95150c4991f1ae3cdb.jpg",
    "icongray": "https://steamcdn-a.akamaihd.net/steamcommunity/public/images/apps/306020/6ff615b71fc334f4c5592bd5ea8df3be85046c11.jpg"
  },
  {
    "name": "BTD5_SouthCoastCoopOlympian",
    "defaultvalue": 0,
    "displayName": "South Coast Co-Op Olympian",
    "hidden": 0,
    "description": "Earn all 3 medals on South Coast co-op map",
    "icon": "https://steamcdn-a.akamaihd.net/steamcommunity/public/images/apps/306020/178891f0368b3955fff46049ed7f29f29c28be3b.jpg",
    "icongray": "https://steamcdn-a.akamaihd.net/steamcommunity/public/images/apps/306020/6ff615b71fc334f4c5592bd5ea8df3be85046c11.jpg"
  },
  {
    "name": "BTD5_SpaceTruckinOlympian",
    "defaultvalue": 0,
    "displayName": "Space Truckin' Olympian",
    "hidden": 0,
    "description": "Earn all 3 medals on Space Truckin' map",
    "icon": "https://steamcdn-a.akamaihd.net/steamcommunity/public/images/apps/306020/012ad16297739de07b62949110386ea82de6484f.jpg",
    "icongray": "https://steamcdn-a.akamaihd.net/steamcommunity/public/images/apps/306020/6ff615b71fc334f4c5592bd5ea8df3be85046c11.jpg"
  },
  {
    "name": "BTD5_SpecialAgentsOnly",
    "defaultvalue": 0,
    "displayName": "Isn't That Special",
    "hidden": 0,
    "description": "Complete the Special Agents Only Special Mission",
    "icon": "https://steamcdn-a.akamaihd.net/steamcommunity/public/images/apps/306020/f9b08481436f882195358f2ee69d583131070219.jpg",
    "icongray": "https://steamcdn-a.akamaihd.net/steamcommunity/public/images/apps/306020/6ff615b71fc334f4c5592bd5ea8df3be85046c11.jpg"
  },
  {
    "name": "BTD5_SpiderMapCoopOlympian",
    "defaultvalue": 0,
    "displayName": "Spider Map Co-Op Olympian",
    "hidden": 0,
    "description": "Earn all 3 medals on Spider Map co-op map",
    "icon": "https://steamcdn-a.akamaihd.net/steamcommunity/public/images/apps/306020/bcfc6160369d379723a9f26be0dda73dcf0388ff.jpg",
    "icongray": "https://steamcdn-a.akamaihd.net/steamcommunity/public/images/apps/306020/6ff615b71fc334f4c5592bd5ea8df3be85046c11.jpg"
  },
  {
    "name": "BTD5_Steeley",
    "defaultvalue": 0,
    "displayName": "Steeley",
    "hidden": 0,
    "description": "Pop 250,000 Lead bloons",
    "icon": "https://steamcdn-a.akamaihd.net/steamcommunity/public/images/apps/306020/45f5217ce2a5aab593aefd457fdcf5e3d612cf45.jpg",
    "icongray": "https://steamcdn-a.akamaihd.net/steamcommunity/public/images/apps/306020/6ff615b71fc334f4c5592bd5ea8df3be85046c11.jpg"
  },
  {
    "name": "BTD5_SwitchOlympian",
    "defaultvalue": 0,
    "displayName": "Switch Olympian",
    "hidden": 0,
    "description": "Earn all 3 medals on Switch map",
    "icon": "https://steamcdn-a.akamaihd.net/steamcommunity/public/images/apps/306020/56481bc7ca863b7bdf1793c328caa03ab4574db6.jpg",
    "icongray": "https://steamcdn-a.akamaihd.net/steamcommunity/public/images/apps/306020/6ff615b71fc334f4c5592bd5ea8df3be85046c11.jpg"
  },
  {
    "name": "BTD5_TheEyeCoopOlympian",
    "defaultvalue": 0,
    "displayName": "The Eye Co-Op Olympian",
    "hidden": 0,
    "description": "Earn all 3 medals on The Eye co-op map",
    "icon": "https://steamcdn-a.akamaihd.net/steamcommunity/public/images/apps/306020/231aad2b30e416d2fb1d77865578a1133e1f2ab6.jpg",
    "icongray": "https://steamcdn-a.akamaihd.net/steamcommunity/public/images/apps/306020/6ff615b71fc334f4c5592bd5ea8df3be85046c11.jpg"
  },
  {
    "name": "BTD5_TheEyeOlympian",
    "defaultvalue": 0,
    "displayName": "The Eye Olympian",
    "hidden": 0,
    "description": "Earn all 3 medals on The Eye map",
    "icon": "https://steamcdn-a.akamaihd.net/steamcommunity/public/images/apps/306020/b41d6613c675bfb6504a0714ee4541938b1a8fd1.jpg",
    "icongray": "https://steamcdn-a.akamaihd.net/steamcommunity/public/images/apps/306020/6ff615b71fc334f4c5592bd5ea8df3be85046c11.jpg"
  },
  {
    "name": "BTD5_TheGreatDivideCoopOlympian",
    "defaultvalue": 0,
    "displayName": "The Great Divide Co-Op Olympian",
    "hidden": 0,
    "description": "Earn all 3 medals on The Great Divide co-op map",
    "icon": "https://steamcdn-a.akamaihd.net/steamcommunity/public/images/apps/306020/0dcf0115e79cbe0ff0c8f82df0b444b566136bdf.jpg",
    "icongray": "https://steamcdn-a.akamaihd.net/steamcommunity/public/images/apps/306020/6ff615b71fc334f4c5592bd5ea8df3be85046c11.jpg"
  },
  {
    "name": "BTD5_TheRinkOlympian",
    "defaultvalue": 0,
    "displayName": "The Rink Olympian",
    "hidden": 0,
    "description": "Earn all 3 medals on The Rink map",
    "icon": "https://steamcdn-a.akamaihd.net/steamcommunity/public/images/apps/306020/cce223bb9094dd2a108f6f3eea2ed47b6881a08d.jpg",
    "icongray": "https://steamcdn-a.akamaihd.net/steamcommunity/public/images/apps/306020/6ff615b71fc334f4c5592bd5ea8df3be85046c11.jpg"
  },
  {
    "name": "BTD5_TokenAffection",
    "defaultvalue": 0,
    "displayName": "A Token of My Affection",
    "hidden": 0,
    "description": "Collect 50 Tokens",
    "icon": "https://steamcdn-a.akamaihd.net/steamcommunity/public/images/apps/306020/87c5ca6cb7808c5b3faaf2a595c9dac8cf50241f.jpg",
    "icongray": "https://steamcdn-a.akamaihd.net/steamcommunity/public/images/apps/306020/6ff615b71fc334f4c5592bd5ea8df3be85046c11.jpg"
  },
  {
    "name": "BTD5_TrackStar",
    "defaultvalue": 0,
    "displayName": "Track Star",
    "hidden": 0,
    "description": "Win all launch tracks on any difficulty",
    "icon": "https://steamcdn-a.akamaihd.net/steamcommunity/public/images/apps/306020/c6d90a60d1cbc4015685fa5e16f40f4621ab8277.jpg",
    "icongray": "https://steamcdn-a.akamaihd.net/steamcommunity/public/images/apps/306020/6ff615b71fc334f4c5592bd5ea8df3be85046c11.jpg"
  },
  {
    "name": "BTD5_TreetopsCoopOlympian",
    "defaultvalue": 0,
    "displayName": "Treetop Co-Op Olympian",
    "hidden": 0,
    "description": "Earn all 3 medals on Treetop co-op map",
    "icon": "https://steamcdn-a.akamaihd.net/steamcommunity/public/images/apps/306020/0a9604a35c2262b9098c4c08ba17d573c9616f55.jpg",
    "icongray": "https://steamcdn-a.akamaihd.net/steamcommunity/public/images/apps/306020/6ff615b71fc334f4c5592bd5ea8df3be85046c11.jpg"
  },
  {
    "name": "BTD5_TreetopsOlympian",
    "defaultvalue": 0,
    "displayName": "Treetop Olympian",
    "hidden": 0,
    "description": "Earn all 3 medals on Treetop map",
    "icon": "https://steamcdn-a.akamaihd.net/steamcommunity/public/images/apps/306020/fad84868d775601b041d53e12dad1ea6a7d51890.jpg",
    "icongray": "https://steamcdn-a.akamaihd.net/steamcommunity/public/images/apps/306020/6ff615b71fc334f4c5592bd5ea8df3be85046c11.jpg"
  },
  {
    "name": "BTD5_TunnelsOlympian",
    "defaultvalue": 0,
    "displayName": "Tunnels Olympian",
    "hidden": 0,
    "description": "Earn all 3 medals on Tunnels map",
    "icon": "https://steamcdn-a.akamaihd.net/steamcommunity/public/images/apps/306020/db771816afe4ae6169f04233f68ccf31905aedb2.jpg",
    "icongray": "https://steamcdn-a.akamaihd.net/steamcommunity/public/images/apps/306020/6ff615b71fc334f4c5592bd5ea8df3be85046c11.jpg"
  },
  {
    "name": "BTD5_UltimateAgent",
    "defaultvalue": 0,
    "displayName": "Ultimate Agent",
    "hidden": 0,
    "description": "Get all launch Special Agents to Pro status",
    "icon": "https://steamcdn-a.akamaihd.net/steamcommunity/public/images/apps/306020/c60fb7fae9755d69154c6d17211ac6a300731cfc.jpg",
    "icongray": "https://steamcdn-a.akamaihd.net/steamcommunity/public/images/apps/306020/6ff615b71fc334f4c5592bd5ea8df3be85046c11.jpg"
  },
  {
    "name": "BTD5_UltimateSpecialist",
    "defaultvalue": 0,
    "displayName": "Ultimate Specialist",
    "hidden": 0,
    "description": "Fully upgrade all launch Specialty Buildings",
    "icon": "https://steamcdn-a.akamaihd.net/steamcommunity/public/images/apps/306020/db5e450d0565c630908cacb293581f00ef19f276.jpg",
    "icongray": "https://steamcdn-a.akamaihd.net/steamcommunity/public/images/apps/306020/6ff615b71fc334f4c5592bd5ea8df3be85046c11.jpg"
  },
  {
    "name": "BTD5_UnfairShareCoopOlympian",
    "defaultvalue": 0,
    "displayName": "Unfair Share Co-Op Olympian",
    "hidden": 0,
    "description": "Earn all 3 medals on Unfair Share co-op map",
    "icon": "https://steamcdn-a.akamaihd.net/steamcommunity/public/images/apps/306020/f1bd0d3e25d80d04631cbaa731051024bbcfcc04.jpg",
    "icongray": "https://steamcdn-a.akamaihd.net/steamcommunity/public/images/apps/306020/6ff615b71fc334f4c5592bd5ea8df3be85046c11.jpg"
  },
  {
    "name": "BTD5_UTurnCoopOlympian",
    "defaultvalue": 0,
    "displayName": "U-Turn Co-Op Olympian",
    "hidden": 0,
    "description": "Earn all 3 medals on U-Turn co-op map",
    "icon": "https://steamcdn-a.akamaihd.net/steamcommunity/public/images/apps/306020/43f93672223fd0c47967db93383565839db49548.jpg",
    "icongray": "https://steamcdn-a.akamaihd.net/steamcommunity/public/images/apps/306020/6ff615b71fc334f4c5592bd5ea8df3be85046c11.jpg"
  },
  {
    "name": "BTD5_UTurnOlympian",
    "defaultvalue": 0,
    "displayName": "U-Turn Olympian",
    "hidden": 0,
    "description": "Earn all 3 medals on U-Turn map",
    "icon": "https://steamcdn-a.akamaihd.net/steamcommunity/public/images/apps/306020/71872b92352cade36ae2861d751fe3a4005c5d23.jpg",
    "icongray": "https://steamcdn-a.akamaihd.net/steamcommunity/public/images/apps/306020/6ff615b71fc334f4c5592bd5ea8df3be85046c11.jpg"
  },
  {
    "name": "BTD5_WaterHazardCoopOlympian",
    "defaultvalue": 0,
    "displayName": "Water Hazard Co-Op Olympian",
    "hidden": 0,
    "description": "Earn all 3 medals on Water Hazard co-op map",
    "icon": "https://steamcdn-a.akamaihd.net/steamcommunity/public/images/apps/306020/fe8ba2f6b4b0fc115c0ce2307f1c06bccbbc5665.jpg",
    "icongray": "https://steamcdn-a.akamaihd.net/steamcommunity/public/images/apps/306020/6ff615b71fc334f4c5592bd5ea8df3be85046c11.jpg"
  },
  {
    "name": "BTD5_WaterHazardOlympian",
    "defaultvalue": 0,
    "displayName": "Water Hazard Olympian",
    "hidden": 0,
    "description": "Earn all 3 medals on Water Hazard map",
    "icon": "https://steamcdn-a.akamaihd.net/steamcommunity/public/images/apps/306020/4cf082f0149fe0623465d1c02a4f7436a715c69b.jpg",
    "icongray": "https://steamcdn-a.akamaihd.net/steamcommunity/public/images/apps/306020/6ff615b71fc334f4c5592bd5ea8df3be85046c11.jpg"
  },
  {
    "name": "BTD5_WizardLord",
    "defaultvalue": 0,
    "displayName": "Wizard Lord",
    "hidden": 0,
    "description": "Complete the Wizard Lord Special Mission",
    "icon": "https://steamcdn-a.akamaihd.net/steamcommunity/public/images/apps/306020/48c757fc5c25bd3c4b44c5f6d759bd4ffec4435c.jpg",
    "icongray": "https://steamcdn-a.akamaihd.net/steamcommunity/public/images/apps/306020/6ff615b71fc334f4c5592bd5ea8df3be85046c11.jpg"
  },
  {
    "name": "BTD5_WorkshopOlympian",
    "defaultvalue": 0,
    "displayName": "Workshop Olympian",
    "hidden": 0,
    "description": "Earn all 3 medals on the Workshop map",
    "icon": "https://steamcdn-a.akamaihd.net/steamcommunity/public/images/apps/306020/e42573b50677d8f24dc1062e94dd865be49739a9.jpg",
    "icongray": "https://steamcdn-a.akamaihd.net/steamcommunity/public/images/apps/306020/6ff615b71fc334f4c5592bd5ea8df3be85046c11.jpg"
  },
  {
    "name": "BTD5_ZFactorCoopOlympian",
    "defaultvalue": 0,
    "displayName": "Z Factor Co-Op Olympian",
    "hidden": 0,
    "description": "Earn all 3 medals on Z Factor co-op map",
    "icon": "https://steamcdn-a.akamaihd.net/steamcommunity/public/images/apps/306020/cf26a7162ccf3e862be4cccabed342e22102a3f4.jpg",
    "icongray": "https://steamcdn-a.akamaihd.net/steamcommunity/public/images/apps/306020/6ff615b71fc334f4c5592bd5ea8df3be85046c11.jpg"
  },
  {
    "name": "BTD5_ZFactorOlympian",
    "defaultvalue": 0,
    "displayName": "Z Factor Olympian",
    "hidden": 0,
    "description": "Earn all 3 medals on Z Factor map",
    "icon": "https://steamcdn-a.akamaihd.net/steamcommunity/public/images/apps/306020/39d9e1e1d97c1b0118ce78e85e2ce3996fa4159e.jpg",
    "icongray": "https://steamcdn-a.akamaihd.net/steamcommunity/public/images/apps/306020/6ff615b71fc334f4c5592bd5ea8df3be85046c11.jpg"
  },
  {
    "name": "BTD5_ZOMGinator",
    "defaultvalue": 0,
    "displayName": "ZOMGinator",
    "hidden": 0,
    "description": "Destroy 1000 ZOMGs",
    "icon": "https://steamcdn-a.akamaihd.net/steamcommunity/public/images/apps/306020/bd46478978b1ba99f9b96500e54db1fc3139bf11.jpg",
    "icongray": "https://steamcdn-a.akamaihd.net/steamcommunity/public/images/apps/306020/6ff615b71fc334f4c5592bd5ea8df3be85046c11.jpg"
  },
  {
    "name": "BTD5_CheckersOlympian",
    "defaultvalue": 0,
    "displayName": "Checkers Olympian",
    "hidden": 0,
    "description": "Earn all 3 medals on Checkers map",
    "icon": "https://steamcdn-a.akamaihd.net/steamcommunity/public/images/apps/306020/026b13f0fa854b0fd550d4d3c4516c3b07a66d0b.jpg",
    "icongray": "https://steamcdn-a.akamaihd.net/steamcommunity/public/images/apps/306020/6ff615b71fc334f4c5592bd5ea8df3be85046c11.jpg"
  },
  {
    "name": "BTD5_CheckersCoopOlympian",
    "defaultvalue": 0,
    "displayName": "Checkers Co-Op Olympian",
    "hidden": 0,
    "description": "Earn all 3 medals on Checkers co-op map",
    "icon": "https://steamcdn-a.akamaihd.net/steamcommunity/public/images/apps/306020/9c7ab2786c565c8498f91464fb1a07cc716639da.jpg",
    "icongray": "https://steamcdn-a.akamaihd.net/steamcommunity/public/images/apps/306020/6ff615b71fc334f4c5592bd5ea8df3be85046c11.jpg"
  },
  {
    "name": "BTD5_CryptKeeperOlympian",
    "defaultvalue": 0,
    "displayName": "Crypt Keeper Olympian",
    "hidden": 0,
    "description": "Earn all 3 medals on Crypt Keeper map",
    "icon": "https://steamcdn-a.akamaihd.net/steamcommunity/public/images/apps/306020/b4751e67fd0994bd73e19bec8e589ef37ba4249a.jpg",
    "icongray": "https://steamcdn-a.akamaihd.net/steamcommunity/public/images/apps/306020/5ae63426d9d1c32cf3bff5e0d1b2565f6b3c1c34.jpg"
  },
  {
    "name": "BTD5_CryptKeeperCoopOlympian",
    "defaultvalue": 0,
    "displayName": "Crypt Keeper Co-Op Olympian",
    "hidden": 0,
    "description": "Earn all 3 medals on Crypt Keeper co-op map",
    "icon": "https://steamcdn-a.akamaihd.net/steamcommunity/public/images/apps/306020/e4be39d0d21c075eb103c6c63df20edab967c088.jpg",
    "icongray": "https://steamcdn-a.akamaihd.net/steamcommunity/public/images/apps/306020/5ae63426d9d1c32cf3bff5e0d1b2565f6b3c1c34.jpg"
  },
  {
    "name": "BTD5_CandylandOlympian",
    "defaultvalue": 0,
    "displayName": "Candyland Olympian",
    "hidden": 0,
    "description": "Earn all 3 medals on Candyland map",
    "icon": "https://steamcdn-a.akamaihd.net/steamcommunity/public/images/apps/306020/5921b50cb8c85d88c46279b78ddae73716aff693.jpg",
    "icongray": "https://steamcdn-a.akamaihd.net/steamcommunity/public/images/apps/306020/5ae63426d9d1c32cf3bff5e0d1b2565f6b3c1c34.jpg"
  },
  {
    "name": "BTD5_CandylandCoopOlympian",
    "defaultvalue": 0,
    "displayName": "Candyland Co-Op Olympian",
    "hidden": 0,
    "description": "Earn all 3 medals on Candyland co-op map",
    "icon": "https://steamcdn-a.akamaihd.net/steamcommunity/public/images/apps/306020/e8a1432c64f7ec72eeb9a8d5459277341d33fedf.jpg",
    "icongray": "https://steamcdn-a.akamaihd.net/steamcommunity/public/images/apps/306020/5ae63426d9d1c32cf3bff5e0d1b2565f6b3c1c34.jpg"
  },
  {
    "name": "BTD5_ExpressShipping",
    "defaultvalue": 0,
    "displayName": "Express Shipping Olympian",
    "hidden": 0,
    "description": "Earn all 3 medals on Express Shipping map",
    "icon": "https://steamcdn-a.akamaihd.net/steamcommunity/public/images/apps/306020/79d9646369fff20a881a127394d7561490de0b44.jpg",
    "icongray": "https://steamcdn-a.akamaihd.net/steamcommunity/public/images/apps/306020/5ae63426d9d1c32cf3bff5e0d1b2565f6b3c1c34.jpg"
  },
  {
    "name": "BTD5_Pyramids",
    "defaultvalue": 0,
    "displayName": "Pyramids Olympian",
    "hidden": 0,
    "description": "Earn all 3 medals on Pyramids map",
    "icon": "https://steamcdn-a.akamaihd.net/steamcommunity/public/images/apps/306020/3984966b17837a8aba126d1bee6bd34b8462f3fe.jpg",
    "icongray": "https://steamcdn-a.akamaihd.net/steamcommunity/public/images/apps/306020/5ae63426d9d1c32cf3bff5e0d1b2565f6b3c1c34.jpg"
  },
  {
    "name": "BTD5_TarPit",
    "defaultvalue": 0,
    "displayName": "Tar Pit Olympian",
    "hidden": 0,
    "description": "Earn all 3 medals on Tar Pit map",
    "icon": "https://steamcdn-a.akamaihd.net/steamcommunity/public/images/apps/306020/10c57fdf534541f688f133aa16104a1c02f8d425.jpg",
    "icongray": "https://steamcdn-a.akamaihd.net/steamcommunity/public/images/apps/306020/5ae63426d9d1c32cf3bff5e0d1b2565f6b3c1c34.jpg"
  }
]