{
  "Dlcs": {},
  "Name": "Keep It Safe 2",
  "AppId": "660280",
  "ImageUrl": "https://steamcdn-a.akamaihd.net/steam/apps/660280/header.jpg?t=1500004464",
  "Languages": [
    "english"
  ],
  "Platforms": {
    "windows": true,
    "mac": false,
    "linux": false
  }
}