{
  "Dlcs": {},
  "Name": "Tiger Striker",
  "AppId": "945550",
  "ImageUrl": "https://steamcdn-a.akamaihd.net/steam/apps/945550/header.jpg?t=1572161929",
  "Languages": [
    "english"
  ],
  "Platforms": {
    "windows": true,
    "mac": false,
    "linux": false
  }
}