{
  "Dlcs": {},
  "Name": "Lonely Red Night",
  "AppId": "1330510",
  "ImageUrl": "https://steamcdn-a.akamaihd.net/steam/apps/1330510/header.jpg?t=1596031129",
  "Languages": [
    "schinese"
  ],
  "Platforms": {
    "windows": true,
    "mac": false,
    "linux": false
  }
}