{
  "Dlcs": {},
  "Name": "Rise: The Vieneo Province",
  "AppId": "795990",
  "ImageUrl": "https://steamcdn-a.akamaihd.net/steam/apps/795990/header.jpg?t=1595960272",
  "Languages": [
    "english",
    "french",
    "italian",
    "german",
    "spanish",
    "dutch",
    "greek",
    "japanese",
    "korean",
    "portuguese",
    "russian",
    "schinese",
    "latam"
  ],
  "Platforms": {
    "windows": true,
    "mac": false,
    "linux": false
  }
}