[
  {
    "name": "NEW_ACHIEVEMENT_1_1",
    "defaultvalue": 0,
    "displayName": "Level 1",
    "hidden": 0,
    "description": "Complete Level 1",
    "icon": "https://steamcdn-a.akamaihd.net/steamcommunity/public/images/apps/1216660/e95e3696a379f71f5fe761ee69f3497eca3c6294.jpg",
    "icongray": "https://steamcdn-a.akamaihd.net/steamcommunity/public/images/apps/1216660/5bcf769f888ffa92e0b1a1e7a33b4773f68c9521.jpg"
  },
  {
    "name": "NEW_ACHIEVEMENT_1_2",
    "defaultvalue": 0,
    "displayName": "Level 1",
    "hidden": 0,
    "description": "Complete Level 1",
    "icon": "https://steamcdn-a.akamaihd.net/steamcommunity/public/images/apps/1216660/e95e3696a379f71f5fe761ee69f3497eca3c6294.jpg",
    "icongray": "https://steamcdn-a.akamaihd.net/steamcommunity/public/images/apps/1216660/5bcf769f888ffa92e0b1a1e7a33b4773f68c9521.jpg"
  },
  {
    "name": "NEW_ACHIEVEMENT_1_3",
    "defaultvalue": 0,
    "displayName": "Level 1",
    "hidden": 0,
    "description": "Complete Level 1",
    "icon": "https://steamcdn-a.akamaihd.net/steamcommunity/public/images/apps/1216660/e95e3696a379f71f5fe761ee69f3497eca3c6294.jpg",
    "icongray": "https://steamcdn-a.akamaihd.net/steamcommunity/public/images/apps/1216660/5bcf769f888ffa92e0b1a1e7a33b4773f68c9521.jpg"
  },
  {
    "name": "NEW_ACHIEVEMENT_1_4",
    "defaultvalue": 0,
    "displayName": "Level 1",
    "hidden": 0,
    "description": "Complete Level 1",
    "icon": "https://steamcdn-a.akamaihd.net/steamcommunity/public/images/apps/1216660/e95e3696a379f71f5fe761ee69f3497eca3c6294.jpg",
    "icongray": "https://steamcdn-a.akamaihd.net/steamcommunity/public/images/apps/1216660/5bcf769f888ffa92e0b1a1e7a33b4773f68c9521.jpg"
  },
  {
    "name": "NEW_ACHIEVEMENT_1_5",
    "defaultvalue": 0,
    "displayName": "Level 1",
    "hidden": 0,
    "description": "Complete Level 1",
    "icon": "https://steamcdn-a.akamaihd.net/steamcommunity/public/images/apps/1216660/e95e3696a379f71f5fe761ee69f3497eca3c6294.jpg",
    "icongray": "https://steamcdn-a.akamaihd.net/steamcommunity/public/images/apps/1216660/5bcf769f888ffa92e0b1a1e7a33b4773f68c9521.jpg"
  },
  {
    "name": "NEW_ACHIEVEMENT_1_6",
    "defaultvalue": 0,
    "displayName": "Level 1",
    "hidden": 0,
    "description": "Complete Level 1",
    "icon": "https://steamcdn-a.akamaihd.net/steamcommunity/public/images/apps/1216660/e95e3696a379f71f5fe761ee69f3497eca3c6294.jpg",
    "icongray": "https://steamcdn-a.akamaihd.net/steamcommunity/public/images/apps/1216660/5bcf769f888ffa92e0b1a1e7a33b4773f68c9521.jpg"
  },
  {
    "name": "NEW_ACHIEVEMENT_1_7",
    "defaultvalue": 0,
    "displayName": "Level 1",
    "hidden": 0,
    "description": "Complete Level 1",
    "icon": "https://steamcdn-a.akamaihd.net/steamcommunity/public/images/apps/1216660/e95e3696a379f71f5fe761ee69f3497eca3c6294.jpg",
    "icongray": "https://steamcdn-a.akamaihd.net/steamcommunity/public/images/apps/1216660/5bcf769f888ffa92e0b1a1e7a33b4773f68c9521.jpg"
  },
  {
    "name": "NEW_ACHIEVEMENT_1_8",
    "defaultvalue": 0,
    "displayName": "Level 1",
    "hidden": 0,
    "description": "Complete Level 1",
    "icon": "https://steamcdn-a.akamaihd.net/steamcommunity/public/images/apps/1216660/60f9be77407a14741e8228e8796976e036885db0.jpg",
    "icongray": "https://steamcdn-a.akamaihd.net/steamcommunity/public/images/apps/1216660/5bcf769f888ffa92e0b1a1e7a33b4773f68c9521.jpg"
  },
  {
    "name": "NEW_ACHIEVEMENT_1_9",
    "defaultvalue": 0,
    "displayName": "Level 1",
    "hidden": 0,
    "description": "Complete Level 1",
    "icon": "https://steamcdn-a.akamaihd.net/steamcommunity/public/images/apps/1216660/e95e3696a379f71f5fe761ee69f3497eca3c6294.jpg",
    "icongray": "https://steamcdn-a.akamaihd.net/steamcommunity/public/images/apps/1216660/5bcf769f888ffa92e0b1a1e7a33b4773f68c9521.jpg"
  },
  {
    "name": "NEW_ACHIEVEMENT_1_10",
    "defaultvalue": 0,
    "displayName": "Level 1",
    "hidden": 0,
    "description": "Complete Level 1",
    "icon": "https://steamcdn-a.akamaihd.net/steamcommunity/public/images/apps/1216660/e95e3696a379f71f5fe761ee69f3497eca3c6294.jpg",
    "icongray": "https://steamcdn-a.akamaihd.net/steamcommunity/public/images/apps/1216660/5bcf769f888ffa92e0b1a1e7a33b4773f68c9521.jpg"
  },
  {
    "name": "NEW_ACHIEVEMENT_2_1",
    "defaultvalue": 0,
    "displayName": "Level 2",
    "hidden": 0,
    "description": "Complete Level 2",
    "icon": "https://steamcdn-a.akamaihd.net/steamcommunity/public/images/apps/1216660/6529a19f3e08f1ba39892a4a43a259f0b5205ace.jpg",
    "icongray": "https://steamcdn-a.akamaihd.net/steamcommunity/public/images/apps/1216660/1875cfa248339b2c7b3257bc1bb48856fa49f3b0.jpg"
  },
  {
    "name": "NEW_ACHIEVEMENT_2_2",
    "defaultvalue": 0,
    "displayName": "Level 2",
    "hidden": 0,
    "description": "Complete Level 2",
    "icon": "https://steamcdn-a.akamaihd.net/steamcommunity/public/images/apps/1216660/6529a19f3e08f1ba39892a4a43a259f0b5205ace.jpg",
    "icongray": "https://steamcdn-a.akamaihd.net/steamcommunity/public/images/apps/1216660/1875cfa248339b2c7b3257bc1bb48856fa49f3b0.jpg"
  },
  {
    "name": "NEW_ACHIEVEMENT_2_3",
    "defaultvalue": 0,
    "displayName": "Level 2",
    "hidden": 0,
    "description": "Complete Level 2",
    "icon": "https://steamcdn-a.akamaihd.net/steamcommunity/public/images/apps/1216660/6529a19f3e08f1ba39892a4a43a259f0b5205ace.jpg",
    "icongray": "https://steamcdn-a.akamaihd.net/steamcommunity/public/images/apps/1216660/1875cfa248339b2c7b3257bc1bb48856fa49f3b0.jpg"
  },
  {
    "name": "NEW_ACHIEVEMENT_2_4",
    "defaultvalue": 0,
    "displayName": "LEvel 2",
    "hidden": 0,
    "description": "Complete Level 2",
    "icon": "https://steamcdn-a.akamaihd.net/steamcommunity/public/images/apps/1216660/6529a19f3e08f1ba39892a4a43a259f0b5205ace.jpg",
    "icongray": "https://steamcdn-a.akamaihd.net/steamcommunity/public/images/apps/1216660/1875cfa248339b2c7b3257bc1bb48856fa49f3b0.jpg"
  },
  {
    "name": "NEW_ACHIEVEMENT_2_5",
    "defaultvalue": 0,
    "displayName": "Level 2",
    "hidden": 0,
    "description": "Complete Level 2",
    "icon": "https://steamcdn-a.akamaihd.net/steamcommunity/public/images/apps/1216660/6529a19f3e08f1ba39892a4a43a259f0b5205ace.jpg",
    "icongray": "https://steamcdn-a.akamaihd.net/steamcommunity/public/images/apps/1216660/1875cfa248339b2c7b3257bc1bb48856fa49f3b0.jpg"
  },
  {
    "name": "NEW_ACHIEVEMENT_2_6",
    "defaultvalue": 0,
    "displayName": "Level 2",
    "hidden": 0,
    "description": "Complete Level 2",
    "icon": "https://steamcdn-a.akamaihd.net/steamcommunity/public/images/apps/1216660/6529a19f3e08f1ba39892a4a43a259f0b5205ace.jpg",
    "icongray": "https://steamcdn-a.akamaihd.net/steamcommunity/public/images/apps/1216660/1875cfa248339b2c7b3257bc1bb48856fa49f3b0.jpg"
  },
  {
    "name": "NEW_ACHIEVEMENT_2_7",
    "defaultvalue": 0,
    "displayName": "Level 2",
    "hidden": 0,
    "description": "Complete Level 2",
    "icon": "https://steamcdn-a.akamaihd.net/steamcommunity/public/images/apps/1216660/6529a19f3e08f1ba39892a4a43a259f0b5205ace.jpg",
    "icongray": "https://steamcdn-a.akamaihd.net/steamcommunity/public/images/apps/1216660/1875cfa248339b2c7b3257bc1bb48856fa49f3b0.jpg"
  },
  {
    "name": "NEW_ACHIEVEMENT_2_8",
    "defaultvalue": 0,
    "displayName": "Level 2",
    "hidden": 0,
    "description": "COmplete Level 2",
    "icon": "https://steamcdn-a.akamaihd.net/steamcommunity/public/images/apps/1216660/6529a19f3e08f1ba39892a4a43a259f0b5205ace.jpg",
    "icongray": "https://steamcdn-a.akamaihd.net/steamcommunity/public/images/apps/1216660/1875cfa248339b2c7b3257bc1bb48856fa49f3b0.jpg"
  },
  {
    "name": "NEW_ACHIEVEMENT_2_9",
    "defaultvalue": 0,
    "displayName": "Level 2",
    "hidden": 0,
    "description": "Complete Level 2",
    "icon": "https://steamcdn-a.akamaihd.net/steamcommunity/public/images/apps/1216660/6529a19f3e08f1ba39892a4a43a259f0b5205ace.jpg",
    "icongray": "https://steamcdn-a.akamaihd.net/steamcommunity/public/images/apps/1216660/1875cfa248339b2c7b3257bc1bb48856fa49f3b0.jpg"
  },
  {
    "name": "NEW_ACHIEVEMENT_2_10",
    "defaultvalue": 0,
    "displayName": "Level 2",
    "hidden": 0,
    "description": "Complete Level 2",
    "icon": "https://steamcdn-a.akamaihd.net/steamcommunity/public/images/apps/1216660/6529a19f3e08f1ba39892a4a43a259f0b5205ace.jpg",
    "icongray": "https://steamcdn-a.akamaihd.net/steamcommunity/public/images/apps/1216660/1875cfa248339b2c7b3257bc1bb48856fa49f3b0.jpg"
  },
  {
    "name": "NEW_ACHIEVEMENT_3_1",
    "defaultvalue": 0,
    "displayName": "Level 3",
    "hidden": 0,
    "description": "Complete Level 3",
    "icon": "https://steamcdn-a.akamaihd.net/steamcommunity/public/images/apps/1216660/1ce109414efe036624491c958f6d5d784683b712.jpg",
    "icongray": "https://steamcdn-a.akamaihd.net/steamcommunity/public/images/apps/1216660/b0153a2522d06622759895199247dc38304a7ae2.jpg"
  },
  {
    "name": "NEW_ACHIEVEMENT_3_2",
    "defaultvalue": 0,
    "displayName": "Level 3",
    "hidden": 0,
    "description": "Complete Level 3",
    "icon": "https://steamcdn-a.akamaihd.net/steamcommunity/public/images/apps/1216660/1ce109414efe036624491c958f6d5d784683b712.jpg",
    "icongray": "https://steamcdn-a.akamaihd.net/steamcommunity/public/images/apps/1216660/b0153a2522d06622759895199247dc38304a7ae2.jpg"
  },
  {
    "name": "NEW_ACHIEVEMENT_3_3",
    "defaultvalue": 0,
    "displayName": "Level 3",
    "hidden": 0,
    "description": "Complete Level 3",
    "icon": "https://steamcdn-a.akamaihd.net/steamcommunity/public/images/apps/1216660/1ce109414efe036624491c958f6d5d784683b712.jpg",
    "icongray": "https://steamcdn-a.akamaihd.net/steamcommunity/public/images/apps/1216660/b0153a2522d06622759895199247dc38304a7ae2.jpg"
  },
  {
    "name": "NEW_ACHIEVEMENT_3_4",
    "defaultvalue": 0,
    "displayName": "Level 3",
    "hidden": 0,
    "description": "Complete Level 3",
    "icon": "https://steamcdn-a.akamaihd.net/steamcommunity/public/images/apps/1216660/1ce109414efe036624491c958f6d5d784683b712.jpg",
    "icongray": "https://steamcdn-a.akamaihd.net/steamcommunity/public/images/apps/1216660/b0153a2522d06622759895199247dc38304a7ae2.jpg"
  },
  {
    "name": "NEW_ACHIEVEMENT_3_5",
    "defaultvalue": 0,
    "displayName": "Level 3",
    "hidden": 0,
    "description": "Complete Level 3",
    "icon": "https://steamcdn-a.akamaihd.net/steamcommunity/public/images/apps/1216660/1ce109414efe036624491c958f6d5d784683b712.jpg",
    "icongray": "https://steamcdn-a.akamaihd.net/steamcommunity/public/images/apps/1216660/b0153a2522d06622759895199247dc38304a7ae2.jpg"
  },
  {
    "name": "NEW_ACHIEVEMENT_3_6",
    "defaultvalue": 0,
    "displayName": "Level 3",
    "hidden": 0,
    "description": "Complete Level 3",
    "icon": "https://steamcdn-a.akamaihd.net/steamcommunity/public/images/apps/1216660/1ce109414efe036624491c958f6d5d784683b712.jpg",
    "icongray": "https://steamcdn-a.akamaihd.net/steamcommunity/public/images/apps/1216660/b0153a2522d06622759895199247dc38304a7ae2.jpg"
  },
  {
    "name": "NEW_ACHIEVEMENT_3_7",
    "defaultvalue": 0,
    "displayName": "Level 3",
    "hidden": 0,
    "description": "Complete Level 3",
    "icon": "https://steamcdn-a.akamaihd.net/steamcommunity/public/images/apps/1216660/1ce109414efe036624491c958f6d5d784683b712.jpg",
    "icongray": "https://steamcdn-a.akamaihd.net/steamcommunity/public/images/apps/1216660/bf2be4807b6c78e6f28c399514639d7dc9dda724.jpg"
  },
  {
    "name": "NEW_ACHIEVEMENT_3_8",
    "defaultvalue": 0,
    "displayName": "Level 3",
    "hidden": 0,
    "description": "Complete Level 3",
    "icon": "https://steamcdn-a.akamaihd.net/steamcommunity/public/images/apps/1216660/1ce109414efe036624491c958f6d5d784683b712.jpg",
    "icongray": "https://steamcdn-a.akamaihd.net/steamcommunity/public/images/apps/1216660/b0153a2522d06622759895199247dc38304a7ae2.jpg"
  },
  {
    "name": "NEW_ACHIEVEMENT_3_9",
    "defaultvalue": 0,
    "displayName": "Level 3",
    "hidden": 0,
    "description": "Complete Level 3",
    "icon": "https://steamcdn-a.akamaihd.net/steamcommunity/public/images/apps/1216660/1ce109414efe036624491c958f6d5d784683b712.jpg",
    "icongray": "https://steamcdn-a.akamaihd.net/steamcommunity/public/images/apps/1216660/b0153a2522d06622759895199247dc38304a7ae2.jpg"
  },
  {
    "name": "NEW_ACHIEVEMENT_3_10",
    "defaultvalue": 0,
    "displayName": "Level 3",
    "hidden": 0,
    "description": "Complete Level 3",
    "icon": "https://steamcdn-a.akamaihd.net/steamcommunity/public/images/apps/1216660/1ce109414efe036624491c958f6d5d784683b712.jpg",
    "icongray": "https://steamcdn-a.akamaihd.net/steamcommunity/public/images/apps/1216660/b0153a2522d06622759895199247dc38304a7ae2.jpg"
  },
  {
    "name": "NEW_ACHIEVEMENT_4_1",
    "defaultvalue": 0,
    "displayName": "Level 4",
    "hidden": 0,
    "description": "Complete Level 4",
    "icon": "https://steamcdn-a.akamaihd.net/steamcommunity/public/images/apps/1216660/5aed093fbd1f74e1b63e6d27434245e08057ee18.jpg",
    "icongray": "https://steamcdn-a.akamaihd.net/steamcommunity/public/images/apps/1216660/ebf51827f00a3c0db1301e2c9b96ff56b5dd531f.jpg"
  },
  {
    "name": "NEW_ACHIEVEMENT_4_2",
    "defaultvalue": 0,
    "displayName": "Level 4",
    "hidden": 0,
    "description": "Complete Level 4",
    "icon": "https://steamcdn-a.akamaihd.net/steamcommunity/public/images/apps/1216660/5aed093fbd1f74e1b63e6d27434245e08057ee18.jpg",
    "icongray": "https://steamcdn-a.akamaihd.net/steamcommunity/public/images/apps/1216660/ebf51827f00a3c0db1301e2c9b96ff56b5dd531f.jpg"
  },
  {
    "name": "NEW_ACHIEVEMENT_4_3",
    "defaultvalue": 0,
    "displayName": "Level 4",
    "hidden": 0,
    "description": "Complete Level 4",
    "icon": "https://steamcdn-a.akamaihd.net/steamcommunity/public/images/apps/1216660/5aed093fbd1f74e1b63e6d27434245e08057ee18.jpg",
    "icongray": "https://steamcdn-a.akamaihd.net/steamcommunity/public/images/apps/1216660/ebf51827f00a3c0db1301e2c9b96ff56b5dd531f.jpg"
  },
  {
    "name": "NEW_ACHIEVEMENT_4_4",
    "defaultvalue": 0,
    "displayName": "Level 4",
    "hidden": 0,
    "description": "Complete Level 4",
    "icon": "https://steamcdn-a.akamaihd.net/steamcommunity/public/images/apps/1216660/5aed093fbd1f74e1b63e6d27434245e08057ee18.jpg",
    "icongray": "https://steamcdn-a.akamaihd.net/steamcommunity/public/images/apps/1216660/ebf51827f00a3c0db1301e2c9b96ff56b5dd531f.jpg"
  },
  {
    "name": "NEW_ACHIEVEMENT_4_5",
    "defaultvalue": 0,
    "displayName": "Level 4",
    "hidden": 0,
    "description": "Complete Level 4",
    "icon": "https://steamcdn-a.akamaihd.net/steamcommunity/public/images/apps/1216660/5aed093fbd1f74e1b63e6d27434245e08057ee18.jpg",
    "icongray": "https://steamcdn-a.akamaihd.net/steamcommunity/public/images/apps/1216660/ebf51827f00a3c0db1301e2c9b96ff56b5dd531f.jpg"
  },
  {
    "name": "NEW_ACHIEVEMENT_4_6",
    "defaultvalue": 0,
    "displayName": "Level 4",
    "hidden": 0,
    "description": "Complete Level 4",
    "icon": "https://steamcdn-a.akamaihd.net/steamcommunity/public/images/apps/1216660/5aed093fbd1f74e1b63e6d27434245e08057ee18.jpg",
    "icongray": "https://steamcdn-a.akamaihd.net/steamcommunity/public/images/apps/1216660/ebf51827f00a3c0db1301e2c9b96ff56b5dd531f.jpg"
  },
  {
    "name": "NEW_ACHIEVEMENT_4_7",
    "defaultvalue": 0,
    "displayName": "Level 4",
    "hidden": 0,
    "description": "COmplete Level 4",
    "icon": "https://steamcdn-a.akamaihd.net/steamcommunity/public/images/apps/1216660/fe87d994258be16df5b7d4780972a6f1d9031c17.jpg",
    "icongray": "https://steamcdn-a.akamaihd.net/steamcommunity/public/images/apps/1216660/ebf51827f00a3c0db1301e2c9b96ff56b5dd531f.jpg"
  },
  {
    "name": "NEW_ACHIEVEMENT_4_8",
    "defaultvalue": 0,
    "displayName": "Level 4",
    "hidden": 0,
    "description": "Complete Level 4",
    "icon": "https://steamcdn-a.akamaihd.net/steamcommunity/public/images/apps/1216660/5aed093fbd1f74e1b63e6d27434245e08057ee18.jpg",
    "icongray": "https://steamcdn-a.akamaihd.net/steamcommunity/public/images/apps/1216660/ebf51827f00a3c0db1301e2c9b96ff56b5dd531f.jpg"
  },
  {
    "name": "NEW_ACHIEVEMENT_4_9",
    "defaultvalue": 0,
    "displayName": "Level 4",
    "hidden": 0,
    "description": "Complete Level 4",
    "icon": "https://steamcdn-a.akamaihd.net/steamcommunity/public/images/apps/1216660/5aed093fbd1f74e1b63e6d27434245e08057ee18.jpg",
    "icongray": "https://steamcdn-a.akamaihd.net/steamcommunity/public/images/apps/1216660/ebf51827f00a3c0db1301e2c9b96ff56b5dd531f.jpg"
  },
  {
    "name": "NEW_ACHIEVEMENT_4_10",
    "defaultvalue": 0,
    "displayName": "Level 4",
    "hidden": 0,
    "description": "Complete Level 4",
    "icon": "https://steamcdn-a.akamaihd.net/steamcommunity/public/images/apps/1216660/5aed093fbd1f74e1b63e6d27434245e08057ee18.jpg",
    "icongray": "https://steamcdn-a.akamaihd.net/steamcommunity/public/images/apps/1216660/ebf51827f00a3c0db1301e2c9b96ff56b5dd531f.jpg"
  },
  {
    "name": "NEW_ACHIEVEMENT_5_1",
    "defaultvalue": 0,
    "displayName": "Level 5",
    "hidden": 0,
    "description": "Complete Level 5",
    "icon": "https://steamcdn-a.akamaihd.net/steamcommunity/public/images/apps/1216660/11b6e33f2f2b6a6f2e1157ae0fa5af25a44d10ca.jpg",
    "icongray": "https://steamcdn-a.akamaihd.net/steamcommunity/public/images/apps/1216660/abfda958cee9ee17091409ea86db34c956d3655b.jpg"
  },
  {
    "name": "NEW_ACHIEVEMENT_5_2",
    "defaultvalue": 0,
    "displayName": "Level 5",
    "hidden": 0,
    "description": "Complete Level 5",
    "icon": "https://steamcdn-a.akamaihd.net/steamcommunity/public/images/apps/1216660/11b6e33f2f2b6a6f2e1157ae0fa5af25a44d10ca.jpg",
    "icongray": "https://steamcdn-a.akamaihd.net/steamcommunity/public/images/apps/1216660/abfda958cee9ee17091409ea86db34c956d3655b.jpg"
  },
  {
    "name": "NEW_ACHIEVEMENT_5_3",
    "defaultvalue": 0,
    "displayName": "Level 5",
    "hidden": 0,
    "description": "Complete Level 5",
    "icon": "https://steamcdn-a.akamaihd.net/steamcommunity/public/images/apps/1216660/11b6e33f2f2b6a6f2e1157ae0fa5af25a44d10ca.jpg",
    "icongray": "https://steamcdn-a.akamaihd.net/steamcommunity/public/images/apps/1216660/abfda958cee9ee17091409ea86db34c956d3655b.jpg"
  },
  {
    "name": "NEW_ACHIEVEMENT_5_4",
    "defaultvalue": 0,
    "displayName": "Level 5",
    "hidden": 0,
    "description": "Complete Level 5",
    "icon": "https://steamcdn-a.akamaihd.net/steamcommunity/public/images/apps/1216660/11b6e33f2f2b6a6f2e1157ae0fa5af25a44d10ca.jpg",
    "icongray": "https://steamcdn-a.akamaihd.net/steamcommunity/public/images/apps/1216660/abfda958cee9ee17091409ea86db34c956d3655b.jpg"
  },
  {
    "name": "NEW_ACHIEVEMENT_5_5",
    "defaultvalue": 0,
    "displayName": "Level 5",
    "hidden": 0,
    "description": "Complete Level 5",
    "icon": "https://steamcdn-a.akamaihd.net/steamcommunity/public/images/apps/1216660/11b6e33f2f2b6a6f2e1157ae0fa5af25a44d10ca.jpg",
    "icongray": "https://steamcdn-a.akamaihd.net/steamcommunity/public/images/apps/1216660/abfda958cee9ee17091409ea86db34c956d3655b.jpg"
  },
  {
    "name": "NEW_ACHIEVEMENT_5_6",
    "defaultvalue": 0,
    "displayName": "Level 5",
    "hidden": 0,
    "description": "Complete Level 5",
    "icon": "https://steamcdn-a.akamaihd.net/steamcommunity/public/images/apps/1216660/11b6e33f2f2b6a6f2e1157ae0fa5af25a44d10ca.jpg",
    "icongray": "https://steamcdn-a.akamaihd.net/steamcommunity/public/images/apps/1216660/abfda958cee9ee17091409ea86db34c956d3655b.jpg"
  },
  {
    "name": "NEW_ACHIEVEMENT_5_7",
    "defaultvalue": 0,
    "displayName": "Level 5",
    "hidden": 0,
    "description": "COmplete Level 5",
    "icon": "https://steamcdn-a.akamaihd.net/steamcommunity/public/images/apps/1216660/11b6e33f2f2b6a6f2e1157ae0fa5af25a44d10ca.jpg",
    "icongray": "https://steamcdn-a.akamaihd.net/steamcommunity/public/images/apps/1216660/abfda958cee9ee17091409ea86db34c956d3655b.jpg"
  },
  {
    "name": "NEW_ACHIEVEMENT_5_8",
    "defaultvalue": 0,
    "displayName": "Level 5",
    "hidden": 0,
    "description": "Complete Level 5",
    "icon": "https://steamcdn-a.akamaihd.net/steamcommunity/public/images/apps/1216660/11b6e33f2f2b6a6f2e1157ae0fa5af25a44d10ca.jpg",
    "icongray": "https://steamcdn-a.akamaihd.net/steamcommunity/public/images/apps/1216660/abfda958cee9ee17091409ea86db34c956d3655b.jpg"
  },
  {
    "name": "NEW_ACHIEVEMENT_5_9",
    "defaultvalue": 0,
    "displayName": "LEvel 5",
    "hidden": 0,
    "description": "Complete Level 5",
    "icon": "https://steamcdn-a.akamaihd.net/steamcommunity/public/images/apps/1216660/11b6e33f2f2b6a6f2e1157ae0fa5af25a44d10ca.jpg",
    "icongray": "https://steamcdn-a.akamaihd.net/steamcommunity/public/images/apps/1216660/abfda958cee9ee17091409ea86db34c956d3655b.jpg"
  },
  {
    "name": "NEW_ACHIEVEMENT_5_10",
    "defaultvalue": 0,
    "displayName": "Level 5",
    "hidden": 0,
    "description": "Complete Level 5",
    "icon": "https://steamcdn-a.akamaihd.net/steamcommunity/public/images/apps/1216660/11b6e33f2f2b6a6f2e1157ae0fa5af25a44d10ca.jpg",
    "icongray": "https://steamcdn-a.akamaihd.net/steamcommunity/public/images/apps/1216660/abfda958cee9ee17091409ea86db34c956d3655b.jpg"
  },
  {
    "name": "NEW_ACHIEVEMENT_6_1",
    "defaultvalue": 0,
    "displayName": "Level 6",
    "hidden": 0,
    "description": "Complete Level 6",
    "icon": "https://steamcdn-a.akamaihd.net/steamcommunity/public/images/apps/1216660/267590eb1ffca9b4bda6c1519fd4c9a4ab7beb51.jpg",
    "icongray": "https://steamcdn-a.akamaihd.net/steamcommunity/public/images/apps/1216660/221139eeb01238306506ec04c1d29c379eb51bbc.jpg"
  },
  {
    "name": "NEW_ACHIEVEMENT_6_2",
    "defaultvalue": 0,
    "displayName": "Level 6",
    "hidden": 0,
    "description": "Complete Level 6",
    "icon": "https://steamcdn-a.akamaihd.net/steamcommunity/public/images/apps/1216660/267590eb1ffca9b4bda6c1519fd4c9a4ab7beb51.jpg",
    "icongray": "https://steamcdn-a.akamaihd.net/steamcommunity/public/images/apps/1216660/221139eeb01238306506ec04c1d29c379eb51bbc.jpg"
  },
  {
    "name": "NEW_ACHIEVEMENT_6_3",
    "defaultvalue": 0,
    "displayName": "Level 6",
    "hidden": 0,
    "description": "Complete Level 6",
    "icon": "https://steamcdn-a.akamaihd.net/steamcommunity/public/images/apps/1216660/267590eb1ffca9b4bda6c1519fd4c9a4ab7beb51.jpg",
    "icongray": "https://steamcdn-a.akamaihd.net/steamcommunity/public/images/apps/1216660/221139eeb01238306506ec04c1d29c379eb51bbc.jpg"
  },
  {
    "name": "NEW_ACHIEVEMENT_6_4",
    "defaultvalue": 0,
    "displayName": "Level 6",
    "hidden": 0,
    "description": "Complete Level 6",
    "icon": "https://steamcdn-a.akamaihd.net/steamcommunity/public/images/apps/1216660/267590eb1ffca9b4bda6c1519fd4c9a4ab7beb51.jpg",
    "icongray": "https://steamcdn-a.akamaihd.net/steamcommunity/public/images/apps/1216660/221139eeb01238306506ec04c1d29c379eb51bbc.jpg"
  },
  {
    "name": "NEW_ACHIEVEMENT_6_5",
    "defaultvalue": 0,
    "displayName": "Level 6",
    "hidden": 0,
    "description": "Complete Level 6",
    "icon": "https://steamcdn-a.akamaihd.net/steamcommunity/public/images/apps/1216660/267590eb1ffca9b4bda6c1519fd4c9a4ab7beb51.jpg",
    "icongray": "https://steamcdn-a.akamaihd.net/steamcommunity/public/images/apps/1216660/221139eeb01238306506ec04c1d29c379eb51bbc.jpg"
  },
  {
    "name": "NEW_ACHIEVEMENT_6_6",
    "defaultvalue": 0,
    "displayName": "Level 6",
    "hidden": 0,
    "description": "Complete Level 6",
    "icon": "https://steamcdn-a.akamaihd.net/steamcommunity/public/images/apps/1216660/267590eb1ffca9b4bda6c1519fd4c9a4ab7beb51.jpg",
    "icongray": "https://steamcdn-a.akamaihd.net/steamcommunity/public/images/apps/1216660/221139eeb01238306506ec04c1d29c379eb51bbc.jpg"
  },
  {
    "name": "NEW_ACHIEVEMENT_6_7",
    "defaultvalue": 0,
    "displayName": "Level 6",
    "hidden": 0,
    "description": "Complete Level 6",
    "icon": "https://steamcdn-a.akamaihd.net/steamcommunity/public/images/apps/1216660/267590eb1ffca9b4bda6c1519fd4c9a4ab7beb51.jpg",
    "icongray": "https://steamcdn-a.akamaihd.net/steamcommunity/public/images/apps/1216660/221139eeb01238306506ec04c1d29c379eb51bbc.jpg"
  },
  {
    "name": "NEW_ACHIEVEMENT_6_8",
    "defaultvalue": 0,
    "displayName": "Level 6",
    "hidden": 0,
    "description": "Complete Level 6",
    "icon": "https://steamcdn-a.akamaihd.net/steamcommunity/public/images/apps/1216660/267590eb1ffca9b4bda6c1519fd4c9a4ab7beb51.jpg",
    "icongray": "https://steamcdn-a.akamaihd.net/steamcommunity/public/images/apps/1216660/221139eeb01238306506ec04c1d29c379eb51bbc.jpg"
  },
  {
    "name": "NEW_ACHIEVEMENT_6_9",
    "defaultvalue": 0,
    "displayName": "Level 6",
    "hidden": 0,
    "description": "Complete Level 6",
    "icon": "https://steamcdn-a.akamaihd.net/steamcommunity/public/images/apps/1216660/267590eb1ffca9b4bda6c1519fd4c9a4ab7beb51.jpg",
    "icongray": "https://steamcdn-a.akamaihd.net/steamcommunity/public/images/apps/1216660/221139eeb01238306506ec04c1d29c379eb51bbc.jpg"
  },
  {
    "name": "NEW_ACHIEVEMENT_6_10",
    "defaultvalue": 0,
    "displayName": "Level 6",
    "hidden": 0,
    "description": "Complete Level 6",
    "icon": "https://steamcdn-a.akamaihd.net/steamcommunity/public/images/apps/1216660/267590eb1ffca9b4bda6c1519fd4c9a4ab7beb51.jpg",
    "icongray": "https://steamcdn-a.akamaihd.net/steamcommunity/public/images/apps/1216660/221139eeb01238306506ec04c1d29c379eb51bbc.jpg"
  },
  {
    "name": "NEW_ACHIEVEMENT_7_1",
    "defaultvalue": 0,
    "displayName": "Level 7",
    "hidden": 0,
    "description": "Complete Level 7",
    "icon": "https://steamcdn-a.akamaihd.net/steamcommunity/public/images/apps/1216660/df00e9c01648e3a4c88d50a6ce17fd9b542bd98a.jpg",
    "icongray": "https://steamcdn-a.akamaihd.net/steamcommunity/public/images/apps/1216660/046f015e4a25e0f3f780767da723b4857e27e232.jpg"
  },
  {
    "name": "NEW_ACHIEVEMENT_7_2",
    "defaultvalue": 0,
    "displayName": "Level 7",
    "hidden": 0,
    "description": "Complete Level 7",
    "icon": "https://steamcdn-a.akamaihd.net/steamcommunity/public/images/apps/1216660/df00e9c01648e3a4c88d50a6ce17fd9b542bd98a.jpg",
    "icongray": "https://steamcdn-a.akamaihd.net/steamcommunity/public/images/apps/1216660/046f015e4a25e0f3f780767da723b4857e27e232.jpg"
  },
  {
    "name": "NEW_ACHIEVEMENT_7_3",
    "defaultvalue": 0,
    "displayName": "Level 7",
    "hidden": 0,
    "description": "Complete Level 7",
    "icon": "https://steamcdn-a.akamaihd.net/steamcommunity/public/images/apps/1216660/df00e9c01648e3a4c88d50a6ce17fd9b542bd98a.jpg",
    "icongray": "https://steamcdn-a.akamaihd.net/steamcommunity/public/images/apps/1216660/046f015e4a25e0f3f780767da723b4857e27e232.jpg"
  },
  {
    "name": "NEW_ACHIEVEMENT_7_4",
    "defaultvalue": 0,
    "displayName": "Level 7",
    "hidden": 0,
    "description": "Complete Level 7",
    "icon": "https://steamcdn-a.akamaihd.net/steamcommunity/public/images/apps/1216660/df00e9c01648e3a4c88d50a6ce17fd9b542bd98a.jpg",
    "icongray": "https://steamcdn-a.akamaihd.net/steamcommunity/public/images/apps/1216660/046f015e4a25e0f3f780767da723b4857e27e232.jpg"
  },
  {
    "name": "NEW_ACHIEVEMENT_7_5",
    "defaultvalue": 0,
    "displayName": "Level 7",
    "hidden": 0,
    "description": "COmplete Level 7",
    "icon": "https://steamcdn-a.akamaihd.net/steamcommunity/public/images/apps/1216660/df00e9c01648e3a4c88d50a6ce17fd9b542bd98a.jpg",
    "icongray": "https://steamcdn-a.akamaihd.net/steamcommunity/public/images/apps/1216660/046f015e4a25e0f3f780767da723b4857e27e232.jpg"
  },
  {
    "name": "NEW_ACHIEVEMENT_7_6",
    "defaultvalue": 0,
    "displayName": "Level 7",
    "hidden": 0,
    "description": "Complete Level 7",
    "icon": "https://steamcdn-a.akamaihd.net/steamcommunity/public/images/apps/1216660/df00e9c01648e3a4c88d50a6ce17fd9b542bd98a.jpg",
    "icongray": "https://steamcdn-a.akamaihd.net/steamcommunity/public/images/apps/1216660/046f015e4a25e0f3f780767da723b4857e27e232.jpg"
  },
  {
    "name": "NEW_ACHIEVEMENT_7_7",
    "defaultvalue": 0,
    "displayName": "Level 7",
    "hidden": 0,
    "description": "COmplete Level 7",
    "icon": "https://steamcdn-a.akamaihd.net/steamcommunity/public/images/apps/1216660/df00e9c01648e3a4c88d50a6ce17fd9b542bd98a.jpg",
    "icongray": "https://steamcdn-a.akamaihd.net/steamcommunity/public/images/apps/1216660/046f015e4a25e0f3f780767da723b4857e27e232.jpg"
  },
  {
    "name": "NEW_ACHIEVEMENT_7_8",
    "defaultvalue": 0,
    "displayName": "Level 7",
    "hidden": 0,
    "description": "Complete Level 7",
    "icon": "https://steamcdn-a.akamaihd.net/steamcommunity/public/images/apps/1216660/df00e9c01648e3a4c88d50a6ce17fd9b542bd98a.jpg",
    "icongray": "https://steamcdn-a.akamaihd.net/steamcommunity/public/images/apps/1216660/046f015e4a25e0f3f780767da723b4857e27e232.jpg"
  },
  {
    "name": "NEW_ACHIEVEMENT_7_9",
    "defaultvalue": 0,
    "displayName": "Level 7",
    "hidden": 0,
    "description": "Complete Level 7",
    "icon": "https://steamcdn-a.akamaihd.net/steamcommunity/public/images/apps/1216660/df00e9c01648e3a4c88d50a6ce17fd9b542bd98a.jpg",
    "icongray": "https://steamcdn-a.akamaihd.net/steamcommunity/public/images/apps/1216660/046f015e4a25e0f3f780767da723b4857e27e232.jpg"
  },
  {
    "name": "NEW_ACHIEVEMENT_7_10",
    "defaultvalue": 0,
    "displayName": "Level 7",
    "hidden": 0,
    "description": "Complete Level 7",
    "icon": "https://steamcdn-a.akamaihd.net/steamcommunity/public/images/apps/1216660/df00e9c01648e3a4c88d50a6ce17fd9b542bd98a.jpg",
    "icongray": "https://steamcdn-a.akamaihd.net/steamcommunity/public/images/apps/1216660/046f015e4a25e0f3f780767da723b4857e27e232.jpg"
  },
  {
    "name": "NEW_ACHIEVEMENT_8_1",
    "defaultvalue": 0,
    "displayName": "Level 8",
    "hidden": 0,
    "description": "Complete Level 8",
    "icon": "https://steamcdn-a.akamaihd.net/steamcommunity/public/images/apps/1216660/7eefe0253e71065aae7e849620e99b6b991ee039.jpg",
    "icongray": "https://steamcdn-a.akamaihd.net/steamcommunity/public/images/apps/1216660/eed87f93877f139fa016431836492d1dcd03b7e6.jpg"
  },
  {
    "name": "NEW_ACHIEVEMENT_8_2",
    "defaultvalue": 0,
    "displayName": "Level 8",
    "hidden": 0,
    "description": "Complete Level 8",
    "icon": "https://steamcdn-a.akamaihd.net/steamcommunity/public/images/apps/1216660/7eefe0253e71065aae7e849620e99b6b991ee039.jpg",
    "icongray": "https://steamcdn-a.akamaihd.net/steamcommunity/public/images/apps/1216660/eed87f93877f139fa016431836492d1dcd03b7e6.jpg"
  },
  {
    "name": "NEW_ACHIEVEMENT_8_3",
    "defaultvalue": 0,
    "displayName": "Level 8",
    "hidden": 0,
    "description": "Complete Level 8",
    "icon": "https://steamcdn-a.akamaihd.net/steamcommunity/public/images/apps/1216660/7eefe0253e71065aae7e849620e99b6b991ee039.jpg",
    "icongray": "https://steamcdn-a.akamaihd.net/steamcommunity/public/images/apps/1216660/eed87f93877f139fa016431836492d1dcd03b7e6.jpg"
  },
  {
    "name": "NEW_ACHIEVEMENT_8_4",
    "defaultvalue": 0,
    "displayName": "LEvel 8",
    "hidden": 0,
    "description": "Complete Level 8",
    "icon": "https://steamcdn-a.akamaihd.net/steamcommunity/public/images/apps/1216660/7eefe0253e71065aae7e849620e99b6b991ee039.jpg",
    "icongray": "https://steamcdn-a.akamaihd.net/steamcommunity/public/images/apps/1216660/eed87f93877f139fa016431836492d1dcd03b7e6.jpg"
  },
  {
    "name": "NEW_ACHIEVEMENT_8_5",
    "defaultvalue": 0,
    "displayName": "Level 8",
    "hidden": 0,
    "description": "Complete Level 8",
    "icon": "https://steamcdn-a.akamaihd.net/steamcommunity/public/images/apps/1216660/7eefe0253e71065aae7e849620e99b6b991ee039.jpg",
    "icongray": "https://steamcdn-a.akamaihd.net/steamcommunity/public/images/apps/1216660/eed87f93877f139fa016431836492d1dcd03b7e6.jpg"
  },
  {
    "name": "NEW_ACHIEVEMENT_8_6",
    "defaultvalue": 0,
    "displayName": "LEvel 8",
    "hidden": 0,
    "description": "Complete Level 8",
    "icon": "https://steamcdn-a.akamaihd.net/steamcommunity/public/images/apps/1216660/7eefe0253e71065aae7e849620e99b6b991ee039.jpg",
    "icongray": "https://steamcdn-a.akamaihd.net/steamcommunity/public/images/apps/1216660/eed87f93877f139fa016431836492d1dcd03b7e6.jpg"
  },
  {
    "name": "NEW_ACHIEVEMENT_8_7",
    "defaultvalue": 0,
    "displayName": "Level 8",
    "hidden": 0,
    "description": "Complete Level 8",
    "icon": "https://steamcdn-a.akamaihd.net/steamcommunity/public/images/apps/1216660/7eefe0253e71065aae7e849620e99b6b991ee039.jpg",
    "icongray": "https://steamcdn-a.akamaihd.net/steamcommunity/public/images/apps/1216660/eed87f93877f139fa016431836492d1dcd03b7e6.jpg"
  },
  {
    "name": "NEW_ACHIEVEMENT_8_8",
    "defaultvalue": 0,
    "displayName": "Level 8",
    "hidden": 0,
    "description": "Complete Level 8",
    "icon": "https://steamcdn-a.akamaihd.net/steamcommunity/public/images/apps/1216660/7eefe0253e71065aae7e849620e99b6b991ee039.jpg",
    "icongray": "https://steamcdn-a.akamaihd.net/steamcommunity/public/images/apps/1216660/eed87f93877f139fa016431836492d1dcd03b7e6.jpg"
  },
  {
    "name": "NEW_ACHIEVEMENT_8_9",
    "defaultvalue": 0,
    "displayName": "LEvel 8",
    "hidden": 0,
    "description": "Complete Level 8",
    "icon": "https://steamcdn-a.akamaihd.net/steamcommunity/public/images/apps/1216660/7eefe0253e71065aae7e849620e99b6b991ee039.jpg",
    "icongray": "https://steamcdn-a.akamaihd.net/steamcommunity/public/images/apps/1216660/eed87f93877f139fa016431836492d1dcd03b7e6.jpg"
  },
  {
    "name": "NEW_ACHIEVEMENT_8_10",
    "defaultvalue": 0,
    "displayName": "Level 8",
    "hidden": 0,
    "description": "COmplete Level 8",
    "icon": "https://steamcdn-a.akamaihd.net/steamcommunity/public/images/apps/1216660/7eefe0253e71065aae7e849620e99b6b991ee039.jpg",
    "icongray": "https://steamcdn-a.akamaihd.net/steamcommunity/public/images/apps/1216660/eed87f93877f139fa016431836492d1dcd03b7e6.jpg"
  },
  {
    "name": "NEW_ACHIEVEMENT_9_1",
    "defaultvalue": 0,
    "displayName": "LEvel 9",
    "hidden": 0,
    "description": "Complete Level 9",
    "icon": "https://steamcdn-a.akamaihd.net/steamcommunity/public/images/apps/1216660/7448970d94090b95c4739201acd72b0778c0870e.jpg",
    "icongray": "https://steamcdn-a.akamaihd.net/steamcommunity/public/images/apps/1216660/fbf3e3ac1faa987f17a177ac29ec5bcc9a9a67c1.jpg"
  },
  {
    "name": "NEW_ACHIEVEMENT_9_2",
    "defaultvalue": 0,
    "displayName": "LEvel 9",
    "hidden": 0,
    "description": "Complete Level 9",
    "icon": "https://steamcdn-a.akamaihd.net/steamcommunity/public/images/apps/1216660/7448970d94090b95c4739201acd72b0778c0870e.jpg",
    "icongray": "https://steamcdn-a.akamaihd.net/steamcommunity/public/images/apps/1216660/fbf3e3ac1faa987f17a177ac29ec5bcc9a9a67c1.jpg"
  },
  {
    "name": "NEW_ACHIEVEMENT_9_3",
    "defaultvalue": 0,
    "displayName": "LEvel 9",
    "hidden": 0,
    "description": "Complete Level 9",
    "icon": "https://steamcdn-a.akamaihd.net/steamcommunity/public/images/apps/1216660/7448970d94090b95c4739201acd72b0778c0870e.jpg",
    "icongray": "https://steamcdn-a.akamaihd.net/steamcommunity/public/images/apps/1216660/fbf3e3ac1faa987f17a177ac29ec5bcc9a9a67c1.jpg"
  },
  {
    "name": "NEW_ACHIEVEMENT_9_4",
    "defaultvalue": 0,
    "displayName": "Level 9",
    "hidden": 0,
    "description": "Complete Level 9",
    "icon": "https://steamcdn-a.akamaihd.net/steamcommunity/public/images/apps/1216660/7448970d94090b95c4739201acd72b0778c0870e.jpg",
    "icongray": "https://steamcdn-a.akamaihd.net/steamcommunity/public/images/apps/1216660/fbf3e3ac1faa987f17a177ac29ec5bcc9a9a67c1.jpg"
  },
  {
    "name": "NEW_ACHIEVEMENT_9_5",
    "defaultvalue": 0,
    "displayName": "Level 9",
    "hidden": 0,
    "description": "Complete Level 9",
    "icon": "https://steamcdn-a.akamaihd.net/steamcommunity/public/images/apps/1216660/7448970d94090b95c4739201acd72b0778c0870e.jpg",
    "icongray": "https://steamcdn-a.akamaihd.net/steamcommunity/public/images/apps/1216660/fbf3e3ac1faa987f17a177ac29ec5bcc9a9a67c1.jpg"
  },
  {
    "name": "NEW_ACHIEVEMENT_9_6",
    "defaultvalue": 0,
    "displayName": "Level 9",
    "hidden": 0,
    "description": "Complete Level 9",
    "icon": "https://steamcdn-a.akamaihd.net/steamcommunity/public/images/apps/1216660/7448970d94090b95c4739201acd72b0778c0870e.jpg",
    "icongray": "https://steamcdn-a.akamaihd.net/steamcommunity/public/images/apps/1216660/fbf3e3ac1faa987f17a177ac29ec5bcc9a9a67c1.jpg"
  },
  {
    "name": "NEW_ACHIEVEMENT_9_7",
    "defaultvalue": 0,
    "displayName": "LEvel 9",
    "hidden": 0,
    "description": "Complete Level 9",
    "icon": "https://steamcdn-a.akamaihd.net/steamcommunity/public/images/apps/1216660/7448970d94090b95c4739201acd72b0778c0870e.jpg",
    "icongray": "https://steamcdn-a.akamaihd.net/steamcommunity/public/images/apps/1216660/fbf3e3ac1faa987f17a177ac29ec5bcc9a9a67c1.jpg"
  },
  {
    "name": "NEW_ACHIEVEMENT_9_8",
    "defaultvalue": 0,
    "displayName": "Level 9",
    "hidden": 0,
    "description": "Complete Level 9",
    "icon": "https://steamcdn-a.akamaihd.net/steamcommunity/public/images/apps/1216660/7448970d94090b95c4739201acd72b0778c0870e.jpg",
    "icongray": "https://steamcdn-a.akamaihd.net/steamcommunity/public/images/apps/1216660/fbf3e3ac1faa987f17a177ac29ec5bcc9a9a67c1.jpg"
  },
  {
    "name": "NEW_ACHIEVEMENT_9_9",
    "defaultvalue": 0,
    "displayName": "Level 9",
    "hidden": 0,
    "description": "COmplete Level 9",
    "icon": "https://steamcdn-a.akamaihd.net/steamcommunity/public/images/apps/1216660/7448970d94090b95c4739201acd72b0778c0870e.jpg",
    "icongray": "https://steamcdn-a.akamaihd.net/steamcommunity/public/images/apps/1216660/fbf3e3ac1faa987f17a177ac29ec5bcc9a9a67c1.jpg"
  },
  {
    "name": "NEW_ACHIEVEMENT_9_10",
    "defaultvalue": 0,
    "displayName": "LEvel 9",
    "hidden": 0,
    "description": "Complete Level 9",
    "icon": "https://steamcdn-a.akamaihd.net/steamcommunity/public/images/apps/1216660/7448970d94090b95c4739201acd72b0778c0870e.jpg",
    "icongray": "https://steamcdn-a.akamaihd.net/steamcommunity/public/images/apps/1216660/fbf3e3ac1faa987f17a177ac29ec5bcc9a9a67c1.jpg"
  },
  {
    "name": "NEW_ACHIEVEMENT_10_1",
    "defaultvalue": 0,
    "displayName": "Level 1 Hard",
    "hidden": 0,
    "description": "Complete Level 1 Hard Mode",
    "icon": "https://steamcdn-a.akamaihd.net/steamcommunity/public/images/apps/1216660/a147ee35517d81df9f8f0961906d9a67013c00ea.jpg",
    "icongray": "https://steamcdn-a.akamaihd.net/steamcommunity/public/images/apps/1216660/2f0e1e0fff6119b377d381a49b83fa36adf858f3.jpg"
  },
  {
    "name": "NEW_ACHIEVEMENT_10_2",
    "defaultvalue": 0,
    "displayName": "Level 2 Hard",
    "hidden": 0,
    "description": "Complete Level 2 Hard Mode",
    "icon": "https://steamcdn-a.akamaihd.net/steamcommunity/public/images/apps/1216660/c7ff1f399af6aab4548b5786569b87eefe485c0d.jpg",
    "icongray": "https://steamcdn-a.akamaihd.net/steamcommunity/public/images/apps/1216660/1f08bf47ae00829676648405bae58e8611c7c1af.jpg"
  },
  {
    "name": "NEW_ACHIEVEMENT_10_3",
    "defaultvalue": 0,
    "displayName": "Level 3 Hard",
    "hidden": 0,
    "description": "Complete Level 3 Hard Mode",
    "icon": "https://steamcdn-a.akamaihd.net/steamcommunity/public/images/apps/1216660/12e6a3f43b6f7e6b329117d7664ef1812dc4cae4.jpg",
    "icongray": "https://steamcdn-a.akamaihd.net/steamcommunity/public/images/apps/1216660/e958fd59e6c2e39dd6a1f37912427f46ad909f15.jpg"
  },
  {
    "name": "NEW_ACHIEVEMENT_10_4",
    "defaultvalue": 0,
    "displayName": "Level 4 Hard",
    "hidden": 0,
    "description": "Complete Level 4 Hard Mode",
    "icon": "https://steamcdn-a.akamaihd.net/steamcommunity/public/images/apps/1216660/31950ed59c295a95a8ed4eeab8cdd5e5038520ef.jpg",
    "icongray": "https://steamcdn-a.akamaihd.net/steamcommunity/public/images/apps/1216660/f2e0e54e6e8add9fc7b6a9a9af88335cd8fc241f.jpg"
  },
  {
    "name": "NEW_ACHIEVEMENT_10_5",
    "defaultvalue": 0,
    "displayName": "Level 5 Hard",
    "hidden": 0,
    "description": "Complete Level 5 Hard Mode",
    "icon": "https://steamcdn-a.akamaihd.net/steamcommunity/public/images/apps/1216660/92284f62f99fc658720a530c480964a3c5888f3f.jpg",
    "icongray": "https://steamcdn-a.akamaihd.net/steamcommunity/public/images/apps/1216660/cba45bd6efee50c44efd6950fac84b92a69e61bf.jpg"
  },
  {
    "name": "NEW_ACHIEVEMENT_10_6",
    "defaultvalue": 0,
    "displayName": "Level 6 Hard",
    "hidden": 0,
    "description": "Complete Level 6 Hard Mode",
    "icon": "https://steamcdn-a.akamaihd.net/steamcommunity/public/images/apps/1216660/bb12fa84eb6f652f241cb08acb80e021541f69e9.jpg",
    "icongray": "https://steamcdn-a.akamaihd.net/steamcommunity/public/images/apps/1216660/8e09988baaf856f6fd94d480bf1d16760c3633e5.jpg"
  },
  {
    "name": "NEW_ACHIEVEMENT_10_7",
    "defaultvalue": 0,
    "displayName": "Level 7 Hard",
    "hidden": 0,
    "description": "Complete Level 7 Hard Mode",
    "icon": "https://steamcdn-a.akamaihd.net/steamcommunity/public/images/apps/1216660/9eeaf0e54cac42fa9e76a4e8aa3ef94a490b24c2.jpg",
    "icongray": "https://steamcdn-a.akamaihd.net/steamcommunity/public/images/apps/1216660/011d9e4c75f07590729e4a82c1c32e2d26c591cb.jpg"
  },
  {
    "name": "NEW_ACHIEVEMENT_10_8",
    "defaultvalue": 0,
    "displayName": "Level 8 Hard",
    "hidden": 0,
    "description": "Complete Level 8 Hard Mode",
    "icon": "https://steamcdn-a.akamaihd.net/steamcommunity/public/images/apps/1216660/cf4965761d3419948d3b9b4820e89f201b058f3a.jpg",
    "icongray": "https://steamcdn-a.akamaihd.net/steamcommunity/public/images/apps/1216660/66839b04d5bfa47a7b620449cf1cc8a1ff206aff.jpg"
  },
  {
    "name": "NEW_ACHIEVEMENT_10_9",
    "defaultvalue": 0,
    "displayName": "Level 9 Hard",
    "hidden": 0,
    "description": "Complete Level 9 Hard Mode",
    "icon": "https://steamcdn-a.akamaihd.net/steamcommunity/public/images/apps/1216660/a4ed30e0c608d214421ee7f9ebe81357b69a8a26.jpg",
    "icongray": "https://steamcdn-a.akamaihd.net/steamcommunity/public/images/apps/1216660/45f2edb7121258fe7501703e05cac98f6925b0bf.jpg"
  },
  {
    "name": "NEW_ACHIEVEMENT_10_10",
    "defaultvalue": 0,
    "displayName": "Final",
    "hidden": 0,
    "description": "Complete All Level Hard Mode",
    "icon": "https://steamcdn-a.akamaihd.net/steamcommunity/public/images/apps/1216660/aec10991571c520285880952d9427dab80a1ebef.jpg",
    "icongray": "https://steamcdn-a.akamaihd.net/steamcommunity/public/images/apps/1216660/6cc3af03c8897505d6780db6db6a608b3acb9860.jpg"
  }
]