{
  "Dlcs": {
    "368540": {
      "Name": "Dustbowl - Soundtrack",
      "ImageUrl": "https://steamcdn-a.akamaihd.net/steam/apps/368540/header.jpg?t=1447373926"
    }
  },
  "Name": "Dustbowl",
  "AppId": "367110",
  "ImageUrl": "https://steamcdn-a.akamaihd.net/steam/apps/367110/header.jpg?t=1463046339",
  "Languages": [
    "english"
  ],
  "Platforms": {
    "windows": true,
    "mac": false,
    "linux": false
  }
}