﻿{
  "Dlcs": {},
  "Name": "America's Army: Proving Grounds",
  "AppId": "203290",
  "ImageUrl": "https://steamcdn-a.akamaihd.net/steam/apps/203290/header.jpg?t=1490199189",
  "Languages": [
    "english"
  ],
  "Platforms": {
    "windows": true,
    "mac": false,
    "linux": false
  }
}