[
  {
    "name": "Getting to Work",
    "defaultvalue": 0,
    "displayName": "Getting to Work",
    "hidden": 0,
    "description": "Complete a mission",
    "icon": "https://steamcdn-a.akamaihd.net/steamcommunity/public/images/apps/967330/8bd061ec7fc36a30056624e6120f661d28091982.jpg",
    "icongray": "https://steamcdn-a.akamaihd.net/steamcommunity/public/images/apps/967330/6e43c3a9b51f3490ac74e7acb7915c874b407bff.jpg"
  },
  {
    "name": "Stellar Cartography",
    "defaultvalue": 0,
    "displayName": "Stellar Cartography",
    "hidden": 0,
    "description": "Discover every sector in the Delta Trianguli Star System",
    "icon": "https://steamcdn-a.akamaihd.net/steamcommunity/public/images/apps/967330/fe1d87c218d96058b3e64531df5ffbbe2164d203.jpg",
    "icongray": "https://steamcdn-a.akamaihd.net/steamcommunity/public/images/apps/967330/19c860348b1bad91057a6034f648c34999e69d16.jpg"
  },
  {
    "name": "Engineered",
    "defaultvalue": 0,
    "displayName": "Engineered",
    "hidden": 0,
    "description": "Discover all the crafting blueprints available in Delta Trianguli",
    "icon": "https://steamcdn-a.akamaihd.net/steamcommunity/public/images/apps/967330/4c50104d748ebbc6aaae6d22d54fb42ee9a0967c.jpg",
    "icongray": "https://steamcdn-a.akamaihd.net/steamcommunity/public/images/apps/967330/2c5dc40c4ec31bb08ad87b2bf6c52b4eeadb6454.jpg"
  },
  {
    "name": "Amateur Explorer",
    "defaultvalue": 0,
    "displayName": "Amateur Explorer",
    "hidden": 0,
    "description": "Scan all the scannables in Delta Trianguli",
    "icon": "https://steamcdn-a.akamaihd.net/steamcommunity/public/images/apps/967330/6eed45ab65194a20e12baa53b5d6aa163f26c4cd.jpg",
    "icongray": "https://steamcdn-a.akamaihd.net/steamcommunity/public/images/apps/967330/0520637d026d6f2aa72781a2c5e0f09068662f24.jpg"
  },
  {
    "name": "Pod of War",
    "defaultvalue": 0,
    "displayName": "Pod of War",
    "hidden": 0,
    "description": "Destroy an enemy AI ship while piloting an escape pod or survival pod",
    "icon": "https://steamcdn-a.akamaihd.net/steamcommunity/public/images/apps/967330/343b2f5a7c77e21302aa8b77f24853fb2abb4f32.jpg",
    "icongray": "https://steamcdn-a.akamaihd.net/steamcommunity/public/images/apps/967330/8a8a8d79d74d0e6e03c5643c37e083ecf65cebb9.jpg"
  },
  {
    "name": "Space Craft",
    "defaultvalue": 0,
    "displayName": "Space Craft",
    "hidden": 0,
    "description": "Craft an Item",
    "icon": "https://steamcdn-a.akamaihd.net/steamcommunity/public/images/apps/967330/bec034fa829f2f38eeb2a5be5481d3873a6e6b32.jpg",
    "icongray": "https://steamcdn-a.akamaihd.net/steamcommunity/public/images/apps/967330/36c91d1bebca8054996565c4d99c7c25cbd19516.jpg"
  },
  {
    "name": "Explorer: EE",
    "defaultvalue": 0,
    "displayName": "Explorer: EE",
    "hidden": 0,
    "description": "Get 3 stars on the EE star system map by exploring, scanning and collecting blueprints",
    "icon": "https://steamcdn-a.akamaihd.net/steamcommunity/public/images/apps/967330/055cb22c3c7441817c8be3f59c9f0defed4d4da9.jpg",
    "icongray": "https://steamcdn-a.akamaihd.net/steamcommunity/public/images/apps/967330/553addd4785a46966114d16e5b42ef8a7e62fc4d.jpg"
  },
  {
    "name": "Fleetness",
    "defaultvalue": 0,
    "displayName": "Fleetness",
    "hidden": 0,
    "description": "Reach a speed of 100 su/s or more",
    "icon": "https://steamcdn-a.akamaihd.net/steamcommunity/public/images/apps/967330/8a254b8a592cd770aed0fd7ab3979d736d57ec7a.jpg",
    "icongray": "https://steamcdn-a.akamaihd.net/steamcommunity/public/images/apps/967330/edcf785829876667eecb80eb2d0522020d567790.jpg"
  },
  {
    "name": "Explorer: Sh",
    "defaultvalue": 0,
    "displayName": "Explorer: Sh",
    "hidden": 1,
    "icon": "https://steamcdn-a.akamaihd.net/steamcommunity/public/images/apps/967330/839c64f5fa7b934c3be7827d611f07f4c6930e2b.jpg",
    "icongray": "https://steamcdn-a.akamaihd.net/steamcommunity/public/images/apps/967330/16e5dc990afc493eb3de1d81dc390ad9a669e7ff.jpg"
  },
  {
    "name": "Explorer: Null",
    "defaultvalue": 0,
    "displayName": "Explorer: Null",
    "hidden": 1,
    "icon": "https://steamcdn-a.akamaihd.net/steamcommunity/public/images/apps/967330/19846728928b466530c417753b3f8190a41f4ab8.jpg",
    "icongray": "https://steamcdn-a.akamaihd.net/steamcommunity/public/images/apps/967330/b3b9be6f656720bd8e47c9d6067aa0652a73f319.jpg"
  },
  {
    "name": "Explorer: De",
    "defaultvalue": 0,
    "displayName": "Explorer: De",
    "hidden": 0,
    "description": "Get 3 stars on the De star system map by exploring, scanning and collecting blueprints",
    "icon": "https://steamcdn-a.akamaihd.net/steamcommunity/public/images/apps/967330/6f868f966ac3df8ee0adab44aac60a83df11a9b6.jpg",
    "icongray": "https://steamcdn-a.akamaihd.net/steamcommunity/public/images/apps/967330/b2af7b8e5a3c6142494c9575440fb1425caf999b.jpg"
  },
  {
    "name": "Explorer: An",
    "defaultvalue": 0,
    "displayName": "Explorer: An",
    "hidden": 0,
    "description": "Get 3 stars on the An star system map by exploring, scanning and collecting blueprints",
    "icon": "https://steamcdn-a.akamaihd.net/steamcommunity/public/images/apps/967330/0fe76f208d4c6326a3e823a54da08813c51958ff.jpg",
    "icongray": "https://steamcdn-a.akamaihd.net/steamcommunity/public/images/apps/967330/5371f6167ab30c038177083c46e6ea4f6fb98456.jpg"
  },
  {
    "name": "Explorer: ACr",
    "defaultvalue": 0,
    "displayName": "Explorer: ACr",
    "hidden": 0,
    "description": "Get 3 stars on the ACr star system map by exploring, scanning and collecting blueprints",
    "icon": "https://steamcdn-a.akamaihd.net/steamcommunity/public/images/apps/967330/a567647168a775e29fa7b458a59ad74b2a69afa7.jpg",
    "icongray": "https://steamcdn-a.akamaihd.net/steamcommunity/public/images/apps/967330/29e7561aa91ca902b6af4bafe742fddd3a58a8e5.jpg"
  },
  {
    "name": "Explorer: Re",
    "defaultvalue": 0,
    "displayName": "Explorer: Re",
    "hidden": 0,
    "description": "Get 3 stars on the Re star system map by exploring, scanning and collecting blueprints",
    "icon": "https://steamcdn-a.akamaihd.net/steamcommunity/public/images/apps/967330/188a105ae791002c411fac936362a199beedea7d.jpg",
    "icongray": "https://steamcdn-a.akamaihd.net/steamcommunity/public/images/apps/967330/59b031abbf8ca39185f7b6892ae79b22fcdf4893.jpg"
  },
  {
    "name": "Explorer: GV",
    "defaultvalue": 0,
    "displayName": "Explorer: GV",
    "hidden": 0,
    "description": "Get 3 stars on the Re star system map by exploring, scanning and collecting blueprints",
    "icon": "https://steamcdn-a.akamaihd.net/steamcommunity/public/images/apps/967330/beaa3c563c62e152987606bbe854ddc51e0a51e0.jpg",
    "icongray": "https://steamcdn-a.akamaihd.net/steamcommunity/public/images/apps/967330/117d962efcd822b8dfb371032c64c9327388ce4b.jpg"
  },
  {
    "name": "Explorer: MnA",
    "defaultvalue": 0,
    "displayName": "Explorer: MnA",
    "hidden": 0,
    "description": "Get 3 stars on the MnA star system map by exploring, scanning and collecting blueprints",
    "icon": "https://steamcdn-a.akamaihd.net/steamcommunity/public/images/apps/967330/bbc34e28b41fc03ba3b217adff0d33386b47586d.jpg",
    "icongray": "https://steamcdn-a.akamaihd.net/steamcommunity/public/images/apps/967330/bd25be92959e04630633427e1eb5db56d32430f4.jpg"
  }
]