{
  "Dlcs": {},
  "Name": "BionicBlitz",
  "AppId": "1029020",
  "ImageUrl": "https://steamcdn-a.akamaihd.net/steam/apps/1029020/header.jpg?t=1551362132",
  "Languages": [
    "english",
    "spanish"
  ],
  "Platforms": {
    "windows": true,
    "mac": false,
    "linux": false
  }
}