{
  "Dlcs": {
    "1290210": {
      "Name": "Super Hiking Simulator 2020 - After",
      "ImageUrl": "https://steamcdn-a.akamaihd.net/steam/apps/1290210/header.jpg?t=1598305217"
    },
    "1240151": {
      "Name": "Super Hiking Simulator 2020 - Puzzles",
      "ImageUrl": "https://steamcdn-a.akamaihd.net/steam/apps/1240151/header.jpg?t=1588404325"
    }
  },
  "Name": "Super Hiking  Simulator 2020",
  "AppId": "1232500",
  "ImageUrl": "https://steamcdn-a.akamaihd.net/steam/apps/1232500/header.jpg?t=1599237168",
  "Languages": [
    "english",
    "spanish",
    "schinese",
    "japanese",
    "portuguese",
    "french",
    "german"
  ],
  "Platforms": {
    "windows": true,
    "mac": false,
    "linux": false
  }
}