[
  {
    "name": "Ending1",
    "defaultvalue": 0,
    "displayName": "Escape Artist",
    "hidden": 0,
    "description": "Escape by Van",
    "icon": "https://steamcdn-a.akamaihd.net/steamcommunity/public/images/apps/818390/e01e0ceee277d1b642052aa0cfa1835c67d90206.jpg",
    "icongray": "https://steamcdn-a.akamaihd.net/steamcommunity/public/images/apps/818390/c1b111952577aec79e1ef840d95de58f1f2bfa21.jpg"
  },
  {
    "name": "Ending2",
    "defaultvalue": 0,
    "displayName": "The Hunted",
    "hidden": 0,
    "description": "Die from The Deer",
    "icon": "https://steamcdn-a.akamaihd.net/steamcommunity/public/images/apps/818390/32a6959ca61f000db40f2a05229dd1677c1d4ab7.jpg",
    "icongray": "https://steamcdn-a.akamaihd.net/steamcommunity/public/images/apps/818390/e3284d7ca905957059c992c8887e7743e2d30ade.jpg"
  },
  {
    "name": "Ending3",
    "defaultvalue": 0,
    "displayName": "Freedom?",
    "hidden": 0,
    "description": "Defeat The Deer",
    "icon": "https://steamcdn-a.akamaihd.net/steamcommunity/public/images/apps/818390/bdf60db844556475dc54b15fe100d448c4097764.jpg",
    "icongray": "https://steamcdn-a.akamaihd.net/steamcommunity/public/images/apps/818390/78f29308cbf8f2ad3acf6299edda787205720daa.jpg"
  },
  {
    "name": "Ending4",
    "defaultvalue": 0,
    "displayName": "Waking Up",
    "hidden": 0,
    "description": "Obtain the Subject 11B ending",
    "icon": "https://steamcdn-a.akamaihd.net/steamcommunity/public/images/apps/818390/eb79fa63bc65b4eba09c2d2ac9b4a01ac3a73fe8.jpg",
    "icongray": "https://steamcdn-a.akamaihd.net/steamcommunity/public/images/apps/818390/c7af02108fdfdd03da6d6b84c82c174331b7be7c.jpg"
  },
  {
    "name": "Ending5",
    "defaultvalue": 0,
    "displayName": "Collectible Master",
    "hidden": 0,
    "description": "Find all 7 Collectibles",
    "icon": "https://steamcdn-a.akamaihd.net/steamcommunity/public/images/apps/818390/9ec6fa4200d708398c5ed46ab73f6df97bd01bdd.jpg",
    "icongray": "https://steamcdn-a.akamaihd.net/steamcommunity/public/images/apps/818390/08a20bab49ad6b921236ee08521d3cfd844ce40f.jpg"
  },
  {
    "name": "Ending6",
    "defaultvalue": 0,
    "displayName": "Santa's Helper",
    "hidden": 0,
    "description": "Find all 7 Presents in Rudolph's Revenge",
    "icon": "https://steamcdn-a.akamaihd.net/steamcommunity/public/images/apps/818390/47a561fe5272224ff4f1801c252d50d94f6aa323.jpg",
    "icongray": "https://steamcdn-a.akamaihd.net/steamcommunity/public/images/apps/818390/1a8ae049c0c5ba8f41169e91dc618c83a935ba49.jpg"
  },
  {
    "name": "Ending7",
    "defaultvalue": 0,
    "displayName": "Hex Master",
    "hidden": 0,
    "description": "Collect the 3 totems to lift the curse in Origins",
    "icon": "https://steamcdn-a.akamaihd.net/steamcommunity/public/images/apps/818390/fc8410e969f8b089271fbb39a1c6eb4c0f34f183.jpg",
    "icongray": "https://steamcdn-a.akamaihd.net/steamcommunity/public/images/apps/818390/5228542d2e95c43be6dd36966d9e31e9dbf51028.jpg"
  },
  {
    "name": "Ending8",
    "defaultvalue": 0,
    "displayName": "Entity 1007",
    "hidden": 0,
    "description": "Fail to lift the curse in Origins",
    "icon": "https://steamcdn-a.akamaihd.net/steamcommunity/public/images/apps/818390/66cfd635247df4fe3bdb68d2796bb5cc10d18f0d.jpg",
    "icongray": "https://steamcdn-a.akamaihd.net/steamcommunity/public/images/apps/818390/9102bf7c21f8bc0cc5b78e2c70b8d2d91a438ebe.jpg"
  }
]