[
  {
    "name": "ACHIEVEMENT_0",
    "defaultvalue": 0,
    "displayName": "Cheque Please!",
    "hidden": 1,
    "icon": "https://steamcdn-a.akamaihd.net/steamcommunity/public/images/apps/67370/563144710b2fec9bc8a8fdaac202a2b7cd20e0fb.jpg",
    "icongray": "https://steamcdn-a.akamaihd.net/steamcommunity/public/images/apps/67370/563144710b2fec9bc8a8fdaac202a2b7cd20e0fb.jpg"
  },
  {
    "name": "ACHIEVEMENT_1",
    "defaultvalue": 0,
    "displayName": "I'm Just Getting Started",
    "hidden": 1,
    "icon": "https://steamcdn-a.akamaihd.net/steamcommunity/public/images/apps/67370/7d31e840a0d4932b4e4c6baa8d38ab9cb4374f81.jpg",
    "icongray": "https://steamcdn-a.akamaihd.net/steamcommunity/public/images/apps/67370/7d31e840a0d4932b4e4c6baa8d38ab9cb4374f81.jpg"
  },
  {
    "name": "ACHIEVEMENT_2",
    "defaultvalue": 0,
    "displayName": "Escape the Brotherhood",
    "hidden": 1,
    "icon": "https://steamcdn-a.akamaihd.net/steamcommunity/public/images/apps/67370/4a11644f5ef25d97fcbe47836ae23d06caa19003.jpg",
    "icongray": "https://steamcdn-a.akamaihd.net/steamcommunity/public/images/apps/67370/4a11644f5ef25d97fcbe47836ae23d06caa19003.jpg"
  },
  {
    "name": "ACHIEVEMENT_3",
    "defaultvalue": 0,
    "displayName": "Storm the Mansion",
    "hidden": 1,
    "icon": "https://steamcdn-a.akamaihd.net/steamcommunity/public/images/apps/67370/a277fc9fc18646f9a1961e7a814d71cfa0d761a3.jpg",
    "icongray": "https://steamcdn-a.akamaihd.net/steamcommunity/public/images/apps/67370/a277fc9fc18646f9a1961e7a814d71cfa0d761a3.jpg"
  },
  {
    "name": "ACHIEVEMENT_4",
    "defaultvalue": 0,
    "displayName": "One Flew Over...",
    "hidden": 1,
    "icon": "https://steamcdn-a.akamaihd.net/steamcommunity/public/images/apps/67370/8809b9c73c468cbb2d205f33c724da2dc8be0f76.jpg",
    "icongray": "https://steamcdn-a.akamaihd.net/steamcommunity/public/images/apps/67370/8809b9c73c468cbb2d205f33c724da2dc8be0f76.jpg"
  },
  {
    "name": "ACHIEVEMENT_5",
    "defaultvalue": 0,
    "displayName": "Sweet Revenge",
    "hidden": 1,
    "icon": "https://steamcdn-a.akamaihd.net/steamcommunity/public/images/apps/67370/d2bb8ccc965bd6a9cfb2ab3d280bc439488bc515.jpg",
    "icongray": "https://steamcdn-a.akamaihd.net/steamcommunity/public/images/apps/67370/d2bb8ccc965bd6a9cfb2ab3d280bc439488bc515.jpg"
  },
  {
    "name": "ACHIEVEMENT_6",
    "defaultvalue": 0,
    "displayName": "Date Night",
    "hidden": 1,
    "icon": "https://steamcdn-a.akamaihd.net/steamcommunity/public/images/apps/67370/9a92f9f2ce73eb972e122e96182918df00ecb46d.jpg",
    "icongray": "https://steamcdn-a.akamaihd.net/steamcommunity/public/images/apps/67370/9a92f9f2ce73eb972e122e96182918df00ecb46d.jpg"
  },
  {
    "name": "ACHIEVEMENT_7",
    "defaultvalue": 0,
    "displayName": "Allies in Strange Places",
    "hidden": 1,
    "icon": "https://steamcdn-a.akamaihd.net/steamcommunity/public/images/apps/67370/cc924cad698acf71b22d880abe2947c72414875a.jpg",
    "icongray": "https://steamcdn-a.akamaihd.net/steamcommunity/public/images/apps/67370/cc924cad698acf71b22d880abe2947c72414875a.jpg"
  },
  {
    "name": "ACHIEVEMENT_8",
    "defaultvalue": 0,
    "displayName": "Back in the Saddle",
    "hidden": 1,
    "icon": "https://steamcdn-a.akamaihd.net/steamcommunity/public/images/apps/67370/99045be42ae4a33465068f5b0776829f86fba455.jpg",
    "icongray": "https://steamcdn-a.akamaihd.net/steamcommunity/public/images/apps/67370/99045be42ae4a33465068f5b0776829f86fba455.jpg"
  },
  {
    "name": "ACHIEVEMENT_9",
    "defaultvalue": 0,
    "displayName": "Step into Hell...",
    "hidden": 1,
    "icon": "https://steamcdn-a.akamaihd.net/steamcommunity/public/images/apps/67370/c8bf0ddde572aa46d97bef0d5a7720c23d9ef23c.jpg",
    "icongray": "https://steamcdn-a.akamaihd.net/steamcommunity/public/images/apps/67370/c8bf0ddde572aa46d97bef0d5a7720c23d9ef23c.jpg"
  },
  {
    "name": "ACHIEVEMENT_10",
    "defaultvalue": 0,
    "displayName": "Free the Mind",
    "hidden": 0,
    "description": "Finish the game on any difficulty",
    "icon": "https://steamcdn-a.akamaihd.net/steamcommunity/public/images/apps/67370/d78baabf110f0e8b52a62af99c92a3b7b527f98c.jpg",
    "icongray": "https://steamcdn-a.akamaihd.net/steamcommunity/public/images/apps/67370/d78baabf110f0e8b52a62af99c92a3b7b527f98c.jpg"
  },
  {
    "name": "ACHIEVEMENT_11",
    "defaultvalue": 0,
    "displayName": "Don of Darkness",
    "hidden": 0,
    "description": "Finish the game on Don difficulty",
    "icon": "https://steamcdn-a.akamaihd.net/steamcommunity/public/images/apps/67370/ec2f3ed177bfb7dbb2dfae43b7e662a59af91e90.jpg",
    "icongray": "https://steamcdn-a.akamaihd.net/steamcommunity/public/images/apps/67370/ec2f3ed177bfb7dbb2dfae43b7e662a59af91e90.jpg"
  },
  {
    "name": "ACHIEVEMENT_12",
    "defaultvalue": 0,
    "displayName": "At Home in the Dark",
    "hidden": 0,
    "description": "Finish all chapters in New Game+ on any difficulty",
    "icon": "https://steamcdn-a.akamaihd.net/steamcommunity/public/images/apps/67370/4fd95aaaf58f65d0e599272193deec5fe43c41c2.jpg",
    "icongray": "https://steamcdn-a.akamaihd.net/steamcommunity/public/images/apps/67370/4fd95aaaf58f65d0e599272193deec5fe43c41c2.jpg"
  },
  {
    "name": "ACHIEVEMENT_13",
    "defaultvalue": 0,
    "displayName": "One Man Army",
    "hidden": 0,
    "description": "Kill 25 enemies while being dragged from the restaurant, without dying or restarting checkpoint",
    "icon": "https://steamcdn-a.akamaihd.net/steamcommunity/public/images/apps/67370/4885aed5c3f20c5acd6fee4e84a4ac5039c76053.jpg",
    "icongray": "https://steamcdn-a.akamaihd.net/steamcommunity/public/images/apps/67370/4885aed5c3f20c5acd6fee4e84a4ac5039c76053.jpg"
  },
  {
    "name": "ACHIEVEMENT_14",
    "defaultvalue": 0,
    "displayName": "Decisions, Decisions",
    "hidden": 1,
    "icon": "https://steamcdn-a.akamaihd.net/steamcommunity/public/images/apps/67370/077d0baebca5ededf2d4c29bfb698025fd8a7a12.jpg",
    "icongray": "https://steamcdn-a.akamaihd.net/steamcommunity/public/images/apps/67370/077d0baebca5ededf2d4c29bfb698025fd8a7a12.jpg"
  },
  {
    "name": "ACHIEVEMENT_15",
    "defaultvalue": 0,
    "displayName": "The Bird is the Word",
    "hidden": 0,
    "description": "Avoid being run over in the parking garage",
    "icon": "https://steamcdn-a.akamaihd.net/steamcommunity/public/images/apps/67370/20004fa931ac647e70f15520891a57ac3a78ead1.jpg",
    "icongray": "https://steamcdn-a.akamaihd.net/steamcommunity/public/images/apps/67370/20004fa931ac647e70f15520891a57ac3a78ead1.jpg"
  },
  {
    "name": "ACHIEVEMENT_16",
    "defaultvalue": 0,
    "displayName": "Carnie Kid",
    "hidden": 0,
    "description": "Earn a score of over 1000 in each of the carnival games",
    "icon": "https://steamcdn-a.akamaihd.net/steamcommunity/public/images/apps/67370/169c9c6767ffe0ef1fb01459a2406e115a99e3b1.jpg",
    "icongray": "https://steamcdn-a.akamaihd.net/steamcommunity/public/images/apps/67370/169c9c6767ffe0ef1fb01459a2406e115a99e3b1.jpg"
  },
  {
    "name": "ACHIEVEMENT_17",
    "defaultvalue": 0,
    "displayName": "Impish Delight",
    "hidden": 0,
    "description": "Kill 15 enemies while playing as the Darkling",
    "icon": "https://steamcdn-a.akamaihd.net/steamcommunity/public/images/apps/67370/f41a4955ff9e57b76ab9d37113ac596c0d242194.jpg",
    "icongray": "https://steamcdn-a.akamaihd.net/steamcommunity/public/images/apps/67370/f41a4955ff9e57b76ab9d37113ac596c0d242194.jpg"
  },
  {
    "name": "ACHIEVEMENT_18",
    "defaultvalue": 0,
    "displayName": "Executioner",
    "hidden": 0,
    "description": "Kill 50 enemies with Executions while playing as Jackie",
    "icon": "https://steamcdn-a.akamaihd.net/steamcommunity/public/images/apps/67370/4ac8179de84c55fd79a76246249cf0b977d26942.jpg",
    "icongray": "https://steamcdn-a.akamaihd.net/steamcommunity/public/images/apps/67370/4ac8179de84c55fd79a76246249cf0b977d26942.jpg"
  },
  {
    "name": "ACHIEVEMENT_19",
    "defaultvalue": 0,
    "displayName": "The Swarm King",
    "hidden": 0,
    "description": "Kill 50 enemies who are swarmed while playing as Jackie",
    "icon": "https://steamcdn-a.akamaihd.net/steamcommunity/public/images/apps/67370/600d95d3ceef4b46353264666f4e29319f907579.jpg",
    "icongray": "https://steamcdn-a.akamaihd.net/steamcommunity/public/images/apps/67370/600d95d3ceef4b46353264666f4e29319f907579.jpg"
  },
  {
    "name": "ACHIEVEMENT_20",
    "defaultvalue": 0,
    "displayName": "The Old Gibber",
    "hidden": 0,
    "description": "Kill 100 enemies with Gun Channeling while playing as Jackie",
    "icon": "https://steamcdn-a.akamaihd.net/steamcommunity/public/images/apps/67370/25c96f2bbbea7c1e02ecc0e8a004118709257f30.jpg",
    "icongray": "https://steamcdn-a.akamaihd.net/steamcommunity/public/images/apps/67370/25c96f2bbbea7c1e02ecc0e8a004118709257f30.jpg"
  },
  {
    "name": "ACHIEVEMENT_21",
    "defaultvalue": 0,
    "displayName": "Suck It Up",
    "hidden": 0,
    "description": "Kill 50 enemies with Black Hole while playing as Jackie",
    "icon": "https://steamcdn-a.akamaihd.net/steamcommunity/public/images/apps/67370/2b90e585edc9a7a03eef0252eb78c28c5f9cb843.jpg",
    "icongray": "https://steamcdn-a.akamaihd.net/steamcommunity/public/images/apps/67370/2b90e585edc9a7a03eef0252eb78c28c5f9cb843.jpg"
  },
  {
    "name": "ACHIEVEMENT_22",
    "defaultvalue": 0,
    "displayName": "Cut and Run",
    "hidden": 0,
    "description": "Kill 50 enemies with the Demon Arm Slash attack",
    "icon": "https://steamcdn-a.akamaihd.net/steamcommunity/public/images/apps/67370/8be989f2aeddea875085e10f2339bed1d324033e.jpg",
    "icongray": "https://steamcdn-a.akamaihd.net/steamcommunity/public/images/apps/67370/8be989f2aeddea875085e10f2339bed1d324033e.jpg"
  },
  {
    "name": "ACHIEVEMENT_23",
    "defaultvalue": 0,
    "displayName": "Ready for the Big Leagues",
    "hidden": 0,
    "description": "Kill 50 enemies with thrown objects",
    "icon": "https://steamcdn-a.akamaihd.net/steamcommunity/public/images/apps/67370/2cc55736719bafd86e5b3c1a5b75f104c8fda9da.jpg",
    "icongray": "https://steamcdn-a.akamaihd.net/steamcommunity/public/images/apps/67370/2cc55736719bafd86e5b3c1a5b75f104c8fda9da.jpg"
  },
  {
    "name": "ACHIEVEMENT_24",
    "defaultvalue": 0,
    "displayName": "Dark Akimbo",
    "hidden": 0,
    "description": "Kill 100 enemies while dual wielding 2 different guns while playing as Jackie",
    "icon": "https://steamcdn-a.akamaihd.net/steamcommunity/public/images/apps/67370/1c52fda8cdb557666fe066d73e5be5f4247ece92.jpg",
    "icongray": "https://steamcdn-a.akamaihd.net/steamcommunity/public/images/apps/67370/1c52fda8cdb557666fe066d73e5be5f4247ece92.jpg"
  },
  {
    "name": "ACHIEVEMENT_25",
    "defaultvalue": 0,
    "displayName": "That's Why I'm the Boss",
    "hidden": 0,
    "description": "Impress Dolfo in two different ways",
    "icon": "https://steamcdn-a.akamaihd.net/steamcommunity/public/images/apps/67370/cdf7e315fee90052d9199bc6701e387466927702.jpg",
    "icongray": "https://steamcdn-a.akamaihd.net/steamcommunity/public/images/apps/67370/cdf7e315fee90052d9199bc6701e387466927702.jpg"
  },
  {
    "name": "ACHIEVEMENT_26",
    "defaultvalue": 0,
    "displayName": "Karma's a Bitch",
    "hidden": 0,
    "description": "Kill a shielded enemy with his own shield",
    "icon": "https://steamcdn-a.akamaihd.net/steamcommunity/public/images/apps/67370/6ca085de3362ad44aa6ace6996cbc6148f90f663.jpg",
    "icongray": "https://steamcdn-a.akamaihd.net/steamcommunity/public/images/apps/67370/6ca085de3362ad44aa6ace6996cbc6148f90f663.jpg"
  },
  {
    "name": "ACHIEVEMENT_27",
    "defaultvalue": 0,
    "displayName": "2 Guys 1 Pole",
    "hidden": 0,
    "description": "Kill 2 enemies with one javelin",
    "icon": "https://steamcdn-a.akamaihd.net/steamcommunity/public/images/apps/67370/227bc4c87cad422905595ec2d9b598ed627424bd.jpg",
    "icongray": "https://steamcdn-a.akamaihd.net/steamcommunity/public/images/apps/67370/227bc4c87cad422905595ec2d9b598ed627424bd.jpg"
  },
  {
    "name": "ACHIEVEMENT_28",
    "defaultvalue": 0,
    "displayName": "Versatile Killer",
    "hidden": 0,
    "description": "Kill enemies in 5 different ways within 30 seconds",
    "icon": "https://steamcdn-a.akamaihd.net/steamcommunity/public/images/apps/67370/dec34bbfc2e959e92e020746c490d9aa1bfaea5b.jpg",
    "icongray": "https://steamcdn-a.akamaihd.net/steamcommunity/public/images/apps/67370/dec34bbfc2e959e92e020746c490d9aa1bfaea5b.jpg"
  },
  {
    "name": "ACHIEVEMENT_29",
    "defaultvalue": 0,
    "displayName": "Skeet Shoot",
    "hidden": 0,
    "description": "Throw an enemy into the air and kill him with gunfire before he lands",
    "icon": "https://steamcdn-a.akamaihd.net/steamcommunity/public/images/apps/67370/89df6bf7c9476d1f293e4c7da32e9d70d24d02a4.jpg",
    "icongray": "https://steamcdn-a.akamaihd.net/steamcommunity/public/images/apps/67370/89df6bf7c9476d1f293e4c7da32e9d70d24d02a4.jpg"
  },
  {
    "name": "ACHIEVEMENT_30",
    "defaultvalue": 0,
    "displayName": "Jackie's Got Talent",
    "hidden": 0,
    "description": "Purchase a Talent in the single player campaign",
    "icon": "https://steamcdn-a.akamaihd.net/steamcommunity/public/images/apps/67370/efcb6ee74b540827b4a099afc54738c54cadd2f9.jpg",
    "icongray": "https://steamcdn-a.akamaihd.net/steamcommunity/public/images/apps/67370/efcb6ee74b540827b4a099afc54738c54cadd2f9.jpg"
  },
  {
    "name": "ACHIEVEMENT_31",
    "defaultvalue": 0,
    "displayName": "This Kid's Got Potential",
    "hidden": 0,
    "description": "Max out 1 of Jackie's Talent Trees",
    "icon": "https://steamcdn-a.akamaihd.net/steamcommunity/public/images/apps/67370/a58dd11e71a1694fc03c91cc3adc11da444fd80d.jpg",
    "icongray": "https://steamcdn-a.akamaihd.net/steamcommunity/public/images/apps/67370/a58dd11e71a1694fc03c91cc3adc11da444fd80d.jpg"
  },
  {
    "name": "ACHIEVEMENT_32",
    "defaultvalue": 0,
    "displayName": "Truly Talented",
    "hidden": 0,
    "description": "Max out 3 of Jackie's Talent Trees",
    "icon": "https://steamcdn-a.akamaihd.net/steamcommunity/public/images/apps/67370/858bb57b25930929f96802d73189d35091232ee9.jpg",
    "icongray": "https://steamcdn-a.akamaihd.net/steamcommunity/public/images/apps/67370/858bb57b25930929f96802d73189d35091232ee9.jpg"
  },
  {
    "name": "ACHIEVEMENT_33",
    "defaultvalue": 0,
    "displayName": "Talent Show",
    "hidden": 0,
    "description": "Max out all of Jackie's Talent Trees",
    "icon": "https://steamcdn-a.akamaihd.net/steamcommunity/public/images/apps/67370/f1f0ecfb205fc4665733656209f3d506e6c95f01.jpg",
    "icongray": "https://steamcdn-a.akamaihd.net/steamcommunity/public/images/apps/67370/f1f0ecfb205fc4665733656209f3d506e6c95f01.jpg"
  },
  {
    "name": "ACHIEVEMENT_34",
    "defaultvalue": 0,
    "displayName": "Mmmm Essence!",
    "hidden": 0,
    "description": "Pick up 5 Relics in the single player campaign",
    "icon": "https://steamcdn-a.akamaihd.net/steamcommunity/public/images/apps/67370/56532f24d43e7c1e87f01de61187fd1a76b8ecf3.jpg",
    "icongray": "https://steamcdn-a.akamaihd.net/steamcommunity/public/images/apps/67370/56532f24d43e7c1e87f01de61187fd1a76b8ecf3.jpg"
  },
  {
    "name": "ACHIEVEMENT_35",
    "defaultvalue": 0,
    "displayName": "Relic Hunter",
    "hidden": 0,
    "description": "Find all 29 Relics in the single player campaign",
    "icon": "https://steamcdn-a.akamaihd.net/steamcommunity/public/images/apps/67370/9f0dc5403b730ed8f31b14f77c0203e756cc59a0.jpg",
    "icongray": "https://steamcdn-a.akamaihd.net/steamcommunity/public/images/apps/67370/9f0dc5403b730ed8f31b14f77c0203e756cc59a0.jpg"
  },
  {
    "name": "ACHIEVEMENT_36",
    "defaultvalue": 0,
    "displayName": "Burned His Mansion",
    "hidden": 0,
    "description": "Kill Luigi Palladino",
    "icon": "https://steamcdn-a.akamaihd.net/steamcommunity/public/images/apps/67370/377662a9184c2177bed817c3a25e6bcbc622fb01.jpg",
    "icongray": "https://steamcdn-a.akamaihd.net/steamcommunity/public/images/apps/67370/377662a9184c2177bed817c3a25e6bcbc622fb01.jpg"
  },
  {
    "name": "ACHIEVEMENT_37",
    "defaultvalue": 0,
    "displayName": "Coward",
    "hidden": 0,
    "description": "Kill Cedro Valdez",
    "icon": "https://steamcdn-a.akamaihd.net/steamcommunity/public/images/apps/67370/7f963917033a53b93e764fa7ff9e3ea85b5ec2df.jpg",
    "icongray": "https://steamcdn-a.akamaihd.net/steamcommunity/public/images/apps/67370/7f963917033a53b93e764fa7ff9e3ea85b5ec2df.jpg"
  },
  {
    "name": "ACHIEVEMENT_38",
    "defaultvalue": 0,
    "displayName": "Whipping Boy",
    "hidden": 0,
    "description": "Kill Frank Marshall",
    "icon": "https://steamcdn-a.akamaihd.net/steamcommunity/public/images/apps/67370/8231f8a537a2ee1f1deba456cb6f862e665a2429.jpg",
    "icongray": "https://steamcdn-a.akamaihd.net/steamcommunity/public/images/apps/67370/8231f8a537a2ee1f1deba456cb6f862e665a2429.jpg"
  },
  {
    "name": "ACHIEVEMENT_39",
    "defaultvalue": 0,
    "displayName": "Bonnie & Clyde Wannabes",
    "hidden": 0,
    "description": "Kill Jean-Luc Lambert and Amelie Dubois",
    "icon": "https://steamcdn-a.akamaihd.net/steamcommunity/public/images/apps/67370/9aa79a259e5bc848030c18b09249bec67bb3b18a.jpg",
    "icongray": "https://steamcdn-a.akamaihd.net/steamcommunity/public/images/apps/67370/9aa79a259e5bc848030c18b09249bec67bb3b18a.jpg"
  },
  {
    "name": "ACHIEVEMENT_40",
    "defaultvalue": 0,
    "displayName": "Technical Difficulties",
    "hidden": 0,
    "description": "Kill the NewsWatch 6 team of Tom Dawson, Bud Langley and Sara Stephens",
    "icon": "https://steamcdn-a.akamaihd.net/steamcommunity/public/images/apps/67370/a5c80f057c655a20f1311b06b09dff3657961520.jpg",
    "icongray": "https://steamcdn-a.akamaihd.net/steamcommunity/public/images/apps/67370/a5c80f057c655a20f1311b06b09dff3657961520.jpg"
  },
  {
    "name": "ACHIEVEMENT_41",
    "defaultvalue": 0,
    "displayName": "Should Have Called 555-2368…",
    "hidden": 1,
    "icon": "https://steamcdn-a.akamaihd.net/steamcommunity/public/images/apps/67370/094064c412cc9fa829209a13c2891ecde3e41b99.jpg",
    "icongray": "https://steamcdn-a.akamaihd.net/steamcommunity/public/images/apps/67370/094064c412cc9fa829209a13c2891ecde3e41b99.jpg"
  },
  {
    "name": "ACHIEVEMENT_42",
    "defaultvalue": 0,
    "displayName": "The Brotherhood Crumbles",
    "hidden": 0,
    "description": "Complete Vendettas Campaign",
    "icon": "https://steamcdn-a.akamaihd.net/steamcommunity/public/images/apps/67370/bc09bc5c21049fa7f26ee78415245b993404e0ce.jpg",
    "icongray": "https://steamcdn-a.akamaihd.net/steamcommunity/public/images/apps/67370/bc09bc5c21049fa7f26ee78415245b993404e0ce.jpg"
  },
  {
    "name": "ACHIEVEMENT_43",
    "defaultvalue": 0,
    "displayName": "Dark Ninjutsu",
    "hidden": 0,
    "description": "Complete a mission as Inugami",
    "icon": "https://steamcdn-a.akamaihd.net/steamcommunity/public/images/apps/67370/e5f762159adfcd73c5e20e9e41e14e119615b11d.jpg",
    "icongray": "https://steamcdn-a.akamaihd.net/steamcommunity/public/images/apps/67370/e5f762159adfcd73c5e20e9e41e14e119615b11d.jpg"
  },
  {
    "name": "ACHIEVEMENT_44",
    "defaultvalue": 0,
    "displayName": "Hell Hath No Fury...",
    "hidden": 0,
    "description": "Complete a mission as Shoshanna",
    "icon": "https://steamcdn-a.akamaihd.net/steamcommunity/public/images/apps/67370/f19d511e8ecf2da0fd1f346d3cae4668587a1be8.jpg",
    "icongray": "https://steamcdn-a.akamaihd.net/steamcommunity/public/images/apps/67370/f19d511e8ecf2da0fd1f346d3cae4668587a1be8.jpg"
  },
  {
    "name": "ACHIEVEMENT_45",
    "defaultvalue": 0,
    "displayName": "It's 12pm Somewhere!",
    "hidden": 0,
    "description": "Complete a mission as Jimmy",
    "icon": "https://steamcdn-a.akamaihd.net/steamcommunity/public/images/apps/67370/6fd78fd98a9aea4e64ea6213d12976578a45b520.jpg",
    "icongray": "https://steamcdn-a.akamaihd.net/steamcommunity/public/images/apps/67370/6fd78fd98a9aea4e64ea6213d12976578a45b520.jpg"
  },
  {
    "name": "ACHIEVEMENT_46",
    "defaultvalue": 0,
    "displayName": "Voodoo is More Than Dolls",
    "hidden": 0,
    "description": "Complete a mission as JP",
    "icon": "https://steamcdn-a.akamaihd.net/steamcommunity/public/images/apps/67370/153e7c089e28e54493f27401d1f4bde5ec2be644.jpg",
    "icongray": "https://steamcdn-a.akamaihd.net/steamcommunity/public/images/apps/67370/153e7c089e28e54493f27401d1f4bde5ec2be644.jpg"
  },
  {
    "name": "ACHIEVEMENT_47",
    "defaultvalue": 0,
    "displayName": "Embraced the Darkness",
    "hidden": 0,
    "description": "In Vendettas, acquire all the talents for one character",
    "icon": "https://steamcdn-a.akamaihd.net/steamcommunity/public/images/apps/67370/cb9c56696e26c7c6e6ce0b3506faf81639b35fc4.jpg",
    "icongray": "https://steamcdn-a.akamaihd.net/steamcommunity/public/images/apps/67370/cb9c56696e26c7c6e6ce0b3506faf81639b35fc4.jpg"
  },
  {
    "name": "ACHIEVEMENT_48",
    "defaultvalue": 0,
    "displayName": "You've Made My Hit List",
    "hidden": 0,
    "description": "Complete 6 Hit List exclusive missions",
    "icon": "https://steamcdn-a.akamaihd.net/steamcommunity/public/images/apps/67370/431ce3e7ecb8951346db8974b42c915f3bc89193.jpg",
    "icongray": "https://steamcdn-a.akamaihd.net/steamcommunity/public/images/apps/67370/431ce3e7ecb8951346db8974b42c915f3bc89193.jpg"
  },
  {
    "name": "ACHIEVEMENT_49",
    "defaultvalue": 0,
    "displayName": "Romantic",
    "hidden": 0,
    "description": "Real guys know how to dance",
    "icon": "https://steamcdn-a.akamaihd.net/steamcommunity/public/images/apps/67370/48a51d86b2e01ae2acbfa3a6979463bbee115e69.jpg",
    "icongray": "https://steamcdn-a.akamaihd.net/steamcommunity/public/images/apps/67370/48a51d86b2e01ae2acbfa3a6979463bbee115e69.jpg"
  }
]