[
  {
    "name": "THE_BIG_BUNNY",
    "defaultvalue": 0,
    "displayName": "Bunny",
    "hidden": 0,
    "description": "I LOVE YOU",
    "icon": "https://steamcdn-a.akamaihd.net/steamcommunity/public/images/apps/1121590/a4aa443cd57a811171cb8d04edaa3cf02a109544.jpg",
    "icongray": "https://steamcdn-a.akamaihd.net/steamcommunity/public/images/apps/1121590/1dbe48800faa3c0d3c4c9d0475b2b4efbf838bbe.jpg"
  },
  {
    "name": "FIRST_BLOOD",
    "defaultvalue": 0,
    "displayName": "First Blood",
    "hidden": 0,
    "description": "Hide!",
    "icon": "https://steamcdn-a.akamaihd.net/steamcommunity/public/images/apps/1121590/9a0b9ca581c6099102614e63d7a553b825c085d6.jpg",
    "icongray": "https://steamcdn-a.akamaihd.net/steamcommunity/public/images/apps/1121590/d660c1745f38b6d243f6af249cf5fc5657ed0a90.jpg"
  },
  {
    "name": "ENGINEER",
    "defaultvalue": 0,
    "displayName": "Engineer",
    "hidden": 0,
    "description": "Power Restored!",
    "icon": "https://steamcdn-a.akamaihd.net/steamcommunity/public/images/apps/1121590/b30279905784577da124c4fa10b1c7599bdd81b2.jpg",
    "icongray": "https://steamcdn-a.akamaihd.net/steamcommunity/public/images/apps/1121590/48f91ec1b8f8ee832baa28ca8c33fc0a2abbd054.jpg"
  },
  {
    "name": "FLUSH",
    "defaultvalue": 0,
    "displayName": "Plumber",
    "hidden": 0,
    "description": "Melting Pump Restored!",
    "icon": "https://steamcdn-a.akamaihd.net/steamcommunity/public/images/apps/1121590/b81c1ad87a6aa7cd1018ae40e7a2aa777ffdc22f.jpg",
    "icongray": "https://steamcdn-a.akamaihd.net/steamcommunity/public/images/apps/1121590/cc575aa7acbc9a42957992a3e47206277512ca0c.jpg"
  },
  {
    "name": "TECHNICIAN",
    "defaultvalue": 0,
    "displayName": "Technician",
    "hidden": 0,
    "description": "Emergency Lock Down Lifted!",
    "icon": "https://steamcdn-a.akamaihd.net/steamcommunity/public/images/apps/1121590/38127a2b64e0a99d7b444974bd56c77f369abbc8.jpg",
    "icongray": "https://steamcdn-a.akamaihd.net/steamcommunity/public/images/apps/1121590/5a991fa93157e9b8732bef36c8cda5376479bf14.jpg"
  },
  {
    "name": "DECRYPTION",
    "defaultvalue": 0,
    "displayName": "Decryption",
    "hidden": 0,
    "description": "Code breaker!",
    "icon": "https://steamcdn-a.akamaihd.net/steamcommunity/public/images/apps/1121590/c38f02941127ec67fde84e9654d06ef494624fd9.jpg",
    "icongray": "https://steamcdn-a.akamaihd.net/steamcommunity/public/images/apps/1121590/459ebde785b783d73a018b5af8d8bceb00a9658c.jpg"
  },
  {
    "name": "SURFACE",
    "defaultvalue": 0,
    "displayName": "A way out",
    "hidden": 0,
    "description": "The only way out.",
    "icon": "https://steamcdn-a.akamaihd.net/steamcommunity/public/images/apps/1121590/f1017053b11c8d824077913f22aa45ccaf6990af.jpg",
    "icongray": "https://steamcdn-a.akamaihd.net/steamcommunity/public/images/apps/1121590/369dc82b895bc0a92d8edd8181382f1442b2ce79.jpg"
  }
]