[
  {
    "name": "ACH_NOOB",
    "defaultvalue": 0,
    "displayName": "FIRST TIME",
    "hidden": 0,
    "description": "play for the first time!",
    "icon": "https://steamcdn-a.akamaihd.net/steamcommunity/public/images/apps/381140/1cc514d4b5ba68f39cfc464fb21bae8b2bb9ad51.jpg",
    "icongray": "https://steamcdn-a.akamaihd.net/steamcommunity/public/images/apps/381140/5f2bc53cd8a3149780a4a02b81ae6bc0f98373b8.jpg"
  },
  {
    "name": "ACH_FIRST_CARNAGE",
    "defaultvalue": 0,
    "displayName": "BLOOD THIRSTY",
    "hidden": 0,
    "description": "Kill 100 Zombies",
    "icon": "https://steamcdn-a.akamaihd.net/steamcommunity/public/images/apps/381140/83e097baaedef6baf7e06319ed34f6b138943597.jpg",
    "icongray": "https://steamcdn-a.akamaihd.net/steamcommunity/public/images/apps/381140/5f2bc53cd8a3149780a4a02b81ae6bc0f98373b8.jpg"
  },
  {
    "name": "ACH_ROBIN",
    "defaultvalue": 0,
    "displayName": "ROBIN HOOD",
    "hidden": 0,
    "description": "Do 50 headshots with the Crossbow",
    "icon": "https://steamcdn-a.akamaihd.net/steamcommunity/public/images/apps/381140/d46cbfc333cf2908a02e70db30908006c671df0b.jpg",
    "icongray": "https://steamcdn-a.akamaihd.net/steamcommunity/public/images/apps/381140/5f2bc53cd8a3149780a4a02b81ae6bc0f98373b8.jpg"
  },
  {
    "name": "ACH_HEAD",
    "defaultvalue": 0,
    "displayName": "HEADSHOT",
    "hidden": 0,
    "description": "DO 100 Headshots",
    "icon": "https://steamcdn-a.akamaihd.net/steamcommunity/public/images/apps/381140/ad33e022f0eda497804a1d17968a71a5f748d383.jpg",
    "icongray": "https://steamcdn-a.akamaihd.net/steamcommunity/public/images/apps/381140/5f2bc53cd8a3149780a4a02b81ae6bc0f98373b8.jpg"
  },
  {
    "name": "ACH_HELL",
    "defaultvalue": 0,
    "displayName": "WELCOME TO HELL",
    "hidden": 0,
    "description": "Survive 30 rounds",
    "icon": "https://steamcdn-a.akamaihd.net/steamcommunity/public/images/apps/381140/4e72a3fd0b32ea4ccfbf8af9950ea2c9f43629b0.jpg",
    "icongray": "https://steamcdn-a.akamaihd.net/steamcommunity/public/images/apps/381140/5f2bc53cd8a3149780a4a02b81ae6bc0f98373b8.jpg"
  },
  {
    "name": "ACH_MORE",
    "defaultvalue": 0,
    "displayName": "MORE BLOOD",
    "hidden": 0,
    "description": "Kill 500 zombies",
    "icon": "https://steamcdn-a.akamaihd.net/steamcommunity/public/images/apps/381140/463335a59a0ef0f91ecd56cdd7de3f0eaf8835ac.jpg",
    "icongray": "https://steamcdn-a.akamaihd.net/steamcommunity/public/images/apps/381140/5f2bc53cd8a3149780a4a02b81ae6bc0f98373b8.jpg"
  },
  {
    "name": "ACH_GIT_GUD",
    "defaultvalue": 0,
    "displayName": "GIT GUD",
    "hidden": 0,
    "description": "Die 5 times before the level 5",
    "icon": "https://steamcdn-a.akamaihd.net/steamcommunity/public/images/apps/381140/9d547a41bdb976ae413f3278f6960925ba4b3b71.jpg",
    "icongray": "https://steamcdn-a.akamaihd.net/steamcommunity/public/images/apps/381140/5f2bc53cd8a3149780a4a02b81ae6bc0f98373b8.jpg"
  },
  {
    "name": "ACH_ROCK",
    "defaultvalue": 0,
    "displayName": "YOU ROCK!",
    "hidden": 0,
    "description": "Survive 10 rounds",
    "icon": "https://steamcdn-a.akamaihd.net/steamcommunity/public/images/apps/381140/087b9787c1db6969204c6a03d409d0d216b44f5f.jpg",
    "icongray": "https://steamcdn-a.akamaihd.net/steamcommunity/public/images/apps/381140/5f2bc53cd8a3149780a4a02b81ae6bc0f98373b8.jpg"
  },
  {
    "name": "ACH_PRO",
    "defaultvalue": 0,
    "displayName": "WOAH!",
    "hidden": 0,
    "description": "You are unstopable!",
    "icon": "https://steamcdn-a.akamaihd.net/steamcommunity/public/images/apps/381140/5bfa92290c4cd0db95f88204076b3ec24e6fab16.jpg",
    "icongray": "https://steamcdn-a.akamaihd.net/steamcommunity/public/images/apps/381140/5f2bc53cd8a3149780a4a02b81ae6bc0f98373b8.jpg"
  }
]