{
  "Dlcs": {},
  "Name": "Unlock The King 3",
  "AppId": "1255130",
  "ImageUrl": "https://steamcdn-a.akamaihd.net/steam/apps/1255130/header.jpg?t=1597267923",
  "Languages": [
    "english"
  ],
  "Platforms": {
    "windows": true,
    "mac": true,
    "linux": false
  }
}