{
  "Dlcs": {},
  "Name": "Tomscape",
  "AppId": "1135120",
  "ImageUrl": "https://steamcdn-a.akamaihd.net/steam/apps/1135120/header.jpg?t=1579283604",
  "Languages": [
    "english"
  ],
  "Platforms": {
    "windows": true,
    "mac": true,
    "linux": false
  }
}