{
  "Dlcs": {},
  "Name": "Uragun",
  "AppId": "724000",
  "ImageUrl": "https://steamcdn-a.akamaihd.net/steam/apps/724000/header.jpg?t=1600956406",
  "Languages": [
    "english",
    "polish"
  ],
  "Platforms": {
    "windows": true,
    "mac": false,
    "linux": false
  }
}