[
  {
    "name": "punch",
    "defaultvalue": 0,
    "displayName": "punch"
  },
  {
    "name": "play_easy",
    "defaultvalue": 0,
    "displayName": "play_easy"
  },
  {
    "name": "play_normal",
    "defaultvalue": 0,
    "displayName": "play_normal"
  },
  {
    "name": "play_hard",
    "defaultvalue": 0,
    "displayName": "play_hard"
  },
  {
    "name": "play_disaster",
    "defaultvalue": 0,
    "displayName": "play_disaster"
  },
  {
    "name": "highscore_easy",
    "defaultvalue": 0,
    "displayName": "highscore_easy"
  },
  {
    "name": "highscore_normal",
    "defaultvalue": 0,
    "displayName": "highscore_normal"
  },
  {
    "name": "highscore_hard",
    "defaultvalue": 0,
    "displayName": "highscore_hard"
  },
  {
    "name": "highscore_disaster",
    "defaultvalue": 0,
    "displayName": "highscore_disaster"
  },
  {
    "name": "body",
    "defaultvalue": 0,
    "displayName": "body"
  },
  {
    "name": "volume_master",
    "defaultvalue": 0,
    "displayName": "volume_master"
  },
  {
    "name": "volume_se",
    "defaultvalue": 0,
    "displayName": "volume_se"
  },
  {
    "name": "volume_bgm",
    "defaultvalue": 0,
    "displayName": "volume_bgm"
  },
  {
    "name": "level",
    "defaultvalue": 1,
    "displayName": "level"
  },
  {
    "name": "exp",
    "defaultvalue": 0,
    "displayName": "exp"
  },
  {
    "name": "s",
    "defaultvalue": 0,
    "displayName": "s"
  },
  {
    "name": "ss",
    "defaultvalue": 0,
    "displayName": "ss"
  },
  {
    "name": "sss",
    "defaultvalue": 0,
    "displayName": "sss"
  },
  {
    "name": "resolution",
    "defaultvalue": 0,
    "displayName": "resolution"
  },
  {
    "name": "screen",
    "defaultvalue": 0,
    "displayName": "screen"
  }
]