{
  "Dlcs": {},
  "Name": "Pulse Jumper",
  "AppId": "1397760",
  "ImageUrl": "https://steamcdn-a.akamaihd.net/steam/apps/1397760/header.jpg?t=1600519168",
  "Languages": [
    "english"
  ],
  "Platforms": {
    "windows": true,
    "mac": false,
    "linux": false
  }
}