{
  "Dlcs": {},
  "Name": "Another Star",
  "AppId": "358030",
  "ImageUrl": "https://steamcdn-a.akamaihd.net/steam/apps/358030/header.jpg?t=1570988245",
  "Languages": [
    "english"
  ],
  "Platforms": {
    "windows": true,
    "mac": true,
    "linux": true
  }
}