[
  {
    "name": "NEW_ACHIEVEMENT_1_0",
    "defaultvalue": 0,
    "displayName": "Promising Soldier",
    "hidden": 0,
    "description": "Level 1 passed",
    "icon": "https://steamcdn-a.akamaihd.net/steamcommunity/public/images/apps/795530/057d4a591ca8e4523a41dc6c177d8c27bec7b4d1.jpg",
    "icongray": "https://steamcdn-a.akamaihd.net/steamcommunity/public/images/apps/795530/77f5b0844c34bc80006d092b129ae57c0396b3b8.jpg"
  },
  {
    "name": "NEW_ACHIEVEMENT_1_1",
    "defaultvalue": 0,
    "displayName": "Experienced Shooter",
    "hidden": 0,
    "description": "Level 2 passed",
    "icon": "https://steamcdn-a.akamaihd.net/steamcommunity/public/images/apps/795530/756dc7bfbb441bf12d02c67ad8210d7a90bacb92.jpg",
    "icongray": "https://steamcdn-a.akamaihd.net/steamcommunity/public/images/apps/795530/a2f47c2607d05f9fc930f960f81233d12016fc89.jpg"
  },
  {
    "name": "NEW_ACHIEVEMENT_1_2",
    "defaultvalue": 0,
    "displayName": "Hope of Humanity",
    "hidden": 0,
    "description": "Level 3 passed",
    "icon": "https://steamcdn-a.akamaihd.net/steamcommunity/public/images/apps/795530/f0189f3cfc7e2d8929cde83093157c17ae6d2b43.jpg",
    "icongray": "https://steamcdn-a.akamaihd.net/steamcommunity/public/images/apps/795530/133270bbcda8769b0941bae3a8a4a8c5017122c0.jpg"
  },
  {
    "name": "NEW_ACHIEVEMENT_1_3",
    "defaultvalue": 0,
    "displayName": "Savior",
    "hidden": 0,
    "description": "Passed all levels",
    "icon": "https://steamcdn-a.akamaihd.net/steamcommunity/public/images/apps/795530/afd1af3a61efc2e768e9b1e39adb1cca7ec3f44b.jpg",
    "icongray": "https://steamcdn-a.akamaihd.net/steamcommunity/public/images/apps/795530/bcd7e6e7b94d99f788a6b8df6d3b61f165fbfc48.jpg"
  },
  {
    "name": "NEW_ACHIEVEMENT_1_4",
    "defaultvalue": 0,
    "displayName": "Stealth Master",
    "hidden": 0,
    "description": "Passed level without first aid kits and armor",
    "icon": "https://steamcdn-a.akamaihd.net/steamcommunity/public/images/apps/795530/f68aeaf9383db4b0a9bc49c69e9a7e6b46c68d48.jpg",
    "icongray": "https://steamcdn-a.akamaihd.net/steamcommunity/public/images/apps/795530/2c6dc922fc261d2809e48e79ec6e6e97f153f880.jpg"
  },
  {
    "name": "NEW_ACHIEVEMENT_1_5",
    "defaultvalue": 0,
    "displayName": "Almost Dead",
    "hidden": 0,
    "description": "Passed level with minimal health",
    "icon": "https://steamcdn-a.akamaihd.net/steamcommunity/public/images/apps/795530/d3b31d152d60f79fbdf39614290d077d126dab4c.jpg",
    "icongray": "https://steamcdn-a.akamaihd.net/steamcommunity/public/images/apps/795530/87ec18d0ce7817e50f44419f313144546854fa87.jpg"
  },
  {
    "name": "NEW_ACHIEVEMENT_1_6",
    "defaultvalue": 0,
    "displayName": "First Blood",
    "hidden": 0,
    "description": "Defeated the first enemy",
    "icon": "https://steamcdn-a.akamaihd.net/steamcommunity/public/images/apps/795530/9a87a13c458e00c5f1de8bacdc03f6e835711d02.jpg",
    "icongray": "https://steamcdn-a.akamaihd.net/steamcommunity/public/images/apps/795530/bcf593aa2164be0443201759cc9e770c068a63b2.jpg"
  },
  {
    "name": "NEW_ACHIEVEMENT_1_7",
    "defaultvalue": 0,
    "displayName": "Corpses Collector",
    "hidden": 0,
    "description": "Defeated enemy of every kind",
    "icon": "https://steamcdn-a.akamaihd.net/steamcommunity/public/images/apps/795530/7c3850761bffb868b92e166fe240b3b9ebd56960.jpg",
    "icongray": "https://steamcdn-a.akamaihd.net/steamcommunity/public/images/apps/795530/c6acba4b31fcf67157fb9a39aba28878b852803d.jpg"
  },
  {
    "name": "NEW_ACHIEVEMENT_1_9",
    "defaultvalue": 0,
    "displayName": "Specialist",
    "hidden": 0,
    "description": "10 enemies defeated",
    "icon": "https://steamcdn-a.akamaihd.net/steamcommunity/public/images/apps/795530/2011fd8e0f066911252f92a39c7eae243acbddb8.jpg",
    "icongray": "https://steamcdn-a.akamaihd.net/steamcommunity/public/images/apps/795530/2aff638312fe4f7513e0322bef0fe5b5e5b9938c.jpg"
  },
  {
    "name": "NEW_ACHIEVEMENT_1_10",
    "defaultvalue": 0,
    "displayName": "Corporal",
    "hidden": 0,
    "description": "50 enemies defeated",
    "icon": "https://steamcdn-a.akamaihd.net/steamcommunity/public/images/apps/795530/4f01adebaac0c10d70eac30fcd7c5d5e6badd866.jpg",
    "icongray": "https://steamcdn-a.akamaihd.net/steamcommunity/public/images/apps/795530/df6e5c7bd8d4faa0166f4ab19b9c7482273f34eb.jpg"
  },
  {
    "name": "NEW_ACHIEVEMENT_1_11",
    "defaultvalue": 0,
    "displayName": "Sergeant",
    "hidden": 0,
    "description": "100 enemies defeated",
    "icon": "https://steamcdn-a.akamaihd.net/steamcommunity/public/images/apps/795530/aacc2097b1139b1a1465b80a9ff2ee466e8bce7d.jpg",
    "icongray": "https://steamcdn-a.akamaihd.net/steamcommunity/public/images/apps/795530/f31c76d1999021d8500b7e5588569ff0a0b975de.jpg"
  },
  {
    "name": "NEW_ACHIEVEMENT_1_12",
    "defaultvalue": 0,
    "displayName": "Lieutenant",
    "hidden": 0,
    "description": "500 enemies defeated",
    "icon": "https://steamcdn-a.akamaihd.net/steamcommunity/public/images/apps/795530/8f6678fbe3074163f07d0f55094c41027df2c1ef.jpg",
    "icongray": "https://steamcdn-a.akamaihd.net/steamcommunity/public/images/apps/795530/d2dd5fb50215f380c7309c2a55b5c2b1433fae8f.jpg"
  },
  {
    "name": "NEW_ACHIEVEMENT_1_13",
    "defaultvalue": 0,
    "displayName": "Captain",
    "hidden": 0,
    "description": "1000 enemies defeated",
    "icon": "https://steamcdn-a.akamaihd.net/steamcommunity/public/images/apps/795530/365bec65af002bc327f4e3b3a3a374bf76091b2f.jpg",
    "icongray": "https://steamcdn-a.akamaihd.net/steamcommunity/public/images/apps/795530/ebcb9733f76642327f37b4bec7497eae758498c5.jpg"
  },
  {
    "name": "NEW_ACHIEVEMENT_1_14",
    "defaultvalue": 0,
    "displayName": "Weapon Collector",
    "hidden": 0,
    "description": "Collected all weapons",
    "icon": "https://steamcdn-a.akamaihd.net/steamcommunity/public/images/apps/795530/879605ce1bf5c34e0ddc70c62aac483c1582eed7.jpg",
    "icongray": "https://steamcdn-a.akamaihd.net/steamcommunity/public/images/apps/795530/b60cd0550df0b84a69eee55664ac7d8227774821.jpg"
  },
  {
    "name": "NEW_ACHIEVEMENT_1_15",
    "defaultvalue": 0,
    "displayName": "Out on Limb",
    "hidden": 0,
    "description": "Killed for the first time",
    "icon": "https://steamcdn-a.akamaihd.net/steamcommunity/public/images/apps/795530/2ac1d7c7448ba613296122868eba6b6293fdfb65.jpg",
    "icongray": "https://steamcdn-a.akamaihd.net/steamcommunity/public/images/apps/795530/9a471acb9c7e6ceea691a0c927ca310eb915cbec.jpg"
  },
  {
    "name": "NEW_ACHIEVEMENT_1_16",
    "defaultvalue": 0,
    "displayName": "Unlucky Hero",
    "hidden": 0,
    "description": "Killed 10 times",
    "icon": "https://steamcdn-a.akamaihd.net/steamcommunity/public/images/apps/795530/9a6f6dc8aaac5a42ca1835231a2cc70da53459d6.jpg",
    "icongray": "https://steamcdn-a.akamaihd.net/steamcommunity/public/images/apps/795530/b10548616fbc12bb66c2706dd710a5499f98747a.jpg"
  },
  {
    "name": "NEW_ACHIEVEMENT_1_17",
    "defaultvalue": 0,
    "displayName": "Risen from the Dead",
    "hidden": 0,
    "description": "Killed 50 times",
    "icon": "https://steamcdn-a.akamaihd.net/steamcommunity/public/images/apps/795530/e3747d9fbcd4413f1fff83aeade2f2d80574c1fe.jpg",
    "icongray": "https://steamcdn-a.akamaihd.net/steamcommunity/public/images/apps/795530/51944752b7ce70ff50f7cbdeb3c08c4924e6bd56.jpg"
  },
  {
    "name": "NEW_ACHIEVEMENT_1_18",
    "defaultvalue": 0,
    "displayName": "Lord of the Bones",
    "hidden": 0,
    "description": "Killed 100 times",
    "icon": "https://steamcdn-a.akamaihd.net/steamcommunity/public/images/apps/795530/e834cc1a7ae8982024b47cbeb7cf6d853baac30f.jpg",
    "icongray": "https://steamcdn-a.akamaihd.net/steamcommunity/public/images/apps/795530/80966bda8d18109a09ed082c1b8c117acda2c393.jpg"
  },
  {
    "name": "NEW_ACHIEVEMENT_1_19",
    "defaultvalue": 0,
    "displayName": "Walking Dead",
    "hidden": 0,
    "description": "Killed 500 times",
    "icon": "https://steamcdn-a.akamaihd.net/steamcommunity/public/images/apps/795530/660df434de3dad94e229177cb6504a2a849a1b32.jpg",
    "icongray": "https://steamcdn-a.akamaihd.net/steamcommunity/public/images/apps/795530/981acedc5fab583b82e72bfe2529b5d71d1d1031.jpg"
  },
  {
    "name": "NEW_ACHIEVEMENT_1_20",
    "defaultvalue": 0,
    "displayName": "Suicidal Savior",
    "hidden": 0,
    "description": "Killed 1000 times",
    "icon": "https://steamcdn-a.akamaihd.net/steamcommunity/public/images/apps/795530/79d0488f55de82f2bcf256e5f6319901cee29ffd.jpg",
    "icongray": "https://steamcdn-a.akamaihd.net/steamcommunity/public/images/apps/795530/cb4b5613645ea53eb84c9985fc3bd6e00f272d08.jpg"
  },
  {
    "name": "NEW_ACHIEVEMENT_1_21",
    "defaultvalue": 0,
    "displayName": "Turret Summoner",
    "hidden": 0,
    "description": "Collected all the turrets at the level",
    "icon": "https://steamcdn-a.akamaihd.net/steamcommunity/public/images/apps/795530/2eced79d62da4c6eb4863d3a52575db93c18c079.jpg",
    "icongray": "https://steamcdn-a.akamaihd.net/steamcommunity/public/images/apps/795530/aced1be01a7cdf82bd0533ff0d399fc641fe570f.jpg"
  },
  {
    "name": "NEW_ACHIEVEMENT_1_22",
    "defaultvalue": 0,
    "displayName": "Safe and Sound",
    "hidden": 0,
    "description": "Level passed without damage",
    "icon": "https://steamcdn-a.akamaihd.net/steamcommunity/public/images/apps/795530/174db2fecc6d98a2ca9a6a7d8a331352beadc77c.jpg",
    "icongray": "https://steamcdn-a.akamaihd.net/steamcommunity/public/images/apps/795530/e6747b86edf4821dc1137287ea5c72d17ecad288.jpg"
  },
  {
    "name": "NEW_ACHIEVEMENT_1_23",
    "defaultvalue": 0,
    "displayName": "Olivia’s Favorite",
    "hidden": 0,
    "description": "Olivia likes you",
    "icon": "https://steamcdn-a.akamaihd.net/steamcommunity/public/images/apps/795530/fad45072b825ffcd3f971c7b787ad4ba01327d2e.jpg",
    "icongray": "https://steamcdn-a.akamaihd.net/steamcommunity/public/images/apps/795530/1ea21d0bb5d5ceb404cff1c456d11a932e67f6bb.jpg"
  }
]