{
  "Dlcs": {},
  "Name": "Inline",
  "AppId": "716010",
  "ImageUrl": "https://steamcdn-a.akamaihd.net/steam/apps/716010/header.jpg?t=1527861646",
  "Languages": [
    "english",
    "french",
    "german",
    "russian"
  ],
  "Platforms": {
    "windows": true,
    "mac": true,
    "linux": true
  }
}