﻿{
  "Dlcs": {},
  "Name": "Pro Gamer Manager",
  "AppId": "408740",
  "ImageUrl": "https://steamcdn-a.akamaihd.net/steam/apps/408740/header.jpg?t=1475581481",
  "Languages": [
    "english"
  ],
  "Platforms": {
    "windows": true,
    "mac": false,
    "linux": false
  }
}