﻿[
  {
    "name": "AI_KILLED",
    "defaultvalue": 0,
    "displayName": "Number of AI Robots Killed"
  },
  {
    "name": "SCORE_ACC",
    "defaultvalue": 0,
    "displayName": "Accumulated Score"
  }
]