﻿{
  "Dlcs": {},
  "Name": "S.T.A.L.K.E.R.: Call of Pripyat",
  "AppId": "41700",
  "ImageUrl": "https://steamcdn-a.akamaihd.net/steam/apps/41700/header.jpg?t=1599052874",
  "Languages": [
    "german",
    "english",
    "french",
    "italian",
    "russian",
    "spanish",
    "ukrainian",
    "polish"
  ],
  "Platforms": {
    "windows": true,
    "mac": false,
    "linux": false
  }
}