﻿{
  "Dlcs": {},
  "Name": "Million Arthur: Arcana Blood",
  "AppId": "989550",
  "ImageUrl": "https://steamcdn-a.akamaihd.net/steam/apps/989550/header.jpg?t=1582570926",
  "Languages": [
    "english",
    "japanese"
  ],
  "Platforms": {
    "windows": true,
    "mac": false,
    "linux": false
  }
}