[
  {
    "name": "Progress_FirstBlood",
    "defaultvalue": 0,
    "displayName": "First Blood",
    "hidden": 0,
    "description": "Defeat your first wave of enemies",
    "icon": "https://steamcdn-a.akamaihd.net/steamcommunity/public/images/apps/369180/cdafffb40348b6ae6f3429110a0d217a0c835716.jpg",
    "icongray": "https://steamcdn-a.akamaihd.net/steamcommunity/public/images/apps/369180/64982c1d7b0b59d51a4dc193a8416da5293d60e1.jpg"
  },
  {
    "name": "General_Revive",
    "defaultvalue": 0,
    "displayName": "Over my Dead Body",
    "hidden": 0,
    "description": "Revive your Character",
    "icon": "https://steamcdn-a.akamaihd.net/steamcommunity/public/images/apps/369180/b20dbac62871d857a6d759d2e2bf27d77a15daf9.jpg",
    "icongray": "https://steamcdn-a.akamaihd.net/steamcommunity/public/images/apps/369180/682009380bf008fd76b9b03c7e29d1e5bf72fafb.jpg"
  },
  {
    "name": "General_AdoptPet",
    "defaultvalue": 0,
    "displayName": "You've got a Friend",
    "hidden": 0,
    "description": "Adopt a Pet Companion",
    "icon": "https://steamcdn-a.akamaihd.net/steamcommunity/public/images/apps/369180/f54837f5a80b1331ed9fbe056ce5cf8569ee49e2.jpg",
    "icongray": "https://steamcdn-a.akamaihd.net/steamcommunity/public/images/apps/369180/7f4d9658a54e8d2d833984b9b4797bd5daba9ab3.jpg"
  },
  {
    "name": "General_Skin",
    "defaultvalue": 0,
    "displayName": "Suit Up",
    "hidden": 0,
    "description": "Equip a Character Skin",
    "icon": "https://steamcdn-a.akamaihd.net/steamcommunity/public/images/apps/369180/9d7e53433bf68243e965f2fb2379d0e40dba45e0.jpg",
    "icongray": "https://steamcdn-a.akamaihd.net/steamcommunity/public/images/apps/369180/a0e3b0bb47aff74f5b9279f2369a0fca69786b60.jpg"
  },
  {
    "name": "General_CraftItem",
    "defaultvalue": 0,
    "displayName": "Crafted",
    "hidden": 0,
    "description": "Craft an Item",
    "icon": "https://steamcdn-a.akamaihd.net/steamcommunity/public/images/apps/369180/b0257ca9b0f0cd1da2a802de46c46491c365740a.jpg",
    "icongray": "https://steamcdn-a.akamaihd.net/steamcommunity/public/images/apps/369180/70325b71e79ad5fe184b478d4b305e6add919da5.jpg"
  },
  {
    "name": "General_MysteryChest",
    "defaultvalue": 0,
    "displayName": "Curious me",
    "hidden": 0,
    "description": "Purchase a Mystery Chest",
    "icon": "https://steamcdn-a.akamaihd.net/steamcommunity/public/images/apps/369180/1e6d58b5da99448e6ae82ea60b9b5bd88d77fa3e.jpg",
    "icongray": "https://steamcdn-a.akamaihd.net/steamcommunity/public/images/apps/369180/282aa94c41dc39bdb866f56b0452a677c83b7dce.jpg"
  },
  {
    "name": "Progress_Level5",
    "defaultvalue": 0,
    "displayName": "Recruit",
    "hidden": 0,
    "description": "Reach Level 5",
    "icon": "https://steamcdn-a.akamaihd.net/steamcommunity/public/images/apps/369180/da473089f7f969080a7194c32d96c73b1504f26b.jpg",
    "icongray": "https://steamcdn-a.akamaihd.net/steamcommunity/public/images/apps/369180/620ba79b17d696fcd8f3072366cfc3a784199711.jpg"
  },
  {
    "name": "Progress_Level10",
    "defaultvalue": 0,
    "displayName": "Soldier",
    "hidden": 0,
    "description": "Reach Level 10",
    "icon": "https://steamcdn-a.akamaihd.net/steamcommunity/public/images/apps/369180/398dade1dee42e4d123440078a431102eecc330f.jpg",
    "icongray": "https://steamcdn-a.akamaihd.net/steamcommunity/public/images/apps/369180/f9760b30ec0805ef5117ae1ce67769220bf6abd4.jpg"
  },
  {
    "name": "Progress_Level20",
    "defaultvalue": 0,
    "displayName": "Guardian",
    "hidden": 0,
    "description": "Reach Level 20",
    "icon": "https://steamcdn-a.akamaihd.net/steamcommunity/public/images/apps/369180/fff39dcab28f5da9b95df7627fc08ff008b0580d.jpg",
    "icongray": "https://steamcdn-a.akamaihd.net/steamcommunity/public/images/apps/369180/f2da3796d6fd49f5d7580e057ec3f8c090572ee9.jpg"
  },
  {
    "name": "Progress_Level35",
    "defaultvalue": 0,
    "displayName": "Vanguard",
    "hidden": 0,
    "description": "Reach Level 35",
    "icon": "https://steamcdn-a.akamaihd.net/steamcommunity/public/images/apps/369180/67257ce9351ebc19fffe147ad7ef9ed30bbd3cdf.jpg",
    "icongray": "https://steamcdn-a.akamaihd.net/steamcommunity/public/images/apps/369180/53f8d8b1b8ebb32b2c48af972367dfeefc65e7d9.jpg"
  },
  {
    "name": "Progress_Level50",
    "defaultvalue": 0,
    "displayName": "Archangel",
    "hidden": 0,
    "description": "Reach Level 50",
    "icon": "https://steamcdn-a.akamaihd.net/steamcommunity/public/images/apps/369180/e585b67f2262881421e8f10785c5e09ebca06b3f.jpg",
    "icongray": "https://steamcdn-a.akamaihd.net/steamcommunity/public/images/apps/369180/857419d94a969afdeb80ee025869c90bfce63d4e.jpg"
  },
  {
    "name": "Player_Souls100K",
    "defaultvalue": 0,
    "displayName": "Farmer",
    "hidden": 0,
    "description": "Collect 100.000 Souls",
    "icon": "https://steamcdn-a.akamaihd.net/steamcommunity/public/images/apps/369180/0c6ab8229149c365a69aa9524e360faf2e7f9456.jpg",
    "icongray": "https://steamcdn-a.akamaihd.net/steamcommunity/public/images/apps/369180/3e98b8fab057787b08dee672586273a3f8ab8cd6.jpg"
  },
  {
    "name": "Player_Souls500K",
    "defaultvalue": 0,
    "displayName": "Collector",
    "hidden": 0,
    "description": "Collect 500.000 Souls",
    "icon": "https://steamcdn-a.akamaihd.net/steamcommunity/public/images/apps/369180/f25741e57ca47a582f8fec08ae1bca9a3c55857f.jpg",
    "icongray": "https://steamcdn-a.akamaihd.net/steamcommunity/public/images/apps/369180/aa3fe17b77d61b5cc7ef76f390e313e45ce2fcf6.jpg"
  },
  {
    "name": "Player_Souls",
    "defaultvalue": 0,
    "displayName": "Havester",
    "hidden": 0,
    "description": "Collect 1.000.000 Souls",
    "icon": "https://steamcdn-a.akamaihd.net/steamcommunity/public/images/apps/369180/a1fde6aa46a1ab84691a79381849cbd5d78d4210.jpg",
    "icongray": "https://steamcdn-a.akamaihd.net/steamcommunity/public/images/apps/369180/1426a672c62d3c240b67729c1306a0b0b5833aa7.jpg"
  },
  {
    "name": "Player_Kills100",
    "defaultvalue": 0,
    "displayName": "Hunter",
    "hidden": 0,
    "description": "Kill 100 Enemies",
    "icon": "https://steamcdn-a.akamaihd.net/steamcommunity/public/images/apps/369180/e3d747f8641bbba32f4eaf270be26ccda38e3cb9.jpg",
    "icongray": "https://steamcdn-a.akamaihd.net/steamcommunity/public/images/apps/369180/7b4d7a24825b4d455cb7aa95445a46deeded4298.jpg"
  },
  {
    "name": "Player_Kills500",
    "defaultvalue": 0,
    "displayName": "Slayer",
    "hidden": 0,
    "description": "Kill 500 Enemies",
    "icon": "https://steamcdn-a.akamaihd.net/steamcommunity/public/images/apps/369180/4cf50a53a20bf2ca6346a23ac7854b721372ff11.jpg",
    "icongray": "https://steamcdn-a.akamaihd.net/steamcommunity/public/images/apps/369180/8b420a4b158a795f4d0d709283c5e6e2d1b55539.jpg"
  },
  {
    "name": "Player_Kills1000",
    "defaultvalue": 0,
    "displayName": "Executioner",
    "hidden": 0,
    "description": "Kill 1000 Enemies",
    "icon": "https://steamcdn-a.akamaihd.net/steamcommunity/public/images/apps/369180/b8449b3efba47f0a45e07ff668a1655808d1403f.jpg",
    "icongray": "https://steamcdn-a.akamaihd.net/steamcommunity/public/images/apps/369180/838c101369a7353c6f156f7704d4d11eddca054a.jpg"
  },
  {
    "name": "Player_Essences",
    "defaultvalue": 0,
    "displayName": "Essentials",
    "hidden": 0,
    "description": "Collect 200 Essences",
    "icon": "https://steamcdn-a.akamaihd.net/steamcommunity/public/images/apps/369180/8abdd08139235472225bef7bfe021052813a6ce6.jpg",
    "icongray": "https://steamcdn-a.akamaihd.net/steamcommunity/public/images/apps/369180/114dc567d4e8d0a4eed1a3caa6e356c6a42e09cb.jpg"
  },
  {
    "name": "Player_PotionCount",
    "defaultvalue": 0,
    "displayName": "Chugalug",
    "hidden": 0,
    "description": "Consume 30 Potions",
    "icon": "https://steamcdn-a.akamaihd.net/steamcommunity/public/images/apps/369180/8931fa3bfff4e99e4029b402c2633a75bdc2fb2a.jpg",
    "icongray": "https://steamcdn-a.akamaihd.net/steamcommunity/public/images/apps/369180/1827d4c77be84d1bc3f483ee07c2727ff453198c.jpg"
  },
  {
    "name": "General_FullSlots",
    "defaultvalue": 0,
    "displayName": "Fully Stocked",
    "hidden": 0,
    "description": "Equip an Item in every Slot",
    "icon": "https://steamcdn-a.akamaihd.net/steamcommunity/public/images/apps/369180/9517d8ce551298124919bd946858e9030abd23ed.jpg",
    "icongray": "https://steamcdn-a.akamaihd.net/steamcommunity/public/images/apps/369180/5ae422931117e9e1c0a3623e17f32f529d8d83c3.jpg"
  },
  {
    "name": "General_ItemsBlue",
    "defaultvalue": 0,
    "displayName": "Rare Sight",
    "hidden": 0,
    "description": "Equip an Item of Rare (blue) quality in every Slot",
    "icon": "https://steamcdn-a.akamaihd.net/steamcommunity/public/images/apps/369180/9a326aa02ac3a4d9ca64772397e0081540a2d476.jpg",
    "icongray": "https://steamcdn-a.akamaihd.net/steamcommunity/public/images/apps/369180/b37a7dca2ef9c8d921f50ea61633ca297e6690e8.jpg"
  },
  {
    "name": "General_ItemsYellow",
    "defaultvalue": 0,
    "displayName": "I am Legendary",
    "hidden": 0,
    "description": "Equip an Item of Legendary (yellow) quality in every Slot",
    "icon": "https://steamcdn-a.akamaihd.net/steamcommunity/public/images/apps/369180/aeaa0ed77194581afc0d89b5fec41cb9eb02f5cb.jpg",
    "icongray": "https://steamcdn-a.akamaihd.net/steamcommunity/public/images/apps/369180/9435b6b742b6e7b9f7c07873c91b35cf50355a1b.jpg"
  },
  {
    "name": "General_3Skills",
    "defaultvalue": 0,
    "displayName": "Fast Learner",
    "hidden": 0,
    "description": "Learn a new Skill",
    "icon": "https://steamcdn-a.akamaihd.net/steamcommunity/public/images/apps/369180/00d9b8eaa3ef97c36b0a476a17ff658dd452a768.jpg",
    "icongray": "https://steamcdn-a.akamaihd.net/steamcommunity/public/images/apps/369180/1ee4f351a108ad377535de0834fa8a662338d286.jpg"
  },
  {
    "name": "General_5Skills",
    "defaultvalue": 0,
    "displayName": "Apprentice",
    "hidden": 0,
    "description": "Learn 5 Skills",
    "icon": "https://steamcdn-a.akamaihd.net/steamcommunity/public/images/apps/369180/d93c217da6c0f09b95aa7915050ac694212783f8.jpg",
    "icongray": "https://steamcdn-a.akamaihd.net/steamcommunity/public/images/apps/369180/90b90200054e2ea03f31fc3267c9e75f2f609f02.jpg"
  },
  {
    "name": "General_10Skills",
    "defaultvalue": 0,
    "displayName": "Prodigy",
    "hidden": 0,
    "description": "Learn 10 Skills",
    "icon": "https://steamcdn-a.akamaihd.net/steamcommunity/public/images/apps/369180/5dcdb4a9a992e1adcaff765dd9d3e3112a48dba0.jpg",
    "icongray": "https://steamcdn-a.akamaihd.net/steamcommunity/public/images/apps/369180/c886e4d78cfc200c8cadcf1bfb5787aeecd0a610.jpg"
  },
  {
    "name": "General_20Skills",
    "defaultvalue": 0,
    "displayName": "Master",
    "hidden": 0,
    "description": "Learn 20 Skills",
    "icon": "https://steamcdn-a.akamaihd.net/steamcommunity/public/images/apps/369180/944f74652e8b793385017cb27a5d93b48b6ebbd0.jpg",
    "icongray": "https://steamcdn-a.akamaihd.net/steamcommunity/public/images/apps/369180/e1d2d57120ee54613d7cfdb7f630c1f5dcd962de.jpg"
  },
  {
    "name": "Progress_Butcher",
    "defaultvalue": 0,
    "displayName": "Butchered",
    "hidden": 0,
    "description": "Defeat Morrus the Butcher",
    "icon": "https://steamcdn-a.akamaihd.net/steamcommunity/public/images/apps/369180/aef077bb02c897de953140f32c7716e5ea0e2cc8.jpg",
    "icongray": "https://steamcdn-a.akamaihd.net/steamcommunity/public/images/apps/369180/38321dceb8088fb2cdba96572f0fe8ce0ca83702.jpg"
  },
  {
    "name": "Progress_Pyron",
    "defaultvalue": 0,
    "displayName": "Bomb Defused",
    "hidden": 0,
    "description": "Defeat Pyron the Destroyer",
    "icon": "https://steamcdn-a.akamaihd.net/steamcommunity/public/images/apps/369180/786ff4312b941184862d52ad681136ddc2409353.jpg",
    "icongray": "https://steamcdn-a.akamaihd.net/steamcommunity/public/images/apps/369180/980e279347a386bd515021221f964ddaa9fa786e.jpg"
  },
  {
    "name": "Progress_Toxurr",
    "defaultvalue": 0,
    "displayName": "Antidote",
    "hidden": 0,
    "description": "Defeat Toxurr the Chemist",
    "icon": "https://steamcdn-a.akamaihd.net/steamcommunity/public/images/apps/369180/04f62c7022f04575b572faf6d3c0c934ee74e80f.jpg",
    "icongray": "https://steamcdn-a.akamaihd.net/steamcommunity/public/images/apps/369180/c4a2bbd22650eacd06a299e275b530def5ff5539.jpg"
  },
  {
    "name": "Progress_Shakkur",
    "defaultvalue": 0,
    "displayName": "I See You",
    "hidden": 0,
    "description": "Defeat Shakkur the Assassin",
    "icon": "https://steamcdn-a.akamaihd.net/steamcommunity/public/images/apps/369180/6c610fbf30671e8b2e40216f35f11543bb7644ec.jpg",
    "icongray": "https://steamcdn-a.akamaihd.net/steamcommunity/public/images/apps/369180/f875ddd3f1e2e057d5779ab12c18dc0aa0ea9c20.jpg"
  },
  {
    "name": "Progress_BroodMother",
    "defaultvalue": 0,
    "displayName": "Squashed",
    "hidden": 0,
    "description": "Defeat the Broodmother",
    "icon": "https://steamcdn-a.akamaihd.net/steamcommunity/public/images/apps/369180/e9f4f0e9431335c81e1d8fcdd74b601cb96b51d3.jpg",
    "icongray": "https://steamcdn-a.akamaihd.net/steamcommunity/public/images/apps/369180/d8c98ebbd8272a24281b3cc816755d5ed38fa382.jpg"
  },
  {
    "name": "Progress_Lyrruth",
    "defaultvalue": 0,
    "displayName": "Lights Out",
    "hidden": 0,
    "description": "Defeat Earthshaker Lyrruth",
    "icon": "https://steamcdn-a.akamaihd.net/steamcommunity/public/images/apps/369180/dd7d62f552fe7294d5d25fec3e6c9309532347ae.jpg",
    "icongray": "https://steamcdn-a.akamaihd.net/steamcommunity/public/images/apps/369180/a5e6467dec5ddbad524a7c649d6e6365d877717c.jpg"
  },
  {
    "name": "Progress_Shruthar",
    "defaultvalue": 0,
    "displayName": "Three Birds, One Stone",
    "hidden": 0,
    "description": "Defeat Shruthar the Deceiver",
    "icon": "https://steamcdn-a.akamaihd.net/steamcommunity/public/images/apps/369180/be30606fc93abcdf6ad27cf298761d56646e37dd.jpg",
    "icongray": "https://steamcdn-a.akamaihd.net/steamcommunity/public/images/apps/369180/c981a3b8772275e026e3c91717a75e4b394d14b2.jpg"
  },
  {
    "name": "Progress_HardBoiled",
    "defaultvalue": 0,
    "displayName": "Hard Boiled",
    "hidden": 0,
    "description": "Win a Hard Difficulty Quest",
    "icon": "https://steamcdn-a.akamaihd.net/steamcommunity/public/images/apps/369180/cec9243fb43e01b455626d6227ae902240e18e4a.jpg",
    "icongray": "https://steamcdn-a.akamaihd.net/steamcommunity/public/images/apps/369180/27294f0d96ddd05342567e6f67d27424385bd78f.jpg"
  },
  {
    "name": "Progress_VeryHard",
    "defaultvalue": 0,
    "displayName": "Challenge Accepted",
    "hidden": 0,
    "description": "Win a Very Hard Difficulty Quest",
    "icon": "https://steamcdn-a.akamaihd.net/steamcommunity/public/images/apps/369180/be76c86821415e8f442fa862f240d454ad3a0f7b.jpg",
    "icongray": "https://steamcdn-a.akamaihd.net/steamcommunity/public/images/apps/369180/23c62f8b4205a0338d1bb793a69576d97fa1950d.jpg"
  },
  {
    "name": "Progress_Insanity",
    "defaultvalue": 0,
    "displayName": "Insanity",
    "hidden": 0,
    "description": "Win an Insane Difficulty Quest",
    "icon": "https://steamcdn-a.akamaihd.net/steamcommunity/public/images/apps/369180/5405e3a09f313eaa420ec6e61f9b4eb26750aa7b.jpg",
    "icongray": "https://steamcdn-a.akamaihd.net/steamcommunity/public/images/apps/369180/62afcc11e5000ff014d1a54c0d3d341c1d5ced35.jpg"
  },
  {
    "name": "Progress_HardHeroic",
    "defaultvalue": 0,
    "displayName": "Hard (Heroic)",
    "hidden": 0,
    "description": "Win a Hard Difficulty Quest without using a Potion or Revive",
    "icon": "https://steamcdn-a.akamaihd.net/steamcommunity/public/images/apps/369180/f361c342b0441dfa52e6fcb81c63fc92580630bd.jpg",
    "icongray": "https://steamcdn-a.akamaihd.net/steamcommunity/public/images/apps/369180/36189c6364b7cfb6b12eab996a78e6c24f048568.jpg"
  },
  {
    "name": "Progress_VeryHardHeroic",
    "defaultvalue": 0,
    "displayName": "Very Hard (Heroic)",
    "hidden": 0,
    "description": "Win a Very Hard Difficulty Quest without using a Potion or Revive",
    "icon": "https://steamcdn-a.akamaihd.net/steamcommunity/public/images/apps/369180/ac719a30e72b56dc2605e1905b90f2af1a0a3c24.jpg",
    "icongray": "https://steamcdn-a.akamaihd.net/steamcommunity/public/images/apps/369180/d246a7abd63e800396200f8abee09fe8509e5112.jpg"
  },
  {
    "name": "Progress_InsaneHeroic",
    "defaultvalue": 0,
    "displayName": "Insane (Heroic)",
    "hidden": 0,
    "description": "Win an Insane Difficulty Quest without using a Potion or Revive",
    "icon": "https://steamcdn-a.akamaihd.net/steamcommunity/public/images/apps/369180/193a12f1def52a3a26373f5a8f40f5b11e182bc5.jpg",
    "icongray": "https://steamcdn-a.akamaihd.net/steamcommunity/public/images/apps/369180/3d63d88a55e5547361c4e44cfc0efb92453b8867.jpg"
  },
  {
    "name": "Skill_ToxicPool",
    "defaultvalue": 0,
    "displayName": "Waste Management",
    "hidden": 0,
    "description": "Make an enemy die in a Toxic Pool",
    "icon": "https://steamcdn-a.akamaihd.net/steamcommunity/public/images/apps/369180/1deb11bb2b7cfef457acded14cd9fd434749e188.jpg",
    "icongray": "https://steamcdn-a.akamaihd.net/steamcommunity/public/images/apps/369180/6119bfb4223a5d72911c9693bbecfd365cc049a5.jpg"
  },
  {
    "name": "Skill_Snapper",
    "defaultvalue": 0,
    "displayName": "Blast Zone",
    "hidden": 0,
    "description": "Let an enemy die in a Snapper Explosion",
    "icon": "https://steamcdn-a.akamaihd.net/steamcommunity/public/images/apps/369180/28b7b6130d3303ec57b9e62329900b342af24602.jpg",
    "icongray": "https://steamcdn-a.akamaihd.net/steamcommunity/public/images/apps/369180/0911e0d9e8e4b19bbe6e2499c8c612ce17510a4a.jpg"
  }
]