{
  "Dlcs": {
    "631320": {
      "Name": "Zup! Zero - DLC",
      "ImageUrl": "https://steamcdn-a.akamaihd.net/steam/apps/631320/header.jpg?t=1493642327"
    }
  },
  "Name": "Zup! Zero",
  "AppId": "610360",
  "ImageUrl": "https://steamcdn-a.akamaihd.net/steam/apps/610360/header.jpg?t=1572107982",
  "Languages": [
    "english",
    "french",
    "italian",
    "german",
    "spanish",
    "arabic",
    "bulgarian",
    "portuguese",
    "hungarian",
    "greek",
    "danish",
    "tchinese",
    "schinese",
    "korean",
    "dutch",
    "norwegian",
    "polish",
    "portuguese",
    "romanian",
    "russian",
    "thai",
    "turkish",
    "ukrainian",
    "finnish",
    "czech",
    "swedish",
    "japanese"
  ],
  "Platforms": {
    "windows": true,
    "mac": false,
    "linux": false
  }
}