{
  "Dlcs": {
    "392660": {
      "Name": "Fallen: A2P Protocol - Digital Deluxe Edition",
      "ImageUrl": "https://steamcdn-a.akamaihd.net/steam/apps/392660/header.jpg?t=1447377430"
    }
  },
  "Name": "Fallen: A2P Protocol",
  "AppId": "325790",
  "ImageUrl": "https://steamcdn-a.akamaihd.net/steam/apps/325790/header.jpg?t=1447363904",
  "Languages": [
    "english",
    "spanish",
    "french",
    "portuguese",
    "german",
    "russian",
    "hungarian"
  ],
  "Platforms": {
    "windows": true,
    "mac": true,
    "linux": true
  }
}