﻿{
  "Dlcs": {
    "368920": {
      "Name": "",
      "ImageUrl": ""
    }
  },
  "Name": "Axiom Verge",
  "AppId": "332200",
  "ImageUrl": "https://steamcdn-a.akamaihd.net/steam/apps/332200/header.jpg?t=1585703399",
  "Languages": [
    "english",
    "french",
    "italian",
    "german",
    "spanish",
    "portuguese",
    "russian",
    "japanese"
  ],
  "Platforms": {
    "windows": true,
    "mac": false,
    "linux": true
  }
}