﻿{
  "Dlcs": {
    "817850": {
      "Name": "Kite Soundtrack",
      "ImageUrl": "https://steamcdn-a.akamaihd.net/steam/apps/817850/header.jpg?t=1520556953"
    }
  },
  "Name": "Kite",
  "AppId": "512000",
  "ImageUrl": "https://steamcdn-a.akamaihd.net/steam/apps/512000/header.jpg?t=1523901019",
  "Languages": [
    "english"
  ],
  "Platforms": {
    "windows": true,
    "mac": false,
    "linux": false
  }
}