{
  "Dlcs": {},
  "Name": "Savage Vessels",
  "AppId": "912550",
  "ImageUrl": "https://steamcdn-a.akamaihd.net/steam/apps/912550/header.jpg?t=1583133015",
  "Languages": [
    "english"
  ],
  "Platforms": {
    "windows": true,
    "mac": false,
    "linux": false
  }
}