﻿[
  {
    "name": "ACH_FINISH_TUTORIAL",
    "defaultvalue": 0,
    "displayName": "Graduation",
    "hidden": 0,
    "description": "Finish the \"How To Play\" section.",
    "icon": "https://steamcdn-a.akamaihd.net/steamcommunity/public/images/apps/110500/38216eda6c7596e6dc69c40603b7df7deaed2255.jpg",
    "icongray": "https://steamcdn-a.akamaihd.net/steamcommunity/public/images/apps/110500/77ece963c765dc38b2da87ca1c99801062649a22.jpg"
  },
  {
    "name": "ACH_WIN_EPISODE1",
    "defaultvalue": 0,
    "displayName": "Breakout",
    "hidden": 0,
    "description": "Escape the local network.",
    "icon": "https://steamcdn-a.akamaihd.net/steamcommunity/public/images/apps/110500/e37e11f22213ea60b2849f342212fa3fb4e9ada8.jpg",
    "icongray": "https://steamcdn-a.akamaihd.net/steamcommunity/public/images/apps/110500/20dc084c7251cad5eecef0a9e2636a60fe8e64d4.jpg"
  },
  {
    "name": "ACH_WIN_EPISODE2",
    "defaultvalue": 0,
    "displayName": "Debugger",
    "hidden": 0,
    "description": "Analyze the innards of Terabug.",
    "icon": "https://steamcdn-a.akamaihd.net/steamcommunity/public/images/apps/110500/7d66bc99b018a318b02b08c0130cca0a487b2c9b.jpg",
    "icongray": "https://steamcdn-a.akamaihd.net/steamcommunity/public/images/apps/110500/adb38216b0d37af03e8a09353ca7d896556c14d1.jpg"
  },
  {
    "name": "ACH_WIN_EPISODE3",
    "defaultvalue": 0,
    "displayName": "Underdog",
    "hidden": 0,
    "description": "Obtain the secrets of Ouroboros.",
    "icon": "https://steamcdn-a.akamaihd.net/steamcommunity/public/images/apps/110500/6177d44c81e4ba837b4e66d8703813bd8869f78f.jpg",
    "icongray": "https://steamcdn-a.akamaihd.net/steamcommunity/public/images/apps/110500/8620c4a81dd4e35077b9f55e59d942d87a3cfcb7.jpg"
  },
  {
    "name": "ACH_BOMB_MANY_OBJECTS",
    "defaultvalue": 0,
    "displayName": "Mad bomber",
    "hidden": 0,
    "description": "Destroy five objects with one bomb.",
    "icon": "https://steamcdn-a.akamaihd.net/steamcommunity/public/images/apps/110500/ce84558d8ea406515c389769de5db824cba3e5fb.jpg",
    "icongray": "https://steamcdn-a.akamaihd.net/steamcommunity/public/images/apps/110500/8ae0f5ea9d678ef9160f69b6859fb4d5b9b23584.jpg"
  },
  {
    "name": "ACH_BURN_MANY_OBJECTS",
    "defaultvalue": 0,
    "displayName": "Pyromania",
    "hidden": 0,
    "description": "Destroy five objects with one burn powerup.",
    "icon": "https://steamcdn-a.akamaihd.net/steamcommunity/public/images/apps/110500/717a4ea16b6382b97cf8f9b043d017df604fd661.jpg",
    "icongray": "https://steamcdn-a.akamaihd.net/steamcommunity/public/images/apps/110500/2c6016647682beb4869e5e2a70fd6174ca3a5df7.jpg"
  },
  {
    "name": "ACH_SHIELD_PREVENT_DEATH",
    "defaultvalue": 0,
    "displayName": "Shining Armor",
    "hidden": 0,
    "description": "Survive lethal damage thanks to shield powerup.",
    "icon": "https://steamcdn-a.akamaihd.net/steamcommunity/public/images/apps/110500/d2895b96264d49b04d9662b176cfbb6dbf7aa08c.jpg",
    "icongray": "https://steamcdn-a.akamaihd.net/steamcommunity/public/images/apps/110500/0b6a15b0bbcb3899e9406baec54f45a2ab2620ed.jpg"
  },
  {
    "name": "ACH_DESTROY_BLOCKS",
    "defaultvalue": 0,
    "displayName": "Packet Loss",
    "hidden": 0,
    "description": "Burn or bomb 1000 innocent data packets.",
    "icon": "https://steamcdn-a.akamaihd.net/steamcommunity/public/images/apps/110500/3995b18deac295a81ea1a5699be7cdee017c7656.jpg",
    "icongray": "https://steamcdn-a.akamaihd.net/steamcommunity/public/images/apps/110500/5cf2077cf1c7c356ce7cf865bece6d9b538c2dba.jpg"
  },
  {
    "name": "ACH_LEVEL_NO_DAMAGE",
    "defaultvalue": 0,
    "displayName": "Untouchable",
    "hidden": 0,
    "description": "Finish a level without taking damage.",
    "icon": "https://steamcdn-a.akamaihd.net/steamcommunity/public/images/apps/110500/0e31c06c54ffc953126b5d1f0ffeebd3c7021478.jpg",
    "icongray": "https://steamcdn-a.akamaihd.net/steamcommunity/public/images/apps/110500/cffa4528a13f7e5fc06fe2b2bda48de7bfa14cd3.jpg"
  },
  {
    "name": "ACH_SURVIVE_LONG_THROW",
    "defaultvalue": 0,
    "displayName": "Jacked Up",
    "hidden": 0,
    "description": "Survive being thrown way up high by a Flapjack.",
    "icon": "https://steamcdn-a.akamaihd.net/steamcommunity/public/images/apps/110500/d749bc5ecbecef8ef87f04ed0c2bd1f7626a2b64.jpg",
    "icongray": "https://steamcdn-a.akamaihd.net/steamcommunity/public/images/apps/110500/340477901779e95a99b8f3c28be1794378b3d5de.jpg"
  },
  {
    "name": "ACH_LEVEL_NO_BOMBS",
    "defaultvalue": 0,
    "displayName": "Pacifist",
    "hidden": 0,
    "description": "Finish a level without using bombs.",
    "icon": "https://steamcdn-a.akamaihd.net/steamcommunity/public/images/apps/110500/f2479286d4f0f4877fbb45067b1993c29b251662.jpg",
    "icongray": "https://steamcdn-a.akamaihd.net/steamcommunity/public/images/apps/110500/66f6ddcf37c4468d4320f601720fdde209606862.jpg"
  },
  {
    "name": "ACH_LEVEL_ALL_POWERUPS",
    "defaultvalue": 0,
    "displayName": "Collector",
    "hidden": 0,
    "description": "Pick up all powerups in a level.",
    "icon": "https://steamcdn-a.akamaihd.net/steamcommunity/public/images/apps/110500/437a4390cb6d877c2b6f6dc808fa8656a7f85d04.jpg",
    "icongray": "https://steamcdn-a.akamaihd.net/steamcommunity/public/images/apps/110500/f30345d619853b82ea3abd8e23fc99aaf32db34d.jpg"
  },
  {
    "name": "ACH_LEVEL_ALL_RINGS",
    "defaultvalue": 0,
    "displayName": "Perfectionist",
    "hidden": 0,
    "description": "Pick up all rings in a level.",
    "icon": "https://steamcdn-a.akamaihd.net/steamcommunity/public/images/apps/110500/7afc8870d1e5dea44d90f59cf0bc822d191a5cf9.jpg",
    "icongray": "https://steamcdn-a.akamaihd.net/steamcommunity/public/images/apps/110500/72e9b19422295ef5d3b49d69d53480cc956df7c5.jpg"
  },
  {
    "name": "ACH_LEVEL_HALF_RINGS",
    "defaultvalue": 0,
    "displayName": "Bean Counter",
    "hidden": 0,
    "description": "Pick up at least half the rings in a level.",
    "icon": "https://steamcdn-a.akamaihd.net/steamcommunity/public/images/apps/110500/eefd921d943e8b9bf1ceabc8a66b85d2f122ffb5.jpg",
    "icongray": "https://steamcdn-a.akamaihd.net/steamcommunity/public/images/apps/110500/261c75991fcc078f0729631a0d779ef27f07dff7.jpg"
  },
  {
    "name": "ACH_SURVIVE_SPLITTERS",
    "defaultvalue": 0,
    "displayName": "Rammed",
    "hidden": 0,
    "description": "Survive 25 head-on collisions.",
    "icon": "https://steamcdn-a.akamaihd.net/steamcommunity/public/images/apps/110500/2ee830e70913f3b9a89f1597914aa641786b3858.jpg",
    "icongray": "https://steamcdn-a.akamaihd.net/steamcommunity/public/images/apps/110500/c8906f58bbcf4341b07deff928a40bbb0424982f.jpg"
  },
  {
    "name": "ACH_TOP_10_PERCENT",
    "defaultvalue": 0,
    "displayName": "Top Jammer",
    "hidden": 0,
    "description": "Reach the top 10 percent of global leaderboard.",
    "icon": "https://steamcdn-a.akamaihd.net/steamcommunity/public/images/apps/110500/77854803e89c3369d63634f419f15675e9556f22.jpg",
    "icongray": "https://steamcdn-a.akamaihd.net/steamcommunity/public/images/apps/110500/d8adde4c8217a2f846e089c9aa455e00bed30615.jpg"
  },
  {
    "name": "ACH_TOP_1_PERCENT",
    "defaultvalue": 0,
    "displayName": "Elite Jammer",
    "hidden": 0,
    "description": "Reach the top 1 percent of global leaderboard.",
    "icon": "https://steamcdn-a.akamaihd.net/steamcommunity/public/images/apps/110500/1c469732902fae4ac28a1e376d75c29b7de560fb.jpg",
    "icongray": "https://steamcdn-a.akamaihd.net/steamcommunity/public/images/apps/110500/1a44bc126fa7b9d73f8827e60616c4ff1c44726b.jpg"
  },
  {
    "name": "ACH_DROP_OFF_SCORPIONS",
    "defaultvalue": 0,
    "displayName": "Sinkhole",
    "hidden": 0,
    "description": "Cause 25 Stingers to fall off track.",
    "icon": "https://steamcdn-a.akamaihd.net/steamcommunity/public/images/apps/110500/c8949f32d938598b159157b254d3cd4fdc311f35.jpg",
    "icongray": "https://steamcdn-a.akamaihd.net/steamcommunity/public/images/apps/110500/6d723f4f15f8079d6c1b82dff0b4aba8ba352371.jpg"
  },
  {
    "name": "ACH_BURN_MIDAIR",
    "defaultvalue": 0,
    "displayName": "Fireball",
    "hidden": 0,
    "description": "Destroy an object in mid-air with burn powerup.",
    "icon": "https://steamcdn-a.akamaihd.net/steamcommunity/public/images/apps/110500/0a9818e197396f1f967a31ddf3a4494dc449ac99.jpg",
    "icongray": "https://steamcdn-a.akamaihd.net/steamcommunity/public/images/apps/110500/0f7c8bec729e86186a7aba7e1085f92fd885adf5.jpg"
  },
  {
    "name": "ACH_COLLECT_RING_ROW",
    "defaultvalue": 0,
    "displayName": "Ducks In a Row",
    "hidden": 0,
    "description": "Collect a complete row of rings.",
    "icon": "https://steamcdn-a.akamaihd.net/steamcommunity/public/images/apps/110500/b7da47136a0e08883397d7a1b1730147d65b77ad.jpg",
    "icongray": "https://steamcdn-a.akamaihd.net/steamcommunity/public/images/apps/110500/400f1c54e8c3f7b75ea109291d488a25d4fcdc4b.jpg"
  },
  {
    "name": "ACH_WIN_THREE_EPISODES",
    "defaultvalue": 0,
    "displayName": "Save The World",
    "hidden": 0,
    "description": "Finish all three Chapters.",
    "icon": "https://steamcdn-a.akamaihd.net/steamcommunity/public/images/apps/110500/d2098a859d3036bbbac130df4062b983e4c53192.jpg",
    "icongray": "https://steamcdn-a.akamaihd.net/steamcommunity/public/images/apps/110500/195c846667b43e795a8b109efbbe84c3a0482bad.jpg"
  }
]