[
  {
    "name": "PLAY_ELIMS",
    "defaultvalue": 0,
    "displayName": "Player Eliminated"
  },
  {
    "name": "SHOTS_FIRED",
    "defaultvalue": 0,
    "displayName": "Shots Fired"
  },
  {
    "name": "SHOTS_HIT",
    "defaultvalue": 0,
    "displayName": "Shots Hit"
  },
  {
    "name": "TOTAL_TIME",
    "defaultvalue": 0,
    "displayName": "Time Played"
  },
  {
    "name": "TOTAL_TURRETS",
    "defaultvalue": 0,
    "displayName": "Turrets Eliminated"
  },
  {
    "name": "TOTAL_DRONES",
    "defaultvalue": 0,
    "displayName": "Drones Eliminated"
  },
  {
    "name": "TOTAL_TANKS",
    "defaultvalue": 0,
    "displayName": "Tanks Eliminated"
  },
  {
    "name": "TOTAL_BOMBS",
    "defaultvalue": 0,
    "displayName": "Bombs Dunked"
  },
  {
    "name": "TOTAL_DET_TIME",
    "defaultvalue": 0,
    "displayName": "Detonator Held Time"
  },
  {
    "name": "TOTAL_KOTH_TIME",
    "defaultvalue": 0,
    "displayName": "King of the Kill Held Time"
  },
  {
    "name": "TOTAL_ROBOTS_REP",
    "defaultvalue": 0,
    "displayName": "Robots Repaired"
  },
  {
    "name": "TOTAL_LASER_DES",
    "defaultvalue": 0,
    "displayName": "Hoop Lasers Destroyed"
  },
  {
    "name": "TOTAL_BOMBER_ELIM",
    "defaultvalue": 0,
    "displayName": "Bomber Ships Eliminated"
  },
  {
    "name": "TOTAL_TARGETS",
    "defaultvalue": 0,
    "displayName": "Targets Returned"
  },
  {
    "name": "TOTAL_BAT_BANK",
    "defaultvalue": 0,
    "displayName": "Battery Bankers Powered"
  },
  {
    "name": "TEST",
    "defaultvalue": 0,
    "displayName": "test"
  },
  {
    "name": "OLD_TEST",
    "defaultvalue": 0,
    "displayName": "old test"
  }
]