{
  "Dlcs": {},
  "Name": "Impixable",
  "AppId": "937180",
  "ImageUrl": "https://steamcdn-a.akamaihd.net/steam/apps/937180/header.jpg?t=1542145471",
  "Languages": [
    "english"
  ],
  "Platforms": {
    "windows": true,
    "mac": false,
    "linux": false
  }
}