{
  "Dlcs": {
    "1071210": {
      "Name": "Hentai DLC for Nyasha Valkyrie",
      "ImageUrl": "https://steamcdn-a.akamaihd.net/steam/apps/1071210/header.jpg?t=1570880012"
    },
    "1080510": {
      "Name": "Nyasha Valkyrie - Artbook 18+",
      "ImageUrl": "https://steamcdn-a.akamaihd.net/steam/apps/1080510/header.jpg?t=1570878358"
    },
    "1080520": {
      "Name": "",
      "ImageUrl": ""
    }
  },
  "Name": "Nyasha Valkyrie",
  "AppId": "1061470",
  "ImageUrl": "https://steamcdn-a.akamaihd.net/steam/apps/1061470/header.jpg?t=1581417959",
  "Languages": [
    "english"
  ],
  "Platforms": {
    "windows": true,
    "mac": false,
    "linux": false
  }
}