{
  "Dlcs": {},
  "Name": "Horribunnies",
  "AppId": "1187990",
  "ImageUrl": "https://steamcdn-a.akamaihd.net/steam/apps/1187990/header.jpg?t=1597744916",
  "Languages": [
    "english",
    "french",
    "korean",
    "japanese",
    "italian",
    "german",
    "spanish",
    "schinese",
    "tchinese",
    "polish",
    "portuguese",
    "russian",
    "turkish"
  ],
  "Platforms": {
    "windows": true,
    "mac": false,
    "linux": false
  }
}