{
  "Dlcs": {},
  "Name": "Mahjong Magic Journey 2",
  "AppId": "929430",
  "ImageUrl": "https://steamcdn-a.akamaihd.net/steam/apps/929430/header.jpg?t=1542379299",
  "Languages": [
    "english",
    "french",
    "german",
    "russian"
  ],
  "Platforms": {
    "windows": true,
    "mac": true,
    "linux": false
  }
}