{
  "Dlcs": {},
  "Name": "Rollfall: Quest of Acceleration",
  "AppId": "1349070",
  "ImageUrl": "https://steamcdn-a.akamaihd.net/steam/apps/1349070/header.jpg?t=1594917935",
  "Languages": [
    "english"
  ],
  "Platforms": {
    "windows": true,
    "mac": false,
    "linux": false
  }
}