[
  {
    "name": "EXTRA_LIFE",
    "defaultvalue": 0,
    "displayName": "Extra Life",
    "hidden": 1,
    "icon": "https://steamcdn-a.akamaihd.net/steamcommunity/public/images/apps/512090/cdf6b8fccf9dca84242ee56a191c3918cd51cc13.jpg",
    "icongray": "https://steamcdn-a.akamaihd.net/steamcommunity/public/images/apps/512090/a1bb5de780d1cde31734848e150791f5742e342a.jpg"
  },
  {
    "name": "PROFICIENT_COMMANDER",
    "defaultvalue": 0,
    "displayName": "Master Commander",
    "hidden": 1,
    "icon": "https://steamcdn-a.akamaihd.net/steamcommunity/public/images/apps/512090/f8d3a34001a2581de7a6cecb1baa553e851c9455.jpg",
    "icongray": "https://steamcdn-a.akamaihd.net/steamcommunity/public/images/apps/512090/a1bb5de780d1cde31734848e150791f5742e342a.jpg"
  },
  {
    "name": "COLLECTOR",
    "defaultvalue": 0,
    "displayName": "Collector",
    "hidden": 1,
    "icon": "https://steamcdn-a.akamaihd.net/steamcommunity/public/images/apps/512090/b23635935d1a84ba97881b805101c53e185a3907.jpg",
    "icongray": "https://steamcdn-a.akamaihd.net/steamcommunity/public/images/apps/512090/a1bb5de780d1cde31734848e150791f5742e342a.jpg"
  },
  {
    "name": "QUIET",
    "defaultvalue": 0,
    "displayName": "Quiet",
    "hidden": 1,
    "icon": "https://steamcdn-a.akamaihd.net/steamcommunity/public/images/apps/512090/39f1db7f5f7f1ba42bef10d10be5be52bb4aae7d.jpg",
    "icongray": "https://steamcdn-a.akamaihd.net/steamcommunity/public/images/apps/512090/a1bb5de780d1cde31734848e150791f5742e342a.jpg"
  },
  {
    "name": "BROTHER_AT_ARMS",
    "defaultvalue": 0,
    "displayName": "Brother At Arms",
    "hidden": 1,
    "icon": "https://steamcdn-a.akamaihd.net/steamcommunity/public/images/apps/512090/ce4b09415b707de36539e8dd93fac38e795b1bb6.jpg",
    "icongray": "https://steamcdn-a.akamaihd.net/steamcommunity/public/images/apps/512090/a1bb5de780d1cde31734848e150791f5742e342a.jpg"
  },
  {
    "name": "LEGENDARY_COMMANDER",
    "defaultvalue": 0,
    "displayName": "Legendary Commander",
    "hidden": 1,
    "icon": "https://steamcdn-a.akamaihd.net/steamcommunity/public/images/apps/512090/3b492a50bdef9b1a4a9d0934c9eb9e98b002e3df.jpg",
    "icongray": "https://steamcdn-a.akamaihd.net/steamcommunity/public/images/apps/512090/a1bb5de780d1cde31734848e150791f5742e342a.jpg"
  },
  {
    "name": "WINTERMUTE",
    "defaultvalue": 0,
    "displayName": "Wintermute",
    "hidden": 1,
    "icon": "https://steamcdn-a.akamaihd.net/steamcommunity/public/images/apps/512090/ed8d131466c962d56a2dbe645746509a7b16e458.jpg",
    "icongray": "https://steamcdn-a.akamaihd.net/steamcommunity/public/images/apps/512090/a1bb5de780d1cde31734848e150791f5742e342a.jpg"
  },
  {
    "name": "SL1",
    "defaultvalue": 0,
    "displayName": "SL1",
    "hidden": 1,
    "icon": "https://steamcdn-a.akamaihd.net/steamcommunity/public/images/apps/512090/99d103ac5d194fa98fdf006ed1648b6b827f921d.jpg",
    "icongray": "https://steamcdn-a.akamaihd.net/steamcommunity/public/images/apps/512090/a1bb5de780d1cde31734848e150791f5742e342a.jpg"
  },
  {
    "name": "CONTENT_CREATOR",
    "defaultvalue": 0,
    "displayName": "Content Creator",
    "hidden": 1,
    "icon": "https://steamcdn-a.akamaihd.net/steamcommunity/public/images/apps/512090/17d54a88ed0a853ebf4517af6b8a060dc00e241a.jpg",
    "icongray": "https://steamcdn-a.akamaihd.net/steamcommunity/public/images/apps/512090/a1bb5de780d1cde31734848e150791f5742e342a.jpg"
  },
  {
    "name": "ACQUIRING_MYSCAL_ELF",
    "defaultvalue": 0,
    "displayName": "Acquiring Myscal Elf",
    "hidden": 1,
    "icon": "https://steamcdn-a.akamaihd.net/steamcommunity/public/images/apps/512090/32013f5e70aa8c014678faeffbb26bf1b6fe611a.jpg",
    "icongray": "https://steamcdn-a.akamaihd.net/steamcommunity/public/images/apps/512090/a1bb5de780d1cde31734848e150791f5742e342a.jpg"
  }
]