﻿[
  {
    "name": "NumGames",
    "defaultvalue": 0,
    "displayName": "NumGames"
  },
  {
    "name": "OilSlideTime",
    "defaultvalue": 0,
    "displayName": "Drift Time"
  },
  {
    "name": "GrilledCows",
    "defaultvalue": 0,
    "displayName": "Grilled Cows"
  },
  {
    "name": "DestroyedBuildings",
    "defaultvalue": 0,
    "displayName": "Destroyed Buildings"
  },
  {
    "name": "WreckedCars",
    "defaultvalue": 0,
    "displayName": "Wrecked Cars"
  },
  {
    "name": "DriveTime",
    "defaultvalue": 0,
    "displayName": "Drive Time"
  },
  {
    "name": "AirDistance",
    "defaultvalue": 0,
    "displayName": "Air Distance"
  },
  {
    "name": "MagnetismDamage",
    "defaultvalue": 0,
    "displayName": "Magnetism Damage"
  },
  {
    "name": "SquadLeaderTime",
    "defaultvalue": 0,
    "displayName": "Squadleader Time"
  },
  {
    "name": "AsteroidHails",
    "defaultvalue": 0,
    "displayName": "Asteroid Hails"
  }
]