﻿{
  "Dlcs": {},
  "Name": "Lust for Darkness",
  "AppId": "523650",
  "ImageUrl": "https://steamcdn-a.akamaihd.net/steam/apps/523650/header.jpg?t=1599834240",
  "Languages": [
    "english",
    "french",
    "italian",
    "german",
    "spanish",
    "schinese",
    "korean",
    "polish",
    "portuguese",
    "russian",
    "turkish"
  ],
  "Platforms": {
    "windows": true,
    "mac": true,
    "linux": false
  }
}