[
  {
    "name": "ACH_NIGHTS_SURVIVED_1",
    "defaultvalue": 0,
    "displayName": "Survive the Night",
    "hidden": 0,
    "description": "Survive your first night",
    "icon": "https://steamcdn-a.akamaihd.net/steamcommunity/public/images/apps/541300/d981b46a8a7da32fc2c5a3adebb6970705a24d50.jpg",
    "icongray": "https://steamcdn-a.akamaihd.net/steamcommunity/public/images/apps/541300/94d9a5e503c63cd7297876652d85eecb7c6702db.jpg"
  },
  {
    "name": "ACH_NIGHTS_SURVIVED_2",
    "defaultvalue": 0,
    "displayName": "Survive 2 Nights",
    "hidden": 0,
    "description": "Survive 2 consecutive nights",
    "icon": "https://steamcdn-a.akamaihd.net/steamcommunity/public/images/apps/541300/a5ae152b5ba7df541e656048f53a15559e5c958a.jpg",
    "icongray": "https://steamcdn-a.akamaihd.net/steamcommunity/public/images/apps/541300/ebc18b7ccf8bed5a270d2b10d9fb890ff675f0c9.jpg"
  },
  {
    "name": "ACH_ZOMBIES_1",
    "defaultvalue": 0,
    "displayName": "It's an Ugly Business",
    "hidden": 0,
    "description": "Kill your first zombie",
    "icon": "https://steamcdn-a.akamaihd.net/steamcommunity/public/images/apps/541300/931d62d5a26200a03b3053eb05c5a2a0a5d529ce.jpg",
    "icongray": "https://steamcdn-a.akamaihd.net/steamcommunity/public/images/apps/541300/e37ed5671f1d966c61028b37d9d0cd838fc9de32.jpg"
  },
  {
    "name": "ACH_ZOMBIES_10",
    "defaultvalue": 0,
    "displayName": "One Dozen Dead",
    "hidden": 0,
    "description": "Kill 12 zombies",
    "icon": "https://steamcdn-a.akamaihd.net/steamcommunity/public/images/apps/541300/5cb917d0d96250357d36d74e88b096d77d966d7a.jpg",
    "icongray": "https://steamcdn-a.akamaihd.net/steamcommunity/public/images/apps/541300/f94c2fdffe9725b26139d274049cbe4c3612fb9d.jpg"
  },
  {
    "name": "ACH_ZOMBIES_50",
    "defaultvalue": 0,
    "displayName": "Nifty Fifty",
    "hidden": 0,
    "description": "Kill 50 zombies",
    "icon": "https://steamcdn-a.akamaihd.net/steamcommunity/public/images/apps/541300/79ab6caf635dc43048a79947bd7d04a233e515d6.jpg",
    "icongray": "https://steamcdn-a.akamaihd.net/steamcommunity/public/images/apps/541300/af6ba78d500fd1c6cd32e12ab3eb6738042304b6.jpg"
  },
  {
    "name": "ACH_FIRES_STARTED_1",
    "defaultvalue": 0,
    "displayName": "Fire Starter",
    "hidden": 0,
    "description": "Start your first fire",
    "icon": "https://steamcdn-a.akamaihd.net/steamcommunity/public/images/apps/541300/f6376131b5b9e28c1fe2f763b36182baebc62af5.jpg",
    "icongray": "https://steamcdn-a.akamaihd.net/steamcommunity/public/images/apps/541300/595f40debe5bbfa40ab11d6714b45f1af7bafa7e.jpg"
  },
  {
    "name": "ACH_TRAIL_FINDER",
    "defaultvalue": 0,
    "displayName": "Trailblazer",
    "hidden": 0,
    "description": "Find a trail sign",
    "icon": "https://steamcdn-a.akamaihd.net/steamcommunity/public/images/apps/541300/5421d763ffed5776f10d3eb32dd5c0677ebc2600.jpg",
    "icongray": "https://steamcdn-a.akamaihd.net/steamcommunity/public/images/apps/541300/e162203b1e60f11894343148d8b8b4d22add2b9d.jpg"
  },
  {
    "name": "ACH_FOUND_WATER",
    "defaultvalue": 0,
    "displayName": "Liquid Gold",
    "hidden": 0,
    "description": "Find a source of hydration",
    "icon": "https://steamcdn-a.akamaihd.net/steamcommunity/public/images/apps/541300/6638e3b278e79f32cfc7210581d438800e6f7bbe.jpg",
    "icongray": "https://steamcdn-a.akamaihd.net/steamcommunity/public/images/apps/541300/4d2cf5753305327cfd305c3d07c05c07b38216ae.jpg"
  },
  {
    "name": "ACH_FIRST_CRAFT",
    "defaultvalue": 0,
    "displayName": "Craft a Canteen",
    "hidden": 0,
    "description": "Craft a canteen using scrap metal",
    "icon": "https://steamcdn-a.akamaihd.net/steamcommunity/public/images/apps/541300/e576cc1c2504be882331efc6b30686ab718fb70a.jpg",
    "icongray": "https://steamcdn-a.akamaihd.net/steamcommunity/public/images/apps/541300/20220e484b3cdec154a16336dbdb317fbb6be0d5.jpg"
  },
  {
    "name": "ACH_FIRST_COOK",
    "defaultvalue": 0,
    "displayName": "Dinner is Served",
    "hidden": 0,
    "description": "Cook your first meal",
    "icon": "https://steamcdn-a.akamaihd.net/steamcommunity/public/images/apps/541300/fefb03b62e965e2201aabb7f65af37ac29c10925.jpg",
    "icongray": "https://steamcdn-a.akamaihd.net/steamcommunity/public/images/apps/541300/536a9f7817886fd2a04e3930343372763cd6c0d3.jpg"
  },
  {
    "name": "ACH_CONSUME_CLEANWATER",
    "defaultvalue": 0,
    "displayName": "First Gulp",
    "hidden": 0,
    "description": "Have your first drink",
    "icon": "https://steamcdn-a.akamaihd.net/steamcommunity/public/images/apps/541300/3e65a3a18fa0c58b77f0c0a4b8211dbb0e69b895.jpg",
    "icongray": "https://steamcdn-a.akamaihd.net/steamcommunity/public/images/apps/541300/c8a523e2e6c0e59b8a62d14dfda4b2993bc54028.jpg"
  },
  {
    "name": "ACH_ZOMBIES_100",
    "defaultvalue": 0,
    "displayName": "10*10",
    "hidden": 0,
    "description": "Kill 100 zombies",
    "icon": "https://steamcdn-a.akamaihd.net/steamcommunity/public/images/apps/541300/fc4d0037a9d240727958e4b4a7cd4e4a8aff9cdc.jpg",
    "icongray": "https://steamcdn-a.akamaihd.net/steamcommunity/public/images/apps/541300/fc4d0037a9d240727958e4b4a7cd4e4a8aff9cdc.jpg"
  },
  {
    "name": "ACH_ZOMBIES_250",
    "defaultvalue": 0,
    "displayName": "Turning Pro",
    "hidden": 0,
    "description": "Kill 250 zombies",
    "icon": "https://steamcdn-a.akamaihd.net/steamcommunity/public/images/apps/541300/894bf7f96a3d7df896625a5a8e7a172ebe0f76df.jpg",
    "icongray": "https://steamcdn-a.akamaihd.net/steamcommunity/public/images/apps/541300/557bfb4e41238a43c955323919f5e1560c55f779.jpg"
  },
  {
    "name": "ACH_ZOMBIES_500",
    "defaultvalue": 0,
    "displayName": "Half Way to a G",
    "hidden": 0,
    "description": "Kill 500 zombies",
    "icon": "https://steamcdn-a.akamaihd.net/steamcommunity/public/images/apps/541300/68646344ada4e31309fc99447f69d4ed8af331c3.jpg",
    "icongray": "https://steamcdn-a.akamaihd.net/steamcommunity/public/images/apps/541300/464ea0f3a59ef275ad8984bbb3505e7c92fcff5e.jpg"
  },
  {
    "name": "ACH_ZOMBIES_1000",
    "defaultvalue": 0,
    "displayName": "A Grand Achievement",
    "hidden": 0,
    "description": "Kill 1000 zombies",
    "icon": "https://steamcdn-a.akamaihd.net/steamcommunity/public/images/apps/541300/3b3b9362caaaaf0c6dbda3a9c6ac1a629692a473.jpg",
    "icongray": "https://steamcdn-a.akamaihd.net/steamcommunity/public/images/apps/541300/d2e2344bd16d756aa87d95c1901e3d2eb17ed327.jpg"
  },
  {
    "name": "ACH_CHICKENSKILLED_1",
    "defaultvalue": 0,
    "displayName": "Choke a Chicken",
    "hidden": 0,
    "description": "Kill a chicken with a bear trap",
    "icon": "https://steamcdn-a.akamaihd.net/steamcommunity/public/images/apps/541300/d46460904a13613d0035c512688757361f046073.jpg",
    "icongray": "https://steamcdn-a.akamaihd.net/steamcommunity/public/images/apps/541300/eac81ff8d290351045de1c95e3f315f80fb7f365.jpg"
  },
  {
    "name": "ACH_CHICKENSEATEN_1",
    "defaultvalue": 0,
    "displayName": "Winner Winner",
    "hidden": 0,
    "description": "Consume a chicken",
    "icon": "https://steamcdn-a.akamaihd.net/steamcommunity/public/images/apps/541300/09dbd33d96e3083007876c8b61a7a21c1d737dbb.jpg",
    "icongray": "https://steamcdn-a.akamaihd.net/steamcommunity/public/images/apps/541300/aff6f72b413efa679d885e78dd4d57f4718fa33a.jpg"
  },
  {
    "name": "ACH_SLEEPINGBAG_CRAFTED",
    "defaultvalue": 0,
    "displayName": "Make Your Bed",
    "hidden": 0,
    "description": "Craft a sleeping bag",
    "icon": "https://steamcdn-a.akamaihd.net/steamcommunity/public/images/apps/541300/60f2053893679954d7bd55372ece79467d986bf2.jpg",
    "icongray": "https://steamcdn-a.akamaihd.net/steamcommunity/public/images/apps/541300/2d68521eebd112b0969214ba6c350b737d59b7ea.jpg"
  },
  {
    "name": "ACH_FALLDAMAGE",
    "defaultvalue": 0,
    "displayName": "That's Gonna Leave a Mark",
    "hidden": 0,
    "description": "Take fall damage",
    "icon": "https://steamcdn-a.akamaihd.net/steamcommunity/public/images/apps/541300/df2e293484c4fd89c3f5d2618bf0173451718f2f.jpg",
    "icongray": "https://steamcdn-a.akamaihd.net/steamcommunity/public/images/apps/541300/4252d84bbab99f23341caf76d93babc127fb433a.jpg"
  },
  {
    "name": "ACH_MEDS_TAKEN",
    "defaultvalue": 0,
    "displayName": "Medication Time",
    "hidden": 0,
    "description": "Take your first dose of medicine",
    "icon": "https://steamcdn-a.akamaihd.net/steamcommunity/public/images/apps/541300/98e8be219ba03757cd52d626c6d657f451bd1138.jpg",
    "icongray": "https://steamcdn-a.akamaihd.net/steamcommunity/public/images/apps/541300/75cd4aaef22c9003be29cfa81f879d4140b6ac30.jpg"
  },
  {
    "name": "ACH_FOUND_TINDER",
    "defaultvalue": 0,
    "displayName": "Gone Gather’n",
    "hidden": 0,
    "description": "Find something to burn",
    "icon": "https://steamcdn-a.akamaihd.net/steamcommunity/public/images/apps/541300/458f4d43db097fbc6546e64358d40ebd3e844b05.jpg",
    "icongray": "https://steamcdn-a.akamaihd.net/steamcommunity/public/images/apps/541300/b60c8ff36e164f09c14faaec8aa18426785a0484.jpg"
  },
  {
    "name": "ACH_CLEAN_WATER",
    "defaultvalue": 0,
    "displayName": "Make it Clean",
    "hidden": 0,
    "description": "Purify dirty water making it safe to drink",
    "icon": "https://steamcdn-a.akamaihd.net/steamcommunity/public/images/apps/541300/9f07afa7d4935f120e676a35c564dd89e08bec27.jpg",
    "icongray": "https://steamcdn-a.akamaihd.net/steamcommunity/public/images/apps/541300/ad5a6eb3078e0391a84f6304500bc696ed988700.jpg"
  },
  {
    "name": "ACH_FOUND_SCRAP",
    "defaultvalue": 0,
    "displayName": "Gone Scrap’n",
    "hidden": 0,
    "description": "Find scrap metal in the world",
    "icon": "https://steamcdn-a.akamaihd.net/steamcommunity/public/images/apps/541300/1120852a452bcd9996d9fb1e7c872da68d06a711.jpg",
    "icongray": "https://steamcdn-a.akamaihd.net/steamcommunity/public/images/apps/541300/96c4395326b69828ce23e6fe6699724efe0db8eb.jpg"
  },
  {
    "name": "ACH_CRAFT_GRILL",
    "defaultvalue": 0,
    "displayName": "Time to Grill",
    "hidden": 0,
    "description": "Craft a campfire cooking grill",
    "icon": "https://steamcdn-a.akamaihd.net/steamcommunity/public/images/apps/541300/fefb03b62e965e2201aabb7f65af37ac29c10925.jpg",
    "icongray": "https://steamcdn-a.akamaihd.net/steamcommunity/public/images/apps/541300/7da18f5a5b5bf3670da91110229d02a44ff9a992.jpg"
  },
  {
    "name": "ACH_CONSUME_FIRSTMEAL",
    "defaultvalue": 0,
    "displayName": "Dinner is Served",
    "hidden": 0,
    "description": "Cook your first meal",
    "icon": "https://steamcdn-a.akamaihd.net/steamcommunity/public/images/apps/541300/913425d86e266336b16cebf4d573e7bf2dbeba04.jpg",
    "icongray": "https://steamcdn-a.akamaihd.net/steamcommunity/public/images/apps/541300/b1b62f2537595a09cf075de88caa938f62f82685.jpg"
  },
  {
    "name": "ACH_FOUND_CLOTH",
    "defaultvalue": 0,
    "displayName": "Harvest Time",
    "hidden": 0,
    "description": "Harvest a few pieces of cloth",
    "icon": "https://steamcdn-a.akamaihd.net/steamcommunity/public/images/apps/541300/60f2053893679954d7bd55372ece79467d986bf2.jpg",
    "icongray": "https://steamcdn-a.akamaihd.net/steamcommunity/public/images/apps/541300/2d68521eebd112b0969214ba6c350b737d59b7ea.jpg"
  },
  {
    "name": "ACH_SAFELOGOFF",
    "defaultvalue": 0,
    "displayName": "Dream Weaver",
    "hidden": 0,
    "description": "Sleep in a bed or on sleeping mat",
    "icon": "https://steamcdn-a.akamaihd.net/steamcommunity/public/images/apps/541300/60f2053893679954d7bd55372ece79467d986bf2.jpg",
    "icongray": "https://steamcdn-a.akamaihd.net/steamcommunity/public/images/apps/541300/2d68521eebd112b0969214ba6c350b737d59b7ea.jpg"
  },
  {
    "name": "ACH_CRAFT_CLUB",
    "defaultvalue": 0,
    "displayName": "Batter Up",
    "hidden": 0,
    "description": "Craft a defense weapon",
    "icon": "https://steamcdn-a.akamaihd.net/steamcommunity/public/images/apps/541300/c2c106876b2f431c9f1a2f84962d4f01d261e422.jpg",
    "icongray": "https://steamcdn-a.akamaihd.net/steamcommunity/public/images/apps/541300/d79810f4ad857755f6155d506c240db9444f41e3.jpg"
  },
  {
    "name": "ACH_NIGHTS_SURVIVED_4",
    "defaultvalue": 0,
    "displayName": "Survive 4 Nights",
    "hidden": 0,
    "description": "Survive 4 consecutive nights",
    "icon": "https://steamcdn-a.akamaihd.net/steamcommunity/public/images/apps/541300/a5ae152b5ba7df541e656048f53a15559e5c958a.jpg",
    "icongray": "https://steamcdn-a.akamaihd.net/steamcommunity/public/images/apps/541300/7eaa16af9b528bf824fb7b3a413ae7ebefeacbb0.jpg"
  },
  {
    "name": "ACH_NIGHTS_SURVIVED_7",
    "defaultvalue": 0,
    "displayName": "One Week Down",
    "hidden": 0,
    "description": "Survive 7 consecutive nights",
    "icon": "https://steamcdn-a.akamaihd.net/steamcommunity/public/images/apps/541300/364e611f8f6d1b45619cf9b9740f20d87005eb29.jpg",
    "icongray": "https://steamcdn-a.akamaihd.net/steamcommunity/public/images/apps/541300/7eaa16af9b528bf824fb7b3a413ae7ebefeacbb0.jpg"
  },
  {
    "name": "ACH_NIGHTS_SURVIVED_14",
    "defaultvalue": 0,
    "displayName": "Two Weeks Down",
    "hidden": 0,
    "description": "Survive 14 consecutive nights",
    "icon": "https://steamcdn-a.akamaihd.net/steamcommunity/public/images/apps/541300/2f2d32512c2f7ee5af0e8a541f32e1ba85fc4cf7.jpg",
    "icongray": "https://steamcdn-a.akamaihd.net/steamcommunity/public/images/apps/541300/7eaa16af9b528bf824fb7b3a413ae7ebefeacbb0.jpg"
  },
  {
    "name": "ACH_NIGHTS_SURVIVED_28",
    "defaultvalue": 0,
    "displayName": "One Month Down",
    "hidden": 0,
    "description": "Survive 28 consecutive nights",
    "icon": "https://steamcdn-a.akamaihd.net/steamcommunity/public/images/apps/541300/d7ffd13afdf7e74bc2780e89084a7fb7653f1bc9.jpg",
    "icongray": "https://steamcdn-a.akamaihd.net/steamcommunity/public/images/apps/541300/7eaa16af9b528bf824fb7b3a413ae7ebefeacbb0.jpg"
  },
  {
    "name": "ACH_VISIT_MTBARON",
    "defaultvalue": 0,
    "displayName": "I Can See My House From Here",
    "hidden": 0,
    "description": "Visit Mount Baron's peak",
    "icon": "https://steamcdn-a.akamaihd.net/steamcommunity/public/images/apps/541300/5f0f94dfc51ca391d7991dacec9bb12af3907f17.jpg",
    "icongray": "https://steamcdn-a.akamaihd.net/steamcommunity/public/images/apps/541300/657895412d971c4009af1c1147bcc875e1870e9a.jpg"
  },
  {
    "name": "ACH_VISIT_UNION",
    "defaultvalue": 0,
    "displayName": "Welcome to Union Point",
    "hidden": 0,
    "description": "Visit the Union Point sign",
    "icon": "https://steamcdn-a.akamaihd.net/steamcommunity/public/images/apps/541300/3d3bcc662eeb075e45f2e8190e9d1eec60c8e784.jpg",
    "icongray": "https://steamcdn-a.akamaihd.net/steamcommunity/public/images/apps/541300/111b1e0786b50b59ff93aefafdb2a9f95e7f5bba.jpg"
  },
  {
    "name": "ACH_VISIT_BLACK",
    "defaultvalue": 0,
    "displayName": "Welcome to Black Rock",
    "hidden": 0,
    "description": "Visit the Black Rock sign",
    "icon": "https://steamcdn-a.akamaihd.net/steamcommunity/public/images/apps/541300/935c5933e593bc1d7b3f3fbabaa424ce990cda56.jpg",
    "icongray": "https://steamcdn-a.akamaihd.net/steamcommunity/public/images/apps/541300/111b1e0786b50b59ff93aefafdb2a9f95e7f5bba.jpg"
  },
  {
    "name": "ACH_VISIT_ADDER",
    "defaultvalue": 0,
    "displayName": "Welcome to Addersfield",
    "hidden": 0,
    "description": "Visit the Addersfield sign",
    "icon": "https://steamcdn-a.akamaihd.net/steamcommunity/public/images/apps/541300/935c5933e593bc1d7b3f3fbabaa424ce990cda56.jpg",
    "icongray": "https://steamcdn-a.akamaihd.net/steamcommunity/public/images/apps/541300/111b1e0786b50b59ff93aefafdb2a9f95e7f5bba.jpg"
  },
  {
    "name": "ACH_VISIT_SAGE",
    "defaultvalue": 0,
    "displayName": "Welcome to Sage Creek",
    "hidden": 0,
    "description": "Visit the Sage Creek sign",
    "icon": "https://steamcdn-a.akamaihd.net/steamcommunity/public/images/apps/541300/935c5933e593bc1d7b3f3fbabaa424ce990cda56.jpg",
    "icongray": "https://steamcdn-a.akamaihd.net/steamcommunity/public/images/apps/541300/111b1e0786b50b59ff93aefafdb2a9f95e7f5bba.jpg"
  },
  {
    "name": "ACH_VISIT_OLDT",
    "defaultvalue": 0,
    "displayName": "Welcome to Oldtown",
    "hidden": 0,
    "description": "Visit the Oldtown sign",
    "icon": "https://steamcdn-a.akamaihd.net/steamcommunity/public/images/apps/541300/935c5933e593bc1d7b3f3fbabaa424ce990cda56.jpg",
    "icongray": "https://steamcdn-a.akamaihd.net/steamcommunity/public/images/apps/541300/111b1e0786b50b59ff93aefafdb2a9f95e7f5bba.jpg"
  },
  {
    "name": "ACH_CRAFT_BANDAGE",
    "defaultvalue": 0,
    "displayName": "Craft Bandages",
    "hidden": 0,
    "description": "Craft bandages from clean rags",
    "icon": "https://steamcdn-a.akamaihd.net/steamcommunity/public/images/apps/541300/c6249ed20e944043dc4d6993146ffabfe8f91b74.jpg",
    "icongray": "https://steamcdn-a.akamaihd.net/steamcommunity/public/images/apps/541300/3f77529242d8d53a8f62f5e697c7238a19166975.jpg"
  },
  {
    "name": "ACH_FIND_MAP",
    "defaultvalue": 0,
    "displayName": "Getting Around",
    "hidden": 0,
    "description": "Find yourself a map",
    "icon": "https://steamcdn-a.akamaihd.net/steamcommunity/public/images/apps/541300/f817e11d1105e562771830913e78c0f006a933b5.jpg",
    "icongray": "https://steamcdn-a.akamaihd.net/steamcommunity/public/images/apps/541300/94ca176c3af9c507ad157530941f2187ed4dbd11.jpg"
  },
  {
    "name": "ACH_FIND_GUN",
    "defaultvalue": 0,
    "displayName": "Locked and Loaded",
    "hidden": 0,
    "description": "Find a yourself a gun",
    "icon": "https://steamcdn-a.akamaihd.net/steamcommunity/public/images/apps/541300/c4c2bf48981d441d5a0bd2170217eba143572efc.jpg",
    "icongray": "https://steamcdn-a.akamaihd.net/steamcommunity/public/images/apps/541300/a6ec604f4cf70c5ceed64a641a0f0253962a33e8.jpg"
  },
  {
    "name": "ACH_HEAD_ZOMBIE",
    "defaultvalue": 0,
    "displayName": "Boom Headshot",
    "hidden": 0,
    "description": "Take a zombie out with a headshot",
    "icon": "https://steamcdn-a.akamaihd.net/steamcommunity/public/images/apps/541300/2a0f997e4abb11c370f995bee1c2b888f5c48ce9.jpg",
    "icongray": "https://steamcdn-a.akamaihd.net/steamcommunity/public/images/apps/541300/eea5ca647525befcab7e902530517493c4b8ea2a.jpg"
  },
  {
    "name": "ACH_CRAFT_CLEAN_KIT",
    "defaultvalue": 0,
    "displayName": "Make it Clean",
    "hidden": 0,
    "description": "Craft a cleaning kit",
    "icon": "https://steamcdn-a.akamaihd.net/steamcommunity/public/images/apps/541300/02efb6ce9a547cc93bd10b53975676e0ad63cbf6.jpg",
    "icongray": "https://steamcdn-a.akamaihd.net/steamcommunity/public/images/apps/541300/3ba5bc27900fa1d08df6ef644a2549a6fe277d32.jpg"
  },
  {
    "name": "ACH_CLEAN_GUN",
    "defaultvalue": 0,
    "displayName": "Keep it Clean",
    "hidden": 0,
    "description": "Use a cleaning kit ",
    "icon": "https://steamcdn-a.akamaihd.net/steamcommunity/public/images/apps/541300/02efb6ce9a547cc93bd10b53975676e0ad63cbf6.jpg",
    "icongray": "https://steamcdn-a.akamaihd.net/steamcommunity/public/images/apps/541300/3ba5bc27900fa1d08df6ef644a2549a6fe277d32.jpg"
  },
  {
    "name": "ACH_ATTACH_GUN",
    "defaultvalue": 0,
    "displayName": "Accessories",
    "hidden": 0,
    "description": "Use an attachment",
    "icon": "https://steamcdn-a.akamaihd.net/steamcommunity/public/images/apps/541300/ac16a0257c9d19b9cc259e16728a9360fb279f75.jpg",
    "icongray": "https://steamcdn-a.akamaihd.net/steamcommunity/public/images/apps/541300/20406ac9d2fabf0e291959cba98e88aac5a8a33c.jpg"
  },
  {
    "name": "ACH_HUNT_ANIMAL",
    "defaultvalue": 0,
    "displayName": "Hunting for Dinner",
    "hidden": 0,
    "description": "Take out your first animal",
    "icon": "https://steamcdn-a.akamaihd.net/steamcommunity/public/images/apps/541300/47c3d9344445a3feb38f3b166d4d179c86cc5dcc.jpg",
    "icongray": "https://steamcdn-a.akamaihd.net/steamcommunity/public/images/apps/541300/dc221602732cc48bc94c32f0b539533043d74338.jpg"
  },
  {
    "name": "ACH_HARVEST_ANIMAL",
    "defaultvalue": 0,
    "displayName": "Prime Cut",
    "hidden": 0,
    "description": "Harvest from a dead animal",
    "icon": "https://steamcdn-a.akamaihd.net/steamcommunity/public/images/apps/541300/47c3d9344445a3feb38f3b166d4d179c86cc5dcc.jpg",
    "icongray": "https://steamcdn-a.akamaihd.net/steamcommunity/public/images/apps/541300/dc221602732cc48bc94c32f0b539533043d74338.jpg"
  },
  {
    "name": "ACH_COOK_MEAT",
    "defaultvalue": 0,
    "displayName": "Medium Well Please",
    "hidden": 0,
    "description": "Cook a piece of meat over a fire",
    "icon": "https://steamcdn-a.akamaihd.net/steamcommunity/public/images/apps/541300/c7810f0a498b03ee9338d7532adf46bdf1598a2f.jpg",
    "icongray": "https://steamcdn-a.akamaihd.net/steamcommunity/public/images/apps/541300/1abd412098b49ffee108d303b7760da1094c3914.jpg"
  },
  {
    "name": "ACH_FIND_COMPAS",
    "defaultvalue": 0,
    "displayName": "Always Points North",
    "hidden": 0,
    "description": "Find a compass in game",
    "icon": "https://steamcdn-a.akamaihd.net/steamcommunity/public/images/apps/541300/f87db8116fc0ad5339f1c11c19d8fda3a01c3716.jpg",
    "icongray": "https://steamcdn-a.akamaihd.net/steamcommunity/public/images/apps/541300/94ca176c3af9c507ad157530941f2187ed4dbd11.jpg"
  },
  {
    "name": "ACH_FIND_COMBLOCK",
    "defaultvalue": 0,
    "displayName": "Locks Acquired",
    "hidden": 0,
    "description": "Craft a combination lock in game",
    "icon": "https://steamcdn-a.akamaihd.net/steamcommunity/public/images/apps/541300/cf6a10d7c0e824de59cb3ec844c0c47058bbd575.jpg",
    "icongray": "https://steamcdn-a.akamaihd.net/steamcommunity/public/images/apps/541300/525340be5bf8f2a52d3a0d7e5a140926c3368f93.jpg"
  },
  {
    "name": "ACH_CRAFT_STAPLE",
    "defaultvalue": 0,
    "displayName": "Hasp and Staple",
    "hidden": 0,
    "description": "Craft a hasp and staple ",
    "icon": "https://steamcdn-a.akamaihd.net/steamcommunity/public/images/apps/541300/b29f6703e1799f4a6cb9d67948f09c6aed46fd04.jpg",
    "icongray": "https://steamcdn-a.akamaihd.net/steamcommunity/public/images/apps/541300/525340be5bf8f2a52d3a0d7e5a140926c3368f93.jpg"
  },
  {
    "name": "ACH_FIND_SCREW",
    "defaultvalue": 0,
    "displayName": "Get Screws",
    "hidden": 0,
    "description": "Find a box of screws",
    "icon": "https://steamcdn-a.akamaihd.net/steamcommunity/public/images/apps/541300/55f5d0c38fb8056aae9179852e9a6f4a656668a3.jpg",
    "icongray": "https://steamcdn-a.akamaihd.net/steamcommunity/public/images/apps/541300/17896ea31a632e0d344b796134fc2d6f8244adec.jpg"
  },
  {
    "name": "ACH_CRAFT_LOCK",
    "defaultvalue": 0,
    "displayName": "That's My Lock",
    "hidden": 0,
    "description": "Craft a lock kit",
    "icon": "https://steamcdn-a.akamaihd.net/steamcommunity/public/images/apps/541300/cf6a10d7c0e824de59cb3ec844c0c47058bbd575.jpg",
    "icongray": "https://steamcdn-a.akamaihd.net/steamcommunity/public/images/apps/541300/525340be5bf8f2a52d3a0d7e5a140926c3368f93.jpg"
  },
  {
    "name": "ACH_LOCK_DOOR",
    "defaultvalue": 0,
    "displayName": "All Safe and Sound",
    "hidden": 0,
    "description": "Secure a door",
    "icon": "https://steamcdn-a.akamaihd.net/steamcommunity/public/images/apps/541300/cf6a10d7c0e824de59cb3ec844c0c47058bbd575.jpg",
    "icongray": "https://steamcdn-a.akamaihd.net/steamcommunity/public/images/apps/541300/525340be5bf8f2a52d3a0d7e5a140926c3368f93.jpg"
  },
  {
    "name": "ACH_LOCK_CONTAINER",
    "defaultvalue": 0,
    "displayName": "That's My Stuff",
    "hidden": 0,
    "description": "Secure a container",
    "icon": "https://steamcdn-a.akamaihd.net/steamcommunity/public/images/apps/541300/cf6a10d7c0e824de59cb3ec844c0c47058bbd575.jpg",
    "icongray": "https://steamcdn-a.akamaihd.net/steamcommunity/public/images/apps/541300/525340be5bf8f2a52d3a0d7e5a140926c3368f93.jpg"
  },
  {
    "name": "ACH_CRAFT_AXE",
    "defaultvalue": 0,
    "displayName": "Let Me Axe You Something",
    "hidden": 0,
    "description": "Craft an axe or hatchet",
    "icon": "https://steamcdn-a.akamaihd.net/steamcommunity/public/images/apps/541300/a2cdf31638e619172849ae0ddf982634b2421800.jpg",
    "icongray": "https://steamcdn-a.akamaihd.net/steamcommunity/public/images/apps/541300/78244614c968404efcb58110632043bf0ff9bd0b.jpg"
  },
  {
    "name": "ACH_FELL_TREE",
    "defaultvalue": 0,
    "displayName": "Timber!",
    "hidden": 0,
    "description": "Fell a tree",
    "icon": "https://steamcdn-a.akamaihd.net/steamcommunity/public/images/apps/541300/fc4f19b3218599ff67e4a6630d3e58fd51de166c.jpg",
    "icongray": "https://steamcdn-a.akamaihd.net/steamcommunity/public/images/apps/541300/670cc2cbad943eea3eafbc9c813191a106737ade.jpg"
  },
  {
    "name": "ACH_CRAFT_PLANKS",
    "defaultvalue": 0,
    "displayName": "Boards Boards Boards",
    "hidden": 0,
    "description": "Craft a plank ",
    "icon": "https://steamcdn-a.akamaihd.net/steamcommunity/public/images/apps/541300/c253fd4b3c48c6a6aa9951eac5c4288a34efb4f3.jpg",
    "icongray": "https://steamcdn-a.akamaihd.net/steamcommunity/public/images/apps/541300/15ff8ded60bdf3d73ab0b9ec12abac9d2eae11ed.jpg"
  },
  {
    "name": "ACH_CRAFT_HAMMER",
    "defaultvalue": 0,
    "displayName": "Smash It!",
    "hidden": 0,
    "description": "Craft a hammer",
    "icon": "https://steamcdn-a.akamaihd.net/steamcommunity/public/images/apps/541300/f58a382958ff8babb8653a979630f1fb88430842.jpg",
    "icongray": "https://steamcdn-a.akamaihd.net/steamcommunity/public/images/apps/541300/792873d40dca9f7b068956b7a8750f578c7b3611.jpg"
  },
  {
    "name": "ACH_HARVEST_NAILS",
    "defaultvalue": 0,
    "displayName": "Nails All Over",
    "hidden": 0,
    "description": "Find nails",
    "icon": "https://steamcdn-a.akamaihd.net/steamcommunity/public/images/apps/541300/d3a9eb60602096792f2a7b59c995040fa31884d5.jpg",
    "icongray": "https://steamcdn-a.akamaihd.net/steamcommunity/public/images/apps/541300/8f93988b3aa61241ab86f6ebaed289a606db03ac.jpg"
  },
  {
    "name": "ACH_FORT_WINDOW",
    "defaultvalue": 0,
    "displayName": "Feeling Safer",
    "hidden": 0,
    "description": "Place a plank on a window",
    "icon": "https://steamcdn-a.akamaihd.net/steamcommunity/public/images/apps/541300/5456f6b5df00e143d516cd65c6a3f0d690bcb93a.jpg",
    "icongray": "https://steamcdn-a.akamaihd.net/steamcommunity/public/images/apps/541300/640419688c1aa6ecbd4b943414c0b4dfc3aabce1.jpg"
  },
  {
    "name": "ACH_CRAFT_TRAP",
    "defaultvalue": 0,
    "displayName": "Trapping Ain't Easy",
    "hidden": 0,
    "description": "Craft a trap",
    "icon": "https://steamcdn-a.akamaihd.net/steamcommunity/public/images/apps/541300/633a2194f7e9ed1d62a8976d735d08a906e96338.jpg",
    "icongray": "https://steamcdn-a.akamaihd.net/steamcommunity/public/images/apps/541300/6e3b1803c13f1782ece50af94007396955df353f.jpg"
  },
  {
    "name": "ACH_SET_TRAP",
    "defaultvalue": 0,
    "displayName": "This is My House and I Have to Defend It!",
    "hidden": 0,
    "description": "Set a trap",
    "icon": "https://steamcdn-a.akamaihd.net/steamcommunity/public/images/apps/541300/7eab4293ee3cc9c1474ebd9bc5e84d3b2c383ac8.jpg",
    "icongray": "https://steamcdn-a.akamaihd.net/steamcommunity/public/images/apps/541300/6e3b1803c13f1782ece50af94007396955df353f.jpg"
  },
  {
    "name": "ACH_KILL_ZOMB_TRAP",
    "defaultvalue": 0,
    "displayName": "Gotcha!",
    "hidden": 0,
    "description": "Kill a zombie with a trap",
    "icon": "https://steamcdn-a.akamaihd.net/steamcommunity/public/images/apps/541300/7eab4293ee3cc9c1474ebd9bc5e84d3b2c383ac8.jpg",
    "icongray": "https://steamcdn-a.akamaihd.net/steamcommunity/public/images/apps/541300/6e3b1803c13f1782ece50af94007396955df353f.jpg"
  },
  {
    "name": "ACH_FIND_GENERATOR",
    "defaultvalue": 0,
    "displayName": "Electrics On Me",
    "hidden": 0,
    "description": "Find a generator",
    "icon": "https://steamcdn-a.akamaihd.net/steamcommunity/public/images/apps/541300/bd690dec0f065538192991424d7bdaa8d343cb66.jpg",
    "icongray": "https://steamcdn-a.akamaihd.net/steamcommunity/public/images/apps/541300/14deef183ec21c60645b10a221a46edc0b615e73.jpg"
  },
  {
    "name": "ACH_START_GENERATOR",
    "defaultvalue": 0,
    "displayName": "MOAR POWER!",
    "hidden": 0,
    "description": "Start a generator",
    "icon": "https://steamcdn-a.akamaihd.net/steamcommunity/public/images/apps/541300/bd690dec0f065538192991424d7bdaa8d343cb66.jpg",
    "icongray": "https://steamcdn-a.akamaihd.net/steamcommunity/public/images/apps/541300/813f644dfaa0e2fd8e0be50ef0be50af1d6bedba.jpg"
  },
  {
    "name": "ACH_POWER_CIRC",
    "defaultvalue": 0,
    "displayName": "Lights, Something, Action!",
    "hidden": 0,
    "description": "Power a structure",
    "icon": "https://steamcdn-a.akamaihd.net/steamcommunity/public/images/apps/541300/2bdfeba6040df38782e47a4e76f1d957f97be9e2.jpg",
    "icongray": "https://steamcdn-a.akamaihd.net/steamcommunity/public/images/apps/541300/b0e669b66126d0519acc355ffdfc6d7e1101f717.jpg"
  },
  {
    "name": "ACH_START_CAR",
    "defaultvalue": 0,
    "displayName": "It's Alive",
    "hidden": 0,
    "description": "Start a vehicle",
    "icon": "https://steamcdn-a.akamaihd.net/steamcommunity/public/images/apps/541300/685ea2347192022094595c395ab6bd3bce059ac1.jpg",
    "icongray": "https://steamcdn-a.akamaihd.net/steamcommunity/public/images/apps/541300/9816f0f4b4dfbd95c68be38666b5cd8118bf108b.jpg"
  },
  {
    "name": "ACH_KILL_WITH_CAR",
    "defaultvalue": 0,
    "displayName": "ROADKILL",
    "hidden": 0,
    "description": "Run someone over",
    "icon": "https://steamcdn-a.akamaihd.net/steamcommunity/public/images/apps/541300/685ea2347192022094595c395ab6bd3bce059ac1.jpg",
    "icongray": "https://steamcdn-a.akamaihd.net/steamcommunity/public/images/apps/541300/bb7cc0e29f3f07c2205001de6ecbd778574a0ca2.jpg"
  },
  {
    "name": "ACH_REPAIR_CAR",
    "defaultvalue": 0,
    "displayName": "I'm a Mechanic! ",
    "hidden": 0,
    "description": "Repair your vehicle",
    "icon": "https://steamcdn-a.akamaihd.net/steamcommunity/public/images/apps/541300/e8ce5c5b58c93853036681b80afd813156c59b7e.jpg",
    "icongray": "https://steamcdn-a.akamaihd.net/steamcommunity/public/images/apps/541300/9816f0f4b4dfbd95c68be38666b5cd8118bf108b.jpg"
  },
  {
    "name": "ACH_HARVEST_AA",
    "defaultvalue": 0,
    "displayName": "No Batteries Included",
    "hidden": 0,
    "description": "Find AA batteries",
    "icon": "https://steamcdn-a.akamaihd.net/steamcommunity/public/images/apps/541300/bd690dec0f065538192991424d7bdaa8d343cb66.jpg",
    "icongray": "https://steamcdn-a.akamaihd.net/steamcommunity/public/images/apps/541300/813f644dfaa0e2fd8e0be50ef0be50af1d6bedba.jpg"
  },
  {
    "name": "ACH_FIND_PLIERS",
    "defaultvalue": 0,
    "displayName": "Hand Vice",
    "hidden": 0,
    "description": "Find a pair of Pliers",
    "icon": "https://steamcdn-a.akamaihd.net/steamcommunity/public/images/apps/541300/02efb6ce9a547cc93bd10b53975676e0ad63cbf6.jpg",
    "icongray": "https://steamcdn-a.akamaihd.net/steamcommunity/public/images/apps/541300/3ba5bc27900fa1d08df6ef644a2549a6fe277d32.jpg"
  },
  {
    "name": "ACH_AIR_ENTERANCE",
    "defaultvalue": 0,
    "displayName": "Welcome to Addersfield Airport",
    "hidden": 0,
    "description": "Visit the airfield entrance",
    "icon": "https://steamcdn-a.akamaihd.net/steamcommunity/public/images/apps/541300/df023d74eb42d5d503f4e24efd3987e2458fd3ad.jpg",
    "icongray": "https://steamcdn-a.akamaihd.net/steamcommunity/public/images/apps/541300/9c267a54cf123b7e1e28c59d90126bd9f51c8950.jpg"
  },
  {
    "name": "ACH_AIR_TOWER",
    "defaultvalue": 0,
    "displayName": "Enter the Air Control Tower",
    "hidden": 0,
    "description": "Reach the top of the air control tower",
    "icon": "https://steamcdn-a.akamaihd.net/steamcommunity/public/images/apps/541300/df023d74eb42d5d503f4e24efd3987e2458fd3ad.jpg",
    "icongray": "https://steamcdn-a.akamaihd.net/steamcommunity/public/images/apps/541300/9c267a54cf123b7e1e28c59d90126bd9f51c8950.jpg"
  },
  {
    "name": "ACH_1ST_STEW",
    "defaultvalue": 0,
    "displayName": "Stews Up",
    "hidden": 0,
    "description": "Create a stew",
    "icon": "https://steamcdn-a.akamaihd.net/steamcommunity/public/images/apps/541300/e9f79e80ba186a8afb54a5ac65f33ab2c84fef04.jpg",
    "icongray": "https://steamcdn-a.akamaihd.net/steamcommunity/public/images/apps/541300/4687e5b734903751870054d883e458f163a4c465.jpg"
  },
  {
    "name": "ACH_MAX_STEW",
    "defaultvalue": 0,
    "displayName": "Full Pot",
    "hidden": 0,
    "description": "Max out a stew",
    "icon": "https://steamcdn-a.akamaihd.net/steamcommunity/public/images/apps/541300/e9f79e80ba186a8afb54a5ac65f33ab2c84fef04.jpg",
    "icongray": "https://steamcdn-a.akamaihd.net/steamcommunity/public/images/apps/541300/4687e5b734903751870054d883e458f163a4c465.jpg"
  },
  {
    "name": "ACH_PERF_STEW",
    "defaultvalue": 0,
    "displayName": "5 Star Dining",
    "hidden": 0,
    "description": "Create the perfect stew",
    "icon": "https://steamcdn-a.akamaihd.net/steamcommunity/public/images/apps/541300/e9f79e80ba186a8afb54a5ac65f33ab2c84fef04.jpg",
    "icongray": "https://steamcdn-a.akamaihd.net/steamcommunity/public/images/apps/541300/4687e5b734903751870054d883e458f163a4c465.jpg"
  },
  {
    "name": "ACH_GET_SEEDS",
    "defaultvalue": 0,
    "displayName": "Farming First",
    "hidden": 0,
    "description": "Get seeds",
    "icon": "https://steamcdn-a.akamaihd.net/steamcommunity/public/images/apps/541300/7425e532b986ccb043cc492f08059b08c574b1aa.jpg",
    "icongray": "https://steamcdn-a.akamaihd.net/steamcommunity/public/images/apps/541300/b892d804ecd352374b94d3489fd8a23fa5088884.jpg"
  },
  {
    "name": "ACH_DIG_HOLE",
    "defaultvalue": 0,
    "displayName": "Ground Breaker",
    "hidden": 0,
    "description": "Plant a seed",
    "icon": "https://steamcdn-a.akamaihd.net/steamcommunity/public/images/apps/541300/fabdd371342ad7a321a477094ea27b82c27ec54a.jpg",
    "icongray": "https://steamcdn-a.akamaihd.net/steamcommunity/public/images/apps/541300/b892d804ecd352374b94d3489fd8a23fa5088884.jpg"
  },
  {
    "name": "ACH_HARVEST_PLANT",
    "defaultvalue": 0,
    "displayName": "Harvest Season",
    "hidden": 0,
    "description": "Harvest player grown plant",
    "icon": "https://steamcdn-a.akamaihd.net/steamcommunity/public/images/apps/541300/7425e532b986ccb043cc492f08059b08c574b1aa.jpg",
    "icongray": "https://steamcdn-a.akamaihd.net/steamcommunity/public/images/apps/541300/b892d804ecd352374b94d3489fd8a23fa5088884.jpg"
  },
  {
    "name": "ACH_POLICE_TRUCK",
    "defaultvalue": 0,
    "displayName": "Woop Woop",
    "hidden": 0,
    "description": "Start a police pickup",
    "icon": "https://steamcdn-a.akamaihd.net/steamcommunity/public/images/apps/541300/444ebaa63cef9e018ae53aaf9e809e89de044966.jpg",
    "icongray": "https://steamcdn-a.akamaihd.net/steamcommunity/public/images/apps/541300/faa57d82054c8f7e170d26e9cfbf6fdfce58fd94.jpg"
  },
  {
    "name": "ACH_TORCH",
    "defaultvalue": 0,
    "displayName": "Let There Be FIRE",
    "hidden": 0,
    "description": "Light a club on fire",
    "icon": "https://steamcdn-a.akamaihd.net/steamcommunity/public/images/apps/541300/24354a522a3e09a3bf60867858dced89b9dfb113.jpg",
    "icongray": "https://steamcdn-a.akamaihd.net/steamcommunity/public/images/apps/541300/b28946cd719e71ddcfa8897da6a47bbb8daa094a.jpg"
  }
]