{
  "Dlcs": {},
  "Name": "Dogolrax",
  "AppId": "599960",
  "ImageUrl": "https://steamcdn-a.akamaihd.net/steam/apps/599960/header.jpg?t=1562168609",
  "Languages": [
    "english"
  ],
  "Platforms": {
    "windows": true,
    "mac": false,
    "linux": false
  }
}