﻿{
  "Dlcs": {
    "450870": {
      "Name": "Trigger Runners Soundtrack",
      "ImageUrl": "https://steamcdn-a.akamaihd.net/steam/apps/450870/header.jpg?t=1458669205"
    },
    "450890": {
      "Name": "Trigger Runners Remastered Soundtrack",
      "ImageUrl": "https://steamcdn-a.akamaihd.net/steam/apps/450890/header.jpg?t=1458669038"
    }
  },
  "Name": "Trigger Runners",
  "AppId": "355560",
  "ImageUrl": "https://steamcdn-a.akamaihd.net/steam/apps/355560/header.jpg?t=1457481149",
  "Languages": [
    "english"
  ],
  "Platforms": {
    "windows": true,
    "mac": false,
    "linux": false
  }
}