[
  {
    "name": "NEW_ACHIEVEMENT_1_0",
    "defaultvalue": 0,
    "displayName": "Start the Game",
    "hidden": 0,
    "description": "Play the game for the first time",
    "icon": "https://steamcdn-a.akamaihd.net/steamcommunity/public/images/apps/1323190/28a45795c0a36b013d6114ec1d500ba6562a820d.jpg",
    "icongray": "https://steamcdn-a.akamaihd.net/steamcommunity/public/images/apps/1323190/37f29b357ceeb742ed49166115639891cf82878c.jpg"
  },
  {
    "name": "NEW_ACHIEVEMENT_1_1",
    "defaultvalue": 0,
    "displayName": "A big Discovery",
    "hidden": 1,
    "icon": "https://steamcdn-a.akamaihd.net/steamcommunity/public/images/apps/1323190/c8ae776ba850464c326a887120e40768eff76247.jpg",
    "icongray": "https://steamcdn-a.akamaihd.net/steamcommunity/public/images/apps/1323190/eaef0a54443e44a86d1169174aeed685fd39a352.jpg"
  },
  {
    "name": "NEW_ACHIEVEMENT_1_2",
    "defaultvalue": 0,
    "displayName": "Jump Man",
    "hidden": 0,
    "description": "Beat the parkour high in the clouds ",
    "icon": "https://steamcdn-a.akamaihd.net/steamcommunity/public/images/apps/1323190/4f4c48922d675663a684549c744c3323409d6069.jpg",
    "icongray": "https://steamcdn-a.akamaihd.net/steamcommunity/public/images/apps/1323190/5133b603855122e192b6283bd5e01e7e5d58ed04.jpg"
  },
  {
    "name": "NEW_ACHIEVEMENT_1_3",
    "defaultvalue": 0,
    "displayName": "I've got a bone to pick with you!",
    "hidden": 0,
    "description": "Kill your first skeleton",
    "icon": "https://steamcdn-a.akamaihd.net/steamcommunity/public/images/apps/1323190/017931cfc09ef1e1fd6382aa049756600ebcf84b.jpg",
    "icongray": "https://steamcdn-a.akamaihd.net/steamcommunity/public/images/apps/1323190/b49b05820923e7bb1d7fb86db23ecf4572588372.jpg"
  },
  {
    "name": "NEW_ACHIEVEMENT_1_4",
    "defaultvalue": 0,
    "displayName": "Shield Up!",
    "hidden": 0,
    "description": "Buy shield from the blacksmith",
    "icon": "https://steamcdn-a.akamaihd.net/steamcommunity/public/images/apps/1323190/453f5bbc08261c8f43f2103e3e18e3bff71b3a0b.jpg",
    "icongray": "https://steamcdn-a.akamaihd.net/steamcommunity/public/images/apps/1323190/110b280cf3fb60391d6a4516865e383ad0eaab6f.jpg"
  },
  {
    "name": "NEW_ACHIEVEMENT_1_5",
    "defaultvalue": 0,
    "displayName": "Firin Mah Lazer",
    "hidden": 0,
    "description": "Upgrade your mining laser",
    "icon": "https://steamcdn-a.akamaihd.net/steamcommunity/public/images/apps/1323190/7d47fa6c28ec6b61309ed23dd81f491889a92551.jpg",
    "icongray": "https://steamcdn-a.akamaihd.net/steamcommunity/public/images/apps/1323190/a5ac8d9a7f75782bd2dff4a71fb662c18e50b8b9.jpg"
  }
]