﻿[
  {
    "name": "fullHouse",
    "defaultvalue": 0,
    "displayName": "Full House",
    "hidden": 0,
    "description": "Play with 3 friends",
    "icon": "https://steamcdn-a.akamaihd.net/steamcommunity/public/images/apps/352620/c9e9cb464389d8a1ffb10a57efbe3d90e909c669.jpg",
    "icongray": "https://steamcdn-a.akamaihd.net/steamcommunity/public/images/apps/352620/4878d928398061dfc92e99f010106041d811d3c5.jpg"
  },
  {
    "name": "rainbowCarnage",
    "defaultvalue": 0,
    "displayName": "Rainbow Coalition of Carnage",
    "hidden": 0,
    "description": "Play practice mode as every porcunipine",
    "icon": "https://steamcdn-a.akamaihd.net/steamcommunity/public/images/apps/352620/0be144b15b3f451e25ce93a2c9e8d9e1de41afdb.jpg",
    "icongray": "https://steamcdn-a.akamaihd.net/steamcommunity/public/images/apps/352620/85a03dc19023814773a508baa57b4dae840302c6.jpg"
  },
  {
    "name": "travellingPorcunipine",
    "defaultvalue": 0,
    "displayName": "Travelling Porcunipine",
    "hidden": 0,
    "description": "Visit every arena in the game",
    "icon": "https://steamcdn-a.akamaihd.net/steamcommunity/public/images/apps/352620/a8a542c4c74c54e2842b305d7d66a31e9b7a4259.jpg",
    "icongray": "https://steamcdn-a.akamaihd.net/steamcommunity/public/images/apps/352620/bc1c3e046de7446a9ac14710baaf04ee1c3c7622.jpg"
  },
  {
    "name": "kill05Enemies",
    "defaultvalue": 0,
    "displayName": "Gather ‘round, kids!",
    "hidden": 0,
    "description": "Kill 5 or more enemies with a single shot",
    "icon": "https://steamcdn-a.akamaihd.net/steamcommunity/public/images/apps/352620/a75d1d4452aefb80370ca13bb47148ff9d18f310.jpg",
    "icongray": "https://steamcdn-a.akamaihd.net/steamcommunity/public/images/apps/352620/08e1eedba0529b139aa0e4ac0dc48c3aa99b1179.jpg"
  },
  {
    "name": "fastAndFurious",
    "defaultvalue": 0,
    "displayName": "Fast and Furious",
    "hidden": 0,
    "description": "Kill the fastest wolverine",
    "icon": "https://steamcdn-a.akamaihd.net/steamcommunity/public/images/apps/352620/4d4323ddc18e5d8d1e1ca2a466bb680116c60e37.jpg",
    "icongray": "https://steamcdn-a.akamaihd.net/steamcommunity/public/images/apps/352620/8adb8b917116de10c27104d0968165d5c1781f14.jpg"
  },
  {
    "name": "collectSkullsSurvival",
    "defaultvalue": 0,
    "displayName": "The Number",
    "hidden": 0,
    "description": "Collect a total of 666 skulls in the practice mode",
    "icon": "https://steamcdn-a.akamaihd.net/steamcommunity/public/images/apps/352620/bd03dfe8bc9d2cef073e276b05f9319ef8dac9c8.jpg",
    "icongray": "https://steamcdn-a.akamaihd.net/steamcommunity/public/images/apps/352620/867f5cbdae8becbb2e874eff8f9dbdd2a2495507.jpg"
  },
  {
    "name": "teamwork",
    "defaultvalue": 0,
    "displayName": "Teamwork",
    "hidden": 0,
    "description": "Win a team game without ever killing your teammates",
    "icon": "https://steamcdn-a.akamaihd.net/steamcommunity/public/images/apps/352620/1ed472a13d636eba092f53fb25eb256a69f3d9d9.jpg",
    "icongray": "https://steamcdn-a.akamaihd.net/steamcommunity/public/images/apps/352620/c2865395cec1a3abb140edd214448fb2fd7bd45a.jpg"
  },
  {
    "name": "outnumbered",
    "defaultvalue": 0,
    "displayName": "Outnumbered",
    "hidden": 0,
    "description": "Win a game against a team of 3",
    "icon": "https://steamcdn-a.akamaihd.net/steamcommunity/public/images/apps/352620/17bea18f78927d92cb8e7b2b680186917b74d408.jpg",
    "icongray": "https://steamcdn-a.akamaihd.net/steamcommunity/public/images/apps/352620/38fe8571626d010156de27cbc2995f7a94b6e9b9.jpg"
  },
  {
    "name": "undercover",
    "defaultvalue": 0,
    "displayName": "Undercover",
    "hidden": 0,
    "description": "Play as Blue porcunipine in Team Red or as Red porcunipine in Team Blue",
    "icon": "https://steamcdn-a.akamaihd.net/steamcommunity/public/images/apps/352620/4ed6f0d32d084d1d7c4129f8fa62367a1413ebac.jpg",
    "icongray": "https://steamcdn-a.akamaihd.net/steamcommunity/public/images/apps/352620/48832b41adf740cd4c4a600b05013f115e9966e8.jpg"
  },
  {
    "name": "collectSkullsTeamRed",
    "defaultvalue": 0,
    "displayName": "The Red Devils",
    "hidden": 0,
    "description": "Collect 500 skulls playing for team Red",
    "icon": "https://steamcdn-a.akamaihd.net/steamcommunity/public/images/apps/352620/2ad3f820983e287008e58c8da0434ab64b351eee.jpg",
    "icongray": "https://steamcdn-a.akamaihd.net/steamcommunity/public/images/apps/352620/e92d0e00e5f4d0c3a4ad68bb9867bf627e6682d5.jpg"
  },
  {
    "name": "collectSkullsTeamBlue",
    "defaultvalue": 0,
    "displayName": "The Blue Whales",
    "hidden": 0,
    "description": "Collect 500 skulls playing for team Blue",
    "icon": "https://steamcdn-a.akamaihd.net/steamcommunity/public/images/apps/352620/ef09fd9bddd2b2eb8fe1e71d278b74051d0c01f6.jpg",
    "icongray": "https://steamcdn-a.akamaihd.net/steamcommunity/public/images/apps/352620/ca47a3f05dbb630bbb79abc333973e31770f4c11.jpg"
  },
  {
    "name": "gandhi",
    "defaultvalue": 0,
    "displayName": "Gandhi",
    "hidden": 0,
    "description": "Win a round of Last Man Standing without killing anyone",
    "icon": "https://steamcdn-a.akamaihd.net/steamcommunity/public/images/apps/352620/4153c7cd129e048730770fd3a80847aa8db7e4ce.jpg",
    "icongray": "https://steamcdn-a.akamaihd.net/steamcommunity/public/images/apps/352620/d97c3bb5b32779ae66fb228b7a9831151e2528be.jpg"
  },
  {
    "name": "myPrecious",
    "defaultvalue": 0,
    "displayName": "My precious",
    "hidden": 0,
    "description": "Win a Last Man Standing game without ever breaking your helmet",
    "icon": "https://steamcdn-a.akamaihd.net/steamcommunity/public/images/apps/352620/3b22bb3f74ee2dfafcb2dfb2c5127dd6e74d8f5f.jpg",
    "icongray": "https://steamcdn-a.akamaihd.net/steamcommunity/public/images/apps/352620/2c77d953381f04e72d9ffb7951179b06ab43374c.jpg"
  },
  {
    "name": "dieHard",
    "defaultvalue": 0,
    "displayName": "Die Hard (Bruce Willys is bald too, you know)",
    "hidden": 0,
    "description": "Finish an entire Last Man Standing game without dying",
    "icon": "https://steamcdn-a.akamaihd.net/steamcommunity/public/images/apps/352620/c8cd6bc0fa577ab94b56f67e1c6b4682907bfbc6.jpg",
    "icongray": "https://steamcdn-a.akamaihd.net/steamcommunity/public/images/apps/352620/a543eed3f982e5441555f045c14afb4193b235fa.jpg"
  },
  {
    "name": "lastManCombo",
    "defaultvalue": 0,
    "displayName": "The Ultimate Play",
    "hidden": 0,
    "description": "Make a 3 players combo kill in Last Man Standing and win the round",
    "icon": "https://steamcdn-a.akamaihd.net/steamcommunity/public/images/apps/352620/c006a2ca242ae6c7b1caa15df63e9fd7c63c28b4.jpg",
    "icongray": "https://steamcdn-a.akamaihd.net/steamcommunity/public/images/apps/352620/6d7fc431849cec79dd0906df63f03194cd9c862d.jpg"
  },
  {
    "name": "hoarders",
    "defaultvalue": 0,
    "displayName": "Hoarders",
    "hidden": 0,
    "description": "Play one minute in the Arena mode without collecting any skulls and dying",
    "icon": "https://steamcdn-a.akamaihd.net/steamcommunity/public/images/apps/352620/f07ffa93e3be86c9cdc397c47d057ca8f25408a5.jpg",
    "icongray": "https://steamcdn-a.akamaihd.net/steamcommunity/public/images/apps/352620/52d544c0492c7fe53f58f0c22134664f0fff3cda.jpg"
  },
  {
    "name": "mineIsBigger",
    "defaultvalue": 0,
    "displayName": "Mine is bigger",
    "hidden": 0,
    "description": "Win an Arena game with at least 10 skulls more than the other players",
    "icon": "https://steamcdn-a.akamaihd.net/steamcommunity/public/images/apps/352620/30f4031db34df069238427feb66466a1ebc1e0fc.jpg",
    "icongray": "https://steamcdn-a.akamaihd.net/steamcommunity/public/images/apps/352620/3ceb193eb00a309325abb2e3e13ada5996bdefc2.jpg"
  },
  {
    "name": "win03Bots",
    "defaultvalue": 0,
    "displayName": "John Connor",
    "hidden": 0,
    "description": "Win an Arena game against 3 bots",
    "icon": "https://steamcdn-a.akamaihd.net/steamcommunity/public/images/apps/352620/5efa855364f12d59bccd6d0bdef4aa754bc0c812.jpg",
    "icongray": "https://steamcdn-a.akamaihd.net/steamcommunity/public/images/apps/352620/f7d58476dc2d97e6d5bfafddaf5e438af34e71b4.jpg"
  },
  {
    "name": "porcunicide",
    "defaultvalue": 0,
    "displayName": "PORCUNICIDE",
    "hidden": 0,
    "description": "Kill all 4 players (yes, including yourself) with a single shot",
    "icon": "https://steamcdn-a.akamaihd.net/steamcommunity/public/images/apps/352620/75e31d0e845868372534cea905d0b2c51910b743.jpg",
    "icongray": "https://steamcdn-a.akamaihd.net/steamcommunity/public/images/apps/352620/733425538c41c908c874481e98a954f649387e71.jpg"
  },
  {
    "name": "lastWish",
    "defaultvalue": 0,
    "displayName": "Last Wish",
    "hidden": 0,
    "description": "Kill a player while dead",
    "icon": "https://steamcdn-a.akamaihd.net/steamcommunity/public/images/apps/352620/fa02879d14b3852e50aa7d46152784d7ff6311e7.jpg",
    "icongray": "https://steamcdn-a.akamaihd.net/steamcommunity/public/images/apps/352620/1d63f76d0fcefdd579716c1d9a44e4d5e89d27f4.jpg"
  },
  {
    "name": "KillBluePorcunipine",
    "defaultvalue": 0,
    "displayName": "Randomly checked",
    "hidden": 0,
    "description": "Kill the Blue porcunipine 100 times",
    "icon": "https://steamcdn-a.akamaihd.net/steamcommunity/public/images/apps/352620/6b77463e524a1f608fc66cd9a7f92bb61675fc7f.jpg",
    "icongray": "https://steamcdn-a.akamaihd.net/steamcommunity/public/images/apps/352620/f9f7b833c495a01a13b40b72439a3d148217e521.jpg"
  },
  {
    "name": "killBounceRock",
    "defaultvalue": 0,
    "displayName": "Rock’n’Roller",
    "hidden": 0,
    "description": "Kill a player 10 times by bouncing a shot off a rock",
    "icon": "https://steamcdn-a.akamaihd.net/steamcommunity/public/images/apps/352620/96a510ab57ffb6b18817bd0afea2b2954fc5a48f.jpg",
    "icongray": "https://steamcdn-a.akamaihd.net/steamcommunity/public/images/apps/352620/b9f53a8d855a669156946c61173f9c6a02a22400.jpg"
  },
  {
    "name": "diePyramid",
    "defaultvalue": 0,
    "displayName": "Mummy said so",
    "hidden": 0,
    "description": "Die inside the Pyramid",
    "icon": "https://steamcdn-a.akamaihd.net/steamcommunity/public/images/apps/352620/907cf2900b8e997969159502933ad677a2605e64.jpg",
    "icongray": "https://steamcdn-a.akamaihd.net/steamcommunity/public/images/apps/352620/816bedc7ba6ef68069ced000619179999d975fc8.jpg"
  },
  {
    "name": "barbershop",
    "defaultvalue": 0,
    "displayName": "Barbershop",
    "hidden": 0,
    "description": "Make 2 close calls on different players with a single shot",
    "icon": "https://steamcdn-a.akamaihd.net/steamcommunity/public/images/apps/352620/1d002b9948fbaad74daf9d46f75a065af8cd285f.jpg",
    "icongray": "https://steamcdn-a.akamaihd.net/steamcommunity/public/images/apps/352620/c4fcfae2d5f2a4a4fb511aebed5807c4f20b2399.jpg"
  },
  {
    "name": "dontMovePlayer",
    "defaultvalue": 0,
    "displayName": "Don’t move or they’ll see you!",
    "hidden": 0,
    "description": "Stand still for 15 seconds",
    "icon": "https://steamcdn-a.akamaihd.net/steamcommunity/public/images/apps/352620/73f0a185cf0bfb60adc9f3151759b9e8bcf64b3b.jpg",
    "icongray": "https://steamcdn-a.akamaihd.net/steamcommunity/public/images/apps/352620/83f089671e21dc665bd0fd57fca15ec87a4e1f29.jpg"
  },
  {
    "name": "safeLand",
    "defaultvalue": 0,
    "displayName": "Land ho!",
    "hidden": 0,
    "description": "Stand in the snow area for 15 seconds straight in the Ice Age level",
    "icon": "https://steamcdn-a.akamaihd.net/steamcommunity/public/images/apps/352620/e3fbaaee59f52c716bb57907bc46237382802abb.jpg",
    "icongray": "https://steamcdn-a.akamaihd.net/steamcommunity/public/images/apps/352620/68d3ef4f31625116442aa90d9296b50afcbc042b.jpg"
  },
  {
    "name": "shapeshifter",
    "defaultvalue": 0,
    "displayName": "Shapeshifter",
    "hidden": 0,
    "description": "Activate switches 100 times in a round",
    "icon": "https://steamcdn-a.akamaihd.net/steamcommunity/public/images/apps/352620/9b522ce4eb03f31b7c472e1584e09fc6dd716bb5.jpg",
    "icongray": "https://steamcdn-a.akamaihd.net/steamcommunity/public/images/apps/352620/8f5c4903747a015f13bafd50b7401208a243b183.jpg"
  },
  {
    "name": "chineseEyes",
    "defaultvalue": 0,
    "displayName": "Chinese eyes",
    "hidden": 0,
    "description": "Get stoned by a falling boulder at 4:20 pm ",
    "icon": "https://steamcdn-a.akamaihd.net/steamcommunity/public/images/apps/352620/3c64a1c4e288b3609032fd9af9e515e8f1cbe907.jpg",
    "icongray": "https://steamcdn-a.akamaihd.net/steamcommunity/public/images/apps/352620/46446eddbd9294f18a5f98c8e722c7d469981211.jpg"
  },
  {
    "name": "ludumDare",
    "defaultvalue": 0,
    "displayName": "Ludum Dare!",
    "hidden": 0,
    "description": "Reach 48 hours of play time",
    "icon": "https://steamcdn-a.akamaihd.net/steamcommunity/public/images/apps/352620/73c7f835bb723d1160b6398327c493ef5fc935ae.jpg",
    "icongray": "https://steamcdn-a.akamaihd.net/steamcommunity/public/images/apps/352620/c991db6a6c21515ae13d466f3a633b92247569f1.jpg"
  },
  {
    "name": "completeAll",
    "defaultvalue": 0,
    "displayName": "Ok, go play outside now",
    "hidden": 0,
    "description": "Earn every achievement in the game",
    "icon": "https://steamcdn-a.akamaihd.net/steamcommunity/public/images/apps/352620/b2126b8827c47979c3e01c952f0950ddccfe813e.jpg",
    "icongray": "https://steamcdn-a.akamaihd.net/steamcommunity/public/images/apps/352620/c84f418596340bc2fbf42f41f8b2c7ab1fb3a5bc.jpg"
  }
]