﻿{
  "Dlcs": {},
  "Name": "Prodeus",
  "AppId": "964800",
  "ImageUrl": "https://steamcdn-a.akamaihd.net/steam/apps/964800/header.jpg?t=1598933648",
  "Languages": [
    "english"
  ],
  "Platforms": {
    "windows": true,
    "mac": true,
    "linux": true
  }
}