[
  {
    "name": "NEW_ACHIEVEMENT_Launch_Game",
    "defaultvalue": 0,
    "displayName": "Launch Game",
    "hidden": 0,
    "description": "Launch Game",
    "icon": "https://steamcdn-a.akamaihd.net/steamcommunity/public/images/apps/1193600/be34a21c823c4d47c74b0d7c2665a37fbaa22904.jpg",
    "icongray": "https://steamcdn-a.akamaihd.net/steamcommunity/public/images/apps/1193600/7caac5812ec4229018de13e24ee76851feacb175.jpg"
  },
  {
    "name": "NEW_ACHIEVEMENT_Fire_World",
    "defaultvalue": 0,
    "displayName": "Fire Maze",
    "hidden": 0,
    "description": "Fire Maze",
    "icon": "https://steamcdn-a.akamaihd.net/steamcommunity/public/images/apps/1193600/d212966942f82694104ced3a539aa593071210b6.jpg",
    "icongray": "https://steamcdn-a.akamaihd.net/steamcommunity/public/images/apps/1193600/7f878f2ec9908e3c19938f01e4468625ccbfd845.jpg"
  },
  {
    "name": "NEW_ACHIEVEMENT_Water_World",
    "defaultvalue": 0,
    "displayName": "Water Maze",
    "hidden": 0,
    "description": "Water Maze",
    "icon": "https://steamcdn-a.akamaihd.net/steamcommunity/public/images/apps/1193600/9a81c9e1b4954c48383c315422f29c4e86f9663f.jpg",
    "icongray": "https://steamcdn-a.akamaihd.net/steamcommunity/public/images/apps/1193600/b44f82d12748325e60b81afe2935c7f66d15d5c6.jpg"
  },
  {
    "name": "NEW_ACHIEVEMENT_Poison_World",
    "defaultvalue": 0,
    "displayName": "Poison Maze",
    "hidden": 0,
    "description": "Poison Maze",
    "icon": "https://steamcdn-a.akamaihd.net/steamcommunity/public/images/apps/1193600/de35f4eb4af0b03563367507249bdf20cbaafbc7.jpg",
    "icongray": "https://steamcdn-a.akamaihd.net/steamcommunity/public/images/apps/1193600/83b3372365f68d1c1d5559869dc4b5487be3c287.jpg"
  },
  {
    "name": "NEW_ACHIEVEMENT_Metal_World",
    "defaultvalue": 0,
    "displayName": "Metal Maze",
    "hidden": 0,
    "description": "Metal Maze",
    "icon": "https://steamcdn-a.akamaihd.net/steamcommunity/public/images/apps/1193600/25ed5de5c0e8f911c3350b030fcc78ac0e3365ac.jpg",
    "icongray": "https://steamcdn-a.akamaihd.net/steamcommunity/public/images/apps/1193600/0854c9f7c252ae2f871a4073703b1020f34f7166.jpg"
  },
  {
    "name": "NEW_ACHIEVEMENT_Earth_World",
    "defaultvalue": 0,
    "displayName": "Earth Maze",
    "hidden": 0,
    "description": "Earth Maze",
    "icon": "https://steamcdn-a.akamaihd.net/steamcommunity/public/images/apps/1193600/4f0ec185a2b5a88f697b7ee6db75a6d3ef7fa835.jpg",
    "icongray": "https://steamcdn-a.akamaihd.net/steamcommunity/public/images/apps/1193600/8d9256528c8d488035738b58aabfc4ea2ee96f81.jpg"
  },
  {
    "name": "NEW_ACHIEVEMENT_Dark World",
    "defaultvalue": 0,
    "displayName": "Dark Maze",
    "hidden": 0,
    "description": "Dark Maze",
    "icon": "https://steamcdn-a.akamaihd.net/steamcommunity/public/images/apps/1193600/18196899d826ed16a028ea6f867900c990feb7cd.jpg",
    "icongray": "https://steamcdn-a.akamaihd.net/steamcommunity/public/images/apps/1193600/d065a06afdd6f1f863f272daae37374d071d37b6.jpg"
  },
  {
    "name": "NEW_ACHIEVEMENT_Fire_1",
    "defaultvalue": 0,
    "displayName": "Fire Maze 1",
    "hidden": 0,
    "description": "Fire Maze 1",
    "icon": "https://steamcdn-a.akamaihd.net/steamcommunity/public/images/apps/1193600/d6f14efc78474b07010110080fadc7922ade7e32.jpg",
    "icongray": "https://steamcdn-a.akamaihd.net/steamcommunity/public/images/apps/1193600/0f83b6a4770f14024293587e525fd42580d38856.jpg"
  },
  {
    "name": "NEW_ACHIEVEMENT_Fire_2",
    "defaultvalue": 0,
    "displayName": "Fire Maze 2",
    "hidden": 0,
    "description": "Fire Maze 2",
    "icon": "https://steamcdn-a.akamaihd.net/steamcommunity/public/images/apps/1193600/637da1d44a1de1dacd1aea0f0487df068df0277f.jpg",
    "icongray": "https://steamcdn-a.akamaihd.net/steamcommunity/public/images/apps/1193600/9401b1b2bae37f657f52a30b21ea42c063f69df4.jpg"
  }
]