{
  "Dlcs": {},
  "Name": "Spear Master",
  "AppId": "878770",
  "ImageUrl": "https://steamcdn-a.akamaihd.net/steam/apps/878770/header.jpg?t=1589574964",
  "Languages": [
    "english",
    "dutch"
  ],
  "Platforms": {
    "windows": true,
    "mac": false,
    "linux": false
  }
}