{
  "Dlcs": {},
  "Name": "Waveform Wipeout",
  "AppId": "897560",
  "ImageUrl": "https://steamcdn-a.akamaihd.net/steam/apps/897560/header.jpg?t=1559912374",
  "Languages": [
    "english"
  ],
  "Platforms": {
    "windows": true,
    "mac": true,
    "linux": false
  }
}