[
  {
    "name": "NEW_ACHIEVEMENT_1_0",
    "defaultvalue": 0,
    "displayName": "Level 1",
    "hidden": 0,
    "description": "Complete level 1",
    "icon": "https://steamcdn-a.akamaihd.net/steamcommunity/public/images/apps/1083450/122ca2939d6b89f975cf17ba869d0347627ec924.jpg",
    "icongray": "https://steamcdn-a.akamaihd.net/steamcommunity/public/images/apps/1083450/cf282bb06887cd288717d0757062475e47032083.jpg"
  },
  {
    "name": "NEW_ACHIEVEMENT_1_1",
    "defaultvalue": 0,
    "displayName": "Level 2",
    "hidden": 0,
    "description": "Complete level 2",
    "icon": "https://steamcdn-a.akamaihd.net/steamcommunity/public/images/apps/1083450/f5c31902fa1bfe095747ad48f5d84df0a78f59f2.jpg",
    "icongray": "https://steamcdn-a.akamaihd.net/steamcommunity/public/images/apps/1083450/d0bceb433b5a7392a8631503c4e13bcce497cd5d.jpg"
  },
  {
    "name": "NEW_ACHIEVEMENT_1_2",
    "defaultvalue": 0,
    "displayName": "Level 3",
    "hidden": 0,
    "description": "Complete level 3",
    "icon": "https://steamcdn-a.akamaihd.net/steamcommunity/public/images/apps/1083450/aec30c82da5d06e9305167c34bb3500e5f1b81ff.jpg",
    "icongray": "https://steamcdn-a.akamaihd.net/steamcommunity/public/images/apps/1083450/fcffbfad2252a8c095429ec3003dd5fe0c0fdd9e.jpg"
  },
  {
    "name": "NEW_ACHIEVEMENT_1_3",
    "defaultvalue": 0,
    "displayName": "Level 4",
    "hidden": 0,
    "description": "Complete level 4",
    "icon": "https://steamcdn-a.akamaihd.net/steamcommunity/public/images/apps/1083450/3425d83ebf35413bd36aa24ff2d2db3376cccb94.jpg",
    "icongray": "https://steamcdn-a.akamaihd.net/steamcommunity/public/images/apps/1083450/acd8bf049eb3dced7052783ca0a10545608cdb9b.jpg"
  },
  {
    "name": "NEW_ACHIEVEMENT_1_4",
    "defaultvalue": 0,
    "displayName": "Level 5",
    "hidden": 0,
    "description": "Complete level 5",
    "icon": "https://steamcdn-a.akamaihd.net/steamcommunity/public/images/apps/1083450/e9ca05ff6ad1216b7c66bb64fa8c99bbfb56fcd3.jpg",
    "icongray": "https://steamcdn-a.akamaihd.net/steamcommunity/public/images/apps/1083450/d6dfaf24e4875ea8f53859e88c2d3b1c39a5dea8.jpg"
  },
  {
    "name": "NEW_ACHIEVEMENT_1_5",
    "defaultvalue": 0,
    "displayName": "Level 6",
    "hidden": 0,
    "description": "Complete level 6",
    "icon": "https://steamcdn-a.akamaihd.net/steamcommunity/public/images/apps/1083450/1ad25b72879efd44403ab375c4a2509acd7aa1aa.jpg",
    "icongray": "https://steamcdn-a.akamaihd.net/steamcommunity/public/images/apps/1083450/ca7c9860f57348f93e761f6ef288aa552a9165ce.jpg"
  },
  {
    "name": "NEW_ACHIEVEMENT_1_6",
    "defaultvalue": 0,
    "displayName": "Level 7",
    "hidden": 0,
    "description": "Complete level 7",
    "icon": "https://steamcdn-a.akamaihd.net/steamcommunity/public/images/apps/1083450/79346db032748d3ef9a0603e688056bd71d92486.jpg",
    "icongray": "https://steamcdn-a.akamaihd.net/steamcommunity/public/images/apps/1083450/13beae860979f0551f3dde94dc03b3ce9d43c9ec.jpg"
  },
  {
    "name": "NEW_ACHIEVEMENT_1_7",
    "defaultvalue": 0,
    "displayName": "Level 8",
    "hidden": 0,
    "description": "Complete level 8",
    "icon": "https://steamcdn-a.akamaihd.net/steamcommunity/public/images/apps/1083450/9b2496b42edcf92603d98e3754e92c28a0044ec8.jpg",
    "icongray": "https://steamcdn-a.akamaihd.net/steamcommunity/public/images/apps/1083450/6e502c924da3802cdb7b63cf30c21a6c39f9967f.jpg"
  },
  {
    "name": "NEW_ACHIEVEMENT_1_8",
    "defaultvalue": 0,
    "displayName": "Level 9",
    "hidden": 0,
    "description": "Complete level 9",
    "icon": "https://steamcdn-a.akamaihd.net/steamcommunity/public/images/apps/1083450/62c7f38436728d4de2f4f810d0e5bec7d2d6e4ce.jpg",
    "icongray": "https://steamcdn-a.akamaihd.net/steamcommunity/public/images/apps/1083450/96cdd84f887f40fc844fbeeadc2b5cb471bd443b.jpg"
  },
  {
    "name": "NEW_ACHIEVEMENT_1_9",
    "defaultvalue": 0,
    "displayName": "Level 10",
    "hidden": 0,
    "description": "Complete level 10",
    "icon": "https://steamcdn-a.akamaihd.net/steamcommunity/public/images/apps/1083450/c7b4dce4bd08c98c3cd982f689205c899a8e271b.jpg",
    "icongray": "https://steamcdn-a.akamaihd.net/steamcommunity/public/images/apps/1083450/1ce968022482b90f5d089eed197d1adb9d84bfd1.jpg"
  },
  {
    "name": "NEW_ACHIEVEMENT_1_10",
    "defaultvalue": 0,
    "displayName": "Level 11",
    "hidden": 0,
    "description": "Complete level 11",
    "icon": "https://steamcdn-a.akamaihd.net/steamcommunity/public/images/apps/1083450/f6cb01dc25bf5ec7a13de68199a686cb38fbdddb.jpg",
    "icongray": "https://steamcdn-a.akamaihd.net/steamcommunity/public/images/apps/1083450/68573be053b9a4f6783420896c57482f287298d7.jpg"
  },
  {
    "name": "NEW_ACHIEVEMENT_1_11",
    "defaultvalue": 0,
    "displayName": "Level 12",
    "hidden": 0,
    "description": "Complete level 12",
    "icon": "https://steamcdn-a.akamaihd.net/steamcommunity/public/images/apps/1083450/531844495c10101619f7514a77ada8c36f0edccc.jpg",
    "icongray": "https://steamcdn-a.akamaihd.net/steamcommunity/public/images/apps/1083450/d6428b7eb9f9e5f6cc12427d928d90ed654719ab.jpg"
  },
  {
    "name": "NEW_ACHIEVEMENT_1_12",
    "defaultvalue": 0,
    "displayName": "Level 13",
    "hidden": 0,
    "description": "Complete level 13",
    "icon": "https://steamcdn-a.akamaihd.net/steamcommunity/public/images/apps/1083450/f050a81c77903234f4ab4d2077a27a235a8e878b.jpg",
    "icongray": "https://steamcdn-a.akamaihd.net/steamcommunity/public/images/apps/1083450/2ccf596458ccbb955ec2998fd12854b013fa0872.jpg"
  },
  {
    "name": "NEW_ACHIEVEMENT_1_13",
    "defaultvalue": 0,
    "displayName": "Level 14",
    "hidden": 0,
    "description": "Complete level 14",
    "icon": "https://steamcdn-a.akamaihd.net/steamcommunity/public/images/apps/1083450/e995492baa7e13f012f5361caace926d6df39c66.jpg",
    "icongray": "https://steamcdn-a.akamaihd.net/steamcommunity/public/images/apps/1083450/6a0d0fc4047cdaef60a9da9461092b86856a6cd2.jpg"
  },
  {
    "name": "NEW_ACHIEVEMENT_1_14",
    "defaultvalue": 0,
    "displayName": "Level 15",
    "hidden": 0,
    "description": "Complete level 15",
    "icon": "https://steamcdn-a.akamaihd.net/steamcommunity/public/images/apps/1083450/e1ae0461e27679099b020c8691953f4d9b3ccc2d.jpg",
    "icongray": "https://steamcdn-a.akamaihd.net/steamcommunity/public/images/apps/1083450/344cb7e2378d0af84af2aa0fbac7fb347c2735a4.jpg"
  },
  {
    "name": "NEW_ACHIEVEMENT_1_15",
    "defaultvalue": 0,
    "displayName": "Level 16",
    "hidden": 0,
    "description": "Complete level 16",
    "icon": "https://steamcdn-a.akamaihd.net/steamcommunity/public/images/apps/1083450/54116d13c66181c4791a3bd634169151b82c39a0.jpg",
    "icongray": "https://steamcdn-a.akamaihd.net/steamcommunity/public/images/apps/1083450/da140e3525e31b70a76428429e4c913b95a5a4fe.jpg"
  },
  {
    "name": "NEW_ACHIEVEMENT_1_16",
    "defaultvalue": 0,
    "displayName": "Level 17",
    "hidden": 0,
    "description": "Complete level 17",
    "icon": "https://steamcdn-a.akamaihd.net/steamcommunity/public/images/apps/1083450/348012a59e5556b42926ab8d3741b885cf770fe0.jpg",
    "icongray": "https://steamcdn-a.akamaihd.net/steamcommunity/public/images/apps/1083450/fd4f6fe59907b51e876afa6c0fb6feca7f1dc7c7.jpg"
  },
  {
    "name": "NEW_ACHIEVEMENT_1_17",
    "defaultvalue": 0,
    "displayName": "Level 18",
    "hidden": 0,
    "description": "Complete level 18",
    "icon": "https://steamcdn-a.akamaihd.net/steamcommunity/public/images/apps/1083450/9e307c0f479edd050ec67a116de80dbdea560ecd.jpg",
    "icongray": "https://steamcdn-a.akamaihd.net/steamcommunity/public/images/apps/1083450/a53adaddf1de3610e458a7f334063f3b1914c6b3.jpg"
  },
  {
    "name": "NEW_ACHIEVEMENT_1_18",
    "defaultvalue": 0,
    "displayName": "Level 19",
    "hidden": 0,
    "description": "Complete level 19",
    "icon": "https://steamcdn-a.akamaihd.net/steamcommunity/public/images/apps/1083450/5dd420648e1a8d1f2049b75113d625003df2a37d.jpg",
    "icongray": "https://steamcdn-a.akamaihd.net/steamcommunity/public/images/apps/1083450/d24e2b09ea80549ac09089657319034f7f06d7ff.jpg"
  },
  {
    "name": "NEW_ACHIEVEMENT_1_19",
    "defaultvalue": 0,
    "displayName": "Level 20",
    "hidden": 0,
    "description": "Complete level 20",
    "icon": "https://steamcdn-a.akamaihd.net/steamcommunity/public/images/apps/1083450/085cfdc33652db9dd7b647099d73e60d2a706494.jpg",
    "icongray": "https://steamcdn-a.akamaihd.net/steamcommunity/public/images/apps/1083450/07577b058f46c0046d93b453cba7277d9b093d5f.jpg"
  },
  {
    "name": "NEW_ACHIEVEMENT_1_20",
    "defaultvalue": 0,
    "displayName": "Level 21",
    "hidden": 0,
    "description": "Complete level 21",
    "icon": "https://steamcdn-a.akamaihd.net/steamcommunity/public/images/apps/1083450/07b0193ed9172acd742365968c712c074d69c466.jpg",
    "icongray": "https://steamcdn-a.akamaihd.net/steamcommunity/public/images/apps/1083450/a4041d272ea2fe41915396f58aff0c99e8a18ef3.jpg"
  },
  {
    "name": "NEW_ACHIEVEMENT_1_21",
    "defaultvalue": 0,
    "displayName": "Level 22",
    "hidden": 0,
    "description": "Complete level 22",
    "icon": "https://steamcdn-a.akamaihd.net/steamcommunity/public/images/apps/1083450/75a449ad8e93c9958f5ae87b032ad0265bdf2d52.jpg",
    "icongray": "https://steamcdn-a.akamaihd.net/steamcommunity/public/images/apps/1083450/53437c5078a11f150f4046055d4e2568b9af9e76.jpg"
  },
  {
    "name": "NEW_ACHIEVEMENT_1_22",
    "defaultvalue": 0,
    "displayName": "Level 23",
    "hidden": 0,
    "description": "Complete level 23",
    "icon": "https://steamcdn-a.akamaihd.net/steamcommunity/public/images/apps/1083450/ec15882e42a06c88da4643f3e89d2a6734480209.jpg",
    "icongray": "https://steamcdn-a.akamaihd.net/steamcommunity/public/images/apps/1083450/a29b635ec3ec0c5a9a2cf281423de6854191755a.jpg"
  },
  {
    "name": "NEW_ACHIEVEMENT_1_23",
    "defaultvalue": 0,
    "displayName": "Level 24",
    "hidden": 0,
    "description": "Complete level 24",
    "icon": "https://steamcdn-a.akamaihd.net/steamcommunity/public/images/apps/1083450/def4667c0fdda5c3f3cb09d0b7f800a2761dad4d.jpg",
    "icongray": "https://steamcdn-a.akamaihd.net/steamcommunity/public/images/apps/1083450/fa9d1527df7187a775ac14cc98ec5146a5bf8f30.jpg"
  },
  {
    "name": "NEW_ACHIEVEMENT_1_24",
    "defaultvalue": 0,
    "displayName": "Level 25",
    "hidden": 0,
    "description": "Complete level 25",
    "icon": "https://steamcdn-a.akamaihd.net/steamcommunity/public/images/apps/1083450/381f95d9cec204fb7a04e0ad24648c0ae9ca7b46.jpg",
    "icongray": "https://steamcdn-a.akamaihd.net/steamcommunity/public/images/apps/1083450/d2243cd82b66dd24873215cccd87c72324bd6de0.jpg"
  },
  {
    "name": "NEW_ACHIEVEMENT_1_25",
    "defaultvalue": 0,
    "displayName": "Level 26",
    "hidden": 0,
    "description": "Complete level 26",
    "icon": "https://steamcdn-a.akamaihd.net/steamcommunity/public/images/apps/1083450/7df3fe3d9cc8a1fd7267ce155395b9183fc1d4d9.jpg",
    "icongray": "https://steamcdn-a.akamaihd.net/steamcommunity/public/images/apps/1083450/1ea83906c6dd082c460ea3c80b5b456e8c5b91e9.jpg"
  },
  {
    "name": "NEW_ACHIEVEMENT_1_26",
    "defaultvalue": 0,
    "displayName": "Level 27",
    "hidden": 0,
    "description": "Complete level 27",
    "icon": "https://steamcdn-a.akamaihd.net/steamcommunity/public/images/apps/1083450/dcd8703814d33db2b5a69472d2e3eb9afe8da2a0.jpg",
    "icongray": "https://steamcdn-a.akamaihd.net/steamcommunity/public/images/apps/1083450/e0e57586e6fdfb58afabecaea678e4797c28fd1d.jpg"
  },
  {
    "name": "NEW_ACHIEVEMENT_1_27",
    "defaultvalue": 0,
    "displayName": "Level 28",
    "hidden": 0,
    "description": "Complete level 28",
    "icon": "https://steamcdn-a.akamaihd.net/steamcommunity/public/images/apps/1083450/f4baf69aeec26f36cdc65ec4d377c05a4d0a4a6a.jpg",
    "icongray": "https://steamcdn-a.akamaihd.net/steamcommunity/public/images/apps/1083450/3d3b5c4677852753d43688ff3e2fabb1685574e9.jpg"
  },
  {
    "name": "NEW_ACHIEVEMENT_1_28",
    "defaultvalue": 0,
    "displayName": "Level 29",
    "hidden": 0,
    "description": "Complete level 29",
    "icon": "https://steamcdn-a.akamaihd.net/steamcommunity/public/images/apps/1083450/09b211be994ce2ba11d1f615c8d07382773eb742.jpg",
    "icongray": "https://steamcdn-a.akamaihd.net/steamcommunity/public/images/apps/1083450/8d5905ce8052c6947b93c0aafd9bb91ae4ff07c8.jpg"
  },
  {
    "name": "NEW_ACHIEVEMENT_1_29",
    "defaultvalue": 0,
    "displayName": "Level 30",
    "hidden": 0,
    "description": "Complete level 30",
    "icon": "https://steamcdn-a.akamaihd.net/steamcommunity/public/images/apps/1083450/184c431fad9b9d9b6c7759f5101a73e08b61b259.jpg",
    "icongray": "https://steamcdn-a.akamaihd.net/steamcommunity/public/images/apps/1083450/c7e1eac4a0d7756ce2cd763974a21547bf43f6db.jpg"
  },
  {
    "name": "NEW_ACHIEVEMENT_1_30",
    "defaultvalue": 0,
    "displayName": "Level 31",
    "hidden": 0,
    "description": "Complete level 31",
    "icon": "https://steamcdn-a.akamaihd.net/steamcommunity/public/images/apps/1083450/316442ea3b4cc7706b4e4314ecbdddcba64b871c.jpg",
    "icongray": "https://steamcdn-a.akamaihd.net/steamcommunity/public/images/apps/1083450/611647ff2ee2e1e93efcce0dd012b91d1b42526d.jpg"
  },
  {
    "name": "NEW_ACHIEVEMENT_1_31",
    "defaultvalue": 0,
    "displayName": "Level 32",
    "hidden": 0,
    "description": "Complete level 32",
    "icon": "https://steamcdn-a.akamaihd.net/steamcommunity/public/images/apps/1083450/78ac530fdc6eb0a7efde8c6200e888326d1dcaf7.jpg",
    "icongray": "https://steamcdn-a.akamaihd.net/steamcommunity/public/images/apps/1083450/4a1d1e4e26e9025ebc8cff2fd12ba8563d1222b4.jpg"
  },
  {
    "name": "NEW_ACHIEVEMENT_2_0",
    "defaultvalue": 0,
    "displayName": "Level 33",
    "hidden": 0,
    "description": "Complete level 33",
    "icon": "https://steamcdn-a.akamaihd.net/steamcommunity/public/images/apps/1083450/233c0240a69f5521ffed17226b473c27981018a3.jpg",
    "icongray": "https://steamcdn-a.akamaihd.net/steamcommunity/public/images/apps/1083450/2ba2f1e5767cee9e3cc4e29b9102ae5c26c14cc0.jpg"
  },
  {
    "name": "NEW_ACHIEVEMENT_2_1",
    "defaultvalue": 0,
    "displayName": "Level 34",
    "hidden": 0,
    "description": "Complete level 34",
    "icon": "https://steamcdn-a.akamaihd.net/steamcommunity/public/images/apps/1083450/3a1adf404893c7297aea051b057ce8fcb92241f7.jpg",
    "icongray": "https://steamcdn-a.akamaihd.net/steamcommunity/public/images/apps/1083450/bd01845bee0ed97db0a95a01dab38cef0867c7d5.jpg"
  },
  {
    "name": "NEW_ACHIEVEMENT_2_2",
    "defaultvalue": 0,
    "displayName": "Level 35",
    "hidden": 0,
    "description": "Complete level 35",
    "icon": "https://steamcdn-a.akamaihd.net/steamcommunity/public/images/apps/1083450/a21d93395020d75a6746b6ac2aa86b926e8edf1e.jpg",
    "icongray": "https://steamcdn-a.akamaihd.net/steamcommunity/public/images/apps/1083450/cb70780798e76d55a7be86f6e51af32232b937df.jpg"
  },
  {
    "name": "NEW_ACHIEVEMENT_2_3",
    "defaultvalue": 0,
    "displayName": "Level 36",
    "hidden": 0,
    "description": "Complete level 36",
    "icon": "https://steamcdn-a.akamaihd.net/steamcommunity/public/images/apps/1083450/30750cb03d74da52bbf65465ab204e3832a6a22c.jpg",
    "icongray": "https://steamcdn-a.akamaihd.net/steamcommunity/public/images/apps/1083450/ded17bc36a22dc2bfa09772dfd93252d7374b745.jpg"
  },
  {
    "name": "NEW_ACHIEVEMENT_2_4",
    "defaultvalue": 0,
    "displayName": "Level 37",
    "hidden": 0,
    "description": "Complete level 37",
    "icon": "https://steamcdn-a.akamaihd.net/steamcommunity/public/images/apps/1083450/a7d1cce17392d34fa80294977b0a6739e84db3ae.jpg",
    "icongray": "https://steamcdn-a.akamaihd.net/steamcommunity/public/images/apps/1083450/592a690223017975721d934cba819b365a0aa569.jpg"
  },
  {
    "name": "NEW_ACHIEVEMENT_2_5",
    "defaultvalue": 0,
    "displayName": "Level 38",
    "hidden": 0,
    "description": "Complete level 38",
    "icon": "https://steamcdn-a.akamaihd.net/steamcommunity/public/images/apps/1083450/bdc989bb39139ba2d2df88a96265bec8d21fbc36.jpg",
    "icongray": "https://steamcdn-a.akamaihd.net/steamcommunity/public/images/apps/1083450/8e505a07ea5b7ddea5520e587d7dffe1030a95dd.jpg"
  },
  {
    "name": "NEW_ACHIEVEMENT_2_6",
    "defaultvalue": 0,
    "displayName": "Level 39",
    "hidden": 0,
    "description": "Complete level 39",
    "icon": "https://steamcdn-a.akamaihd.net/steamcommunity/public/images/apps/1083450/6d32c5338b7e9eec068097e2fa7510a107705dd1.jpg",
    "icongray": "https://steamcdn-a.akamaihd.net/steamcommunity/public/images/apps/1083450/12e7daf059cfce7219f3ec9fd5334db4cfcfffbb.jpg"
  },
  {
    "name": "NEW_ACHIEVEMENT_2_7",
    "defaultvalue": 0,
    "displayName": "Level 40",
    "hidden": 0,
    "description": "Complete level 40",
    "icon": "https://steamcdn-a.akamaihd.net/steamcommunity/public/images/apps/1083450/d47a671d198fef289c7d8c03c95cf9026edd6cb5.jpg",
    "icongray": "https://steamcdn-a.akamaihd.net/steamcommunity/public/images/apps/1083450/10a341ff0599071ef1d26d8f74fad88924fb8edd.jpg"
  },
  {
    "name": "NEW_ACHIEVEMENT_2_8",
    "defaultvalue": 0,
    "displayName": "Level 41",
    "hidden": 0,
    "description": "Complete level 41",
    "icon": "https://steamcdn-a.akamaihd.net/steamcommunity/public/images/apps/1083450/b3dbc487d9f33baa6f12a22356f889e9485c06e0.jpg",
    "icongray": "https://steamcdn-a.akamaihd.net/steamcommunity/public/images/apps/1083450/d0af896de6c8c7e247264a5671ae2fda0ee11e7c.jpg"
  },
  {
    "name": "NEW_ACHIEVEMENT_2_9",
    "defaultvalue": 0,
    "displayName": "Level 42",
    "hidden": 0,
    "description": "Complete level 42",
    "icon": "https://steamcdn-a.akamaihd.net/steamcommunity/public/images/apps/1083450/be9fd41a6767785faffa9665040636fd9e75626b.jpg",
    "icongray": "https://steamcdn-a.akamaihd.net/steamcommunity/public/images/apps/1083450/78384038ef49d3d34ff025a32f1187a8b0476bcd.jpg"
  },
  {
    "name": "NEW_ACHIEVEMENT_2_10",
    "defaultvalue": 0,
    "displayName": "Level 43",
    "hidden": 0,
    "description": "Complete level 43",
    "icon": "https://steamcdn-a.akamaihd.net/steamcommunity/public/images/apps/1083450/25e2eff81411b8151c5e99871a20805e487105b6.jpg",
    "icongray": "https://steamcdn-a.akamaihd.net/steamcommunity/public/images/apps/1083450/9b7cc7b5be16922c4f4d562acb644a4e692ccc33.jpg"
  },
  {
    "name": "NEW_ACHIEVEMENT_2_11",
    "defaultvalue": 0,
    "displayName": "Level 44",
    "hidden": 0,
    "description": "Complete level 44",
    "icon": "https://steamcdn-a.akamaihd.net/steamcommunity/public/images/apps/1083450/d35258e1d456be697d70855839aab5e68f160dd0.jpg",
    "icongray": "https://steamcdn-a.akamaihd.net/steamcommunity/public/images/apps/1083450/51f6c8345156b9986e08f95003dc13d9dd6f9d9d.jpg"
  },
  {
    "name": "NEW_ACHIEVEMENT_2_12",
    "defaultvalue": 0,
    "displayName": "Level 45",
    "hidden": 0,
    "description": "Complete level 45",
    "icon": "https://steamcdn-a.akamaihd.net/steamcommunity/public/images/apps/1083450/a6ac2544f7e9e47fe1d57601d98cb73b1f60683f.jpg",
    "icongray": "https://steamcdn-a.akamaihd.net/steamcommunity/public/images/apps/1083450/f1b2f3ce70ad0dfc0eaa0c26d673d205a8ba58da.jpg"
  },
  {
    "name": "NEW_ACHIEVEMENT_2_13",
    "defaultvalue": 0,
    "displayName": "Level 46",
    "hidden": 0,
    "description": "Complete level 46",
    "icon": "https://steamcdn-a.akamaihd.net/steamcommunity/public/images/apps/1083450/e605639d9fd47e38398f6f6611310507a2aacc7f.jpg",
    "icongray": "https://steamcdn-a.akamaihd.net/steamcommunity/public/images/apps/1083450/fa62a20d20555b8948e9431eea40196ee4c0245f.jpg"
  },
  {
    "name": "NEW_ACHIEVEMENT_2_14",
    "defaultvalue": 0,
    "displayName": "Level 47",
    "hidden": 0,
    "description": "Complete level 47",
    "icon": "https://steamcdn-a.akamaihd.net/steamcommunity/public/images/apps/1083450/21a9c32ee776c446d3dc0670ee830e735867d628.jpg",
    "icongray": "https://steamcdn-a.akamaihd.net/steamcommunity/public/images/apps/1083450/be2a22bfb69cad14d49407469cfbdcfdd5792dc9.jpg"
  },
  {
    "name": "NEW_ACHIEVEMENT_2_15",
    "defaultvalue": 0,
    "displayName": "Level 48",
    "hidden": 0,
    "description": "Complete level 48",
    "icon": "https://steamcdn-a.akamaihd.net/steamcommunity/public/images/apps/1083450/297eb09581872a27367495dd99866e16b7e676cb.jpg",
    "icongray": "https://steamcdn-a.akamaihd.net/steamcommunity/public/images/apps/1083450/c5bac55f99d911de78f3bacf97754fbd1104c000.jpg"
  },
  {
    "name": "NEW_ACHIEVEMENT_2_16",
    "defaultvalue": 0,
    "displayName": "Level 49",
    "hidden": 0,
    "description": "Complete level 49",
    "icon": "https://steamcdn-a.akamaihd.net/steamcommunity/public/images/apps/1083450/ad6fea24b679fcc429b38fdddd5475d02ae7d12e.jpg",
    "icongray": "https://steamcdn-a.akamaihd.net/steamcommunity/public/images/apps/1083450/f40fb36b33b34e5746ac64fcce6864bd898f31aa.jpg"
  },
  {
    "name": "NEW_ACHIEVEMENT_2_17",
    "defaultvalue": 0,
    "displayName": "Level 50",
    "hidden": 0,
    "description": "Complete level 50",
    "icon": "https://steamcdn-a.akamaihd.net/steamcommunity/public/images/apps/1083450/61222abb0208ae2c900c028da16649f0722fe1de.jpg",
    "icongray": "https://steamcdn-a.akamaihd.net/steamcommunity/public/images/apps/1083450/0cdf42fcf3f9f96277974cb08267591d905fe097.jpg"
  },
  {
    "name": "NEW_ACHIEVEMENT_2_18",
    "defaultvalue": 0,
    "displayName": "Level 51",
    "hidden": 0,
    "description": "Complete level 51",
    "icon": "https://steamcdn-a.akamaihd.net/steamcommunity/public/images/apps/1083450/a0ccf2fc16e3b490e715157a1ddbe5eb2198a9df.jpg",
    "icongray": "https://steamcdn-a.akamaihd.net/steamcommunity/public/images/apps/1083450/7ddd705e53a4dcb756df69d752307a7c792bd102.jpg"
  },
  {
    "name": "NEW_ACHIEVEMENT_2_19",
    "defaultvalue": 0,
    "displayName": "Level 52",
    "hidden": 0,
    "description": "Complete level 52",
    "icon": "https://steamcdn-a.akamaihd.net/steamcommunity/public/images/apps/1083450/bf130bd0df81634a1fedd20648cfa8868e2ccbec.jpg",
    "icongray": "https://steamcdn-a.akamaihd.net/steamcommunity/public/images/apps/1083450/6acfc55f7d8e61e1ac48bba8e73f7ff761c2b89e.jpg"
  },
  {
    "name": "NEW_ACHIEVEMENT_2_20",
    "defaultvalue": 0,
    "displayName": "Level 53",
    "hidden": 0,
    "description": "Complete level 53",
    "icon": "https://steamcdn-a.akamaihd.net/steamcommunity/public/images/apps/1083450/4ebbcbcd8310b4f29c35e8f309188c7ac8e59dbf.jpg",
    "icongray": "https://steamcdn-a.akamaihd.net/steamcommunity/public/images/apps/1083450/b7828db26ef1733542d23a09a83d134436db34d5.jpg"
  },
  {
    "name": "NEW_ACHIEVEMENT_2_21",
    "defaultvalue": 0,
    "displayName": "Level 54",
    "hidden": 0,
    "description": "Complete level 54",
    "icon": "https://steamcdn-a.akamaihd.net/steamcommunity/public/images/apps/1083450/dc8939abddc1105f102006765b0c1773dbeb11fb.jpg",
    "icongray": "https://steamcdn-a.akamaihd.net/steamcommunity/public/images/apps/1083450/5d67eaf07dcc1f2905cf305998b55ded1c07b055.jpg"
  },
  {
    "name": "NEW_ACHIEVEMENT_2_22",
    "defaultvalue": 0,
    "displayName": "Level 55",
    "hidden": 0,
    "description": "Complete level 55",
    "icon": "https://steamcdn-a.akamaihd.net/steamcommunity/public/images/apps/1083450/d883c18e227fa7fea312f49dc9336e94df3b1456.jpg",
    "icongray": "https://steamcdn-a.akamaihd.net/steamcommunity/public/images/apps/1083450/905a2186257dc67ecc5b31f910937fa308d40fdc.jpg"
  },
  {
    "name": "NEW_ACHIEVEMENT_2_23",
    "defaultvalue": 0,
    "displayName": "Level 56",
    "hidden": 0,
    "description": "Complete level 56",
    "icon": "https://steamcdn-a.akamaihd.net/steamcommunity/public/images/apps/1083450/9b1c67669c295b9b97882f4af9176a572be98ce0.jpg",
    "icongray": "https://steamcdn-a.akamaihd.net/steamcommunity/public/images/apps/1083450/b986f596740670324d1d591b47cfd6535b8c4285.jpg"
  },
  {
    "name": "NEW_ACHIEVEMENT_2_24",
    "defaultvalue": 0,
    "displayName": "Level 57",
    "hidden": 0,
    "description": "Complete level 57",
    "icon": "https://steamcdn-a.akamaihd.net/steamcommunity/public/images/apps/1083450/df23aaf14ba88762fd843d10b7d6e56f1e0bbb73.jpg",
    "icongray": "https://steamcdn-a.akamaihd.net/steamcommunity/public/images/apps/1083450/d51ea0b7c2b038a2669c630a9e7b6210546da7d6.jpg"
  },
  {
    "name": "NEW_ACHIEVEMENT_2_25",
    "defaultvalue": 0,
    "displayName": "Level 58",
    "hidden": 0,
    "description": "Complete level 58",
    "icon": "https://steamcdn-a.akamaihd.net/steamcommunity/public/images/apps/1083450/156db1ded527397ca17607328656fe4e31d06121.jpg",
    "icongray": "https://steamcdn-a.akamaihd.net/steamcommunity/public/images/apps/1083450/2c28ca13e0d0241b4c7bc92bb226911b4e50e3c5.jpg"
  },
  {
    "name": "NEW_ACHIEVEMENT_2_26",
    "defaultvalue": 0,
    "displayName": "Level 59",
    "hidden": 0,
    "description": "Complete level 59",
    "icon": "https://steamcdn-a.akamaihd.net/steamcommunity/public/images/apps/1083450/99720a68cb2a10a8ad5373af711275d942af9132.jpg",
    "icongray": "https://steamcdn-a.akamaihd.net/steamcommunity/public/images/apps/1083450/947afd3971585a08ba8b1c44328bfc180f4f7e48.jpg"
  },
  {
    "name": "NEW_ACHIEVEMENT_2_27",
    "defaultvalue": 0,
    "displayName": "Level 60",
    "hidden": 0,
    "description": "Complete level 60",
    "icon": "https://steamcdn-a.akamaihd.net/steamcommunity/public/images/apps/1083450/8f4e268e7128d6d67745a5b5c2ae6db3927169d5.jpg",
    "icongray": "https://steamcdn-a.akamaihd.net/steamcommunity/public/images/apps/1083450/7f85883e82ee7c6711e58582b29280cd5e52b60b.jpg"
  },
  {
    "name": "NEW_ACHIEVEMENT_2_28",
    "defaultvalue": 0,
    "displayName": "Level 61",
    "hidden": 0,
    "description": "Complete level 61",
    "icon": "https://steamcdn-a.akamaihd.net/steamcommunity/public/images/apps/1083450/3aeb80cf6943a6ff7af81b39b4206b5745e8a00d.jpg",
    "icongray": "https://steamcdn-a.akamaihd.net/steamcommunity/public/images/apps/1083450/6a9ec266a2cc5788cfb7330af3d06ede4103d4ea.jpg"
  },
  {
    "name": "NEW_ACHIEVEMENT_2_29",
    "defaultvalue": 0,
    "displayName": "Level 62",
    "hidden": 0,
    "description": "Complete level 62",
    "icon": "https://steamcdn-a.akamaihd.net/steamcommunity/public/images/apps/1083450/8e246acf4ed1105251c93445d6b31872d625e049.jpg",
    "icongray": "https://steamcdn-a.akamaihd.net/steamcommunity/public/images/apps/1083450/bee8341e919aaab18c5835b0c66b1d683b425a2a.jpg"
  },
  {
    "name": "NEW_ACHIEVEMENT_2_30",
    "defaultvalue": 0,
    "displayName": "Level 63",
    "hidden": 0,
    "description": "Complete level 63",
    "icon": "https://steamcdn-a.akamaihd.net/steamcommunity/public/images/apps/1083450/12dd9f760435a7b6934a86532136c1f43834f3d8.jpg",
    "icongray": "https://steamcdn-a.akamaihd.net/steamcommunity/public/images/apps/1083450/2a11839619483424af1741ca48897f574992c3a1.jpg"
  },
  {
    "name": "NEW_ACHIEVEMENT_2_31",
    "defaultvalue": 0,
    "displayName": "Level 64",
    "hidden": 0,
    "description": "Complete level 64",
    "icon": "https://steamcdn-a.akamaihd.net/steamcommunity/public/images/apps/1083450/a4cd4bee514076b93a8cbbf7955bf8eb2827a125.jpg",
    "icongray": "https://steamcdn-a.akamaihd.net/steamcommunity/public/images/apps/1083450/c649dc5b77e436f4cab83b3aef8ff19c31d6835e.jpg"
  },
  {
    "name": "NEW_ACHIEVEMENT_3_0",
    "defaultvalue": 0,
    "displayName": "Level 65",
    "hidden": 0,
    "description": "Complete level 65",
    "icon": "https://steamcdn-a.akamaihd.net/steamcommunity/public/images/apps/1083450/4fcfa5b1f8dd5514c8e8fa3a858f11af2e5fbdb3.jpg",
    "icongray": "https://steamcdn-a.akamaihd.net/steamcommunity/public/images/apps/1083450/74ae623d285c58c47531079525985badba1ac889.jpg"
  },
  {
    "name": "NEW_ACHIEVEMENT_3_1",
    "defaultvalue": 0,
    "displayName": "Level 66",
    "hidden": 0,
    "description": "Complete level 66",
    "icon": "https://steamcdn-a.akamaihd.net/steamcommunity/public/images/apps/1083450/b33b5db2839ad050fe57c30629c66a898d2f3aa8.jpg",
    "icongray": "https://steamcdn-a.akamaihd.net/steamcommunity/public/images/apps/1083450/a6d4dcf8674010f39a0ea7c1d30cd1b726c098c9.jpg"
  },
  {
    "name": "NEW_ACHIEVEMENT_3_2",
    "defaultvalue": 0,
    "displayName": "Level 67",
    "hidden": 0,
    "description": "Complete level 67",
    "icon": "https://steamcdn-a.akamaihd.net/steamcommunity/public/images/apps/1083450/f4597c3193e0062ffe9388b11780f96fd8dc9f17.jpg",
    "icongray": "https://steamcdn-a.akamaihd.net/steamcommunity/public/images/apps/1083450/f271136a5557340d8d1298bda5872916b0c0f890.jpg"
  },
  {
    "name": "NEW_ACHIEVEMENT_3_3",
    "defaultvalue": 0,
    "displayName": "Level 68",
    "hidden": 0,
    "description": "Complete level 68",
    "icon": "https://steamcdn-a.akamaihd.net/steamcommunity/public/images/apps/1083450/ecfc09c0225585d4f51c994150d50186aef143ef.jpg",
    "icongray": "https://steamcdn-a.akamaihd.net/steamcommunity/public/images/apps/1083450/6492dfdda146ea78e5d1890589ff18ef013d4447.jpg"
  },
  {
    "name": "NEW_ACHIEVEMENT_3_4",
    "defaultvalue": 0,
    "displayName": "Level 69",
    "hidden": 0,
    "description": "Complete level 69",
    "icon": "https://steamcdn-a.akamaihd.net/steamcommunity/public/images/apps/1083450/56c8a03bf57c60a43175777aa147183aa69657aa.jpg",
    "icongray": "https://steamcdn-a.akamaihd.net/steamcommunity/public/images/apps/1083450/6d08e6c849ace4f3b68b4365bc6143c44c996f71.jpg"
  },
  {
    "name": "NEW_ACHIEVEMENT_3_5",
    "defaultvalue": 0,
    "displayName": "Level 70",
    "hidden": 0,
    "description": "Complete level 70",
    "icon": "https://steamcdn-a.akamaihd.net/steamcommunity/public/images/apps/1083450/91434153298b5b8c5c561c180899557c756125d7.jpg",
    "icongray": "https://steamcdn-a.akamaihd.net/steamcommunity/public/images/apps/1083450/68904d6565190e0c4f7f9ef1553a919337a6ec2a.jpg"
  },
  {
    "name": "NEW_ACHIEVEMENT_3_6",
    "defaultvalue": 0,
    "displayName": "Level 71",
    "hidden": 0,
    "description": "Complete level 71",
    "icon": "https://steamcdn-a.akamaihd.net/steamcommunity/public/images/apps/1083450/77ea9428e5383cc87a70620d593774f329257956.jpg",
    "icongray": "https://steamcdn-a.akamaihd.net/steamcommunity/public/images/apps/1083450/719a7584c165a89827482a748945939aa48cd641.jpg"
  },
  {
    "name": "NEW_ACHIEVEMENT_3_7",
    "defaultvalue": 0,
    "displayName": "Level 72",
    "hidden": 0,
    "description": "Complete level 72",
    "icon": "https://steamcdn-a.akamaihd.net/steamcommunity/public/images/apps/1083450/fc06f0701ddd8d576fbe47854edfbd19c36ed5ae.jpg",
    "icongray": "https://steamcdn-a.akamaihd.net/steamcommunity/public/images/apps/1083450/095d0ba0e0f5aae51130fc21652e5ef9c7413da9.jpg"
  },
  {
    "name": "NEW_ACHIEVEMENT_3_8",
    "defaultvalue": 0,
    "displayName": "Level 73",
    "hidden": 0,
    "description": "Complete level 73",
    "icon": "https://steamcdn-a.akamaihd.net/steamcommunity/public/images/apps/1083450/3d4723ac8d9ed818ec143e5dbefc9094aa3efd58.jpg",
    "icongray": "https://steamcdn-a.akamaihd.net/steamcommunity/public/images/apps/1083450/798a685c9d5e2bd473f72547183758bc490b220f.jpg"
  },
  {
    "name": "NEW_ACHIEVEMENT_3_9",
    "defaultvalue": 0,
    "displayName": "Level 74",
    "hidden": 0,
    "description": "Complete level 74",
    "icon": "https://steamcdn-a.akamaihd.net/steamcommunity/public/images/apps/1083450/a42ba1a0c3a19aa5e70e5d8cefdacfc7ef76d5b2.jpg",
    "icongray": "https://steamcdn-a.akamaihd.net/steamcommunity/public/images/apps/1083450/4783965ab9a47c486799171ca387e0a0a46c620f.jpg"
  },
  {
    "name": "NEW_ACHIEVEMENT_3_10",
    "defaultvalue": 0,
    "displayName": "Level 75",
    "hidden": 0,
    "description": "Complete level 75",
    "icon": "https://steamcdn-a.akamaihd.net/steamcommunity/public/images/apps/1083450/d0674157a9b647474a804fcee84eff23f074e7c8.jpg",
    "icongray": "https://steamcdn-a.akamaihd.net/steamcommunity/public/images/apps/1083450/47cdf2678c7085286bfa1dd1789c67c00cbb24c9.jpg"
  },
  {
    "name": "NEW_ACHIEVEMENT_3_11",
    "defaultvalue": 0,
    "displayName": "Level 76",
    "hidden": 0,
    "description": "Complete level 76",
    "icon": "https://steamcdn-a.akamaihd.net/steamcommunity/public/images/apps/1083450/5ab31ab53b7c9ccf42bc42228e3a5cfa07a2a9e5.jpg",
    "icongray": "https://steamcdn-a.akamaihd.net/steamcommunity/public/images/apps/1083450/15d7ac7fc938e9356f77351bdb2d877b6e5105ff.jpg"
  },
  {
    "name": "NEW_ACHIEVEMENT_3_12",
    "defaultvalue": 0,
    "displayName": "Level 77",
    "hidden": 0,
    "description": "Complete level 77",
    "icon": "https://steamcdn-a.akamaihd.net/steamcommunity/public/images/apps/1083450/36a782816e51a68958cf293264ffbecb288c3542.jpg",
    "icongray": "https://steamcdn-a.akamaihd.net/steamcommunity/public/images/apps/1083450/251662ee03a86f81e4164de4964735d6b2fb1465.jpg"
  },
  {
    "name": "NEW_ACHIEVEMENT_3_13",
    "defaultvalue": 0,
    "displayName": "Level 78",
    "hidden": 0,
    "description": "Complete level 78",
    "icon": "https://steamcdn-a.akamaihd.net/steamcommunity/public/images/apps/1083450/b9c144cecef02d981b88bf4c9862f01497877929.jpg",
    "icongray": "https://steamcdn-a.akamaihd.net/steamcommunity/public/images/apps/1083450/cd13fcd491c823613a7e3950e9720426a1592f44.jpg"
  },
  {
    "name": "NEW_ACHIEVEMENT_3_14",
    "defaultvalue": 0,
    "displayName": "Level 79",
    "hidden": 0,
    "description": "Complete level 79",
    "icon": "https://steamcdn-a.akamaihd.net/steamcommunity/public/images/apps/1083450/491b66ee14b6a65dbec702230c3bd88b03ce592c.jpg",
    "icongray": "https://steamcdn-a.akamaihd.net/steamcommunity/public/images/apps/1083450/c38d0ccb7a708192df807cc042b9ea389ea2ce7a.jpg"
  },
  {
    "name": "NEW_ACHIEVEMENT_3_15",
    "defaultvalue": 0,
    "displayName": "Level 80",
    "hidden": 0,
    "description": "Complete level 80",
    "icon": "https://steamcdn-a.akamaihd.net/steamcommunity/public/images/apps/1083450/252493c230f303e81df0cc4dcdd9f8cdac9080b3.jpg",
    "icongray": "https://steamcdn-a.akamaihd.net/steamcommunity/public/images/apps/1083450/95ccf20c8aee4025853cf448727c0c65dad11f2b.jpg"
  },
  {
    "name": "NEW_ACHIEVEMENT_3_16",
    "defaultvalue": 0,
    "displayName": "Level 81",
    "hidden": 0,
    "description": "Complete level 81",
    "icon": "https://steamcdn-a.akamaihd.net/steamcommunity/public/images/apps/1083450/10d2d1610d60267df02c1d587944ebc98c420fc8.jpg",
    "icongray": "https://steamcdn-a.akamaihd.net/steamcommunity/public/images/apps/1083450/be4fd09ae6feca2f1937b7609565a4fa2b7d64f1.jpg"
  },
  {
    "name": "NEW_ACHIEVEMENT_3_17",
    "defaultvalue": 0,
    "displayName": "Level 82",
    "hidden": 0,
    "description": "Complete level 82",
    "icon": "https://steamcdn-a.akamaihd.net/steamcommunity/public/images/apps/1083450/d43fdf076dd9d8ceea4b7ae22be5f071d46b60a6.jpg",
    "icongray": "https://steamcdn-a.akamaihd.net/steamcommunity/public/images/apps/1083450/cd2c73d3e2dbe8516c930e04b8dd910edcecdc83.jpg"
  },
  {
    "name": "NEW_ACHIEVEMENT_3_18",
    "defaultvalue": 0,
    "displayName": "Level 83",
    "hidden": 0,
    "description": "Complete level 83",
    "icon": "https://steamcdn-a.akamaihd.net/steamcommunity/public/images/apps/1083450/60244879467e93433bffe19fce0e0a49c4c726c3.jpg",
    "icongray": "https://steamcdn-a.akamaihd.net/steamcommunity/public/images/apps/1083450/729845eaa2b6d502a642d2ce8520bf864aed5767.jpg"
  },
  {
    "name": "NEW_ACHIEVEMENT_3_19",
    "defaultvalue": 0,
    "displayName": "Level 84",
    "hidden": 0,
    "description": "Complete level 84",
    "icon": "https://steamcdn-a.akamaihd.net/steamcommunity/public/images/apps/1083450/c83b4021709d22ee3265ce046651807665aa8621.jpg",
    "icongray": "https://steamcdn-a.akamaihd.net/steamcommunity/public/images/apps/1083450/bcf3251a6664b1c024ca63fa623e51d882d05e01.jpg"
  },
  {
    "name": "NEW_ACHIEVEMENT_3_20",
    "defaultvalue": 0,
    "displayName": "Level 85",
    "hidden": 0,
    "description": "Complete level 85",
    "icon": "https://steamcdn-a.akamaihd.net/steamcommunity/public/images/apps/1083450/e2eeedf1031cbefd882827222b81970277d6cc7c.jpg",
    "icongray": "https://steamcdn-a.akamaihd.net/steamcommunity/public/images/apps/1083450/06729e203430c1ebba50c689d04ce4d9f1287087.jpg"
  },
  {
    "name": "NEW_ACHIEVEMENT_3_21",
    "defaultvalue": 0,
    "displayName": "Level 86",
    "hidden": 0,
    "description": "Complete level 86",
    "icon": "https://steamcdn-a.akamaihd.net/steamcommunity/public/images/apps/1083450/60ac9b0be5b89166c0e022c9223336b258f3b081.jpg",
    "icongray": "https://steamcdn-a.akamaihd.net/steamcommunity/public/images/apps/1083450/59743a6980cc92d9729d76ae8c9d488b2577abba.jpg"
  },
  {
    "name": "NEW_ACHIEVEMENT_3_22",
    "defaultvalue": 0,
    "displayName": "Level 87",
    "hidden": 0,
    "description": "Complete level 87",
    "icon": "https://steamcdn-a.akamaihd.net/steamcommunity/public/images/apps/1083450/da4cd85238c7de1922901a99e8063178cbc4bbd3.jpg",
    "icongray": "https://steamcdn-a.akamaihd.net/steamcommunity/public/images/apps/1083450/1a328046b4d5dc98b7fe84898cfa06110a3575e7.jpg"
  },
  {
    "name": "NEW_ACHIEVEMENT_3_23",
    "defaultvalue": 0,
    "displayName": "Level 88",
    "hidden": 0,
    "description": "Complete level 88",
    "icon": "https://steamcdn-a.akamaihd.net/steamcommunity/public/images/apps/1083450/b5076c275da4f34ba23190f43514d173a3bfe0fe.jpg",
    "icongray": "https://steamcdn-a.akamaihd.net/steamcommunity/public/images/apps/1083450/690dc856d7693c555986a20e78c5c652b04cae22.jpg"
  },
  {
    "name": "NEW_ACHIEVEMENT_3_24",
    "defaultvalue": 0,
    "displayName": "Level 89",
    "hidden": 0,
    "description": "Complete level 89",
    "icon": "https://steamcdn-a.akamaihd.net/steamcommunity/public/images/apps/1083450/d4b41010bd8c6dd9150f31187f6de31319641a27.jpg",
    "icongray": "https://steamcdn-a.akamaihd.net/steamcommunity/public/images/apps/1083450/edd38bca215d1e4324bb4f53632a8eaf6a8b13d3.jpg"
  },
  {
    "name": "NEW_ACHIEVEMENT_3_25",
    "defaultvalue": 0,
    "displayName": "Level 90",
    "hidden": 0,
    "description": "Complete level 90",
    "icon": "https://steamcdn-a.akamaihd.net/steamcommunity/public/images/apps/1083450/abd8afad097f1600ee8ee3a0bdf4427000d09456.jpg",
    "icongray": "https://steamcdn-a.akamaihd.net/steamcommunity/public/images/apps/1083450/4ed1e2a078b105498f5bf757c46c38fbeebeb487.jpg"
  },
  {
    "name": "NEW_ACHIEVEMENT_3_26",
    "defaultvalue": 0,
    "displayName": "Level 91",
    "hidden": 0,
    "description": "Complete level 91",
    "icon": "https://steamcdn-a.akamaihd.net/steamcommunity/public/images/apps/1083450/b03c25d35499e29f9f4944978431ca8e9f743111.jpg",
    "icongray": "https://steamcdn-a.akamaihd.net/steamcommunity/public/images/apps/1083450/0d9d3d164cde0005e17d7a6394f8b9c163ee10f1.jpg"
  },
  {
    "name": "NEW_ACHIEVEMENT_3_27",
    "defaultvalue": 0,
    "displayName": "Level 92",
    "hidden": 0,
    "description": "Complete level 92",
    "icon": "https://steamcdn-a.akamaihd.net/steamcommunity/public/images/apps/1083450/624df37e8fdb3cedd26152894e556d568455c26b.jpg",
    "icongray": "https://steamcdn-a.akamaihd.net/steamcommunity/public/images/apps/1083450/4dce0024db014bab6fefd408648e9248d1002f7a.jpg"
  },
  {
    "name": "NEW_ACHIEVEMENT_3_28",
    "defaultvalue": 0,
    "displayName": "Level 93",
    "hidden": 0,
    "description": "Complete level 93",
    "icon": "https://steamcdn-a.akamaihd.net/steamcommunity/public/images/apps/1083450/c9df8773526fbdd7ac5bad3659227db54419fb2c.jpg",
    "icongray": "https://steamcdn-a.akamaihd.net/steamcommunity/public/images/apps/1083450/33165ab4b5f34b2d6e9234275e2e3ba2b08f84d3.jpg"
  },
  {
    "name": "NEW_ACHIEVEMENT_3_29",
    "defaultvalue": 0,
    "displayName": "Level 94",
    "hidden": 0,
    "description": "Complete level 94",
    "icon": "https://steamcdn-a.akamaihd.net/steamcommunity/public/images/apps/1083450/9372a09956d29d1f8a1af83be0999026ab55c2ec.jpg",
    "icongray": "https://steamcdn-a.akamaihd.net/steamcommunity/public/images/apps/1083450/455d9810895c4a9f54dadae246f6d7cf95c73503.jpg"
  },
  {
    "name": "NEW_ACHIEVEMENT_3_30",
    "defaultvalue": 0,
    "displayName": "Level 95",
    "hidden": 0,
    "description": "Complete level 95",
    "icon": "https://steamcdn-a.akamaihd.net/steamcommunity/public/images/apps/1083450/7676a6fdad503ac83d42523e88e890656fba92f8.jpg",
    "icongray": "https://steamcdn-a.akamaihd.net/steamcommunity/public/images/apps/1083450/9bca5d13ed8224040284074f5c2787867876a5a8.jpg"
  },
  {
    "name": "NEW_ACHIEVEMENT_3_31",
    "defaultvalue": 0,
    "displayName": "Level 96",
    "hidden": 0,
    "description": "Complete level 96",
    "icon": "https://steamcdn-a.akamaihd.net/steamcommunity/public/images/apps/1083450/6c75163290520bbeea6cabe0b8ca0578f8d999a0.jpg",
    "icongray": "https://steamcdn-a.akamaihd.net/steamcommunity/public/images/apps/1083450/b4d3048f45e8d720a86e741b87dd080e3c937f6e.jpg"
  },
  {
    "name": "NEW_ACHIEVEMENT_4_0",
    "defaultvalue": 0,
    "displayName": "Level 97",
    "hidden": 0,
    "description": "Complete level 97",
    "icon": "https://steamcdn-a.akamaihd.net/steamcommunity/public/images/apps/1083450/89e731b04fd93352b11a521dd1592bd76ecc0af2.jpg",
    "icongray": "https://steamcdn-a.akamaihd.net/steamcommunity/public/images/apps/1083450/f469a55824a1f3b2df473e41b92aceb1ef418282.jpg"
  },
  {
    "name": "NEW_ACHIEVEMENT_4_1",
    "defaultvalue": 0,
    "displayName": "Level 98",
    "hidden": 0,
    "description": "Complete level 98",
    "icon": "https://steamcdn-a.akamaihd.net/steamcommunity/public/images/apps/1083450/2e6a745910e927c1263ef35f85a79fe498bb0143.jpg",
    "icongray": "https://steamcdn-a.akamaihd.net/steamcommunity/public/images/apps/1083450/ceb2ee63d70994b8c035dd6fe87fba98755a634f.jpg"
  },
  {
    "name": "NEW_ACHIEVEMENT_4_2",
    "defaultvalue": 0,
    "displayName": "Level 99",
    "hidden": 0,
    "description": "Complete level 99",
    "icon": "https://steamcdn-a.akamaihd.net/steamcommunity/public/images/apps/1083450/b527624e1d8171294df4d45c1798b8b66a88a134.jpg",
    "icongray": "https://steamcdn-a.akamaihd.net/steamcommunity/public/images/apps/1083450/388b1146de24369b5794999abf62b7f5c0568c9b.jpg"
  },
  {
    "name": "NEW_ACHIEVEMENT_4_3",
    "defaultvalue": 0,
    "displayName": "Level 100",
    "hidden": 0,
    "description": "Complete level 100",
    "icon": "https://steamcdn-a.akamaihd.net/steamcommunity/public/images/apps/1083450/2a7481e00f35d68d414d546daa3a508406c477f3.jpg",
    "icongray": "https://steamcdn-a.akamaihd.net/steamcommunity/public/images/apps/1083450/a19ad9a2ec18d193079b2364184955045acc9de4.jpg"
  }
]