{
  "Dlcs": {},
  "Name": "Monstrous",
  "AppId": "748820",
  "ImageUrl": "https://steamcdn-a.akamaihd.net/steam/apps/748820/header.jpg?t=1542389002",
  "Languages": [
    "english",
    "turkish"
  ],
  "Platforms": {
    "windows": true,
    "mac": true,
    "linux": true
  }
}