{
  "Dlcs": {},
  "Name": "DEUS EX MACHINA",
  "AppId": "1119950",
  "ImageUrl": "https://steamcdn-a.akamaihd.net/steam/apps/1119950/header.jpg?t=1572338020",
  "Languages": [
    "english",
    "korean",
    "japanese",
    "schinese"
  ],
  "Platforms": {
    "windows": true,
    "mac": false,
    "linux": false
  }
}