{
  "Dlcs": {},
  "Name": "Slime Adventure Legacy",
  "AppId": "1138290",
  "ImageUrl": "https://steamcdn-a.akamaihd.net/steam/apps/1138290/header.jpg?t=1567188132",
  "Languages": [
    "english",
    "russian"
  ],
  "Platforms": {
    "windows": true,
    "mac": false,
    "linux": false
  }
}