{
  "Dlcs": {},
  "Name": "Galaxy in Peril: Time Trouble",
  "AppId": "1398510",
  "ImageUrl": "https://steamcdn-a.akamaihd.net/steam/apps/1398510/header.jpg?t=1599698692",
  "Languages": [
    "english"
  ],
  "Platforms": {
    "windows": true,
    "mac": false,
    "linux": false
  }
}