﻿[
  {
    "appid": "1007950",
    "itemdefid": "10000",
    "Timestamp": "2020-09-20T02:57:53Z",
    "modified": "20200920T025753Z",
    "date_created": "20200920T025753Z",
    "type": "item",
    "display_type": "",
    "name": "Gold",
    "quantity": 0,
    "description": "",
    "icon_url": "https://birchcorp.weebly.com/uploads/1/0/6/2/106235821/goldbarsmall_orig.png",
    "icon_url_large": "https://birchcorp.weebly.com/uploads/1/0/6/2/106235821/goldbarbig_orig.png",
    "exchange": "5000x10000",
    "tags": "category:tag",
    "tradable": true,
    "marketable": true,
    "commodity": false,
    "use_drop_limit": true,
    "drop_limit": 0,
    "drop_interval": 10080
  }
]