{
  "Dlcs": {},
  "Name": "BLOCK WARRIORS: \"Open World\" Game",
  "AppId": "704210",
  "ImageUrl": "https://steamcdn-a.akamaihd.net/steam/apps/704210/header.jpg?t=1575561318",
  "Languages": [
    "english",
    "russian"
  ],
  "Platforms": {
    "windows": true,
    "mac": false,
    "linux": false
  }
}