{
  "Dlcs": {
    "880480": {
      "Name": "Jetpack Dog - OST",
      "ImageUrl": "https://steamcdn-a.akamaihd.net/steam/apps/880480/header.jpg?t=1529565062"
    }
  },
  "Name": "Jetpack Dog",
  "AppId": "880370",
  "ImageUrl": "https://steamcdn-a.akamaihd.net/steam/apps/880370/header.jpg?t=1561709988",
  "Languages": [
    "english"
  ],
  "Platforms": {
    "windows": true,
    "mac": false,
    "linux": false
  }
}