{
  "Dlcs": {},
  "Name": "FSX SpacePort",
  "AppId": "776380",
  "ImageUrl": "https://steamcdn-a.akamaihd.net/steam/apps/776380/header.jpg?t=1575584402",
  "Languages": [
    "english"
  ],
  "Platforms": {
    "windows": true,
    "mac": false,
    "linux": false
  }
}