{
  "Dlcs": {},
  "Name": "Firezone",
  "AppId": "1157840",
  "ImageUrl": "https://steamcdn-a.akamaihd.net/steam/apps/1157840/header.jpg?t=1585579775",
  "Languages": [
    "english"
  ],
  "Platforms": {
    "windows": true,
    "mac": false,
    "linux": true
  }
}