{
  "Dlcs": {},
  "Name": "Draconic Order VR",
  "AppId": "508350",
  "ImageUrl": "https://steamcdn-a.akamaihd.net/steam/apps/508350/header.jpg?t=1583536466",
  "Languages": [
    "english"
  ],
  "Platforms": {
    "windows": true,
    "mac": false,
    "linux": false
  }
}