﻿[
  {
    "name": "gamesCompleted",
    "defaultvalue": 0,
    "displayName": "Total Games"
  },
  {
    "name": "lifetimeScore",
    "defaultvalue": 0,
    "displayName": "Lifetime Score"
  },
  {
    "name": "targetsEliminated",
    "defaultvalue": 0,
    "displayName": "Targets Eliminated"
  },
  {
    "name": "guidedMissileHits",
    "defaultvalue": 0,
    "displayName": "Guided Missile Hits"
  },
  {
    "name": "collisions",
    "defaultvalue": 0,
    "displayName": "Fatal Collisions"
  },
  {
    "name": "kamikazeHits",
    "defaultvalue": 0,
    "displayName": "Kamikaze Hits"
  },
  {
    "name": "wingmenSummoned",
    "defaultvalue": 0,
    "displayName": "Wingmen Summoned"
  },
  {
    "name": "extrasActivated",
    "defaultvalue": 0,
    "displayName": "Extras Activated"
  },
  {
    "name": "hitByWingman",
    "defaultvalue": 0,
    "displayName": ""
  },
  {
    "name": "wingmenLost",
    "defaultvalue": 0,
    "displayName": ""
  }
]