{
  "Dlcs": {},
  "Name": "Rocket Craze 3D",
  "AppId": "550930",
  "ImageUrl": "https://steamcdn-a.akamaihd.net/steam/apps/550930/header.jpg?t=1577961309",
  "Languages": [
    "english"
  ],
  "Platforms": {
    "windows": true,
    "mac": false,
    "linux": false
  }
}