{
  "Dlcs": {},
  "Name": "Neverdark",
  "AppId": "1036430",
  "ImageUrl": "https://steamcdn-a.akamaihd.net/steam/apps/1036430/header.jpg?t=1599163173",
  "Languages": [
    "english"
  ],
  "Platforms": {
    "windows": true,
    "mac": false,
    "linux": false
  }
}