[
  {
    "name": "STAIND_CLOCK_BOSS",
    "defaultvalue": 0,
    "displayName": "Stained Smasher",
    "hidden": 0,
    "description": "Smashed Clock boss without dying single time. You have become the real stained smasher.",
    "icon": "https://steamcdn-a.akamaihd.net/steamcommunity/public/images/apps/302870/3b406b6cc6f89fb608f53413be406b00432d0b9a.jpg",
    "icongray": "https://steamcdn-a.akamaihd.net/steamcommunity/public/images/apps/302870/b6c5eaf97698c8c17dfd259ad7cabfde98846c6f.jpg"
  },
  {
    "name": "STAIND_CLAW_BLADE",
    "defaultvalue": 0,
    "displayName": "Claw Blade",
    "hidden": 0,
    "description": "Cleaves enemies with minimum effort",
    "icon": "https://steamcdn-a.akamaihd.net/steamcommunity/public/images/apps/302870/eff2eacd3e3a55ed97c4def44bcb98614aab5cdf.jpg",
    "icongray": "https://steamcdn-a.akamaihd.net/steamcommunity/public/images/apps/302870/9c4b0f659439b41582cce824b87d5db0853d2827.jpg"
  },
  {
    "name": "STAIND_FRAGILE_HEART",
    "defaultvalue": 0,
    "displayName": "Fragile Heart",
    "hidden": 0,
    "description": "Regenerate health over time",
    "icon": "https://steamcdn-a.akamaihd.net/steamcommunity/public/images/apps/302870/90e7415fd91a7e0e3108771d126476369ff33e41.jpg",
    "icongray": "https://steamcdn-a.akamaihd.net/steamcommunity/public/images/apps/302870/937f3d3f48fd38e2e94654a1bea1766d6a8e8d21.jpg"
  },
  {
    "name": "STAIND_CATCHER_MAG",
    "defaultvalue": 0,
    "displayName": "The Catcher",
    "hidden": 0,
    "description": "Has a disarming disposition",
    "icon": "https://steamcdn-a.akamaihd.net/steamcommunity/public/images/apps/302870/7b4fbec43da4dd5884678263badcded7e0f92ea9.jpg",
    "icongray": "https://steamcdn-a.akamaihd.net/steamcommunity/public/images/apps/302870/6debb696775b806ca558ae6a6bbe408b13fbc14f.jpg"
  },
  {
    "name": "STAIND_PUSH_ENEMY",
    "defaultvalue": 0,
    "displayName": "Push",
    "hidden": 0,
    "description": "Push Enemies away by shattering near them",
    "icon": "https://steamcdn-a.akamaihd.net/steamcommunity/public/images/apps/302870/d92b36dc70908b00294708cb0e8f64b4d421bcc9.jpg",
    "icongray": "https://steamcdn-a.akamaihd.net/steamcommunity/public/images/apps/302870/1c4a362876ebd11b1adb6233b692ce04e898faaf.jpg"
  },
  {
    "name": "STAIND_WEIGHT_PULL",
    "defaultvalue": 0,
    "displayName": "Weight",
    "hidden": 0,
    "description": "A weight less to activate pully",
    "icon": "https://steamcdn-a.akamaihd.net/steamcommunity/public/images/apps/302870/dc7accfea6b8c73c2780cb425546935e965878f2.jpg",
    "icongray": "https://steamcdn-a.akamaihd.net/steamcommunity/public/images/apps/302870/7f64bbc7c91577197c42967d67fa9687e59ead20.jpg"
  },
  {
    "name": "STAIND_BAT_KEY",
    "defaultvalue": 0,
    "displayName": "BAT KEY",
    "hidden": 0,
    "description": "Key for the giant bat door",
    "icon": "https://steamcdn-a.akamaihd.net/steamcommunity/public/images/apps/302870/d37d59cdd165686756dd08e62ab5326371df724a.jpg",
    "icongray": "https://steamcdn-a.akamaihd.net/steamcommunity/public/images/apps/302870/114b0e34bc9142242d3da66dbc657e218184a346.jpg"
  },
  {
    "name": "STAIND_TUNA_BLADE",
    "defaultvalue": 0,
    "displayName": "Tunning Blade",
    "hidden": 0,
    "description": "Smash glass creature with sound waves",
    "icon": "https://steamcdn-a.akamaihd.net/steamcommunity/public/images/apps/302870/66ffa7669df5be0b02783b4111f015d41bf46d4b.jpg",
    "icongray": "https://steamcdn-a.akamaihd.net/steamcommunity/public/images/apps/302870/3df2eface32262722f546602f8818937cb607751.jpg"
  },
  {
    "name": "STAIND_THRONE_ROOM",
    "defaultvalue": 0,
    "displayName": "Throne",
    "hidden": 0,
    "description": "You are the true heir of this stained kingdom",
    "icon": "https://steamcdn-a.akamaihd.net/steamcommunity/public/images/apps/302870/b173dfccef53ae365c76be9c3b04504328e2f7ef.jpg",
    "icongray": "https://steamcdn-a.akamaihd.net/steamcommunity/public/images/apps/302870/70bcc1ce0c9101bf9fb5ae6fa83f342e51e24b62.jpg"
  }
]