[
  {
    "name": "1",
    "defaultvalue": 0,
    "displayName": "COMPLETE MIKA",
    "hidden": 0,
    "description": "100 % MIKA",
    "icon": "https://steamcdn-a.akamaihd.net/steamcommunity/public/images/apps/1266140/e060978ba6bc76ea54f3ca84eada8c0c0397666c.jpg",
    "icongray": "https://steamcdn-a.akamaihd.net/steamcommunity/public/images/apps/1266140/a165bdbe1082679edb9ca00820f9f991db8369b1.jpg"
  },
  {
    "name": "2",
    "defaultvalue": 0,
    "displayName": "COMPLETE AKARI",
    "hidden": 0,
    "description": "100% AKARI",
    "icon": "https://steamcdn-a.akamaihd.net/steamcommunity/public/images/apps/1266140/2b5a71ec705acb5405fb0791a76102956eaba4c4.jpg",
    "icongray": "https://steamcdn-a.akamaihd.net/steamcommunity/public/images/apps/1266140/08e505e1d3c65b6956bb54c1458758f314d7960b.jpg"
  },
  {
    "name": "3",
    "defaultvalue": 0,
    "displayName": "COMPLETE YUI",
    "hidden": 0,
    "description": "100% YUI",
    "icon": "https://steamcdn-a.akamaihd.net/steamcommunity/public/images/apps/1266140/e4d1b24e89f0c1fd92e5e70565fec8388884e245.jpg",
    "icongray": "https://steamcdn-a.akamaihd.net/steamcommunity/public/images/apps/1266140/a165bdbe1082679edb9ca00820f9f991db8369b1.jpg"
  },
  {
    "name": "4",
    "defaultvalue": 0,
    "displayName": "COMPLETE HINA",
    "hidden": 0,
    "description": "100% HINA",
    "icon": "https://steamcdn-a.akamaihd.net/steamcommunity/public/images/apps/1266140/833246cefcba990a3ff745b346323892e92490e4.jpg",
    "icongray": "https://steamcdn-a.akamaihd.net/steamcommunity/public/images/apps/1266140/a165bdbe1082679edb9ca00820f9f991db8369b1.jpg"
  },
  {
    "name": "5",
    "defaultvalue": 0,
    "displayName": "COMPLETE SARA",
    "hidden": 0,
    "description": "100% SARA",
    "icon": "https://steamcdn-a.akamaihd.net/steamcommunity/public/images/apps/1266140/5dab4dc03c5c2f9692ba6affc260fc0732460c7f.jpg",
    "icongray": "https://steamcdn-a.akamaihd.net/steamcommunity/public/images/apps/1266140/a165bdbe1082679edb9ca00820f9f991db8369b1.jpg"
  },
  {
    "name": "6",
    "defaultvalue": 0,
    "displayName": "COMPLETE NIKO",
    "hidden": 0,
    "description": "100% NIKO",
    "icon": "https://steamcdn-a.akamaihd.net/steamcommunity/public/images/apps/1266140/dc1a00675cf4308721a2be11cda68487c180ff37.jpg",
    "icongray": "https://steamcdn-a.akamaihd.net/steamcommunity/public/images/apps/1266140/a165bdbe1082679edb9ca00820f9f991db8369b1.jpg"
  },
  {
    "name": "7",
    "defaultvalue": 0,
    "displayName": "COMPLETE SAKURA",
    "hidden": 0,
    "description": "100% SAKURA",
    "icon": "https://steamcdn-a.akamaihd.net/steamcommunity/public/images/apps/1266140/c2973023d25394dd59be0d66f742c56c77d27594.jpg",
    "icongray": "https://steamcdn-a.akamaihd.net/steamcommunity/public/images/apps/1266140/a165bdbe1082679edb9ca00820f9f991db8369b1.jpg"
  },
  {
    "name": "8",
    "defaultvalue": 0,
    "displayName": "COMPLETE AOI",
    "hidden": 0,
    "description": "100% AOI",
    "icon": "https://steamcdn-a.akamaihd.net/steamcommunity/public/images/apps/1266140/70d07f4a170f56908462bf1ab6a6e0652dbcb2d1.jpg",
    "icongray": "https://steamcdn-a.akamaihd.net/steamcommunity/public/images/apps/1266140/a165bdbe1082679edb9ca00820f9f991db8369b1.jpg"
  },
  {
    "name": "9",
    "defaultvalue": 0,
    "displayName": "COMPLETE MADOKA",
    "hidden": 0,
    "description": "100% MADOKA",
    "icon": "https://steamcdn-a.akamaihd.net/steamcommunity/public/images/apps/1266140/e1a88ea11847d449867c51ec3fff9b9672fdab2f.jpg",
    "icongray": "https://steamcdn-a.akamaihd.net/steamcommunity/public/images/apps/1266140/a165bdbe1082679edb9ca00820f9f991db8369b1.jpg"
  },
  {
    "name": "10",
    "defaultvalue": 0,
    "displayName": "COMPLETE KAORI",
    "hidden": 0,
    "description": "100% KAORI",
    "icon": "https://steamcdn-a.akamaihd.net/steamcommunity/public/images/apps/1266140/365470dbbc3eaa5c859e969dda4ad7d7b04fdfc8.jpg",
    "icongray": "https://steamcdn-a.akamaihd.net/steamcommunity/public/images/apps/1266140/08e505e1d3c65b6956bb54c1458758f314d7960b.jpg"
  }
]