{
  "Dlcs": {},
  "Name": "Vikings Wars",
  "AppId": "1216930",
  "ImageUrl": "https://steamcdn-a.akamaihd.net/steam/apps/1216930/header.jpg?t=1580442595",
  "Languages": [
    "english",
    "russian"
  ],
  "Platforms": {
    "windows": true,
    "mac": false,
    "linux": false
  }
}