{
  "Dlcs": {},
  "Name": "UNSUBSCRIBED: THE GAME",
  "AppId": "1072950",
  "ImageUrl": "https://steamcdn-a.akamaihd.net/steam/apps/1072950/header.jpg?t=1557258022",
  "Languages": [
    "english"
  ],
  "Platforms": {
    "windows": true,
    "mac": false,
    "linux": false
  }
}