[
  {
    "name": "ACHIEVEMENT_TRAINING_3",
    "defaultvalue": 0,
    "displayName": "Training Complete",
    "hidden": 0,
    "description": "Win 3 training matches",
    "icon": "https://steamcdn-a.akamaihd.net/steamcommunity/public/images/apps/796290/98444197c277ff1f3c8f16023cdbfcb48cbf22c1.jpg",
    "icongray": "https://steamcdn-a.akamaihd.net/steamcommunity/public/images/apps/796290/a4e523b1dcafbb9890bfb7c9fb21fb2a3276f230.jpg"
  },
  {
    "name": "ACHIEVEMENT_LEAGUE_10",
    "defaultvalue": 0,
    "displayName": "10 League Matches",
    "hidden": 0,
    "description": "Win 10 league matches",
    "icon": "https://steamcdn-a.akamaihd.net/steamcommunity/public/images/apps/796290/d95cf5711bc2dc57eedfdf48968aa7fc3bdd0d5d.jpg",
    "icongray": "https://steamcdn-a.akamaihd.net/steamcommunity/public/images/apps/796290/a4e523b1dcafbb9890bfb7c9fb21fb2a3276f230.jpg"
  },
  {
    "name": "ACHIEVEMENT_MIRROR_5",
    "defaultvalue": 0,
    "displayName": "Amanda’s Training Sessions",
    "hidden": 0,
    "description": "Win 5 mirror training matches",
    "icon": "https://steamcdn-a.akamaihd.net/steamcommunity/public/images/apps/796290/d95cf5711bc2dc57eedfdf48968aa7fc3bdd0d5d.jpg",
    "icongray": "https://steamcdn-a.akamaihd.net/steamcommunity/public/images/apps/796290/a4e523b1dcafbb9890bfb7c9fb21fb2a3276f230.jpg"
  },
  {
    "name": "ACHIEVEMENT_ALL_CHALLENGES",
    "defaultvalue": 0,
    "displayName": "Challenge Accepted",
    "hidden": 0,
    "description": "Complete all challenges",
    "icon": "https://steamcdn-a.akamaihd.net/steamcommunity/public/images/apps/796290/9f37e43afab05da8ffe3792c43ab1a920ad2e53d.jpg",
    "icongray": "https://steamcdn-a.akamaihd.net/steamcommunity/public/images/apps/796290/0f37d75e8b0ed14c72f1710d77fcd9591357560a.jpg"
  },
  {
    "name": "ACHIEVEMENT_CAMERAS",
    "defaultvalue": 0,
    "displayName": "Pro Cameraman",
    "hidden": 0,
    "description": "Go through all in-game cameras",
    "icon": "https://steamcdn-a.akamaihd.net/steamcommunity/public/images/apps/796290/98444197c277ff1f3c8f16023cdbfcb48cbf22c1.jpg",
    "icongray": "https://steamcdn-a.akamaihd.net/steamcommunity/public/images/apps/796290/a4e523b1dcafbb9890bfb7c9fb21fb2a3276f230.jpg"
  },
  {
    "name": "ACHIEVEMENT_LOB_1",
    "defaultvalue": 0,
    "displayName": "Lob",
    "hidden": 0,
    "description": "Score a point with a lob shot in a competitive match",
    "icon": "https://steamcdn-a.akamaihd.net/steamcommunity/public/images/apps/796290/d95cf5711bc2dc57eedfdf48968aa7fc3bdd0d5d.jpg",
    "icongray": "https://steamcdn-a.akamaihd.net/steamcommunity/public/images/apps/796290/a4e523b1dcafbb9890bfb7c9fb21fb2a3276f230.jpg"
  },
  {
    "name": "ACHIEVEMENT_POWER_SHOT_1",
    "defaultvalue": 0,
    "displayName": "Power Shot",
    "hidden": 0,
    "description": "Score a point with a power shot in a competitive match",
    "icon": "https://steamcdn-a.akamaihd.net/steamcommunity/public/images/apps/796290/d95cf5711bc2dc57eedfdf48968aa7fc3bdd0d5d.jpg",
    "icongray": "https://steamcdn-a.akamaihd.net/steamcommunity/public/images/apps/796290/a4e523b1dcafbb9890bfb7c9fb21fb2a3276f230.jpg"
  },
  {
    "name": "ACHIEVEMENT_SMASH_1",
    "defaultvalue": 0,
    "displayName": "Smash",
    "hidden": 0,
    "description": "Score a point with a smash in a competitive match",
    "icon": "https://steamcdn-a.akamaihd.net/steamcommunity/public/images/apps/796290/d95cf5711bc2dc57eedfdf48968aa7fc3bdd0d5d.jpg",
    "icongray": "https://steamcdn-a.akamaihd.net/steamcommunity/public/images/apps/796290/a4e523b1dcafbb9890bfb7c9fb21fb2a3276f230.jpg"
  },
  {
    "name": "ACHIEVEMENT_NO_ERRORS",
    "defaultvalue": 0,
    "displayName": "No Errors",
    "hidden": 0,
    "description": "Make no unforced errors in a competitive match",
    "icon": "https://steamcdn-a.akamaihd.net/steamcommunity/public/images/apps/796290/9f37e43afab05da8ffe3792c43ab1a920ad2e53d.jpg",
    "icongray": "https://steamcdn-a.akamaihd.net/steamcommunity/public/images/apps/796290/0f37d75e8b0ed14c72f1710d77fcd9591357560a.jpg"
  },
  {
    "name": "ACHIEVEMENT_SCORE_7_0",
    "defaultvalue": 0,
    "displayName": "Flawless Victory",
    "hidden": 0,
    "description": "Win 7:0 in a competitive tie-break match",
    "icon": "https://steamcdn-a.akamaihd.net/steamcommunity/public/images/apps/796290/f15218b33474a832a746c30390d91f0a9b1bccea.jpg",
    "icongray": "https://steamcdn-a.akamaihd.net/steamcommunity/public/images/apps/796290/9281bdca2d67f32a18a1ef886f42111f3157674c.jpg"
  },
  {
    "name": "ACHIEVEMENT_LEAGUE_5_ROW",
    "defaultvalue": 0,
    "displayName": "Five Wins in a Row",
    "hidden": 0,
    "description": "Win 5 league matches in a row",
    "icon": "https://steamcdn-a.akamaihd.net/steamcommunity/public/images/apps/796290/d95cf5711bc2dc57eedfdf48968aa7fc3bdd0d5d.jpg",
    "icongray": "https://steamcdn-a.akamaihd.net/steamcommunity/public/images/apps/796290/a4e523b1dcafbb9890bfb7c9fb21fb2a3276f230.jpg"
  },
  {
    "name": "ACHIEVEMENT_LEAGUES_1",
    "defaultvalue": 0,
    "displayName": "League Winner",
    "hidden": 0,
    "description": "Win a league",
    "icon": "https://steamcdn-a.akamaihd.net/steamcommunity/public/images/apps/796290/9f37e43afab05da8ffe3792c43ab1a920ad2e53d.jpg",
    "icongray": "https://steamcdn-a.akamaihd.net/steamcommunity/public/images/apps/796290/0f37d75e8b0ed14c72f1710d77fcd9591357560a.jpg"
  },
  {
    "name": "ACHIEVEMENT_LEVEL_10",
    "defaultvalue": 0,
    "displayName": "Level Ten",
    "hidden": 0,
    "description": "Reach player level 10",
    "icon": "https://steamcdn-a.akamaihd.net/steamcommunity/public/images/apps/796290/9f37e43afab05da8ffe3792c43ab1a920ad2e53d.jpg",
    "icongray": "https://steamcdn-a.akamaihd.net/steamcommunity/public/images/apps/796290/0f37d75e8b0ed14c72f1710d77fcd9591357560a.jpg"
  },
  {
    "name": "ACHIEVEMENT_SLICE_1",
    "defaultvalue": 0,
    "displayName": "Slice",
    "hidden": 0,
    "description": "Score a point with a slice shot in a competitive match",
    "icon": "https://steamcdn-a.akamaihd.net/steamcommunity/public/images/apps/796290/d95cf5711bc2dc57eedfdf48968aa7fc3bdd0d5d.jpg",
    "icongray": "https://steamcdn-a.akamaihd.net/steamcommunity/public/images/apps/796290/a4e523b1dcafbb9890bfb7c9fb21fb2a3276f230.jpg"
  },
  {
    "name": "ACHIEVEMENT_ACE_1",
    "defaultvalue": 0,
    "displayName": "Ace!",
    "hidden": 0,
    "description": "Score an ace in a competitive match",
    "icon": "https://steamcdn-a.akamaihd.net/steamcommunity/public/images/apps/796290/d95cf5711bc2dc57eedfdf48968aa7fc3bdd0d5d.jpg",
    "icongray": "https://steamcdn-a.akamaihd.net/steamcommunity/public/images/apps/796290/a4e523b1dcafbb9890bfb7c9fb21fb2a3276f230.jpg"
  },
  {
    "name": "ACHIEVEMENT_PERFECT_SWIPE",
    "defaultvalue": 0,
    "displayName": "Perfect Swipes",
    "hidden": 0,
    "description": "Win a competitive match with perfect swipes only",
    "icon": "https://steamcdn-a.akamaihd.net/steamcommunity/public/images/apps/796290/9f37e43afab05da8ffe3792c43ab1a920ad2e53d.jpg",
    "icongray": "https://steamcdn-a.akamaihd.net/steamcommunity/public/images/apps/796290/0f37d75e8b0ed14c72f1710d77fcd9591357560a.jpg"
  },
  {
    "name": "ACHIEVEMENT_NET_POINTS_3",
    "defaultvalue": 0,
    "displayName": "Net play specialist",
    "hidden": 0,
    "description": "Score 3 net points in a competitive tie-break match",
    "icon": "https://steamcdn-a.akamaihd.net/steamcommunity/public/images/apps/796290/d95cf5711bc2dc57eedfdf48968aa7fc3bdd0d5d.jpg",
    "icongray": "https://steamcdn-a.akamaihd.net/steamcommunity/public/images/apps/796290/a4e523b1dcafbb9890bfb7c9fb21fb2a3276f230.jpg"
  },
  {
    "name": "ACHIEVEMENT_AI",
    "defaultvalue": 0,
    "displayName": "Artificial Intelligence",
    "hidden": 0,
    "description": "Win a match in AI agent mode",
    "icon": "https://steamcdn-a.akamaihd.net/steamcommunity/public/images/apps/796290/d95cf5711bc2dc57eedfdf48968aa7fc3bdd0d5d.jpg",
    "icongray": "https://steamcdn-a.akamaihd.net/steamcommunity/public/images/apps/796290/a4e523b1dcafbb9890bfb7c9fb21fb2a3276f230.jpg"
  },
  {
    "name": "ACHIEVEMENT_WINNERS_5",
    "defaultvalue": 0,
    "displayName": "5 Winners",
    "hidden": 0,
    "description": "Score 5 winners in a competitive tie-break match",
    "icon": "https://steamcdn-a.akamaihd.net/steamcommunity/public/images/apps/796290/9f37e43afab05da8ffe3792c43ab1a920ad2e53d.jpg",
    "icongray": "https://steamcdn-a.akamaihd.net/steamcommunity/public/images/apps/796290/0f37d75e8b0ed14c72f1710d77fcd9591357560a.jpg"
  },
  {
    "name": "ACHIEVEMENT_HIGHLIGHTS_3",
    "defaultvalue": 0,
    "displayName": "Highlights",
    "hidden": 0,
    "description": "Watch 3 highlights",
    "icon": "https://steamcdn-a.akamaihd.net/steamcommunity/public/images/apps/796290/d95cf5711bc2dc57eedfdf48968aa7fc3bdd0d5d.jpg",
    "icongray": "https://steamcdn-a.akamaihd.net/steamcommunity/public/images/apps/796290/a4e523b1dcafbb9890bfb7c9fb21fb2a3276f230.jpg"
  },
  {
    "name": "ACHIEVEMENT_FRIENDLY_5",
    "defaultvalue": 0,
    "displayName": "Friendly Matches",
    "hidden": 0,
    "description": "Win 5 friendly matches",
    "icon": "https://steamcdn-a.akamaihd.net/steamcommunity/public/images/apps/796290/d95cf5711bc2dc57eedfdf48968aa7fc3bdd0d5d.jpg",
    "icongray": "https://steamcdn-a.akamaihd.net/steamcommunity/public/images/apps/796290/a4e523b1dcafbb9890bfb7c9fb21fb2a3276f230.jpg"
  },
  {
    "name": "ACHIEVEMENT_TOURNAMENT_1_EASY",
    "defaultvalue": 0,
    "displayName": "Easy Daily Tournament",
    "hidden": 0,
    "description": "Win an easy daily tournament",
    "icon": "https://steamcdn-a.akamaihd.net/steamcommunity/public/images/apps/796290/d95cf5711bc2dc57eedfdf48968aa7fc3bdd0d5d.jpg",
    "icongray": "https://steamcdn-a.akamaihd.net/steamcommunity/public/images/apps/796290/a4e523b1dcafbb9890bfb7c9fb21fb2a3276f230.jpg"
  },
  {
    "name": "ACHIEVEMENT_TOURNAMENT_1_NORMAL",
    "defaultvalue": 0,
    "displayName": "Normal Daily Tournament",
    "hidden": 0,
    "description": "Win a normal daily tournament",
    "icon": "https://steamcdn-a.akamaihd.net/steamcommunity/public/images/apps/796290/9f37e43afab05da8ffe3792c43ab1a920ad2e53d.jpg",
    "icongray": "https://steamcdn-a.akamaihd.net/steamcommunity/public/images/apps/796290/0f37d75e8b0ed14c72f1710d77fcd9591357560a.jpg"
  },
  {
    "name": "ACHIEVEMENT_TOURNAMENT_1_HARD",
    "defaultvalue": 0,
    "displayName": "Hard Daily Tournament",
    "hidden": 0,
    "description": "Win a hard daily tournament",
    "icon": "https://steamcdn-a.akamaihd.net/steamcommunity/public/images/apps/796290/f15218b33474a832a746c30390d91f0a9b1bccea.jpg",
    "icongray": "https://steamcdn-a.akamaihd.net/steamcommunity/public/images/apps/796290/9281bdca2d67f32a18a1ef886f42111f3157674c.jpg"
  },
  {
    "name": "ACHIEVEMENT_QUICK_10",
    "defaultvalue": 0,
    "displayName": "Quick Matches",
    "hidden": 0,
    "description": "Win 10 quick matches",
    "icon": "https://steamcdn-a.akamaihd.net/steamcommunity/public/images/apps/796290/9f37e43afab05da8ffe3792c43ab1a920ad2e53d.jpg",
    "icongray": "https://steamcdn-a.akamaihd.net/steamcommunity/public/images/apps/796290/0f37d75e8b0ed14c72f1710d77fcd9591357560a.jpg"
  },
  {
    "name": "ACHIEVEMENT_MATCHES_100",
    "defaultvalue": 0,
    "displayName": "100 Matches",
    "hidden": 0,
    "description": "Complete 100 matches",
    "icon": "https://steamcdn-a.akamaihd.net/steamcommunity/public/images/apps/796290/d95cf5711bc2dc57eedfdf48968aa7fc3bdd0d5d.jpg",
    "icongray": "https://steamcdn-a.akamaihd.net/steamcommunity/public/images/apps/796290/a4e523b1dcafbb9890bfb7c9fb21fb2a3276f230.jpg"
  },
  {
    "name": "ACHIEVEMENT_LEVEL_20",
    "defaultvalue": 0,
    "displayName": "Level 20",
    "hidden": 0,
    "description": "Reach player level 20",
    "icon": "https://steamcdn-a.akamaihd.net/steamcommunity/public/images/apps/796290/f15218b33474a832a746c30390d91f0a9b1bccea.jpg",
    "icongray": "https://steamcdn-a.akamaihd.net/steamcommunity/public/images/apps/796290/9281bdca2d67f32a18a1ef886f42111f3157674c.jpg"
  },
  {
    "name": "ACHIEVEMENT_ELO_1000",
    "defaultvalue": 0,
    "displayName": "Rating 1000",
    "hidden": 0,
    "description": "Reach rating 1000",
    "icon": "https://steamcdn-a.akamaihd.net/steamcommunity/public/images/apps/796290/9f37e43afab05da8ffe3792c43ab1a920ad2e53d.jpg",
    "icongray": "https://steamcdn-a.akamaihd.net/steamcommunity/public/images/apps/796290/726ad79041c213cf9ab6be458304a8679257d4c4.jpg"
  },
  {
    "name": "ACHIEVEMENT_PRO_1",
    "defaultvalue": 0,
    "displayName": "Pro I",
    "hidden": 0,
    "description": "Reach Pro I league",
    "icon": "https://steamcdn-a.akamaihd.net/steamcommunity/public/images/apps/796290/9f37e43afab05da8ffe3792c43ab1a920ad2e53d.jpg",
    "icongray": "https://steamcdn-a.akamaihd.net/steamcommunity/public/images/apps/796290/0f37d75e8b0ed14c72f1710d77fcd9591357560a.jpg"
  },
  {
    "name": "ACHIEVEMENT_ELITE_1",
    "defaultvalue": 0,
    "displayName": "Elite I",
    "hidden": 0,
    "description": "Reach Elite I league",
    "icon": "https://steamcdn-a.akamaihd.net/steamcommunity/public/images/apps/796290/f15218b33474a832a746c30390d91f0a9b1bccea.jpg",
    "icongray": "https://steamcdn-a.akamaihd.net/steamcommunity/public/images/apps/796290/9281bdca2d67f32a18a1ef886f42111f3157674c.jpg"
  },
  {
    "name": "ACHIEVEMENT_ELO_1300",
    "defaultvalue": 0,
    "displayName": "Rating 1300",
    "hidden": 0,
    "description": "Reach rating 1300",
    "icon": "https://steamcdn-a.akamaihd.net/steamcommunity/public/images/apps/796290/f15218b33474a832a746c30390d91f0a9b1bccea.jpg",
    "icongray": "https://steamcdn-a.akamaihd.net/steamcommunity/public/images/apps/796290/9281bdca2d67f32a18a1ef886f42111f3157674c.jpg"
  },
  {
    "name": "ACHIEVEMENT_MATCHES_500",
    "defaultvalue": 0,
    "displayName": "500 Matches",
    "hidden": 0,
    "description": "Complete 500 matches",
    "icon": "https://steamcdn-a.akamaihd.net/steamcommunity/public/images/apps/796290/9f37e43afab05da8ffe3792c43ab1a920ad2e53d.jpg",
    "icongray": "https://steamcdn-a.akamaihd.net/steamcommunity/public/images/apps/796290/0f37d75e8b0ed14c72f1710d77fcd9591357560a.jpg"
  },
  {
    "name": "ACHIEVEMENT_LEAGUES_10_TOP_3",
    "defaultvalue": 0,
    "displayName": "10 League Trophies",
    "hidden": 0,
    "description": "Finish 10 leagues in the top 3",
    "icon": "https://steamcdn-a.akamaihd.net/steamcommunity/public/images/apps/796290/9f37e43afab05da8ffe3792c43ab1a920ad2e53d.jpg",
    "icongray": "https://steamcdn-a.akamaihd.net/steamcommunity/public/images/apps/796290/0f37d75e8b0ed14c72f1710d77fcd9591357560a.jpg"
  },
  {
    "name": "ACHIEVEMENT_LEAGUES_10",
    "defaultvalue": 0,
    "displayName": "10 Gold League Cups",
    "hidden": 0,
    "description": "Win 10 gold league cups",
    "icon": "https://steamcdn-a.akamaihd.net/steamcommunity/public/images/apps/796290/ecc26611331c928b30354e5528958a443fcc5331.jpg",
    "icongray": "https://steamcdn-a.akamaihd.net/steamcommunity/public/images/apps/796290/9281bdca2d67f32a18a1ef886f42111f3157674c.jpg"
  },
  {
    "name": "ACHIEVEMENT_TOURNAMENTS_10",
    "defaultvalue": 0,
    "displayName": "10 Gold Tournament Cups",
    "hidden": 0,
    "description": "Win 10 gold tournament cups",
    "icon": "https://steamcdn-a.akamaihd.net/steamcommunity/public/images/apps/796290/f15218b33474a832a746c30390d91f0a9b1bccea.jpg",
    "icongray": "https://steamcdn-a.akamaihd.net/steamcommunity/public/images/apps/796290/9281bdca2d67f32a18a1ef886f42111f3157674c.jpg"
  },
  {
    "name": "ACHIEVEMENT_MATCHES_1000",
    "defaultvalue": 0,
    "displayName": "1000 Matches",
    "hidden": 0,
    "description": "Complete 1000 matches",
    "icon": "https://steamcdn-a.akamaihd.net/steamcommunity/public/images/apps/796290/f15218b33474a832a746c30390d91f0a9b1bccea.jpg",
    "icongray": "https://steamcdn-a.akamaihd.net/steamcommunity/public/images/apps/796290/9281bdca2d67f32a18a1ef886f42111f3157674c.jpg"
  }
]