{
  "Dlcs": {},
  "Name": "A letter to you!",
  "AppId": "1275450",
  "ImageUrl": "https://steamcdn-a.akamaihd.net/steam/apps/1275450/header.jpg?t=1592866993",
  "Languages": [
    "english"
  ],
  "Platforms": {
    "windows": true,
    "mac": false,
    "linux": false
  }
}