{
  "Dlcs": {},
  "Name": "Witchball",
  "AppId": "768580",
  "ImageUrl": "https://steamcdn-a.akamaihd.net/steam/apps/768580/header.jpg?t=1557953401",
  "Languages": [
    "english"
  ],
  "Platforms": {
    "windows": true,
    "mac": false,
    "linux": false
  }
}