[
  {
    "name": "2SUITS",
    "defaultvalue": 0,
    "displayName": "2 Suits Solved",
    "hidden": 0,
    "description": "",
    "icon": "https://steamcdn-a.akamaihd.net/steamcommunity/public/images/apps/722810/895b2fc1735fd175b79d6109c2473d7992b799d8.jpg",
    "icongray": "https://steamcdn-a.akamaihd.net/steamcommunity/public/images/apps/722810/10254c534bc514b696d9fc631d1f317ff1e815e8.jpg"
  },
  {
    "name": "4SUITS",
    "defaultvalue": 0,
    "displayName": "4 Suits Solitaire Solved",
    "hidden": 0,
    "description": "Amazing achievement, was it hard?",
    "icon": "https://steamcdn-a.akamaihd.net/steamcommunity/public/images/apps/722810/c311e80eb489be29f526a752e1a1858c2a46f2ce.jpg",
    "icongray": "https://steamcdn-a.akamaihd.net/steamcommunity/public/images/apps/722810/cc2427c5dd420596e316c54875eba70fdd5d626c.jpg"
  },
  {
    "name": "GAME_WIN",
    "defaultvalue": 0,
    "displayName": "Master of Spider Solitaire",
    "hidden": 0,
    "description": "",
    "icon": "https://steamcdn-a.akamaihd.net/steamcommunity/public/images/apps/722810/2dafcefe29298be1e4518ca401be370439681754.jpg",
    "icongray": "https://steamcdn-a.akamaihd.net/steamcommunity/public/images/apps/722810/6a217127041f7a88013b44280a04bd120af676e6.jpg"
  }
]