{
  "Dlcs": {
    "64005": {
      "Name": "Men of War: Assault Squad - MP Supply Pack Alpha",
      "ImageUrl": "https://steamcdn-a.akamaihd.net/steam/apps/64005/header.jpg?t=1539764487"
    },
    "64013": {
      "Name": "Men of War: Assault Squad - Skirmish Pack",
      "ImageUrl": "https://steamcdn-a.akamaihd.net/steam/apps/64013/header.jpg?t=1539764663"
    },
    "64014": {
      "Name": "Men of War: Assault Squad - MP Supply Pack Bravo",
      "ImageUrl": "https://steamcdn-a.akamaihd.net/steam/apps/64014/header.jpg?t=1539179332"
    },
    "64016": {
      "Name": "Men of War: Assault Squad - MP Supply Pack Charlie",
      "ImageUrl": "https://steamcdn-a.akamaihd.net/steam/apps/64016/header.jpg?t=1539764599"
    },
    "64017": {
      "Name": "Men of War: Assault Squad - Skirmish Pack 2",
      "ImageUrl": "https://steamcdn-a.akamaihd.net/steam/apps/64017/header.jpg?t=1539178775"
    }
  },
  "Name": "Men of War: Assault Squad",
  "AppId": "64000",
  "ImageUrl": "https://steamcdn-a.akamaihd.net/steam/apps/64000/header.jpg?t=1600162499",
  "Languages": [
    "english",
    "russian",
    "italian",
    "spanish",
    "french",
    "german",
    "polish"
  ],
  "Platforms": {
    "windows": true,
    "mac": false,
    "linux": false
  }
}