{
  "Dlcs": {
    "1208280": {
      "Name": "Talshard - Soundtrack",
      "ImageUrl": "https://steamcdn-a.akamaihd.net/steam/apps/1208280/header.jpg?t=1581379794"
    }
  },
  "Name": "Talshard",
  "AppId": "1204670",
  "ImageUrl": "https://steamcdn-a.akamaihd.net/steam/apps/1204670/header.jpg?t=1581552511",
  "Languages": [
    "english"
  ],
  "Platforms": {
    "windows": true,
    "mac": false,
    "linux": false
  }
}