﻿{
  "Dlcs": {},
  "Name": "LookVR",
  "AppId": "595490",
  "ImageUrl": "https://steamcdn-a.akamaihd.net/steam/apps/595490/header.jpg?t=1550709793",
  "Languages": [
    "english"
  ],
  "Platforms": {
    "windows": true,
    "mac": true,
    "linux": false
  }
}