{
  "Dlcs": {},
  "Name": "Jaw Breakers & The Confection Connection",
  "AppId": "1271820",
  "ImageUrl": "https://steamcdn-a.akamaihd.net/steam/apps/1271820/header.jpg?t=1589405494",
  "Languages": [
    "english"
  ],
  "Platforms": {
    "windows": true,
    "mac": false,
    "linux": false
  }
}