[
  {
    "name": "NEW_ACHIEVEMENT_1_0",
    "defaultvalue": 0,
    "displayName": "THE FIRST ENDING",
    "hidden": 0,
    "description": "THE FIRST ENDING",
    "icon": "https://steamcdn-a.akamaihd.net/steamcommunity/public/images/apps/1065230/2156427b13f9071cfcb1c51c92d839ea3c0de856.jpg",
    "icongray": "https://steamcdn-a.akamaihd.net/steamcommunity/public/images/apps/1065230/8e1943e2274b7985a8b13ee3a5d477072f481afb.jpg"
  },
  {
    "name": "NEW_ACHIEVEMENT_1_1",
    "defaultvalue": 0,
    "displayName": "THE SECOND ENDING",
    "hidden": 0,
    "description": "THE SECOND ENDING",
    "icon": "https://steamcdn-a.akamaihd.net/steamcommunity/public/images/apps/1065230/bd29a8a0eb153bfbac6f59e375b4a7fd07fa32c4.jpg",
    "icongray": "https://steamcdn-a.akamaihd.net/steamcommunity/public/images/apps/1065230/ae6387d3f5e3b96c785959001ebf131515d90b43.jpg"
  },
  {
    "name": "NEW_ACHIEVEMENT_1_2",
    "defaultvalue": 0,
    "displayName": "THE THIRD ENDING",
    "hidden": 0,
    "description": "THE THIRD ENDING",
    "icon": "https://steamcdn-a.akamaihd.net/steamcommunity/public/images/apps/1065230/c704338f233e59d0dda063368eeb58712238b946.jpg",
    "icongray": "https://steamcdn-a.akamaihd.net/steamcommunity/public/images/apps/1065230/6eb2eb6614fe63e39023f93728182ab67feefad3.jpg"
  },
  {
    "name": "NEW_ACHIEVEMENT_1_3",
    "defaultvalue": 0,
    "displayName": "THE FOURTH ENDING",
    "hidden": 0,
    "description": "THE FOURTH ENDING",
    "icon": "https://steamcdn-a.akamaihd.net/steamcommunity/public/images/apps/1065230/a293e28322226d61db1ac60dbd2a2b86a6d12d51.jpg",
    "icongray": "https://steamcdn-a.akamaihd.net/steamcommunity/public/images/apps/1065230/f439f0b7a627e179c42321b7a5a7518209bbe3f5.jpg"
  },
  {
    "name": "NEW_ACHIEVEMENT_1_4",
    "defaultvalue": 0,
    "displayName": "THE FIFTH ENDING",
    "hidden": 0,
    "description": "THE FIFTH ENDING",
    "icon": "https://steamcdn-a.akamaihd.net/steamcommunity/public/images/apps/1065230/4b7a6581df99d03b604e783ee87e7d26d565dbd6.jpg",
    "icongray": "https://steamcdn-a.akamaihd.net/steamcommunity/public/images/apps/1065230/be17505afdeaf51eabf041b3909b04504e24eed5.jpg"
  },
  {
    "name": "NEW_ACHIEVEMENT_1_5",
    "defaultvalue": 0,
    "displayName": "THE SIXTH ENDING",
    "hidden": 0,
    "description": "THE SIXTH ENDING",
    "icon": "https://steamcdn-a.akamaihd.net/steamcommunity/public/images/apps/1065230/f6b83c6e81727968eba8aa57fc8b18f386921944.jpg",
    "icongray": "https://steamcdn-a.akamaihd.net/steamcommunity/public/images/apps/1065230/3844e56b8055b1026028ae567554b21f4c33fc6e.jpg"
  },
  {
    "name": "NEW_ACHIEVEMENT_1_6",
    "defaultvalue": 0,
    "displayName": "THE SEVENTH ENDING",
    "hidden": 0,
    "description": "THE SEVENTH ENDING",
    "icon": "https://steamcdn-a.akamaihd.net/steamcommunity/public/images/apps/1065230/8af8750214ca2ad4d471a2fb7577f182c07f65de.jpg",
    "icongray": "https://steamcdn-a.akamaihd.net/steamcommunity/public/images/apps/1065230/7ed5767efe28e4889f17cff9e2a0f08b8ed10529.jpg"
  },
  {
    "name": "NEW_ACHIEVEMENT_1_7",
    "defaultvalue": 0,
    "displayName": "THE FINAL ENDING",
    "hidden": 0,
    "description": "THE FINAL ENDING",
    "icon": "https://steamcdn-a.akamaihd.net/steamcommunity/public/images/apps/1065230/961f876ea31ef725cf43703394d1a2f182997d9e.jpg",
    "icongray": "https://steamcdn-a.akamaihd.net/steamcommunity/public/images/apps/1065230/8d5f68421eab36525ebcbd050c8e8fe7aa04fcf2.jpg"
  }
]