﻿{
  "Dlcs": {
    "1398050": {
      "Name": "",
      "ImageUrl": ""
    },
    "1398060": {
      "Name": "ISEKAI QUEST : True Vision",
      "ImageUrl": "https://steamcdn-a.akamaihd.net/steam/apps/1398060/header.jpg?t=1600173378"
    }
  },
  "Name": "ISEKAI QUEST",
  "AppId": "1268110",
  "ImageUrl": "https://steamcdn-a.akamaihd.net/steam/apps/1268110/header.jpg?t=1600227999",
  "Languages": [
    "english",
    "japanese",
    "schinese",
    "tchinese",
    "latam",
    "portuguese",
    "french",
    "german",
    "russian",
    "spanish",
    "portuguese"
  ],
  "Platforms": {
    "windows": true,
    "mac": true,
    "linux": false
  }
}