﻿[
  {
    "name": "ACH_1",
    "defaultvalue": 0,
    "displayName": "Influence of fog",
    "hidden": 0,
    "description": "Show began",
    "icon": "https://steamcdn-a.akamaihd.net/steamcommunity/public/images/apps/1263370/b103db0d10e7e1ab7554c70f15cde15ef97ad877.jpg",
    "icongray": "https://steamcdn-a.akamaihd.net/steamcommunity/public/images/apps/1263370/25e763d256a926f2abc2efd67ee547f95c86178d.jpg"
  },
  {
    "name": "ACH_2",
    "defaultvalue": 0,
    "displayName": "Can't turn back",
    "hidden": 0,
    "description": "Succeeded in conquering the earl's daughter",
    "icon": "https://steamcdn-a.akamaihd.net/steamcommunity/public/images/apps/1263370/9749bf26ed3974371f83b6401476ee17e04eb0ce.jpg",
    "icongray": "https://steamcdn-a.akamaihd.net/steamcommunity/public/images/apps/1263370/362be0dd59b0352f18a061ebf64b225f798aaa26.jpg"
  },
  {
    "name": "ACH_3",
    "defaultvalue": 0,
    "displayName": "Breast is the best",
    "hidden": 0,
    "description": "First taste of breast",
    "icon": "https://steamcdn-a.akamaihd.net/steamcommunity/public/images/apps/1263370/295574395baabbe45db917291a07d0360d2ed1a2.jpg",
    "icongray": "https://steamcdn-a.akamaihd.net/steamcommunity/public/images/apps/1263370/8c6b4e1b512ee42dd0d31213a42586adda7da8ce.jpg"
  },
  {
    "name": "ACH_4",
    "defaultvalue": 0,
    "displayName": "Mission start",
    "hidden": 0,
    "description": "Meet former teammates",
    "icon": "https://steamcdn-a.akamaihd.net/steamcommunity/public/images/apps/1263370/6f48888c5ebd983a1611e7a6468d71c5dc07c6e6.jpg",
    "icongray": "https://steamcdn-a.akamaihd.net/steamcommunity/public/images/apps/1263370/282cf9ac6c36e32ef5f5b46b87a29e7f243f7b79.jpg"
  },
  {
    "name": "ACH_5",
    "defaultvalue": 0,
    "displayName": "Consensual ",
    "hidden": 0,
    "description": "Save woman warrior",
    "icon": "https://steamcdn-a.akamaihd.net/steamcommunity/public/images/apps/1263370/ac2f1e521b399eaeb0ae861871f1e1b3e6d019d2.jpg",
    "icongray": "https://steamcdn-a.akamaihd.net/steamcommunity/public/images/apps/1263370/43cab6f0b64c8fa79281636338cf61b60493f902.jpg"
  },
  {
    "name": "ACH_6",
    "defaultvalue": 0,
    "displayName": "Case by case",
    "hidden": 0,
    "description": "Succeeded in conquering the woman warrior",
    "icon": "https://steamcdn-a.akamaihd.net/steamcommunity/public/images/apps/1263370/290967a64e2ac58d0ee003aadc7b283a6f7fa45d.jpg",
    "icongray": "https://steamcdn-a.akamaihd.net/steamcommunity/public/images/apps/1263370/730939c93507239ea323d11ef3f6ac2bef5c357a.jpg"
  },
  {
    "name": "ACH_7",
    "defaultvalue": 0,
    "displayName": "Dance with sheep",
    "hidden": 0,
    "description": "Save sheep girl",
    "icon": "https://steamcdn-a.akamaihd.net/steamcommunity/public/images/apps/1263370/9a09edd2fc42033eebd83a86382714d8266649ad.jpg",
    "icongray": "https://steamcdn-a.akamaihd.net/steamcommunity/public/images/apps/1263370/56409da7dbe2fb9e7d2713a2990e01daeed6975c.jpg"
  },
  {
    "name": "ACH_8",
    "defaultvalue": 0,
    "displayName": "Frenzy fading",
    "hidden": 0,
    "description": "Succeeded in conquering the sheep girl",
    "icon": "https://steamcdn-a.akamaihd.net/steamcommunity/public/images/apps/1263370/00c303fa3cb62fba281f544dcbd748fb0e41fc84.jpg",
    "icongray": "https://steamcdn-a.akamaihd.net/steamcommunity/public/images/apps/1263370/a284d140831235112775bd7971715123b62005bc.jpg"
  },
  {
    "name": "ACH_9",
    "defaultvalue": 0,
    "displayName": "Faith collapse",
    "hidden": 0,
    "description": "Save pure saintess",
    "icon": "https://steamcdn-a.akamaihd.net/steamcommunity/public/images/apps/1263370/b29af6c8fde9d9a384fbbe5e3260f30c0bc421fc.jpg",
    "icongray": "https://steamcdn-a.akamaihd.net/steamcommunity/public/images/apps/1263370/67eb7a2fe2d5f513178c4be2dd80df86338eb11d.jpg"
  },
  {
    "name": "ACH_10",
    "defaultvalue": 0,
    "displayName": "Flase reputation",
    "hidden": 0,
    "description": "Succeeded in conquering the pure saintess",
    "icon": "https://steamcdn-a.akamaihd.net/steamcommunity/public/images/apps/1263370/84ee9c5bfcb4ff6e51fa631a2971484df55b0ddf.jpg",
    "icongray": "https://steamcdn-a.akamaihd.net/steamcommunity/public/images/apps/1263370/a84b98ca481eeeda45a3bdde897ad7118aec7136.jpg"
  },
  {
    "name": "ACH_11",
    "defaultvalue": 0,
    "displayName": "Play hardball",
    "hidden": 0,
    "description": "Save black nun",
    "icon": "https://steamcdn-a.akamaihd.net/steamcommunity/public/images/apps/1263370/208694a37a5c0a198fa1c4011cb7b2a3572c6b03.jpg",
    "icongray": "https://steamcdn-a.akamaihd.net/steamcommunity/public/images/apps/1263370/3eab86ec1ff96d901ce352398aec047ccd0776ed.jpg"
  },
  {
    "name": "ACH_12",
    "defaultvalue": 0,
    "displayName": "Full of doubts",
    "hidden": 0,
    "description": "Succeeded in conquering the black nun",
    "icon": "https://steamcdn-a.akamaihd.net/steamcommunity/public/images/apps/1263370/d133816fa22cc6d83ebf4a39c5413a20e40ba2e0.jpg",
    "icongray": "https://steamcdn-a.akamaihd.net/steamcommunity/public/images/apps/1263370/bf694a834fc2ebf19555eb99ac8cb43072401a75.jpg"
  },
  {
    "name": "ACH_13",
    "defaultvalue": 0,
    "displayName": "Position of vulnerability",
    "hidden": 0,
    "description": "Save the maid",
    "icon": "https://steamcdn-a.akamaihd.net/steamcommunity/public/images/apps/1263370/eec4e0861809b3f8ac2fe4c697323e8f068057a4.jpg",
    "icongray": "https://steamcdn-a.akamaihd.net/steamcommunity/public/images/apps/1263370/90198bc9e2acf9aa95eaf44f78cabc962225ffbd.jpg"
  },
  {
    "name": "ACH_14",
    "defaultvalue": 0,
    "displayName": "Recoil",
    "hidden": 0,
    "description": "Succeeded in conquering the maid",
    "icon": "https://steamcdn-a.akamaihd.net/steamcommunity/public/images/apps/1263370/cba7171e0f8b67612d07d243ad77901d400fc7a5.jpg",
    "icongray": "https://steamcdn-a.akamaihd.net/steamcommunity/public/images/apps/1263370/74f2fe305395838ec97b24edaadf343e067b3df6.jpg"
  },
  {
    "name": "ACH_15",
    "defaultvalue": 0,
    "displayName": "Star and fans",
    "hidden": 0,
    "description": "Save the explorer",
    "icon": "https://steamcdn-a.akamaihd.net/steamcommunity/public/images/apps/1263370/a36e4875348f656386dcf8d4006e2a1e2a71eef9.jpg",
    "icongray": "https://steamcdn-a.akamaihd.net/steamcommunity/public/images/apps/1263370/79fc7e31c0604251a698ae5ad731d68e3fbf9d38.jpg"
  },
  {
    "name": "ACH_16",
    "defaultvalue": 0,
    "displayName": "Dream come true",
    "hidden": 0,
    "description": "Succeeded in conquering the explorer",
    "icon": "https://steamcdn-a.akamaihd.net/steamcommunity/public/images/apps/1263370/0abe5d10814bee8c4f369b636436ccde69a58b5f.jpg",
    "icongray": "https://steamcdn-a.akamaihd.net/steamcommunity/public/images/apps/1263370/156f3ccab9c6ab96c9c23e81fc445fce419fb5bc.jpg"
  },
  {
    "name": "ACH_17",
    "defaultvalue": 0,
    "displayName": "Evil with evil",
    "hidden": 0,
    "description": "Save chick",
    "icon": "https://steamcdn-a.akamaihd.net/steamcommunity/public/images/apps/1263370/5df044a8e96f95f85c8c1d8de35606d9364ee5f5.jpg",
    "icongray": "https://steamcdn-a.akamaihd.net/steamcommunity/public/images/apps/1263370/7c52840f83f73c9da410ab36385fceebdce8cffc.jpg"
  },
  {
    "name": "ACH_18",
    "defaultvalue": 0,
    "displayName": "Reverse polarity",
    "hidden": 0,
    "description": "Succeeded in conquering the chick",
    "icon": "https://steamcdn-a.akamaihd.net/steamcommunity/public/images/apps/1263370/a244e1296c3383070be00c027e8b5f19a68249d6.jpg",
    "icongray": "https://steamcdn-a.akamaihd.net/steamcommunity/public/images/apps/1263370/c8468084518896aed4095732265f79a4232ef93d.jpg"
  },
  {
    "name": "ACH_19",
    "defaultvalue": 0,
    "displayName": "Overwhelmed",
    "hidden": 0,
    "description": "Save princess's nurse",
    "icon": "https://steamcdn-a.akamaihd.net/steamcommunity/public/images/apps/1263370/86d24b08f04b73e08fdce8aa14011fc5ae7ff629.jpg",
    "icongray": "https://steamcdn-a.akamaihd.net/steamcommunity/public/images/apps/1263370/dc646bea41595cefc74f3e9076d30a136b923e44.jpg"
  },
  {
    "name": "ACH_20",
    "defaultvalue": 0,
    "displayName": "Spiral ascension",
    "hidden": 0,
    "description": "Succeeded in conquering the princess's nurse",
    "icon": "https://steamcdn-a.akamaihd.net/steamcommunity/public/images/apps/1263370/a323d86d5f28fb9a93485d0cfcead61df2ea2494.jpg",
    "icongray": "https://steamcdn-a.akamaihd.net/steamcommunity/public/images/apps/1263370/5221bc380225fa4995d509fc4974c69e4e8096c5.jpg"
  },
  {
    "name": "ACH_21",
    "defaultvalue": 0,
    "displayName": "Antisky",
    "hidden": 0,
    "description": "Save little dragon",
    "icon": "https://steamcdn-a.akamaihd.net/steamcommunity/public/images/apps/1263370/3a30f1770e5e310f97bb3e0c14aea978a2832793.jpg",
    "icongray": "https://steamcdn-a.akamaihd.net/steamcommunity/public/images/apps/1263370/19040d239ec24059e8f0d703c8058fa64826d529.jpg"
  },
  {
    "name": "ACH_22",
    "defaultvalue": 0,
    "displayName": "demon father",
    "hidden": 0,
    "description": "Succeeded in conquering the little dragon",
    "icon": "https://steamcdn-a.akamaihd.net/steamcommunity/public/images/apps/1263370/6ea0f0ec41be3b9d071b6406688b2e477ca4b9f7.jpg",
    "icongray": "https://steamcdn-a.akamaihd.net/steamcommunity/public/images/apps/1263370/6d73a8be74069067a01823662f1584dbadceefa6.jpg"
  },
  {
    "name": "ACH_23",
    "defaultvalue": 0,
    "displayName": "What's this feeling",
    "hidden": 0,
    "description": "Save slime",
    "icon": "https://steamcdn-a.akamaihd.net/steamcommunity/public/images/apps/1263370/4ec52973bf32bf20f8956b39bebc4eb735ae1076.jpg",
    "icongray": "https://steamcdn-a.akamaihd.net/steamcommunity/public/images/apps/1263370/2ce9a7a25aa587c566a3043d16fb932ee5017e21.jpg"
  },
  {
    "name": "ACH_24",
    "defaultvalue": 0,
    "displayName": "The monster",
    "hidden": 0,
    "description": "Succeeded in conquering the slime",
    "icon": "https://steamcdn-a.akamaihd.net/steamcommunity/public/images/apps/1263370/abae37a92b65be8eeb3ab88562cc7c89871025b0.jpg",
    "icongray": "https://steamcdn-a.akamaihd.net/steamcommunity/public/images/apps/1263370/e5de706cbfa26276b075787dcc5ebdbf7fd18cbe.jpg"
  },
  {
    "name": "ACH_25",
    "defaultvalue": 0,
    "displayName": "Air theater",
    "hidden": 0,
    "description": "Save witch",
    "icon": "https://steamcdn-a.akamaihd.net/steamcommunity/public/images/apps/1263370/cf4abd479e33242a74d8677b0565ca0adb7f4180.jpg",
    "icongray": "https://steamcdn-a.akamaihd.net/steamcommunity/public/images/apps/1263370/105a4374d421e2e40193f3d4d1f6600afd02940d.jpg"
  },
  {
    "name": "ACH_26",
    "defaultvalue": 0,
    "displayName": "Just act",
    "hidden": 0,
    "description": "Succeeded in conquering the witch",
    "icon": "https://steamcdn-a.akamaihd.net/steamcommunity/public/images/apps/1263370/2364fd23d71dcbfdbc1fdcc31a4defb6c69b105b.jpg",
    "icongray": "https://steamcdn-a.akamaihd.net/steamcommunity/public/images/apps/1263370/29fa93989053aff6cfc145391d2e36e7639b75ab.jpg"
  },
  {
    "name": "ACH_27",
    "defaultvalue": 0,
    "displayName": "Bee fairy",
    "hidden": 0,
    "description": "Save debbie",
    "icon": "https://steamcdn-a.akamaihd.net/steamcommunity/public/images/apps/1263370/7c86e7243542a6259c533268ffb1bf622a0c7726.jpg",
    "icongray": "https://steamcdn-a.akamaihd.net/steamcommunity/public/images/apps/1263370/2c6c0eb2add6fc0257ab95ef63b69c31f4d244a5.jpg"
  },
  {
    "name": "ACH_28",
    "defaultvalue": 0,
    "displayName": "Wind fall",
    "hidden": 0,
    "description": "Get token from debbie",
    "icon": "https://steamcdn-a.akamaihd.net/steamcommunity/public/images/apps/1263370/c8a29cf578d2eb652e38a1da8e4e4816e3b81b97.jpg",
    "icongray": "https://steamcdn-a.akamaihd.net/steamcommunity/public/images/apps/1263370/5ed2f946f34cad5900e86780456208ccc885b019.jpg"
  },
  {
    "name": "ACH_29",
    "defaultvalue": 0,
    "displayName": "Rescue the princess",
    "hidden": 0,
    "description": "Save princess",
    "icon": "https://steamcdn-a.akamaihd.net/steamcommunity/public/images/apps/1263370/b6b58f01ed64148107c33ba61e09abfa1d2eb908.jpg",
    "icongray": "https://steamcdn-a.akamaihd.net/steamcommunity/public/images/apps/1263370/bacf6e887046487b00e609d8e39324ab8fd6f1e1.jpg"
  },
  {
    "name": "ACH_30",
    "defaultvalue": 0,
    "displayName": "Accomplish one's mission",
    "hidden": 0,
    "description": "Succeeded in conquering the princess",
    "icon": "https://steamcdn-a.akamaihd.net/steamcommunity/public/images/apps/1263370/7fe66f97e88a933e53cd09e71d140c8a6a3e76cc.jpg",
    "icongray": "https://steamcdn-a.akamaihd.net/steamcommunity/public/images/apps/1263370/ed0aa56e9b8af4b0eb522ec9ac9b52855133dab1.jpg"
  },
  {
    "name": "ACH_31",
    "defaultvalue": 0,
    "displayName": "Loathness",
    "hidden": 0,
    "description": "Save weak girl",
    "icon": "https://steamcdn-a.akamaihd.net/steamcommunity/public/images/apps/1263370/666beb2e17640fa5a0a085b6c3d7550a5a826441.jpg",
    "icongray": "https://steamcdn-a.akamaihd.net/steamcommunity/public/images/apps/1263370/ecfb681e7d0ca3ac1c613e9af217ff7cbb0c419d.jpg"
  },
  {
    "name": "ACH_32",
    "defaultvalue": 0,
    "displayName": "Conspiracy ",
    "hidden": 0,
    "description": "Succeeded in conquering the weak girl",
    "icon": "https://steamcdn-a.akamaihd.net/steamcommunity/public/images/apps/1263370/d6a5028c3d166bad39fbc29698d6dc9f89445d24.jpg",
    "icongray": "https://steamcdn-a.akamaihd.net/steamcommunity/public/images/apps/1263370/01594703a55b2370ac1877d40a26aff6cccbb1bd.jpg"
  },
  {
    "name": "ACH_33",
    "defaultvalue": 0,
    "displayName": "Cleverness may overreach itself",
    "hidden": 0,
    "description": "Save hypnotist girl",
    "icon": "https://steamcdn-a.akamaihd.net/steamcommunity/public/images/apps/1263370/9cf7eff53b428b9be27d7b0dc6e60d9a372b29e4.jpg",
    "icongray": "https://steamcdn-a.akamaihd.net/steamcommunity/public/images/apps/1263370/d0a170e9fe12d8ef011527f8ac0e0a7621631b47.jpg"
  },
  {
    "name": "ACH_34",
    "defaultvalue": 0,
    "displayName": "Shape up or ship out",
    "hidden": 0,
    "description": "Succeeded in conquering the hypnotist girl",
    "icon": "https://steamcdn-a.akamaihd.net/steamcommunity/public/images/apps/1263370/6c4f1c24cc70d24fe2dcdbbff561b43c4ef990f2.jpg",
    "icongray": "https://steamcdn-a.akamaihd.net/steamcommunity/public/images/apps/1263370/4385bdc8a35dbc58d1e2e391dbbe84e721ae9114.jpg"
  },
  {
    "name": "ACH_35",
    "defaultvalue": 0,
    "displayName": "Blooming chrysanthemums",
    "hidden": 0,
    "description": "Save summoner",
    "icon": "https://steamcdn-a.akamaihd.net/steamcommunity/public/images/apps/1263370/74ff951519efe5f3b3f054b5e68b8d39de9cf0d0.jpg",
    "icongray": "https://steamcdn-a.akamaihd.net/steamcommunity/public/images/apps/1263370/ad7bfa84d9c918785a4d611da4baa3647db93ae7.jpg"
  },
  {
    "name": "ACH_36",
    "defaultvalue": 0,
    "displayName": "Have no alternative",
    "hidden": 0,
    "description": "Succeeded in conquering the summoner",
    "icon": "https://steamcdn-a.akamaihd.net/steamcommunity/public/images/apps/1263370/1d884bd30c5b2285f050a7ae3ad634fc78db87bc.jpg",
    "icongray": "https://steamcdn-a.akamaihd.net/steamcommunity/public/images/apps/1263370/16720b0b60c344c609ad21fd07e8929abee44782.jpg"
  },
  {
    "name": "ACH_37",
    "defaultvalue": 0,
    "displayName": "Displace! Tentacles",
    "hidden": 0,
    "description": "Purify demon",
    "icon": "https://steamcdn-a.akamaihd.net/steamcommunity/public/images/apps/1263370/bc8658d558cf33913fba23a5c7e2028719226b4a.jpg",
    "icongray": "https://steamcdn-a.akamaihd.net/steamcommunity/public/images/apps/1263370/7de931c6650d5adb46a1cd770d9534f9d446c527.jpg"
  },
  {
    "name": "ACH_38",
    "defaultvalue": 0,
    "displayName": "Banish evil",
    "hidden": 0,
    "description": "Succeeded in conquering the demon",
    "icon": "https://steamcdn-a.akamaihd.net/steamcommunity/public/images/apps/1263370/6e462179baf67ddba768cab9b9a2c6dc219a265f.jpg",
    "icongray": "https://steamcdn-a.akamaihd.net/steamcommunity/public/images/apps/1263370/8bd99b05b60a73223ca56d0cf445474d896a65dd.jpg"
  },
  {
    "name": "ACH_39",
    "defaultvalue": 0,
    "displayName": "Alysa",
    "hidden": 0,
    "description": "Pick Alysa up",
    "icon": "https://steamcdn-a.akamaihd.net/steamcommunity/public/images/apps/1263370/0bcda517a16cd8664c990e8dc43fe86ac9309f26.jpg",
    "icongray": "https://steamcdn-a.akamaihd.net/steamcommunity/public/images/apps/1263370/5e6881d6249dc4a01063087de89a5d2bfe3a822a.jpg"
  },
  {
    "name": "ACH_40",
    "defaultvalue": 0,
    "displayName": "Insight into the truth",
    "hidden": 0,
    "description": "Succeeded in conquering Alysa",
    "icon": "https://steamcdn-a.akamaihd.net/steamcommunity/public/images/apps/1263370/d2d7f5169e3400d6220a553ea1c343e2673ff24b.jpg",
    "icongray": "https://steamcdn-a.akamaihd.net/steamcommunity/public/images/apps/1263370/2e59bb9e64d90a1d5bf8bd542e6d231c8f1ca95b.jpg"
  },
  {
    "name": "ACH_41",
    "defaultvalue": 0,
    "displayName": "To be continued",
    "hidden": 0,
    "description": "Talk to a mysterious guide",
    "icon": "https://steamcdn-a.akamaihd.net/steamcommunity/public/images/apps/1263370/a87a8ebc77b9b82e88fc35b26659903449228ae9.jpg",
    "icongray": "https://steamcdn-a.akamaihd.net/steamcommunity/public/images/apps/1263370/a156ac779056ee92bbba953c5586c7bc6f78a327.jpg"
  },
  {
    "name": "ACH_42",
    "defaultvalue": 0,
    "displayName": "Entering the fog",
    "hidden": 0,
    "description": "Enter the fog scene for the first time",
    "icon": "https://steamcdn-a.akamaihd.net/steamcommunity/public/images/apps/1263370/1b120033013395485b09155500181edf9476dd48.jpg",
    "icongray": "https://steamcdn-a.akamaihd.net/steamcommunity/public/images/apps/1263370/b7373477c20cbe379e0f5b075b1a4f0ef59a18cc.jpg"
  },
  {
    "name": "ACH_43",
    "defaultvalue": 0,
    "displayName": "A talking skeleton",
    "hidden": 0,
    "description": "Skeletons can talk",
    "icon": "https://steamcdn-a.akamaihd.net/steamcommunity/public/images/apps/1263370/7bc2838487be09b60c4d9d53599ad11a70e1cf0e.jpg",
    "icongray": "https://steamcdn-a.akamaihd.net/steamcommunity/public/images/apps/1263370/fe7a2873e970d3f7acc8b9500f828e67b0df8d2c.jpg"
  },
  {
    "name": "ACH_44",
    "defaultvalue": 0,
    "displayName": "Access to the secret",
    "hidden": 0,
    "description": "Had conversations with 8 different skeletons",
    "icon": "https://steamcdn-a.akamaihd.net/steamcommunity/public/images/apps/1263370/a0c62fe4edc9c07b7f17557d5cfe0d7aeb182f5e.jpg",
    "icongray": "https://steamcdn-a.akamaihd.net/steamcommunity/public/images/apps/1263370/356567b8d5c838ca1cd288958cc795f28494732e.jpg"
  },
  {
    "name": "ACH_45",
    "defaultvalue": 0,
    "displayName": "Become inured to the unusual ",
    "hidden": 0,
    "description": "Had conversations with all the skeletons",
    "icon": "https://steamcdn-a.akamaihd.net/steamcommunity/public/images/apps/1263370/5a8f46cfd68c25d4a110c187c680b06fb2b5d586.jpg",
    "icongray": "https://steamcdn-a.akamaihd.net/steamcommunity/public/images/apps/1263370/151c69c02686cb84d10cba78a289f78053d85711.jpg"
  },
  {
    "name": "ACH_46",
    "defaultvalue": 0,
    "displayName": "Frightened girl",
    "hidden": 0,
    "description": "First encounter with a girl",
    "icon": "https://steamcdn-a.akamaihd.net/steamcommunity/public/images/apps/1263370/e17610cd4114bbe6019be43ffacb852624fa1328.jpg",
    "icongray": "https://steamcdn-a.akamaihd.net/steamcommunity/public/images/apps/1263370/6b3780df201882b6adb4f746ebcbb064fdfc8ab7.jpg"
  },
  {
    "name": "ACH_47",
    "defaultvalue": 0,
    "displayName": "Save eager",
    "hidden": 0,
    "description": "Meet 10 different girls",
    "icon": "https://steamcdn-a.akamaihd.net/steamcommunity/public/images/apps/1263370/30fbab17f9742bc99510702d9ffc54089ea85f2f.jpg",
    "icongray": "https://steamcdn-a.akamaihd.net/steamcommunity/public/images/apps/1263370/681369f6a8ca705bc12a2b32f95be812c828dc33.jpg"
  },
  {
    "name": "ACH_48",
    "defaultvalue": 0,
    "displayName": " Pile driver",
    "hidden": 0,
    "description": "Meet all the girls",
    "icon": "https://steamcdn-a.akamaihd.net/steamcommunity/public/images/apps/1263370/db26b674b70b9f47e0090fe4bba01543011a1de1.jpg",
    "icongray": "https://steamcdn-a.akamaihd.net/steamcommunity/public/images/apps/1263370/d88dd155c8f53e5f15561757a515d62b0ae8f7b4.jpg"
  },
  {
    "name": "ACH_49",
    "defaultvalue": 0,
    "displayName": "Magic fruit",
    "hidden": 0,
    "description": "Retrieve lost memories",
    "icon": "https://steamcdn-a.akamaihd.net/steamcommunity/public/images/apps/1263370/e345973c75ff33f363389c447c0fd09f0a261e7b.jpg",
    "icongray": "https://steamcdn-a.akamaihd.net/steamcommunity/public/images/apps/1263370/1a4eb1c29875303a6d9355741b52cc11b363245a.jpg"
  },
  {
    "name": "ACH_50",
    "defaultvalue": 0,
    "displayName": "Yummy yummy ",
    "hidden": 0,
    "description": "Recall 8 memory images",
    "icon": "https://steamcdn-a.akamaihd.net/steamcommunity/public/images/apps/1263370/d924da1bcd9cfea38f4b2ff32cbd23e0420656cf.jpg",
    "icongray": "https://steamcdn-a.akamaihd.net/steamcommunity/public/images/apps/1263370/51f47c2135a40c3c3e7f55b308c20b4006da9db9.jpg"
  },
  {
    "name": "ACH_51",
    "defaultvalue": 0,
    "displayName": "Who I used to be",
    "hidden": 0,
    "description": "Recall all the memories",
    "icon": "https://steamcdn-a.akamaihd.net/steamcommunity/public/images/apps/1263370/67d6b147c240e2b648c60e8a1f271b8ded591a8e.jpg",
    "icongray": "https://steamcdn-a.akamaihd.net/steamcommunity/public/images/apps/1263370/e513cc1935d8ed594baaebd8173efeaf9e8a60b4.jpg"
  },
  {
    "name": "ACH_52",
    "defaultvalue": 0,
    "displayName": "Plastic machetes",
    "hidden": 0,
    "description": "First injury",
    "icon": "https://steamcdn-a.akamaihd.net/steamcommunity/public/images/apps/1263370/6612e1019dcfa58fd40c3f2033d94a9cf9b454cf.jpg",
    "icongray": "https://steamcdn-a.akamaihd.net/steamcommunity/public/images/apps/1263370/c14282537d5fdbf1354891884721c9068201d3b0.jpg"
  },
  {
    "name": "ACH_53",
    "defaultvalue": 0,
    "displayName": "Mistake",
    "hidden": 0,
    "description": "The 10th injury",
    "icon": "https://steamcdn-a.akamaihd.net/steamcommunity/public/images/apps/1263370/732bbd0c0b0a9da832b8e0f1535ea767087d433c.jpg",
    "icongray": "https://steamcdn-a.akamaihd.net/steamcommunity/public/images/apps/1263370/d249a0b15db9da9e8d96661d45c46af9e5008f8c.jpg"
  },
  {
    "name": "ACH_54",
    "defaultvalue": 0,
    "displayName": "This is the maximum amount of blood",
    "hidden": 0,
    "description": "The 20th injury",
    "icon": "https://steamcdn-a.akamaihd.net/steamcommunity/public/images/apps/1263370/71e9931c4a820d56c5615119d9ec348939b19ae2.jpg",
    "icongray": "https://steamcdn-a.akamaihd.net/steamcommunity/public/images/apps/1263370/0ec97c0b6bf8c0a600b7c6ed5091ba91cead540d.jpg"
  },
  {
    "name": "ACH_55",
    "defaultvalue": 0,
    "displayName": "Grovel",
    "hidden": 0,
    "description": "The first death",
    "icon": "https://steamcdn-a.akamaihd.net/steamcommunity/public/images/apps/1263370/a4d22a76ed6523fd4615489ea5f84a39e07655fd.jpg",
    "icongray": "https://steamcdn-a.akamaihd.net/steamcommunity/public/images/apps/1263370/2302bbdd411ccb2d8c0c9d61a9118ccf4c7aeb1e.jpg"
  },
  {
    "name": "ACH_56",
    "defaultvalue": 0,
    "displayName": "Tactical flap",
    "hidden": 0,
    "description": "The fifth death",
    "icon": "https://steamcdn-a.akamaihd.net/steamcommunity/public/images/apps/1263370/86823c02dadc84da9493ff9a197d7f7f851f1066.jpg",
    "icongray": "https://steamcdn-a.akamaihd.net/steamcommunity/public/images/apps/1263370/8820cb5bb5b8112c6247eee924912fdc635993cb.jpg"
  },
  {
    "name": "ACH_57",
    "defaultvalue": 0,
    "displayName": "Push-up",
    "hidden": 0,
    "description": "The tenth death",
    "icon": "https://steamcdn-a.akamaihd.net/steamcommunity/public/images/apps/1263370/6a35142d8066a426bdceaa3a266fb2f1be018d2a.jpg",
    "icongray": "https://steamcdn-a.akamaihd.net/steamcommunity/public/images/apps/1263370/e71d60757a6b11eb34bd3ff465f34b3c67fd4150.jpg"
  },
  {
    "name": "ACH_58",
    "defaultvalue": 0,
    "displayName": "The beginning of reincarnation",
    "hidden": 0,
    "description": "The first rebirth",
    "icon": "https://steamcdn-a.akamaihd.net/steamcommunity/public/images/apps/1263370/570d816ace47039297813a27dfdcd8490a02d6cd.jpg",
    "icongray": "https://steamcdn-a.akamaihd.net/steamcommunity/public/images/apps/1263370/acc131483232663c991ce20bda48f3ea4ffa2fd1.jpg"
  },
  {
    "name": "ACH_59",
    "defaultvalue": 0,
    "displayName": "In cycles",
    "hidden": 0,
    "description": "The fifth rebirth",
    "icon": "https://steamcdn-a.akamaihd.net/steamcommunity/public/images/apps/1263370/62ac6092f908334bc3701d12de2ef86f0cceb7b1.jpg",
    "icongray": "https://steamcdn-a.akamaihd.net/steamcommunity/public/images/apps/1263370/f6569253445940b099225f6d070e7943d9731fba.jpg"
  },
  {
    "name": "ACH_60",
    "defaultvalue": 0,
    "displayName": "Cycle of more than",
    "hidden": 0,
    "description": "The tenth rebirth",
    "icon": "https://steamcdn-a.akamaihd.net/steamcommunity/public/images/apps/1263370/31215a302e6bc5e2805edee6d18c77e71393ff4a.jpg",
    "icongray": "https://steamcdn-a.akamaihd.net/steamcommunity/public/images/apps/1263370/1f7a4bbd524eb03e94a93dc0fd1126afa50c4ff6.jpg"
  },
  {
    "name": "ACH_61",
    "defaultvalue": 0,
    "displayName": "Strange props",
    "hidden": 0,
    "description": "Find a gift",
    "icon": "https://steamcdn-a.akamaihd.net/steamcommunity/public/images/apps/1263370/3be7ff56de58bd956c8a352a6fc79ca27cb7518f.jpg",
    "icongray": "https://steamcdn-a.akamaihd.net/steamcommunity/public/images/apps/1263370/16103a3e3ed4f1f1efd6690f87d287522167de16.jpg"
  },
  {
    "name": "ACH_62",
    "defaultvalue": 0,
    "displayName": "A lot of harvest",
    "hidden": 0,
    "description": "Find nine different gifts",
    "icon": "https://steamcdn-a.akamaihd.net/steamcommunity/public/images/apps/1263370/401d4b38a96b0a672861695c87169251a9ef8d1a.jpg",
    "icongray": "https://steamcdn-a.akamaihd.net/steamcommunity/public/images/apps/1263370/8f0551aa850c8661dd06c62fb6e3158a0e0ede7f.jpg"
  },
  {
    "name": "ACH_63",
    "defaultvalue": 0,
    "displayName": "A backpack full of",
    "hidden": 0,
    "description": "Find all gifts",
    "icon": "https://steamcdn-a.akamaihd.net/steamcommunity/public/images/apps/1263370/73e515d50cacac4ece2022760f84f42e7f496124.jpg",
    "icongray": "https://steamcdn-a.akamaihd.net/steamcommunity/public/images/apps/1263370/194962be63ed0ced57d50dbf20998e0949a4d517.jpg"
  },
  {
    "name": "ACH_64",
    "defaultvalue": 0,
    "displayName": "Life back",
    "hidden": 0,
    "description": "Get a blood bottle",
    "icon": "https://steamcdn-a.akamaihd.net/steamcommunity/public/images/apps/1263370/a07a1bcb5696faa5bd6a872bd81a2347d54ee1a0.jpg",
    "icongray": "https://steamcdn-a.akamaihd.net/steamcommunity/public/images/apps/1263370/cbbb092230574541269a9230df63670c1f7497f6.jpg"
  },
  {
    "name": "ACH_65",
    "defaultvalue": 0,
    "displayName": "Good form",
    "hidden": 0,
    "description": "Get five blood bottles",
    "icon": "https://steamcdn-a.akamaihd.net/steamcommunity/public/images/apps/1263370/ebfac1034824872eef96e92cf35f1bd50f3daa01.jpg",
    "icongray": "https://steamcdn-a.akamaihd.net/steamcommunity/public/images/apps/1263370/b4ed67e5a16bd0555c1052675c1bf7a13913c0de.jpg"
  },
  {
    "name": "ACH_66",
    "defaultvalue": 0,
    "displayName": "Body tonic",
    "hidden": 0,
    "description": "Get ten blood bottles",
    "icon": "https://steamcdn-a.akamaihd.net/steamcommunity/public/images/apps/1263370/001331b66def7b8010a33e66731acc7ca944ec7b.jpg",
    "icongray": "https://steamcdn-a.akamaihd.net/steamcommunity/public/images/apps/1263370/caf7dad57385845f65c5dda8a98649f9298bd8f1.jpg"
  },
  {
    "name": "ACH_67",
    "defaultvalue": 0,
    "displayName": "Strange key",
    "hidden": 0,
    "description": "pick up a key",
    "icon": "https://steamcdn-a.akamaihd.net/steamcommunity/public/images/apps/1263370/d60c53a0b2d345b0e48d1d7476ef2f599f41e6a1.jpg",
    "icongray": "https://steamcdn-a.akamaihd.net/steamcommunity/public/images/apps/1263370/52285b6d40d1acff153092a734403afada946d8e.jpg"
  },
  {
    "name": "ACH_68",
    "defaultvalue": 0,
    "displayName": "Important key",
    "hidden": 0,
    "description": "pick up three keys",
    "icon": "https://steamcdn-a.akamaihd.net/steamcommunity/public/images/apps/1263370/e74b14fd2466d27c86181d40db023bd588f3b064.jpg",
    "icongray": "https://steamcdn-a.akamaihd.net/steamcommunity/public/images/apps/1263370/8e28b42637b3be40c90e8df1b31c69f38b448638.jpg"
  },
  {
    "name": "ACH_69",
    "defaultvalue": 0,
    "displayName": "Indispensable key",
    "hidden": 0,
    "description": "pick up five keys",
    "icon": "https://steamcdn-a.akamaihd.net/steamcommunity/public/images/apps/1263370/7c8bf418385d25901782b06f36acaf1b4240d32a.jpg",
    "icongray": "https://steamcdn-a.akamaihd.net/steamcommunity/public/images/apps/1263370/b5282206bd36a7089bfebcf17aa946ee069227bd.jpg"
  },
  {
    "name": "ACH_70",
    "defaultvalue": 0,
    "displayName": "Simple and nice",
    "hidden": 0,
    "description": "Give the right gift once",
    "icon": "https://steamcdn-a.akamaihd.net/steamcommunity/public/images/apps/1263370/8ae2d6aca6fdcba59dd401fcafb0cbb329e10f7b.jpg",
    "icongray": "https://steamcdn-a.akamaihd.net/steamcommunity/public/images/apps/1263370/b436d8b56f79b78bfff0d35314cbb9dcef5c192b.jpg"
  },
  {
    "name": "ACH_71",
    "defaultvalue": 0,
    "displayName": "Telepathic ",
    "hidden": 0,
    "description": "Give the right gift nine times",
    "icon": "https://steamcdn-a.akamaihd.net/steamcommunity/public/images/apps/1263370/a9af62b418da42adea13dbef4de328a8532719ee.jpg",
    "icongray": "https://steamcdn-a.akamaihd.net/steamcommunity/public/images/apps/1263370/c6fd912b8c8938c0a490164433ef24ba8652d51b.jpg"
  },
  {
    "name": "ACH_72",
    "defaultvalue": 0,
    "displayName": "Thoughtful ",
    "hidden": 0,
    "description": "Give the right gifts to all people",
    "icon": "https://steamcdn-a.akamaihd.net/steamcommunity/public/images/apps/1263370/dc1f2a2d4ee01e4a79fc1426cafcc613337b0295.jpg",
    "icongray": "https://steamcdn-a.akamaihd.net/steamcommunity/public/images/apps/1263370/a91287e284937b22b65ba4a70ec65d73aa82312f.jpg"
  },
  {
    "name": "ACH_73",
    "defaultvalue": 0,
    "displayName": "Test",
    "hidden": 0,
    "description": "Give the wrong gift once",
    "icon": "https://steamcdn-a.akamaihd.net/steamcommunity/public/images/apps/1263370/0f71d748fb49da6efe522114d94a94937fa68d2e.jpg",
    "icongray": "https://steamcdn-a.akamaihd.net/steamcommunity/public/images/apps/1263370/baf63f27c2448d91efebe0abd9e6732f1ce1fa8b.jpg"
  },
  {
    "name": "ACH_74",
    "defaultvalue": 0,
    "displayName": "Steel straight men",
    "hidden": 0,
    "description": "Give the wrong gift nine times",
    "icon": "https://steamcdn-a.akamaihd.net/steamcommunity/public/images/apps/1263370/dc3abc02e270fc36eaa56f9560a5094a875b932e.jpg",
    "icongray": "https://steamcdn-a.akamaihd.net/steamcommunity/public/images/apps/1263370/4733835907ab74c1351e8ad5333b60ce832f98ab.jpg"
  },
  {
    "name": "ACH_75",
    "defaultvalue": 0,
    "displayName": "Little games don't smell good?",
    "hidden": 0,
    "description": "Give the wrong gifts to all people",
    "icon": "https://steamcdn-a.akamaihd.net/steamcommunity/public/images/apps/1263370/c319bc1502d3291ecdf502aeebe29961fbc5f0b9.jpg",
    "icongray": "https://steamcdn-a.akamaihd.net/steamcommunity/public/images/apps/1263370/916378b920b1b6cc0bbcb01549b3448a2073b957.jpg"
  },
  {
    "name": "ACH_76",
    "defaultvalue": 0,
    "displayName": "A nose cone",
    "hidden": 0,
    "description": "Throw a gift to slime",
    "icon": "https://steamcdn-a.akamaihd.net/steamcommunity/public/images/apps/1263370/41b5f3b24808826e5fd4044c93edd0dba21d4b91.jpg",
    "icongray": "https://steamcdn-a.akamaihd.net/steamcommunity/public/images/apps/1263370/9aa0f403b477aac99cde287d195148b0084e03e1.jpg"
  },
  {
    "name": "ACH_77",
    "defaultvalue": 0,
    "displayName": "Clever clearance",
    "hidden": 0,
    "description": "Throw five gifts to slime",
    "icon": "https://steamcdn-a.akamaihd.net/steamcommunity/public/images/apps/1263370/a24ca7ea6365b0a1b5dc8084a0141f2ae50af535.jpg",
    "icongray": "https://steamcdn-a.akamaihd.net/steamcommunity/public/images/apps/1263370/d3af4ff1b3d8c1edc8a2c4e7e4c41f9fc9193007.jpg"
  },
  {
    "name": "ACH_78",
    "defaultvalue": 0,
    "displayName": "Practice makes perfect",
    "hidden": 0,
    "description": "Throw ten gifts to slime",
    "icon": "https://steamcdn-a.akamaihd.net/steamcommunity/public/images/apps/1263370/0894692c984a0a8ed04d62f673609a42ff9e5e12.jpg",
    "icongray": "https://steamcdn-a.akamaihd.net/steamcommunity/public/images/apps/1263370/8e7a7951f5c7e662e7e7a9ae49e11125e1501c64.jpg"
  },
  {
    "name": "ACH_79",
    "defaultvalue": 0,
    "displayName": "Drowning duck",
    "hidden": 0,
    "description": "Die three times before save a girl",
    "icon": "https://steamcdn-a.akamaihd.net/steamcommunity/public/images/apps/1263370/7bac6fb9a5a598e79033a6b1579be0f93956cfb7.jpg",
    "icongray": "https://steamcdn-a.akamaihd.net/steamcommunity/public/images/apps/1263370/7f3a56bb4d93fa0bb1c5f078558ef1f3645532c8.jpg"
  },
  {
    "name": "ACH_80",
    "defaultvalue": 0,
    "displayName": "Greenhand ",
    "hidden": 0,
    "description": "Without getting hurt on the map, save two girls",
    "icon": "https://steamcdn-a.akamaihd.net/steamcommunity/public/images/apps/1263370/e1f03700021b1fdab6d3468c8818cd03acf716de.jpg",
    "icongray": "https://steamcdn-a.akamaihd.net/steamcommunity/public/images/apps/1263370/4e156ebc1892779e8bea09dc11b566bfcb022bf3.jpg"
  },
  {
    "name": "ACH_81",
    "defaultvalue": 0,
    "displayName": "Handle them with ease",
    "hidden": 0,
    "description": "Without getting hurt on the map, save four girls",
    "icon": "https://steamcdn-a.akamaihd.net/steamcommunity/public/images/apps/1263370/ae98900412f0c9ad7b489ab1ce9665b3d7c990db.jpg",
    "icongray": "https://steamcdn-a.akamaihd.net/steamcommunity/public/images/apps/1263370/2fe4691583cea81734baf1fe8c7e91a3e232a6eb.jpg"
  },
  {
    "name": "ACH_82",
    "defaultvalue": 0,
    "displayName": "Master Walker",
    "hidden": 0,
    "description": "Without getting hurt on the map, save six girls",
    "icon": "https://steamcdn-a.akamaihd.net/steamcommunity/public/images/apps/1263370/41d36f35ae26814e17702bc08b03a97f3842cf78.jpg",
    "icongray": "https://steamcdn-a.akamaihd.net/steamcommunity/public/images/apps/1263370/521489903636365bee93288794f4458aa5b44a21.jpg"
  },
  {
    "name": "ACH_83",
    "defaultvalue": 0,
    "displayName": "Just a try",
    "hidden": 0,
    "description": "Haven't eat any black heart",
    "icon": "https://steamcdn-a.akamaihd.net/steamcommunity/public/images/apps/1263370/fab71428cc588955cee2ee27c020a2c781d6ac64.jpg",
    "icongray": "https://steamcdn-a.akamaihd.net/steamcommunity/public/images/apps/1263370/93499993e5ab459e5786f16396e1c4cac03b3677.jpg"
  },
  {
    "name": "ACH_84",
    "defaultvalue": 0,
    "displayName": "Drifting clouds and flowing water",
    "hidden": 0,
    "description": "Haven't eat any black heart for nine times",
    "icon": "https://steamcdn-a.akamaihd.net/steamcommunity/public/images/apps/1263370/07d07c3ef37b6a7ba0068cb91bb262217fa5412d.jpg",
    "icongray": "https://steamcdn-a.akamaihd.net/steamcommunity/public/images/apps/1263370/ca685a7d1af541e293c0a7aa2f686d32f312ca5a.jpg"
  },
  {
    "name": "ACH_85",
    "defaultvalue": 0,
    "displayName": "So what?",
    "hidden": 0,
    "description": "Haven't eat any black heart",
    "icon": "https://steamcdn-a.akamaihd.net/steamcommunity/public/images/apps/1263370/2920d6c06d5e685ed98c9afe77c53e73283c14da.jpg",
    "icongray": "https://steamcdn-a.akamaihd.net/steamcommunity/public/images/apps/1263370/54153df123d0f57f6d341faf26f4130630c91d3c.jpg"
  },
  {
    "name": "ACH_86",
    "defaultvalue": 0,
    "displayName": "Dragon's arm",
    "hidden": 1,
    "icon": "https://steamcdn-a.akamaihd.net/steamcommunity/public/images/apps/1263370/728a05ca2a304ff5b62cf6a6145e9488fbe48778.jpg",
    "icongray": "https://steamcdn-a.akamaihd.net/steamcommunity/public/images/apps/1263370/09b9173688e2fe53c90033a867cdaa995c4eaedf.jpg"
  },
  {
    "name": "ACH_87",
    "defaultvalue": 0,
    "displayName": "Dragon's leg",
    "hidden": 1,
    "icon": "https://steamcdn-a.akamaihd.net/steamcommunity/public/images/apps/1263370/c8b319afed54b6a7d027f8e865f9f966e2021a2a.jpg",
    "icongray": "https://steamcdn-a.akamaihd.net/steamcommunity/public/images/apps/1263370/d3b124d23404f28ea3cf18a2e6b62ffc2b091569.jpg"
  },
  {
    "name": "ACH_88",
    "defaultvalue": 0,
    "displayName": "Dragon's private parts",
    "hidden": 1,
    "icon": "https://steamcdn-a.akamaihd.net/steamcommunity/public/images/apps/1263370/3e737990de757e50c6b4b22460e781bed7afa1fa.jpg",
    "icongray": "https://steamcdn-a.akamaihd.net/steamcommunity/public/images/apps/1263370/6a52b28d42511db48b9c6484db7c737f7f6a4353.jpg"
  },
  {
    "name": "ACH_89",
    "defaultvalue": 0,
    "displayName": "Dragon ?",
    "hidden": 1,
    "icon": "https://steamcdn-a.akamaihd.net/steamcommunity/public/images/apps/1263370/faafc7d638004d279417b70aab8fad08df08ad4f.jpg",
    "icongray": "https://steamcdn-a.akamaihd.net/steamcommunity/public/images/apps/1263370/5d8931659da47046e525df1811b86e951cb8bf81.jpg"
  },
  {
    "name": "ACH_90",
    "defaultvalue": 0,
    "displayName": "Confidential multiplier",
    "hidden": 1,
    "icon": "https://steamcdn-a.akamaihd.net/steamcommunity/public/images/apps/1263370/bd555c2627e7fe0ede1ae82c198b7d1a1838c10c.jpg",
    "icongray": "https://steamcdn-a.akamaihd.net/steamcommunity/public/images/apps/1263370/bab2ee5449f1b8a30a55a3cbcc409ec35dc43c15.jpg"
  },
  {
    "name": "ACH_91",
    "defaultvalue": 0,
    "displayName": "True colour",
    "hidden": 1,
    "icon": "https://steamcdn-a.akamaihd.net/steamcommunity/public/images/apps/1263370/8ce796a1e1a0edda5a5a013678966ca1d62e7458.jpg",
    "icongray": "https://steamcdn-a.akamaihd.net/steamcommunity/public/images/apps/1263370/72d6652943eeebbc16dd30d8cebc2c9891475b9c.jpg"
  },
  {
    "name": "ACH_92",
    "defaultvalue": 0,
    "displayName": "Human confused",
    "hidden": 1,
    "icon": "https://steamcdn-a.akamaihd.net/steamcommunity/public/images/apps/1263370/ebed61d52b3d2f2ed13e0a4bc87e8254e8e44980.jpg",
    "icongray": "https://steamcdn-a.akamaihd.net/steamcommunity/public/images/apps/1263370/e9571d78f42a895918d2a77baf2675dd9907d9a4.jpg"
  },
  {
    "name": "ACH_93",
    "defaultvalue": 0,
    "displayName": "Registrar",
    "hidden": 0,
    "description": "Ten characters were collected",
    "icon": "https://steamcdn-a.akamaihd.net/steamcommunity/public/images/apps/1263370/6971e3279229d799b2a0d07de8e5c4cf2a87f9ed.jpg",
    "icongray": "https://steamcdn-a.akamaihd.net/steamcommunity/public/images/apps/1263370/c484222c79f16fc967cf7d798cfecb5427f4d618.jpg"
  },
  {
    "name": "ACH_94",
    "defaultvalue": 0,
    "displayName": "Collector",
    "hidden": 0,
    "description": "All characters were collected",
    "icon": "https://steamcdn-a.akamaihd.net/steamcommunity/public/images/apps/1263370/46ad1a75b75cea622bee3d552645764e7a577570.jpg",
    "icongray": "https://steamcdn-a.akamaihd.net/steamcommunity/public/images/apps/1263370/b7b7797ea67d51b9f2fc0730e6e144580b2bd48f.jpg"
  },
  {
    "name": "ACH_95",
    "defaultvalue": 0,
    "displayName": "The taste of betrayal",
    "hidden": 1,
    "icon": "https://steamcdn-a.akamaihd.net/steamcommunity/public/images/apps/1263370/e8fb364fdf636f33c5f49c18d9f73f61b778a93b.jpg",
    "icongray": "https://steamcdn-a.akamaihd.net/steamcommunity/public/images/apps/1263370/d4295ded60b4fbfd40973f3efab21745a0f2b05c.jpg"
  },
  {
    "name": "ACH_96",
    "defaultvalue": 0,
    "displayName": "A easy life",
    "hidden": 1,
    "icon": "https://steamcdn-a.akamaihd.net/steamcommunity/public/images/apps/1263370/2231e8265cef52a99537e505195ea36249419c08.jpg",
    "icongray": "https://steamcdn-a.akamaihd.net/steamcommunity/public/images/apps/1263370/0429126d2a530b30a1e675a27ec0b3f9b0ef4656.jpg"
  },
  {
    "name": "ACH_97",
    "defaultvalue": 0,
    "displayName": "A corrupt life",
    "hidden": 1,
    "icon": "https://steamcdn-a.akamaihd.net/steamcommunity/public/images/apps/1263370/13198ec271154119bec02eb9914ad7eea4336832.jpg",
    "icongray": "https://steamcdn-a.akamaihd.net/steamcommunity/public/images/apps/1263370/691c741929e182481f8d4169910aefced13eb8f3.jpg"
  },
  {
    "name": "ACH_98",
    "defaultvalue": 0,
    "displayName": "Perfect pass",
    "hidden": 1,
    "icon": "https://steamcdn-a.akamaihd.net/steamcommunity/public/images/apps/1263370/60cb12328458f1ce9ca28e7a604cf2aa01c67fe0.jpg",
    "icongray": "https://steamcdn-a.akamaihd.net/steamcommunity/public/images/apps/1263370/2d8f37b9d26babf2cf15aef9b25ce82cd740a54a.jpg"
  },
  {
    "name": "ACH_99",
    "defaultvalue": 0,
    "displayName": "EEscaping warrior",
    "hidden": 1,
    "icon": "https://steamcdn-a.akamaihd.net/steamcommunity/public/images/apps/1263370/0c24730f7ffe73c2c06058b5078822687d2de048.jpg",
    "icongray": "https://steamcdn-a.akamaihd.net/steamcommunity/public/images/apps/1263370/e0e9c2c849bb830d8879a4491888587c7a120760.jpg"
  },
  {
    "name": "ACH_100",
    "defaultvalue": 0,
    "displayName": "Egg",
    "hidden": 1,
    "icon": "https://steamcdn-a.akamaihd.net/steamcommunity/public/images/apps/1263370/36c1e9fb71225056143f31fa39734a6fedd02b29.jpg",
    "icongray": "https://steamcdn-a.akamaihd.net/steamcommunity/public/images/apps/1263370/549a3508aee8b284595c87fa265de1db1d91d3d8.jpg"
  }
]