[
  {
    "name": "arrests",
    "defaultvalue": 0,
    "displayName": "Arrests"
  },
  {
    "name": "matches_completed",
    "defaultvalue": 0,
    "displayName": "Matches Completed"
  },
  {
    "name": "matches_draw",
    "defaultvalue": 0,
    "displayName": "Matches Draw"
  },
  {
    "name": "matches_won",
    "defaultvalue": 0,
    "displayName": "Matches Won"
  },
  {
    "name": "matches_lost",
    "defaultvalue": 0,
    "displayName": "Matches Lost"
  },
  {
    "name": "survivals",
    "defaultvalue": 0,
    "displayName": "Survivals"
  },
  {
    "name": "captures",
    "defaultvalue": 0,
    "displayName": "Captures"
  },
  {
    "name": "team_arrests",
    "defaultvalue": 0,
    "displayName": "Team Arrests"
  },
  {
    "name": "got_arrested",
    "defaultvalue": 0,
    "displayName": "Arrested"
  },
  {
    "name": "team_damage",
    "defaultvalue": 0,
    "displayName": "Team Damage"
  },
  {
    "name": "team_kills",
    "defaultvalue": 0,
    "displayName": "Team Kills"
  },
  {
    "name": "kills",
    "defaultvalue": 0,
    "displayName": "Kills"
  },
  {
    "name": "deaths",
    "defaultvalue": 0,
    "displayName": "Deaths"
  }
]