[
  {
    "name": "CompleteDojo",
    "defaultvalue": 0,
    "displayName": "Training Montage",
    "hidden": 0,
    "description": "Complete the Tutorial Dojo in single player",
    "icon": "https://steamcdn-a.akamaihd.net/steamcommunity/public/images/apps/330670/e987fc43ca02d1c633a622ed872d3c7a0b44a979.jpg",
    "icongray": "https://steamcdn-a.akamaihd.net/steamcommunity/public/images/apps/330670/d34f729cce45f492505db38d444d1ad67e19731a.jpg"
  },
  {
    "name": "CompleteTemple",
    "defaultvalue": 0,
    "displayName": "Going Golem Gone",
    "hidden": 0,
    "description": "Complete the Jungle Temple in single player",
    "icon": "https://steamcdn-a.akamaihd.net/steamcommunity/public/images/apps/330670/de9f322b449b01747e4a4b76870fa01513ca1632.jpg",
    "icongray": "https://steamcdn-a.akamaihd.net/steamcommunity/public/images/apps/330670/a6e992f10b19351b6c3c3f58aaf21881f4670ed3.jpg"
  },
  {
    "name": "CompleteFactory",
    "defaultvalue": 0,
    "displayName": "Eye see what you did there",
    "hidden": 0,
    "description": "Complete the Robot Factory in single player",
    "icon": "https://steamcdn-a.akamaihd.net/steamcommunity/public/images/apps/330670/49193b2535a7e41d4c49cb967b1440656a2d8ed1.jpg",
    "icongray": "https://steamcdn-a.akamaihd.net/steamcommunity/public/images/apps/330670/71db761f32b64f5048a7ea3fa68c2b19418d2fae.jpg"
  },
  {
    "name": "CompleteMansion",
    "defaultvalue": 0,
    "displayName": "I ain't afraid of no ghost",
    "hidden": 0,
    "description": "Complete the Haunted Mansion in single player",
    "icon": "https://steamcdn-a.akamaihd.net/steamcommunity/public/images/apps/330670/e3bee59a62c0a28c7a5c088cd419f3573cbf531a.jpg",
    "icongray": "https://steamcdn-a.akamaihd.net/steamcommunity/public/images/apps/330670/ba92f8f473b12aac97ba7d92b6b43fa592a403a7.jpg"
  },
  {
    "name": "CompleteSpace",
    "defaultvalue": 0,
    "displayName": "Where no disc has gone before",
    "hidden": 0,
    "description": "Complete the Space Platform in single player",
    "icon": "https://steamcdn-a.akamaihd.net/steamcommunity/public/images/apps/330670/bed22540cc1c9ab5a2bda2ef07b3d2995cac087d.jpg",
    "icongray": "https://steamcdn-a.akamaihd.net/steamcommunity/public/images/apps/330670/88ca61034a8f90ffb348f365941d2d95df759533.jpg"
  },
  {
    "name": "CompletePirate",
    "defaultvalue": 0,
    "displayName": "You must be a Ninja",
    "hidden": 0,
    "description": "Complete the Pirate Ship in single player",
    "icon": "https://steamcdn-a.akamaihd.net/steamcommunity/public/images/apps/330670/64021177a43d584929cca785db20be907da63b0e.jpg",
    "icongray": "https://steamcdn-a.akamaihd.net/steamcommunity/public/images/apps/330670/9fc1967dcac69ab3deb54f07354a5315557ad47a.jpg"
  },
  {
    "name": "CompleteMine",
    "defaultvalue": 0,
    "displayName": "Dug too deep",
    "hidden": 0,
    "description": "Complete the Abandoned Mine in single player",
    "icon": "https://steamcdn-a.akamaihd.net/steamcommunity/public/images/apps/330670/d22f1af383b025a9c9e5334ac79a19e794ac18f0.jpg",
    "icongray": "https://steamcdn-a.akamaihd.net/steamcommunity/public/images/apps/330670/368523156390226a5d51ddb9cc1f194c963349d3.jpg"
  },
  {
    "name": "CompleteLava",
    "defaultvalue": 0,
    "displayName": "Too hot to handle",
    "hidden": 0,
    "description": "Complete the Volcano Lair in single player",
    "icon": "https://steamcdn-a.akamaihd.net/steamcommunity/public/images/apps/330670/35fe9cb9ff43adb632afda119de93bf5de6e4045.jpg",
    "icongray": "https://steamcdn-a.akamaihd.net/steamcommunity/public/images/apps/330670/beb4c0fb39d8837e2d0026224002672c20a74dce.jpg"
  },
  {
    "name": "CompleteForest",
    "defaultvalue": 0,
    "displayName": "Crashed the Teddy Bear's Picnic",
    "hidden": 0,
    "description": "Complete the Enchanted Forest in single player",
    "icon": "https://steamcdn-a.akamaihd.net/steamcommunity/public/images/apps/330670/f1e46b03785a735d8085fe399c7338725084fda1.jpg",
    "icongray": "https://steamcdn-a.akamaihd.net/steamcommunity/public/images/apps/330670/3b0a6076e8df87202b63cc37632ccc9e9cc4b8af.jpg"
  },
  {
    "name": "CompleteMuseum",
    "defaultvalue": 0,
    "displayName": "Didn't even have to spend the night",
    "hidden": 0,
    "description": "Complete the Museum Heist in single player",
    "icon": "https://steamcdn-a.akamaihd.net/steamcommunity/public/images/apps/330670/5cb0bd82e4dafb49addce3be19396a4a8a114ab4.jpg",
    "icongray": "https://steamcdn-a.akamaihd.net/steamcommunity/public/images/apps/330670/f281ffaef910545b0e6cf9b3af6fb52b376defa7.jpg"
  },
  {
    "name": "ARankFive",
    "defaultvalue": 0,
    "displayName": "4.0 Average",
    "hidden": 0,
    "description": "Achieve A Rank on any 5 levels in single player",
    "icon": "https://steamcdn-a.akamaihd.net/steamcommunity/public/images/apps/330670/c5e4ffa582cf09754fe944e21bdcddccd6b4f181.jpg",
    "icongray": "https://steamcdn-a.akamaihd.net/steamcommunity/public/images/apps/330670/52648c79bdc80a1d1566e373dc3af8fdf8998301.jpg"
  },
  {
    "name": "ARankTen",
    "defaultvalue": 0,
    "displayName": "The A Team",
    "hidden": 0,
    "description": "Achieve A Rank on all levels in single player",
    "icon": "https://steamcdn-a.akamaihd.net/steamcommunity/public/images/apps/330670/f52ddc41532af6d1989861cdc561725e913ea212.jpg",
    "icongray": "https://steamcdn-a.akamaihd.net/steamcommunity/public/images/apps/330670/916b7761d90a54ff94e57419d07dc50aa8eb646e.jpg"
  },
  {
    "name": "FirstMultiplayerGame",
    "defaultvalue": 0,
    "displayName": "Plays well with others",
    "hidden": 0,
    "description": "Try DiscStorm in multiplayer",
    "icon": "https://steamcdn-a.akamaihd.net/steamcommunity/public/images/apps/330670/0dfca6d67a98285c9d4bd488d68df69d29107735.jpg",
    "icongray": "https://steamcdn-a.akamaihd.net/steamcommunity/public/images/apps/330670/82c6fee2502db69b1d1333a116c6505e976a52c0.jpg"
  },
  {
    "name": "IAmTheWalrus",
    "defaultvalue": 0,
    "displayName": "Long in the tooth",
    "hidden": 0,
    "description": "Play multiplayer in the most walrus-like way you can",
    "icon": "https://steamcdn-a.akamaihd.net/steamcommunity/public/images/apps/330670/df8c43fe0e2e35bc1ccdcb5b71a05850f21b8632.jpg",
    "icongray": "https://steamcdn-a.akamaihd.net/steamcommunity/public/images/apps/330670/6dbe28173c5f0dffcdcc7949ded33cf9c4e1ae91.jpg"
  },
  {
    "name": "SelfKillDeathDisc",
    "defaultvalue": 0,
    "displayName": "Dances with death",
    "hidden": 0,
    "description": "What's the stupidest thing you could do with a Deathdisc?",
    "icon": "https://steamcdn-a.akamaihd.net/steamcommunity/public/images/apps/330670/d5da90e792d696eaf7b0cdb477a90f53b18cf29a.jpg",
    "icongray": "https://steamcdn-a.akamaihd.net/steamcommunity/public/images/apps/330670/8133327dacd39b27d0d2ea21b2e54bced1e30266.jpg"
  },
  {
    "name": "DeathDiscWinOneShot",
    "defaultvalue": 0,
    "displayName": "One in a million kid",
    "hidden": 0,
    "description": "Play multiplayer, get the Deathdisc first, then pull off the perfect shot",
    "icon": "https://steamcdn-a.akamaihd.net/steamcommunity/public/images/apps/330670/342ffcc40dcc2542f75197acad99aff74c7f12ea.jpg",
    "icongray": "https://steamcdn-a.akamaihd.net/steamcommunity/public/images/apps/330670/fce4d27a6159f842dbaafb132825e412ffb0346c.jpg"
  },
  {
    "name": "CompleteDojoNoHit",
    "defaultvalue": 0,
    "displayName": "Student becomes the master",
    "hidden": 0,
    "description": "Demonstrate complete mastery of the Tutorial Dojo",
    "icon": "https://steamcdn-a.akamaihd.net/steamcommunity/public/images/apps/330670/1fdab77463edd0418b316d1bf596a7797ac582aa.jpg",
    "icongray": "https://steamcdn-a.akamaihd.net/steamcommunity/public/images/apps/330670/fc25d7dd04ec4c0955d0d6f538be964c3c420e00.jpg"
  },
  {
    "name": "PlayXHours",
    "defaultvalue": 0,
    "displayName": "Marathon Man",
    "hidden": 0,
    "description": "The longer you play, the more you unlock!",
    "icon": "https://steamcdn-a.akamaihd.net/steamcommunity/public/images/apps/330670/60986865dafdb9db96c85f678da11e165a238fc2.jpg",
    "icongray": "https://steamcdn-a.akamaihd.net/steamcommunity/public/images/apps/330670/730d8bb7603b22c27e9b3a40a2e580132b582094.jpg"
  },
  {
    "name": "TargetDummiesOneShot",
    "defaultvalue": 0,
    "displayName": "Trick shot",
    "hidden": 0,
    "description": "Legends speak of a Discmaster who could hit 4 target dummies in a single shot...",
    "icon": "https://steamcdn-a.akamaihd.net/steamcommunity/public/images/apps/330670/31fff5b6f15a1825568f31ea69349b04a74ceb5f.jpg",
    "icongray": "https://steamcdn-a.akamaihd.net/steamcommunity/public/images/apps/330670/bf520ca1c0136b1c29735c03d576a36a597c4369.jpg"
  },
  {
    "name": "DeflectHit",
    "defaultvalue": 0,
    "displayName": "I think you dropped this",
    "hidden": 0,
    "description": "Awarded for skilful use of Deflect",
    "icon": "https://steamcdn-a.akamaihd.net/steamcommunity/public/images/apps/330670/c1ec2fc2c1a913b5ef685781b7a8544283e906fb.jpg",
    "icongray": "https://steamcdn-a.akamaihd.net/steamcommunity/public/images/apps/330670/7781d07cc7f224e1cf5a6a02ddfe034e1764e506.jpg"
  },
  {
    "name": "MinecartHitWin",
    "defaultvalue": 0,
    "displayName": "WEEEEEEEEEEEEEEEEEEE!",
    "hidden": 0,
    "description": "Win from inside the minecart",
    "icon": "https://steamcdn-a.akamaihd.net/steamcommunity/public/images/apps/330670/c91da2af14a793b3ce3f0da0693aaee95ceaad7e.jpg",
    "icongray": "https://steamcdn-a.akamaihd.net/steamcommunity/public/images/apps/330670/0f75b1b5e43e13f9223417ee144127eb0c61a788.jpg"
  },
  {
    "name": "SurvivalWinFullHealth",
    "defaultvalue": 0,
    "displayName": "I will survive",
    "hidden": 0,
    "description": "Dominate in multiplayer Survival",
    "icon": "https://steamcdn-a.akamaihd.net/steamcommunity/public/images/apps/330670/daf26accf2352399f1c4b618da7ccff65e12731d.jpg",
    "icongray": "https://steamcdn-a.akamaihd.net/steamcommunity/public/images/apps/330670/62d2143e1141691d513804ed2d094d20e8b26beb.jpg"
  },
  {
    "name": "TimebombLastSecond",
    "defaultvalue": 0,
    "displayName": "In the nick of time",
    "hidden": 0,
    "description": "In Timebomb, make your move at the last possible second",
    "icon": "https://steamcdn-a.akamaihd.net/steamcommunity/public/images/apps/330670/2432e7d99be37df018a8ab4121a26486ad96fbde.jpg",
    "icongray": "https://steamcdn-a.akamaihd.net/steamcommunity/public/images/apps/330670/10464c70e5baf4e294d2e5451fabb2c11afc03a7.jpg"
  },
  {
    "name": "DojoMasterKillDeflectOnly",
    "defaultvalue": 0,
    "displayName": "Return to sender",
    "hidden": 0,
    "description": "Defeat the Ninja Master without using any of your own discs",
    "icon": "https://steamcdn-a.akamaihd.net/steamcommunity/public/images/apps/330670/6c729b6208140d2ff9d17dd7dccd6bc5490ed0ee.jpg",
    "icongray": "https://steamcdn-a.akamaihd.net/steamcommunity/public/images/apps/330670/afbe0c18ca0c0c426c56c1acc202165c1fad9e0b.jpg"
  },
  {
    "name": "RegicideWinNoCrownSwap",
    "defaultvalue": 0,
    "displayName": "Dictatorship",
    "hidden": 0,
    "description": "Grab the crown first, and hold on for dear life!",
    "icon": "https://steamcdn-a.akamaihd.net/steamcommunity/public/images/apps/330670/77e62f69d9ebe3099eb6e2c079f9360b06ea3a69.jpg",
    "icongray": "https://steamcdn-a.akamaihd.net/steamcommunity/public/images/apps/330670/63758298f8f6e614bb22616794bd037f043cc0ac.jpg"
  },
  {
    "name": "CompleteFactoryNoRhinoDeath",
    "defaultvalue": 0,
    "displayName": "Save the Rhinos",
    "hidden": 0,
    "description": "Good guys don't throw discs at rhino bots",
    "icon": "https://steamcdn-a.akamaihd.net/steamcommunity/public/images/apps/330670/7b8d1467b6835cdbc5fba081ec903f31f2cbfc72.jpg",
    "icongray": "https://steamcdn-a.akamaihd.net/steamcommunity/public/images/apps/330670/197c54cf8e84afc92b8ce263848d5ae95af3811f.jpg"
  },
  {
    "name": "StunAlien",
    "defaultvalue": 0,
    "displayName": "Close Encounters",
    "hidden": 0,
    "description": "Set phasers to Stun",
    "icon": "https://steamcdn-a.akamaihd.net/steamcommunity/public/images/apps/330670/d6bc570afca7ad191ff13aaa4c64625ef86d2371.jpg",
    "icongray": "https://steamcdn-a.akamaihd.net/steamcommunity/public/images/apps/330670/7aeddd9967ba9a31f4fcf01460bf9d13c88a9a79.jpg"
  },
  {
    "name": "LavaLordThreeBombsOnly",
    "defaultvalue": 0,
    "displayName": "Two is enough thank you",
    "hidden": 0,
    "description": "Deal with the Lava Lord, fast",
    "icon": "https://steamcdn-a.akamaihd.net/steamcommunity/public/images/apps/330670/f504d50c9cd7d7ef171b292509efcf2cf4a46113.jpg",
    "icongray": "https://steamcdn-a.akamaihd.net/steamcommunity/public/images/apps/330670/1ef7e3ca4c9d78e4b8172e137eaa30cb850e5256.jpg"
  },
  {
    "name": "BookcaseStun",
    "defaultvalue": 0,
    "displayName": "You're out of here!",
    "hidden": 0,
    "description": "Stun a player through a bookcase",
    "icon": "https://steamcdn-a.akamaihd.net/steamcommunity/public/images/apps/330670/ff584266e9db686a2df6f7f13ff7629253077858.jpg",
    "icongray": "https://steamcdn-a.akamaihd.net/steamcommunity/public/images/apps/330670/2146b0189842799d5c16f28ec10c67ea64df4173.jpg"
  },
  {
    "name": "PlayXMatches",
    "defaultvalue": 0,
    "displayName": "Doing the Rounds!",
    "hidden": 0,
    "description": "The longer you play, the more you unlock!",
    "icon": "https://steamcdn-a.akamaihd.net/steamcommunity/public/images/apps/330670/526b3518ebfe4702a89f11988b6ad0a098445b45.jpg",
    "icongray": "https://steamcdn-a.akamaihd.net/steamcommunity/public/images/apps/330670/c2bae817a7927c70850c8f39ce82e8a968b59881.jpg"
  }
]