﻿[
  {
    "name": "E_TROPHY_TREASURE_HUNTER_1",
    "defaultvalue": 0,
    "displayName": "Treasure Hunter 1",
    "hidden": 0,
    "description": "Get all the treasure from Episode 1",
    "icon": "https://steamcdn-a.akamaihd.net/steamcommunity/public/images/apps/255870/c6261a104971fa19fdb3e64087a16646e9dbf154.jpg",
    "icongray": "https://steamcdn-a.akamaihd.net/steamcommunity/public/images/apps/255870/2eaeefc3d4a8be939d6c67d1324f928c2af3002e.jpg"
  },
  {
    "name": "E_TROPHY_TREASURE_HUNTER_2",
    "defaultvalue": 0,
    "displayName": "Treasure Hunter 2",
    "hidden": 0,
    "description": "Get all the treasure from Episode 2",
    "icon": "https://steamcdn-a.akamaihd.net/steamcommunity/public/images/apps/255870/1c174aad4b47e97508baabdf0d80d45ec2689f9d.jpg",
    "icongray": "https://steamcdn-a.akamaihd.net/steamcommunity/public/images/apps/255870/32f9911adc2ce823515489f31439496072568a43.jpg"
  },
  {
    "name": "E_TROPHY_TREASURE_HUNTER_3",
    "defaultvalue": 0,
    "displayName": "Treasure Hunter 3",
    "hidden": 0,
    "description": "Get all the treasure from Episode 3",
    "icon": "https://steamcdn-a.akamaihd.net/steamcommunity/public/images/apps/255870/737ead4835492cf6bf64de5b3075ff494f3ded6e.jpg",
    "icongray": "https://steamcdn-a.akamaihd.net/steamcommunity/public/images/apps/255870/49b82307188cb9dcaa0cb2854c125a416eea61f8.jpg"
  },
  {
    "name": "E_TROPHY_A_TRUE_HERO",
    "defaultvalue": 0,
    "displayName": "A True Hero (Episode 1, 2, 3)",
    "hidden": 0,
    "description": "Safely rescue all normal survivors.",
    "icon": "https://steamcdn-a.akamaihd.net/steamcommunity/public/images/apps/255870/5e147dc6e691820dced3c519fe92271c0536541c.jpg",
    "icongray": "https://steamcdn-a.akamaihd.net/steamcommunity/public/images/apps/255870/059a28749021ea815b5b3b4236bfc3e190db5f60.jpg"
  },
  {
    "name": "E_TROPHY_ART_COLLECTOR",
    "defaultvalue": 0,
    "displayName": "Art Collector",
    "hidden": 0,
    "description": "Collect each and every special survivor to fill your gallery.",
    "icon": "https://steamcdn-a.akamaihd.net/steamcommunity/public/images/apps/255870/bdbedc9fe55b7168fef77bdecd8cd459b70b8d59.jpg",
    "icongray": "https://steamcdn-a.akamaihd.net/steamcommunity/public/images/apps/255870/75caeca9a694d8cc4756d54dc317253aa814c420.jpg"
  },
  {
    "name": "E_TROPHY_NO_STONE_UNTURNED",
    "defaultvalue": 0,
    "displayName": "No Stone Unturned",
    "hidden": 0,
    "description": "Discover all secret areas in the game.",
    "icon": "https://steamcdn-a.akamaihd.net/steamcommunity/public/images/apps/255870/5eef2789796fb9da53a064c683f6ef6c497a7a41.jpg",
    "icongray": "https://steamcdn-a.akamaihd.net/steamcommunity/public/images/apps/255870/02e8de1701d315f7cfca81c8ce1e9a6d2b20e50d.jpg"
  },
  {
    "name": "E_TROPHY_COIN_COLLECTOR",
    "defaultvalue": 0,
    "displayName": "Coin Collector",
    "hidden": 0,
    "description": "Pick up 100 coins in one spin",
    "icon": "https://steamcdn-a.akamaihd.net/steamcommunity/public/images/apps/255870/dec9d6ebb0865935f7585239a57ea81a8842b7e2.jpg",
    "icongray": "https://steamcdn-a.akamaihd.net/steamcommunity/public/images/apps/255870/a7e6c250bc96c714976ddd0dbbc15127e19b19ba.jpg"
  },
  {
    "name": "E_TROPHY_SHARP_SHOOTER",
    "defaultvalue": 0,
    "displayName": "Sharp Shooter",
    "hidden": 0,
    "description": "Build a combo of 16 or over",
    "icon": "https://steamcdn-a.akamaihd.net/steamcommunity/public/images/apps/255870/d43deee1e4710ab06a094fbcc2e0a51799335365.jpg",
    "icongray": "https://steamcdn-a.akamaihd.net/steamcommunity/public/images/apps/255870/1cdfe9ff2d5c48326d76e0c5be307bffcfc99301.jpg"
  },
  {
    "name": "E_TROPHY_CAVE_CLEANER",
    "defaultvalue": 0,
    "displayName": "Cave Cleaner",
    "hidden": 0,
    "description": "Kill over 100 enemies",
    "icon": "https://steamcdn-a.akamaihd.net/steamcommunity/public/images/apps/255870/44b16d3993a16c3aea29449915f7d3beab1f405d.jpg",
    "icongray": "https://steamcdn-a.akamaihd.net/steamcommunity/public/images/apps/255870/e10ea6da05a0dab7927d0ed24ab02ec75c848450.jpg"
  },
  {
    "name": "E_TROPHY_CAVE_CLEANER_PRO",
    "defaultvalue": 0,
    "displayName": "Cave Cleaner Pro",
    "hidden": 0,
    "description": "Kill over 500 enemies",
    "icon": "https://steamcdn-a.akamaihd.net/steamcommunity/public/images/apps/255870/824f9fa3ba174b1f25e15841c8d88f2eac8e26be.jpg",
    "icongray": "https://steamcdn-a.akamaihd.net/steamcommunity/public/images/apps/255870/e64a2999bb51485254e602fec8255d053f611d2b.jpg"
  },
  {
    "name": "E_TROPHY_CAVE_CLEANER_SUPREME",
    "defaultvalue": 0,
    "displayName": "Cave Cleaner Supreme",
    "hidden": 0,
    "description": "Kill over 1000 enemies",
    "icon": "https://steamcdn-a.akamaihd.net/steamcommunity/public/images/apps/255870/b15435867b4acf5dd893f718821b4b6952846bde.jpg",
    "icongray": "https://steamcdn-a.akamaihd.net/steamcommunity/public/images/apps/255870/6ad979c7064066559830723de50c4fd090a53b50.jpg"
  },
  {
    "name": "E_TROPHY_LIQUID_LOVE",
    "defaultvalue": 0,
    "displayName": "Liquid Love",
    "hidden": 0,
    "description": "Kill over 100 enemies using fluids rather than weapons",
    "icon": "https://steamcdn-a.akamaihd.net/steamcommunity/public/images/apps/255870/86b362f74437131c2c7c1b76439bfa293305cd0f.jpg",
    "icongray": "https://steamcdn-a.akamaihd.net/steamcommunity/public/images/apps/255870/2022fcd759a015553574ac35b10aa084b083a0f7.jpg"
  },
  {
    "name": "E_TROPHY_DONT_TOUCH_ME",
    "defaultvalue": 0,
    "displayName": "Don’t Touch Me",
    "hidden": 0,
    "description": "Clear a stage without touching any walls.",
    "icon": "https://steamcdn-a.akamaihd.net/steamcommunity/public/images/apps/255870/b98ef448180fb6e59339ef7e9aaa1bf0a25f60f8.jpg",
    "icongray": "https://steamcdn-a.akamaihd.net/steamcommunity/public/images/apps/255870/3ed0fffb48813fef93a351e16b61f41126d67835.jpg"
  },
  {
    "name": "E_TROPHY_DOUBLE_ELEVEN",
    "defaultvalue": 0,
    "displayName": "Double Eleven",
    "hidden": 0,
    "description": "Play the game at 11:11 am",
    "icon": "https://steamcdn-a.akamaihd.net/steamcommunity/public/images/apps/255870/638140ebea57224ebedcbfc54b50a4644b4b8170.jpg",
    "icongray": "https://steamcdn-a.akamaihd.net/steamcommunity/public/images/apps/255870/f1439a090249d253d5dcca46be0ff24940ad067a.jpg"
  },
  {
    "name": "E_TROPHY_PLATINUM",
    "defaultvalue": 0,
    "displayName": "The Platinum Trophy",
    "hidden": 0,
    "description": "Especially for YOU!",
    "icon": "https://steamcdn-a.akamaihd.net/steamcommunity/public/images/apps/255870/d1c5c43e29b2cb7f93733e5f0652c73aa2bda527.jpg",
    "icongray": "https://steamcdn-a.akamaihd.net/steamcommunity/public/images/apps/255870/e9a32f5c99b8eba4b8ecc88a165e202c129da960.jpg"
  }
]