{
  "Dlcs": {},
  "Name": "Zoo Park",
  "AppId": "307760",
  "ImageUrl": "https://steamcdn-a.akamaihd.net/steam/apps/307760/header.jpg?t=1528357626",
  "Languages": [
    "english",
    "french",
    "italian",
    "german",
    "spanish",
    "hungarian"
  ],
  "Platforms": {
    "windows": true,
    "mac": false,
    "linux": false
  }
}