{
  "Dlcs": {
    "1403950": {
      "Name": "Boobs VR 2",
      "ImageUrl": "https://steamcdn-a.akamaihd.net/steam/apps/1403950/header.jpg?t=1599291831"
    },
    "1411390": {
      "Name": "Boobs VR 3",
      "ImageUrl": "https://steamcdn-a.akamaihd.net/steam/apps/1411390/header.jpg?t=1599291884"
    },
    "1411510": {
      "Name": "Boobs VR 4",
      "ImageUrl": "https://steamcdn-a.akamaihd.net/steam/apps/1411510/header.jpg?t=1599291938"
    }
  },
  "Name": "Boobs VR",
  "AppId": "1398790",
  "ImageUrl": "https://steamcdn-a.akamaihd.net/steam/apps/1398790/header.jpg?t=1599292087",
  "Languages": [
    "english",
    "french",
    "italian",
    "german",
    "spanish",
    "arabic",
    "ukrainian",
    "dutch",
    "greek",
    "swedish",
    "latam",
    "thai",
    "czech",
    "danish",
    "turkish",
    "norwegian",
    "hungarian",
    "finnish",
    "bulgarian",
    "vietnamese",
    "portuguese",
    "portuguese",
    "polish",
    "romanian",
    "russian",
    "schinese",
    "tchinese",
    "japanese",
    "korean"
  ],
  "Platforms": {
    "windows": true,
    "mac": false,
    "linux": false
  }
}