﻿[
  {
    "name": "ACH_Underground",
    "defaultvalue": 0,
    "displayName": "Basement !",
    "hidden": 0,
    "description": "Unlock the first door in the game",
    "icon": "https://steamcdn-a.akamaihd.net/steamcommunity/public/images/apps/1240730/d019c3a67a127beb79e2af1f425fb699c7727360.jpg",
    "icongray": "https://steamcdn-a.akamaihd.net/steamcommunity/public/images/apps/1240730/5147c71f138e62ffe9d73f0c45c1585f51b699fd.jpg"
  },
  {
    "name": "ACH_SecondFloor",
    "defaultvalue": 0,
    "displayName": "Second Floor !",
    "hidden": 0,
    "description": "Solve the first puzzle in the game",
    "icon": "https://steamcdn-a.akamaihd.net/steamcommunity/public/images/apps/1240730/37fce7ec4d0810810ee5d201062fcb2c2b21f5b5.jpg",
    "icongray": "https://steamcdn-a.akamaihd.net/steamcommunity/public/images/apps/1240730/c3555de7a2730a2fcea68ced539688c8ebe593df.jpg"
  },
  {
    "name": "ACH_Computer",
    "defaultvalue": 0,
    "displayName": "Computer !",
    "hidden": 0,
    "description": "Find the computer password",
    "icon": "https://steamcdn-a.akamaihd.net/steamcommunity/public/images/apps/1240730/3cb8139022a3a6c23599b9b6911a3c108ca917e1.jpg",
    "icongray": "https://steamcdn-a.akamaihd.net/steamcommunity/public/images/apps/1240730/c6e246ceaa5e0943b9405673812717ec7979a746.jpg"
  },
  {
    "name": "ACH_Handwriting",
    "defaultvalue": 0,
    "displayName": "Handwriting !",
    "hidden": 1,
    "icon": "https://steamcdn-a.akamaihd.net/steamcommunity/public/images/apps/1240730/022839a80df64e5d1388b8b147ec6fac3f9c6833.jpg",
    "icongray": "https://steamcdn-a.akamaihd.net/steamcommunity/public/images/apps/1240730/4c7e1e55e6724b85ae8bfb1cf4dbaa79a88c6dfc.jpg"
  },
  {
    "name": "ACH_Key",
    "defaultvalue": 0,
    "displayName": "Exit Key !",
    "hidden": 0,
    "description": "Find the exit door password",
    "icon": "https://steamcdn-a.akamaihd.net/steamcommunity/public/images/apps/1240730/fab7712296f203d2fe8e142462cd8e8da07ad794.jpg",
    "icongray": "https://steamcdn-a.akamaihd.net/steamcommunity/public/images/apps/1240730/ad93142a29644b226b66d679caede5e346a66368.jpg"
  },
  {
    "name": "ACH_Escape",
    "defaultvalue": 0,
    "displayName": "Easy !",
    "hidden": 0,
    "description": "Unlock the first ending of the game !",
    "icon": "https://steamcdn-a.akamaihd.net/steamcommunity/public/images/apps/1240730/97ba70d63692316256c586882bb69e02a2463eb1.jpg",
    "icongray": "https://steamcdn-a.akamaihd.net/steamcommunity/public/images/apps/1240730/eaa8f7f186bef7d0bff26049ab4b99a26d8b2136.jpg"
  },
  {
    "name": "ACH_Checkmate",
    "defaultvalue": 0,
    "displayName": "Normal !",
    "hidden": 0,
    "description": "Unlock the second ending of the game !",
    "icon": "https://steamcdn-a.akamaihd.net/steamcommunity/public/images/apps/1240730/c655c4967efea41c9de8091b05be437dd42bddd3.jpg",
    "icongray": "https://steamcdn-a.akamaihd.net/steamcommunity/public/images/apps/1240730/96478115a1318265f9c1d42e1deacaf880de4e34.jpg"
  },
  {
    "name": "ACH_Completed",
    "defaultvalue": 0,
    "displayName": "Hard !",
    "hidden": 0,
    "description": "Unlock the third ending of the game !",
    "icon": "https://steamcdn-a.akamaihd.net/steamcommunity/public/images/apps/1240730/1981819e6226a800a386fb1738d7e293688aa5b3.jpg",
    "icongray": "https://steamcdn-a.akamaihd.net/steamcommunity/public/images/apps/1240730/d20b3a65a3e13542b274fc5f31900f5faa16273b.jpg"
  },
  {
    "name": "ACH_Easy",
    "defaultvalue": 0,
    "displayName": "Purgatory !",
    "hidden": 0,
    "description": "Start the purgatory mod",
    "icon": "https://steamcdn-a.akamaihd.net/steamcommunity/public/images/apps/1240730/9fc98d052b9bf11586e8ce9a7782273bd635faf9.jpg",
    "icongray": "https://steamcdn-a.akamaihd.net/steamcommunity/public/images/apps/1240730/9b55d5b2c6a3b13aefe5e09f0545677c62580e83.jpg"
  },
  {
    "name": "ACH_Normal",
    "defaultvalue": 0,
    "displayName": "Green Stone !",
    "hidden": 0,
    "description": "Start the green stone mod",
    "icon": "https://steamcdn-a.akamaihd.net/steamcommunity/public/images/apps/1240730/8fbdc9b07e12ff5b7d73e4f22cb8407104317310.jpg",
    "icongray": "https://steamcdn-a.akamaihd.net/steamcommunity/public/images/apps/1240730/fc13739f6bfef0dd71e5b4b5973f6d1223473c67.jpg"
  },
  {
    "name": "ACH_Hard",
    "defaultvalue": 0,
    "displayName": "Top Secret !",
    "hidden": 0,
    "description": "Start the top secret mod",
    "icon": "https://steamcdn-a.akamaihd.net/steamcommunity/public/images/apps/1240730/1fb4ada847bc7d272347b09f5b68e5935d48c612.jpg",
    "icongray": "https://steamcdn-a.akamaihd.net/steamcommunity/public/images/apps/1240730/b59e1a39a9634890571e1a2b09312958c2e42d37.jpg"
  },
  {
    "name": "ACH_Credits",
    "defaultvalue": 0,
    "displayName": "Credits !",
    "hidden": 1,
    "icon": "https://steamcdn-a.akamaihd.net/steamcommunity/public/images/apps/1240730/241cd7122e6b37fa61733171e3edcdb57d839533.jpg",
    "icongray": "https://steamcdn-a.akamaihd.net/steamcommunity/public/images/apps/1240730/b305a6fe7de629ab1fe6663d683a1d565eba6ed2.jpg"
  }
]