{
  "Dlcs": {
    "1278120": {
      "Name": "Love with Kadyrov - Exclusive 18+ DLC",
      "ImageUrl": "https://steamcdn-a.akamaihd.net/steam/apps/1278120/header.jpg?t=1592245275"
    }
  },
  "Name": "Love with Kadyrov",
  "AppId": "1152810",
  "ImageUrl": "https://steamcdn-a.akamaihd.net/steam/apps/1152810/header.jpg?t=1592245195",
  "Languages": [
    "english",
    "russian",
    "french",
    "italian",
    "german",
    "spanish",
    "tchinese",
    "schinese",
    "korean",
    "japanese",
    "ukrainian"
  ],
  "Platforms": {
    "windows": true,
    "mac": false,
    "linux": false
  }
}