{
  "Dlcs": {},
  "Name": "Stirring Abyss",
  "AppId": "1178210",
  "ImageUrl": "https://steamcdn-a.akamaihd.net/steam/apps/1178210/header.jpg?t=1594972609",
  "Languages": [
    "english"
  ],
  "Platforms": {
    "windows": true,
    "mac": false,
    "linux": false
  }
}