{
  "Dlcs": {},
  "Name": "Wire up!",
  "AppId": "1252920",
  "ImageUrl": "https://steamcdn-a.akamaihd.net/steam/apps/1252920/header.jpg?t=1590158942",
  "Languages": [
    "english"
  ],
  "Platforms": {
    "windows": true,
    "mac": false,
    "linux": false
  }
}