{
  "Dlcs": {},
  "Name": "Kawanakajima no Kassen / 川中島の合戦",
  "AppId": "724310",
  "ImageUrl": "https://steamcdn-a.akamaihd.net/steam/apps/724310/header.jpg?t=1583319255",
  "Languages": [
    "japanese"
  ],
  "Platforms": {
    "windows": true,
    "mac": false,
    "linux": false
  }
}