{
  "Dlcs": {},
  "Name": "HAUNTED: Halloween '86 (The Curse Of Possum Hollow)",
  "AppId": "607490",
  "ImageUrl": "https://steamcdn-a.akamaihd.net/steam/apps/607490/header.jpg?t=1523847668",
  "Languages": [
    "english"
  ],
  "Platforms": {
    "windows": true,
    "mac": false,
    "linux": false
  }
}