[
  {
    "name": "STAT_GAMEOVER",
    "defaultvalue": 0,
    "displayName": "Deaths"
  },
  {
    "name": "STAT_NEWGAME",
    "defaultvalue": 0,
    "displayName": "Games Played"
  },
  {
    "name": "STAT_FINISHGAME",
    "defaultvalue": 0,
    "displayName": "Games Finished"
  },
  {
    "name": "STAT_MUSHROOMSHOWERJUMPS",
    "defaultvalue": 0,
    "displayName": "Jumps on showering mushroom"
  },
  {
    "name": "STAT_ELECTROCUTECRAPPER",
    "defaultvalue": 0,
    "displayName": "Scrapper electrocuted"
  },
  {
    "name": "STAT_KILLEDBYLIGHTHOUSE",
    "defaultvalue": 0,
    "displayName": "Abducted by lighthouse"
  },
  {
    "name": "STAT_DISINTEGRATEDBYLASER",
    "defaultvalue": 0,
    "displayName": "Disintegrated by laser"
  },
  {
    "name": "STAT_DROWNEDINLAVA",
    "defaultvalue": 0,
    "displayName": "Drowned in Lava"
  }
]