{
  "Dlcs": {},
  "Name": "Zombie Forest 2",
  "AppId": "833010",
  "ImageUrl": "https://steamcdn-a.akamaihd.net/steam/apps/833010/header.jpg?t=1527526771",
  "Languages": [
    "english",
    "russian"
  ],
  "Platforms": {
    "windows": true,
    "mac": false,
    "linux": false
  }
}