[
  {
    "name": "MainStory_Chapter1",
    "defaultvalue": 0,
    "displayName": "What is God?",
    "hidden": 0,
    "description": "A train running through the underground, conversations about children and God, sudden sreech of brakes. Chapter one completed. The story begins!",
    "icon": "https://steamcdn-a.akamaihd.net/steamcommunity/public/images/apps/411130/eecc63dfce6e74b5a9676a61eafde9ebbc92e569.jpg",
    "icongray": "https://steamcdn-a.akamaihd.net/steamcommunity/public/images/apps/411130/7f4fd57d7ad947e60a6839065bce7f99f6b6d621.jpg"
  },
  {
    "name": "MainStory_Chapter2",
    "defaultvalue": 0,
    "displayName": "Roadblock",
    "hidden": 0,
    "description": "What is there, inside the chest? Who are those people after your cargo? Chapter two completed.",
    "icon": "https://steamcdn-a.akamaihd.net/steamcommunity/public/images/apps/411130/a52c74f532bf2fa8fdf975caa177446a5ce44654.jpg",
    "icongray": "https://steamcdn-a.akamaihd.net/steamcommunity/public/images/apps/411130/7f4fd57d7ad947e60a6839065bce7f99f6b6d621.jpg"
  },
  {
    "name": "MainStory_Chapter3",
    "defaultvalue": 0,
    "displayName": "The silent machines",
    "hidden": 0,
    "description": "It's so damp and calm here, only the humming of machines disturbs the silence. Nobody is here. Just the machines and a dead body. Chapter three completed.",
    "icon": "https://steamcdn-a.akamaihd.net/steamcommunity/public/images/apps/411130/9d851fccba40440fb7662735cc2d354e497b2673.jpg",
    "icongray": "https://steamcdn-a.akamaihd.net/steamcommunity/public/images/apps/411130/7f4fd57d7ad947e60a6839065bce7f99f6b6d621.jpg"
  },
  {
    "name": "MainStory_Chapter4",
    "defaultvalue": 0,
    "displayName": "The passenger",
    "hidden": 0,
    "description": "An ordinary elevator trip is hardly exciting. But not today. And not with this particular companion. Chapter four completed.",
    "icon": "https://steamcdn-a.akamaihd.net/steamcommunity/public/images/apps/411130/133f74722e726078381b62a1c3515fb5232afe4b.jpg",
    "icongray": "https://steamcdn-a.akamaihd.net/steamcommunity/public/images/apps/411130/7f4fd57d7ad947e60a6839065bce7f99f6b6d621.jpg"
  },
  {
    "name": "PeoplesPatrol_Chapter3",
    "defaultvalue": 0,
    "displayName": "Patrol and the people",
    "hidden": 0,
    "description": "To hell with those smugglers! You can get your reward right now. I mean, you could... Chapter three of \"People's patrol\" route is completed.",
    "icon": "https://steamcdn-a.akamaihd.net/steamcommunity/public/images/apps/411130/d4a792f230455a2a05ffacf65c5e9519bd20c020.jpg",
    "icongray": "https://steamcdn-a.akamaihd.net/steamcommunity/public/images/apps/411130/7f4fd57d7ad947e60a6839065bce7f99f6b6d621.jpg"
  },
  {
    "name": "PeoplesPatrol_Chapter4",
    "defaultvalue": 0,
    "displayName": "People are bastards",
    "hidden": 0,
    "description": "So, this is the end. That wasn't exactly what you had expected. Chapter four of \"People's patrol\" route is completed.",
    "icon": "https://steamcdn-a.akamaihd.net/steamcommunity/public/images/apps/411130/611ed0197cdb44eac51e42b7540a3fd73c49d981.jpg",
    "icongray": "https://steamcdn-a.akamaihd.net/steamcommunity/public/images/apps/411130/7f4fd57d7ad947e60a6839065bce7f99f6b6d621.jpg"
  },
  {
    "name": "ControlRoom_AllCoins",
    "defaultvalue": 0,
    "displayName": "Forty-niner",
    "hidden": 0,
    "description": "Somebody has lived here, in this room with machines. And he left a bunch of gold stashes around. It seems you've found them all.",
    "icon": "https://steamcdn-a.akamaihd.net/steamcommunity/public/images/apps/411130/6928294bc32ce3911ad5c0dcad11e9cf3ffa3ee1.jpg",
    "icongray": "https://steamcdn-a.akamaihd.net/steamcommunity/public/images/apps/411130/bf43c4d918c714158d92e491bb37cfb35772814c.jpg"
  },
  {
    "name": "RedDress_Chapter5",
    "defaultvalue": 0,
    "displayName": "Social Issues ",
    "hidden": 0,
    "description": "A chance meeting in the elevator becomes a first step into the alien world of the aristocracy. The fifth chapter on the \"Red Dress\" route complete. ",
    "icon": "https://steamcdn-a.akamaihd.net/steamcommunity/public/images/apps/411130/1dac7d77b9f9e406ce21330289e651a3c56aa6a3.jpg",
    "icongray": "https://steamcdn-a.akamaihd.net/steamcommunity/public/images/apps/411130/7f4fd57d7ad947e60a6839065bce7f99f6b6d621.jpg"
  },
  {
    "name": "Reported_inquirers_body_in_control_room",
    "defaultvalue": 0,
    "displayName": "Responsible Citizen",
    "hidden": 0,
    "description": "Down there, in the deep, there is a corpse of a woman in Inquirer's uniform. It was your duty to report it.",
    "icon": "https://steamcdn-a.akamaihd.net/steamcommunity/public/images/apps/411130/277df590ee9ff879e66080a9ebcad45cc316765e.jpg",
    "icongray": "https://steamcdn-a.akamaihd.net/steamcommunity/public/images/apps/411130/bf43c4d918c714158d92e491bb37cfb35772814c.jpg"
  }
]