[
  {
    "name": "old_man_started",
    "defaultvalue": 0,
    "displayName": "OldManStarted"
  },
  {
    "name": "cat_petted",
    "defaultvalue": 0,
    "displayName": "CatPetted"
  },
  {
    "name": "old_man_complete",
    "defaultvalue": 0,
    "displayName": "OldManComplete"
  }
]