﻿{
  "SPINNERS_COMPLETE_TOTAL": {
    "description": "Spinners Completed",
    "value": 0
  },
  "MAZES_COMPLETE_TOTAL": {
    "description": "Mazes Completed",
    "value": 0
  },
  "GEOMETRICS_COMPLETE_TOTAL": {
    "description": "Geometrics Completed",
    "value": 0
  },
  "BUILDER_COMPLETE_TOTAL": {
    "description": "Builder Levels Completed",
    "value": 0
  }
}