{
  "Dlcs": {},
  "Name": "Frane: Dragons' Odyssey",
  "AppId": "265730",
  "ImageUrl": "https://steamcdn-a.akamaihd.net/steam/apps/265730/header.jpg?t=1584412450",
  "Languages": [
    "english",
    "japanese"
  ],
  "Platforms": {
    "windows": true,
    "mac": false,
    "linux": false
  }
}