{
  "Dlcs": {},
  "Name": "Unitied",
  "AppId": "1184900",
  "ImageUrl": "https://steamcdn-a.akamaihd.net/steam/apps/1184900/header.jpg?t=1591376205",
  "Languages": [
    "english"
  ],
  "Platforms": {
    "windows": true,
    "mac": true,
    "linux": true
  }
}