[
  {
    "name": "1_0",
    "defaultvalue": 0,
    "displayName": "Achievement_100_Player_Kills"
  },
  {
    "name": "1_1",
    "defaultvalue": 0,
    "displayName": "Achievement_500_Player_Kills"
  },
  {
    "name": "1_2",
    "defaultvalue": 0,
    "displayName": "Achievement_100_Headshots"
  },
  {
    "name": "1_3",
    "defaultvalue": 0,
    "displayName": "Achievement_200_Assist_Kills"
  },
  {
    "name": "1_4",
    "defaultvalue": 0,
    "displayName": "Achievement_50k_Total_Damage"
  },
  {
    "name": "1_5",
    "defaultvalue": 0,
    "displayName": "Achievement_10_First_Kill"
  },
  {
    "name": "1_6",
    "defaultvalue": 0,
    "displayName": "Achievement_Top_3_10_Times"
  },
  {
    "name": "1_7",
    "defaultvalue": 0,
    "displayName": "Achievement_50_Vendor_Visit"
  },
  {
    "name": "1_8",
    "defaultvalue": 0,
    "displayName": "Achievement_5_Weapon_Wrangler"
  },
  {
    "name": "1_9",
    "defaultvalue": 0,
    "displayName": "Achievement_100_Powerups_Collected"
  }
]