{
  "Dlcs": {},
  "Name": "Nauticrawl",
  "AppId": "922100",
  "ImageUrl": "https://steamcdn-a.akamaihd.net/steam/apps/922100/header.jpg?t=1594762603",
  "Languages": [
    "english",
    "french",
    "italian",
    "german",
    "spanish",
    "latam",
    "russian",
    "schinese"
  ],
  "Platforms": {
    "windows": true,
    "mac": true,
    "linux": false
  }
}