[
  {
    "name": "ACHIEVEMENT_00",
    "defaultvalue": 0,
    "displayName": "Hero Time",
    "hidden": 0,
    "description": "Earn every trophy in the game",
    "icon": "https://steamcdn-a.akamaihd.net/steamcommunity/public/images/apps/703180/8d6a696426f85b5b51220ae3664c62dc7a1c99f3.jpg",
    "icongray": "https://steamcdn-a.akamaihd.net/steamcommunity/public/images/apps/703180/252b6e5141e24a5658c1cc2b6d474acaa4c18daa.jpg"
  },
  {
    "name": "ACHIEVEMENT_01",
    "defaultvalue": 0,
    "displayName": "The Prime Destructive",
    "hidden": 0,
    "description": "Finish the game",
    "icon": "https://steamcdn-a.akamaihd.net/steamcommunity/public/images/apps/703180/f24c0b4862601c38abe6f7530d6231f21a3963a0.jpg",
    "icongray": "https://steamcdn-a.akamaihd.net/steamcommunity/public/images/apps/703180/42926ce7a966c35fa31ed7bb04491485d8fb55fb.jpg"
  },
  {
    "name": "ACHIEVEMENT_02",
    "defaultvalue": 0,
    "displayName": "And Then There Were Ten",
    "hidden": 0,
    "description": "Completely upgrade all aliens",
    "icon": "https://steamcdn-a.akamaihd.net/steamcommunity/public/images/apps/703180/2a97b563dbc9aa015f2f310b08235fe27357e685.jpg",
    "icongray": "https://steamcdn-a.akamaihd.net/steamcommunity/public/images/apps/703180/cb4b3cbd97c5456004ddb003df6efcab71fcd5d2.jpg"
  },
  {
    "name": "ACHIEVEMENT_03",
    "defaultvalue": 0,
    "displayName": "Ben 10%",
    "hidden": 0,
    "description": "Completely upgrade one alien",
    "icon": "https://steamcdn-a.akamaihd.net/steamcommunity/public/images/apps/703180/61f137d28519af6fbbb3213f17a9538c6ea18c85.jpg",
    "icongray": "https://steamcdn-a.akamaihd.net/steamcommunity/public/images/apps/703180/1fc8f117ca0715bfaf19f57f691ecbae861709eb.jpg"
  },
  {
    "name": "ACHIEVEMENT_04",
    "defaultvalue": 0,
    "displayName": "SUMO Blue",
    "hidden": 0,
    "description": "Collect a Sumo Slammer card",
    "icon": "https://steamcdn-a.akamaihd.net/steamcommunity/public/images/apps/703180/1fa9b6294704c6896c806ca63eb90b24f2c40e00.jpg",
    "icongray": "https://steamcdn-a.akamaihd.net/steamcommunity/public/images/apps/703180/61df7072c40c36c27dd9f55a7852ad9c5e5ceab3.jpg"
  },
  {
    "name": "ACHIEVEMENT_05",
    "defaultvalue": 0,
    "displayName": "SUMO Red",
    "hidden": 0,
    "description": "Collect half of the Sumo Slammer cards",
    "icon": "https://steamcdn-a.akamaihd.net/steamcommunity/public/images/apps/703180/e8e03a2fa6d711a688433c8841bf8ddd445a7a01.jpg",
    "icongray": "https://steamcdn-a.akamaihd.net/steamcommunity/public/images/apps/703180/e8c9a918d7ca77fa9d6e0431ce876532705c3e09.jpg"
  },
  {
    "name": "ACHIEVEMENT_06",
    "defaultvalue": 0,
    "displayName": "SUMO Gold",
    "hidden": 0,
    "description": "Collect every Sumo Slammer card",
    "icon": "https://steamcdn-a.akamaihd.net/steamcommunity/public/images/apps/703180/e9e20bbb6c9d55b7cca9d6f116a99b71049301a4.jpg",
    "icongray": "https://steamcdn-a.akamaihd.net/steamcommunity/public/images/apps/703180/24ce7b4f317c3ad0270f37cbf9b4943b15067302.jpg"
  },
  {
    "name": "ACHIEVEMENT_07",
    "defaultvalue": 0,
    "displayName": "Last Laugh",
    "hidden": 0,
    "description": "Defeat Zombozo",
    "icon": "https://steamcdn-a.akamaihd.net/steamcommunity/public/images/apps/703180/c76693a1c31d8e33aceb9823a280fb00248a60ff.jpg",
    "icongray": "https://steamcdn-a.akamaihd.net/steamcommunity/public/images/apps/703180/6bc20e85d7daf2a088e0ce8146f5e97ad912916e.jpg"
  },
  {
    "name": "ACHIEVEMENT_08",
    "defaultvalue": 0,
    "displayName": "Buzz Off",
    "hidden": 0,
    "description": "Defeat Queen Bee",
    "icon": "https://steamcdn-a.akamaihd.net/steamcommunity/public/images/apps/703180/c5ea7aa43ff96660c260ba4e1cf7128d18685099.jpg",
    "icongray": "https://steamcdn-a.akamaihd.net/steamcommunity/public/images/apps/703180/004c5d5361cb7db5e41d2cedec616ce2b0d8141c.jpg"
  },
  {
    "name": "ACHIEVEMENT_09",
    "defaultvalue": 0,
    "displayName": "Collateral Damage",
    "hidden": 0,
    "description": "Destroy 5 objects with a thrown enemy",
    "icon": "https://steamcdn-a.akamaihd.net/steamcommunity/public/images/apps/703180/557791e2ef57ff4d77b161815cf180efbcc10736.jpg",
    "icongray": "https://steamcdn-a.akamaihd.net/steamcommunity/public/images/apps/703180/f069ef539c1a323dd81a33c96ccb0c4efeaba844.jpg"
  },
  {
    "name": "ACHIEVEMENT_10",
    "defaultvalue": 0,
    "displayName": "City Escape",
    "hidden": 0,
    "description": "Complete “The City” in under 15 minutes",
    "icon": "https://steamcdn-a.akamaihd.net/steamcommunity/public/images/apps/703180/092ffeda0e805c424b8d94354360afe039301f2c.jpg",
    "icongray": "https://steamcdn-a.akamaihd.net/steamcommunity/public/images/apps/703180/f21c41e166b13408235d1cfa5497192866808245.jpg"
  },
  {
    "name": "ACHIEVEMENT_11",
    "defaultvalue": 0,
    "displayName": "Not Much Funhouse",
    "hidden": 0,
    "description": "Complete ‘The Funhouse’ in under 15 minutes",
    "icon": "https://steamcdn-a.akamaihd.net/steamcommunity/public/images/apps/703180/07000618d59fea4298362ba683b79c680c860897.jpg",
    "icongray": "https://steamcdn-a.akamaihd.net/steamcommunity/public/images/apps/703180/7c87e5b7f51896c744b625ebd02474f2c946c299.jpg"
  },
  {
    "name": "ACHIEVEMENT_12",
    "defaultvalue": 0,
    "displayName": "In a Scrap",
    "hidden": 0,
    "description": "Complete ‘The Scrapyard’ in under 15 minutes",
    "icon": "https://steamcdn-a.akamaihd.net/steamcommunity/public/images/apps/703180/c1e097fb2446714a1f62daeddd29b0cb9d0d8148.jpg",
    "icongray": "https://steamcdn-a.akamaihd.net/steamcommunity/public/images/apps/703180/dc2988b7408287b18a1ba63324e46881b60bc9da.jpg"
  },
  {
    "name": "ACHIEVEMENT_13",
    "defaultvalue": 0,
    "displayName": "Hive Five",
    "hidden": 0,
    "description": "Complete ‘The Hive’ in under 15 minutes",
    "icon": "https://steamcdn-a.akamaihd.net/steamcommunity/public/images/apps/703180/1220df2d723116f3dc57936d4758557b93a36639.jpg",
    "icongray": "https://steamcdn-a.akamaihd.net/steamcommunity/public/images/apps/703180/bd868fcb315705659d129cd33a60e08fa576fcd5.jpg"
  },
  {
    "name": "ACHIEVEMENT_14",
    "defaultvalue": 0,
    "displayName": "Canyonot?",
    "hidden": 0,
    "description": "Complete ‘The Canyon’ in under 15 minutes",
    "icon": "https://steamcdn-a.akamaihd.net/steamcommunity/public/images/apps/703180/71559cf0e3d483e0f3870f2a0644ebbb425bcdf4.jpg",
    "icongray": "https://steamcdn-a.akamaihd.net/steamcommunity/public/images/apps/703180/239d27e1a7a9608269651a683c616b85762a6015.jpg"
  },
  {
    "name": "ACHIEVEMENT_15",
    "defaultvalue": 0,
    "displayName": "Torn-ay-do Torn-ah-do",
    "hidden": 0,
    "description": "Complete ‘The Tornado’ in under 15 minutes",
    "icon": "https://steamcdn-a.akamaihd.net/steamcommunity/public/images/apps/703180/4bb824f3e3fe606c93bee56c0bc5972939b7d463.jpg",
    "icongray": "https://steamcdn-a.akamaihd.net/steamcommunity/public/images/apps/703180/63c142ae96fdb0f27159f079798768d4d4adee10.jpg"
  },
  {
    "name": "ACHIEVEMENT_16",
    "defaultvalue": 0,
    "displayName": "Sweet Moves",
    "hidden": 0,
    "description": "Achieve a combo of 50",
    "icon": "https://steamcdn-a.akamaihd.net/steamcommunity/public/images/apps/703180/16254f42b70030212d70225f8f270f8778f9908c.jpg",
    "icongray": "https://steamcdn-a.akamaihd.net/steamcommunity/public/images/apps/703180/6e9470fbb3d2b04207d045f8127c6efe9f969acf.jpg"
  },
  {
    "name": "ACHIEVEMENT_17",
    "defaultvalue": 0,
    "displayName": "Action Hero",
    "hidden": 0,
    "description": "Achieve a combo of 100",
    "icon": "https://steamcdn-a.akamaihd.net/steamcommunity/public/images/apps/703180/2f95a9efd9d790376470d03a7f88672210b753c1.jpg",
    "icongray": "https://steamcdn-a.akamaihd.net/steamcommunity/public/images/apps/703180/4da25103428edc3a7d87dcde90009057c55cf7f4.jpg"
  },
  {
    "name": "ACHIEVEMENT_18",
    "defaultvalue": 0,
    "displayName": "Strike!",
    "hidden": 0,
    "description": "Hit 5 enemies with a single rolling Tweedledee",
    "icon": "https://steamcdn-a.akamaihd.net/steamcommunity/public/images/apps/703180/ddae0c95623115851a4879c5c06d8a5268beabc0.jpg",
    "icongray": "https://steamcdn-a.akamaihd.net/steamcommunity/public/images/apps/703180/bcfaf834db1dd0df3ee33ad4644de35e454d757b.jpg"
  },
  {
    "name": "ACHIEVEMENT_19",
    "defaultvalue": 0,
    "displayName": "Having a Blast",
    "hidden": 0,
    "description": "Cause a chain reaction of 5 exploding Bumblebees",
    "icon": "https://steamcdn-a.akamaihd.net/steamcommunity/public/images/apps/703180/9a8bfed42bae0944a9568ccb29ad10148e82b43f.jpg",
    "icongray": "https://steamcdn-a.akamaihd.net/steamcommunity/public/images/apps/703180/d1a511d13b4912a5b5ad0fb3b63fa0cf2fc98e84.jpg"
  },
  {
    "name": "ACHIEVEMENT_20",
    "defaultvalue": 0,
    "displayName": "Riding the Storm",
    "hidden": 0,
    "description": "Reach the top of the Weatherhead Tower without falling off",
    "icon": "https://steamcdn-a.akamaihd.net/steamcommunity/public/images/apps/703180/1ac64df75b369c6a0a0c2508105eaf15040bf352.jpg",
    "icongray": "https://steamcdn-a.akamaihd.net/steamcommunity/public/images/apps/703180/dc3298eb2835c7f7c28db41680184b0ec8c16c52.jpg"
  },
  {
    "name": "ACHIEVEMENT_21",
    "defaultvalue": 0,
    "displayName": "No Small Feet",
    "hidden": 0,
    "description": "Defeat Zombozo without taking damage",
    "icon": "https://steamcdn-a.akamaihd.net/steamcommunity/public/images/apps/703180/d3111bc5864ada90312eb563d0975731d6917e30.jpg",
    "icongray": "https://steamcdn-a.akamaihd.net/steamcommunity/public/images/apps/703180/c6a2fab4b20f3e0db77bf140d84fb7c0694ab6ef.jpg"
  },
  {
    "name": "ACHIEVEMENT_22",
    "defaultvalue": 0,
    "displayName": "To Bee or not to Bee",
    "hidden": 0,
    "description": "Defeat Queen Bee without taking damage",
    "icon": "https://steamcdn-a.akamaihd.net/steamcommunity/public/images/apps/703180/dab14afde3714e4b4858de1b5328c9f790a0733c.jpg",
    "icongray": "https://steamcdn-a.akamaihd.net/steamcommunity/public/images/apps/703180/7720be3140da3ff2cb3b6659c667a2a1aae40e73.jpg"
  },
  {
    "name": "ACHIEVEMENT_23",
    "defaultvalue": 0,
    "displayName": "Time to Throw Stuff",
    "hidden": 0,
    "description": "Defeat 3 enemies with a single Four Arms throw",
    "icon": "https://steamcdn-a.akamaihd.net/steamcommunity/public/images/apps/703180/f04adcbb736e9b31d803d4ab94bb4afa1a681673.jpg",
    "icongray": "https://steamcdn-a.akamaihd.net/steamcommunity/public/images/apps/703180/08a94fc0f0f5fedcc4a9c820a44d923c82bc86a0.jpg"
  },
  {
    "name": "ACHIEVEMENT_24",
    "defaultvalue": 0,
    "displayName": "At the Speed of Sound",
    "hidden": 0,
    "description": "Defeat 6 enemies with a single Cannonbolt roll",
    "icon": "https://steamcdn-a.akamaihd.net/steamcommunity/public/images/apps/703180/564c1d03f102c7006bee2aba9da295c9352b731d.jpg",
    "icongray": "https://steamcdn-a.akamaihd.net/steamcommunity/public/images/apps/703180/e65e59b78df0c89436c874d399d728a4f0b436e6.jpg"
  },
  {
    "name": "ACHIEVEMENT_25",
    "defaultvalue": 0,
    "displayName": "Well Done",
    "hidden": 0,
    "description": "Defeat 3 enemies with a single use of Heatblast’s ability",
    "icon": "https://steamcdn-a.akamaihd.net/steamcommunity/public/images/apps/703180/80310848c9c60fabd4686d02756abdd62bf3f67f.jpg",
    "icongray": "https://steamcdn-a.akamaihd.net/steamcommunity/public/images/apps/703180/110705f4b34de83179f1f5c65f5a2dff52f466d5.jpg"
  },
  {
    "name": "ACHIEVEMENT_26",
    "defaultvalue": 0,
    "displayName": "Mind Over Matter",
    "hidden": 0,
    "description": "Hit 5 different enemies with a single shot from Grey Matter",
    "icon": "https://steamcdn-a.akamaihd.net/steamcommunity/public/images/apps/703180/a1a61f2cf0d329656175e1daafbc7da438529f5a.jpg",
    "icongray": "https://steamcdn-a.akamaihd.net/steamcommunity/public/images/apps/703180/0bee5d486978f65f884999b170e67a647c42d6cf.jpg"
  },
  {
    "name": "ACHIEVEMENT_27",
    "defaultvalue": 0,
    "displayName": "Power Plant",
    "hidden": 0,
    "description": "Defeat 5 enemies with a single use of Wildvine’s ability",
    "icon": "https://steamcdn-a.akamaihd.net/steamcommunity/public/images/apps/703180/fe5c7fee80e88a9297fc5ed014a64284db4d9f30.jpg",
    "icongray": "https://steamcdn-a.akamaihd.net/steamcommunity/public/images/apps/703180/eb103d993f89579fcac20bd398a028f072c8f0aa.jpg"
  },
  {
    "name": "ACHIEVEMENT_28",
    "defaultvalue": 0,
    "displayName": "Gotta Go Slow",
    "hidden": 0,
    "description": "Defeat a Pie Juggler before their pie hits the ground with XLR8’s ability",
    "icon": "https://steamcdn-a.akamaihd.net/steamcommunity/public/images/apps/703180/7547202472f794c52eef87ab35839f3e25e6d6d7.jpg",
    "icongray": "https://steamcdn-a.akamaihd.net/steamcommunity/public/images/apps/703180/eff068f5d3928eab29e58dbfdec31fabc849e1f3.jpg"
  },
  {
    "name": "ACHIEVEMENT_29",
    "defaultvalue": 0,
    "displayName": "Punchline",
    "hidden": 0,
    "description": "Dodge Weatherhead lightning, then hit the attacking enemy by using Upgrade’s ability",
    "icon": "https://steamcdn-a.akamaihd.net/steamcommunity/public/images/apps/703180/569847f0551d64aaa3e85734ddf9eb9dbf2962ff.jpg",
    "icongray": "https://steamcdn-a.akamaihd.net/steamcommunity/public/images/apps/703180/0418ba20ae82b380ea3f1a7c1b9d71bed4acb9f2.jpg"
  },
  {
    "name": "ACHIEVEMENT_30",
    "defaultvalue": 0,
    "displayName": "Diamond Ring",
    "hidden": 0,
    "description": "Hit 10 enemies with a single use of Diamondhead's ability",
    "icon": "https://steamcdn-a.akamaihd.net/steamcommunity/public/images/apps/703180/5a2db01ecf3d76e8834cb40130990c68709335b3.jpg",
    "icongray": "https://steamcdn-a.akamaihd.net/steamcommunity/public/images/apps/703180/14b1319adeaa145295768696a718f84330022dec.jpg"
  },
  {
    "name": "ACHIEVEMENT_31",
    "defaultvalue": 0,
    "displayName": "Body Surfing",
    "hidden": 0,
    "description": "Defeat 3 enemies with a single use of Overflow’s ability",
    "icon": "https://steamcdn-a.akamaihd.net/steamcommunity/public/images/apps/703180/d838e1e01f475ccdfc73ff967d5e6f5aafe14683.jpg",
    "icongray": "https://steamcdn-a.akamaihd.net/steamcommunity/public/images/apps/703180/cc6fa658656d4b64143f2bbecb6c3adeccde108d.jpg"
  },
  {
    "name": "ACHIEVEMENT_32",
    "defaultvalue": 0,
    "displayName": "A Stunning Display",
    "hidden": 0,
    "description": "Stun a self-destructing Bumblebee with Stinkfly’s ability",
    "icon": "https://steamcdn-a.akamaihd.net/steamcommunity/public/images/apps/703180/667e639f68ad3bc2ddbcea29d898555e8c9d02dc.jpg",
    "icongray": "https://steamcdn-a.akamaihd.net/steamcommunity/public/images/apps/703180/64e78d01f54d2f3b836bb8a4bcb178630b78ca78.jpg"
  },
  {
    "name": "ACHIEVEMENT_33",
    "defaultvalue": 0,
    "displayName": "Objectively Skilled",
    "hidden": 0,
    "description": "Complete 30 Bonus Objectives",
    "icon": "https://steamcdn-a.akamaihd.net/steamcommunity/public/images/apps/703180/846885699dd5a63130804009a02a87abee77ad72.jpg",
    "icongray": "https://steamcdn-a.akamaihd.net/steamcommunity/public/images/apps/703180/c42d88fb23754396d451d820296016daeafb1ab3.jpg"
  },
  {
    "name": "ACHIEVEMENT_34",
    "defaultvalue": 0,
    "displayName": "Didn't Feel a Thing",
    "hidden": 0,
    "description": "Defeat the Weatherhead Prime without taking damage",
    "icon": "https://steamcdn-a.akamaihd.net/steamcommunity/public/images/apps/703180/4700710fbdde6b0175a99fa01b8f3467e67969f6.jpg",
    "icongray": "https://steamcdn-a.akamaihd.net/steamcommunity/public/images/apps/703180/ca9fd28a92d0b21b969eb375424e83862507e53b.jpg"
  },
  {
    "name": "ACHIEVEMENT_35",
    "defaultvalue": 0,
    "displayName": "Ultimate Force",
    "hidden": 0,
    "description": "Defeat 10 enemies with a single Ultimate Ability",
    "icon": "https://steamcdn-a.akamaihd.net/steamcommunity/public/images/apps/703180/e257f485510fd8e9ae2a5172306f0d1cffb009bd.jpg",
    "icongray": "https://steamcdn-a.akamaihd.net/steamcommunity/public/images/apps/703180/0120cbc7a23e152613854c8731de90d0f92dbbd8.jpg"
  },
  {
    "name": "ACHIEVEMENT_36",
    "defaultvalue": 0,
    "displayName": "They Felt That One",
    "hidden": 0,
    "description": "Defeat 2 enemies with a Weatherhead Drone",
    "icon": "https://steamcdn-a.akamaihd.net/steamcommunity/public/images/apps/703180/7aec4919547a31675e6de9cbdeeab07189e44c72.jpg",
    "icongray": "https://steamcdn-a.akamaihd.net/steamcommunity/public/images/apps/703180/2b9263a4ad2ffc83c1b68db00b40b113e46fe90f.jpg"
  },
  {
    "name": "ACHIEVEMENT_37",
    "defaultvalue": 0,
    "displayName": "Omnitricks",
    "hidden": 0,
    "description": "Defeat an enemy as each of the 10 aliens in one fight",
    "icon": "https://steamcdn-a.akamaihd.net/steamcommunity/public/images/apps/703180/0a2bec236bcde58b9b9bc3990d4b9fe2165afef7.jpg",
    "icongray": "https://steamcdn-a.akamaihd.net/steamcommunity/public/images/apps/703180/2ee5e9eecc57799f337550d449837b069b2d0c93.jpg"
  },
  {
    "name": "ACHIEVEMENT_38",
    "defaultvalue": 0,
    "displayName": "Bentuition",
    "hidden": 0,
    "description": "Defeat 10 enemies as Ben",
    "icon": "https://steamcdn-a.akamaihd.net/steamcommunity/public/images/apps/703180/17b9eee51914f32521aae0e0dfc9a94efe77012e.jpg",
    "icongray": "https://steamcdn-a.akamaihd.net/steamcommunity/public/images/apps/703180/ccf542bc9c84affb35e3ae2c978e8c80110593db.jpg"
  }
]