{
  "Dlcs": {},
  "Name": "CyberTaxi",
  "AppId": "1420850",
  "ImageUrl": "https://steamcdn-a.akamaihd.net/steam/apps/1420850/header.jpg?t=1600958199",
  "Languages": [
    "english",
    "french",
    "italian",
    "german",
    "spanish",
    "polish",
    "russian",
    "turkish"
  ],
  "Platforms": {
    "windows": true,
    "mac": false,
    "linux": false
  }
}