{
  "Dlcs": {},
  "Name": "DUNGEONS OF CHAOS",
  "AppId": "613390",
  "ImageUrl": "https://steamcdn-a.akamaihd.net/steam/apps/613390/header.jpg?t=1572462814",
  "Languages": [
    "english"
  ],
  "Platforms": {
    "windows": true,
    "mac": true,
    "linux": true
  }
}