{
  "Dlcs": {
    "919720": {
      "Name": "Oriental Empires: Genghis",
      "ImageUrl": "https://steamcdn-a.akamaihd.net/steam/apps/919720/header.jpg?t=1599046793"
    },
    "1089620": {
      "Name": "Oriental Empires: Three Kingdoms",
      "ImageUrl": "https://steamcdn-a.akamaihd.net/steam/apps/1089620/header.jpg?t=1599046835"
    }
  },
  "Name": "Oriental Empires",
  "AppId": "357310",
  "ImageUrl": "https://steamcdn-a.akamaihd.net/steam/apps/357310/header.jpg?t=1599046752",
  "Languages": [
    "english",
    "schinese",
    "french",
    "german",
    "russian",
    "polish"
  ],
  "Platforms": {
    "windows": true,
    "mac": false,
    "linux": false
  }
}