{
  "Dlcs": {},
  "Name": "Follower:Sacrifice",
  "AppId": "715660",
  "ImageUrl": "https://steamcdn-a.akamaihd.net/steam/apps/715660/header.jpg?t=1583226893",
  "Languages": [
    "schinese",
    "english"
  ],
  "Platforms": {
    "windows": true,
    "mac": false,
    "linux": false
  }
}