[
  {
    "name": "carstart",
    "defaultvalue": 0,
    "displayName": "start",
    "hidden": 0,
    "description": "start game",
    "icon": "https://steamcdn-a.akamaihd.net/steamcommunity/public/images/apps/825610/5e5b2b533b98a676f588de3745d486403a1c1d66.jpg",
    "icongray": "https://steamcdn-a.akamaihd.net/steamcommunity/public/images/apps/825610/5e62c6cfaeeba45334f0514474e287ee234d8867.jpg"
  },
  {
    "name": "multistart",
    "defaultvalue": 0,
    "displayName": "multistart",
    "hidden": 0,
    "description": "start game with multiplayer",
    "icon": "https://steamcdn-a.akamaihd.net/steamcommunity/public/images/apps/825610/8be5517401f6d009f1a5bb23023f0f45a4d77185.jpg",
    "icongray": "https://steamcdn-a.akamaihd.net/steamcommunity/public/images/apps/825610/5e62c6cfaeeba45334f0514474e287ee234d8867.jpg"
  },
  {
    "name": "circle10",
    "defaultvalue": 0,
    "displayName": "10 chests",
    "hidden": 0,
    "description": "10 chests per round",
    "icon": "https://steamcdn-a.akamaihd.net/steamcommunity/public/images/apps/825610/f01243cbfc9f0e8b9730cd1fb5f1635cd452ef94.jpg",
    "icongray": "https://steamcdn-a.akamaihd.net/steamcommunity/public/images/apps/825610/5e62c6cfaeeba45334f0514474e287ee234d8867.jpg"
  },
  {
    "name": "circle50",
    "defaultvalue": 0,
    "displayName": "50 chests",
    "hidden": 0,
    "description": "50 chests per round",
    "icon": "https://steamcdn-a.akamaihd.net/steamcommunity/public/images/apps/825610/49740516c697547f9bf8c43933b0355de7961a90.jpg",
    "icongray": "https://steamcdn-a.akamaihd.net/steamcommunity/public/images/apps/825610/bed15ba8b07b14338c402ae16cf85e484957bcf9.jpg"
  },
  {
    "name": "circle100",
    "defaultvalue": 0,
    "displayName": "100 chests",
    "hidden": 0,
    "description": "100 chests all",
    "icon": "https://steamcdn-a.akamaihd.net/steamcommunity/public/images/apps/825610/72d9e89b424da7a62c6806f9bf4677a3c598c48d.jpg",
    "icongray": "https://steamcdn-a.akamaihd.net/steamcommunity/public/images/apps/825610/5e62c6cfaeeba45334f0514474e287ee234d8867.jpg"
  },
  {
    "name": "circle100-1",
    "defaultvalue": 0,
    "displayName": "100 chests round",
    "hidden": 0,
    "description": "100 chests per round",
    "icon": "https://steamcdn-a.akamaihd.net/steamcommunity/public/images/apps/825610/c6104e981d76611289378681877e2c524bedeae9.jpg",
    "icongray": "https://steamcdn-a.akamaihd.net/steamcommunity/public/images/apps/825610/5e62c6cfaeeba45334f0514474e287ee234d8867.jpg"
  },
  {
    "name": "square10",
    "defaultvalue": 0,
    "displayName": "10 logs",
    "hidden": 0,
    "description": "pass 10 logs per round",
    "icon": "https://steamcdn-a.akamaihd.net/steamcommunity/public/images/apps/825610/ab871543f8027ab3e1561d24ba38bafcdd0185e1.jpg",
    "icongray": "https://steamcdn-a.akamaihd.net/steamcommunity/public/images/apps/825610/5e62c6cfaeeba45334f0514474e287ee234d8867.jpg"
  },
  {
    "name": "square50",
    "defaultvalue": 0,
    "displayName": " 50 logs",
    "hidden": 0,
    "description": " pass 50 logs per round",
    "icon": "https://steamcdn-a.akamaihd.net/steamcommunity/public/images/apps/825610/5d308c82ea752fb1b3c8f2bde78b3fd3e9076dbf.jpg",
    "icongray": "https://steamcdn-a.akamaihd.net/steamcommunity/public/images/apps/825610/5e62c6cfaeeba45334f0514474e287ee234d8867.jpg"
  }
]