﻿{
  "Dlcs": {},
  "Name": "Where is my Heart?",
  "AppId": "244950",
  "ImageUrl": "https://steamcdn-a.akamaihd.net/steam/apps/244950/header.jpg?t=1447358229",
  "Languages": [
    "english"
  ],
  "Platforms": {
    "windows": true,
    "mac": true,
    "linux": false
  }
}