{
  "Dlcs": {},
  "Name": "VEGAS Movie Studio 13 Platinum - Steam Powered",
  "AppId": "330070",
  "ImageUrl": "https://steamcdn-a.akamaihd.net/steam/apps/330070/header.jpg?t=1594032910",
  "Languages": [
    "english",
    "french",
    "german",
    "spanish",
    "polish",
    "schinese"
  ],
  "Platforms": {
    "windows": true,
    "mac": false,
    "linux": false
  }
}