{
  "Dlcs": {},
  "Name": "Tales From The Dragon Mountain: The Strix",
  "AppId": "277540",
  "ImageUrl": "https://steamcdn-a.akamaihd.net/steam/apps/277540/header.jpg?t=1529672801",
  "Languages": [
    "english",
    "french",
    "italian",
    "german",
    "spanish",
    "japanese",
    "portuguese",
    "russian",
    "korean",
    "schinese"
  ],
  "Platforms": {
    "windows": true,
    "mac": true,
    "linux": false
  }
}