{
  "Dlcs": {},
  "Name": "Dreamfall: The Longest Journey",
  "AppId": "6300",
  "ImageUrl": "https://steamcdn-a.akamaihd.net/steam/apps/6300/header.jpg?t=1592476034",
  "Languages": [
    "english"
  ],
  "Platforms": {
    "windows": true,
    "mac": false,
    "linux": false
  }
}