[
  {
    "name": "FirstBlood",
    "defaultvalue": 0,
    "displayName": "First Blood",
    "hidden": 0,
    "description": "Destroy 10 towers",
    "icon": "https://steamcdn-a.akamaihd.net/steamcommunity/public/images/apps/252170/d1bb6714e5f8b59007dcfd8831021bf1ea38a174.jpg",
    "icongray": "https://steamcdn-a.akamaihd.net/steamcommunity/public/images/apps/252170/9259f6ac1970f9b541b3e39996afc63cc3119b5f.jpg"
  },
  {
    "name": "Killer",
    "defaultvalue": 0,
    "displayName": "Peacemaker",
    "hidden": 0,
    "description": "Destroy 50 towers",
    "icon": "https://steamcdn-a.akamaihd.net/steamcommunity/public/images/apps/252170/5fd4b2797f4cc5c93e47c86313f5de386459e2d1.jpg",
    "icongray": "https://steamcdn-a.akamaihd.net/steamcommunity/public/images/apps/252170/c67ee9540eaa1a0ceaa7e22f77231623513006c1.jpg"
  },
  {
    "name": "Demolisher",
    "defaultvalue": 0,
    "displayName": "Demolisher",
    "hidden": 0,
    "description": "Destroy 250 towers",
    "icon": "https://steamcdn-a.akamaihd.net/steamcommunity/public/images/apps/252170/4e4d4c3102f3c0ef3323ffe5c33eaba97083c812.jpg",
    "icongray": "https://steamcdn-a.akamaihd.net/steamcommunity/public/images/apps/252170/14a229337e6c52f42816791369383cff8c8d236a.jpg"
  },
  {
    "name": "Avenger",
    "defaultvalue": 0,
    "displayName": "Avenger",
    "hidden": 0,
    "description": "Destroy 500 towers",
    "icon": "https://steamcdn-a.akamaihd.net/steamcommunity/public/images/apps/252170/03232157575e2e365d7e1a342810de1773ce32b5.jpg",
    "icongray": "https://steamcdn-a.akamaihd.net/steamcommunity/public/images/apps/252170/e4569347d21457c4d30aa4aad60c4c2ea89c3779.jpg"
  },
  {
    "name": "Destroyer",
    "defaultvalue": 0,
    "displayName": "Destroyer",
    "hidden": 0,
    "description": "Destroy 1000 towers",
    "icon": "https://steamcdn-a.akamaihd.net/steamcommunity/public/images/apps/252170/675caad79cc6e36bda5ea2668f845c76d8a32c7c.jpg",
    "icongray": "https://steamcdn-a.akamaihd.net/steamcommunity/public/images/apps/252170/ec383f2a0cbaa2b65a2caad00b865bbb1796141d.jpg"
  },
  {
    "name": "Juggernaut",
    "defaultvalue": 0,
    "displayName": "Juggernaut",
    "hidden": 0,
    "description": "Destroy 2000 towers",
    "icon": "https://steamcdn-a.akamaihd.net/steamcommunity/public/images/apps/252170/0a989925e8022ac174cb846949b7fa6321c0758c.jpg",
    "icongray": "https://steamcdn-a.akamaihd.net/steamcommunity/public/images/apps/252170/b1eee70eda417395364ebd7613140c9f92b22a30.jpg"
  },
  {
    "name": "SeasonedFighter",
    "defaultvalue": 0,
    "displayName": "Seasoned Fighter",
    "hidden": 0,
    "description": "Destroy every tower 10 times each",
    "icon": "https://steamcdn-a.akamaihd.net/steamcommunity/public/images/apps/252170/5664d373836b06133726f7eab0e7612cf2299e6b.jpg",
    "icongray": "https://steamcdn-a.akamaihd.net/steamcommunity/public/images/apps/252170/0de71832eb900d53d3f09fe59a7a9281589fb457.jpg"
  },
  {
    "name": "SquadBuyer",
    "defaultvalue": 0,
    "displayName": "Squad Buyer",
    "hidden": 0,
    "description": "Buy 10 units",
    "icon": "https://steamcdn-a.akamaihd.net/steamcommunity/public/images/apps/252170/c183a7d8c989ab39b71d957c8f3aa7fc782a7b77.jpg",
    "icongray": "https://steamcdn-a.akamaihd.net/steamcommunity/public/images/apps/252170/15909d268c9cf6a254245e80bc4ffc69d329a4d1.jpg"
  },
  {
    "name": "SquadMerchant",
    "defaultvalue": 0,
    "displayName": "Squad Merchant",
    "hidden": 0,
    "description": "Buy 35 units",
    "icon": "https://steamcdn-a.akamaihd.net/steamcommunity/public/images/apps/252170/68da69e1ef3c57a23e0af4d90c210916e7b1110c.jpg",
    "icongray": "https://steamcdn-a.akamaihd.net/steamcommunity/public/images/apps/252170/0df1d0e83cf1d6e607be06bcd3d922d63a9df28f.jpg"
  },
  {
    "name": "SquadFinancier",
    "defaultvalue": 0,
    "displayName": "Squad Financier",
    "hidden": 0,
    "description": "Buy 70 units",
    "icon": "https://steamcdn-a.akamaihd.net/steamcommunity/public/images/apps/252170/55a744ce3add6a83d4b1033608f83da9ff693895.jpg",
    "icongray": "https://steamcdn-a.akamaihd.net/steamcommunity/public/images/apps/252170/0d9d997ea4f0723c4f428d85c699e8699715d4a2.jpg"
  },
  {
    "name": "SquadQuartermaster",
    "defaultvalue": 0,
    "displayName": "Squad Quartermaster",
    "hidden": 0,
    "description": "Buy 100 units",
    "icon": "https://steamcdn-a.akamaihd.net/steamcommunity/public/images/apps/252170/b891ccf3208d76637014bcb3a6510d84a3777780.jpg",
    "icongray": "https://steamcdn-a.akamaihd.net/steamcommunity/public/images/apps/252170/6ecf4d3365619db082d0ad3b9e0a55a669fbf79e.jpg"
  },
  {
    "name": "Shopaholic",
    "defaultvalue": 0,
    "displayName": "Shopaholic",
    "hidden": 0,
    "description": "Buy 150 units",
    "icon": "https://steamcdn-a.akamaihd.net/steamcommunity/public/images/apps/252170/455344bee4b1c89d30aabb2f99f207dba2bb654f.jpg",
    "icongray": "https://steamcdn-a.akamaihd.net/steamcommunity/public/images/apps/252170/c4b23d94c2ea07ba91f1983439a5d3d3822bfaf9.jpg"
  },
  {
    "name": "PimpYourSquad",
    "defaultvalue": 0,
    "displayName": "Pimp Your Squad",
    "hidden": 0,
    "description": "Fully upgrade a unit",
    "icon": "https://steamcdn-a.akamaihd.net/steamcommunity/public/images/apps/252170/3c71c9cae6eb2026f4e759e338d70e710a76e3a8.jpg",
    "icongray": "https://steamcdn-a.akamaihd.net/steamcommunity/public/images/apps/252170/26e3cd45b67e2be9db7c5ef5217a087e9f5770e2.jpg"
  },
  {
    "name": "MasterTechnician",
    "defaultvalue": 0,
    "displayName": "Master Technician",
    "hidden": 0,
    "description": "Fully upgrade every unit type",
    "icon": "https://steamcdn-a.akamaihd.net/steamcommunity/public/images/apps/252170/c734a334bdfe0bab48529a6f87d4dd8816cef9f1.jpg",
    "icongray": "https://steamcdn-a.akamaihd.net/steamcommunity/public/images/apps/252170/2a3e9d34f44ae91607e92fc6ea9dc5d8e50385d2.jpg"
  },
  {
    "name": "ThisStuffIsGood",
    "defaultvalue": 0,
    "displayName": "This Stuff Is Good",
    "hidden": 0,
    "description": "Collect 25 Carusaurum caches",
    "icon": "https://steamcdn-a.akamaihd.net/steamcommunity/public/images/apps/252170/70022d6fc5eb45debd8930f740ecbd5b32865cbb.jpg",
    "icongray": "https://steamcdn-a.akamaihd.net/steamcommunity/public/images/apps/252170/2cdb1cad7bf6fb4d65958caadbb53712076a7e36.jpg"
  },
  {
    "name": "LittleCollector",
    "defaultvalue": 0,
    "displayName": "Little Collector",
    "hidden": 0,
    "description": "Collect 20 abilities",
    "icon": "https://steamcdn-a.akamaihd.net/steamcommunity/public/images/apps/252170/7a7d216d30ca8251db3cc8d56a857b286a60356a.jpg",
    "icongray": "https://steamcdn-a.akamaihd.net/steamcommunity/public/images/apps/252170/fd698d6acb1b4693dceb36fe93c115fef5f300e1.jpg"
  },
  {
    "name": "TheSuitWorksFine",
    "defaultvalue": 0,
    "displayName": "The Suit Works Fine",
    "hidden": 0,
    "description": "Use every ability 20 times each",
    "icon": "https://steamcdn-a.akamaihd.net/steamcommunity/public/images/apps/252170/368451853d83b3a8c62ad7bfd180ad1c08b072eb.jpg",
    "icongray": "https://steamcdn-a.akamaihd.net/steamcommunity/public/images/apps/252170/b994e2d6592aff0ca3f63370a7744a498eef704b.jpg"
  },
  {
    "name": "FirstGold",
    "defaultvalue": 0,
    "displayName": "First Gold",
    "hidden": 0,
    "description": "Earn a gold medal",
    "icon": "https://steamcdn-a.akamaihd.net/steamcommunity/public/images/apps/252170/f3745a875bb6b269454829d8f3f8fbba4fccb8d2.jpg",
    "icongray": "https://steamcdn-a.akamaihd.net/steamcommunity/public/images/apps/252170/194b19ed7286a913b5c211702af4f33bd0a22927.jpg"
  },
  {
    "name": "FistOfStone",
    "defaultvalue": 0,
    "displayName": "Fist Of Stone",
    "hidden": 0,
    "description": "Earn 5 gold Ruthlesness medals",
    "icon": "https://steamcdn-a.akamaihd.net/steamcommunity/public/images/apps/252170/1c7d5d4b1ae41bf0b22e350feec3249ee7340f6f.jpg",
    "icongray": "https://steamcdn-a.akamaihd.net/steamcommunity/public/images/apps/252170/76bf8dcb127f5c9d7d957f6ef23dd3c66eea3c62.jpg"
  },
  {
    "name": "ArmorOfSteel",
    "defaultvalue": 0,
    "displayName": "Provident",
    "hidden": 0,
    "description": "Earn 5 gold Efficiency medals",
    "icon": "https://steamcdn-a.akamaihd.net/steamcommunity/public/images/apps/252170/0b2204c7c90c3c61526b45ed7c7f146ae986a8d5.jpg",
    "icongray": "https://steamcdn-a.akamaihd.net/steamcommunity/public/images/apps/252170/250630db1a32f1d344cc6ed83a51730f8b9eeb27.jpg"
  },
  {
    "name": "CampaignHero",
    "defaultvalue": 0,
    "displayName": "Campaign Hero",
    "hidden": 0,
    "description": "Earn every gold medal during Story Mode",
    "icon": "https://steamcdn-a.akamaihd.net/steamcommunity/public/images/apps/252170/85aba546b2e0298b536368b55987ade90f32c8c7.jpg",
    "icongray": "https://steamcdn-a.akamaihd.net/steamcommunity/public/images/apps/252170/6b6e8cc6ed558118a7db7944c7583059c63c471c.jpg"
  },
  {
    "name": "WarHero",
    "defaultvalue": 0,
    "displayName": "War Hero",
    "hidden": 0,
    "description": "Earn every gold medal in the game",
    "icon": "https://steamcdn-a.akamaihd.net/steamcommunity/public/images/apps/252170/8d2c4f4f37b32a5e5b3b014b5f814252292e2651.jpg",
    "icongray": "https://steamcdn-a.akamaihd.net/steamcommunity/public/images/apps/252170/30a82ab60cdf80026521988c422d1e38039d35f5.jpg"
  },
  {
    "name": "CampaignLieutant",
    "defaultvalue": 0,
    "displayName": "Campaign Lieutant",
    "hidden": 0,
    "description": "Complete all Story Mode missions",
    "icon": "https://steamcdn-a.akamaihd.net/steamcommunity/public/images/apps/252170/760fa2cb89fdd47bce5eb6d81c1e231e64bd0674.jpg",
    "icongray": "https://steamcdn-a.akamaihd.net/steamcommunity/public/images/apps/252170/1a16a5354fc150c0201ee1861b7e3a6acfc111ca.jpg"
  },
  {
    "name": "CampaignColonel",
    "defaultvalue": 0,
    "displayName": "Campaign Colonel",
    "hidden": 0,
    "description": "Complete all Story Mode missions in advanced mode",
    "icon": "https://steamcdn-a.akamaihd.net/steamcommunity/public/images/apps/252170/24392dcf5fbe9cf532213af2e79005ec999b304d.jpg",
    "icongray": "https://steamcdn-a.akamaihd.net/steamcommunity/public/images/apps/252170/6092496923f17b98b3367fafa8b501c918ed3a63.jpg"
  },
  {
    "name": "CampaignGeneral",
    "defaultvalue": 0,
    "displayName": "Campaign General",
    "hidden": 0,
    "description": "Complete all Story Mode missions in hard mode",
    "icon": "https://steamcdn-a.akamaihd.net/steamcommunity/public/images/apps/252170/e4a171ee4f3ae3e20b7b5e4fc291bf81114a4003.jpg",
    "icongray": "https://steamcdn-a.akamaihd.net/steamcommunity/public/images/apps/252170/1bf191b3fd89e81f2334de708a094bf63337b3ab.jpg"
  },
  {
    "name": "AssaultLeader",
    "defaultvalue": 0,
    "displayName": "Assault Leader",
    "hidden": 0,
    "description": "Complete Squad Assault Mode",
    "icon": "https://steamcdn-a.akamaihd.net/steamcommunity/public/images/apps/252170/ca6782d5977500bb37470537890d8e476c09f7fd.jpg",
    "icongray": "https://steamcdn-a.akamaihd.net/steamcommunity/public/images/apps/252170/83943fee94461a7a9d60c503c300bc5555992443.jpg"
  },
  {
    "name": "Millionaire",
    "defaultvalue": 0,
    "displayName": "Millionaire",
    "hidden": 0,
    "description": "Earn $50.000",
    "icon": "https://steamcdn-a.akamaihd.net/steamcommunity/public/images/apps/252170/ff2a7ed10fb323598645a16f79d2013386e0ac50.jpg",
    "icongray": "https://steamcdn-a.akamaihd.net/steamcommunity/public/images/apps/252170/48290f8ac0dd58aac6c44d87e8b85b866e4ec90a.jpg"
  },
  {
    "name": "Eureka",
    "defaultvalue": 0,
    "displayName": "Eureka",
    "hidden": 0,
    "description": "Protect deployed Decoy with Smoke Screen",
    "icon": "https://steamcdn-a.akamaihd.net/steamcommunity/public/images/apps/252170/9a80a72a61e9ef14a9d3930140ef2949f7e993e5.jpg",
    "icongray": "https://steamcdn-a.akamaihd.net/steamcommunity/public/images/apps/252170/d54eef807b10ce7100c908c3334774faaa0f45b7.jpg"
  },
  {
    "name": "Repairman",
    "defaultvalue": 0,
    "displayName": "Repairman",
    "hidden": 0,
    "description": "Use Repair 5 times to fully heal a unit each time",
    "icon": "https://steamcdn-a.akamaihd.net/steamcommunity/public/images/apps/252170/cff35a35c9950e1f025512756dbfccd6f8ea8951.jpg",
    "icongray": "https://steamcdn-a.akamaihd.net/steamcommunity/public/images/apps/252170/e252762dcaab3b6727f3df839ce9a577d98eed01.jpg"
  },
  {
    "name": "MilitaryNurse",
    "defaultvalue": 0,
    "displayName": "Military Nurse",
    "hidden": 0,
    "description": "Use one Repair ability to fix 400 damage",
    "icon": "https://steamcdn-a.akamaihd.net/steamcommunity/public/images/apps/252170/1e54707acfe0e39afcbd20f82f2b8a0485057c72.jpg",
    "icongray": "https://steamcdn-a.akamaihd.net/steamcommunity/public/images/apps/252170/7708f66310e094dbc0d25ccfbc760585f96c7d43.jpg"
  },
  {
    "name": "MasterBomber",
    "defaultvalue": 0,
    "displayName": "Master Bomber",
    "hidden": 0,
    "description": "Use one Airstrike ability to kill 4 towers",
    "icon": "https://steamcdn-a.akamaihd.net/steamcommunity/public/images/apps/252170/9038cfe38f6ace6c9d5ce203ed7587177729427e.jpg",
    "icongray": "https://steamcdn-a.akamaihd.net/steamcommunity/public/images/apps/252170/57b5f5ac0c3ffc4b1bd56d8251f4da14c992cda9.jpg"
  },
  {
    "name": "CovertOp",
    "defaultvalue": 0,
    "displayName": "Covert Op",
    "hidden": 0,
    "description": "Use one Smoke Screen ability to protect 6 units",
    "icon": "https://steamcdn-a.akamaihd.net/steamcommunity/public/images/apps/252170/027bdb71d694600f09f7323ab0e9c63624d30123.jpg",
    "icongray": "https://steamcdn-a.akamaihd.net/steamcommunity/public/images/apps/252170/39325dfccf2e0c9d82c37202213144f889dc2b0b.jpg"
  },
  {
    "name": "Multitasker",
    "defaultvalue": 0,
    "displayName": "Multitasker",
    "hidden": 0,
    "description": "Use 4 different abilities simultaneously",
    "icon": "https://steamcdn-a.akamaihd.net/steamcommunity/public/images/apps/252170/c0bd4403ddb0b1402b105b77339fefa875e19979.jpg",
    "icongray": "https://steamcdn-a.akamaihd.net/steamcommunity/public/images/apps/252170/db545a6298be01f2d50519cda3863199120b1b7a.jpg"
  },
  {
    "name": "DiversityIsFun",
    "defaultvalue": 0,
    "displayName": "Diversity Is Fun",
    "hidden": 0,
    "description": "Use 6 different units from mission start to finish",
    "icon": "https://steamcdn-a.akamaihd.net/steamcommunity/public/images/apps/252170/7dadd24ac3c94742e50b78a93da91d613e202208.jpg",
    "icongray": "https://steamcdn-a.akamaihd.net/steamcommunity/public/images/apps/252170/72c2e1ee04d5df1374cced6b55e1a2eb2381ba07.jpg"
  },
  {
    "name": "Survivalist",
    "defaultvalue": 0,
    "displayName": "Survivalist",
    "hidden": 0,
    "description": "Complete a mission without using the Repair",
    "icon": "https://steamcdn-a.akamaihd.net/steamcommunity/public/images/apps/252170/2cdef830adc5bde077b6a6f50dd9a7a6d91df402.jpg",
    "icongray": "https://steamcdn-a.akamaihd.net/steamcommunity/public/images/apps/252170/d40560619921af014297cc3e27e12cf1580c8c8f.jpg"
  },
  {
    "name": "PiggyBank",
    "defaultvalue": 0,
    "displayName": "Piggy Bank",
    "hidden": 0,
    "description": "Complete a mission with $1000 cash left",
    "icon": "https://steamcdn-a.akamaihd.net/steamcommunity/public/images/apps/252170/fb0b4ebae6a3f3cb778c03b8d65291c639102da5.jpg",
    "icongray": "https://steamcdn-a.akamaihd.net/steamcommunity/public/images/apps/252170/ce85b908452a178ff1cc3c65f7f0dff8a6dda566.jpg"
  },
  {
    "name": "Antivirus",
    "defaultvalue": 0,
    "displayName": "Antivirus",
    "hidden": 0,
    "description": "Disable 10 Hackers field",
    "icon": "https://steamcdn-a.akamaihd.net/steamcommunity/public/images/apps/252170/7301f39c031046c56d27c2648dd3c55a75f34b20.jpg",
    "icongray": "https://steamcdn-a.akamaihd.net/steamcommunity/public/images/apps/252170/c50674cd6cff9c88f6e765c75cf930cb2cbc048b.jpg"
  },
  {
    "name": "DemolitionBoy",
    "defaultvalue": 0,
    "displayName": "Demolition Boy",
    "hidden": 0,
    "description": "Destroy 50 towers with Air Strike",
    "icon": "https://steamcdn-a.akamaihd.net/steamcommunity/public/images/apps/252170/4f17982cf9a848d6f721748ec0c38a15592ce93b.jpg",
    "icongray": "https://steamcdn-a.akamaihd.net/steamcommunity/public/images/apps/252170/5a653da3e882400656c06111f5386185271b37ca.jpg"
  },
  {
    "name": "FactoryManager",
    "defaultvalue": 0,
    "displayName": "Factory Manager",
    "hidden": 0,
    "description": "Produce 50 abilities with Supply Unit",
    "icon": "https://steamcdn-a.akamaihd.net/steamcommunity/public/images/apps/252170/da43c3cec3ad31c5231e7b596bd5442f7a2254f2.jpg",
    "icongray": "https://steamcdn-a.akamaihd.net/steamcommunity/public/images/apps/252170/05b381755c4d7a5198ced99a3c7093fb92afae5f.jpg"
  }
]