{
  "Dlcs": {},
  "Name": "Grid Magic",
  "AppId": "1098250",
  "ImageUrl": "https://steamcdn-a.akamaihd.net/steam/apps/1098250/header.jpg?t=1562615971",
  "Languages": [
    "english"
  ],
  "Platforms": {
    "windows": true,
    "mac": false,
    "linux": false
  }
}