{
  "Dlcs": {},
  "Name": "Season of 12 Colors",
  "AppId": "370280",
  "ImageUrl": "https://steamcdn-a.akamaihd.net/steam/apps/370280/header.jpg?t=1569916042",
  "Languages": [
    "english",
    "schinese",
    "tchinese"
  ],
  "Platforms": {
    "windows": true,
    "mac": true,
    "linux": true
  }
}