{
  "Dlcs": {},
  "Name": "Pharmakon - Tactical Puzzle",
  "AppId": "654660",
  "ImageUrl": "https://steamcdn-a.akamaihd.net/steam/apps/654660/header.jpg?t=1573723851",
  "Languages": [
    "english",
    "french"
  ],
  "Platforms": {
    "windows": true,
    "mac": false,
    "linux": false
  }
}