{
  "Dlcs": {},
  "Name": "Puzzle: Fire Sticks",
  "AppId": "1113950",
  "ImageUrl": "https://steamcdn-a.akamaihd.net/steam/apps/1113950/header.jpg?t=1571379401",
  "Languages": [
    "english",
    "french",
    "italian",
    "german",
    "spanish",
    "bulgarian",
    "hungarian",
    "vietnamese",
    "danish",
    "tchinese",
    "schinese",
    "korean",
    "dutch",
    "norwegian",
    "polish",
    "portuguese",
    "romanian",
    "russian",
    "turkish",
    "ukrainian",
    "finnish",
    "czech",
    "swedish",
    "japanese"
  ],
  "Platforms": {
    "windows": true,
    "mac": false,
    "linux": false
  }
}