[
  {
    "name": "ACH_LEVEL10",
    "defaultvalue": 0,
    "displayName": "10 Levels",
    "hidden": 0,
    "description": "Complite 10 levels",
    "icon": "https://steamcdn-a.akamaihd.net/steamcommunity/public/images/apps/1113950/ad062100df518a0cbadfe230e2e71b50945a17ec.jpg",
    "icongray": "https://steamcdn-a.akamaihd.net/steamcommunity/public/images/apps/1113950/01fcf1682e96fc908c1bc81e6838abec548afa63.jpg"
  },
  {
    "name": "ACH_LEVEL50",
    "defaultvalue": 0,
    "displayName": "50 Levels",
    "hidden": 0,
    "description": "Complite 50 levels",
    "icon": "https://steamcdn-a.akamaihd.net/steamcommunity/public/images/apps/1113950/bf569e4d0715b997fae48f16c22a7c7acf75d92a.jpg",
    "icongray": "https://steamcdn-a.akamaihd.net/steamcommunity/public/images/apps/1113950/7e343581811998717f3a544009b92502caf0d26d.jpg"
  },
  {
    "name": "ACH_LEVEL100",
    "defaultvalue": 0,
    "displayName": "100 Levels",
    "hidden": 0,
    "description": "Complite 100 levels",
    "icon": "https://steamcdn-a.akamaihd.net/steamcommunity/public/images/apps/1113950/a61ddd2964b57c90dbc2171862d0dd1e15ccb30a.jpg",
    "icongray": "https://steamcdn-a.akamaihd.net/steamcommunity/public/images/apps/1113950/23e0c37624abc6316a7081af502da1d9694dafae.jpg"
  },
  {
    "name": "ACH_BONUS_MASTER",
    "defaultvalue": 0,
    "displayName": "Bonus Master",
    "hidden": 0,
    "description": "Complite 20 Bonus Levels",
    "icon": "https://steamcdn-a.akamaihd.net/steamcommunity/public/images/apps/1113950/99f3c10bbcd947ef1bc3748ced5f26e288aa2f83.jpg",
    "icongray": "https://steamcdn-a.akamaihd.net/steamcommunity/public/images/apps/1113950/9c4e4d2864e43f73096f1236fc28b333d895a87a.jpg"
  },
  {
    "name": "ACH_HUMMER_MASTER",
    "defaultvalue": 0,
    "displayName": "Hummer Master",
    "hidden": 0,
    "description": "Use hummer 15 times",
    "icon": "https://steamcdn-a.akamaihd.net/steamcommunity/public/images/apps/1113950/d8a9c7a8abc0b434e1234522fdeec47bedfa252a.jpg",
    "icongray": "https://steamcdn-a.akamaihd.net/steamcommunity/public/images/apps/1113950/787949a36e7a021e516e07f97390646c93afebdf.jpg"
  },
  {
    "name": "ACH_NO_FIRE_MASTER",
    "defaultvalue": 0,
    "displayName": "Fireman",
    "hidden": 0,
    "description": "Put out the fire 20 times",
    "icon": "https://steamcdn-a.akamaihd.net/steamcommunity/public/images/apps/1113950/b31849ebfb5c946f6f346a0d22ccc155e813ea4e.jpg",
    "icongray": "https://steamcdn-a.akamaihd.net/steamcommunity/public/images/apps/1113950/f535371946830115a33a4e7a0e823359027ae2e4.jpg"
  },
  {
    "name": "ACH_GET_STICK_MASTER",
    "defaultvalue": 0,
    "displayName": "Stick Master",
    "hidden": 0,
    "description": "Get 10 sticks",
    "icon": "https://steamcdn-a.akamaihd.net/steamcommunity/public/images/apps/1113950/3c8b86bcf0b1d64e31c01e2a17d3443a784089d9.jpg",
    "icongray": "https://steamcdn-a.akamaihd.net/steamcommunity/public/images/apps/1113950/c7bd7221e53963768b886cb287e6fd41a3d105ef.jpg"
  },
  {
    "name": "ACH_GENIUS",
    "defaultvalue": 0,
    "displayName": "Genius",
    "hidden": 0,
    "description": "Complite 5 levels ingenious",
    "icon": "https://steamcdn-a.akamaihd.net/steamcommunity/public/images/apps/1113950/8ba3d372a1ed1548e47131d1a0109e0b34726534.jpg",
    "icongray": "https://steamcdn-a.akamaihd.net/steamcommunity/public/images/apps/1113950/b0a8aa9b88bd53fa893f477517046b0ae0dbcbda.jpg"
  }
]