{
  "Dlcs": {},
  "Name": "Emergence",
  "AppId": "1337820",
  "ImageUrl": "https://steamcdn-a.akamaihd.net/steam/apps/1337820/header.jpg?t=1597359279",
  "Languages": [
    "english"
  ],
  "Platforms": {
    "windows": true,
    "mac": false,
    "linux": false
  }
}