{
  "Dlcs": {},
  "Name": "Brain Voyagers : Ricochet",
  "AppId": "550830",
  "ImageUrl": "https://steamcdn-a.akamaihd.net/steam/apps/550830/header.jpg?t=1488334976",
  "Languages": [
    "english"
  ],
  "Platforms": {
    "windows": true,
    "mac": false,
    "linux": false
  }
}