{
  "Dlcs": {},
  "Name": "Spellspire",
  "AppId": "626580",
  "ImageUrl": "https://steamcdn-a.akamaihd.net/steam/apps/626580/header.jpg?t=1560857267",
  "Languages": [
    "english"
  ],
  "Platforms": {
    "windows": true,
    "mac": false,
    "linux": false
  }
}