﻿{
  "BlizzardShatter": {
    "description": "BlizzardShatter",
    "value": 0
  },
  "HolyArrowKill": {
    "description": "HolyArrowKill",
    "value": 0
  },
  "HolyArrowHeal": {
    "description": "HolyArrowHeal",
    "value": 0
  },
  "Faction3CoreCampaign1Star": {
    "description": "Faction3CoreCampaign1Star",
    "value": 0
  },
  "Faction3CoreCampaign2Star": {
    "description": "Faction3CoreCampaign2Star",
    "value": 0
  },
  "Faction3CoreCampaign3Star": {
    "description": "Faction3CoreCampaign3Star",
    "value": 0
  },
  "Faction4CoreCampaign1Star": {
    "description": "Faction4CoreCampaign1Star",
    "value": 0
  },
  "Faction4CoreCampaign2Star": {
    "description": "Faction4CoreCampaign2Star",
    "value": 0
  },
  "Faction4CoreCampaign3Star": {
    "description": "Faction4CoreCampaign3Star",
    "value": 0
  },
  "Faction3CoOpCampaign1Star": {
    "description": "Faction3CoOpCampaign1Star",
    "value": 0
  },
  "Faction3CoOpCampaign2Star": {
    "description": "Faction3CoOpCampaign1Star",
    "value": 0
  },
  "Faction3CoOpCampaign3Star": {
    "description": "Faction3CoOpCampaign1Star",
    "value": 0
  },
  "Faction3CoreCampaignHard": {
    "description": "Faction3CoreCampaignHard",
    "value": 0
  },
  "Faction4CoreCampaignHard": {
    "description": "Faction3CoreCampaignHard",
    "value": 0
  },
  "HolyArrowCombined": {
    "description": "HolyArrowCombined",
    "value": 0
  },
  "HordesHeroCount": {
    "description": "HordesHeroCount",
    "value": 0
  },
  "BobbingForOrcs": {
    "description": "BobbingForOrcs",
    "value": 0
  },
  "BobbingForOrcsTotal": {
    "description": "BobbingForOrcsTotal",
    "value": 0
  },
  "GoToTheLightBob": {
    "description": "GoToTheLightBob",
    "value": 0
  },
  "GoToTheLightBobTotal": {
    "description": "GoToTheLightBobTotal",
    "value": 0
  },
  "BobsYourUncle": {
    "description": "BobsYourUncle",
    "value": 0
  },
  "BobsYourUncleTotal": {
    "description": "BobsYourUncleTotal",
    "value": 0
  }
}