{
  "Dlcs": {},
  "Name": "BOT-NET",
  "AppId": "1072250",
  "ImageUrl": "https://steamcdn-a.akamaihd.net/steam/apps/1072250/header.jpg?t=1562074090",
  "Languages": [
    "english"
  ],
  "Platforms": {
    "windows": true,
    "mac": false,
    "linux": false
  }
}