{
  "Dlcs": {},
  "Name": "シルヴァリオ ラグナロク",
  "AppId": "1292950",
  "ImageUrl": "https://steamcdn-a.akamaihd.net/steam/apps/1292950/header.jpg?t=1590631743",
  "Languages": [
    "japanese"
  ],
  "Platforms": {
    "windows": true,
    "mac": false,
    "linux": false
  }
}