[
  {
    "name": "ach_1_beginning",
    "defaultvalue": 0,
    "displayName": "THE BEGINNING",
    "hidden": 0,
    "description": "Finish Prologue.",
    "icon": "https://steamcdn-a.akamaihd.net/steamcommunity/public/images/apps/740200/6eae355aae31a01d7ed375456c25f7f310a550b5.jpg",
    "icongray": "https://steamcdn-a.akamaihd.net/steamcommunity/public/images/apps/740200/78fe6775ad954af20729dee893269358027223a4.jpg"
  },
  {
    "name": "for_coolest",
    "defaultvalue": 0,
    "displayName": "ACHIEVEMENT FOR THE COOLEST",
    "hidden": 0,
    "description": "Spend 2 or more hours in the game.",
    "icon": "https://steamcdn-a.akamaihd.net/steamcommunity/public/images/apps/740200/bf57ae7ab15735ee43219e35131e955fcd5c4a86.jpg",
    "icongray": "https://steamcdn-a.akamaihd.net/steamcommunity/public/images/apps/740200/9339b449126f1ac6e5b2038f258e35420c69b269.jpg"
  },
  {
    "name": "humane_murder",
    "defaultvalue": 0,
    "displayName": "HUMANE MURDER",
    "hidden": 0,
    "description": "Finish the game without using special ammo.",
    "icon": "https://steamcdn-a.akamaihd.net/steamcommunity/public/images/apps/740200/d13585583d7aebc5d94bb43b1ed609b71af51498.jpg",
    "icongray": "https://steamcdn-a.akamaihd.net/steamcommunity/public/images/apps/740200/e406e2fa8d77992006130b9d61c41d585bce8636.jpg"
  },
  {
    "name": "sharpshooter",
    "defaultvalue": 0,
    "displayName": "SHARPSHOOTER",
    "hidden": 0,
    "description": "Finish gunsmith’s challenge.",
    "icon": "https://steamcdn-a.akamaihd.net/steamcommunity/public/images/apps/740200/d0cc5ebc63f312fa797628865306c67ee2a72b8a.jpg",
    "icongray": "https://steamcdn-a.akamaihd.net/steamcommunity/public/images/apps/740200/0027129da53b16d43e74d26610e1b19358b5861b.jpg"
  },
  {
    "name": "collector",
    "defaultvalue": 0,
    "displayName": "COLLECTOR",
    "hidden": 0,
    "description": "Collect all posters.",
    "icon": "https://steamcdn-a.akamaihd.net/steamcommunity/public/images/apps/740200/269498299a836f87946e0d0d8d2da3f6790bb5b3.jpg",
    "icongray": "https://steamcdn-a.akamaihd.net/steamcommunity/public/images/apps/740200/b949c71a37e458298da3d648dcddcf472a715519.jpg"
  },
  {
    "name": "sadist",
    "defaultvalue": 0,
    "displayName": "PROFESSIONAL SADIST",
    "hidden": 0,
    "description": "Use all types of special ammo.",
    "icon": "https://steamcdn-a.akamaihd.net/steamcommunity/public/images/apps/740200/a40acdd8f9cc0f40e59cf9c8bf848d4baef0672f.jpg",
    "icongray": "https://steamcdn-a.akamaihd.net/steamcommunity/public/images/apps/740200/7eda5d3feb7d9afe225199382fbec2e957e60a7e.jpg"
  },
  {
    "name": "yolo",
    "defaultvalue": 0,
    "displayName": "YOLO",
    "hidden": 1,
    "icon": "https://steamcdn-a.akamaihd.net/steamcommunity/public/images/apps/740200/924b67f459408c1013d9ade85b0d7c2bc79c9f63.jpg",
    "icongray": "https://steamcdn-a.akamaihd.net/steamcommunity/public/images/apps/740200/3bb9a80ee06817cc0a3d85605cb9dd79715df016.jpg"
  },
  {
    "name": "beer_50",
    "defaultvalue": 0,
    "displayName": "SLAM SOME BEERS",
    "hidden": 0,
    "description": "Drink 40 bottles of beer (during fights).",
    "icon": "https://steamcdn-a.akamaihd.net/steamcommunity/public/images/apps/740200/1a81df5f57378d2c04b26f8ee92a99ffae2d40c0.jpg",
    "icongray": "https://steamcdn-a.akamaihd.net/steamcommunity/public/images/apps/740200/ee0549d7331bc99e9620dc9b09e0836148ff40da.jpg"
  },
  {
    "name": "smoke_50",
    "defaultvalue": 0,
    "displayName": "CHIMNEY",
    "hidden": 0,
    "description": "Smoke 40 cigarettes (during fights).",
    "icon": "https://steamcdn-a.akamaihd.net/steamcommunity/public/images/apps/740200/b73fa8a80c90e54e8164fd9803ca87b60a3d22e1.jpg",
    "icongray": "https://steamcdn-a.akamaihd.net/steamcommunity/public/images/apps/740200/22c2957ee06d98ea0da9047e2cfed203025d559d.jpg"
  },
  {
    "name": "medkits_20",
    "defaultvalue": 0,
    "displayName": "I AM MY OWN DOCTOR",
    "hidden": 0,
    "description": "Use 20 medkids (during fights).",
    "icon": "https://steamcdn-a.akamaihd.net/steamcommunity/public/images/apps/740200/693fd8360b4c507e95da39cb58904fc7869b07a1.jpg",
    "icongray": "https://steamcdn-a.akamaihd.net/steamcommunity/public/images/apps/740200/e9e2c15d578ae93ab6377971cdd0105720f5058b.jpg"
  },
  {
    "name": "doer",
    "defaultvalue": 0,
    "displayName": "THE DOER",
    "hidden": 0,
    "description": "Finish a fight without using beer, cigarettes and medkits from the inventory.",
    "icon": "https://steamcdn-a.akamaihd.net/steamcommunity/public/images/apps/740200/b6d7093cf910e01f4bbe0be49fe341c0459e7590.jpg",
    "icongray": "https://steamcdn-a.akamaihd.net/steamcommunity/public/images/apps/740200/494429e037769a22ee16334f3db133be933e4697.jpg"
  },
  {
    "name": "kill_1",
    "defaultvalue": 0,
    "displayName": "INQUISITION",
    "hidden": 1,
    "icon": "https://steamcdn-a.akamaihd.net/steamcommunity/public/images/apps/740200/6fd46793bbda81de6c1528ef9e2435bba15f0ed3.jpg",
    "icongray": "https://steamcdn-a.akamaihd.net/steamcommunity/public/images/apps/740200/32fa269affe426b017415ff6a8953fda3e5bdcac.jpg"
  },
  {
    "name": "arrest_1",
    "defaultvalue": 0,
    "displayName": "HORNET IN THE MITT",
    "hidden": 1,
    "icon": "https://steamcdn-a.akamaihd.net/steamcommunity/public/images/apps/740200/07d17e73a931f9267abf6853f6e6d808ec69c626.jpg",
    "icongray": "https://steamcdn-a.akamaihd.net/steamcommunity/public/images/apps/740200/a9c7e410fc48fa22f6ac60bbb7547bdcc4634f24.jpg"
  },
  {
    "name": "release_1",
    "defaultvalue": 0,
    "displayName": "CRIMSON FUTURE",
    "hidden": 1,
    "icon": "https://steamcdn-a.akamaihd.net/steamcommunity/public/images/apps/740200/91fdfba390d83d3fa8bc7ee1b0d0090f19546b3a.jpg",
    "icongray": "https://steamcdn-a.akamaihd.net/steamcommunity/public/images/apps/740200/1a06d56d00bf4fbbd25be0040bb955e0be473897.jpg"
  },
  {
    "name": "kill_2",
    "defaultvalue": 0,
    "displayName": "NO EXCUSES",
    "hidden": 1,
    "icon": "https://steamcdn-a.akamaihd.net/steamcommunity/public/images/apps/740200/482ebcbba7303c8bea3f2007243bc7a475748a09.jpg",
    "icongray": "https://steamcdn-a.akamaihd.net/steamcommunity/public/images/apps/740200/12ac11b76f401d7584567527b07f019aa09a09a8.jpg"
  },
  {
    "name": "arrest_2",
    "defaultvalue": 0,
    "displayName": "AT THE MERCY OF PEOPLE",
    "hidden": 1,
    "icon": "https://steamcdn-a.akamaihd.net/steamcommunity/public/images/apps/740200/e7fe20ba0a39dd9cf5a277ad568b1db4fec7bfba.jpg",
    "icongray": "https://steamcdn-a.akamaihd.net/steamcommunity/public/images/apps/740200/8addf54079046903314b7c241879ae60847e04aa.jpg"
  },
  {
    "name": "release_2",
    "defaultvalue": 0,
    "displayName": "COMPASSIONATE",
    "hidden": 1,
    "icon": "https://steamcdn-a.akamaihd.net/steamcommunity/public/images/apps/740200/182c0b52df9bba3064a34e02fd97827effb6b927.jpg",
    "icongray": "https://steamcdn-a.akamaihd.net/steamcommunity/public/images/apps/740200/56d4ec741c200eab991399a683cf6fbf8df18849.jpg"
  },
  {
    "name": "kill_3",
    "defaultvalue": 0,
    "displayName": "LIVE FAST, DIE YOUNG",
    "hidden": 1,
    "icon": "https://steamcdn-a.akamaihd.net/steamcommunity/public/images/apps/740200/64c5c057596be2433a43e9066971c762ec9b5999.jpg",
    "icongray": "https://steamcdn-a.akamaihd.net/steamcommunity/public/images/apps/740200/dc0c57a0e62ae4c3d7f8b4c5fd3007289fad0d48.jpg"
  },
  {
    "name": "arrest_3",
    "defaultvalue": 0,
    "displayName": "VIP PASS TO COURT",
    "hidden": 1,
    "icon": "https://steamcdn-a.akamaihd.net/steamcommunity/public/images/apps/740200/5cfbb6c61e2113f4cb23d830f4ebe0c1658ec132.jpg",
    "icongray": "https://steamcdn-a.akamaihd.net/steamcommunity/public/images/apps/740200/efd49418ba14603466f5d6dcad520a606d99fe29.jpg"
  },
  {
    "name": "release_3",
    "defaultvalue": 0,
    "displayName": "MISTAKES OF YOUTH",
    "hidden": 1,
    "icon": "https://steamcdn-a.akamaihd.net/steamcommunity/public/images/apps/740200/d67a3008229f6f8806414142cddd8c9769416b1b.jpg",
    "icongray": "https://steamcdn-a.akamaihd.net/steamcommunity/public/images/apps/740200/74d1d816f1b48bab43ac39888f4ab43ff74716b0.jpg"
  },
  {
    "name": "kill_4",
    "defaultvalue": 0,
    "displayName": "CITY ORDERLY",
    "hidden": 1,
    "icon": "https://steamcdn-a.akamaihd.net/steamcommunity/public/images/apps/740200/c66d275e96fd7387ad9eb1c6513d98a1aefebb72.jpg",
    "icongray": "https://steamcdn-a.akamaihd.net/steamcommunity/public/images/apps/740200/3f382b225019c3b20145f8eaacbebf980ac9547e.jpg"
  },
  {
    "name": "arrest_4",
    "defaultvalue": 0,
    "displayName": "BIRD IN A CAGE",
    "hidden": 1,
    "icon": "https://steamcdn-a.akamaihd.net/steamcommunity/public/images/apps/740200/77c9d689f8db3352b415da133855b34d30727481.jpg",
    "icongray": "https://steamcdn-a.akamaihd.net/steamcommunity/public/images/apps/740200/92e7e6c9f40419ec829273232f48b0ec714cd635.jpg"
  },
  {
    "name": "release_4",
    "defaultvalue": 0,
    "displayName": "HOLY MAN",
    "hidden": 1,
    "icon": "https://steamcdn-a.akamaihd.net/steamcommunity/public/images/apps/740200/0ac55510add18f33dd262f2e20bd9a520d8d4469.jpg",
    "icongray": "https://steamcdn-a.akamaihd.net/steamcommunity/public/images/apps/740200/85a841b829e068d94295ae51f977efec99bf7faf.jpg"
  },
  {
    "name": "kill_5",
    "defaultvalue": 0,
    "displayName": "LETHAL INJECTION",
    "hidden": 1,
    "icon": "https://steamcdn-a.akamaihd.net/steamcommunity/public/images/apps/740200/68d17f37e312aa87c582a854e6f618b52c6bd292.jpg",
    "icongray": "https://steamcdn-a.akamaihd.net/steamcommunity/public/images/apps/740200/992eb50a856a6cf371b30d3a6b9098c7528bc9fb.jpg"
  },
  {
    "name": "arrest_5",
    "defaultvalue": 0,
    "displayName": "ONE-EYED IN JAIL",
    "hidden": 1,
    "icon": "https://steamcdn-a.akamaihd.net/steamcommunity/public/images/apps/740200/490cd5c073b123c5aff1178579ef7cc7cef2158b.jpg",
    "icongray": "https://steamcdn-a.akamaihd.net/steamcommunity/public/images/apps/740200/865e0c88140e7aaeba320d9fa9186a2812c94f9e.jpg"
  },
  {
    "name": "release_5",
    "defaultvalue": 0,
    "displayName": "PROGRESSIVE",
    "hidden": 1,
    "icon": "https://steamcdn-a.akamaihd.net/steamcommunity/public/images/apps/740200/fa32f983ad1687e395ea4a6ef88548b727af7974.jpg",
    "icongray": "https://steamcdn-a.akamaihd.net/steamcommunity/public/images/apps/740200/cf37fc2abb8725b60de294977b22e0c462030a56.jpg"
  },
  {
    "name": "kill_6",
    "defaultvalue": 0,
    "displayName": "TERROR OF THE CRIMINAL WORLD",
    "hidden": 1,
    "icon": "https://steamcdn-a.akamaihd.net/steamcommunity/public/images/apps/740200/f7af4376c4f5bcc52a33b4b9702f0918d2fac5ba.jpg",
    "icongray": "https://steamcdn-a.akamaihd.net/steamcommunity/public/images/apps/740200/c7f8ad45e418fb4ae95f8815d1940c53c5a0a458.jpg"
  },
  {
    "name": "release_6",
    "defaultvalue": 0,
    "displayName": "MAINTAIN STABILITY",
    "hidden": 1,
    "icon": "https://steamcdn-a.akamaihd.net/steamcommunity/public/images/apps/740200/0035fd824347aded35b5ed078c449e0c25eb3a46.jpg",
    "icongray": "https://steamcdn-a.akamaihd.net/steamcommunity/public/images/apps/740200/5e6b777dffc94264cc0266e3f995106edc7c1d54.jpg"
  },
  {
    "name": "kill_7",
    "defaultvalue": 0,
    "displayName": "FAT BASTARD",
    "hidden": 1,
    "icon": "https://steamcdn-a.akamaihd.net/steamcommunity/public/images/apps/740200/131a10f3ea2600f17778e4b749158af982aabbb7.jpg",
    "icongray": "https://steamcdn-a.akamaihd.net/steamcommunity/public/images/apps/740200/e498b3bea9c4b23573a71b65079a70286507d64f.jpg"
  },
  {
    "name": "betray_andrew",
    "defaultvalue": 0,
    "displayName": "RAT",
    "hidden": 1,
    "icon": "https://steamcdn-a.akamaihd.net/steamcommunity/public/images/apps/740200/76a6530256f19ce72ad162f664441fe597805959.jpg",
    "icongray": "https://steamcdn-a.akamaihd.net/steamcommunity/public/images/apps/740200/fe0d88ec8b3d75bf773843518a437e6da0964ebd.jpg"
  },
  {
    "name": "kill_8",
    "defaultvalue": 0,
    "displayName": "PENALTY ENFORCEMENT",
    "hidden": 1,
    "icon": "https://steamcdn-a.akamaihd.net/steamcommunity/public/images/apps/740200/df0f0c400daecdde5191f48ddc5ef3cc763a0a52.jpg",
    "icongray": "https://steamcdn-a.akamaihd.net/steamcommunity/public/images/apps/740200/d4e040c590cfe3107ae06210d3dc0650d8fd89b1.jpg"
  },
  {
    "name": "kill_all",
    "defaultvalue": 0,
    "displayName": "EXECUTIONER",
    "hidden": 1,
    "icon": "https://steamcdn-a.akamaihd.net/steamcommunity/public/images/apps/740200/5bce1be5c7b256a3abb01ecd1bd283dd7210997c.jpg",
    "icongray": "https://steamcdn-a.akamaihd.net/steamcommunity/public/images/apps/740200/c37d1e28c8e2408d7cc606be4cc56c61b2f22023.jpg"
  },
  {
    "name": "arrest_all",
    "defaultvalue": 0,
    "displayName": "ON TRIAL",
    "hidden": 1,
    "icon": "https://steamcdn-a.akamaihd.net/steamcommunity/public/images/apps/740200/49cfffbb62d4297116ee5d0561466c30f3c0f773.jpg",
    "icongray": "https://steamcdn-a.akamaihd.net/steamcommunity/public/images/apps/740200/b941b1af34e6d1e2ffde7a567bcaa3a5f9dbe606.jpg"
  },
  {
    "name": "release_all",
    "defaultvalue": 0,
    "displayName": "FREEDOM",
    "hidden": 1,
    "icon": "https://steamcdn-a.akamaihd.net/steamcommunity/public/images/apps/740200/ea2682b5eb8744d2a48f3a22590486d029589af1.jpg",
    "icongray": "https://steamcdn-a.akamaihd.net/steamcommunity/public/images/apps/740200/876e035b48c076e25d5e5bd576fe127e906e142b.jpg"
  },
  {
    "name": "kill_all_securities",
    "defaultvalue": 0,
    "displayName": "JOB CUTS",
    "hidden": 0,
    "description": "Kill all security guards.",
    "icon": "https://steamcdn-a.akamaihd.net/steamcommunity/public/images/apps/740200/a08c6d81631fa5226f6ac01be9a85bdd232f3be6.jpg",
    "icongray": "https://steamcdn-a.akamaihd.net/steamcommunity/public/images/apps/740200/51aac3041324d0cf475256d32fba447ce518b58b.jpg"
  },
  {
    "name": "release_9",
    "defaultvalue": 0,
    "displayName": "TUNNEL SNAKE",
    "hidden": 1,
    "icon": "https://steamcdn-a.akamaihd.net/steamcommunity/public/images/apps/740200/52080beebdb3ef51dafcfca83666058367543a24.jpg",
    "icongray": "https://steamcdn-a.akamaihd.net/steamcommunity/public/images/apps/740200/6a9806f2884422a6a0b3c8689f363c73bc7713af.jpg"
  },
  {
    "name": "eat_drink_trip",
    "defaultvalue": 0,
    "displayName": "HEARTWARMING TRIP",
    "hidden": 0,
    "description": "Clear the table during the train trip.",
    "icon": "https://steamcdn-a.akamaihd.net/steamcommunity/public/images/apps/740200/520da231ee8257894ec1963a24eafa54dd456e90.jpg",
    "icongray": "https://steamcdn-a.akamaihd.net/steamcommunity/public/images/apps/740200/3ff2da460c1383cf2e67d551b7d7fbf3a1cca6fc.jpg"
  },
  {
    "name": "insomnia",
    "defaultvalue": 0,
    "displayName": "INSOMNIA",
    "hidden": 0,
    "description": "Take a train trip without napping.",
    "icon": "https://steamcdn-a.akamaihd.net/steamcommunity/public/images/apps/740200/bdf97ce5b60747b82200a11b38f3de4b4e900c53.jpg",
    "icongray": "https://steamcdn-a.akamaihd.net/steamcommunity/public/images/apps/740200/e71ff7de736efa46690510e64ac1be2d98ed0bca.jpg"
  },
  {
    "name": "shoot_anna",
    "defaultvalue": 0,
    "displayName": "NOTHING PERSONAL",
    "hidden": 1,
    "icon": "https://steamcdn-a.akamaihd.net/steamcommunity/public/images/apps/740200/c5a09384b930c7f711e71a14759b9836a3c77d9d.jpg",
    "icongray": "https://steamcdn-a.akamaihd.net/steamcommunity/public/images/apps/740200/5a0e3a0fbb2aed1dddc6f6e7fb495325c2a09e69.jpg"
  },
  {
    "name": "not_shoot_anna",
    "defaultvalue": 0,
    "displayName": "WIMP",
    "hidden": 1,
    "icon": "https://steamcdn-a.akamaihd.net/steamcommunity/public/images/apps/740200/75c55128ee889fc0f58a1c498c80898928bd1bd5.jpg",
    "icongray": "https://steamcdn-a.akamaihd.net/steamcommunity/public/images/apps/740200/3662ba9407e66d2cd6fb6b445f9a095e49e1c7a6.jpg"
  },
  {
    "name": "shoot_julia",
    "defaultvalue": 0,
    "displayName": "BITCH",
    "hidden": 1,
    "icon": "https://steamcdn-a.akamaihd.net/steamcommunity/public/images/apps/740200/9e009a705552cc94b9f6f691ef00464b081d8e0e.jpg",
    "icongray": "https://steamcdn-a.akamaihd.net/steamcommunity/public/images/apps/740200/610aacaa250787bef2b26991d9be24b359cc1f73.jpg"
  },
  {
    "name": "bad_ending",
    "defaultvalue": 0,
    "displayName": "DEATH ON MARS",
    "hidden": 1,
    "icon": "https://steamcdn-a.akamaihd.net/steamcommunity/public/images/apps/740200/10fe8d98f71f852592c56dc5ba0e66babc2e62d6.jpg",
    "icongray": "https://steamcdn-a.akamaihd.net/steamcommunity/public/images/apps/740200/d7c9f4e0b5f2d70f0fb261e442aae335c69b1634.jpg"
  },
  {
    "name": "leave_mars_andrew",
    "defaultvalue": 0,
    "displayName": "STRONG BROMANCE",
    "hidden": 1,
    "icon": "https://steamcdn-a.akamaihd.net/steamcommunity/public/images/apps/740200/1af46835001662f7eee8d81218c58fbefcfe3877.jpg",
    "icongray": "https://steamcdn-a.akamaihd.net/steamcommunity/public/images/apps/740200/77eb44d37e52c0e0442e8cc3915d143e27dd6657.jpg"
  },
  {
    "name": "leave_mars_love_andrew",
    "defaultvalue": 0,
    "displayName": "VERY STRONG BROMANCE",
    "hidden": 1,
    "icon": "https://steamcdn-a.akamaihd.net/steamcommunity/public/images/apps/740200/9ede52bff5fd7484965c05edac45e8467d35e625.jpg",
    "icongray": "https://steamcdn-a.akamaihd.net/steamcommunity/public/images/apps/740200/0b902846743c2cfbc5ada0a78d5fbeae1def00a5.jpg"
  },
  {
    "name": "leave_mars_anna",
    "defaultvalue": 0,
    "displayName": "TOWARDS LOVE",
    "hidden": 1,
    "icon": "https://steamcdn-a.akamaihd.net/steamcommunity/public/images/apps/740200/96d86c79d2a70352ff7996411bb84b11fc8904fc.jpg",
    "icongray": "https://steamcdn-a.akamaihd.net/steamcommunity/public/images/apps/740200/0339b0ddc2db027ed1d9c525e9eb7e377c68304d.jpg"
  }
]