﻿[
  {
    "name": "Level10Endless",
    "defaultvalue": 0,
    "displayName": "Decatrode",
    "hidden": 0,
    "description": "Reach level 10 while playing Endless mode.",
    "icon": "https://steamcdn-a.akamaihd.net/steamcommunity/public/images/apps/401120/d8171ee663bca7142867f8b1d2683dec492e76b4.jpg",
    "icongray": "https://steamcdn-a.akamaihd.net/steamcommunity/public/images/apps/401120/a1604fc135f27789bc09e4e55457ab234fd84c84.jpg"
  },
  {
    "name": "Level20Endless",
    "defaultvalue": 0,
    "displayName": "Icosatrode",
    "hidden": 0,
    "description": "Reach level 20 while playing Endless mode.",
    "icon": "https://steamcdn-a.akamaihd.net/steamcommunity/public/images/apps/401120/69e6a3cfe8a1d4c84195e0bf76c21d66768b3247.jpg",
    "icongray": "https://steamcdn-a.akamaihd.net/steamcommunity/public/images/apps/401120/a1604fc135f27789bc09e4e55457ab234fd84c84.jpg"
  },
  {
    "name": "QuestsCompleteBig",
    "defaultvalue": 0,
    "displayName": "Space Cadet",
    "hidden": 0,
    "description": "Complete 10 missions in a single game.",
    "icon": "https://steamcdn-a.akamaihd.net/steamcommunity/public/images/apps/401120/2ae87f21d701feed04e16628323ee8a97bc30693.jpg",
    "icongray": "https://steamcdn-a.akamaihd.net/steamcommunity/public/images/apps/401120/a1604fc135f27789bc09e4e55457ab234fd84c84.jpg"
  },
  {
    "name": "QuestsCompleteBigger",
    "defaultvalue": 0,
    "displayName": "Space Marine",
    "hidden": 0,
    "description": "Complete 30 missions in a single game.",
    "icon": "https://steamcdn-a.akamaihd.net/steamcommunity/public/images/apps/401120/1f3174f3e782716d8a819b87cacfbd38581170bd.jpg",
    "icongray": "https://steamcdn-a.akamaihd.net/steamcommunity/public/images/apps/401120/a1604fc135f27789bc09e4e55457ab234fd84c84.jpg"
  },
  {
    "name": "LongestTimeAttack",
    "defaultvalue": 0,
    "displayName": "Survivor",
    "hidden": 0,
    "description": "Complete a six minute Time Attack.",
    "icon": "https://steamcdn-a.akamaihd.net/steamcommunity/public/images/apps/401120/2b4616b959ffc4f7ba5090801d8ba9f9069f3d55.jpg",
    "icongray": "https://steamcdn-a.akamaihd.net/steamcommunity/public/images/apps/401120/a1604fc135f27789bc09e4e55457ab234fd84c84.jpg"
  },
  {
    "name": "PlayAllGameTypes",
    "defaultvalue": 0,
    "displayName": "Try Them All",
    "hidden": 0,
    "description": "Play all the game types.",
    "icon": "https://steamcdn-a.akamaihd.net/steamcommunity/public/images/apps/401120/8b3d8c16bc70c2f508affe3491e9fff47f8a26d4.jpg",
    "icongray": "https://steamcdn-a.akamaihd.net/steamcommunity/public/images/apps/401120/a1604fc135f27789bc09e4e55457ab234fd84c84.jpg"
  },
  {
    "name": "FiveColors",
    "defaultvalue": 0,
    "displayName": "Rainbow",
    "hidden": 0,
    "description": "Destroy a single chain with all five colors.",
    "icon": "https://steamcdn-a.akamaihd.net/steamcommunity/public/images/apps/401120/af69b9a09bc328546847fbac4e5f2c98163fce41.jpg",
    "icongray": "https://steamcdn-a.akamaihd.net/steamcommunity/public/images/apps/401120/a1604fc135f27789bc09e4e55457ab234fd84c84.jpg"
  },
  {
    "name": "ThreeColorsNoNeutral",
    "defaultvalue": 0,
    "displayName": "Variety",
    "hidden": 0,
    "description": "Destroy a single chain of at least three colors, without using a neutral detonator.",
    "icon": "https://steamcdn-a.akamaihd.net/steamcommunity/public/images/apps/401120/1d7be7880918a3f2fe4a7851b13b7b41e0148551.jpg",
    "icongray": "https://steamcdn-a.akamaihd.net/steamcommunity/public/images/apps/401120/a1604fc135f27789bc09e4e55457ab234fd84c84.jpg"
  },
  {
    "name": "CouplerSmall",
    "defaultvalue": 0,
    "displayName": "Coupler",
    "hidden": 0,
    "description": "Use a coupler to match colors 20 times.",
    "icon": "https://steamcdn-a.akamaihd.net/steamcommunity/public/images/apps/401120/7d3206735189b334c6829155a033709043fd6e1a.jpg",
    "icongray": "https://steamcdn-a.akamaihd.net/steamcommunity/public/images/apps/401120/a1604fc135f27789bc09e4e55457ab234fd84c84.jpg"
  },
  {
    "name": "CouplerBig",
    "defaultvalue": 0,
    "displayName": "Adaptation",
    "hidden": 0,
    "description": "Use a coupler to match colors 100 times.",
    "icon": "https://steamcdn-a.akamaihd.net/steamcommunity/public/images/apps/401120/abfe6bf8ed4e7341053a7956ac7cb6d7b2663d14.jpg",
    "icongray": "https://steamcdn-a.akamaihd.net/steamcommunity/public/images/apps/401120/a1604fc135f27789bc09e4e55457ab234fd84c84.jpg"
  },
  {
    "name": "ChainScoreBig",
    "defaultvalue": 0,
    "displayName": "A Good Start",
    "hidden": 0,
    "description": "Build your sequence score to 100k.",
    "icon": "https://steamcdn-a.akamaihd.net/steamcommunity/public/images/apps/401120/4fd5325614012ea07a2fdb9cc7e2b1047408d1d1.jpg",
    "icongray": "https://steamcdn-a.akamaihd.net/steamcommunity/public/images/apps/401120/a1604fc135f27789bc09e4e55457ab234fd84c84.jpg"
  },
  {
    "name": "ChainScoreBigger",
    "defaultvalue": 0,
    "displayName": "Adding Up",
    "hidden": 0,
    "description": "Build your sequence score to 250k.",
    "icon": "https://steamcdn-a.akamaihd.net/steamcommunity/public/images/apps/401120/d4a7df884e93b4bfa5038191bfad2a671c75709a.jpg",
    "icongray": "https://steamcdn-a.akamaihd.net/steamcommunity/public/images/apps/401120/a1604fc135f27789bc09e4e55457ab234fd84c84.jpg"
  },
  {
    "name": "ChainScoreBiggest",
    "defaultvalue": 0,
    "displayName": "Multiples Times Multiples",
    "hidden": 0,
    "description": "Build your sequence score to 750k.",
    "icon": "https://steamcdn-a.akamaihd.net/steamcommunity/public/images/apps/401120/665a1cf6ae785f1a966963323b864e5b56f7312c.jpg",
    "icongray": "https://steamcdn-a.akamaihd.net/steamcommunity/public/images/apps/401120/a1604fc135f27789bc09e4e55457ab234fd84c84.jpg"
  },
  {
    "name": "ChainOf7",
    "defaultvalue": 0,
    "displayName": "You Earned It",
    "hidden": 0,
    "description": "Detonate a chain of 7 or more. This earns an item!",
    "icon": "https://steamcdn-a.akamaihd.net/steamcommunity/public/images/apps/401120/a0fcc3664706dd2401dbfa9905a89d9f2a26d525.jpg",
    "icongray": "https://steamcdn-a.akamaihd.net/steamcommunity/public/images/apps/401120/a1604fc135f27789bc09e4e55457ab234fd84c84.jpg"
  },
  {
    "name": "ChainOf14",
    "defaultvalue": 0,
    "displayName": "Two Full Rows",
    "hidden": 0,
    "description": "Detonate a chain of 14 or more.",
    "icon": "https://steamcdn-a.akamaihd.net/steamcommunity/public/images/apps/401120/b869229ec9a913efdc7083087f8336e953bb68a7.jpg",
    "icongray": "https://steamcdn-a.akamaihd.net/steamcommunity/public/images/apps/401120/a1604fc135f27789bc09e4e55457ab234fd84c84.jpg"
  },
  {
    "name": "ChainOf21",
    "defaultvalue": 0,
    "displayName": "Blackjack",
    "hidden": 0,
    "description": "Detonate a chain of 21 or more.",
    "icon": "https://steamcdn-a.akamaihd.net/steamcommunity/public/images/apps/401120/5d8880378fc5005bf88b5ad7cc14c9eb961b7bf2.jpg",
    "icongray": "https://steamcdn-a.akamaihd.net/steamcommunity/public/images/apps/401120/a1604fc135f27789bc09e4e55457ab234fd84c84.jpg"
  },
  {
    "name": "Score100kFast",
    "defaultvalue": 0,
    "displayName": "Skill",
    "hidden": 0,
    "description": "Reach 100k points within 75 seconds.",
    "icon": "https://steamcdn-a.akamaihd.net/steamcommunity/public/images/apps/401120/ede0282758cd44c085e68f8adf2ab9d08c3344ce.jpg",
    "icongray": "https://steamcdn-a.akamaihd.net/steamcommunity/public/images/apps/401120/a1604fc135f27789bc09e4e55457ab234fd84c84.jpg"
  },
  {
    "name": "Score100kFaster",
    "defaultvalue": 0,
    "displayName": "Luck",
    "hidden": 0,
    "description": "Reach 100k points within 60 seconds.",
    "icon": "https://steamcdn-a.akamaihd.net/steamcommunity/public/images/apps/401120/4a1114a80bb055f7cb472f17eca78c75c165e855.jpg",
    "icongray": "https://steamcdn-a.akamaihd.net/steamcommunity/public/images/apps/401120/a1604fc135f27789bc09e4e55457ab234fd84c84.jpg"
  },
  {
    "name": "Score100kFastest",
    "defaultvalue": 0,
    "displayName": "Both",
    "hidden": 0,
    "description": "Reach 100k points within 45 seconds.",
    "icon": "https://steamcdn-a.akamaihd.net/steamcommunity/public/images/apps/401120/32c38affcf8024360ababd1564d64c45690df5ce.jpg",
    "icongray": "https://steamcdn-a.akamaihd.net/steamcommunity/public/images/apps/401120/a1604fc135f27789bc09e4e55457ab234fd84c84.jpg"
  },
  {
    "name": "Destroy98NoReset",
    "defaultvalue": 0,
    "displayName": "Full Load",
    "hidden": 0,
    "description": "Destroy 98 blocks without letting your multiplier reset.",
    "icon": "https://steamcdn-a.akamaihd.net/steamcommunity/public/images/apps/401120/c5b287d2257d3af07c1fa226786c4d0ba6ebe5fc.jpg",
    "icongray": "https://steamcdn-a.akamaihd.net/steamcommunity/public/images/apps/401120/a1604fc135f27789bc09e4e55457ab234fd84c84.jpg"
  },
  {
    "name": "Use100Powerups",
    "defaultvalue": 0,
    "displayName": "User",
    "hidden": 0,
    "description": "Use 100 items, across any number of play sessions.",
    "icon": "https://steamcdn-a.akamaihd.net/steamcommunity/public/images/apps/401120/9c933b81e52e2b8ca6fa91d46da032979538dbcc.jpg",
    "icongray": "https://steamcdn-a.akamaihd.net/steamcommunity/public/images/apps/401120/a1604fc135f27789bc09e4e55457ab234fd84c84.jpg"
  },
  {
    "name": "Use500Powerups",
    "defaultvalue": 0,
    "displayName": "Serial User",
    "hidden": 0,
    "description": "Use 300 items, across any number of play sessions.",
    "icon": "https://steamcdn-a.akamaihd.net/steamcommunity/public/images/apps/401120/34b3a1442ea20c594f40c9fb4b328886b038221b.jpg",
    "icongray": "https://steamcdn-a.akamaihd.net/steamcommunity/public/images/apps/401120/a1604fc135f27789bc09e4e55457ab234fd84c84.jpg"
  },
  {
    "name": "UseOffensivePowerup",
    "defaultvalue": 0,
    "displayName": "Pocket Sand",
    "hidden": 0,
    "description": "In a multiplayer game, use an offensive item.",
    "icon": "https://steamcdn-a.akamaihd.net/steamcommunity/public/images/apps/401120/52ac92eeaf502b7625e9da582a94eb539771f685.jpg",
    "icongray": "https://steamcdn-a.akamaihd.net/steamcommunity/public/images/apps/401120/a1604fc135f27789bc09e4e55457ab234fd84c84.jpg"
  },
  {
    "name": "UseEachPowerupOnce",
    "defaultvalue": 0,
    "displayName": "Utility Belt",
    "hidden": 0,
    "description": "Use each item at least once.",
    "icon": "https://steamcdn-a.akamaihd.net/steamcommunity/public/images/apps/401120/581f705eb4c5ae86f5512ce5816602de32508056.jpg",
    "icongray": "https://steamcdn-a.akamaihd.net/steamcommunity/public/images/apps/401120/a1604fc135f27789bc09e4e55457ab234fd84c84.jpg"
  },
  {
    "name": "Play10MultiplayerGames",
    "defaultvalue": 0,
    "displayName": "Initiate",
    "hidden": 0,
    "description": "Play 10 multiplayer games.",
    "icon": "https://steamcdn-a.akamaihd.net/steamcommunity/public/images/apps/401120/0736f1ec81fe1922c1933f16fe2299dabc448a6e.jpg",
    "icongray": "https://steamcdn-a.akamaihd.net/steamcommunity/public/images/apps/401120/a1604fc135f27789bc09e4e55457ab234fd84c84.jpg"
  },
  {
    "name": "Play50MultiplayerGames",
    "defaultvalue": 0,
    "displayName": "Gladiator",
    "hidden": 0,
    "description": "Play 50 multiplayer games.",
    "icon": "https://steamcdn-a.akamaihd.net/steamcommunity/public/images/apps/401120/02daee089f2d40bc83e281e76e88ae9ce7309657.jpg",
    "icongray": "https://steamcdn-a.akamaihd.net/steamcommunity/public/images/apps/401120/a1604fc135f27789bc09e4e55457ab234fd84c84.jpg"
  },
  {
    "name": "Play250MultiplayerGames",
    "defaultvalue": 0,
    "displayName": "Champion",
    "hidden": 0,
    "description": "Play 150 multiplayer games.",
    "icon": "https://steamcdn-a.akamaihd.net/steamcommunity/public/images/apps/401120/97fa64b8e97a18633d9d5eedb1ed1e3bcfd81d08.jpg",
    "icongray": "https://steamcdn-a.akamaihd.net/steamcommunity/public/images/apps/401120/a1604fc135f27789bc09e4e55457ab234fd84c84.jpg"
  },
  {
    "name": "Multiplier10",
    "defaultvalue": 0,
    "displayName": "Deca-",
    "hidden": 0,
    "description": "Reach a sequence of 10 or more.",
    "icon": "https://steamcdn-a.akamaihd.net/steamcommunity/public/images/apps/401120/76cf55ae7a3ad51e3e58a6c4088a18874009f15f.jpg",
    "icongray": "https://steamcdn-a.akamaihd.net/steamcommunity/public/images/apps/401120/a1604fc135f27789bc09e4e55457ab234fd84c84.jpg"
  },
  {
    "name": "Multiplier30",
    "defaultvalue": 0,
    "displayName": "Triaconta-",
    "hidden": 0,
    "description": "Reach a sequence of 30 or more.",
    "icon": "https://steamcdn-a.akamaihd.net/steamcommunity/public/images/apps/401120/e9c1debeabdb1156f3aeb2b5e6ee7bab0b900ed1.jpg",
    "icongray": "https://steamcdn-a.akamaihd.net/steamcommunity/public/images/apps/401120/a1604fc135f27789bc09e4e55457ab234fd84c84.jpg"
  },
  {
    "name": "NoPreviewNoRotation",
    "defaultvalue": 0,
    "displayName": "No Planning",
    "hidden": 0,
    "description": "Have \"Stop Rotation\" and \"Hide Preview\" active on the same player simultaneously.",
    "icon": "https://steamcdn-a.akamaihd.net/steamcommunity/public/images/apps/401120/4a3eed3176ebe7e5911d64e84c35f0197783f942.jpg",
    "icongray": "https://steamcdn-a.akamaihd.net/steamcommunity/public/images/apps/401120/a1604fc135f27789bc09e4e55457ab234fd84c84.jpg"
  },
  {
    "name": "LostWithHigherScore",
    "defaultvalue": 0,
    "displayName": "Anomaly",
    "hidden": 0,
    "description": "Lose a multiplayer game while having a higher score than your opponent.",
    "icon": "https://steamcdn-a.akamaihd.net/steamcommunity/public/images/apps/401120/28e895ab75ccc62ff2e9d9a15eb3bb3f877e2859.jpg",
    "icongray": "https://steamcdn-a.akamaihd.net/steamcommunity/public/images/apps/401120/a1604fc135f27789bc09e4e55457ab234fd84c84.jpg"
  },
  {
    "name": "WinMultiBigHandicap",
    "defaultvalue": 0,
    "displayName": "Recovery",
    "hidden": 0,
    "description": "Win a multiplayer game with a handicap of 4 or more.",
    "icon": "https://steamcdn-a.akamaihd.net/steamcommunity/public/images/apps/401120/47c24177818e10672e6fbedd9f2f80f40ac11f33.jpg",
    "icongray": "https://steamcdn-a.akamaihd.net/steamcommunity/public/images/apps/401120/a1604fc135f27789bc09e4e55457ab234fd84c84.jpg"
  },
  {
    "name": "WinMultiBiggerHandicap",
    "defaultvalue": 0,
    "displayName": "Comeback",
    "hidden": 0,
    "description": "Win a multiplayer game with a handicap of 7 or more.",
    "icon": "https://steamcdn-a.akamaihd.net/steamcommunity/public/images/apps/401120/a6fd534e829c1b2972d560fd436c8c14d2711449.jpg",
    "icongray": "https://steamcdn-a.akamaihd.net/steamcommunity/public/images/apps/401120/a1604fc135f27789bc09e4e55457ab234fd84c84.jpg"
  }
]