﻿[
  {
    "name": "GetALife",
    "defaultvalue": 0,
    "displayName": "True Detective!",
    "hidden": 0,
    "description": "You've collected all of the achievements and then some!",
    "icon": "https://steamcdn-a.akamaihd.net/steamcommunity/public/images/apps/783050/aaed801ba34b468de8ea5c4ebbe465ffdaa068a8.jpg",
    "icongray": "https://steamcdn-a.akamaihd.net/steamcommunity/public/images/apps/783050/e4b41aa9055208d8a8929f42305ddcdd78b3361e.jpg"
  },
  {
    "name": "Magnifier",
    "defaultvalue": 0,
    "displayName": "Arts And Crafts!",
    "hidden": 0,
    "description": "You have made a magnifier!",
    "icon": "https://steamcdn-a.akamaihd.net/steamcommunity/public/images/apps/783050/1999e16098ab00b0df12f3a6b2ef402f6a061ccc.jpg",
    "icongray": "https://steamcdn-a.akamaihd.net/steamcommunity/public/images/apps/783050/34330abc01714e169ae54721550e7876e1438ce2.jpg"
  },
  {
    "name": "Photo101",
    "defaultvalue": 0,
    "displayName": "Photo Development 101!",
    "hidden": 0,
    "description": "You've developed Red's photo!",
    "icon": "https://steamcdn-a.akamaihd.net/steamcommunity/public/images/apps/783050/85865bf62206cf6f05099ea223586d73f51df657.jpg",
    "icongray": "https://steamcdn-a.akamaihd.net/steamcommunity/public/images/apps/783050/8ea2136a8eb5ee2f2da2ea86fd695eee1c85bafe.jpg"
  },
  {
    "name": "Hook",
    "defaultvalue": 0,
    "displayName": "Higher Aspirations!",
    "hidden": 0,
    "description": "You have crafted the attic hook!",
    "icon": "https://steamcdn-a.akamaihd.net/steamcommunity/public/images/apps/783050/51d87acb081edec5e33851d990834953f2878133.jpg",
    "icongray": "https://steamcdn-a.akamaihd.net/steamcommunity/public/images/apps/783050/716d9d88dba66d556929151dadca36908f0552f1.jpg"
  },
  {
    "name": "HardWork",
    "defaultvalue": 0,
    "displayName": "Forging Documents Is Hard Work!",
    "hidden": 0,
    "description": "Got the clearance to the city!",
    "icon": "https://steamcdn-a.akamaihd.net/steamcommunity/public/images/apps/783050/f117c60b020540c791bf294e8945f93d3ff56b40.jpg",
    "icongray": "https://steamcdn-a.akamaihd.net/steamcommunity/public/images/apps/783050/143b5772c919238aaddd66212500d7bf8f5ce8e5.jpg"
  },
  {
    "name": "Flashlight",
    "defaultvalue": 0,
    "displayName": "Fear Of The Dark!",
    "hidden": 0,
    "description": "You've got the flashlight working!",
    "icon": "https://steamcdn-a.akamaihd.net/steamcommunity/public/images/apps/783050/f5b7c5d06391e9d86381e3f3d3c58261d6bf86eb.jpg",
    "icongray": "https://steamcdn-a.akamaihd.net/steamcommunity/public/images/apps/783050/07cca5e28dacddf8d2c2579fa9d17ca0310631ee.jpg"
  },
  {
    "name": "LaughingStock",
    "defaultvalue": 0,
    "displayName": "Laughing Stock!",
    "hidden": 0,
    "description": "You have made Ted a laughing stock!",
    "icon": "https://steamcdn-a.akamaihd.net/steamcommunity/public/images/apps/783050/e73b2314584c39d1f5077eff5370d6d5e2633685.jpg",
    "icongray": "https://steamcdn-a.akamaihd.net/steamcommunity/public/images/apps/783050/435abf9aae414aec4bf1e626da03ffa550a1ebaa.jpg"
  },
  {
    "name": "Murderer",
    "defaultvalue": 0,
    "displayName": "Murderer!",
    "hidden": 1,
    "icon": "https://steamcdn-a.akamaihd.net/steamcommunity/public/images/apps/783050/ba324f42b524f9fc304b3262d393601beb00c1d4.jpg",
    "icongray": "https://steamcdn-a.akamaihd.net/steamcommunity/public/images/apps/783050/5b845dea02b4a57bbbe31981381bf0ac58203824.jpg"
  },
  {
    "name": "Elvis",
    "defaultvalue": 0,
    "displayName": "Red Has Left the Building!",
    "hidden": 1,
    "icon": "https://steamcdn-a.akamaihd.net/steamcommunity/public/images/apps/783050/c933ad474cf8e82137f1b97a4748e8793e7fd82e.jpg",
    "icongray": "https://steamcdn-a.akamaihd.net/steamcommunity/public/images/apps/783050/94b64145420f1d9d29be5e4f36cbeb9d1ba55d59.jpg"
  },
  {
    "name": "HeavyStuff",
    "defaultvalue": 0,
    "displayName": " I'm Into Heavier Stuff!",
    "hidden": 1,
    "icon": "https://steamcdn-a.akamaihd.net/steamcommunity/public/images/apps/783050/b9c8a24936d582c0cf06017573d24c2b5b6cb54d.jpg",
    "icongray": "https://steamcdn-a.akamaihd.net/steamcommunity/public/images/apps/783050/54d6bb5876479f201712096d561f16f2688bcc8e.jpg"
  },
  {
    "name": "FunkyThing",
    "defaultvalue": 0,
    "displayName": "Play That Funky Thing!",
    "hidden": 1,
    "icon": "https://steamcdn-a.akamaihd.net/steamcommunity/public/images/apps/783050/46aa963c3e127940782da1751fe1272c583344a3.jpg",
    "icongray": "https://steamcdn-a.akamaihd.net/steamcommunity/public/images/apps/783050/29095e328b40bd506b67ec99961046bdb0487188.jpg"
  },
  {
    "name": "Globe",
    "defaultvalue": 0,
    "displayName": "Around The World!",
    "hidden": 1,
    "icon": "https://steamcdn-a.akamaihd.net/steamcommunity/public/images/apps/783050/fbbb88132b6a944767dd8fef24a636497fa1c71b.jpg",
    "icongray": "https://steamcdn-a.akamaihd.net/steamcommunity/public/images/apps/783050/814f8d1c3e227ece26e725e3d8dc503ea9b6c5af.jpg"
  },
  {
    "name": "SecretMessage",
    "defaultvalue": 0,
    "displayName": "Protective Custody!",
    "hidden": 0,
    "description": "You've listened to the secret message... Now never speak of it again... Or else!",
    "icon": "https://steamcdn-a.akamaihd.net/steamcommunity/public/images/apps/783050/a3340a8d87329d404d5324511d7b13438d29c179.jpg",
    "icongray": "https://steamcdn-a.akamaihd.net/steamcommunity/public/images/apps/783050/2d41ad6ec1cc6c7fe6a638f60bf4836551117495.jpg"
  },
  {
    "name": "TrueDetective",
    "defaultvalue": 0,
    "displayName": "Evidence!",
    "hidden": 1,
    "icon": "https://steamcdn-a.akamaihd.net/steamcommunity/public/images/apps/783050/9ca6c8fd81d09ae47f59a92a20b5bc2176cb42e5.jpg",
    "icongray": "https://steamcdn-a.akamaihd.net/steamcommunity/public/images/apps/783050/d3a6d94d2f4276860ad2f01646b318bac7cec205.jpg"
  },
  {
    "name": "MissedOpportunity",
    "defaultvalue": 0,
    "displayName": "Missed Opportunity!",
    "hidden": 1,
    "icon": "https://steamcdn-a.akamaihd.net/steamcommunity/public/images/apps/783050/3d5e1c51838152e27840d970e9a24fbdb54e19f9.jpg",
    "icongray": "https://steamcdn-a.akamaihd.net/steamcommunity/public/images/apps/783050/0c03d4a63a98b643b4d5277dbe60d3681fb0d07c.jpg"
  },
  {
    "name": "Excelsior",
    "defaultvalue": 0,
    "displayName": "Excelsior!",
    "hidden": 0,
    "description": "You have finished episode 1!",
    "icon": "https://steamcdn-a.akamaihd.net/steamcommunity/public/images/apps/783050/090e8fe0a4a51c9f4602c2bfdf17353425193882.jpg",
    "icongray": "https://steamcdn-a.akamaihd.net/steamcommunity/public/images/apps/783050/054c942fabad7395207aaa0534860eaf8140b5d8.jpg"
  },
  {
    "name": "ProductPlacement",
    "defaultvalue": 0,
    "displayName": "Product Placement!",
    "hidden": 0,
    "description": "You've found Nephil's Fall action figure!",
    "icon": "https://steamcdn-a.akamaihd.net/steamcommunity/public/images/apps/783050/fb6225d2c69d128ca0caf8a9de089e79b29f88db.jpg",
    "icongray": "https://steamcdn-a.akamaihd.net/steamcommunity/public/images/apps/783050/e8f3f639bfc52c3786e5d2e8a745816c0a401d49.jpg"
  },
  {
    "name": "Craftsman",
    "defaultvalue": 0,
    "displayName": "Metal Attraction!",
    "hidden": 0,
    "description": "You've crafted the one and only MCD 3000! Good job!",
    "icon": "https://steamcdn-a.akamaihd.net/steamcommunity/public/images/apps/783050/afed5504bd9868997f29fb2277c51ebb9f081b90.jpg",
    "icongray": "https://steamcdn-a.akamaihd.net/steamcommunity/public/images/apps/783050/85a9a96a66d02415830511352f6c128a270836b8.jpg"
  },
  {
    "name": "Stalker",
    "defaultvalue": 0,
    "displayName": "Soaking The Stalker!",
    "hidden": 1,
    "icon": "https://steamcdn-a.akamaihd.net/steamcommunity/public/images/apps/783050/068a27ad43cc40fe115f8e5de6c1e2ee0b35033a.jpg",
    "icongray": "https://steamcdn-a.akamaihd.net/steamcommunity/public/images/apps/783050/efc497050acff8855b2ff79b1b7a6ded8313ab3a.jpg"
  },
  {
    "name": "Button",
    "defaultvalue": 0,
    "displayName": "DeeDee Don’t Touch The Button!",
    "hidden": 1,
    "icon": "https://steamcdn-a.akamaihd.net/steamcommunity/public/images/apps/783050/f6cdfc345f58fc69693efb7b7fa9bff57388eb13.jpg",
    "icongray": "https://steamcdn-a.akamaihd.net/steamcommunity/public/images/apps/783050/2e91efc73c969c7f0b349f73b8a7d9a9eb17a658.jpg"
  },
  {
    "name": "Captain",
    "defaultvalue": 0,
    "displayName": "Oh Captain My Captain!",
    "hidden": 0,
    "description": "You've read all the pages - and received a standing ovation!",
    "icon": "https://steamcdn-a.akamaihd.net/steamcommunity/public/images/apps/783050/5901247e67c5715557df0fa1a22ee1afd12eb4c4.jpg",
    "icongray": "https://steamcdn-a.akamaihd.net/steamcommunity/public/images/apps/783050/21929aa6e81fdbe75c36f56defc6d2fd0129e395.jpg"
  },
  {
    "name": "Bridge",
    "defaultvalue": 0,
    "displayName": "Bridge Over Troubled Water!",
    "hidden": 0,
    "description": "You've lowered the Bridge - you shall now pass!",
    "icon": "https://steamcdn-a.akamaihd.net/steamcommunity/public/images/apps/783050/916d0136a63a4342e1022b0bd1a6938e5e4a0206.jpg",
    "icongray": "https://steamcdn-a.akamaihd.net/steamcommunity/public/images/apps/783050/9b44a1509c9d7f195193ffc5e3b33c898fcf61ee.jpg"
  },
  {
    "name": "Seagull",
    "defaultvalue": 0,
    "displayName": "Eye Of The Seagull!",
    "hidden": 1,
    "icon": "https://steamcdn-a.akamaihd.net/steamcommunity/public/images/apps/783050/27c04d796243fa0a6354489a0ffd6761d4da057c.jpg",
    "icongray": "https://steamcdn-a.akamaihd.net/steamcommunity/public/images/apps/783050/a66a888a59aab5bf1f327671e5cec23ad5e5a442.jpg"
  },
  {
    "name": "Bribery",
    "defaultvalue": 0,
    "displayName": "Attempt On Bribery!",
    "hidden": 1,
    "icon": "https://steamcdn-a.akamaihd.net/steamcommunity/public/images/apps/783050/ccc4d1d1abc4cfe216bf6c6d5fd4847b331f2e3b.jpg",
    "icongray": "https://steamcdn-a.akamaihd.net/steamcommunity/public/images/apps/783050/66eee3153ca144dc7aaaf6be178a4518911d25f5.jpg"
  },
  {
    "name": "Spot",
    "defaultvalue": 0,
    "displayName": " Ooops! Missed A Spot!",
    "hidden": 1,
    "icon": "https://steamcdn-a.akamaihd.net/steamcommunity/public/images/apps/783050/0301ca07f2dd0d82c414f9d806035fbf59c9acd9.jpg",
    "icongray": "https://steamcdn-a.akamaihd.net/steamcommunity/public/images/apps/783050/09b283a96b6a360d9cf7679d909e8778f49c8963.jpg"
  },
  {
    "name": "FourthWall",
    "defaultvalue": 0,
    "displayName": "Breaking The Wall!",
    "hidden": 0,
    "description": "You've broken the 4th Wall! Now to find some duct tape!",
    "icon": "https://steamcdn-a.akamaihd.net/steamcommunity/public/images/apps/783050/2ed7b3d99785e56628d60b39da261e55330d9c82.jpg",
    "icongray": "https://steamcdn-a.akamaihd.net/steamcommunity/public/images/apps/783050/5e47274d2683f15dfd5b69718d5a69364860772a.jpg"
  },
  {
    "name": "Rider",
    "defaultvalue": 0,
    "displayName": "Performance Criteria!",
    "hidden": 0,
    "description": "You've found the rider! ",
    "icon": "https://steamcdn-a.akamaihd.net/steamcommunity/public/images/apps/783050/35dbfc9e8cf745f93e52092556c3056aebc035cf.jpg",
    "icongray": "https://steamcdn-a.akamaihd.net/steamcommunity/public/images/apps/783050/2834c8c4556d98a03a576bbe4adfcafa8295e370.jpg"
  },
  {
    "name": "Nuts",
    "defaultvalue": 0,
    "displayName": "I’m Nuts!",
    "hidden": 0,
    "description": "Congratulations! You're nuts!",
    "icon": "https://steamcdn-a.akamaihd.net/steamcommunity/public/images/apps/783050/a634d1585116da5ddc63e627dbfc92a6b275322c.jpg",
    "icongray": "https://steamcdn-a.akamaihd.net/steamcommunity/public/images/apps/783050/aab4dc70123c58c9c38a3931cd727429b7136b24.jpg"
  },
  {
    "name": "SocialButterfly",
    "defaultvalue": 0,
    "displayName": "Social Butterfly!",
    "hidden": 0,
    "description": "You've mingled with everyone in the room!",
    "icon": "https://steamcdn-a.akamaihd.net/steamcommunity/public/images/apps/783050/6f2d30c2a939e04e4ab721b0cc7ffe49d131d94b.jpg",
    "icongray": "https://steamcdn-a.akamaihd.net/steamcommunity/public/images/apps/783050/f9f514dee06f1bfce32b19125946a1da9b392a52.jpg"
  },
  {
    "name": "CripplingAddiction",
    "defaultvalue": 0,
    "displayName": "Crippling Addiction!",
    "hidden": 0,
    "description": "Gambled away my inheritance!",
    "icon": "https://steamcdn-a.akamaihd.net/steamcommunity/public/images/apps/783050/e91edc298b014b32c6c7452f4d0b1f263f5ac1fa.jpg",
    "icongray": "https://steamcdn-a.akamaihd.net/steamcommunity/public/images/apps/783050/605e1b6e386bf3067931c11d35d3c8965ab01a1a.jpg"
  },
  {
    "name": "OhSnap",
    "defaultvalue": 0,
    "displayName": "Oh Snap!",
    "hidden": 1,
    "icon": "https://steamcdn-a.akamaihd.net/steamcommunity/public/images/apps/783050/d516e80b0f4efe3128f211637b2f0a6032b0bf6d.jpg",
    "icongray": "https://steamcdn-a.akamaihd.net/steamcommunity/public/images/apps/783050/5918413c189ddc40d5839bab216ebaf6d3b336c4.jpg"
  },
  {
    "name": "SlumbearMillionaire",
    "defaultvalue": 0,
    "displayName": "Slumbear Millionaire (and now to find Latica)!",
    "hidden": 0,
    "description": "You've just won - This achievement! Now you can apply to a real trivia!",
    "icon": "https://steamcdn-a.akamaihd.net/steamcommunity/public/images/apps/783050/37d700e4b4de9383048740e5e538e904d48aaa71.jpg",
    "icongray": "https://steamcdn-a.akamaihd.net/steamcommunity/public/images/apps/783050/b7351e36bc2c0a0dfe4ca57eddeb02b535464dca.jpg"
  },
  {
    "name": "Voodoo",
    "defaultvalue": 0,
    "displayName": "Voodoo Charmed I’m Sure!",
    "hidden": 0,
    "description": "You've messed with the shadow (wo)man!",
    "icon": "https://steamcdn-a.akamaihd.net/steamcommunity/public/images/apps/783050/a5d92c7c532d703b928df49dd18b3a5c9c9904c2.jpg",
    "icongray": "https://steamcdn-a.akamaihd.net/steamcommunity/public/images/apps/783050/10e85bffa646c40c1b9a4e815ed459a8d0fd8678.jpg"
  },
  {
    "name": "TheFifthElement",
    "defaultvalue": 0,
    "displayName": "The Fifth Element!",
    "hidden": 1,
    "icon": "https://steamcdn-a.akamaihd.net/steamcommunity/public/images/apps/783050/4500d397bf7f39d690d0abf67546c268518dd871.jpg",
    "icongray": "https://steamcdn-a.akamaihd.net/steamcommunity/public/images/apps/783050/49044e0b9cd40d50b423f9b88b2b4fa658c79428.jpg"
  },
  {
    "name": "SeekAndDestroy",
    "defaultvalue": 0,
    "displayName": "Seek And Destroy!",
    "hidden": 1,
    "icon": "https://steamcdn-a.akamaihd.net/steamcommunity/public/images/apps/783050/e83278dd116c789f8b0d11e23a158cc52c804a4b.jpg",
    "icongray": "https://steamcdn-a.akamaihd.net/steamcommunity/public/images/apps/783050/72c983d0b9002d6097119cd0368f7a40b211e656.jpg"
  },
  {
    "name": "DarkKnight",
    "defaultvalue": 0,
    "displayName": "The Dark Knight Falls!",
    "hidden": 1,
    "icon": "https://steamcdn-a.akamaihd.net/steamcommunity/public/images/apps/783050/c3c0f27c4235325dbb53a9079b74b19675e8c5a8.jpg",
    "icongray": "https://steamcdn-a.akamaihd.net/steamcommunity/public/images/apps/783050/d8c47b88929d602618ade1ef8d166ff074b93cbd.jpg"
  },
  {
    "name": "Snitch",
    "defaultvalue": 0,
    "displayName": "Dead Officer Mitch!",
    "hidden": 1,
    "icon": "https://steamcdn-a.akamaihd.net/steamcommunity/public/images/apps/783050/b413d1852b11d25c719f6cfe0504626797f04f33.jpg",
    "icongray": "https://steamcdn-a.akamaihd.net/steamcommunity/public/images/apps/783050/c6480a3fed19aaf9a70b9a18d5328d206c5fed7b.jpg"
  },
  {
    "name": "Bear",
    "defaultvalue": 0,
    "displayName": "I’m A Bear Not A Rat!",
    "hidden": 1,
    "icon": "https://steamcdn-a.akamaihd.net/steamcommunity/public/images/apps/783050/9441e41fc10772b84ca15555c0709884dca2f9c5.jpg",
    "icongray": "https://steamcdn-a.akamaihd.net/steamcommunity/public/images/apps/783050/5505d7c2a33a353cba1874d5c54ee379eddde586.jpg"
  },
  {
    "name": "Monkey",
    "defaultvalue": 0,
    "displayName": "Feed The Monkey!",
    "hidden": 1,
    "icon": "https://steamcdn-a.akamaihd.net/steamcommunity/public/images/apps/783050/9f3ab6bde84cd092234bfcbebd22c3b9f1cf9ded.jpg",
    "icongray": "https://steamcdn-a.akamaihd.net/steamcommunity/public/images/apps/783050/17a9698294cb8d9d2c1368bbd275bec148f7fec6.jpg"
  },
  {
    "name": "DirtyTed",
    "defaultvalue": 0,
    "displayName": "Do You Feel Lucky? Well Do Ya Shark?!",
    "hidden": 1,
    "icon": "https://steamcdn-a.akamaihd.net/steamcommunity/public/images/apps/783050/9ce7ff1fbbff8de703cc12c4587faa9750bb53cd.jpg",
    "icongray": "https://steamcdn-a.akamaihd.net/steamcommunity/public/images/apps/783050/a0d6012c6b13379d89e8fae1ecde155aff6d281b.jpg"
  },
  {
    "name": "Paws",
    "defaultvalue": 0,
    "displayName": "We’re Gonna Need A Bigger Gun!",
    "hidden": 1,
    "icon": "https://steamcdn-a.akamaihd.net/steamcommunity/public/images/apps/783050/9ef0292c31c6ce5b32303ed8f18968e216f48407.jpg",
    "icongray": "https://steamcdn-a.akamaihd.net/steamcommunity/public/images/apps/783050/f6bd030253c1b71899d7a2640b5a03da477d5ae5.jpg"
  },
  {
    "name": "RabbitSeason",
    "defaultvalue": 0,
    "displayName": "Rabbit Season!",
    "hidden": 1,
    "icon": "https://steamcdn-a.akamaihd.net/steamcommunity/public/images/apps/783050/20df4173f856721eaf5b18a26aff1bfde0c848a5.jpg",
    "icongray": "https://steamcdn-a.akamaihd.net/steamcommunity/public/images/apps/783050/1c58d4f6a110674f131480a7c6866e6ce0ea22c7.jpg"
  },
  {
    "name": "DuckSeason",
    "defaultvalue": 0,
    "displayName": "Duck Season!",
    "hidden": 1,
    "icon": "https://steamcdn-a.akamaihd.net/steamcommunity/public/images/apps/783050/bc63e689c7a67a03f464d216379d237f9bf7d39f.jpg",
    "icongray": "https://steamcdn-a.akamaihd.net/steamcommunity/public/images/apps/783050/8d2fef5a2848834ed0e38164177e9f71c5b008ed.jpg"
  },
  {
    "name": "ItsNotGonnaRain",
    "defaultvalue": 0,
    "displayName": "It's Not Gonna Rain!",
    "hidden": 0,
    "description": "Who needs an umbrella anyway!",
    "icon": "https://steamcdn-a.akamaihd.net/steamcommunity/public/images/apps/783050/2203c759b85f4aa18f232b8b2e8fe1ecabcca77c.jpg",
    "icongray": "https://steamcdn-a.akamaihd.net/steamcommunity/public/images/apps/783050/710acac93146b90ddb7f49077816450cf62b65a2.jpg"
  },
  {
    "name": "VoodooJones",
    "defaultvalue": 0,
    "displayName": "Call Me Voodoo Jones!",
    "hidden": 0,
    "description": "I do love my voodoo!",
    "icon": "https://steamcdn-a.akamaihd.net/steamcommunity/public/images/apps/783050/34e52f780a5179335aa26811366fbfe5fb658325.jpg",
    "icongray": "https://steamcdn-a.akamaihd.net/steamcommunity/public/images/apps/783050/01555a5319ec2f92e33aef7f7ba5c1c0a4f603a5.jpg"
  },
  {
    "name": "PlaceYourBets",
    "defaultvalue": 0,
    "displayName": "Place Your Bets!",
    "hidden": 1,
    "icon": "https://steamcdn-a.akamaihd.net/steamcommunity/public/images/apps/783050/0d89a5b420d025699c0ccfdd4abe7b79e5894397.jpg",
    "icongray": "https://steamcdn-a.akamaihd.net/steamcommunity/public/images/apps/783050/2acc13580f69e4d446e9ed782d142830651c7abd.jpg"
  },
  {
    "name": "TheMechanist",
    "defaultvalue": 0,
    "displayName": "The Mechanist!",
    "hidden": 0,
    "description": "The mechanist cracks any vault mechanism open in 12 or less actions!",
    "icon": "https://steamcdn-a.akamaihd.net/steamcommunity/public/images/apps/783050/471aaf6465dc763cecaf7357d766840f1ce06419.jpg",
    "icongray": "https://steamcdn-a.akamaihd.net/steamcommunity/public/images/apps/783050/bba0d68a50fc9e77b7d986068e6e5478a4ef6b62.jpg"
  },
  {
    "name": "BearDebts",
    "defaultvalue": 0,
    "displayName": "A Bear Always Pays His Debts!",
    "hidden": 1,
    "icon": "https://steamcdn-a.akamaihd.net/steamcommunity/public/images/apps/783050/bb2783d07365e06f75f98f4dac4077205a33b1e1.jpg",
    "icongray": "https://steamcdn-a.akamaihd.net/steamcommunity/public/images/apps/783050/fb3cab29f9ca8c4075342b8ca3ac4cc3158ce503.jpg"
  },
  {
    "name": "Quacker",
    "defaultvalue": 0,
    "displayName": "I'm A Quacker!",
    "hidden": 0,
    "description": "Just can't stop quacking!",
    "icon": "https://steamcdn-a.akamaihd.net/steamcommunity/public/images/apps/783050/1776dc1c8bbc6d9cf7d11f00ff796d1a2a093012.jpg",
    "icongray": "https://steamcdn-a.akamaihd.net/steamcommunity/public/images/apps/783050/3f871dcb6ea78fa7a002ee5c5a8e7cca568070b5.jpg"
  },
  {
    "name": "NoRestForTheWicked",
    "defaultvalue": 0,
    "displayName": "No Rest For The Wicked!",
    "hidden": 0,
    "description": "Know your priorities!",
    "icon": "https://steamcdn-a.akamaihd.net/steamcommunity/public/images/apps/783050/7bca8f4a4dd133c89b2118c47bcc61eef169c9f4.jpg",
    "icongray": "https://steamcdn-a.akamaihd.net/steamcommunity/public/images/apps/783050/a8d207858bae77a81b2762a8612b8b06d3ac2a0e.jpg"
  },
  {
    "name": "Bookworm",
    "defaultvalue": 0,
    "displayName": "Bookworm!",
    "hidden": 0,
    "description": "You know your books!",
    "icon": "https://steamcdn-a.akamaihd.net/steamcommunity/public/images/apps/783050/34bc461134d7138616d960ab3fc3be7741bd91c8.jpg",
    "icongray": "https://steamcdn-a.akamaihd.net/steamcommunity/public/images/apps/783050/c32740aeb447a962e1961f44619d5b7302f81ceb.jpg"
  },
  {
    "name": "YouGotServed",
    "defaultvalue": 0,
    "displayName": "You Got Served, Lawrence!",
    "hidden": 0,
    "description": "Insult on injury I tell you that!",
    "icon": "https://steamcdn-a.akamaihd.net/steamcommunity/public/images/apps/783050/e37c6833df509c02acf94448a04f6c19ab59f8df.jpg",
    "icongray": "https://steamcdn-a.akamaihd.net/steamcommunity/public/images/apps/783050/7ac131b05987588902b3d9ddf3c48b0a287f26a2.jpg"
  },
  {
    "name": "Drinkindor",
    "defaultvalue": 0,
    "displayName": "Drinkindor!",
    "hidden": 1,
    "icon": "https://steamcdn-a.akamaihd.net/steamcommunity/public/images/apps/783050/890f705a409296552c68fb8342ffda1c479735b1.jpg",
    "icongray": "https://steamcdn-a.akamaihd.net/steamcommunity/public/images/apps/783050/706214c79f494c3173ce93e1de5dfce58919d6fa.jpg"
  },
  {
    "name": "GirlScout",
    "defaultvalue": 0,
    "displayName": "Girl Scout!",
    "hidden": 0,
    "description": "You merely visited the forest. I was born in it, molded by it!",
    "icon": "https://steamcdn-a.akamaihd.net/steamcommunity/public/images/apps/783050/17f984152c129ff2891d88e0604d75b67bc4ef22.jpg",
    "icongray": "https://steamcdn-a.akamaihd.net/steamcommunity/public/images/apps/783050/be0fa85a03330d9273019d1816e76d9682674fd9.jpg"
  },
  {
    "name": "TwoForOne",
    "defaultvalue": 0,
    "displayName": "Two For One!",
    "hidden": 0,
    "description": "How is that even fair!",
    "icon": "https://steamcdn-a.akamaihd.net/steamcommunity/public/images/apps/783050/61adb2bd1d60c71ea3de35bc2a36bd98e51be6bd.jpg",
    "icongray": "https://steamcdn-a.akamaihd.net/steamcommunity/public/images/apps/783050/12bfc959cee8b3aaa78761ffb8dea04ef281adcf.jpg"
  },
  {
    "name": "PermitA39",
    "defaultvalue": 0,
    "displayName": "Permit A39, Please!",
    "hidden": 0,
    "description": "Bureaucracy, bureaucracy, bureaucracy!",
    "icon": "https://steamcdn-a.akamaihd.net/steamcommunity/public/images/apps/783050/9fa6d592add0f34862c6a47ce9533fa93c988bc2.jpg",
    "icongray": "https://steamcdn-a.akamaihd.net/steamcommunity/public/images/apps/783050/f86f7452e16a3e5f4cf987f7bb606af811f21605.jpg"
  },
  {
    "name": "GroundhogDay",
    "defaultvalue": 0,
    "displayName": "Groundhog Day!",
    "hidden": 1,
    "icon": "https://steamcdn-a.akamaihd.net/steamcommunity/public/images/apps/783050/9d83472f973c9ae2727b63ac2dc6fa259864f669.jpg",
    "icongray": "https://steamcdn-a.akamaihd.net/steamcommunity/public/images/apps/783050/19f43f22e586932db18fc0a141ad01ff5dba8e85.jpg"
  },
  {
    "name": "HesGone",
    "defaultvalue": 0,
    "displayName": "He's Gone!",
    "hidden": 1,
    "icon": "https://steamcdn-a.akamaihd.net/steamcommunity/public/images/apps/783050/1e8e6e668e78d615b22d7a7c1f8292ab8c9c633b.jpg",
    "icongray": "https://steamcdn-a.akamaihd.net/steamcommunity/public/images/apps/783050/04347f39a12ba3ca1f5c3bf637e7b0edd1d0a5e8.jpg"
  },
  {
    "name": "SheKnew",
    "defaultvalue": 0,
    "displayName": " She Knew!",
    "hidden": 1,
    "icon": "https://steamcdn-a.akamaihd.net/steamcommunity/public/images/apps/783050/8ce1cbd57553baac8b3329938e8d3ff254c20762.jpg",
    "icongray": "https://steamcdn-a.akamaihd.net/steamcommunity/public/images/apps/783050/be0fa85a03330d9273019d1816e76d9682674fd9.jpg"
  },
  {
    "name": "KingsEvidence",
    "defaultvalue": 0,
    "displayName": "King's Evidence!",
    "hidden": 1,
    "icon": "https://steamcdn-a.akamaihd.net/steamcommunity/public/images/apps/783050/c8170a488b6c6525ef6f475e8b3939634ac2fdc5.jpg",
    "icongray": "https://steamcdn-a.akamaihd.net/steamcommunity/public/images/apps/783050/95886e280209330a4163bb9ac165c7e6d08486b9.jpg"
  },
  {
    "name": "TrueColors",
    "defaultvalue": 0,
    "displayName": "True Colors!",
    "hidden": 1,
    "icon": "https://steamcdn-a.akamaihd.net/steamcommunity/public/images/apps/783050/c5ee5daa2a2a2a611b2ce56df6f0a608479e72cc.jpg",
    "icongray": "https://steamcdn-a.akamaihd.net/steamcommunity/public/images/apps/783050/d6d78177df92c5fdd2cdd4cff6855e307ffb692f.jpg"
  },
  {
    "name": "HomeAtLast",
    "defaultvalue": 0,
    "displayName": "Home At Last!",
    "hidden": 1,
    "icon": "https://steamcdn-a.akamaihd.net/steamcommunity/public/images/apps/783050/6ac22c97b2a763baef3337f527b4e7d2763d3858.jpg",
    "icongray": "https://steamcdn-a.akamaihd.net/steamcommunity/public/images/apps/783050/2dc6c679dc3f314e8829f880dbf4bd75359baac8.jpg"
  },
  {
    "name": "CrimeScenery",
    "defaultvalue": 0,
    "displayName": "Enjoying The Crime Scenery!",
    "hidden": 0,
    "description": "Look at all that evidence!",
    "icon": "https://steamcdn-a.akamaihd.net/steamcommunity/public/images/apps/783050/9149be6aa7e430c9c21aa2b24849aa88ace90750.jpg",
    "icongray": "https://steamcdn-a.akamaihd.net/steamcommunity/public/images/apps/783050/c52cfe2fa7e899df98d4c5258803b6c8db3617a6.jpg"
  },
  {
    "name": "Chestburster",
    "defaultvalue": 0,
    "displayName": "Chestburster!",
    "hidden": 0,
    "description": "You ordered a Nerve Wreck Double Special!",
    "icon": "https://steamcdn-a.akamaihd.net/steamcommunity/public/images/apps/783050/3444155af9f15a7525f27d89c329abe6c93321fb.jpg",
    "icongray": "https://steamcdn-a.akamaihd.net/steamcommunity/public/images/apps/783050/505c6fe8c4733e3bc0aa7b89515e5a76f1f2385b.jpg"
  },
  {
    "name": "VoodooPeople",
    "defaultvalue": 0,
    "displayName": "Voodoo People Puzzle People!",
    "hidden": 0,
    "description": "Impeccable voodoo senses!",
    "icon": "https://steamcdn-a.akamaihd.net/steamcommunity/public/images/apps/783050/afabf0d1a68b15d03db3ae65c920f16afa60defe.jpg",
    "icongray": "https://steamcdn-a.akamaihd.net/steamcommunity/public/images/apps/783050/3de15dd511814e4a89184480562ad5a459879135.jpg"
  }
]