﻿{
  "Dlcs": {},
  "Name": "Hooligan Vasja: Christmas",
  "AppId": "667360",
  "ImageUrl": "https://steamcdn-a.akamaihd.net/steam/apps/667360/header.jpg?t=1521449307",
  "Languages": [
    "english",
    "french",
    "italian",
    "german",
    "spanish",
    "portuguese",
    "dutch",
    "polish",
    "russian",
    "turkish",
    "ukrainian"
  ],
  "Platforms": {
    "windows": true,
    "mac": false,
    "linux": false
  }
}