{
  "Dlcs": {},
  "Name": "Damn Dolls",
  "AppId": "1269240",
  "ImageUrl": "https://steamcdn-a.akamaihd.net/steam/apps/1269240/header.jpg?t=1587572430",
  "Languages": [
    "english"
  ],
  "Platforms": {
    "windows": true,
    "mac": false,
    "linux": false
  }
}