{
  "Dlcs": {},
  "Name": "Who Stole My Beard?",
  "AppId": "1141270",
  "ImageUrl": "https://steamcdn-a.akamaihd.net/steam/apps/1141270/header.jpg?t=1586223031",
  "Languages": [
    "english"
  ],
  "Platforms": {
    "windows": true,
    "mac": true,
    "linux": false
  }
}