{
  "Dlcs": {},
  "Name": "Blood Ties",
  "AppId": "544870",
  "ImageUrl": "https://steamcdn-a.akamaihd.net/steam/apps/544870/header.jpg?t=1577898627",
  "Languages": [
    "english"
  ],
  "Platforms": {
    "windows": true,
    "mac": false,
    "linux": false
  }
}