{
  "Dlcs": {},
  "Name": "Tragedy of Loneliness",
  "AppId": "1340030",
  "ImageUrl": "https://steamcdn-a.akamaihd.net/steam/apps/1340030/header.jpg?t=1597663475",
  "Languages": [
    "english",
    "turkish"
  ],
  "Platforms": {
    "windows": true,
    "mac": false,
    "linux": false
  }
}