{
  "Dlcs": {},
  "Name": "Art Heist",
  "AppId": "1210530",
  "ImageUrl": "https://steamcdn-a.akamaihd.net/steam/apps/1210530/header.jpg?t=1577894207",
  "Languages": [
    "english"
  ],
  "Platforms": {
    "windows": true,
    "mac": false,
    "linux": false
  }
}