{
  "Dlcs": {},
  "Name": "BurningBridges VR",
  "AppId": "818430",
  "ImageUrl": "https://steamcdn-a.akamaihd.net/steam/apps/818430/header.jpg?t=1559535850",
  "Languages": [
    "english"
  ],
  "Platforms": {
    "windows": true,
    "mac": false,
    "linux": false
  }
}