{
  "Dlcs": {},
  "Name": "SchoolWar - become a VR AnimeGirl",
  "AppId": "685740",
  "ImageUrl": "https://steamcdn-a.akamaihd.net/steam/apps/685740/header.jpg?t=1507204182",
  "Languages": [
    "english",
    "japanese",
    "korean"
  ],
  "Platforms": {
    "windows": true,
    "mac": false,
    "linux": false
  }
}