[
  {
    "name": "p_level",
    "defaultvalue": 1,
    "displayName": ""
  },
  {
    "name": "p_maxLife",
    "defaultvalue": 200,
    "displayName": ""
  },
  {
    "name": "p_maxMagic",
    "defaultvalue": 50,
    "displayName": ""
  }
]