﻿[
  {
    "name": "2LT",
    "defaultvalue": 0,
    "displayName": "Second Lieutenant",
    "hidden": 1,
    "icon": "https://steamcdn-a.akamaihd.net/steamcommunity/public/images/apps/108210/5ddeebe12d8fc74b0989097a48920d4edd7318f2.jpg",
    "icongray": "https://steamcdn-a.akamaihd.net/steamcommunity/public/images/apps/108210/6adafab140834b48c4c534c6283f75e4bcc64130.jpg"
  },
  {
    "name": "1LT",
    "defaultvalue": 0,
    "displayName": "First Lieutenant",
    "hidden": 1,
    "icon": "https://steamcdn-a.akamaihd.net/steamcommunity/public/images/apps/108210/b3e8d2d73d6c2bfe50a9ded488c85777db34dca9.jpg",
    "icongray": "https://steamcdn-a.akamaihd.net/steamcommunity/public/images/apps/108210/6405ef0911067aee5c7e033384e7b11fbbd2c5cf.jpg"
  },
  {
    "name": "CPT",
    "defaultvalue": 0,
    "displayName": "Captain",
    "hidden": 1,
    "icon": "https://steamcdn-a.akamaihd.net/steamcommunity/public/images/apps/108210/c3cca87faf01406c8f4700e4d3d2dea839e66dcd.jpg",
    "icongray": "https://steamcdn-a.akamaihd.net/steamcommunity/public/images/apps/108210/f89a65b51e1aa4c7a03e4b7776dde97765d0670f.jpg"
  },
  {
    "name": "MAJ",
    "defaultvalue": 0,
    "displayName": "Major",
    "hidden": 1,
    "icon": "https://steamcdn-a.akamaihd.net/steamcommunity/public/images/apps/108210/74ffe4cc91663c0eb15ea876f1ab76b2b3b92076.jpg",
    "icongray": "https://steamcdn-a.akamaihd.net/steamcommunity/public/images/apps/108210/4e7b7b2d8e413f351719fe594466ba8d19a94784.jpg"
  },
  {
    "name": "LTC",
    "defaultvalue": 0,
    "displayName": "Lieutenant Colonel",
    "hidden": 1,
    "icon": "https://steamcdn-a.akamaihd.net/steamcommunity/public/images/apps/108210/ba17a54f267594f8b3616135b71c983d7a78c7dd.jpg",
    "icongray": "https://steamcdn-a.akamaihd.net/steamcommunity/public/images/apps/108210/9433f355f9de237ff2a15c84986715b673d6504a.jpg"
  },
  {
    "name": "COL",
    "defaultvalue": 0,
    "displayName": "Colonel",
    "hidden": 1,
    "icon": "https://steamcdn-a.akamaihd.net/steamcommunity/public/images/apps/108210/e37f5db222511971a79044b7c19fd9214ac194c8.jpg",
    "icongray": "https://steamcdn-a.akamaihd.net/steamcommunity/public/images/apps/108210/815e8afec71b32212c6da7d4bc252459cd121411.jpg"
  },
  {
    "name": "WetFeet",
    "defaultvalue": 0,
    "displayName": "Wet feet",
    "hidden": 0,
    "description": "Played a beach scenario on the water side",
    "icon": "https://steamcdn-a.akamaihd.net/steamcommunity/public/images/apps/108210/24ba90deda06a9b7a62bfb6bd74627edc8cd50ff.jpg",
    "icongray": "https://steamcdn-a.akamaihd.net/steamcommunity/public/images/apps/108210/45bd23fdec9e6a4b0703bc5ad315da004ab294c0.jpg"
  },
  {
    "name": "OverrunBronze",
    "defaultvalue": 0,
    "displayName": "Overrun Bronze",
    "hidden": 1,
    "icon": "https://steamcdn-a.akamaihd.net/steamcommunity/public/images/apps/108210/b8ee5354cf7b4230f287e0dafa58f9b0102993a5.jpg",
    "icongray": "https://steamcdn-a.akamaihd.net/steamcommunity/public/images/apps/108210/ccb3bbc7a87ae1c0dc7e9a62b5eabeca3b3d6883.jpg"
  },
  {
    "name": "WonOmaha",
    "defaultvalue": 0,
    "displayName": "Omaha Victory",
    "hidden": 0,
    "description": "Won Omaha as Allies",
    "icon": "https://steamcdn-a.akamaihd.net/steamcommunity/public/images/apps/108210/4d0f181c51c736b3e2b5abffe5060107d9af313a.jpg",
    "icongray": "https://steamcdn-a.akamaihd.net/steamcommunity/public/images/apps/108210/bfbd3c8598eacbe53771f766a84e76ad55972ec3.jpg"
  },
  {
    "name": "WonArnhem",
    "defaultvalue": 0,
    "displayName": "Arnhem Victory",
    "hidden": 0,
    "description": "Won Arnhem as Axis",
    "icon": "https://steamcdn-a.akamaihd.net/steamcommunity/public/images/apps/108210/5f0a471a3083de00c787d10e4f07f42a8ec7fe19.jpg",
    "icongray": "https://steamcdn-a.akamaihd.net/steamcommunity/public/images/apps/108210/da6fd882096545cb65d81ee834f8d4e1e2c51a11.jpg"
  },
  {
    "name": "TotalVictory",
    "defaultvalue": 0,
    "displayName": "Total Victory",
    "hidden": 1,
    "icon": "https://steamcdn-a.akamaihd.net/steamcommunity/public/images/apps/108210/db1b6eda734e0560ec706b5ead15a2448cebf6fc.jpg",
    "icongray": "https://steamcdn-a.akamaihd.net/steamcommunity/public/images/apps/108210/7a1608817d019416b257d6ab38e05f95b9adc37b.jpg"
  },
  {
    "name": "BasicCombatTraining",
    "defaultvalue": 0,
    "displayName": "Basic Combat Training",
    "hidden": 0,
    "description": "You completed your first game",
    "icon": "https://steamcdn-a.akamaihd.net/steamcommunity/public/images/apps/108210/210b7ca6ed6f3f8937a665921cdfcc9dab0df50c.jpg",
    "icongray": "https://steamcdn-a.akamaihd.net/steamcommunity/public/images/apps/108210/0fc3e55b8179d1e9e61573b6fd893325f089701e.jpg"
  },
  {
    "name": "IWasThere",
    "defaultvalue": 0,
    "displayName": "I was there",
    "hidden": 0,
    "description": "Played Omaha as Allies, or difficult scenario as Axis",
    "icon": "https://steamcdn-a.akamaihd.net/steamcommunity/public/images/apps/108210/b84ff72298c70542718fc11e3db5b42464d28267.jpg",
    "icongray": "https://steamcdn-a.akamaihd.net/steamcommunity/public/images/apps/108210/2d849091c0b1b579532300e635ce477ff5851743.jpg"
  },
  {
    "name": "Historian",
    "defaultvalue": 0,
    "displayName": "Historian",
    "hidden": 0,
    "description": "Played a scenario on its historical date",
    "icon": "https://steamcdn-a.akamaihd.net/steamcommunity/public/images/apps/108210/284e831c0bf7483d71396f2166ef9a1fb19f4146.jpg",
    "icongray": "https://steamcdn-a.akamaihd.net/steamcommunity/public/images/apps/108210/a2f83c059dab129341ae2e41f7177da8eae96da5.jpg"
  },
  {
    "name": "WarrantOfficer",
    "defaultvalue": 0,
    "displayName": "Warrant Officer",
    "hidden": 0,
    "description": "Introduced newbie to the game",
    "icon": "https://steamcdn-a.akamaihd.net/steamcommunity/public/images/apps/108210/395c708bacf14d12c52961836056f58d9dcfc5eb.jpg",
    "icongray": "https://steamcdn-a.akamaihd.net/steamcommunity/public/images/apps/108210/82d2eb0af335d621dbcb70aef1838d68f28ce5d8.jpg"
  },
  {
    "name": "OverrunSilver",
    "defaultvalue": 0,
    "displayName": "Overrun Silver",
    "hidden": 1,
    "icon": "https://steamcdn-a.akamaihd.net/steamcommunity/public/images/apps/108210/a6805a09c93d54103d03d3fd67b412617e5c66e1.jpg",
    "icongray": "https://steamcdn-a.akamaihd.net/steamcommunity/public/images/apps/108210/922cc0396f18f94b822f93a488050637fdbc31e2.jpg"
  },
  {
    "name": "AdvancedCombatTraining",
    "defaultvalue": 0,
    "displayName": "Advanced Combat Training",
    "hidden": 0,
    "description": "Battled using both Infantry and Armor",
    "icon": "https://steamcdn-a.akamaihd.net/steamcommunity/public/images/apps/108210/2d83e508f69b23fa867f7d04b897556ca2e3e9f2.jpg",
    "icongray": "https://steamcdn-a.akamaihd.net/steamcommunity/public/images/apps/108210/55b92e8fe9286280291604029ebedbcec26422ef.jpg"
  },
  {
    "name": "ArtillerySpecialist",
    "defaultvalue": 0,
    "displayName": "Artillery Specialist",
    "hidden": 0,
    "description": "Killed at least 2 units using artillery",
    "icon": "https://steamcdn-a.akamaihd.net/steamcommunity/public/images/apps/108210/59e4a58af3c642458bf0c7c487b05a1ce22e758f.jpg",
    "icongray": "https://steamcdn-a.akamaihd.net/steamcommunity/public/images/apps/108210/ae443f905546875e8849332d61fa886e78a5092d.jpg"
  },
  {
    "name": "CommandoSpecialistInfantry",
    "defaultvalue": 0,
    "displayName": "Commando Specialist - Infantry",
    "hidden": 1,
    "icon": "https://steamcdn-a.akamaihd.net/steamcommunity/public/images/apps/108210/c1105955d57ad53bc342f9f92e4f0d4f992f14a3.jpg",
    "icongray": "https://steamcdn-a.akamaihd.net/steamcommunity/public/images/apps/108210/d9610b246d184befdc38d02da9dd320ec3592708.jpg"
  },
  {
    "name": "CommandoSpecialistArmor",
    "defaultvalue": 0,
    "displayName": "Commando Specialist - Armor",
    "hidden": 1,
    "icon": "https://steamcdn-a.akamaihd.net/steamcommunity/public/images/apps/108210/631cc39d39acb546eed2fceb21fc6990f262f170.jpg",
    "icongray": "https://steamcdn-a.akamaihd.net/steamcommunity/public/images/apps/108210/3e494ec427dd4ab6bdcac6df31a179298c36937d.jpg"
  },
  {
    "name": "ObjectivesSpecialist",
    "defaultvalue": 0,
    "displayName": "Objectives Specialist",
    "hidden": 0,
    "description": "Captured all the land objectives",
    "icon": "https://steamcdn-a.akamaihd.net/steamcommunity/public/images/apps/108210/24ee904cd9df771a8873774a920f31e4b3f00cc5.jpg",
    "icongray": "https://steamcdn-a.akamaihd.net/steamcommunity/public/images/apps/108210/64ad2a94fd95b229a555ab54abb0f741b4ca4101.jpg"
  },
  {
    "name": "ArmorSpecialist",
    "defaultvalue": 0,
    "displayName": "Armor Specialist",
    "hidden": 0,
    "description": "Killed 2 units in a single armor overrun",
    "icon": "https://steamcdn-a.akamaihd.net/steamcommunity/public/images/apps/108210/766679107d23b03062b09ad14f8be37ebbb2254a.jpg",
    "icongray": "https://steamcdn-a.akamaihd.net/steamcommunity/public/images/apps/108210/1b4767d865f3abbffdbea7173f7094fab24c2ede.jpg"
  },
  {
    "name": "LuckyBastard",
    "defaultvalue": 0,
    "displayName": "Lucky Bastard",
    "hidden": 0,
    "description": "Totally wiped a full-health unit in a single dice roll",
    "icon": "https://steamcdn-a.akamaihd.net/steamcommunity/public/images/apps/108210/3a83285fcb85705a9a1b3c5884d3206ebacd88f4.jpg",
    "icongray": "https://steamcdn-a.akamaihd.net/steamcommunity/public/images/apps/108210/0c84da0b934964a4d14cc3113037bcf31f8fa4e0.jpg"
  },
  {
    "name": "BringBoysBackHome",
    "defaultvalue": 0,
    "displayName": "Bring Boys Back Home",
    "hidden": 0,
    "description": "All infantry survived",
    "icon": "https://steamcdn-a.akamaihd.net/steamcommunity/public/images/apps/108210/4fba4710bcd9a51df950f1f389b8a078dd7a831e.jpg",
    "icongray": "https://steamcdn-a.akamaihd.net/steamcommunity/public/images/apps/108210/b5c9468a13d5aa069950a7c496b852532b3142bc.jpg"
  },
  {
    "name": "OldMan",
    "defaultvalue": 0,
    "displayName": "Old Man",
    "hidden": 1,
    "icon": "https://steamcdn-a.akamaihd.net/steamcommunity/public/images/apps/108210/1d5043ac228632e0df881329d0f5341e65dc020b.jpg",
    "icongray": "https://steamcdn-a.akamaihd.net/steamcommunity/public/images/apps/108210/31715c796d47ee40989ce843b6b11994dff679a8.jpg"
  },
  {
    "name": "AdvancedHistorian",
    "defaultvalue": 0,
    "displayName": "Advanced Historian",
    "hidden": 1,
    "icon": "https://steamcdn-a.akamaihd.net/steamcommunity/public/images/apps/108210/727606f0af84d91c06075f5289970a56119ed098.jpg",
    "icongray": "https://steamcdn-a.akamaihd.net/steamcommunity/public/images/apps/108210/ce20ea0a4fc800a0e4db856b0dc4eb7328b08326.jpg"
  },
  {
    "name": "ArnhemTree",
    "defaultvalue": 0,
    "displayName": "Arnhem Tree",
    "hidden": 0,
    "description": "Either side: Hold the lone Forest hex next to Lower Rhine at game end. Active until Jan 3, 2011 only.",
    "icon": "https://steamcdn-a.akamaihd.net/steamcommunity/public/images/apps/108210/29b58783cfc3b68780d4cdf66e053e33a931f0c7.jpg",
    "icongray": "https://steamcdn-a.akamaihd.net/steamcommunity/public/images/apps/108210/35758640011a86fab92474fd63c2031e1d3302e7.jpg"
  },
  {
    "name": "ILovePineApple",
    "defaultvalue": 0,
    "displayName": "I Love Pineapples",
    "hidden": 0,
    "description": "Roll 4 grenades in a single dice roll",
    "icon": "https://steamcdn-a.akamaihd.net/steamcommunity/public/images/apps/108210/cce35d286e061e35528ffc5e9cf7144fddd1ba69.jpg",
    "icongray": "https://steamcdn-a.akamaihd.net/steamcommunity/public/images/apps/108210/6e4b04fb7fbadd8d05ba2083d6871105ff4c544a.jpg"
  },
  {
    "name": "StarWars",
    "defaultvalue": 0,
    "displayName": "Star Wars",
    "hidden": 0,
    "description": "Roll 4 stars in a single dice roll",
    "icon": "https://steamcdn-a.akamaihd.net/steamcommunity/public/images/apps/108210/eb2b618b101933acebb5f1884748239ca303010f.jpg",
    "icongray": "https://steamcdn-a.akamaihd.net/steamcommunity/public/images/apps/108210/2372bc989328c08ca27f400b44a2b9cfc2f78221.jpg"
  },
  {
    "name": "FlyYouFool",
    "defaultvalue": 0,
    "displayName": "Fly, you fools",
    "hidden": 0,
    "description": "Roll 4 flags in a single dice roll",
    "icon": "https://steamcdn-a.akamaihd.net/steamcommunity/public/images/apps/108210/134fdddf19742f1fd3d2d892ba4b88f085de2385.jpg",
    "icongray": "https://steamcdn-a.akamaihd.net/steamcommunity/public/images/apps/108210/deb40f19e8264656b576775c25023deeb8b57f22.jpg"
  },
  {
    "name": "StiffUpperLip",
    "defaultvalue": 0,
    "displayName": "Stiff Upper Lip",
    "hidden": 0,
    "description": "Eliminate an enemy unit during a Stiff Upper Lip action",
    "icon": "https://steamcdn-a.akamaihd.net/steamcommunity/public/images/apps/108210/c2b47b758e0691e47a9a570182083d96eb8be241.jpg",
    "icongray": "https://steamcdn-a.akamaihd.net/steamcommunity/public/images/apps/108210/e318c84010b0ca795167fd4c2b378e6e0adb6050.jpg"
  },
  {
    "name": "Chaaaarge!",
    "defaultvalue": 0,
    "displayName": "Chaaaarge!",
    "hidden": 0,
    "description": "Participate to the Load Test on April 2011",
    "icon": "https://steamcdn-a.akamaihd.net/steamcommunity/public/images/apps/108210/55880f3fa7bab0259bdefff6fa4296db8e2de886.jpg",
    "icongray": "https://steamcdn-a.akamaihd.net/steamcommunity/public/images/apps/108210/e4e3367d02c4c41d543789b112c724c50d0c4447.jpg"
  },
  {
    "name": "Tovarich",
    "defaultvalue": 0,
    "displayName": "Tovarich",
    "hidden": 0,
    "description": "Battled with the Russian Commissar rule, and won",
    "icon": "https://steamcdn-a.akamaihd.net/steamcommunity/public/images/apps/108210/76272eb715d77e65548a3a69c27a77c446c7ab89.jpg",
    "icongray": "https://steamcdn-a.akamaihd.net/steamcommunity/public/images/apps/108210/9d6b74273cc0314b7b2aad0f7b21f1b2d5b8fd5e.jpg"
  },
  {
    "name": "UsPilot",
    "defaultvalue": 0,
    "displayName": "Allied Pilot",
    "hidden": 0,
    "description": "Killed two enemy units with an Air Power attack",
    "icon": "https://steamcdn-a.akamaihd.net/steamcommunity/public/images/apps/108210/e30a8f8cab9a99789542aa5262a45fa7e37504b8.jpg",
    "icongray": "https://steamcdn-a.akamaihd.net/steamcommunity/public/images/apps/108210/fa1e6941dee545707596beb9a7b267264c27c5a4.jpg"
  },
  {
    "name": "UsFighterPilot",
    "defaultvalue": 0,
    "displayName": "Allied Fighter Pilot",
    "hidden": 0,
    "description": "Killed three enemy units with an Air Power attack",
    "icon": "https://steamcdn-a.akamaihd.net/steamcommunity/public/images/apps/108210/aaa87e14aafc15490d0f4fcc8e6c9f850fa75878.jpg",
    "icongray": "https://steamcdn-a.akamaihd.net/steamcommunity/public/images/apps/108210/e9a45d5be98cf1b542cf7b9c81bb25cbe2f3cac9.jpg"
  },
  {
    "name": "UsAcesHigh",
    "defaultvalue": 0,
    "displayName": "Allied Aces High",
    "hidden": 0,
    "description": "Killed four enemy units with an Air Power attack",
    "icon": "https://steamcdn-a.akamaihd.net/steamcommunity/public/images/apps/108210/73a1c4b98beb058544f5418b328252141964f83e.jpg",
    "icongray": "https://steamcdn-a.akamaihd.net/steamcommunity/public/images/apps/108210/63c5bde4e635f814294f539f31faa39b7850a4a4.jpg"
  },
  {
    "name": "GermanPilot",
    "defaultvalue": 0,
    "displayName": "Axis Pilot",
    "hidden": 0,
    "description": "Killed two enemy units with an Air Power attack",
    "icon": "https://steamcdn-a.akamaihd.net/steamcommunity/public/images/apps/108210/9745c3698c32621cc69a73245e8bd32038f92b53.jpg",
    "icongray": "https://steamcdn-a.akamaihd.net/steamcommunity/public/images/apps/108210/676069d348a378eb5ca835df78e0495d9ca72c7b.jpg"
  },
  {
    "name": "GermanFighterPilot",
    "defaultvalue": 0,
    "displayName": "Axis Fighter Pilot",
    "hidden": 0,
    "description": "Killed three enemy units with an Air Power attack",
    "icon": "https://steamcdn-a.akamaihd.net/steamcommunity/public/images/apps/108210/662aab9a806252fd446419a40d1873e8e2cc519e.jpg",
    "icongray": "https://steamcdn-a.akamaihd.net/steamcommunity/public/images/apps/108210/6e3d46c6ada655f92535e60e9baacf723204064b.jpg"
  },
  {
    "name": "GermanAcesHigh",
    "defaultvalue": 0,
    "displayName": "Axis Aces High",
    "hidden": 0,
    "description": "Killed four enemy units with an Air Power attack",
    "icon": "https://steamcdn-a.akamaihd.net/steamcommunity/public/images/apps/108210/225baf4c80e2f1c136478773478d7495402e0798.jpg",
    "icongray": "https://steamcdn-a.akamaihd.net/steamcommunity/public/images/apps/108210/c2153ad65344cf541a51c819877a8e2b679137f8.jpg"
  },
  {
    "name": "IPlayedDow",
    "defaultvalue": 0,
    "displayName": "I played DoW",
    "hidden": 0,
    "description": "Battled against a Days of Wonder crew member",
    "icon": "https://steamcdn-a.akamaihd.net/steamcommunity/public/images/apps/108210/e104271edaf0679f10670e8b772798796c10a3fd.jpg",
    "icongray": "https://steamcdn-a.akamaihd.net/steamcommunity/public/images/apps/108210/4748531e7a4da1c238c9bd62dfa8215b81e1d431.jpg"
  },
  {
    "name": "IWonDow",
    "defaultvalue": 0,
    "displayName": "I won DoW",
    "hidden": 0,
    "description": "Battled against a Days of Wonder crew member, and won",
    "icon": "https://steamcdn-a.akamaihd.net/steamcommunity/public/images/apps/108210/808eee19121d77e98379b01b89e84be3ace27db1.jpg",
    "icongray": "https://steamcdn-a.akamaihd.net/steamcommunity/public/images/apps/108210/de9f164c2e8845c767d035cc76c5280ab2edb7a4.jpg"
  },
  {
    "name": "FlagsOfOurFathers",
    "defaultvalue": 0,
    "displayName": "Flags of Our Fathers",
    "hidden": 0,
    "description": "Played the U.S. Marines at Iwo Jima, and won",
    "icon": "https://steamcdn-a.akamaihd.net/steamcommunity/public/images/apps/108210/c0ef09eed6dfe673f2d6ae87b4e00d8e23c08c7a.jpg",
    "icongray": "https://steamcdn-a.akamaihd.net/steamcommunity/public/images/apps/108210/79be09611d57b123b0851ce5c91cf87687548ee1.jpg"
  },
  {
    "name": "StayingAlive",
    "defaultvalue": 0,
    "displayName": "Staying alive",
    "hidden": 0,
    "description": "One of your infantry units was down to a single figure. Then it resisted 10 dice",
    "icon": "https://steamcdn-a.akamaihd.net/steamcommunity/public/images/apps/108210/68bcf2a6f19c55465130d91d4748b80846fba1d1.jpg",
    "icongray": "https://steamcdn-a.akamaihd.net/steamcommunity/public/images/apps/108210/50270de0b9238572fb6e1c01bea9ff3908fddfbb.jpg"
  },
  {
    "name": "IronMan",
    "defaultvalue": 0,
    "displayName": "Iron man",
    "hidden": 0,
    "description": "One of your infantry units resisted 10 dice without suffering loss",
    "icon": "https://steamcdn-a.akamaihd.net/steamcommunity/public/images/apps/108210/176ca542b0171794d457e95d4ab6e571e87edd8e.jpg",
    "icongray": "https://steamcdn-a.akamaihd.net/steamcommunity/public/images/apps/108210/671403c0f29cbaa096b7724c16ffee22e030ac8c.jpg"
  },
  {
    "name": "IronTank",
    "defaultvalue": 0,
    "displayName": "Iron tank",
    "hidden": 0,
    "description": "One of your armor units resisted 10 dice without suffering loss",
    "icon": "https://steamcdn-a.akamaihd.net/steamcommunity/public/images/apps/108210/68e2a019a88d7b98296325df58da3022155f1679.jpg",
    "icongray": "https://steamcdn-a.akamaihd.net/steamcommunity/public/images/apps/108210/419bda841f758ee230568693189b07aa0289fa7b.jpg"
  },
  {
    "name": "IronGun",
    "defaultvalue": 0,
    "displayName": "Iron gun",
    "hidden": 0,
    "description": "One of your artillery units resisted 10 dice without suffering loss",
    "icon": "https://steamcdn-a.akamaihd.net/steamcommunity/public/images/apps/108210/13735356faa9ff463e37ecb1c6d01188d830f501.jpg",
    "icongray": "https://steamcdn-a.akamaihd.net/steamcommunity/public/images/apps/108210/e39ba13bf9d0619f7618b83ede1e681b65ef5dff.jpg"
  },
  {
    "name": "DDayReconTeamBronze",
    "defaultvalue": 0,
    "displayName": "D-Day Recon Team - Bronze",
    "hidden": 0,
    "description": "Played at least one Solo game as a Beta-tester",
    "icon": "https://steamcdn-a.akamaihd.net/steamcommunity/public/images/apps/108210/f20f3e191f121621ef589c13319ba76b06a37129.jpg",
    "icongray": "https://steamcdn-a.akamaihd.net/steamcommunity/public/images/apps/108210/eed13a088840d65cd4c822911f03adc8581633b4.jpg"
  },
  {
    "name": "DDayReconTeamSilver",
    "defaultvalue": 0,
    "displayName": "D-Day Recon Team - Silver",
    "hidden": 0,
    "description": "Played at least one Multiplayer game as a Beta-tester",
    "icon": "https://steamcdn-a.akamaihd.net/steamcommunity/public/images/apps/108210/dc7718c494a4fe61d8397e14f1f2c8251cb464d7.jpg",
    "icongray": "https://steamcdn-a.akamaihd.net/steamcommunity/public/images/apps/108210/0434caac252bc04a77388e5be29135d4cecd1dee.jpg"
  },
  {
    "name": "DDayReconTeamGold",
    "defaultvalue": 0,
    "displayName": "D-Day Recon Team - Gold",
    "hidden": 0,
    "description": "Played at least one Expert game as a Beta-tester",
    "icon": "https://steamcdn-a.akamaihd.net/steamcommunity/public/images/apps/108210/af5628cf4e71f230910920683c040232140ed848.jpg",
    "icongray": "https://steamcdn-a.akamaihd.net/steamcommunity/public/images/apps/108210/707d7cc9d9b023e1f9e7749890a92bc21f0623e2.jpg"
  },
  {
    "name": "Minesweeper",
    "defaultvalue": 0,
    "displayName": "Minesweeper",
    "hidden": 0,
    "description": "Reported a bug during Beta-testing",
    "icon": "https://steamcdn-a.akamaihd.net/steamcommunity/public/images/apps/108210/a245f710c5342fe50a1722d735f1d990a9b0b2dd.jpg",
    "icongray": "https://steamcdn-a.akamaihd.net/steamcommunity/public/images/apps/108210/45bb237b460c175f925805a91426774a881b51b9.jpg"
  },
  {
    "name": "ToplitzseeBronze",
    "defaultvalue": 0,
    "displayName": "Lake Toplitz - Bronze",
    "hidden": 0,
    "description": "Purchased a Sergeant pack during Beta-testing. Read the <a href=\"http://en.wikipedia.org/wiki/Lake_Toplitz\">story about the Toplitzsee</a>.",
    "icon": "https://steamcdn-a.akamaihd.net/steamcommunity/public/images/apps/108210/946d324c31158fdbc590f7dff5db14b454b08357.jpg",
    "icongray": "https://steamcdn-a.akamaihd.net/steamcommunity/public/images/apps/108210/a7492c58409f515f034e6a5f402f2f16317873a0.jpg"
  },
  {
    "name": "ToplitzseeSilver",
    "defaultvalue": 0,
    "displayName": "Lake Toplitz - Silver",
    "hidden": 0,
    "description": "Purchased a Captain pack during Beta-testing. Read the <a href=\"http://en.wikipedia.org/wiki/Lake_Toplitz\">story about the Toplitzsee</a>.",
    "icon": "https://steamcdn-a.akamaihd.net/steamcommunity/public/images/apps/108210/8bd2cdfe20b7c7d4ee5d2055e67e08f09e84883f.jpg",
    "icongray": "https://steamcdn-a.akamaihd.net/steamcommunity/public/images/apps/108210/3863d17f19f410ee2a73c27e4d84756a9e08bf89.jpg"
  },
  {
    "name": "ToplitzseeGold",
    "defaultvalue": 0,
    "displayName": "Lake Toplitz - Gold",
    "hidden": 0,
    "description": "Purchased a Major pack during Beta-testing. Read the <a href=\"http://en.wikipedia.org/wiki/Lake_Toplitz\">story about the Toplitzsee</a>.",
    "icon": "https://steamcdn-a.akamaihd.net/steamcommunity/public/images/apps/108210/4be790720f5ad2b1e76c80173f24206a92e900f3.jpg",
    "icongray": "https://steamcdn-a.akamaihd.net/steamcommunity/public/images/apps/108210/1b605b416441311aa6f74de0db32373ebffa1026.jpg"
  },
  {
    "name": "MajorHoward",
    "defaultvalue": 0,
    "displayName": "Major Howard",
    "hidden": 0,
    "description": "For outstanding contribution beyond the call of duty during Beta-testing",
    "icon": "https://steamcdn-a.akamaihd.net/steamcommunity/public/images/apps/108210/53e44e2e7e6f364b18be5a25ce6ca1f82ac5dfd0.jpg",
    "icongray": "https://steamcdn-a.akamaihd.net/steamcommunity/public/images/apps/108210/3cd559b2c80c9874676933a839c748b0f2b004a5.jpg"
  },
  {
    "name": "BandOfBrothers",
    "defaultvalue": 0,
    "displayName": "Band of Brothers",
    "hidden": 0,
    "description": "Invited successfully at least 5 players using the Band of Brothers invitation page (http://www.memoir44-online.com/recruit/)",
    "icon": "https://steamcdn-a.akamaihd.net/steamcommunity/public/images/apps/108210/8638df24c5427baca45d934cf4b339f058c2b1b9.jpg",
    "icongray": "https://steamcdn-a.akamaihd.net/steamcommunity/public/images/apps/108210/1c29ebd7e610711eac691f9c25da34af0d46e011.jpg"
  },
  {
    "name": "BandOfBrothersInstructor",
    "defaultvalue": 0,
    "displayName": "Band of Brothers Instructor",
    "hidden": 0,
    "description": "At least 3 of the Cadets who joined your Band of Brothers (cf. http://www.memoir44-online.com/recruit/) graduated to 2nd Lieutenant or better",
    "icon": "https://steamcdn-a.akamaihd.net/steamcommunity/public/images/apps/108210/010976e3e8fb2255a745b397ce8d568b40f6e84f.jpg",
    "icongray": "https://steamcdn-a.akamaihd.net/steamcommunity/public/images/apps/108210/5d6a8da6fbea383444dc5c3e7bf8f24e47fc0397.jpg"
  },
  {
    "name": "ArmorDrivingLicense",
    "defaultvalue": 0,
    "displayName": "Armor Driving License",
    "hidden": 0,
    "description": "Killed two enemy units with an Armor Overrun",
    "icon": "https://steamcdn-a.akamaihd.net/steamcommunity/public/images/apps/108210/35ebc9bf9b2952ce69b8cc687b5dd3bc7235a243.jpg",
    "icongray": "https://steamcdn-a.akamaihd.net/steamcommunity/public/images/apps/108210/fb8f571a1d2e3c07a3ca28f3501e002d074f7386.jpg"
  },
  {
    "name": "ArmorExcellence",
    "defaultvalue": 0,
    "displayName": "Armor Excellence",
    "hidden": 0,
    "description": "Got 3 medals (2 units killed and a medal won) in a single attack with an armor unit",
    "icon": "https://steamcdn-a.akamaihd.net/steamcommunity/public/images/apps/108210/691cc7e8964801e7309ab086d6e08f884b19fdda.jpg",
    "icongray": "https://steamcdn-a.akamaihd.net/steamcommunity/public/images/apps/108210/a5cb41d2d05a46cd0e896b5e04adff5be27929dd.jpg"
  },
  {
    "name": "MichaelWittmann",
    "defaultvalue": 0,
    "displayName": "Michael Wittmann",
    "hidden": 0,
    "description": "Won the battle thanks to 3 medals (2 units killed and another medal won) captured in a single attack with an armor unit",
    "icon": "https://steamcdn-a.akamaihd.net/steamcommunity/public/images/apps/108210/404f56d199338c312c0834b13889deb77c4a0d91.jpg",
    "icongray": "https://steamcdn-a.akamaihd.net/steamcommunity/public/images/apps/108210/13b0bdad4f3f6b16d43339b0d734a15ef28a0232.jpg"
  },
  {
    "name": "LettersFromIwoJima",
    "defaultvalue": 0,
    "displayName": "Letters From Iwo Jima",
    "hidden": 0,
    "description": "Played the Japanese at Iwo Jima, and won",
    "icon": "https://steamcdn-a.akamaihd.net/steamcommunity/public/images/apps/108210/03cb9a9caef4f5a42483a778584c234108d5982a.jpg",
    "icongray": "https://steamcdn-a.akamaihd.net/steamcommunity/public/images/apps/108210/5bc4651106a1f10ce078a8ce72970ad0d1d61ec5.jpg"
  },
  {
    "name": "DesertRats",
    "defaultvalue": 0,
    "displayName": "Desert Rats",
    "hidden": 0,
    "description": "Won all Mediterranean Theater army pack scenarios as British",
    "icon": "https://steamcdn-a.akamaihd.net/steamcommunity/public/images/apps/108210/a64d9d7d3c30659d3af2e7a84d3b57a6e9dfd2d8.jpg",
    "icongray": "https://steamcdn-a.akamaihd.net/steamcommunity/public/images/apps/108210/edae03cfdc57f4436a3d69d5f3da30454deca2f9.jpg"
  },
  {
    "name": "DesertFox",
    "defaultvalue": 0,
    "displayName": "Desert Fox",
    "hidden": 0,
    "description": "Won all Mediterranean Theater army pack scenarios as German",
    "icon": "https://steamcdn-a.akamaihd.net/steamcommunity/public/images/apps/108210/4d9f5640aa33934848a13571c4476b4d7f0f7a3d.jpg",
    "icongray": "https://steamcdn-a.akamaihd.net/steamcommunity/public/images/apps/108210/6894a1b87787602b0c6ebde3d417763b2ab31604.jpg"
  }
]