[
  {
    "name": "hoh4_stat_start",
    "defaultvalue": 0,
    "displayName": "Game launches"
  },
  {
    "name": "hoh4_stat_playtime",
    "defaultvalue": 0,
    "displayName": "Minutes played"
  },
  {
    "name": "hoh4_stat_chip",
    "defaultvalue": 0,
    "displayName": "Tokens hit"
  },
  {
    "name": "hoh4_stat_chain",
    "defaultvalue": 0,
    "displayName": "Chains created"
  },
  {
    "name": "hoh4_stat_etile",
    "defaultvalue": 0,
    "displayName": "Earth tiles removed"
  },
  {
    "name": "hoh4_stat_monolith",
    "defaultvalue": 0,
    "displayName": "Monoliths destroyed"
  },
  {
    "name": "hoh4_stat_cloud",
    "defaultvalue": 0,
    "displayName": "Storm clouds removed"
  },
  {
    "name": "hoh4_stat_coin",
    "defaultvalue": 0,
    "displayName": "Coins hit"
  },
  {
    "name": "hoh4_stat_tile",
    "defaultvalue": 0,
    "displayName": "Golden tiles collected"
  },
  {
    "name": "hoh4_stat_gem",
    "defaultvalue": 0,
    "displayName": "Gems collected"
  },
  {
    "name": "hoh4_stat_chest",
    "defaultvalue": 0,
    "displayName": "Treasure chests collected"
  },
  {
    "name": "hoh4_stat_phoenix",
    "defaultvalue": 0,
    "displayName": "Phoenix feathers collected"
  },
  {
    "name": "hoh4_stat_bomb",
    "defaultvalue": 0,
    "displayName": "Bombs and lightning bolts activated"
  },
  {
    "name": "hoh4_stat_mg_obelisk",
    "defaultvalue": 0,
    "displayName": "Hero mosaics restored without Solve"
  },
  {
    "name": "hoh4_stat_mg_weapon",
    "defaultvalue": 0,
    "displayName": "Hero weapons restored without Solve"
  },
  {
    "name": "hoh4_stat_nozeus",
    "defaultvalue": 0,
    "displayName": "Levels passed without Hermes' help"
  },
  {
    "name": "hoh4_stat_hero",
    "defaultvalue": 0,
    "displayName": "Heroes' help used"
  },
  {
    "name": "hoh4_stat_halftime",
    "defaultvalue": 0,
    "displayName": "Half-time level passes"
  },
  {
    "name": "hoh4_stat_helios_gold",
    "defaultvalue": 0,
    "displayName": "Helios' gold collected"
  },
  {
    "name": "hoh4_stat_helios_one",
    "defaultvalue": 0,
    "displayName": "Helios' gold collection level record"
  },
  {
    "name": "hoh4_stat_quartertime",
    "defaultvalue": 0,
    "displayName": "Quarter-time level passes"
  },
  {
    "name": "hoh4_stat_monster",
    "defaultvalue": 0,
    "displayName": "Monsters defeated"
  },
  {
    "name": "hoh4_stat_monster_story",
    "defaultvalue": 0,
    "displayName": "Game story monsters defeated"
  },
  {
    "name": "hoh4_stat_monster_nor",
    "defaultvalue": 0,
    "displayName": "Heroes and Monsters - monsters defeated (Normal)"
  },
  {
    "name": "hoh4_stat_monster_adv",
    "defaultvalue": 0,
    "displayName": "Heroes and Monsters - monsters defeated (Hard)"
  },
  {
    "name": "hoh4_stat_monster_leg",
    "defaultvalue": 0,
    "displayName": "Heroes and Monsters - monsters defeated (Epic)"
  },
  {
    "name": "hoh4_stat_puzzle",
    "defaultvalue": 0,
    "displayName": "Puzzles completed"
  }
]