{
  "Dlcs": {},
  "Name": "Kawaii Girl",
  "AppId": "1198390",
  "ImageUrl": "https://steamcdn-a.akamaihd.net/steam/apps/1198390/header.jpg?t=1598082162",
  "Languages": [
    "english",
    "tchinese",
    "japanese",
    "schinese",
    "korean"
  ],
  "Platforms": {
    "windows": true,
    "mac": false,
    "linux": false
  }
}