[
  {
    "name": "UNTOUCHABLE_1",
    "defaultvalue": 0,
    "displayName": "The Untouchable",
    "hidden": 0,
    "description": "Finishing a level without dying",
    "icon": "https://steamcdn-a.akamaihd.net/steamcommunity/public/images/apps/848430/efa25d54c9231568d89e53a5e07ecdaba44369a3.jpg",
    "icongray": "https://steamcdn-a.akamaihd.net/steamcommunity/public/images/apps/848430/6a33fc083663b87924293bfdc29acf1d9b819550.jpg"
  },
  {
    "name": "UNTOUCHABLE_10",
    "defaultvalue": 0,
    "displayName": "The Untouchable X10",
    "hidden": 0,
    "description": "Finishing 10 levels without dying",
    "icon": "https://steamcdn-a.akamaihd.net/steamcommunity/public/images/apps/848430/494f062177392cb0d87e741b8afdbd97e266ef31.jpg",
    "icongray": "https://steamcdn-a.akamaihd.net/steamcommunity/public/images/apps/848430/9b8892cd067763d872b6b3710c51e5b2730d4f19.jpg"
  },
  {
    "name": "UNTOUCHABLE_ALL",
    "defaultvalue": 0,
    "displayName": "The Untouchable X19",
    "hidden": 0,
    "description": "Finishing all levels without dying",
    "icon": "https://steamcdn-a.akamaihd.net/steamcommunity/public/images/apps/848430/694ae4c53d4b70e0b76d46f6fb478e85d85a3674.jpg",
    "icongray": "https://steamcdn-a.akamaihd.net/steamcommunity/public/images/apps/848430/6b50be887a4426562b5e44fe76eef1c2d173be2e.jpg"
  },
  {
    "name": "FAST_1",
    "defaultvalue": 0,
    "displayName": "Fury Feets",
    "hidden": 0,
    "description": "Win the highest time bonus score on a level",
    "icon": "https://steamcdn-a.akamaihd.net/steamcommunity/public/images/apps/848430/709947e24ad0f1bdf35d467970e7985b4cde5c30.jpg",
    "icongray": "https://steamcdn-a.akamaihd.net/steamcommunity/public/images/apps/848430/f954bcb886fc4da3f5e22658351ef5d2b4567f53.jpg"
  },
  {
    "name": "FAST_10",
    "defaultvalue": 0,
    "displayName": "Fury Feets X10",
    "hidden": 0,
    "description": "Win 10 highest time bonus score on various levels of the game",
    "icon": "https://steamcdn-a.akamaihd.net/steamcommunity/public/images/apps/848430/53d6a3bffc1cde2fa2720b890dec2a4784d7c117.jpg",
    "icongray": "https://steamcdn-a.akamaihd.net/steamcommunity/public/images/apps/848430/5484e6dcbc7e2c596cfce45b0dc72da9196e5108.jpg"
  },
  {
    "name": "FAST_ALL",
    "defaultvalue": 0,
    "displayName": "Fury Feets X19",
    "hidden": 0,
    "description": "Win the highest time bonus score on every level",
    "icon": "https://steamcdn-a.akamaihd.net/steamcommunity/public/images/apps/848430/224f117296f444d28c7728b2588e7539249aaab6.jpg",
    "icongray": "https://steamcdn-a.akamaihd.net/steamcommunity/public/images/apps/848430/05c813ef8c9e00e4de689e0be730773ed5dedd85.jpg"
  },
  {
    "name": "TOP_SCORER_1",
    "defaultvalue": 0,
    "displayName": "Top Scorer",
    "hidden": 0,
    "description": "Win your first 'A' grade",
    "icon": "https://steamcdn-a.akamaihd.net/steamcommunity/public/images/apps/848430/6b716c0a226d8f2eb6fe382431a96b6cb236daba.jpg",
    "icongray": "https://steamcdn-a.akamaihd.net/steamcommunity/public/images/apps/848430/8bf2daaac78cfe8876b24812aa9becc128b67233.jpg"
  },
  {
    "name": "TOP_SCORER_10",
    "defaultvalue": 0,
    "displayName": "Top Scorer X10",
    "hidden": 0,
    "description": "Win 10 'A' grade",
    "icon": "https://steamcdn-a.akamaihd.net/steamcommunity/public/images/apps/848430/4ae703b9994a57bf43a0e6ede206d470fa4098de.jpg",
    "icongray": "https://steamcdn-a.akamaihd.net/steamcommunity/public/images/apps/848430/7b4787dd4a44a9103718a40ea14c8fc3b0679ed5.jpg"
  },
  {
    "name": "TOP_SCORER_ALL",
    "defaultvalue": 0,
    "displayName": "Top Scorer X19",
    "hidden": 0,
    "description": "Win an 'A' grade on every level",
    "icon": "https://steamcdn-a.akamaihd.net/steamcommunity/public/images/apps/848430/019ff4c6b9de3baa32622efd9e586361d5c72b76.jpg",
    "icongray": "https://steamcdn-a.akamaihd.net/steamcommunity/public/images/apps/848430/ab4df684d521589237dc410c6adac9b3692d4d0a.jpg"
  },
  {
    "name": "SUP_SCORER_1",
    "defaultvalue": 0,
    "displayName": "Supreme Scorer",
    "hidden": 0,
    "description": "Win your first 'S' grade",
    "icon": "https://steamcdn-a.akamaihd.net/steamcommunity/public/images/apps/848430/7952551c0072201c9b8c471a33a05ed2c5807162.jpg",
    "icongray": "https://steamcdn-a.akamaihd.net/steamcommunity/public/images/apps/848430/2ddfa344d16501b7115c85c8623ddcbb16df709e.jpg"
  },
  {
    "name": "SUP_SCORER_10",
    "defaultvalue": 0,
    "displayName": "Supreme Scorer X10",
    "hidden": 0,
    "description": "Win 10 'S' grade",
    "icon": "https://steamcdn-a.akamaihd.net/steamcommunity/public/images/apps/848430/2b20a20da036a9274fb53e970b695dd1535ab598.jpg",
    "icongray": "https://steamcdn-a.akamaihd.net/steamcommunity/public/images/apps/848430/58f93bf96cf260c165e113c677772aa0404e16c1.jpg"
  },
  {
    "name": "SUP_SCORER_ALL",
    "defaultvalue": 0,
    "displayName": "Supreme Scorer X19",
    "hidden": 0,
    "description": "Win an 'S' grade on every level",
    "icon": "https://steamcdn-a.akamaihd.net/steamcommunity/public/images/apps/848430/351f3de87ddb5f1423d0ecbc4a3bc46ab2f50a95.jpg",
    "icongray": "https://steamcdn-a.akamaihd.net/steamcommunity/public/images/apps/848430/004f6c2c0f714531c409f4e2c1fc3313aff340cc.jpg"
  },
  {
    "name": "COMBO_MASTER",
    "defaultvalue": 0,
    "displayName": "Combo Master",
    "hidden": 0,
    "description": "Achieve a 100 kills combo",
    "icon": "https://steamcdn-a.akamaihd.net/steamcommunity/public/images/apps/848430/a9e92b31f7880582c3458c9cc8b736f27ef58937.jpg",
    "icongray": "https://steamcdn-a.akamaihd.net/steamcommunity/public/images/apps/848430/aa1b62075dd27bb181032951e17bbeb014a2c68c.jpg"
  },
  {
    "name": "COMBO_GOD",
    "defaultvalue": 0,
    "displayName": "Combo God",
    "hidden": 0,
    "description": "Achieve a 200 kills combo",
    "icon": "https://steamcdn-a.akamaihd.net/steamcommunity/public/images/apps/848430/ab30f0e50d3091f0adcf7b84063e3670e905ef04.jpg",
    "icongray": "https://steamcdn-a.akamaihd.net/steamcommunity/public/images/apps/848430/1e49c60fc3b4e5f1d434e81858c083f74aec7298.jpg"
  },
  {
    "name": "CREEPMAN_KILLER_100",
    "defaultvalue": 0,
    "displayName": "Creeper Killer",
    "hidden": 0,
    "description": "Kill 100 Creepers",
    "icon": "https://steamcdn-a.akamaihd.net/steamcommunity/public/images/apps/848430/db0fdb1c36f0f70882531aa6dde2a877f75b237a.jpg",
    "icongray": "https://steamcdn-a.akamaihd.net/steamcommunity/public/images/apps/848430/e0714854b4525685c378bdda4b635c3bde26da88.jpg"
  },
  {
    "name": "CREEPMAN_KILLER_1000",
    "defaultvalue": 0,
    "displayName": "Creeeeepeeeeerrr Killeeeer X1,000",
    "hidden": 0,
    "description": "Kill 1000 Creepers",
    "icon": "https://steamcdn-a.akamaihd.net/steamcommunity/public/images/apps/848430/50d667cc2fd03decde9933f0c5e3f44d5ac8c512.jpg",
    "icongray": "https://steamcdn-a.akamaihd.net/steamcommunity/public/images/apps/848430/948e975078562e6f2712b35354cc3b75dfc337da.jpg"
  },
  {
    "name": "CREEPMAN_KILLER_10000",
    "defaultvalue": 0,
    "displayName": "CREEEEPPEEERRRR KILLEEER X10,000",
    "hidden": 0,
    "description": "Kill 10000 Creepers",
    "icon": "https://steamcdn-a.akamaihd.net/steamcommunity/public/images/apps/848430/ce2fd64ff92974d24258e2f0d2b632c496547545.jpg",
    "icongray": "https://steamcdn-a.akamaihd.net/steamcommunity/public/images/apps/848430/87366a003e75ac3a1c5a12d0248e8d7958728c17.jpg"
  },
  {
    "name": "FATMAN_KILLER_20",
    "defaultvalue": 0,
    "displayName": "Big Daddies Killer",
    "hidden": 0,
    "description": "Kill 20 Big Daddies",
    "icon": "https://steamcdn-a.akamaihd.net/steamcommunity/public/images/apps/848430/d25fc275ba2c4a911eee49e57026c9b8e6d8fa4a.jpg",
    "icongray": "https://steamcdn-a.akamaihd.net/steamcommunity/public/images/apps/848430/6b7fc2caf9f00eed210c8b1e9c2f74f22eec84a1.jpg"
  },
  {
    "name": "FATMAN_KILLER_200",
    "defaultvalue": 0,
    "displayName": "Big Daddies Killer X200",
    "hidden": 0,
    "description": "Kill 200 Big Daddies",
    "icon": "https://steamcdn-a.akamaihd.net/steamcommunity/public/images/apps/848430/e75d2c9c213a27f5556f213a415b3b7bb9fc84ea.jpg",
    "icongray": "https://steamcdn-a.akamaihd.net/steamcommunity/public/images/apps/848430/73a70edf6d4d042bdca76caa74aae334cee0e4b3.jpg"
  },
  {
    "name": "DODGEMAN_KILLER_20",
    "defaultvalue": 0,
    "displayName": "Chicken Killer",
    "hidden": 0,
    "description": "Kill 20 Chickens",
    "icon": "https://steamcdn-a.akamaihd.net/steamcommunity/public/images/apps/848430/04c405d1b8c9d9a827f6bc2ddde60f6ae0f2e954.jpg",
    "icongray": "https://steamcdn-a.akamaihd.net/steamcommunity/public/images/apps/848430/6fa7bb21566b733ea13c200b34601f8adc6907e8.jpg"
  },
  {
    "name": "DODGEMAN_KILLER_200",
    "defaultvalue": 0,
    "displayName": "Chicken Killer X200",
    "hidden": 0,
    "description": "Kill 200 Chickens",
    "icon": "https://steamcdn-a.akamaihd.net/steamcommunity/public/images/apps/848430/17c9cff8a9ac2a4f7193243cf74d6a29e4618629.jpg",
    "icongray": "https://steamcdn-a.akamaihd.net/steamcommunity/public/images/apps/848430/4870c2057b50f353273162fc0e621f00942d22d4.jpg"
  },
  {
    "name": "HUNTMAN_KILLER_20",
    "defaultvalue": 0,
    "displayName": "Hunter Killer",
    "hidden": 0,
    "description": "Kill 20 Hunters",
    "icon": "https://steamcdn-a.akamaihd.net/steamcommunity/public/images/apps/848430/9f58df858df69de0d9d1a8877526929ea062b09a.jpg",
    "icongray": "https://steamcdn-a.akamaihd.net/steamcommunity/public/images/apps/848430/4f5cde5d19cf824857156e615ca23130c09dc9cc.jpg"
  },
  {
    "name": "HUNTMAN_KILLER_200",
    "defaultvalue": 0,
    "displayName": "Hunter Killer X200",
    "hidden": 0,
    "description": "Kill 200 Hunters",
    "icon": "https://steamcdn-a.akamaihd.net/steamcommunity/public/images/apps/848430/7c1942784ead4dfe52677522989e9830e6fa3f85.jpg",
    "icongray": "https://steamcdn-a.akamaihd.net/steamcommunity/public/images/apps/848430/a3852b2d3ce70a7ada9a2d8cd94ffcfbdaa7b1d6.jpg"
  },
  {
    "name": "BOMBMAN_KILLER_20",
    "defaultvalue": 0,
    "displayName": "Bombman Killer",
    "hidden": 0,
    "description": "Kill 20 Bombmen",
    "icon": "https://steamcdn-a.akamaihd.net/steamcommunity/public/images/apps/848430/9babf1abeec973a9d9073435eda4470fc24d1066.jpg",
    "icongray": "https://steamcdn-a.akamaihd.net/steamcommunity/public/images/apps/848430/e110786703c7524f621ea17d677f1031f3becfd5.jpg"
  },
  {
    "name": "BOMBMAN_KILLER_200",
    "defaultvalue": 0,
    "displayName": "Bombman Killer X200",
    "hidden": 0,
    "description": "Kill 200 Bombmen",
    "icon": "https://steamcdn-a.akamaihd.net/steamcommunity/public/images/apps/848430/ce721ac611671dd96776ee7e8833eeaa44221975.jpg",
    "icongray": "https://steamcdn-a.akamaihd.net/steamcommunity/public/images/apps/848430/26a75ee19f5741ae4c26fd0a04d98ca7164e48d8.jpg"
  },
  {
    "name": "SHIELDMAN_KILLER_10",
    "defaultvalue": 0,
    "displayName": "Spartan Killer",
    "hidden": 0,
    "description": "Kill 10 Spartans",
    "icon": "https://steamcdn-a.akamaihd.net/steamcommunity/public/images/apps/848430/388a25176984b4f5bf0009d898bc1d7de70e260d.jpg",
    "icongray": "https://steamcdn-a.akamaihd.net/steamcommunity/public/images/apps/848430/95b6dc0503265d2912277ff1e5c137db70d734de.jpg"
  },
  {
    "name": "SHIELDMAN_KILLER_100",
    "defaultvalue": 0,
    "displayName": "Spartan Killer X100",
    "hidden": 0,
    "description": "Kill 100 Spartans",
    "icon": "https://steamcdn-a.akamaihd.net/steamcommunity/public/images/apps/848430/11c1428b4f5d283152d08ddf37fe71e2eeba1d71.jpg",
    "icongray": "https://steamcdn-a.akamaihd.net/steamcommunity/public/images/apps/848430/1e0d9c07b9f7cca56456de54efb2e89c7af131bc.jpg"
  },
  {
    "name": "MINEMAN_KILLER_10",
    "defaultvalue": 0,
    "displayName": "Spidermine Killer",
    "hidden": 0,
    "description": "Kill 10 Spidermines",
    "icon": "https://steamcdn-a.akamaihd.net/steamcommunity/public/images/apps/848430/0f4e99797d23fea6180485d50c7593cbdf1a4631.jpg",
    "icongray": "https://steamcdn-a.akamaihd.net/steamcommunity/public/images/apps/848430/89853ef3aeeaf2b82bd5d79b2af73aac0e7598e9.jpg"
  },
  {
    "name": "MINEMAN_KILLER_50",
    "defaultvalue": 0,
    "displayName": "Spidermine Killer X50",
    "hidden": 0,
    "description": "Kill 50 Spidermines",
    "icon": "https://steamcdn-a.akamaihd.net/steamcommunity/public/images/apps/848430/8abad39dd43fa6a6c3c2fe47e4a339110c51b7e3.jpg",
    "icongray": "https://steamcdn-a.akamaihd.net/steamcommunity/public/images/apps/848430/627ce0978f9c10098b8b008af9b6e06a78de5c05.jpg"
  },
  {
    "name": "BALLMAN_KILLER_10",
    "defaultvalue": 0,
    "displayName": "Ballder Killer",
    "hidden": 0,
    "description": "Kill 10 Ballders",
    "icon": "https://steamcdn-a.akamaihd.net/steamcommunity/public/images/apps/848430/3a9a971d153074c8d4567e612ee7b9c62231e5a3.jpg",
    "icongray": "https://steamcdn-a.akamaihd.net/steamcommunity/public/images/apps/848430/5d158c6a760f299712742325678e925f0f25dfed.jpg"
  },
  {
    "name": "BALLMAN_KILLER_50",
    "defaultvalue": 0,
    "displayName": "Ballder Killer X50",
    "hidden": 0,
    "description": "Kill 50 Ballders",
    "icon": "https://steamcdn-a.akamaihd.net/steamcommunity/public/images/apps/848430/bfb416589422f8c7661b023f625eb88ab65bfe2d.jpg",
    "icongray": "https://steamcdn-a.akamaihd.net/steamcommunity/public/images/apps/848430/41b4eb1d19e73017f2d22527724548febeba604b.jpg"
  },
  {
    "name": "TURRET_KILLER_10",
    "defaultvalue": 0,
    "displayName": "Turret Destroyer",
    "hidden": 0,
    "description": "Destroy 10 Turrets",
    "icon": "https://steamcdn-a.akamaihd.net/steamcommunity/public/images/apps/848430/4b1e5a6dd884d7af06e265a0c1a984c91fd86f54.jpg",
    "icongray": "https://steamcdn-a.akamaihd.net/steamcommunity/public/images/apps/848430/3a08f2a3b6119dcfb337092a72808ea1c060e6bf.jpg"
  },
  {
    "name": "TURRET_KILLER_50",
    "defaultvalue": 0,
    "displayName": "Turret Destroyer X50",
    "hidden": 0,
    "description": "Destroy 50 Turrets",
    "icon": "https://steamcdn-a.akamaihd.net/steamcommunity/public/images/apps/848430/45fda25b6f21a8742d6e0ae37b42fe8b902331a7.jpg",
    "icongray": "https://steamcdn-a.akamaihd.net/steamcommunity/public/images/apps/848430/7ea5313d9af1b6b2f47c6a462c973a52ca81a267.jpg"
  },
  {
    "name": "GLOBAL_KILLER",
    "defaultvalue": 0,
    "displayName": "God of WAAAAAAAAAR !!!",
    "hidden": 0,
    "description": "Kill 50,000 Ennemies",
    "icon": "https://steamcdn-a.akamaihd.net/steamcommunity/public/images/apps/848430/29ecd472d545cb48a6c3c21daa73487419190825.jpg",
    "icongray": "https://steamcdn-a.akamaihd.net/steamcommunity/public/images/apps/848430/31ba8eb0a5236da53f832d4c0025be2988f5410f.jpg"
  },
  {
    "name": "EASY_DONE",
    "defaultvalue": 0,
    "displayName": "Candy Warrior",
    "hidden": 0,
    "description": "Finish the game in easy difficulty",
    "icon": "https://steamcdn-a.akamaihd.net/steamcommunity/public/images/apps/848430/3c654a29db8fd125be61b2d2eb5123242c024448.jpg",
    "icongray": "https://steamcdn-a.akamaihd.net/steamcommunity/public/images/apps/848430/9bbe629c110cea1dc13b5f33b6d8718e6c01e945.jpg"
  },
  {
    "name": "NORMAL_DONE",
    "defaultvalue": 0,
    "displayName": "Fizzy Warrior",
    "hidden": 0,
    "description": "Finish the game in normal difficulty",
    "icon": "https://steamcdn-a.akamaihd.net/steamcommunity/public/images/apps/848430/d4a6d4634c442c38af045457768378b15f7a70a9.jpg",
    "icongray": "https://steamcdn-a.akamaihd.net/steamcommunity/public/images/apps/848430/3aa60200b7c685fa6c016124a1dc815588844073.jpg"
  },
  {
    "name": "HARD_DONE",
    "defaultvalue": 0,
    "displayName": "Mankind might survive Mutants",
    "hidden": 0,
    "description": "Finish the game in hard difficulty",
    "icon": "https://steamcdn-a.akamaihd.net/steamcommunity/public/images/apps/848430/f40f7079c1fd83c0bb268c49a3c73c6b56a7f93c.jpg",
    "icongray": "https://steamcdn-a.akamaihd.net/steamcommunity/public/images/apps/848430/582f76b1e2e3d3322c52d648aa450445a7018661.jpg"
  },
  {
    "name": "ACCURACY_BAD",
    "defaultvalue": 0,
    "displayName": "Blindfolded Warior",
    "hidden": 0,
    "description": "Get an accuracy under 5% during a game",
    "icon": "https://steamcdn-a.akamaihd.net/steamcommunity/public/images/apps/848430/5b124e5893862de9240d60da9ccc7af2a56289e4.jpg",
    "icongray": "https://steamcdn-a.akamaihd.net/steamcommunity/public/images/apps/848430/77e96e77113e6d8fa6b7788534d21c66f128b3d7.jpg"
  },
  {
    "name": "ACCURACY_GOOD",
    "defaultvalue": 0,
    "displayName": "Sharpshooter",
    "hidden": 0,
    "description": "Get an accuracy over 80% during a game",
    "icon": "https://steamcdn-a.akamaihd.net/steamcommunity/public/images/apps/848430/77f20172aaa8bf870ea5af57ba68afac92f36659.jpg",
    "icongray": "https://steamcdn-a.akamaihd.net/steamcommunity/public/images/apps/848430/6b0b6a141a4a5c5f743bcbe8c2a4afd6a726e1a9.jpg"
  },
  {
    "name": "COMBO_BAD",
    "defaultvalue": 0,
    "displayName": "Anti-Combo Assassin",
    "hidden": 0,
    "description": "Never reach a combo of 10 during a game",
    "icon": "https://steamcdn-a.akamaihd.net/steamcommunity/public/images/apps/848430/66b9c6b9da3a7a01c786f1658a62b7aa84771510.jpg",
    "icongray": "https://steamcdn-a.akamaihd.net/steamcommunity/public/images/apps/848430/14da82523fc7369cd4e66b8c40900f1804f1edde.jpg"
  },
  {
    "name": "TOUCHABLE",
    "defaultvalue": 0,
    "displayName": "I'm totally ok with dying",
    "hidden": 0,
    "description": "Dying more than 100 times during a game",
    "icon": "https://steamcdn-a.akamaihd.net/steamcommunity/public/images/apps/848430/06e05a8f51acd07fb4163548ef834b63cf52c27f.jpg",
    "icongray": "https://steamcdn-a.akamaihd.net/steamcommunity/public/images/apps/848430/74cd88d692ab8a2d30bee77021b3bb7d9aaa7040.jpg"
  },
  {
    "name": "DISTANCE_BAD",
    "defaultvalue": 0,
    "displayName": "My feet hurts",
    "hidden": 0,
    "description": "Running less than 200 meters during a game",
    "icon": "https://steamcdn-a.akamaihd.net/steamcommunity/public/images/apps/848430/cfdec4b11ddb252d19831a9f73c9e0258117c3ee.jpg",
    "icongray": "https://steamcdn-a.akamaihd.net/steamcommunity/public/images/apps/848430/d63b69c40d25af714d7fd7cf69f9e40a28624354.jpg"
  },
  {
    "name": "MANAGER",
    "defaultvalue": 0,
    "displayName": "No blood on my hands",
    "hidden": 0,
    "description": "Kill less than 30% ennemis with your own gun during a game",
    "icon": "https://steamcdn-a.akamaihd.net/steamcommunity/public/images/apps/848430/88e88453c5da45859471f2d709452ee1dcc05a8f.jpg",
    "icongray": "https://steamcdn-a.akamaihd.net/steamcommunity/public/images/apps/848430/c05cbdfe7fdea8bbcc8bc7d22157b1bccb6dc520.jpg"
  },
  {
    "name": "INDEPENDANT",
    "defaultvalue": 0,
    "displayName": "Kill them all !",
    "hidden": 0,
    "description": "Kill all ennemis on your own during a game",
    "icon": "https://steamcdn-a.akamaihd.net/steamcommunity/public/images/apps/848430/e33e2260c3aee205d7bd81a8b117bc7d1727bf56.jpg",
    "icongray": "https://steamcdn-a.akamaihd.net/steamcommunity/public/images/apps/848430/fdf5290f59479aad34c558a754f1ca47361a51c1.jpg"
  },
  {
    "name": "SPECIAL_BAD",
    "defaultvalue": 0,
    "displayName": "What should I do with all these cans ?",
    "hidden": 0,
    "description": "Win a level without using a single special",
    "icon": "https://steamcdn-a.akamaihd.net/steamcommunity/public/images/apps/848430/a8eefcfca4ebf6d36cd46fdbec26873b72c5f53d.jpg",
    "icongray": "https://steamcdn-a.akamaihd.net/steamcommunity/public/images/apps/848430/d38ba6795d4638f7fd60dd4f756e69c02ae1a1d6.jpg"
  },
  {
    "name": "CHAPTER_01_DONE",
    "defaultvalue": 0,
    "displayName": "TV is over !",
    "hidden": 0,
    "description": "Finish TV chapter, kill TV head",
    "icon": "https://steamcdn-a.akamaihd.net/steamcommunity/public/images/apps/848430/b129512c2058f9f6f56b8e8f7bb5434103acb1bb.jpg",
    "icongray": "https://steamcdn-a.akamaihd.net/steamcommunity/public/images/apps/848430/e6e7c7280d8abaa01ebe3ee52e0e62fdd977594c.jpg"
  },
  {
    "name": "CHAPTER_02_DONE",
    "defaultvalue": 0,
    "displayName": "Street cleaner !",
    "hidden": 0,
    "description": "Finish the street chapter, destroy the war train",
    "icon": "https://steamcdn-a.akamaihd.net/steamcommunity/public/images/apps/848430/a98f74ec8acc11feb5a391e6c07ce7fbe2be90dc.jpg",
    "icongray": "https://steamcdn-a.akamaihd.net/steamcommunity/public/images/apps/848430/90af9ffd38aa1f8eb66305cd3db3afaf203d6ca9.jpg"
  },
  {
    "name": "CHAPTER_03_DONE",
    "defaultvalue": 0,
    "displayName": "Offices Lawmowner !",
    "hidden": 0,
    "description": "Clean up the office chapter, destroy the war aircraft",
    "icon": "https://steamcdn-a.akamaihd.net/steamcommunity/public/images/apps/848430/ad0022a5fb4fb4b585b4eb777b84dc93469009be.jpg",
    "icongray": "https://steamcdn-a.akamaihd.net/steamcommunity/public/images/apps/848430/cabad7c99c94443f26b561e2923c4e652a632696.jpg"
  },
  {
    "name": "CHAPTER_04_DONE",
    "defaultvalue": 0,
    "displayName": "Labs breaker !",
    "hidden": 0,
    "description": "Finish the lab chapter, get rid of the ghosts",
    "icon": "https://steamcdn-a.akamaihd.net/steamcommunity/public/images/apps/848430/c1e71af3d170ffaf32e816b0866ef2a0ab2a1fb0.jpg",
    "icongray": "https://steamcdn-a.akamaihd.net/steamcommunity/public/images/apps/848430/f5f230b37a3ad6daff76c6afa259b8e9afa893aa.jpg"
  },
  {
    "name": "CHAPTER_05_DONE",
    "defaultvalue": 0,
    "displayName": "Stronger than luxury !",
    "hidden": 0,
    "description": "Finish the mansion chapter",
    "icon": "https://steamcdn-a.akamaihd.net/steamcommunity/public/images/apps/848430/06f445ccc93f5e3c3b884d9c3e4821a01afbc43a.jpg",
    "icongray": "https://steamcdn-a.akamaihd.net/steamcommunity/public/images/apps/848430/3e63fa4e6f0dafbc39cfea1d6f069812afbcf456.jpg"
  },
  {
    "name": "CHAPTER_05_ZERO_DEATH",
    "defaultvalue": 0,
    "displayName": "The Greatest Dancer",
    "hidden": 0,
    "description": "Kill the final boss without dying",
    "icon": "https://steamcdn-a.akamaihd.net/steamcommunity/public/images/apps/848430/30e0d7635473ef4a51c420d430bd3ce45204c810.jpg",
    "icongray": "https://steamcdn-a.akamaihd.net/steamcommunity/public/images/apps/848430/263c44a1a7185d0538ea80fdd236772d0ce54a3d.jpg"
  },
  {
    "name": "ARENA_FALLING",
    "defaultvalue": 0,
    "displayName": "I Hate Holes",
    "hidden": 0,
    "description": "Dying 20 times falling off the holes of TV set level",
    "icon": "https://steamcdn-a.akamaihd.net/steamcommunity/public/images/apps/848430/69bef4049bd867f0281ac27b90afe637b032e443.jpg",
    "icongray": "https://steamcdn-a.akamaihd.net/steamcommunity/public/images/apps/848430/fbfd92961fd33629db44f2828129ce21e29427c2.jpg"
  },
  {
    "name": "HARVESTER_DEATH",
    "defaultvalue": 0,
    "displayName": "I Hate Harvesters",
    "hidden": 0,
    "description": "Dying 20 times in the blades of the Harvester",
    "icon": "https://steamcdn-a.akamaihd.net/steamcommunity/public/images/apps/848430/fd054b821cd22d42954570b28edc9af3c122fa05.jpg",
    "icongray": "https://steamcdn-a.akamaihd.net/steamcommunity/public/images/apps/848430/195ebcea44efa5b36053d70528991b18f692928f.jpg"
  },
  {
    "name": "ROOF_FALLING",
    "defaultvalue": 0,
    "displayName": "I Hate Roofs",
    "hidden": 0,
    "description": "Dying 20 times falling off the roofs of the roofs level",
    "icon": "https://steamcdn-a.akamaihd.net/steamcommunity/public/images/apps/848430/4c204652c501a5aa884d207b07e29f2de743a995.jpg",
    "icongray": "https://steamcdn-a.akamaihd.net/steamcommunity/public/images/apps/848430/2f5589e1cdb746116b89cb419c79167aa4d5a99c.jpg"
  },
  {
    "name": "MINE_WALKER",
    "defaultvalue": 0,
    "displayName": "I Hate Mines",
    "hidden": 0,
    "description": "Dying 20 times walking on mines",
    "icon": "https://steamcdn-a.akamaihd.net/steamcommunity/public/images/apps/848430/4ce98bad971f7d8c4aed2facce62b2016a7d72f7.jpg",
    "icongray": "https://steamcdn-a.akamaihd.net/steamcommunity/public/images/apps/848430/3742dbdbd559446dd79d5d321fefa39d5caeede7.jpg"
  },
  {
    "name": "MANSION_COUNTER",
    "defaultvalue": 0,
    "displayName": "I Love Pancakes",
    "hidden": 0,
    "description": "Dying 20 times crushed by the final boss",
    "icon": "https://steamcdn-a.akamaihd.net/steamcommunity/public/images/apps/848430/97101b56ce2c6534d5f6f54cc9087c2229d29e3b.jpg",
    "icongray": "https://steamcdn-a.akamaihd.net/steamcommunity/public/images/apps/848430/eed66ee1a702af4cf7ee42640af96262549c1887.jpg"
  },
  {
    "name": "SPEEDRUN_TRAPS",
    "defaultvalue": 0,
    "displayName": "I don't fear gladiators anymore",
    "hidden": 0,
    "description": "Finish Traps level under 1min30s",
    "icon": "https://steamcdn-a.akamaihd.net/steamcommunity/public/images/apps/848430/47f632aef26ff5bc6315e7c7d16d27aa4e9028ad.jpg",
    "icongray": "https://steamcdn-a.akamaihd.net/steamcommunity/public/images/apps/848430/9893c82f0ae5796ef246cf1befd2690fb59b45e9.jpg"
  },
  {
    "name": "SPEEDRUN_MAZE",
    "defaultvalue": 0,
    "displayName": "Maze by Hearth",
    "hidden": 0,
    "description": "Finish Maze level under 1min",
    "icon": "https://steamcdn-a.akamaihd.net/steamcommunity/public/images/apps/848430/18707c98d3f150bfcda9c6a4f5e69074f3f137e6.jpg",
    "icongray": "https://steamcdn-a.akamaihd.net/steamcommunity/public/images/apps/848430/650e7052c8ac5b79aef885b1ed9f7f7cfed33dd2.jpg"
  },
  {
    "name": "SLOWRUN_MAZE",
    "defaultvalue": 0,
    "displayName": "I was once lost",
    "hidden": 0,
    "description": "Spend more than 15 minutes in the maze level",
    "icon": "https://steamcdn-a.akamaihd.net/steamcommunity/public/images/apps/848430/2ba3e4b9bad64c4e717cda749c2a6649e0fca049.jpg",
    "icongray": "https://steamcdn-a.akamaihd.net/steamcommunity/public/images/apps/848430/8e221cac97ede7c5cde4b994757e899cee53ca50.jpg"
  },
  {
    "name": "PINBALL_BREAKER",
    "defaultvalue": 0,
    "displayName": "Pinball Breaker",
    "hidden": 0,
    "description": "Destroy all doors of the pinball during a game",
    "icon": "https://steamcdn-a.akamaihd.net/steamcommunity/public/images/apps/848430/230f039f9fe5ee17d0e61ac55fdd2cb15b2873b9.jpg",
    "icongray": "https://steamcdn-a.akamaihd.net/steamcommunity/public/images/apps/848430/ae3885143569c02c2aceee8b357ea1d0c75f2f93.jpg"
  },
  {
    "name": "PINBALL_MULTIBALL",
    "defaultvalue": 0,
    "displayName": "I Love Balls",
    "hidden": 0,
    "description": "Activate more than 3 times the pinball's multiball during a game",
    "icon": "https://steamcdn-a.akamaihd.net/steamcommunity/public/images/apps/848430/36500a2573e0c71f4ece023041b50631eccd60ec.jpg",
    "icongray": "https://steamcdn-a.akamaihd.net/steamcommunity/public/images/apps/848430/aa2c62737d37f95a5989a84975ef939b42276488.jpg"
  },
  {
    "name": "FACTORY_BUTTON",
    "defaultvalue": 0,
    "displayName": "I Love Buttons",
    "hidden": 0,
    "description": "Push more than 100 times the buttons of the factory level",
    "icon": "https://steamcdn-a.akamaihd.net/steamcommunity/public/images/apps/848430/3d8934f93da2c66990d848e5bc2f1a1dc2f109b5.jpg",
    "icongray": "https://steamcdn-a.akamaihd.net/steamcommunity/public/images/apps/848430/62813a7b223058757ec8a57eebf2a80b60fbbbd3.jpg"
  },
  {
    "name": "WALL_BREAKER",
    "defaultvalue": 0,
    "displayName": "Bulldozer",
    "hidden": 0,
    "description": "Destroy all the walls of the elevator level during a game",
    "icon": "https://steamcdn-a.akamaihd.net/steamcommunity/public/images/apps/848430/5f8a497a535b28eb6e6b3e163134cecb9bb5cde0.jpg",
    "icongray": "https://steamcdn-a.akamaihd.net/steamcommunity/public/images/apps/848430/f2b55aa745e47e9e2586514809b19b2988504289.jpg"
  },
  {
    "name": "MASS_TELEPORTATION",
    "defaultvalue": 0,
    "displayName": "I practice teleportation a lot",
    "hidden": 0,
    "description": "Use 100 times the ghost level's teleporter",
    "icon": "https://steamcdn-a.akamaihd.net/steamcommunity/public/images/apps/848430/41180311c3893b8823c137560d3c5d80c49bf93c.jpg",
    "icongray": "https://steamcdn-a.akamaihd.net/steamcommunity/public/images/apps/848430/40f9310e8435e0f1819b0945a04b952cdcca0857.jpg"
  },
  {
    "name": "BARREL_BREAKER",
    "defaultvalue": 0,
    "displayName": "I Hate Barrels",
    "hidden": 0,
    "description": "Explode every barrel of the roof during a game",
    "icon": "https://steamcdn-a.akamaihd.net/steamcommunity/public/images/apps/848430/a20ad323eaf3ef563a9353ae396ff9ea1d688b48.jpg",
    "icongray": "https://steamcdn-a.akamaihd.net/steamcommunity/public/images/apps/848430/d16a7697c713c232d447b48ade8ae3bd87cfdb12.jpg"
  }
]