[
  {
    "name": "stat_wave_survived",
    "defaultvalue": 0,
    "displayName": "Wave survived"
  },
  {
    "name": "stat_rush_best_time",
    "defaultvalue": 0,
    "displayName": "Best Time"
  },
  {
    "name": "IRanking",
    "defaultvalue": 0,
    "displayName": "IRanking"
  }
]