[
  {
    "name": "ach_alwaysone",
    "defaultvalue": 0,
    "displayName": "Always One",
    "hidden": 0,
    "description": "Get kicked from a server",
    "icon": "https://steamcdn-a.akamaihd.net/steamcommunity/public/images/apps/346760/76522c3b4629d54fafd34b42d016c397fb5fad6c.jpg",
    "icongray": "https://steamcdn-a.akamaihd.net/steamcommunity/public/images/apps/346760/2cfa75754ea8bba42ac68b23d6bd7de65f8e6ae2.jpg"
  },
  {
    "name": "ach_simplyrude",
    "defaultvalue": 0,
    "displayName": "Simply Rude",
    "hidden": 0,
    "description": "Boo at people 25 times",
    "icon": "https://steamcdn-a.akamaihd.net/steamcommunity/public/images/apps/346760/19b92d7d78e38124331a1d6eda8f717883d0b909.jpg",
    "icongray": "https://steamcdn-a.akamaihd.net/steamcommunity/public/images/apps/346760/09c0f3e0504dfc00e371e3b1f2032a3039b5991b.jpg"
  },
  {
    "name": "ach_tastysnack",
    "defaultvalue": 0,
    "displayName": "Tasty Snack ",
    "hidden": 0,
    "description": "Eat an item of food",
    "icon": "https://steamcdn-a.akamaihd.net/steamcommunity/public/images/apps/346760/d2c5e385dafa7ef7644d615cbca543e90eab99e2.jpg",
    "icongray": "https://steamcdn-a.akamaihd.net/steamcommunity/public/images/apps/346760/3459a668078a3e34052f10f3c0e03881cd0cd776.jpg"
  },
  {
    "name": "ach_architect",
    "defaultvalue": 0,
    "displayName": "Architect",
    "hidden": 0,
    "description": "Save 10 purple prints",
    "icon": "https://steamcdn-a.akamaihd.net/steamcommunity/public/images/apps/346760/0b7e9bed24df7abe77a1acf08cd38941ab12350e.jpg",
    "icongray": "https://steamcdn-a.akamaihd.net/steamcommunity/public/images/apps/346760/c1dd6906c1a19b1187466f178f4d7bf29ca259e7.jpg"
  },
  {
    "name": "ach_chumpchange",
    "defaultvalue": 0,
    "displayName": "Chump Change",
    "hidden": 0,
    "description": "Have less than five currency to your name",
    "icon": "https://steamcdn-a.akamaihd.net/steamcommunity/public/images/apps/346760/bb5418d946cc8ad75af0194727f9f6e0736fc6f4.jpg",
    "icongray": "https://steamcdn-a.akamaihd.net/steamcommunity/public/images/apps/346760/229a0dcbb5d431b8f5b6b3e46d2dfc570914e3c0.jpg"
  },
  {
    "name": "ach_goldenyears",
    "defaultvalue": 0,
    "displayName": "Golden Years",
    "hidden": 0,
    "description": "Have over 250,000 currency to your name",
    "icon": "https://steamcdn-a.akamaihd.net/steamcommunity/public/images/apps/346760/3e1dbe5daf558f4658395725d5aa5077bd17baaf.jpg",
    "icongray": "https://steamcdn-a.akamaihd.net/steamcommunity/public/images/apps/346760/08658ba3677c8550f93eccb5d14ec33f4f03a047.jpg"
  },
  {
    "name": "ach_mylatestbook",
    "defaultvalue": 0,
    "displayName": "My Latest Book",
    "hidden": 0,
    "description": "Publish a story to the book store",
    "icon": "https://steamcdn-a.akamaihd.net/steamcommunity/public/images/apps/346760/12ba9e2750af8106bbc775236ec790085d8961a3.jpg",
    "icongray": "https://steamcdn-a.akamaihd.net/steamcommunity/public/images/apps/346760/76a7984f6757fbcf32eef580973a4df60b79c772.jpg"
  },
  {
    "name": "ach_hoboways",
    "defaultvalue": 0,
    "displayName": "Hobo Ways",
    "hidden": 0,
    "description": "Purchase a low-grade product",
    "icon": "https://steamcdn-a.akamaihd.net/steamcommunity/public/images/apps/346760/e013a7c177a018872a136d323caa5969bbb1e368.jpg",
    "icongray": "https://steamcdn-a.akamaihd.net/steamcommunity/public/images/apps/346760/fd61a8069933a967a74413c5e76e935a4958ef9c.jpg"
  },
  {
    "name": "ach_trader",
    "defaultvalue": 0,
    "displayName": "Trader",
    "hidden": 0,
    "description": "Purchase 12 separate items for your inventory.",
    "icon": "https://steamcdn-a.akamaihd.net/steamcommunity/public/images/apps/346760/7c1895fab5c370a08a6ba22daff0c45657b48490.jpg",
    "icongray": "https://steamcdn-a.akamaihd.net/steamcommunity/public/images/apps/346760/f242f19de3dbe6ee0cb5d97a3b84cbd739e53b1f.jpg"
  },
  {
    "name": "ach_trunkofjunk",
    "defaultvalue": 0,
    "displayName": "Trunk Of Junk",
    "hidden": 0,
    "description": "Fill up your inventory",
    "icon": "https://steamcdn-a.akamaihd.net/steamcommunity/public/images/apps/346760/0a66ae0ca6b6d479d1eb85642004537c9cff2d65.jpg",
    "icongray": "https://steamcdn-a.akamaihd.net/steamcommunity/public/images/apps/346760/d4fc8d2419fded229071ac8860e5b8e3ae447f92.jpg"
  },
  {
    "name": "ach_purgatory",
    "defaultvalue": 0,
    "displayName": "Purgatory",
    "hidden": 0,
    "description": "Become a ghost",
    "icon": "https://steamcdn-a.akamaihd.net/steamcommunity/public/images/apps/346760/56aea75445df63ef9b26d6ac82d13d9d5b32dea6.jpg",
    "icongray": "https://steamcdn-a.akamaihd.net/steamcommunity/public/images/apps/346760/7d321503b3ee80504b10b219fe53d582ff2c08d3.jpg"
  },
  {
    "name": "ach_homepage",
    "defaultvalue": 0,
    "displayName": "Home Page",
    "hidden": 0,
    "description": "Create a website",
    "icon": "https://steamcdn-a.akamaihd.net/steamcommunity/public/images/apps/346760/7523fed99de51a6eb506e0fc248caedf0e98f2e0.jpg",
    "icongray": "https://steamcdn-a.akamaihd.net/steamcommunity/public/images/apps/346760/d0beb31bcae185c71f1e1e821f979e9d27e90689.jpg"
  },
  {
    "name": "ach_aiera",
    "defaultvalue": 0,
    "displayName": "AI Era",
    "hidden": 0,
    "description": "Use a Robotic Assembler",
    "icon": "https://steamcdn-a.akamaihd.net/steamcommunity/public/images/apps/346760/96ec2e89afc3d54c6cc2bbd3dda7370b93321792.jpg",
    "icongray": "https://steamcdn-a.akamaihd.net/steamcommunity/public/images/apps/346760/67633924752a588220fd0f65fff8fde1a46d7565.jpg"
  },
  {
    "name": "ach_hitchkensapproves",
    "defaultvalue": 0,
    "displayName": "Hitchkens Approves",
    "hidden": 0,
    "description": "Buy Hitchkens latest book from the book store",
    "icon": "https://steamcdn-a.akamaihd.net/steamcommunity/public/images/apps/346760/e4406256a87ad7f35cae4af75189c41cdadad7da.jpg",
    "icongray": "https://steamcdn-a.akamaihd.net/steamcommunity/public/images/apps/346760/4a6253a3862ef4b37d511124677b2f9150fa07f7.jpg"
  },
  {
    "name": "ach_rareplease",
    "defaultvalue": 0,
    "displayName": "Rare Please",
    "hidden": 0,
    "description": "Burn food in the pan cooking minigame",
    "icon": "https://steamcdn-a.akamaihd.net/steamcommunity/public/images/apps/346760/6097c582a6494e3fc4e260268862dd3f29cd8cac.jpg",
    "icongray": "https://steamcdn-a.akamaihd.net/steamcommunity/public/images/apps/346760/07112c77e138a09d8dfb5d3a52b4418fdd924641.jpg"
  },
  {
    "name": "ach_wozniak",
    "defaultvalue": 0,
    "displayName": "Wozniak",
    "hidden": 0,
    "description": "Create something with the imprinter",
    "icon": "https://steamcdn-a.akamaihd.net/steamcommunity/public/images/apps/346760/9608210a1429d9b5b9dc06550c5404a85e297f8f.jpg",
    "icongray": "https://steamcdn-a.akamaihd.net/steamcommunity/public/images/apps/346760/dd614683c69fc5a02f5257ec029bb564dbaa9a25.jpg"
  },
  {
    "name": "ach_stargazer",
    "defaultvalue": 0,
    "displayName": "Star Gazer",
    "hidden": 0,
    "description": "Scroll to the highest point in the sky and watch the stars for 1 minute",
    "icon": "https://steamcdn-a.akamaihd.net/steamcommunity/public/images/apps/346760/b2b4d760b8029aee25619afc31e69da151d6abc6.jpg",
    "icongray": "https://steamcdn-a.akamaihd.net/steamcommunity/public/images/apps/346760/0db3b4b0f7c87b2beb79041ce41ef7a90807fabd.jpg"
  },
  {
    "name": "ach_inheritance",
    "defaultvalue": 0,
    "displayName": "Inheritance",
    "hidden": 0,
    "description": "Respawn after a death",
    "icon": "https://steamcdn-a.akamaihd.net/steamcommunity/public/images/apps/346760/2e619d91c29abc2cf94cc1d3f4cedf289b8d3351.jpg",
    "icongray": "https://steamcdn-a.akamaihd.net/steamcommunity/public/images/apps/346760/aa6f3e77d38bb95c64baaf61fbad1b945ebdf921.jpg"
  },
  {
    "name": "ach_melonconspiracy",
    "defaultvalue": 0,
    "displayName": "Melon Conspiracy",
    "hidden": 0,
    "description": "Type 'all hail the melon' in the game chat",
    "icon": "https://steamcdn-a.akamaihd.net/steamcommunity/public/images/apps/346760/1e70c29f3e9e4e42db07256a4d78f53bf19f341c.jpg",
    "icongray": "https://steamcdn-a.akamaihd.net/steamcommunity/public/images/apps/346760/d24735df1a127957adf807716c46da329dedf1a2.jpg"
  },
  {
    "name": "ach_eighteenthamendment",
    "defaultvalue": 0,
    "displayName": "Eighteenth Amendment",
    "hidden": 0,
    "description": "Use the fermenter",
    "icon": "https://steamcdn-a.akamaihd.net/steamcommunity/public/images/apps/346760/2dd92b3b8bb84a2d1e756c2d831a0bea6b58a642.jpg",
    "icongray": "https://steamcdn-a.akamaihd.net/steamcommunity/public/images/apps/346760/404231b83d9671d18833a3eab443c4c89632c4c2.jpg"
  },
  {
    "name": "ach_instorepickup",
    "defaultvalue": 0,
    "displayName": "Instore Pickup",
    "hidden": 0,
    "description": "Purchase something from a chest",
    "icon": "https://steamcdn-a.akamaihd.net/steamcommunity/public/images/apps/346760/d96f869e6557ce7638507affc95891a9d55ec61d.jpg",
    "icongray": "https://steamcdn-a.akamaihd.net/steamcommunity/public/images/apps/346760/e8f8df74e54e9a29fe3880a22198098c122d8f21.jpg"
  },
  {
    "name": "ach_rebelconspiracy",
    "defaultvalue": 0,
    "displayName": "Conspiracist",
    "hidden": 0,
    "description": "Find the website of Dr B. F. Melonface",
    "icon": "https://steamcdn-a.akamaihd.net/steamcommunity/public/images/apps/346760/7c1fc07ddb8199458e7a9fcb781fa261adf11dfc.jpg",
    "icongray": "https://steamcdn-a.akamaihd.net/steamcommunity/public/images/apps/346760/b13e5010dbac4e1a5171d7b22d9cd1eac622296c.jpg"
  },
  {
    "name": "ach_paranoid",
    "defaultvalue": 0,
    "displayName": "Paranoid",
    "hidden": 0,
    "description": "Scan an object for disease",
    "icon": "https://steamcdn-a.akamaihd.net/steamcommunity/public/images/apps/346760/c587ef3a7ab6490a367a8c8d66b28a9a10978f29.jpg",
    "icongray": "https://steamcdn-a.akamaihd.net/steamcommunity/public/images/apps/346760/b4215995452062110d2f384a16db54f34c509e58.jpg"
  },
  {
    "name": "ach_goodfun",
    "defaultvalue": 0,
    "displayName": "Playful",
    "hidden": 0,
    "description": "Play at a server for one hour in a single sitting (uninterrupted).",
    "icon": "https://steamcdn-a.akamaihd.net/steamcommunity/public/images/apps/346760/e698d99e1b71c14187e6f1d0d72aa86d26670457.jpg",
    "icongray": "https://steamcdn-a.akamaihd.net/steamcommunity/public/images/apps/346760/8363c24d5ac78b8b099c6d58ac6b60e112eaedcf.jpg"
  }
]