[
  {
    "name": "NEW_ACHIEVEMENT_1",
    "defaultvalue": 0,
    "displayName": "Entry killer",
    "hidden": 0,
    "description": "Killed your first enemy",
    "icon": "https://steamcdn-a.akamaihd.net/steamcommunity/public/images/apps/1245300/4223f0bc31b5380077812810c3a8e4adcb268bdb.jpg",
    "icongray": "https://steamcdn-a.akamaihd.net/steamcommunity/public/images/apps/1245300/7a8230ba6a3054bb4d0a3dd90f442887886973a6.jpg"
  },
  {
    "name": "NEW_ACHIEVEMENT_2",
    "defaultvalue": 0,
    "displayName": "Weekend Killer",
    "hidden": 0,
    "description": "killed 50 enemies",
    "icon": "https://steamcdn-a.akamaihd.net/steamcommunity/public/images/apps/1245300/4223f0bc31b5380077812810c3a8e4adcb268bdb.jpg",
    "icongray": "https://steamcdn-a.akamaihd.net/steamcommunity/public/images/apps/1245300/7a8230ba6a3054bb4d0a3dd90f442887886973a6.jpg"
  },
  {
    "name": "NEW_ACHIEVEMENT_3",
    "defaultvalue": 0,
    "displayName": "Weekday Killer",
    "hidden": 0,
    "description": "killed 100 enemies",
    "icon": "https://steamcdn-a.akamaihd.net/steamcommunity/public/images/apps/1245300/4223f0bc31b5380077812810c3a8e4adcb268bdb.jpg",
    "icongray": "https://steamcdn-a.akamaihd.net/steamcommunity/public/images/apps/1245300/7a8230ba6a3054bb4d0a3dd90f442887886973a6.jpg"
  },
  {
    "name": "NEW_ACHIEVEMENT_4",
    "defaultvalue": 0,
    "displayName": "Brutal killer",
    "hidden": 0,
    "description": "killed 200 enemies",
    "icon": "https://steamcdn-a.akamaihd.net/steamcommunity/public/images/apps/1245300/4223f0bc31b5380077812810c3a8e4adcb268bdb.jpg",
    "icongray": "https://steamcdn-a.akamaihd.net/steamcommunity/public/images/apps/1245300/7a8230ba6a3054bb4d0a3dd90f442887886973a6.jpg"
  },
  {
    "name": "NEW_ACHIEVEMENT_5",
    "defaultvalue": 0,
    "displayName": "Killing Machine",
    "hidden": 0,
    "description": "killed 300 enemies",
    "icon": "https://steamcdn-a.akamaihd.net/steamcommunity/public/images/apps/1245300/4223f0bc31b5380077812810c3a8e4adcb268bdb.jpg",
    "icongray": "https://steamcdn-a.akamaihd.net/steamcommunity/public/images/apps/1245300/7a8230ba6a3054bb4d0a3dd90f442887886973a6.jpg"
  },
  {
    "name": "NEW_ACHIEVEMENT_6",
    "defaultvalue": 0,
    "displayName": "Titanic Killer",
    "hidden": 0,
    "description": "killed 400 enemies",
    "icon": "https://steamcdn-a.akamaihd.net/steamcommunity/public/images/apps/1245300/4223f0bc31b5380077812810c3a8e4adcb268bdb.jpg",
    "icongray": "https://steamcdn-a.akamaihd.net/steamcommunity/public/images/apps/1245300/7a8230ba6a3054bb4d0a3dd90f442887886973a6.jpg"
  },
  {
    "name": "NEW_ACHIEVEMENT_7",
    "defaultvalue": 0,
    "displayName": "Ruthless Killer",
    "hidden": 0,
    "description": "killed 500 enemies",
    "icon": "https://steamcdn-a.akamaihd.net/steamcommunity/public/images/apps/1245300/4223f0bc31b5380077812810c3a8e4adcb268bdb.jpg",
    "icongray": "https://steamcdn-a.akamaihd.net/steamcommunity/public/images/apps/1245300/7a8230ba6a3054bb4d0a3dd90f442887886973a6.jpg"
  },
  {
    "name": "NEW_ACHIEVEMENT_8",
    "defaultvalue": 0,
    "displayName": "Shameless Killer",
    "hidden": 0,
    "description": "killed 600 enemies",
    "icon": "https://steamcdn-a.akamaihd.net/steamcommunity/public/images/apps/1245300/4223f0bc31b5380077812810c3a8e4adcb268bdb.jpg",
    "icongray": "https://steamcdn-a.akamaihd.net/steamcommunity/public/images/apps/1245300/7a8230ba6a3054bb4d0a3dd90f442887886973a6.jpg"
  },
  {
    "name": "NEW_ACHIEVEMENT_9",
    "defaultvalue": 0,
    "displayName": "Murder spree",
    "hidden": 0,
    "description": "killed 700 enemies",
    "icon": "https://steamcdn-a.akamaihd.net/steamcommunity/public/images/apps/1245300/4223f0bc31b5380077812810c3a8e4adcb268bdb.jpg",
    "icongray": "https://steamcdn-a.akamaihd.net/steamcommunity/public/images/apps/1245300/7a8230ba6a3054bb4d0a3dd90f442887886973a6.jpg"
  },
  {
    "name": "NEW_ACHIEVEMENT_10",
    "defaultvalue": 0,
    "displayName": "Total Madness Killer",
    "hidden": 0,
    "description": "killed 1000 enemies",
    "icon": "https://steamcdn-a.akamaihd.net/steamcommunity/public/images/apps/1245300/4223f0bc31b5380077812810c3a8e4adcb268bdb.jpg",
    "icongray": "https://steamcdn-a.akamaihd.net/steamcommunity/public/images/apps/1245300/7a8230ba6a3054bb4d0a3dd90f442887886973a6.jpg"
  },
  {
    "name": "NEW_ACHIEVEMENT_M1",
    "defaultvalue": 0,
    "displayName": "Madness Mode Mission 1",
    "hidden": 0,
    "description": "Passed level 1",
    "icon": "https://steamcdn-a.akamaihd.net/steamcommunity/public/images/apps/1245300/ec4847878deb1949c5a9c15ab65d57ba993ca389.jpg",
    "icongray": "https://steamcdn-a.akamaihd.net/steamcommunity/public/images/apps/1245300/7a8230ba6a3054bb4d0a3dd90f442887886973a6.jpg"
  },
  {
    "name": "NEW_ACHIEVEMENT_M2",
    "defaultvalue": 0,
    "displayName": "Madness Mode Mission 2",
    "hidden": 0,
    "description": "Passed level 2",
    "icon": "https://steamcdn-a.akamaihd.net/steamcommunity/public/images/apps/1245300/eeeedbdbdfbcb38b2e97f99a25c8ece072334819.jpg",
    "icongray": "https://steamcdn-a.akamaihd.net/steamcommunity/public/images/apps/1245300/7a8230ba6a3054bb4d0a3dd90f442887886973a6.jpg"
  },
  {
    "name": "NEW_ACHIEVEMENT_M3",
    "defaultvalue": 0,
    "displayName": "Madness Mode Mission 3",
    "hidden": 0,
    "description": "Passed level 3",
    "icon": "https://steamcdn-a.akamaihd.net/steamcommunity/public/images/apps/1245300/9022b67c54b9dfbbcdcbeb052c9e92078ede135f.jpg",
    "icongray": "https://steamcdn-a.akamaihd.net/steamcommunity/public/images/apps/1245300/7a8230ba6a3054bb4d0a3dd90f442887886973a6.jpg"
  },
  {
    "name": "NEW_ACHIEVEMENT_M4",
    "defaultvalue": 0,
    "displayName": "Madness Mode Mission 4",
    "hidden": 0,
    "description": "Passed level 4",
    "icon": "https://steamcdn-a.akamaihd.net/steamcommunity/public/images/apps/1245300/9a5ee2afde021c1ae849d64ae8485a838281c873.jpg",
    "icongray": "https://steamcdn-a.akamaihd.net/steamcommunity/public/images/apps/1245300/7a8230ba6a3054bb4d0a3dd90f442887886973a6.jpg"
  },
  {
    "name": "NEW_ACHIEVEMENT_M5",
    "defaultvalue": 0,
    "displayName": "Madness Mode Mission 5",
    "hidden": 0,
    "description": "Passed level 5",
    "icon": "https://steamcdn-a.akamaihd.net/steamcommunity/public/images/apps/1245300/58bfd6c5752d243827be051fe142f245162de078.jpg",
    "icongray": "https://steamcdn-a.akamaihd.net/steamcommunity/public/images/apps/1245300/7013b61fa38d80152253fe896628bc3de7aa47fd.jpg"
  },
  {
    "name": "NEW_ACHIEVEMENT_M6",
    "defaultvalue": 0,
    "displayName": "Madness Mode Mission 6",
    "hidden": 0,
    "description": "Passed level 6",
    "icon": "https://steamcdn-a.akamaihd.net/steamcommunity/public/images/apps/1245300/01362caeb23119604f5dad961fcdde27dc093de4.jpg",
    "icongray": "https://steamcdn-a.akamaihd.net/steamcommunity/public/images/apps/1245300/7a8230ba6a3054bb4d0a3dd90f442887886973a6.jpg"
  },
  {
    "name": "NEW_ACHIEVEMENT_M7",
    "defaultvalue": 0,
    "displayName": "Madness Mode Mission 7",
    "hidden": 0,
    "description": "Passed level 7",
    "icon": "https://steamcdn-a.akamaihd.net/steamcommunity/public/images/apps/1245300/bdd4a208968e2e1c3e1e017eb2435eafa58b2a4a.jpg",
    "icongray": "https://steamcdn-a.akamaihd.net/steamcommunity/public/images/apps/1245300/7a8230ba6a3054bb4d0a3dd90f442887886973a6.jpg"
  },
  {
    "name": "NEW_ACHIEVEMENT_M8",
    "defaultvalue": 0,
    "displayName": "Madness Mode Mission 8",
    "hidden": 0,
    "description": "Passed level 8",
    "icon": "https://steamcdn-a.akamaihd.net/steamcommunity/public/images/apps/1245300/da9b8b49aad3d2e24a023c7afc198aaffdd47328.jpg",
    "icongray": "https://steamcdn-a.akamaihd.net/steamcommunity/public/images/apps/1245300/7a8230ba6a3054bb4d0a3dd90f442887886973a6.jpg"
  },
  {
    "name": "NEW_ACHIEVEMENT_M9",
    "defaultvalue": 0,
    "displayName": "Madness Mode Mission 9",
    "hidden": 0,
    "description": "Passed level 9",
    "icon": "https://steamcdn-a.akamaihd.net/steamcommunity/public/images/apps/1245300/c6c362bd4fa3d7a38f44e2c0d7e29228c340099c.jpg",
    "icongray": "https://steamcdn-a.akamaihd.net/steamcommunity/public/images/apps/1245300/7a8230ba6a3054bb4d0a3dd90f442887886973a6.jpg"
  },
  {
    "name": "NEW_ACHIEVEMENT_M10",
    "defaultvalue": 0,
    "displayName": "TOTAL MADNESS",
    "hidden": 0,
    "description": "Completed Madness Mode - Finished the game",
    "icon": "https://steamcdn-a.akamaihd.net/steamcommunity/public/images/apps/1245300/88f9d28c35837eed17afeda02e02fd80a1c8cf8d.jpg",
    "icongray": "https://steamcdn-a.akamaihd.net/steamcommunity/public/images/apps/1245300/7a8230ba6a3054bb4d0a3dd90f442887886973a6.jpg"
  },
  {
    "name": "NEW_ACHIEVEMENT_P1",
    "defaultvalue": 0,
    "displayName": "PANDA!",
    "hidden": 0,
    "description": "Found the secret Panda 1",
    "icon": "https://steamcdn-a.akamaihd.net/steamcommunity/public/images/apps/1245300/1cea28f797e94e9a3ad9f158f314a7de50a62170.jpg",
    "icongray": "https://steamcdn-a.akamaihd.net/steamcommunity/public/images/apps/1245300/7a8230ba6a3054bb4d0a3dd90f442887886973a6.jpg"
  },
  {
    "name": "NEW_ACHIEVEMENT_P2",
    "defaultvalue": 0,
    "displayName": "PANDAA!",
    "hidden": 0,
    "description": "Found the secret Panda 2",
    "icon": "https://steamcdn-a.akamaihd.net/steamcommunity/public/images/apps/1245300/1cea28f797e94e9a3ad9f158f314a7de50a62170.jpg",
    "icongray": "https://steamcdn-a.akamaihd.net/steamcommunity/public/images/apps/1245300/7a8230ba6a3054bb4d0a3dd90f442887886973a6.jpg"
  },
  {
    "name": "NEW_ACHIEVEMENT_P3",
    "defaultvalue": 0,
    "displayName": "PANDAAA!",
    "hidden": 0,
    "description": "Found the secret Panda 3",
    "icon": "https://steamcdn-a.akamaihd.net/steamcommunity/public/images/apps/1245300/1cea28f797e94e9a3ad9f158f314a7de50a62170.jpg",
    "icongray": "https://steamcdn-a.akamaihd.net/steamcommunity/public/images/apps/1245300/7013b61fa38d80152253fe896628bc3de7aa47fd.jpg"
  },
  {
    "name": "NEW_ACHIEVEMENT_LVL1",
    "defaultvalue": 0,
    "displayName": "Novice",
    "hidden": 0,
    "description": "Reach level rank 2",
    "icon": "https://steamcdn-a.akamaihd.net/steamcommunity/public/images/apps/1245300/969b220f6752eaa3895369f30cce24810d82addc.jpg",
    "icongray": "https://steamcdn-a.akamaihd.net/steamcommunity/public/images/apps/1245300/7a8230ba6a3054bb4d0a3dd90f442887886973a6.jpg"
  },
  {
    "name": "NEW_ACHIEVEMENT_LVL2",
    "defaultvalue": 0,
    "displayName": "Corporal",
    "hidden": 0,
    "description": "Reach level rank 5",
    "icon": "https://steamcdn-a.akamaihd.net/steamcommunity/public/images/apps/1245300/cf21324e25939f97699811f616d8026e7f190f04.jpg",
    "icongray": "https://steamcdn-a.akamaihd.net/steamcommunity/public/images/apps/1245300/7a8230ba6a3054bb4d0a3dd90f442887886973a6.jpg"
  },
  {
    "name": "NEW_ACHIEVEMENT_LVL3",
    "defaultvalue": 0,
    "displayName": "Sergeant",
    "hidden": 0,
    "description": "Reach level rank 10",
    "icon": "https://steamcdn-a.akamaihd.net/steamcommunity/public/images/apps/1245300/4ebccee8267706b7bc52e6cafc2d287a2ccee848.jpg",
    "icongray": "https://steamcdn-a.akamaihd.net/steamcommunity/public/images/apps/1245300/7a8230ba6a3054bb4d0a3dd90f442887886973a6.jpg"
  },
  {
    "name": "NEW_ACHIEVEMENT_LVL4",
    "defaultvalue": 0,
    "displayName": "Master Sergeant",
    "hidden": 0,
    "description": "Reach level rank 20",
    "icon": "https://steamcdn-a.akamaihd.net/steamcommunity/public/images/apps/1245300/060a37e8980c48bafed134615361ca890cdbc08e.jpg",
    "icongray": "https://steamcdn-a.akamaihd.net/steamcommunity/public/images/apps/1245300/7a8230ba6a3054bb4d0a3dd90f442887886973a6.jpg"
  },
  {
    "name": "NEW_ACHIEVEMENT_LVL5",
    "defaultvalue": 0,
    "displayName": "Sergeant Major",
    "hidden": 0,
    "description": "Reach level rank 30",
    "icon": "https://steamcdn-a.akamaihd.net/steamcommunity/public/images/apps/1245300/600e29f84ff4baaf3f9404e419dd79ea86bcb401.jpg",
    "icongray": "https://steamcdn-a.akamaihd.net/steamcommunity/public/images/apps/1245300/7a8230ba6a3054bb4d0a3dd90f442887886973a6.jpg"
  },
  {
    "name": "NEW_ACHIEVEMENT_COMBO",
    "defaultvalue": 0,
    "displayName": "COMBO KILLER",
    "hidden": 0,
    "description": "Get a huge combo kill!",
    "icon": "https://steamcdn-a.akamaihd.net/steamcommunity/public/images/apps/1245300/4223f0bc31b5380077812810c3a8e4adcb268bdb.jpg",
    "icongray": "https://steamcdn-a.akamaihd.net/steamcommunity/public/images/apps/1245300/7a8230ba6a3054bb4d0a3dd90f442887886973a6.jpg"
  },
  {
    "name": "NEW_ACHIEVEMENT_SCORE1",
    "defaultvalue": 0,
    "displayName": "OVER 9000",
    "hidden": 0,
    "description": "Get a highscore of 9000+",
    "icon": "https://steamcdn-a.akamaihd.net/steamcommunity/public/images/apps/1245300/6de77a949756f3d9f8ee4b1bf1efbe436809f7b5.jpg",
    "icongray": "https://steamcdn-a.akamaihd.net/steamcommunity/public/images/apps/1245300/7a8230ba6a3054bb4d0a3dd90f442887886973a6.jpg"
  }
]