{
  "Dlcs": {},
  "Name": "Justice League VR: The Complete Experience",
  "AppId": "752750",
  "ImageUrl": "https://steamcdn-a.akamaihd.net/steam/apps/752750/header.jpg?t=1586388208",
  "Languages": [
    "english",
    "spanish",
    "japanese",
    "korean",
    "portuguese",
    "russian",
    "schinese"
  ],
  "Platforms": {
    "windows": true,
    "mac": false,
    "linux": false
  }
}