{
  "Dlcs": {
    "505470": {
      "Name": "Tower Island Soundtrack",
      "ImageUrl": "https://steamcdn-a.akamaihd.net/steam/apps/505470/header.jpg?t=1469582469"
    }
  },
  "Name": "Tower Island: Explore, Discover and Disassemble",
  "AppId": "487740",
  "ImageUrl": "https://steamcdn-a.akamaihd.net/steam/apps/487740/header.jpg?t=1508510462",
  "Languages": [
    "english"
  ],
  "Platforms": {
    "windows": true,
    "mac": false,
    "linux": false
  }
}