﻿{
  "Dlcs": {},
  "Name": "Echoes of Nocturnal Chords 夜弦之音",
  "AppId": "1264350",
  "ImageUrl": "https://steamcdn-a.akamaihd.net/steam/apps/1264350/header.jpg?t=1586580890",
  "Languages": [
    "schinese"
  ],
  "Platforms": {
    "windows": true,
    "mac": false,
    "linux": false
  }
}