{
  "Dlcs": {
    "328230": {
      "Name": "A Bird Story - Original Soundtrack",
      "ImageUrl": "https://steamcdn-a.akamaihd.net/steam/apps/328230/header.jpg?t=1478137845"
    }
  },
  "Name": "A Bird Story",
  "AppId": "327410",
  "ImageUrl": "https://steamcdn-a.akamaihd.net/steam/apps/327410/header.jpg?t=1574090580",
  "Languages": [
    "english",
    "french",
    "italian",
    "german",
    "spanish",
    "korean",
    "polish",
    "portuguese",
    "schinese",
    "japanese",
    "russian"
  ],
  "Platforms": {
    "windows": true,
    "mac": true,
    "linux": true
  }
}