{
  "Dlcs": {},
  "Name": "Fury Fighter VR",
  "AppId": "848150",
  "ImageUrl": "https://steamcdn-a.akamaihd.net/steam/apps/848150/header.jpg?t=1527278988",
  "Languages": [
    "english"
  ],
  "Platforms": {
    "windows": true,
    "mac": false,
    "linux": false
  }
}