{
  "Dlcs": {},
  "Name": "Russian Roads",
  "AppId": "610660",
  "ImageUrl": "https://steamcdn-a.akamaihd.net/steam/apps/610660/header.jpg?t=1594364643",
  "Languages": [
    "english"
  ],
  "Platforms": {
    "windows": true,
    "mac": false,
    "linux": false
  }
}