{
  "Dlcs": {},
  "Name": "Klym",
  "AppId": "1207400",
  "ImageUrl": "https://steamcdn-a.akamaihd.net/steam/apps/1207400/header.jpg?t=1579558261",
  "Languages": [
    "english"
  ],
  "Platforms": {
    "windows": true,
    "mac": true,
    "linux": false
  }
}