{
  "Dlcs": {
    "800090": {
      "Name": "Scrapper - Reinforced Ship Set",
      "ImageUrl": "https://steamcdn-a.akamaihd.net/steam/apps/800090/header.jpg?t=1526341478"
    },
    "832410": {
      "Name": "Scrapper - Military Ship Set",
      "ImageUrl": "https://steamcdn-a.akamaihd.net/steam/apps/832410/header.jpg?t=1526341438"
    },
    "832411": {
      "Name": "Scrapper - Alien Ship Set",
      "ImageUrl": "https://steamcdn-a.akamaihd.net/steam/apps/832411/header.jpg?t=1526341340"
    },
    "832412": {
      "Name": "Scrapper - Alien Sector Stage",
      "ImageUrl": "https://steamcdn-a.akamaihd.net/steam/apps/832412/header.jpg?t=1526341399"
    }
  },
  "Name": "Scrapper",
  "AppId": "620330",
  "ImageUrl": "https://steamcdn-a.akamaihd.net/steam/apps/620330/header.jpg?t=1572582623",
  "Languages": [
    "english"
  ],
  "Platforms": {
    "windows": true,
    "mac": false,
    "linux": false
  }
}