{
  "Dlcs": {},
  "Name": "Combat Helicopter- Surgical Strike",
  "AppId": "1063280",
  "ImageUrl": "https://steamcdn-a.akamaihd.net/steam/apps/1063280/header.jpg?t=1597210150",
  "Languages": [
    "english"
  ],
  "Platforms": {
    "windows": true,
    "mac": false,
    "linux": false
  }
}