{
  "Dlcs": {},
  "Name": "神国：创造",
  "AppId": "1185600",
  "ImageUrl": "https://steamcdn-a.akamaihd.net/steam/apps/1185600/header.jpg?t=1596191074",
  "Languages": [
    "schinese"
  ],
  "Platforms": {
    "windows": true,
    "mac": true,
    "linux": false
  }
}