[
  {
    "name": "TotalRuns",
    "defaultvalue": 0,
    "displayName": "Total Runs"
  },
  {
    "name": "TokenGained",
    "defaultvalue": 0,
    "displayName": "Token Gained"
  },
  {
    "name": "InfestedKilled",
    "defaultvalue": 0,
    "displayName": "Infested Killed"
  },
  {
    "name": "WickedKilled",
    "defaultvalue": 0,
    "displayName": "Wicked Killed"
  }
]