[
  {
    "name": "Ogre Slayer",
    "defaultvalue": 0,
    "displayName": "Ogre Slayer",
    "hidden": 0,
    "description": "Kill your first ogre",
    "icon": "https://steamcdn-a.akamaihd.net/steamcommunity/public/images/apps/577890/",
    "icongray": "https://steamcdn-a.akamaihd.net/steamcommunity/public/images/apps/577890/"
  },
  {
    "name": "Master of the Arena",
    "defaultvalue": 0,
    "displayName": "Master of the Arena",
    "hidden": 0,
    "description": "complete all 30 waves",
    "icon": "https://steamcdn-a.akamaihd.net/steamcommunity/public/images/apps/577890/",
    "icongray": "https://steamcdn-a.akamaihd.net/steamcommunity/public/images/apps/577890/"
  },
  {
    "name": "Champion of the Arena",
    "defaultvalue": 0,
    "displayName": "Champion of the Arena",
    "hidden": 0,
    "description": "complete 15 waves",
    "icon": "https://steamcdn-a.akamaihd.net/steamcommunity/public/images/apps/577890/",
    "icongray": "https://steamcdn-a.akamaihd.net/steamcommunity/public/images/apps/577890/"
  },
  {
    "name": "Rat Slayer",
    "defaultvalue": 0,
    "displayName": "Rat Slayer",
    "hidden": 0,
    "description": "kill 100 rats",
    "icon": "https://steamcdn-a.akamaihd.net/steamcommunity/public/images/apps/577890/",
    "icongray": "https://steamcdn-a.akamaihd.net/steamcommunity/public/images/apps/577890/"
  },
  {
    "name": "test_test",
    "defaultvalue": 0,
    "displayName": "test_test",
    "hidden": 0,
    "description": "test_test",
    "icon": "https://steamcdn-a.akamaihd.net/steamcommunity/public/images/apps/577890/",
    "icongray": "https://steamcdn-a.akamaihd.net/steamcommunity/public/images/apps/577890/"
  }
]