﻿[
  {
    "name": "ACHIEVEMENT_GETTING_THE_HANG_OF_IT",
    "defaultvalue": 0,
    "displayName": "Getting the Hang of It",
    "hidden": 0,
    "description": "Complete the last level of the Tree of Introduction",
    "icon": "https://steamcdn-a.akamaihd.net/steamcommunity/public/images/apps/61600/374308c9a27136558274b5d82a661d5af389abd4.jpg",
    "icongray": "https://steamcdn-a.akamaihd.net/steamcommunity/public/images/apps/61600/b7d4a28da1d4758f6fa517d16e69f0a3883a6a69.jpg"
  },
  {
    "name": "ACHIEVEMENT_FLOWER_GARDEN",
    "defaultvalue": 0,
    "displayName": "Flower Garden",
    "hidden": 0,
    "description": "Collect 200 flowers",
    "icon": "https://steamcdn-a.akamaihd.net/steamcommunity/public/images/apps/61600/1327e661299d890c5ad2e6f8cabc2fcc5f2e3a7f.jpg",
    "icongray": "https://steamcdn-a.akamaihd.net/steamcommunity/public/images/apps/61600/82e9301ac39d6c4d7b280f4d233a434344cf3b0c.jpg"
  },
  {
    "name": "ACHIEVEMENT_UNWINDER",
    "defaultvalue": 0,
    "displayName": "Unwinder",
    "hidden": 0,
    "description": "Wrap an object to 100% and then unwind back to 0%",
    "icon": "https://steamcdn-a.akamaihd.net/steamcommunity/public/images/apps/61600/f93cbd9466149a3e61c70f01e99eaa16f3c636f6.jpg",
    "icongray": "https://steamcdn-a.akamaihd.net/steamcommunity/public/images/apps/61600/7340ecf17a00a1ac59f3781cadba9ff5a262e6dd.jpg"
  },
  {
    "name": "ACHIEVEMENT_PACIFIST",
    "defaultvalue": 0,
    "displayName": "Pacifist",
    "hidden": 0,
    "description": "Use all rope but no paint must touch the object",
    "icon": "https://steamcdn-a.akamaihd.net/steamcommunity/public/images/apps/61600/809c0db837b3d97772ccb1c6b51fa3955ce03f01.jpg",
    "icongray": "https://steamcdn-a.akamaihd.net/steamcommunity/public/images/apps/61600/6696a3d2f70af56ded421176da884fa28467dc61.jpg"
  },
  {
    "name": "ACHIEVEMENT_BLACKOUT_FINISH",
    "defaultvalue": 0,
    "displayName": "Gordian",
    "hidden": 0,
    "description": "Blindly refuse defeat",
    "icon": "https://steamcdn-a.akamaihd.net/steamcommunity/public/images/apps/61600/f136b1e3843b2dc6ee2fe3d8394a94ed2fc59de0.jpg",
    "icongray": "https://steamcdn-a.akamaihd.net/steamcommunity/public/images/apps/61600/0f1e55d40d5c3d159ec34c5da157694bbcdd243c.jpg"
  },
  {
    "name": "ACHIEVEMENT_TIED_TO_THE_GROUND",
    "defaultvalue": 0,
    "displayName": "Tied to the Ground",
    "hidden": 0,
    "description": "Tie down every flying thing",
    "icon": "https://steamcdn-a.akamaihd.net/steamcommunity/public/images/apps/61600/eb423e75ff14dfe142ec51117050606d30261af1.jpg",
    "icongray": "https://steamcdn-a.akamaihd.net/steamcommunity/public/images/apps/61600/ca5f1763fd32fb4e2d954a759fd81d3fa09b9751.jpg"
  },
  {
    "name": "ACHIEVEMENT_TEN_BUTTERFLIES",
    "defaultvalue": 0,
    "displayName": "Butterfly Collector",
    "hidden": 0,
    "description": "Complete 10 Trees",
    "icon": "https://steamcdn-a.akamaihd.net/steamcommunity/public/images/apps/61600/ba5203be1738e03eb5affbc68650b23c5757f7aa.jpg",
    "icongray": "https://steamcdn-a.akamaihd.net/steamcommunity/public/images/apps/61600/79680b3579094a75f2b478d6a0cb70a1e81568a2.jpg"
  },
  {
    "name": "ACHIEVEMENT_ANTI_SPIKE",
    "defaultvalue": 0,
    "displayName": "Anti Spike",
    "hidden": 0,
    "description": "Blow up all nail bombs on the hedgehog",
    "icon": "https://steamcdn-a.akamaihd.net/steamcommunity/public/images/apps/61600/f55c0537c042f92e4c9b44a53db992a712b99009.jpg",
    "icongray": "https://steamcdn-a.akamaihd.net/steamcommunity/public/images/apps/61600/923b3af394fd6a44851836a5375079c54cd22d8f.jpg"
  },
  {
    "name": "ACHIEVEMENT_METICULOUS_DETONATOR",
    "defaultvalue": 0,
    "displayName": "Meticulous Detonator",
    "hidden": 0,
    "description": "Blow up every nail bomb on the Tree of Focus",
    "icon": "https://steamcdn-a.akamaihd.net/steamcommunity/public/images/apps/61600/2aa4c4ec5f98bcf4ce7a3548a6223a29df8177f5.jpg",
    "icongray": "https://steamcdn-a.akamaihd.net/steamcommunity/public/images/apps/61600/c4d7917a360ec74c0d00700fde0d91f103c02285.jpg"
  },
  {
    "name": "ACHIEVEMENT_PERFECTION",
    "defaultvalue": 0,
    "displayName": "Perfection",
    "hidden": 0,
    "description": "Complete all levels at 100%",
    "icon": "https://steamcdn-a.akamaihd.net/steamcommunity/public/images/apps/61600/5908af0207e32adc5b1f7b9cd30501a9cd31683f.jpg",
    "icongray": "https://steamcdn-a.akamaihd.net/steamcommunity/public/images/apps/61600/9d77fae78ae884ca6bc4b7b8b4331e50cb450cb7.jpg"
  },
  {
    "name": "ACHIEVEMENT_NIRVANA",
    "defaultvalue": 0,
    "displayName": "Nirvana",
    "hidden": 0,
    "description": "Learn to let go after attaining Perfection",
    "icon": "https://steamcdn-a.akamaihd.net/steamcommunity/public/images/apps/61600/38d24d49d502f2cd174cecdbad02785492306826.jpg",
    "icongray": "https://steamcdn-a.akamaihd.net/steamcommunity/public/images/apps/61600/0e217ed301e776f39f095428a68216e5f2085610.jpg"
  }
]