{
  "Dlcs": {},
  "Name": "CONTINUE",
  "AppId": "996920",
  "ImageUrl": "https://steamcdn-a.akamaihd.net/steam/apps/996920/header.jpg?t=1561359405",
  "Languages": [
    "english"
  ],
  "Platforms": {
    "windows": true,
    "mac": false,
    "linux": false
  }
}