﻿{
  "Dlcs": {},
  "Name": "Z1 Battle Royale",
  "AppId": "433850",
  "ImageUrl": "https://steamcdn-a.akamaihd.net/steam/apps/433850/header.jpg?t=1579626820",
  "Languages": [
    "english",
    "french",
    "german",
    "spanish",
    "korean",
    "portuguese",
    "russian",
    "schinese"
  ],
  "Platforms": {
    "windows": true,
    "mac": false,
    "linux": false
  }
}