[
  {
    "name": "GAME_START",
    "defaultvalue": 0,
    "displayName": "Welcome",
    "hidden": 0,
    "description": "",
    "icon": "https://steamcdn-a.akamaihd.net/steamcommunity/public/images/apps/968350/fbb57d24aa12dfa25b3e1874d3e589110260fb34.jpg",
    "icongray": "https://steamcdn-a.akamaihd.net/steamcommunity/public/images/apps/968350/43ca667e289a528fb3492b70dc96b6a442ba9cf9.jpg"
  },
  {
    "name": "ANNOYING_GUEST",
    "defaultvalue": 0,
    "displayName": "Annoying Guest",
    "hidden": 0,
    "description": "",
    "icon": "https://steamcdn-a.akamaihd.net/steamcommunity/public/images/apps/968350/a5625ed48d3607317cd8b0d7ae39a263b979b0b9.jpg",
    "icongray": "https://steamcdn-a.akamaihd.net/steamcommunity/public/images/apps/968350/5c453cd680889b39c7b8bc23cc18c2d25369cd93.jpg"
  },
  {
    "name": "LITTLE_AND_OFTEN_FILLS_THE_PURSE",
    "defaultvalue": 0,
    "displayName": "Little and Often Fills the Purse",
    "hidden": 0,
    "description": "",
    "icon": "https://steamcdn-a.akamaihd.net/steamcommunity/public/images/apps/968350/b65744576c1346ddf9aae4c206c525752eea0614.jpg",
    "icongray": "https://steamcdn-a.akamaihd.net/steamcommunity/public/images/apps/968350/b5cfc68a989e32a25d61f0c8449da1bdfe45baa7.jpg"
  },
  {
    "name": "THE_RICH",
    "defaultvalue": 0,
    "displayName": "The Rich",
    "hidden": 0,
    "description": "",
    "icon": "https://steamcdn-a.akamaihd.net/steamcommunity/public/images/apps/968350/b166bb96ea316cc3c52ec4791c4f365250c1cddd.jpg",
    "icongray": "https://steamcdn-a.akamaihd.net/steamcommunity/public/images/apps/968350/d9e22e99ab0c6e933fdbcb51dc12a573a65800a5.jpg"
  },
  {
    "name": "ROLLERCOASTER_TYCOON",
    "defaultvalue": 0,
    "displayName": "Rollercoaster Tycoon",
    "hidden": 0,
    "description": "",
    "icon": "https://steamcdn-a.akamaihd.net/steamcommunity/public/images/apps/968350/424ed0a6595657735fdfc127950e45d6104b064e.jpg",
    "icongray": "https://steamcdn-a.akamaihd.net/steamcommunity/public/images/apps/968350/8e6117d3b6ed73dc86ff7bd5ff108c76198228a4.jpg"
  },
  {
    "name": "FREE_STAY",
    "defaultvalue": 0,
    "displayName": "Free Stay",
    "hidden": 0,
    "description": "",
    "icon": "https://steamcdn-a.akamaihd.net/steamcommunity/public/images/apps/968350/6d79945831990afd311c8a43add57ba7f4cd0ddb.jpg",
    "icongray": "https://steamcdn-a.akamaihd.net/steamcommunity/public/images/apps/968350/d05232fde94726818915e717ec135ad3f75e2480.jpg"
  },
  {
    "name": "GOD_OF_DART",
    "defaultvalue": 0,
    "displayName": "God of Dart",
    "hidden": 0,
    "description": "",
    "icon": "https://steamcdn-a.akamaihd.net/steamcommunity/public/images/apps/968350/19f9d6fa526de2656e4fe523c98ecc0060de8b59.jpg",
    "icongray": "https://steamcdn-a.akamaihd.net/steamcommunity/public/images/apps/968350/e369abed6f3e1249df2eccaad93704d61434cecf.jpg"
  },
  {
    "name": "ONE_DAY_FARMER",
    "defaultvalue": 0,
    "displayName": "One Day Farmer",
    "hidden": 0,
    "description": "",
    "icon": "https://steamcdn-a.akamaihd.net/steamcommunity/public/images/apps/968350/de77e686e1dff3509c5bb3046e919492386a84f2.jpg",
    "icongray": "https://steamcdn-a.akamaihd.net/steamcommunity/public/images/apps/968350/eb0d910e4d913f11aac14057375402b8197d91a0.jpg"
  },
  {
    "name": "A_NOVICE_COOK",
    "defaultvalue": 0,
    "displayName": "A Novice Cook",
    "hidden": 0,
    "description": "",
    "icon": "https://steamcdn-a.akamaihd.net/steamcommunity/public/images/apps/968350/90627a99fecbe8dbe8b819fcbdcc57d1aeab9f39.jpg",
    "icongray": "https://steamcdn-a.akamaihd.net/steamcommunity/public/images/apps/968350/e1f8b07515b89cc77be6bdb9e6644c3c5dea5c67.jpg"
  },
  {
    "name": "AN_EXPERT_COOK",
    "defaultvalue": 0,
    "displayName": "An Expert Cook",
    "hidden": 0,
    "description": "",
    "icon": "https://steamcdn-a.akamaihd.net/steamcommunity/public/images/apps/968350/3d727e5cb3b107e1d1b08e8f2afb9615208f5036.jpg",
    "icongray": "https://steamcdn-a.akamaihd.net/steamcommunity/public/images/apps/968350/49d9ccee8917021b8234f3bc465d91ed7b6297a4.jpg"
  },
  {
    "name": "LUCKY_DAY",
    "defaultvalue": 0,
    "displayName": "Lucky Day",
    "hidden": 0,
    "description": "",
    "icon": "https://steamcdn-a.akamaihd.net/steamcommunity/public/images/apps/968350/bf58d0970d466fb6e4fbeef15a4e9f4596d09af6.jpg",
    "icongray": "https://steamcdn-a.akamaihd.net/steamcommunity/public/images/apps/968350/7460992d06d7bc5924212a637dc68cd4fa36f966.jpg"
  },
  {
    "name": "PRANK_CALL",
    "defaultvalue": 0,
    "displayName": "Prank Call",
    "hidden": 0,
    "description": "",
    "icon": "https://steamcdn-a.akamaihd.net/steamcommunity/public/images/apps/968350/b1620e712ea70555849d7f9c96a83b474a634779.jpg",
    "icongray": "https://steamcdn-a.akamaihd.net/steamcommunity/public/images/apps/968350/76e2ee0c4d1e0e6da8037bddda981e54233ba443.jpg"
  },
  {
    "name": "CHEMICAL_ACCIDENT",
    "defaultvalue": 0,
    "displayName": "Chemical Accident",
    "hidden": 0,
    "description": "",
    "icon": "https://steamcdn-a.akamaihd.net/steamcommunity/public/images/apps/968350/d296e45ffdb77abc6ed980dde7f86ad541fd9114.jpg",
    "icongray": "https://steamcdn-a.akamaihd.net/steamcommunity/public/images/apps/968350/c13dbd82e16d97d02c55cd2e2e67c94ec34ebbfc.jpg"
  },
  {
    "name": "QUIZ_CRASHER",
    "defaultvalue": 0,
    "displayName": "Quiz Crasher",
    "hidden": 0,
    "description": "",
    "icon": "https://steamcdn-a.akamaihd.net/steamcommunity/public/images/apps/968350/e5ba3842da81f5b81440f93f81d60fe3bcbeb3bd.jpg",
    "icongray": "https://steamcdn-a.akamaihd.net/steamcommunity/public/images/apps/968350/0dd0abec8ec898e716517977dc2b6f07cd97c40c.jpg"
  },
  {
    "name": "A_SKEPTIC",
    "defaultvalue": 0,
    "displayName": "A Skeptic",
    "hidden": 0,
    "description": "",
    "icon": "https://steamcdn-a.akamaihd.net/steamcommunity/public/images/apps/968350/a8b6e9fff431b675c47b8464d0151842f20cdb4b.jpg",
    "icongray": "https://steamcdn-a.akamaihd.net/steamcommunity/public/images/apps/968350/d21533948f04301e9c72a66b8eec93d33a705da6.jpg"
  },
  {
    "name": "SECOND_ROLLERCOASTER_TYCOON",
    "defaultvalue": 0,
    "displayName": "Rollercoaster Tycoon 2",
    "hidden": 0,
    "description": "",
    "icon": "https://steamcdn-a.akamaihd.net/steamcommunity/public/images/apps/968350/ac4052f8f0271b53b15e5767fd75a55061d9ecb2.jpg",
    "icongray": "https://steamcdn-a.akamaihd.net/steamcommunity/public/images/apps/968350/2c30d41b7cb8c585e08bebf4438bd9ef3499cd7a.jpg"
  },
  {
    "name": "RELAXED",
    "defaultvalue": 0,
    "displayName": "Relaxed",
    "hidden": 0,
    "description": "",
    "icon": "https://steamcdn-a.akamaihd.net/steamcommunity/public/images/apps/968350/ad6c273ea84ec9668f18a08af17dc3c26cab723e.jpg",
    "icongray": "https://steamcdn-a.akamaihd.net/steamcommunity/public/images/apps/968350/c4b3878567192574db391bfb061c67bbcce1f420.jpg"
  },
  {
    "name": "TALKATIVE",
    "defaultvalue": 0,
    "displayName": "Talkative",
    "hidden": 0,
    "description": "",
    "icon": "https://steamcdn-a.akamaihd.net/steamcommunity/public/images/apps/968350/b4146fe0f4a7c8da89228b9bc91c72464adde886.jpg",
    "icongray": "https://steamcdn-a.akamaihd.net/steamcommunity/public/images/apps/968350/483c863a8a8ceda98d1d33c8a95a8406416c0f23.jpg"
  },
  {
    "name": "HALF-FISH",
    "defaultvalue": 0,
    "displayName": "Half-fish",
    "hidden": 0,
    "description": "",
    "icon": "https://steamcdn-a.akamaihd.net/steamcommunity/public/images/apps/968350/abe54f474ec6afd6546af97053564dee6e18c645.jpg",
    "icongray": "https://steamcdn-a.akamaihd.net/steamcommunity/public/images/apps/968350/e3f57c271360a23b203dbbecc2dad100aecc2936.jpg"
  },
  {
    "name": "FURY_OF_AN_EGG",
    "defaultvalue": 0,
    "displayName": "Fury of an Egg",
    "hidden": 0,
    "description": "",
    "icon": "https://steamcdn-a.akamaihd.net/steamcommunity/public/images/apps/968350/8f927b4f311603fd494878e196f88dfb44255317.jpg",
    "icongray": "https://steamcdn-a.akamaihd.net/steamcommunity/public/images/apps/968350/114e0ab1a0bd854cb80b8ae11bcb2f2d7e0558b2.jpg"
  },
  {
    "name": "WASTING",
    "defaultvalue": 0,
    "displayName": "Wasting",
    "hidden": 0,
    "description": "",
    "icon": "https://steamcdn-a.akamaihd.net/steamcommunity/public/images/apps/968350/9f476fc7a047756ced87a712c5682b35ad5c14a3.jpg",
    "icongray": "https://steamcdn-a.akamaihd.net/steamcommunity/public/images/apps/968350/90e95282239c705aa7a8a30f64bdb1a4742863a7.jpg"
  },
  {
    "name": "NASTY_CUSTOMER",
    "defaultvalue": 0,
    "displayName": "Nasty Customer",
    "hidden": 0,
    "description": "",
    "icon": "https://steamcdn-a.akamaihd.net/steamcommunity/public/images/apps/968350/4f3844c082d5766871ca4609bdcaac5b07d36075.jpg",
    "icongray": "https://steamcdn-a.akamaihd.net/steamcommunity/public/images/apps/968350/f78886e5b637d3fc216f7fb5dfce4bd230208dbe.jpg"
  },
  {
    "name": "HALLOWEEN",
    "defaultvalue": 0,
    "displayName": "Halloween",
    "hidden": 0,
    "description": "",
    "icon": "https://steamcdn-a.akamaihd.net/steamcommunity/public/images/apps/968350/0c81ab53e97186009c76efd5404c02890ef61a3f.jpg",
    "icongray": "https://steamcdn-a.akamaihd.net/steamcommunity/public/images/apps/968350/6ce5cea357828b3ea3ca3329253b9ac36b4adb40.jpg"
  },
  {
    "name": "SLAUGHTERER",
    "defaultvalue": 0,
    "displayName": "Slaughterer",
    "hidden": 0,
    "description": "",
    "icon": "https://steamcdn-a.akamaihd.net/steamcommunity/public/images/apps/968350/4d416012316943ad48fb4f515e8d1c971d43eab0.jpg",
    "icongray": "https://steamcdn-a.akamaihd.net/steamcommunity/public/images/apps/968350/bc74dbc9062e95cbb29292c51c2ee70423f7524a.jpg"
  },
  {
    "name": "WARMHEARTED",
    "defaultvalue": 0,
    "displayName": "Warmhearted",
    "hidden": 0,
    "description": "",
    "icon": "https://steamcdn-a.akamaihd.net/steamcommunity/public/images/apps/968350/d55421ff828af2ac04b997784bfbe7f577c5fe4b.jpg",
    "icongray": "https://steamcdn-a.akamaihd.net/steamcommunity/public/images/apps/968350/9e74c9d0cf2fa840dc196bd3ae273e3b3ea180f3.jpg"
  },
  {
    "name": "ARCHIVING",
    "defaultvalue": 0,
    "displayName": "Archiving",
    "hidden": 0,
    "description": "",
    "icon": "https://steamcdn-a.akamaihd.net/steamcommunity/public/images/apps/968350/8f873c118ddefb9fec1212d855ec42e350705878.jpg",
    "icongray": "https://steamcdn-a.akamaihd.net/steamcommunity/public/images/apps/968350/b7b4b6c13b18f1bc851eb0ab7a3a5c0b5cd77221.jpg"
  },
  {
    "name": "END_OF_THE_DARKNESS",
    "defaultvalue": 0,
    "displayName": "End of the Darkness",
    "hidden": 0,
    "description": "",
    "icon": "https://steamcdn-a.akamaihd.net/steamcommunity/public/images/apps/968350/dbebdfe66d54e8bd575b07e3264a27f61e4a169b.jpg",
    "icongray": "https://steamcdn-a.akamaihd.net/steamcommunity/public/images/apps/968350/b2d6ea98c922621bf03d409d7740f8d6dc5babb3.jpg"
  },
  {
    "name": "CLICK_ME",
    "defaultvalue": 0,
    "displayName": "Click Me",
    "hidden": 0,
    "description": "",
    "icon": "https://steamcdn-a.akamaihd.net/steamcommunity/public/images/apps/968350/588f7fe5f3ce4110416a28b18bedaead4cc141bb.jpg",
    "icongray": "https://steamcdn-a.akamaihd.net/steamcommunity/public/images/apps/968350/7ac2275637262651c629c933a0c7f4865425e6c1.jpg"
  },
  {
    "name": "FUNGI_LOVE",
    "defaultvalue": 0,
    "displayName": "Fungi Love",
    "hidden": 0,
    "description": "",
    "icon": "https://steamcdn-a.akamaihd.net/steamcommunity/public/images/apps/968350/67738e87020f1a32162aa437abd8cc04e077a1bc.jpg",
    "icongray": "https://steamcdn-a.akamaihd.net/steamcommunity/public/images/apps/968350/b7db25596b84a9e6e5a0c9b36fc988c1a0ce2c7a.jpg"
  },
  {
    "name": "GREEDY",
    "defaultvalue": 0,
    "displayName": "Greedy",
    "hidden": 0,
    "description": "",
    "icon": "https://steamcdn-a.akamaihd.net/steamcommunity/public/images/apps/968350/510ae77370a94e4b75e99056144a7cdc7a79accf.jpg",
    "icongray": "https://steamcdn-a.akamaihd.net/steamcommunity/public/images/apps/968350/4af50135bbad75eb7725c41b1556796dce5ac8f5.jpg"
  },
  {
    "name": "FOOD_POISONING",
    "defaultvalue": 0,
    "displayName": "Food Poisoning",
    "hidden": 0,
    "description": "",
    "icon": "https://steamcdn-a.akamaihd.net/steamcommunity/public/images/apps/968350/e32ff82ee0b6076fd43896ad3bb95a90dbc29ec2.jpg",
    "icongray": "https://steamcdn-a.akamaihd.net/steamcommunity/public/images/apps/968350/ea448e263bc4f82d96d8adb8a81f2bc238397b7b.jpg"
  },
  {
    "name": "A_THIEF",
    "defaultvalue": 0,
    "displayName": "A Thief",
    "hidden": 0,
    "description": "",
    "icon": "https://steamcdn-a.akamaihd.net/steamcommunity/public/images/apps/968350/834e29a16347f7050dd77557b402c1b138c23728.jpg",
    "icongray": "https://steamcdn-a.akamaihd.net/steamcommunity/public/images/apps/968350/cb8aedd2aca73368c71d276fe82af3c85c496375.jpg"
  },
  {
    "name": "MAKE_A_WISH",
    "defaultvalue": 0,
    "displayName": "Make A Wish",
    "hidden": 0,
    "description": "",
    "icon": "https://steamcdn-a.akamaihd.net/steamcommunity/public/images/apps/968350/2ee6979962fac9c36efdbf4a2c7a074535ffd08a.jpg",
    "icongray": "https://steamcdn-a.akamaihd.net/steamcommunity/public/images/apps/968350/5798529f26133651f0eb0795fde3e33b0f4bf07c.jpg"
  },
  {
    "name": "COOL_TOMATO",
    "defaultvalue": 0,
    "displayName": "Cool Tomato",
    "hidden": 0,
    "description": "",
    "icon": "https://steamcdn-a.akamaihd.net/steamcommunity/public/images/apps/968350/526ac7ded828e2280eafbd4f9137a89d00d9d629.jpg",
    "icongray": "https://steamcdn-a.akamaihd.net/steamcommunity/public/images/apps/968350/08ce0ffc9d685184f1864d13859a86b79bcedc7e.jpg"
  },
  {
    "name": "DINE_AND_DASH",
    "defaultvalue": 0,
    "displayName": "Dine and Dash",
    "hidden": 0,
    "description": "",
    "icon": "https://steamcdn-a.akamaihd.net/steamcommunity/public/images/apps/968350/ffefa24288799461e0355f2b52c89115c1b701c0.jpg",
    "icongray": "https://steamcdn-a.akamaihd.net/steamcommunity/public/images/apps/968350/7bab823806623b1606fa680e6f8699f9bd9668b1.jpg"
  },
  {
    "name": "A_FASHION_LEADER",
    "defaultvalue": 0,
    "displayName": "A Fashion Leader",
    "hidden": 0,
    "description": "",
    "icon": "https://steamcdn-a.akamaihd.net/steamcommunity/public/images/apps/968350/8b403468a8413e57aca3a0108a98fde8e1a2970d.jpg",
    "icongray": "https://steamcdn-a.akamaihd.net/steamcommunity/public/images/apps/968350/20ea4d63703d7694be03f21f1aef1bf396aec805.jpg"
  },
  {
    "name": "A_GOURMET",
    "defaultvalue": 0,
    "displayName": "A Gourmet",
    "hidden": 0,
    "description": "",
    "icon": "https://steamcdn-a.akamaihd.net/steamcommunity/public/images/apps/968350/97be2bf668e2ea1df2801350b1bfc3bb6e668da4.jpg",
    "icongray": "https://steamcdn-a.akamaihd.net/steamcommunity/public/images/apps/968350/2c0ae0c42271990b184f18a4eb15eecb353a01c4.jpg"
  },
  {
    "name": "NEW_BODY",
    "defaultvalue": 0,
    "displayName": "New Body",
    "hidden": 0,
    "description": "",
    "icon": "https://steamcdn-a.akamaihd.net/steamcommunity/public/images/apps/968350/72fba194177dc9885729691979e8529f3d696cd7.jpg",
    "icongray": "https://steamcdn-a.akamaihd.net/steamcommunity/public/images/apps/968350/e012bb829d73c160a5938303256acc0a1a2032df.jpg"
  },
  {
    "name": "THE_SALMON_OF_THE_OPERA",
    "defaultvalue": 0,
    "displayName": "The Salmon of the Opera",
    "hidden": 0,
    "description": "",
    "icon": "https://steamcdn-a.akamaihd.net/steamcommunity/public/images/apps/968350/d489719fa0715c7fa2716e42d8a16f47dd23b3af.jpg",
    "icongray": "https://steamcdn-a.akamaihd.net/steamcommunity/public/images/apps/968350/d04e71f16351963df6a889bb9f635be9eed5ddce.jpg"
  }
]