{
  "Dlcs": {},
  "Name": "Strings",
  "AppId": "1213810",
  "ImageUrl": "https://steamcdn-a.akamaihd.net/steam/apps/1213810/header.jpg?t=1585072039",
  "Languages": [
    "english"
  ],
  "Platforms": {
    "windows": true,
    "mac": false,
    "linux": false
  }
}