[
  {
    "name": "MATCH_WINS",
    "defaultvalue": 0,
    "displayName": "Total Single-Player Matches Won"
  },
  {
    "name": "MATCH_TIMES",
    "defaultvalue": 0,
    "displayName": "Total Time Spent in Matches"
  },
  {
    "name": "DOUGS",
    "defaultvalue": 0,
    "displayName": "Dougs Found"
  },
  {
    "name": "GEORGE",
    "defaultvalue": 0,
    "displayName": "George Wins"
  },
  {
    "name": "ALICE",
    "defaultvalue": 0,
    "displayName": "Alice/Ana Wins"
  },
  {
    "name": "MILO",
    "defaultvalue": 0,
    "displayName": "Milo Wins"
  },
  {
    "name": "DEVIN",
    "defaultvalue": 0,
    "displayName": "Devin Wins"
  },
  {
    "name": "MJ",
    "defaultvalue": 0,
    "displayName": "M.J. Wins"
  },
  {
    "name": "ANDREW",
    "defaultvalue": 0,
    "displayName": "Andrew Wins"
  },
  {
    "name": "JOAN",
    "defaultvalue": 0,
    "displayName": "Joan Wins"
  },
  {
    "name": "MODE",
    "defaultvalue": 0,
    "displayName": "MODE Wins"
  },
  {
    "name": "LARS",
    "defaultvalue": 0,
    "displayName": "Lars Wins"
  },
  {
    "name": "LAILA",
    "defaultvalue": 0,
    "displayName": "Laila Wins"
  },
  {
    "name": "OTHERWIN",
    "defaultvalue": 0,
    "displayName": "Other Wins"
  },
  {
    "name": "GAMESCORE",
    "defaultvalue": 100,
    "displayName": "Alchemy Level"
  }
]