[
  {
    "name": "Feel So Sick!",
    "defaultvalue": 0,
    "displayName": "Welcome! All the Students!",
    "hidden": 0,
    "description": "Fear is tasty?",
    "icon": "https://steamcdn-a.akamaihd.net/steamcommunity/public/images/apps/865860/324be829626c314a3b88760e9e7bcc5af1b7fe99.jpg",
    "icongray": "https://steamcdn-a.akamaihd.net/steamcommunity/public/images/apps/865860/a3ea7ddb9c8576b3a650f931b8cafb47937e040f.jpg"
  },
  {
    "name": "Graduation!",
    "defaultvalue": 0,
    "displayName": "Tough Time!",
    "hidden": 0,
    "description": "Finally - Away From School.",
    "icon": "https://steamcdn-a.akamaihd.net/steamcommunity/public/images/apps/865860/63ddf44ea8de79a89bbeadd4bacd1800b54998c5.jpg",
    "icongray": "https://steamcdn-a.akamaihd.net/steamcommunity/public/images/apps/865860/38f9aebec0c0d880aa87366fe9409c9c93c05ab0.jpg"
  }
]