[
  {
    "name": "infinity_stage_achi_1",
    "defaultvalue": 0,
    "displayName": "STAGE 1",
    "hidden": 0,
    "description": "Clear a stage 1",
    "icon": "https://steamcdn-a.akamaihd.net/steamcommunity/public/images/apps/1285090/111af8ee831758a7af28b6fc50b5e8b1657541fa.jpg",
    "icongray": "https://steamcdn-a.akamaihd.net/steamcommunity/public/images/apps/1285090/18177f320c2569b82e2e8608a684f8c8e280620d.jpg"
  },
  {
    "name": "infinity_stage_achi_2",
    "defaultvalue": 0,
    "displayName": "STAGE 2",
    "hidden": 0,
    "description": "Clear a stage 2",
    "icon": "https://steamcdn-a.akamaihd.net/steamcommunity/public/images/apps/1285090/173ef552092be372e274dc55fe2133e71e4d3224.jpg",
    "icongray": "https://steamcdn-a.akamaihd.net/steamcommunity/public/images/apps/1285090/47091439fbd79b54fed6acb10edadb40a155bf9a.jpg"
  },
  {
    "name": "infinity_stage_achi_3",
    "defaultvalue": 0,
    "displayName": "STAGE 3",
    "hidden": 0,
    "description": "Clear a stage 3",
    "icon": "https://steamcdn-a.akamaihd.net/steamcommunity/public/images/apps/1285090/682db22bf8ab9500e72a7384ea6dd2b8fd0efeea.jpg",
    "icongray": "https://steamcdn-a.akamaihd.net/steamcommunity/public/images/apps/1285090/57911bde6465e8726ae67e104f61fa7f633033b2.jpg"
  },
  {
    "name": "infinity_stage_achi_4",
    "defaultvalue": 0,
    "displayName": "STAGE 4",
    "hidden": 0,
    "description": "Clear a stage 4",
    "icon": "https://steamcdn-a.akamaihd.net/steamcommunity/public/images/apps/1285090/4960c5785a0f326dbb872a367a69b98502f5aabb.jpg",
    "icongray": "https://steamcdn-a.akamaihd.net/steamcommunity/public/images/apps/1285090/9581d04084a8285f30338b6c24a15a4fb46b51c3.jpg"
  },
  {
    "name": "infinity_stage_achi_5",
    "defaultvalue": 0,
    "displayName": "STAGE 5",
    "hidden": 0,
    "description": "Clear a stage 5",
    "icon": "https://steamcdn-a.akamaihd.net/steamcommunity/public/images/apps/1285090/4627f5db015d520a68630e3dc174290069bc4411.jpg",
    "icongray": "https://steamcdn-a.akamaihd.net/steamcommunity/public/images/apps/1285090/36936df961f7f5a774233b1e092d36ce1884e084.jpg"
  }
]