{
  "Dlcs": {},
  "Name": "B画少说",
  "AppId": "1007870",
  "ImageUrl": "https://steamcdn-a.akamaihd.net/steam/apps/1007870/header.jpg?t=1550216207",
  "Languages": [
    "schinese"
  ],
  "Platforms": {
    "windows": true,
    "mac": false,
    "linux": false
  }
}