{
  "Dlcs": {},
  "Name": "Harambe Kong",
  "AppId": "747640",
  "ImageUrl": "https://steamcdn-a.akamaihd.net/steam/apps/747640/header.jpg?t=1593641580",
  "Languages": [
    "english"
  ],
  "Platforms": {
    "windows": true,
    "mac": true,
    "linux": true
  }
}