[
  {
    "name": "ReachRoom10",
    "defaultvalue": 0,
    "displayName": "Room 10",
    "hidden": 0,
    "description": "Make it to Room 10 without sacrificing any kittens.",
    "icon": "https://steamcdn-a.akamaihd.net/steamcommunity/public/images/apps/340520/71a567696903d1b99c64c16e0951ef362b8e1c12.jpg",
    "icongray": "https://steamcdn-a.akamaihd.net/steamcommunity/public/images/apps/340520/8a9646ec9d16700c5a41873d5aaaa60ba254c209.jpg"
  },
  {
    "name": "ReachRoom20",
    "defaultvalue": 0,
    "displayName": "Room 20",
    "hidden": 0,
    "description": "Make it to Room 20 without sacrificing any kittens.",
    "icon": "https://steamcdn-a.akamaihd.net/steamcommunity/public/images/apps/340520/39376b027b48e025d6c6d87e251bbccc2a11c334.jpg",
    "icongray": "https://steamcdn-a.akamaihd.net/steamcommunity/public/images/apps/340520/5be134d2e9bfbfcab0ca20ac7b7bc7ddb0219c18.jpg"
  },
  {
    "name": "ReachRoom30",
    "defaultvalue": 0,
    "displayName": "Room 30",
    "hidden": 0,
    "description": "Make it to Room 30 without sacrificing any kittens.",
    "icon": "https://steamcdn-a.akamaihd.net/steamcommunity/public/images/apps/340520/2934cd0d399f366e015ca80d01b3f230ca14b312.jpg",
    "icongray": "https://steamcdn-a.akamaihd.net/steamcommunity/public/images/apps/340520/2fb3e403f90d1fc8937dbf201eda7c82698dc471.jpg"
  },
  {
    "name": "ReachRoom40",
    "defaultvalue": 0,
    "displayName": "Room 40",
    "hidden": 0,
    "description": "Make it to Room 40 without sacrificing any kittens.",
    "icon": "https://steamcdn-a.akamaihd.net/steamcommunity/public/images/apps/340520/700bbf487f13d4969575cb6edb947855f52c24f7.jpg",
    "icongray": "https://steamcdn-a.akamaihd.net/steamcommunity/public/images/apps/340520/6d473fcabdc4994c1fa0864adc6b1b5baff9e7a5.jpg"
  },
  {
    "name": "ReachRoom50",
    "defaultvalue": 0,
    "displayName": "Room 50",
    "hidden": 0,
    "description": "Make it to Room 50 without sacrificing any kittens.",
    "icon": "https://steamcdn-a.akamaihd.net/steamcommunity/public/images/apps/340520/19d5abb4494baa99153a3d3aedb670329b7dac84.jpg",
    "icongray": "https://steamcdn-a.akamaihd.net/steamcommunity/public/images/apps/340520/84d515f2ae7032ed2ee29c27d91b85d9202da31c.jpg"
  },
  {
    "name": "ReachRoom60",
    "defaultvalue": 0,
    "displayName": "Room 60",
    "hidden": 0,
    "description": "Make it to Room 60 without sacrificing any kittens.",
    "icon": "https://steamcdn-a.akamaihd.net/steamcommunity/public/images/apps/340520/81cdc58b7671a54320ff327bc6293d89f8dd1427.jpg",
    "icongray": "https://steamcdn-a.akamaihd.net/steamcommunity/public/images/apps/340520/e09904ae3e45ba459ae0f7a841ced4bec28fe5fd.jpg"
  },
  {
    "name": "GrenadeSuicide",
    "defaultvalue": 0,
    "displayName": "Death by Grenades",
    "hidden": 0,
    "description": "Kill yourself using your own grenades.",
    "icon": "https://steamcdn-a.akamaihd.net/steamcommunity/public/images/apps/340520/3b0b3ae915851503a0d051863665345f801a694d.jpg",
    "icongray": "https://steamcdn-a.akamaihd.net/steamcommunity/public/images/apps/340520/89a433d20eeb6b8f9067acdc46853bc18381ad84.jpg"
  },
  {
    "name": "RocketLauncherSuicide",
    "defaultvalue": 0,
    "displayName": "Death by Rocket Launcher",
    "hidden": 0,
    "description": "Blow yourself up with a rocket launcher.",
    "icon": "https://steamcdn-a.akamaihd.net/steamcommunity/public/images/apps/340520/6344795acc5818ddf73969ed8d5fdd1fad8ed6b8.jpg",
    "icongray": "https://steamcdn-a.akamaihd.net/steamcommunity/public/images/apps/340520/b8deed8386ccfc8722716529bcdb8e629f1f9841.jpg"
  },
  {
    "name": "EmeraldDaggerBackstab",
    "defaultvalue": 0,
    "displayName": "Stealthy Backstab",
    "hidden": 0,
    "description": "While stealthed with the Emerald Dagger, stab an enemy in the back.",
    "icon": "https://steamcdn-a.akamaihd.net/steamcommunity/public/images/apps/340520/8bfb23bd49a9c680f814a6718773bbfa814009a5.jpg",
    "icongray": "https://steamcdn-a.akamaihd.net/steamcommunity/public/images/apps/340520/82e758dd98f16960f7ae997d53e946657251cb32.jpg"
  },
  {
    "name": "HydraSlayer",
    "defaultvalue": 0,
    "displayName": "Hydra Slayer",
    "hidden": 0,
    "description": "Defeat the three-headed Hydra without sacrificing any kittens.",
    "icon": "https://steamcdn-a.akamaihd.net/steamcommunity/public/images/apps/340520/284c19b6b5b11f8b53bbf403779a3a27f830d370.jpg",
    "icongray": "https://steamcdn-a.akamaihd.net/steamcommunity/public/images/apps/340520/fce060f653713a788a32c1cbd8d2eb24fe8c1510.jpg"
  },
  {
    "name": "JazzaSlayer",
    "defaultvalue": 0,
    "displayName": "Nightmare Begone",
    "hidden": 0,
    "description": "Defeat Jazza without sacrificing any kittens.",
    "icon": "https://steamcdn-a.akamaihd.net/steamcommunity/public/images/apps/340520/83d64f4d20e5f8e9dca589b307b34e99dedea812.jpg",
    "icongray": "https://steamcdn-a.akamaihd.net/steamcommunity/public/images/apps/340520/b88864031d59024cf6bd57934ee19532f996cf51.jpg"
  },
  {
    "name": "FlagFetcher",
    "defaultvalue": 0,
    "displayName": "Flag Fetcher",
    "hidden": 0,
    "description": "Return the cursed flag to Lady Tallowmere without sacrificing any kittens.",
    "icon": "https://steamcdn-a.akamaihd.net/steamcommunity/public/images/apps/340520/6bb684aea008f1cf1948c9cfab15cd8ab3e9a251.jpg",
    "icongray": "https://steamcdn-a.akamaihd.net/steamcommunity/public/images/apps/340520/62d997a8fa9a1731eacde714f707b7bcd1a1b5d7.jpg"
  },
  {
    "name": "FlagRunner",
    "defaultvalue": 0,
    "displayName": "Flag Runner",
    "hidden": 0,
    "description": "Return the flag without dropping it, and without sacrificing any kittens.",
    "icon": "https://steamcdn-a.akamaihd.net/steamcommunity/public/images/apps/340520/0067264f6d969ec2816f8a9d5ed2f039ee520b97.jpg",
    "icongray": "https://steamcdn-a.akamaihd.net/steamcommunity/public/images/apps/340520/7fbd74fae873153f973dfc4835f969cb64411a98.jpg"
  },
  {
    "name": "RescueTallowmere",
    "defaultvalue": 0,
    "displayName": "Rescue Lady Tallowmere",
    "hidden": 0,
    "description": "Free Lady T from her peril without sacrificing any kittens.",
    "icon": "https://steamcdn-a.akamaihd.net/steamcommunity/public/images/apps/340520/4d60d30ae40cf992d93caedd89a56a3ecf4c0aed.jpg",
    "icongray": "https://steamcdn-a.akamaihd.net/steamcommunity/public/images/apps/340520/ff42b4543ac2bd9a315ce225613bb5decc78dc13.jpg"
  },
  {
    "name": "LegendaryWeaponry",
    "defaultvalue": 0,
    "displayName": "Legendary Weaponry",
    "hidden": 0,
    "description": "Acquire a 5-star weapon without sacrificing any kittens.",
    "icon": "https://steamcdn-a.akamaihd.net/steamcommunity/public/images/apps/340520/39cf0a5829ebcac357135b1219885bf7862bc74b.jpg",
    "icongray": "https://steamcdn-a.akamaihd.net/steamcommunity/public/images/apps/340520/9e8a02999fdc734b515748eb00b6b30178b27d86.jpg"
  },
  {
    "name": "LegendaryShield",
    "defaultvalue": 0,
    "displayName": "Legendary Shieldbearer",
    "hidden": 0,
    "description": "Acquire a 5-star shield without sacrificing any kittens.",
    "icon": "https://steamcdn-a.akamaihd.net/steamcommunity/public/images/apps/340520/286e555a89ae3112c3fad5de5e126066009f56c4.jpg",
    "icongray": "https://steamcdn-a.akamaihd.net/steamcommunity/public/images/apps/340520/b7e476bafc79fce7690f4eb069b283cf0be8e748.jpg"
  },
  {
    "name": "LegendaryHeadgear",
    "defaultvalue": 0,
    "displayName": "Legendary Headgear",
    "hidden": 0,
    "description": "Acquire a 5-star piece of headgear without sacrificing any kittens.",
    "icon": "https://steamcdn-a.akamaihd.net/steamcommunity/public/images/apps/340520/e8152a50b77b146da5e5f556ea57e5e78d12e6a1.jpg",
    "icongray": "https://steamcdn-a.akamaihd.net/steamcommunity/public/images/apps/340520/08e8af9ffe75423252064f30f421f19c9b305157.jpg"
  },
  {
    "name": "LegendaryOutfit",
    "defaultvalue": 0,
    "displayName": "Legendary Outfit",
    "hidden": 0,
    "description": "Acquire a 5-star outfit without sacrificing any kittens.",
    "icon": "https://steamcdn-a.akamaihd.net/steamcommunity/public/images/apps/340520/e4eaeb503f9c8808c4d21c7f1d8c6125f75aaf90.jpg",
    "icongray": "https://steamcdn-a.akamaihd.net/steamcommunity/public/images/apps/340520/aeec83b8d27e31430ecbfbd1f37159b77c9e10fa.jpg"
  },
  {
    "name": "MythicalWeaponry",
    "defaultvalue": 0,
    "displayName": "Mythical Weaponry",
    "hidden": 0,
    "description": "Acquire a 6-star weapon without sacrificing any kittens.",
    "icon": "https://steamcdn-a.akamaihd.net/steamcommunity/public/images/apps/340520/2fb2ca731489061c49bb01a003ab2e29fb210110.jpg",
    "icongray": "https://steamcdn-a.akamaihd.net/steamcommunity/public/images/apps/340520/4c691a9687ff6124389eb3a781b7953adeac7aa1.jpg"
  },
  {
    "name": "MythicalShield",
    "defaultvalue": 0,
    "displayName": "Mythical Shieldbearer",
    "hidden": 0,
    "description": "Acquire a 6-star shield without sacrificing any kittens.",
    "icon": "https://steamcdn-a.akamaihd.net/steamcommunity/public/images/apps/340520/43fb95f85436a7f70c1f1f4ab1f143d1039647c3.jpg",
    "icongray": "https://steamcdn-a.akamaihd.net/steamcommunity/public/images/apps/340520/5184d6c86d896dfc4011f5fd93b0e4e753c70ed6.jpg"
  },
  {
    "name": "MythicalHeadgear",
    "defaultvalue": 0,
    "displayName": "Mythical Headgear",
    "hidden": 0,
    "description": "Acquire a 6-star piece of headgear without sacrificing any kittens.",
    "icon": "https://steamcdn-a.akamaihd.net/steamcommunity/public/images/apps/340520/851fcd25c1a620b7f231cfd3b396bc4ff799eb8c.jpg",
    "icongray": "https://steamcdn-a.akamaihd.net/steamcommunity/public/images/apps/340520/e1e65ab1e952f306550cb0b615eb57a18936d3bf.jpg"
  },
  {
    "name": "MythicalOutfit",
    "defaultvalue": 0,
    "displayName": "Mythical Outfit",
    "hidden": 0,
    "description": "Acquire a 6-star outfit without sacrificing any kittens.",
    "icon": "https://steamcdn-a.akamaihd.net/steamcommunity/public/images/apps/340520/93df184a5ca4065311fb3a93b65beb68de46fd85.jpg",
    "icongray": "https://steamcdn-a.akamaihd.net/steamcommunity/public/images/apps/340520/6097f557124033fb336e37e6686cabb787f032d7.jpg"
  },
  {
    "name": "OtherworldlyWeaponry",
    "defaultvalue": 0,
    "displayName": "Otherworldly Weaponry",
    "hidden": 0,
    "description": "Acquire a 7-star weapon without sacrificing any kittens.",
    "icon": "https://steamcdn-a.akamaihd.net/steamcommunity/public/images/apps/340520/e68ed2f717ffd128c46c03d4327fc4439b5a198d.jpg",
    "icongray": "https://steamcdn-a.akamaihd.net/steamcommunity/public/images/apps/340520/2611ee7a754ceb9fda4fd9b6936213b94ca69738.jpg"
  },
  {
    "name": "OtherworldlyShield",
    "defaultvalue": 0,
    "displayName": "Otherworldly Shieldbearer",
    "hidden": 0,
    "description": "Acquire a 7-star shield without sacrificing any kittens.",
    "icon": "https://steamcdn-a.akamaihd.net/steamcommunity/public/images/apps/340520/e4d4267102425dc50673970708eda5bc0c1051b4.jpg",
    "icongray": "https://steamcdn-a.akamaihd.net/steamcommunity/public/images/apps/340520/63a5412a45806f74f99068f782b88245019393a0.jpg"
  },
  {
    "name": "OtherworldlyHeadgear",
    "defaultvalue": 0,
    "displayName": "Otherworldly Headgear",
    "hidden": 0,
    "description": "Acquire a 7-star piece of headgear without sacrificing any kittens.",
    "icon": "https://steamcdn-a.akamaihd.net/steamcommunity/public/images/apps/340520/ebeeb5216fa30456985d84b9873ce2f5d8ad58dc.jpg",
    "icongray": "https://steamcdn-a.akamaihd.net/steamcommunity/public/images/apps/340520/f0062ab68e40d2288dcd5a6927a303bd8b011a52.jpg"
  },
  {
    "name": "OtherworldlyOutfit",
    "defaultvalue": 0,
    "displayName": "Otherworldly Outfit",
    "hidden": 0,
    "description": "Acquire a 7-star outfit without sacrificing any kittens.",
    "icon": "https://steamcdn-a.akamaihd.net/steamcommunity/public/images/apps/340520/496c4c212573db0ce3849b01cf2b5a96852568ae.jpg",
    "icongray": "https://steamcdn-a.akamaihd.net/steamcommunity/public/images/apps/340520/585791af6257e28f4c7bb71f6ab939551bb9965a.jpg"
  },
  {
    "name": "HealPlease",
    "defaultvalue": 0,
    "displayName": "Heal Please",
    "hidden": 0,
    "description": "Receive healing from Lady Tallowmere while on 1 health.",
    "icon": "https://steamcdn-a.akamaihd.net/steamcommunity/public/images/apps/340520/2c2f381652c16cc07896d2f44431efc65a4f6a27.jpg",
    "icongray": "https://steamcdn-a.akamaihd.net/steamcommunity/public/images/apps/340520/002cc2bfad5c21d545b7e5885b1fa333c78c7cc0.jpg"
  },
  {
    "name": "MmmTasty",
    "defaultvalue": 0,
    "displayName": "Mmm, Tasty",
    "hidden": 0,
    "description": "Sacrifice all nine kittens and die a little inside.",
    "icon": "https://steamcdn-a.akamaihd.net/steamcommunity/public/images/apps/340520/e5a14d8a9b7517e3d0cd06d473dd1804033c1956.jpg",
    "icongray": "https://steamcdn-a.akamaihd.net/steamcommunity/public/images/apps/340520/bbb3920c5feb853cda0787a2bb89902065488079.jpg"
  }
]