{
  "Dlcs": {},
  "Name": "Band of Defenders",
  "AppId": "644640",
  "ImageUrl": "https://steamcdn-a.akamaihd.net/steam/apps/644640/header.jpg?t=1600166561",
  "Languages": [
    "english",
    "czech",
    "french",
    "italian",
    "german",
    "spanish",
    "polish",
    "portuguese",
    "russian",
    "schinese"
  ],
  "Platforms": {
    "windows": true,
    "mac": false,
    "linux": false
  }
}