{
  "Dlcs": {},
  "Name": "EITR",
  "AppId": "350050",
  "ImageUrl": "https://steamcdn-a.akamaihd.net/steam/apps/350050/header.jpg?t=1587057056",
  "Languages": [
    "english"
  ],
  "Platforms": {
    "windows": true,
    "mac": true,
    "linux": true
  }
}