[
  {
    "name": "ACH_GET_ONE_NEKO",
    "defaultvalue": 0,
    "displayName": "Neko Initiate",
    "hidden": 0,
    "description": "Get 1 Neko Resident",
    "icon": "https://steamcdn-a.akamaihd.net/steamcommunity/public/images/apps/1198820/ba05bd9fbf74ecf74b2604c402d2f95dccbc29cc.jpg",
    "icongray": "https://steamcdn-a.akamaihd.net/steamcommunity/public/images/apps/1198820/78f68e6f6d9e00dc5c7430fc815c1bd0b818f953.jpg"
  },
  {
    "name": "ACH_GET_ONE_SLIME",
    "defaultvalue": 0,
    "displayName": "Slime Initiate",
    "hidden": 0,
    "description": "Get 1 Slime Resident",
    "icon": "https://steamcdn-a.akamaihd.net/steamcommunity/public/images/apps/1198820/7fbf27c728314a6c37da3e33af91e8ea30196b7e.jpg",
    "icongray": "https://steamcdn-a.akamaihd.net/steamcommunity/public/images/apps/1198820/d527dfa9204153b929fa1b94bb25f080fdde5765.jpg"
  },
  {
    "name": "ACH_GET_ONE_HARPY",
    "defaultvalue": 0,
    "displayName": "Harpy Initiate",
    "hidden": 0,
    "description": "Get 1 Harpy Resident",
    "icon": "https://steamcdn-a.akamaihd.net/steamcommunity/public/images/apps/1198820/b296daf81faecc293da12a3ee2e106bfdfdb9a00.jpg",
    "icongray": "https://steamcdn-a.akamaihd.net/steamcommunity/public/images/apps/1198820/d8a96150188741640bbf45e59723279cf799d3c4.jpg"
  },
  {
    "name": "ACH_GET_ONE_LAMIA",
    "defaultvalue": 0,
    "displayName": "Lamia Initiate",
    "hidden": 0,
    "description": "Get 1 Lamia Resident",
    "icon": "https://steamcdn-a.akamaihd.net/steamcommunity/public/images/apps/1198820/ba2471ba1fcbdd7f95400d84ae47e1c6dc65dc57.jpg",
    "icongray": "https://steamcdn-a.akamaihd.net/steamcommunity/public/images/apps/1198820/7d7699c4f2fedd2dba78903b582a23fc3721b5fd.jpg"
  },
  {
    "name": "ACH_GET_ONE_ELF",
    "defaultvalue": 0,
    "displayName": "Elf Initiate",
    "hidden": 0,
    "description": "Get 1 Elf Resident",
    "icon": "https://steamcdn-a.akamaihd.net/steamcommunity/public/images/apps/1198820/36112667f473a5b90f49c58343c31ef343325d2f.jpg",
    "icongray": "https://steamcdn-a.akamaihd.net/steamcommunity/public/images/apps/1198820/90bf30dfe5b171274cc8160ffb31e2850f9a7a1b.jpg"
  },
  {
    "name": "ACH_GET_ONE_LSUC",
    "defaultvalue": 0,
    "displayName": "Lesser Succubus Initiate",
    "hidden": 0,
    "description": "Get 1 Lesser Succubus Resident",
    "icon": "https://steamcdn-a.akamaihd.net/steamcommunity/public/images/apps/1198820/8bac40f5fcadc69b52793e4b1e45e3fb0f0e82ff.jpg",
    "icongray": "https://steamcdn-a.akamaihd.net/steamcommunity/public/images/apps/1198820/12a8ac5f23e52ceddc15f9950c0ce14fabc43d44.jpg"
  },
  {
    "name": "ACH_GET_ONE_KITSUNE",
    "defaultvalue": 0,
    "displayName": "Kitsune Initiate",
    "hidden": 0,
    "description": "Get 1 Kitsune Resident",
    "icon": "https://steamcdn-a.akamaihd.net/steamcommunity/public/images/apps/1198820/84ffe9930d027d08b77e128e08395e9aa5c260ff.jpg",
    "icongray": "https://steamcdn-a.akamaihd.net/steamcommunity/public/images/apps/1198820/f58cb5006fb17f19af814e87f03672e771afc40b.jpg"
  },
  {
    "name": "ACH_GET_ONE_MERMAID",
    "defaultvalue": 0,
    "displayName": "Mermaid Initiate",
    "hidden": 0,
    "description": "Get 1 Mermaid Resident",
    "icon": "https://steamcdn-a.akamaihd.net/steamcommunity/public/images/apps/1198820/1cf3e5574a3b35c05ea4e44b2f960b79aa7c40bd.jpg",
    "icongray": "https://steamcdn-a.akamaihd.net/steamcommunity/public/images/apps/1198820/a61633745c90891e9dbe4d46d108e72e518cb898.jpg"
  },
  {
    "name": "ACH_GET_FIVE_NEKO",
    "defaultvalue": 0,
    "displayName": "Neko Expert",
    "hidden": 0,
    "description": "Get 5 Neko Residents",
    "icon": "https://steamcdn-a.akamaihd.net/steamcommunity/public/images/apps/1198820/aa163ddb44dd079565b7ca5dc1edba65889cf458.jpg",
    "icongray": "https://steamcdn-a.akamaihd.net/steamcommunity/public/images/apps/1198820/df2fb8dc44cc65c748ec3a088745226938966a60.jpg"
  },
  {
    "name": "ACH_GET_FIVE_SLIME",
    "defaultvalue": 0,
    "displayName": "Slime Expert",
    "hidden": 0,
    "description": "Get 5 Slime Residents",
    "icon": "https://steamcdn-a.akamaihd.net/steamcommunity/public/images/apps/1198820/a080cbd8f475d6935344634c945189c948980c57.jpg",
    "icongray": "https://steamcdn-a.akamaihd.net/steamcommunity/public/images/apps/1198820/ce6fb83996dc9ffe94eefd91d92d3c13c0bf4f31.jpg"
  },
  {
    "name": "ACH_GET_FIVE_HARPY",
    "defaultvalue": 0,
    "displayName": "Harpy Expert",
    "hidden": 0,
    "description": "Get 5 Harpy Residents",
    "icon": "https://steamcdn-a.akamaihd.net/steamcommunity/public/images/apps/1198820/14cc6b87c8c161f2dcefd90e1df76e2730f55b99.jpg",
    "icongray": "https://steamcdn-a.akamaihd.net/steamcommunity/public/images/apps/1198820/7f22ce8f892bc275be4d1c00fe98837060eea830.jpg"
  },
  {
    "name": "ACH_GET_FIVE_LAMIA",
    "defaultvalue": 0,
    "displayName": "Lamia Expert",
    "hidden": 0,
    "description": "Get 5 Lamia Residents",
    "icon": "https://steamcdn-a.akamaihd.net/steamcommunity/public/images/apps/1198820/999d7523e1a5013f03ebdb1ffe64caf6cf1303cf.jpg",
    "icongray": "https://steamcdn-a.akamaihd.net/steamcommunity/public/images/apps/1198820/1dcba85cd084c50d4b522e5bd2f8e95bfdd7b417.jpg"
  },
  {
    "name": "ACH_GET_FIVE_ELF",
    "defaultvalue": 0,
    "displayName": "Elf Expert",
    "hidden": 0,
    "description": "Get 5 Elf Residents",
    "icon": "https://steamcdn-a.akamaihd.net/steamcommunity/public/images/apps/1198820/49b3fafae61138fd4d5cec688780a6038f4f4a03.jpg",
    "icongray": "https://steamcdn-a.akamaihd.net/steamcommunity/public/images/apps/1198820/3d5983ff8d4338051af9414fc43b423107f6654a.jpg"
  },
  {
    "name": "ACH_GET_FIVE_LSUC",
    "defaultvalue": 0,
    "displayName": "Lesser Succubus Expert",
    "hidden": 0,
    "description": "Get 5 Lesser Succubus Residents",
    "icon": "https://steamcdn-a.akamaihd.net/steamcommunity/public/images/apps/1198820/ce8180a6ef984d148b4b99803995d1df57d14816.jpg",
    "icongray": "https://steamcdn-a.akamaihd.net/steamcommunity/public/images/apps/1198820/a909865b3c549e1b901aad3acf6f320dd694e352.jpg"
  },
  {
    "name": "ACH_GET_FIVE_KITSUNE",
    "defaultvalue": 0,
    "displayName": "Kitsune Expert",
    "hidden": 0,
    "description": "Get 5 Kitsune Residents",
    "icon": "https://steamcdn-a.akamaihd.net/steamcommunity/public/images/apps/1198820/7ff765765c6f8d52aa69efb762fd5d07754855ee.jpg",
    "icongray": "https://steamcdn-a.akamaihd.net/steamcommunity/public/images/apps/1198820/ce5cf17f1c64d97676b3277b675219b4917c0973.jpg"
  },
  {
    "name": "ACH_GET_FIVE_MERMAID",
    "defaultvalue": 0,
    "displayName": "Mermaid Expert",
    "hidden": 0,
    "description": "Get 5 Mermaid Residents",
    "icon": "https://steamcdn-a.akamaihd.net/steamcommunity/public/images/apps/1198820/12c7d8e5dba04a856a5e437a5c76a1df9e02386d.jpg",
    "icongray": "https://steamcdn-a.akamaihd.net/steamcommunity/public/images/apps/1198820/d6437611b0ffd0d5e58ea9923eb3582f5f7a6cad.jpg"
  },
  {
    "name": "ACH_GARDEN_REPAID1",
    "defaultvalue": 0,
    "displayName": "Repayment Rookie",
    "hidden": 0,
    "description": "Pay back $10,000 of the loan on your Garden",
    "icon": "https://steamcdn-a.akamaihd.net/steamcommunity/public/images/apps/1198820/4500e8935e48cd19ad906844c4b050cbb39d87a7.jpg",
    "icongray": "https://steamcdn-a.akamaihd.net/steamcommunity/public/images/apps/1198820/b998cc9c0d06882cbc13b90aef153d294736d766.jpg"
  },
  {
    "name": "ACH_GARDEN_REPAID2",
    "defaultvalue": 0,
    "displayName": "Diligent Debtor",
    "hidden": 0,
    "description": "Pay back $1,000,000 of the loan on your Garden",
    "icon": "https://steamcdn-a.akamaihd.net/steamcommunity/public/images/apps/1198820/65592e7583cca307ed543fc6891566bffce7ef16.jpg",
    "icongray": "https://steamcdn-a.akamaihd.net/steamcommunity/public/images/apps/1198820/00a54f965c3ef28a5789038caeaecf3c94733c7c.jpg"
  },
  {
    "name": "ACH_GARDEN_REPAID3",
    "defaultvalue": 0,
    "displayName": "Collections King",
    "hidden": 0,
    "description": "Pay back $100,000,000 of the loan on your Garden",
    "icon": "https://steamcdn-a.akamaihd.net/steamcommunity/public/images/apps/1198820/9f973672cb945ee3e6f91898cdfc76523b16b9f3.jpg",
    "icongray": "https://steamcdn-a.akamaihd.net/steamcommunity/public/images/apps/1198820/e02913b9869e99b5285aa92f2aca3738b5c383b6.jpg"
  },
  {
    "name": "ACH_GARDEN_REPAID4",
    "defaultvalue": 0,
    "displayName": "Mortgage Master",
    "hidden": 0,
    "description": "Pay back the entire loan on your Garden",
    "icon": "https://steamcdn-a.akamaihd.net/steamcommunity/public/images/apps/1198820/e70fe6bb812c59feb24c4300d2ef4a732e342d05.jpg",
    "icongray": "https://steamcdn-a.akamaihd.net/steamcommunity/public/images/apps/1198820/5a47b15d3082574c6a12b975ac92fe37cb200d0d.jpg"
  },
  {
    "name": "ACH_OML_RANK_E",
    "defaultvalue": 0,
    "displayName": "E Rank Trainer",
    "hidden": 0,
    "description": "Raise your OML Rank to E",
    "icon": "https://steamcdn-a.akamaihd.net/steamcommunity/public/images/apps/1198820/e8bd92ad07e4458813b268f50bb5011b98becfe3.jpg",
    "icongray": "https://steamcdn-a.akamaihd.net/steamcommunity/public/images/apps/1198820/6774c34a92da88ebdfd2de969917a68bf6beecb0.jpg"
  },
  {
    "name": "ACH_OML_RANK_D",
    "defaultvalue": 0,
    "displayName": "D Rank Trainer",
    "hidden": 0,
    "description": "Raise your OML Rank to D",
    "icon": "https://steamcdn-a.akamaihd.net/steamcommunity/public/images/apps/1198820/ee9292fcb04f5528ee5e02b426ce400274e92109.jpg",
    "icongray": "https://steamcdn-a.akamaihd.net/steamcommunity/public/images/apps/1198820/a4820fe4a587b875cd3694273da6ec3398af4f76.jpg"
  },
  {
    "name": "ACH_OML_RANK_C",
    "defaultvalue": 0,
    "displayName": "C Rank Trainer",
    "hidden": 0,
    "description": "Raise your OML Rank to C",
    "icon": "https://steamcdn-a.akamaihd.net/steamcommunity/public/images/apps/1198820/31be5af431d611e7fdb0461705c9e5b95d4b6eb9.jpg",
    "icongray": "https://steamcdn-a.akamaihd.net/steamcommunity/public/images/apps/1198820/ebf812beac36902d0534cd56c03d89ff88f2c4e6.jpg"
  },
  {
    "name": "ACH_OML_RANK_B",
    "defaultvalue": 0,
    "displayName": "B Rank Trainer",
    "hidden": 0,
    "description": "Raise your OML Rank to B",
    "icon": "https://steamcdn-a.akamaihd.net/steamcommunity/public/images/apps/1198820/aeb52e1740026818de4fa35257506e7337cb48cc.jpg",
    "icongray": "https://steamcdn-a.akamaihd.net/steamcommunity/public/images/apps/1198820/29fada67b30c8727cf84a66ec7f61a795e0e9a40.jpg"
  },
  {
    "name": "ACH_OML_RANK_A",
    "defaultvalue": 0,
    "displayName": "A Rank Trainer",
    "hidden": 0,
    "description": "Raise your OML Rank to A",
    "icon": "https://steamcdn-a.akamaihd.net/steamcommunity/public/images/apps/1198820/f096ec658afc15ee43c3318da128481bf7498065.jpg",
    "icongray": "https://steamcdn-a.akamaihd.net/steamcommunity/public/images/apps/1198820/5b1218bda58d9552b0e3c64255df2fbbd5f05644.jpg"
  },
  {
    "name": "ACH_OML_RANK_S",
    "defaultvalue": 0,
    "displayName": "S Rank Trainer",
    "hidden": 0,
    "description": "Raise your OML Rank to S",
    "icon": "https://steamcdn-a.akamaihd.net/steamcommunity/public/images/apps/1198820/a2546c618e4e940051b8a7a43703c3d791107790.jpg",
    "icongray": "https://steamcdn-a.akamaihd.net/steamcommunity/public/images/apps/1198820/eef5e52beb47d18811b68c5664be07f2bc0af458.jpg"
  },
  {
    "name": "ACH_WML_REP",
    "defaultvalue": 0,
    "displayName": "OML Representative",
    "hidden": 0,
    "description": "Qualify to represent Monsteronna in the WML Competition",
    "icon": "https://steamcdn-a.akamaihd.net/steamcommunity/public/images/apps/1198820/edeae4d5e2ab9ea6bfbe979e4b57c9fe4f49f532.jpg",
    "icongray": "https://steamcdn-a.akamaihd.net/steamcommunity/public/images/apps/1198820/3ff018b7fe8aea21e7d36d66c9229861ec6c3ea2.jpg"
  },
  {
    "name": "ACH_WML_CHAMP",
    "defaultvalue": 0,
    "displayName": "WML Champion",
    "hidden": 0,
    "description": "Win the WML Competition and become World Champion",
    "icon": "https://steamcdn-a.akamaihd.net/steamcommunity/public/images/apps/1198820/e396f134b790ed12c77d45cd4da187088f27de53.jpg",
    "icongray": "https://steamcdn-a.akamaihd.net/steamcommunity/public/images/apps/1198820/1f45623f7a320831cebd54e949df34b3712ad1d2.jpg"
  }
]