[
  {
    "name": "WinTheCampaign",
    "defaultvalue": 0,
    "displayName": "Win The Campaign",
    "hidden": 0,
    "description": "Win the campaign",
    "icon": "https://steamcdn-a.akamaihd.net/steamcommunity/public/images/apps/332710/edeef431eb40c1504607d2540fd41d5774817a1b.jpg",
    "icongray": "https://steamcdn-a.akamaihd.net/steamcommunity/public/images/apps/332710/ed44b27a05a1c27e07b0c9e139020fe94f8d1c8b.jpg"
  },
  {
    "name": "WinTheCampaignAlive",
    "defaultvalue": 0,
    "displayName": "Win The Campaign Alive",
    "hidden": 0,
    "description": "Win the campaign without dying",
    "icon": "https://steamcdn-a.akamaihd.net/steamcommunity/public/images/apps/332710/e670f481b8a3c01c5a57171746529e8835734c67.jpg",
    "icongray": "https://steamcdn-a.akamaihd.net/steamcommunity/public/images/apps/332710/5eb8d7849a5c0919c6638a27c7db4291cd2de853.jpg"
  },
  {
    "name": "WinTheCampaignPerfect",
    "defaultvalue": 0,
    "displayName": "Win The Campaign Perfect",
    "hidden": 0,
    "description": "Win the campaign in 7 days, saving all the children",
    "icon": "https://steamcdn-a.akamaihd.net/steamcommunity/public/images/apps/332710/edddac1b972a67a189626100d09e799c8c0803f8.jpg",
    "icongray": "https://steamcdn-a.akamaihd.net/steamcommunity/public/images/apps/332710/df5fc51819931da7bd2f1850ac0b94eb67d00832.jpg"
  },
  {
    "name": "TheConjurer",
    "defaultvalue": 0,
    "displayName": "The Conjurer",
    "hidden": 0,
    "description": "Raise Conjuration to 10",
    "icon": "https://steamcdn-a.akamaihd.net/steamcommunity/public/images/apps/332710/ed7cb14219d59310207f8dba687cfe3fb8ef8060.jpg",
    "icongray": "https://steamcdn-a.akamaihd.net/steamcommunity/public/images/apps/332710/29c7b2513ec0092316d3bb7b8670fc185f80a9eb.jpg"
  },
  {
    "name": "TheEnchanter",
    "defaultvalue": 0,
    "displayName": "The Enchanter",
    "hidden": 0,
    "description": "Raise Enchantment to 10",
    "icon": "https://steamcdn-a.akamaihd.net/steamcommunity/public/images/apps/332710/e938fac69fa50aaa44435a9f63561c5d79dacdab.jpg",
    "icongray": "https://steamcdn-a.akamaihd.net/steamcommunity/public/images/apps/332710/1f49231b69526c567bbf52c0d6f230c4baa9aa65.jpg"
  },
  {
    "name": "TheEvocator",
    "defaultvalue": 0,
    "displayName": "The Evocator",
    "hidden": 0,
    "description": "Raise Evocation to 10",
    "icon": "https://steamcdn-a.akamaihd.net/steamcommunity/public/images/apps/332710/06627864ba09ea9f736105d8369e394842eca5e5.jpg",
    "icongray": "https://steamcdn-a.akamaihd.net/steamcommunity/public/images/apps/332710/27946b1473cacac410326fd8b2ee2bfe4e113852.jpg"
  },
  {
    "name": "TheTransmuter",
    "defaultvalue": 0,
    "displayName": "The Transmuter",
    "hidden": 0,
    "description": "Raise Transmutation to 10",
    "icon": "https://steamcdn-a.akamaihd.net/steamcommunity/public/images/apps/332710/db19b6af8e84c381aed6c40e2095d15c5d573a56.jpg",
    "icongray": "https://steamcdn-a.akamaihd.net/steamcommunity/public/images/apps/332710/90298c403ea54b0b9374eac7d3392f24939c8376.jpg"
  },
  {
    "name": "KillDemonLord",
    "defaultvalue": 0,
    "displayName": "Kill Demon Lord",
    "hidden": 0,
    "description": "Kill the demon lord",
    "icon": "https://steamcdn-a.akamaihd.net/steamcommunity/public/images/apps/332710/6587288578498c9a23b8d7deceb8447c5af99832.jpg",
    "icongray": "https://steamcdn-a.akamaihd.net/steamcommunity/public/images/apps/332710/3175f368095df06736b4ba03143960fbc0cbbcf2.jpg"
  },
  {
    "name": "KillDemonLordPerfect",
    "defaultvalue": 0,
    "displayName": "Kill Demon Lord Perfect",
    "hidden": 0,
    "description": "Kill the demon lord in 7 days.",
    "icon": "https://steamcdn-a.akamaihd.net/steamcommunity/public/images/apps/332710/1774755f5a0431e629ba39fab19327ce2ef40c20.jpg",
    "icongray": "https://steamcdn-a.akamaihd.net/steamcommunity/public/images/apps/332710/154692a49228cb30a3c843bf38ddf3a3a4d8e75c.jpg"
  }
]