{
  "Dlcs": {},
  "Name": "Moonfall Ultimate",
  "AppId": "853940",
  "ImageUrl": "https://steamcdn-a.akamaihd.net/steam/apps/853940/header.jpg?t=1563272195",
  "Languages": [
    "english",
    "german",
    "russian",
    "schinese"
  ],
  "Platforms": {
    "windows": true,
    "mac": true,
    "linux": false
  }
}