[
  {
    "name": "ACH_STICKS_AND_STONES",
    "defaultvalue": 0,
    "displayName": "Sticks and Stones",
    "hidden": 0,
    "description": "Defeat the Totem Golem.",
    "icon": "https://steamcdn-a.akamaihd.net/steamcommunity/public/images/apps/853940/a925556805bf8b2061884df8708f5a51421c874a.jpg",
    "icongray": "https://steamcdn-a.akamaihd.net/steamcommunity/public/images/apps/853940/299ac0814a0906bb17a015dacc479afd830c0b5e.jpg"
  },
  {
    "name": "ACH_SCRAP_METAL",
    "defaultvalue": 0,
    "displayName": "Scrap Metal",
    "hidden": 0,
    "description": "Defeat the Goblin Mecha.",
    "icon": "https://steamcdn-a.akamaihd.net/steamcommunity/public/images/apps/853940/d9f988402ab224d1dbe47f0eb7b406de0f40c6a9.jpg",
    "icongray": "https://steamcdn-a.akamaihd.net/steamcommunity/public/images/apps/853940/774cedc9ba9ed9a4d6db6a55b3a9738344007fc5.jpg"
  },
  {
    "name": "ACH_A_BONE_TO_PICK",
    "defaultvalue": 0,
    "displayName": "A Bone to Pick",
    "hidden": 0,
    "description": "Defeat the Skeletal Boss.",
    "icon": "https://steamcdn-a.akamaihd.net/steamcommunity/public/images/apps/853940/f88b4ac3664abac523d72ca45b87d57a021c03bd.jpg",
    "icongray": "https://steamcdn-a.akamaihd.net/steamcommunity/public/images/apps/853940/19444d08c0c4ec90d24271ae48cee270f8d19a89.jpg"
  },
  {
    "name": "ACH_LUNARIST_APPRENTICE",
    "defaultvalue": 0,
    "displayName": "Lunarist's Apprentice",
    "hidden": 0,
    "description": "Beat the tutorial.",
    "icon": "https://steamcdn-a.akamaihd.net/steamcommunity/public/images/apps/853940/1d800a4e14be43a9fd069469e7f5bece4a206013.jpg",
    "icongray": "https://steamcdn-a.akamaihd.net/steamcommunity/public/images/apps/853940/4d349e67c2937ad8d92cc2d21a237f6837ec5dd0.jpg"
  },
  {
    "name": "ACH_LUNARIST",
    "defaultvalue": 0,
    "displayName": "Lunarist",
    "hidden": 0,
    "description": "Beat the game.",
    "icon": "https://steamcdn-a.akamaihd.net/steamcommunity/public/images/apps/853940/b825a540bdbea466876ba0a00245b105e02abbdc.jpg",
    "icongray": "https://steamcdn-a.akamaihd.net/steamcommunity/public/images/apps/853940/41a116df9ec1a1c116aeebf132995cc305e4379e.jpg"
  },
  {
    "name": "ACH_ARCH_LUNARIST",
    "defaultvalue": 0,
    "displayName": "Arch-lunarist",
    "hidden": 0,
    "description": "Beat the game in hard mode.",
    "icon": "https://steamcdn-a.akamaihd.net/steamcommunity/public/images/apps/853940/4dce96ea5ad17e6aa70329b1a3beeeb4d98e7bdf.jpg",
    "icongray": "https://steamcdn-a.akamaihd.net/steamcommunity/public/images/apps/853940/2cdb7064522987d1c106e07ab245b1c8ddab0f5e.jpg"
  },
  {
    "name": "ACH_ADVANCED_KNOWLEDGE",
    "defaultvalue": 0,
    "displayName": "Advanced Knowledge",
    "hidden": 0,
    "description": "Unlock all abilities in Elemental Engineer tree.",
    "icon": "https://steamcdn-a.akamaihd.net/steamcommunity/public/images/apps/853940/0004f53319a290b38ce89f21c69249ddf5d0e5e9.jpg",
    "icongray": "https://steamcdn-a.akamaihd.net/steamcommunity/public/images/apps/853940/2c1653f22c92761cf2355763b4ac77d7e9d23fca.jpg"
  },
  {
    "name": "ACH_AVARICE",
    "defaultvalue": 0,
    "displayName": "Avarice",
    "hidden": 0,
    "description": "Hold 5000 currency at a single time.",
    "icon": "https://steamcdn-a.akamaihd.net/steamcommunity/public/images/apps/853940/eebfdaba79ed1944d0f752f65fadbec9a19f44a5.jpg",
    "icongray": "https://steamcdn-a.akamaihd.net/steamcommunity/public/images/apps/853940/df981491cb7487f0b485df684aaf48aeb5a85151.jpg"
  },
  {
    "name": "ACH_HOARDER",
    "defaultvalue": 0,
    "displayName": "Hoarder",
    "hidden": 0,
    "description": "Fill your inventory",
    "icon": "https://steamcdn-a.akamaihd.net/steamcommunity/public/images/apps/853940/656a514ee5d5ec5362c8e7911955c4123db4a765.jpg",
    "icongray": "https://steamcdn-a.akamaihd.net/steamcommunity/public/images/apps/853940/2c512816f963dbbcf6c79bca58c1befabe334be5.jpg"
  },
  {
    "name": "ACH_COLLATERAL",
    "defaultvalue": 0,
    "displayName": "Collateral",
    "hidden": 0,
    "description": "Kill 3 enemies with a single spell.",
    "icon": "https://steamcdn-a.akamaihd.net/steamcommunity/public/images/apps/853940/625272305334ee991df007450f80818de9883345.jpg",
    "icongray": "https://steamcdn-a.akamaihd.net/steamcommunity/public/images/apps/853940/c0d395a2461d5d425defc144e9214bedd25005a4.jpg"
  },
  {
    "name": "ACH_EMPIRE_FINEST",
    "defaultvalue": 0,
    "displayName": "Empire's Finest",
    "hidden": 0,
    "description": "Unlock all abilities in the Vanguard tree.",
    "icon": "https://steamcdn-a.akamaihd.net/steamcommunity/public/images/apps/853940/ad767b471715726a68ee5d17e786154e7cbe2325.jpg",
    "icongray": "https://steamcdn-a.akamaihd.net/steamcommunity/public/images/apps/853940/30d332283e5d6905d02993ac2ca452d0a0b41f7f.jpg"
  },
  {
    "name": "ACH_ENDLESS_KILLS_1",
    "defaultvalue": 0,
    "displayName": "Knight",
    "hidden": 0,
    "description": "Kll 50 enemies in endless mode.",
    "icon": "https://steamcdn-a.akamaihd.net/steamcommunity/public/images/apps/853940/0b5bd61ef20b8e3fb84b3fa0c97d7a69727ee5f5.jpg",
    "icongray": "https://steamcdn-a.akamaihd.net/steamcommunity/public/images/apps/853940/38917e46db037fa296afa9a5542e285c8474535e.jpg"
  },
  {
    "name": "ACH_ENDLESS_KILLS_2",
    "defaultvalue": 0,
    "displayName": "Executioner",
    "hidden": 0,
    "description": "Kill 100 enemies in endless mode.",
    "icon": "https://steamcdn-a.akamaihd.net/steamcommunity/public/images/apps/853940/62784e6b6952563826bab9eb10dbf8f80b4fabb6.jpg",
    "icongray": "https://steamcdn-a.akamaihd.net/steamcommunity/public/images/apps/853940/4853c9de5f53723a61afc4a0d4a0ac5673accd0c.jpg"
  },
  {
    "name": "ACH_ENDLESS_KILLS_3",
    "defaultvalue": 0,
    "displayName": "Murderer",
    "hidden": 0,
    "description": "Kill 200 enemies in endless mode.",
    "icon": "https://steamcdn-a.akamaihd.net/steamcommunity/public/images/apps/853940/66d9f7cf868d1d912883db9bd9b168174186dfe1.jpg",
    "icongray": "https://steamcdn-a.akamaihd.net/steamcommunity/public/images/apps/853940/23954d41e5954885ccf71833a57f8534d06749c4.jpg"
  },
  {
    "name": "ACH_ENDLESS_REVIVES",
    "defaultvalue": 0,
    "displayName": "Healer",
    "hidden": 0,
    "description": "Revive you companion 5 times in two player endless mode.",
    "icon": "https://steamcdn-a.akamaihd.net/steamcommunity/public/images/apps/853940/3be5268037e96feb0899923b1aba09c21baacf18.jpg",
    "icongray": "https://steamcdn-a.akamaihd.net/steamcommunity/public/images/apps/853940/5e69b6d65d36c82965725d66c12757b1234bbb76.jpg"
  },
  {
    "name": "ACH_ROOMS_1",
    "defaultvalue": 0,
    "displayName": "Wanderer",
    "hidden": 0,
    "description": "Explore 20 rooms in endless mode.",
    "icon": "https://steamcdn-a.akamaihd.net/steamcommunity/public/images/apps/853940/1cdc682bede19f09832dda4fbd48e780bdba96e2.jpg",
    "icongray": "https://steamcdn-a.akamaihd.net/steamcommunity/public/images/apps/853940/3dd4b88359cfc19d3589ee440757ef7f91516c62.jpg"
  },
  {
    "name": "ACH_ROOMS_2",
    "defaultvalue": 0,
    "displayName": "Traveler",
    "hidden": 0,
    "description": "Explore 40 rooms in endless mode.",
    "icon": "https://steamcdn-a.akamaihd.net/steamcommunity/public/images/apps/853940/bab143c7855f01118148e1970fed36c3b7d874cc.jpg",
    "icongray": "https://steamcdn-a.akamaihd.net/steamcommunity/public/images/apps/853940/af5e85b35bfb06432bf40c7f0916f836ddf79410.jpg"
  },
  {
    "name": "ACH_ROOMS_3",
    "defaultvalue": 0,
    "displayName": "Explorer",
    "hidden": 0,
    "description": "Explore 60 rooms in endless mode.",
    "icon": "https://steamcdn-a.akamaihd.net/steamcommunity/public/images/apps/853940/cf303e60e35daed4eef1d2d7abf295f8194427cd.jpg",
    "icongray": "https://steamcdn-a.akamaihd.net/steamcommunity/public/images/apps/853940/02f1af03220644cfd9d0cb92eb0289a16adf6b41.jpg"
  },
  {
    "name": "ACH_ENDLESS_SPEED_KILS",
    "defaultvalue": 0,
    "displayName": "Quick and Skilled",
    "hidden": 0,
    "description": "Kill 50 enemies in endless mode under 5 minutes.",
    "icon": "https://steamcdn-a.akamaihd.net/steamcommunity/public/images/apps/853940/4ffbaa8adb33a7149e27046da8dbe053838c17a6.jpg",
    "icongray": "https://steamcdn-a.akamaihd.net/steamcommunity/public/images/apps/853940/f9f9c72388695c21ebfe10e6f03b51707541f056.jpg"
  },
  {
    "name": "ACH_HEAVY_SPENDER",
    "defaultvalue": 0,
    "displayName": "Heavy Spender",
    "hidden": 0,
    "description": "Spend a total of 10000 in shops.",
    "icon": "https://steamcdn-a.akamaihd.net/steamcommunity/public/images/apps/853940/5c3b27f1756ea1d3bffc5b8ff2f0689c2df37638.jpg",
    "icongray": "https://steamcdn-a.akamaihd.net/steamcommunity/public/images/apps/853940/b56c9ad527efd3590a7382df9add3d1e0f57b49b.jpg"
  },
  {
    "name": "ACH_HERBICIDE",
    "defaultvalue": 0,
    "displayName": "Herbicide",
    "hidden": 0,
    "description": "Destroy 50 environmental hazards.",
    "icon": "https://steamcdn-a.akamaihd.net/steamcommunity/public/images/apps/853940/bf13e55f3b1b503bae5d2400fdd9a32deb69a234.jpg",
    "icongray": "https://steamcdn-a.akamaihd.net/steamcommunity/public/images/apps/853940/aa43670f16ff899da31bc6de533d57bea2d7cd83.jpg"
  },
  {
    "name": "ACH_LEVEL5",
    "defaultvalue": 0,
    "displayName": "Knowledge is Power I",
    "hidden": 0,
    "description": "Reach level 5 with any class.",
    "icon": "https://steamcdn-a.akamaihd.net/steamcommunity/public/images/apps/853940/1131a87f27e92b4690040394751f090e2f1a6c85.jpg",
    "icongray": "https://steamcdn-a.akamaihd.net/steamcommunity/public/images/apps/853940/0b2591182a40e1e10fc40f3a0c27dc2be231a736.jpg"
  },
  {
    "name": "ACH_LEVEL10",
    "defaultvalue": 0,
    "displayName": "Knowledge is Power II",
    "hidden": 0,
    "description": "Reach level 10 with any class.",
    "icon": "https://steamcdn-a.akamaihd.net/steamcommunity/public/images/apps/853940/f8d4a0a88cc90b9fdc82d2eee3cc4414621338ca.jpg",
    "icongray": "https://steamcdn-a.akamaihd.net/steamcommunity/public/images/apps/853940/313af26db0d90609f5f6964cbe0179a8edb19f64.jpg"
  },
  {
    "name": "ACH_LEVEL15",
    "defaultvalue": 0,
    "displayName": "Knowledge is Power III",
    "hidden": 0,
    "description": "Reach level 15 with any class.",
    "icon": "https://steamcdn-a.akamaihd.net/steamcommunity/public/images/apps/853940/c3161742fb22922870b89f05c9943ae68fc12217.jpg",
    "icongray": "https://steamcdn-a.akamaihd.net/steamcommunity/public/images/apps/853940/c9a1e1f41ac003c7eb1c4f2055fc57f5c1e7e83d.jpg"
  },
  {
    "name": "ACH_MASS_DESTRUCTION",
    "defaultvalue": 0,
    "displayName": "Mass Destruction",
    "hidden": 0,
    "description": "Kill 5 enemies with a single spell.",
    "icon": "https://steamcdn-a.akamaihd.net/steamcommunity/public/images/apps/853940/7eee1e1343eecc51a52f24b4ddfa95acc4941606.jpg",
    "icongray": "https://steamcdn-a.akamaihd.net/steamcommunity/public/images/apps/853940/37b5f71b44f2844cda5eedc6ba1f3838c762d22c.jpg"
  },
  {
    "name": "ACH_NAVIGATE_THE_SHADOWS",
    "defaultvalue": 0,
    "displayName": "Navigate the Shadows",
    "hidden": 0,
    "description": "Unlock all abilities in the Shadow tree.",
    "icon": "https://steamcdn-a.akamaihd.net/steamcommunity/public/images/apps/853940/0004f53319a290b38ce89f21c69249ddf5d0e5e9.jpg",
    "icongray": "https://steamcdn-a.akamaihd.net/steamcommunity/public/images/apps/853940/2c1653f22c92761cf2355763b4ac77d7e9d23fca.jpg"
  }
]