[
  {
    "name": "ACH_ALTARS_FOUND_10",
    "defaultvalue": 0,
    "displayName": "Novice Shrine Seeker",
    "hidden": 0,
    "description": "Find 10 altars",
    "icon": "https://steamcdn-a.akamaihd.net/steamcommunity/public/images/apps/868060/ba90d0c4cfcf780132b5bb3ccee8decc38cc92d0.jpg",
    "icongray": "https://steamcdn-a.akamaihd.net/steamcommunity/public/images/apps/868060/de5aa15db64b7226db69271a80fc61c84cc15353.jpg"
  },
  {
    "name": "ACH_BLOOD_DRINK_100",
    "defaultvalue": 0,
    "displayName": "Master of Darkness",
    "hidden": 0,
    "description": "Use Blood Drink ability 100 times",
    "icon": "https://steamcdn-a.akamaihd.net/steamcommunity/public/images/apps/868060/1f647907520911d71fff353667fcd162f6271372.jpg",
    "icongray": "https://steamcdn-a.akamaihd.net/steamcommunity/public/images/apps/868060/de5aa15db64b7226db69271a80fc61c84cc15353.jpg"
  },
  {
    "name": "ACH_BOSS_KILLED_ALL",
    "defaultvalue": 0,
    "displayName": "Archon of Uuld",
    "hidden": 0,
    "description": "Kill all bosses",
    "icon": "https://steamcdn-a.akamaihd.net/steamcommunity/public/images/apps/868060/932c6387b2b9017cf1d4212ec76df90b05016af2.jpg",
    "icongray": "https://steamcdn-a.akamaihd.net/steamcommunity/public/images/apps/868060/de5aa15db64b7226db69271a80fc61c84cc15353.jpg"
  },
  {
    "name": "ACH_BOSS_KILLED_FIRST",
    "defaultvalue": 0,
    "displayName": "Yoggrathaal's Final Doom",
    "hidden": 0,
    "description": "Kill first boss",
    "icon": "https://steamcdn-a.akamaihd.net/steamcommunity/public/images/apps/868060/82be704001489c56f9d57790bd7c4a0b9279486d.jpg",
    "icongray": "https://steamcdn-a.akamaihd.net/steamcommunity/public/images/apps/868060/de5aa15db64b7226db69271a80fc61c84cc15353.jpg"
  },
  {
    "name": "ACH_CHAOS_KILLED_100",
    "defaultvalue": 0,
    "displayName": "Scourge of Chaos",
    "hidden": 0,
    "description": "Kill 100 Chaos enemies",
    "icon": "https://steamcdn-a.akamaihd.net/steamcommunity/public/images/apps/868060/00da3386857144eccbbe8fb849eb1d4932c75762.jpg",
    "icongray": "https://steamcdn-a.akamaihd.net/steamcommunity/public/images/apps/868060/de5aa15db64b7226db69271a80fc61c84cc15353.jpg"
  },
  {
    "name": "ACH_CHESTS_FOUND_10",
    "defaultvalue": 0,
    "displayName": "Novice Treasure Seeker",
    "hidden": 0,
    "description": "Find 10 chests",
    "icon": "https://steamcdn-a.akamaihd.net/steamcommunity/public/images/apps/868060/bf0f9fa894db97b1d0e7efec3077a1a1cfd30583.jpg",
    "icongray": "https://steamcdn-a.akamaihd.net/steamcommunity/public/images/apps/868060/de5aa15db64b7226db69271a80fc61c84cc15353.jpg"
  },
  {
    "name": "ACH_CHESTS_FOUND_100",
    "defaultvalue": 0,
    "displayName": "Master Treasure Seeker",
    "hidden": 0,
    "description": "Find 100 chests",
    "icon": "https://steamcdn-a.akamaihd.net/steamcommunity/public/images/apps/868060/d5f238f3af472fd442d1717ddc8951620abd3c6b.jpg",
    "icongray": "https://steamcdn-a.akamaihd.net/steamcommunity/public/images/apps/868060/de5aa15db64b7226db69271a80fc61c84cc15353.jpg"
  },
  {
    "name": "ACH_DARK_WISPS_KILLED_200",
    "defaultvalue": 0,
    "displayName": "Shadowsbane",
    "hidden": 0,
    "description": "Kill 200 dark wisps",
    "icon": "https://steamcdn-a.akamaihd.net/steamcommunity/public/images/apps/868060/ebc2e4f4ef4f75867abe8fa6f7bbbdf1dcd1106a.jpg",
    "icongray": "https://steamcdn-a.akamaihd.net/steamcommunity/public/images/apps/868060/de5aa15db64b7226db69271a80fc61c84cc15353.jpg"
  },
  {
    "name": "ACH_ENEMIES_BURNED_100",
    "defaultvalue": 0,
    "displayName": "Master of Fire",
    "hidden": 0,
    "description": "Burn 100 enemies",
    "icon": "https://steamcdn-a.akamaihd.net/steamcommunity/public/images/apps/868060/8e8df321003b60dc79519b56000e76326beb0272.jpg",
    "icongray": "https://steamcdn-a.akamaihd.net/steamcommunity/public/images/apps/868060/de5aa15db64b7226db69271a80fc61c84cc15353.jpg"
  },
  {
    "name": "ACH_ENEMIES_KILLED_100",
    "defaultvalue": 0,
    "displayName": "Bane of Darkness",
    "hidden": 0,
    "description": "Kill 100 enemies",
    "icon": "https://steamcdn-a.akamaihd.net/steamcommunity/public/images/apps/868060/973373e8c460665551fecd7d803ddb81afce4851.jpg",
    "icongray": "https://steamcdn-a.akamaihd.net/steamcommunity/public/images/apps/868060/de5aa15db64b7226db69271a80fc61c84cc15353.jpg"
  },
  {
    "name": "ACH_ENEMIES_KILLED_1000",
    "defaultvalue": 0,
    "displayName": "Scourge of Darkness",
    "hidden": 0,
    "description": "Kill 1000 enemies",
    "icon": "https://steamcdn-a.akamaihd.net/steamcommunity/public/images/apps/868060/a6187349a8edb3cfe3e5189c84d070099f89a88e.jpg",
    "icongray": "https://steamcdn-a.akamaihd.net/steamcommunity/public/images/apps/868060/2e030a0231994ed753b1bd4452ba8735e938ac5d.jpg"
  },
  {
    "name": "ACH_ENEMIES_PIT_FALL_100",
    "defaultvalue": 0,
    "displayName": "Feeding the Darkness",
    "hidden": 0,
    "description": "Knock 100 enemies into pits",
    "icon": "https://steamcdn-a.akamaihd.net/steamcommunity/public/images/apps/868060/84a900f44c1653495f3eb64870d45353743b26db.jpg",
    "icongray": "https://steamcdn-a.akamaihd.net/steamcommunity/public/images/apps/868060/de5aa15db64b7226db69271a80fc61c84cc15353.jpg"
  },
  {
    "name": "ACH_ENEMIES_POISONED_100",
    "defaultvalue": 0,
    "displayName": "Master Poisoner",
    "hidden": 0,
    "description": "Poison 100 enemies",
    "icon": "https://steamcdn-a.akamaihd.net/steamcommunity/public/images/apps/868060/9b7fa97600afa1bb4814b584e95c38672b2bd35c.jpg",
    "icongray": "https://steamcdn-a.akamaihd.net/steamcommunity/public/images/apps/868060/de5aa15db64b7226db69271a80fc61c84cc15353.jpg"
  },
  {
    "name": "ACH_GAME_COMPLETE_FACTION_HOLY",
    "defaultvalue": 0,
    "displayName": "Champion of Anaeris",
    "hidden": 0,
    "description": "Complete the game as Holy Faction",
    "icon": "https://steamcdn-a.akamaihd.net/steamcommunity/public/images/apps/868060/0fea9f6f20b4884d99a7ec62946a2a00f63f9669.jpg",
    "icongray": "https://steamcdn-a.akamaihd.net/steamcommunity/public/images/apps/868060/de5aa15db64b7226db69271a80fc61c84cc15353.jpg"
  },
  {
    "name": "ACH_GAME_COMPLETE_FACTION_NEUTRAL",
    "defaultvalue": 0,
    "displayName": "Lone Wolf",
    "hidden": 0,
    "description": "Complete the game as Neutral Faction",
    "icon": "https://steamcdn-a.akamaihd.net/steamcommunity/public/images/apps/868060/3ef7bfb3484a84de98c3b75a0ee67afe20c9eeb2.jpg",
    "icongray": "https://steamcdn-a.akamaihd.net/steamcommunity/public/images/apps/868060/de5aa15db64b7226db69271a80fc61c84cc15353.jpg"
  },
  {
    "name": "ACH_GAME_COMPLETE_FACTION_VAMPIRE",
    "defaultvalue": 0,
    "displayName": "Champion of Darkness",
    "hidden": 0,
    "description": "Complete the game as Vampire Faction",
    "icon": "https://steamcdn-a.akamaihd.net/steamcommunity/public/images/apps/868060/16a5fbca00775655a9660d5f9c97c01406d494a7.jpg",
    "icongray": "https://steamcdn-a.akamaihd.net/steamcommunity/public/images/apps/868060/de5aa15db64b7226db69271a80fc61c84cc15353.jpg"
  },
  {
    "name": "ACH_ITEM_UPGRADE_10",
    "defaultvalue": 0,
    "displayName": "Novice Artificer",
    "hidden": 0,
    "description": "Upgrade 10 items",
    "icon": "https://steamcdn-a.akamaihd.net/steamcommunity/public/images/apps/868060/f4d573ea5ca2b837967fd61b278b3eabd6a6ca55.jpg",
    "icongray": "https://steamcdn-a.akamaihd.net/steamcommunity/public/images/apps/868060/de5aa15db64b7226db69271a80fc61c84cc15353.jpg"
  },
  {
    "name": "ACH_ITEM_UPGRADE_100",
    "defaultvalue": 0,
    "displayName": "Master Artificer",
    "hidden": 0,
    "description": "Upgrade 100 items",
    "icon": "https://steamcdn-a.akamaihd.net/steamcommunity/public/images/apps/868060/3ab6eab4905a4700e74a8b8a354ec7739b414bcf.jpg",
    "icongray": "https://steamcdn-a.akamaihd.net/steamcommunity/public/images/apps/868060/de5aa15db64b7226db69271a80fc61c84cc15353.jpg"
  },
  {
    "name": "ACH_LOOT_FOUND_10000",
    "defaultvalue": 0,
    "displayName": "Novice Treasure Hunter",
    "hidden": 0,
    "description": "Collect 10000 gold",
    "icon": "https://steamcdn-a.akamaihd.net/steamcommunity/public/images/apps/868060/f6a1dae9e74c4eda774f8d7c024f8ca5968cd4c9.jpg",
    "icongray": "https://steamcdn-a.akamaihd.net/steamcommunity/public/images/apps/868060/de5aa15db64b7226db69271a80fc61c84cc15353.jpg"
  },
  {
    "name": "ACH_LOOT_FOUND_100000",
    "defaultvalue": 0,
    "displayName": "Master Treasure Hunter",
    "hidden": 0,
    "description": "Collect 100000 gold",
    "icon": "https://steamcdn-a.akamaihd.net/steamcommunity/public/images/apps/868060/f8da750a04d87acb1e6e2943ae721d9578ff82e9.jpg",
    "icongray": "https://steamcdn-a.akamaihd.net/steamcommunity/public/images/apps/868060/de5aa15db64b7226db69271a80fc61c84cc15353.jpg"
  },
  {
    "name": "ACH_PLAYED_HOURS_100",
    "defaultvalue": 0,
    "displayName": "Relentless",
    "hidden": 0,
    "description": "Play 100 hours",
    "icon": "https://steamcdn-a.akamaihd.net/steamcommunity/public/images/apps/868060/eed9cc0faa80be42c814345f80b43f41df240a73.jpg",
    "icongray": "https://steamcdn-a.akamaihd.net/steamcommunity/public/images/apps/868060/de5aa15db64b7226db69271a80fc61c84cc15353.jpg"
  },
  {
    "name": "ACH_PLAYER_PIT_FALL_100",
    "defaultvalue": 0,
    "displayName": "Lost to Darkness",
    "hidden": 0,
    "description": "Die by falling 100 times",
    "icon": "https://steamcdn-a.akamaihd.net/steamcommunity/public/images/apps/868060/df1dba1f5fbd3a2b8848252d78192151c9cfb323.jpg",
    "icongray": "https://steamcdn-a.akamaihd.net/steamcommunity/public/images/apps/868060/de5aa15db64b7226db69271a80fc61c84cc15353.jpg"
  },
  {
    "name": "ACH_POTIONS_USED_10",
    "defaultvalue": 0,
    "displayName": "Novice Alchemist",
    "hidden": 0,
    "description": "Use 10 potions",
    "icon": "https://steamcdn-a.akamaihd.net/steamcommunity/public/images/apps/868060/73f6d509ff1c1fc3da9528e2e8c4587de724c889.jpg",
    "icongray": "https://steamcdn-a.akamaihd.net/steamcommunity/public/images/apps/868060/de5aa15db64b7226db69271a80fc61c84cc15353.jpg"
  },
  {
    "name": "ACH_POTIONS_USED_100",
    "defaultvalue": 0,
    "displayName": "Master Alchemist",
    "hidden": 0,
    "description": "Use 100 potions",
    "icon": "https://steamcdn-a.akamaihd.net/steamcommunity/public/images/apps/868060/1d8be84b84d94bf970f9c3219f088be944054c21.jpg",
    "icongray": "https://steamcdn-a.akamaihd.net/steamcommunity/public/images/apps/868060/de5aa15db64b7226db69271a80fc61c84cc15353.jpg"
  },
  {
    "name": "ACH_SECRETS_FOUND_BOOKCASE_FIRST",
    "defaultvalue": 0,
    "displayName": "Seeker of Knowledge",
    "hidden": 0,
    "description": "Find a secret in a bookcase",
    "icon": "https://steamcdn-a.akamaihd.net/steamcommunity/public/images/apps/868060/ce4bb851e0fd3edc882ef323842b189345392353.jpg",
    "icongray": "https://steamcdn-a.akamaihd.net/steamcommunity/public/images/apps/868060/de5aa15db64b7226db69271a80fc61c84cc15353.jpg"
  },
  {
    "name": "ACH_SECRETS_FOUND_FIRST",
    "defaultvalue": 0,
    "displayName": "Initiate of Secrets",
    "hidden": 0,
    "description": "Find a secret ",
    "icon": "https://steamcdn-a.akamaihd.net/steamcommunity/public/images/apps/868060/d56773cb4b91da02afa4412594eb10a6862d24db.jpg",
    "icongray": "https://steamcdn-a.akamaihd.net/steamcommunity/public/images/apps/868060/de5aa15db64b7226db69271a80fc61c84cc15353.jpg"
  },
  {
    "name": "ACH_SECRETS_LONG_RAFT_RIDE",
    "defaultvalue": 0,
    "displayName": "The Old Ones",
    "hidden": 0,
    "description": "Find the secret long raft ride",
    "icon": "https://steamcdn-a.akamaihd.net/steamcommunity/public/images/apps/868060/8d4e060a83ffb8f7ead1e589698a0d47808bd764.jpg",
    "icongray": "https://steamcdn-a.akamaihd.net/steamcommunity/public/images/apps/868060/de5aa15db64b7226db69271a80fc61c84cc15353.jpg"
  },
  {
    "name": "ACH_SHOP_BOUGHT_ITEMS_10",
    "defaultvalue": 0,
    "displayName": "Novice Merchant",
    "hidden": 0,
    "description": "Buy 10 items at the shop",
    "icon": "https://steamcdn-a.akamaihd.net/steamcommunity/public/images/apps/868060/90332c1835c1c3292eaf46540eeea4d5535620a9.jpg",
    "icongray": "https://steamcdn-a.akamaihd.net/steamcommunity/public/images/apps/868060/de5aa15db64b7226db69271a80fc61c84cc15353.jpg"
  },
  {
    "name": "ACH_SHOP_BOUGHT_ITEMS_100",
    "defaultvalue": 0,
    "displayName": "Master merchant",
    "hidden": 0,
    "description": "Buy 100 items at the shop",
    "icon": "https://steamcdn-a.akamaihd.net/steamcommunity/public/images/apps/868060/f0259a6705d5945d6957496e315ce2d838cbb4e9.jpg",
    "icongray": "https://steamcdn-a.akamaihd.net/steamcommunity/public/images/apps/868060/de5aa15db64b7226db69271a80fc61c84cc15353.jpg"
  },
  {
    "name": "ACH_VAMPIRES_KILLED_100",
    "defaultvalue": 0,
    "displayName": "Expert Vampire Slayer",
    "hidden": 0,
    "description": "Kill 100 vampires",
    "icon": "https://steamcdn-a.akamaihd.net/steamcommunity/public/images/apps/868060/33cc1c8130c97e1b30350e531bb5f3c971feb8e8.jpg",
    "icongray": "https://steamcdn-a.akamaihd.net/steamcommunity/public/images/apps/868060/de5aa15db64b7226db69271a80fc61c84cc15353.jpg"
  }
]