[
  {
    "name": "MAKE_A_BOX",
    "defaultvalue": 0,
    "displayName": "How do I make a box?",
    "hidden": 0,
    "description": "Make a box.",
    "icon": "https://steamcdn-a.akamaihd.net/steamcommunity/public/images/apps/251810/edff0382335401cdaad3e9005e3062d3026c3464.jpg",
    "icongray": "https://steamcdn-a.akamaihd.net/steamcommunity/public/images/apps/251810/6b6d66a55220d1429d1a6900ec2f0137661d4937.jpg"
  },
  {
    "name": "MASTER_OF_BOXES_",
    "defaultvalue": 0,
    "displayName": "Master of Boxes",
    "hidden": 0,
    "description": "Make 100 boxes",
    "icon": "https://steamcdn-a.akamaihd.net/steamcommunity/public/images/apps/251810/5971fb0dddcaf45e74ee70c42873f203b5a06022.jpg",
    "icongray": "https://steamcdn-a.akamaihd.net/steamcommunity/public/images/apps/251810/004ee15d4c34d1b494dc2c17584ba0d0057022e8.jpg"
  },
  {
    "name": "WORKSHOP_SUBSCRIBER",
    "defaultvalue": 0,
    "displayName": "Workshop Subscriber",
    "hidden": 0,
    "description": "Subscribe to an item in the Leadwerks Workshop.",
    "icon": "https://steamcdn-a.akamaihd.net/steamcommunity/public/images/apps/251810/07bfba9f94e094a3a9173d8561a7d2b1696b5889.jpg",
    "icongray": "https://steamcdn-a.akamaihd.net/steamcommunity/public/images/apps/251810/c2b3a58f1e1ffbb33afe5f87403b22cc02adbe56.jpg"
  }
]