[
  {
    "name": "PACHI_EXTENSION_UPGRADE",
    "defaultvalue": 0,
    "displayName": "Hmm, upgrades",
    "hidden": 0,
    "description": "Upgrade an extension",
    "icon": "https://steamcdn-a.akamaihd.net/steamcommunity/public/images/apps/223410/41b86434dab8520adb4274f2be3df6bbde2434d8.jpg",
    "icongray": "https://steamcdn-a.akamaihd.net/steamcommunity/public/images/apps/223410/576510d1a73d23aca92dbe931c9b2f2a3580147f.jpg"
  },
  {
    "name": "PACHI_EXTENSION_LEVEL10",
    "defaultvalue": 0,
    "displayName": "Maxed out",
    "hidden": 0,
    "description": "Reach level 10 with an extension",
    "icon": "https://steamcdn-a.akamaihd.net/steamcommunity/public/images/apps/223410/e1a9d9cfa8193e771fe94a0e1775116115134c20.jpg",
    "icongray": "https://steamcdn-a.akamaihd.net/steamcommunity/public/images/apps/223410/d4a0d99713cedea55f7f0870d92c90af08bced18.jpg"
  },
  {
    "name": "PACHI_EXTENSION_LEVEL1",
    "defaultvalue": 0,
    "displayName": "I know kung fu",
    "hidden": 0,
    "description": "Install a new extension",
    "icon": "https://steamcdn-a.akamaihd.net/steamcommunity/public/images/apps/223410/56e74ad5aaa35841a615989c36cbe7804507b3c2.jpg",
    "icongray": "https://steamcdn-a.akamaihd.net/steamcommunity/public/images/apps/223410/e7fedfee91c1c5974bb5fbcb13a2aab41b09156e.jpg"
  },
  {
    "name": "PACHI_CORP_CREATE",
    "defaultvalue": 0,
    "displayName": "The start of something great",
    "hidden": 0,
    "description": "Create your own corporation",
    "icon": "https://steamcdn-a.akamaihd.net/steamcommunity/public/images/apps/223410/9b173276d1da12bd808ba51ce5878d20e5faddf3.jpg",
    "icongray": "https://steamcdn-a.akamaihd.net/steamcommunity/public/images/apps/223410/2f0627b679f0dd38528bb78b962b09c83c6bee42.jpg"
  },
  {
    "name": "PACHI_TELEPORT_USE",
    "defaultvalue": 0,
    "displayName": "Ride the lightning",
    "hidden": 0,
    "description": "Use a teleport",
    "icon": "https://steamcdn-a.akamaihd.net/steamcommunity/public/images/apps/223410/1688a94e05d6b5e868f2bcedd99bf83e5fdbfa0c.jpg",
    "icongray": "https://steamcdn-a.akamaihd.net/steamcommunity/public/images/apps/223410/96f963dafda8dbb39b3dce97c644231f5830fc0c.jpg"
  },
  {
    "name": "PACHI_ROBOT_INSURE",
    "defaultvalue": 0,
    "displayName": "Read the fine print",
    "hidden": 0,
    "description": "Insure a robot",
    "icon": "https://steamcdn-a.akamaihd.net/steamcommunity/public/images/apps/223410/0d8b99ba59579e2348ff694663864795a1bd3de0.jpg",
    "icongray": "https://steamcdn-a.akamaihd.net/steamcommunity/public/images/apps/223410/02d1b8ff65d240721534c26f8db7b0b8613ba5de.jpg"
  },
  {
    "name": "PACHI_SOCIAL_ADD",
    "defaultvalue": 0,
    "displayName": "Buddy up",
    "hidden": 0,
    "description": "Add a friend",
    "icon": "https://steamcdn-a.akamaihd.net/steamcommunity/public/images/apps/223410/f7eebc93f475c4af42a86224fe746bca3a44f0c5.jpg",
    "icongray": "https://steamcdn-a.akamaihd.net/steamcommunity/public/images/apps/223410/a7d7e8f437a42eceba8bed25f06dd25ec199fc31.jpg"
  },
  {
    "name": "PACHI_SPARKTELEPORT",
    "defaultvalue": 0,
    "displayName": "Take me home",
    "hidden": 0,
    "description": "Use the assignment return teleport",
    "icon": "https://steamcdn-a.akamaihd.net/steamcommunity/public/images/apps/223410/d884698b0dacbadf7c64dd2c465b307034007b96.jpg",
    "icongray": "https://steamcdn-a.akamaihd.net/steamcommunity/public/images/apps/223410/8470a87668c503ae1cd73ebb6da13ff83b1236d6.jpg"
  },
  {
    "name": "PACHI_SPARKCHANGE",
    "defaultvalue": 0,
    "displayName": "Spark of change",
    "hidden": 0,
    "description": "Install a new spark",
    "icon": "https://steamcdn-a.akamaihd.net/steamcommunity/public/images/apps/223410/6f4b21ae9146879b3fdbe99e8db570aaadb34cd0.jpg",
    "icongray": "https://steamcdn-a.akamaihd.net/steamcommunity/public/images/apps/223410/8c38ec527c9da0d51f5e0d414c49139013de3136.jpg"
  },
  {
    "name": "PACHI_PULLMEUNDER",
    "defaultvalue": 0,
    "displayName": "This world is spinning around me",
    "hidden": 1,
    "icon": "https://steamcdn-a.akamaihd.net/steamcommunity/public/images/apps/223410/3cd341c7691201393f9ba6c44934376ff0620ff2.jpg",
    "icongray": "https://steamcdn-a.akamaihd.net/steamcommunity/public/images/apps/223410/b0ebbbd850f9f99e8018dddf150069e15aee0700.jpg"
  },
  {
    "name": "PACHI_KILL_NPC_1",
    "defaultvalue": 0,
    "displayName": "I'm doing my part!",
    "hidden": 0,
    "description": "Kill an NPC",
    "icon": "https://steamcdn-a.akamaihd.net/steamcommunity/public/images/apps/223410/432e42d9dcda99e612f0ba1be0ad2f90204fec5e.jpg",
    "icongray": "https://steamcdn-a.akamaihd.net/steamcommunity/public/images/apps/223410/87bbda10de41da1b79f0c8b22829c9d8e1707bed.jpg"
  },
  {
    "name": "PACHI_KEEPTHECHANGE",
    "defaultvalue": 0,
    "displayName": "Keep the change, you filthy animal!",
    "hidden": 1,
    "icon": "https://steamcdn-a.akamaihd.net/steamcommunity/public/images/apps/223410/58d4961be7ab1bc26fae1ca8ce42691e57065d45.jpg",
    "icongray": "https://steamcdn-a.akamaihd.net/steamcommunity/public/images/apps/223410/7d7db272d36079a0fa5ee340a4215971dc65c303.jpg"
  },
  {
    "name": "PACHI_KILL_NPC_10",
    "defaultvalue": 0,
    "displayName": "Whac-A-Drone",
    "hidden": 0,
    "description": "Kill 10 NPCs",
    "icon": "https://steamcdn-a.akamaihd.net/steamcommunity/public/images/apps/223410/c891f7b361f6ee5bcb698fe6fbbfb74995d886fe.jpg",
    "icongray": "https://steamcdn-a.akamaihd.net/steamcommunity/public/images/apps/223410/d7bbd948f0dc89bf2c1bfb053e4981549632735f.jpg"
  },
  {
    "name": "PACHI_KILL_NPC_100",
    "defaultvalue": 0,
    "displayName": "Robo-shredder",
    "hidden": 0,
    "description": "Kill 100 NPCs",
    "icon": "https://steamcdn-a.akamaihd.net/steamcommunity/public/images/apps/223410/1e871d16203c9702f95649071b31167180f32498.jpg",
    "icongray": "https://steamcdn-a.akamaihd.net/steamcommunity/public/images/apps/223410/f36342054f23bc1f5bbf804d1063111a9cb6aa9d.jpg"
  },
  {
    "name": "PACHI_KILL_NPC_1000",
    "defaultvalue": 0,
    "displayName": "Major mechgrinder",
    "hidden": 0,
    "description": "Kill 1000 NPCs",
    "icon": "https://steamcdn-a.akamaihd.net/steamcommunity/public/images/apps/223410/943a52c068f45115048a1565e864f2708dc4691d.jpg",
    "icongray": "https://steamcdn-a.akamaihd.net/steamcommunity/public/images/apps/223410/001c0230ba524f124bfed18458e6ce6b773d4152.jpg"
  },
  {
    "name": "PACHI_GOTKILLED_NPC",
    "defaultvalue": 0,
    "displayName": "Met the locals",
    "hidden": 1,
    "icon": "https://steamcdn-a.akamaihd.net/steamcommunity/public/images/apps/223410/faedb83089d61da1d87a4484562b3661413bf8de.jpg",
    "icongray": "https://steamcdn-a.akamaihd.net/steamcommunity/public/images/apps/223410/99d25aeadbcc4b352f40ce997f1150f31a956287.jpg"
  },
  {
    "name": "PACHI_KILL_PLAYER_1",
    "defaultvalue": 0,
    "displayName": "First blood",
    "hidden": 0,
    "description": "Kill a player",
    "icon": "https://steamcdn-a.akamaihd.net/steamcommunity/public/images/apps/223410/aa090e702ceb0e3e82d6aa17765d78400a1d83f0.jpg",
    "icongray": "https://steamcdn-a.akamaihd.net/steamcommunity/public/images/apps/223410/44c71e9d65158905516e72212306479452a68654.jpg"
  },
  {
    "name": "PACHI_KILL_PLAYER_10",
    "defaultvalue": 0,
    "displayName": "Brawler",
    "hidden": 0,
    "description": "Get 10 PvP kills",
    "icon": "https://steamcdn-a.akamaihd.net/steamcommunity/public/images/apps/223410/fc48dbc42a0f6f27f8e2ae223a2cf0b04e809115.jpg",
    "icongray": "https://steamcdn-a.akamaihd.net/steamcommunity/public/images/apps/223410/8bf8f46c483512bde536ca25da4f3230d702a7c7.jpg"
  },
  {
    "name": "PACHI_KILL_PLAYER_100",
    "defaultvalue": 0,
    "displayName": "Master assassin",
    "hidden": 0,
    "description": "Get 100 PvP kills",
    "icon": "https://steamcdn-a.akamaihd.net/steamcommunity/public/images/apps/223410/0850b9662f900600d36c7d4350b41302c9655552.jpg",
    "icongray": "https://steamcdn-a.akamaihd.net/steamcommunity/public/images/apps/223410/f59997d331f8fa60a8ca1b108ba5fcef484bff9f.jpg"
  },
  {
    "name": "PACHI_KILL_PLAYER_1000",
    "defaultvalue": 0,
    "displayName": "Death incarnate",
    "hidden": 0,
    "description": "Get 1000 PvP kills",
    "icon": "https://steamcdn-a.akamaihd.net/steamcommunity/public/images/apps/223410/714edce3f97bc92ad94d216d89657e5ce68d85a7.jpg",
    "icongray": "https://steamcdn-a.akamaihd.net/steamcommunity/public/images/apps/223410/84256f4f17132d98b083dcf318367f53d45298cb.jpg"
  },
  {
    "name": "PACHI_GOTKILLED_PLAYER_1",
    "defaultvalue": 0,
    "displayName": "This calls for revenge",
    "hidden": 0,
    "description": "Get killed by another player",
    "icon": "https://steamcdn-a.akamaihd.net/steamcommunity/public/images/apps/223410/f036cfe1d3519fbce3682575dc10496c206880fb.jpg",
    "icongray": "https://steamcdn-a.akamaihd.net/steamcommunity/public/images/apps/223410/f80e64a8a5894b3b8f5c14c8d6ed4d02e4608845.jpg"
  },
  {
    "name": "PACHI_GOTKILLED_PLAYER_10",
    "defaultvalue": 0,
    "displayName": "This means war",
    "hidden": 0,
    "description": "Get killed by other players 10 times",
    "icon": "https://steamcdn-a.akamaihd.net/steamcommunity/public/images/apps/223410/982d3b04ac5a18b073adaf49c1b8ee0db2e6aed7.jpg",
    "icongray": "https://steamcdn-a.akamaihd.net/steamcommunity/public/images/apps/223410/b5e57c02347b21d524ca630a3284534a82267361.jpg"
  },
  {
    "name": "PACHI_GOTKILLED_PLAYER_100",
    "defaultvalue": 0,
    "displayName": "It doesn't even hurt anymore",
    "hidden": 0,
    "description": "Get killed by other players 100 times",
    "icon": "https://steamcdn-a.akamaihd.net/steamcommunity/public/images/apps/223410/928ec9f9c1cbb30859c349c2c106c2c62ef6dcde.jpg",
    "icongray": "https://steamcdn-a.akamaihd.net/steamcommunity/public/images/apps/223410/244aaafb8515dc2aca4b35f04fc0ef45bc166cb8.jpg"
  },
  {
    "name": "PACHI_KILL_PLAYER_ALPHA",
    "defaultvalue": 0,
    "displayName": "Murder in paradise",
    "hidden": 0,
    "description": "Kill another player on an Alpha island",
    "icon": "https://steamcdn-a.akamaihd.net/steamcommunity/public/images/apps/223410/49de6311b19f8e61a07c6723753d0fa10552f2a7.jpg",
    "icongray": "https://steamcdn-a.akamaihd.net/steamcommunity/public/images/apps/223410/c8e4b3a3545f5e10af02ba6b18f486006e2787d1.jpg"
  },
  {
    "name": "PACHI_MISSIONS_COMPLETE_1",
    "defaultvalue": 0,
    "displayName": "Reporting for duty",
    "hidden": 0,
    "description": "Complete an assignment",
    "icon": "https://steamcdn-a.akamaihd.net/steamcommunity/public/images/apps/223410/c7f22f6e02f86bfca8a67657a9d9585276bfa058.jpg",
    "icongray": "https://steamcdn-a.akamaihd.net/steamcommunity/public/images/apps/223410/c5c9e129733203342600487d850feb9c22279b93.jpg"
  },
  {
    "name": "PACHI_MISSIONS_COMPLETE_10",
    "defaultvalue": 0,
    "displayName": "Reliable associate",
    "hidden": 0,
    "description": "Complete 10 assignments",
    "icon": "https://steamcdn-a.akamaihd.net/steamcommunity/public/images/apps/223410/52125d6586e96ce26dc83fbed6aac49d7edcd41e.jpg",
    "icongray": "https://steamcdn-a.akamaihd.net/steamcommunity/public/images/apps/223410/23394b7bdf4407d072e16f861c3fa396790de4d7.jpg"
  },
  {
    "name": "PACHI_MISSIONS_COMPLETE_100",
    "defaultvalue": 0,
    "displayName": "Employee of the month",
    "hidden": 0,
    "description": "Complete 100 assignments",
    "icon": "https://steamcdn-a.akamaihd.net/steamcommunity/public/images/apps/223410/66080b74ea5adc3c74a0bf76a2299bc1aeb58241.jpg",
    "icongray": "https://steamcdn-a.akamaihd.net/steamcommunity/public/images/apps/223410/ddefb9d4979fe76ebfce3bac9ebc98fa3094f819.jpg"
  },
  {
    "name": "PACHI_MISSIONS_COMPLETE_1000",
    "defaultvalue": 0,
    "displayName": "Beyond expectations",
    "hidden": 0,
    "description": "Complete 1000 assignments",
    "icon": "https://steamcdn-a.akamaihd.net/steamcommunity/public/images/apps/223410/99db219bd1a17831c3a37206e2e2faf9317a44a3.jpg",
    "icongray": "https://steamcdn-a.akamaihd.net/steamcommunity/public/images/apps/223410/6ed012e4b07309f57c7215c289147443621777d3.jpg"
  },
  {
    "name": "PACHI_DOCK_BETA",
    "defaultvalue": 0,
    "displayName": "Risk taker",
    "hidden": 0,
    "description": "Enter a terminal on a Beta island",
    "icon": "https://steamcdn-a.akamaihd.net/steamcommunity/public/images/apps/223410/7b7357df6e08c3059d35272c452d793991300019.jpg",
    "icongray": "https://steamcdn-a.akamaihd.net/steamcommunity/public/images/apps/223410/91a91506c4af293e559dc532cd353548b62a93a6.jpg"
  },
  {
    "name": "PACHI_DOCK_GAMMA",
    "defaultvalue": 0,
    "displayName": "Frontier citizen",
    "hidden": 0,
    "description": "Enter a terminal on a Gamma island",
    "icon": "https://steamcdn-a.akamaihd.net/steamcommunity/public/images/apps/223410/ccd5118248b105be0c78fcccb60013145cd77b1f.jpg",
    "icongray": "https://steamcdn-a.akamaihd.net/steamcommunity/public/images/apps/223410/05c9144e5001793df0429aac2ffaae4a77d49578.jpg"
  },
  {
    "name": "PACHI_KILL_PLAYER_INDY",
    "defaultvalue": 0,
    "displayName": "Working class hero",
    "hidden": 0,
    "description": "Kill another player with an industrial robot",
    "icon": "https://steamcdn-a.akamaihd.net/steamcommunity/public/images/apps/223410/d0899e2498073621079dc7112d64dfbeed3d6fbd.jpg",
    "icongray": "https://steamcdn-a.akamaihd.net/steamcommunity/public/images/apps/223410/b184bdb366e2fee62a95cb355a9a39934488e0d8.jpg"
  },
  {
    "name": "PACHI_SQUAD_JOIN",
    "defaultvalue": 0,
    "displayName": "Wolfpack",
    "hidden": 0,
    "description": "Join a squad",
    "icon": "https://steamcdn-a.akamaihd.net/steamcommunity/public/images/apps/223410/caa5946575c19ff46b7e289d29647098873c06bc.jpg",
    "icongray": "https://steamcdn-a.akamaihd.net/steamcommunity/public/images/apps/223410/5177b11504e7e1affa278fe59b7b0e8f0556a374.jpg"
  },
  {
    "name": "PACHI_CORP_JOIN",
    "defaultvalue": 0,
    "displayName": "Cog in the machine",
    "hidden": 0,
    "description": "Join a corporation",
    "icon": "https://steamcdn-a.akamaihd.net/steamcommunity/public/images/apps/223410/e99ffaf654f65de488fa610b071872a75c45f794.jpg",
    "icongray": "https://steamcdn-a.akamaihd.net/steamcommunity/public/images/apps/223410/3ab65a78be550b0b3f11643170c6451af5fa421c.jpg"
  },
  {
    "name": "PACHI_GOTKILLED_INSURED",
    "defaultvalue": 0,
    "displayName": "It's covered, right?",
    "hidden": 0,
    "description": "Lose an insured robot",
    "icon": "https://steamcdn-a.akamaihd.net/steamcommunity/public/images/apps/223410/7b7aa4291f6d35bcc98240aeebabf024a7824be6.jpg",
    "icongray": "https://steamcdn-a.akamaihd.net/steamcommunity/public/images/apps/223410/9648a2612de9e879c78a28cf753e5c17e220d1b6.jpg"
  }
]