{
  "Dlcs": {},
  "Name": "Reflector: Bug Hunt",
  "AppId": "638780",
  "ImageUrl": "https://steamcdn-a.akamaihd.net/steam/apps/638780/header.jpg?t=1509864909",
  "Languages": [
    "english"
  ],
  "Platforms": {
    "windows": true,
    "mac": false,
    "linux": false
  }
}