﻿{
  "Dlcs": {},
  "Name": "Tower Wars",
  "AppId": "214360",
  "ImageUrl": "https://steamcdn-a.akamaihd.net/steam/apps/214360/header.jpg?t=1478044266",
  "Languages": [
    "english",
    "russian",
    "german"
  ],
  "Platforms": {
    "windows": true,
    "mac": true,
    "linux": false
  }
}