[
  {
    "name": "ACH_SYNC",
    "defaultvalue": 0,
    "displayName": "Synchronizer ",
    "hidden": 0,
    "description": "Get acquainted with the E-15P",
    "icon": "https://steamcdn-a.akamaihd.net/steamcommunity/public/images/apps/291690/380e0db345828fed5645c696d6cd6b6346cf9d7e.jpg",
    "icongray": "https://steamcdn-a.akamaihd.net/steamcommunity/public/images/apps/291690/a0c48fdd78b220c4b18c6601c2591f5ee4427837.jpg"
  },
  {
    "name": "ACH_TRAIN",
    "defaultvalue": 0,
    "displayName": "Last train out",
    "hidden": 1,
    "icon": "https://steamcdn-a.akamaihd.net/steamcommunity/public/images/apps/291690/e1c7ad1ff6ac2ebe6d6e7e6394c69d44e35fb2ac.jpg",
    "icongray": "https://steamcdn-a.akamaihd.net/steamcommunity/public/images/apps/291690/5cfd30c3a9eda27330f5c93c4fa43d880e29af1c.jpg"
  },
  {
    "name": "ACH_END",
    "defaultvalue": 0,
    "displayName": "The Reset",
    "hidden": 1,
    "icon": "https://steamcdn-a.akamaihd.net/steamcommunity/public/images/apps/291690/6a74908a053203e56791ea8c8584197cb05ca506.jpg",
    "icongray": "https://steamcdn-a.akamaihd.net/steamcommunity/public/images/apps/291690/f64de9d67c6526184b2ec9962347030d1ebac963.jpg"
  },
  {
    "name": "ACH_SPOTLIGHTS",
    "defaultvalue": 0,
    "displayName": "Fly-By-Night",
    "hidden": 0,
    "description": "Evade the searchlights",
    "icon": "https://steamcdn-a.akamaihd.net/steamcommunity/public/images/apps/291690/016c57c92791e9b575631dbd644dc35bc3cd89e8.jpg",
    "icongray": "https://steamcdn-a.akamaihd.net/steamcommunity/public/images/apps/291690/84928d8a08026be33f17e15b57fc29e6b3ff9717.jpg"
  },
  {
    "name": "ACH_REMEMBER",
    "defaultvalue": 0,
    "displayName": "I Remember",
    "hidden": 0,
    "description": "Find every optional memento",
    "icon": "https://steamcdn-a.akamaihd.net/steamcommunity/public/images/apps/291690/6349dc921c0e1100f0cdb469b1bf039c33fce43b.jpg",
    "icongray": "https://steamcdn-a.akamaihd.net/steamcommunity/public/images/apps/291690/0feff66c7cb1d496756a522261e5e7169ee88209.jpg"
  },
  {
    "name": "ACH_DOCUMENTS",
    "defaultvalue": 0,
    "displayName": "Down In Ink",
    "hidden": 0,
    "description": "Find every document",
    "icon": "https://steamcdn-a.akamaihd.net/steamcommunity/public/images/apps/291690/d62f09ddcdc51d53d8fc6434f412f7c7a24810bc.jpg",
    "icongray": "https://steamcdn-a.akamaihd.net/steamcommunity/public/images/apps/291690/c874aeae6924c5f6c2218bea383abee0e8d16dd9.jpg"
  },
  {
    "name": "ACH_JETS",
    "defaultvalue": 0,
    "displayName": "Dry Run",
    "hidden": 0,
    "description": "Evade the water jets in sewers",
    "icon": "https://steamcdn-a.akamaihd.net/steamcommunity/public/images/apps/291690/69042d89cbca060b26fa2b3b697aa70bbc6cf129.jpg",
    "icongray": "https://steamcdn-a.akamaihd.net/steamcommunity/public/images/apps/291690/4b9068eb17ac427c457d0e9dafc0e262a7bd67a9.jpg"
  },
  {
    "name": "ACH_CAROUSEL",
    "defaultvalue": 0,
    "displayName": "Roundabout",
    "hidden": 1,
    "icon": "https://steamcdn-a.akamaihd.net/steamcommunity/public/images/apps/291690/853b9cc9b022eeacf3e7888e201e01d8fdbc1de3.jpg",
    "icongray": "https://steamcdn-a.akamaihd.net/steamcommunity/public/images/apps/291690/cd32da4a68c7eed5c8a859d5b8947680d2980166.jpg"
  },
  {
    "name": "ACH_JOYCE",
    "defaultvalue": 0,
    "displayName": "The Fall ",
    "hidden": 1,
    "icon": "https://steamcdn-a.akamaihd.net/steamcommunity/public/images/apps/291690/7d231762f85c749aabbce26e97a7473b7cb3168b.jpg",
    "icongray": "https://steamcdn-a.akamaihd.net/steamcommunity/public/images/apps/291690/b7dab6aaea8bf2e65e4c9add3c9cd809277961a9.jpg"
  },
  {
    "name": "ACH_FALLING",
    "defaultvalue": 0,
    "displayName": "Chernosk City Parkour",
    "hidden": 1,
    "icon": "https://steamcdn-a.akamaihd.net/steamcommunity/public/images/apps/291690/6965bcbc3a41f017d19692c542348054fdb48ffe.jpg",
    "icongray": "https://steamcdn-a.akamaihd.net/steamcommunity/public/images/apps/291690/02e66aa794e03eb38ad2787cd1a5b3026497934a.jpg"
  },
  {
    "name": "ACH_PICNIC",
    "defaultvalue": 0,
    "displayName": "A Moment's Respite",
    "hidden": 0,
    "description": "Find the picnic spot",
    "icon": "https://steamcdn-a.akamaihd.net/steamcommunity/public/images/apps/291690/636260a3c5495d9dfa8f607e38b562eaa3ea4a43.jpg",
    "icongray": "https://steamcdn-a.akamaihd.net/steamcommunity/public/images/apps/291690/1f8ef2e1364de3708d7b5219893e2b67297824b6.jpg"
  },
  {
    "name": "ACH_WANDERLUST",
    "defaultvalue": 0,
    "displayName": "Wanderlust",
    "hidden": 1,
    "icon": "https://steamcdn-a.akamaihd.net/steamcommunity/public/images/apps/291690/692875b9d59a2d564754d07901f2d055663a8d6a.jpg",
    "icongray": "https://steamcdn-a.akamaihd.net/steamcommunity/public/images/apps/291690/8530f8c9b50584b16302afba8212ea6423960977.jpg"
  },
  {
    "name": "ACH_BUTTON",
    "defaultvalue": 0,
    "displayName": "Doomed to Repeat",
    "hidden": 1,
    "icon": "https://steamcdn-a.akamaihd.net/steamcommunity/public/images/apps/291690/b3fcb83acbc9d5ec535ea8f57ab64d7001c4f92c.jpg",
    "icongray": "https://steamcdn-a.akamaihd.net/steamcommunity/public/images/apps/291690/507acc11237eb28f57936668853c82a8c3e4566e.jpg"
  }
]