{
  "Dlcs": {
    "326300": {
      "Name": "Death Skid Marks Soundtrack",
      "ImageUrl": "https://steamcdn-a.akamaihd.net/steam/apps/326300/header.jpg?t=1447363966"
    }
  },
  "Name": "Death Skid Marks",
  "AppId": "326150",
  "ImageUrl": "https://steamcdn-a.akamaihd.net/steam/apps/326150/header.jpg?t=1558410123",
  "Languages": [
    "english"
  ],
  "Platforms": {
    "windows": true,
    "mac": false,
    "linux": false
  }
}