﻿[
  {
    "name": "SAVE_ALL_PHOBEKINS",
    "defaultvalue": 0,
    "displayName": "Nothing To Fear",
    "hidden": 0,
    "description": "Rescue all Phobekins",
    "icon": "https://steamcdn-a.akamaihd.net/steamcommunity/public/images/apps/764790/bf8852d0dbc3a3c41f2187b45672630f9f4e921d.jpg",
    "icongray": "https://steamcdn-a.akamaihd.net/steamcommunity/public/images/apps/764790/2df76ef58194eeb2e923dea7dd0ee66781aa9686.jpg"
  },
  {
    "name": "COMPLETE_INTRO",
    "defaultvalue": 0,
    "displayName": "Enter The Ninja",
    "hidden": 0,
    "description": "Beat the intro without dying",
    "icon": "https://steamcdn-a.akamaihd.net/steamcommunity/public/images/apps/764790/3536bd398dee4475d8b4c6012544655414288ef7.jpg",
    "icongray": "https://steamcdn-a.akamaihd.net/steamcommunity/public/images/apps/764790/821c1079ed8d7dc4a245295afbb95b51f89397c2.jpg"
  },
  {
    "name": "DEFEAT_RUXXTIN",
    "defaultvalue": 0,
    "displayName": "Dungeon Brawler",
    "hidden": 0,
    "description": "Defeat the Necromancer",
    "icon": "https://steamcdn-a.akamaihd.net/steamcommunity/public/images/apps/764790/bcac979e6c84fc3c56759751195a447869b99676.jpg",
    "icongray": "https://steamcdn-a.akamaihd.net/steamcommunity/public/images/apps/764790/9ee5ddde4ee6f8d9a4981906e2722d94da201ef8.jpg"
  },
  {
    "name": "BAMBOO_CREEK_WATERFALL",
    "defaultvalue": 0,
    "displayName": "Deposit At The River Bank",
    "hidden": 0,
    "description": "Jump down the big waterfall in Bamboo Creek",
    "icon": "https://steamcdn-a.akamaihd.net/steamcommunity/public/images/apps/764790/c8e6a1734929dfef126722a9146425a286439f06.jpg",
    "icongray": "https://steamcdn-a.akamaihd.net/steamcommunity/public/images/apps/764790/0502184b719bd568231f47fcffd3762ac823af10.jpg"
  },
  {
    "name": "DEFEAT_EMERALD_GOLEM",
    "defaultvalue": 0,
    "displayName": "My Bad!",
    "hidden": 0,
    "description": "Defeat the Emerald Golem",
    "icon": "https://steamcdn-a.akamaihd.net/steamcommunity/public/images/apps/764790/6329dadcfb64d50822d0ac35634afd13285b4cb8.jpg",
    "icongray": "https://steamcdn-a.akamaihd.net/steamcommunity/public/images/apps/764790/3a636c0b8f01aeaee09fefa73fff341ad9a39285.jpg"
  },
  {
    "name": "DEFEAT_QUEEN",
    "defaultvalue": 0,
    "displayName": "I Quill Survive",
    "hidden": 0,
    "description": "Defeat the Queen of Quills",
    "icon": "https://steamcdn-a.akamaihd.net/steamcommunity/public/images/apps/764790/5f5f67e923e1efeb8670d6b6e8d35b08e181c184.jpg",
    "icongray": "https://steamcdn-a.akamaihd.net/steamcommunity/public/images/apps/764790/47ff06554eb7bcb7df78932cf7e7255f3b4e7b04.jpg"
  },
  {
    "name": "DEFEAT_COLOS_SUSES",
    "defaultvalue": 0,
    "displayName": "Leg Day",
    "hidden": 0,
    "description": "Defeat Colos & Suses",
    "icon": "https://steamcdn-a.akamaihd.net/steamcommunity/public/images/apps/764790/70000192a0850f919eafcd92df15c10c89f5bc4a.jpg",
    "icongray": "https://steamcdn-a.akamaihd.net/steamcommunity/public/images/apps/764790/748584402c06ac6a178cc05e235cc579fda9a2fd.jpg"
  },
  {
    "name": "PHASE_IN_TOWER",
    "defaultvalue": 0,
    "displayName": "Glacial Peaked",
    "hidden": 0,
    "description": "Get to the top of the mountain",
    "icon": "https://steamcdn-a.akamaihd.net/steamcommunity/public/images/apps/764790/c3e6ab389de3c9bfd2c6f0fed8100f8aa3a7103c.jpg",
    "icongray": "https://steamcdn-a.akamaihd.net/steamcommunity/public/images/apps/764790/45c37f420d7d5f94215335f225a8cb85377932f6.jpg"
  },
  {
    "name": "DEFEAT_ARCANE_GOLEM",
    "defaultvalue": 0,
    "displayName": "Did The Thing",
    "hidden": 0,
    "description": "Defeat the Arcane Golem",
    "icon": "https://steamcdn-a.akamaihd.net/steamcommunity/public/images/apps/764790/76cfc75b91670ff8576638343fdbedb3a1668e86.jpg",
    "icongray": "https://steamcdn-a.akamaihd.net/steamcommunity/public/images/apps/764790/4783d8c7c8734259db712cd51d60aee6d2899b2b.jpg"
  },
  {
    "name": "ENTER_CLOUD_RUINS_16",
    "defaultvalue": 0,
    "displayName": "Sweet 16!",
    "hidden": 0,
    "description": "Time travel to the future",
    "icon": "https://steamcdn-a.akamaihd.net/steamcommunity/public/images/apps/764790/0e3eb25b9c29ecfce6265518c5e9cdc12c38eba8.jpg",
    "icongray": "https://steamcdn-a.akamaihd.net/steamcommunity/public/images/apps/764790/b8d357c3cf81c172926e1e641928e46bf7c9a8f5.jpg"
  },
  {
    "name": "DEFEAT_MANFRED",
    "defaultvalue": 0,
    "displayName": "Was That A Dragon?",
    "hidden": 0,
    "description": "Defeat the Sky Serpent",
    "icon": "https://steamcdn-a.akamaihd.net/steamcommunity/public/images/apps/764790/224686a781d20ce07288b745373742df6af41947.jpg",
    "icongray": "https://steamcdn-a.akamaihd.net/steamcommunity/public/images/apps/764790/3341946c15a556b1cc67c5717fad8ee4ecc7d54e.jpg"
  },
  {
    "name": "DEFEAT_DEMON_GENERAL",
    "defaultvalue": 0,
    "displayName": "More Like 'Dumb In General'",
    "hidden": 0,
    "description": "Defeat the Demon General",
    "icon": "https://steamcdn-a.akamaihd.net/steamcommunity/public/images/apps/764790/9968c69bf85befd71644bbf587a1fe51150b8e16.jpg",
    "icongray": "https://steamcdn-a.akamaihd.net/steamcommunity/public/images/apps/764790/ce6a09f139abe56f08aba912a89b7a80423ac233.jpg"
  },
  {
    "name": "QUEST_2_BEGINING",
    "defaultvalue": 0,
    "displayName": "Man's Best Fred",
    "hidden": 0,
    "description": "Ride Manfred around the world back to where it all started",
    "icon": "https://steamcdn-a.akamaihd.net/steamcommunity/public/images/apps/764790/84dc1a34c2c19313ac127ac75e1be8dbfc38d178.jpg",
    "icongray": "https://steamcdn-a.akamaihd.net/steamcommunity/public/images/apps/764790/f128c6574e8019964a7993b77d377751dbbdf4f7.jpg"
  },
  {
    "name": "DEFEAT_LOST_WOODS",
    "defaultvalue": 0,
    "displayName": "Hear Today, Gone Tomorrow",
    "hidden": 0,
    "description": "Make it out of the underwater labyrinth",
    "icon": "https://steamcdn-a.akamaihd.net/steamcommunity/public/images/apps/764790/fa5a6ad985f3ea3e1c2a59d0509912062212b70f.jpg",
    "icongray": "https://steamcdn-a.akamaihd.net/steamcommunity/public/images/apps/764790/f5e111b4c1c2043ce77f4f71d2504505217dde68.jpg"
  },
  {
    "name": "USE_THREE_BARREL_PLANTS",
    "defaultvalue": 0,
    "displayName": "Tumble Hijinx",
    "hidden": 0,
    "description": "Bump on a few flowers in Rivière Turquoise",
    "icon": "https://steamcdn-a.akamaihd.net/steamcommunity/public/images/apps/764790/0e93532fb63fb572fe4eb446cc1fddb96bbfc3a5.jpg",
    "icongray": "https://steamcdn-a.akamaihd.net/steamcommunity/public/images/apps/764790/bf569702a3e42fe1c7839ab3171d8e0888171aff.jpg"
  },
  {
    "name": "RUN_ON_LAVA",
    "defaultvalue": 0,
    "displayName": "The Lava Is Floor",
    "hidden": 0,
    "description": "Run on lava",
    "icon": "https://steamcdn-a.akamaihd.net/steamcommunity/public/images/apps/764790/e0072716fffef2d5650f31f55387948e41daad57.jpg",
    "icongray": "https://steamcdn-a.akamaihd.net/steamcommunity/public/images/apps/764790/5034267d8d825747a5d5fd610ebd1deba230de8e.jpg"
  },
  {
    "name": "DEFEAT_DEMON_KING",
    "defaultvalue": 0,
    "displayName": "Not With THAT Altitude",
    "hidden": 0,
    "description": "Defeat the Demon King",
    "icon": "https://steamcdn-a.akamaihd.net/steamcommunity/public/images/apps/764790/e46c342943fc34b18f4237941bfd3e24c00f1fa2.jpg",
    "icongray": "https://steamcdn-a.akamaihd.net/steamcommunity/public/images/apps/764790/caa42b07f575ca284833dad898b1fb2887cd5f77.jpg"
  },
  {
    "name": "COMPLETE_ELEMENTAL_SKYLANDS",
    "defaultvalue": 0,
    "displayName": "More like EleMENTAL Skylands",
    "hidden": 0,
    "description": "Complete the Elemental Skylands scenario",
    "icon": "https://steamcdn-a.akamaihd.net/steamcommunity/public/images/apps/764790/4ab186407b5d23baaeb9fc41947a4b129ecd31bd.jpg",
    "icongray": "https://steamcdn-a.akamaihd.net/steamcommunity/public/images/apps/764790/0ea50f76bb8d79a45081bc4a440d332e96684a25.jpg"
  },
  {
    "name": "CLEAR_CORRUPTED_FUTURE",
    "defaultvalue": 0,
    "displayName": "Well, That Was Unsightly",
    "hidden": 0,
    "description": "Survive the Corrupted Future chase",
    "icon": "https://steamcdn-a.akamaihd.net/steamcommunity/public/images/apps/764790/7917c944c69f1339ce13b47c0b0c58a6b08564c2.jpg",
    "icongray": "https://steamcdn-a.akamaihd.net/steamcommunity/public/images/apps/764790/1a506bccdee2c5c3278937d85c1b62cfa0d527d9.jpg"
  },
  {
    "name": "GET_KEY_OV_LOVE",
    "defaultvalue": 0,
    "displayName": "Sun And Moon",
    "hidden": 0,
    "description": "Receive the Key of Love",
    "icon": "https://steamcdn-a.akamaihd.net/steamcommunity/public/images/apps/764790/7f68ad884319f764f7270248847e51258df4b377.jpg",
    "icongray": "https://steamcdn-a.akamaihd.net/steamcommunity/public/images/apps/764790/c87679fab5f281ff85510942cb72d93eb88f3aed.jpg"
  },
  {
    "name": "DROP_ALL_NOTES",
    "defaultvalue": 0,
    "displayName": "It Sounds Better On Vinyl",
    "hidden": 0,
    "description": "Complete the Melody",
    "icon": "https://steamcdn-a.akamaihd.net/steamcommunity/public/images/apps/764790/15032e8983690c12da2ea8d3af255aa3a8a93180.jpg",
    "icongray": "https://steamcdn-a.akamaihd.net/steamcommunity/public/images/apps/764790/e8da9c554a8a178b7d948d7cb8dfd19077f31db5.jpg"
  },
  {
    "name": "DEFEAT_PHANTOM",
    "defaultvalue": 0,
    "displayName": "I'm Your Biggest Phan",
    "hidden": 0,
    "description": "Defeat Phantom",
    "icon": "https://steamcdn-a.akamaihd.net/steamcommunity/public/images/apps/764790/4e95a65e4e458b52c570b3fb872030530e71ae2a.jpg",
    "icongray": "https://steamcdn-a.akamaihd.net/steamcommunity/public/images/apps/764790/790a30d5455c9e0207f2cff485609c96677ec651.jpg"
  },
  {
    "name": "BEAT_THE_GAME",
    "defaultvalue": 0,
    "displayName": "The Fake Ending Was Better",
    "hidden": 0,
    "description": "Beat the game",
    "icon": "https://steamcdn-a.akamaihd.net/steamcommunity/public/images/apps/764790/095cce7534507f963f2a4286d9872f6cedf6c356.jpg",
    "icongray": "https://steamcdn-a.akamaihd.net/steamcommunity/public/images/apps/764790/95ecf50c65834c47f4a95c5f0e67ecd8d59d1d05.jpg"
  },
  {
    "name": "BUY_5_UPGRADES",
    "defaultvalue": 0,
    "displayName": "Losing Weight, Gaining Ground",
    "hidden": 0,
    "description": "Buy five upgrades in the shop",
    "icon": "https://steamcdn-a.akamaihd.net/steamcommunity/public/images/apps/764790/6607a99f4e30394dfc66023e6c0f87f7fa173b28.jpg",
    "icongray": "https://steamcdn-a.akamaihd.net/steamcommunity/public/images/apps/764790/f662d32fecfd93afe6e7240dc113c7570af769af.jpg"
  },
  {
    "name": "DESTROY_MEGA_TIMESHARD",
    "defaultvalue": 0,
    "displayName": "Be Lootful And Multiply",
    "hidden": 0,
    "description": "Destroy a Big Time Shard",
    "icon": "https://steamcdn-a.akamaihd.net/steamcommunity/public/images/apps/764790/83fc8055b20644c3759a551dda0851026fd73502.jpg",
    "icongray": "https://steamcdn-a.akamaihd.net/steamcommunity/public/images/apps/764790/527fafdb3d9e89542522188e328b2e3da03b9194.jpg"
  },
  {
    "name": "CLOUDSTEP_10_TIMES",
    "defaultvalue": 0,
    "displayName": "Walking On Air",
    "hidden": 0,
    "description": "Execute 15 Cloudsteps without landing or clinging to a wall",
    "icon": "https://steamcdn-a.akamaihd.net/steamcommunity/public/images/apps/764790/d8566637cabf421e95158ac25dba4ab6aaa7b140.jpg",
    "icongray": "https://steamcdn-a.akamaihd.net/steamcommunity/public/images/apps/764790/5f52b5632cc860ad8a8b34fd499efc9dac8ac87e.jpg"
  },
  {
    "name": "DARK_CAVE_NO_CANDLE",
    "defaultvalue": 0,
    "displayName": "I Swear It's My First Time",
    "hidden": 0,
    "description": "Make it through Dark Cave without the 'Power of True Sight'",
    "icon": "https://steamcdn-a.akamaihd.net/steamcommunity/public/images/apps/764790/ac184b1f2a59b71677385507e7e09fec25283682.jpg",
    "icongray": "https://steamcdn-a.akamaihd.net/steamcommunity/public/images/apps/764790/1e5fad0ff0b4238b1f5390af952a7944c6789089.jpg"
  },
  {
    "name": "COLLECT_POWER_SEAL",
    "defaultvalue": 0,
    "displayName": "Challenge Expected",
    "hidden": 0,
    "description": "Destroy your first Power Seal",
    "icon": "https://steamcdn-a.akamaihd.net/steamcommunity/public/images/apps/764790/eb7272d1a0d30d87d4ed12f334c79e5a5adf06d9.jpg",
    "icongray": "https://steamcdn-a.akamaihd.net/steamcommunity/public/images/apps/764790/0e121ef783baeb3a49144679b0c50e8e9e6d1fe0.jpg"
  },
  {
    "name": "COLLECT_ALL_POWER_SEAL",
    "defaultvalue": 0,
    "displayName": "Wheelin' And Sealin'",
    "hidden": 0,
    "description": "Destroy all Power Seals",
    "icon": "https://steamcdn-a.akamaihd.net/steamcommunity/public/images/apps/764790/26e865d6601a3bba6996c6d1442f55fc9f1654e4.jpg",
    "icongray": "https://steamcdn-a.akamaihd.net/steamcommunity/public/images/apps/764790/47f097e98f15c0e990649faa98ffbfea79e49328.jpg"
  },
  {
    "name": "BUY_ALL_UPGRADES",
    "defaultvalue": 0,
    "displayName": "Started From The Bottom",
    "hidden": 0,
    "description": "Buy all upgrades from the shop",
    "icon": "https://steamcdn-a.akamaihd.net/steamcommunity/public/images/apps/764790/c432ca8ff6ea3a1392c03e8cd0c738b58993e89e.jpg",
    "icongray": "https://steamcdn-a.akamaihd.net/steamcommunity/public/images/apps/764790/4fbc20a795fee257aec1e97d92e1ae718f3c4d8d.jpg"
  },
  {
    "name": "DISCOVER_EVERY_ROOMS",
    "defaultvalue": 0,
    "displayName": "I've Been Around",
    "hidden": 0,
    "description": "Enter all areas of the world",
    "icon": "https://steamcdn-a.akamaihd.net/steamcommunity/public/images/apps/764790/43c1ef08584c9868b9b5cca8211c551617e11b5c.jpg",
    "icongray": "https://steamcdn-a.akamaihd.net/steamcommunity/public/images/apps/764790/a6337e0f7d70a3423560eacb6424f29465beb198.jpg"
  },
  {
    "name": "MEET_QUARBLE",
    "defaultvalue": 0,
    "displayName": "Eye Of The Shareholder",
    "hidden": 0,
    "description": "Meet Quarble",
    "icon": "https://steamcdn-a.akamaihd.net/steamcommunity/public/images/apps/764790/731cda059a0e4dd64ff797be0e7df8f18ef8dace.jpg",
    "icongray": "https://steamcdn-a.akamaihd.net/steamcommunity/public/images/apps/764790/9125c8a18b64747791bac3f6c95ff737ad753ed1.jpg"
  },
  {
    "name": "FIRST_CABINET_RANT",
    "defaultvalue": 0,
    "displayName": "Fine, I Won't Open It",
    "hidden": 0,
    "description": "Be lectured on happiness",
    "icon": "https://steamcdn-a.akamaihd.net/steamcommunity/public/images/apps/764790/213e27a418390ac1115378996b44ec84f21ad5ee.jpg",
    "icongray": "https://steamcdn-a.akamaihd.net/steamcommunity/public/images/apps/764790/37197ce30172c9bfe1d43b3e67e30a461236e676.jpg"
  },
  {
    "name": "SECOND_CABINET_RANT",
    "defaultvalue": 0,
    "displayName": "Bait Taken",
    "hidden": 0,
    "description": "Be lectured on the power of stories",
    "icon": "https://steamcdn-a.akamaihd.net/steamcommunity/public/images/apps/764790/f3cbff0a9b8b4afca9ca2cbd7c97a21e895767b1.jpg",
    "icongray": "https://steamcdn-a.akamaihd.net/steamcommunity/public/images/apps/764790/251442780fdb17533e96a4891b20ba3309825348.jpg"
  },
  {
    "name": "THIRD_CABINET_RANT",
    "defaultvalue": 0,
    "displayName": "You Said This Was A Platformer",
    "hidden": 0,
    "description": "Be lectured on the inner child",
    "icon": "https://steamcdn-a.akamaihd.net/steamcommunity/public/images/apps/764790/696eee3bf019c649ead7ff83aa944ab56f890d94.jpg",
    "icongray": "https://steamcdn-a.akamaihd.net/steamcommunity/public/images/apps/764790/4ee60f43a2bcc97bec32303d55f714f38c5f2283.jpg"
  },
  {
    "name": "BUY_SWIM_DASH",
    "defaultvalue": 0,
    "displayName": "Hope This Phelps",
    "hidden": 0,
    "description": "Buy the Swim Dash upgrade from the shop",
    "icon": "https://steamcdn-a.akamaihd.net/steamcommunity/public/images/apps/764790/0b2235199210c073c4bbf911771ee7cf315c9391.jpg",
    "icongray": "https://steamcdn-a.akamaihd.net/steamcommunity/public/images/apps/764790/63afdb73fa35e1320f1427001090c556a032a73a.jpg"
  },
  {
    "name": "ONE_SHOT_GREEN_KAPPA",
    "defaultvalue": 0,
    "displayName": "One Hit Wonder",
    "hidden": 0,
    "description": "Kill a green demon in a single hit",
    "icon": "https://steamcdn-a.akamaihd.net/steamcommunity/public/images/apps/764790/cf7a23eae5a40cf6beb5d3a614683495197bdb7d.jpg",
    "icongray": "https://steamcdn-a.akamaihd.net/steamcommunity/public/images/apps/764790/6d5428a1abab5e5065c532ccb6015dbcdb49ff3d.jpg"
  },
  {
    "name": "DODGE_WINDMILL_SHURIKEN",
    "defaultvalue": 0,
    "displayName": "Welco Metot Henex Tlevel",
    "hidden": 0,
    "description": "Keep a windmill shuriken going for 15 seconds",
    "icon": "https://steamcdn-a.akamaihd.net/steamcommunity/public/images/apps/764790/5ec499b5848399da15950d63e09ad052ea5bed03.jpg",
    "icongray": "https://steamcdn-a.akamaihd.net/steamcommunity/public/images/apps/764790/89f4c350cdf9b33eec4c965bc5811d615d9ce67b.jpg"
  },
  {
    "name": "NO_DEATH_QUEEN",
    "defaultvalue": 0,
    "displayName": "No Argument Here",
    "hidden": 0,
    "description": "Make it from the beginning of the game to beating the Queen of Quills with zero deaths",
    "icon": "https://steamcdn-a.akamaihd.net/steamcommunity/public/images/apps/764790/aab021e18a37d00660b09bfb46329d2214d43aea.jpg",
    "icongray": "https://steamcdn-a.akamaihd.net/steamcommunity/public/images/apps/764790/dc612800e5ca3a86e81c0a9cc71fad7ae4baf904.jpg"
  },
  {
    "name": "FIRST_PROJECTILE_ATTACK",
    "defaultvalue": 0,
    "displayName": "How Ninja Is That?",
    "hidden": 0,
    "description": "Attack your first enemy projectile",
    "icon": "https://steamcdn-a.akamaihd.net/steamcommunity/public/images/apps/764790/cafb0a7e57405db5b09926c368ecd6404a7eb685.jpg",
    "icongray": "https://steamcdn-a.akamaihd.net/steamcommunity/public/images/apps/764790/8a5853914057bebc105f7e37d478ff45d2f2fa05.jpg"
  },
  {
    "name": "DEFEAT_OCTO",
    "defaultvalue": 0,
    "displayName": "Rocked Opus",
    "hidden": 0,
    "description": "Defeat Octo",
    "icon": "https://steamcdn-a.akamaihd.net/steamcommunity/public/images/apps/764790/3f56d02d7b01566c58a6e4579a4651976389471b.jpg",
    "icongray": "https://steamcdn-a.akamaihd.net/steamcommunity/public/images/apps/764790/137ac2e84629051e70b256897aafa90725ed30b9.jpg"
  },
  {
    "name": "DEFEAT_TOTEM",
    "defaultvalue": 0,
    "displayName": "Voodoo Told'em",
    "hidden": 0,
    "description": "Defeat the Voodoo Totem",
    "icon": "https://steamcdn-a.akamaihd.net/steamcommunity/public/images/apps/764790/58e9b1c1d87f937d75e4b5d19441212962f5df1d.jpg",
    "icongray": "https://steamcdn-a.akamaihd.net/steamcommunity/public/images/apps/764790/130c11382a971d967275a9a080dfd7c29907adb2.jpg"
  },
  {
    "name": "DEFEAT_PUNCH_OUT",
    "defaultvalue": 0,
    "displayName": "Now THAT'S a finale!",
    "hidden": 0,
    "description": "Defeat the Demon General... again",
    "icon": "https://steamcdn-a.akamaihd.net/steamcommunity/public/images/apps/764790/8b2a06557645078a8ce3170eae0b2031378a55c5.jpg",
    "icongray": "https://steamcdn-a.akamaihd.net/steamcommunity/public/images/apps/764790/9b418d403e986954c2f0399940b49a5fc53e15f0.jpg"
  },
  {
    "name": "PERFECT_RACE",
    "defaultvalue": 0,
    "displayName": "Star Messenger",
    "hidden": 0,
    "description": "Win the race with a perfect score",
    "icon": "https://steamcdn-a.akamaihd.net/steamcommunity/public/images/apps/764790/01eff54cff8108b102ac0643b7d27567a1ea2622.jpg",
    "icongray": "https://steamcdn-a.akamaihd.net/steamcommunity/public/images/apps/764790/2464fc8a88a525b75b24d0df2efff61ba454b7e0.jpg"
  },
  {
    "name": "BUY_TOY",
    "defaultvalue": 0,
    "displayName": "Betcha can't buy just one",
    "hidden": 0,
    "description": "Make your first purchase at the Craftman's Corner",
    "icon": "https://steamcdn-a.akamaihd.net/steamcommunity/public/images/apps/764790/b32bb3921ffc36c45703fba02e4777a340afe7f1.jpg",
    "icongray": "https://steamcdn-a.akamaihd.net/steamcommunity/public/images/apps/764790/d926bcd1918c65d71a65b59088c8333201723cd8.jpg"
  },
  {
    "name": "UNLOCK_MASK",
    "defaultvalue": 0,
    "displayName": "Thanks I hate it",
    "hidden": 0,
    "description": "Meet the voodoo mask",
    "icon": "https://steamcdn-a.akamaihd.net/steamcommunity/public/images/apps/764790/a772b9fbf5ef287a33cb70f42c3321470c288f94.jpg",
    "icongray": "https://steamcdn-a.akamaihd.net/steamcommunity/public/images/apps/764790/339803b64b9d2e4fb5cfead61bdf7c3b37d9ca45.jpg"
  },
  {
    "name": "UNCLOG_SINK",
    "defaultvalue": 0,
    "displayName": "Sunk Cost",
    "hidden": 0,
    "description": "Unclog the Money Sink",
    "icon": "https://steamcdn-a.akamaihd.net/steamcommunity/public/images/apps/764790/34be0006dc7f6d1306038408a71c5edcaf2ac391.jpg",
    "icongray": "https://steamcdn-a.akamaihd.net/steamcommunity/public/images/apps/764790/6143af8ecae8e9f9e5d8726f795f474bb2481e86.jpg"
  },
  {
    "name": "DO_THE_DEAL",
    "defaultvalue": 0,
    "displayName": "All in",
    "hidden": 0,
    "description": "Accept 'THE DEAL'",
    "icon": "https://steamcdn-a.akamaihd.net/steamcommunity/public/images/apps/764790/644e94122e1e9a150b759d998a129b6b9a6159f5.jpg",
    "icongray": "https://steamcdn-a.akamaihd.net/steamcommunity/public/images/apps/764790/52130917f24cd6dabfb52ae299812e6d4d3f8919.jpg"
  }
]