{
  "Dlcs": {
    "1126380": {
      "Name": "Sausage Sports Club - Soundtrack",
      "ImageUrl": "https://steamcdn-a.akamaihd.net/steam/apps/1126380/header.jpg?t=1563562676"
    }
  },
  "Name": "Sausage Sports Club",
  "AppId": "574120",
  "ImageUrl": "https://steamcdn-a.akamaihd.net/steam/apps/574120/header.jpg?t=1574351886",
  "Languages": [
    "english"
  ],
  "Platforms": {
    "windows": true,
    "mac": true,
    "linux": false
  }
}