﻿[
  {
    "name": "ACHIEVEMENT_HOLE_IN_ONE",
    "defaultvalue": 0,
    "displayName": "Donut Hole in One",
    "hidden": 0,
    "description": "Jump through a big donut",
    "icon": "https://steamcdn-a.akamaihd.net/steamcommunity/public/images/apps/821890/e8aab488ef10cd8fcfa7e0e5dcf6b846d48a4021.jpg",
    "icongray": "https://steamcdn-a.akamaihd.net/steamcommunity/public/images/apps/821890/69d8907129199b07bd5b4dacdd4f2a2687db696e.jpg"
  },
  {
    "name": "ACHIEVEMENT_ATTACK_THE_LIGHT",
    "defaultvalue": 0,
    "displayName": "Attack the Light",
    "hidden": 0,
    "description": "Defeat 100 Light Constructs",
    "icon": "https://steamcdn-a.akamaihd.net/steamcommunity/public/images/apps/821890/66c1b88cb7c4fb90d2c512c7e0c67e273c7666c7.jpg",
    "icongray": "https://steamcdn-a.akamaihd.net/steamcommunity/public/images/apps/821890/05d4dcc290e638378d34a7a03fb9c415de068940.jpg"
  },
  {
    "name": "ACHIEVEMENT_PERFECT_TEN",
    "defaultvalue": 0,
    "displayName": "Perfect Ten",
    "hidden": 0,
    "description": "Perform 10 Perfect blocks in a row",
    "icon": "https://steamcdn-a.akamaihd.net/steamcommunity/public/images/apps/821890/d41745e95bb5e7ab944cc8ca8e6b2f56a7e1e8cc.jpg",
    "icongray": "https://steamcdn-a.akamaihd.net/steamcommunity/public/images/apps/821890/ddc1cd9082ac7325db9bf337f8e20256c22c2672.jpg"
  },
  {
    "name": "ACHIEVEMENT_SOMEBODY_PERFECT",
    "defaultvalue": 0,
    "displayName": "Somebody's Perfect",
    "hidden": 0,
    "description": "Perform 10 Perfect attacks in a row",
    "icon": "https://steamcdn-a.akamaihd.net/steamcommunity/public/images/apps/821890/99ffa6e94f8f7e574be89c3f03085e4f373dd4c8.jpg",
    "icongray": "https://steamcdn-a.akamaihd.net/steamcommunity/public/images/apps/821890/256aa816ac8f2bbdeb0086ff66d80119dd8d69b1.jpg"
  },
  {
    "name": "ACHIEVEMENT_DELIVERY_BOY",
    "defaultvalue": 0,
    "displayName": "Delivery Boy",
    "hidden": 0,
    "description": "Complete all the Fish Stew Pizza deliveries",
    "icon": "https://steamcdn-a.akamaihd.net/steamcommunity/public/images/apps/821890/29a3860887d6026c4c64337054b87a62e1d6f64c.jpg",
    "icongray": "https://steamcdn-a.akamaihd.net/steamcommunity/public/images/apps/821890/ebb36a419aad4d331ab059abdaf616d5dbf324ab.jpg"
  },
  {
    "name": "ACHIEVEMENT_WORK_OF_ART",
    "defaultvalue": 0,
    "displayName": "Work of Art",
    "hidden": 0,
    "description": "Help Vidalia finish her masterpiece",
    "icon": "https://steamcdn-a.akamaihd.net/steamcommunity/public/images/apps/821890/c9634bbcbd42624262e9f74ec2faae1588c98725.jpg",
    "icongray": "https://steamcdn-a.akamaihd.net/steamcommunity/public/images/apps/821890/d03b8c9aab3150fa3e82048ee294360b708c1385.jpg"
  },
  {
    "name": "ACHIEVEMENT_FUTURE_BOY_VOLRTON",
    "defaultvalue": 0,
    "displayName": "Future Boy Boltron",
    "hidden": 0,
    "description": "Receive every fortune from BOLTRON: SON OF ZOLTRON",
    "icon": "https://steamcdn-a.akamaihd.net/steamcommunity/public/images/apps/821890/27e434a383946802773e9a3e188e3fc83cb35b68.jpg",
    "icongray": "https://steamcdn-a.akamaihd.net/steamcommunity/public/images/apps/821890/ae2e4ae3f5fba54a86713dbda105e0ccb46fed6a.jpg"
  },
  {
    "name": "ACHIEVEMENT_BOSS_BEATER_UPPERS",
    "defaultvalue": 0,
    "displayName": "Boss Beater-Uppers",
    "hidden": 0,
    "description": "Defeat any boss without letting any party members be defeated",
    "icon": "https://steamcdn-a.akamaihd.net/steamcommunity/public/images/apps/821890/a1584f50d0db725028a5e294612a9b100b20a1e1.jpg",
    "icongray": "https://steamcdn-a.akamaihd.net/steamcommunity/public/images/apps/821890/ca6438116ed31e3e04d246b7e89383ba9a0ad454.jpg"
  },
  {
    "name": "ACHIEVEMENT_TRIFECTA",
    "defaultvalue": 0,
    "displayName": "Trifecta",
    "hidden": 0,
    "description": "Defeat three enemies with a single attack",
    "icon": "https://steamcdn-a.akamaihd.net/steamcommunity/public/images/apps/821890/387a8f407bc662c788d9dfa11361c7d362a9d12c.jpg",
    "icongray": "https://steamcdn-a.akamaihd.net/steamcommunity/public/images/apps/821890/03a360554fae1b797f00e09f9a4d8a9a40061880.jpg"
  },
  {
    "name": "ACHIEVEMENT_POW",
    "defaultvalue": 0,
    "displayName": "POW!!!",
    "hidden": 0,
    "description": "Deliver over 100 damage with one ability",
    "icon": "https://steamcdn-a.akamaihd.net/steamcommunity/public/images/apps/821890/bffc7e7616df390c043cab8584ef38dabe57ba38.jpg",
    "icongray": "https://steamcdn-a.akamaihd.net/steamcommunity/public/images/apps/821890/ebf053cbe5abfd99408057ce8019c92db5737154.jpg"
  },
  {
    "name": "ACHIEVEMENT_TEAM_BUILDING_EXERCISE",
    "defaultvalue": 0,
    "displayName": "Team Building Exercise",
    "hidden": 0,
    "description": "Perform every fusion and team attack",
    "icon": "https://steamcdn-a.akamaihd.net/steamcommunity/public/images/apps/821890/fed69002d37729f38fe93193739b6290658b298b.jpg",
    "icongray": "https://steamcdn-a.akamaihd.net/steamcommunity/public/images/apps/821890/b26382671ac131172857a05c0f6bb35f0225f445.jpg"
  },
  {
    "name": "ACHIEVEMENT_IS_THIS_CANON",
    "defaultvalue": 0,
    "displayName": "Is This Canon?",
    "hidden": 0,
    "description": "Experience an alternate sequence of events...",
    "icon": "https://steamcdn-a.akamaihd.net/steamcommunity/public/images/apps/821890/a16b8bdcc4c03ff9b70d7d8c9dcfa40e0a63ab3e.jpg",
    "icongray": "https://steamcdn-a.akamaihd.net/steamcommunity/public/images/apps/821890/9e4671eb556336c07654ce40f7a646a8e15e7de7.jpg"
  },
  {
    "name": "ACHIEVEMENT_WE_ALWAYS_SAVE_THE_DAY",
    "defaultvalue": 0,
    "displayName": "We Always Save the Day",
    "hidden": 0,
    "description": "Save Light Steven and the Prism",
    "icon": "https://steamcdn-a.akamaihd.net/steamcommunity/public/images/apps/821890/df73b7df5f3b636f5a26b32ac5d22c8393e176b5.jpg",
    "icongray": "https://steamcdn-a.akamaihd.net/steamcommunity/public/images/apps/821890/a35f1f8ec4d75ef231fa622db0512f86037dd36e.jpg"
  },
  {
    "name": "ACHIEVEMENT_BEST_CASE_SCENARIO",
    "defaultvalue": 0,
    "displayName": "Best Case Scenario",
    "hidden": 0,
    "description": "Win the fight and then go out for pizzas!",
    "icon": "https://steamcdn-a.akamaihd.net/steamcommunity/public/images/apps/821890/5c6dabf0c2bbe0bc51dc45d3fd1dab0cfa07bc5b.jpg",
    "icongray": "https://steamcdn-a.akamaihd.net/steamcommunity/public/images/apps/821890/960a713cac9d3c8403c95a8c4154270e4c4ee270.jpg"
  },
  {
    "name": "ACHIEVEMENT_LIL_DUDES",
    "defaultvalue": 0,
    "displayName": "Lil' Dudes",
    "hidden": 0,
    "description": "Recover every Lil' Light Steven",
    "icon": "https://steamcdn-a.akamaihd.net/steamcommunity/public/images/apps/821890/752a743ef43d85b71319fdd30cf16e3104ba8622.jpg",
    "icongray": "https://steamcdn-a.akamaihd.net/steamcommunity/public/images/apps/821890/7aff99d81b7fcaba68e873724e0142d764cf6eeb.jpg"
  },
  {
    "name": "ACHIEVEMENT_BACK_IN_BISMUTH",
    "defaultvalue": 0,
    "displayName": "Back in Bismuth",
    "hidden": 0,
    "description": "Fully upgrade all weapons at The Forge",
    "icon": "https://steamcdn-a.akamaihd.net/steamcommunity/public/images/apps/821890/d16163894ccd121984c1eaf16cb238cfe692729f.jpg",
    "icongray": "https://steamcdn-a.akamaihd.net/steamcommunity/public/images/apps/821890/c0d73eca7e933c73ab8ff22d13c3ee132df020bc.jpg"
  },
  {
    "name": "ACHIEVEMENT_CRYING_BREAKFAST_FRIEND",
    "defaultvalue": 0,
    "displayName": "Crying Breakfast Friend",
    "hidden": 0,
    "description": "Defeat any boss while wearing the CBF Badge",
    "icon": "https://steamcdn-a.akamaihd.net/steamcommunity/public/images/apps/821890/518951e12e5aae5cf2ea4204745ac1c09866b82c.jpg",
    "icongray": "https://steamcdn-a.akamaihd.net/steamcommunity/public/images/apps/821890/a7f34dc7a85714d750d4864b4fbbdebeb8b0fef0.jpg"
  },
  {
    "name": "ACHIEVEMENT_ADVENTURE_IS_OUT_THERE",
    "defaultvalue": 0,
    "displayName": "Adventure is Out There",
    "hidden": 0,
    "description": "Travel to every zone",
    "icon": "https://steamcdn-a.akamaihd.net/steamcommunity/public/images/apps/821890/ebb5d4a707b04a3ba9c15bab6de6e2fbe3e5d8ae.jpg",
    "icongray": "https://steamcdn-a.akamaihd.net/steamcommunity/public/images/apps/821890/55c372ac85d8b5c6ec19d23d94fd47a96ab958f1.jpg"
  },
  {
    "name": "ACHIEVEMENT_PERFECT_PORKCHOP",
    "defaultvalue": 0,
    "displayName": "Perfect Porkchop",
    "hidden": 0,
    "description": "Complete the game to 100%",
    "icon": "https://steamcdn-a.akamaihd.net/steamcommunity/public/images/apps/821890/64f04c275790978be8b131bb8f0ba3fce91c966c.jpg",
    "icongray": "https://steamcdn-a.akamaihd.net/steamcommunity/public/images/apps/821890/acd8996697f3f0323652c08ad21c6657b3c86c19.jpg"
  },
  {
    "name": "ACHIEVEMENT_BELIEVE_IN_STEVEN",
    "defaultvalue": 0,
    "displayName": "Believe in Steven",
    "hidden": 0,
    "description": "Collect all other achievements",
    "icon": "https://steamcdn-a.akamaihd.net/steamcommunity/public/images/apps/821890/1f160708ee947da657c252e7e0806d7dc4b0f226.jpg",
    "icongray": "https://steamcdn-a.akamaihd.net/steamcommunity/public/images/apps/821890/62cda3fbf5678e7914517190eb9b1a5bf87cdf75.jpg"
  }
]