{
  "Name": "Blender Character Rigging for Beginners HD: Intro to Euler Angle Rotations - Part 1",
  "ImageUrl": "https://steamcdn-a.akamaihd.net/steam/apps/831966/header.jpg?t=1522185639",
  "Type": "episode"
}