{
  "Dlcs": {},
  "Name": "MAGIX Video Pro X8 Steam Edition",
  "AppId": "598860",
  "ImageUrl": "https://steamcdn-a.akamaihd.net/steam/apps/598860/header.jpg?t=1534875315",
  "Languages": [
    "english",
    "german",
    "french",
    "dutch"
  ],
  "Platforms": {
    "windows": true,
    "mac": false,
    "linux": false
  }
}