[
  {
    "name": "scratch",
    "defaultvalue": 0,
    "displayName": "It's just a scratch",
    "hidden": 0,
    "description": "Get crushed by the giant blue meteor.",
    "icon": "https://steamcdn-a.akamaihd.net/steamcommunity/public/images/apps/671120/5fc3c28b73fe880bbb2ab65e39dc4946b69752bd.jpg",
    "icongray": "https://steamcdn-a.akamaihd.net/steamcommunity/public/images/apps/671120/a8a8a89ecd6020526f9f3f3a5e34561dd609175f.jpg"
  },
  {
    "name": "friend",
    "defaultvalue": 0,
    "displayName": "Friend of Flees",
    "hidden": 0,
    "description": "Do not kill the friendly Flees in the first level.",
    "icon": "https://steamcdn-a.akamaihd.net/steamcommunity/public/images/apps/671120/fd8b52fb37b5856f3d339a672c9579b977908e46.jpg",
    "icongray": "https://steamcdn-a.akamaihd.net/steamcommunity/public/images/apps/671120/d5405b1916764e1d0dde80956c37ee49ae2ef553.jpg"
  },
  {
    "name": "magnetic",
    "defaultvalue": 0,
    "displayName": "Magnetic destruction",
    "hidden": 0,
    "description": "Get dragged into the magnetic boss in level 2.",
    "icon": "https://steamcdn-a.akamaihd.net/steamcommunity/public/images/apps/671120/37be3d1b1106ccf22fd82375f77cffa33b8fa544.jpg",
    "icongray": "https://steamcdn-a.akamaihd.net/steamcommunity/public/images/apps/671120/4ab3f0efbabb5d72cb0a673570d446cb85999f3f.jpg"
  },
  {
    "name": "peace",
    "defaultvalue": 0,
    "displayName": "They come in peace",
    "hidden": 0,
    "description": "Do not kill any of the Flees of the arrow formation in level 3.",
    "icon": "https://steamcdn-a.akamaihd.net/steamcommunity/public/images/apps/671120/803ab0ffb31b1212ff0239c31ed010113962885a.jpg",
    "icongray": "https://steamcdn-a.akamaihd.net/steamcommunity/public/images/apps/671120/930bc559a5ded13cc3cc2a9c8b25b0724c8b16da.jpg"
  },
  {
    "name": "burning",
    "defaultvalue": 0,
    "displayName": "Burning hot",
    "hidden": 0,
    "description": "Keep the truck glowing for 10 seconds.",
    "icon": "https://steamcdn-a.akamaihd.net/steamcommunity/public/images/apps/671120/918caf1ab74ef40d6ae484e2dd99ee39fdccdf19.jpg",
    "icongray": "https://steamcdn-a.akamaihd.net/steamcommunity/public/images/apps/671120/95c195c875648d9174f1e251b2a5a47d97613e5d.jpg"
  },
  {
    "name": "poison",
    "defaultvalue": 0,
    "displayName": "Poison",
    "hidden": 0,
    "description": "Be poisoned for at least one minute.",
    "icon": "https://steamcdn-a.akamaihd.net/steamcommunity/public/images/apps/671120/f727235b8c40856d41366a110f0f961adde8e691.jpg",
    "icongray": "https://steamcdn-a.akamaihd.net/steamcommunity/public/images/apps/671120/93631c666fc3143e20699352e619d43b3811e601.jpg"
  },
  {
    "name": "without",
    "defaultvalue": 0,
    "displayName": "Without a scratch",
    "hidden": 0,
    "description": "Complete a level without losing a life.",
    "icon": "https://steamcdn-a.akamaihd.net/steamcommunity/public/images/apps/671120/a290a3b79ff8d0df37b43eb657ca685aaf1a5e2e.jpg",
    "icongray": "https://steamcdn-a.akamaihd.net/steamcommunity/public/images/apps/671120/bb5e0fd6f4d84e53d1556f32146c7d08cabdf1c0.jpg"
  },
  {
    "name": "sniper",
    "defaultvalue": 0,
    "displayName": "Sniper",
    "hidden": 0,
    "description": "Every shot within a level must hit its target.",
    "icon": "https://steamcdn-a.akamaihd.net/steamcommunity/public/images/apps/671120/0e5823858e884d7f49ae4be2c39fcce7cc1b855c.jpg",
    "icongray": "https://steamcdn-a.akamaihd.net/steamcommunity/public/images/apps/671120/c23f966603405288c9ea88895e4d9bcabdf109c2.jpg"
  },
  {
    "name": "complete",
    "defaultvalue": 0,
    "displayName": "Complete",
    "hidden": 0,
    "description": "Complete all levels.",
    "icon": "https://steamcdn-a.akamaihd.net/steamcommunity/public/images/apps/671120/64eb8821b198d48a08dd2d17d08bbbbb35dbac83.jpg",
    "icongray": "https://steamcdn-a.akamaihd.net/steamcommunity/public/images/apps/671120/88b1209312d541bd9f58ac2310de936d15d22def.jpg"
  },
  {
    "name": "gold",
    "defaultvalue": 0,
    "displayName": "Gold trucker",
    "hidden": 0,
    "description": "Get a gold medal for each level.",
    "icon": "https://steamcdn-a.akamaihd.net/steamcommunity/public/images/apps/671120/2833f93ee8e2d8e96337f183d95b3d960a4b2d14.jpg",
    "icongray": "https://steamcdn-a.akamaihd.net/steamcommunity/public/images/apps/671120/ceca6607642f68d5b0d2775579eae09a00b6fd00.jpg"
  }
]