﻿{
  "Dlcs": {
    "1179290": {
      "Name": "Lightmatter Full Game",
      "ImageUrl": "https://steamcdn-a.akamaihd.net/steam/apps/1179290/header.jpg?t=1579103672"
    }
  },
  "Name": "Lightmatter",
  "AppId": "994140",
  "ImageUrl": "https://steamcdn-a.akamaihd.net/steam/apps/994140/header.jpg?t=1592321640",
  "Languages": [
    "english",
    "danish",
    "french",
    "italian",
    "german",
    "spanish",
    "japanese",
    "russian",
    "schinese",
    "portuguese"
  ],
  "Platforms": {
    "windows": true,
    "mac": false,
    "linux": false
  }
}