{
  "Dlcs": {},
  "Name": "Toy Road Constructor",
  "AppId": "963050",
  "ImageUrl": "https://steamcdn-a.akamaihd.net/steam/apps/963050/header.jpg?t=1561348024",
  "Languages": [
    "english",
    "german",
    "schinese",
    "russian"
  ],
  "Platforms": {
    "windows": true,
    "mac": true,
    "linux": false
  }
}