{
  "Dlcs": {},
  "Name": "Novas Las Aventurietas del Robercleiton: o Renascimento do TURBO",
  "AppId": "810580",
  "ImageUrl": "https://steamcdn-a.akamaihd.net/steam/apps/810580/header.jpg?t=1585162015",
  "Languages": [
    "portuguese",
    "english"
  ],
  "Platforms": {
    "windows": true,
    "mac": false,
    "linux": false
  }
}