{
  "Dlcs": {},
  "Name": "ELASH",
  "AppId": "975690",
  "ImageUrl": "https://steamcdn-a.akamaihd.net/steam/apps/975690/header.jpg?t=1545426000",
  "Languages": [
    "english"
  ],
  "Platforms": {
    "windows": true,
    "mac": false,
    "linux": false
  }
}