﻿[
  {
    "name": "ACH_TUT_DONE",
    "defaultvalue": 0,
    "displayName": "Natural Talent",
    "hidden": 0,
    "description": "Finish the Tutorial",
    "icon": "https://steamcdn-a.akamaihd.net/steamcommunity/public/images/apps/1187330/73a0d9e3fbf11a12e609e52bfe6478d41746e368.jpg",
    "icongray": "https://steamcdn-a.akamaihd.net/steamcommunity/public/images/apps/1187330/027ff4ff66e2fe1629f390c259c97705cbe969a8.jpg"
  },
  {
    "name": "ACH_HOURS",
    "defaultvalue": 0,
    "displayName": "24/7",
    "hidden": 0,
    "description": "Play more than 24 hours",
    "icon": "https://steamcdn-a.akamaihd.net/steamcommunity/public/images/apps/1187330/6f6d3d652660f38e3d034510b9f11b19895fdff2.jpg",
    "icongray": "https://steamcdn-a.akamaihd.net/steamcommunity/public/images/apps/1187330/222f39c88790bd41c441b1abacd0e84b0386d87d.jpg"
  },
  {
    "name": "ACH_LOGIN",
    "defaultvalue": 0,
    "displayName": "VR-Nerd",
    "hidden": 0,
    "description": "Log in for 7 days in a row",
    "icon": "https://steamcdn-a.akamaihd.net/steamcommunity/public/images/apps/1187330/12c451e9e258299f0fd03ee87f8ad00854115b05.jpg",
    "icongray": "https://steamcdn-a.akamaihd.net/steamcommunity/public/images/apps/1187330/052e5ffcd67681fe6c48a75263ff4b199bb1eb8a.jpg"
  },
  {
    "name": "ACH_WIN1",
    "defaultvalue": 0,
    "displayName": "First Strike",
    "hidden": 0,
    "description": "Win a game",
    "icon": "https://steamcdn-a.akamaihd.net/steamcommunity/public/images/apps/1187330/7d3b45960c24712fc11258eed5af22637b466902.jpg",
    "icongray": "https://steamcdn-a.akamaihd.net/steamcommunity/public/images/apps/1187330/26da0855b4d940110ecf673bc8df1483348bf7d5.jpg"
  },
  {
    "name": "ACH_ROW5",
    "defaultvalue": 0,
    "displayName": "Lucky Streak",
    "hidden": 0,
    "description": "Win 5 games in a row",
    "icon": "https://steamcdn-a.akamaihd.net/steamcommunity/public/images/apps/1187330/9f2623d21d5b5f49cec4cc0c3e15b0e1f77a200c.jpg",
    "icongray": "https://steamcdn-a.akamaihd.net/steamcommunity/public/images/apps/1187330/cccf7d109f9b87fe5622b5feff74302aec2b5444.jpg"
  },
  {
    "name": "ACH_ROW10",
    "defaultvalue": 0,
    "displayName": "Invincible",
    "hidden": 0,
    "description": "Win 20 games in a row",
    "icon": "https://steamcdn-a.akamaihd.net/steamcommunity/public/images/apps/1187330/e5190bf59c28e18c24be970b17a9f0918d1b43e5.jpg",
    "icongray": "https://steamcdn-a.akamaihd.net/steamcommunity/public/images/apps/1187330/3c99a81ebe2ffdb7261a5c470ed8e94ca48a3906.jpg"
  },
  {
    "name": "ACH_SNIPE",
    "defaultvalue": 0,
    "displayName": "Aimbot",
    "hidden": 0,
    "description": "Achieve 100 sniper shots",
    "icon": "https://steamcdn-a.akamaihd.net/steamcommunity/public/images/apps/1187330/4eb4203bb574fa897c7edc93158e21825ff0c46d.jpg",
    "icongray": "https://steamcdn-a.akamaihd.net/steamcommunity/public/images/apps/1187330/1a905b6d2c60b909f6b3663aba6beca9b9267a54.jpg"
  },
  {
    "name": "ACH_EM_DOC",
    "defaultvalue": 0,
    "displayName": "Emergency Doctor",
    "hidden": 0,
    "description": "Heal 50 players with less than 20% health",
    "icon": "https://steamcdn-a.akamaihd.net/steamcommunity/public/images/apps/1187330/92f822eecb609b6fc732e82e3b46527d6a1dc6cf.jpg",
    "icongray": "https://steamcdn-a.akamaihd.net/steamcommunity/public/images/apps/1187330/b5969127dda972263163b79bf4cd3de1572955c7.jpg"
  },
  {
    "name": "ACH_PARA",
    "defaultvalue": 0,
    "displayName": "Paramedic",
    "hidden": 0,
    "description": "Heal 10.000 health points",
    "icon": "https://steamcdn-a.akamaihd.net/steamcommunity/public/images/apps/1187330/b6262d04aedd2262ef4c22972b0cfc73976b2920.jpg",
    "icongray": "https://steamcdn-a.akamaihd.net/steamcommunity/public/images/apps/1187330/8a43a5e6f888ef6f93055d8a87faeda06f074ffc.jpg"
  },
  {
    "name": "ACH_FREAK",
    "defaultvalue": 0,
    "displayName": "Control Freak",
    "hidden": 0,
    "description": "Claim 1000 tower",
    "icon": "https://steamcdn-a.akamaihd.net/steamcommunity/public/images/apps/1187330/eaa05479ed54958198c482da94ef21f7657fa7d5.jpg",
    "icongray": "https://steamcdn-a.akamaihd.net/steamcommunity/public/images/apps/1187330/9b1e2c572c14d5ea173c44631c3fe7e3495a5662.jpg"
  },
  {
    "name": "ACH_TELE",
    "defaultvalue": 0,
    "displayName": "VR Legs",
    "hidden": 0,
    "description": "Teleport 10000 times",
    "icon": "https://steamcdn-a.akamaihd.net/steamcommunity/public/images/apps/1187330/4b461cbecf3b7ed354c494332f423f7ab6f5217d.jpg",
    "icongray": "https://steamcdn-a.akamaihd.net/steamcommunity/public/images/apps/1187330/632c637e78c204edcd0c475298c1025ca89b3dc0.jpg"
  },
  {
    "name": "ACH_HOT",
    "defaultvalue": 0,
    "displayName": "Hottest Fire",
    "hidden": 0,
    "description": "Receive the \"Hottest Fire\" award 10 times",
    "icon": "https://steamcdn-a.akamaihd.net/steamcommunity/public/images/apps/1187330/6bfcd47fb0c34a2b6cdacfd180aeec6fba371b71.jpg",
    "icongray": "https://steamcdn-a.akamaihd.net/steamcommunity/public/images/apps/1187330/3e7f3ebdd2cf3fce660dd2e670b599ae5dcaae7b.jpg"
  },
  {
    "name": "ACH_ICE",
    "defaultvalue": 0,
    "displayName": "Coldest Ice",
    "hidden": 0,
    "description": "Receive the \"Coldest ice\" award 10 times",
    "icon": "https://steamcdn-a.akamaihd.net/steamcommunity/public/images/apps/1187330/99f4024797c0abbeba4bcc4e27c957d264e260be.jpg",
    "icongray": "https://steamcdn-a.akamaihd.net/steamcommunity/public/images/apps/1187330/43e0bb783cf75b8d7904a5072acdccdaa62eb089.jpg"
  },
  {
    "name": "ACH_HEADR",
    "defaultvalue": 0,
    "displayName": "Kugelfang",
    "hidden": 1,
    "icon": "https://steamcdn-a.akamaihd.net/steamcommunity/public/images/apps/1187330/b0e68530ff49b1062d6681414c38fbfa108f17f9.jpg",
    "icongray": "https://steamcdn-a.akamaihd.net/steamcommunity/public/images/apps/1187330/2f89d37fd2fe8812d1cee32413884acdfb117f19.jpg"
  },
  {
    "name": "ACH_VIP",
    "defaultvalue": 0,
    "displayName": "VIP",
    "hidden": 0,
    "description": "Receive the \"MVP\" award 10 times",
    "icon": "https://steamcdn-a.akamaihd.net/steamcommunity/public/images/apps/1187330/c0439821f05e94dba89568b6d416f7b0de6f85d7.jpg",
    "icongray": "https://steamcdn-a.akamaihd.net/steamcommunity/public/images/apps/1187330/2663398212ae536bd1847b411bd4b95f131e99f6.jpg"
  },
  {
    "name": "ACH_PLAY50",
    "defaultvalue": 0,
    "displayName": "Specialist",
    "hidden": 0,
    "description": "Play 50 matches",
    "icon": "https://steamcdn-a.akamaihd.net/steamcommunity/public/images/apps/1187330/4ee9b5bc4c735a1bd64130efe6a28f8f816c23fb.jpg",
    "icongray": "https://steamcdn-a.akamaihd.net/steamcommunity/public/images/apps/1187330/511dd0dca8d5ad23064078b0bf190f408f96f94a.jpg"
  },
  {
    "name": "ACH_PLAY100",
    "defaultvalue": 0,
    "displayName": "Veteran",
    "hidden": 0,
    "description": "Play 100 matches",
    "icon": "https://steamcdn-a.akamaihd.net/steamcommunity/public/images/apps/1187330/6f21bf94615e6455f2bca2d276c0018475a39d3a.jpg",
    "icongray": "https://steamcdn-a.akamaihd.net/steamcommunity/public/images/apps/1187330/1f318c412ac18b8b101163a45208c29a9cf89698.jpg"
  },
  {
    "name": "ACH_PLAY200",
    "defaultvalue": 0,
    "displayName": "Tower Ranger",
    "hidden": 0,
    "description": "Play 500 matches",
    "icon": "https://steamcdn-a.akamaihd.net/steamcommunity/public/images/apps/1187330/73a47823c9efacfa75f134bbf3b536ee4b9e37d1.jpg",
    "icongray": "https://steamcdn-a.akamaihd.net/steamcommunity/public/images/apps/1187330/bf1624fc2cff3aeceae20327f82f611ea5514c48.jpg"
  },
  {
    "name": "ACH_LVL10",
    "defaultvalue": 0,
    "displayName": "Master",
    "hidden": 0,
    "description": "Reach level 10",
    "icon": "https://steamcdn-a.akamaihd.net/steamcommunity/public/images/apps/1187330/5d46e97e7e1ab8e59262f836b6c9af3f340913c8.jpg",
    "icongray": "https://steamcdn-a.akamaihd.net/steamcommunity/public/images/apps/1187330/c36d7e59e85e04a56610f9f6f158953ec6d6a8ce.jpg"
  },
  {
    "name": "ACH_LVL20",
    "defaultvalue": 0,
    "displayName": "Grandmaster",
    "hidden": 0,
    "description": "Reach level 20",
    "icon": "https://steamcdn-a.akamaihd.net/steamcommunity/public/images/apps/1187330/8c0e5e381186f49ee68d25bc4ee7456947c038c5.jpg",
    "icongray": "https://steamcdn-a.akamaihd.net/steamcommunity/public/images/apps/1187330/9c297efa51456baa0a631c112cc97e70260cafe2.jpg"
  },
  {
    "name": "ACH_LVL30",
    "defaultvalue": 0,
    "displayName": "Challenger",
    "hidden": 0,
    "description": "Reach level 30",
    "icon": "https://steamcdn-a.akamaihd.net/steamcommunity/public/images/apps/1187330/e1031c6bc918221c2b7af23970d81180be66d0fd.jpg",
    "icongray": "https://steamcdn-a.akamaihd.net/steamcommunity/public/images/apps/1187330/a9a38bbec63e0a14c4aac1cf01ce49a2a6cfb85d.jpg"
  }
]