﻿[
  {
    "name": "ExpansionBronze",
    "defaultvalue": 0,
    "displayName": "Expansion",
    "hidden": 1,
    "icon": "https://steamcdn-a.akamaihd.net/steamcommunity/public/images/apps/690610/4afd9dafa62ee6bf5f0e52779ad718ef4a72c49e.jpg",
    "icongray": "https://steamcdn-a.akamaihd.net/steamcommunity/public/images/apps/690610/75c0f9d085f7314bdc08ab9afac219288586683a.jpg"
  },
  {
    "name": "CreatorBronze",
    "defaultvalue": 0,
    "displayName": "Creator",
    "hidden": 1,
    "icon": "https://steamcdn-a.akamaihd.net/steamcommunity/public/images/apps/690610/aaf4292c621430fa636d40b2f787ef01ac6fb2c0.jpg",
    "icongray": "https://steamcdn-a.akamaihd.net/steamcommunity/public/images/apps/690610/f5f67150fde978629ac951abc18306728f930988.jpg"
  },
  {
    "name": "PopularityBronze",
    "defaultvalue": 0,
    "displayName": "Popularity",
    "hidden": 1,
    "icon": "https://steamcdn-a.akamaihd.net/steamcommunity/public/images/apps/690610/a5422ba1214f3f38ea52d0c11d143ace6985385a.jpg",
    "icongray": "https://steamcdn-a.akamaihd.net/steamcommunity/public/images/apps/690610/5e0cfef6c5b55ad31b075f118772a7d8c330b7a3.jpg"
  },
  {
    "name": "CollectorBronze",
    "defaultvalue": 0,
    "displayName": "Collector",
    "hidden": 0,
    "description": "Get 50 objects in your collection",
    "icon": "https://steamcdn-a.akamaihd.net/steamcommunity/public/images/apps/690610/93ace6438ced580c53343ba7c412f8a314922f20.jpg",
    "icongray": "https://steamcdn-a.akamaihd.net/steamcommunity/public/images/apps/690610/d08db9d68c70ca5ac3001c792ea3400995fff7f2.jpg"
  },
  {
    "name": "Tutorial Reward 1",
    "defaultvalue": 0,
    "displayName": "A small gift",
    "hidden": 1,
    "icon": "https://steamcdn-a.akamaihd.net/steamcommunity/public/images/apps/690610/8d924c64b007b3e6fa3b9f6c8e1a8fc1836b9e3e.jpg",
    "icongray": "https://steamcdn-a.akamaihd.net/steamcommunity/public/images/apps/690610/ff0ed6d2c26a5fa786206bd518f258ad9a049684.jpg"
  },
  {
    "name": "Tutorial Reward 2",
    "defaultvalue": 0,
    "displayName": "Should be useful",
    "hidden": 1,
    "icon": "https://steamcdn-a.akamaihd.net/steamcommunity/public/images/apps/690610/8d924c64b007b3e6fa3b9f6c8e1a8fc1836b9e3e.jpg",
    "icongray": "https://steamcdn-a.akamaihd.net/steamcommunity/public/images/apps/690610/ff0ed6d2c26a5fa786206bd518f258ad9a049684.jpg"
  },
  {
    "name": "Tutorial Mission 1",
    "defaultvalue": 0,
    "displayName": "First steps",
    "hidden": 1,
    "icon": "https://steamcdn-a.akamaihd.net/steamcommunity/public/images/apps/690610/8d924c64b007b3e6fa3b9f6c8e1a8fc1836b9e3e.jpg",
    "icongray": "https://steamcdn-a.akamaihd.net/steamcommunity/public/images/apps/690610/ff0ed6d2c26a5fa786206bd518f258ad9a049684.jpg"
  },
  {
    "name": "Tutorial Mission 2",
    "defaultvalue": 0,
    "displayName": "Getting up to speed",
    "hidden": 1,
    "icon": "https://steamcdn-a.akamaihd.net/steamcommunity/public/images/apps/690610/8d924c64b007b3e6fa3b9f6c8e1a8fc1836b9e3e.jpg",
    "icongray": "https://steamcdn-a.akamaihd.net/steamcommunity/public/images/apps/690610/ff0ed6d2c26a5fa786206bd518f258ad9a049684.jpg"
  },
  {
    "name": "Tutorial Mission 3",
    "defaultvalue": 0,
    "displayName": "Third time's a charm",
    "hidden": 1,
    "icon": "https://steamcdn-a.akamaihd.net/steamcommunity/public/images/apps/690610/8d924c64b007b3e6fa3b9f6c8e1a8fc1836b9e3e.jpg",
    "icongray": "https://steamcdn-a.akamaihd.net/steamcommunity/public/images/apps/690610/ff0ed6d2c26a5fa786206bd518f258ad9a049684.jpg"
  },
  {
    "name": "Tutorial Mission 4",
    "defaultvalue": 0,
    "displayName": "The adventure continues",
    "hidden": 1,
    "icon": "https://steamcdn-a.akamaihd.net/steamcommunity/public/images/apps/690610/8d924c64b007b3e6fa3b9f6c8e1a8fc1836b9e3e.jpg",
    "icongray": "https://steamcdn-a.akamaihd.net/steamcommunity/public/images/apps/690610/ff0ed6d2c26a5fa786206bd518f258ad9a049684.jpg"
  },
  {
    "name": "Tutorial Mission 5",
    "defaultvalue": 0,
    "displayName": "Island conquered!",
    "hidden": 1,
    "icon": "https://steamcdn-a.akamaihd.net/steamcommunity/public/images/apps/690610/8d924c64b007b3e6fa3b9f6c8e1a8fc1836b9e3e.jpg",
    "icongray": "https://steamcdn-a.akamaihd.net/steamcommunity/public/images/apps/690610/ff0ed6d2c26a5fa786206bd518f258ad9a049684.jpg"
  },
  {
    "name": "Tutorial Mission 6",
    "defaultvalue": 0,
    "displayName": "Accomplished Magicat",
    "hidden": 1,
    "icon": "https://steamcdn-a.akamaihd.net/steamcommunity/public/images/apps/690610/8d924c64b007b3e6fa3b9f6c8e1a8fc1836b9e3e.jpg",
    "icongray": "https://steamcdn-a.akamaihd.net/steamcommunity/public/images/apps/690610/ff0ed6d2c26a5fa786206bd518f258ad9a049684.jpg"
  },
  {
    "name": "Tutorial Mission 7",
    "defaultvalue": 0,
    "displayName": "The apprentice...",
    "hidden": 1,
    "icon": "https://steamcdn-a.akamaihd.net/steamcommunity/public/images/apps/690610/8d924c64b007b3e6fa3b9f6c8e1a8fc1836b9e3e.jpg",
    "icongray": "https://steamcdn-a.akamaihd.net/steamcommunity/public/images/apps/690610/ff0ed6d2c26a5fa786206bd518f258ad9a049684.jpg"
  },
  {
    "name": "Tutorial Mission 8",
    "defaultvalue": 0,
    "displayName": "...becomes the Master!",
    "hidden": 1,
    "icon": "https://steamcdn-a.akamaihd.net/steamcommunity/public/images/apps/690610/8d924c64b007b3e6fa3b9f6c8e1a8fc1836b9e3e.jpg",
    "icongray": "https://steamcdn-a.akamaihd.net/steamcommunity/public/images/apps/690610/ff0ed6d2c26a5fa786206bd518f258ad9a049684.jpg"
  },
  {
    "name": "ExpansionSilver",
    "defaultvalue": 0,
    "displayName": "Expansion",
    "hidden": 1,
    "icon": "https://steamcdn-a.akamaihd.net/steamcommunity/public/images/apps/690610/4afd9dafa62ee6bf5f0e52779ad718ef4a72c49e.jpg",
    "icongray": "https://steamcdn-a.akamaihd.net/steamcommunity/public/images/apps/690610/75c0f9d085f7314bdc08ab9afac219288586683a.jpg"
  },
  {
    "name": "ExpansionGold",
    "defaultvalue": 0,
    "displayName": "Expansion",
    "hidden": 1,
    "icon": "https://steamcdn-a.akamaihd.net/steamcommunity/public/images/apps/690610/4afd9dafa62ee6bf5f0e52779ad718ef4a72c49e.jpg",
    "icongray": "https://steamcdn-a.akamaihd.net/steamcommunity/public/images/apps/690610/75c0f9d085f7314bdc08ab9afac219288586683a.jpg"
  },
  {
    "name": "CreatorSilver",
    "defaultvalue": 0,
    "displayName": "Creator",
    "hidden": 1,
    "icon": "https://steamcdn-a.akamaihd.net/steamcommunity/public/images/apps/690610/aaf4292c621430fa636d40b2f787ef01ac6fb2c0.jpg",
    "icongray": "https://steamcdn-a.akamaihd.net/steamcommunity/public/images/apps/690610/f5f67150fde978629ac951abc18306728f930988.jpg"
  },
  {
    "name": "CreatorGold",
    "defaultvalue": 0,
    "displayName": "Creator",
    "hidden": 1,
    "icon": "https://steamcdn-a.akamaihd.net/steamcommunity/public/images/apps/690610/aaf4292c621430fa636d40b2f787ef01ac6fb2c0.jpg",
    "icongray": "https://steamcdn-a.akamaihd.net/steamcommunity/public/images/apps/690610/f5f67150fde978629ac951abc18306728f930988.jpg"
  },
  {
    "name": "PopularitySilver",
    "defaultvalue": 0,
    "displayName": "Popularity",
    "hidden": 1,
    "icon": "https://steamcdn-a.akamaihd.net/steamcommunity/public/images/apps/690610/a5422ba1214f3f38ea52d0c11d143ace6985385a.jpg",
    "icongray": "https://steamcdn-a.akamaihd.net/steamcommunity/public/images/apps/690610/5e0cfef6c5b55ad31b075f118772a7d8c330b7a3.jpg"
  },
  {
    "name": "PopularityGold",
    "defaultvalue": 0,
    "displayName": "Popularity",
    "hidden": 1,
    "icon": "https://steamcdn-a.akamaihd.net/steamcommunity/public/images/apps/690610/a5422ba1214f3f38ea52d0c11d143ace6985385a.jpg",
    "icongray": "https://steamcdn-a.akamaihd.net/steamcommunity/public/images/apps/690610/5e0cfef6c5b55ad31b075f118772a7d8c330b7a3.jpg"
  },
  {
    "name": "CollectorSilver",
    "defaultvalue": 0,
    "displayName": "Collector",
    "hidden": 0,
    "description": "Get 1000 objects in your collection",
    "icon": "https://steamcdn-a.akamaihd.net/steamcommunity/public/images/apps/690610/93ace6438ced580c53343ba7c412f8a314922f20.jpg",
    "icongray": "https://steamcdn-a.akamaihd.net/steamcommunity/public/images/apps/690610/14093a820f42e6edb07336eda9399d6a917fa661.jpg"
  },
  {
    "name": "CollectorGold",
    "defaultvalue": 0,
    "displayName": "Collector",
    "hidden": 0,
    "description": "Get 10000 objects in your collection",
    "icon": "https://steamcdn-a.akamaihd.net/steamcommunity/public/images/apps/690610/f205b46b28283c4d50024c90caf821a591232038.jpg",
    "icongray": "https://steamcdn-a.akamaihd.net/steamcommunity/public/images/apps/690610/14093a820f42e6edb07336eda9399d6a917fa661.jpg"
  },
  {
    "name": "ArtistBronze",
    "defaultvalue": 0,
    "displayName": "Artist",
    "hidden": 0,
    "description": "Have 1 level rated higher than 4 stars",
    "icon": "https://steamcdn-a.akamaihd.net/steamcommunity/public/images/apps/690610/b0d94613fa16d58010e8cc14005b0e5d175f68f2.jpg",
    "icongray": "https://steamcdn-a.akamaihd.net/steamcommunity/public/images/apps/690610/0bd418323b587f074c6b96679a4455b9d66758c3.jpg"
  },
  {
    "name": "ArtistSilver",
    "defaultvalue": 0,
    "displayName": "Artist",
    "hidden": 0,
    "description": "Have 3 levels rated higher than 4 stars",
    "icon": "https://steamcdn-a.akamaihd.net/steamcommunity/public/images/apps/690610/b0d94613fa16d58010e8cc14005b0e5d175f68f2.jpg",
    "icongray": "https://steamcdn-a.akamaihd.net/steamcommunity/public/images/apps/690610/0bd418323b587f074c6b96679a4455b9d66758c3.jpg"
  },
  {
    "name": "ArtistGold",
    "defaultvalue": 0,
    "displayName": "Artist",
    "hidden": 0,
    "description": "Have 6 levels rated higher than 4 stars",
    "icon": "https://steamcdn-a.akamaihd.net/steamcommunity/public/images/apps/690610/b0d94613fa16d58010e8cc14005b0e5d175f68f2.jpg",
    "icongray": "https://steamcdn-a.akamaihd.net/steamcommunity/public/images/apps/690610/0bd418323b587f074c6b96679a4455b9d66758c3.jpg"
  },
  {
    "name": "RounderUpBronze",
    "defaultvalue": 0,
    "displayName": "RounderUp",
    "hidden": 0,
    "description": "1 player played your level",
    "icon": "https://steamcdn-a.akamaihd.net/steamcommunity/public/images/apps/690610/c92ed34d232a9c9bac7081ea77966f634c4017bc.jpg",
    "icongray": "https://steamcdn-a.akamaihd.net/steamcommunity/public/images/apps/690610/9adec1b0fa5586c2d455cbad1494409dc6d795ef.jpg"
  },
  {
    "name": "RounderUpSilver",
    "defaultvalue": 0,
    "displayName": "RounderUp",
    "hidden": 0,
    "description": "1000 players played your levels",
    "icon": "https://steamcdn-a.akamaihd.net/steamcommunity/public/images/apps/690610/c92ed34d232a9c9bac7081ea77966f634c4017bc.jpg",
    "icongray": "https://steamcdn-a.akamaihd.net/steamcommunity/public/images/apps/690610/9adec1b0fa5586c2d455cbad1494409dc6d795ef.jpg"
  },
  {
    "name": "RounderUpGold",
    "defaultvalue": 0,
    "displayName": "RounderUp",
    "hidden": 0,
    "description": "10000 players played your levels",
    "icon": "https://steamcdn-a.akamaihd.net/steamcommunity/public/images/apps/690610/c92ed34d232a9c9bac7081ea77966f634c4017bc.jpg",
    "icongray": "https://steamcdn-a.akamaihd.net/steamcommunity/public/images/apps/690610/9adec1b0fa5586c2d455cbad1494409dc6d795ef.jpg"
  },
  {
    "name": "ProgrammerBronze",
    "defaultvalue": 0,
    "displayName": "Programmer",
    "hidden": 0,
    "description": "Reprogram 5 objects",
    "icon": "https://steamcdn-a.akamaihd.net/steamcommunity/public/images/apps/690610/986bc567e5689145a865f08bc55e728250ccbca1.jpg",
    "icongray": "https://steamcdn-a.akamaihd.net/steamcommunity/public/images/apps/690610/c4e320ac91abb55614a4e864736e329895b04df0.jpg"
  },
  {
    "name": "ProgrammerSilver",
    "defaultvalue": 0,
    "displayName": "Programmer",
    "hidden": 0,
    "description": "Reprogram 50 objects",
    "icon": "https://steamcdn-a.akamaihd.net/steamcommunity/public/images/apps/690610/986bc567e5689145a865f08bc55e728250ccbca1.jpg",
    "icongray": "https://steamcdn-a.akamaihd.net/steamcommunity/public/images/apps/690610/c4e320ac91abb55614a4e864736e329895b04df0.jpg"
  },
  {
    "name": "ProgrammerGold",
    "defaultvalue": 0,
    "displayName": "Programmer",
    "hidden": 0,
    "description": "Reprogram 200 objects",
    "icon": "https://steamcdn-a.akamaihd.net/steamcommunity/public/images/apps/690610/986bc567e5689145a865f08bc55e728250ccbca1.jpg",
    "icongray": "https://steamcdn-a.akamaihd.net/steamcommunity/public/images/apps/690610/c4e320ac91abb55614a4e864736e329895b04df0.jpg"
  },
  {
    "name": "AdventurerBronze",
    "defaultvalue": 0,
    "displayName": "Adventurer",
    "hidden": 1,
    "icon": "https://steamcdn-a.akamaihd.net/steamcommunity/public/images/apps/690610/944ecc3a2b6d0cf1146d5909847e6b4f11f1cb64.jpg",
    "icongray": "https://steamcdn-a.akamaihd.net/steamcommunity/public/images/apps/690610/20360e53391c8aaf63002ff4e2be1902fa920c1f.jpg"
  },
  {
    "name": "AdventurerSilver",
    "defaultvalue": 0,
    "displayName": "Adventurer",
    "hidden": 1,
    "icon": "https://steamcdn-a.akamaihd.net/steamcommunity/public/images/apps/690610/944ecc3a2b6d0cf1146d5909847e6b4f11f1cb64.jpg",
    "icongray": "https://steamcdn-a.akamaihd.net/steamcommunity/public/images/apps/690610/20360e53391c8aaf63002ff4e2be1902fa920c1f.jpg"
  },
  {
    "name": "AdventurerGold",
    "defaultvalue": 0,
    "displayName": "Adventurer",
    "hidden": 1,
    "icon": "https://steamcdn-a.akamaihd.net/steamcommunity/public/images/apps/690610/944ecc3a2b6d0cf1146d5909847e6b4f11f1cb64.jpg",
    "icongray": "https://steamcdn-a.akamaihd.net/steamcommunity/public/images/apps/690610/20360e53391c8aaf63002ff4e2be1902fa920c1f.jpg"
  },
  {
    "name": "AssassinBronze",
    "defaultvalue": 0,
    "displayName": "Assassin",
    "hidden": 0,
    "description": "Kill 50 enemies",
    "icon": "https://steamcdn-a.akamaihd.net/steamcommunity/public/images/apps/690610/b23cd5fb5267aa894b0672f6340b71cb5d7cbbac.jpg",
    "icongray": "https://steamcdn-a.akamaihd.net/steamcommunity/public/images/apps/690610/f3ccf712a99b406702acb37e5fe4df5203789b4e.jpg"
  },
  {
    "name": "AssassinSilver",
    "defaultvalue": 0,
    "displayName": "Assassin",
    "hidden": 0,
    "description": "Kill 1000 enemies",
    "icon": "https://steamcdn-a.akamaihd.net/steamcommunity/public/images/apps/690610/b23cd5fb5267aa894b0672f6340b71cb5d7cbbac.jpg",
    "icongray": "https://steamcdn-a.akamaihd.net/steamcommunity/public/images/apps/690610/2976fbc9c582874e2628f6422ff8db3d523f00e7.jpg"
  },
  {
    "name": "AssassinGold",
    "defaultvalue": 0,
    "displayName": "Assassin",
    "hidden": 0,
    "description": "Kill 10000 enemies",
    "icon": "https://steamcdn-a.akamaihd.net/steamcommunity/public/images/apps/690610/b23cd5fb5267aa894b0672f6340b71cb5d7cbbac.jpg",
    "icongray": "https://steamcdn-a.akamaihd.net/steamcommunity/public/images/apps/690610/2976fbc9c582874e2628f6422ff8db3d523f00e7.jpg"
  },
  {
    "name": "StubbornBronze",
    "defaultvalue": 0,
    "displayName": "Stubborn",
    "hidden": 1,
    "icon": "https://steamcdn-a.akamaihd.net/steamcommunity/public/images/apps/690610/09e19dc897e00c8899809e4de109eac6a2b20074.jpg",
    "icongray": "https://steamcdn-a.akamaihd.net/steamcommunity/public/images/apps/690610/e061e75f32c778bcdcf36614202f8d64737c884d.jpg"
  },
  {
    "name": "StubbornSilver",
    "defaultvalue": 0,
    "displayName": "Stubborn",
    "hidden": 1,
    "icon": "https://steamcdn-a.akamaihd.net/steamcommunity/public/images/apps/690610/09e19dc897e00c8899809e4de109eac6a2b20074.jpg",
    "icongray": "https://steamcdn-a.akamaihd.net/steamcommunity/public/images/apps/690610/e061e75f32c778bcdcf36614202f8d64737c884d.jpg"
  },
  {
    "name": "StubbornGold",
    "defaultvalue": 0,
    "displayName": "Stubborn",
    "hidden": 1,
    "icon": "https://steamcdn-a.akamaihd.net/steamcommunity/public/images/apps/690610/09e19dc897e00c8899809e4de109eac6a2b20074.jpg",
    "icongray": "https://steamcdn-a.akamaihd.net/steamcommunity/public/images/apps/690610/e061e75f32c778bcdcf36614202f8d64737c884d.jpg"
  },
  {
    "name": "GreedBronze",
    "defaultvalue": 0,
    "displayName": "Greed",
    "hidden": 0,
    "description": "Collect 100 fairies",
    "icon": "https://steamcdn-a.akamaihd.net/steamcommunity/public/images/apps/690610/5dfa083f2569407228cc963f98af2282452157fd.jpg",
    "icongray": "https://steamcdn-a.akamaihd.net/steamcommunity/public/images/apps/690610/d74df15c3dd8e559acf69a07a2ec690e5643f890.jpg"
  },
  {
    "name": "GreedSilver",
    "defaultvalue": 0,
    "displayName": "Greed",
    "hidden": 0,
    "description": "Collect 1000 fairies",
    "icon": "https://steamcdn-a.akamaihd.net/steamcommunity/public/images/apps/690610/5dfa083f2569407228cc963f98af2282452157fd.jpg",
    "icongray": "https://steamcdn-a.akamaihd.net/steamcommunity/public/images/apps/690610/d74df15c3dd8e559acf69a07a2ec690e5643f890.jpg"
  },
  {
    "name": "GreedGold",
    "defaultvalue": 0,
    "displayName": "Greed",
    "hidden": 0,
    "description": "Collect 10000 fairies",
    "icon": "https://steamcdn-a.akamaihd.net/steamcommunity/public/images/apps/690610/5dfa083f2569407228cc963f98af2282452157fd.jpg",
    "icongray": "https://steamcdn-a.akamaihd.net/steamcommunity/public/images/apps/690610/d74df15c3dd8e559acf69a07a2ec690e5643f890.jpg"
  },
  {
    "name": "JudgeBronze",
    "defaultvalue": 0,
    "displayName": "Judge",
    "hidden": 0,
    "description": "Rate 10 community levels",
    "icon": "https://steamcdn-a.akamaihd.net/steamcommunity/public/images/apps/690610/b5f81b9299f5be4ac4739a9f90e77692e39f85dc.jpg",
    "icongray": "https://steamcdn-a.akamaihd.net/steamcommunity/public/images/apps/690610/3b856dcc13d37811b59b05b68ac30b3007ac625f.jpg"
  },
  {
    "name": "JudgeSilver",
    "defaultvalue": 0,
    "displayName": "Judge",
    "hidden": 0,
    "description": "Rate 100 community levels",
    "icon": "https://steamcdn-a.akamaihd.net/steamcommunity/public/images/apps/690610/b5f81b9299f5be4ac4739a9f90e77692e39f85dc.jpg",
    "icongray": "https://steamcdn-a.akamaihd.net/steamcommunity/public/images/apps/690610/3b856dcc13d37811b59b05b68ac30b3007ac625f.jpg"
  },
  {
    "name": "JudgeGold",
    "defaultvalue": 0,
    "displayName": "Judge",
    "hidden": 0,
    "description": "Rate 1000 community levels",
    "icon": "https://steamcdn-a.akamaihd.net/steamcommunity/public/images/apps/690610/b5f81b9299f5be4ac4739a9f90e77692e39f85dc.jpg",
    "icongray": "https://steamcdn-a.akamaihd.net/steamcommunity/public/images/apps/690610/3b856dcc13d37811b59b05b68ac30b3007ac625f.jpg"
  },
  {
    "name": "CreatorAdventurerBronze",
    "defaultvalue": 0,
    "displayName": "CreatorAdventurer",
    "hidden": 1,
    "icon": "https://steamcdn-a.akamaihd.net/steamcommunity/public/images/apps/690610/e7d6322106cc4946a08f84fcf19f3b44a028c32a.jpg",
    "icongray": "https://steamcdn-a.akamaihd.net/steamcommunity/public/images/apps/690610/abdfbf5cb1b588454dafee5ab4d516efd56ee8cb.jpg"
  },
  {
    "name": "CreatorAdventurerSilver",
    "defaultvalue": 0,
    "displayName": "CreatorAdventurer",
    "hidden": 1,
    "icon": "https://steamcdn-a.akamaihd.net/steamcommunity/public/images/apps/690610/679b71e788366daef0265ef09acc5a97c79f280c.jpg",
    "icongray": "https://steamcdn-a.akamaihd.net/steamcommunity/public/images/apps/690610/abdfbf5cb1b588454dafee5ab4d516efd56ee8cb.jpg"
  },
  {
    "name": "CreatorAdventurerGold",
    "defaultvalue": 0,
    "displayName": "CreatorAdventurer",
    "hidden": 1,
    "icon": "https://steamcdn-a.akamaihd.net/steamcommunity/public/images/apps/690610/679b71e788366daef0265ef09acc5a97c79f280c.jpg",
    "icongray": "https://steamcdn-a.akamaihd.net/steamcommunity/public/images/apps/690610/abdfbf5cb1b588454dafee5ab4d516efd56ee8cb.jpg"
  },
  {
    "name": "TreasureFinder1",
    "defaultvalue": 0,
    "displayName": "TreasureFinder",
    "hidden": 1,
    "icon": "https://steamcdn-a.akamaihd.net/steamcommunity/public/images/apps/690610/faf35fd6dd1f1f477b44f2fcc717901c58b7f927.jpg",
    "icongray": "https://steamcdn-a.akamaihd.net/steamcommunity/public/images/apps/690610/cffc564e1b93c4e47be517df0413137756ecd1df.jpg"
  },
  {
    "name": "TreasureFinder2",
    "defaultvalue": 0,
    "displayName": "TreasureFinder",
    "hidden": 1,
    "icon": "https://steamcdn-a.akamaihd.net/steamcommunity/public/images/apps/690610/e2d6b73911082413122466157fc97bb6a092d881.jpg",
    "icongray": "https://steamcdn-a.akamaihd.net/steamcommunity/public/images/apps/690610/cffc564e1b93c4e47be517df0413137756ecd1df.jpg"
  },
  {
    "name": "TreasureFinder3",
    "defaultvalue": 0,
    "displayName": "TreasureFinder",
    "hidden": 1,
    "icon": "https://steamcdn-a.akamaihd.net/steamcommunity/public/images/apps/690610/faf35fd6dd1f1f477b44f2fcc717901c58b7f927.jpg",
    "icongray": "https://steamcdn-a.akamaihd.net/steamcommunity/public/images/apps/690610/cffc564e1b93c4e47be517df0413137756ecd1df.jpg"
  },
  {
    "name": "RichCat1",
    "defaultvalue": 0,
    "displayName": "RichCat",
    "hidden": 1,
    "icon": "https://steamcdn-a.akamaihd.net/steamcommunity/public/images/apps/690610/686b66602782b761fc0856907603dc9b3514ff06.jpg",
    "icongray": "https://steamcdn-a.akamaihd.net/steamcommunity/public/images/apps/690610/168594cb5fdc42c1f86a222cd74ba05b7688d1ad.jpg"
  },
  {
    "name": "RichCat2",
    "defaultvalue": 0,
    "displayName": "RichCat",
    "hidden": 1,
    "icon": "https://steamcdn-a.akamaihd.net/steamcommunity/public/images/apps/690610/686b66602782b761fc0856907603dc9b3514ff06.jpg",
    "icongray": "https://steamcdn-a.akamaihd.net/steamcommunity/public/images/apps/690610/10a54be7b0fd97c43bd2f63ddd35689bce04e910.jpg"
  },
  {
    "name": "RichCat3",
    "defaultvalue": 0,
    "displayName": "RichCat",
    "hidden": 1,
    "icon": "https://steamcdn-a.akamaihd.net/steamcommunity/public/images/apps/690610/686b66602782b761fc0856907603dc9b3514ff06.jpg",
    "icongray": "https://steamcdn-a.akamaihd.net/steamcommunity/public/images/apps/690610/10a54be7b0fd97c43bd2f63ddd35689bce04e910.jpg"
  },
  {
    "name": "HeavyCoinSpender1",
    "defaultvalue": 0,
    "displayName": "HeavyCoinSpender",
    "hidden": 1,
    "icon": "https://steamcdn-a.akamaihd.net/steamcommunity/public/images/apps/690610/288b416688a42e26eab5594ac9423f8564183c82.jpg",
    "icongray": "https://steamcdn-a.akamaihd.net/steamcommunity/public/images/apps/690610/b5140bea65eaaf22b333e61ec6950c11a7dbec0f.jpg"
  },
  {
    "name": "HeavyCoinSpender2",
    "defaultvalue": 0,
    "displayName": "HeavyCoinSpender",
    "hidden": 1,
    "icon": "https://steamcdn-a.akamaihd.net/steamcommunity/public/images/apps/690610/288b416688a42e26eab5594ac9423f8564183c82.jpg",
    "icongray": "https://steamcdn-a.akamaihd.net/steamcommunity/public/images/apps/690610/b5140bea65eaaf22b333e61ec6950c11a7dbec0f.jpg"
  },
  {
    "name": "HeavyCoinSpender3",
    "defaultvalue": 0,
    "displayName": "HeavyCoinSpender",
    "hidden": 1,
    "icon": "https://steamcdn-a.akamaihd.net/steamcommunity/public/images/apps/690610/288b416688a42e26eab5594ac9423f8564183c82.jpg",
    "icongray": "https://steamcdn-a.akamaihd.net/steamcommunity/public/images/apps/690610/b5140bea65eaaf22b333e61ec6950c11a7dbec0f.jpg"
  },
  {
    "name": "HeavyGemSpender1",
    "defaultvalue": 0,
    "displayName": "HeavyGemSpender",
    "hidden": 1,
    "icon": "https://steamcdn-a.akamaihd.net/steamcommunity/public/images/apps/690610/1748e3f51470158e08d617ee7610b5334af76a02.jpg",
    "icongray": "https://steamcdn-a.akamaihd.net/steamcommunity/public/images/apps/690610/b5591acdb693c11134998b75332dbb06adfc0306.jpg"
  },
  {
    "name": "HeavyGemSpender2",
    "defaultvalue": 0,
    "displayName": "HeavyGemSpender",
    "hidden": 1,
    "icon": "https://steamcdn-a.akamaihd.net/steamcommunity/public/images/apps/690610/1748e3f51470158e08d617ee7610b5334af76a02.jpg",
    "icongray": "https://steamcdn-a.akamaihd.net/steamcommunity/public/images/apps/690610/b5591acdb693c11134998b75332dbb06adfc0306.jpg"
  },
  {
    "name": "HeavyGemSpender3",
    "defaultvalue": 0,
    "displayName": "HeavyGemSpender",
    "hidden": 1,
    "icon": "https://steamcdn-a.akamaihd.net/steamcommunity/public/images/apps/690610/1748e3f51470158e08d617ee7610b5334af76a02.jpg",
    "icongray": "https://steamcdn-a.akamaihd.net/steamcommunity/public/images/apps/690610/b5591acdb693c11134998b75332dbb06adfc0306.jpg"
  },
  {
    "name": "Champion1",
    "defaultvalue": 0,
    "displayName": "Champion",
    "hidden": 1,
    "icon": "https://steamcdn-a.akamaihd.net/steamcommunity/public/images/apps/690610/e8c2f1a4d09bbcd698829e700ab110538e3a35df.jpg",
    "icongray": "https://steamcdn-a.akamaihd.net/steamcommunity/public/images/apps/690610/d9492376c947ab3c1bad4f6cf036122f7c22ca0b.jpg"
  },
  {
    "name": "Champion2",
    "defaultvalue": 0,
    "displayName": "Champion",
    "hidden": 1,
    "icon": "https://steamcdn-a.akamaihd.net/steamcommunity/public/images/apps/690610/e8c2f1a4d09bbcd698829e700ab110538e3a35df.jpg",
    "icongray": "https://steamcdn-a.akamaihd.net/steamcommunity/public/images/apps/690610/d9492376c947ab3c1bad4f6cf036122f7c22ca0b.jpg"
  },
  {
    "name": "Champion3",
    "defaultvalue": 0,
    "displayName": "Champion",
    "hidden": 1,
    "icon": "https://steamcdn-a.akamaihd.net/steamcommunity/public/images/apps/690610/e8c2f1a4d09bbcd698829e700ab110538e3a35df.jpg",
    "icongray": "https://steamcdn-a.akamaihd.net/steamcommunity/public/images/apps/690610/d9492376c947ab3c1bad4f6cf036122f7c22ca0b.jpg"
  },
  {
    "name": "Influencer1",
    "defaultvalue": 0,
    "displayName": "Influencer",
    "hidden": 1,
    "icon": "https://steamcdn-a.akamaihd.net/steamcommunity/public/images/apps/690610/7ac05a836f0d669da62962be7be9dc22db25216d.jpg",
    "icongray": "https://steamcdn-a.akamaihd.net/steamcommunity/public/images/apps/690610/864f16ee0b559daf8662c7ca112a899731c06b6a.jpg"
  },
  {
    "name": "Influencer2",
    "defaultvalue": 0,
    "displayName": "Influencer",
    "hidden": 1,
    "icon": "https://steamcdn-a.akamaihd.net/steamcommunity/public/images/apps/690610/7ac05a836f0d669da62962be7be9dc22db25216d.jpg",
    "icongray": "https://steamcdn-a.akamaihd.net/steamcommunity/public/images/apps/690610/864f16ee0b559daf8662c7ca112a899731c06b6a.jpg"
  },
  {
    "name": "Influencer3",
    "defaultvalue": 0,
    "displayName": "Influencer",
    "hidden": 1,
    "icon": "https://steamcdn-a.akamaihd.net/steamcommunity/public/images/apps/690610/7ac05a836f0d669da62962be7be9dc22db25216d.jpg",
    "icongray": "https://steamcdn-a.akamaihd.net/steamcommunity/public/images/apps/690610/864f16ee0b559daf8662c7ca112a899731c06b6a.jpg"
  },
  {
    "name": "Competitor1",
    "defaultvalue": 0,
    "displayName": "Competitor",
    "hidden": 1,
    "icon": "https://steamcdn-a.akamaihd.net/steamcommunity/public/images/apps/690610/b1cba1c5ea82c6f3ab5a72a63ec12adeae0d9eb1.jpg",
    "icongray": "https://steamcdn-a.akamaihd.net/steamcommunity/public/images/apps/690610/381070999b391ac6481af7bb79415fdb0eb5d034.jpg"
  },
  {
    "name": "Competitor2",
    "defaultvalue": 0,
    "displayName": "Competitor",
    "hidden": 1,
    "icon": "https://steamcdn-a.akamaihd.net/steamcommunity/public/images/apps/690610/b1cba1c5ea82c6f3ab5a72a63ec12adeae0d9eb1.jpg",
    "icongray": "https://steamcdn-a.akamaihd.net/steamcommunity/public/images/apps/690610/381070999b391ac6481af7bb79415fdb0eb5d034.jpg"
  },
  {
    "name": "Competitor3",
    "defaultvalue": 0,
    "displayName": "Competitor",
    "hidden": 1,
    "icon": "https://steamcdn-a.akamaihd.net/steamcommunity/public/images/apps/690610/b1cba1c5ea82c6f3ab5a72a63ec12adeae0d9eb1.jpg",
    "icongray": "https://steamcdn-a.akamaihd.net/steamcommunity/public/images/apps/690610/381070999b391ac6481af7bb79415fdb0eb5d034.jpg"
  },
  {
    "name": "LoginSeveralDays1",
    "defaultvalue": 0,
    "displayName": "LoginSeveralDays",
    "hidden": 1,
    "icon": "https://steamcdn-a.akamaihd.net/steamcommunity/public/images/apps/690610/b30c1f528b7e11649c6fcc4c12deca77e795a469.jpg",
    "icongray": "https://steamcdn-a.akamaihd.net/steamcommunity/public/images/apps/690610/3051b89ce6c0811b953ee2c28d62882ce34e4fd8.jpg"
  },
  {
    "name": "LoginSeveralDays2",
    "defaultvalue": 0,
    "displayName": "LoginSeveralDays3",
    "hidden": 1,
    "icon": "https://steamcdn-a.akamaihd.net/steamcommunity/public/images/apps/690610/b30c1f528b7e11649c6fcc4c12deca77e795a469.jpg",
    "icongray": "https://steamcdn-a.akamaihd.net/steamcommunity/public/images/apps/690610/3051b89ce6c0811b953ee2c28d62882ce34e4fd8.jpg"
  },
  {
    "name": "LoginSeveralDays3",
    "defaultvalue": 0,
    "displayName": "LoginSeveralDays3",
    "hidden": 1,
    "icon": "https://steamcdn-a.akamaihd.net/steamcommunity/public/images/apps/690610/b30c1f528b7e11649c6fcc4c12deca77e795a469.jpg",
    "icongray": "https://steamcdn-a.akamaihd.net/steamcommunity/public/images/apps/690610/3051b89ce6c0811b953ee2c28d62882ce34e4fd8.jpg"
  },
  {
    "name": "LoginSeveralDaysInARow1",
    "defaultvalue": 0,
    "displayName": "LoginSeveralDaysInARow",
    "hidden": 1,
    "icon": "https://steamcdn-a.akamaihd.net/steamcommunity/public/images/apps/690610/1f765ad8686dd8ec9fa9223ba97b184e0494184c.jpg",
    "icongray": "https://steamcdn-a.akamaihd.net/steamcommunity/public/images/apps/690610/69ae9e252219d3d3fd73801223d7ceba0ae3cbe0.jpg"
  },
  {
    "name": "LoginSeveralDaysInARow2",
    "defaultvalue": 0,
    "displayName": "LoginSeveralDaysInARow",
    "hidden": 1,
    "icon": "https://steamcdn-a.akamaihd.net/steamcommunity/public/images/apps/690610/1f765ad8686dd8ec9fa9223ba97b184e0494184c.jpg",
    "icongray": "https://steamcdn-a.akamaihd.net/steamcommunity/public/images/apps/690610/69ae9e252219d3d3fd73801223d7ceba0ae3cbe0.jpg"
  },
  {
    "name": "LoginSeveralDaysInARow3",
    "defaultvalue": 0,
    "displayName": "LoginSeveralDaysInARow",
    "hidden": 1,
    "icon": "https://steamcdn-a.akamaihd.net/steamcommunity/public/images/apps/690610/1f765ad8686dd8ec9fa9223ba97b184e0494184c.jpg",
    "icongray": "https://steamcdn-a.akamaihd.net/steamcommunity/public/images/apps/690610/69ae9e252219d3d3fd73801223d7ceba0ae3cbe0.jpg"
  },
  {
    "name": "CatVegas1",
    "defaultvalue": 0,
    "displayName": "CatVegas",
    "hidden": 1,
    "icon": "https://steamcdn-a.akamaihd.net/steamcommunity/public/images/apps/690610/3ff81d0990e1f6d2f466c6098697ab2e1ac31b06.jpg",
    "icongray": "https://steamcdn-a.akamaihd.net/steamcommunity/public/images/apps/690610/93ad3d87e249c805430d56cbdc5c784deab1888d.jpg"
  },
  {
    "name": "CatVegas2",
    "defaultvalue": 0,
    "displayName": "CatVegas",
    "hidden": 1,
    "icon": "https://steamcdn-a.akamaihd.net/steamcommunity/public/images/apps/690610/3ff81d0990e1f6d2f466c6098697ab2e1ac31b06.jpg",
    "icongray": "https://steamcdn-a.akamaihd.net/steamcommunity/public/images/apps/690610/93ad3d87e249c805430d56cbdc5c784deab1888d.jpg"
  },
  {
    "name": "CatVegas3",
    "defaultvalue": 0,
    "displayName": "CatVegas",
    "hidden": 1,
    "icon": "https://steamcdn-a.akamaihd.net/steamcommunity/public/images/apps/690610/3ff81d0990e1f6d2f466c6098697ab2e1ac31b06.jpg",
    "icongray": "https://steamcdn-a.akamaihd.net/steamcommunity/public/images/apps/690610/93ad3d87e249c805430d56cbdc5c784deab1888d.jpg"
  },
  {
    "name": "SteamConnection1",
    "defaultvalue": 0,
    "displayName": "SteamConnection",
    "hidden": 1,
    "icon": "https://steamcdn-a.akamaihd.net/steamcommunity/public/images/apps/690610/b48864eafe10d1077f158fc20abbd881b92cde42.jpg",
    "icongray": "https://steamcdn-a.akamaihd.net/steamcommunity/public/images/apps/690610/098b8331509ab8d9b9da4d62e9854552648c4ad6.jpg"
  },
  {
    "name": "ProgrammerAdventurerBronze",
    "defaultvalue": 0,
    "displayName": "Programmer Adventurer",
    "hidden": 1,
    "icon": "https://steamcdn-a.akamaihd.net/steamcommunity/public/images/apps/690610/2b3289011fc28a904b6068a5f5d0e40d4482995e.jpg",
    "icongray": "https://steamcdn-a.akamaihd.net/steamcommunity/public/images/apps/690610/806052a802632f3bb86b2e48be08c6a68516fbc6.jpg"
  },
  {
    "name": "ProgrammerAdventurerSilver",
    "defaultvalue": 0,
    "displayName": "Programmer Adventurer",
    "hidden": 1,
    "icon": "https://steamcdn-a.akamaihd.net/steamcommunity/public/images/apps/690610/2b3289011fc28a904b6068a5f5d0e40d4482995e.jpg",
    "icongray": "https://steamcdn-a.akamaihd.net/steamcommunity/public/images/apps/690610/806052a802632f3bb86b2e48be08c6a68516fbc6.jpg"
  },
  {
    "name": "ProgrammerAdventurerGold",
    "defaultvalue": 0,
    "displayName": "Programmer Adventurer",
    "hidden": 1,
    "icon": "https://steamcdn-a.akamaihd.net/steamcommunity/public/images/apps/690610/2b3289011fc28a904b6068a5f5d0e40d4482995e.jpg",
    "icongray": "https://steamcdn-a.akamaihd.net/steamcommunity/public/images/apps/690610/806052a802632f3bb86b2e48be08c6a68516fbc6.jpg"
  }
]