{
  "Dlcs": {},
  "Name": "Okay, Panic!",
  "AppId": "1098790",
  "ImageUrl": "https://steamcdn-a.akamaihd.net/steam/apps/1098790/header.jpg?t=1562766978",
  "Languages": [
    "english"
  ],
  "Platforms": {
    "windows": true,
    "mac": false,
    "linux": false
  }
}