﻿[
  {
    "name": "ML_ACHIEVEMENT_01",
    "defaultvalue": 0,
    "displayName": "Hello World!",
    "hidden": 0,
    "description": "Complete your first online race",
    "icon": "https://steamcdn-a.akamaihd.net/steamcommunity/public/images/apps/477770/8c8e2ee0cbd9e89272b772174d7fc95709f2c0c8.jpg",
    "icongray": "https://steamcdn-a.akamaihd.net/steamcommunity/public/images/apps/477770/327678908dc5252e53d4cb57c4ae46e017a9e58d.jpg"
  },
  {
    "name": "ML_ACHIEVEMENT_02",
    "defaultvalue": 0,
    "displayName": "Online Champion",
    "hidden": 0,
    "description": "Complete an online championship",
    "icon": "https://steamcdn-a.akamaihd.net/steamcommunity/public/images/apps/477770/3a5356084030ae0cc584d5879fb2b9cd9325d517.jpg",
    "icongray": "https://steamcdn-a.akamaihd.net/steamcommunity/public/images/apps/477770/de739ce618a9402d425633d069e5d3a3189f6f0d.jpg"
  },
  {
    "name": "ML_ACHIEVEMENT_03",
    "defaultvalue": 0,
    "displayName": "Online Maestro",
    "hidden": 0,
    "description": "Complete 25 online races",
    "icon": "https://steamcdn-a.akamaihd.net/steamcommunity/public/images/apps/477770/641f155bcab2be83a961ab9fd2303f78c3ec1eac.jpg",
    "icongray": "https://steamcdn-a.akamaihd.net/steamcommunity/public/images/apps/477770/0cf0cd6e423a4183250802216585b812b9bf87a9.jpg"
  },
  {
    "name": "ML_ACHIEVEMENT_04",
    "defaultvalue": 0,
    "displayName": "Supermoto Winner",
    "hidden": 0,
    "description": "Finish first in a Supermoto World Tour event",
    "icon": "https://steamcdn-a.akamaihd.net/steamcommunity/public/images/apps/477770/415186ca279994c4665edc60c3e399dda67e47a8.jpg",
    "icongray": "https://steamcdn-a.akamaihd.net/steamcommunity/public/images/apps/477770/6fdceaa64100e7d5da56fd38453ea79a5ab8f900.jpg"
  },
  {
    "name": "ML_ACHIEVEMENT_05",
    "defaultvalue": 0,
    "displayName": "No mistakes allowed",
    "hidden": 0,
    "description": "Finish first in a Perfect Trajectory World Tour event",
    "icon": "https://steamcdn-a.akamaihd.net/steamcommunity/public/images/apps/477770/a53c8ae437372f9b5cf4dae609b5657b7e9d73bd.jpg",
    "icongray": "https://steamcdn-a.akamaihd.net/steamcommunity/public/images/apps/477770/bb8689f759b3a244df73ad2a3a61fe4338f01f24.jpg"
  },
  {
    "name": "ML_ACHIEVEMENT_06",
    "defaultvalue": 0,
    "displayName": "Brothers",
    "hidden": 0,
    "description": "Finish first in a Pairs Race World Tour event",
    "icon": "https://steamcdn-a.akamaihd.net/steamcommunity/public/images/apps/477770/5594c27afda0030af2731a6288f9558fc6b1d871.jpg",
    "icongray": "https://steamcdn-a.akamaihd.net/steamcommunity/public/images/apps/477770/4c5c96e319768f4e91f076587a34c4906594ff22.jpg"
  },
  {
    "name": "ML_ACHIEVEMENT_07",
    "defaultvalue": 0,
    "displayName": "Lightning start",
    "hidden": 0,
    "description": "Finish first in a Drag Race World Tour event",
    "icon": "https://steamcdn-a.akamaihd.net/steamcommunity/public/images/apps/477770/ffa170707d2572ed7e4887a1344b359236f8f30e.jpg",
    "icongray": "https://steamcdn-a.akamaihd.net/steamcommunity/public/images/apps/477770/8b95c3e8ecdc48faecc99d45f7125fafd6ae5969.jpg"
  },
  {
    "name": "ML_ACHIEVEMENT_08",
    "defaultvalue": 0,
    "displayName": "There’s no time to lose!",
    "hidden": 0,
    "description": "Score the best time in a Time Attack World Tour event",
    "icon": "https://steamcdn-a.akamaihd.net/steamcommunity/public/images/apps/477770/fae76e13b20da58fa28bab430e6e3d028e2b9e33.jpg",
    "icongray": "https://steamcdn-a.akamaihd.net/steamcommunity/public/images/apps/477770/eb88ceea84831ed7b446210d9987fd33bdf75b67.jpg"
  },
  {
    "name": "ML_ACHIEVEMENT_09",
    "defaultvalue": 0,
    "displayName": "It's crowded here",
    "hidden": 0,
    "description": "Finish first in a Track Day World Tour event",
    "icon": "https://steamcdn-a.akamaihd.net/steamcommunity/public/images/apps/477770/fb5c160b2c7c8cfc28da7a426e9bbda437c91b09.jpg",
    "icongray": "https://steamcdn-a.akamaihd.net/steamcommunity/public/images/apps/477770/c7b3470914c4844bcc0607d2b564366e97b61ee6.jpg"
  },
  {
    "name": "ML_ACHIEVEMENT_10",
    "defaultvalue": 0,
    "displayName": "Durable",
    "hidden": 0,
    "description": "Finish first in an Endurance World Tour event",
    "icon": "https://steamcdn-a.akamaihd.net/steamcommunity/public/images/apps/477770/4408eda0680544d28bdc0b29760416b8c3010d04.jpg",
    "icongray": "https://steamcdn-a.akamaihd.net/steamcommunity/public/images/apps/477770/db874364bb175d089c90958e629887812c31fde4.jpg"
  },
  {
    "name": "ML_ACHIEVEMENT_11",
    "defaultvalue": 0,
    "displayName": "Track Duel",
    "hidden": 0,
    "description": "Finish first in a Head-to-head World Tour event",
    "icon": "https://steamcdn-a.akamaihd.net/steamcommunity/public/images/apps/477770/04efffb07d8ab239fe07b627e8bfd997f25a67f4.jpg",
    "icongray": "https://steamcdn-a.akamaihd.net/steamcommunity/public/images/apps/477770/d650719d87cbe3551ca53aa9f4247e5cc28d742f.jpg"
  },
  {
    "name": "ML_ACHIEVEMENT_12",
    "defaultvalue": 0,
    "displayName": "Slippery victory",
    "hidden": 0,
    "description": "Win a race under the rain",
    "icon": "https://steamcdn-a.akamaihd.net/steamcommunity/public/images/apps/477770/22dec8b3a413e1b670a82de39b91a1e08747c2f1.jpg",
    "icongray": "https://steamcdn-a.akamaihd.net/steamcommunity/public/images/apps/477770/e3429099f3e4698e186704e384e176365d3a2ba6.jpg"
  },
  {
    "name": "ML_ACHIEVEMENT_13",
    "defaultvalue": 0,
    "displayName": "The longest track",
    "hidden": 0,
    "description": "Complete a race at Nürburgring Nordschleife - Full Circuit",
    "icon": "https://steamcdn-a.akamaihd.net/steamcommunity/public/images/apps/477770/eaabdf608b6d7029b0102ab3700dfd17ee93c9b0.jpg",
    "icongray": "https://steamcdn-a.akamaihd.net/steamcommunity/public/images/apps/477770/2495cb198aee2be8e67bfced875996ba9a0f14cc.jpg"
  },
  {
    "name": "ML_ACHIEVEMENT_14",
    "defaultvalue": 0,
    "displayName": "You can call me...",
    "hidden": 0,
    "description": "Unlock a Rider Badge",
    "icon": "https://steamcdn-a.akamaihd.net/steamcommunity/public/images/apps/477770/afe1cb81cebc31761e6340bfb80e88ee0f96a143.jpg",
    "icongray": "https://steamcdn-a.akamaihd.net/steamcommunity/public/images/apps/477770/2c61ea00f70ea8d8e4f7357007f65beb0aebf61d.jpg"
  },
  {
    "name": "ML_ACHIEVEMENT_15",
    "defaultvalue": 0,
    "displayName": "Precarious balance",
    "hidden": 0,
    "description": "Hold a wheelie for 8 consecutive seconds",
    "icon": "https://steamcdn-a.akamaihd.net/steamcommunity/public/images/apps/477770/837647fab8a9722b6e7076f0fe2a75ec9e766f4a.jpg",
    "icongray": "https://steamcdn-a.akamaihd.net/steamcommunity/public/images/apps/477770/149b141a5dc1beb5b54dc5bb573839f05eba9772.jpg"
  },
  {
    "name": "ML_ACHIEVEMENT_16",
    "defaultvalue": 0,
    "displayName": "On your toes",
    "hidden": 0,
    "description": "Hold a stoppie for 2 consecutive seconds",
    "icon": "https://steamcdn-a.akamaihd.net/steamcommunity/public/images/apps/477770/5d912ff5dec89aaaaf5006e2aa488652652ff4d3.jpg",
    "icongray": "https://steamcdn-a.akamaihd.net/steamcommunity/public/images/apps/477770/bc22a0fc089b19cc7a158401277030f2a861f4ff.jpg"
  },
  {
    "name": "ML_ACHIEVEMENT_17",
    "defaultvalue": 0,
    "displayName": "Try and catch me!",
    "hidden": 0,
    "description": "Reach 280 km/h (174 mph)",
    "icon": "https://steamcdn-a.akamaihd.net/steamcommunity/public/images/apps/477770/86095875a58070eacbe24adccc0625aa92c15fb8.jpg",
    "icongray": "https://steamcdn-a.akamaihd.net/steamcommunity/public/images/apps/477770/6dcd118f639572d80f41b45fa4058e717ee7c265.jpg"
  },
  {
    "name": "ML_ACHIEVEMENT_18",
    "defaultvalue": 0,
    "displayName": "See you tomorrow",
    "hidden": 0,
    "description": "Complete the three daily challenges",
    "icon": "https://steamcdn-a.akamaihd.net/steamcommunity/public/images/apps/477770/c7184af08c183bb6e3a7e695474ba29746a90880.jpg",
    "icongray": "https://steamcdn-a.akamaihd.net/steamcommunity/public/images/apps/477770/456acb011e4d210ee06bc35fa1ae1a11fe1c4e35.jpg"
  },
  {
    "name": "ML_ACHIEVEMENT_19",
    "defaultvalue": 0,
    "displayName": "Top or bottom?",
    "hidden": 0,
    "description": "Complete a race in Split Screen mode",
    "icon": "https://steamcdn-a.akamaihd.net/steamcommunity/public/images/apps/477770/72fdf19d3a3d5ad1edc9dad1fc3784540edaea30.jpg",
    "icongray": "https://steamcdn-a.akamaihd.net/steamcommunity/public/images/apps/477770/de07d61fe8f12eae2aec76cb31cfabf35780b206.jpg"
  },
  {
    "name": "ML_ACHIEVEMENT_20",
    "defaultvalue": 0,
    "displayName": "Team battle",
    "hidden": 0,
    "description": "Win a Team vs Team event",
    "icon": "https://steamcdn-a.akamaihd.net/steamcommunity/public/images/apps/477770/6f803232a35a6cc65d8e55aa40aa6a95491c9e1a.jpg",
    "icongray": "https://steamcdn-a.akamaihd.net/steamcommunity/public/images/apps/477770/96b9667c58c04ac540a1aec097d8d21f91840286.jpg"
  },
  {
    "name": "ML_ACHIEVEMENT_21",
    "defaultvalue": 0,
    "displayName": "Team number 1",
    "hidden": 0,
    "description": "Reach first place in the Team Standings",
    "icon": "https://steamcdn-a.akamaihd.net/steamcommunity/public/images/apps/477770/542c47c4b11ab07a4abb4cba8a8952e336667d38.jpg",
    "icongray": "https://steamcdn-a.akamaihd.net/steamcommunity/public/images/apps/477770/c780f854e48d1b66d9ab651e37e2766632c16a2a.jpg"
  },
  {
    "name": "ML_ACHIEVEMENT_22",
    "defaultvalue": 0,
    "displayName": "Boosted",
    "hidden": 0,
    "description": "Reach the podium in a Single Race World Tour event with a pre-modified bike",
    "icon": "https://steamcdn-a.akamaihd.net/steamcommunity/public/images/apps/477770/2d1fd8c88447b605f6d7695b5bb7410313a1e3c3.jpg",
    "icongray": "https://steamcdn-a.akamaihd.net/steamcommunity/public/images/apps/477770/f7910a6159ad3cf841c39e896b2a6f423bb8f3ee.jpg"
  },
  {
    "name": "ML_ACHIEVEMENT_23",
    "defaultvalue": 0,
    "displayName": "Try and beat this!",
    "hidden": 0,
    "description": "Record a valid time in time trial and upload it into the leaderboards",
    "icon": "https://steamcdn-a.akamaihd.net/steamcommunity/public/images/apps/477770/3b001816bdf6cef56e3474c3ab8db959d7e67eec.jpg",
    "icongray": "https://steamcdn-a.akamaihd.net/steamcommunity/public/images/apps/477770/3c93a83808a35b98ee027999244bc1f79ce4e09e.jpg"
  },
  {
    "name": "ML_ACHIEVEMENT_24",
    "defaultvalue": 0,
    "displayName": "Slightly better",
    "hidden": 0,
    "description": "Unlock your first Ride Bonus",
    "icon": "https://steamcdn-a.akamaihd.net/steamcommunity/public/images/apps/477770/c020598f5e633122509b28348be123b8fc83fbe1.jpg",
    "icongray": "https://steamcdn-a.akamaihd.net/steamcommunity/public/images/apps/477770/28ed2fa1a1e04c60fc1d7bba101c12f3500b15f1.jpg"
  },
  {
    "name": "ML_ACHIEVEMENT_25",
    "defaultvalue": 0,
    "displayName": "Decidedly better",
    "hidden": 0,
    "description": "Unlock 10 Ride Bonuses",
    "icon": "https://steamcdn-a.akamaihd.net/steamcommunity/public/images/apps/477770/91f2ceed1f0771d42f53ccf652b7c23638c57586.jpg",
    "icongray": "https://steamcdn-a.akamaihd.net/steamcommunity/public/images/apps/477770/d7d5d5abd5f0bbe4a915cc570561f6c8f6fb0fa4.jpg"
  },
  {
    "name": "ML_ACHIEVEMENT_26",
    "defaultvalue": 0,
    "displayName": "The best",
    "hidden": 0,
    "description": "Unlock all Ride Bonuses",
    "icon": "https://steamcdn-a.akamaihd.net/steamcommunity/public/images/apps/477770/ba19f587e3ba5ae101aef818ae4ebaf5e0c776bd.jpg",
    "icongray": "https://steamcdn-a.akamaihd.net/steamcommunity/public/images/apps/477770/5e1f919f0bdc0e5c3728b1236ec774436d1bef04.jpg"
  },
  {
    "name": "ML_ACHIEVEMENT_27",
    "defaultvalue": 0,
    "displayName": "Best in the world",
    "hidden": 0,
    "description": "Reach first place in the World Tour Rider Leaderboard",
    "icon": "https://steamcdn-a.akamaihd.net/steamcommunity/public/images/apps/477770/fdcba59c0590461e249781d82e4fda2841632454.jpg",
    "icongray": "https://steamcdn-a.akamaihd.net/steamcommunity/public/images/apps/477770/3f1829ee4ad1f6e37badd53d02643e31899112c6.jpg"
  },
  {
    "name": "ML_ACHIEVEMENT_28",
    "defaultvalue": 0,
    "displayName": "Championship completed",
    "hidden": 0,
    "description": "Finish first in a World Tour championship",
    "icon": "https://steamcdn-a.akamaihd.net/steamcommunity/public/images/apps/477770/083889f9712827ca3394fa386ffc5a205545d013.jpg",
    "icongray": "https://steamcdn-a.akamaihd.net/steamcommunity/public/images/apps/477770/1a009431935682fd04c8bf6c156a3bd4acdee7c0.jpg"
  },
  {
    "name": "ML_ACHIEVEMENT_29",
    "defaultvalue": 0,
    "displayName": "20 wheels",
    "hidden": 0,
    "description": "Collect a total of 10 bikes",
    "icon": "https://steamcdn-a.akamaihd.net/steamcommunity/public/images/apps/477770/d11357e239adfaaec4b8f2a9513bee89d2bca9c5.jpg",
    "icongray": "https://steamcdn-a.akamaihd.net/steamcommunity/public/images/apps/477770/e3bd3b526e17537edd8099a27dbc1f808c9858e3.jpg"
  },
  {
    "name": "ML_ACHIEVEMENT_30",
    "defaultvalue": 0,
    "displayName": "50 wheels",
    "hidden": 0,
    "description": "Collect a total of 25 bikes",
    "icon": "https://steamcdn-a.akamaihd.net/steamcommunity/public/images/apps/477770/b231c5f50944056350695bf78d27ed5de53cc6a7.jpg",
    "icongray": "https://steamcdn-a.akamaihd.net/steamcommunity/public/images/apps/477770/e45b91113a86a905f6cfc247053a0d13711a0f5d.jpg"
  },
  {
    "name": "ML_ACHIEVEMENT_31",
    "defaultvalue": 0,
    "displayName": "100 wheels",
    "hidden": 0,
    "description": "Collect a total of 50 bikes",
    "icon": "https://steamcdn-a.akamaihd.net/steamcommunity/public/images/apps/477770/578aa3099d3ed2ade1b4767de0c773f14e97b985.jpg",
    "icongray": "https://steamcdn-a.akamaihd.net/steamcommunity/public/images/apps/477770/895deb40e766d2d75cd8c05bd02de6c5862e3161.jpg"
  },
  {
    "name": "ML_ACHIEVEMENT_32",
    "defaultvalue": 0,
    "displayName": "Good start",
    "hidden": 0,
    "description": "Race a total of 100 km (62 miles) with any bike",
    "icon": "https://steamcdn-a.akamaihd.net/steamcommunity/public/images/apps/477770/6a7476f99ad5a7660f7ab6dc0a010b465f853d56.jpg",
    "icongray": "https://steamcdn-a.akamaihd.net/steamcommunity/public/images/apps/477770/94e91033f44113f338d18f606df4384c9025153f.jpg"
  },
  {
    "name": "ML_ACHIEVEMENT_33",
    "defaultvalue": 0,
    "displayName": "You can’t stop me",
    "hidden": 0,
    "description": "Race a total of 250 km (155 miles) with any bike",
    "icon": "https://steamcdn-a.akamaihd.net/steamcommunity/public/images/apps/477770/86bcee74003184adf1b2e8b6a1c3ffc90b82ac76.jpg",
    "icongray": "https://steamcdn-a.akamaihd.net/steamcommunity/public/images/apps/477770/91eea57d618fe0352c84d6e785041b58d1b70510.jpg"
  },
  {
    "name": "ML_ACHIEVEMENT_34",
    "defaultvalue": 0,
    "displayName": "It’s a long road",
    "hidden": 0,
    "description": "Race a total of 500 km (310 miles) with any bike",
    "icon": "https://steamcdn-a.akamaihd.net/steamcommunity/public/images/apps/477770/b7320064509e9589cff633ab6993c1da703e2592.jpg",
    "icongray": "https://steamcdn-a.akamaihd.net/steamcommunity/public/images/apps/477770/2104069eaf257509307ab6f166ffe282e047e67f.jpg"
  },
  {
    "name": "ML_ACHIEVEMENT_35",
    "defaultvalue": 0,
    "displayName": "Time Traveler",
    "hidden": 0,
    "description": "Use the Rewind for the first time",
    "icon": "https://steamcdn-a.akamaihd.net/steamcommunity/public/images/apps/477770/ceff9d35e677e83756d0e2412ee8720c246cad7b.jpg",
    "icongray": "https://steamcdn-a.akamaihd.net/steamcommunity/public/images/apps/477770/c616b39f56fe0253973a7753326484386e6d0b98.jpg"
  }
]