{
  "Dlcs": {
    "884030": {
      "Name": "",
      "ImageUrl": ""
    },
    "884031": {
      "Name": "State of Mind - Artbook",
      "ImageUrl": "https://steamcdn-a.akamaihd.net/steam/apps/884031/header.jpg?t=1534352484"
    }
  },
  "Name": "State of Mind",
  "AppId": "437630",
  "ImageUrl": "https://steamcdn-a.akamaihd.net/steam/apps/437630/header.jpg?t=1598986804",
  "Languages": [
    "english",
    "french",
    "german",
    "spanish",
    "japanese",
    "korean",
    "portuguese",
    "russian",
    "italian",
    "schinese",
    "tchinese",
    "turkish"
  ],
  "Platforms": {
    "windows": true,
    "mac": true,
    "linux": true
  }
}