﻿[
  {
    "name": "ACH_GOLD_NO_OVERFILL",
    "defaultvalue": 0,
    "displayName": "Royal Ride",
    "hidden": 0,
    "description": "Earn Gold without overfilling. 2 min minimum.",
    "icon": "https://steamcdn-a.akamaihd.net/steamcommunity/public/images/apps/12900/7e5993181c641c4da2b21c1f1e2b26502a341ffd.jpg",
    "icongray": "https://steamcdn-a.akamaihd.net/steamcommunity/public/images/apps/12900/a0366151c1a7d00ad5a33c59f170af02c24e1d65.jpg"
  },
  {
    "name": "ACH_STEALTH_SHORT",
    "defaultvalue": 0,
    "displayName": "Stealth Adept",
    "hidden": 0,
    "description": "Using Ninja Mono, earn Stealth. 3 min minimum.",
    "icon": "https://steamcdn-a.akamaihd.net/steamcommunity/public/images/apps/12900/8cbdd7cd9511cf38b2eb0f339d5e505e7a0ef849.jpg",
    "icongray": "https://steamcdn-a.akamaihd.net/steamcommunity/public/images/apps/12900/4ed9f9432d5b86d0f06e271be9c1c574fd18634f.jpg"
  },
  {
    "name": "ACH_STEALTH_MED",
    "defaultvalue": 0,
    "displayName": "Stealth Master",
    "hidden": 0,
    "description": "Using Ninja Mono, earn Stealth. 7 min minimum.",
    "icon": "https://steamcdn-a.akamaihd.net/steamcommunity/public/images/apps/12900/27ed7fa957c7f1ce3c59299b755b30abfaaec8c5.jpg",
    "icongray": "https://steamcdn-a.akamaihd.net/steamcommunity/public/images/apps/12900/f117a3ae70a3829607e0238a7f915bacbec49a60.jpg"
  },
  {
    "name": "ACH_STEALTH_LONG",
    "defaultvalue": 0,
    "displayName": "Stealth Legend",
    "hidden": 0,
    "description": "Using Ninja Mono, earn Stealth. 11 min minimum.",
    "icon": "https://steamcdn-a.akamaihd.net/steamcommunity/public/images/apps/12900/63e563237fcff5df7652c29c711d1fa627ad3ffc.jpg",
    "icongray": "https://steamcdn-a.akamaihd.net/steamcommunity/public/images/apps/12900/96d67973a2adc7a6ff0f91c60d785c6c0e1e883f.jpg"
  },
  {
    "name": "ACH_MULTICLEAN",
    "defaultvalue": 0,
    "displayName": "Stainless",
    "hidden": 0,
    "description": "Earn Clean Finish and Gold 3 times in a row.",
    "icon": "https://steamcdn-a.akamaihd.net/steamcommunity/public/images/apps/12900/fbb3b94d83b69d5a7ae6269cd377414fe214ef1b.jpg",
    "icongray": "https://steamcdn-a.akamaihd.net/steamcommunity/public/images/apps/12900/33cbc62d90041d22712b01589bebb5e6ac81afbf.jpg"
  },
  {
    "name": "ACH_PPM_LOW",
    "defaultvalue": 0,
    "displayName": "PPM 10,000",
    "hidden": 0,
    "description": "10000 points per minute. 3 minute minimum.",
    "icon": "https://steamcdn-a.akamaihd.net/steamcommunity/public/images/apps/12900/4d1751bf3007634e1398a92fe40b33a970b8329d.jpg",
    "icongray": "https://steamcdn-a.akamaihd.net/steamcommunity/public/images/apps/12900/8cdaaf352dbde95826611345d7dcb3b7d536c432.jpg"
  },
  {
    "name": "ACH_PPM_HIGH",
    "defaultvalue": 0,
    "displayName": "PPM 30,000",
    "hidden": 0,
    "description": "30000 points per minute. 3 minute minimum.",
    "icon": "https://steamcdn-a.akamaihd.net/steamcommunity/public/images/apps/12900/4135fae98ede979a9b84ff6d940ed4b13598a460.jpg",
    "icongray": "https://steamcdn-a.akamaihd.net/steamcommunity/public/images/apps/12900/7a87474416791715f458f047de8509e74cea5b1f.jpg"
  },
  {
    "name": "ACH_RAINBOW_MATCH",
    "defaultvalue": 0,
    "displayName": "Laser Show",
    "hidden": 0,
    "description": "Collect matches in 4 colors simultaneously.",
    "icon": "https://steamcdn-a.akamaihd.net/steamcommunity/public/images/apps/12900/01ffffd7fbe1cc23657fd4eff7f659f13b3f5ee9.jpg",
    "icongray": "https://steamcdn-a.akamaihd.net/steamcommunity/public/images/apps/12900/275463227e6797b16256b44c3b4c5946b1824f79.jpg"
  },
  {
    "name": "ACH_WHITE_HORDE",
    "defaultvalue": 0,
    "displayName": "Snowstorm",
    "hidden": 0,
    "description": "Collect a chain reaction of 7 white blocks.",
    "icon": "https://steamcdn-a.akamaihd.net/steamcommunity/public/images/apps/12900/495b4ce4bb95acabb64c7a8cba8db8ff66997d5b.jpg",
    "icongray": "https://steamcdn-a.akamaihd.net/steamcommunity/public/images/apps/12900/b4dbc7496c4f2ef27457ed334c05f703c4153624.jpg"
  },
  {
    "name": "ACH_BLUE_ONLY",
    "defaultvalue": 0,
    "displayName": "Big Kahuna",
    "hidden": 0,
    "description": "Score 17000 points in a single match.",
    "icon": "https://steamcdn-a.akamaihd.net/steamcommunity/public/images/apps/12900/99293de11b655240ec2c7537924b43d6e6a10e2d.jpg",
    "icongray": "https://steamcdn-a.akamaihd.net/steamcommunity/public/images/apps/12900/36600a719d14454d3305f339d78feca9ba64bcc5.jpg"
  },
  {
    "name": "ACH_SPOTLIGHT_FINISH",
    "defaultvalue": 0,
    "displayName": "Spotlight Finish",
    "hidden": 0,
    "description": "Finish Clean, Gold before finish, hit last block, elite only.",
    "icon": "https://steamcdn-a.akamaihd.net/steamcommunity/public/images/apps/12900/398d0cf30c6553f244ffd655826cea3f9e1f65f7.jpg",
    "icongray": "https://steamcdn-a.akamaihd.net/steamcommunity/public/images/apps/12900/de655ae72b066924ca10b17ee35142d8090cf829.jpg"
  },
  {
    "name": "ACH_BRUTUS",
    "defaultvalue": 0,
    "displayName": "Brutus",
    "hidden": 0,
    "description": "Dethrone a friend from a global scoreboard.",
    "icon": "https://steamcdn-a.akamaihd.net/steamcommunity/public/images/apps/12900/b77bba951337c7736bf2404d380c2f83db723ef5.jpg",
    "icongray": "https://steamcdn-a.akamaihd.net/steamcommunity/public/images/apps/12900/e798c90f2ef4bb3b8b8865882fdd9017a246db0b.jpg"
  },
  {
    "name": "ACH_AMBUSH",
    "defaultvalue": 0,
    "displayName": "Ambush",
    "hidden": 0,
    "description": "Beat a friend's score less than 15 min. after they earn it.",
    "icon": "https://steamcdn-a.akamaihd.net/steamcommunity/public/images/apps/12900/70cb23a37791c513457cf0ab30c081f23df48369.jpg",
    "icongray": "https://steamcdn-a.akamaihd.net/steamcommunity/public/images/apps/12900/9846b0ac64404ab5486f883a3c65830a183d948d.jpg"
  },
  {
    "name": "ACH_OLYMPIAN",
    "defaultvalue": 0,
    "displayName": "Olympian",
    "hidden": 0,
    "description": "Earn triple a gold medal requirement. 2 min minimum.",
    "icon": "https://steamcdn-a.akamaihd.net/steamcommunity/public/images/apps/12900/ee23451cb7b381e00fec14cd8c843101ffcd3ba1.jpg",
    "icongray": "https://steamcdn-a.akamaihd.net/steamcommunity/public/images/apps/12900/2fb68d42844dcc4457ca28c5a34c754592339014.jpg"
  },
  {
    "name": "ACH_BAUER",
    "defaultvalue": 0,
    "displayName": "Bauer",
    "hidden": 0,
    "description": "Collect a match of 24 blocks.",
    "icon": "https://steamcdn-a.akamaihd.net/steamcommunity/public/images/apps/12900/49cb2ca99a14c646f36f8162102daaf4939d95da.jpg",
    "icongray": "https://steamcdn-a.akamaihd.net/steamcommunity/public/images/apps/12900/0497001a2e185da326b42d05ef2484ab3031d191.jpg"
  },
  {
    "name": "ACH_NINJUTSU",
    "defaultvalue": 0,
    "displayName": "Ninjutsu",
    "hidden": 0,
    "description": "Stealth and collect every color block. 3 min minimum.",
    "icon": "https://steamcdn-a.akamaihd.net/steamcommunity/public/images/apps/12900/39e642f0bb60d9a0dfabfcd4e50f14ddcc5d71be.jpg",
    "icongray": "https://steamcdn-a.akamaihd.net/steamcommunity/public/images/apps/12900/0be7d2f6aa0f2a8ac1001a4653c82a81e347da05.jpg"
  },
  {
    "name": "ACH_BIZARRO",
    "defaultvalue": 0,
    "displayName": "Bizarro",
    "hidden": 0,
    "description": "Fill all columns within 15 seconds. No greys. No matches.",
    "icon": "https://steamcdn-a.akamaihd.net/steamcommunity/public/images/apps/12900/fe9c25cacba2517f3e52805c639ac5b7f1106667.jpg",
    "icongray": "https://steamcdn-a.akamaihd.net/steamcommunity/public/images/apps/12900/ebdd773f73bd1345f4b0082f9d1e545dfd67ff94.jpg"
  },
  {
    "name": "ACH_SUNBURN",
    "defaultvalue": 0,
    "displayName": "Sunburn",
    "hidden": 0,
    "description": "Turn 21 blocks red with a single paint.",
    "icon": "https://steamcdn-a.akamaihd.net/steamcommunity/public/images/apps/12900/8a71afc2e781d6b6bca2baf5ef79df1a9e99e92b.jpg",
    "icongray": "https://steamcdn-a.akamaihd.net/steamcommunity/public/images/apps/12900/d1a423a020312e64e878d77e450482ec97c6adf7.jpg"
  },
  {
    "name": "ACH_CANDYCANE",
    "defaultvalue": 0,
    "displayName": "Candy Stripe",
    "hidden": 0,
    "description": "Make a candy stripe.",
    "icon": "https://steamcdn-a.akamaihd.net/steamcommunity/public/images/apps/12900/b5b834a6960ba7278a7440a83adb28a7b5f61021.jpg",
    "icongray": "https://steamcdn-a.akamaihd.net/steamcommunity/public/images/apps/12900/15deb6bc92111d07d03635783afee6eedd0a8e9c.jpg"
  }
]