[
  {
    "name": "ACH_STRIFE",
    "defaultvalue": 0,
    "displayName": "Strife",
    "hidden": 0,
    "description": "Defeat Strife.",
    "icon": "https://steamcdn-a.akamaihd.net/steamcommunity/public/images/apps/894310/b60acac919a730b476f2248c58e421a1b39b3be6.jpg",
    "icongray": "https://steamcdn-a.akamaihd.net/steamcommunity/public/images/apps/894310/0648a1dde02c78e6d5c57ba9cf182122ebe643c8.jpg"
  },
  {
    "name": "ACH_MSLIME",
    "defaultvalue": 0,
    "displayName": "Master Slime",
    "hidden": 0,
    "description": "Defeat Master Slime.",
    "icon": "https://steamcdn-a.akamaihd.net/steamcommunity/public/images/apps/894310/b2892b24c482354fe35a36288b66629341897909.jpg",
    "icongray": "https://steamcdn-a.akamaihd.net/steamcommunity/public/images/apps/894310/b0e2e34a7c90d8eb58a046fdf1bf5d99695f4a48.jpg"
  },
  {
    "name": "ACH_SYLVANARAS",
    "defaultvalue": 0,
    "displayName": "Sylvanaras",
    "hidden": 0,
    "description": "Retrieve Sylvanaras.",
    "icon": "https://steamcdn-a.akamaihd.net/steamcommunity/public/images/apps/894310/e42585174c1d1d91ae2b44b293b8f6105529ad8a.jpg",
    "icongray": "https://steamcdn-a.akamaihd.net/steamcommunity/public/images/apps/894310/0ea566de1100d801be35ac13af92df3395bdc894.jpg"
  },
  {
    "name": "ACH_ALCHEMIST",
    "defaultvalue": 0,
    "displayName": "Alchemist",
    "hidden": 0,
    "description": "Obtain all five alchemist recipes.",
    "icon": "https://steamcdn-a.akamaihd.net/steamcommunity/public/images/apps/894310/fedbc79b33fa617e9d6742893f1c8ac974bd5514.jpg",
    "icongray": "https://steamcdn-a.akamaihd.net/steamcommunity/public/images/apps/894310/ae54bf72318cff87106a0d50ebb2c3be4b4a1689.jpg"
  },
  {
    "name": "ACH_PEACE",
    "defaultvalue": 0,
    "displayName": "Peace",
    "hidden": 0,
    "description": "Defeat the final boss.",
    "icon": "https://steamcdn-a.akamaihd.net/steamcommunity/public/images/apps/894310/21a68b794f327685d741efd35fc71d5cb5728e0f.jpg",
    "icongray": "https://steamcdn-a.akamaihd.net/steamcommunity/public/images/apps/894310/61ac4befa58b49882dfc78e19283613b9c94e292.jpg"
  },
  {
    "name": "ACH_HARD",
    "defaultvalue": 0,
    "displayName": "Hardmode",
    "hidden": 0,
    "description": "Defeat the final boss on Hard difficulty.",
    "icon": "https://steamcdn-a.akamaihd.net/steamcommunity/public/images/apps/894310/e68ea4d52ae63332f845902242dc5a9e7e2e2b4e.jpg",
    "icongray": "https://steamcdn-a.akamaihd.net/steamcommunity/public/images/apps/894310/3c7dfab76cb739b6b97dfbd96587e02e569316f0.jpg"
  }
]