[
  {
    "name": "TIME_IN_GAME",
    "defaultvalue": 0,
    "displayName": "Time in game"
  },
  {
    "name": "ENEMIES_KILL_COUNT",
    "defaultvalue": 0,
    "displayName": "Total killed enemies"
  },
  {
    "name": "FINISHED_GAMES",
    "defaultvalue": 0,
    "displayName": "Finished games"
  }
]