[
  {
    "name": "AC_0",
    "defaultvalue": 0,
    "displayName": "It's time for baseball!",
    "hidden": 0,
    "description": "Win your first game",
    "icon": "https://steamcdn-a.akamaihd.net/steamcommunity/public/images/apps/1296200/da93a747fe73584110b6fb76209fab6662348be0.jpg",
    "icongray": "https://steamcdn-a.akamaihd.net/steamcommunity/public/images/apps/1296200/15d4a1aeb301758f8cc9de9acfd886b64882bf50.jpg"
  },
  {
    "name": "AC_1",
    "defaultvalue": 0,
    "displayName": "Not a rookie anymore",
    "hidden": 0,
    "description": "Complete all starter challenges",
    "icon": "https://steamcdn-a.akamaihd.net/steamcommunity/public/images/apps/1296200/de24102c09124d1fe235aa0755d62946a1fc9065.jpg",
    "icongray": "https://steamcdn-a.akamaihd.net/steamcommunity/public/images/apps/1296200/15d4a1aeb301758f8cc9de9acfd886b64882bf50.jpg"
  },
  {
    "name": "AC_2",
    "defaultvalue": 0,
    "displayName": "Winning team",
    "hidden": 0,
    "description": "Win ten games",
    "icon": "https://steamcdn-a.akamaihd.net/steamcommunity/public/images/apps/1296200/f81f7bc6c2da76676024dc5a568a1bb4b71ee771.jpg",
    "icongray": "https://steamcdn-a.akamaihd.net/steamcommunity/public/images/apps/1296200/15d4a1aeb301758f8cc9de9acfd886b64882bf50.jpg"
  },
  {
    "name": "AC_3",
    "defaultvalue": 0,
    "displayName": "Season break",
    "hidden": 0,
    "description": "Reach mid-season",
    "icon": "https://steamcdn-a.akamaihd.net/steamcommunity/public/images/apps/1296200/5cf3e8010ca9170ac6f2b3cd2a37540cab42badb.jpg",
    "icongray": "https://steamcdn-a.akamaihd.net/steamcommunity/public/images/apps/1296200/15d4a1aeb301758f8cc9de9acfd886b64882bf50.jpg"
  },
  {
    "name": "AC_4",
    "defaultvalue": 0,
    "displayName": "A very good year",
    "hidden": 0,
    "description": "Win thirty-five games",
    "icon": "https://steamcdn-a.akamaihd.net/steamcommunity/public/images/apps/1296200/3c2132b63162e08d36b3142cae654922d988a5fa.jpg",
    "icongray": "https://steamcdn-a.akamaihd.net/steamcommunity/public/images/apps/1296200/15d4a1aeb301758f8cc9de9acfd886b64882bf50.jpg"
  },
  {
    "name": "AC_5",
    "defaultvalue": 0,
    "displayName": "This is just business",
    "hidden": 0,
    "description": "Trade a player",
    "icon": "https://steamcdn-a.akamaihd.net/steamcommunity/public/images/apps/1296200/541b62b249adecf093da97e21ef48718b13c76cd.jpg",
    "icongray": "https://steamcdn-a.akamaihd.net/steamcommunity/public/images/apps/1296200/15d4a1aeb301758f8cc9de9acfd886b64882bf50.jpg"
  },
  {
    "name": "AC_6",
    "defaultvalue": 0,
    "displayName": "Who's the coach?",
    "hidden": 0,
    "description": "Finish your first season",
    "icon": "https://steamcdn-a.akamaihd.net/steamcommunity/public/images/apps/1296200/67a7c7392a2e4d52dc9e0b4d315854055113a859.jpg",
    "icongray": "https://steamcdn-a.akamaihd.net/steamcommunity/public/images/apps/1296200/15d4a1aeb301758f8cc9de9acfd886b64882bf50.jpg"
  },
  {
    "name": "AC_7",
    "defaultvalue": 0,
    "displayName": "Not ready for the show",
    "hidden": 0,
    "description": "Send a player to your minor team",
    "icon": "https://steamcdn-a.akamaihd.net/steamcommunity/public/images/apps/1296200/7d5d9f3b318fa7fd61e353b96b7536e7d3ef442f.jpg",
    "icongray": "https://steamcdn-a.akamaihd.net/steamcommunity/public/images/apps/1296200/15d4a1aeb301758f8cc9de9acfd886b64882bf50.jpg"
  },
  {
    "name": "AC_8",
    "defaultvalue": 0,
    "displayName": "A five-tool player",
    "hidden": 0,
    "description": "Scout ten different players",
    "icon": "https://steamcdn-a.akamaihd.net/steamcommunity/public/images/apps/1296200/272312f9bdba229d0232165c46c74d135c57ded4.jpg",
    "icongray": "https://steamcdn-a.akamaihd.net/steamcommunity/public/images/apps/1296200/15d4a1aeb301758f8cc9de9acfd886b64882bf50.jpg"
  },
  {
    "name": "AC_9",
    "defaultvalue": 0,
    "displayName": "With the first pick",
    "hidden": 0,
    "description": "Make your first draft",
    "icon": "https://steamcdn-a.akamaihd.net/steamcommunity/public/images/apps/1296200/c4efcccb7900903220879ce6bff926ddb67ad19c.jpg",
    "icongray": "https://steamcdn-a.akamaihd.net/steamcommunity/public/images/apps/1296200/15d4a1aeb301758f8cc9de9acfd886b64882bf50.jpg"
  },
  {
    "name": "AC_10",
    "defaultvalue": 0,
    "displayName": "You're my best friend!",
    "hidden": 0,
    "description": "Become best friend with an university's coach",
    "icon": "https://steamcdn-a.akamaihd.net/steamcommunity/public/images/apps/1296200/3fce30180c70115db5f298f9904dda2d6ac0a3a5.jpg",
    "icongray": "https://steamcdn-a.akamaihd.net/steamcommunity/public/images/apps/1296200/15d4a1aeb301758f8cc9de9acfd886b64882bf50.jpg"
  },
  {
    "name": "AC_11",
    "defaultvalue": 0,
    "displayName": "Golden generation",
    "hidden": 0,
    "description": "Get a rookie of the year in your team",
    "icon": "https://steamcdn-a.akamaihd.net/steamcommunity/public/images/apps/1296200/2f3b7812d117ed9e4a804e70e14f1a5bdf7f3aca.jpg",
    "icongray": "https://steamcdn-a.akamaihd.net/steamcommunity/public/images/apps/1296200/15d4a1aeb301758f8cc9de9acfd886b64882bf50.jpg"
  },
  {
    "name": "AC_12",
    "defaultvalue": 0,
    "displayName": "Road to the Baseball Cup",
    "hidden": 0,
    "description": "Make it to the playoffs",
    "icon": "https://steamcdn-a.akamaihd.net/steamcommunity/public/images/apps/1296200/43bbf37f90770a009eb85f3412f204713d866b40.jpg",
    "icongray": "https://steamcdn-a.akamaihd.net/steamcommunity/public/images/apps/1296200/15d4a1aeb301758f8cc9de9acfd886b64882bf50.jpg"
  },
  {
    "name": "AC_13",
    "defaultvalue": 0,
    "displayName": "Almost there",
    "hidden": 0,
    "description": "Make it to the Baseball Cup finales",
    "icon": "https://steamcdn-a.akamaihd.net/steamcommunity/public/images/apps/1296200/1fc09a5330f56019f5bb018ac42a6786038faac9.jpg",
    "icongray": "https://steamcdn-a.akamaihd.net/steamcommunity/public/images/apps/1296200/15d4a1aeb301758f8cc9de9acfd886b64882bf50.jpg"
  },
  {
    "name": "AC_14",
    "defaultvalue": 0,
    "displayName": "Baseball Champion",
    "hidden": 0,
    "description": "Win the Baseball Cup",
    "icon": "https://steamcdn-a.akamaihd.net/steamcommunity/public/images/apps/1296200/918815a9762cf7966d3b963fb2db5e720be98937.jpg",
    "icongray": "https://steamcdn-a.akamaihd.net/steamcommunity/public/images/apps/1296200/15d4a1aeb301758f8cc9de9acfd886b64882bf50.jpg"
  },
  {
    "name": "AC_15",
    "defaultvalue": 0,
    "displayName": "MVP",
    "hidden": 0,
    "description": "Get a MVP in your team",
    "icon": "https://steamcdn-a.akamaihd.net/steamcommunity/public/images/apps/1296200/94fc18c815bff8ef35e7f5555c7bd3ff7d063bca.jpg",
    "icongray": "https://steamcdn-a.akamaihd.net/steamcommunity/public/images/apps/1296200/15d4a1aeb301758f8cc9de9acfd886b64882bf50.jpg"
  },
  {
    "name": "AC_16",
    "defaultvalue": 0,
    "displayName": "A time of legends",
    "hidden": 0,
    "description": "Get a legendary player in your team",
    "icon": "https://steamcdn-a.akamaihd.net/steamcommunity/public/images/apps/1296200/0e794c3e8560f1afa9cfb4e6a3849ce43810ad9e.jpg",
    "icongray": "https://steamcdn-a.akamaihd.net/steamcommunity/public/images/apps/1296200/17c0ea43197e61500a28c2afc937eef52cccc1f2.jpg"
  },
  {
    "name": "AC17",
    "defaultvalue": 0,
    "displayName": "Who's Derek anyway?",
    "hidden": 0,
    "description": "Win the Derek Award",
    "icon": "https://steamcdn-a.akamaihd.net/steamcommunity/public/images/apps/1296200/0a28815a9f5f467087d19a7b25853ea4f791961b.jpg",
    "icongray": "https://steamcdn-a.akamaihd.net/steamcommunity/public/images/apps/1296200/17c0ea43197e61500a28c2afc937eef52cccc1f2.jpg"
  },
  {
    "name": "AC_18",
    "defaultvalue": 0,
    "displayName": "GOAT",
    "hidden": 0,
    "description": "Win the Coach John Award",
    "icon": "https://steamcdn-a.akamaihd.net/steamcommunity/public/images/apps/1296200/43bbf37f90770a009eb85f3412f204713d866b40.jpg",
    "icongray": "https://steamcdn-a.akamaihd.net/steamcommunity/public/images/apps/1296200/15d4a1aeb301758f8cc9de9acfd886b64882bf50.jpg"
  },
  {
    "name": "AC_19",
    "defaultvalue": 0,
    "displayName": "More than a manager",
    "hidden": 0,
    "description": "Win the Coach of the year award",
    "icon": "https://steamcdn-a.akamaihd.net/steamcommunity/public/images/apps/1296200/ab3b57ff606b8d679ff266c32a028bb0db092a0a.jpg",
    "icongray": "https://steamcdn-a.akamaihd.net/steamcommunity/public/images/apps/1296200/15d4a1aeb301758f8cc9de9acfd886b64882bf50.jpg"
  },
  {
    "name": "AC_20",
    "defaultvalue": 0,
    "displayName": "The Speech",
    "hidden": 0,
    "description": "Get a player in the Hall of Fame",
    "icon": "https://steamcdn-a.akamaihd.net/steamcommunity/public/images/apps/1296200/f81f7bc6c2da76676024dc5a568a1bb4b71ee771.jpg",
    "icongray": "https://steamcdn-a.akamaihd.net/steamcommunity/public/images/apps/1296200/15d4a1aeb301758f8cc9de9acfd886b64882bf50.jpg"
  },
  {
    "name": "AC_21",
    "defaultvalue": 0,
    "displayName": "A ball of money",
    "hidden": 0,
    "description": "Win twenty games in a row",
    "icon": "https://steamcdn-a.akamaihd.net/steamcommunity/public/images/apps/1296200/153c0fcef5ac2db3358e6ee53841ee17209bfb7a.jpg",
    "icongray": "https://steamcdn-a.akamaihd.net/steamcommunity/public/images/apps/1296200/15d4a1aeb301758f8cc9de9acfd886b64882bf50.jpg"
  },
  {
    "name": "AC_22",
    "defaultvalue": 0,
    "displayName": "Golden trade",
    "hidden": 0,
    "description": "Trade for an all-star player",
    "icon": "https://steamcdn-a.akamaihd.net/steamcommunity/public/images/apps/1296200/6c6609efa26cd277dd79e00ac1c4a21113118f5c.jpg",
    "icongray": "https://steamcdn-a.akamaihd.net/steamcommunity/public/images/apps/1296200/15d4a1aeb301758f8cc9de9acfd886b64882bf50.jpg"
  },
  {
    "name": "AC_23",
    "defaultvalue": 0,
    "displayName": "Proven Closer",
    "hidden": 0,
    "description": "Get a closer of the year",
    "icon": "https://steamcdn-a.akamaihd.net/steamcommunity/public/images/apps/1296200/cb727bb47b31f86078822a6a28fb89603b46da5a.jpg",
    "icongray": "https://steamcdn-a.akamaihd.net/steamcommunity/public/images/apps/1296200/15d4a1aeb301758f8cc9de9acfd886b64882bf50.jpg"
  },
  {
    "name": "AC_24",
    "defaultvalue": 0,
    "displayName": "Blaming the shift",
    "hidden": 0,
    "description": "Reach a 80% defense",
    "icon": "https://steamcdn-a.akamaihd.net/steamcommunity/public/images/apps/1296200/727a3b93b243d1f3f9e537afbb3d06d9895bff63.jpg",
    "icongray": "https://steamcdn-a.akamaihd.net/steamcommunity/public/images/apps/1296200/15d4a1aeb301758f8cc9de9acfd886b64882bf50.jpg"
  },
  {
    "name": "AC_25",
    "defaultvalue": 0,
    "displayName": "Bon appetit !",
    "hidden": 0,
    "description": "Build 5 shops",
    "icon": "https://steamcdn-a.akamaihd.net/steamcommunity/public/images/apps/1296200/3513c3fa1e6e01a85c1d0e082b41ac30f94f1bc2.jpg",
    "icongray": "https://steamcdn-a.akamaihd.net/steamcommunity/public/images/apps/1296200/15d4a1aeb301758f8cc9de9acfd886b64882bf50.jpg"
  },
  {
    "name": "AC_26",
    "defaultvalue": 0,
    "displayName": "Real estate",
    "hidden": 0,
    "description": "Build 3 monuments",
    "icon": "https://steamcdn-a.akamaihd.net/steamcommunity/public/images/apps/1296200/8330f6a8023713367115d739b336ad7ccf8469fe.jpg",
    "icongray": "https://steamcdn-a.akamaihd.net/steamcommunity/public/images/apps/1296200/15d4a1aeb301758f8cc9de9acfd886b64882bf50.jpg"
  },
  {
    "name": "AC_27",
    "defaultvalue": 0,
    "displayName": "Think bigger",
    "hidden": 0,
    "description": "Upgrade your ballpark",
    "icon": "https://steamcdn-a.akamaihd.net/steamcommunity/public/images/apps/1296200/93cffed22f814ceb99dec4c445540224f2bfe263.jpg",
    "icongray": "https://steamcdn-a.akamaihd.net/steamcommunity/public/images/apps/1296200/15d4a1aeb301758f8cc9de9acfd886b64882bf50.jpg"
  },
  {
    "name": "AC_28",
    "defaultvalue": 0,
    "displayName": "If you build it",
    "hidden": 0,
    "description": "Rename your ballpark",
    "icon": "https://steamcdn-a.akamaihd.net/steamcommunity/public/images/apps/1296200/0ebc09aa47e922400a8cdb47185905c8021cf665.jpg",
    "icongray": "https://steamcdn-a.akamaihd.net/steamcommunity/public/images/apps/1296200/15d4a1aeb301758f8cc9de9acfd886b64882bf50.jpg"
  },
  {
    "name": "AC_29",
    "defaultvalue": 0,
    "displayName": "Healthy Ballpark",
    "hidden": 0,
    "description": "Build twenty-five shops",
    "icon": "https://steamcdn-a.akamaihd.net/steamcommunity/public/images/apps/1296200/62d07baea6c587dd684c98dabe19248ed6edbc10.jpg",
    "icongray": "https://steamcdn-a.akamaihd.net/steamcommunity/public/images/apps/1296200/15d4a1aeb301758f8cc9de9acfd886b64882bf50.jpg"
  },
  {
    "name": "AC_30",
    "defaultvalue": 0,
    "displayName": "Conquest mode",
    "hidden": 0,
    "description": "Build 7 monuments",
    "icon": "https://steamcdn-a.akamaihd.net/steamcommunity/public/images/apps/1296200/a00e791947ec0618823f3c083d3222503a70c658.jpg",
    "icongray": "https://steamcdn-a.akamaihd.net/steamcommunity/public/images/apps/1296200/15d4a1aeb301758f8cc9de9acfd886b64882bf50.jpg"
  },
  {
    "name": "AC_31",
    "defaultvalue": 0,
    "displayName": "Is it 1986 again?",
    "hidden": 0,
    "description": "Organize a Throwback Ballgame",
    "icon": "https://steamcdn-a.akamaihd.net/steamcommunity/public/images/apps/1296200/3c261a35169c070e3c52bc342146d052f269ade2.jpg",
    "icongray": "https://steamcdn-a.akamaihd.net/steamcommunity/public/images/apps/1296200/15d4a1aeb301758f8cc9de9acfd886b64882bf50.jpg"
  },
  {
    "name": "AC_32",
    "defaultvalue": 0,
    "displayName": "Best place on Earth",
    "hidden": 0,
    "description": "Make your ballpark the best in the league",
    "icon": "https://steamcdn-a.akamaihd.net/steamcommunity/public/images/apps/1296200/e34120b05deba5550ee49c3d869e92d185e96933.jpg",
    "icongray": "https://steamcdn-a.akamaihd.net/steamcommunity/public/images/apps/1296200/15d4a1aeb301758f8cc9de9acfd886b64882bf50.jpg"
  },
  {
    "name": "AC_38",
    "defaultvalue": 0,
    "displayName": "Meeting the GOAT",
    "hidden": 0,
    "description": "Oh my!",
    "icon": "https://steamcdn-a.akamaihd.net/steamcommunity/public/images/apps/1296200/0a28815a9f5f467087d19a7b25853ea4f791961b.jpg",
    "icongray": "https://steamcdn-a.akamaihd.net/steamcommunity/public/images/apps/1296200/15d4a1aeb301758f8cc9de9acfd886b64882bf50.jpg"
  },
  {
    "name": "AC_39",
    "defaultvalue": 0,
    "displayName": "The Wizard and the Major",
    "hidden": 0,
    "description": "Sign the ultimate sponsorship contract",
    "icon": "https://steamcdn-a.akamaihd.net/steamcommunity/public/images/apps/1296200/ae1b636b0005914c50a41fdd34a8a0bcbafdf52a.jpg",
    "icongray": "https://steamcdn-a.akamaihd.net/steamcommunity/public/images/apps/1296200/15d4a1aeb301758f8cc9de9acfd886b64882bf50.jpg"
  },
  {
    "name": "AC_40",
    "defaultvalue": 0,
    "displayName": "ABRA",
    "hidden": 0,
    "description": "Reach the top of the Association",
    "icon": "https://steamcdn-a.akamaihd.net/steamcommunity/public/images/apps/1296200/f1910eef548df96636ffd005548d4789abfa5043.jpg",
    "icongray": "https://steamcdn-a.akamaihd.net/steamcommunity/public/images/apps/1296200/15d4a1aeb301758f8cc9de9acfd886b64882bf50.jpg"
  },
  {
    "name": "AC_41",
    "defaultvalue": 0,
    "displayName": "The Shows",
    "hidden": 0,
    "description": "Become a rockstar (kinda)",
    "icon": "https://steamcdn-a.akamaihd.net/steamcommunity/public/images/apps/1296200/41950e9c8729daceec726dbba262b4ad4a6e2111.jpg",
    "icongray": "https://steamcdn-a.akamaihd.net/steamcommunity/public/images/apps/1296200/15d4a1aeb301758f8cc9de9acfd886b64882bf50.jpg"
  },
  {
    "name": "AC_42",
    "defaultvalue": 0,
    "displayName": "A Famous Writer",
    "hidden": 0,
    "description": "Finish the Karl Levy Story",
    "icon": "https://steamcdn-a.akamaihd.net/steamcommunity/public/images/apps/1296200/48460e26de6feb1bf06ef9ddac41bb77c105b8fa.jpg",
    "icongray": "https://steamcdn-a.akamaihd.net/steamcommunity/public/images/apps/1296200/15d4a1aeb301758f8cc9de9acfd886b64882bf50.jpg"
  }
]