[
  {
    "name": "ACHIEVEMENT_1",
    "defaultvalue": 0,
    "displayName": "Complete level 1",
    "hidden": 0,
    "description": "Complete level 1",
    "icon": "https://steamcdn-a.akamaihd.net/steamcommunity/public/images/apps/1004240/3516b055bf4965cfb7a7e37dea4f99f68b7364ca.jpg",
    "icongray": "https://steamcdn-a.akamaihd.net/steamcommunity/public/images/apps/1004240/03041c9a70e6861850dd8b06cd42697d1923572a.jpg"
  },
  {
    "name": "ACHIEVEMENT_2",
    "defaultvalue": 0,
    "displayName": "Complete level 1",
    "hidden": 0,
    "description": "Complete level 1",
    "icon": "https://steamcdn-a.akamaihd.net/steamcommunity/public/images/apps/1004240/8a7c97274033d93d2513c35e48ce8d589bba9822.jpg",
    "icongray": "https://steamcdn-a.akamaihd.net/steamcommunity/public/images/apps/1004240/6f818528c90bfbda16a7d1f56814cf6b1dbf75ed.jpg"
  },
  {
    "name": "ACHIEVEMENT_3",
    "defaultvalue": 0,
    "displayName": "Complete level 1",
    "hidden": 0,
    "description": "Complete level 1",
    "icon": "https://steamcdn-a.akamaihd.net/steamcommunity/public/images/apps/1004240/2df1ac9d580ff9d364c698d0ec5b04ed45ec7730.jpg",
    "icongray": "https://steamcdn-a.akamaihd.net/steamcommunity/public/images/apps/1004240/ddf4fdfdd0447e8e407667ad9d3b2ba441315183.jpg"
  },
  {
    "name": "ACHIEVEMENT_4",
    "defaultvalue": 0,
    "displayName": "Complete level 1",
    "hidden": 0,
    "description": "Complete level 1",
    "icon": "https://steamcdn-a.akamaihd.net/steamcommunity/public/images/apps/1004240/17d8064b4c5cbe7d904a64fcd9169b8d36e48916.jpg",
    "icongray": "https://steamcdn-a.akamaihd.net/steamcommunity/public/images/apps/1004240/cddbecf0dd607958f29ba5c1391968b98e0bbaba.jpg"
  },
  {
    "name": "ACHIEVEMENT_5",
    "defaultvalue": 0,
    "displayName": "Complete level 1",
    "hidden": 0,
    "description": "Complete level 1",
    "icon": "https://steamcdn-a.akamaihd.net/steamcommunity/public/images/apps/1004240/6fc31ca745c1ee822e5c45a4a81f3a902c9b789a.jpg",
    "icongray": "https://steamcdn-a.akamaihd.net/steamcommunity/public/images/apps/1004240/b15188a43543bc43faa6aa45b9103e388d11db5d.jpg"
  },
  {
    "name": "ACHIEVEMENT_6",
    "defaultvalue": 0,
    "displayName": "Complete level 1",
    "hidden": 0,
    "description": "Complete level 1",
    "icon": "https://steamcdn-a.akamaihd.net/steamcommunity/public/images/apps/1004240/3fd53276d080a6de768d50e1849fa93b13370058.jpg",
    "icongray": "https://steamcdn-a.akamaihd.net/steamcommunity/public/images/apps/1004240/c615987bb3796208d19551e87f34e1585cfe80d0.jpg"
  },
  {
    "name": "ACHIEVEMENT_7",
    "defaultvalue": 0,
    "displayName": "Complete level 1",
    "hidden": 0,
    "description": "Complete level 1",
    "icon": "https://steamcdn-a.akamaihd.net/steamcommunity/public/images/apps/1004240/965513cc6d5f8204c4980601869618c03d296402.jpg",
    "icongray": "https://steamcdn-a.akamaihd.net/steamcommunity/public/images/apps/1004240/e5cc3c5fcf6c71ecc9d248116bcf7f39017a60ea.jpg"
  },
  {
    "name": "ACHIEVEMENT_8",
    "defaultvalue": 0,
    "displayName": "Complete level 1",
    "hidden": 0,
    "description": "Complete level 1",
    "icon": "https://steamcdn-a.akamaihd.net/steamcommunity/public/images/apps/1004240/d207f7a394a5040a58f114d3788f23993aac2f80.jpg",
    "icongray": "https://steamcdn-a.akamaihd.net/steamcommunity/public/images/apps/1004240/29cfb0b0389004d1e088a2baa1c32c3709da3d53.jpg"
  },
  {
    "name": "ACHIEVEMENT_9",
    "defaultvalue": 0,
    "displayName": "Complete level 1",
    "hidden": 0,
    "description": "Complete level 1",
    "icon": "https://steamcdn-a.akamaihd.net/steamcommunity/public/images/apps/1004240/395719dbd2efd3dc05c18c4bea507abcaf140cb4.jpg",
    "icongray": "https://steamcdn-a.akamaihd.net/steamcommunity/public/images/apps/1004240/e73f552151f0096cad506d3908850994bf33fe56.jpg"
  },
  {
    "name": "ACHIEVEMENT_10",
    "defaultvalue": 0,
    "displayName": "Complete level 1",
    "hidden": 0,
    "description": "Complete level 1",
    "icon": "https://steamcdn-a.akamaihd.net/steamcommunity/public/images/apps/1004240/6ba16df213182c4d049b082079679cb632239638.jpg",
    "icongray": "https://steamcdn-a.akamaihd.net/steamcommunity/public/images/apps/1004240/adc1c79d5b68c5c555ab917c39b36c576943cb1d.jpg"
  },
  {
    "name": "ACHIEVEMENT_11",
    "defaultvalue": 0,
    "displayName": "Complete level 2",
    "hidden": 0,
    "description": "Complete level 2",
    "icon": "https://steamcdn-a.akamaihd.net/steamcommunity/public/images/apps/1004240/6973ade9a15156f8544bfc6a94f569d10dcc06ad.jpg",
    "icongray": "https://steamcdn-a.akamaihd.net/steamcommunity/public/images/apps/1004240/af77868de6cdd06ba4de1b8c78e32c366d6520a3.jpg"
  },
  {
    "name": "ACHIEVEMENT_12",
    "defaultvalue": 0,
    "displayName": "Complete level 2",
    "hidden": 0,
    "description": "Complete level 2",
    "icon": "https://steamcdn-a.akamaihd.net/steamcommunity/public/images/apps/1004240/ee62e6e5a8076051b7f20162e6686138cdb3b099.jpg",
    "icongray": "https://steamcdn-a.akamaihd.net/steamcommunity/public/images/apps/1004240/a28bd8c7295bb73420d9031de75e275edcc6819e.jpg"
  },
  {
    "name": "ACHIEVEMENT_13",
    "defaultvalue": 0,
    "displayName": "Complete level 2",
    "hidden": 0,
    "description": "Complete level 2",
    "icon": "https://steamcdn-a.akamaihd.net/steamcommunity/public/images/apps/1004240/3ae82f452900128cef7a4991d8c9939acb294cdd.jpg",
    "icongray": "https://steamcdn-a.akamaihd.net/steamcommunity/public/images/apps/1004240/8fec212fb6a5c0448e3ccf146c733ae78a060579.jpg"
  },
  {
    "name": "ACHIEVEMENT_14",
    "defaultvalue": 0,
    "displayName": "Complete level 2",
    "hidden": 0,
    "description": "Complete level 2",
    "icon": "https://steamcdn-a.akamaihd.net/steamcommunity/public/images/apps/1004240/09d0bbbd07be68764f4c92f6ce54d2c7e92d5fbf.jpg",
    "icongray": "https://steamcdn-a.akamaihd.net/steamcommunity/public/images/apps/1004240/7ff0bf1b6fe05e4f2809f9fa57954ff7936421bd.jpg"
  },
  {
    "name": "ACHIEVEMENT_15",
    "defaultvalue": 0,
    "displayName": "Complete level 2",
    "hidden": 0,
    "description": "Complete level 2",
    "icon": "https://steamcdn-a.akamaihd.net/steamcommunity/public/images/apps/1004240/75406de37e7e43dc3ca4eff087e5a5282e413334.jpg",
    "icongray": "https://steamcdn-a.akamaihd.net/steamcommunity/public/images/apps/1004240/2369a102238939fb3f3f98538da9a15c85f275fc.jpg"
  },
  {
    "name": "ACHIEVEMENT_16",
    "defaultvalue": 0,
    "displayName": "Complete level 2",
    "hidden": 0,
    "description": "Complete level 2",
    "icon": "https://steamcdn-a.akamaihd.net/steamcommunity/public/images/apps/1004240/07257d1dde943234851b5be6ec19dd97b963fe06.jpg",
    "icongray": "https://steamcdn-a.akamaihd.net/steamcommunity/public/images/apps/1004240/339033d636d28d0ac0fb4e46f660728f6e8e1993.jpg"
  },
  {
    "name": "ACHIEVEMENT_17",
    "defaultvalue": 0,
    "displayName": "Complete level 2",
    "hidden": 0,
    "description": "Complete level 2",
    "icon": "https://steamcdn-a.akamaihd.net/steamcommunity/public/images/apps/1004240/194bb2fbd815924bbed2e612d11e23955ef2d7d2.jpg",
    "icongray": "https://steamcdn-a.akamaihd.net/steamcommunity/public/images/apps/1004240/d2e7d089c33420e61650443ee03b01c83c558dc9.jpg"
  },
  {
    "name": "ACHIEVEMENT_18",
    "defaultvalue": 0,
    "displayName": "Complete level 2",
    "hidden": 0,
    "description": "Complete level 2",
    "icon": "https://steamcdn-a.akamaihd.net/steamcommunity/public/images/apps/1004240/b898af2fef53d2d76c65dfff26682def7c6c2a08.jpg",
    "icongray": "https://steamcdn-a.akamaihd.net/steamcommunity/public/images/apps/1004240/17dedd2ede02d0ffa6a239a9139327e159d7e39e.jpg"
  },
  {
    "name": "ACHIEVEMENT_19",
    "defaultvalue": 0,
    "displayName": "Complete level 2",
    "hidden": 0,
    "description": "Complete level 2",
    "icon": "https://steamcdn-a.akamaihd.net/steamcommunity/public/images/apps/1004240/1b7d2c30d9b387a22da4c63a94afc448855350f4.jpg",
    "icongray": "https://steamcdn-a.akamaihd.net/steamcommunity/public/images/apps/1004240/f90503377304468460b43fc90d0ea1832d6f6c57.jpg"
  },
  {
    "name": "ACHIEVEMENT_20",
    "defaultvalue": 0,
    "displayName": "Complete level 2",
    "hidden": 0,
    "description": "Complete level 2",
    "icon": "https://steamcdn-a.akamaihd.net/steamcommunity/public/images/apps/1004240/c6297237bb94b333e5024e9d2155d435c6a8151b.jpg",
    "icongray": "https://steamcdn-a.akamaihd.net/steamcommunity/public/images/apps/1004240/9fb0057b8fd08d506d58a98fd8de8fee480acd7f.jpg"
  },
  {
    "name": "ACHIEVEMENT_21",
    "defaultvalue": 0,
    "displayName": "Complete level 3",
    "hidden": 0,
    "description": "Complete level 3",
    "icon": "https://steamcdn-a.akamaihd.net/steamcommunity/public/images/apps/1004240/ec38c24c4e606d2d39df1c433c1cc50d98d2f5aa.jpg",
    "icongray": "https://steamcdn-a.akamaihd.net/steamcommunity/public/images/apps/1004240/bc3f58071cbb608e3b7c0cab7da575df84152158.jpg"
  },
  {
    "name": "ACHIEVEMENT_22",
    "defaultvalue": 0,
    "displayName": "Complete level 3",
    "hidden": 0,
    "description": "Complete level 3",
    "icon": "https://steamcdn-a.akamaihd.net/steamcommunity/public/images/apps/1004240/4954eaa59a5a04dadea14c1a48841e9f4516a41b.jpg",
    "icongray": "https://steamcdn-a.akamaihd.net/steamcommunity/public/images/apps/1004240/ad78222c19cab0759857eff1bcf6e534d439fd1e.jpg"
  },
  {
    "name": "ACHIEVEMENT_23",
    "defaultvalue": 0,
    "displayName": "Complete level 3",
    "hidden": 0,
    "description": "Complete level 3",
    "icon": "https://steamcdn-a.akamaihd.net/steamcommunity/public/images/apps/1004240/52f850439d3d01b914bf77a0151ecf3f7cf478ce.jpg",
    "icongray": "https://steamcdn-a.akamaihd.net/steamcommunity/public/images/apps/1004240/69284081df52bb9b74a75fa4df27bcc41d0c7876.jpg"
  },
  {
    "name": "ACHIEVEMENT_24",
    "defaultvalue": 0,
    "displayName": "Complete level 3",
    "hidden": 0,
    "description": "Complete level 3",
    "icon": "https://steamcdn-a.akamaihd.net/steamcommunity/public/images/apps/1004240/5df57a2984eeda2470aaa3e612fec183289e6782.jpg",
    "icongray": "https://steamcdn-a.akamaihd.net/steamcommunity/public/images/apps/1004240/35d324db80ad47331ff64a691947f9a936e44359.jpg"
  },
  {
    "name": "ACHIEVEMENT_25",
    "defaultvalue": 0,
    "displayName": "Complete level 3",
    "hidden": 0,
    "description": "Complete level 3",
    "icon": "https://steamcdn-a.akamaihd.net/steamcommunity/public/images/apps/1004240/c477b4f5d5f5e3120645beda1ac53e67f349d6af.jpg",
    "icongray": "https://steamcdn-a.akamaihd.net/steamcommunity/public/images/apps/1004240/49d90f55ccfc2208abd63e3d88e84974d95ef89a.jpg"
  },
  {
    "name": "ACHIEVEMENT_26",
    "defaultvalue": 0,
    "displayName": "Complete level 3",
    "hidden": 0,
    "description": "Complete level 3",
    "icon": "https://steamcdn-a.akamaihd.net/steamcommunity/public/images/apps/1004240/64a99548e6101a36553d700ab39b11a98961a2d7.jpg",
    "icongray": "https://steamcdn-a.akamaihd.net/steamcommunity/public/images/apps/1004240/2a4eccaf752e375e3c10923eca1585c8c28fa7ed.jpg"
  },
  {
    "name": "ACHIEVEMENT_27",
    "defaultvalue": 0,
    "displayName": "Complete level 3",
    "hidden": 0,
    "description": "Complete level 3",
    "icon": "https://steamcdn-a.akamaihd.net/steamcommunity/public/images/apps/1004240/3315ae5626122ac128e802cf3317cfb603dfee95.jpg",
    "icongray": "https://steamcdn-a.akamaihd.net/steamcommunity/public/images/apps/1004240/f0a9144d25463180ca21c5533d5a5f20688704f8.jpg"
  },
  {
    "name": "ACHIEVEMENT_28",
    "defaultvalue": 0,
    "displayName": "Complete level 3",
    "hidden": 0,
    "description": "Complete level 3",
    "icon": "https://steamcdn-a.akamaihd.net/steamcommunity/public/images/apps/1004240/6c5720404357b788566e01d45df6c07eecfea8e7.jpg",
    "icongray": "https://steamcdn-a.akamaihd.net/steamcommunity/public/images/apps/1004240/5f5796327a273d162b0f286de19cd877efa44924.jpg"
  },
  {
    "name": "ACHIEVEMENT_29",
    "defaultvalue": 0,
    "displayName": "Complete level 3",
    "hidden": 0,
    "description": "Complete level 3",
    "icon": "https://steamcdn-a.akamaihd.net/steamcommunity/public/images/apps/1004240/b3870d6359a67c21393b511b79f85543a11d3041.jpg",
    "icongray": "https://steamcdn-a.akamaihd.net/steamcommunity/public/images/apps/1004240/7e51652fc626a745f944b5ad49278b216a1abc46.jpg"
  },
  {
    "name": "ACHIEVEMENT_30",
    "defaultvalue": 0,
    "displayName": "Complete level 3",
    "hidden": 0,
    "description": "Complete level 3",
    "icon": "https://steamcdn-a.akamaihd.net/steamcommunity/public/images/apps/1004240/3ae240d098fdf27fcf8ddf9d86ac44ddabd328e7.jpg",
    "icongray": "https://steamcdn-a.akamaihd.net/steamcommunity/public/images/apps/1004240/2b0ba04ea453b13ac6b212363970d8d56c60e66e.jpg"
  },
  {
    "name": "ACHIEVEMENT_31",
    "defaultvalue": 0,
    "displayName": "Complete level 4",
    "hidden": 0,
    "description": "Complete level 4",
    "icon": "https://steamcdn-a.akamaihd.net/steamcommunity/public/images/apps/1004240/19558bec6446fb430d1d8b8ed8525850f854eb32.jpg",
    "icongray": "https://steamcdn-a.akamaihd.net/steamcommunity/public/images/apps/1004240/4bdfc3c473fdc78bf1c1db48d0f9a5cb015f837c.jpg"
  },
  {
    "name": "ACHIEVEMENT_32",
    "defaultvalue": 0,
    "displayName": "Complete level 4",
    "hidden": 0,
    "description": "Complete level 4",
    "icon": "https://steamcdn-a.akamaihd.net/steamcommunity/public/images/apps/1004240/e477fc7492bbef45ee4c8c93e2d0f4b43dc05257.jpg",
    "icongray": "https://steamcdn-a.akamaihd.net/steamcommunity/public/images/apps/1004240/8236405aafd1942045e7155332782b33d8fb8aec.jpg"
  },
  {
    "name": "ACHIEVEMENT_33",
    "defaultvalue": 0,
    "displayName": "Complete level 4",
    "hidden": 0,
    "description": "Complete level 4",
    "icon": "https://steamcdn-a.akamaihd.net/steamcommunity/public/images/apps/1004240/bf788de0f1371f34089c7aeffe01c82ed8c1228e.jpg",
    "icongray": "https://steamcdn-a.akamaihd.net/steamcommunity/public/images/apps/1004240/d64e5f8aa744c2537413d16e70a03e787680b817.jpg"
  },
  {
    "name": "ACHIEVEMENT_34",
    "defaultvalue": 0,
    "displayName": "Complete level 4",
    "hidden": 0,
    "description": "Complete level 4",
    "icon": "https://steamcdn-a.akamaihd.net/steamcommunity/public/images/apps/1004240/cf7649f73c44cac9e13710688bd35b69107f0323.jpg",
    "icongray": "https://steamcdn-a.akamaihd.net/steamcommunity/public/images/apps/1004240/e0a754e01d5d5db9c9a990ce8369d6613f85ac92.jpg"
  },
  {
    "name": "ACHIEVEMENT_35",
    "defaultvalue": 0,
    "displayName": "Complete level 4",
    "hidden": 0,
    "description": "Complete level 4",
    "icon": "https://steamcdn-a.akamaihd.net/steamcommunity/public/images/apps/1004240/cac7ef3ce9c968ff7a1776080f12025d577c303d.jpg",
    "icongray": "https://steamcdn-a.akamaihd.net/steamcommunity/public/images/apps/1004240/4132702ccf7b53e5d2417c6a8c07ce545d23e9bb.jpg"
  },
  {
    "name": "ACHIEVEMENT_36",
    "defaultvalue": 0,
    "displayName": "Complete level 4",
    "hidden": 0,
    "description": "Complete level 4",
    "icon": "https://steamcdn-a.akamaihd.net/steamcommunity/public/images/apps/1004240/12c8e65b6b45aab218bd06f205e03a82f888420e.jpg",
    "icongray": "https://steamcdn-a.akamaihd.net/steamcommunity/public/images/apps/1004240/92b23ecbec7f8b09e4ab40da8fe9d0e547b9444d.jpg"
  },
  {
    "name": "ACHIEVEMENT_37",
    "defaultvalue": 0,
    "displayName": "Complete level 4",
    "hidden": 0,
    "description": "Complete level 4",
    "icon": "https://steamcdn-a.akamaihd.net/steamcommunity/public/images/apps/1004240/090fa9c2d019636ce9f4651b67da8c012427e35b.jpg",
    "icongray": "https://steamcdn-a.akamaihd.net/steamcommunity/public/images/apps/1004240/c9498a110d786c31f90baae4427f5b63dceb0da8.jpg"
  },
  {
    "name": "ACHIEVEMENT_38",
    "defaultvalue": 0,
    "displayName": "Complete level 4",
    "hidden": 0,
    "description": "Complete level 4",
    "icon": "https://steamcdn-a.akamaihd.net/steamcommunity/public/images/apps/1004240/7d7574e5c41b0757837ef26aad781de85f4012e8.jpg",
    "icongray": "https://steamcdn-a.akamaihd.net/steamcommunity/public/images/apps/1004240/03041c9a70e6861850dd8b06cd42697d1923572a.jpg"
  },
  {
    "name": "ACHIEVEMENT_39",
    "defaultvalue": 0,
    "displayName": "Complete level 4",
    "hidden": 0,
    "description": "Complete level 4",
    "icon": "https://steamcdn-a.akamaihd.net/steamcommunity/public/images/apps/1004240/ebdf5b221e788fffda1dfa95bdafd81e93487032.jpg",
    "icongray": "https://steamcdn-a.akamaihd.net/steamcommunity/public/images/apps/1004240/6f818528c90bfbda16a7d1f56814cf6b1dbf75ed.jpg"
  },
  {
    "name": "ACHIEVEMENT_40",
    "defaultvalue": 0,
    "displayName": "Complete level 4",
    "hidden": 0,
    "description": "Complete level 4",
    "icon": "https://steamcdn-a.akamaihd.net/steamcommunity/public/images/apps/1004240/07e0c2929361c2fa067eb2489c3990c68dd4fc9d.jpg",
    "icongray": "https://steamcdn-a.akamaihd.net/steamcommunity/public/images/apps/1004240/ddf4fdfdd0447e8e407667ad9d3b2ba441315183.jpg"
  },
  {
    "name": "ACHIEVEMENT_41",
    "defaultvalue": 0,
    "displayName": "Complete level 5",
    "hidden": 0,
    "description": "Complete level 5",
    "icon": "https://steamcdn-a.akamaihd.net/steamcommunity/public/images/apps/1004240/8921ffb8d0cb41bc12b43a88ec15d156eb97bbda.jpg",
    "icongray": "https://steamcdn-a.akamaihd.net/steamcommunity/public/images/apps/1004240/cddbecf0dd607958f29ba5c1391968b98e0bbaba.jpg"
  },
  {
    "name": "ACHIEVEMENT_42",
    "defaultvalue": 0,
    "displayName": "Complete level 5",
    "hidden": 0,
    "description": "Complete level 5",
    "icon": "https://steamcdn-a.akamaihd.net/steamcommunity/public/images/apps/1004240/8571f8a01f32450ea94423559a89de697b633bda.jpg",
    "icongray": "https://steamcdn-a.akamaihd.net/steamcommunity/public/images/apps/1004240/b15188a43543bc43faa6aa45b9103e388d11db5d.jpg"
  },
  {
    "name": "ACHIEVEMENT_43",
    "defaultvalue": 0,
    "displayName": "Complete level 5",
    "hidden": 0,
    "description": "Complete level 5",
    "icon": "https://steamcdn-a.akamaihd.net/steamcommunity/public/images/apps/1004240/d7afa3cacdf287aeb4caa972890f342bab6e844c.jpg",
    "icongray": "https://steamcdn-a.akamaihd.net/steamcommunity/public/images/apps/1004240/565c5778f3de5b42c8f4303d444d55c8f9f62f89.jpg"
  },
  {
    "name": "ACHIEVEMENT_44",
    "defaultvalue": 0,
    "displayName": "Complete level 5",
    "hidden": 0,
    "description": "Complete level 5",
    "icon": "https://steamcdn-a.akamaihd.net/steamcommunity/public/images/apps/1004240/49d821092c627880219c9f4b931a9a86218fa15a.jpg",
    "icongray": "https://steamcdn-a.akamaihd.net/steamcommunity/public/images/apps/1004240/e5cc3c5fcf6c71ecc9d248116bcf7f39017a60ea.jpg"
  },
  {
    "name": "ACHIEVEMENT_45",
    "defaultvalue": 0,
    "displayName": "Complete level 5",
    "hidden": 0,
    "description": "Complete level 5",
    "icon": "https://steamcdn-a.akamaihd.net/steamcommunity/public/images/apps/1004240/46e1c5ca80249e8a52661938a1e5c4acec80512c.jpg",
    "icongray": "https://steamcdn-a.akamaihd.net/steamcommunity/public/images/apps/1004240/29cfb0b0389004d1e088a2baa1c32c3709da3d53.jpg"
  },
  {
    "name": "ACHIEVEMENT_46",
    "defaultvalue": 0,
    "displayName": "Complete level 5",
    "hidden": 0,
    "description": "Complete level 5",
    "icon": "https://steamcdn-a.akamaihd.net/steamcommunity/public/images/apps/1004240/ccb4f1be0f8b70723680acbcf298394c00403b5f.jpg",
    "icongray": "https://steamcdn-a.akamaihd.net/steamcommunity/public/images/apps/1004240/e73f552151f0096cad506d3908850994bf33fe56.jpg"
  },
  {
    "name": "ACHIEVEMENT_47",
    "defaultvalue": 0,
    "displayName": "Complete level 5",
    "hidden": 0,
    "description": "Complete level 5",
    "icon": "https://steamcdn-a.akamaihd.net/steamcommunity/public/images/apps/1004240/0ba6b01cd0b1f859695be88c6207a837cff369ed.jpg",
    "icongray": "https://steamcdn-a.akamaihd.net/steamcommunity/public/images/apps/1004240/adc1c79d5b68c5c555ab917c39b36c576943cb1d.jpg"
  },
  {
    "name": "ACHIEVEMENT_48",
    "defaultvalue": 0,
    "displayName": "Complete level 5",
    "hidden": 0,
    "description": "Complete level 5",
    "icon": "https://steamcdn-a.akamaihd.net/steamcommunity/public/images/apps/1004240/c597db4338aec7cec74bd96ad8864f1205272b91.jpg",
    "icongray": "https://steamcdn-a.akamaihd.net/steamcommunity/public/images/apps/1004240/9d410adf712fdf2ac91b8f1696bd494e2b4cb834.jpg"
  },
  {
    "name": "ACHIEVEMENT_49",
    "defaultvalue": 0,
    "displayName": "Complete level 5",
    "hidden": 0,
    "description": "Complete level 5",
    "icon": "https://steamcdn-a.akamaihd.net/steamcommunity/public/images/apps/1004240/a1f742f4020f30de526b8b0ae0453ffc74416ffb.jpg",
    "icongray": "https://steamcdn-a.akamaihd.net/steamcommunity/public/images/apps/1004240/6b5b9634605f383e1fc983196ee4e89305102e22.jpg"
  },
  {
    "name": "ACHIEVEMENT_50",
    "defaultvalue": 0,
    "displayName": "Complete level 5",
    "hidden": 0,
    "description": "Complete level 5",
    "icon": "https://steamcdn-a.akamaihd.net/steamcommunity/public/images/apps/1004240/29f9b38eb58af1734a65af506d93c00b71aba82f.jpg",
    "icongray": "https://steamcdn-a.akamaihd.net/steamcommunity/public/images/apps/1004240/8fec212fb6a5c0448e3ccf146c733ae78a060579.jpg"
  },
  {
    "name": "ACHIEVEMENT_51",
    "defaultvalue": 0,
    "displayName": "Complete level 6",
    "hidden": 0,
    "description": "Complete level 6",
    "icon": "https://steamcdn-a.akamaihd.net/steamcommunity/public/images/apps/1004240/3837680811e09104909a441c08a806c2819aa4db.jpg",
    "icongray": "https://steamcdn-a.akamaihd.net/steamcommunity/public/images/apps/1004240/7ff0bf1b6fe05e4f2809f9fa57954ff7936421bd.jpg"
  },
  {
    "name": "ACHIEVEMENT_52",
    "defaultvalue": 0,
    "displayName": "Complete level 6",
    "hidden": 0,
    "description": "Complete level 6",
    "icon": "https://steamcdn-a.akamaihd.net/steamcommunity/public/images/apps/1004240/9a8fb892901a03263bd7026eabd5bec13b7895f0.jpg",
    "icongray": "https://steamcdn-a.akamaihd.net/steamcommunity/public/images/apps/1004240/2369a102238939fb3f3f98538da9a15c85f275fc.jpg"
  },
  {
    "name": "ACHIEVEMENT_53",
    "defaultvalue": 0,
    "displayName": "Complete level 6",
    "hidden": 0,
    "description": "Complete level 6",
    "icon": "https://steamcdn-a.akamaihd.net/steamcommunity/public/images/apps/1004240/ff7b3005b455b7f1074a53cf60ca1b8490645540.jpg",
    "icongray": "https://steamcdn-a.akamaihd.net/steamcommunity/public/images/apps/1004240/339033d636d28d0ac0fb4e46f660728f6e8e1993.jpg"
  },
  {
    "name": "ACHIEVEMENT_54",
    "defaultvalue": 0,
    "displayName": "Complete level 6",
    "hidden": 0,
    "description": "Complete level 6",
    "icon": "https://steamcdn-a.akamaihd.net/steamcommunity/public/images/apps/1004240/880a7610b960e01022051032d544705f0f4530e5.jpg",
    "icongray": "https://steamcdn-a.akamaihd.net/steamcommunity/public/images/apps/1004240/d2e7d089c33420e61650443ee03b01c83c558dc9.jpg"
  },
  {
    "name": "ACHIEVEMENT_55",
    "defaultvalue": 0,
    "displayName": "Complete level 6",
    "hidden": 0,
    "description": "Complete level 6",
    "icon": "https://steamcdn-a.akamaihd.net/steamcommunity/public/images/apps/1004240/8ec89a1f1edb24e5743d1ccc43aa14ef6efaaae1.jpg",
    "icongray": "https://steamcdn-a.akamaihd.net/steamcommunity/public/images/apps/1004240/17dedd2ede02d0ffa6a239a9139327e159d7e39e.jpg"
  },
  {
    "name": "ACHIEVEMENT_56",
    "defaultvalue": 0,
    "displayName": "Complete level 6",
    "hidden": 0,
    "description": "Complete level 6",
    "icon": "https://steamcdn-a.akamaihd.net/steamcommunity/public/images/apps/1004240/0c1c373647b40080bec0317c621f026fb24cf721.jpg",
    "icongray": "https://steamcdn-a.akamaihd.net/steamcommunity/public/images/apps/1004240/8f6c11f98d668904b7a05c154a059cdd7ceb8c73.jpg"
  },
  {
    "name": "ACHIEVEMENT_57",
    "defaultvalue": 0,
    "displayName": "Complete level 6",
    "hidden": 0,
    "description": "Complete level 6",
    "icon": "https://steamcdn-a.akamaihd.net/steamcommunity/public/images/apps/1004240/c3480e243dc12ef3274aca398ccfc0fd5218867f.jpg",
    "icongray": "https://steamcdn-a.akamaihd.net/steamcommunity/public/images/apps/1004240/9fb0057b8fd08d506d58a98fd8de8fee480acd7f.jpg"
  },
  {
    "name": "ACHIEVEMENT_58",
    "defaultvalue": 0,
    "displayName": "Complete level 6",
    "hidden": 0,
    "description": "Complete level 6",
    "icon": "https://steamcdn-a.akamaihd.net/steamcommunity/public/images/apps/1004240/f70223309ff9e7d9b2fd6826d682457a885bbb20.jpg",
    "icongray": "https://steamcdn-a.akamaihd.net/steamcommunity/public/images/apps/1004240/bc3f58071cbb608e3b7c0cab7da575df84152158.jpg"
  },
  {
    "name": "ACHIEVEMENT_59",
    "defaultvalue": 0,
    "displayName": "Complete level 6",
    "hidden": 0,
    "description": "Complete level 6",
    "icon": "https://steamcdn-a.akamaihd.net/steamcommunity/public/images/apps/1004240/806857e592558869d9233943ed39383e5aab7c38.jpg",
    "icongray": "https://steamcdn-a.akamaihd.net/steamcommunity/public/images/apps/1004240/ad78222c19cab0759857eff1bcf6e534d439fd1e.jpg"
  },
  {
    "name": "ACHIEVEMENT_60",
    "defaultvalue": 0,
    "displayName": "Complete level 6",
    "hidden": 0,
    "description": "Complete level 6",
    "icon": "https://steamcdn-a.akamaihd.net/steamcommunity/public/images/apps/1004240/77adb9ab09c27a7a1715390e180f8a2ccf8e2598.jpg",
    "icongray": "https://steamcdn-a.akamaihd.net/steamcommunity/public/images/apps/1004240/69284081df52bb9b74a75fa4df27bcc41d0c7876.jpg"
  },
  {
    "name": "ACHIEVEMENT_61",
    "defaultvalue": 0,
    "displayName": "Complete level 7",
    "hidden": 0,
    "description": "Complete level 7",
    "icon": "https://steamcdn-a.akamaihd.net/steamcommunity/public/images/apps/1004240/7698ac6c0c23cbff68dcd25d57f04447e4b44d37.jpg",
    "icongray": "https://steamcdn-a.akamaihd.net/steamcommunity/public/images/apps/1004240/35d324db80ad47331ff64a691947f9a936e44359.jpg"
  },
  {
    "name": "ACHIEVEMENT_62",
    "defaultvalue": 0,
    "displayName": "Complete level 7",
    "hidden": 0,
    "description": "Complete level 7",
    "icon": "https://steamcdn-a.akamaihd.net/steamcommunity/public/images/apps/1004240/7d9daf970bb61f6e00b1d77e0250980fc89c413d.jpg",
    "icongray": "https://steamcdn-a.akamaihd.net/steamcommunity/public/images/apps/1004240/49d90f55ccfc2208abd63e3d88e84974d95ef89a.jpg"
  },
  {
    "name": "ACHIEVEMENT_63",
    "defaultvalue": 0,
    "displayName": "Complete level 7",
    "hidden": 0,
    "description": "Complete level 7",
    "icon": "https://steamcdn-a.akamaihd.net/steamcommunity/public/images/apps/1004240/5be0d3c8f8f4ecb989e7dedf9b4f0bfcc635ed82.jpg",
    "icongray": "https://steamcdn-a.akamaihd.net/steamcommunity/public/images/apps/1004240/2a4eccaf752e375e3c10923eca1585c8c28fa7ed.jpg"
  },
  {
    "name": "ACHIEVEMENT_64",
    "defaultvalue": 0,
    "displayName": "Complete level 7",
    "hidden": 0,
    "description": "Complete level 7",
    "icon": "https://steamcdn-a.akamaihd.net/steamcommunity/public/images/apps/1004240/9b201581312a3d9a2ea1e0e35231fc24a911a557.jpg",
    "icongray": "https://steamcdn-a.akamaihd.net/steamcommunity/public/images/apps/1004240/f0a9144d25463180ca21c5533d5a5f20688704f8.jpg"
  },
  {
    "name": "ACHIEVEMENT_65",
    "defaultvalue": 0,
    "displayName": "Complete level 7",
    "hidden": 0,
    "description": "Complete level 7",
    "icon": "https://steamcdn-a.akamaihd.net/steamcommunity/public/images/apps/1004240/f67ff52dedc95ad662dc59fe8f3c49fc4faaf89e.jpg",
    "icongray": "https://steamcdn-a.akamaihd.net/steamcommunity/public/images/apps/1004240/5f5796327a273d162b0f286de19cd877efa44924.jpg"
  },
  {
    "name": "ACHIEVEMENT_66",
    "defaultvalue": 0,
    "displayName": "Complete level 7",
    "hidden": 0,
    "description": "Complete level 7",
    "icon": "https://steamcdn-a.akamaihd.net/steamcommunity/public/images/apps/1004240/f1f75a0a41f6dac444621fb44f308fad35cb5d04.jpg",
    "icongray": "https://steamcdn-a.akamaihd.net/steamcommunity/public/images/apps/1004240/7e51652fc626a745f944b5ad49278b216a1abc46.jpg"
  },
  {
    "name": "ACHIEVEMENT_67",
    "defaultvalue": 0,
    "displayName": "Complete level 7",
    "hidden": 0,
    "description": "Complete level 7",
    "icon": "https://steamcdn-a.akamaihd.net/steamcommunity/public/images/apps/1004240/719cec0d557e0ce66cc91413a3ae65ca292a5c2f.jpg",
    "icongray": "https://steamcdn-a.akamaihd.net/steamcommunity/public/images/apps/1004240/2b0ba04ea453b13ac6b212363970d8d56c60e66e.jpg"
  },
  {
    "name": "ACHIEVEMENT_68",
    "defaultvalue": 0,
    "displayName": "Complete level 7",
    "hidden": 0,
    "description": "Complete level 7",
    "icon": "https://steamcdn-a.akamaihd.net/steamcommunity/public/images/apps/1004240/208b357568a337c82810f7599cd2887a37ffba8e.jpg",
    "icongray": "https://steamcdn-a.akamaihd.net/steamcommunity/public/images/apps/1004240/4bdfc3c473fdc78bf1c1db48d0f9a5cb015f837c.jpg"
  },
  {
    "name": "ACHIEVEMENT_69",
    "defaultvalue": 0,
    "displayName": "Complete level 7",
    "hidden": 0,
    "description": "Complete level 7",
    "icon": "https://steamcdn-a.akamaihd.net/steamcommunity/public/images/apps/1004240/06d6f63fa546b53434e5663ffa9b0495671433a3.jpg",
    "icongray": "https://steamcdn-a.akamaihd.net/steamcommunity/public/images/apps/1004240/8236405aafd1942045e7155332782b33d8fb8aec.jpg"
  },
  {
    "name": "ACHIEVEMENT_70",
    "defaultvalue": 0,
    "displayName": "Complete level 7",
    "hidden": 0,
    "description": "Complete level 7",
    "icon": "https://steamcdn-a.akamaihd.net/steamcommunity/public/images/apps/1004240/957225f2d016fb106c7cc71e800a38268ce06f87.jpg",
    "icongray": "https://steamcdn-a.akamaihd.net/steamcommunity/public/images/apps/1004240/d64e5f8aa744c2537413d16e70a03e787680b817.jpg"
  },
  {
    "name": "ACHIEVEMENT_71",
    "defaultvalue": 0,
    "displayName": "Complete level 8",
    "hidden": 0,
    "description": "Complete level 8",
    "icon": "https://steamcdn-a.akamaihd.net/steamcommunity/public/images/apps/1004240/1d85ca9cbe0c56652c5bd3cf7d93fc752cceed21.jpg",
    "icongray": "https://steamcdn-a.akamaihd.net/steamcommunity/public/images/apps/1004240/e0a754e01d5d5db9c9a990ce8369d6613f85ac92.jpg"
  },
  {
    "name": "ACHIEVEMENT_72",
    "defaultvalue": 0,
    "displayName": "Complete level 8",
    "hidden": 0,
    "description": "Complete level 8",
    "icon": "https://steamcdn-a.akamaihd.net/steamcommunity/public/images/apps/1004240/abb44a9c8ad53827c7808b785c5d7d7a5efe17d3.jpg",
    "icongray": "https://steamcdn-a.akamaihd.net/steamcommunity/public/images/apps/1004240/4132702ccf7b53e5d2417c6a8c07ce545d23e9bb.jpg"
  },
  {
    "name": "ACHIEVEMENT_73",
    "defaultvalue": 0,
    "displayName": "Complete level 8",
    "hidden": 0,
    "description": "Complete level 8",
    "icon": "https://steamcdn-a.akamaihd.net/steamcommunity/public/images/apps/1004240/181a4e8cec8d87f156295df5c2797d2dd976755f.jpg",
    "icongray": "https://steamcdn-a.akamaihd.net/steamcommunity/public/images/apps/1004240/92b23ecbec7f8b09e4ab40da8fe9d0e547b9444d.jpg"
  },
  {
    "name": "ACHIEVEMENT_74",
    "defaultvalue": 0,
    "displayName": "Complete level 8",
    "hidden": 0,
    "description": "Complete level 8",
    "icon": "https://steamcdn-a.akamaihd.net/steamcommunity/public/images/apps/1004240/90d2d29cdffa0acde21ea87d8fcb5f96db9fc0da.jpg",
    "icongray": "https://steamcdn-a.akamaihd.net/steamcommunity/public/images/apps/1004240/c9498a110d786c31f90baae4427f5b63dceb0da8.jpg"
  },
  {
    "name": "ACHIEVEMENT_75",
    "defaultvalue": 0,
    "displayName": "Complete level 8",
    "hidden": 0,
    "description": "Complete level 8",
    "icon": "https://steamcdn-a.akamaihd.net/steamcommunity/public/images/apps/1004240/635af62afb9a520aa064decc6f19124fc1559258.jpg",
    "icongray": "https://steamcdn-a.akamaihd.net/steamcommunity/public/images/apps/1004240/03041c9a70e6861850dd8b06cd42697d1923572a.jpg"
  },
  {
    "name": "ACHIEVEMENT_76",
    "defaultvalue": 0,
    "displayName": "Complete level 8",
    "hidden": 0,
    "description": "Complete level 8",
    "icon": "https://steamcdn-a.akamaihd.net/steamcommunity/public/images/apps/1004240/cec3fe2d3eb77d78f1c110f031d179be3ee70368.jpg",
    "icongray": "https://steamcdn-a.akamaihd.net/steamcommunity/public/images/apps/1004240/6f818528c90bfbda16a7d1f56814cf6b1dbf75ed.jpg"
  },
  {
    "name": "ACHIEVEMENT_77",
    "defaultvalue": 0,
    "displayName": "Complete level 8",
    "hidden": 0,
    "description": "Complete level 8",
    "icon": "https://steamcdn-a.akamaihd.net/steamcommunity/public/images/apps/1004240/2cd60b241bb98860fcbc397c93b261bc2285d062.jpg",
    "icongray": "https://steamcdn-a.akamaihd.net/steamcommunity/public/images/apps/1004240/ddf4fdfdd0447e8e407667ad9d3b2ba441315183.jpg"
  },
  {
    "name": "ACHIEVEMENT_78",
    "defaultvalue": 0,
    "displayName": "Complete level 8",
    "hidden": 0,
    "description": "Complete level 8",
    "icon": "https://steamcdn-a.akamaihd.net/steamcommunity/public/images/apps/1004240/100e79fe7222dc72bbcdc81aa8d4a63cd0381a18.jpg",
    "icongray": "https://steamcdn-a.akamaihd.net/steamcommunity/public/images/apps/1004240/cddbecf0dd607958f29ba5c1391968b98e0bbaba.jpg"
  },
  {
    "name": "ACHIEVEMENT_79",
    "defaultvalue": 0,
    "displayName": "Complete level 8",
    "hidden": 0,
    "description": "Complete level 8",
    "icon": "https://steamcdn-a.akamaihd.net/steamcommunity/public/images/apps/1004240/71cda137e588f13cd469c8bb1e5871837511c27c.jpg",
    "icongray": "https://steamcdn-a.akamaihd.net/steamcommunity/public/images/apps/1004240/b15188a43543bc43faa6aa45b9103e388d11db5d.jpg"
  },
  {
    "name": "ACHIEVEMENT_80",
    "defaultvalue": 0,
    "displayName": "Complete level 8",
    "hidden": 0,
    "description": "Complete level 8",
    "icon": "https://steamcdn-a.akamaihd.net/steamcommunity/public/images/apps/1004240/46fb0d1bff817a60dbd1d57b8cc90f97218b2af0.jpg",
    "icongray": "https://steamcdn-a.akamaihd.net/steamcommunity/public/images/apps/1004240/c615987bb3796208d19551e87f34e1585cfe80d0.jpg"
  },
  {
    "name": "ACHIEVEMENT_81",
    "defaultvalue": 0,
    "displayName": "Complete level 9",
    "hidden": 0,
    "description": "Complete level 9",
    "icon": "https://steamcdn-a.akamaihd.net/steamcommunity/public/images/apps/1004240/a8cb4ef97faeecda39d14c02461f398ae960e2a6.jpg",
    "icongray": "https://steamcdn-a.akamaihd.net/steamcommunity/public/images/apps/1004240/e5cc3c5fcf6c71ecc9d248116bcf7f39017a60ea.jpg"
  },
  {
    "name": "ACHIEVEMENT_82",
    "defaultvalue": 0,
    "displayName": "Complete level 9",
    "hidden": 0,
    "description": "Complete level 9",
    "icon": "https://steamcdn-a.akamaihd.net/steamcommunity/public/images/apps/1004240/2d643f113af9274a9c7996deaf2a514e962a9e44.jpg",
    "icongray": "https://steamcdn-a.akamaihd.net/steamcommunity/public/images/apps/1004240/29cfb0b0389004d1e088a2baa1c32c3709da3d53.jpg"
  },
  {
    "name": "ACHIEVEMENT_83",
    "defaultvalue": 0,
    "displayName": "Complete level 9",
    "hidden": 0,
    "description": "Complete level 9",
    "icon": "https://steamcdn-a.akamaihd.net/steamcommunity/public/images/apps/1004240/46264ad2f027840299fdb715676e993527ba1df4.jpg",
    "icongray": "https://steamcdn-a.akamaihd.net/steamcommunity/public/images/apps/1004240/e73f552151f0096cad506d3908850994bf33fe56.jpg"
  },
  {
    "name": "ACHIEVEMENT_84",
    "defaultvalue": 0,
    "displayName": "Complete level 9",
    "hidden": 0,
    "description": "Complete level 9",
    "icon": "https://steamcdn-a.akamaihd.net/steamcommunity/public/images/apps/1004240/c803d4620a21ed525abeaaa53e8f256bbd4a4a36.jpg",
    "icongray": "https://steamcdn-a.akamaihd.net/steamcommunity/public/images/apps/1004240/adc1c79d5b68c5c555ab917c39b36c576943cb1d.jpg"
  },
  {
    "name": "ACHIEVEMENT_85",
    "defaultvalue": 0,
    "displayName": "Complete level 9",
    "hidden": 0,
    "description": "Complete level 9",
    "icon": "https://steamcdn-a.akamaihd.net/steamcommunity/public/images/apps/1004240/4c66d7937707ccc58a2058ab46b5ca6b54b0bf2d.jpg",
    "icongray": "https://steamcdn-a.akamaihd.net/steamcommunity/public/images/apps/1004240/9d410adf712fdf2ac91b8f1696bd494e2b4cb834.jpg"
  },
  {
    "name": "ACHIEVEMENT_86",
    "defaultvalue": 0,
    "displayName": "Complete level 9",
    "hidden": 0,
    "description": "Complete level 9",
    "icon": "https://steamcdn-a.akamaihd.net/steamcommunity/public/images/apps/1004240/732e077ed44ef724c724216e71d843f16e906f4b.jpg",
    "icongray": "https://steamcdn-a.akamaihd.net/steamcommunity/public/images/apps/1004240/6b5b9634605f383e1fc983196ee4e89305102e22.jpg"
  },
  {
    "name": "ACHIEVEMENT_87",
    "defaultvalue": 0,
    "displayName": "Complete level 9",
    "hidden": 0,
    "description": "Complete level 9",
    "icon": "https://steamcdn-a.akamaihd.net/steamcommunity/public/images/apps/1004240/67c07857763713933c21e0c70d0692971cd62b6c.jpg",
    "icongray": "https://steamcdn-a.akamaihd.net/steamcommunity/public/images/apps/1004240/8fec212fb6a5c0448e3ccf146c733ae78a060579.jpg"
  },
  {
    "name": "ACHIEVEMENT_88",
    "defaultvalue": 0,
    "displayName": "Complete level 9",
    "hidden": 0,
    "description": "Complete level 9",
    "icon": "https://steamcdn-a.akamaihd.net/steamcommunity/public/images/apps/1004240/e5fb672bd7d57a37858001eeea4d4b136c02bedc.jpg",
    "icongray": "https://steamcdn-a.akamaihd.net/steamcommunity/public/images/apps/1004240/7ff0bf1b6fe05e4f2809f9fa57954ff7936421bd.jpg"
  },
  {
    "name": "ACHIEVEMENT_89",
    "defaultvalue": 0,
    "displayName": "Complete level 9",
    "hidden": 0,
    "description": "Complete level 9",
    "icon": "https://steamcdn-a.akamaihd.net/steamcommunity/public/images/apps/1004240/51b26fdb360e4c18d38845566cbfd8fe046b6ebb.jpg",
    "icongray": "https://steamcdn-a.akamaihd.net/steamcommunity/public/images/apps/1004240/2369a102238939fb3f3f98538da9a15c85f275fc.jpg"
  },
  {
    "name": "ACHIEVEMENT_90",
    "defaultvalue": 0,
    "displayName": "Complete level 9",
    "hidden": 0,
    "description": "Complete level 9",
    "icon": "https://steamcdn-a.akamaihd.net/steamcommunity/public/images/apps/1004240/220edbb16882daedc6a081899d9d21a77de990df.jpg",
    "icongray": "https://steamcdn-a.akamaihd.net/steamcommunity/public/images/apps/1004240/339033d636d28d0ac0fb4e46f660728f6e8e1993.jpg"
  },
  {
    "name": "ACHIEVEMENT_91",
    "defaultvalue": 0,
    "displayName": "Complete level 10",
    "hidden": 0,
    "description": "Complete level 10",
    "icon": "https://steamcdn-a.akamaihd.net/steamcommunity/public/images/apps/1004240/02fdf06380993f6a7b4a02d0dd7c18c7e7290009.jpg",
    "icongray": "https://steamcdn-a.akamaihd.net/steamcommunity/public/images/apps/1004240/d2e7d089c33420e61650443ee03b01c83c558dc9.jpg"
  },
  {
    "name": "ACHIEVEMENT_92",
    "defaultvalue": 0,
    "displayName": "Complete level 10",
    "hidden": 0,
    "description": "Complete level 10",
    "icon": "https://steamcdn-a.akamaihd.net/steamcommunity/public/images/apps/1004240/9f80acdb30544f38c969e2223fffb42263c0b9d4.jpg",
    "icongray": "https://steamcdn-a.akamaihd.net/steamcommunity/public/images/apps/1004240/17dedd2ede02d0ffa6a239a9139327e159d7e39e.jpg"
  },
  {
    "name": "ACHIEVEMENT_93",
    "defaultvalue": 0,
    "displayName": "Complete level 10",
    "hidden": 0,
    "description": "Complete level 10",
    "icon": "https://steamcdn-a.akamaihd.net/steamcommunity/public/images/apps/1004240/90a315546b627bcf8ed42fb54ecc82248e94ed91.jpg",
    "icongray": "https://steamcdn-a.akamaihd.net/steamcommunity/public/images/apps/1004240/8f6c11f98d668904b7a05c154a059cdd7ceb8c73.jpg"
  },
  {
    "name": "ACHIEVEMENT_94",
    "defaultvalue": 0,
    "displayName": "Complete level 10",
    "hidden": 0,
    "description": "Complete level 10",
    "icon": "https://steamcdn-a.akamaihd.net/steamcommunity/public/images/apps/1004240/763897968b31d08ed03c6da7f9dcba1f8e9ca907.jpg",
    "icongray": "https://steamcdn-a.akamaihd.net/steamcommunity/public/images/apps/1004240/9fb0057b8fd08d506d58a98fd8de8fee480acd7f.jpg"
  },
  {
    "name": "ACHIEVEMENT_95",
    "defaultvalue": 0,
    "displayName": "Complete level 10",
    "hidden": 0,
    "description": "Complete level 10",
    "icon": "https://steamcdn-a.akamaihd.net/steamcommunity/public/images/apps/1004240/b32bf1e08cd3faede476d828cfdcc2f896aa5a12.jpg",
    "icongray": "https://steamcdn-a.akamaihd.net/steamcommunity/public/images/apps/1004240/bc3f58071cbb608e3b7c0cab7da575df84152158.jpg"
  },
  {
    "name": "ACHIEVEMENT_96",
    "defaultvalue": 0,
    "displayName": "Complete level 10",
    "hidden": 0,
    "description": "Complete level 10",
    "icon": "https://steamcdn-a.akamaihd.net/steamcommunity/public/images/apps/1004240/bee5f4aea392d847985a0421e48190e7e1a28a70.jpg",
    "icongray": "https://steamcdn-a.akamaihd.net/steamcommunity/public/images/apps/1004240/ad78222c19cab0759857eff1bcf6e534d439fd1e.jpg"
  },
  {
    "name": "ACHIEVEMENT_97",
    "defaultvalue": 0,
    "displayName": "Complete level 10",
    "hidden": 0,
    "description": "Complete level 10",
    "icon": "https://steamcdn-a.akamaihd.net/steamcommunity/public/images/apps/1004240/5d677139cc2805e1e46e429c42ce9600a6bcceae.jpg",
    "icongray": "https://steamcdn-a.akamaihd.net/steamcommunity/public/images/apps/1004240/69284081df52bb9b74a75fa4df27bcc41d0c7876.jpg"
  },
  {
    "name": "ACHIEVEMENT_98",
    "defaultvalue": 0,
    "displayName": "Complete level 10",
    "hidden": 0,
    "description": "Complete level 10",
    "icon": "https://steamcdn-a.akamaihd.net/steamcommunity/public/images/apps/1004240/eda96f0b6d81856330b413a41b48c74734610415.jpg",
    "icongray": "https://steamcdn-a.akamaihd.net/steamcommunity/public/images/apps/1004240/35d324db80ad47331ff64a691947f9a936e44359.jpg"
  },
  {
    "name": "ACHIEVEMENT_99",
    "defaultvalue": 0,
    "displayName": "Complete level 10",
    "hidden": 0,
    "description": "Complete level 10",
    "icon": "https://steamcdn-a.akamaihd.net/steamcommunity/public/images/apps/1004240/8637a513b155e46b37e2789fc2b2740d19f2ad8e.jpg",
    "icongray": "https://steamcdn-a.akamaihd.net/steamcommunity/public/images/apps/1004240/f722a9a3fa0fd5d058ba99615c473c6f136746c4.jpg"
  },
  {
    "name": "ACHIEVEMENT_100",
    "defaultvalue": 0,
    "displayName": "Complete level 10",
    "hidden": 0,
    "description": "Complete level 10",
    "icon": "https://steamcdn-a.akamaihd.net/steamcommunity/public/images/apps/1004240/880e56fd56b8d0e3df57a015be3ad0d5312b68a0.jpg",
    "icongray": "https://steamcdn-a.akamaihd.net/steamcommunity/public/images/apps/1004240/2a4eccaf752e375e3c10923eca1585c8c28fa7ed.jpg"
  }
]