﻿{
  "Dlcs": {},
  "Name": "Google Spotlight Stories: On Ice",
  "AppId": "750360",
  "ImageUrl": "https://steamcdn-a.akamaihd.net/steam/apps/750360/header.jpg?t=1528350550",
  "Languages": [
    "english"
  ],
  "Platforms": {
    "windows": true,
    "mac": false,
    "linux": false
  }
}