{
  "Dlcs": {},
  "Name": "Valgrave: Immortal Plains",
  "AppId": "1076500",
  "ImageUrl": "https://steamcdn-a.akamaihd.net/steam/apps/1076500/header.jpg?t=1589960383",
  "Languages": [
    "english",
    "schinese",
    "german",
    "portuguese",
    "dutch",
    "french"
  ],
  "Platforms": {
    "windows": true,
    "mac": false,
    "linux": false
  }
}