{
  "Dlcs": {},
  "Name": "Hermina Lumen is Only Human",
  "AppId": "898050",
  "ImageUrl": "https://steamcdn-a.akamaihd.net/steam/apps/898050/header.jpg?t=1563649202",
  "Languages": [
    "english"
  ],
  "Platforms": {
    "windows": true,
    "mac": true,
    "linux": false
  }
}