﻿[
  {
    "name": "BELT_WHITE",
    "defaultvalue": 0,
    "displayName": "White Belt",
    "hidden": 0,
    "description": "A long road lies ahead of you young one.",
    "icon": "https://steamcdn-a.akamaihd.net/steamcommunity/public/images/apps/248570/a30c2c201f1d074ddb9224f4678ead8a7bcdb88b.jpg",
    "icongray": "https://steamcdn-a.akamaihd.net/steamcommunity/public/images/apps/248570/813a0b6afb1548679e163d7d1cd9f508299f4f04.jpg"
  },
  {
    "name": "BELT_YELLOW",
    "defaultvalue": 0,
    "displayName": "Yellow Belt",
    "hidden": 0,
    "description": "And so the journey begins...",
    "icon": "https://steamcdn-a.akamaihd.net/steamcommunity/public/images/apps/248570/e01b0e666fbd67ca1363fb202cd8e9e9aa1e4f2e.jpg",
    "icongray": "https://steamcdn-a.akamaihd.net/steamcommunity/public/images/apps/248570/813a0b6afb1548679e163d7d1cd9f508299f4f04.jpg"
  },
  {
    "name": "BELT_ORANGE",
    "defaultvalue": 0,
    "displayName": "Orange Belt",
    "hidden": 0,
    "description": "You are on your way...",
    "icon": "https://steamcdn-a.akamaihd.net/steamcommunity/public/images/apps/248570/d0f36f758ba1ce93765cad70aa3c1b94a0efde2a.jpg",
    "icongray": "https://steamcdn-a.akamaihd.net/steamcommunity/public/images/apps/248570/813a0b6afb1548679e163d7d1cd9f508299f4f04.jpg"
  },
  {
    "name": "BELT_GREEN",
    "defaultvalue": 0,
    "displayName": "Green Belt",
    "hidden": 0,
    "description": "Al Gore would be proud.",
    "icon": "https://steamcdn-a.akamaihd.net/steamcommunity/public/images/apps/248570/8352b2f329f114f20d792f078fbaa4af93045d09.jpg",
    "icongray": "https://steamcdn-a.akamaihd.net/steamcommunity/public/images/apps/248570/813a0b6afb1548679e163d7d1cd9f508299f4f04.jpg"
  },
  {
    "name": "BELT_BLUE",
    "defaultvalue": 0,
    "displayName": "Blue Belt",
    "hidden": 0,
    "description": "It only gets harder from here.",
    "icon": "https://steamcdn-a.akamaihd.net/steamcommunity/public/images/apps/248570/c5936b95f05f161e7566f3e4aa93eb781be17329.jpg",
    "icongray": "https://steamcdn-a.akamaihd.net/steamcommunity/public/images/apps/248570/813a0b6afb1548679e163d7d1cd9f508299f4f04.jpg"
  },
  {
    "name": "BELT_BROWN",
    "defaultvalue": 0,
    "displayName": "Brown Belt",
    "hidden": 0,
    "description": "Whoooah we're half way the-ere!",
    "icon": "https://steamcdn-a.akamaihd.net/steamcommunity/public/images/apps/248570/868bb07d2b856c6e06dd65afe8d89ef43c1b72a0.jpg",
    "icongray": "https://steamcdn-a.akamaihd.net/steamcommunity/public/images/apps/248570/813a0b6afb1548679e163d7d1cd9f508299f4f04.jpg"
  },
  {
    "name": "BELT_BLACK",
    "defaultvalue": 0,
    "displayName": "Black Belt",
    "hidden": 0,
    "description": "The real deal starts now.",
    "icon": "https://steamcdn-a.akamaihd.net/steamcommunity/public/images/apps/248570/6b91dfd82270c0a9aaf1e41d8977af3e73139527.jpg",
    "icongray": "https://steamcdn-a.akamaihd.net/steamcommunity/public/images/apps/248570/813a0b6afb1548679e163d7d1cd9f508299f4f04.jpg"
  },
  {
    "name": "BELT_DAN2",
    "defaultvalue": 0,
    "displayName": "2nd Dan",
    "hidden": 0,
    "description": "On the path to greatness! 2,000 Qi.",
    "icon": "https://steamcdn-a.akamaihd.net/steamcommunity/public/images/apps/248570/b8ae409f268bda32ff9d4f9ee725044c7688573a.jpg",
    "icongray": "https://steamcdn-a.akamaihd.net/steamcommunity/public/images/apps/248570/1defd6b7325803128dccdef538a82a6856e4a7db.jpg"
  },
  {
    "name": "BELT_DAN3",
    "defaultvalue": 0,
    "displayName": "3rd Dan",
    "hidden": 0,
    "description": "The holy triumvirate! 3,000 Qi and counting...",
    "icon": "https://steamcdn-a.akamaihd.net/steamcommunity/public/images/apps/248570/05520b5d8dd2376a47484cd916c281ead2e161c5.jpg",
    "icongray": "https://steamcdn-a.akamaihd.net/steamcommunity/public/images/apps/248570/38078942f969391094942929bc3b79a54b17eb51.jpg"
  },
  {
    "name": "BELT_DAN4",
    "defaultvalue": 0,
    "displayName": "4th Dan",
    "hidden": 0,
    "description": "Four to the floor gonna get me summore? 4,000qi.",
    "icon": "https://steamcdn-a.akamaihd.net/steamcommunity/public/images/apps/248570/8fdf286e4e0c21d9a638206a95deb2b1423b8660.jpg",
    "icongray": "https://steamcdn-a.akamaihd.net/steamcommunity/public/images/apps/248570/79c405a7cc21e2bdb4f8fed26700b16902f1c5b0.jpg"
  },
  {
    "name": "BELT_DAN5",
    "defaultvalue": 0,
    "displayName": "5th Dan",
    "hidden": 0,
    "description": "Your name is not Dan, nor are you 5. Congrats! 5,000 Qi.",
    "icon": "https://steamcdn-a.akamaihd.net/steamcommunity/public/images/apps/248570/963ecd94c625a0cfe63ccec508965bcaaf13cf13.jpg",
    "icongray": "https://steamcdn-a.akamaihd.net/steamcommunity/public/images/apps/248570/e6b861a45c7af6d840a7f8880ad833b082b85891.jpg"
  },
  {
    "name": "BELT_DAN6",
    "defaultvalue": 0,
    "displayName": "6th Dan!",
    "hidden": 0,
    "description": "Time sure does fly. 6,000 Qi",
    "icon": "https://steamcdn-a.akamaihd.net/steamcommunity/public/images/apps/248570/d1f0cd5de3c40aa8c90bdfcfff4ff66317740e50.jpg",
    "icongray": "https://steamcdn-a.akamaihd.net/steamcommunity/public/images/apps/248570/8dde093af9f5b37e3338619aa56c271a28e2e5d6.jpg"
  },
  {
    "name": "BELT_DAN7",
    "defaultvalue": 0,
    "displayName": "7th Dan!",
    "hidden": 0,
    "description": "Lucky number 7. 7,000 Qi.",
    "icon": "https://steamcdn-a.akamaihd.net/steamcommunity/public/images/apps/248570/8f40ce2421e6b63c3e0fe1409a65d9aabaec7bf5.jpg",
    "icongray": "https://steamcdn-a.akamaihd.net/steamcommunity/public/images/apps/248570/0c1360df87930dd30f0b5ce8fae1fc7c98a89106.jpg"
  },
  {
    "name": "BELT_DAN8",
    "defaultvalue": 0,
    "displayName": "8th Dan!",
    "hidden": 0,
    "description": "Follow the eightfold path. 8,000 Qi.",
    "icon": "https://steamcdn-a.akamaihd.net/steamcommunity/public/images/apps/248570/1accfe307b6b69aa63ce259f94552596cea5781d.jpg",
    "icongray": "https://steamcdn-a.akamaihd.net/steamcommunity/public/images/apps/248570/4fe2a3ab9637e1570b115fe7454401875885e293.jpg"
  },
  {
    "name": "BELT_DAN9",
    "defaultvalue": 0,
    "displayName": "9th Dan!",
    "hidden": 0,
    "description": "You must be on cloud 9. 9,000 Qi!",
    "icon": "https://steamcdn-a.akamaihd.net/steamcommunity/public/images/apps/248570/98472a525bde1361c2fe5753c07fcf3cdd0e7d3f.jpg",
    "icongray": "https://steamcdn-a.akamaihd.net/steamcommunity/public/images/apps/248570/ec15c2bdf4c053cc5cd739f365fb008057e64891.jpg"
  },
  {
    "name": "BELT_DAN10",
    "defaultvalue": 0,
    "displayName": "10th dan!",
    "hidden": 0,
    "description": "Sure is lonely the top.. 10,000 Qi.",
    "icon": "https://steamcdn-a.akamaihd.net/steamcommunity/public/images/apps/248570/55247bd66c7813548d9c8b398039a4741fdd8462.jpg",
    "icongray": "https://steamcdn-a.akamaihd.net/steamcommunity/public/images/apps/248570/a585f0bad3a3b8632ee6ba1aafcb1d6a725646ef.jpg"
  },
  {
    "name": "BELT_MASTER",
    "defaultvalue": 0,
    "displayName": "Master Belt!",
    "hidden": 0,
    "description": "For only the masters of the game.",
    "icon": "https://steamcdn-a.akamaihd.net/steamcommunity/public/images/apps/248570/073dd8da4b3d8977b20b22c4b24340fe52d2243f.jpg",
    "icongray": "https://steamcdn-a.akamaihd.net/steamcommunity/public/images/apps/248570/0a64c260ba31749a160f7b878ca3bf28a42ef1cb.jpg"
  },
  {
    "name": "BELT_CUSTOM",
    "defaultvalue": 0,
    "displayName": "Custom Belt!",
    "hidden": 0,
    "description": "You just play and play and you cannot stop! You are a legend!",
    "icon": "https://steamcdn-a.akamaihd.net/steamcommunity/public/images/apps/248570/e37fde53d13eba4e70de10c63cd24d171ff49060.jpg",
    "icongray": "https://steamcdn-a.akamaihd.net/steamcommunity/public/images/apps/248570/97a4880a55bcf18a22ee53dc82aa3bf09738c7fd.jpg"
  },
  {
    "name": "BELT_GOD",
    "defaultvalue": 0,
    "displayName": "God Belt!",
    "hidden": 0,
    "description": "You have achieved ultimate glory!",
    "icon": "https://steamcdn-a.akamaihd.net/steamcommunity/public/images/apps/248570/e99106eb8eb7ad9c3e463992d31fd1cbd3776172.jpg",
    "icongray": "https://steamcdn-a.akamaihd.net/steamcommunity/public/images/apps/248570/5f4338ba332e0a24a68a232e462d461b11472520.jpg"
  },
  {
    "name": "TUTORIAL_PROGRESS_1",
    "defaultvalue": 0,
    "displayName": "Student",
    "hidden": 0,
    "description": "Complete intro tutorial",
    "icon": "https://steamcdn-a.akamaihd.net/steamcommunity/public/images/apps/248570/77a34d9e81b802c89a15c0e7a25afdb06dbec5cd.jpg",
    "icongray": "https://steamcdn-a.akamaihd.net/steamcommunity/public/images/apps/248570/111d57747a02d3012fcd1f9ac559242ea1ba6752.jpg"
  },
  {
    "name": "TUTORIAL_PROGRESS_2",
    "defaultvalue": 0,
    "displayName": "Aspiring Fighter",
    "hidden": 0,
    "description": "Complete punching tutorial",
    "icon": "https://steamcdn-a.akamaihd.net/steamcommunity/public/images/apps/248570/c513c426c3c6c8eaddb0751e8477debbb25a0e16.jpg",
    "icongray": "https://steamcdn-a.akamaihd.net/steamcommunity/public/images/apps/248570/e93cc522128f2762a2f033bc64e733dbff7a1ec5.jpg"
  },
  {
    "name": "TUTORIAL_EXCEPTIONAL_2",
    "defaultvalue": 0,
    "displayName": "Professional Boxer",
    "hidden": 0,
    "description": "Get over 500k points in punching tutorial final challenge",
    "icon": "https://steamcdn-a.akamaihd.net/steamcommunity/public/images/apps/248570/9cd5d60fa75012974c724fa085a505d83d1fefc6.jpg",
    "icongray": "https://steamcdn-a.akamaihd.net/steamcommunity/public/images/apps/248570/72824648cf515a8f434c88ac16c2fe614f47e703.jpg"
  },
  {
    "name": "TUTORIAL_PROGRESS_3",
    "defaultvalue": 0,
    "displayName": "Experienced Kickboxer",
    "hidden": 0,
    "description": "Complete kicking tutorial",
    "icon": "https://steamcdn-a.akamaihd.net/steamcommunity/public/images/apps/248570/ceb39b74d462f7e898ae91d7e17b9733ec1e4743.jpg",
    "icongray": "https://steamcdn-a.akamaihd.net/steamcommunity/public/images/apps/248570/d66b870d0029edf217048a7181fe88834f09e530.jpg"
  },
  {
    "name": "TUTORIAL_PROGRESS_4",
    "defaultvalue": 0,
    "displayName": "Martial Artist",
    "hidden": 0,
    "description": "Complete 'Challenge Uke' tutorial",
    "icon": "https://steamcdn-a.akamaihd.net/steamcommunity/public/images/apps/248570/c384825bf35f267916026b52bcb0175e5881e91b.jpg",
    "icongray": "https://steamcdn-a.akamaihd.net/steamcommunity/public/images/apps/248570/761daa7f2d1b2d02416f45e53f8db26ed764804d.jpg"
  },
  {
    "name": "COLOR_ACID",
    "defaultvalue": 0,
    "displayName": "Full Acid",
    "hidden": 0,
    "description": "Collect a full set of Acid items",
    "icon": "https://steamcdn-a.akamaihd.net/steamcommunity/public/images/apps/248570/59584913c60b732f618d86ee43ef2d34b4359b03.jpg",
    "icongray": "https://steamcdn-a.akamaihd.net/steamcommunity/public/images/apps/248570/12d4696046ed046a32e0f08c5853104bcca5fb78.jpg"
  },
  {
    "name": "COLOR_ADAMANTIUM",
    "defaultvalue": 0,
    "displayName": "Full Adamantium",
    "hidden": 0,
    "description": "Collect a full set of Adamantium items",
    "icon": "https://steamcdn-a.akamaihd.net/steamcommunity/public/images/apps/248570/55dbc0f5026592a475cdd08fb54f8501d9032602.jpg",
    "icongray": "https://steamcdn-a.akamaihd.net/steamcommunity/public/images/apps/248570/12d4696046ed046a32e0f08c5853104bcca5fb78.jpg"
  },
  {
    "name": "COLOR_ALPHAIMPERIAL",
    "defaultvalue": 0,
    "displayName": "Full Alpha Imperial",
    "hidden": 0,
    "description": "Collect a full set of Alpha items",
    "icon": "https://steamcdn-a.akamaihd.net/steamcommunity/public/images/apps/248570/4193df2a012b6b31a6217c17841d77106e30ff5b.jpg",
    "icongray": "https://steamcdn-a.akamaihd.net/steamcommunity/public/images/apps/248570/12d4696046ed046a32e0f08c5853104bcca5fb78.jpg"
  },
  {
    "name": "COLOR_AMBER",
    "defaultvalue": 0,
    "displayName": "Full Amber",
    "hidden": 0,
    "description": "Collect a full set of Amber items",
    "icon": "https://steamcdn-a.akamaihd.net/steamcommunity/public/images/apps/248570/d9b4f824d25b40e292987778e2a48e9c899967f0.jpg",
    "icongray": "https://steamcdn-a.akamaihd.net/steamcommunity/public/images/apps/248570/12d4696046ed046a32e0f08c5853104bcca5fb78.jpg"
  },
  {
    "name": "COLOR_AMETHYST",
    "defaultvalue": 0,
    "displayName": "Full Amethyst",
    "hidden": 0,
    "description": "Collect a full set of Amethyst items",
    "icon": "https://steamcdn-a.akamaihd.net/steamcommunity/public/images/apps/248570/aaeea1287dd7262dd7b7d35f60035693826863d0.jpg",
    "icongray": "https://steamcdn-a.akamaihd.net/steamcommunity/public/images/apps/248570/12d4696046ed046a32e0f08c5853104bcca5fb78.jpg"
  },
  {
    "name": "COLOR_AQUA",
    "defaultvalue": 0,
    "displayName": "Full Aqua",
    "hidden": 0,
    "description": "Collect a full set of Aqua items",
    "icon": "https://steamcdn-a.akamaihd.net/steamcommunity/public/images/apps/248570/76a13f96273996e1ff8070ac7a418c337f7af4df.jpg",
    "icongray": "https://steamcdn-a.akamaihd.net/steamcommunity/public/images/apps/248570/12d4696046ed046a32e0f08c5853104bcca5fb78.jpg"
  },
  {
    "name": "COLOR_ASTRO",
    "defaultvalue": 0,
    "displayName": "Full Astro",
    "hidden": 0,
    "description": "Collect a full set of Astro items",
    "icon": "https://steamcdn-a.akamaihd.net/steamcommunity/public/images/apps/248570/a20e79b3589ff1893aadfc52ecc0b1f9aa2c91df.jpg",
    "icongray": "https://steamcdn-a.akamaihd.net/steamcommunity/public/images/apps/248570/12d4696046ed046a32e0f08c5853104bcca5fb78.jpg"
  },
  {
    "name": "COLOR_AURORA",
    "defaultvalue": 0,
    "displayName": "Full Aurora",
    "hidden": 0,
    "description": "Collect a full set of Aurora items",
    "icon": "https://steamcdn-a.akamaihd.net/steamcommunity/public/images/apps/248570/94c629b3b4eb3be144a7f73377ea3c4894479314.jpg",
    "icongray": "https://steamcdn-a.akamaihd.net/steamcommunity/public/images/apps/248570/12d4696046ed046a32e0f08c5853104bcca5fb78.jpg"
  },
  {
    "name": "COLOR_AZURITE",
    "defaultvalue": 0,
    "displayName": "Full Azurite",
    "hidden": 0,
    "description": "Collect a full set of Azurite items",
    "icon": "https://steamcdn-a.akamaihd.net/steamcommunity/public/images/apps/248570/ac1dd83e921bd36550442b5b80227cc27e5abe61.jpg",
    "icongray": "https://steamcdn-a.akamaihd.net/steamcommunity/public/images/apps/248570/12d4696046ed046a32e0f08c5853104bcca5fb78.jpg"
  },
  {
    "name": "COLOR_BEETLE",
    "defaultvalue": 0,
    "displayName": "Full Beetle",
    "hidden": 0,
    "description": "Collect a full set of Beetle items",
    "icon": "https://steamcdn-a.akamaihd.net/steamcommunity/public/images/apps/248570/fb89dddd223b4ada819e6e22d15f06a3d739a33a.jpg",
    "icongray": "https://steamcdn-a.akamaihd.net/steamcommunity/public/images/apps/248570/12d4696046ed046a32e0f08c5853104bcca5fb78.jpg"
  },
  {
    "name": "COLOR_BLOSSOM",
    "defaultvalue": 0,
    "displayName": "Full Blossom",
    "hidden": 0,
    "description": "Collect a full set of Blossom items",
    "icon": "https://steamcdn-a.akamaihd.net/steamcommunity/public/images/apps/248570/01818dd6b641040a78e50f7af2effe2f9521f1a3.jpg",
    "icongray": "https://steamcdn-a.akamaihd.net/steamcommunity/public/images/apps/248570/12d4696046ed046a32e0f08c5853104bcca5fb78.jpg"
  },
  {
    "name": "COLOR_BOREAL",
    "defaultvalue": 0,
    "displayName": "Full Boreal",
    "hidden": 0,
    "description": "Collect a full set of Boreal items",
    "icon": "https://steamcdn-a.akamaihd.net/steamcommunity/public/images/apps/248570/0415ea0a8971aff85bbcc1196e0502c7236863a6.jpg",
    "icongray": "https://steamcdn-a.akamaihd.net/steamcommunity/public/images/apps/248570/12d4696046ed046a32e0f08c5853104bcca5fb78.jpg"
  },
  {
    "name": "COLOR_BRONZE",
    "defaultvalue": 0,
    "displayName": "Full Bronze",
    "hidden": 0,
    "description": "Collect a full set of Bronze items",
    "icon": "https://steamcdn-a.akamaihd.net/steamcommunity/public/images/apps/248570/4eaab8814811c03c87d8008dfac1b4cbaba0afc5.jpg",
    "icongray": "https://steamcdn-a.akamaihd.net/steamcommunity/public/images/apps/248570/12d4696046ed046a32e0f08c5853104bcca5fb78.jpg"
  },
  {
    "name": "COLOR_CAMO",
    "defaultvalue": 0,
    "displayName": "Full Camo",
    "hidden": 0,
    "description": "Collect a full set of Camo items",
    "icon": "https://steamcdn-a.akamaihd.net/steamcommunity/public/images/apps/248570/a026ef7ca820749ed641f7d8cff6fb406993ce04.jpg",
    "icongray": "https://steamcdn-a.akamaihd.net/steamcommunity/public/images/apps/248570/12d4696046ed046a32e0f08c5853104bcca5fb78.jpg"
  },
  {
    "name": "COLOR_CHRONOS",
    "defaultvalue": 0,
    "displayName": "Full Chronos",
    "hidden": 0,
    "description": "Collect a full set of Chronos items",
    "icon": "https://steamcdn-a.akamaihd.net/steamcommunity/public/images/apps/248570/a84eacfba14ec4b5c923f37803c470436e47666f.jpg",
    "icongray": "https://steamcdn-a.akamaihd.net/steamcommunity/public/images/apps/248570/12d4696046ed046a32e0f08c5853104bcca5fb78.jpg"
  },
  {
    "name": "COLOR_COBRA",
    "defaultvalue": 0,
    "displayName": "Full Cobra",
    "hidden": 0,
    "description": "Collect a full set of Cobra items",
    "icon": "https://steamcdn-a.akamaihd.net/steamcommunity/public/images/apps/248570/93196fd6e135eaf581601ea69a06e2fadb01ddf4.jpg",
    "icongray": "https://steamcdn-a.akamaihd.net/steamcommunity/public/images/apps/248570/12d4696046ed046a32e0f08c5853104bcca5fb78.jpg"
  },
  {
    "name": "COLOR_COPPER",
    "defaultvalue": 0,
    "displayName": "Full Copper",
    "hidden": 0,
    "description": "Collect a full set of Copper items",
    "icon": "https://steamcdn-a.akamaihd.net/steamcommunity/public/images/apps/248570/361df5420da28bbf4f6d43e6ab071b9d8078a195.jpg",
    "icongray": "https://steamcdn-a.akamaihd.net/steamcommunity/public/images/apps/248570/12d4696046ed046a32e0f08c5853104bcca5fb78.jpg"
  },
  {
    "name": "COLOR_CRIMSON",
    "defaultvalue": 0,
    "displayName": "Full Crimson",
    "hidden": 0,
    "description": "Collect a full set of Crimson items",
    "icon": "https://steamcdn-a.akamaihd.net/steamcommunity/public/images/apps/248570/3098eed202abbcc90d5e1abf5089301e09c7d511.jpg",
    "icongray": "https://steamcdn-a.akamaihd.net/steamcommunity/public/images/apps/248570/12d4696046ed046a32e0f08c5853104bcca5fb78.jpg"
  },
  {
    "name": "COLOR_CRUSHER",
    "defaultvalue": 0,
    "displayName": "Full Crusher",
    "hidden": 0,
    "description": "Collect a full set of Crusher items",
    "icon": "https://steamcdn-a.akamaihd.net/steamcommunity/public/images/apps/248570/69a6892ed054aa47633103848f4ef84c326bdd8b.jpg",
    "icongray": "https://steamcdn-a.akamaihd.net/steamcommunity/public/images/apps/248570/12d4696046ed046a32e0f08c5853104bcca5fb78.jpg"
  },
  {
    "name": "COLOR_DEMOLITION",
    "defaultvalue": 0,
    "displayName": "Full Demolition",
    "hidden": 0,
    "description": "Collect a full set of Demolition items",
    "icon": "https://steamcdn-a.akamaihd.net/steamcommunity/public/images/apps/248570/e5a1d87b8060fba574d4593773c46fee33cc2c92.jpg",
    "icongray": "https://steamcdn-a.akamaihd.net/steamcommunity/public/images/apps/248570/12d4696046ed046a32e0f08c5853104bcca5fb78.jpg"
  },
  {
    "name": "COLOR_DEMON",
    "defaultvalue": 0,
    "displayName": "Full Demon",
    "hidden": 0,
    "description": "Collect a full set of Demon items",
    "icon": "https://steamcdn-a.akamaihd.net/steamcommunity/public/images/apps/248570/16e78a20b2f0461c2500aadaa27ffef68ad914b4.jpg",
    "icongray": "https://steamcdn-a.akamaihd.net/steamcommunity/public/images/apps/248570/12d4696046ed046a32e0f08c5853104bcca5fb78.jpg"
  },
  {
    "name": "COLOR_DRAGON",
    "defaultvalue": 0,
    "displayName": "Full Dragon",
    "hidden": 0,
    "description": "Collect a full set of Dragon items",
    "icon": "https://steamcdn-a.akamaihd.net/steamcommunity/public/images/apps/248570/c2c374fad50d5f51b13680d0c9bc121e04873810.jpg",
    "icongray": "https://steamcdn-a.akamaihd.net/steamcommunity/public/images/apps/248570/12d4696046ed046a32e0f08c5853104bcca5fb78.jpg"
  },
  {
    "name": "COLOR_ECTO",
    "defaultvalue": 0,
    "displayName": "Full Ecto",
    "hidden": 0,
    "description": "Collect a full set of Ecto items",
    "icon": "https://steamcdn-a.akamaihd.net/steamcommunity/public/images/apps/248570/2dec0447706471107ea5898ba6e7f8055f1a492c.jpg",
    "icongray": "https://steamcdn-a.akamaihd.net/steamcommunity/public/images/apps/248570/12d4696046ed046a32e0f08c5853104bcca5fb78.jpg"
  },
  {
    "name": "COLOR_ELF",
    "defaultvalue": 0,
    "displayName": "Full Elf",
    "hidden": 0,
    "description": "Collect a full set of Elf items",
    "icon": "https://steamcdn-a.akamaihd.net/steamcommunity/public/images/apps/248570/d1a3c7b614bc1fbace9910925556832853895c60.jpg",
    "icongray": "https://steamcdn-a.akamaihd.net/steamcommunity/public/images/apps/248570/12d4696046ed046a32e0f08c5853104bcca5fb78.jpg"
  },
  {
    "name": "COLOR_FOSSIL",
    "defaultvalue": 0,
    "displayName": "Full Fossil",
    "hidden": 0,
    "description": "Collect a full set of Fossil items",
    "icon": "https://steamcdn-a.akamaihd.net/steamcommunity/public/images/apps/248570/e77656a788a76ecbe6656123b9ff2561b03db49b.jpg",
    "icongray": "https://steamcdn-a.akamaihd.net/steamcommunity/public/images/apps/248570/12d4696046ed046a32e0f08c5853104bcca5fb78.jpg"
  },
  {
    "name": "COLOR_GAIA",
    "defaultvalue": 0,
    "displayName": "Full Gaia",
    "hidden": 0,
    "description": "Collect a full set of Gaia items",
    "icon": "https://steamcdn-a.akamaihd.net/steamcommunity/public/images/apps/248570/54bcaab7b8b9c57568b95bf10251b405b0866b42.jpg",
    "icongray": "https://steamcdn-a.akamaihd.net/steamcommunity/public/images/apps/248570/12d4696046ed046a32e0f08c5853104bcca5fb78.jpg"
  },
  {
    "name": "COLOR_GLADIATOR",
    "defaultvalue": 0,
    "displayName": "Full Gladiator",
    "hidden": 0,
    "description": "Collect a full set of Gladiator items",
    "icon": "https://steamcdn-a.akamaihd.net/steamcommunity/public/images/apps/248570/84cd46d1771005542bd64a818a93a6982683d804.jpg",
    "icongray": "https://steamcdn-a.akamaihd.net/steamcommunity/public/images/apps/248570/12d4696046ed046a32e0f08c5853104bcca5fb78.jpg"
  },
  {
    "name": "COLOR_GOLD",
    "defaultvalue": 0,
    "displayName": "Full Gold",
    "hidden": 0,
    "description": "Collect a full set of Gold items",
    "icon": "https://steamcdn-a.akamaihd.net/steamcommunity/public/images/apps/248570/7bd6c5594ca1aded523c788dcb56b6fe05078a9b.jpg",
    "icongray": "https://steamcdn-a.akamaihd.net/steamcommunity/public/images/apps/248570/12d4696046ed046a32e0f08c5853104bcca5fb78.jpg"
  },
  {
    "name": "COLOR_HAWK",
    "defaultvalue": 0,
    "displayName": "Full Hawk",
    "hidden": 0,
    "description": "Collect a full set of Hawk items",
    "icon": "https://steamcdn-a.akamaihd.net/steamcommunity/public/images/apps/248570/2122e87f4910e29be3cda5658f75474def1c64e2.jpg",
    "icongray": "https://steamcdn-a.akamaihd.net/steamcommunity/public/images/apps/248570/12d4696046ed046a32e0f08c5853104bcca5fb78.jpg"
  },
  {
    "name": "COLOR_HELIOS",
    "defaultvalue": 0,
    "displayName": "Full Helios",
    "hidden": 0,
    "description": "Collect a full set of Helios items",
    "icon": "https://steamcdn-a.akamaihd.net/steamcommunity/public/images/apps/248570/c8f38fb1aeb968f5c5b7ef6a59a3a20631e01f20.jpg",
    "icongray": "https://steamcdn-a.akamaihd.net/steamcommunity/public/images/apps/248570/12d4696046ed046a32e0f08c5853104bcca5fb78.jpg"
  },
  {
    "name": "COLOR_HOTPINK",
    "defaultvalue": 0,
    "displayName": "Full Hot Pink",
    "hidden": 0,
    "description": "Collect a full set of Hot Pink items",
    "icon": "https://steamcdn-a.akamaihd.net/steamcommunity/public/images/apps/248570/79632555cedc310485fdc8de3fed1261528fa931.jpg",
    "icongray": "https://steamcdn-a.akamaihd.net/steamcommunity/public/images/apps/248570/25808937692ad3648aead72520affb853b6ac5bf.jpg"
  },
  {
    "name": "COLOR_HUNTER",
    "defaultvalue": 0,
    "displayName": "Full Hunter",
    "hidden": 0,
    "description": "Collect a full set of Hunter items",
    "icon": "https://steamcdn-a.akamaihd.net/steamcommunity/public/images/apps/248570/9046b0657d6256f388dab0b3ddacccf320832005.jpg",
    "icongray": "https://steamcdn-a.akamaihd.net/steamcommunity/public/images/apps/248570/12d4696046ed046a32e0f08c5853104bcca5fb78.jpg"
  },
  {
    "name": "COLOR_HYDRA",
    "defaultvalue": 0,
    "displayName": "Full Hydra",
    "hidden": 0,
    "description": "Collect a full set of Hydra items",
    "icon": "https://steamcdn-a.akamaihd.net/steamcommunity/public/images/apps/248570/2d790c051565439e15061b811fa48078aefad17f.jpg",
    "icongray": "https://steamcdn-a.akamaihd.net/steamcommunity/public/images/apps/248570/12d4696046ed046a32e0f08c5853104bcca5fb78.jpg"
  },
  {
    "name": "COLOR_IMPERIAL",
    "defaultvalue": 0,
    "displayName": "Full Imperial",
    "hidden": 0,
    "description": "Collect a full set of Imperial items",
    "icon": "https://steamcdn-a.akamaihd.net/steamcommunity/public/images/apps/248570/7e2542436615fdc207c930ab8cfb951f02c72dc8.jpg",
    "icongray": "https://steamcdn-a.akamaihd.net/steamcommunity/public/images/apps/248570/12d4696046ed046a32e0f08c5853104bcca5fb78.jpg"
  },
  {
    "name": "COLOR_IMPURE",
    "defaultvalue": 0,
    "displayName": "Full Impure",
    "hidden": 0,
    "description": "Collect a full set of Impure items",
    "icon": "https://steamcdn-a.akamaihd.net/steamcommunity/public/images/apps/248570/7ac4ae7d9aa0f21170f0a8ca019fdccca13819cc.jpg",
    "icongray": "https://steamcdn-a.akamaihd.net/steamcommunity/public/images/apps/248570/25808937692ad3648aead72520affb853b6ac5bf.jpg"
  },
  {
    "name": "COLOR_IVORY",
    "defaultvalue": 0,
    "displayName": "Full Ivory",
    "hidden": 0,
    "description": "Collect a full set of Ivory items",
    "icon": "https://steamcdn-a.akamaihd.net/steamcommunity/public/images/apps/248570/8e0f97924dda9645c5120c1d0cebb863426b9a47.jpg",
    "icongray": "https://steamcdn-a.akamaihd.net/steamcommunity/public/images/apps/248570/12d4696046ed046a32e0f08c5853104bcca5fb78.jpg"
  },
  {
    "name": "COLOR_JURYO",
    "defaultvalue": 0,
    "displayName": "Full Juryo",
    "hidden": 0,
    "description": "Collect a full set of Juryo items",
    "icon": "https://steamcdn-a.akamaihd.net/steamcommunity/public/images/apps/248570/eafc3ddd5ab70d1633c7f3634d4d22db5bca77b6.jpg",
    "icongray": "https://steamcdn-a.akamaihd.net/steamcommunity/public/images/apps/248570/12d4696046ed046a32e0f08c5853104bcca5fb78.jpg"
  },
  {
    "name": "COLOR_KEVLAR",
    "defaultvalue": 0,
    "displayName": "Full Kevlar",
    "hidden": 0,
    "description": "Collect a full set of Kevlar items",
    "icon": "https://steamcdn-a.akamaihd.net/steamcommunity/public/images/apps/248570/e959262799ff9231e69996859a1648f8d988f01b.jpg",
    "icongray": "https://steamcdn-a.akamaihd.net/steamcommunity/public/images/apps/248570/25808937692ad3648aead72520affb853b6ac5bf.jpg"
  },
  {
    "name": "COLOR_KNOX",
    "defaultvalue": 0,
    "displayName": "Full Knox",
    "hidden": 0,
    "description": "Collect a full set of Knox items",
    "icon": "https://steamcdn-a.akamaihd.net/steamcommunity/public/images/apps/248570/0440228a8bbf31e12bc3b20937502ba06391b867.jpg",
    "icongray": "https://steamcdn-a.akamaihd.net/steamcommunity/public/images/apps/248570/12d4696046ed046a32e0f08c5853104bcca5fb78.jpg"
  },
  {
    "name": "COLOR_MAGMA",
    "defaultvalue": 0,
    "displayName": "Full Magma",
    "hidden": 0,
    "description": "Collect a full set of Magma items",
    "icon": "https://steamcdn-a.akamaihd.net/steamcommunity/public/images/apps/248570/3079246c97d08c9780b895ff3b1715f834517727.jpg",
    "icongray": "https://steamcdn-a.akamaihd.net/steamcommunity/public/images/apps/248570/12d4696046ed046a32e0f08c5853104bcca5fb78.jpg"
  },
  {
    "name": "COLOR_MAGNETITE",
    "defaultvalue": 0,
    "displayName": "Full Magnetite",
    "hidden": 0,
    "description": "Collect a full set of Magnetite items",
    "icon": "https://steamcdn-a.akamaihd.net/steamcommunity/public/images/apps/248570/570988ad39e1abc33684c84e475162925db5c6e4.jpg",
    "icongray": "https://steamcdn-a.akamaihd.net/steamcommunity/public/images/apps/248570/12d4696046ed046a32e0f08c5853104bcca5fb78.jpg"
  },
  {
    "name": "COLOR_MANA",
    "defaultvalue": 0,
    "displayName": "Full Mana",
    "hidden": 0,
    "description": "Collect a full set of Mana items",
    "icon": "https://steamcdn-a.akamaihd.net/steamcommunity/public/images/apps/248570/8ec2e55850993fd11957cac0182b9e30aab700b4.jpg",
    "icongray": "https://steamcdn-a.akamaihd.net/steamcommunity/public/images/apps/248570/12d4696046ed046a32e0f08c5853104bcca5fb78.jpg"
  },
  {
    "name": "COLOR_MARINE",
    "defaultvalue": 0,
    "displayName": "Full Marine",
    "hidden": 0,
    "description": "Collect a full set of Marine items",
    "icon": "https://steamcdn-a.akamaihd.net/steamcommunity/public/images/apps/248570/09486622381693a7905c7ae55d217ef88c5a110f.jpg",
    "icongray": "https://steamcdn-a.akamaihd.net/steamcommunity/public/images/apps/248570/12d4696046ed046a32e0f08c5853104bcca5fb78.jpg"
  },
  {
    "name": "COLOR_MAYA",
    "defaultvalue": 0,
    "displayName": "Full Maya",
    "hidden": 0,
    "description": "Collect a full set of Maya items",
    "icon": "https://steamcdn-a.akamaihd.net/steamcommunity/public/images/apps/248570/b0d09dcf6ad3947c1a2f3f8680739f20e814781d.jpg",
    "icongray": "https://steamcdn-a.akamaihd.net/steamcommunity/public/images/apps/248570/12d4696046ed046a32e0f08c5853104bcca5fb78.jpg"
  },
  {
    "name": "COLOR_MYSTERIO",
    "defaultvalue": 0,
    "displayName": "Full Mysterio",
    "hidden": 0,
    "description": "Collect a full set of Mysterio items",
    "icon": "https://steamcdn-a.akamaihd.net/steamcommunity/public/images/apps/248570/aabd84a3242d3762651fa3493dde6d0399dde173.jpg",
    "icongray": "https://steamcdn-a.akamaihd.net/steamcommunity/public/images/apps/248570/12d4696046ed046a32e0f08c5853104bcca5fb78.jpg"
  },
  {
    "name": "COLOR_NEPTUNE",
    "defaultvalue": 0,
    "displayName": "Full Neptune",
    "hidden": 0,
    "description": "Collect a full set of Neptune items",
    "icon": "https://steamcdn-a.akamaihd.net/steamcommunity/public/images/apps/248570/1547d8a272c8e7f4398097e88a9ca768f469e7dd.jpg",
    "icongray": "https://steamcdn-a.akamaihd.net/steamcommunity/public/images/apps/248570/25808937692ad3648aead72520affb853b6ac5bf.jpg"
  },
  {
    "name": "COLOR_NOXIOUS",
    "defaultvalue": 0,
    "displayName": "Full Noxious",
    "hidden": 0,
    "description": "Collect a full set of Noxious items",
    "icon": "https://steamcdn-a.akamaihd.net/steamcommunity/public/images/apps/248570/042c2c80d5a8ec71a48acad62423f17f7b548ea7.jpg",
    "icongray": "https://steamcdn-a.akamaihd.net/steamcommunity/public/images/apps/248570/12d4696046ed046a32e0f08c5853104bcca5fb78.jpg"
  },
  {
    "name": "COLOR_OLDGOLD",
    "defaultvalue": 0,
    "displayName": "Full Old Gold",
    "hidden": 0,
    "description": "Collect a full set of Old Gold items",
    "icon": "https://steamcdn-a.akamaihd.net/steamcommunity/public/images/apps/248570/aac77d8eedd4ae965ae31d1a36b4aec86d2025d2.jpg",
    "icongray": "https://steamcdn-a.akamaihd.net/steamcommunity/public/images/apps/248570/12d4696046ed046a32e0f08c5853104bcca5fb78.jpg"
  },
  {
    "name": "COLOR_OLIVE",
    "defaultvalue": 0,
    "displayName": "Full Olive",
    "hidden": 0,
    "description": "Collect a full set of Olive items",
    "icon": "https://steamcdn-a.akamaihd.net/steamcommunity/public/images/apps/248570/89cd7626bd1ced55ccbcdc00167bbd2ea5bd6a5f.jpg",
    "icongray": "https://steamcdn-a.akamaihd.net/steamcommunity/public/images/apps/248570/12d4696046ed046a32e0f08c5853104bcca5fb78.jpg"
  },
  {
    "name": "COLOR_ONYX",
    "defaultvalue": 0,
    "displayName": "Full Onyx",
    "hidden": 0,
    "description": "Collect a full set of Onyx items",
    "icon": "https://steamcdn-a.akamaihd.net/steamcommunity/public/images/apps/248570/984e799e86e4c43a2af95293f057af7cfa75df86.jpg",
    "icongray": "https://steamcdn-a.akamaihd.net/steamcommunity/public/images/apps/248570/12d4696046ed046a32e0f08c5853104bcca5fb78.jpg"
  },
  {
    "name": "COLOR_ORC",
    "defaultvalue": 0,
    "displayName": "Full Orc",
    "hidden": 0,
    "description": "Collect a full set of Orc items",
    "icon": "https://steamcdn-a.akamaihd.net/steamcommunity/public/images/apps/248570/1a9b593a096f8489fe470b6b362f0d28f4bc2df2.jpg",
    "icongray": "https://steamcdn-a.akamaihd.net/steamcommunity/public/images/apps/248570/12d4696046ed046a32e0f08c5853104bcca5fb78.jpg"
  },
  {
    "name": "COLOR_PERSIA",
    "defaultvalue": 0,
    "displayName": "Full Persia",
    "hidden": 0,
    "description": "Collect a full set of Persia items",
    "icon": "https://steamcdn-a.akamaihd.net/steamcommunity/public/images/apps/248570/bcb8b9291106043990a1b40e4048bac5fea91f45.jpg",
    "icongray": "https://steamcdn-a.akamaihd.net/steamcommunity/public/images/apps/248570/12d4696046ed046a32e0f08c5853104bcca5fb78.jpg"
  },
  {
    "name": "COLOR_PHAROS",
    "defaultvalue": 0,
    "displayName": "Full Pharos",
    "hidden": 0,
    "description": "Collect a full set of Pharos items",
    "icon": "https://steamcdn-a.akamaihd.net/steamcommunity/public/images/apps/248570/ee6eaf2a293be104e691bc762e73e858b8520530.jpg",
    "icongray": "https://steamcdn-a.akamaihd.net/steamcommunity/public/images/apps/248570/12d4696046ed046a32e0f08c5853104bcca5fb78.jpg"
  },
  {
    "name": "COLOR_PLASMA",
    "defaultvalue": 0,
    "displayName": "Full Plasma",
    "hidden": 0,
    "description": "Collect a full set of Plasma items",
    "icon": "https://steamcdn-a.akamaihd.net/steamcommunity/public/images/apps/248570/5aa7e88d595ae4c1af5c13bd8872e36b144e4f3d.jpg",
    "icongray": "https://steamcdn-a.akamaihd.net/steamcommunity/public/images/apps/248570/12d4696046ed046a32e0f08c5853104bcca5fb78.jpg"
  },
  {
    "name": "COLOR_PLATINUM",
    "defaultvalue": 0,
    "displayName": "Full Platinum",
    "hidden": 0,
    "description": "Collect a full set of Platinum items",
    "icon": "https://steamcdn-a.akamaihd.net/steamcommunity/public/images/apps/248570/e119ec578fc13d0af520fbf2690ac3c91022089a.jpg",
    "icongray": "https://steamcdn-a.akamaihd.net/steamcommunity/public/images/apps/248570/12d4696046ed046a32e0f08c5853104bcca5fb78.jpg"
  },
  {
    "name": "COLOR_PURE",
    "defaultvalue": 0,
    "displayName": "Full Pure",
    "hidden": 0,
    "description": "Collect a full set of Pure items",
    "icon": "https://steamcdn-a.akamaihd.net/steamcommunity/public/images/apps/248570/ddaf527511d1984d5c13e2a8b5606afce11ee85a.jpg",
    "icongray": "https://steamcdn-a.akamaihd.net/steamcommunity/public/images/apps/248570/12d4696046ed046a32e0f08c5853104bcca5fb78.jpg"
  },
  {
    "name": "COLOR_QUICKSILVER",
    "defaultvalue": 0,
    "displayName": "Full Quicksilver",
    "hidden": 0,
    "description": "Collect a full set of Quicksilver items",
    "icon": "https://steamcdn-a.akamaihd.net/steamcommunity/public/images/apps/248570/07d1c81fa4cce0b5cd8a5018fb4e370134a47ea7.jpg",
    "icongray": "https://steamcdn-a.akamaihd.net/steamcommunity/public/images/apps/248570/12d4696046ed046a32e0f08c5853104bcca5fb78.jpg"
  },
  {
    "name": "COLOR_RADIOACTIVE",
    "defaultvalue": 0,
    "displayName": "Full Radioactive",
    "hidden": 0,
    "description": "Collect a full set of Radioactive items",
    "icon": "https://steamcdn-a.akamaihd.net/steamcommunity/public/images/apps/248570/b094e9b19013bc90c70da797b89b701c46b00a08.jpg",
    "icongray": "https://steamcdn-a.akamaihd.net/steamcommunity/public/images/apps/248570/12d4696046ed046a32e0f08c5853104bcca5fb78.jpg"
  },
  {
    "name": "COLOR_RAIDER",
    "defaultvalue": 0,
    "displayName": "Full Raider",
    "hidden": 0,
    "description": "Collect a full set of Raider items",
    "icon": "https://steamcdn-a.akamaihd.net/steamcommunity/public/images/apps/248570/63b67537b8e37131d990903d0cf199d7006b0705.jpg",
    "icongray": "https://steamcdn-a.akamaihd.net/steamcommunity/public/images/apps/248570/12d4696046ed046a32e0f08c5853104bcca5fb78.jpg"
  },
  {
    "name": "COLOR_RAPTOR",
    "defaultvalue": 0,
    "displayName": "Full Raptor",
    "hidden": 0,
    "description": "Collect a full set of Raptor items",
    "icon": "https://steamcdn-a.akamaihd.net/steamcommunity/public/images/apps/248570/4fc37508f378b5fbcd34e8f2ae91478fdb41fb3b.jpg",
    "icongray": "https://steamcdn-a.akamaihd.net/steamcommunity/public/images/apps/248570/25808937692ad3648aead72520affb853b6ac5bf.jpg"
  },
  {
    "name": "COLOR_SAKURA",
    "defaultvalue": 0,
    "displayName": "Full Sakura",
    "hidden": 0,
    "description": "Collect a full set of Sakura items",
    "icon": "https://steamcdn-a.akamaihd.net/steamcommunity/public/images/apps/248570/97c4dc21d4297a41f893dab3b0a1afeafa92f7aa.jpg",
    "icongray": "https://steamcdn-a.akamaihd.net/steamcommunity/public/images/apps/248570/12d4696046ed046a32e0f08c5853104bcca5fb78.jpg"
  },
  {
    "name": "COLOR_SAPPHIRE",
    "defaultvalue": 0,
    "displayName": "Full Sapphire",
    "hidden": 0,
    "description": "Collect a full set of Sapphire items",
    "icon": "https://steamcdn-a.akamaihd.net/steamcommunity/public/images/apps/248570/234ec1668851ceb17ff145a0c091911632aaeb34.jpg",
    "icongray": "https://steamcdn-a.akamaihd.net/steamcommunity/public/images/apps/248570/12d4696046ed046a32e0f08c5853104bcca5fb78.jpg"
  },
  {
    "name": "COLOR_SHAMAN",
    "defaultvalue": 0,
    "displayName": "Full Shaman",
    "hidden": 0,
    "description": "Collect a full set of Shaman items",
    "icon": "https://steamcdn-a.akamaihd.net/steamcommunity/public/images/apps/248570/74b6441b67edf6dad598a6c7df62ba476c196d27.jpg",
    "icongray": "https://steamcdn-a.akamaihd.net/steamcommunity/public/images/apps/248570/12d4696046ed046a32e0f08c5853104bcca5fb78.jpg"
  },
  {
    "name": "COLOR_SPHINX",
    "defaultvalue": 0,
    "displayName": "Full Sphinx",
    "hidden": 0,
    "description": "Collect a full set of Sphinx items",
    "icon": "https://steamcdn-a.akamaihd.net/steamcommunity/public/images/apps/248570/3274babfd3c300d230be3be4002353e7cf39c7fb.jpg",
    "icongray": "https://steamcdn-a.akamaihd.net/steamcommunity/public/images/apps/248570/12d4696046ed046a32e0f08c5853104bcca5fb78.jpg"
  },
  {
    "name": "COLOR_SPRING",
    "defaultvalue": 0,
    "displayName": "Full Spring",
    "hidden": 0,
    "description": "Collect a full set of Spring items",
    "icon": "https://steamcdn-a.akamaihd.net/steamcommunity/public/images/apps/248570/3483118970530527374211a17ca4c595fd4e1f3e.jpg",
    "icongray": "https://steamcdn-a.akamaihd.net/steamcommunity/public/images/apps/248570/12d4696046ed046a32e0f08c5853104bcca5fb78.jpg"
  },
  {
    "name": "COLOR_STATIC",
    "defaultvalue": 0,
    "displayName": "Full Static",
    "hidden": 0,
    "description": "Collect a full set of Static items",
    "icon": "https://steamcdn-a.akamaihd.net/steamcommunity/public/images/apps/248570/cd7d05135b5e428e80e8d24485fb5e33fca31ab9.jpg",
    "icongray": "https://steamcdn-a.akamaihd.net/steamcommunity/public/images/apps/248570/12d4696046ed046a32e0f08c5853104bcca5fb78.jpg"
  },
  {
    "name": "COLOR_SUPERFLY",
    "defaultvalue": 0,
    "displayName": "Full Superfly",
    "hidden": 0,
    "description": "Collect a full set of Superfly items",
    "icon": "https://steamcdn-a.akamaihd.net/steamcommunity/public/images/apps/248570/33b3ed9bf1b11ff15dbcf374ea049f1612084410.jpg",
    "icongray": "https://steamcdn-a.akamaihd.net/steamcommunity/public/images/apps/248570/12d4696046ed046a32e0f08c5853104bcca5fb78.jpg"
  },
  {
    "name": "COLOR_SUPERIOR",
    "defaultvalue": 0,
    "displayName": "Full Superior",
    "hidden": 0,
    "description": "Collect a full set of Superior items",
    "icon": "https://steamcdn-a.akamaihd.net/steamcommunity/public/images/apps/248570/68d37c9f2a0f40aeec0a852a14f7691d5948f27f.jpg",
    "icongray": "https://steamcdn-a.akamaihd.net/steamcommunity/public/images/apps/248570/12d4696046ed046a32e0f08c5853104bcca5fb78.jpg"
  },
  {
    "name": "COLOR_SUPERNOVA",
    "defaultvalue": 0,
    "displayName": "Full Supernova",
    "hidden": 0,
    "description": "Collect a full set of Supernova items",
    "icon": "https://steamcdn-a.akamaihd.net/steamcommunity/public/images/apps/248570/ec8f87f3c636b4958ef5740ddb7f073f6d1ab007.jpg",
    "icongray": "https://steamcdn-a.akamaihd.net/steamcommunity/public/images/apps/248570/12d4696046ed046a32e0f08c5853104bcca5fb78.jpg"
  },
  {
    "name": "COLOR_TESLA",
    "defaultvalue": 0,
    "displayName": "Full Tesla",
    "hidden": 0,
    "description": "Collect a full set of Tesla items",
    "icon": "https://steamcdn-a.akamaihd.net/steamcommunity/public/images/apps/248570/fa2cb1b6b4c011682b2b7303093708d5049a93f7.jpg",
    "icongray": "https://steamcdn-a.akamaihd.net/steamcommunity/public/images/apps/248570/12d4696046ed046a32e0f08c5853104bcca5fb78.jpg"
  },
  {
    "name": "COLOR_TITAN",
    "defaultvalue": 0,
    "displayName": "Full Titan",
    "hidden": 0,
    "description": "Collect a full set of Titan items",
    "icon": "https://steamcdn-a.akamaihd.net/steamcommunity/public/images/apps/248570/5837453a5329545c70856f128d5bf16d3aa29738.jpg",
    "icongray": "https://steamcdn-a.akamaihd.net/steamcommunity/public/images/apps/248570/12d4696046ed046a32e0f08c5853104bcca5fb78.jpg"
  },
  {
    "name": "COLOR_TOXIC",
    "defaultvalue": 0,
    "displayName": "Full Toxic",
    "hidden": 0,
    "description": "Collect a full set of Toxic items",
    "icon": "https://steamcdn-a.akamaihd.net/steamcommunity/public/images/apps/248570/61aedce9cb73841fe5ae0cca022c6a4bd4c83365.jpg",
    "icongray": "https://steamcdn-a.akamaihd.net/steamcommunity/public/images/apps/248570/12d4696046ed046a32e0f08c5853104bcca5fb78.jpg"
  },
  {
    "name": "COLOR_TYPHON",
    "defaultvalue": 0,
    "displayName": "Full Typhon",
    "hidden": 0,
    "description": "Collect a full set of Typhon items",
    "icon": "https://steamcdn-a.akamaihd.net/steamcommunity/public/images/apps/248570/2a211c1c58c44a08bb8d383d2e2f16ca293b4d82.jpg",
    "icongray": "https://steamcdn-a.akamaihd.net/steamcommunity/public/images/apps/248570/12d4696046ed046a32e0f08c5853104bcca5fb78.jpg"
  },
  {
    "name": "COLOR_TYRIAN",
    "defaultvalue": 0,
    "displayName": "Full Tyrian",
    "hidden": 0,
    "description": "Collect a full set of Tyrian items",
    "icon": "https://steamcdn-a.akamaihd.net/steamcommunity/public/images/apps/248570/a4684b77092f0fbe5a4e8329c8a4659add5791f0.jpg",
    "icongray": "https://steamcdn-a.akamaihd.net/steamcommunity/public/images/apps/248570/12d4696046ed046a32e0f08c5853104bcca5fb78.jpg"
  },
  {
    "name": "COLOR_VAMPIRE",
    "defaultvalue": 0,
    "displayName": "Full Vampire",
    "hidden": 0,
    "description": "Collect a full set of Vampire items",
    "icon": "https://steamcdn-a.akamaihd.net/steamcommunity/public/images/apps/248570/ec8f87f3c636b4958ef5740ddb7f073f6d1ab007.jpg",
    "icongray": "https://steamcdn-a.akamaihd.net/steamcommunity/public/images/apps/248570/25808937692ad3648aead72520affb853b6ac5bf.jpg"
  },
  {
    "name": "COLOR_VELVET",
    "defaultvalue": 0,
    "displayName": "Full Velvet",
    "hidden": 0,
    "description": "Collect a full set of Velvet items",
    "icon": "https://steamcdn-a.akamaihd.net/steamcommunity/public/images/apps/248570/1992a1d4abdf03073af9dc8e46b8b7fd12be89b7.jpg",
    "icongray": "https://steamcdn-a.akamaihd.net/steamcommunity/public/images/apps/248570/12d4696046ed046a32e0f08c5853104bcca5fb78.jpg"
  },
  {
    "name": "COLOR_VIRIDIAN",
    "defaultvalue": 0,
    "displayName": "Full Viridian",
    "hidden": 0,
    "description": "Collect a full set of Viridian items",
    "icon": "https://steamcdn-a.akamaihd.net/steamcommunity/public/images/apps/248570/f7f88310e0c945ca85aa0500c43083990f956e34.jpg",
    "icongray": "https://steamcdn-a.akamaihd.net/steamcommunity/public/images/apps/248570/12d4696046ed046a32e0f08c5853104bcca5fb78.jpg"
  },
  {
    "name": "COLOR_VOID",
    "defaultvalue": 0,
    "displayName": "Full Void",
    "hidden": 0,
    "description": "Collect a full set of Void items",
    "icon": "https://steamcdn-a.akamaihd.net/steamcommunity/public/images/apps/248570/7bcd5f0b6774fde84085c097b5491987ada13d25.jpg",
    "icongray": "https://steamcdn-a.akamaihd.net/steamcommunity/public/images/apps/248570/25808937692ad3648aead72520affb853b6ac5bf.jpg"
  },
  {
    "name": "COLOR_VORTEX",
    "defaultvalue": 0,
    "displayName": "Full Vortex",
    "hidden": 0,
    "description": "Collect a full set of Vortex items",
    "icon": "https://steamcdn-a.akamaihd.net/steamcommunity/public/images/apps/248570/8acdb54276206d07796822850a26d8369c901947.jpg",
    "icongray": "https://steamcdn-a.akamaihd.net/steamcommunity/public/images/apps/248570/12d4696046ed046a32e0f08c5853104bcca5fb78.jpg"
  },
  {
    "name": "COLOR_VULCAN",
    "defaultvalue": 0,
    "displayName": "Full Vulcan",
    "hidden": 0,
    "description": "Collect a full set of Vulcan items",
    "icon": "https://steamcdn-a.akamaihd.net/steamcommunity/public/images/apps/248570/b52eff902952d8e5539ee250df746d0c4ad06ba0.jpg",
    "icongray": "https://steamcdn-a.akamaihd.net/steamcommunity/public/images/apps/248570/12d4696046ed046a32e0f08c5853104bcca5fb78.jpg"
  },
  {
    "name": "COLOR_WARRIOR",
    "defaultvalue": 0,
    "displayName": "Full Warrior",
    "hidden": 0,
    "description": "Collect a full set of Warrior items",
    "icon": "https://steamcdn-a.akamaihd.net/steamcommunity/public/images/apps/248570/9e8c03f25f07264baf4bb929f52b6fb2baf8660c.jpg",
    "icongray": "https://steamcdn-a.akamaihd.net/steamcommunity/public/images/apps/248570/12d4696046ed046a32e0f08c5853104bcca5fb78.jpg"
  },
  {
    "name": "COLOR_WILDFIRE",
    "defaultvalue": 0,
    "displayName": "Full Wildfire",
    "hidden": 0,
    "description": "Collect a full set of Wildfire items",
    "icon": "https://steamcdn-a.akamaihd.net/steamcommunity/public/images/apps/248570/07b206721d22fecc1512887429bff2e4500677c8.jpg",
    "icongray": "https://steamcdn-a.akamaihd.net/steamcommunity/public/images/apps/248570/12d4696046ed046a32e0f08c5853104bcca5fb78.jpg"
  }
]