[
  {
    "name": "KILLS_IN_NIGHTMARE",
    "defaultvalue": 0,
    "displayName": "Enemies killed in the Nightmare"
  },
  {
    "name": "INNOCENTS_IN_NIGHTMARE",
    "defaultvalue": 0,
    "displayName": "Innocents killed in the Nightmare"
  },
  {
    "name": "HEARTS_IN_ONE_RUN",
    "defaultvalue": 0,
    "displayName": "Hearts gained in a single run"
  },
  {
    "name": "KILLS_WITH_SHOTGUN_BLAST",
    "defaultvalue": 0,
    "displayName": "Kills with a single shotgun blast"
  },
  {
    "name": "KILLS_FROM_EXPLOSION",
    "defaultvalue": 0,
    "displayName": "Kills from a single explosion"
  },
  {
    "name": "KILLS_WITH_CHAINSAW_SWING",
    "defaultvalue": 0,
    "displayName": "Kills with a single chainsaw swing"
  }
]