[
  {
    "name": "hardwarestore",
    "defaultvalue": 0,
    "displayName": "Hardware Store",
    "hidden": 0,
    "description": "Collect 25 bolts.",
    "icon": "https://steamcdn-a.akamaihd.net/steamcommunity/public/images/apps/419080/b476cf0c07221a8b19481f2552c7597178e9daf2.jpg",
    "icongray": "https://steamcdn-a.akamaihd.net/steamcommunity/public/images/apps/419080/dd8f70a9edf3de3f230ea1ba2492530b53cd2911.jpg"
  },
  {
    "name": "feelingdizzy",
    "defaultvalue": 0,
    "displayName": "Feeling Dizzy",
    "hidden": 0,
    "description": "Do 500 flips.",
    "icon": "https://steamcdn-a.akamaihd.net/steamcommunity/public/images/apps/419080/a39725e7fa9b24ba860d78cefc2fd7bbb92263b1.jpg",
    "icongray": "https://steamcdn-a.akamaihd.net/steamcommunity/public/images/apps/419080/8be878c9f7adb54fef22496d1f7b121c5eb06fad.jpg"
  },
  {
    "name": "eighteenhundred",
    "defaultvalue": 0,
    "displayName": "1800 Degrees",
    "hidden": 0,
    "description": "Do a 5x flip with the pickup truck.",
    "icon": "https://steamcdn-a.akamaihd.net/steamcommunity/public/images/apps/419080/769cd60ce3034ee3a6f819a4c977a7dcba4c7aeb.jpg",
    "icongray": "https://steamcdn-a.akamaihd.net/steamcommunity/public/images/apps/419080/f8fcf6bb668322681610a9ee19fee213997cbd3f.jpg"
  },
  {
    "name": "heavyrotation",
    "defaultvalue": 0,
    "displayName": "Heavy Rotation",
    "hidden": 0,
    "description": "Do a 4x flip with the dump truck.",
    "icon": "https://steamcdn-a.akamaihd.net/steamcommunity/public/images/apps/419080/68a3cedee3062bd1665e22612235dc3356c7f3a6.jpg",
    "icongray": "https://steamcdn-a.akamaihd.net/steamcommunity/public/images/apps/419080/e3d2dc878517f8069a904a77ffa73162b749dbac.jpg"
  },
  {
    "name": "insurancenightmare",
    "defaultvalue": 0,
    "displayName": "Insurance Nightmare",
    "hidden": 0,
    "description": "Destroy the pickup truck 250 times.",
    "icon": "https://steamcdn-a.akamaihd.net/steamcommunity/public/images/apps/419080/44b7c5578ed8037a87a23934e0fb209eb8e34a4e.jpg",
    "icongray": "https://steamcdn-a.akamaihd.net/steamcommunity/public/images/apps/419080/63cc94d79bfd2a2f2787160b093c477296e53c61.jpg"
  },
  {
    "name": "reachforthestars",
    "defaultvalue": 0,
    "displayName": "Reach for the Stars",
    "hidden": 0,
    "description": "Collect 250 stars.",
    "icon": "https://steamcdn-a.akamaihd.net/steamcommunity/public/images/apps/419080/673929405580e346cb2dc54ba91d237a4dd00f68.jpg",
    "icongray": "https://steamcdn-a.akamaihd.net/steamcommunity/public/images/apps/419080/a8f37a38f8fd7b4064448b6c7a5b7d6ce5e2ba26.jpg"
  },
  {
    "name": "wantondestruction",
    "defaultvalue": 0,
    "displayName": "Wanton Destruction",
    "hidden": 0,
    "description": "Gain 1000000 points through destruction.",
    "icon": "https://steamcdn-a.akamaihd.net/steamcommunity/public/images/apps/419080/eb657d22bb0a994b95db250a742ba63d0134b5a0.jpg",
    "icongray": "https://steamcdn-a.akamaihd.net/steamcommunity/public/images/apps/419080/bb48d5259ab5bddbd0df3a457936887f4944a1d7.jpg"
  },
  {
    "name": "explosivesexpert",
    "defaultvalue": 0,
    "displayName": "Explosives Expert",
    "hidden": 0,
    "description": "Destroy 250 red explosive barrels.",
    "icon": "https://steamcdn-a.akamaihd.net/steamcommunity/public/images/apps/419080/039a38eb80ae731bcd5c1ff9526de22b3022e65b.jpg",
    "icongray": "https://steamcdn-a.akamaihd.net/steamcommunity/public/images/apps/419080/604e424627990f2dab65cea74e3bcda277574a93.jpg"
  },
  {
    "name": "frequentflyer",
    "defaultvalue": 0,
    "displayName": "Frequent Flyer",
    "hidden": 0,
    "description": "Accumulate 1 hour of air time.",
    "icon": "https://steamcdn-a.akamaihd.net/steamcommunity/public/images/apps/419080/6b7ecb1233042465e42360b4c271cb013b3537a6.jpg",
    "icongray": "https://steamcdn-a.akamaihd.net/steamcommunity/public/images/apps/419080/70145e64069747076de806a226e20fbf3ab3f77c.jpg"
  },
  {
    "name": "onegiantleap",
    "defaultvalue": 0,
    "displayName": "One giant leap for…",
    "hidden": 0,
    "description": "Do a jump with 7 seconds of air time.",
    "icon": "https://steamcdn-a.akamaihd.net/steamcommunity/public/images/apps/419080/e82c90b33229d86cb6f41079c2d2a2305d911afb.jpg",
    "icongray": "https://steamcdn-a.akamaihd.net/steamcommunity/public/images/apps/419080/a94b031f855974f42cd315da13119f956ec11ed4.jpg"
  }
]