[
  {
    "name": "ONES_EASY",
    "defaultvalue": 0,
    "displayName": "Ones"
  },
  {
    "name": "TWOS_EASY",
    "defaultvalue": 0,
    "displayName": "Twos"
  },
  {
    "name": "THREES_EASY",
    "defaultvalue": 0,
    "displayName": "Threes"
  },
  {
    "name": "FOURS_EASY",
    "defaultvalue": 0,
    "displayName": "Fours"
  },
  {
    "name": "SIXES_EASY",
    "defaultvalue": 0,
    "displayName": "Sixes"
  },
  {
    "name": "CAREER_RUNS_EASY",
    "defaultvalue": 0,
    "displayName": "Career Runs"
  },
  {
    "name": "CAREER_WICKETS_EASY",
    "defaultvalue": 0,
    "displayName": "Career Wickets"
  },
  {
    "name": "INNINGS_EASY",
    "defaultvalue": 0,
    "displayName": "innings"
  },
  {
    "name": "ONES_MEDIUM",
    "defaultvalue": 0,
    "displayName": "Ones"
  },
  {
    "name": "TWOS_MEDIUM",
    "defaultvalue": 0,
    "displayName": "Twos"
  },
  {
    "name": "THREES_MEDIUM",
    "defaultvalue": 0,
    "displayName": "Threes"
  },
  {
    "name": "FOURS_MEDIUM",
    "defaultvalue": 0,
    "displayName": "Fours"
  },
  {
    "name": "SIXES_MEDIUM",
    "defaultvalue": 0,
    "displayName": "Sixes"
  },
  {
    "name": "CAREER_RUNS_MEDIUM",
    "defaultvalue": 0,
    "displayName": "Career Runs"
  },
  {
    "name": "CAREER_WICKETS_MEDIUM",
    "defaultvalue": 0,
    "displayName": "Career Wickets"
  },
  {
    "name": "INNINGS_MEDIUM",
    "defaultvalue": 0,
    "displayName": "Innings"
  },
  {
    "name": "ONES_HARD",
    "defaultvalue": 0,
    "displayName": "Ones"
  },
  {
    "name": "TWOS_HARD",
    "defaultvalue": 0,
    "displayName": "Twos"
  },
  {
    "name": "THREES_HARD",
    "defaultvalue": 0,
    "displayName": "Threes"
  },
  {
    "name": "FOURS_HARD",
    "defaultvalue": 0,
    "displayName": "Fours"
  },
  {
    "name": "SIXES_HARD",
    "defaultvalue": 0,
    "displayName": "Sixes"
  },
  {
    "name": "CAREER_RUNS_HARD",
    "defaultvalue": 0,
    "displayName": "Career Runs"
  },
  {
    "name": "CAREER_WICKETS_HARD",
    "defaultvalue": 0,
    "displayName": "Career Wickets"
  },
  {
    "name": "INNINGS_HARD",
    "defaultvalue": 0,
    "displayName": "Innings"
  }
]