{
  "Dlcs": {},
  "Name": "King Of Dirt",
  "AppId": "588750",
  "ImageUrl": "https://steamcdn-a.akamaihd.net/steam/apps/588750/header.jpg?t=1488352561",
  "Languages": [
    "english",
    "russian",
    "french",
    "german"
  ],
  "Platforms": {
    "windows": true,
    "mac": false,
    "linux": false
  }
}