{
  "Dlcs": {},
  "Name": "Jack Axe",
  "AppId": "985780",
  "ImageUrl": "https://steamcdn-a.akamaihd.net/steam/apps/985780/header.jpg?t=1597889130",
  "Languages": [
    "english",
    "schinese",
    "tchinese",
    "japanese"
  ],
  "Platforms": {
    "windows": true,
    "mac": true,
    "linux": false
  }
}