{
  "Dlcs": {},
  "Name": "Alimardan Meets Merlin",
  "AppId": "694430",
  "ImageUrl": "https://steamcdn-a.akamaihd.net/steam/apps/694430/header.jpg?t=1574196739",
  "Languages": [
    "english"
  ],
  "Platforms": {
    "windows": true,
    "mac": false,
    "linux": false
  }
}