[
  {
    "name": "ACHIEVEMENT_INTRODUCCION3",
    "defaultvalue": 0,
    "displayName": "Introduction",
    "hidden": 1,
    "icon": "https://steamcdn-a.akamaihd.net/steamcommunity/public/images/apps/281080/2e824c19e52951c0c61b92d8b7c270956b90b1bb.jpg",
    "icongray": "https://steamcdn-a.akamaihd.net/steamcommunity/public/images/apps/281080/beb1db864acfd6275e46d2fa52eae4d8081571f1.jpg"
  },
  {
    "name": "ACHIEVEMENT_HISTORIA_VICTORIA",
    "defaultvalue": 0,
    "displayName": "The orphan",
    "hidden": 1,
    "icon": "https://steamcdn-a.akamaihd.net/steamcommunity/public/images/apps/281080/97fea609b08d32ad258bdda03c80fa96166fe480.jpg",
    "icongray": "https://steamcdn-a.akamaihd.net/steamcommunity/public/images/apps/281080/6b585594f6372a760aee4fd4fa75008989ea89c3.jpg"
  },
  {
    "name": "ACHIEVEMENT_CUPIDO",
    "defaultvalue": 0,
    "displayName": "Cupid",
    "hidden": 1,
    "icon": "https://steamcdn-a.akamaihd.net/steamcommunity/public/images/apps/281080/8891080c6384650fd8023287f92bf741067aca52.jpg",
    "icongray": "https://steamcdn-a.akamaihd.net/steamcommunity/public/images/apps/281080/9985c72461cf9ebd4aff103d1e5ccc2a464102c3.jpg"
  },
  {
    "name": "ACHIEVEMENT_BORRACHO",
    "defaultvalue": 0,
    "displayName": "Drinking buddy",
    "hidden": 1,
    "icon": "https://steamcdn-a.akamaihd.net/steamcommunity/public/images/apps/281080/8aa8bdb85a3df55b6b5e1fb57332f4365d857b98.jpg",
    "icongray": "https://steamcdn-a.akamaihd.net/steamcommunity/public/images/apps/281080/28dc19902971abfed40097054fa70872bfe1f2a9.jpg"
  },
  {
    "name": "ACHIEVEMENT_OSO_PELUCHE",
    "defaultvalue": 0,
    "displayName": "Teddy",
    "hidden": 1,
    "icon": "https://steamcdn-a.akamaihd.net/steamcommunity/public/images/apps/281080/2a1a3a44b507e204469661cacd8af475e1aa2372.jpg",
    "icongray": "https://steamcdn-a.akamaihd.net/steamcommunity/public/images/apps/281080/cc0217fdfc294de53502eca00d5cdba85fb1a375.jpg"
  },
  {
    "name": "ACHIEVEMENT_HIT_THOSE_MOLES_2",
    "defaultvalue": 0,
    "displayName": "The fast and the furious",
    "hidden": 1,
    "icon": "https://steamcdn-a.akamaihd.net/steamcommunity/public/images/apps/281080/eaf9de4f721d07a80bb148012bf0f3d420e226cf.jpg",
    "icongray": "https://steamcdn-a.akamaihd.net/steamcommunity/public/images/apps/281080/cb6e7c51261c3f8be372b53425d2d2ff19b8657d.jpg"
  },
  {
    "name": "ACHIEVEMENT_HIT_THOSE_MOLES_5",
    "defaultvalue": 0,
    "displayName": "Addict",
    "hidden": 1,
    "icon": "https://steamcdn-a.akamaihd.net/steamcommunity/public/images/apps/281080/da125d87ad2dfb426b758dfedb346efdd4e279cd.jpg",
    "icongray": "https://steamcdn-a.akamaihd.net/steamcommunity/public/images/apps/281080/97e9ca7dd81c5f704f0c4f198fd44ef92e6ffff6.jpg"
  },
  {
    "name": "ACHIEVEMENT_RATON_GOMA",
    "defaultvalue": 0,
    "displayName": "The elephant",
    "hidden": 1,
    "icon": "https://steamcdn-a.akamaihd.net/steamcommunity/public/images/apps/281080/3542883f2e97eb85a5bc1103fd8538d820a4b527.jpg",
    "icongray": "https://steamcdn-a.akamaihd.net/steamcommunity/public/images/apps/281080/6552e46be9afe200504faf8a1aa8e1b74c4ad934.jpg"
  },
  {
    "name": "ACHIEVEMENT_MONO_ATACANDO",
    "defaultvalue": 0,
    "displayName": "Don’t feed the animals",
    "hidden": 1,
    "icon": "https://steamcdn-a.akamaihd.net/steamcommunity/public/images/apps/281080/17e215ec79e281d844269a0de2837d6e34cce9b4.jpg",
    "icongray": "https://steamcdn-a.akamaihd.net/steamcommunity/public/images/apps/281080/0942266708cc32614eaa82f48d46ad0c2bf77ba3.jpg"
  },
  {
    "name": "ACHIEVEMENT_MONO_ASUSTADO",
    "defaultvalue": 0,
    "displayName": "The planet of the apes",
    "hidden": 1,
    "icon": "https://steamcdn-a.akamaihd.net/steamcommunity/public/images/apps/281080/f86d457b79d89a4135c6e3bde98c6c7f231240ab.jpg",
    "icongray": "https://steamcdn-a.akamaihd.net/steamcommunity/public/images/apps/281080/606d4522ae53a2cec5022796f02e6bf461282a57.jpg"
  },
  {
    "name": "ACHIEVEMENT_RESCATE_PABLO",
    "defaultvalue": 0,
    "displayName": "Rescuing Pablo",
    "hidden": 1,
    "icon": "https://steamcdn-a.akamaihd.net/steamcommunity/public/images/apps/281080/57c8fed0fb15b6ab6e8726d8140b0f1c47cd0fb7.jpg",
    "icongray": "https://steamcdn-a.akamaihd.net/steamcommunity/public/images/apps/281080/6b08a536380b49e3e006d2d11b00fb097e111b70.jpg"
  },
  {
    "name": "ACHIEVEMENT_HOME_SWEET_HOME",
    "defaultvalue": 0,
    "displayName": "Home sweet home",
    "hidden": 1,
    "icon": "https://steamcdn-a.akamaihd.net/steamcommunity/public/images/apps/281080/a1ff499b5bdfd0fc81034f2e1c368fc16fb6dc28.jpg",
    "icongray": "https://steamcdn-a.akamaihd.net/steamcommunity/public/images/apps/281080/424be01c32d9fa9f9a7bc135631678a6de26da48.jpg"
  },
  {
    "name": "ACHIEVEMENT_LOCKSMITH",
    "defaultvalue": 0,
    "displayName": "Locksmith",
    "hidden": 1,
    "icon": "https://steamcdn-a.akamaihd.net/steamcommunity/public/images/apps/281080/e5328791a38b3802efd63743fa8bb67aed59104e.jpg",
    "icongray": "https://steamcdn-a.akamaihd.net/steamcommunity/public/images/apps/281080/67ade880d7f816a9a90479404598f397ffa8cd2f.jpg"
  },
  {
    "name": "ACHIEVEMENT_FLUX_CAPACITOR",
    "defaultvalue": 0,
    "displayName": "Back to the future",
    "hidden": 1,
    "icon": "https://steamcdn-a.akamaihd.net/steamcommunity/public/images/apps/281080/7c09bdf25073e38f1e91b5b01a3532f5506b9429.jpg",
    "icongray": "https://steamcdn-a.akamaihd.net/steamcommunity/public/images/apps/281080/a2f5a14f0ea342c1be8151ce184a6117d5792685.jpg"
  },
  {
    "name": "ACHIEVEMENT_VICTORIA_OCUPADA",
    "defaultvalue": 0,
    "displayName": "A very busy girl",
    "hidden": 1,
    "icon": "https://steamcdn-a.akamaihd.net/steamcommunity/public/images/apps/281080/1de0d06d5d47dd303af85a7f28b4a6c249dd94e5.jpg",
    "icongray": "https://steamcdn-a.akamaihd.net/steamcommunity/public/images/apps/281080/8668a8fe392f6136f4ac8ee060d2df62f0dcb555.jpg"
  },
  {
    "name": "ACHIEVEMENT_FOTO_FLORENCIA",
    "defaultvalue": 0,
    "displayName": "Where there was fire",
    "hidden": 1,
    "icon": "https://steamcdn-a.akamaihd.net/steamcommunity/public/images/apps/281080/eeca51089256181219fa5e1dc4127b56699b357e.jpg",
    "icongray": "https://steamcdn-a.akamaihd.net/steamcommunity/public/images/apps/281080/6d61122af0b7b030a8c56bfdf6560dd5952f4fb6.jpg"
  },
  {
    "name": "ACHIEVEMENT_CRYSTAL_DISC",
    "defaultvalue": 0,
    "displayName": "Things to remember",
    "hidden": 1,
    "icon": "https://steamcdn-a.akamaihd.net/steamcommunity/public/images/apps/281080/76176fc15936a378fe216f165334c83cc0e8e6e8.jpg",
    "icongray": "https://steamcdn-a.akamaihd.net/steamcommunity/public/images/apps/281080/c1e51215acabb706d1c1e0ff912dfe4bf219b793.jpg"
  },
  {
    "name": "ACHIEVEMENT_CENTRAL_COMUNICACIONES_SIN_CREDENCIAL_CORRECTA",
    "defaultvalue": 0,
    "displayName": "Admission rights",
    "hidden": 1,
    "icon": "https://steamcdn-a.akamaihd.net/steamcommunity/public/images/apps/281080/2d626bea4d455e3a4bd333fb9a06f27d5ab71091.jpg",
    "icongray": "https://steamcdn-a.akamaihd.net/steamcommunity/public/images/apps/281080/55696a91ba082dbd260af738d4e0422769450175.jpg"
  },
  {
    "name": "ACHIEVEMENT_TANGO_CON_FLORENCIA",
    "defaultvalue": 0,
    "displayName": "To the rhythm of tango",
    "hidden": 1,
    "icon": "https://steamcdn-a.akamaihd.net/steamcommunity/public/images/apps/281080/0854934e4c43330414f879f04afebccf7c08360f.jpg",
    "icongray": "https://steamcdn-a.akamaihd.net/steamcommunity/public/images/apps/281080/d925994ff63c76dbbf0df9918aba6402f61e53d9.jpg"
  },
  {
    "name": "ACHIEVEMENT_TURISTA",
    "defaultvalue": 0,
    "displayName": "Tourist",
    "hidden": 1,
    "icon": "https://steamcdn-a.akamaihd.net/steamcommunity/public/images/apps/281080/6f793166f664c12ca1813ad8928332c8985aefe9.jpg",
    "icongray": "https://steamcdn-a.akamaihd.net/steamcommunity/public/images/apps/281080/b376d3c123b178737a3929fe9e2e76f2f2e311ff.jpg"
  },
  {
    "name": "ACHIEVEMENT_TANGO01",
    "defaultvalue": 0,
    "displayName": "Presidential plane",
    "hidden": 1,
    "icon": "https://steamcdn-a.akamaihd.net/steamcommunity/public/images/apps/281080/c0c5a02ab9780a21addc194588aaf96b86775512.jpg",
    "icongray": "https://steamcdn-a.akamaihd.net/steamcommunity/public/images/apps/281080/8ebeb89fb9a32ca1a36b3473db90e549c4097601.jpg"
  },
  {
    "name": "ACHIEVEMENT_PUERTO_MADERO_FLORENCIA",
    "defaultvalue": 0,
    "displayName": "Until death do us part",
    "hidden": 1,
    "icon": "https://steamcdn-a.akamaihd.net/steamcommunity/public/images/apps/281080/82bbb5e8c3292549b9e37d0d5a1a91d53e15c596.jpg",
    "icongray": "https://steamcdn-a.akamaihd.net/steamcommunity/public/images/apps/281080/88288e58f4165f56b79a3e62468a749561b6bef1.jpg"
  },
  {
    "name": "ACHIEVEMENT_CASA_ROSADA_MAIN_GATE",
    "defaultvalue": 0,
    "displayName": "The main gate",
    "hidden": 1,
    "icon": "https://steamcdn-a.akamaihd.net/steamcommunity/public/images/apps/281080/d4d5e1975182ac9a33a07671f5ebc01a85b01bc6.jpg",
    "icongray": "https://steamcdn-a.akamaihd.net/steamcommunity/public/images/apps/281080/303501a80af651e1188a5bfac73de1eba61f43e3.jpg"
  },
  {
    "name": "ACHIEVEMENT_PARTES_ESTABILIZADOR",
    "defaultvalue": 0,
    "displayName": "The Pulse Stabilizer",
    "hidden": 1,
    "icon": "https://steamcdn-a.akamaihd.net/steamcommunity/public/images/apps/281080/faa6f058cb0f2d252b6caadaca5ad5b7c1a9e2cd.jpg",
    "icongray": "https://steamcdn-a.akamaihd.net/steamcommunity/public/images/apps/281080/402bdcf530a31ee11a2f9d5eeb083b18ee74d5f5.jpg"
  },
  {
    "name": "ACHIEVEMENT_NICOLAS_TIENE_TODO",
    "defaultvalue": 0,
    "displayName": "Back to the past",
    "hidden": 1,
    "icon": "https://steamcdn-a.akamaihd.net/steamcommunity/public/images/apps/281080/2c59ea28a24daec7f4657d8f2e6cf80bbbd6949d.jpg",
    "icongray": "https://steamcdn-a.akamaihd.net/steamcommunity/public/images/apps/281080/51f9864f4e544e9bc53e2f9cc5b053ae9d1b7f3a.jpg"
  },
  {
    "name": "ACHIEVEMENT_VIRUS_INSTALADO",
    "defaultvalue": 0,
    "displayName": "Phone home",
    "hidden": 1,
    "icon": "https://steamcdn-a.akamaihd.net/steamcommunity/public/images/apps/281080/6f0dc2ccb60eddc60e3201dc2bc14382f21c32c1.jpg",
    "icongray": "https://steamcdn-a.akamaihd.net/steamcommunity/public/images/apps/281080/e0ded74b12f64b9723c15c61bea01c6780c85cbb.jpg"
  },
  {
    "name": "ACHIEVEMENT_ATRAPADO",
    "defaultvalue": 0,
    "displayName": "This is going to leave a mark",
    "hidden": 1,
    "icon": "https://steamcdn-a.akamaihd.net/steamcommunity/public/images/apps/281080/ae90aba998032096f9578e31da7e7a73abeaff39.jpg",
    "icongray": "https://steamcdn-a.akamaihd.net/steamcommunity/public/images/apps/281080/fd8c91977a65228df826730524a59b7e6e28acf8.jpg"
  },
  {
    "name": "ACHIEVEMENT_ESCAPAMOS",
    "defaultvalue": 0,
    "displayName": "A new hope",
    "hidden": 1,
    "icon": "https://steamcdn-a.akamaihd.net/steamcommunity/public/images/apps/281080/a2f2d9980e7f3d934d2430cb89611660f533f194.jpg",
    "icongray": "https://steamcdn-a.akamaihd.net/steamcommunity/public/images/apps/281080/8cfb7b2ccdd4a65c2b97646e4df5fb61d04857d0.jpg"
  },
  {
    "name": "ACHIEVEMENT_ESCAPE_SERGIO",
    "defaultvalue": 0,
    "displayName": "No turning back",
    "hidden": 1,
    "icon": "https://steamcdn-a.akamaihd.net/steamcommunity/public/images/apps/281080/4d471dd31e8e666ea3ad589794fdce67b473e3c7.jpg",
    "icongray": "https://steamcdn-a.akamaihd.net/steamcommunity/public/images/apps/281080/1015aa2257bd1dcb923022f2dafd5814844c9c29.jpg"
  },
  {
    "name": "ACHIEVEMENT_CHOCOLATE",
    "defaultvalue": 0,
    "displayName": "Cóndor Chocolate",
    "hidden": 1,
    "icon": "https://steamcdn-a.akamaihd.net/steamcommunity/public/images/apps/281080/6c026034b63314919daa36bee069d89728040f88.jpg",
    "icongray": "https://steamcdn-a.akamaihd.net/steamcommunity/public/images/apps/281080/1cfb2b8dc815d6c8b9884f70f8f22795b48796cc.jpg"
  },
  {
    "name": "ACHIEVEMENT_ATRAPAMOS_SERGIO",
    "defaultvalue": 0,
    "displayName": "Evil always pays",
    "hidden": 1,
    "icon": "https://steamcdn-a.akamaihd.net/steamcommunity/public/images/apps/281080/b1252aaa49513414f4192fb62b81cf9b1b0256b9.jpg",
    "icongray": "https://steamcdn-a.akamaihd.net/steamcommunity/public/images/apps/281080/b99279e6107d7f1270bea0166413050eac804082.jpg"
  },
  {
    "name": "ACHIEVEMENT_SAN_MARTIN",
    "defaultvalue": 0,
    "displayName": "The Liberator",
    "hidden": 1,
    "icon": "https://steamcdn-a.akamaihd.net/steamcommunity/public/images/apps/281080/a6e3b1817896345747250a5d9f8bc428a9192aad.jpg",
    "icongray": "https://steamcdn-a.akamaihd.net/steamcommunity/public/images/apps/281080/778f7e0f2c198cad8dbb7bf4fb179b2d38fd97bb.jpg"
  },
  {
    "name": "ACHIEVEMENT_TIMING_R3",
    "defaultvalue": 0,
    "displayName": "Marathon Runner",
    "hidden": 1,
    "icon": "https://steamcdn-a.akamaihd.net/steamcommunity/public/images/apps/281080/a3887922db9f33e5bf4ec112187aff3df6f8cc55.jpg",
    "icongray": "https://steamcdn-a.akamaihd.net/steamcommunity/public/images/apps/281080/04f908847dc38ee804e601af866207717e615885.jpg"
  },
  {
    "name": "ACHIEVEMENT_TERMINAR_SIN_PISTAS_R3",
    "defaultvalue": 0,
    "displayName": "Riddle Guy",
    "hidden": 1,
    "icon": "https://steamcdn-a.akamaihd.net/steamcommunity/public/images/apps/281080/d2cb90d3b5999739872cb2bdf0874a4a016ddd86.jpg",
    "icongray": "https://steamcdn-a.akamaihd.net/steamcommunity/public/images/apps/281080/ba5ac528f525142f83099dc8f9b528ab31f6cc80.jpg"
  },
  {
    "name": "ACHIEVEMENT_TERMINAR_JUEGO_R3",
    "defaultvalue": 0,
    "displayName": "Winner",
    "hidden": 1,
    "icon": "https://steamcdn-a.akamaihd.net/steamcommunity/public/images/apps/281080/c487a870669808bace9316d2e0b5070a83c050a4.jpg",
    "icongray": "https://steamcdn-a.akamaihd.net/steamcommunity/public/images/apps/281080/f09c21aa7bd04b843e148e5ca57e53326eb367cb.jpg"
  },
  {
    "name": "ACHIEVEMENT_GANAR_2_VECES_R3",
    "defaultvalue": 0,
    "displayName": "Double Winner",
    "hidden": 1,
    "icon": "https://steamcdn-a.akamaihd.net/steamcommunity/public/images/apps/281080/9e6a29085c61a35d81f18ee6a1fbdb8a7c1d2e42.jpg",
    "icongray": "https://steamcdn-a.akamaihd.net/steamcommunity/public/images/apps/281080/65e519db941d5ffd5c71049041ae0ff3bc80ba10.jpg"
  }
]