[
  {
    "name": "silvings",
    "defaultvalue": 0,
    "displayName": "Silver Ingots Collected"
  },
  {
    "name": "shots",
    "defaultvalue": 0,
    "displayName": "Shots Fired"
  },
  {
    "name": "grenades",
    "defaultvalue": 0,
    "displayName": "Grenades Thrown"
  },
  {
    "name": "hits",
    "defaultvalue": 0,
    "displayName": "HP Lost"
  },
  {
    "name": "kills",
    "defaultvalue": 0,
    "displayName": "Enemies Killed"
  },
  {
    "name": "deaths",
    "defaultvalue": 0,
    "displayName": "Player Deaths"
  },
  {
    "name": "time",
    "defaultvalue": 0,
    "displayName": "Time Played"
  },
  {
    "name": "pows",
    "defaultvalue": 0,
    "displayName": "Powerups Collected"
  },
  {
    "name": "escs",
    "defaultvalue": 0,
    "displayName": "Successful Escapes"
  }
]