{
  "Dlcs": {},
  "Name": "ArtPose Pro",
  "AppId": "741150",
  "ImageUrl": "https://steamcdn-a.akamaihd.net/steam/apps/741150/header.jpg?t=1520496119",
  "Languages": [
    "english",
    "japanese"
  ],
  "Platforms": {
    "windows": true,
    "mac": false,
    "linux": false
  }
}