{
  "Dlcs": {},
  "Name": "Dungeon League",
  "AppId": "362310",
  "ImageUrl": "https://steamcdn-a.akamaihd.net/steam/apps/362310/header.jpg?t=1541035100",
  "Languages": [
    "english"
  ],
  "Platforms": {
    "windows": true,
    "mac": true,
    "linux": true
  }
}