[
  {
    "name": "ACHIEVEMENT_perfectionist",
    "defaultvalue": 0,
    "displayName": "Perfectionist",
    "hidden": 0,
    "description": "Complete a 5 tower level without pressing \"Back\"",
    "icon": "https://steamcdn-a.akamaihd.net/steamcommunity/public/images/apps/977230/3987a728e70328a42a954243125190b35c78d8fb.jpg",
    "icongray": "https://steamcdn-a.akamaihd.net/steamcommunity/public/images/apps/977230/442e56935bf6c70830d1c0b0968750a977d4fb45.jpg"
  },
  {
    "name": "ACHIEVEMENT_builder",
    "defaultvalue": 0,
    "displayName": "Mars Builder",
    "hidden": 0,
    "description": "Build 100 towers",
    "icon": "https://steamcdn-a.akamaihd.net/steamcommunity/public/images/apps/977230/a4fa7855fb92e9a71e2fa87eae42b92fa93923e9.jpg",
    "icongray": "https://steamcdn-a.akamaihd.net/steamcommunity/public/images/apps/977230/55b8f9a0fdc6deadf40792b48def35a928d089a6.jpg"
  },
  {
    "name": "ACHIEVEMENT_rocket",
    "defaultvalue": 0,
    "displayName": "Half-way to the stars!",
    "hidden": 0,
    "description": "Oops what's going on... ",
    "icon": "https://steamcdn-a.akamaihd.net/steamcommunity/public/images/apps/977230/af655e7bcb1ceae11b8859763022495a38b217ce.jpg",
    "icongray": "https://steamcdn-a.akamaihd.net/steamcommunity/public/images/apps/977230/4c4f921cb150cb73d5bb68ff58b56e154a9962c6.jpg"
  },
  {
    "name": "ACHIEVEMENT_freeganin",
    "defaultvalue": 0,
    "displayName": "Freeganin",
    "hidden": 0,
    "description": "Collect 10 strawberries",
    "icon": "https://steamcdn-a.akamaihd.net/steamcommunity/public/images/apps/977230/bcfd44145fe38d3d021992242b2a690133358c49.jpg",
    "icongray": "https://steamcdn-a.akamaihd.net/steamcommunity/public/images/apps/977230/bcdfb39278986897454bfc571c1f381e5e4a47a0.jpg"
  },
  {
    "name": "ACHIEVEMENT_crazystrawberry",
    "defaultvalue": 0,
    "displayName": "Oy, you there!",
    "hidden": 0,
    "description": "\"Strawberry\"",
    "icon": "https://steamcdn-a.akamaihd.net/steamcommunity/public/images/apps/977230/95e4d8352f2c382cb936b446419d1e569e975d72.jpg",
    "icongray": "https://steamcdn-a.akamaihd.net/steamcommunity/public/images/apps/977230/3e7fbb8304658aedc9127022e4d8f25e0b3aa550.jpg"
  },
  {
    "name": "ACHIEVEMENT_whatnow",
    "defaultvalue": 0,
    "displayName": "What Now?",
    "hidden": 0,
    "description": "Almost there! ",
    "icon": "https://steamcdn-a.akamaihd.net/steamcommunity/public/images/apps/977230/61f36854e3e210d75df2fba28a37622ac0d5dd3d.jpg",
    "icongray": "https://steamcdn-a.akamaihd.net/steamcommunity/public/images/apps/977230/ccb1c42745473326d52b2833585b4b4f51f966da.jpg"
  },
  {
    "name": "ACHIEVEMENT_spacebaby",
    "defaultvalue": 0,
    "displayName": "Space Baby!",
    "hidden": 0,
    "description": "Game completed.",
    "icon": "https://steamcdn-a.akamaihd.net/steamcommunity/public/images/apps/977230/87416082f227417b236366c36d437333c1632260.jpg",
    "icongray": "https://steamcdn-a.akamaihd.net/steamcommunity/public/images/apps/977230/1a49519b83456713797ea1da7ec369b25b10113c.jpg"
  },
  {
    "name": "ACHIEVEMENT_wintersurvivor",
    "defaultvalue": 0,
    "displayName": "Winter Survivor",
    "hidden": 0,
    "description": "Survived the extreme cold on Mars!",
    "icon": "https://steamcdn-a.akamaihd.net/steamcommunity/public/images/apps/977230/06e146bb69f8d40e6e6cce304a78078e87009d22.jpg",
    "icongray": "https://steamcdn-a.akamaihd.net/steamcommunity/public/images/apps/977230/42ee67d313963b1e45836de077dcf15b19d6a338.jpg"
  },
  {
    "name": "ACHIEVEMENT_housebuilding",
    "defaultvalue": 0,
    "displayName": "New Colony Founded!",
    "hidden": 0,
    "description": "Finished the House Building Challenge",
    "icon": "https://steamcdn-a.akamaihd.net/steamcommunity/public/images/apps/977230/3011927439a261abe83eccbf1bb9b1ec43213409.jpg",
    "icongray": "https://steamcdn-a.akamaihd.net/steamcommunity/public/images/apps/977230/c5a539e04203d94bb2851df8a52e3235fc9703f9.jpg"
  },
  {
    "name": "ACHIEVEMENT_tileshifting",
    "defaultvalue": 0,
    "displayName": "Challenge Levels Done!",
    "hidden": 0,
    "description": "Complete ultra-hard challenge levels!",
    "icon": "https://steamcdn-a.akamaihd.net/steamcommunity/public/images/apps/977230/99135c650cf3a11e70da2162502f6e494361837a.jpg",
    "icongray": "https://steamcdn-a.akamaihd.net/steamcommunity/public/images/apps/977230/3d5e4f0fb2ee739f0dcdaf8a99e98402f8335a2a.jpg"
  },
  {
    "name": "ACHIEVEMENT_secret",
    "defaultvalue": 0,
    "displayName": "Secret Ending",
    "hidden": 0,
    "description": "Who's behind it all?",
    "icon": "https://steamcdn-a.akamaihd.net/steamcommunity/public/images/apps/977230/794ac5c8cefcc8a71c3ea08b2ff18f57ca02cbef.jpg",
    "icongray": "https://steamcdn-a.akamaihd.net/steamcommunity/public/images/apps/977230/48fc8e4a9a5f6242c93a260435c350365d97cc44.jpg"
  }
]