﻿[
  {
    "name": "201",
    "defaultvalue": 0,
    "displayName": "Warrior",
    "hidden": 0,
    "description": "Kill 5000 opponents",
    "icon": "https://steamcdn-a.akamaihd.net/steamcommunity/public/images/apps/355840/fe66a320cdd0814188ae6ce7a202ed2aab832246.jpg",
    "icongray": "https://steamcdn-a.akamaihd.net/steamcommunity/public/images/apps/355840/452437cbbb06907d6a743da467ff489ca20e7477.jpg"
  },
  {
    "name": "202",
    "defaultvalue": 0,
    "displayName": "Master of unarmed combat",
    "hidden": 0,
    "description": "Kill 500 opponents in melee",
    "icon": "https://steamcdn-a.akamaihd.net/steamcommunity/public/images/apps/355840/559126849624dcea16d5c7dc03d64700ece6fa9b.jpg",
    "icongray": "https://steamcdn-a.akamaihd.net/steamcommunity/public/images/apps/355840/d0cfda5bbf05b24deb54eb05fa8da06991f8728b.jpg"
  },
  {
    "name": "203",
    "defaultvalue": 0,
    "displayName": "Bull's Eye",
    "hidden": 0,
    "description": "Kill 500 opponents with headshots",
    "icon": "https://steamcdn-a.akamaihd.net/steamcommunity/public/images/apps/355840/882e436f50288924e4ce3ac6d14968c145f662f2.jpg",
    "icongray": "https://steamcdn-a.akamaihd.net/steamcommunity/public/images/apps/355840/127a7313e00cdf3bb43c26552f439decb4d1ad55.jpg"
  },
  {
    "name": "204",
    "defaultvalue": 0,
    "displayName": "Support",
    "hidden": 0,
    "description": "Assist in the murder of opponents of 500 times",
    "icon": "https://steamcdn-a.akamaihd.net/steamcommunity/public/images/apps/355840/53ba8fc37d61a2c33438c0365fec21b62e85c9f7.jpg",
    "icongray": "https://steamcdn-a.akamaihd.net/steamcommunity/public/images/apps/355840/d0407cde8c0297172c514c01376440696a591a1b.jpg"
  },
  {
    "name": "205",
    "defaultvalue": 0,
    "displayName": "Get down!",
    "hidden": 0,
    "description": "Kill two enemies with one grenade",
    "icon": "https://steamcdn-a.akamaihd.net/steamcommunity/public/images/apps/355840/0ed0c0991781460b37597780cb431ad4d5a685d8.jpg",
    "icongray": "https://steamcdn-a.akamaihd.net/steamcommunity/public/images/apps/355840/1611fb5aeb26eaa6732614e368f887e6ea26b282.jpg"
  },
  {
    "name": "206",
    "defaultvalue": 0,
    "displayName": "Predator",
    "hidden": 0,
    "description": "Kill 500 opponents with bleeding",
    "icon": "https://steamcdn-a.akamaihd.net/steamcommunity/public/images/apps/355840/116b03ce72dbae7e8f5cbf517ea4791353e0fcb0.jpg",
    "icongray": "https://steamcdn-a.akamaihd.net/steamcommunity/public/images/apps/355840/b4a96da744258f3d60f3ff5830264444b1f42144.jpg"
  },
  {
    "name": "207",
    "defaultvalue": 0,
    "displayName": "Saving of ammunition",
    "hidden": 0,
    "description": "Kill two enemies with one bullet",
    "icon": "https://steamcdn-a.akamaihd.net/steamcommunity/public/images/apps/355840/2c1466ce9005b8fa520ecf93a672d696b8a5ad18.jpg",
    "icongray": "https://steamcdn-a.akamaihd.net/steamcommunity/public/images/apps/355840/2b27d99cb7d5d52843dbec73277af9ba8db12c07.jpg"
  },
  {
    "name": "208",
    "defaultvalue": 0,
    "displayName": "By Surprise",
    "hidden": 0,
    "description": "Kill an enemy while he's reloading",
    "icon": "https://steamcdn-a.akamaihd.net/steamcommunity/public/images/apps/355840/2683ac5bc622880f586710e23a4945307fbce8e8.jpg",
    "icongray": "https://steamcdn-a.akamaihd.net/steamcommunity/public/images/apps/355840/a8879a5f50433c633981c96b235ef30e08ee55c8.jpg"
  },
  {
    "name": "209",
    "defaultvalue": 0,
    "displayName": "Fatal shot",
    "hidden": 0,
    "description": "Kill an enemy with ricochet",
    "icon": "https://steamcdn-a.akamaihd.net/steamcommunity/public/images/apps/355840/c1e500a48f708195fc3551f76ab90c6d9602149e.jpg",
    "icongray": "https://steamcdn-a.akamaihd.net/steamcommunity/public/images/apps/355840/7c44e5053824d3323d5e8ad1ce858445d560b771.jpg"
  },
  {
    "name": "210",
    "defaultvalue": 0,
    "displayName": "Last effort",
    "hidden": 0,
    "description": "Kill 5 opponents having less than 15% health during one life",
    "icon": "https://steamcdn-a.akamaihd.net/steamcommunity/public/images/apps/355840/3a13a2c59af7841e1b5838775727a05be655b192.jpg",
    "icongray": "https://steamcdn-a.akamaihd.net/steamcommunity/public/images/apps/355840/0588976c774e49849241a357c08b29aadb724494.jpg"
  },
  {
    "name": "211",
    "defaultvalue": 0,
    "displayName": "Servant of Nature",
    "hidden": 0,
    "description": "Kill an enemy while he is destroying the anomaly",
    "icon": "https://steamcdn-a.akamaihd.net/steamcommunity/public/images/apps/355840/ec61569763fb30a8c4d61231a0af54c7a412f3f5.jpg",
    "icongray": "https://steamcdn-a.akamaihd.net/steamcommunity/public/images/apps/355840/017cf958168f0ad4ddca5b712192633ee1a13ab3.jpg"
  },
  {
    "name": "212",
    "defaultvalue": 0,
    "displayName": "From the Grave",
    "hidden": 0,
    "description": "Kill the enemy after your death",
    "icon": "https://steamcdn-a.akamaihd.net/steamcommunity/public/images/apps/355840/bd5329e355440ba1c8059807a649f587e126be3f.jpg",
    "icongray": "https://steamcdn-a.akamaihd.net/steamcommunity/public/images/apps/355840/d18715772497fb6febdc78ed27fcd6b0398c78d2.jpg"
  },
  {
    "name": "213",
    "defaultvalue": 0,
    "displayName": "Terrorist",
    "hidden": 0,
    "description": "Kill two enemies with a grenade not letting it out of hand",
    "icon": "https://steamcdn-a.akamaihd.net/steamcommunity/public/images/apps/355840/4e6397fbb72b60279f94f674123997ad20a8b557.jpg",
    "icongray": "https://steamcdn-a.akamaihd.net/steamcommunity/public/images/apps/355840/4ba006ce94a9c5cbb2ecc6d5d45430a7c4814fcc.jpg"
  },
  {
    "name": "214",
    "defaultvalue": 0,
    "displayName": "Berserker",
    "hidden": 0,
    "description": "Perform 15 killstreak",
    "icon": "https://steamcdn-a.akamaihd.net/steamcommunity/public/images/apps/355840/b70b6717505524432dc9db8ce8cac472137c196f.jpg",
    "icongray": "https://steamcdn-a.akamaihd.net/steamcommunity/public/images/apps/355840/d35fd637d7832135977f878f96d8fd947be1c7e1.jpg"
  },
  {
    "name": "215",
    "defaultvalue": 0,
    "displayName": "Thrower",
    "hidden": 0,
    "description": "Kill 1000 opponents with throwing weapons",
    "icon": "https://steamcdn-a.akamaihd.net/steamcommunity/public/images/apps/355840/a015c8c241269de336c8ec7f24bbcde8d62551b2.jpg",
    "icongray": "https://steamcdn-a.akamaihd.net/steamcommunity/public/images/apps/355840/d4edd911c523665a3d7dc5f302097b114c74954b.jpg"
  },
  {
    "name": "216",
    "defaultvalue": 0,
    "displayName": "Sniper Weapons Master",
    "hidden": 0,
    "description": "Kill 1000 opponents with sniper rifles",
    "icon": "https://steamcdn-a.akamaihd.net/steamcommunity/public/images/apps/355840/4855ea80b2fbf3622b68c6b725ca800d93ac8d4d.jpg",
    "icongray": "https://steamcdn-a.akamaihd.net/steamcommunity/public/images/apps/355840/415bd03f93c12401634642ba9fd263c74e745c63.jpg"
  },
  {
    "name": "217",
    "defaultvalue": 0,
    "displayName": "Assault Rifles Master",
    "hidden": 0,
    "description": "Kill 1000 opponents with assault rifles",
    "icon": "https://steamcdn-a.akamaihd.net/steamcommunity/public/images/apps/355840/927e1a6012cbacda85cf5ea41cd1e2796191b8ab.jpg",
    "icongray": "https://steamcdn-a.akamaihd.net/steamcommunity/public/images/apps/355840/652f249c23884a548fab3b43b637009b858ec860.jpg"
  },
  {
    "name": "218",
    "defaultvalue": 0,
    "displayName": "Shotguns Master",
    "hidden": 0,
    "description": "Kill 1000 opponents with shotguns",
    "icon": "https://steamcdn-a.akamaihd.net/steamcommunity/public/images/apps/355840/0f1ebddf76732a4eefb0414820be304fdff12d45.jpg",
    "icongray": "https://steamcdn-a.akamaihd.net/steamcommunity/public/images/apps/355840/44c5bab458aa82fc73350a0790ed7b4db506957b.jpg"
  },
  {
    "name": "219",
    "defaultvalue": 0,
    "displayName": "Handguns Master",
    "hidden": 0,
    "description": "Kill 1000 opponents with handguns",
    "icon": "https://steamcdn-a.akamaihd.net/steamcommunity/public/images/apps/355840/174cf68a44a88676010b1dc662c003af716cb9f1.jpg",
    "icongray": "https://steamcdn-a.akamaihd.net/steamcommunity/public/images/apps/355840/a28d1e192f92a20eeda1d369cceb761b2a7d9ade.jpg"
  },
  {
    "name": "220",
    "defaultvalue": 0,
    "displayName": "SMG Master",
    "hidden": 0,
    "description": "Kill 1000 opponents with submachine guns",
    "icon": "https://steamcdn-a.akamaihd.net/steamcommunity/public/images/apps/355840/3a8b671ee3779c02a3a3cec2630aaa6566aeb9d2.jpg",
    "icongray": "https://steamcdn-a.akamaihd.net/steamcommunity/public/images/apps/355840/2e8db377361422377e8c6f1540a037ed1ced3b37.jpg"
  },
  {
    "name": "221",
    "defaultvalue": 0,
    "displayName": "Master of machine guns",
    "hidden": 0,
    "description": "Kill 1000 opponents with machine guns",
    "icon": "https://steamcdn-a.akamaihd.net/steamcommunity/public/images/apps/355840/57893daa9916955aa0c8fe47bb224b5a160b988b.jpg",
    "icongray": "https://steamcdn-a.akamaihd.net/steamcommunity/public/images/apps/355840/7e808961e8473e5f519da74d1700b076cfc80d75.jpg"
  },
  {
    "name": "222",
    "defaultvalue": 0,
    "displayName": "Huntsman",
    "hidden": 0,
    "description": "Kill 1000 opponents with traps",
    "icon": "https://steamcdn-a.akamaihd.net/steamcommunity/public/images/apps/355840/610e84c9b229a6e27aa50e71039eba913dbcef3b.jpg",
    "icongray": "https://steamcdn-a.akamaihd.net/steamcommunity/public/images/apps/355840/686828ef290211b34e3949d4276ec5fa7c22f85a.jpg"
  },
  {
    "name": "223",
    "defaultvalue": 0,
    "displayName": "Face Memory",
    "hidden": 1,
    "icon": "https://steamcdn-a.akamaihd.net/steamcommunity/public/images/apps/355840/6ff48fc64017b8324f4bc6cc71dc259861356848.jpg",
    "icongray": "https://steamcdn-a.akamaihd.net/steamcommunity/public/images/apps/355840/d06e48a40f56c836854cb783c9c4c04179819f11.jpg"
  },
  {
    "name": "224",
    "defaultvalue": 0,
    "displayName": "Shooting Offhand",
    "hidden": 0,
    "description": "Kill an enemy with a sniper rifle without using the scope",
    "icon": "https://steamcdn-a.akamaihd.net/steamcommunity/public/images/apps/355840/2d84cabd0965640f8d852341693ef00efb086c89.jpg",
    "icongray": "https://steamcdn-a.akamaihd.net/steamcommunity/public/images/apps/355840/d46152ed271154b3320a8709ed87af54b8bad97b.jpg"
  },
  {
    "name": "225",
    "defaultvalue": 0,
    "displayName": "Firepower",
    "hidden": 0,
    "description": "Kill or assist in killing an enemy that has taken damage from all of your team members",
    "icon": "https://steamcdn-a.akamaihd.net/steamcommunity/public/images/apps/355840/4c833453e29b264cae952f50dd08cd94a6c6fd09.jpg",
    "icongray": "https://steamcdn-a.akamaihd.net/steamcommunity/public/images/apps/355840/c7c5fce00197fbd5fa1c615d9ed712304bee8d94.jpg"
  },
  {
    "name": "226",
    "defaultvalue": 0,
    "displayName": "Minerlayer",
    "hidden": 0,
    "description": "Kill two enemies with one mine",
    "icon": "https://steamcdn-a.akamaihd.net/steamcommunity/public/images/apps/355840/bc9616cd14df78f4b20eab9c990dd89236e4c05d.jpg",
    "icongray": "https://steamcdn-a.akamaihd.net/steamcommunity/public/images/apps/355840/53d1f020c5548cb647e48c3a4acecabc6cf29366.jpg"
  },
  {
    "name": "227",
    "defaultvalue": 0,
    "displayName": "Cold calculation",
    "hidden": 0,
    "description": "Kill an enemy with the last bullet in the clip",
    "icon": "https://steamcdn-a.akamaihd.net/steamcommunity/public/images/apps/355840/19efe7296b38a79be37dbd81ad70ef0730a9b922.jpg",
    "icongray": "https://steamcdn-a.akamaihd.net/steamcommunity/public/images/apps/355840/20bd5cbbbd2ea0d97f25adbecb0de011640d5b4f.jpg"
  },
  {
    "name": "228",
    "defaultvalue": 0,
    "displayName": "Silent",
    "hidden": 0,
    "description": "Kill enemy sniper in melee while he's using scope",
    "icon": "https://steamcdn-a.akamaihd.net/steamcommunity/public/images/apps/355840/24bc07a54cc19c66836696c009a0ab3fe87a2caa.jpg",
    "icongray": "https://steamcdn-a.akamaihd.net/steamcommunity/public/images/apps/355840/1eb3d139625dcd204dfddf2e9616c2b9fe975ace.jpg"
  },
  {
    "name": "229",
    "defaultvalue": 0,
    "displayName": "Armed and dangerous",
    "hidden": 0,
    "description": "Kill opponents in one match in 10 different ways",
    "icon": "https://steamcdn-a.akamaihd.net/steamcommunity/public/images/apps/355840/6178e189a26bb7f53c3349ec4f6d87cd9d289f96.jpg",
    "icongray": "https://steamcdn-a.akamaihd.net/steamcommunity/public/images/apps/355840/887d8d68d3b3fa50c59f3b7cef966465dc65569e.jpg"
  },
  {
    "name": "401",
    "defaultvalue": 0,
    "displayName": "Talented",
    "hidden": 0,
    "description": "Put in all the branches of the skill tree a minimum of 5 points",
    "icon": "https://steamcdn-a.akamaihd.net/steamcommunity/public/images/apps/355840/dc672e5992a23e8f3075d171bb6bbf83deee85e3.jpg",
    "icongray": "https://steamcdn-a.akamaihd.net/steamcommunity/public/images/apps/355840/d018868c7d139985118f4427d4de514028814db5.jpg"
  },
  {
    "name": "402",
    "defaultvalue": 0,
    "displayName": "Doping",
    "hidden": 0,
    "description": "Restore more than 300% health in one life",
    "icon": "https://steamcdn-a.akamaihd.net/steamcommunity/public/images/apps/355840/2c3c7546d7eb282a83f0f71265115b4545f23633.jpg",
    "icongray": "https://steamcdn-a.akamaihd.net/steamcommunity/public/images/apps/355840/71d2b629b0708b26bd5449c954d1cb191f342f90.jpg"
  },
  {
    "name": "403",
    "defaultvalue": 0,
    "displayName": "War Paint",
    "hidden": 0,
    "description": "Change appearance of an item",
    "icon": "https://steamcdn-a.akamaihd.net/steamcommunity/public/images/apps/355840/492561d9eed5638a1c5dcb7b9e2b70403048c57e.jpg",
    "icongray": "https://steamcdn-a.akamaihd.net/steamcommunity/public/images/apps/355840/b048a7ad0a6afc30e73f695ce1dfc80295794836.jpg"
  },
  {
    "name": "404",
    "defaultvalue": 0,
    "displayName": "Skillful hands",
    "hidden": 0,
    "description": "Change the modifier on a piece of equipment",
    "icon": "https://steamcdn-a.akamaihd.net/steamcommunity/public/images/apps/355840/b986061a7a47b109b197f2a620f4eb747063a8e5.jpg",
    "icongray": "https://steamcdn-a.akamaihd.net/steamcommunity/public/images/apps/355840/64f65f88abf3bc8ee0d6c483f10a18b5aa7d7e81.jpg"
  },
  {
    "name": "406",
    "defaultvalue": 0,
    "displayName": "Treasure hunter",
    "hidden": 0,
    "description": "Receive all rewards in the Treasure Hunt",
    "icon": "https://steamcdn-a.akamaihd.net/steamcommunity/public/images/apps/355840/6b1353fb8c5f3b635dcc77557aab4249e2afbc89.jpg",
    "icongray": "https://steamcdn-a.akamaihd.net/steamcommunity/public/images/apps/355840/69259e2786b8aaceddd3b0bd9958e907b76d1d2a.jpg"
  },
  {
    "name": "407",
    "defaultvalue": 0,
    "displayName": "Explorer",
    "hidden": 0,
    "description": "Pick up 500 artifacts",
    "icon": "https://steamcdn-a.akamaihd.net/steamcommunity/public/images/apps/355840/60dcc028244e91447c9f3112a36a37c30ac47803.jpg",
    "icongray": "https://steamcdn-a.akamaihd.net/steamcommunity/public/images/apps/355840/edacf8a4a803632649ea1731afbf2e0276c77b49.jpg"
  },
  {
    "name": "408",
    "defaultvalue": 0,
    "displayName": "Soldier",
    "hidden": 0,
    "description": "Get Colonel rank in The Renaissance Army",
    "icon": "https://steamcdn-a.akamaihd.net/steamcommunity/public/images/apps/355840/b42be38b645e9541a76393c3d678c7fe24603f58.jpg",
    "icongray": "https://steamcdn-a.akamaihd.net/steamcommunity/public/images/apps/355840/f0cd7ec9aeb49d0366e1f36be81c940f45200374.jpg"
  },
  {
    "name": "409",
    "defaultvalue": 0,
    "displayName": "Scavenger",
    "hidden": 0,
    "description": "Get the Legend rank in Scavengers",
    "icon": "https://steamcdn-a.akamaihd.net/steamcommunity/public/images/apps/355840/79709cd7097ab23bcb0201405dbb745ebfcee3eb.jpg",
    "icongray": "https://steamcdn-a.akamaihd.net/steamcommunity/public/images/apps/355840/90ae749241aa2ee3e0fe08868ffa43cc7e092579.jpg"
  },
  {
    "name": "410",
    "defaultvalue": 0,
    "displayName": "Charisma",
    "hidden": 0,
    "description": "Get the fifth rank in Scavengers, Black Market, The Renaissance Army, The Fringe Settlers",
    "icon": "https://steamcdn-a.akamaihd.net/steamcommunity/public/images/apps/355840/d56dd41378433fb481c7e27b3db4dd1699e9be60.jpg",
    "icongray": "https://steamcdn-a.akamaihd.net/steamcommunity/public/images/apps/355840/f448ea29a9ad8882f9c434f2572306cf9c8e3086.jpg"
  },
  {
    "name": "411",
    "defaultvalue": 0,
    "displayName": "Fanatic",
    "hidden": 0,
    "description": "Get the Magister rank in The Fringe Settlers",
    "icon": "https://steamcdn-a.akamaihd.net/steamcommunity/public/images/apps/355840/07f93823f70065d8d5c3afc5f1673ea1b5455a62.jpg",
    "icongray": "https://steamcdn-a.akamaihd.net/steamcommunity/public/images/apps/355840/77fdfce563384b2818e829e2f6e97e986a1b904d.jpg"
  },
  {
    "name": "412",
    "defaultvalue": 0,
    "displayName": "Biker",
    "hidden": 0,
    "description": "Get the Chieftain rank in Black Market",
    "icon": "https://steamcdn-a.akamaihd.net/steamcommunity/public/images/apps/355840/5a914ec0e901bc45d2b4643e1cc64dfe7bb1d27b.jpg",
    "icongray": "https://steamcdn-a.akamaihd.net/steamcommunity/public/images/apps/355840/df8939e1c536794eeb2f24dc3e540dc913a55fe5.jpg"
  },
  {
    "name": "413",
    "defaultvalue": 0,
    "displayName": "Survivors",
    "hidden": 0,
    "description": "Get 100 level",
    "icon": "https://steamcdn-a.akamaihd.net/steamcommunity/public/images/apps/355840/aea9a7db3be25111dee259ef1a9ffded83d04d02.jpg",
    "icongray": "https://steamcdn-a.akamaihd.net/steamcommunity/public/images/apps/355840/b4b86f1f825738c408df92c291fd8e59331a562a.jpg"
  },
  {
    "name": "414",
    "defaultvalue": 0,
    "displayName": "Lucky",
    "hidden": 0,
    "description": "Destroy the anomaly having 1 of health",
    "icon": "https://steamcdn-a.akamaihd.net/steamcommunity/public/images/apps/355840/1a6a871d562f6f1c6d4432729d1b0bb068480763.jpg",
    "icongray": "https://steamcdn-a.akamaihd.net/steamcommunity/public/images/apps/355840/b085360b9587a2487ac0b262be90baffaffac218.jpg"
  },
  {
    "name": "415",
    "defaultvalue": 0,
    "displayName": "Ready For Battle",
    "hidden": 0,
    "description": "Play the battle, equip items with at least one random modifier",
    "icon": "https://steamcdn-a.akamaihd.net/steamcommunity/public/images/apps/355840/9daa64ac98cea2c097703d503fd5257e9ccd9e10.jpg",
    "icongray": "https://steamcdn-a.akamaihd.net/steamcommunity/public/images/apps/355840/e4284df863937164dd37a47f23543de8f0705a53.jpg"
  },
  {
    "name": "416",
    "defaultvalue": 0,
    "displayName": "Stocked",
    "hidden": 0,
    "description": "Play a match, equipping items with at least two random modifiers",
    "icon": "https://steamcdn-a.akamaihd.net/steamcommunity/public/images/apps/355840/8f696f45f9085334a8f5eabacb3b71fc3b27396c.jpg",
    "icongray": "https://steamcdn-a.akamaihd.net/steamcommunity/public/images/apps/355840/a2fd0a9adf4273305e78cb9706aa30ab976768d4.jpg"
  },
  {
    "name": "417",
    "defaultvalue": 0,
    "displayName": "Business approach",
    "hidden": 0,
    "description": "Play a match, equipping items with three random modifiers",
    "icon": "https://steamcdn-a.akamaihd.net/steamcommunity/public/images/apps/355840/95017e8ff9f8bee99f4cddc092bf5b1dc52a18d2.jpg",
    "icongray": "https://steamcdn-a.akamaihd.net/steamcommunity/public/images/apps/355840/5c2c28f980b78f1b2e4955ae0eb4a920ef37beda.jpg"
  },
  {
    "name": "418",
    "defaultvalue": 0,
    "displayName": "Team Player",
    "hidden": 0,
    "description": "Play 500 matches in a squad with your clanmates",
    "icon": "https://steamcdn-a.akamaihd.net/steamcommunity/public/images/apps/355840/843d6f4d3372d1e4553afec7707b9b5496027caf.jpg",
    "icongray": "https://steamcdn-a.akamaihd.net/steamcommunity/public/images/apps/355840/4ae420e79d77e7d40f9a6cba6b8088528564b72f.jpg"
  },
  {
    "name": "419",
    "defaultvalue": 0,
    "displayName": "Comrades",
    "hidden": 0,
    "description": "Play 500 matches in squad",
    "icon": "https://steamcdn-a.akamaihd.net/steamcommunity/public/images/apps/355840/d2db08d91afc7cea1f5591c771cfc169b42473e8.jpg",
    "icongray": "https://steamcdn-a.akamaihd.net/steamcommunity/public/images/apps/355840/7ee989149691b72456ad94c5e8958c507b7aba8a.jpg"
  },
  {
    "name": "420",
    "defaultvalue": 0,
    "displayName": "Craftsman",
    "hidden": 0,
    "description": "Upgrade an item",
    "icon": "https://steamcdn-a.akamaihd.net/steamcommunity/public/images/apps/355840/a5b551302660571bc45220d70eeafec712e8847b.jpg",
    "icongray": "https://steamcdn-a.akamaihd.net/steamcommunity/public/images/apps/355840/dcf8d69350f37dfa8b10fa5a73e17a752f8c9590.jpg"
  },
  {
    "name": "601",
    "defaultvalue": 0,
    "displayName": "Invulnerable",
    "hidden": 0,
    "description": "Win a match, having 50 kills without dying",
    "icon": "https://steamcdn-a.akamaihd.net/steamcommunity/public/images/apps/355840/8c6d9cf95384698f28e04dc67e43d001b0142b8e.jpg",
    "icongray": "https://steamcdn-a.akamaihd.net/steamcommunity/public/images/apps/355840/9707caeb48482d377fe6caa3f516ae0db1bbdf9f.jpg"
  },
  {
    "name": "602",
    "defaultvalue": 0,
    "displayName": "Murderer",
    "hidden": 0,
    "description": "Win a match killing 75 opponents",
    "icon": "https://steamcdn-a.akamaihd.net/steamcommunity/public/images/apps/355840/c29c3e36bae7ba3b779dd6a2d683c9be358db886.jpg",
    "icongray": "https://steamcdn-a.akamaihd.net/steamcommunity/public/images/apps/355840/b4779061854ce52e782473ed7685d62ff44353f5.jpg"
  },
  {
    "name": "603",
    "defaultvalue": 0,
    "displayName": "Recordsman",
    "hidden": 0,
    "description": "Get 1000 gold medals",
    "icon": "https://steamcdn-a.akamaihd.net/steamcommunity/public/images/apps/355840/39981ba1e6e07adbd1265e6892027fdab62da0c1.jpg",
    "icongray": "https://steamcdn-a.akamaihd.net/steamcommunity/public/images/apps/355840/eb29a0a939464f5304987f2dc1d9d043abe24bea.jpg"
  },
  {
    "name": "604",
    "defaultvalue": 0,
    "displayName": "Efficiency",
    "hidden": 0,
    "description": "Get the \"Best Player\" medal 100 times",
    "icon": "https://steamcdn-a.akamaihd.net/steamcommunity/public/images/apps/355840/6a79a1a762a6fb56d008a4473b9a7ccbbdbac77c.jpg",
    "icongray": "https://steamcdn-a.akamaihd.net/steamcommunity/public/images/apps/355840/b2542fa0d1806bc7292068d6be51b30e37b7a541.jpg"
  },
  {
    "name": "605",
    "defaultvalue": 0,
    "displayName": "Eagle Eye",
    "hidden": 0,
    "description": "Will receive the medal of \"Top gun\" 100 times",
    "icon": "https://steamcdn-a.akamaihd.net/steamcommunity/public/images/apps/355840/26d8948d3f2634a4f33ee24924c58716df809980.jpg",
    "icongray": "https://steamcdn-a.akamaihd.net/steamcommunity/public/images/apps/355840/a3b572031d8c97101343c71e2a4cb3b06ad519c9.jpg"
  },
  {
    "name": "606",
    "defaultvalue": 0,
    "displayName": "Killer",
    "hidden": 0,
    "description": "Get the \"Best Killer\" medal 100 times",
    "icon": "https://steamcdn-a.akamaihd.net/steamcommunity/public/images/apps/355840/ce228741ef489019ac340d8b7ebd241bf2cb1b86.jpg",
    "icongray": "https://steamcdn-a.akamaihd.net/steamcommunity/public/images/apps/355840/31625e9e8cbf82882cb9b6795bb6005e00eeb0b2.jpg"
  },
  {
    "name": "607",
    "defaultvalue": 0,
    "displayName": "Hero",
    "hidden": 0,
    "description": "Get \"Hero\" medal 100 times",
    "icon": "https://steamcdn-a.akamaihd.net/steamcommunity/public/images/apps/355840/acadb272c8e747b7735590b5d324f323f3838e6e.jpg",
    "icongray": "https://steamcdn-a.akamaihd.net/steamcommunity/public/images/apps/355840/d6a3f69daeb892a36e04da4d23e599ed409d4b6d.jpg"
  },
  {
    "name": "608",
    "defaultvalue": 0,
    "displayName": "Effective",
    "hidden": 0,
    "description": "Win 1000 random matches",
    "icon": "https://steamcdn-a.akamaihd.net/steamcommunity/public/images/apps/355840/c0cba8243f6ef149a139688954c300ca2b4346c4.jpg",
    "icongray": "https://steamcdn-a.akamaihd.net/steamcommunity/public/images/apps/355840/d93b0db8170c81130fbff1d590f95d06d4baac6a.jpg"
  },
  {
    "name": "609",
    "defaultvalue": 0,
    "displayName": "Champion",
    "hidden": 0,
    "description": "Win 1000 ranked matches",
    "icon": "https://steamcdn-a.akamaihd.net/steamcommunity/public/images/apps/355840/66909add9f17cb7c9ce709b0aa9b872604eb0986.jpg",
    "icongray": "https://steamcdn-a.akamaihd.net/steamcommunity/public/images/apps/355840/66e33b4b399beaa2587f811778c61c04a367bee1.jpg"
  },
  {
    "name": "610",
    "defaultvalue": 0,
    "displayName": "Expert - Battery Retrieval",
    "hidden": 0,
    "description": "Win 500 matches in Battery Retrieval mode",
    "icon": "https://steamcdn-a.akamaihd.net/steamcommunity/public/images/apps/355840/d610dc97d0dabc142a6281ad20e9472d0f145736.jpg",
    "icongray": "https://steamcdn-a.akamaihd.net/steamcommunity/public/images/apps/355840/9a03be6dc365a331a50b7149c2b579743a8825cb.jpg"
  },
  {
    "name": "611",
    "defaultvalue": 0,
    "displayName": "Expert - Team Deathmatch",
    "hidden": 0,
    "description": "Win 500 matches in Deathmatch mode",
    "icon": "https://steamcdn-a.akamaihd.net/steamcommunity/public/images/apps/355840/969c397d184941b6e556e6e31a77799211cf4738.jpg",
    "icongray": "https://steamcdn-a.akamaihd.net/steamcommunity/public/images/apps/355840/26b3dbcc48c5358830b69a97cb9a2f3ce1c7e300.jpg"
  },
  {
    "name": "612",
    "defaultvalue": 0,
    "displayName": "Expert - Research",
    "hidden": 0,
    "description": "Win 500 matches in Research mode",
    "icon": "https://steamcdn-a.akamaihd.net/steamcommunity/public/images/apps/355840/8f696f45f9085334a8f5eabacb3b71fc3b27396c.jpg",
    "icongray": "https://steamcdn-a.akamaihd.net/steamcommunity/public/images/apps/355840/a2fd0a9adf4273305e78cb9706aa30ab976768d4.jpg"
  },
  {
    "name": "613",
    "defaultvalue": 0,
    "displayName": "Invigorating exercises",
    "hidden": 0,
    "description": "Win a match in the Protective device mode with a score of 10-0",
    "icon": "https://steamcdn-a.akamaihd.net/steamcommunity/public/images/apps/355840/615b42a96199d9902f4c504c354857395b38838c.jpg",
    "icongray": "https://steamcdn-a.akamaihd.net/steamcommunity/public/images/apps/355840/0485af08ca9b71f3c43f6694055ed94afeb84335.jpg"
  },
  {
    "name": "614",
    "defaultvalue": 0,
    "displayName": "Sweep",
    "hidden": 0,
    "description": "Win a match in Deathmatch mode with a margin of 50 points",
    "icon": "https://steamcdn-a.akamaihd.net/steamcommunity/public/images/apps/355840/04c117ef36d74f9e9d6fb6164ffbee96398c4516.jpg",
    "icongray": "https://steamcdn-a.akamaihd.net/steamcommunity/public/images/apps/355840/124e46901a1f20c0d5fdad871858c61bf6ca05b7.jpg"
  },
  {
    "name": "615",
    "defaultvalue": 0,
    "displayName": "Aggressive explorers",
    "hidden": 0,
    "description": "Win a match in Research mode with a margin of 90 points",
    "icon": "https://steamcdn-a.akamaihd.net/steamcommunity/public/images/apps/355840/c461ce443a11ba3c2494cf40a8a73e696ad7b79f.jpg",
    "icongray": "https://steamcdn-a.akamaihd.net/steamcommunity/public/images/apps/355840/b05c22b66b50964511683c1fe5551c66dcd2939b.jpg"
  },
  {
    "name": "616",
    "defaultvalue": 0,
    "displayName": "Invincible",
    "hidden": 0,
    "description": "Win 15 matches in a row",
    "icon": "https://steamcdn-a.akamaihd.net/steamcommunity/public/images/apps/355840/d6bf6424f461658c959740b0d9d31da7c6cea1e4.jpg",
    "icongray": "https://steamcdn-a.akamaihd.net/steamcommunity/public/images/apps/355840/6b9225250ca66ddf7411c944ad9a6168ee6d7daf.jpg"
  },
  {
    "name": "617",
    "defaultvalue": 0,
    "displayName": "Initiative",
    "hidden": 0,
    "description": "Bring 500 batteries to protective unit in Battery Retrieval mode",
    "icon": "https://steamcdn-a.akamaihd.net/steamcommunity/public/images/apps/355840/9e46e8a8612b750dc565a13b4ab11257a8ae670b.jpg",
    "icongray": "https://steamcdn-a.akamaihd.net/steamcommunity/public/images/apps/355840/e7f6876bb6c358c1b437e7f7f07316e583d2c66a.jpg"
  },
  {
    "name": "618",
    "defaultvalue": 0,
    "displayName": "Raider",
    "hidden": 0,
    "description": "Steal 100 batteries from the enemy base in Battery Retrieval mode",
    "icon": "https://steamcdn-a.akamaihd.net/steamcommunity/public/images/apps/355840/f5d1867a2c6e45bd02d422af04922fa96ed79b7c.jpg",
    "icongray": "https://steamcdn-a.akamaihd.net/steamcommunity/public/images/apps/355840/b3078879988ae2400ff192e62129ef8cdcf8e1c2.jpg"
  },
  {
    "name": "619",
    "defaultvalue": 0,
    "displayName": "Conqueror",
    "hidden": 0,
    "description": "Capture 200 units in Research mode",
    "icon": "https://steamcdn-a.akamaihd.net/steamcommunity/public/images/apps/355840/895690fe630a75f37838554476ec0d6ccc7585b2.jpg",
    "icongray": "https://steamcdn-a.akamaihd.net/steamcommunity/public/images/apps/355840/375fce90ba5862b222de775c0c8e197a9db9b7e9.jpg"
  },
  {
    "name": "620",
    "defaultvalue": 0,
    "displayName": "Mercenary",
    "hidden": 0,
    "description": "Complete 500 daily quests",
    "icon": "https://steamcdn-a.akamaihd.net/steamcommunity/public/images/apps/355840/175ea89d755a6763dfca0034bd15611976fbb704.jpg",
    "icongray": "https://steamcdn-a.akamaihd.net/steamcommunity/public/images/apps/355840/1f3cf79e2ee7298c752541aee5b6d98fc2e008e9.jpg"
  },
  {
    "name": "621",
    "defaultvalue": 0,
    "displayName": "Brothers in Arms",
    "hidden": 0,
    "description": "Get the squad all four post-battle medals in one match",
    "icon": "https://steamcdn-a.akamaihd.net/steamcommunity/public/images/apps/355840/0ba57b944b1197fb77483b6c9a104704edfa8f26.jpg",
    "icongray": "https://steamcdn-a.akamaihd.net/steamcommunity/public/images/apps/355840/0ca523aba76024705c83518a7f56b0dada36d1db.jpg"
  },
  {
    "name": "622",
    "defaultvalue": 0,
    "displayName": "Best of the Best",
    "hidden": 0,
    "description": "Get all four post-battle medals in one match",
    "icon": "https://steamcdn-a.akamaihd.net/steamcommunity/public/images/apps/355840/cd14cdb2c8bd7a894de544c976ae2279561f2d51.jpg",
    "icongray": "https://steamcdn-a.akamaihd.net/steamcommunity/public/images/apps/355840/dc45e8872f5e17b4013e1bf5defbfebdee4c0937.jpg"
  },
  {
    "name": "623",
    "defaultvalue": 0,
    "displayName": "Hero of the Day: Best Player",
    "hidden": 0,
    "description": "Receive a Hero of the Day in 'Best Player' nomination, reach first place",
    "icon": "https://steamcdn-a.akamaihd.net/steamcommunity/public/images/apps/355840/6aaf7e41f802d87b91eeebdb3be4937b70644fe2.jpg",
    "icongray": "https://steamcdn-a.akamaihd.net/steamcommunity/public/images/apps/355840/7252a0e5d9eed43063189570a229840e15e33d79.jpg"
  },
  {
    "name": "624",
    "defaultvalue": 0,
    "displayName": "Hero of the Day: Killstreak",
    "hidden": 0,
    "description": "Receive a Hero of the Day in 'Killstreak' nomination, reach first place",
    "icon": "https://steamcdn-a.akamaihd.net/steamcommunity/public/images/apps/355840/daf6ddcd4d831ce66151b2ae87bd12b039394e46.jpg",
    "icongray": "https://steamcdn-a.akamaihd.net/steamcommunity/public/images/apps/355840/41237f644d4f0ee4dbb5cf3e45eb1b2b2c0e1e14.jpg"
  },
  {
    "name": "625",
    "defaultvalue": 0,
    "displayName": "Hero of the Day: Winstreak",
    "hidden": 0,
    "description": "Receive a Hero of the Day in 'Winstreak' nomination, reach first place",
    "icon": "https://steamcdn-a.akamaihd.net/steamcommunity/public/images/apps/355840/7ce92e1404936b51ff354d6fe358e9775517b477.jpg",
    "icongray": "https://steamcdn-a.akamaihd.net/steamcommunity/public/images/apps/355840/068edb3b05b3e8c58f6f9d3063d5731a40681d29.jpg"
  }
]