﻿{
  "Dlcs": {},
  "Name": "Deus Ex: The Fall",
  "AppId": "258180",
  "ImageUrl": "https://steamcdn-a.akamaihd.net/steam/apps/258180/header.jpg?t=1592491198",
  "Languages": [
    "english",
    "french",
    "italian",
    "german",
    "spanish"
  ],
  "Platforms": {
    "windows": true,
    "mac": false,
    "linux": false
  }
}