{
  "Dlcs": {},
  "Name": "A Bastard's Tale",
  "AppId": "371550",
  "ImageUrl": "https://steamcdn-a.akamaihd.net/steam/apps/371550/header.jpg?t=1462617559",
  "Languages": [
    "english"
  ],
  "Platforms": {
    "windows": true,
    "mac": false,
    "linux": false
  }
}