{
  "Dlcs": {},
  "Name": "Blind Souls",
  "AppId": "872490",
  "ImageUrl": "https://steamcdn-a.akamaihd.net/steam/apps/872490/header.jpg?t=1597234236",
  "Languages": [
    "english",
    "french",
    "italian",
    "german",
    "spanish",
    "japanese",
    "korean",
    "portuguese",
    "portuguese",
    "russian",
    "schinese",
    "latam",
    "turkish"
  ],
  "Platforms": {
    "windows": true,
    "mac": false,
    "linux": false
  }
}