{
  "Dlcs": {},
  "Name": "三国时代2",
  "AppId": "1154470",
  "ImageUrl": "https://steamcdn-a.akamaihd.net/steam/apps/1154470/header.jpg?t=1593846614",
  "Languages": [
    "schinese",
    "tchinese",
    "english"
  ],
  "Platforms": {
    "windows": true,
    "mac": false,
    "linux": false
  }
}