﻿{
  "blackberries": {
    "description": "Blackberries",
    "value": 0
  },
  "yellowberries": {
    "description": "Yellowberries",
    "value": 0
  },
  "matchesFinished": {
    "description": "Local Multiplayer Matches Played",
    "value": 0
  },
  "levelsCompleted": {
    "description": "Levels Completed",
    "value": 0
  },
  "enemiesBeaten": {
    "description": "Enemies Beaten",
    "value": 0
  },
  "redBerries": {
    "description": "Levels completed without using backup berries",
    "value": 0
  },
  "biturusBeaten": {
    "description": "Biturus Beaten",
    "value": 0
  },
  "goldenClocks": {
    "description": "Golden Clocks (Best time)",
    "value": 0
  }
}