[
  {
    "name": "ACH_ULTRA",
    "defaultvalue": 0,
    "displayName": "A Keen Eye",
    "hidden": 1,
    "icon": "https://steamcdn-a.akamaihd.net/steamcommunity/public/images/apps/299400/db46d2ffafe8127f6a2fd97c1602902dae9496af.jpg",
    "icongray": "https://steamcdn-a.akamaihd.net/steamcommunity/public/images/apps/299400/5cabe405850f0cf4d331755b9f82f384132c159e.jpg"
  },
  {
    "name": "ACH_GOSSIP",
    "defaultvalue": 0,
    "displayName": "Voices in the Water",
    "hidden": 0,
    "description": "Activate a Muse. ",
    "icon": "https://steamcdn-a.akamaihd.net/steamcommunity/public/images/apps/299400/d07827ba9bf2d0fb204a853627f0ae576f40965c.jpg",
    "icongray": "https://steamcdn-a.akamaihd.net/steamcommunity/public/images/apps/299400/cc5f5bb33e45e92393825794a7b94d7b934d600b.jpg"
  },
  {
    "name": "ACH_BONFIRE",
    "defaultvalue": 0,
    "displayName": "The Beacons are Lit",
    "hidden": 0,
    "description": "Light the bonfire.",
    "icon": "https://steamcdn-a.akamaihd.net/steamcommunity/public/images/apps/299400/e64897c948ab10db738105224006e7f7bdb4f45c.jpg",
    "icongray": "https://steamcdn-a.akamaihd.net/steamcommunity/public/images/apps/299400/89cf52c82ac89ddf632631d053a7bd033ac619b5.jpg"
  },
  {
    "name": "ACH_TOD",
    "defaultvalue": 0,
    "displayName": "Sky Shifter",
    "hidden": 0,
    "description": "Change the time of day.",
    "icon": "https://steamcdn-a.akamaihd.net/steamcommunity/public/images/apps/299400/62e7ac3ecc6197c95e676dc7c8f54e04b161d85e.jpg",
    "icongray": "https://steamcdn-a.akamaihd.net/steamcommunity/public/images/apps/299400/db47eedb06304f83318de8a2e3af9b6c2a84c2ea.jpg"
  },
  {
    "name": "ACH_ARROWHEAD",
    "defaultvalue": 0,
    "displayName": "That’s Not a Knife",
    "hidden": 1,
    "icon": "https://steamcdn-a.akamaihd.net/steamcommunity/public/images/apps/299400/f606e8056a2605d266a0c02d7ea5b1ae27a4e1f4.jpg",
    "icongray": "https://steamcdn-a.akamaihd.net/steamcommunity/public/images/apps/299400/91a90fc300f2d34392d1c227927cba54a08d09b7.jpg"
  },
  {
    "name": "ACH_ISLANDPOET",
    "defaultvalue": 0,
    "displayName": "Island Poet",
    "hidden": 0,
    "description": "Read every poem in Iztali Point.",
    "icon": "https://steamcdn-a.akamaihd.net/steamcommunity/public/images/apps/299400/4f967d96eb6c1a97441bdfa46709bb47167d6e2f.jpg",
    "icongray": "https://steamcdn-a.akamaihd.net/steamcommunity/public/images/apps/299400/3272bfb78ffbc47b43c94038a84467d03d3c2f26.jpg"
  },
  {
    "name": "ACH_TADPOLE",
    "defaultvalue": 0,
    "displayName": "Ribbit",
    "hidden": 1,
    "icon": "https://steamcdn-a.akamaihd.net/steamcommunity/public/images/apps/299400/80902cc9769a83dcf76949c3a994e277724a8b8e.jpg",
    "icongray": "https://steamcdn-a.akamaihd.net/steamcommunity/public/images/apps/299400/c373fc0f96d5d44363365c76241e2a2f2a99b7d0.jpg"
  },
  {
    "name": "ACH_RAIN",
    "defaultvalue": 0,
    "displayName": "Storm Bringer",
    "hidden": 0,
    "description": "Make it rain.",
    "icon": "https://steamcdn-a.akamaihd.net/steamcommunity/public/images/apps/299400/d304bb893335feb77e601fb227918726c1a47f75.jpg",
    "icongray": "https://steamcdn-a.akamaihd.net/steamcommunity/public/images/apps/299400/0b4664ddc5842bd8fd7186e06a0abcd8b9929d85.jpg"
  },
  {
    "name": "ACH_BANANA",
    "defaultvalue": 0,
    "displayName": "Ohh Banana!",
    "hidden": 1,
    "icon": "https://steamcdn-a.akamaihd.net/steamcommunity/public/images/apps/299400/375e26ee0aa8b35f2ed661ad9e7405395e00c541.jpg",
    "icongray": "https://steamcdn-a.akamaihd.net/steamcommunity/public/images/apps/299400/dd94a65e5c9b3dffdac534cf0bed016e45828705.jpg"
  },
  {
    "name": "ACH_FORESTPOET",
    "defaultvalue": 0,
    "displayName": "Forest Poet",
    "hidden": 0,
    "description": "Read every poem in Nahele Rain.",
    "icon": "https://steamcdn-a.akamaihd.net/steamcommunity/public/images/apps/299400/2f9eab8fb6688d71ab684efab7be0a1ed213ca57.jpg",
    "icongray": "https://steamcdn-a.akamaihd.net/steamcommunity/public/images/apps/299400/0e06821ef1690c4fc1de6d1cfb2feb7bdf8c22d0.jpg"
  },
  {
    "name": "ACH_CABBAGES",
    "defaultvalue": 0,
    "displayName": "Not My Cabbages! ",
    "hidden": 1,
    "icon": "https://steamcdn-a.akamaihd.net/steamcommunity/public/images/apps/299400/8d3fda13d9ab0c019e0be37d5da54cd06012a063.jpg",
    "icongray": "https://steamcdn-a.akamaihd.net/steamcommunity/public/images/apps/299400/d8ff5f7fa9a586dcc2b83b30e03b5688e3ca3639.jpg"
  },
  {
    "name": "ACH_SNOW",
    "defaultvalue": 0,
    "displayName": "Snow Caller",
    "hidden": 0,
    "description": "Start a snowfall.",
    "icon": "https://steamcdn-a.akamaihd.net/steamcommunity/public/images/apps/299400/9c4ee761f3150328e4453d37ab43e15e3966542e.jpg",
    "icongray": "https://steamcdn-a.akamaihd.net/steamcommunity/public/images/apps/299400/9afecf9577de143c4eac3987c64131865ef147dd.jpg"
  },
  {
    "name": "ACH_MOUNTAINPOET",
    "defaultvalue": 0,
    "displayName": "Mountain Poet",
    "hidden": 0,
    "description": "Read every poem in the Hyaku Lake.",
    "icon": "https://steamcdn-a.akamaihd.net/steamcommunity/public/images/apps/299400/07048329910e8ff963582c1d7e649c410bd2f018.jpg",
    "icongray": "https://steamcdn-a.akamaihd.net/steamcommunity/public/images/apps/299400/1e3641bc656e5003394d5cb2f01341b66a581380.jpg"
  },
  {
    "name": "ACH_WIND",
    "defaultvalue": 0,
    "displayName": "Wind Turner",
    "hidden": 0,
    "description": "Direct the wind.",
    "icon": "https://steamcdn-a.akamaihd.net/steamcommunity/public/images/apps/299400/97221326d7e5991b622b17fcd6318d20574739ea.jpg",
    "icongray": "https://steamcdn-a.akamaihd.net/steamcommunity/public/images/apps/299400/26d077d7579482bcd064e08cbd9353869dc34675.jpg"
  },
  {
    "name": "ACH_DESERTPOET",
    "defaultvalue": 0,
    "displayName": "Desert Poet",
    "hidden": 0,
    "description": "Read every poem in the Desert of Naar.",
    "icon": "https://steamcdn-a.akamaihd.net/steamcommunity/public/images/apps/299400/52979b32ef2387a23d562f5a0ad6dad843b89d7e.jpg",
    "icongray": "https://steamcdn-a.akamaihd.net/steamcommunity/public/images/apps/299400/b649eab7121bba4a8c7b51226111ad07b752c97e.jpg"
  },
  {
    "name": "ACH_FINALKEY",
    "defaultvalue": 0,
    "displayName": "Key to the End",
    "hidden": 1,
    "icon": "https://steamcdn-a.akamaihd.net/steamcommunity/public/images/apps/299400/ca0601704859276f1e870ffbc01f2da81ebb4325.jpg",
    "icongray": "https://steamcdn-a.akamaihd.net/steamcommunity/public/images/apps/299400/692c79c9c452b19c16300ab92c5a33d9a4ca4ed3.jpg"
  },
  {
    "name": "ACH_KATHERINE",
    "defaultvalue": 0,
    "displayName": "Nine Lives",
    "hidden": 1,
    "icon": "https://steamcdn-a.akamaihd.net/steamcommunity/public/images/apps/299400/2dea8786942b5c9b0609ddaa7e5a323a7d12f6f8.jpg",
    "icongray": "https://steamcdn-a.akamaihd.net/steamcommunity/public/images/apps/299400/c32fc9df17c4492da282081ad0544920f9da45eb.jpg"
  },
  {
    "name": "ACH_SERAFINE",
    "defaultvalue": 0,
    "displayName": "Passing the Torch",
    "hidden": 1,
    "icon": "https://steamcdn-a.akamaihd.net/steamcommunity/public/images/apps/299400/6be719eacb1919255ecd3149068d3fb34f5dfa6f.jpg",
    "icongray": "https://steamcdn-a.akamaihd.net/steamcommunity/public/images/apps/299400/71470b667d0ecaa6040b2c5e5fd8ab8c70496d0f.jpg"
  },
  {
    "name": "ACH_ROWLAND",
    "defaultvalue": 0,
    "displayName": "The Man, The Myth, The Legend",
    "hidden": 1,
    "icon": "https://steamcdn-a.akamaihd.net/steamcommunity/public/images/apps/299400/d145b1ba848f04d98841465247bbea067192cefe.jpg",
    "icongray": "https://steamcdn-a.akamaihd.net/steamcommunity/public/images/apps/299400/d33629b34c4a4fbb7227ebbe2e01148e2db7d1f3.jpg"
  },
  {
    "name": "ACH_CASSIA",
    "defaultvalue": 0,
    "displayName": "Mirror Mirror",
    "hidden": 1,
    "icon": "https://steamcdn-a.akamaihd.net/steamcommunity/public/images/apps/299400/f7b950ea23e27e4e9fcdeb67da0088740a5efc1a.jpg",
    "icongray": "https://steamcdn-a.akamaihd.net/steamcommunity/public/images/apps/299400/2b6362bbd331870f5f7a910d66b21bea3c2fba1f.jpg"
  },
  {
    "name": "ACH_IBYCUS",
    "defaultvalue": 0,
    "displayName": "The Quill is Mightier",
    "hidden": 1,
    "icon": "https://steamcdn-a.akamaihd.net/steamcommunity/public/images/apps/299400/61729ab4e49244b14932a3a16ff904ae6f5cbd22.jpg",
    "icongray": "https://steamcdn-a.akamaihd.net/steamcommunity/public/images/apps/299400/c2b7829bf36afbf42ace5dd2c927cfcbd8e8ead5.jpg"
  },
  {
    "name": "ACH_KEONA",
    "defaultvalue": 0,
    "displayName": "A Bitter Pill",
    "hidden": 1,
    "icon": "https://steamcdn-a.akamaihd.net/steamcommunity/public/images/apps/299400/8c56a5e2a6a4dddbca06f1ced1b8024daf70c4bc.jpg",
    "icongray": "https://steamcdn-a.akamaihd.net/steamcommunity/public/images/apps/299400/690dfb8f9bfda041c7a91bc39ce5f4bc4e0cc301.jpg"
  },
  {
    "name": "ACH_ORRIN",
    "defaultvalue": 0,
    "displayName": "A River Flows, a Frog Jumps.",
    "hidden": 1,
    "icon": "https://steamcdn-a.akamaihd.net/steamcommunity/public/images/apps/299400/2ae8d1106add79c966eba4dc89df467fee4da88c.jpg",
    "icongray": "https://steamcdn-a.akamaihd.net/steamcommunity/public/images/apps/299400/b6c829d9d90d6af1dc4cda8b894a523cc95fc3aa.jpg"
  },
  {
    "name": "ACH_ZAHARA",
    "defaultvalue": 0,
    "displayName": "Savvy?",
    "hidden": 1,
    "icon": "https://steamcdn-a.akamaihd.net/steamcommunity/public/images/apps/299400/9c606dccbba75948539771810fb971a9fac1b65d.jpg",
    "icongray": "https://steamcdn-a.akamaihd.net/steamcommunity/public/images/apps/299400/f19b44f380d6ec535dbdf7f3d25fd6f9d2bd096e.jpg"
  },
  {
    "name": "ACH_RUNE",
    "defaultvalue": 0,
    "displayName": "Rune Hunter",
    "hidden": 0,
    "description": "Get all 26 Golden Runes.",
    "icon": "https://steamcdn-a.akamaihd.net/steamcommunity/public/images/apps/299400/949e4d18b1cdc54783a9e6330550b2221be19552.jpg",
    "icongray": "https://steamcdn-a.akamaihd.net/steamcommunity/public/images/apps/299400/7b7cdc88f906a084d24526f91932519a5742b751.jpg"
  }
]