{
  "Dlcs": {
    "932200": {
      "Name": "Dangerous Lands - Soundtrack",
      "ImageUrl": "https://steamcdn-a.akamaihd.net/steam/apps/932200/header.jpg?t=1552484434"
    }
  },
  "Name": "Dangerous Lands - Magic and RPG",
  "AppId": "913710",
  "ImageUrl": "https://steamcdn-a.akamaihd.net/steam/apps/913710/header.jpg?t=1599152293",
  "Languages": [
    "english"
  ],
  "Platforms": {
    "windows": true,
    "mac": false,
    "linux": false
  }
}