{
  "Dlcs": {
    "729410": {
      "Name": "Lux Obscura Original Soundtrack",
      "ImageUrl": "https://steamcdn-a.akamaihd.net/steam/apps/729410/header.jpg?t=1507748758"
    },
    "1025400": {
      "Name": "Metropolis Lux Obscura comic book",
      "ImageUrl": "https://steamcdn-a.akamaihd.net/steam/apps/1025400/header.jpg?t=1548915505"
    }
  },
  "Name": "Metropolis: Lux Obscura",
  "AppId": "671390",
  "ImageUrl": "https://steamcdn-a.akamaihd.net/steam/apps/671390/header.jpg?t=1574934937",
  "Languages": [
    "english",
    "german",
    "spanish",
    "russian",
    "japanese",
    "french",
    "schinese"
  ],
  "Platforms": {
    "windows": true,
    "mac": true,
    "linux": true
  }
}