{
  "Dlcs": {
    "1413880": {
      "Name": "",
      "ImageUrl": ""
    }
  },
  "Name": "Path of the Martyrs",
  "AppId": "1381460",
  "ImageUrl": "https://steamcdn-a.akamaihd.net/steam/apps/1381460/header.jpg?t=1601076024",
  "Languages": [
    "english"
  ],
  "Platforms": {
    "windows": true,
    "mac": false,
    "linux": false
  }
}