{
  "Dlcs": {},
  "Name": "Tactical Galactical",
  "AppId": "765700",
  "ImageUrl": "https://steamcdn-a.akamaihd.net/steam/apps/765700/header.jpg?t=1593075749",
  "Languages": [
    "english",
    "japanese",
    "latam"
  ],
  "Platforms": {
    "windows": true,
    "mac": false,
    "linux": false
  }
}