{
  "Dlcs": {},
  "Name": "Long Z-Night",
  "AppId": "1031380",
  "ImageUrl": "https://steamcdn-a.akamaihd.net/steam/apps/1031380/header.jpg?t=1566527910",
  "Languages": [
    "english"
  ],
  "Platforms": {
    "windows": true,
    "mac": false,
    "linux": false
  }
}