﻿{
  "Dlcs": {},
  "Name": "theBlu",
  "AppId": "451520",
  "ImageUrl": "https://steamcdn-a.akamaihd.net/steam/apps/451520/header.jpg?t=1517617172",
  "Languages": [
    "english"
  ],
  "Platforms": {
    "windows": true,
    "mac": false,
    "linux": false
  }
}