{
  "Dlcs": {},
  "Name": "The Princess is in Another Castle",
  "AppId": "723750",
  "ImageUrl": "https://steamcdn-a.akamaihd.net/steam/apps/723750/header.jpg?t=1506661786",
  "Languages": [
    "english"
  ],
  "Platforms": {
    "windows": true,
    "mac": true,
    "linux": true
  }
}