{
  "Dlcs": {
    "1309310": {
      "Name": "",
      "ImageUrl": ""
    }
  },
  "Name": "Starship Inspector",
  "AppId": "1213390",
  "ImageUrl": "https://steamcdn-a.akamaihd.net/steam/apps/1213390/header.jpg?t=1600974447",
  "Languages": [
    "english",
    "russian"
  ],
  "Platforms": {
    "windows": true,
    "mac": false,
    "linux": false
  }
}