{
  "Dlcs": {},
  "Name": "PUZZLETIME: Lovely Girls",
  "AppId": "1062540",
  "ImageUrl": "https://steamcdn-a.akamaihd.net/steam/apps/1062540/header.jpg?t=1561740892",
  "Languages": [
    "english",
    "french",
    "italian",
    "german",
    "spanish",
    "schinese",
    "polish",
    "russian",
    "japanese"
  ],
  "Platforms": {
    "windows": true,
    "mac": true,
    "linux": true
  }
}