[
  {
    "name": "Monster Sweeper",
    "defaultvalue": 0,
    "displayName": "Monster Sweeper",
    "hidden": 0,
    "description": "Kill 10 monsters.",
    "icon": "https://steamcdn-a.akamaihd.net/steamcommunity/public/images/apps/1141220/5b37f3a4d156bcd288148befc7e3b6b790c25a2d.jpg",
    "icongray": "https://steamcdn-a.akamaihd.net/steamcommunity/public/images/apps/1141220/534fe9ef800ebfd0691ffe42975f0be7f98a882e.jpg"
  },
  {
    "name": "Monster Sweeper 2",
    "defaultvalue": 0,
    "displayName": "Monster Sweeper II",
    "hidden": 0,
    "description": "Kill 100 monsters.",
    "icon": "https://steamcdn-a.akamaihd.net/steamcommunity/public/images/apps/1141220/b6c593d6ec0f53cbaa516c290ad9f5d0033d43f4.jpg",
    "icongray": "https://steamcdn-a.akamaihd.net/steamcommunity/public/images/apps/1141220/32ee2650974e3bee7c1ad08d94f5db58ff1aec81.jpg"
  },
  {
    "name": "Monster Sweeper 3",
    "defaultvalue": 0,
    "displayName": "Monster Sweeper III",
    "hidden": 0,
    "description": "Kill 1000 monsters.",
    "icon": "https://steamcdn-a.akamaihd.net/steamcommunity/public/images/apps/1141220/2f325391043934d649173545678e38c34d4127fa.jpg",
    "icongray": "https://steamcdn-a.akamaihd.net/steamcommunity/public/images/apps/1141220/753472a43cb1b25ce58979b86166c04d4a4fc090.jpg"
  },
  {
    "name": "The Perfect Customer",
    "defaultvalue": 0,
    "displayName": "The Perfect Customer",
    "hidden": 0,
    "description": "Spend 100 coins.",
    "icon": "https://steamcdn-a.akamaihd.net/steamcommunity/public/images/apps/1141220/9c0402f882fe7366022b5953dbbc483ec0349f87.jpg",
    "icongray": "https://steamcdn-a.akamaihd.net/steamcommunity/public/images/apps/1141220/105551cafb70865107fad34867f92572a010a034.jpg"
  },
  {
    "name": "The Perfect Customer 2",
    "defaultvalue": 0,
    "displayName": "The Perfect Customer II",
    "hidden": 0,
    "description": "Spend 1000 coins.",
    "icon": "https://steamcdn-a.akamaihd.net/steamcommunity/public/images/apps/1141220/d69fbff07eee53977bb06d94344f7c441e3cd66a.jpg",
    "icongray": "https://steamcdn-a.akamaihd.net/steamcommunity/public/images/apps/1141220/e51142e9ce2cf422abd8347aa0b098b86698257f.jpg"
  },
  {
    "name": "The Perfect Customer 3",
    "defaultvalue": 0,
    "displayName": "The Perfect Customer III",
    "hidden": 0,
    "description": "Spend 10,000 coins.",
    "icon": "https://steamcdn-a.akamaihd.net/steamcommunity/public/images/apps/1141220/6c0d1a0b2663ab8728be113862f3ebdf60961b07.jpg",
    "icongray": "https://steamcdn-a.akamaihd.net/steamcommunity/public/images/apps/1141220/918d734707c0355928d8b87a5d3ed266fc8f5c82.jpg"
  },
  {
    "name": "Magic Is in the Air",
    "defaultvalue": 0,
    "displayName": "Magic Is in the Air",
    "hidden": 0,
    "description": "Spend 1000 mana.",
    "icon": "https://steamcdn-a.akamaihd.net/steamcommunity/public/images/apps/1141220/54efa5a1c0ade4fbb763e5e9ee0f431d8e94a5cf.jpg",
    "icongray": "https://steamcdn-a.akamaihd.net/steamcommunity/public/images/apps/1141220/bd514a758bc6e3107d8add405e342f41400812fa.jpg"
  },
  {
    "name": "Magic Is in the Air 2",
    "defaultvalue": 0,
    "displayName": "Magic Is in the Air II",
    "hidden": 0,
    "description": "Spend 10,000 mana.",
    "icon": "https://steamcdn-a.akamaihd.net/steamcommunity/public/images/apps/1141220/c1d6526f2092cbe92b7b89c664799957254e7012.jpg",
    "icongray": "https://steamcdn-a.akamaihd.net/steamcommunity/public/images/apps/1141220/ac993098267e4927296e4314c5b6729b593934bf.jpg"
  },
  {
    "name": "Magic Is in the Air 3",
    "defaultvalue": 0,
    "displayName": "Magic Is in the Air III",
    "hidden": 0,
    "description": "Spend 100,000 mana.",
    "icon": "https://steamcdn-a.akamaihd.net/steamcommunity/public/images/apps/1141220/2c431f8b56708603363697850a1125e7e066b1fc.jpg",
    "icongray": "https://steamcdn-a.akamaihd.net/steamcommunity/public/images/apps/1141220/1252f29e291f5e823aff5686854942d0171ba561.jpg"
  },
  {
    "name": "The Bone Zone",
    "defaultvalue": 0,
    "displayName": "The Bone Zone",
    "hidden": 0,
    "description": "Bury 10 Bones.",
    "icon": "https://steamcdn-a.akamaihd.net/steamcommunity/public/images/apps/1141220/782a72e644479e825a2e925777dd6aa34172c34b.jpg",
    "icongray": "https://steamcdn-a.akamaihd.net/steamcommunity/public/images/apps/1141220/c242bdd88ddaec1309d5013c12d4c2150b8c0d31.jpg"
  },
  {
    "name": "The Bone Zone 2",
    "defaultvalue": 0,
    "displayName": "The Bone Zone II",
    "hidden": 0,
    "description": "Bury 100 Bones.",
    "icon": "https://steamcdn-a.akamaihd.net/steamcommunity/public/images/apps/1141220/69863db70d4d9f2da69d1674051599f51f5b65a2.jpg",
    "icongray": "https://steamcdn-a.akamaihd.net/steamcommunity/public/images/apps/1141220/aa5eb48acc698b639494c2de4634c5f487fcd622.jpg"
  },
  {
    "name": "The Bone Zone 3",
    "defaultvalue": 0,
    "displayName": "The Bone Zone III",
    "hidden": 0,
    "description": "Bury 1000 Bones.",
    "icon": "https://steamcdn-a.akamaihd.net/steamcommunity/public/images/apps/1141220/360bbf5b0e41b404a112bb5ec170ff71a31074ad.jpg",
    "icongray": "https://steamcdn-a.akamaihd.net/steamcommunity/public/images/apps/1141220/f1abaec9221df9497e1196c846e7de52e03fbbf4.jpg"
  },
  {
    "name": "Plus Sized Player",
    "defaultvalue": 0,
    "displayName": "Plus-Sized Player",
    "hidden": 0,
    "description": "Consume 100 items.",
    "icon": "https://steamcdn-a.akamaihd.net/steamcommunity/public/images/apps/1141220/28b73ab49b2f91e2f81454a24fcccf1c83ef1a73.jpg",
    "icongray": "https://steamcdn-a.akamaihd.net/steamcommunity/public/images/apps/1141220/8ea2564916a2d1a0ac2fd4a73f46b64a96698fb0.jpg"
  },
  {
    "name": "Plus Sized Player 2",
    "defaultvalue": 0,
    "displayName": "Plus-Sized Player II",
    "hidden": 0,
    "description": "Consume 1000 items.",
    "icon": "https://steamcdn-a.akamaihd.net/steamcommunity/public/images/apps/1141220/f9160ef2123fe58e3e0778b7b3a5626b9e98e5d8.jpg",
    "icongray": "https://steamcdn-a.akamaihd.net/steamcommunity/public/images/apps/1141220/0f66274e15387d45e019cd85cfe88e87ad2e7157.jpg"
  },
  {
    "name": "Plus Sized Player 3",
    "defaultvalue": 0,
    "displayName": "Plus-Sized Player III",
    "hidden": 0,
    "description": "Consume 5000 items.",
    "icon": "https://steamcdn-a.akamaihd.net/steamcommunity/public/images/apps/1141220/b14f7e37bfbe00e5e7548b7f15660ffed8ff0616.jpg",
    "icongray": "https://steamcdn-a.akamaihd.net/steamcommunity/public/images/apps/1141220/e85563de10dbccad04f4bc60cd4a868d81618291.jpg"
  },
  {
    "name": "Become the Legend",
    "defaultvalue": 0,
    "displayName": "Become the Legend",
    "hidden": 0,
    "description": "Gain 10 Legendary items.",
    "icon": "https://steamcdn-a.akamaihd.net/steamcommunity/public/images/apps/1141220/fd2e37fb7e61b7f3e61a30e14568e6ab086167d1.jpg",
    "icongray": "https://steamcdn-a.akamaihd.net/steamcommunity/public/images/apps/1141220/8aff399efc0d00fc65abf118e375ada841cf71f2.jpg"
  },
  {
    "name": "Become the Legend 2",
    "defaultvalue": 0,
    "displayName": "Become the Legend II",
    "hidden": 0,
    "description": "Gain 100 Legendary items.",
    "icon": "https://steamcdn-a.akamaihd.net/steamcommunity/public/images/apps/1141220/6f95b62859d8e4c7f0579a9905885838d4944e28.jpg",
    "icongray": "https://steamcdn-a.akamaihd.net/steamcommunity/public/images/apps/1141220/e26a68feae76dd7afeb72f0992ec26a59174358e.jpg"
  },
  {
    "name": "Become the Legend 3",
    "defaultvalue": 0,
    "displayName": "Become the Legend III",
    "hidden": 0,
    "description": "Gain 1000 Legendary items.",
    "icon": "https://steamcdn-a.akamaihd.net/steamcommunity/public/images/apps/1141220/0bf4ee1b3b11a803ce30fd716b722a2a3a512e34.jpg",
    "icongray": "https://steamcdn-a.akamaihd.net/steamcommunity/public/images/apps/1141220/fa8c224ac871babdc611d27ed63b7bc550527f04.jpg"
  },
  {
    "name": "Mastery Master",
    "defaultvalue": 0,
    "displayName": "Mastery Master",
    "hidden": 0,
    "description": "Activate your mastery ability 100 times.",
    "icon": "https://steamcdn-a.akamaihd.net/steamcommunity/public/images/apps/1141220/889cc9d89ddff8374c3cc845e9ff71d39b7c1943.jpg",
    "icongray": "https://steamcdn-a.akamaihd.net/steamcommunity/public/images/apps/1141220/41ab098e5b29a63a08af5c90a8bbef824a2bf782.jpg"
  },
  {
    "name": "Mastery Master 2",
    "defaultvalue": 0,
    "displayName": "Mastery Master II",
    "hidden": 0,
    "description": "Activate your mastery ability 500 times.",
    "icon": "https://steamcdn-a.akamaihd.net/steamcommunity/public/images/apps/1141220/87986f0c2d56ffc8d37e87d7282b4f13f86d0b55.jpg",
    "icongray": "https://steamcdn-a.akamaihd.net/steamcommunity/public/images/apps/1141220/f3f8b1ded2ea0e03acf94805c3bf215b298b8ca6.jpg"
  },
  {
    "name": "Mastery Master 3",
    "defaultvalue": 0,
    "displayName": "Mastery Master III",
    "hidden": 0,
    "description": "Activate your mastery ability 2000 times.",
    "icon": "https://steamcdn-a.akamaihd.net/steamcommunity/public/images/apps/1141220/e69a023a005f51f307038c54b40149a620544a31.jpg",
    "icongray": "https://steamcdn-a.akamaihd.net/steamcommunity/public/images/apps/1141220/33714076dc0527b747d05addf84d9614f5ae353c.jpg"
  },
  {
    "name": "Hero Complex",
    "defaultvalue": 0,
    "displayName": "Hero Complex",
    "hidden": 0,
    "description": "Complete 5 different Hero Trials.",
    "icon": "https://steamcdn-a.akamaihd.net/steamcommunity/public/images/apps/1141220/6afaa1a2b3616b1710bbfe33cc679e46ef5998a9.jpg",
    "icongray": "https://steamcdn-a.akamaihd.net/steamcommunity/public/images/apps/1141220/1227e20a779a34bcdbbe68b9a93c54a247d78972.jpg"
  },
  {
    "name": "Hero Complex 2",
    "defaultvalue": 0,
    "displayName": "Hero Complex II",
    "hidden": 0,
    "description": "Complete 20 different Hero Trials.",
    "icon": "https://steamcdn-a.akamaihd.net/steamcommunity/public/images/apps/1141220/edf5e3e8b4d8556d962f430fa2d3a0a01e2ddd7a.jpg",
    "icongray": "https://steamcdn-a.akamaihd.net/steamcommunity/public/images/apps/1141220/26dc7911972b631e02ca968423405e710eb46abf.jpg"
  },
  {
    "name": "Hero Complex 3",
    "defaultvalue": 0,
    "displayName": "Hero Complex III",
    "hidden": 0,
    "description": "Complete 50 different Hero Trials.",
    "icon": "https://steamcdn-a.akamaihd.net/steamcommunity/public/images/apps/1141220/9f42f70f66ff61096005ea4a454a664719a71b58.jpg",
    "icongray": "https://steamcdn-a.akamaihd.net/steamcommunity/public/images/apps/1141220/d9b867b55e3aa3c2fdd46819eba9dce0491ebd1b.jpg"
  },
  {
    "name": "Strike While the Iron Is Hot",
    "defaultvalue": 0,
    "displayName": "Strike While the Iron Is Hot",
    "hidden": 0,
    "description": "Craft 10 heirlooms.",
    "icon": "https://steamcdn-a.akamaihd.net/steamcommunity/public/images/apps/1141220/01cddd43f438a2dfe94803c6ea6e5db60a02595c.jpg",
    "icongray": "https://steamcdn-a.akamaihd.net/steamcommunity/public/images/apps/1141220/2f718a8abeed9d021484b55886e9d8c3b161a8bc.jpg"
  },
  {
    "name": "Strike While the Iron Is Hot 2",
    "defaultvalue": 0,
    "displayName": "Strike While the Iron Is Hot II",
    "hidden": 0,
    "description": "Craft 100 heirlooms.",
    "icon": "https://steamcdn-a.akamaihd.net/steamcommunity/public/images/apps/1141220/3850c47b1ffaa99137a7ea489e9da10aa54e695b.jpg",
    "icongray": "https://steamcdn-a.akamaihd.net/steamcommunity/public/images/apps/1141220/b85f851fdc45e555fc3a11b8ffe012e6c9f508d1.jpg"
  },
  {
    "name": "Strike While the Iron Is Hot 3",
    "defaultvalue": 0,
    "displayName": "Strike While the Iron Is Hot III",
    "hidden": 0,
    "description": "Craft 1000 heirlooms.",
    "icon": "https://steamcdn-a.akamaihd.net/steamcommunity/public/images/apps/1141220/067d5de2f89e37db7072f364b113d3f08694bd49.jpg",
    "icongray": "https://steamcdn-a.akamaihd.net/steamcommunity/public/images/apps/1141220/b601797400b256c9325df775aaa840d8c3253d4d.jpg"
  },
  {
    "name": "Professional Ninja",
    "defaultvalue": 0,
    "displayName": "Professional Ninja",
    "hidden": 0,
    "description": "Complete a quest without seeing a single monster.",
    "icon": "https://steamcdn-a.akamaihd.net/steamcommunity/public/images/apps/1141220/d00afada3a4fb2c045d02a175ae1aca70f5566e3.jpg",
    "icongray": "https://steamcdn-a.akamaihd.net/steamcommunity/public/images/apps/1141220/fc0f4e277f20175cbe1cae568223f79f07a7f17a.jpg"
  },
  {
    "name": "DemonRun",
    "defaultvalue": 0,
    "displayName": "DemonRun",
    "hidden": 0,
    "description": "Complete a quest within 10 minutes.",
    "icon": "https://steamcdn-a.akamaihd.net/steamcommunity/public/images/apps/1141220/5ce03481c5921f38525ccd7df2036c4ccc6aa76d.jpg",
    "icongray": "https://steamcdn-a.akamaihd.net/steamcommunity/public/images/apps/1141220/2a551fc5090990e0cdc4a63e13735a803d62ae7d.jpg"
  },
  {
    "name": "Travel Light",
    "defaultvalue": 0,
    "displayName": "Travel Light",
    "hidden": 0,
    "description": "Complete a quest with every inventory slot sealed.",
    "icon": "https://steamcdn-a.akamaihd.net/steamcommunity/public/images/apps/1141220/b36ba391a8205fbd9da4800f86c37ae26735ff0b.jpg",
    "icongray": "https://steamcdn-a.akamaihd.net/steamcommunity/public/images/apps/1141220/34f926bd83d872615f224bcebf99c913cb7d8725.jpg"
  },
  {
    "name": "Aurophobia",
    "defaultvalue": 0,
    "displayName": "Aurophobia",
    "hidden": 0,
    "description": "Complete a quest without gaining a coin.",
    "icon": "https://steamcdn-a.akamaihd.net/steamcommunity/public/images/apps/1141220/9f45b6ad4c544b7550b0363612f7c4fe92405529.jpg",
    "icongray": "https://steamcdn-a.akamaihd.net/steamcommunity/public/images/apps/1141220/d1bea74a91cba4a34515f3a33173dac53adc69ff.jpg"
  },
  {
    "name": "Godhood",
    "defaultvalue": 0,
    "displayName": "Godhood",
    "hidden": 0,
    "description": "Complete a Beyond quest without entering a special stage.",
    "icon": "https://steamcdn-a.akamaihd.net/steamcommunity/public/images/apps/1141220/e43e8c760fadf7e83a57e4992744550fde5a95ac.jpg",
    "icongray": "https://steamcdn-a.akamaihd.net/steamcommunity/public/images/apps/1141220/38055bb0eb26737d88e500de545998754ad45b67.jpg"
  },
  {
    "name": "Gotta Crawl Fast",
    "defaultvalue": 0,
    "displayName": "Gotta Crawl Fast",
    "hidden": 0,
    "description": "Complete a stage within 10 seconds.",
    "icon": "https://steamcdn-a.akamaihd.net/steamcommunity/public/images/apps/1141220/d389f86708e6eb6f3bf3deccb7b9efbc1e46fa87.jpg",
    "icongray": "https://steamcdn-a.akamaihd.net/steamcommunity/public/images/apps/1141220/604c3572a778d7ae4c0ef28ab3f1bdcf18c48013.jpg"
  },
  {
    "name": "Take No Prisoners",
    "defaultvalue": 0,
    "displayName": "Take No Prisoners",
    "hidden": 0,
    "description": "Kill every monster on a stage.",
    "icon": "https://steamcdn-a.akamaihd.net/steamcommunity/public/images/apps/1141220/0e4f42bdea6c66ac0d8de42cc0868a03ffee8ab9.jpg",
    "icongray": "https://steamcdn-a.akamaihd.net/steamcommunity/public/images/apps/1141220/bee8ce64700f302dd89b009455b06cedf9e5b924.jpg"
  },
  {
    "name": "We Got You Surrounded",
    "defaultvalue": 0,
    "displayName": "We Got You Surrounded",
    "hidden": 0,
    "description": "Discover an 8.",
    "icon": "https://steamcdn-a.akamaihd.net/steamcommunity/public/images/apps/1141220/535f4893dae92915949bc91cab3b9f1b765c3a45.jpg",
    "icongray": "https://steamcdn-a.akamaihd.net/steamcommunity/public/images/apps/1141220/a393ef823ec0e75e3fd5c8f01e8a07a99ffc3ad1.jpg"
  },
  {
    "name": "First World Problem",
    "defaultvalue": 0,
    "displayName": "First World Problem",
    "hidden": 0,
    "description": "Open an item chest with a full inventory.",
    "icon": "https://steamcdn-a.akamaihd.net/steamcommunity/public/images/apps/1141220/17e4157ecf30d56d7f2cd22e9a85d93f548131d4.jpg",
    "icongray": "https://steamcdn-a.akamaihd.net/steamcommunity/public/images/apps/1141220/3fc470aad40d2c7181d04b54af69f6128102d445.jpg"
  },
  {
    "name": "Diamond in Disguise",
    "defaultvalue": 0,
    "displayName": "Diamond in Disguise",
    "hidden": 0,
    "description": "Collect a coin that's worth at least 5 coins.",
    "icon": "https://steamcdn-a.akamaihd.net/steamcommunity/public/images/apps/1141220/1d977b2561ceff670690c28db1047dccc40dc6a5.jpg",
    "icongray": "https://steamcdn-a.akamaihd.net/steamcommunity/public/images/apps/1141220/b3812152369f2073e6845a5d108ba9e7f51f50be.jpg"
  },
  {
    "name": "Rainbow Pocket",
    "defaultvalue": 0,
    "displayName": "Rainbow Pocket",
    "hidden": 0,
    "description": "Have at least one of every item type.",
    "icon": "https://steamcdn-a.akamaihd.net/steamcommunity/public/images/apps/1141220/4168735e17e0740726ae93dcee917b473eccb9bc.jpg",
    "icongray": "https://steamcdn-a.akamaihd.net/steamcommunity/public/images/apps/1141220/526e817a4b1457f5b1bdca54de19dc1c072d3600.jpg"
  },
  {
    "name": "Matching Metals",
    "defaultvalue": 0,
    "displayName": "Matching Metals",
    "hidden": 0,
    "description": "Equip a full set of armor from the same set (Bronze, Steel, etc.)",
    "icon": "https://steamcdn-a.akamaihd.net/steamcommunity/public/images/apps/1141220/4aff24b1cb2158f957d1822ad654edb3e59e48e6.jpg",
    "icongray": "https://steamcdn-a.akamaihd.net/steamcommunity/public/images/apps/1141220/b900d3f5c3f774790c7282e75745dd9525ef8f14.jpg"
  },
  {
    "name": "Multimodded",
    "defaultvalue": 0,
    "displayName": "Multimodded",
    "hidden": 0,
    "description": "Complete a stage that has at least 5 stage mods.",
    "icon": "https://steamcdn-a.akamaihd.net/steamcommunity/public/images/apps/1141220/4f106e7fd4e2ef6f6d18134e6bd0baf8d9348b52.jpg",
    "icongray": "https://steamcdn-a.akamaihd.net/steamcommunity/public/images/apps/1141220/711dbff58b239da0b42b0a1a085fed27d7d64d0f.jpg"
  },
  {
    "name": "Everything Must Go",
    "defaultvalue": 0,
    "displayName": "Everything Must Go",
    "hidden": 0,
    "description": "Purchase 5 items from a single Item Shop.",
    "icon": "https://steamcdn-a.akamaihd.net/steamcommunity/public/images/apps/1141220/479934a734a32ea8de9aa5c7d0cbf0c9f6c76661.jpg",
    "icongray": "https://steamcdn-a.akamaihd.net/steamcommunity/public/images/apps/1141220/44bfcb3022915f795bcc945bdf6a263caa036cc7.jpg"
  },
  {
    "name": "Dream of Technicolor",
    "defaultvalue": 0,
    "displayName": "Dream of Technicolor",
    "hidden": 0,
    "description": "Complete a stage that has an aura on every visible cell.",
    "icon": "https://steamcdn-a.akamaihd.net/steamcommunity/public/images/apps/1141220/c1bc928c77ea41b4eb204e8f9cf4261aeed13cd3.jpg",
    "icongray": "https://steamcdn-a.akamaihd.net/steamcommunity/public/images/apps/1141220/2065bc9b2876d6eedbb06e71bf630b9e53afc26f.jpg"
  },
  {
    "name": "Freak Accident",
    "defaultvalue": 0,
    "displayName": "Freak Accident",
    "hidden": 0,
    "description": "Die in a special stage.",
    "icon": "https://steamcdn-a.akamaihd.net/steamcommunity/public/images/apps/1141220/a4d4b1906717348f918d0ce44e47d410b1c79c3c.jpg",
    "icongray": "https://steamcdn-a.akamaihd.net/steamcommunity/public/images/apps/1141220/1d7858e1d5d0a7af06cc8b8883581e895ba32345.jpg"
  },
  {
    "name": "We Need to Go Deeper",
    "defaultvalue": 0,
    "displayName": "We Need to Go Deeper",
    "hidden": 0,
    "description": "Complete a Mystic Statue stage within a Mystic Statue stage within a Mystic Statue stage.",
    "icon": "https://steamcdn-a.akamaihd.net/steamcommunity/public/images/apps/1141220/54500e738e848b58827e97f221378b17033d1f4d.jpg",
    "icongray": "https://steamcdn-a.akamaihd.net/steamcommunity/public/images/apps/1141220/2810758e0f5493b18fe1fec2d6e14264978432bc.jpg"
  },
  {
    "name": "Cardinal Sin",
    "defaultvalue": 0,
    "displayName": "Cardinal Sin",
    "hidden": 0,
    "description": "Destroy a token.",
    "icon": "https://steamcdn-a.akamaihd.net/steamcommunity/public/images/apps/1141220/a778bbb492bf72d90be80cddbc6fa7c04048278c.jpg",
    "icongray": "https://steamcdn-a.akamaihd.net/steamcommunity/public/images/apps/1141220/f163fafb70e78485a4d8f6dc736b45f81b382bc1.jpg"
  },
  {
    "name": "A Legend in the Making",
    "defaultvalue": 0,
    "displayName": "A Legend in the Making",
    "hidden": 0,
    "description": "Create a Legendary heirloom with the help of a Scribe.",
    "icon": "https://steamcdn-a.akamaihd.net/steamcommunity/public/images/apps/1141220/a210ec5fbc540432c81b33b34e9fc2ab057ed6ae.jpg",
    "icongray": "https://steamcdn-a.akamaihd.net/steamcommunity/public/images/apps/1141220/532fb8c5b3b5d322e00fd8142c478f1b744bab16.jpg"
  },
  {
    "name": "Dark Turn of Mind",
    "defaultvalue": 0,
    "displayName": "Dark Turn of Mind",
    "hidden": 0,
    "description": "Collect 20 Dark Hearts in a single stage.",
    "icon": "https://steamcdn-a.akamaihd.net/steamcommunity/public/images/apps/1141220/a111b9ba40f8e85c46d0fd71a7ed6e1e5f6ec30e.jpg",
    "icongray": "https://steamcdn-a.akamaihd.net/steamcommunity/public/images/apps/1141220/3f01d1fd3333496fe9a7bedbb26bf82d5a42ea06.jpg"
  },
  {
    "name": "Infinite Wisdom",
    "defaultvalue": 0,
    "displayName": "Infinite Wisdom",
    "hidden": 0,
    "description": "Unlock all items.",
    "icon": "https://steamcdn-a.akamaihd.net/steamcommunity/public/images/apps/1141220/95c45672503d9862721065e294bd945cac6ead03.jpg",
    "icongray": "https://steamcdn-a.akamaihd.net/steamcommunity/public/images/apps/1141220/c3ebed0c266ad2504ffaa41625428769c4954e5e.jpg"
  },
  {
    "name": "Infinite Schematics",
    "defaultvalue": 0,
    "displayName": "Infinite Schematics",
    "hidden": 0,
    "description": "Unlock all Blueprints.",
    "icon": "https://steamcdn-a.akamaihd.net/steamcommunity/public/images/apps/1141220/02d7248ce9eb547435361b862fff9055dff12781.jpg",
    "icongray": "https://steamcdn-a.akamaihd.net/steamcommunity/public/images/apps/1141220/8d46d210c9baf774ddf1e25953d5f131373f745b.jpg"
  },
  {
    "name": "Infinite Palette",
    "defaultvalue": 0,
    "displayName": "Infinite Palette",
    "hidden": 0,
    "description": "Unlock all Paints.",
    "icon": "https://steamcdn-a.akamaihd.net/steamcommunity/public/images/apps/1141220/0685e9d910fedf2e947e6b98470e69a2a809f7b7.jpg",
    "icongray": "https://steamcdn-a.akamaihd.net/steamcommunity/public/images/apps/1141220/d84f38f60efa1195fd58ed8ffdcc8681af4b174e.jpg"
  },
  {
    "name": "Infinite Devotion",
    "defaultvalue": 0,
    "displayName": "Infinite Devotion",
    "hidden": 0,
    "description": "Unlock all Divine items.",
    "icon": "https://steamcdn-a.akamaihd.net/steamcommunity/public/images/apps/1141220/15fc06d8a4275501778f1165e65d39692fe651bf.jpg",
    "icongray": "https://steamcdn-a.akamaihd.net/steamcommunity/public/images/apps/1141220/98384c16f4af694365e17394318f0c3edb52d0bb.jpg"
  },
  {
    "name": "SURVIVOR 1",
    "defaultvalue": 0,
    "displayName": "Survivor",
    "hidden": 0,
    "description": "Complete a quest on Normal or above with 10 or more lives.",
    "icon": "https://steamcdn-a.akamaihd.net/steamcommunity/public/images/apps/1141220/b38f38d06dab9fd939d72de1f83cd9ddcc74e6a0.jpg",
    "icongray": "https://steamcdn-a.akamaihd.net/steamcommunity/public/images/apps/1141220/48ec27a5c7ae0127ac5859620501d53b43e292ab.jpg"
  },
  {
    "name": "SURVIVOR 2",
    "defaultvalue": 0,
    "displayName": "Survivor II",
    "hidden": 0,
    "description": "Complete a quest on Normal or above with 20 or more lives.",
    "icon": "https://steamcdn-a.akamaihd.net/steamcommunity/public/images/apps/1141220/5b2267d2e8d41b42cc7f0f4a70c3244efa8cb0d0.jpg",
    "icongray": "https://steamcdn-a.akamaihd.net/steamcommunity/public/images/apps/1141220/80ff05d4990d4055590156f9cf132d60cd67df4f.jpg"
  },
  {
    "name": "SURVIVOR 3",
    "defaultvalue": 0,
    "displayName": "Survivor III",
    "hidden": 0,
    "description": "Complete a quest on Normal or above with 30 or more lives.",
    "icon": "https://steamcdn-a.akamaihd.net/steamcommunity/public/images/apps/1141220/9971672ab6a56f49910c84c870ddd1706d0a91fd.jpg",
    "icongray": "https://steamcdn-a.akamaihd.net/steamcommunity/public/images/apps/1141220/66bc13b15b5f68aee59b7175a8fb92f998977417.jpg"
  },
  {
    "name": "GUARDIAN 1",
    "defaultvalue": 0,
    "displayName": "Guardian",
    "hidden": 0,
    "description": "Complete a quest on Normal or above with 5 or more defense.",
    "icon": "https://steamcdn-a.akamaihd.net/steamcommunity/public/images/apps/1141220/149a750a10a102364edffbeaee7f86cf8047696c.jpg",
    "icongray": "https://steamcdn-a.akamaihd.net/steamcommunity/public/images/apps/1141220/3ca4bc242c6aecad3b499d7d85e0c6cb9a82d137.jpg"
  },
  {
    "name": "GUARDIAN 2",
    "defaultvalue": 0,
    "displayName": "Guardian II",
    "hidden": 0,
    "description": "Complete a quest on Normal or above with 10 or more defense.",
    "icon": "https://steamcdn-a.akamaihd.net/steamcommunity/public/images/apps/1141220/4f219fb006f065947e29080408c0a1304c989ffe.jpg",
    "icongray": "https://steamcdn-a.akamaihd.net/steamcommunity/public/images/apps/1141220/178d710f9a01cc0327837126153792b1d47da275.jpg"
  },
  {
    "name": "GUARDIAN 3",
    "defaultvalue": 0,
    "displayName": "Guardian III",
    "hidden": 0,
    "description": "Complete a quest on Normal or above with 15 or more defense.",
    "icon": "https://steamcdn-a.akamaihd.net/steamcommunity/public/images/apps/1141220/95f9969c7d57b10c85490f62b9daaf8c877c1ddd.jpg",
    "icongray": "https://steamcdn-a.akamaihd.net/steamcommunity/public/images/apps/1141220/8328d5514cfaac2947623ca299d7e83bfe834890.jpg"
  },
  {
    "name": "HUNTER 1",
    "defaultvalue": 0,
    "displayName": "Hunter",
    "hidden": 0,
    "description": "Complete a quest on Normal or above with 5 or more Minions.",
    "icon": "https://steamcdn-a.akamaihd.net/steamcommunity/public/images/apps/1141220/3671a0bce3a3344ece6a4fd66fbe31a7d551c0fc.jpg",
    "icongray": "https://steamcdn-a.akamaihd.net/steamcommunity/public/images/apps/1141220/c54f6ddd178ee527aa4b3616d5728b41f79c103e.jpg"
  },
  {
    "name": "HUNTER 2",
    "defaultvalue": 0,
    "displayName": "Hunter II",
    "hidden": 0,
    "description": "Complete a quest on Normal or above with 10 or more Minions.",
    "icon": "https://steamcdn-a.akamaihd.net/steamcommunity/public/images/apps/1141220/3d78a5a626127b2d9d8f7c1357d655b865da71a6.jpg",
    "icongray": "https://steamcdn-a.akamaihd.net/steamcommunity/public/images/apps/1141220/218e23634262b3a0d854652dcb914a3be0918544.jpg"
  },
  {
    "name": "HUNTER 3",
    "defaultvalue": 0,
    "displayName": "Hunter III",
    "hidden": 0,
    "description": "Complete a quest on Normal or above with 15 or more Minions.",
    "icon": "https://steamcdn-a.akamaihd.net/steamcommunity/public/images/apps/1141220/e823a6a496f14c4c18e5993658a937ca56fb5372.jpg",
    "icongray": "https://steamcdn-a.akamaihd.net/steamcommunity/public/images/apps/1141220/d2c17aa2e9dcea17fd6976142d4eeb6e82efc482.jpg"
  },
  {
    "name": "WIZARD 1",
    "defaultvalue": 0,
    "displayName": "Wizard",
    "hidden": 0,
    "description": "Complete a quest on Normal or above with 5 or more magic items.",
    "icon": "https://steamcdn-a.akamaihd.net/steamcommunity/public/images/apps/1141220/e421a5939c29d5197bb28890b6cf4d72b3ac2de6.jpg",
    "icongray": "https://steamcdn-a.akamaihd.net/steamcommunity/public/images/apps/1141220/1c0c58c561ba6ebf3e02479cceb05181c921f187.jpg"
  },
  {
    "name": "WIZARD 2",
    "defaultvalue": 0,
    "displayName": "Wizard II",
    "hidden": 0,
    "description": "Complete a quest on Normal or above with 10 or more magic items.",
    "icon": "https://steamcdn-a.akamaihd.net/steamcommunity/public/images/apps/1141220/bb3f82abc47d1cbce7723311bfb2730eeef4e24b.jpg",
    "icongray": "https://steamcdn-a.akamaihd.net/steamcommunity/public/images/apps/1141220/c7dd808d24af26e7288bf0f095dc23f629877747.jpg"
  },
  {
    "name": "WIZARD 3",
    "defaultvalue": 0,
    "displayName": "Wizard III",
    "hidden": 0,
    "description": "Complete a quest on Normal or above with 11 or more fully-charged magic items.",
    "icon": "https://steamcdn-a.akamaihd.net/steamcommunity/public/images/apps/1141220/8a21ee58c88b324a4045c6eee6b570b825a1e02b.jpg",
    "icongray": "https://steamcdn-a.akamaihd.net/steamcommunity/public/images/apps/1141220/51fc33e7c67a9fbd465fa3af119818505fba7456.jpg"
  },
  {
    "name": "WITCH 1",
    "defaultvalue": 0,
    "displayName": "Witch",
    "hidden": 0,
    "description": "Complete a quest on Normal or above with 5 or more omens.",
    "icon": "https://steamcdn-a.akamaihd.net/steamcommunity/public/images/apps/1141220/29e6790880a69dc452d8428a5c0e608e185f57b7.jpg",
    "icongray": "https://steamcdn-a.akamaihd.net/steamcommunity/public/images/apps/1141220/d44790b6e4d158a6ac17ccce7203c415a9d7d065.jpg"
  },
  {
    "name": "WITCH 2",
    "defaultvalue": 0,
    "displayName": "Witch II",
    "hidden": 0,
    "description": "Complete a quest on Normal or above with 10 or more omens.",
    "icon": "https://steamcdn-a.akamaihd.net/steamcommunity/public/images/apps/1141220/ab5c9434cdef6c75128790bb4e345a7f1e19e8a7.jpg",
    "icongray": "https://steamcdn-a.akamaihd.net/steamcommunity/public/images/apps/1141220/0cadd932d749da3a220f44a672f27449a6ff8542.jpg"
  },
  {
    "name": "WITCH 3",
    "defaultvalue": 0,
    "displayName": "Witch III",
    "hidden": 0,
    "description": "Complete a quest on Normal or above with 15 or more omens.",
    "icon": "https://steamcdn-a.akamaihd.net/steamcommunity/public/images/apps/1141220/9a994deaad594027bdc6e217282c8438e7136a07.jpg",
    "icongray": "https://steamcdn-a.akamaihd.net/steamcommunity/public/images/apps/1141220/02669e6b6d6384196739903d5e026457891078d2.jpg"
  },
  {
    "name": "SPY 1",
    "defaultvalue": 0,
    "displayName": "Spy",
    "hidden": 0,
    "description": "Glean 10 or more cells in a single stage on Normal or above.",
    "icon": "https://steamcdn-a.akamaihd.net/steamcommunity/public/images/apps/1141220/cdee6fc6c4f4b87a99165d6ff23b7f52f8b8ef66.jpg",
    "icongray": "https://steamcdn-a.akamaihd.net/steamcommunity/public/images/apps/1141220/ba32ef71d8b58417baff27936c6a2f7a283ef621.jpg"
  },
  {
    "name": "SPY 2",
    "defaultvalue": 0,
    "displayName": "Spy II",
    "hidden": 0,
    "description": "Glean 50 or more cells in a single stage on Normal or above.",
    "icon": "https://steamcdn-a.akamaihd.net/steamcommunity/public/images/apps/1141220/13c4948fa9f7cbe03612fb25fdb9525a3e94d37d.jpg",
    "icongray": "https://steamcdn-a.akamaihd.net/steamcommunity/public/images/apps/1141220/9eedf6e3a60e41afa0361d6e4c7609ea9612c3b6.jpg"
  },
  {
    "name": "SPY 3",
    "defaultvalue": 0,
    "displayName": "Spy III",
    "hidden": 0,
    "description": "Glean 100 or more cells in a single stage on Normal or above.",
    "icon": "https://steamcdn-a.akamaihd.net/steamcommunity/public/images/apps/1141220/005ed093edd9d159e1c3a10d209c9bfc3f0d489b.jpg",
    "icongray": "https://steamcdn-a.akamaihd.net/steamcommunity/public/images/apps/1141220/9d63e7eb8c0e7c440693633fec7797ae749b29a5.jpg"
  },
  {
    "name": "BARBARIAN 1",
    "defaultvalue": 0,
    "displayName": "Barbarian",
    "hidden": 0,
    "description": "Kill 5 or more strangers in a single quest on Normal or above.",
    "icon": "https://steamcdn-a.akamaihd.net/steamcommunity/public/images/apps/1141220/5bb92eb2b87480984c09ea54e69c2587509298c1.jpg",
    "icongray": "https://steamcdn-a.akamaihd.net/steamcommunity/public/images/apps/1141220/262e817a1deab022f5b83963ed3f74d81e351e81.jpg"
  },
  {
    "name": "BARBARIAN 2",
    "defaultvalue": 0,
    "displayName": "Barbarian II",
    "hidden": 0,
    "description": "Kill 10 or more strangers in a single quest on Normal or above.",
    "icon": "https://steamcdn-a.akamaihd.net/steamcommunity/public/images/apps/1141220/592f6d0fb11205490bffbd35d2b298c3e3b4f8d6.jpg",
    "icongray": "https://steamcdn-a.akamaihd.net/steamcommunity/public/images/apps/1141220/94f90737ebc7c3cedaf49f150c6fb24cc599a0a7.jpg"
  },
  {
    "name": "BARBARIAN 3",
    "defaultvalue": 0,
    "displayName": "Barbarian III",
    "hidden": 0,
    "description": "Kill 30 or more strangers in a single quest on Normal or above.",
    "icon": "https://steamcdn-a.akamaihd.net/steamcommunity/public/images/apps/1141220/22b9d1f9c2b6d0258c236dde11ad4edaabcd8443.jpg",
    "icongray": "https://steamcdn-a.akamaihd.net/steamcommunity/public/images/apps/1141220/ea3fad59b2023554d330818a0f1dfe64d8a34386.jpg"
  },
  {
    "name": "COMMANDER 1",
    "defaultvalue": 0,
    "displayName": "Commander",
    "hidden": 0,
    "description": "Have 10 or more familiars at any time on Normal or above.",
    "icon": "https://steamcdn-a.akamaihd.net/steamcommunity/public/images/apps/1141220/8d3fa1ce8303e72e362fcc7f95cf3c3ec6b57a08.jpg",
    "icongray": "https://steamcdn-a.akamaihd.net/steamcommunity/public/images/apps/1141220/f2dd39cc5d6ce197b2f0b72b7db774c2c9e94ee7.jpg"
  },
  {
    "name": "COMMANDER 2",
    "defaultvalue": 0,
    "displayName": "Commander II",
    "hidden": 0,
    "description": "Have 15 or more familiars at any time on Normal or above.",
    "icon": "https://steamcdn-a.akamaihd.net/steamcommunity/public/images/apps/1141220/54d79adb5479bc0a17cead65b41507e795a0f5c9.jpg",
    "icongray": "https://steamcdn-a.akamaihd.net/steamcommunity/public/images/apps/1141220/93cae82d1510fbcf1d46f939b445d527b9dd1096.jpg"
  },
  {
    "name": "COMMANDER 3",
    "defaultvalue": 0,
    "displayName": "Commander III",
    "hidden": 0,
    "description": "Have 30 or more familiars at any time on Normal or above.",
    "icon": "https://steamcdn-a.akamaihd.net/steamcommunity/public/images/apps/1141220/0e840867616fc823637d4deec362e293a59202d9.jpg",
    "icongray": "https://steamcdn-a.akamaihd.net/steamcommunity/public/images/apps/1141220/64c463b91c361d5978bd6e0e44facfff22044401.jpg"
  },
  {
    "name": "FIREFLY 1",
    "defaultvalue": 0,
    "displayName": "Firefly",
    "hidden": 0,
    "description": "Have 10 or more flares at any time on Normal or above.",
    "icon": "https://steamcdn-a.akamaihd.net/steamcommunity/public/images/apps/1141220/b37de908e6cc8fa24e334ded9a4e4c8a7ef70a96.jpg",
    "icongray": "https://steamcdn-a.akamaihd.net/steamcommunity/public/images/apps/1141220/04099d8ec92f9597542e5c876447def9a006fb59.jpg"
  },
  {
    "name": "FIREFLY 2",
    "defaultvalue": 0,
    "displayName": "Firefly II",
    "hidden": 0,
    "description": "Have 20 or more flares at any time on Normal or above.",
    "icon": "https://steamcdn-a.akamaihd.net/steamcommunity/public/images/apps/1141220/1477a11f48f93cbc73332e9365b6160d705936cd.jpg",
    "icongray": "https://steamcdn-a.akamaihd.net/steamcommunity/public/images/apps/1141220/c3977dfc883c84af684563e4300ab5a0a25ae014.jpg"
  },
  {
    "name": "FIREFLY 3",
    "defaultvalue": 0,
    "displayName": "Firefly III",
    "hidden": 0,
    "description": "Have 30 or more flares at any time on Normal or above.",
    "icon": "https://steamcdn-a.akamaihd.net/steamcommunity/public/images/apps/1141220/1012234807321eb5814d78797e1c64d3a41de71f.jpg",
    "icongray": "https://steamcdn-a.akamaihd.net/steamcommunity/public/images/apps/1141220/5036df29dc0c919ef76aa2a8fdb84fc2d86f691f.jpg"
  },
  {
    "name": "SNOWFLAKE 1",
    "defaultvalue": 0,
    "displayName": "Snowflake",
    "hidden": 0,
    "description": "Complete a stage that has 15 or more frozen cells on Normal or above.",
    "icon": "https://steamcdn-a.akamaihd.net/steamcommunity/public/images/apps/1141220/bfd311a28b35b59ae21eb38c27b52fece09da86f.jpg",
    "icongray": "https://steamcdn-a.akamaihd.net/steamcommunity/public/images/apps/1141220/b2d2c89c74f986775a0418e6e941086ca377764a.jpg"
  },
  {
    "name": "SNOWFLAKE 2",
    "defaultvalue": 0,
    "displayName": "Snowflake II",
    "hidden": 0,
    "description": "Complete a stage that has 30 or more frozen cells on Normal or above.",
    "icon": "https://steamcdn-a.akamaihd.net/steamcommunity/public/images/apps/1141220/bcb26f7b71a37945d6bf0a514e673254409eab51.jpg",
    "icongray": "https://steamcdn-a.akamaihd.net/steamcommunity/public/images/apps/1141220/7eb06013aa407ee3c207a5885cb3145f509a653e.jpg"
  },
  {
    "name": "SNOWFLAKE 3",
    "defaultvalue": 0,
    "displayName": "Snowflake III",
    "hidden": 0,
    "description": "Complete a stage that has 50 or more frozen cells on Normal or above.",
    "icon": "https://steamcdn-a.akamaihd.net/steamcommunity/public/images/apps/1141220/13b495da8ddca4dfdd2e030046690f4f5233662f.jpg",
    "icongray": "https://steamcdn-a.akamaihd.net/steamcommunity/public/images/apps/1141220/64b26dc6281c19c53ee19b31d2b9736ee074ebca.jpg"
  },
  {
    "name": "SCHOLAR 1",
    "defaultvalue": 0,
    "displayName": "Scholar",
    "hidden": 0,
    "description": "Complete a quest on Normal or above with 3 or more status effects.",
    "icon": "https://steamcdn-a.akamaihd.net/steamcommunity/public/images/apps/1141220/19b0f2e8c88314a57d19e0159a8a5e6218032690.jpg",
    "icongray": "https://steamcdn-a.akamaihd.net/steamcommunity/public/images/apps/1141220/a01c827d485757f6adb49ce885088b7d96037b61.jpg"
  },
  {
    "name": "SCHOLAR 2",
    "defaultvalue": 0,
    "displayName": "Scholar II",
    "hidden": 0,
    "description": "Complete a quest on Normal or above with 5 or more status effects.",
    "icon": "https://steamcdn-a.akamaihd.net/steamcommunity/public/images/apps/1141220/1f6a6f9f87aee6a59320ab13f66a64b4337fa8ec.jpg",
    "icongray": "https://steamcdn-a.akamaihd.net/steamcommunity/public/images/apps/1141220/cb01122e10c019417901479f44dc26cd8efa05cc.jpg"
  },
  {
    "name": "SCHOLAR 3",
    "defaultvalue": 0,
    "displayName": "Scholar III",
    "hidden": 0,
    "description": "Complete a quest on Normal or above with 7 or more status effects.",
    "icon": "https://steamcdn-a.akamaihd.net/steamcommunity/public/images/apps/1141220/881e1590edf076f675b279daad3f72c4b2cce863.jpg",
    "icongray": "https://steamcdn-a.akamaihd.net/steamcommunity/public/images/apps/1141220/f03fe05b5a1b3db5a69ec22b5f3abef2dc2e1a28.jpg"
  },
  {
    "name": "BANKER 1",
    "defaultvalue": 0,
    "displayName": "Banker",
    "hidden": 0,
    "description": "Complete a quest on Normal or above with 100 or more coins.",
    "icon": "https://steamcdn-a.akamaihd.net/steamcommunity/public/images/apps/1141220/0f71757c9612b10f1d9c2d165fb00ffb81cb401b.jpg",
    "icongray": "https://steamcdn-a.akamaihd.net/steamcommunity/public/images/apps/1141220/05dfb18d02d96cebf55cac689d8376ca0f22f579.jpg"
  },
  {
    "name": "BANKER 2",
    "defaultvalue": 0,
    "displayName": "Banker II",
    "hidden": 0,
    "description": "Complete a quest on Normal or above with 200 or more coins.",
    "icon": "https://steamcdn-a.akamaihd.net/steamcommunity/public/images/apps/1141220/780338db319c2e5731bae247851f2fbde838f982.jpg",
    "icongray": "https://steamcdn-a.akamaihd.net/steamcommunity/public/images/apps/1141220/88cf5eae82760b9e30b0a3eb7263bf4eb4ad1dc9.jpg"
  },
  {
    "name": "BANKER 3",
    "defaultvalue": 0,
    "displayName": "Banker III",
    "hidden": 0,
    "description": "Complete a quest on Normal or above with 300 or more coins.",
    "icon": "https://steamcdn-a.akamaihd.net/steamcommunity/public/images/apps/1141220/4241835072481f4b07352ec17470ee999554f4ef.jpg",
    "icongray": "https://steamcdn-a.akamaihd.net/steamcommunity/public/images/apps/1141220/c59897cc60756a8d4235cd7bc47c4e157a8c4f04.jpg"
  },
  {
    "name": "EXORCIST 1",
    "defaultvalue": 0,
    "displayName": "Exorcist",
    "hidden": 0,
    "description": "Complete a quest on Normal or above with no omens.",
    "icon": "https://steamcdn-a.akamaihd.net/steamcommunity/public/images/apps/1141220/9eebd5c3310d5b3dd04f4361126e2405a367a782.jpg",
    "icongray": "https://steamcdn-a.akamaihd.net/steamcommunity/public/images/apps/1141220/a24b3721f05f39b141e6bb61191367eeda3f784c.jpg"
  },
  {
    "name": "EXORCIST 2",
    "defaultvalue": 0,
    "displayName": "Exorcist II",
    "hidden": 0,
    "description": "Complete a Hard quest with no omens.",
    "icon": "https://steamcdn-a.akamaihd.net/steamcommunity/public/images/apps/1141220/15e5aff24df1aee898e9e3f8cc3a6cea145911ee.jpg",
    "icongray": "https://steamcdn-a.akamaihd.net/steamcommunity/public/images/apps/1141220/01ab5583aec05ef6a26b6714428981e3d9c3eefd.jpg"
  },
  {
    "name": "EXORCIST 3",
    "defaultvalue": 0,
    "displayName": "Exorcist III",
    "hidden": 0,
    "description": "Complete a Hard quest with no items.",
    "icon": "https://steamcdn-a.akamaihd.net/steamcommunity/public/images/apps/1141220/dbb2b8ca4ac09299917b213b18bd67d606680dea.jpg",
    "icongray": "https://steamcdn-a.akamaihd.net/steamcommunity/public/images/apps/1141220/d43fbda83b52a7744dda0887102e29e09828bc4b.jpg"
  },
  {
    "name": "IMMORTAL 1",
    "defaultvalue": 0,
    "displayName": "Immortal",
    "hidden": 0,
    "description": "Complete a quest on Normal or above with 2 or more revives.",
    "icon": "https://steamcdn-a.akamaihd.net/steamcommunity/public/images/apps/1141220/60c4fc13390ae0aabcc383c45e9dee23c2ffc625.jpg",
    "icongray": "https://steamcdn-a.akamaihd.net/steamcommunity/public/images/apps/1141220/b83bf3b450acdc5c69eef3a525771932ef3dbad6.jpg"
  },
  {
    "name": "IMMORTAL 2",
    "defaultvalue": 0,
    "displayName": "Immortal II",
    "hidden": 0,
    "description": "Complete a quest on Normal or above with 3 or more revives.",
    "icon": "https://steamcdn-a.akamaihd.net/steamcommunity/public/images/apps/1141220/e29debf4690ed43d5301a7711fcf230ea550ae9f.jpg",
    "icongray": "https://steamcdn-a.akamaihd.net/steamcommunity/public/images/apps/1141220/ec72b8bc3a7ac86870e1a2fc2683d1a62f2823f8.jpg"
  },
  {
    "name": "IMMORTAL 3",
    "defaultvalue": 0,
    "displayName": "Immortal III",
    "hidden": 0,
    "description": "Complete a quest on Normal or above with 4 or more revives.",
    "icon": "https://steamcdn-a.akamaihd.net/steamcommunity/public/images/apps/1141220/5e90f5fee9a6238fa49aa9d40593bfda2cdb849e.jpg",
    "icongray": "https://steamcdn-a.akamaihd.net/steamcommunity/public/images/apps/1141220/a06a94b78effb541e7173bca375d415fb46185d3.jpg"
  },
  {
    "name": "PROPHET 1",
    "defaultvalue": 0,
    "displayName": "Prophet",
    "hidden": 0,
    "description": "Complete a quest on Normal or above with 1000 or more points.",
    "icon": "https://steamcdn-a.akamaihd.net/steamcommunity/public/images/apps/1141220/b057b96bb0787637e74ed229da7dc8f944e7b1f5.jpg",
    "icongray": "https://steamcdn-a.akamaihd.net/steamcommunity/public/images/apps/1141220/98b2576b28e98fd4a5dc50b14bd46b6bd2ea05eb.jpg"
  },
  {
    "name": "PROPHET 2",
    "defaultvalue": 0,
    "displayName": "Prophet II",
    "hidden": 0,
    "description": "Complete a quest on Normal or above with 2000 or more points.",
    "icon": "https://steamcdn-a.akamaihd.net/steamcommunity/public/images/apps/1141220/4e17eebab1d6b7f0517540a128fd0f0839bb0200.jpg",
    "icongray": "https://steamcdn-a.akamaihd.net/steamcommunity/public/images/apps/1141220/72be9b7fc51310c081b1c5f99075210e2aecc126.jpg"
  },
  {
    "name": "PROPHET 3",
    "defaultvalue": 0,
    "displayName": "Prophet III",
    "hidden": 0,
    "description": "Complete a quest on Normal or above with 3000 or more points.",
    "icon": "https://steamcdn-a.akamaihd.net/steamcommunity/public/images/apps/1141220/5637211c56a9bd2949082dd0ab30c248829a29f8.jpg",
    "icongray": "https://steamcdn-a.akamaihd.net/steamcommunity/public/images/apps/1141220/0169ede2d7fe64837e6dc7514fe290d831680a38.jpg"
  },
  {
    "name": "Let the Games Begin",
    "defaultvalue": 0,
    "displayName": "Let the Games Begin",
    "hidden": 1,
    "icon": "https://steamcdn-a.akamaihd.net/steamcommunity/public/images/apps/1141220/54177c46578ca067cd925ec48f923932ef1699f9.jpg",
    "icongray": "https://steamcdn-a.akamaihd.net/steamcommunity/public/images/apps/1141220/045f6a732acde14c275d266473d0ddf6f704c2d4.jpg"
  },
  {
    "name": "Beyond Life and Death",
    "defaultvalue": 0,
    "displayName": "Beyond Life and Death",
    "hidden": 1,
    "icon": "https://steamcdn-a.akamaihd.net/steamcommunity/public/images/apps/1141220/4df998ada96d792986ee2fa3479faed10f5b70c5.jpg",
    "icongray": "https://steamcdn-a.akamaihd.net/steamcommunity/public/images/apps/1141220/9916e019e75d62b87c85cf71f44756faa47a1f58.jpg"
  },
  {
    "name": "When Worlds Collide",
    "defaultvalue": 0,
    "displayName": "When Worlds Collide",
    "hidden": 1,
    "icon": "https://steamcdn-a.akamaihd.net/steamcommunity/public/images/apps/1141220/c676d2ccd8ec64a86103b31e8d78415d3353c668.jpg",
    "icongray": "https://steamcdn-a.akamaihd.net/steamcommunity/public/images/apps/1141220/ff89f264faaff894d92cf4b579aed5cc134a27ae.jpg"
  },
  {
    "name": "The First Rule of Prestige Club",
    "defaultvalue": 0,
    "displayName": "The First Rule of Prestige Club",
    "hidden": 1,
    "icon": "https://steamcdn-a.akamaihd.net/steamcommunity/public/images/apps/1141220/f123e426ea0b33d164aa9bcb823f24c3a8dc18a4.jpg",
    "icongray": "https://steamcdn-a.akamaihd.net/steamcommunity/public/images/apps/1141220/ec36c3fb0c43bf066cbb33a75972ab46aac35869.jpg"
  },
  {
    "name": "BUBBLER 1",
    "defaultvalue": 0,
    "displayName": "Bubbler",
    "hidden": 0,
    "description": "Complete a quest in Normal or above with 10 or more bubbles.",
    "icon": "https://steamcdn-a.akamaihd.net/steamcommunity/public/images/apps/1141220/d3fb9e72662f9666f87f33aac9ec672b5adb5151.jpg",
    "icongray": "https://steamcdn-a.akamaihd.net/steamcommunity/public/images/apps/1141220/a6e543505c42112ffce681390907dc7f8088759a.jpg"
  },
  {
    "name": "BUBBLER 2",
    "defaultvalue": 0,
    "displayName": "Bubbler II",
    "hidden": 0,
    "description": "Complete a quest in Normal or above with 20 or more bubbles.",
    "icon": "https://steamcdn-a.akamaihd.net/steamcommunity/public/images/apps/1141220/9435a11da03dbc12bd9ec08d1a971749cf404fc6.jpg",
    "icongray": "https://steamcdn-a.akamaihd.net/steamcommunity/public/images/apps/1141220/189aad4150ed6eb6511c64e077d66e6c9dee1a6b.jpg"
  },
  {
    "name": "BUBBLER 3",
    "defaultvalue": 0,
    "displayName": "Bubbler III",
    "hidden": 0,
    "description": "Complete a quest in Normal or above with 30 or more bubbles.",
    "icon": "https://steamcdn-a.akamaihd.net/steamcommunity/public/images/apps/1141220/589e32ef0928cb6e09afd805de2abc543d52f797.jpg",
    "icongray": "https://steamcdn-a.akamaihd.net/steamcommunity/public/images/apps/1141220/4e27e8216a6b85e9902154d81d7ccbb6b68dcbf0.jpg"
  },
  {
    "name": "LUMBERJACK 1",
    "defaultvalue": 0,
    "displayName": "Lumberjack",
    "hidden": 0,
    "description": "Explode 3 sawblades in a quest on Normal or above.",
    "icon": "https://steamcdn-a.akamaihd.net/steamcommunity/public/images/apps/1141220/7364e07366444abf4cbb8013cbdb5d631fcd082c.jpg",
    "icongray": "https://steamcdn-a.akamaihd.net/steamcommunity/public/images/apps/1141220/ee8066c168012df4da4f2b4d36191d5160d81ec1.jpg"
  },
  {
    "name": "LUMBERJACK 2",
    "defaultvalue": 0,
    "displayName": "Lumberjack II",
    "hidden": 0,
    "description": "Explode 10 sawblades in a quest on Normal or above.",
    "icon": "https://steamcdn-a.akamaihd.net/steamcommunity/public/images/apps/1141220/8e82ae132b4132c7a8173e6f4f84eef8c4b6fb20.jpg",
    "icongray": "https://steamcdn-a.akamaihd.net/steamcommunity/public/images/apps/1141220/4ef02a1f37d745a829dc3a6bc437c1b34c5e0993.jpg"
  },
  {
    "name": "LUMBERJACK 3",
    "defaultvalue": 0,
    "displayName": "Lumberjack III",
    "hidden": 0,
    "description": "Explode 20 sawblades in a quest on Normal or above.",
    "icon": "https://steamcdn-a.akamaihd.net/steamcommunity/public/images/apps/1141220/cc14f4db49f51a6c5d31b5cc098282e8f940d877.jpg",
    "icongray": "https://steamcdn-a.akamaihd.net/steamcommunity/public/images/apps/1141220/cbba90651c2f1d76ad1724cd87369f65824b87ec.jpg"
  },
  {
    "name": "MARKSMAN 1",
    "defaultvalue": 0,
    "displayName": "Marksman",
    "hidden": 0,
    "description": "Create a 15-turn chain on Normal or above.",
    "icon": "https://steamcdn-a.akamaihd.net/steamcommunity/public/images/apps/1141220/ac2b31d960aa6da6bdca721b430330371751139c.jpg",
    "icongray": "https://steamcdn-a.akamaihd.net/steamcommunity/public/images/apps/1141220/578047e9fcd7d3a9c048e2ed559527e420774ceb.jpg"
  },
  {
    "name": "MARKSMAN 2",
    "defaultvalue": 0,
    "displayName": "Marksman II",
    "hidden": 0,
    "description": "Create a 30-turn chain on Normal or above.",
    "icon": "https://steamcdn-a.akamaihd.net/steamcommunity/public/images/apps/1141220/de7b49f37f19854cc1120fb1038e85fb3dbafd6d.jpg",
    "icongray": "https://steamcdn-a.akamaihd.net/steamcommunity/public/images/apps/1141220/c4212249815597ef30824fe3df1944ae254703ce.jpg"
  },
  {
    "name": "MARKSMAN 3",
    "defaultvalue": 0,
    "displayName": "Marksman III",
    "hidden": 0,
    "description": "Create a 50-turn chain on Normal or above.",
    "icon": "https://steamcdn-a.akamaihd.net/steamcommunity/public/images/apps/1141220/c131b1c0e425cbb03522ff2135a13d7034ce857b.jpg",
    "icongray": "https://steamcdn-a.akamaihd.net/steamcommunity/public/images/apps/1141220/7155076675cb1f6a5a5acfeea00a944be5f670a9.jpg"
  },
  {
    "name": "PROTAGONIST 1",
    "defaultvalue": 0,
    "displayName": "Protagonist",
    "hidden": 0,
    "description": "Complete a quest on Normal or above with 2 or more legendary items.",
    "icon": "https://steamcdn-a.akamaihd.net/steamcommunity/public/images/apps/1141220/205cd7495723a39b2f064076ba3d1a4a4fcee700.jpg",
    "icongray": "https://steamcdn-a.akamaihd.net/steamcommunity/public/images/apps/1141220/bf6bb23b3354e5915dd0f47c38ec6c1be9bae618.jpg"
  },
  {
    "name": "PROTAGONIST 2",
    "defaultvalue": 0,
    "displayName": "Protagonist II",
    "hidden": 0,
    "description": "Complete a quest on Normal or above with 3 or more legendary items.",
    "icon": "https://steamcdn-a.akamaihd.net/steamcommunity/public/images/apps/1141220/0c4ad30be252bc4d0b3b2a1f3f418dd852ebc8a7.jpg",
    "icongray": "https://steamcdn-a.akamaihd.net/steamcommunity/public/images/apps/1141220/d08e76556f5664cd56da2fad82bb3643c039aad1.jpg"
  },
  {
    "name": "PROTAGONIST 3",
    "defaultvalue": 0,
    "displayName": "Protagonist III",
    "hidden": 0,
    "description": "Complete a quest on Normal or above with 4 or more legendary items.",
    "icon": "https://steamcdn-a.akamaihd.net/steamcommunity/public/images/apps/1141220/239e309fbc253b14b4dc32f336c88c5ada95d8d5.jpg",
    "icongray": "https://steamcdn-a.akamaihd.net/steamcommunity/public/images/apps/1141220/40ff60aba8161e596a56df8b2391504c1edc268e.jpg"
  },
  {
    "name": "SPARK 1",
    "defaultvalue": 0,
    "displayName": "Spark",
    "hidden": 0,
    "description": "Complete a stage in Normal or above with 15 or more Electric cells.",
    "icon": "https://steamcdn-a.akamaihd.net/steamcommunity/public/images/apps/1141220/8c69b0fd53619cb8a696ccd66206da218646de3d.jpg",
    "icongray": "https://steamcdn-a.akamaihd.net/steamcommunity/public/images/apps/1141220/01dc623537e6c0b8013c42afdc752a0c3d368031.jpg"
  },
  {
    "name": "SPARK 2",
    "defaultvalue": 0,
    "displayName": "Spark II",
    "hidden": 0,
    "description": "Complete a stage in Normal or above with 30 or more Electric cells.",
    "icon": "https://steamcdn-a.akamaihd.net/steamcommunity/public/images/apps/1141220/a06135b46784b951ba5cb3db9ef4319d26ce950e.jpg",
    "icongray": "https://steamcdn-a.akamaihd.net/steamcommunity/public/images/apps/1141220/460fc7af492b20054afe8f9739b1590614dfa648.jpg"
  },
  {
    "name": "SPARK 3",
    "defaultvalue": 0,
    "displayName": "Spark III",
    "hidden": 0,
    "description": "Complete a stage in Normal or above with 50 or more Electric cells.",
    "icon": "https://steamcdn-a.akamaihd.net/steamcommunity/public/images/apps/1141220/0d4e04116328f074fcba55c653e90cfdbd3fd9b8.jpg",
    "icongray": "https://steamcdn-a.akamaihd.net/steamcommunity/public/images/apps/1141220/10ce8ccd3d8fe2ed9c1a0378ae064f9738f0536f.jpg"
  },
  {
    "name": "UNDERTAKER 1",
    "defaultvalue": 0,
    "displayName": "Undertaker",
    "hidden": 0,
    "description": "Bury 10 Bones in a quest on Normal or above.",
    "icon": "https://steamcdn-a.akamaihd.net/steamcommunity/public/images/apps/1141220/c9297106793c242af904f9f8cd4fd552c2542db0.jpg",
    "icongray": "https://steamcdn-a.akamaihd.net/steamcommunity/public/images/apps/1141220/2cd9db82334d69abff29f8120b701681c39ac658.jpg"
  },
  {
    "name": "UNDERTAKER 2",
    "defaultvalue": 0,
    "displayName": "Undertaker II",
    "hidden": 0,
    "description": "Bury 20 Bones in a quest on Normal or above.",
    "icon": "https://steamcdn-a.akamaihd.net/steamcommunity/public/images/apps/1141220/d5b24cf88d6dc7641ed06a7f6335833a7a74ed08.jpg",
    "icongray": "https://steamcdn-a.akamaihd.net/steamcommunity/public/images/apps/1141220/58e6aa41a8c6392589fbbe27931aac3d6c6e5c5e.jpg"
  },
  {
    "name": "UNDERTAKER 3",
    "defaultvalue": 0,
    "displayName": "Undertaker III",
    "hidden": 0,
    "description": "Bury 30 Bones in a quest on Normal or above.",
    "icon": "https://steamcdn-a.akamaihd.net/steamcommunity/public/images/apps/1141220/9a5d95b6943e9c9a3e78231024e538ecc08b1344.jpg",
    "icongray": "https://steamcdn-a.akamaihd.net/steamcommunity/public/images/apps/1141220/e2d036b4110345f4f728bcd612a9aee50ac1eb51.jpg"
  },
  {
    "name": "KNIGHT 1",
    "defaultvalue": 0,
    "displayName": "Knight",
    "hidden": 0,
    "description": "Complete a quest on Normal or above with 20 or more combined armor durability.",
    "icon": "https://steamcdn-a.akamaihd.net/steamcommunity/public/images/apps/1141220/3e2ba138f129c0b52af578735b539a3c5bb6cd0d.jpg",
    "icongray": "https://steamcdn-a.akamaihd.net/steamcommunity/public/images/apps/1141220/b66ffa5d158bfc9671287904faba61508c769931.jpg"
  },
  {
    "name": "KNIGHT 2",
    "defaultvalue": 0,
    "displayName": "Knight II",
    "hidden": 0,
    "description": "Complete a quest on Normal or above with 50 or more combined armor durability.",
    "icon": "https://steamcdn-a.akamaihd.net/steamcommunity/public/images/apps/1141220/db90c260eb63ede69ab095dc3aac1f9fb8e5532b.jpg",
    "icongray": "https://steamcdn-a.akamaihd.net/steamcommunity/public/images/apps/1141220/a43821c52d826e8b24aa2a890c97ff767033536f.jpg"
  },
  {
    "name": "KNIGHT 3",
    "defaultvalue": 0,
    "displayName": "Knight III",
    "hidden": 0,
    "description": "Complete a quest on Normal or above with 100 or more combined armor durability.",
    "icon": "https://steamcdn-a.akamaihd.net/steamcommunity/public/images/apps/1141220/e7e337ffb81e1a1d1773cee46cde2f59def07448.jpg",
    "icongray": "https://steamcdn-a.akamaihd.net/steamcommunity/public/images/apps/1141220/4908961b6cdff6b6490b77782b33747918866017.jpg"
  },
  {
    "name": "DEMOLITIONIST 1",
    "defaultvalue": 0,
    "displayName": "Demolitionist",
    "hidden": 0,
    "description": "Explode 100 cells in a quest on Normal or above.",
    "icon": "https://steamcdn-a.akamaihd.net/steamcommunity/public/images/apps/1141220/2c06f93b624f11c7ee82822cf1d1aeb7b62d159a.jpg",
    "icongray": "https://steamcdn-a.akamaihd.net/steamcommunity/public/images/apps/1141220/090eaf0e261f3631204208ec14461886f36f98b4.jpg"
  },
  {
    "name": "DEMOLITIONIST 2",
    "defaultvalue": 0,
    "displayName": "Demolitionist II",
    "hidden": 0,
    "description": "Explode 400 cells in a quest on Normal or above.",
    "icon": "https://steamcdn-a.akamaihd.net/steamcommunity/public/images/apps/1141220/12b700b40e1a186c9c2113d514a2a70aa3126666.jpg",
    "icongray": "https://steamcdn-a.akamaihd.net/steamcommunity/public/images/apps/1141220/b3450079352f5efabac591bb1288b7e8b17e5a8c.jpg"
  },
  {
    "name": "DEMOLITIONIST 3",
    "defaultvalue": 0,
    "displayName": "Demolitionist III",
    "hidden": 0,
    "description": "Explode 1000 cells in a quest on Normal or above.",
    "icon": "https://steamcdn-a.akamaihd.net/steamcommunity/public/images/apps/1141220/f1dfb36d45d4fe56077ca118098b5451d5d47c33.jpg",
    "icongray": "https://steamcdn-a.akamaihd.net/steamcommunity/public/images/apps/1141220/0622425cf110bec8cc68235267f9cfd9a568d408.jpg"
  },
  {
    "name": "You Are the Danger",
    "defaultvalue": 0,
    "displayName": "You Are the Danger",
    "hidden": 0,
    "description": "Kill 10 bosses.",
    "icon": "https://steamcdn-a.akamaihd.net/steamcommunity/public/images/apps/1141220/671db76bb22bbd04e36f95c223cbf8798c7c53f9.jpg",
    "icongray": "https://steamcdn-a.akamaihd.net/steamcommunity/public/images/apps/1141220/99aea15f4e5cd3b4b3ae7bb1836ad84a9f7c94eb.jpg"
  },
  {
    "name": "You Are the Danger 2",
    "defaultvalue": 0,
    "displayName": "You Are the Danger II",
    "hidden": 0,
    "description": "Kill 100 bosses.",
    "icon": "https://steamcdn-a.akamaihd.net/steamcommunity/public/images/apps/1141220/4ca8eb0d72a40c941667c6bd8f35d43dc1789625.jpg",
    "icongray": "https://steamcdn-a.akamaihd.net/steamcommunity/public/images/apps/1141220/f66cd760c194444c8d6e5873dd5f6a1a612c7084.jpg"
  },
  {
    "name": "You Are the Danger 3",
    "defaultvalue": 0,
    "displayName": "You Are the Danger III",
    "hidden": 0,
    "description": "Kill 1000 bosses.",
    "icon": "https://steamcdn-a.akamaihd.net/steamcommunity/public/images/apps/1141220/a61514d0b56e579e6ec69f935fa0dc0f485b4e9a.jpg",
    "icongray": "https://steamcdn-a.akamaihd.net/steamcommunity/public/images/apps/1141220/98cbf983913820842c2e513c1457ce314d1ed7c4.jpg"
  },
  {
    "name": "Never Lucky",
    "defaultvalue": 0,
    "displayName": "Never Lucky",
    "hidden": 0,
    "description": "Lose to a guess, 10 times.",
    "icon": "https://steamcdn-a.akamaihd.net/steamcommunity/public/images/apps/1141220/c81ed08537623be0ef664fcd86bbffd056e98a5d.jpg",
    "icongray": "https://steamcdn-a.akamaihd.net/steamcommunity/public/images/apps/1141220/a78cfded31de625a6030479c2674afd2ba53abf3.jpg"
  },
  {
    "name": "Never Lucky 2",
    "defaultvalue": 0,
    "displayName": "Never Lucky II",
    "hidden": 0,
    "description": "Lose to a guess, 100 times.",
    "icon": "https://steamcdn-a.akamaihd.net/steamcommunity/public/images/apps/1141220/889372be7640b8c30e25cb833ecf6eea9577ab22.jpg",
    "icongray": "https://steamcdn-a.akamaihd.net/steamcommunity/public/images/apps/1141220/3815ee8218d6371c10792e882ef69882900caf89.jpg"
  },
  {
    "name": "Never Lucky 3",
    "defaultvalue": 0,
    "displayName": "Never Lucky III",
    "hidden": 0,
    "description": "Lose to a guess, 1000 times.",
    "icon": "https://steamcdn-a.akamaihd.net/steamcommunity/public/images/apps/1141220/c1ade354de5bfef252c9041f6b7a6a1d5d062fc1.jpg",
    "icongray": "https://steamcdn-a.akamaihd.net/steamcommunity/public/images/apps/1141220/a6e60565ade7cd49215a53ebbff337ddd4d83924.jpg"
  },
  {
    "name": "Prepper",
    "defaultvalue": 0,
    "displayName": "Prepper",
    "hidden": 0,
    "description": "Arrive to an Endless Multiverse dimension with at least 10 lives, 10 defense, and 50 coins.",
    "icon": "https://steamcdn-a.akamaihd.net/steamcommunity/public/images/apps/1141220/b26d6396c8eeac7d69a0ab3a5a59c7e3b1664e40.jpg",
    "icongray": "https://steamcdn-a.akamaihd.net/steamcommunity/public/images/apps/1141220/383f4146534c62ddda43a51ff34ebed72571c959.jpg"
  },
  {
    "name": "Punching Bag Simulator",
    "defaultvalue": 0,
    "displayName": "Punching Bag Simulator",
    "hidden": 0,
    "description": "Survive 3 consecutive blows from one monster.",
    "icon": "https://steamcdn-a.akamaihd.net/steamcommunity/public/images/apps/1141220/0c6e5f81c19f7e44416a01a3f1667c9e0ef25146.jpg",
    "icongray": "https://steamcdn-a.akamaihd.net/steamcommunity/public/images/apps/1141220/fc115665a3b0d6fd5cf7f746ecb5934bb4ba7330.jpg"
  },
  {
    "name": "Full Metal Straitjacket",
    "defaultvalue": 0,
    "displayName": "Full Metal Straitjacket",
    "hidden": 0,
    "description": "Fortify any armor to 100 durability or greater.",
    "icon": "https://steamcdn-a.akamaihd.net/steamcommunity/public/images/apps/1141220/2e5f081bb3ebe1fb29e977b1cd56dd45ed347603.jpg",
    "icongray": "https://steamcdn-a.akamaihd.net/steamcommunity/public/images/apps/1141220/382ccf92a497190e1c616d9f9dca17910607dd54.jpg"
  },
  {
    "name": "This Is Aurable",
    "defaultvalue": 0,
    "displayName": "This Is Aurable",
    "hidden": 0,
    "description": "Complete a stage that has at least 1 of every aura.",
    "icon": "https://steamcdn-a.akamaihd.net/steamcommunity/public/images/apps/1141220/98fa0a343b91ed83308998bb78cc142ad28fd737.jpg",
    "icongray": "https://steamcdn-a.akamaihd.net/steamcommunity/public/images/apps/1141220/334d4d0871fa5af1ca8050bae5e4b8c6618cf294.jpg"
  },
  {
    "name": "Magic Gone Wrong",
    "defaultvalue": 0,
    "displayName": "Magic Gone Wrong",
    "hidden": 0,
    "description": "Witness a mage kill himself.",
    "icon": "https://steamcdn-a.akamaihd.net/steamcommunity/public/images/apps/1141220/7ae392adce254c1d8451612412ecd82e3fb9c827.jpg",
    "icongray": "https://steamcdn-a.akamaihd.net/steamcommunity/public/images/apps/1141220/59d5a7fb250d6c120922ff2b625bfd7bbcc9720b.jpg"
  },
  {
    "name": "Big Yikes",
    "defaultvalue": 0,
    "displayName": "Big Yikes",
    "hidden": 0,
    "description": "Glean a 7 or above.",
    "icon": "https://steamcdn-a.akamaihd.net/steamcommunity/public/images/apps/1141220/d187becd7215bde22be1e5d47b103cdf9a530593.jpg",
    "icongray": "https://steamcdn-a.akamaihd.net/steamcommunity/public/images/apps/1141220/6f6ffedd0afafc9b30fcba649e2a9eb9e888256e.jpg"
  },
  {
    "name": "Manaflood",
    "defaultvalue": 0,
    "displayName": "Manaflood",
    "hidden": 0,
    "description": "Activate a magic item on a group of target cells with a collective value of 50 or greater.",
    "icon": "https://steamcdn-a.akamaihd.net/steamcommunity/public/images/apps/1141220/b85a40dad7614a8edd42f2f8af21352472ab77fe.jpg",
    "icongray": "https://steamcdn-a.akamaihd.net/steamcommunity/public/images/apps/1141220/616e93cc6609730b9fd6f631c624ed94663cda68.jpg"
  },
  {
    "name": "Frankenstage",
    "defaultvalue": 0,
    "displayName": "Frankenstage",
    "hidden": 0,
    "description": "Complete a stage that has at least 5 different types of visible monsters.",
    "icon": "https://steamcdn-a.akamaihd.net/steamcommunity/public/images/apps/1141220/0b8cb0e715d42b49e699608ece64a4d23fc5ec72.jpg",
    "icongray": "https://steamcdn-a.akamaihd.net/steamcommunity/public/images/apps/1141220/f514b037b3731f625e204eb4b049f0ada48745a5.jpg"
  },
  {
    "name": "The Gang's All Here",
    "defaultvalue": 0,
    "displayName": "The Gang's All Here",
    "hidden": 0,
    "description": "Complete a stage that has at least 5 different types of strangers.",
    "icon": "https://steamcdn-a.akamaihd.net/steamcommunity/public/images/apps/1141220/0ca12afacd3e1f8a639104984234c1522c182dea.jpg",
    "icongray": "https://steamcdn-a.akamaihd.net/steamcommunity/public/images/apps/1141220/e070f5b2439a05919cd93662cbdef16df00df87c.jpg"
  },
  {
    "name": "Tourist Town",
    "defaultvalue": 0,
    "displayName": "Tourist Town",
    "hidden": 0,
    "description": "Complete a stage that has at least 5 different types of landmarks.",
    "icon": "https://steamcdn-a.akamaihd.net/steamcommunity/public/images/apps/1141220/34dfe6d058b88abde92631dd37f57461160088a4.jpg",
    "icongray": "https://steamcdn-a.akamaihd.net/steamcommunity/public/images/apps/1141220/6b8b757b8d76a6fbcf5aef7c13131df8e3a67868.jpg"
  },
  {
    "name": "The Power of Love",
    "defaultvalue": 0,
    "displayName": "The Power of Love",
    "hidden": 0,
    "description": "Restore at least 10 lives by collecting a single heart.",
    "icon": "https://steamcdn-a.akamaihd.net/steamcommunity/public/images/apps/1141220/13efcdd92c266048dfb750a51f891538b262ff69.jpg",
    "icongray": "https://steamcdn-a.akamaihd.net/steamcommunity/public/images/apps/1141220/290d31ee61b6908dcc4bef57bc0af6f3fe50a8dc.jpg"
  },
  {
    "name": "Playing with Fire",
    "defaultvalue": 0,
    "displayName": "Playing with Fire",
    "hidden": 0,
    "description": "Move a familiar out of a flare's path of travel just in the nick of time.",
    "icon": "https://steamcdn-a.akamaihd.net/steamcommunity/public/images/apps/1141220/51f60c18adfc7f7d2f776b72acaa941acabc1e66.jpg",
    "icongray": "https://steamcdn-a.akamaihd.net/steamcommunity/public/images/apps/1141220/59e9d875787a6ba6cb1bcaaa9aa9acb6f8d13afd.jpg"
  },
  {
    "name": "Back in My Day",
    "defaultvalue": 0,
    "displayName": "Back in My Day",
    "hidden": 0,
    "description": "Complete a Classic stage on Hard or harder.",
    "icon": "https://steamcdn-a.akamaihd.net/steamcommunity/public/images/apps/1141220/166c9d171f408c506cb9a2e1a3796c6abf522048.jpg",
    "icongray": "https://steamcdn-a.akamaihd.net/steamcommunity/public/images/apps/1141220/6d39a591893cc9509fa88dc3e07faeefde34909b.jpg"
  },
  {
    "name": "I Don't Do That Anymore",
    "defaultvalue": 0,
    "displayName": "I Don't Do That Anymore",
    "hidden": 0,
    "description": "Manalock an item for at least 300 turns.",
    "icon": "https://steamcdn-a.akamaihd.net/steamcommunity/public/images/apps/1141220/2b9d2447699d82f5dfa57bf58cc316aa349b13e5.jpg",
    "icongray": "https://steamcdn-a.akamaihd.net/steamcommunity/public/images/apps/1141220/132cc7e2482979f73a4a73f87b10bc1aca9daa52.jpg"
  },
  {
    "name": "Light Up the Sky",
    "defaultvalue": 0,
    "displayName": "Light Up the Sky",
    "hidden": 0,
    "description": "Launch a blessing that remains on the board for at least 10 seconds.",
    "icon": "https://steamcdn-a.akamaihd.net/steamcommunity/public/images/apps/1141220/a69d32f97b5a61bac575eabb6cb8601cc0791f34.jpg",
    "icongray": "https://steamcdn-a.akamaihd.net/steamcommunity/public/images/apps/1141220/0627668842de4298bb51b5f36e0d8379b7cd0ab4.jpg"
  },
  {
    "name": "Put Your Money on Me",
    "defaultvalue": 0,
    "displayName": "Put Your Money on Me",
    "hidden": 0,
    "description": "Invest in a Gambler until he has 50 or more coins.",
    "icon": "https://steamcdn-a.akamaihd.net/steamcommunity/public/images/apps/1141220/73da46f7c4877aad20e186b25ce37f7a766407d5.jpg",
    "icongray": "https://steamcdn-a.akamaihd.net/steamcommunity/public/images/apps/1141220/0565c03fffe0af1c96a96a6702b22228527e787e.jpg"
  },
  {
    "name": "Haha I'm in Danger",
    "defaultvalue": 0,
    "displayName": "Haha I'm in Danger",
    "hidden": 0,
    "description": "Enter a stage that has the maximum possible monster density and/or max power.",
    "icon": "https://steamcdn-a.akamaihd.net/steamcommunity/public/images/apps/1141220/c561e7beaed3513d083181407bfa69f76baac8b1.jpg",
    "icongray": "https://steamcdn-a.akamaihd.net/steamcommunity/public/images/apps/1141220/ca9e2fec90a73541ffab007d624ed60be82c5a9e.jpg"
  },
  {
    "name": "Infinite Journey",
    "defaultvalue": 0,
    "displayName": "Infinite Journey",
    "hidden": 0,
    "description": "Unlock all Classic Skins.",
    "icon": "https://steamcdn-a.akamaihd.net/steamcommunity/public/images/apps/1141220/32b8e3886012530965cdeed69dedaf4f52bbfb68.jpg",
    "icongray": "https://steamcdn-a.akamaihd.net/steamcommunity/public/images/apps/1141220/4c557075495271cda0a483604a15719fbf6ff870.jpg"
  }
]