{
  "Dlcs": {
    "1246830": {
      "Name": "Hentai Girl Seek - Adult Movies Patch 18+",
      "ImageUrl": "https://steamcdn-a.akamaihd.net/steam/apps/1246830/header.jpg?t=1581494660"
    },
    "1256240": {
      "Name": "Hentai Girl Seek - Hentai Game",
      "ImageUrl": "https://steamcdn-a.akamaihd.net/steam/apps/1256240/header.jpg?t=1582964707"
    }
  },
  "Name": "Hentai Girl Seek",
  "AppId": "1236140",
  "ImageUrl": "https://steamcdn-a.akamaihd.net/steam/apps/1236140/header.jpg?t=1588528507",
  "Languages": [
    "japanese"
  ],
  "Platforms": {
    "windows": true,
    "mac": false,
    "linux": false
  }
}