﻿{
  "Dlcs": {
    "503110": {
      "Name": "Curvatron - Soundtrack",
      "ImageUrl": "https://steamcdn-a.akamaihd.net/steam/apps/503110/header.jpg?t=1500028823"
    }
  },
  "Name": "Curvatron",
  "AppId": "404700",
  "ImageUrl": "https://steamcdn-a.akamaihd.net/steam/apps/404700/header.jpg?t=1556639265",
  "Languages": [
    "english"
  ],
  "Platforms": {
    "windows": true,
    "mac": false,
    "linux": true
  }
}