{
  "Dlcs": {
    "973380": {
      "Name": "End War RTS - Alien invasion",
      "ImageUrl": "https://steamcdn-a.akamaihd.net/steam/apps/973380/header.jpg?t=1580612881"
    }
  },
  "Name": "End War RTS",
  "AppId": "896650",
  "ImageUrl": "https://steamcdn-a.akamaihd.net/steam/apps/896650/header.jpg?t=1593687547",
  "Languages": [
    "english",
    "schinese",
    "russian"
  ],
  "Platforms": {
    "windows": true,
    "mac": false,
    "linux": false
  }
}