{
  "Dlcs": {},
  "Name": "Saber Fight VR",
  "AppId": "1208770",
  "ImageUrl": "https://steamcdn-a.akamaihd.net/steam/apps/1208770/header.jpg?t=1599994864",
  "Languages": [
    "english"
  ],
  "Platforms": {
    "windows": true,
    "mac": false,
    "linux": false
  }
}