{
  "Dlcs": {},
  "Name": "GameGuru MAX",
  "AppId": "1247290",
  "ImageUrl": "https://steamcdn-a.akamaihd.net/steam/apps/1247290/header.jpg?t=1598542255",
  "Languages": [
    "english"
  ],
  "Platforms": {
    "windows": true,
    "mac": false,
    "linux": false
  }
}