{
  "Dlcs": {},
  "Name": "Magical Squash",
  "AppId": "719410",
  "ImageUrl": "https://steamcdn-a.akamaihd.net/steam/apps/719410/header.jpg?t=1512028393",
  "Languages": [
    "english",
    "schinese"
  ],
  "Platforms": {
    "windows": true,
    "mac": false,
    "linux": false
  }
}