[
  {
    "name": "ace",
    "defaultvalue": 0,
    "displayName": "Ace Pilot",
    "hidden": 0,
    "description": "Shoot down at least five enemy aeros.",
    "icon": "https://steamcdn-a.akamaihd.net/steamcommunity/public/images/apps/557700/af1a1b1c736a1acce04a96d1fe9d29fe361bf676.jpg",
    "icongray": "https://steamcdn-a.akamaihd.net/steamcommunity/public/images/apps/557700/01111b5de1b66b970b2ed8dcfa02bcbc455c633c.jpg"
  },
  {
    "name": "everybody_lives",
    "defaultvalue": 0,
    "displayName": "Everyone Lives",
    "hidden": 0,
    "description": "The Air Guard captain, the Quon Bexi spy, the revolutionary, and the machine-girl all survive to the end of the game.",
    "icon": "https://steamcdn-a.akamaihd.net/steamcommunity/public/images/apps/557700/aea185fa7dec405597a851830d3730d4964aedd7.jpg",
    "icongray": "https://steamcdn-a.akamaihd.net/steamcommunity/public/images/apps/557700/01111b5de1b66b970b2ed8dcfa02bcbc455c633c.jpg"
  },
  {
    "name": "ghost_of_the_skies",
    "defaultvalue": 0,
    "displayName": "Ghost of the Skies",
    "hidden": 0,
    "description": "Maintain an impenetrable cover identity.",
    "icon": "https://steamcdn-a.akamaihd.net/steamcommunity/public/images/apps/557700/658b6851029fb75f7eb20b24ff801f34075778d9.jpg",
    "icongray": "https://steamcdn-a.akamaihd.net/steamcommunity/public/images/apps/557700/01111b5de1b66b970b2ed8dcfa02bcbc455c633c.jpg"
  },
  {
    "name": "learned_lesson",
    "defaultvalue": 0,
    "displayName": "Learned Your Lesson",
    "hidden": 0,
    "description": "Only crash once.",
    "icon": "https://steamcdn-a.akamaihd.net/steamcommunity/public/images/apps/557700/af1a1b1c736a1acce04a96d1fe9d29fe361bf676.jpg",
    "icongray": "https://steamcdn-a.akamaihd.net/steamcommunity/public/images/apps/557700/01111b5de1b66b970b2ed8dcfa02bcbc455c633c.jpg"
  },
  {
    "name": "still_flying",
    "defaultvalue": 0,
    "displayName": "Still Flying",
    "hidden": 0,
    "description": "End the game with the Empyrean in your possession.",
    "icon": "https://steamcdn-a.akamaihd.net/steamcommunity/public/images/apps/557700/af1a1b1c736a1acce04a96d1fe9d29fe361bf676.jpg",
    "icongray": "https://steamcdn-a.akamaihd.net/steamcommunity/public/images/apps/557700/01111b5de1b66b970b2ed8dcfa02bcbc455c633c.jpg"
  },
  {
    "name": "slayer",
    "defaultvalue": 0,
    "displayName": "Engine Slayer",
    "hidden": 0,
    "description": "Destroy at least three Deep Tech creatures.",
    "icon": "https://steamcdn-a.akamaihd.net/steamcommunity/public/images/apps/557700/af1a1b1c736a1acce04a96d1fe9d29fe361bf676.jpg",
    "icongray": "https://steamcdn-a.akamaihd.net/steamcommunity/public/images/apps/557700/01111b5de1b66b970b2ed8dcfa02bcbc455c633c.jpg"
  },
  {
    "name": "state_of_the_art",
    "defaultvalue": 0,
    "displayName": "State of the Art",
    "hidden": 0,
    "description": "Reach 75 Empyrean at any time.",
    "icon": "https://steamcdn-a.akamaihd.net/steamcommunity/public/images/apps/557700/658b6851029fb75f7eb20b24ff801f34075778d9.jpg",
    "icongray": "https://steamcdn-a.akamaihd.net/steamcommunity/public/images/apps/557700/01111b5de1b66b970b2ed8dcfa02bcbc455c633c.jpg"
  },
  {
    "name": "unification",
    "defaultvalue": 0,
    "displayName": "The Great Unification",
    "hidden": 0,
    "description": "Unify the Combines and the revolutionaries.",
    "icon": "https://steamcdn-a.akamaihd.net/steamcommunity/public/images/apps/557700/aea185fa7dec405597a851830d3730d4964aedd7.jpg",
    "icongray": "https://steamcdn-a.akamaihd.net/steamcommunity/public/images/apps/557700/01111b5de1b66b970b2ed8dcfa02bcbc455c633c.jpg"
  },
  {
    "name": "wing_dancer",
    "defaultvalue": 0,
    "displayName": "Wing Dancer",
    "hidden": 0,
    "description": "Fight a sword duel on the wing of an aero.",
    "icon": "https://steamcdn-a.akamaihd.net/steamcommunity/public/images/apps/557700/af1a1b1c736a1acce04a96d1fe9d29fe361bf676.jpg",
    "icongray": "https://steamcdn-a.akamaihd.net/steamcommunity/public/images/apps/557700/01111b5de1b66b970b2ed8dcfa02bcbc455c633c.jpg"
  },
  {
    "name": "glorious_revolution",
    "defaultvalue": 0,
    "displayName": "Glorious Revolution",
    "hidden": 0,
    "description": "End the game with Revolutionary Character 80 or higher.",
    "icon": "https://steamcdn-a.akamaihd.net/steamcommunity/public/images/apps/557700/658b6851029fb75f7eb20b24ff801f34075778d9.jpg",
    "icongray": "https://steamcdn-a.akamaihd.net/steamcommunity/public/images/apps/557700/01111b5de1b66b970b2ed8dcfa02bcbc455c633c.jpg"
  },
  {
    "name": "honorable_authority",
    "defaultvalue": 0,
    "displayName": "Honorable Authority",
    "hidden": 0,
    "description": "End the game with Combine Character 80 or higher.",
    "icon": "https://steamcdn-a.akamaihd.net/steamcommunity/public/images/apps/557700/658b6851029fb75f7eb20b24ff801f34075778d9.jpg",
    "icongray": "https://steamcdn-a.akamaihd.net/steamcommunity/public/images/apps/557700/01111b5de1b66b970b2ed8dcfa02bcbc455c633c.jpg"
  },
  {
    "name": "city_of_industry",
    "defaultvalue": 0,
    "displayName": "City of Industry",
    "hidden": 0,
    "description": "End the game with Actorius Technology 80 or higher.",
    "icon": "https://steamcdn-a.akamaihd.net/steamcommunity/public/images/apps/557700/658b6851029fb75f7eb20b24ff801f34075778d9.jpg",
    "icongray": "https://steamcdn-a.akamaihd.net/steamcommunity/public/images/apps/557700/01111b5de1b66b970b2ed8dcfa02bcbc455c633c.jpg"
  },
  {
    "name": "city_of_lights",
    "defaultvalue": 0,
    "displayName": "City of Lights",
    "hidden": 0,
    "description": "End the game with Actorius Grandeur 80 or higher.",
    "icon": "https://steamcdn-a.akamaihd.net/steamcommunity/public/images/apps/557700/658b6851029fb75f7eb20b24ff801f34075778d9.jpg",
    "icongray": "https://steamcdn-a.akamaihd.net/steamcommunity/public/images/apps/557700/01111b5de1b66b970b2ed8dcfa02bcbc455c633c.jpg"
  },
  {
    "name": "love_and_loyalty",
    "defaultvalue": 0,
    "displayName": "Love and Loyalty",
    "hidden": 0,
    "description": "Romance the Air Guard captain.",
    "icon": "https://steamcdn-a.akamaihd.net/steamcommunity/public/images/apps/557700/af1a1b1c736a1acce04a96d1fe9d29fe361bf676.jpg",
    "icongray": "https://steamcdn-a.akamaihd.net/steamcommunity/public/images/apps/557700/01111b5de1b66b970b2ed8dcfa02bcbc455c633c.jpg"
  },
  {
    "name": "dangerous_liaisons",
    "defaultvalue": 0,
    "displayName": "Dangerous Liaisons",
    "hidden": 0,
    "description": "Romance the Quon Bexi spy.",
    "icon": "https://steamcdn-a.akamaihd.net/steamcommunity/public/images/apps/557700/af1a1b1c736a1acce04a96d1fe9d29fe361bf676.jpg",
    "icongray": "https://steamcdn-a.akamaihd.net/steamcommunity/public/images/apps/557700/01111b5de1b66b970b2ed8dcfa02bcbc455c633c.jpg"
  },
  {
    "name": "revolutionary_act",
    "defaultvalue": 0,
    "displayName": "Revolutionary Act",
    "hidden": 0,
    "description": "Romance the revolutionary.",
    "icon": "https://steamcdn-a.akamaihd.net/steamcommunity/public/images/apps/557700/af1a1b1c736a1acce04a96d1fe9d29fe361bf676.jpg",
    "icongray": "https://steamcdn-a.akamaihd.net/steamcommunity/public/images/apps/557700/01111b5de1b66b970b2ed8dcfa02bcbc455c633c.jpg"
  },
  {
    "name": "love_among_the_rheostats",
    "defaultvalue": 0,
    "displayName": "Love Among the Rheostats",
    "hidden": 0,
    "description": "Romance the machine-girl.",
    "icon": "https://steamcdn-a.akamaihd.net/steamcommunity/public/images/apps/557700/af1a1b1c736a1acce04a96d1fe9d29fe361bf676.jpg",
    "icongray": "https://steamcdn-a.akamaihd.net/steamcommunity/public/images/apps/557700/01111b5de1b66b970b2ed8dcfa02bcbc455c633c.jpg"
  },
  {
    "name": "betrayer",
    "defaultvalue": 0,
    "displayName": "Betrayer",
    "hidden": 1,
    "icon": "https://steamcdn-a.akamaihd.net/steamcommunity/public/images/apps/557700/af1a1b1c736a1acce04a96d1fe9d29fe361bf676.jpg",
    "icongray": "https://steamcdn-a.akamaihd.net/steamcommunity/public/images/apps/557700/01111b5de1b66b970b2ed8dcfa02bcbc455c633c.jpg"
  },
  {
    "name": "double_cross",
    "defaultvalue": 0,
    "displayName": "Double-Cross",
    "hidden": 1,
    "icon": "https://steamcdn-a.akamaihd.net/steamcommunity/public/images/apps/557700/af1a1b1c736a1acce04a96d1fe9d29fe361bf676.jpg",
    "icongray": "https://steamcdn-a.akamaihd.net/steamcommunity/public/images/apps/557700/01111b5de1b66b970b2ed8dcfa02bcbc455c633c.jpg"
  },
  {
    "name": "flew_gossamer",
    "defaultvalue": 0,
    "displayName": "Gossamer Pilot",
    "hidden": 0,
    "description": "Fly the Gossamer.",
    "icon": "https://steamcdn-a.akamaihd.net/steamcommunity/public/images/apps/557700/658b6851029fb75f7eb20b24ff801f34075778d9.jpg",
    "icongray": "https://steamcdn-a.akamaihd.net/steamcommunity/public/images/apps/557700/01111b5de1b66b970b2ed8dcfa02bcbc455c633c.jpg"
  },
  {
    "name": "reprogrammer",
    "defaultvalue": 0,
    "displayName": "Reprogrammer",
    "hidden": 0,
    "description": "Reprogram an automaton.",
    "icon": "https://steamcdn-a.akamaihd.net/steamcommunity/public/images/apps/557700/658b6851029fb75f7eb20b24ff801f34075778d9.jpg",
    "icongray": "https://steamcdn-a.akamaihd.net/steamcommunity/public/images/apps/557700/01111b5de1b66b970b2ed8dcfa02bcbc455c633c.jpg"
  },
  {
    "name": "found_garden",
    "defaultvalue": 0,
    "displayName": "Secret Garden",
    "hidden": 0,
    "description": "Find the Iridium Garden.",
    "icon": "https://steamcdn-a.akamaihd.net/steamcommunity/public/images/apps/557700/aea185fa7dec405597a851830d3730d4964aedd7.jpg",
    "icongray": "https://steamcdn-a.akamaihd.net/steamcommunity/public/images/apps/557700/01111b5de1b66b970b2ed8dcfa02bcbc455c633c.jpg"
  },
  {
    "name": "spot_the_spy",
    "defaultvalue": 0,
    "displayName": "Spot the Spy",
    "hidden": 1,
    "icon": "https://steamcdn-a.akamaihd.net/steamcommunity/public/images/apps/557700/658b6851029fb75f7eb20b24ff801f34075778d9.jpg",
    "icongray": "https://steamcdn-a.akamaihd.net/steamcommunity/public/images/apps/557700/01111b5de1b66b970b2ed8dcfa02bcbc455c633c.jpg"
  }
]