{
  "Dlcs": {
    "786890": {
      "Name": "",
      "ImageUrl": ""
    }
  },
  "Name": "Angels Fall First",
  "AppId": "367270",
  "ImageUrl": "https://steamcdn-a.akamaihd.net/steam/apps/367270/header.jpg?t=1578002443",
  "Languages": [
    "english"
  ],
  "Platforms": {
    "windows": true,
    "mac": false,
    "linux": false
  }
}