{
  "Dlcs": {},
  "Name": "Legend of Egypt - Pharaohs Garden",
  "AppId": "715320",
  "ImageUrl": "https://steamcdn-a.akamaihd.net/steam/apps/715320/header.jpg?t=1507293710",
  "Languages": [
    "english",
    "german"
  ],
  "Platforms": {
    "windows": true,
    "mac": false,
    "linux": false
  }
}