[
  {
    "name": "ENEMIES_KILLED_STAT",
    "defaultvalue": 0,
    "displayName": ""
  },
  {
    "name": "TELEPORTATIONS_STAT",
    "defaultvalue": 0,
    "displayName": ""
  },
  {
    "name": "TELEPORTATION_KILLS_STAT",
    "defaultvalue": 0,
    "displayName": ""
  },
  {
    "name": "MELEE_KILLS_STAT",
    "defaultvalue": 0,
    "displayName": ""
  },
  {
    "name": "HEADSHOTS_KILLS_STAT",
    "defaultvalue": 0,
    "displayName": ""
  },
  {
    "name": "FREEZE_PISTOL_KILLS_STAT",
    "defaultvalue": 0,
    "displayName": ""
  },
  {
    "name": "SNIPER_PISTOL_KILLS_STAT",
    "defaultvalue": 0,
    "displayName": ""
  },
  {
    "name": "BURST_PISTOL_KILLS_STAT",
    "defaultvalue": 0,
    "displayName": ""
  },
  {
    "name": "SHIELD_PISTOL_KILLS_STAT",
    "defaultvalue": 0,
    "displayName": ""
  },
  {
    "name": "TESLA_RIFLE_KILLS_STAT",
    "defaultvalue": 0,
    "displayName": ""
  },
  {
    "name": "FLAMETHROWER_KILLS_STAT",
    "defaultvalue": 0,
    "displayName": ""
  },
  {
    "name": "SMG_KILLS",
    "defaultvalue": 0,
    "displayName": ""
  },
  {
    "name": "LASER_SNIPER_KILLS_STAT",
    "defaultvalue": 0,
    "displayName": ""
  },
  {
    "name": "SHOTGUN_KILLS_STAT",
    "defaultvalue": 0,
    "displayName": ""
  },
  {
    "name": "PLAYER_LEVEL_STAT",
    "defaultvalue": 1,
    "displayName": ""
  },
  {
    "name": "RICKY_LEVEL_STAT",
    "defaultvalue": 1,
    "displayName": ""
  }
]