{
  "Dlcs": {},
  "Name": "Sweet Treats",
  "AppId": "855760",
  "ImageUrl": "https://steamcdn-a.akamaihd.net/steam/apps/855760/header.jpg?t=1566338389",
  "Languages": [
    "english",
    "french",
    "italian",
    "german",
    "spanish",
    "dutch",
    "portuguese"
  ],
  "Platforms": {
    "windows": true,
    "mac": true,
    "linux": false
  }
}