{
  "Dlcs": {},
  "Name": "Botanica: Into the Unknown Collector's Edition",
  "AppId": "626780",
  "ImageUrl": "https://steamcdn-a.akamaihd.net/steam/apps/626780/header.jpg?t=1531434741",
  "Languages": [
    "english"
  ],
  "Platforms": {
    "windows": true,
    "mac": false,
    "linux": false
  }
}