{
  "Dlcs": {
    "1062190": {
      "Name": "Wolf's Fury Original Soundtrack",
      "ImageUrl": "https://steamcdn-a.akamaihd.net/steam/apps/1062190/header.jpg?t=1556887879"
    }
  },
  "Name": "Wolf's Fury",
  "AppId": "619270",
  "ImageUrl": "https://steamcdn-a.akamaihd.net/steam/apps/619270/header.jpg?t=1572817423",
  "Languages": [
    "english",
    "french",
    "portuguese",
    "portuguese"
  ],
  "Platforms": {
    "windows": true,
    "mac": false,
    "linux": false
  }
}