[
  {
    "name": "WGR_BOSS1",
    "defaultvalue": 0,
    "displayName": "Carnage in Carson City",
    "hidden": 0,
    "description": "Defeat the boss of Carson City.",
    "icon": "https://steamcdn-a.akamaihd.net/steamcommunity/public/images/apps/585910/dd6cc048205bcc9b7d5e5f8798d4642134c04b11.jpg",
    "icongray": "https://steamcdn-a.akamaihd.net/steamcommunity/public/images/apps/585910/81f6d5a5089e8d8a65f1c13a7b5abdcdf381b6ff.jpg"
  },
  {
    "name": "WGR_BOSS2",
    "defaultvalue": 0,
    "displayName": "Showdown in Desolation Canyon",
    "hidden": 0,
    "description": "Defeat the boss of Desolation Canyon.",
    "icon": "https://steamcdn-a.akamaihd.net/steamcommunity/public/images/apps/585910/32a700cfb4d8e72cfeaac9998650ce670b52a347.jpg",
    "icongray": "https://steamcdn-a.akamaihd.net/steamcommunity/public/images/apps/585910/f3d36ad63565c25dbac2563ee2a72455fb3350ec.jpg"
  },
  {
    "name": "WGR_BOSS3",
    "defaultvalue": 0,
    "displayName": "Amok in the Ammunition Depot",
    "hidden": 0,
    "description": "Defeat the boss in the Ammunition Depot.",
    "icon": "https://steamcdn-a.akamaihd.net/steamcommunity/public/images/apps/585910/50fd55992e1210a83002631f9ffe5789dc2af57a.jpg",
    "icongray": "https://steamcdn-a.akamaihd.net/steamcommunity/public/images/apps/585910/9d26c24da23c206ebe406d98965d56ecb68782ad.jpg"
  },
  {
    "name": "WGR_BOSS4",
    "defaultvalue": 0,
    "displayName": "Gold Mine Gamble",
    "hidden": 0,
    "description": "Defeat the boss in the Gold Mine.",
    "icon": "https://steamcdn-a.akamaihd.net/steamcommunity/public/images/apps/585910/18efbc9fdd09821530b7fdf656da29dbc57a5fd1.jpg",
    "icongray": "https://steamcdn-a.akamaihd.net/steamcommunity/public/images/apps/585910/acd7c21867d24985b4a5abf1334dbd50c138873f.jpg"
  },
  {
    "name": "WGR_BOSS5",
    "defaultvalue": 0,
    "displayName": "Battle on the Armored Train",
    "hidden": 0,
    "description": "Defeat the boss on the Armored Train.",
    "icon": "https://steamcdn-a.akamaihd.net/steamcommunity/public/images/apps/585910/b0165c57517b1cc50f9cfc2005e392002eb1bf6b.jpg",
    "icongray": "https://steamcdn-a.akamaihd.net/steamcommunity/public/images/apps/585910/b5def2ba62828f6c36a1e97edea5ddc1c2fa8d64.jpg"
  },
  {
    "name": "WGR_BOSS6",
    "defaultvalue": 0,
    "displayName": "Lurking Underground",
    "hidden": 0,
    "description": "Defeat the boss of the Underground.",
    "icon": "https://steamcdn-a.akamaihd.net/steamcommunity/public/images/apps/585910/e0e2a26f727ba673b4085aadfaecd7f495459efa.jpg",
    "icongray": "https://steamcdn-a.akamaihd.net/steamcommunity/public/images/apps/585910/172f98918981caf768fe2fbc18c4fe5828ed2f60.jpg"
  },
  {
    "name": "WGR_BOSS7",
    "defaultvalue": 0,
    "displayName": "Battle in the Sky",
    "hidden": 0,
    "description": "Defeat the boss of the Flying Ship.",
    "icon": "https://steamcdn-a.akamaihd.net/steamcommunity/public/images/apps/585910/520799a5b735c429cf1d643b26dbd0f69ac4a0ec.jpg",
    "icongray": "https://steamcdn-a.akamaihd.net/steamcommunity/public/images/apps/585910/a845f58d415989be5897798d4023aa959d747e79.jpg"
  },
  {
    "name": "WGR_BOSS8",
    "defaultvalue": 0,
    "displayName": "Sweet Revenge",
    "hidden": 0,
    "description": "Defeat Kid.",
    "icon": "https://steamcdn-a.akamaihd.net/steamcommunity/public/images/apps/585910/f8447a47b1100f764a112736db08aa3111e34732.jpg",
    "icongray": "https://steamcdn-a.akamaihd.net/steamcommunity/public/images/apps/585910/0f722cc303dbb7292aa18569fd7f0d7c92cd65dd.jpg"
  },
  {
    "name": "WGR_NoContinueEasy",
    "defaultvalue": 0,
    "displayName": "Greenhorn",
    "hidden": 0,
    "description": "Beat Single Player on Easy without using any continues.",
    "icon": "https://steamcdn-a.akamaihd.net/steamcommunity/public/images/apps/585910/1e247c044c2fa9d0f8124174bea86414036edc31.jpg",
    "icongray": "https://steamcdn-a.akamaihd.net/steamcommunity/public/images/apps/585910/3fe0b5875042d876706574009037ca416ce234f1.jpg"
  },
  {
    "name": "WGR_NoContinueAllEasy",
    "defaultvalue": 0,
    "displayName": "Ranch Hand",
    "hidden": 0,
    "description": "Beat Single Player on Easy with all characters without using any continues.",
    "icon": "https://steamcdn-a.akamaihd.net/steamcommunity/public/images/apps/585910/3d28fffb247a2829ee3358a903bc0da321f37fa3.jpg",
    "icongray": "https://steamcdn-a.akamaihd.net/steamcommunity/public/images/apps/585910/8907b98d20d3ae6d895197dd0ebbe618b278b468.jpg"
  },
  {
    "name": "WGR_NoContinueNormal",
    "defaultvalue": 0,
    "displayName": "Sidekick",
    "hidden": 0,
    "description": "Beat Single Player on Normal without using any continues.",
    "icon": "https://steamcdn-a.akamaihd.net/steamcommunity/public/images/apps/585910/9112b2fbab35cb9ff9cfc930752b4cca0242f0f8.jpg",
    "icongray": "https://steamcdn-a.akamaihd.net/steamcommunity/public/images/apps/585910/064383086965db7d6e146e5bb2a0304d0f9b999d.jpg"
  },
  {
    "name": "WGR_NoContinueAllNormal",
    "defaultvalue": 0,
    "displayName": "Pardner",
    "hidden": 0,
    "description": "Beat Single Player on Normal with all characters without using any continues.",
    "icon": "https://steamcdn-a.akamaihd.net/steamcommunity/public/images/apps/585910/3303bfc5bd2f013b6dd0355c4d71dd6680221c86.jpg",
    "icongray": "https://steamcdn-a.akamaihd.net/steamcommunity/public/images/apps/585910/e6da738c7858c47c34e1081ef636e6db8a8a4b1b.jpg"
  },
  {
    "name": "WGR_NoContinueHard",
    "defaultvalue": 0,
    "displayName": "Sharpshooter",
    "hidden": 0,
    "description": "Beat Single Player on Hard without using any continues.",
    "icon": "https://steamcdn-a.akamaihd.net/steamcommunity/public/images/apps/585910/2a27ef9480c07afb2d549a52b0663aa90215f722.jpg",
    "icongray": "https://steamcdn-a.akamaihd.net/steamcommunity/public/images/apps/585910/9cb4b9f1bc861e5092a6cf1488a53cb8775d3653.jpg"
  },
  {
    "name": "WGR_NoContinueAllHard",
    "defaultvalue": 0,
    "displayName": "Gunslinger",
    "hidden": 0,
    "description": "Beat Single Player on Hard with all characters without using any continues.",
    "icon": "https://steamcdn-a.akamaihd.net/steamcommunity/public/images/apps/585910/6cfd38b04c76f39f7f74fb86d847b804f056bd2a.jpg",
    "icongray": "https://steamcdn-a.akamaihd.net/steamcommunity/public/images/apps/585910/79f4d764f898ceeeab49f3836a089048701aae4c.jpg"
  },
  {
    "name": "WGR_ColorClint",
    "defaultvalue": 0,
    "displayName": "Clint's Fashion Show",
    "hidden": 0,
    "description": "Unlock all colors for Clint.",
    "icon": "https://steamcdn-a.akamaihd.net/steamcommunity/public/images/apps/585910/ce3743069169d58ee7e0610d702fe16f8ed75798.jpg",
    "icongray": "https://steamcdn-a.akamaihd.net/steamcommunity/public/images/apps/585910/e6ecef081eec11a494e3cf3644393edc7d22f6dc.jpg"
  },
  {
    "name": "WGR_ColorAnnie",
    "defaultvalue": 0,
    "displayName": "Annie's Outfits",
    "hidden": 0,
    "description": "Unlock all colors for Annie.",
    "icon": "https://steamcdn-a.akamaihd.net/steamcommunity/public/images/apps/585910/970c3d4a3dc3e34252d620caf782a2b13c0b6887.jpg",
    "icongray": "https://steamcdn-a.akamaihd.net/steamcommunity/public/images/apps/585910/424cf207fef697505789250631f92aa8a8ceea6c.jpg"
  },
  {
    "name": "WGR_ColorDoris",
    "defaultvalue": 0,
    "displayName": "Doris's Day",
    "hidden": 0,
    "description": "Unlock all colors for Doris.",
    "icon": "https://steamcdn-a.akamaihd.net/steamcommunity/public/images/apps/585910/40c82f1238fb35c353efb322f543d80bbdf99c75.jpg",
    "icongray": "https://steamcdn-a.akamaihd.net/steamcommunity/public/images/apps/585910/8315b76cdaed1ede9c86e9fdb54a3345609eac0d.jpg"
  },
  {
    "name": "WGR_ColorBullet",
    "defaultvalue": 0,
    "displayName": "Bullet's Bark",
    "hidden": 0,
    "description": "Unlock all colors for Bullet.",
    "icon": "https://steamcdn-a.akamaihd.net/steamcommunity/public/images/apps/585910/1f0e1653d9cdab3c475d60c4484e263848142b0e.jpg",
    "icongray": "https://steamcdn-a.akamaihd.net/steamcommunity/public/images/apps/585910/143dcda5237443c3028d8bfc370ad6d812006874.jpg"
  },
  {
    "name": "WGR_STAGE1",
    "defaultvalue": 0,
    "displayName": "Carson City Mayor",
    "hidden": 0,
    "description": "Beat the Carson City stage without dying.",
    "icon": "https://steamcdn-a.akamaihd.net/steamcommunity/public/images/apps/585910/d50f4d40213de92e237e285d95d1be8dd27baef5.jpg",
    "icongray": "https://steamcdn-a.akamaihd.net/steamcommunity/public/images/apps/585910/d59a325e66f2da3d26f463d0496468ff620da951.jpg"
  },
  {
    "name": "WGR_STAGE2",
    "defaultvalue": 0,
    "displayName": "Canyonero",
    "hidden": 0,
    "description": "Beat the Desolation Canyon stage without dying.",
    "icon": "https://steamcdn-a.akamaihd.net/steamcommunity/public/images/apps/585910/0a94b20c40d0a14ba86e6662d3186b9d1304f717.jpg",
    "icongray": "https://steamcdn-a.akamaihd.net/steamcommunity/public/images/apps/585910/fce72f3d23ac7217843c782991c00c3cde7e0d26.jpg"
  },
  {
    "name": "WGR_STAGE3",
    "defaultvalue": 0,
    "displayName": "Depot Desperado",
    "hidden": 0,
    "description": "Beat the Ammunition Depot stage without dying.",
    "icon": "https://steamcdn-a.akamaihd.net/steamcommunity/public/images/apps/585910/bef313e9a2d5874f717980e4a130b058a63f3b22.jpg",
    "icongray": "https://steamcdn-a.akamaihd.net/steamcommunity/public/images/apps/585910/ece4429f94ca8d683e9a169f30562dae864e3eb0.jpg"
  },
  {
    "name": "WGR_STAGE4",
    "defaultvalue": 0,
    "displayName": "Mining Master",
    "hidden": 0,
    "description": "Beat the Gold Mine stage without dying.",
    "icon": "https://steamcdn-a.akamaihd.net/steamcommunity/public/images/apps/585910/1a28c50a623beab3443c759e31b153d6fb7719a7.jpg",
    "icongray": "https://steamcdn-a.akamaihd.net/steamcommunity/public/images/apps/585910/2eb38c9ec31ead85d715c307ae431d217d2a6188.jpg"
  },
  {
    "name": "WGR_STAGE5",
    "defaultvalue": 0,
    "displayName": "Train Takedown",
    "hidden": 0,
    "description": "Beat the Armored Train stage without dying.",
    "icon": "https://steamcdn-a.akamaihd.net/steamcommunity/public/images/apps/585910/ae0bfe2e95578b5ba93875e83c13ba6d537824c5.jpg",
    "icongray": "https://steamcdn-a.akamaihd.net/steamcommunity/public/images/apps/585910/f6b059a318ac013d99622ef1daabe5e4822fe075.jpg"
  },
  {
    "name": "WGR_STAGE6",
    "defaultvalue": 0,
    "displayName": "Underground King",
    "hidden": 0,
    "description": "Beat the Underground stage without dying.",
    "icon": "https://steamcdn-a.akamaihd.net/steamcommunity/public/images/apps/585910/a79cc8d2d5cfa138329512ee0cb47e275237d74f.jpg",
    "icongray": "https://steamcdn-a.akamaihd.net/steamcommunity/public/images/apps/585910/8e99ef3e22fb06923d48e537b2cba187123f4cfe.jpg"
  },
  {
    "name": "WGR_STAGE7",
    "defaultvalue": 0,
    "displayName": "Ship Captain",
    "hidden": 0,
    "description": "Beat the Flying Ship stage without dying.",
    "icon": "https://steamcdn-a.akamaihd.net/steamcommunity/public/images/apps/585910/55fb8e04c65f0b434b1e42ba9135676caf19aece.jpg",
    "icongray": "https://steamcdn-a.akamaihd.net/steamcommunity/public/images/apps/585910/c2922aa9ce81a5b17433dd9e57239cf21b165d8e.jpg"
  },
  {
    "name": "WGR_STAGE8",
    "defaultvalue": 0,
    "displayName": "Wild Guns Reloaded Master",
    "hidden": 0,
    "description": "Beat the Final Fight stage without dying.",
    "icon": "https://steamcdn-a.akamaihd.net/steamcommunity/public/images/apps/585910/051466c004f8c74fa4c4acf450e315cca9279601.jpg",
    "icongray": "https://steamcdn-a.akamaihd.net/steamcommunity/public/images/apps/585910/72cb849aa35c8a4657f97b4d345483bb6325b6cb.jpg"
  },
  {
    "name": "WGR_ETC1",
    "defaultvalue": 0,
    "displayName": "Bonus Baron",
    "hidden": 0,
    "description": "Get a x5 bonus with either Clint or Annie.",
    "icon": "https://steamcdn-a.akamaihd.net/steamcommunity/public/images/apps/585910/108f37e340fd19a92d6df50532238a0f64436a7f.jpg",
    "icongray": "https://steamcdn-a.akamaihd.net/steamcommunity/public/images/apps/585910/850e288b98004292a05986ee01181b041fc2ab2e.jpg"
  },
  {
    "name": "WGR_ETC2",
    "defaultvalue": 0,
    "displayName": "Doggie Drone",
    "hidden": 0,
    "description": "Move Bullet to the top of the screen using the drone.",
    "icon": "https://steamcdn-a.akamaihd.net/steamcommunity/public/images/apps/585910/cf763a34d15919d04d0a5fc5fc94492a979e7f37.jpg",
    "icongray": "https://steamcdn-a.akamaihd.net/steamcommunity/public/images/apps/585910/3d4cf16d4082cb48f15a26d3606b29c91ef680f8.jpg"
  },
  {
    "name": "WGR_ETC3",
    "defaultvalue": 0,
    "displayName": "Maximum Impact",
    "hidden": 0,
    "description": "Have Doris charge up 7 grenades.",
    "icon": "https://steamcdn-a.akamaihd.net/steamcommunity/public/images/apps/585910/1ea0b9e763fa79cf1935add308a3959c84458713.jpg",
    "icongray": "https://steamcdn-a.akamaihd.net/steamcommunity/public/images/apps/585910/bad45b341954e47f676942cac6d3979ed92109ac.jpg"
  },
  {
    "name": "WGR_ETC4",
    "defaultvalue": 0,
    "displayName": "2UP!",
    "hidden": 0,
    "description": "Get 2 extra lives at the same time.",
    "icon": "https://steamcdn-a.akamaihd.net/steamcommunity/public/images/apps/585910/57c567f1dcfd1abdebee4669a8272ad81afc8e6d.jpg",
    "icongray": "https://steamcdn-a.akamaihd.net/steamcommunity/public/images/apps/585910/67132d02f4a07af426871c0c3ce4b3502fe1ea69.jpg"
  }
]