{
  "Dlcs": {},
  "Name": "Ray Versus",
  "AppId": "1161210",
  "ImageUrl": "https://steamcdn-a.akamaihd.net/steam/apps/1161210/header.jpg?t=1580719441",
  "Languages": [
    "english",
    "japanese"
  ],
  "Platforms": {
    "windows": true,
    "mac": false,
    "linux": true
  }
}