{
  "Dlcs": {},
  "Name": "1001 Jigsaw: Earth Chronicles 2",
  "AppId": "1343680",
  "ImageUrl": "https://steamcdn-a.akamaihd.net/steam/apps/1343680/header.jpg?t=1596624523",
  "Languages": [
    "english",
    "french",
    "german",
    "russian"
  ],
  "Platforms": {
    "windows": true,
    "mac": false,
    "linux": false
  }
}