{
  "Dlcs": {},
  "Name": "夜雪冰娇",
  "AppId": "801600",
  "ImageUrl": "https://steamcdn-a.akamaihd.net/steam/apps/801600/header.jpg?t=1575271317",
  "Languages": [
    "schinese"
  ],
  "Platforms": {
    "windows": true,
    "mac": false,
    "linux": false
  }
}