{
  "Dlcs": {},
  "Name": "FlyManMissile",
  "AppId": "1200290",
  "ImageUrl": "https://steamcdn-a.akamaihd.net/steam/apps/1200290/header.jpg?t=1595113263",
  "Languages": [
    "english"
  ],
  "Platforms": {
    "windows": true,
    "mac": false,
    "linux": false
  }
}