﻿[
  {
    "name": "NUMBER_ONE",
    "defaultvalue": 0,
    "displayName": "#1",
    "hidden": 0,
    "description": "Shoot a clay pigeon",
    "icon": "https://steamcdn-a.akamaihd.net/steamcommunity/public/images/apps/446770/5c3100ae766d06c3fe97faebb27f13c18a461357.jpg",
    "icongray": "https://steamcdn-a.akamaihd.net/steamcommunity/public/images/apps/446770/622e743b458f92dc44b71a3196ff165e3a76d5ed.jpg"
  },
  {
    "name": "TOP_THAT",
    "defaultvalue": 0,
    "displayName": "Top That!",
    "hidden": 0,
    "description": "Set a high score with every gun in every mode.",
    "icon": "https://steamcdn-a.akamaihd.net/steamcommunity/public/images/apps/446770/675f1fc73121d8690e986ca0f754c997e1fec732.jpg",
    "icongray": "https://steamcdn-a.akamaihd.net/steamcommunity/public/images/apps/446770/0d3ba8fdd5ca3c646a7529cc2e86ef46e92f37fc.jpg"
  },
  {
    "name": "BACON",
    "defaultvalue": 0,
    "displayName": "Bacon",
    "hidden": 0,
    "description": "Shoot all four pigs in a game of Trap Mode",
    "icon": "https://steamcdn-a.akamaihd.net/steamcommunity/public/images/apps/446770/ad1bfe8935b812eaf675ec5878eec8e596ab7e15.jpg",
    "icongray": "https://steamcdn-a.akamaihd.net/steamcommunity/public/images/apps/446770/b5dcccc74c3bb94a0715efd514924a937fe59a7f.jpg"
  },
  {
    "name": "DAMN_FINE",
    "defaultvalue": 0,
    "displayName": "Damn Fine",
    "hidden": 0,
    "description": "Shoot two clay pigeons at once",
    "icon": "https://steamcdn-a.akamaihd.net/steamcommunity/public/images/apps/446770/567287a44b3a8070c3484713f1401b0174d6cb9c.jpg",
    "icongray": "https://steamcdn-a.akamaihd.net/steamcommunity/public/images/apps/446770/5c1de0905a1f6c21a2393fe1f6e2689334d1bfeb.jpg"
  },
  {
    "name": "CLEANING_UP",
    "defaultvalue": 0,
    "displayName": "Cleaning Up",
    "hidden": 0,
    "description": "Shoot every prop in Trap Mode",
    "icon": "https://steamcdn-a.akamaihd.net/steamcommunity/public/images/apps/446770/73ceccc3cea2937a08e6fce4b0d3e8bd5659ecd4.jpg",
    "icongray": "https://steamcdn-a.akamaihd.net/steamcommunity/public/images/apps/446770/6685d2376ee0c9f727d6b71733385ce471caa67c.jpg"
  },
  {
    "name": "STOP_THE_INVASION",
    "defaultvalue": 0,
    "displayName": "Stop the Invasion!",
    "hidden": 0,
    "description": "Shoot down 50 UFOs",
    "icon": "https://steamcdn-a.akamaihd.net/steamcommunity/public/images/apps/446770/9861532f392d4da80da636f1be9d8e72f5019827.jpg",
    "icongray": "https://steamcdn-a.akamaihd.net/steamcommunity/public/images/apps/446770/3311930df366974e4f18a0e47887771be1796fbe.jpg"
  },
  {
    "name": "NO_ANIMALS_WERE_HARMED",
    "defaultvalue": 0,
    "displayName": "No Animals Were Harmed...",
    "hidden": 0,
    "description": "Shoot all the metal animals in Skeet Mode",
    "icon": "https://steamcdn-a.akamaihd.net/steamcommunity/public/images/apps/446770/bfcb9ae7cb449854368b8030803cd11df629b0bc.jpg",
    "icongray": "https://steamcdn-a.akamaihd.net/steamcommunity/public/images/apps/446770/39cd45d0ad7e935d46810a546d3d0615697653c3.jpg"
  },
  {
    "name": "WHAT_A_MESS",
    "defaultvalue": 0,
    "displayName": "What a Mess!",
    "hidden": 0,
    "description": "Get 12,000 or more points in Trap Mode",
    "icon": "https://steamcdn-a.akamaihd.net/steamcommunity/public/images/apps/446770/72c1a07e3a3e18331468019d4a1e004ddaf8743d.jpg",
    "icongray": "https://steamcdn-a.akamaihd.net/steamcommunity/public/images/apps/446770/d50e718ee5faad5df2ddfd27adc4027629c11db9.jpg"
  },
  {
    "name": "SPIN_ME_ROUND",
    "defaultvalue": 0,
    "displayName": "Spin Me 'Round",
    "hidden": 0,
    "description": "Get a time below 2 seconds in Quickdraw Mode",
    "icon": "https://steamcdn-a.akamaihd.net/steamcommunity/public/images/apps/446770/d5f888d012ac750f78da08379252030738cf910d.jpg",
    "icongray": "https://steamcdn-a.akamaihd.net/steamcommunity/public/images/apps/446770/41bfb9e70e09b9b2f2c22ddbaebe48a27605b29b.jpg"
  },
  {
    "name": "WINNER_WINNER",
    "defaultvalue": 0,
    "displayName": "Winner! Winner!",
    "hidden": 0,
    "description": "Play a perfect game of Skeet Mode",
    "icon": "https://steamcdn-a.akamaihd.net/steamcommunity/public/images/apps/446770/a25db26f48afc0c71e6f321bcaa39425164c3338.jpg",
    "icongray": "https://steamcdn-a.akamaihd.net/steamcommunity/public/images/apps/446770/95173d4b192c54e8a3b45430ad6c8af49ae49a1d.jpg"
  },
  {
    "name": "RED_ROOM",
    "defaultvalue": 0,
    "displayName": "The Red Room",
    "hidden": 0,
    "description": "Find the dev room",
    "icon": "https://steamcdn-a.akamaihd.net/steamcommunity/public/images/apps/446770/51df14dc5e64405d79dec8d3bf2790ca76d3dd58.jpg",
    "icongray": "https://steamcdn-a.akamaihd.net/steamcommunity/public/images/apps/446770/fa30700559f8581cf5a866c6b3c27a3c067f7ddc.jpg"
  },
  {
    "name": "OFF_THE_WALLS",
    "defaultvalue": 0,
    "displayName": "Off The Walls",
    "hidden": 0,
    "description": "Get 15 or more points in Bounce Mode",
    "icon": "https://steamcdn-a.akamaihd.net/steamcommunity/public/images/apps/446770/d28e7fc642a0278ccfbdd435384cfde4a544ce2f.jpg",
    "icongray": "https://steamcdn-a.akamaihd.net/steamcommunity/public/images/apps/446770/9bf1cb8351d9634e70378af090cf21c47ea84174.jpg"
  },
  {
    "name": "SOME_ANIMALS_WERE_HARMED",
    "defaultvalue": 0,
    "displayName": "Some Animals Were Harmed",
    "hidden": 0,
    "description": "Get 2,000 or more points in Animal Gallery Mode",
    "icon": "https://steamcdn-a.akamaihd.net/steamcommunity/public/images/apps/446770/6b0f71a997451747187707ce5f3e5d5a55f06468.jpg",
    "icongray": "https://steamcdn-a.akamaihd.net/steamcommunity/public/images/apps/446770/09f4f9ec1dc7f1a17b34d519df22d9927da75643.jpg"
  },
  {
    "name": "ANOTHER_BRICK",
    "defaultvalue": 0,
    "displayName": "Another Brick",
    "hidden": 0,
    "description": "Get 8,000 or more points in Targetwall Mode",
    "icon": "https://steamcdn-a.akamaihd.net/steamcommunity/public/images/apps/446770/55d79d5fa79755d889cbef35788512b3815efb32.jpg",
    "icongray": "https://steamcdn-a.akamaihd.net/steamcommunity/public/images/apps/446770/78da821f60ff2c57b4b574956e67685f06390534.jpg"
  }
]