{
  "Dlcs": {},
  "Name": "HTR+ Slot Car Simulation",
  "AppId": "288650",
  "ImageUrl": "https://steamcdn-a.akamaihd.net/steam/apps/288650/header.jpg?t=1529672836",
  "Languages": [
    "english",
    "german"
  ],
  "Platforms": {
    "windows": true,
    "mac": true,
    "linux": false
  }
}