{
  "Dlcs": {},
  "Name": "Slime Research",
  "AppId": "966180",
  "ImageUrl": "https://steamcdn-a.akamaihd.net/steam/apps/966180/header.jpg?t=1598647954",
  "Languages": [
    "english"
  ],
  "Platforms": {
    "windows": true,
    "mac": true,
    "linux": true
  }
}