{
  "Dlcs": {
    "461020": {
      "Name": "The Next World Soundtrack",
      "ImageUrl": "https://steamcdn-a.akamaihd.net/steam/apps/461020/header.jpg?t=1531844305"
    },
    "491740": {
      "Name": "The Next World: Planetary Exploration",
      "ImageUrl": "https://steamcdn-a.akamaihd.net/steam/apps/491740/header.jpg?t=1470441584"
    },
    "864080": {
      "Name": "The Next World: Rocketship DLC",
      "ImageUrl": "https://steamcdn-a.akamaihd.net/steam/apps/864080/header.jpg?t=1531495023"
    }
  },
  "Name": "The Next World",
  "AppId": "427860",
  "ImageUrl": "https://steamcdn-a.akamaihd.net/steam/apps/427860/header.jpg?t=1582745024",
  "Languages": [
    "english"
  ],
  "Platforms": {
    "windows": true,
    "mac": true,
    "linux": true
  }
}