{
  "Dlcs": {},
  "Name": "Orc Attack: Flatulent Rebellion",
  "AppId": "268520",
  "ImageUrl": "https://steamcdn-a.akamaihd.net/steam/apps/268520/header.jpg?t=1577870288",
  "Languages": [
    "english",
    "french",
    "italian",
    "german",
    "spanish"
  ],
  "Platforms": {
    "windows": true,
    "mac": false,
    "linux": false
  }
}