﻿{
  "Dlcs": {},
  "Name": "Postity",
  "AppId": "646400",
  "ImageUrl": "https://steamcdn-a.akamaihd.net/steam/apps/646400/header.jpg?t=1506019964",
  "Languages": [
    "english"
  ],
  "Platforms": {
    "windows": true,
    "mac": false,
    "linux": false
  }
}