[
  {
    "name": "ALL_VIDEOS",
    "defaultvalue": 0,
    "displayName": "Inspector",
    "hidden": 0,
    "description": "Find every video",
    "icon": "https://steamcdn-a.akamaihd.net/steamcommunity/public/images/apps/518130/469faef8f1b551b429dccf6ece9e1800f0fff86a.jpg",
    "icongray": "https://steamcdn-a.akamaihd.net/steamcommunity/public/images/apps/518130/1ccf2b134a8248b69644d8b3dc5e1b51f3f1f72b.jpg"
  },
  {
    "name": "ALL_CONTENT",
    "defaultvalue": 0,
    "displayName": "Sherlock",
    "hidden": 0,
    "description": "Find every video, record and note",
    "icon": "https://steamcdn-a.akamaihd.net/steamcommunity/public/images/apps/518130/520f2ff90f76989247b5da18e54e38b0ee831146.jpg",
    "icongray": "https://steamcdn-a.akamaihd.net/steamcommunity/public/images/apps/518130/8523b16c334ae84da7458758fca483c4f01b7628.jpg"
  },
  {
    "name": "FINISH",
    "defaultvalue": 0,
    "displayName": "This is the end",
    "hidden": 0,
    "description": "My only friend...",
    "icon": "https://steamcdn-a.akamaihd.net/steamcommunity/public/images/apps/518130/e9132d5a8ffc599edfa9df44053eab3078f2490a.jpg",
    "icongray": "https://steamcdn-a.akamaihd.net/steamcommunity/public/images/apps/518130/1dbaac704f26f30ef36bd961c4175656e97d5752.jpg"
  },
  {
    "name": "ALL_CD",
    "defaultvalue": 0,
    "displayName": "Radio host",
    "hidden": 0,
    "description": "Find all the records",
    "icon": "https://steamcdn-a.akamaihd.net/steamcommunity/public/images/apps/518130/a5eeb68ebaaad49fe4cb2a3c99af4bc79f983869.jpg",
    "icongray": "https://steamcdn-a.akamaihd.net/steamcommunity/public/images/apps/518130/f0614628727d12c34bb957306fe26f7272b70fd6.jpg"
  },
  {
    "name": "COFFEE",
    "defaultvalue": 0,
    "displayName": "Coffee addict",
    "hidden": 1,
    "icon": "https://steamcdn-a.akamaihd.net/steamcommunity/public/images/apps/518130/2766864c276da07678752ccc0fd72a53b76c4833.jpg",
    "icongray": "https://steamcdn-a.akamaihd.net/steamcommunity/public/images/apps/518130/ae3a3e46747176ecc6b30349ee59daa0b217efeb.jpg"
  },
  {
    "name": "HITLER_SEARCH",
    "defaultvalue": 0,
    "displayName": "Godwin point!",
    "hidden": 1,
    "icon": "https://steamcdn-a.akamaihd.net/steamcommunity/public/images/apps/518130/8b3e4dcb2660d335cc995cfb016a6b18bc661d34.jpg",
    "icongray": "https://steamcdn-a.akamaihd.net/steamcommunity/public/images/apps/518130/5e91c2e13bec7372ef470165b294b10e87422fc1.jpg"
  }
]