[
  {
    "name": "achievement_1",
    "defaultvalue": 0,
    "displayName": "1",
    "hidden": 0,
    "description": "Kill 10 dark souls",
    "icon": "https://steamcdn-a.akamaihd.net/steamcommunity/public/images/apps/872330/da1dd2b9bae634f871384e6ff2236942b38086f8.jpg",
    "icongray": "https://steamcdn-a.akamaihd.net/steamcommunity/public/images/apps/872330/2435b0abaecd210eef5f02dc7e13c8b9e93b1142.jpg"
  },
  {
    "name": "achievement_2",
    "defaultvalue": 0,
    "displayName": "2",
    "hidden": 0,
    "description": "Kill 20 dark souls",
    "icon": "https://steamcdn-a.akamaihd.net/steamcommunity/public/images/apps/872330/6d38b0a166f06ccdbd74fe79d391a892f3ef5cc2.jpg",
    "icongray": "https://steamcdn-a.akamaihd.net/steamcommunity/public/images/apps/872330/54fec6e2fadbc93b7c0b3daab38d19875df654e2.jpg"
  },
  {
    "name": "achievement_3",
    "defaultvalue": 0,
    "displayName": "3",
    "hidden": 0,
    "description": "Kill 30 dark souls",
    "icon": "https://steamcdn-a.akamaihd.net/steamcommunity/public/images/apps/872330/7a893548191b2feac02eacff4a3c66063bf3463f.jpg",
    "icongray": "https://steamcdn-a.akamaihd.net/steamcommunity/public/images/apps/872330/4eb631267b92563e768c46082be4acb84ea7f887.jpg"
  },
  {
    "name": "achievement_4",
    "defaultvalue": 0,
    "displayName": "4",
    "hidden": 0,
    "description": "Kill 40 dark souls",
    "icon": "https://steamcdn-a.akamaihd.net/steamcommunity/public/images/apps/872330/f93231ca7c0b24d38eaf30c34eeddfa95f2375e6.jpg",
    "icongray": "https://steamcdn-a.akamaihd.net/steamcommunity/public/images/apps/872330/a2c3fe55e956e7a7f558d402cdeb8a2e01171bc0.jpg"
  },
  {
    "name": "achievement_5",
    "defaultvalue": 0,
    "displayName": "5",
    "hidden": 0,
    "description": "Kill 50 dark souls",
    "icon": "https://steamcdn-a.akamaihd.net/steamcommunity/public/images/apps/872330/21b77cfa198c42d485c6305fc3b874762d4b3fe0.jpg",
    "icongray": "https://steamcdn-a.akamaihd.net/steamcommunity/public/images/apps/872330/d569ffa7c5ec1cf086b1b35e96a70ed9bdc0e0f0.jpg"
  },
  {
    "name": "achievement_6",
    "defaultvalue": 0,
    "displayName": "6",
    "hidden": 0,
    "description": "Kill 60 dark souls",
    "icon": "https://steamcdn-a.akamaihd.net/steamcommunity/public/images/apps/872330/0c5ccac80db7d5cbed8699d4908378b5e697d625.jpg",
    "icongray": "https://steamcdn-a.akamaihd.net/steamcommunity/public/images/apps/872330/8a6e814e0f20d7915eb654d897530956b7b85b40.jpg"
  },
  {
    "name": "achievement_7",
    "defaultvalue": 0,
    "displayName": "7",
    "hidden": 0,
    "description": "Kill 70 dark souls",
    "icon": "https://steamcdn-a.akamaihd.net/steamcommunity/public/images/apps/872330/b597da71c4d006c0ab19dfc7b983059b2a1fbaad.jpg",
    "icongray": "https://steamcdn-a.akamaihd.net/steamcommunity/public/images/apps/872330/c7c73636b887eec4a622d959db7723750cfbedc1.jpg"
  },
  {
    "name": "achievement_8",
    "defaultvalue": 0,
    "displayName": "8",
    "hidden": 0,
    "description": "Kill 80 dark souls",
    "icon": "https://steamcdn-a.akamaihd.net/steamcommunity/public/images/apps/872330/e26fbde3ec985b9cb67ba32e6f48d6003b6635fc.jpg",
    "icongray": "https://steamcdn-a.akamaihd.net/steamcommunity/public/images/apps/872330/376c4a9c0667e493629793b66142576bd69683b6.jpg"
  },
  {
    "name": "achievement_9",
    "defaultvalue": 0,
    "displayName": "9",
    "hidden": 0,
    "description": "Kill 90 dark souls",
    "icon": "https://steamcdn-a.akamaihd.net/steamcommunity/public/images/apps/872330/5db6e21a435f898a2beebc53da91ae7dce740241.jpg",
    "icongray": "https://steamcdn-a.akamaihd.net/steamcommunity/public/images/apps/872330/9b974aadac106f226755240ef501b39d9133617c.jpg"
  },
  {
    "name": "achievement_10",
    "defaultvalue": 0,
    "displayName": "0",
    "hidden": 0,
    "description": "Kill 100 dark souls",
    "icon": "https://steamcdn-a.akamaihd.net/steamcommunity/public/images/apps/872330/33ddac0efb8fddb9fee71d63b2d94f96e28205bf.jpg",
    "icongray": "https://steamcdn-a.akamaihd.net/steamcommunity/public/images/apps/872330/74b73a6bfd244bb179b5d46602ca8d06aa314924.jpg"
  },
  {
    "name": "achievement_11",
    "defaultvalue": 0,
    "displayName": "Dark",
    "hidden": 0,
    "description": "Kill 110 dark souls",
    "icon": "https://steamcdn-a.akamaihd.net/steamcommunity/public/images/apps/872330/014624f126f5d1d1dde2b3bd19309f610e643180.jpg",
    "icongray": "https://steamcdn-a.akamaihd.net/steamcommunity/public/images/apps/872330/014624f126f5d1d1dde2b3bd19309f610e643180.jpg"
  },
  {
    "name": "achievement_12",
    "defaultvalue": 0,
    "displayName": "A",
    "hidden": 0,
    "description": "Kill 120 dark souls",
    "icon": "https://steamcdn-a.akamaihd.net/steamcommunity/public/images/apps/872330/31ecf3d6401ef820f740cdb88a9d27159e25cbd0.jpg",
    "icongray": "https://steamcdn-a.akamaihd.net/steamcommunity/public/images/apps/872330/ceeb6baa64ab0b4a625dce2a3d6dd0b01778ce5f.jpg"
  },
  {
    "name": "achievement_13",
    "defaultvalue": 0,
    "displayName": "B",
    "hidden": 0,
    "description": "Kill 130 dark souls",
    "icon": "https://steamcdn-a.akamaihd.net/steamcommunity/public/images/apps/872330/40176eb50c68f29c0e910d7520187ad2d3f938ae.jpg",
    "icongray": "https://steamcdn-a.akamaihd.net/steamcommunity/public/images/apps/872330/e2e3cc0f94e55267296eb5ba5b96b4478599a0b6.jpg"
  },
  {
    "name": "achievement_14",
    "defaultvalue": 0,
    "displayName": "C",
    "hidden": 0,
    "description": "Kill 140 dark souls",
    "icon": "https://steamcdn-a.akamaihd.net/steamcommunity/public/images/apps/872330/46deade48ceeb2a7f2c2d761955aa5cb73969357.jpg",
    "icongray": "https://steamcdn-a.akamaihd.net/steamcommunity/public/images/apps/872330/85a3901ebe2907cd71373f279890a008ea83a046.jpg"
  },
  {
    "name": "achievement_15",
    "defaultvalue": 0,
    "displayName": "D",
    "hidden": 0,
    "description": "Kill 150 dark souls",
    "icon": "https://steamcdn-a.akamaihd.net/steamcommunity/public/images/apps/872330/2c8560940215ef1173a5afd1ff9789660ab3b45f.jpg",
    "icongray": "https://steamcdn-a.akamaihd.net/steamcommunity/public/images/apps/872330/0347391482205644213e0ea90e03739d55a2eff5.jpg"
  },
  {
    "name": "achievement_16",
    "defaultvalue": 0,
    "displayName": "E",
    "hidden": 0,
    "description": "Kill 160 dark souls",
    "icon": "https://steamcdn-a.akamaihd.net/steamcommunity/public/images/apps/872330/0955839fff5789b52ddd28592b3f547f797de461.jpg",
    "icongray": "https://steamcdn-a.akamaihd.net/steamcommunity/public/images/apps/872330/23ac43862541ae833bd936c2cb9c454bb639cc8e.jpg"
  },
  {
    "name": "achievement_17",
    "defaultvalue": 0,
    "displayName": "F",
    "hidden": 0,
    "description": "Kill 170 dark souls",
    "icon": "https://steamcdn-a.akamaihd.net/steamcommunity/public/images/apps/872330/10590f307ae99796ffad7ce8ee3ffdba5969e0fb.jpg",
    "icongray": "https://steamcdn-a.akamaihd.net/steamcommunity/public/images/apps/872330/80ccda5a535a5ad80a493b803bb5bdfded51d567.jpg"
  },
  {
    "name": "achievement_18",
    "defaultvalue": 0,
    "displayName": "G",
    "hidden": 0,
    "description": "Kill 180 dark souls",
    "icon": "https://steamcdn-a.akamaihd.net/steamcommunity/public/images/apps/872330/771aac093b8060115dc816582200d46392f1dc4f.jpg",
    "icongray": "https://steamcdn-a.akamaihd.net/steamcommunity/public/images/apps/872330/5201daaf068031863f69d976393ce92548d8d41f.jpg"
  },
  {
    "name": "achievement_19",
    "defaultvalue": 0,
    "displayName": "H",
    "hidden": 0,
    "description": "Kill 190 dark souls",
    "icon": "https://steamcdn-a.akamaihd.net/steamcommunity/public/images/apps/872330/9b1cfd998872fe14f7bbd1768342acb6015bad91.jpg",
    "icongray": "https://steamcdn-a.akamaihd.net/steamcommunity/public/images/apps/872330/6960fc6ee3ceb6b47d79f6cd0ac76ffa0427834e.jpg"
  },
  {
    "name": "achievement_20",
    "defaultvalue": 0,
    "displayName": "I",
    "hidden": 0,
    "description": "Kill 200 dark souls",
    "icon": "https://steamcdn-a.akamaihd.net/steamcommunity/public/images/apps/872330/ea9626d836d7fe5be92450b1a0ddb8e3b3765cf3.jpg",
    "icongray": "https://steamcdn-a.akamaihd.net/steamcommunity/public/images/apps/872330/0353cdacd29a53f578786a6bd933f266a51baaca.jpg"
  },
  {
    "name": "achievement_21",
    "defaultvalue": 0,
    "displayName": "J",
    "hidden": 0,
    "description": "Kill 210 dark souls",
    "icon": "https://steamcdn-a.akamaihd.net/steamcommunity/public/images/apps/872330/e2d110a095e99697b40a34492df7639a70940514.jpg",
    "icongray": "https://steamcdn-a.akamaihd.net/steamcommunity/public/images/apps/872330/2155ba4eef5448d97a610ee4a044eefdefc490e7.jpg"
  },
  {
    "name": "achievement_22",
    "defaultvalue": 0,
    "displayName": "K",
    "hidden": 0,
    "description": "Kill 220 dark souls",
    "icon": "https://steamcdn-a.akamaihd.net/steamcommunity/public/images/apps/872330/a5259c1042693c8525acbd5cfa6ca6ebf783f4a3.jpg",
    "icongray": "https://steamcdn-a.akamaihd.net/steamcommunity/public/images/apps/872330/50741a484692f7e83aac595b66122cd7c900be62.jpg"
  },
  {
    "name": "achievement_23",
    "defaultvalue": 0,
    "displayName": "L",
    "hidden": 0,
    "description": "Kill 230 dark souls",
    "icon": "https://steamcdn-a.akamaihd.net/steamcommunity/public/images/apps/872330/cbbefe78b051a49e3ee394311f3d9251475e7d4d.jpg",
    "icongray": "https://steamcdn-a.akamaihd.net/steamcommunity/public/images/apps/872330/d3fb5d12941d56a51600c975caeb3d504b81cd46.jpg"
  },
  {
    "name": "achievement_24",
    "defaultvalue": 0,
    "displayName": "M",
    "hidden": 0,
    "description": "Kill 240 dark souls",
    "icon": "https://steamcdn-a.akamaihd.net/steamcommunity/public/images/apps/872330/f653e9144c3b22bf45ebb98f4e1a027f4ea156cd.jpg",
    "icongray": "https://steamcdn-a.akamaihd.net/steamcommunity/public/images/apps/872330/aa8cc288f27ee092dac1dcfd21fbd94b1ab5090f.jpg"
  },
  {
    "name": "achievement_25",
    "defaultvalue": 0,
    "displayName": "N",
    "hidden": 0,
    "description": "Kill 250 dark souls",
    "icon": "https://steamcdn-a.akamaihd.net/steamcommunity/public/images/apps/872330/ec1a1af9b7f690e76288b97c0bd6be9621a650d0.jpg",
    "icongray": "https://steamcdn-a.akamaihd.net/steamcommunity/public/images/apps/872330/7124af6124f00763c01064b462778b298a0b47b4.jpg"
  },
  {
    "name": "achievement_26",
    "defaultvalue": 0,
    "displayName": "O",
    "hidden": 0,
    "description": "Kill 260 dark souls",
    "icon": "https://steamcdn-a.akamaihd.net/steamcommunity/public/images/apps/872330/742e4f76464d01d2978d8ee67ea75f4ba8035d90.jpg",
    "icongray": "https://steamcdn-a.akamaihd.net/steamcommunity/public/images/apps/872330/38f6cab3d6534c6f7e274c37c2f457a14f558380.jpg"
  },
  {
    "name": "achievement_27",
    "defaultvalue": 0,
    "displayName": "P",
    "hidden": 0,
    "description": "Kill 270 dark souls",
    "icon": "https://steamcdn-a.akamaihd.net/steamcommunity/public/images/apps/872330/dbe79f46a29aeeb3272012aef40c32810b0077de.jpg",
    "icongray": "https://steamcdn-a.akamaihd.net/steamcommunity/public/images/apps/872330/9d189216e877e1449513d45a831c6f4f23121513.jpg"
  },
  {
    "name": "achievement_28",
    "defaultvalue": 0,
    "displayName": "Q",
    "hidden": 0,
    "description": "Kill 280 dark souls",
    "icon": "https://steamcdn-a.akamaihd.net/steamcommunity/public/images/apps/872330/47fd88f2bf743be8e8967f9e6e52984dcea96dd4.jpg",
    "icongray": "https://steamcdn-a.akamaihd.net/steamcommunity/public/images/apps/872330/8ec3bef7c74865c5751ed981d6816562c63a36e6.jpg"
  },
  {
    "name": "achievement_29",
    "defaultvalue": 0,
    "displayName": "R",
    "hidden": 0,
    "description": "Kill 290 dark souls",
    "icon": "https://steamcdn-a.akamaihd.net/steamcommunity/public/images/apps/872330/5da0f28490556ebafbca55ae050b066fddf12039.jpg",
    "icongray": "https://steamcdn-a.akamaihd.net/steamcommunity/public/images/apps/872330/3913c1b78d2b440a66c2c417e84aa14b28fede07.jpg"
  },
  {
    "name": "achievement_30",
    "defaultvalue": 0,
    "displayName": "S",
    "hidden": 0,
    "description": "Kill 300 dark souls",
    "icon": "https://steamcdn-a.akamaihd.net/steamcommunity/public/images/apps/872330/76c4e29a0f3acf06815db60c8613ee825513bd8c.jpg",
    "icongray": "https://steamcdn-a.akamaihd.net/steamcommunity/public/images/apps/872330/c49cdc796e0f468a289635c6a55358dba36d3691.jpg"
  },
  {
    "name": "achievement_31",
    "defaultvalue": 0,
    "displayName": "T",
    "hidden": 0,
    "description": "Kill 310 dark souls",
    "icon": "https://steamcdn-a.akamaihd.net/steamcommunity/public/images/apps/872330/e2bed3624df84887bde38ce39941751a32acd8c6.jpg",
    "icongray": "https://steamcdn-a.akamaihd.net/steamcommunity/public/images/apps/872330/7c28dbb12185b56144c6de2f404f63ddfe28894b.jpg"
  },
  {
    "name": "achievement_32",
    "defaultvalue": 0,
    "displayName": "U",
    "hidden": 0,
    "description": "Kill 320 dark souls",
    "icon": "https://steamcdn-a.akamaihd.net/steamcommunity/public/images/apps/872330/abfae2c86ac1d2f8ca698633297ab77f16d71e4d.jpg",
    "icongray": "https://steamcdn-a.akamaihd.net/steamcommunity/public/images/apps/872330/61bbff0beb1adf423698b0862b37cc19ffbbe0e1.jpg"
  },
  {
    "name": "achievement_33",
    "defaultvalue": 0,
    "displayName": "V",
    "hidden": 0,
    "description": "Kill 330 dark souls",
    "icon": "https://steamcdn-a.akamaihd.net/steamcommunity/public/images/apps/872330/757f1680425b0f62d043ac6c9b3aae819d770389.jpg",
    "icongray": "https://steamcdn-a.akamaihd.net/steamcommunity/public/images/apps/872330/54a71b99d0b487c52a830ccc408f56b56483aa45.jpg"
  },
  {
    "name": "achievement_34",
    "defaultvalue": 0,
    "displayName": "W",
    "hidden": 0,
    "description": "Kill 340 dark souls",
    "icon": "https://steamcdn-a.akamaihd.net/steamcommunity/public/images/apps/872330/001ea200c195a9c5d982aa935d03d3d73fa7a72d.jpg",
    "icongray": "https://steamcdn-a.akamaihd.net/steamcommunity/public/images/apps/872330/48df5ec17c221ee1bee6c75d6d2607bc4511ed50.jpg"
  },
  {
    "name": "achievement_35",
    "defaultvalue": 0,
    "displayName": "X",
    "hidden": 0,
    "description": "Kill 350 dark souls",
    "icon": "https://steamcdn-a.akamaihd.net/steamcommunity/public/images/apps/872330/0c807f7ae1a35b40eb0f8a82a11810a4b140dba7.jpg",
    "icongray": "https://steamcdn-a.akamaihd.net/steamcommunity/public/images/apps/872330/bef1421ddcfc1876565a463c9e92c8ef0d973af2.jpg"
  },
  {
    "name": "achievement_36",
    "defaultvalue": 0,
    "displayName": "Y",
    "hidden": 0,
    "description": "Kill 360 dark souls",
    "icon": "https://steamcdn-a.akamaihd.net/steamcommunity/public/images/apps/872330/55b27957632d8298b64fa86519b5c2f7b0c223f2.jpg",
    "icongray": "https://steamcdn-a.akamaihd.net/steamcommunity/public/images/apps/872330/7fc3d35cde7bdb472d084c3ad7675c1840bd4f3d.jpg"
  },
  {
    "name": "achievement_37",
    "defaultvalue": 0,
    "displayName": "Z",
    "hidden": 0,
    "description": "Kill 370 dark souls",
    "icon": "https://steamcdn-a.akamaihd.net/steamcommunity/public/images/apps/872330/87c228b2f2c697d4f555c2aabe389ede3634fb04.jpg",
    "icongray": "https://steamcdn-a.akamaihd.net/steamcommunity/public/images/apps/872330/40dbecddb63aa1ae777da37930dad423f5b7b5dd.jpg"
  }
]