[
  {
    "name": "ACH_BATTLE_COMPLETED",
    "defaultvalue": 0,
    "displayName": "Battle Completed",
    "hidden": 0,
    "description": "Completed a Battle",
    "icon": "https://steamcdn-a.akamaihd.net/steamcommunity/public/images/apps/290810/d016622a366312db45b545287257309e9bde3810.jpg",
    "icongray": "https://steamcdn-a.akamaihd.net/steamcommunity/public/images/apps/290810/8022b281adb27e26ce517ee0cb4501aaa7f1c19e.jpg"
  }
]