[
  {
    "name": "ACH_TrainingDay",
    "defaultvalue": 0,
    "displayName": "Training Day",
    "hidden": 0,
    "description": "Complete The Training Mission",
    "icon": "https://steamcdn-a.akamaihd.net/steamcommunity/public/images/apps/305510/462ec2a5dc7dc5cee7f358531e391db88c7ea119.jpg",
    "icongray": "https://steamcdn-a.akamaihd.net/steamcommunity/public/images/apps/305510/a8e991390c87a7a37c12603070e5c53dcd8a491c.jpg"
  },
  {
    "name": "ACH_YoHoHo",
    "defaultvalue": 0,
    "displayName": "Yo Ho Ho and a Bottle of Space Rum",
    "hidden": 0,
    "description": "Defeat the Dark Sun Pirates",
    "icon": "https://steamcdn-a.akamaihd.net/steamcommunity/public/images/apps/305510/0c5e5d866a53b0f68cff95029f714848154851d0.jpg",
    "icongray": "https://steamcdn-a.akamaihd.net/steamcommunity/public/images/apps/305510/7e64607c6812cb729c6afad7605c64365b7a2f85.jpg"
  },
  {
    "name": "ACH_HostileTakeover",
    "defaultvalue": 0,
    "displayName": "Hostile Takeover",
    "hidden": 0,
    "description": "Defeat the Amaranth Empire",
    "icon": "https://steamcdn-a.akamaihd.net/steamcommunity/public/images/apps/305510/4f419b78d26fbcb036fb2bf0ea612e4241fd2a99.jpg",
    "icongray": "https://steamcdn-a.akamaihd.net/steamcommunity/public/images/apps/305510/0b251d628313239533e77959a186b60d3101abb4.jpg"
  },
  {
    "name": "ACH_HardAssOverHere",
    "defaultvalue": 0,
    "displayName": "Hard Ass Over Here",
    "hidden": 0,
    "description": "Beat all Campaign Levels on Hard",
    "icon": "https://steamcdn-a.akamaihd.net/steamcommunity/public/images/apps/305510/7a4251095e29a7d627ac0599de1a9f6f270e31bb.jpg",
    "icongray": "https://steamcdn-a.akamaihd.net/steamcommunity/public/images/apps/305510/ab8fa16574eac4df044e9b9eeae7e733fa6928ea.jpg"
  },
  {
    "name": "ACH_YouActuallyDidThis",
    "defaultvalue": 0,
    "displayName": "Wait... You Actually Did This?",
    "hidden": 0,
    "description": "Beat all Campaign Levels on Insane",
    "icon": "https://steamcdn-a.akamaihd.net/steamcommunity/public/images/apps/305510/d5d3c66d83bbc5f28a81950023263a6abc8b37ab.jpg",
    "icongray": "https://steamcdn-a.akamaihd.net/steamcommunity/public/images/apps/305510/9f8d3769c657f598db0738851050a2fde2359a5a.jpg"
  },
  {
    "name": "ACH_Scrappy",
    "defaultvalue": 0,
    "displayName": "Scrappy",
    "hidden": 0,
    "description": "Collect 1000 Scrap",
    "icon": "https://steamcdn-a.akamaihd.net/steamcommunity/public/images/apps/305510/e1402d4a6d7edb3961957fe38b434e6dd074f25d.jpg",
    "icongray": "https://steamcdn-a.akamaihd.net/steamcommunity/public/images/apps/305510/f37d96f8131f4ad4b3f3cfc8a17da75fd3c9cc4f.jpg"
  },
  {
    "name": "ACH_TrashCollector",
    "defaultvalue": 0,
    "displayName": "Trash Collector",
    "hidden": 0,
    "description": "Collect 100000 Scrap",
    "icon": "https://steamcdn-a.akamaihd.net/steamcommunity/public/images/apps/305510/054fd4a89f542cc3f1e2baddb7ed91a5b5a3b00c.jpg",
    "icongray": "https://steamcdn-a.akamaihd.net/steamcommunity/public/images/apps/305510/34023d20fce72b835db0428fc359bd40171a4e2f.jpg"
  },
  {
    "name": "ACH_InTheBank",
    "defaultvalue": 0,
    "displayName": "In the Bank",
    "hidden": 0,
    "description": "Collect 10000 Credits",
    "icon": "https://steamcdn-a.akamaihd.net/steamcommunity/public/images/apps/305510/2bd1add55676b04745c9c7523834157e7bf4013d.jpg",
    "icongray": "https://steamcdn-a.akamaihd.net/steamcommunity/public/images/apps/305510/168dc6b9924288f0fd73386729c2a89068ed7769.jpg"
  },
  {
    "name": "ACH_CreditLine",
    "defaultvalue": 0,
    "displayName": "Credit Line",
    "hidden": 0,
    "description": "Collect 1000000 Credits",
    "icon": "https://steamcdn-a.akamaihd.net/steamcommunity/public/images/apps/305510/e77617f6dabae70a961c30dd66ab1df5fce8d94b.jpg",
    "icongray": "https://steamcdn-a.akamaihd.net/steamcommunity/public/images/apps/305510/285864d5e7b78edf66b51886026e5c882858a512.jpg"
  },
  {
    "name": "ACH_WhatsInAName",
    "defaultvalue": 0,
    "displayName": "What's In A Name?",
    "hidden": 0,
    "description": "Give a Servo a custom name",
    "icon": "https://steamcdn-a.akamaihd.net/steamcommunity/public/images/apps/305510/cdb0099fd099e0181c36da292a9da035e812b505.jpg",
    "icongray": "https://steamcdn-a.akamaihd.net/steamcommunity/public/images/apps/305510/b2f072ff838dd4d20eaa1f236e0035a18baff85f.jpg"
  },
  {
    "name": "ACH_WreckingBall",
    "defaultvalue": 0,
    "displayName": "Wrecking Ball",
    "hidden": 0,
    "description": "Destroy 1000 Buildings",
    "icon": "https://steamcdn-a.akamaihd.net/steamcommunity/public/images/apps/305510/f649718bd481f9c34ef6b798ae410a8e7732097e.jpg",
    "icongray": "https://steamcdn-a.akamaihd.net/steamcommunity/public/images/apps/305510/c5797097a631617c3a75964cc400670f55f19a8d.jpg"
  },
  {
    "name": "ACH_Exterminator",
    "defaultvalue": 0,
    "displayName": "Exterminator",
    "hidden": 0,
    "description": "Kill 1000 Creeps",
    "icon": "https://steamcdn-a.akamaihd.net/steamcommunity/public/images/apps/305510/189a8a8752bc369924efe7c4eef260eff2b269e7.jpg",
    "icongray": "https://steamcdn-a.akamaihd.net/steamcommunity/public/images/apps/305510/537a0103cf3cdc1b1d55536a997f345bb9f7c6be.jpg"
  },
  {
    "name": "ACH_DroneHater",
    "defaultvalue": 0,
    "displayName": "Drone Hater",
    "hidden": 0,
    "description": "Kill 5000 Drones",
    "icon": "https://steamcdn-a.akamaihd.net/steamcommunity/public/images/apps/305510/1878543b1319457bae4e72fdecaf476b8a1ee08a.jpg",
    "icongray": "https://steamcdn-a.akamaihd.net/steamcommunity/public/images/apps/305510/b8008c27e9c15e7513be52c44350b011f4c4b8ed.jpg"
  },
  {
    "name": "ACH_DroneLover",
    "defaultvalue": 0,
    "displayName": "Drone Lover",
    "hidden": 0,
    "description": "Control 75 Drones at once",
    "icon": "https://steamcdn-a.akamaihd.net/steamcommunity/public/images/apps/305510/f591ee8a8a9c4018b5ff8f2229773bb367eef3f3.jpg",
    "icongray": "https://steamcdn-a.akamaihd.net/steamcommunity/public/images/apps/305510/7cd0cba084cf2df4ad9246a2a049dd722b6d5cde.jpg"
  },
  {
    "name": "ACH_OrbitalDestruction",
    "defaultvalue": 0,
    "displayName": "Orbital Destruction",
    "hidden": 0,
    "description": "Kill 1000 Enemies with an Orbital Strike",
    "icon": "https://steamcdn-a.akamaihd.net/steamcommunity/public/images/apps/305510/50858062a13a37c918e1dfcb34e041226625aeb8.jpg",
    "icongray": "https://steamcdn-a.akamaihd.net/steamcommunity/public/images/apps/305510/3b0349cdc86cfbe536622bb1703342a12ac55a3e.jpg"
  },
  {
    "name": "ACH_TTYL",
    "defaultvalue": 0,
    "displayName": "TTYL",
    "hidden": 0,
    "description": "Travel 1000 Meters with Teleport",
    "icon": "https://steamcdn-a.akamaihd.net/steamcommunity/public/images/apps/305510/c20cb0f8e3494790ff50e4f960b2513b9c93c942.jpg",
    "icongray": "https://steamcdn-a.akamaihd.net/steamcommunity/public/images/apps/305510/317b9767bb4e4ac39864eae49914a8a4018b6a00.jpg"
  },
  {
    "name": "ACH_AndThatOneIs",
    "defaultvalue": 0,
    "displayName": "And that one is Hauk-8...",
    "hidden": 0,
    "description": "Convert 1000 Creeps into Pets",
    "icon": "https://steamcdn-a.akamaihd.net/steamcommunity/public/images/apps/305510/aa38a64a5a487252edfa5970d1a3e6b571e52ad2.jpg",
    "icongray": "https://steamcdn-a.akamaihd.net/steamcommunity/public/images/apps/305510/797029c9d0f020ae0b504108327243eb969fa54d.jpg"
  },
  {
    "name": "ACH_RageAgainstTheMachines",
    "defaultvalue": 0,
    "displayName": "Rage Against the Machines",
    "hidden": 0,
    "description": "Deal 100000 Damage using Rage",
    "icon": "https://steamcdn-a.akamaihd.net/steamcommunity/public/images/apps/305510/e0009c44af0931664d147b254ebdb6c7ab4f9c88.jpg",
    "icongray": "https://steamcdn-a.akamaihd.net/steamcommunity/public/images/apps/305510/dde5893b39b8619fe1703ced972b5394c851c7a4.jpg"
  },
  {
    "name": "ACH_AllMine",
    "defaultvalue": 0,
    "displayName": "All Mine",
    "hidden": 0,
    "description": "Strip Mine 100000 Bloom from Bloom Wells ",
    "icon": "https://steamcdn-a.akamaihd.net/steamcommunity/public/images/apps/305510/4fb98a4341155248cb2a5ba12940f14c4c0688fa.jpg",
    "icongray": "https://steamcdn-a.akamaihd.net/steamcommunity/public/images/apps/305510/e130d5a65266181f20b2203824f41b6927cc69f5.jpg"
  },
  {
    "name": "ACH_AWinnerIsYou",
    "defaultvalue": 0,
    "displayName": "A Winner Is You!",
    "hidden": 0,
    "description": "Win 10 PVP Games",
    "icon": "https://steamcdn-a.akamaihd.net/steamcommunity/public/images/apps/305510/18b0fa0230ae0b0c8c97f45eb7c094d148ddca05.jpg",
    "icongray": "https://steamcdn-a.akamaihd.net/steamcommunity/public/images/apps/305510/ad1086187ee224109967591e4175f237bb8f7050.jpg"
  },
  {
    "name": "ACH_WinnerWinnerLasherDinner",
    "defaultvalue": 0,
    "displayName": "Winner, Winner, Lasher Dinner",
    "hidden": 0,
    "description": "Win 250 PVP Games",
    "icon": "https://steamcdn-a.akamaihd.net/steamcommunity/public/images/apps/305510/4a5203d4c37ed895916e5179da131b15c2e0a7c6.jpg",
    "icongray": "https://steamcdn-a.akamaihd.net/steamcommunity/public/images/apps/305510/726f951cc18f103d2b4d413261d1500f177cbb82.jpg"
  },
  {
    "name": "ACH_FriendshipPrevails",
    "defaultvalue": 0,
    "displayName": "Friendship Prevails",
    "hidden": 0,
    "description": "Win 10 CoOp Games",
    "icon": "https://steamcdn-a.akamaihd.net/steamcommunity/public/images/apps/305510/32d1b172cd8ef4eeaadea60187f7b704b7d1894c.jpg",
    "icongray": "https://steamcdn-a.akamaihd.net/steamcommunity/public/images/apps/305510/5166e3d89bb0b94b52ee53d7e1f72e0b10574fcc.jpg"
  },
  {
    "name": "ACH_ThatsTeamwork",
    "defaultvalue": 0,
    "displayName": "That's Freakin' Teamwork",
    "hidden": 0,
    "description": "Win 250 CoOp Games",
    "icon": "https://steamcdn-a.akamaihd.net/steamcommunity/public/images/apps/305510/e2424dee28ee8e1e2918065504b056911771e230.jpg",
    "icongray": "https://steamcdn-a.akamaihd.net/steamcommunity/public/images/apps/305510/1d9a968897d5fa83a84e143da998a925b395cd15.jpg"
  },
  {
    "name": "ACH_NobleSacrifice",
    "defaultvalue": 0,
    "displayName": "Noble Sacrifice",
    "hidden": 0,
    "description": "Destroy a Dropship with Unstable Core",
    "icon": "https://steamcdn-a.akamaihd.net/steamcommunity/public/images/apps/305510/59a97a4e3744d879c8a2fe1e2dcf28d3ee459f32.jpg",
    "icongray": "https://steamcdn-a.akamaihd.net/steamcommunity/public/images/apps/305510/67a78a292d6973a52592759d8aaeafed2277a1e1.jpg"
  },
  {
    "name": "ACH_Untouchable",
    "defaultvalue": 0,
    "displayName": "Untouchable",
    "hidden": 0,
    "description": "Win Sandstorm Co-op with neither player taking any damage to their dropships",
    "icon": "https://steamcdn-a.akamaihd.net/steamcommunity/public/images/apps/305510/a84fd87c8e6488eda5250e5845a9f5f0dfd48f68.jpg",
    "icongray": "https://steamcdn-a.akamaihd.net/steamcommunity/public/images/apps/305510/74fa0bd1b59d77b979bd861048471201833b51c7.jpg"
  }
]