﻿[
  {
    "name": "equipped_character",
    "defaultvalue": 0,
    "displayName": "equipped_character"
  },
  {
    "name": "equipped_grenade",
    "defaultvalue": 0,
    "displayName": "equipped_grenade"
  },
  {
    "name": "equipped_melee",
    "defaultvalue": 0,
    "displayName": ""
  },
  {
    "name": "equipped_secondary",
    "defaultvalue": 0,
    "displayName": ""
  },
  {
    "name": "equipped_primary",
    "defaultvalue": 0,
    "displayName": ""
  },
  {
    "name": "level_achieved",
    "defaultvalue": 1,
    "displayName": "level_achieved"
  },
  {
    "name": "ach_run_over_enemies_with_jeep",
    "defaultvalue": 0,
    "displayName": "ach_run_over_enemies_with_jeep"
  },
  {
    "name": "ach_revive_teammates",
    "defaultvalue": 0,
    "displayName": "ach_revive_teammates"
  },
  {
    "name": "ach_every_player_different_class",
    "defaultvalue": 0,
    "displayName": "ach_every_player_different_class"
  },
  {
    "name": "ach_create_character",
    "defaultvalue": 0,
    "displayName": ""
  },
  {
    "name": "ach_reach_level",
    "defaultvalue": 0,
    "displayName": "ach_reach_level"
  },
  {
    "name": "ach_kill_enemies",
    "defaultvalue": 0,
    "displayName": "ach_kill_enemies"
  },
  {
    "name": "ach_open_loot_crates",
    "defaultvalue": 0,
    "displayName": "ach_open_loot_crates"
  },
  {
    "name": "ach_kill_enemies_with_secondary_weap",
    "defaultvalue": 0,
    "displayName": "ach_kill_enemies_with_secondary_weap"
  },
  {
    "name": "ach_kill_enemies_with_melee",
    "defaultvalue": 0,
    "displayName": "ach_kill_enemies_with_melee"
  },
  {
    "name": "ach_kill_enemies_with_headshot",
    "defaultvalue": 0,
    "displayName": "ach_kill_enemies_with_headshot"
  },
  {
    "name": "ach_kill_enemies_with_turret",
    "defaultvalue": 0,
    "displayName": "ach_kill_enemies_with_turret"
  },
  {
    "name": "ach_kill_flamers",
    "defaultvalue": 0,
    "displayName": "ach_kill_flamers"
  },
  {
    "name": "ach_dismember_enemies",
    "defaultvalue": 0,
    "displayName": "ach_dismember_enemies"
  },
  {
    "name": "ach_kill_enemies_with_single_grenade",
    "defaultvalue": 0,
    "displayName": "ach_kill_enemies_with_single_grenade"
  },
  {
    "name": "ach_kill_enemies_with_grenades",
    "defaultvalue": 0,
    "displayName": "ach_kill_enemies_with_grenades"
  },
  {
    "name": "ach_complete_raid_with_no_kills",
    "defaultvalue": 0,
    "displayName": "ach_complete_raid_with_no_kills"
  },
  {
    "name": "ach_all_players_have_crowbar",
    "defaultvalue": 0,
    "displayName": "ach_all_players_have_crowbar"
  },
  {
    "name": "ach_all_players_go_to_bleedout",
    "defaultvalue": 0,
    "displayName": "ach_all_players_go_to_bleedout"
  },
  {
    "name": "ach_all_3_top_stats_award",
    "defaultvalue": 0,
    "displayName": "ach_win_all_3_best_of_awards"
  },
  {
    "name": "ach_top_stats_award",
    "defaultvalue": 0,
    "displayName": "ach_win_best_of_award"
  },
  {
    "name": "ach_weap_points_spend",
    "defaultvalue": 0,
    "displayName": "ach_weap_points_spend1"
  },
  {
    "name": "ach_reach_level_40_count",
    "defaultvalue": 0,
    "displayName": "ach_reach_level_40_count"
  },
  {
    "name": "challenge_cards_complete_operation_common_count",
    "defaultvalue": 0,
    "displayName": ""
  },
  {
    "name": "challenge_cards_complete_operation_rare_count",
    "defaultvalue": 0,
    "displayName": ""
  },
  {
    "name": "challenge_cards_complete_operation_uncommon_count",
    "defaultvalue": 0,
    "displayName": ""
  },
  {
    "name": "challenge_cards_complete_raid_common_count",
    "defaultvalue": 0,
    "displayName": ""
  },
  {
    "name": "challenge_cards_complete_raid_rare_count",
    "defaultvalue": 0,
    "displayName": ""
  },
  {
    "name": "challenge_cards_complete_raid_uncommon_count",
    "defaultvalue": 0,
    "displayName": ""
  },
  {
    "name": "challenge_cards_start_operation_common_count",
    "defaultvalue": 0,
    "displayName": ""
  },
  {
    "name": "challenge_cards_start_operation_rare_count",
    "defaultvalue": 0,
    "displayName": ""
  },
  {
    "name": "challenge_cards_start_operation_uncommon_count",
    "defaultvalue": 0,
    "displayName": ""
  },
  {
    "name": "challenge_cards_start_raid_common_count",
    "defaultvalue": 0,
    "displayName": ""
  },
  {
    "name": "challenge_cards_start_raid_rare_count",
    "defaultvalue": 0,
    "displayName": ""
  },
  {
    "name": "challenge_cards_start_raid_uncommon_count",
    "defaultvalue": 0,
    "displayName": ""
  },
  {
    "name": "challenge_cards_complete_operation_total_count",
    "defaultvalue": 0,
    "displayName": ""
  },
  {
    "name": "challenge_cards_complete_raid_total_count",
    "defaultvalue": 0,
    "displayName": ""
  },
  {
    "name": "challenge_cards_start_operation_total_count",
    "defaultvalue": 0,
    "displayName": ""
  },
  {
    "name": "challenge_cards_start_raid_total_count",
    "defaultvalue": 0,
    "displayName": ""
  },
  {
    "name": "enemy_kills_german_black_waffen_ss_sentry_gasmask",
    "defaultvalue": 0,
    "displayName": "enemy_kills_german_black_waffen_ss_sentry_gasmask"
  },
  {
    "name": "enemy_kills_german_black_waffen_ss_sentry_heavy",
    "defaultvalue": 0,
    "displayName": "enemy_kills_german_black_waffen_ss_sentry_heavy"
  },
  {
    "name": "enemy_kills_german_black_waffen_ss_sentry_light",
    "defaultvalue": 0,
    "displayName": "enemy_kills_german_black_waffen_ss_sentry_light"
  },
  {
    "name": "enemy_kills_german_commander",
    "defaultvalue": 0,
    "displayName": "enemy_kills_german_commander"
  },
  {
    "name": "enemy_kills_german_officer",
    "defaultvalue": 0,
    "displayName": "enemy_kills_german_officer"
  },
  {
    "name": "enemy_kills_german_fallschirmjager_heavy",
    "defaultvalue": 0,
    "displayName": "enemy_kills_german_fallschirmjager_heavy"
  },
  {
    "name": "enemy_kills_german_fallschirmjager_light",
    "defaultvalue": 0,
    "displayName": "enemy_kills_german_fallschirmjager_light"
  },
  {
    "name": "enemy_kills_german_flamer",
    "defaultvalue": 0,
    "displayName": "enemy_kills_german_flamer"
  },
  {
    "name": "enemy_kills_german_gebirgsjager_heavy",
    "defaultvalue": 0,
    "displayName": "enemy_kills_german_gebirgsjager_heavy"
  },
  {
    "name": "enemy_kills_german_gebirgsjager_light",
    "defaultvalue": 0,
    "displayName": "enemy_kills_german_gebirgsjager_light"
  },
  {
    "name": "enemy_kills_german_grunt_heavy",
    "defaultvalue": 0,
    "displayName": "enemy_kills_german_grunt_heavy"
  },
  {
    "name": "enemy_kills_german_grunt_light",
    "defaultvalue": 0,
    "displayName": "enemy_kills_german_grunt_light"
  },
  {
    "name": "enemy_kills_german_grunt_mid",
    "defaultvalue": 0,
    "displayName": "enemy_kills_german_grunt_mid"
  },
  {
    "name": "enemy_kills_german_sniper",
    "defaultvalue": 0,
    "displayName": "enemy_kills_german_sniper"
  },
  {
    "name": "grenade_kills_m24",
    "defaultvalue": 0,
    "displayName": "grenade_kills_m24"
  },
  {
    "name": "melee_kills_weapon",
    "defaultvalue": 0,
    "displayName": "melee_kills_weapon"
  },
  {
    "name": "melee_kills_fists",
    "defaultvalue": 0,
    "displayName": "melee_kills_fists"
  },
  {
    "name": "melee_kills_m3_knife",
    "defaultvalue": 0,
    "displayName": "melee_kills_m3_knife"
  },
  {
    "name": "melee_kills_robbins_dudley_trench_push_dagger",
    "defaultvalue": 0,
    "displayName": "melee_kills_robbins_dudley_trench_push_dagger"
  },
  {
    "name": "melee_kills_german_brass_knuckles",
    "defaultvalue": 0,
    "displayName": "melee_kills_german_brass_knuckles"
  },
  {
    "name": "melee_kills_lockwood_brothers_push_dagger",
    "defaultvalue": 0,
    "displayName": "melee_kills_lockwood_brothers_push_dagger"
  },
  {
    "name": "melee_kills_bc41_knuckle_knife",
    "defaultvalue": 0,
    "displayName": "melee_kills_bc41_knuckle_knife"
  },
  {
    "name": "melee_kills_pick_axe",
    "defaultvalue": 0,
    "displayName": "melee_kills_pick_axe"
  },
  {
    "name": "weapon_kills_m1911",
    "defaultvalue": 0,
    "displayName": "weapon_kills_m1911"
  },
  {
    "name": "weapon_kills_c96",
    "defaultvalue": 0,
    "displayName": "weapon_kills_c96"
  },
  {
    "name": "weapon_kills_thompson",
    "defaultvalue": 0,
    "displayName": "weapon_kills_thompson"
  },
  {
    "name": "weapon_kills_sten",
    "defaultvalue": 0,
    "displayName": "weapon_kills_sten"
  },
  {
    "name": "weapon_kills_garand",
    "defaultvalue": 0,
    "displayName": "weapon_kills_garand"
  },
  {
    "name": "weapon_kills_m1918",
    "defaultvalue": 0,
    "displayName": "weapon_kills_m1918"
  },
  {
    "name": "weapon_kills_m1903",
    "defaultvalue": 0,
    "displayName": "weapon_kills_m1903"
  },
  {
    "name": "weapon_kills_m1912",
    "defaultvalue": 0,
    "displayName": "weapon_kills_m1912"
  },
  {
    "name": "weapon_kills_mp38",
    "defaultvalue": 0,
    "displayName": "weapon_kills_mp38"
  },
  {
    "name": "weapon_kills_carbine",
    "defaultvalue": 0,
    "displayName": "weapon_kills_carbine"
  },
  {
    "name": "weapon_kills_mp44",
    "defaultvalue": 0,
    "displayName": "weapon_kills_mp44"
  },
  {
    "name": "weapon_kills_mg42",
    "defaultvalue": 0,
    "displayName": "weapon_kills_mg42"
  },
  {
    "name": "weapon_kills_mosin",
    "defaultvalue": 0,
    "displayName": "weapon_kills_mosin"
  },
  {
    "name": "weapon_kills_sterling",
    "defaultvalue": 0,
    "displayName": "weapon_kills_sterling"
  },
  {
    "name": "option_resolution_1024x768",
    "defaultvalue": 0,
    "displayName": "option_resolution_1024x768"
  },
  {
    "name": "option_resolution_1280x1024",
    "defaultvalue": 0,
    "displayName": "option_resolution_1280x1024"
  },
  {
    "name": "option_resolution_1280x720",
    "defaultvalue": 0,
    "displayName": "option_resolution_1280x720"
  },
  {
    "name": "option_resolution_1280x800",
    "defaultvalue": 0,
    "displayName": "option_resolution_1280x800"
  },
  {
    "name": "option_resolution_1360x768",
    "defaultvalue": 0,
    "displayName": "option_resolution_1360x768"
  },
  {
    "name": "option_resolution_1366x768",
    "defaultvalue": 0,
    "displayName": "option_resolution_1366x768"
  },
  {
    "name": "option_resolution_1440x900",
    "defaultvalue": 0,
    "displayName": "option_resolution_1440x900"
  },
  {
    "name": "option_resolution_1536x864",
    "defaultvalue": 0,
    "displayName": "option_resolution_1536x864"
  },
  {
    "name": "option_resolution_1600x900",
    "defaultvalue": 0,
    "displayName": "option_resolution_1600x900"
  },
  {
    "name": "option_resolution_1680x1050",
    "defaultvalue": 0,
    "displayName": "option_resolution_1680x1050"
  },
  {
    "name": "option_resolution_1920x1080",
    "defaultvalue": 0,
    "displayName": "option_resolution_1920x1080"
  },
  {
    "name": "option_resolution_1920x1200",
    "defaultvalue": 0,
    "displayName": "option_resolution_1920x1200"
  },
  {
    "name": "option_resolution_2560x1440",
    "defaultvalue": 0,
    "displayName": "option_resolution_2560x1440"
  },
  {
    "name": "option_resolution_3840x2160",
    "defaultvalue": 0,
    "displayName": "option_resolution_3840x2160"
  },
  {
    "name": "option_resolution_other",
    "defaultvalue": 0,
    "displayName": "option_resolution_other"
  },
  {
    "name": "player_level",
    "defaultvalue": 0,
    "displayName": "player_level"
  },
  {
    "name": "player_level_1",
    "defaultvalue": 0,
    "displayName": "player_level_1"
  },
  {
    "name": "player_level_10",
    "defaultvalue": 0,
    "displayName": "player_level_10"
  },
  {
    "name": "player_level_20",
    "defaultvalue": 0,
    "displayName": "player_level_20"
  },
  {
    "name": "player_level_30",
    "defaultvalue": 0,
    "displayName": "player_level_30"
  },
  {
    "name": "player_level_40",
    "defaultvalue": 0,
    "displayName": "player_level_40"
  },
  {
    "name": "player_time_0h",
    "defaultvalue": 0,
    "displayName": "player_time_0h"
  },
  {
    "name": "player_time_10h",
    "defaultvalue": 0,
    "displayName": "player_time_10h"
  },
  {
    "name": "player_time_25h",
    "defaultvalue": 0,
    "displayName": "player_time_25h"
  },
  {
    "name": "player_time_50h",
    "defaultvalue": 0,
    "displayName": "player_time_50h"
  },
  {
    "name": "player_time_100h",
    "defaultvalue": 0,
    "displayName": "player_time_100h"
  },
  {
    "name": "player_time_150h",
    "defaultvalue": 0,
    "displayName": "player_time_150h"
  },
  {
    "name": "player_time_200h",
    "defaultvalue": 0,
    "displayName": "player_time_200h"
  },
  {
    "name": "player_time_250h",
    "defaultvalue": 0,
    "displayName": "player_time_250h"
  },
  {
    "name": "player_time_500h",
    "defaultvalue": 0,
    "displayName": "player_time_500h"
  },
  {
    "name": "player_time_1000h",
    "defaultvalue": 0,
    "displayName": "player_time_1000h"
  },
  {
    "name": "stat_version",
    "defaultvalue": 0,
    "displayName": "stat_version"
  },
  {
    "name": "challenge_cards_complete_mission_grand_total",
    "defaultvalue": 0,
    "displayName": "challenge_cards_complete_mission_grand_total"
  },
  {
    "name": "challenge_cards_complete_mission_rare_total",
    "defaultvalue": 0,
    "displayName": "challenge_cards_complete_mission_rare_total"
  },
  {
    "name": "game_played",
    "defaultvalue": 0,
    "displayName": "game_played"
  },
  {
    "name": "level_train_yard_started",
    "defaultvalue": 0,
    "displayName": "level_train_yard_started"
  },
  {
    "name": "level_train_yard_completed",
    "defaultvalue": 0,
    "displayName": "level_train_yard_completed"
  },
  {
    "name": "level_train_yard_from_beginning",
    "defaultvalue": 0,
    "displayName": "level_train_yard_from_beginning"
  },
  {
    "name": "level_train_yard_quit",
    "defaultvalue": 0,
    "displayName": "level_train_yard_quit"
  },
  {
    "name": "level_train_yard_time",
    "defaultvalue": 0,
    "displayName": "level_train_yard_time"
  },
  {
    "name": "level_radio_defense_time",
    "defaultvalue": 0,
    "displayName": "level_radio_defense_time"
  },
  {
    "name": "level_radio_defense_started",
    "defaultvalue": 0,
    "displayName": "level_radio_defense_started"
  },
  {
    "name": "level_radio_defense_quit",
    "defaultvalue": 0,
    "displayName": "level_radio_defense_quit"
  },
  {
    "name": "level_radio_defense_from_beginning",
    "defaultvalue": 0,
    "displayName": "level_radio_defense_from_beginning"
  },
  {
    "name": "level_radio_defense_drop_in",
    "defaultvalue": 0,
    "displayName": "level_radio_defense_drop_in"
  },
  {
    "name": "level_radio_defense_completed",
    "defaultvalue": 0,
    "displayName": "level_radio_defense_completed"
  },
  {
    "name": "level_flakturm_time",
    "defaultvalue": 0,
    "displayName": "level_flakturm_time"
  },
  {
    "name": "level_flakturm_started",
    "defaultvalue": 0,
    "displayName": "level_flakturm_started"
  },
  {
    "name": "level_flakturm_quit",
    "defaultvalue": 0,
    "displayName": "level_flakturm_quit"
  },
  {
    "name": "level_flakturm_from_beginning",
    "defaultvalue": 0,
    "displayName": "level_flakturm_from_beginning"
  },
  {
    "name": "level_flakturm_drop_in",
    "defaultvalue": 0,
    "displayName": "level_flakturm_drop_in"
  },
  {
    "name": "level_flakturm_completed",
    "defaultvalue": 0,
    "displayName": "level_flakturm_completed"
  },
  {
    "name": "level_ger_bridge_time",
    "defaultvalue": 0,
    "displayName": "level_ger_bridge_time"
  },
  {
    "name": "level_ger_bridge_started",
    "defaultvalue": 0,
    "displayName": "level_ger_bridge_started"
  },
  {
    "name": "level_ger_bridge_quit",
    "defaultvalue": 0,
    "displayName": "level_ger_bridge_quit"
  },
  {
    "name": "level_ger_bridge_from_beginning",
    "defaultvalue": 0,
    "displayName": "level_ger_bridge_from_beginning"
  },
  {
    "name": "level_ger_bridge_drop_in",
    "defaultvalue": 0,
    "displayName": "level_ger_bridge_drop_in"
  },
  {
    "name": "level_ger_bridge_completed",
    "defaultvalue": 0,
    "displayName": "level_ger_bridge_completed"
  },
  {
    "name": "level_settlement_time",
    "defaultvalue": 0,
    "displayName": "level_settlement_time"
  },
  {
    "name": "level_settlement_started",
    "defaultvalue": 0,
    "displayName": "level_settlement_started"
  },
  {
    "name": "level_settlement_quit",
    "defaultvalue": 0,
    "displayName": "level_settlement_quit"
  },
  {
    "name": "level_settlement_from_beginning",
    "defaultvalue": 0,
    "displayName": "level_settlement_from_beginning"
  },
  {
    "name": "level_settlement_drop_in",
    "defaultvalue": 0,
    "displayName": "level_settlement_drop_in"
  },
  {
    "name": "level_settlement_completed",
    "defaultvalue": 0,
    "displayName": "level_settlement_completed"
  },
  {
    "name": "level_tnd_time",
    "defaultvalue": 0,
    "displayName": "level_tnd_time"
  },
  {
    "name": "level_tnd_started",
    "defaultvalue": 0,
    "displayName": "level_tnd_started"
  },
  {
    "name": "level_tnd_quit",
    "defaultvalue": 0,
    "displayName": "level_tnd_quit"
  },
  {
    "name": "level_tnd_from_beginning",
    "defaultvalue": 0,
    "displayName": "level_tnd_from_beginning"
  },
  {
    "name": "level_tnd_drop_in",
    "defaultvalue": 0,
    "displayName": "level_tnd_drop_in"
  },
  {
    "name": "level_tnd_completed",
    "defaultvalue": 0,
    "displayName": "level_tnd_completed"
  },
  {
    "name": "level_sto_time",
    "defaultvalue": 0,
    "displayName": "level_sto_time"
  },
  {
    "name": "level_sto_started",
    "defaultvalue": 0,
    "displayName": "level_sto_started"
  },
  {
    "name": "level_sto_quit",
    "defaultvalue": 0,
    "displayName": "level_sto_quit"
  },
  {
    "name": "level_sto_from_beginning",
    "defaultvalue": 0,
    "displayName": "level_sto_from_beginning"
  },
  {
    "name": "level_sto_drop_in",
    "defaultvalue": 0,
    "displayName": "level_sto_drop_in"
  },
  {
    "name": "level_sto_completed",
    "defaultvalue": 0,
    "displayName": "level_sto_completed"
  },
  {
    "name": "level_train_yard_drop_in",
    "defaultvalue": 0,
    "displayName": "level_train_yard_drop_in"
  },
  {
    "name": "level_hunters_time",
    "defaultvalue": 0,
    "displayName": "level_hunters_time"
  },
  {
    "name": "level_hunters_started",
    "defaultvalue": 0,
    "displayName": "level_hunters_started"
  },
  {
    "name": "level_hunters_quit",
    "defaultvalue": 0,
    "displayName": "level_hunters_quit"
  },
  {
    "name": "level_hunters_from_beginning",
    "defaultvalue": 0,
    "displayName": "level_hunters_from_beginning"
  },
  {
    "name": "level_hunters_drop_in",
    "defaultvalue": 0,
    "displayName": "level_hunters_drop_in"
  },
  {
    "name": "level_hunters_completed",
    "defaultvalue": 0,
    "displayName": "level_hunters_completed"
  },
  {
    "name": "level_convoy_time",
    "defaultvalue": 0,
    "displayName": "level_convoy_time"
  },
  {
    "name": "level_convoy_started",
    "defaultvalue": 0,
    "displayName": "level_convoy_started"
  },
  {
    "name": "level_convoy_quit",
    "defaultvalue": 0,
    "displayName": "level_convoy_quit"
  },
  {
    "name": "level_convoy_from_beginning",
    "defaultvalue": 0,
    "displayName": "level_convoy_from_beginning"
  },
  {
    "name": "level_convoy_drop_in",
    "defaultvalue": 0,
    "displayName": "level_convoy_drop_in"
  },
  {
    "name": "level_convoy_completed",
    "defaultvalue": 0,
    "displayName": "level_convoy_completed"
  },
  {
    "name": "level_gold_rush_time",
    "defaultvalue": 0,
    "displayName": "level_gold_rush_time"
  },
  {
    "name": "level_gold_rush_started",
    "defaultvalue": 0,
    "displayName": "level_gold_rush_started"
  },
  {
    "name": "level_gold_rush_quit",
    "defaultvalue": 0,
    "displayName": "level_gold_rush_quit"
  },
  {
    "name": "level_gold_rush_from_beginning",
    "defaultvalue": 0,
    "displayName": "level_gold_rush_from_beginning"
  },
  {
    "name": "level_gold_rush_drop_in",
    "defaultvalue": 0,
    "displayName": "level_gold_rush_drop_in"
  },
  {
    "name": "level_gold_rush_completed",
    "defaultvalue": 0,
    "displayName": "level_gold_rush_completed"
  },
  {
    "name": "level_forest_gumpy_time",
    "defaultvalue": 0,
    "displayName": "level_forest_gumpy_time"
  },
  {
    "name": "level_forest_gumpy_started",
    "defaultvalue": 0,
    "displayName": "level_forest_gumpy_started"
  },
  {
    "name": "level_forest_gumpy_quit",
    "defaultvalue": 0,
    "displayName": "level_forest_gumpy_quit"
  },
  {
    "name": "level_forest_gumpy_from_beginning",
    "defaultvalue": 0,
    "displayName": "level_forest_gumpy_from_beginning"
  },
  {
    "name": "level_forest_gumpy_drop_in",
    "defaultvalue": 0,
    "displayName": "level_forest_gumpy_drop_in"
  },
  {
    "name": "level_forest_gumpy_completed",
    "defaultvalue": 0,
    "displayName": "level_forest_gumpy_completed"
  },
  {
    "name": "level_spies_test_time",
    "defaultvalue": 0,
    "displayName": "level_spies_test_time"
  },
  {
    "name": "level_spies_test_started",
    "defaultvalue": 0,
    "displayName": "level_spies_test_started"
  },
  {
    "name": "level_spies_test_quit",
    "defaultvalue": 0,
    "displayName": "level_spies_test_quit"
  },
  {
    "name": "level_spies_test_from_beginning",
    "defaultvalue": 0,
    "displayName": "level_spies_test_from_beginning"
  },
  {
    "name": "level_spies_test_drop_in",
    "defaultvalue": 0,
    "displayName": "level_spies_test_drop_in"
  },
  {
    "name": "level_spies_test_completed",
    "defaultvalue": 0,
    "displayName": "level_spies_test_completed"
  },
  {
    "name": "level_bunker_test_time",
    "defaultvalue": 0,
    "displayName": "level_bunker_test_time"
  },
  {
    "name": "level_bunker_test_started",
    "defaultvalue": 0,
    "displayName": "level_bunker_test_started"
  },
  {
    "name": "level_bunker_test_quit",
    "defaultvalue": 0,
    "displayName": "level_bunker_test_quit"
  },
  {
    "name": "level_bunker_test_from_beginning",
    "defaultvalue": 0,
    "displayName": "level_bunker_test_from_beginning"
  },
  {
    "name": "level_bunker_test_drop_in",
    "defaultvalue": 0,
    "displayName": "level_bunker_test_drop_in"
  },
  {
    "name": "level_bunker_test_completed",
    "defaultvalue": 0,
    "displayName": "level_bunker_test_completed"
  },
  {
    "name": "jobs_clear_skies_part_1_victory",
    "defaultvalue": 0,
    "displayName": "jobs_clear_skies_part_1_victory"
  },
  {
    "name": "jobs_clear_skies_part_2_victory",
    "defaultvalue": 0,
    "displayName": "jobs_clear_skies_part_2_victory"
  },
  {
    "name": "jobs_clear_skies_part_3_victory",
    "defaultvalue": 0,
    "displayName": "jobs_clear_skies_part_3_victory"
  },
  {
    "name": "jobs_clear_skies_part_4_victory",
    "defaultvalue": 0,
    "displayName": "jobs_clear_skies_part_4_victory"
  },
  {
    "name": "jobs_clear_skies_part_5_victory",
    "defaultvalue": 0,
    "displayName": "jobs_clear_skies_part_5_victory"
  },
  {
    "name": "jobs_clear_skies_part_6_victory",
    "defaultvalue": 0,
    "displayName": "jobs_clear_skies_part_6_victory"
  },
  {
    "name": "jobs_clear_skies_part_1_started",
    "defaultvalue": 0,
    "displayName": "jobs_clear_skies_part_1_started"
  },
  {
    "name": "jobs_clear_skies_part_2_started",
    "defaultvalue": 0,
    "displayName": "jobs_clear_skies_part_2_started"
  },
  {
    "name": "jobs_clear_skies_part_3_started",
    "defaultvalue": 0,
    "displayName": "jobs_clear_skies_part_3_started"
  },
  {
    "name": "jobs_clear_skies_part_4_started",
    "defaultvalue": 0,
    "displayName": "jobs_clear_skies_part_4_started"
  },
  {
    "name": "jobs_clear_skies_part_5_started",
    "defaultvalue": 0,
    "displayName": "jobs_clear_skies_part_5_started"
  },
  {
    "name": "jobs_clear_skies_part_6_started",
    "defaultvalue": 0,
    "displayName": "jobs_clear_skies_part_6_started"
  },
  {
    "name": "jobs_clear_skies_part_1_failed",
    "defaultvalue": 0,
    "displayName": "jobs_clear_skies_part_1_failed"
  },
  {
    "name": "jobs_clear_skies_part_2_failed",
    "defaultvalue": 0,
    "displayName": "jobs_clear_skies_part_2_failed"
  },
  {
    "name": "jobs_clear_skies_part_3_failed",
    "defaultvalue": 0,
    "displayName": "jobs_clear_skies_part_3_failed"
  },
  {
    "name": "jobs_clear_skies_part_4_failed",
    "defaultvalue": 0,
    "displayName": "jobs_clear_skies_part_4_failed"
  },
  {
    "name": "jobs_clear_skies_part_5_failed",
    "defaultvalue": 0,
    "displayName": "jobs_clear_skies_part_5_failed"
  },
  {
    "name": "jobs_clear_skies_part_6_failed",
    "defaultvalue": 0,
    "displayName": "jobs_clear_skies_part_6_failed"
  },
  {
    "name": "jobs_clear_skies_part_1_drop_in",
    "defaultvalue": 0,
    "displayName": "jobs_clear_skies_part_1_drop_in"
  },
  {
    "name": "jobs_clear_skies_part_2_drop_in",
    "defaultvalue": 0,
    "displayName": "jobs_clear_skies_part_2_drop_in"
  },
  {
    "name": "jobs_clear_skies_part_3_drop_in",
    "defaultvalue": 0,
    "displayName": "jobs_clear_skies_part_3_drop_in"
  },
  {
    "name": "jobs_clear_skies_part_4_drop_in",
    "defaultvalue": 0,
    "displayName": "jobs_clear_skies_part_4_drop_in"
  },
  {
    "name": "jobs_clear_skies_part_5_drop_in",
    "defaultvalue": 0,
    "displayName": "jobs_clear_skies_part_5_drop_in"
  },
  {
    "name": "jobs_clear_skies_part_6_drop_in",
    "defaultvalue": 0,
    "displayName": "jobs_clear_skies_part_6_drop_in"
  },
  {
    "name": "jobs_oper_flamable_part_1_victory",
    "defaultvalue": 0,
    "displayName": "jobs_oper_flamable_part_1_victory"
  },
  {
    "name": "jobs_oper_flamable_part_1_started",
    "defaultvalue": 0,
    "displayName": "jobs_oper_flamable_part_1_started"
  },
  {
    "name": "jobs_oper_flamable_part_1_failed",
    "defaultvalue": 0,
    "displayName": "jobs_oper_flamable_part_1_failed"
  },
  {
    "name": "jobs_oper_flamable_part_1_drop_in",
    "defaultvalue": 0,
    "displayName": "jobs_oper_flamable_part_1_drop_in"
  },
  {
    "name": "jobs_oper_flamable_part_2_victory",
    "defaultvalue": 0,
    "displayName": "jobs_oper_flamable_part_2_victory"
  },
  {
    "name": "jobs_oper_flamable_part_2_started",
    "defaultvalue": 0,
    "displayName": "jobs_oper_flamable_part_2_started"
  },
  {
    "name": "jobs_oper_flamable_part_2_failed",
    "defaultvalue": 0,
    "displayName": "jobs_oper_flamable_part_2_failed"
  },
  {
    "name": "jobs_oper_flamable_part_2_drop_in",
    "defaultvalue": 0,
    "displayName": "jobs_oper_flamable_part_2_drop_in"
  },
  {
    "name": "jobs_oper_flamable_part_3_victory",
    "defaultvalue": 0,
    "displayName": "jobs_oper_flamable_part_3_victory"
  },
  {
    "name": "jobs_oper_flamable_part_3_started",
    "defaultvalue": 0,
    "displayName": "jobs_oper_flamable_part_3_started"
  },
  {
    "name": "jobs_oper_flamable_part_3_failed",
    "defaultvalue": 0,
    "displayName": "jobs_oper_flamable_part_3_failed"
  },
  {
    "name": "jobs_oper_flamable_part_3_drop_in",
    "defaultvalue": 0,
    "displayName": "jobs_oper_flamable_part_3_drop_in"
  },
  {
    "name": "jobs_oper_flamable_part_4_victory",
    "defaultvalue": 0,
    "displayName": "jobs_oper_flamable_part_4_victory"
  },
  {
    "name": "jobs_oper_flamable_part_4_started",
    "defaultvalue": 0,
    "displayName": "jobs_oper_flamable_part_4_started"
  },
  {
    "name": "jobs_oper_flamable_part_4_failed",
    "defaultvalue": 0,
    "displayName": "jobs_oper_flamable_part_4_failed"
  },
  {
    "name": "jobs_oper_flamable_part_4_drop_in",
    "defaultvalue": 0,
    "displayName": "jobs_oper_flamable_part_4_drop_in"
  },
  {
    "name": "jobs_clear_skies_part_1_from_beginning",
    "defaultvalue": 0,
    "displayName": "jobs_clear_skies_part_1_from_beginning"
  },
  {
    "name": "jobs_clear_skies_part_2_from_beginning",
    "defaultvalue": 0,
    "displayName": "jobs_clear_skies_part_2_from_beginning"
  },
  {
    "name": "jobs_clear_skies_part_3_from_beginning",
    "defaultvalue": 0,
    "displayName": "jobs_clear_skies_part_3_from_beginning"
  },
  {
    "name": "jobs_clear_skies_part_4_from_beginning",
    "defaultvalue": 0,
    "displayName": "jobs_clear_skies_part_4_from_beginning"
  },
  {
    "name": "jobs_clear_skies_part_5_from_beginning",
    "defaultvalue": 0,
    "displayName": "jobs_clear_skies_part_5_from_beginning"
  },
  {
    "name": "jobs_clear_skies_part_6_from_beginning",
    "defaultvalue": 0,
    "displayName": "jobs_clear_skies_part_6_from_beginning"
  },
  {
    "name": "jobs_oper_flamable_part_1_from_beginning",
    "defaultvalue": 0,
    "displayName": "jobs_oper_flamable_part_1_from_beginning"
  },
  {
    "name": "jobs_oper_flamable_part_2_from_beginning",
    "defaultvalue": 0,
    "displayName": "jobs_oper_flamable_part_2_from_beginning"
  },
  {
    "name": "jobs_oper_flamable_part_3_from_beginning",
    "defaultvalue": 0,
    "displayName": "jobs_oper_flamable_part_3_from_beginning"
  },
  {
    "name": "jobs_oper_flamable_part_4_from_beginning",
    "defaultvalue": 0,
    "displayName": "jobs_oper_flamable_part_4_from_beginning"
  },
  {
    "name": "level_tutorial_started",
    "defaultvalue": 0,
    "displayName": "level_tutorial_started"
  },
  {
    "name": "level_tutorial_time",
    "defaultvalue": 0,
    "displayName": "level_tutorial_time"
  },
  {
    "name": "level_tutorial_drop_in",
    "defaultvalue": 0,
    "displayName": "level_tutorial_drop_in"
  },
  {
    "name": "level_ger_bridge_operation_drop_in",
    "defaultvalue": 0,
    "displayName": "level_ger_bridge_operation_drop_in"
  },
  {
    "name": "level_ger_bridge_operation_time",
    "defaultvalue": 0,
    "displayName": "level_ger_bridge_operation_time"
  },
  {
    "name": "level_tutorial_quit",
    "defaultvalue": 0,
    "displayName": "level_tutorial_quit"
  },
  {
    "name": "level_tutorial_from_beginning",
    "defaultvalue": 0,
    "displayName": "level_tutorial_from_beginning"
  },
  {
    "name": "level_ger_bridge_operation_quit",
    "defaultvalue": 0,
    "displayName": "level_ger_bridge_operation_quit"
  },
  {
    "name": "level_ger_bridge_operation_started",
    "defaultvalue": 0,
    "displayName": "level_ger_bridge_operation_started"
  },
  {
    "name": "level_tutorial_completed",
    "defaultvalue": 0,
    "displayName": "level_tutorial_completed"
  },
  {
    "name": "level_ger_bridge_operation_from_beginning",
    "defaultvalue": 0,
    "displayName": "level_ger_bridge_operation_from_beginning"
  },
  {
    "name": "level_ger_bridge_operation_completed",
    "defaultvalue": 0,
    "displayName": "level_ger_bridge_operation_completed"
  },
  {
    "name": "weapon_kills_dp28",
    "defaultvalue": 0,
    "displayName": "weapon_hits_dp28"
  },
  {
    "name": "weapon_kills_kar_98k",
    "defaultvalue": 0,
    "displayName": "weapon_kills_kar_98k"
  },
  {
    "name": "weapon_kills_tt33",
    "defaultvalue": 0,
    "displayName": "weapon_kills_tt33"
  },
  {
    "name": "weapon_kills_geco",
    "defaultvalue": 0,
    "displayName": "weapon_kills_geco"
  },
  {
    "name": "weapon_kills_webley",
    "defaultvalue": 0,
    "displayName": "weapon_kills_webley"
  },
  {
    "name": "weapon_kills_lee_enfield",
    "defaultvalue": 0,
    "displayName": "weapon_kills_lee_enfield"
  }
]