{
  "Dlcs": {
    "429820": {
      "Name": "XenoShyft - NorTec Elite",
      "ImageUrl": "https://steamcdn-a.akamaihd.net/steam/apps/429820/header.jpg?t=1459281937"
    },
    "429870": {
      "Name": "XenoShyft - Grafting Lab",
      "ImageUrl": "https://steamcdn-a.akamaihd.net/steam/apps/429870/header.jpg?t=1459281995"
    },
    "429871": {
      "Name": "XenoShyft - Psychogenics Lab",
      "ImageUrl": "https://steamcdn-a.akamaihd.net/steam/apps/429871/header.jpg?t=1459282034"
    },
    "429872": {
      "Name": "XenoShyft - The Hive Expansion",
      "ImageUrl": "https://steamcdn-a.akamaihd.net/steam/apps/429872/header.jpg?t=1459282090"
    },
    "719260": {
      "Name": "XenoShyft - Dreadmire",
      "ImageUrl": "https://steamcdn-a.akamaihd.net/steam/apps/719260/header.jpg?t=1524748239"
    }
  },
  "Name": "XenoShyft",
  "AppId": "429390",
  "ImageUrl": "https://steamcdn-a.akamaihd.net/steam/apps/429390/header.jpg?t=1576163353",
  "Languages": [
    "english"
  ],
  "Platforms": {
    "windows": true,
    "mac": true,
    "linux": false
  }
}