﻿[
  {
    "name": "achievement_level1",
    "defaultvalue": 0,
    "displayName": "Welcome to the labyrinth!",
    "hidden": 0,
    "description": "Solve your first puzzle by merging the split screen.",
    "icon": "https://steamcdn-a.akamaihd.net/steamcommunity/public/images/apps/791470/f2143fec99ee5d78e6d4dac0becab12105558457.jpg",
    "icongray": "https://steamcdn-a.akamaihd.net/steamcommunity/public/images/apps/791470/a387c64970a1212419208d40ee43388543cd5668.jpg"
  },
  {
    "name": "achievement_crossroad",
    "defaultvalue": 0,
    "displayName": "Where to now?",
    "hidden": 0,
    "description": "Reach the Crossroad.",
    "icon": "https://steamcdn-a.akamaihd.net/steamcommunity/public/images/apps/791470/d4d8e0ba0d25ab5a0a8d7945eb4a70bfdf32168a.jpg",
    "icongray": "https://steamcdn-a.akamaihd.net/steamcommunity/public/images/apps/791470/a387c64970a1212419208d40ee43388543cd5668.jpg"
  },
  {
    "name": "achievement_ghost",
    "defaultvalue": 0,
    "displayName": "Wall Whisperer",
    "hidden": 0,
    "description": "Solve all levels on the yellow path.",
    "icon": "https://steamcdn-a.akamaihd.net/steamcommunity/public/images/apps/791470/61ae50617cc8813451bd73ad20559641843cc454.jpg",
    "icongray": "https://steamcdn-a.akamaihd.net/steamcommunity/public/images/apps/791470/a387c64970a1212419208d40ee43388543cd5668.jpg"
  },
  {
    "name": "achievement_scale",
    "defaultvalue": 0,
    "displayName": "Big Deal",
    "hidden": 0,
    "description": "Solve all levels on the red path.",
    "icon": "https://steamcdn-a.akamaihd.net/steamcommunity/public/images/apps/791470/bd7907ce0ab131333cf23259d9b1d5041a8bf944.jpg",
    "icongray": "https://steamcdn-a.akamaihd.net/steamcommunity/public/images/apps/791470/a387c64970a1212419208d40ee43388543cd5668.jpg"
  },
  {
    "name": "achievement_block",
    "defaultvalue": 0,
    "displayName": "Pushover",
    "hidden": 0,
    "description": "Solve all levels on the green path.",
    "icon": "https://steamcdn-a.akamaihd.net/steamcommunity/public/images/apps/791470/88d1e4785f1df900ab7333929224eea278670da5.jpg",
    "icongray": "https://steamcdn-a.akamaihd.net/steamcommunity/public/images/apps/791470/a387c64970a1212419208d40ee43388543cd5668.jpg"
  },
  {
    "name": "achievement_bridge",
    "defaultvalue": 0,
    "displayName": "So easy now",
    "hidden": 0,
    "description": "Finally cross that bridge.",
    "icon": "https://steamcdn-a.akamaihd.net/steamcommunity/public/images/apps/791470/34b5c5be88085b2d9736faefe0bdc8b8b355c7ab.jpg",
    "icongray": "https://steamcdn-a.akamaihd.net/steamcommunity/public/images/apps/791470/a387c64970a1212419208d40ee43388543cd5668.jpg"
  },
  {
    "name": "achievement_exit",
    "defaultvalue": 0,
    "displayName": "DYO",
    "hidden": 0,
    "description": "Finish the game.",
    "icon": "https://steamcdn-a.akamaihd.net/steamcommunity/public/images/apps/791470/402b5ccfe7cc5f92583a3bd7a09f8e695e00614d.jpg",
    "icongray": "https://steamcdn-a.akamaihd.net/steamcommunity/public/images/apps/791470/a387c64970a1212419208d40ee43388543cd5668.jpg"
  },
  {
    "name": "achievement_rat",
    "defaultvalue": 0,
    "displayName": "Eternal Gratitude",
    "hidden": 1,
    "icon": "https://steamcdn-a.akamaihd.net/steamcommunity/public/images/apps/791470/5e31e8bb0adfb5528047630a4914f9c170a5e1fb.jpg",
    "icongray": "https://steamcdn-a.akamaihd.net/steamcommunity/public/images/apps/791470/a387c64970a1212419208d40ee43388543cd5668.jpg"
  },
  {
    "name": "achievement_dead",
    "defaultvalue": 0,
    "displayName": "Bully",
    "hidden": 1,
    "icon": "https://steamcdn-a.akamaihd.net/steamcommunity/public/images/apps/791470/dd0e0687413fbb6a25a18b672677bb0cd1ccc379.jpg",
    "icongray": "https://steamcdn-a.akamaihd.net/steamcommunity/public/images/apps/791470/a387c64970a1212419208d40ee43388543cd5668.jpg"
  },
  {
    "name": "achievement_tinyblock",
    "defaultvalue": 0,
    "displayName": "Pixel Art",
    "hidden": 1,
    "icon": "https://steamcdn-a.akamaihd.net/steamcommunity/public/images/apps/791470/525b207fa0db2da8636b92a780eed801f53adf3c.jpg",
    "icongray": "https://steamcdn-a.akamaihd.net/steamcommunity/public/images/apps/791470/a387c64970a1212419208d40ee43388543cd5668.jpg"
  }
]