{
  "Dlcs": {},
  "Name": "Mech Hunter",
  "AppId": "1122170",
  "ImageUrl": "https://steamcdn-a.akamaihd.net/steam/apps/1122170/header.jpg?t=1600862074",
  "Languages": [
    "english",
    "french",
    "italian",
    "german",
    "spanish",
    "schinese",
    "polish",
    "russian",
    "arabic",
    "japanese",
    "korean",
    "portuguese",
    "portuguese",
    "latam",
    "thai",
    "tchinese",
    "turkish",
    "ukrainian",
    "vietnamese"
  ],
  "Platforms": {
    "windows": true,
    "mac": false,
    "linux": false
  }
}