{
  "Dlcs": {},
  "Name": "EscapeVR: The Basement",
  "AppId": "552060",
  "ImageUrl": "https://steamcdn-a.akamaihd.net/steam/apps/552060/header.jpg?t=1595165327",
  "Languages": [
    "english",
    "german",
    "russian",
    "schinese",
    "tchinese"
  ],
  "Platforms": {
    "windows": true,
    "mac": false,
    "linux": false
  }
}