{
  "Dlcs": {},
  "Name": "Project LUX",
  "AppId": "574140",
  "ImageUrl": "https://steamcdn-a.akamaihd.net/steam/apps/574140/header.jpg?t=1580429291",
  "Languages": [
    "english",
    "japanese",
    "tchinese"
  ],
  "Platforms": {
    "windows": true,
    "mac": false,
    "linux": false
  }
}