{
  "Dlcs": {},
  "Name": "Kansei",
  "AppId": "771340",
  "ImageUrl": "https://steamcdn-a.akamaihd.net/steam/apps/771340/header.jpg?t=1536947474",
  "Languages": [
    "english"
  ],
  "Platforms": {
    "windows": true,
    "mac": true,
    "linux": true
  }
}