{
  "Dlcs": {},
  "Name": "Crisp Cube",
  "AppId": "1228880",
  "ImageUrl": "https://steamcdn-a.akamaihd.net/steam/apps/1228880/header.jpg?t=1586437857",
  "Languages": [
    "english"
  ],
  "Platforms": {
    "windows": true,
    "mac": false,
    "linux": false
  }
}