{
  "Dlcs": {},
  "Name": "XGun-Weapon Evolution",
  "AppId": "534780",
  "ImageUrl": "https://steamcdn-a.akamaihd.net/steam/apps/534780/header.jpg?t=1505326971",
  "Languages": [
    "english",
    "spanish",
    "russian",
    "schinese",
    "tchinese",
    "japanese"
  ],
  "Platforms": {
    "windows": true,
    "mac": true,
    "linux": false
  }
}