{
  "Dlcs": {},
  "Name": "The Exorcist: Legion VR (Deluxe Edition)",
  "AppId": "1156250",
  "ImageUrl": "https://steamcdn-a.akamaihd.net/steam/apps/1156250/header.jpg?t=1585839180",
  "Languages": [
    "english",
    "spanish"
  ],
  "Platforms": {
    "windows": true,
    "mac": false,
    "linux": false
  }
}