{
  "Dlcs": {},
  "Name": "The 39 Steps",
  "AppId": "234940",
  "ImageUrl": "https://steamcdn-a.akamaihd.net/steam/apps/234940/header.jpg?t=1556008903",
  "Languages": [
    "english"
  ],
  "Platforms": {
    "windows": true,
    "mac": true,
    "linux": true
  }
}