{
  "Dlcs": {},
  "Name": "Happy Geography Fun",
  "AppId": "1073050",
  "ImageUrl": "https://steamcdn-a.akamaihd.net/steam/apps/1073050/header.jpg?t=1581723886",
  "Languages": [
    "english"
  ],
  "Platforms": {
    "windows": true,
    "mac": false,
    "linux": false
  }
}