{
  "Dlcs": {},
  "Name": "UnMetal",
  "AppId": "1203710",
  "ImageUrl": "https://steamcdn-a.akamaihd.net/steam/apps/1203710/header.jpg?t=1599921979",
  "Languages": [
    "english",
    "spanish",
    "italian",
    "russian",
    "french",
    "german",
    "portuguese"
  ],
  "Platforms": {
    "windows": true,
    "mac": false,
    "linux": false
  }
}