{
  "Dlcs": {},
  "Name": "Carnivore Land",
  "AppId": "397860",
  "ImageUrl": "https://steamcdn-a.akamaihd.net/steam/apps/397860/header.jpg?t=1577949790",
  "Languages": [
    "english"
  ],
  "Platforms": {
    "windows": true,
    "mac": true,
    "linux": true
  }
}