{
  "Dlcs": {},
  "Name": "Small Town Terrors: Livingston",
  "AppId": "432770",
  "ImageUrl": "https://steamcdn-a.akamaihd.net/steam/apps/432770/header.jpg?t=1455224391",
  "Languages": [
    "english"
  ],
  "Platforms": {
    "windows": true,
    "mac": false,
    "linux": false
  }
}