{
  "Dlcs": {},
  "Name": "Bullet Age",
  "AppId": "832460",
  "ImageUrl": "https://steamcdn-a.akamaihd.net/steam/apps/832460/header.jpg?t=1600797240",
  "Languages": [
    "english",
    "french"
  ],
  "Platforms": {
    "windows": true,
    "mac": false,
    "linux": false
  }
}