{
  "Dlcs": {
    "371350": {
      "Name": "Waste Walkers Prepper's Edition DLC",
      "ImageUrl": "https://steamcdn-a.akamaihd.net/steam/apps/371350/header.jpg?t=1465314232"
    },
    "374660": {
      "Name": "Waste Walkers Resource Toolkit DLC",
      "ImageUrl": "https://steamcdn-a.akamaihd.net/steam/apps/374660/header.jpg?t=1471619812"
    },
    "395690": {
      "Name": "Waste Walkers Role Playing Game DLC",
      "ImageUrl": "https://steamcdn-a.akamaihd.net/steam/apps/395690/header.jpg?t=1475427653"
    },
    "439900": {
      "Name": "Waste Walkers Deliverance",
      "ImageUrl": "https://steamcdn-a.akamaihd.net/steam/apps/439900/header.jpg?t=1465314110"
    },
    "443750": {
      "Name": "Waste Walkers Awareness",
      "ImageUrl": "https://steamcdn-a.akamaihd.net/steam/apps/443750/header.jpg?t=1465314020"
    },
    "581080": {
      "Name": "Waste Walkers Subsistence",
      "ImageUrl": "https://steamcdn-a.akamaihd.net/steam/apps/581080/header.jpg?t=1484581027"
    },
    "742310": {
      "Name": "Waste Walkers Survivor Pack DLC",
      "ImageUrl": "https://steamcdn-a.akamaihd.net/steam/apps/742310/header.jpg?t=1520893541"
    },
    "829360": {
      "Name": "Waste Walkers Support Pack DLC",
      "ImageUrl": "https://steamcdn-a.akamaihd.net/steam/apps/829360/header.jpg?t=1546547391"
    }
  },
  "Name": "Waste Walkers",
  "AppId": "371100",
  "ImageUrl": "https://steamcdn-a.akamaihd.net/steam/apps/371100/header.jpg?t=1585491108",
  "Languages": [
    "english"
  ],
  "Platforms": {
    "windows": true,
    "mac": false,
    "linux": false
  }
}