[
  {
    "name": "a_combo",
    "defaultvalue": 0,
    "displayName": "C-C-COBMO!",
    "hidden": 0,
    "description": "Get 100-punch combo!",
    "icon": "https://steamcdn-a.akamaihd.net/steamcommunity/public/images/apps/634340/fe4afb8f18331294c34790d9c5f42f6b4e8d4325.jpg",
    "icongray": "https://steamcdn-a.akamaihd.net/steamcommunity/public/images/apps/634340/381ff784a2641197fde26962d4cf04a58afabc4d.jpg"
  },
  {
    "name": "a_200p",
    "defaultvalue": 0,
    "displayName": "Cool!",
    "hidden": 0,
    "description": "Get 200 000 scores!",
    "icon": "https://steamcdn-a.akamaihd.net/steamcommunity/public/images/apps/634340/bebf0076e557a6bec249a78979a6fb3951a6275b.jpg",
    "icongray": "https://steamcdn-a.akamaihd.net/steamcommunity/public/images/apps/634340/562d7ee1bb2f02cb0f999ec1bc3a2d7972858520.jpg"
  },
  {
    "name": "a_fatman",
    "defaultvalue": 0,
    "displayName": "Defeat Fatman",
    "hidden": 0,
    "description": "Prove that you are cooler!",
    "icon": "https://steamcdn-a.akamaihd.net/steamcommunity/public/images/apps/634340/ec4248ccfa2cafa30403096f0753e04f761705ae.jpg",
    "icongray": "https://steamcdn-a.akamaihd.net/steamcommunity/public/images/apps/634340/7820f57ba7e2ae9be72f166667666f95df150f1f.jpg"
  },
  {
    "name": "a_nicolas",
    "defaultvalue": 0,
    "displayName": "Defeat Nicolas",
    "hidden": 0,
    "description": "Prove that you are cooler!!",
    "icon": "https://steamcdn-a.akamaihd.net/steamcommunity/public/images/apps/634340/2dc695806fcb8843c2681bb47f6210dd1c2b3c00.jpg",
    "icongray": "https://steamcdn-a.akamaihd.net/steamcommunity/public/images/apps/634340/0d9ed6e02ceb0f9a69b12a1579350a69fb609dbb.jpg"
  },
  {
    "name": "a_devid",
    "defaultvalue": 0,
    "displayName": "Defeat Devid",
    "hidden": 0,
    "description": "Prove that you are cooler!!",
    "icon": "https://steamcdn-a.akamaihd.net/steamcommunity/public/images/apps/634340/0c06f19e7171d8044e2694fdebf2adb3edfa1181.jpg",
    "icongray": "https://steamcdn-a.akamaihd.net/steamcommunity/public/images/apps/634340/599f3e98328f5dc5cf25b5c576eb3c14248d5f0f.jpg"
  },
  {
    "name": "a_500p",
    "defaultvalue": 0,
    "displayName": "Incredible Himari!",
    "hidden": 0,
    "description": "Get 500 000 scores!",
    "icon": "https://steamcdn-a.akamaihd.net/steamcommunity/public/images/apps/634340/f6981b648ab1f1d2d085dc964c67b4ee0f44bdbd.jpg",
    "icongray": "https://steamcdn-a.akamaihd.net/steamcommunity/public/images/apps/634340/72e7e4a9271913d291f62956cacbf722961e7e27.jpg"
  },
  {
    "name": "a_star",
    "defaultvalue": 0,
    "displayName": "Super Star!",
    "hidden": 0,
    "description": "Accumulate 1000 stars!",
    "icon": "https://steamcdn-a.akamaihd.net/steamcommunity/public/images/apps/634340/558393860938261690b90c07ccf08ec3d014fae8.jpg",
    "icongray": "https://steamcdn-a.akamaihd.net/steamcommunity/public/images/apps/634340/6acc5a659c7b93bbc5f85dab1a9883c1363faf0b.jpg"
  },
  {
    "name": "a_twist",
    "defaultvalue": 0,
    "displayName": "What a twist!",
    "hidden": 0,
    "description": "Defeat Boss-Himari playing as Fatman!",
    "icon": "https://steamcdn-a.akamaihd.net/steamcommunity/public/images/apps/634340/2a9b1d49cbf0e3e9801a318436113cc1ade5f7fc.jpg",
    "icongray": "https://steamcdn-a.akamaihd.net/steamcommunity/public/images/apps/634340/44b865b93f19f51a846b07f8a95ce507710ae37e.jpg"
  },
  {
    "name": "a_trojan",
    "defaultvalue": 0,
    "displayName": "Trojan",
    "hidden": 0,
    "description": "Play as Trojan",
    "icon": "https://steamcdn-a.akamaihd.net/steamcommunity/public/images/apps/634340/2bdab869c6b9ff8ded7ce2b90423614803478ee3.jpg",
    "icongray": "https://steamcdn-a.akamaihd.net/steamcommunity/public/images/apps/634340/5c18c3b6a8298016bcbc19f116db906ef749147b.jpg"
  },
  {
    "name": "a_himarialt",
    "defaultvalue": 0,
    "displayName": "Alternative Himari",
    "hidden": 0,
    "description": "Play as Alternative Himari",
    "icon": "https://steamcdn-a.akamaihd.net/steamcommunity/public/images/apps/634340/513fe857b6addf3a977e51c823a6eecfd4be3dd0.jpg",
    "icongray": "https://steamcdn-a.akamaihd.net/steamcommunity/public/images/apps/634340/2fb9924dc155e4575ef00fa25bdc846fd81cc1dd.jpg"
  },
  {
    "name": "a_ternox",
    "defaultvalue": 0,
    "displayName": "Ternox",
    "hidden": 0,
    "description": "Play as Ternox",
    "icon": "https://steamcdn-a.akamaihd.net/steamcommunity/public/images/apps/634340/4164c93621eabbf9f474ff38a0d051863460fb86.jpg",
    "icongray": "https://steamcdn-a.akamaihd.net/steamcommunity/public/images/apps/634340/ca2a5cd3ff4d6abc047befc4a27adeaf6d394c6b.jpg"
  },
  {
    "name": "a_fatmanp",
    "defaultvalue": 0,
    "displayName": "Fatman",
    "hidden": 0,
    "description": "Play as Fatman",
    "icon": "https://steamcdn-a.akamaihd.net/steamcommunity/public/images/apps/634340/47663d4bd75c62f4f8d04e1412d89095c35a3931.jpg",
    "icongray": "https://steamcdn-a.akamaihd.net/steamcommunity/public/images/apps/634340/1cdeb4a4d8c71f4495e70ac6e58151b87fbf2d69.jpg"
  },
  {
    "name": "a_witch",
    "defaultvalue": 0,
    "displayName": "Himari Witch",
    "hidden": 0,
    "description": "Play as Himari Witch",
    "icon": "https://steamcdn-a.akamaihd.net/steamcommunity/public/images/apps/634340/c80e2f06c4a19912ee957cf8c9e37faa420b1785.jpg",
    "icongray": "https://steamcdn-a.akamaihd.net/steamcommunity/public/images/apps/634340/290f138fdf690bd0a3102f8cb7b43265fb7ca48f.jpg"
  },
  {
    "name": "a_kael",
    "defaultvalue": 0,
    "displayName": "Kael",
    "hidden": 0,
    "description": "Play as Kael",
    "icon": "https://steamcdn-a.akamaihd.net/steamcommunity/public/images/apps/634340/d4bc019c79ca6fd29e7e406324015a9e8e9328c3.jpg",
    "icongray": "https://steamcdn-a.akamaihd.net/steamcommunity/public/images/apps/634340/4ca431b3da6f4efb211d47affa33e014b9235b72.jpg"
  },
  {
    "name": "a_julia",
    "defaultvalue": 0,
    "displayName": "Julia",
    "hidden": 0,
    "description": "Play as Julia",
    "icon": "https://steamcdn-a.akamaihd.net/steamcommunity/public/images/apps/634340/5d9336808beb2db9e44abe973d158a1c38af8673.jpg",
    "icongray": "https://steamcdn-a.akamaihd.net/steamcommunity/public/images/apps/634340/64ca37623da4e24fdd1c157b4e16b24ba9397088.jpg"
  },
  {
    "name": "a_kana",
    "defaultvalue": 0,
    "displayName": "Kanashimi",
    "hidden": 0,
    "description": "Play as Kanashimi",
    "icon": "https://steamcdn-a.akamaihd.net/steamcommunity/public/images/apps/634340/73e8a62e793db82ea34adfdb90c4bb9fca17ffd3.jpg",
    "icongray": "https://steamcdn-a.akamaihd.net/steamcommunity/public/images/apps/634340/c14e88848980afe173f0266f20138025ee518da1.jpg"
  },
  {
    "name": "a_warai",
    "defaultvalue": 0,
    "displayName": "Warai-Kun",
    "hidden": 0,
    "description": "Play as Warai-Kun",
    "icon": "https://steamcdn-a.akamaihd.net/steamcommunity/public/images/apps/634340/8aa3bd70afc95024fb16691ce48750b9f641e887.jpg",
    "icongray": "https://steamcdn-a.akamaihd.net/steamcommunity/public/images/apps/634340/fde9c276ac96b7131b2d441ac7012166c96fed9d.jpg"
  },
  {
    "name": "a_secret",
    "defaultvalue": 0,
    "displayName": "Secret",
    "hidden": 0,
    "description": "Play as Secret Character",
    "icon": "https://steamcdn-a.akamaihd.net/steamcommunity/public/images/apps/634340/76c278a4fc563be71a56fd98e3d3525470fba75a.jpg",
    "icongray": "https://steamcdn-a.akamaihd.net/steamcommunity/public/images/apps/634340/452a7dd6db2d1cbc320f5ca38690b387639c286b.jpg"
  }
]