[
  {
    "name": "ACHIEVEMENT_FINISH_TUTORIAL",
    "defaultvalue": 0,
    "displayName": "Dual master",
    "hidden": 0,
    "description": "Complete the tutorial",
    "icon": "https://steamcdn-a.akamaihd.net/steamcommunity/public/images/apps/601110/9a6b1f36a757c638c5510166d90b07b5cd9adf85.jpg",
    "icongray": "https://steamcdn-a.akamaihd.net/steamcommunity/public/images/apps/601110/3385a1e3fab6031b7e3ba3dbcad7833c0851d7b4.jpg"
  },
  {
    "name": "ACHIEVEMENT_FINISH_LEVEL_1_2",
    "defaultvalue": 0,
    "displayName": "Improving Knowledge",
    "hidden": 0,
    "description": "Complete Island 1 - Part 2",
    "icon": "https://steamcdn-a.akamaihd.net/steamcommunity/public/images/apps/601110/30a0911d5d34c23b8528d7ff725cd93810b755f4.jpg",
    "icongray": "https://steamcdn-a.akamaihd.net/steamcommunity/public/images/apps/601110/e5777332bf9450c89cd29ffd9f8d46b450006e68.jpg"
  },
  {
    "name": "ACHIEVEMENT_FINISH_LEVEL_1_3",
    "defaultvalue": 0,
    "displayName": "Game mastering",
    "hidden": 0,
    "description": "Complete Island 1 - Part 3",
    "icon": "https://steamcdn-a.akamaihd.net/steamcommunity/public/images/apps/601110/517ea47712e294ffa724b9e1b23409af3ee03b42.jpg",
    "icongray": "https://steamcdn-a.akamaihd.net/steamcommunity/public/images/apps/601110/3598db0d2edb1d1207f4aca54f11e62886323ebc.jpg"
  },
  {
    "name": "ACHIEVEMENT_FINISH_LEVEL_2_1",
    "defaultvalue": 0,
    "displayName": "Level 4 completed",
    "hidden": 0,
    "description": "Complete Island 2 - Part 1",
    "icon": "https://steamcdn-a.akamaihd.net/steamcommunity/public/images/apps/601110/e49d9aeb81d1870847b5fd928c9af3a5da76a6b9.jpg",
    "icongray": "https://steamcdn-a.akamaihd.net/steamcommunity/public/images/apps/601110/12c3b49e829db555b9b1377378fce67790a65394.jpg"
  },
  {
    "name": "ACHIEVEMENT_FINISH_LEVEL_2_2",
    "defaultvalue": 0,
    "displayName": "Level 5 completed",
    "hidden": 0,
    "description": "Complete Island 2 - Part 2",
    "icon": "https://steamcdn-a.akamaihd.net/steamcommunity/public/images/apps/601110/0bbb222fc01bea2b8b01dbfcd4b757217e422efe.jpg",
    "icongray": "https://steamcdn-a.akamaihd.net/steamcommunity/public/images/apps/601110/4e215720cf768fdd5aaa2bdf07af775a26477644.jpg"
  },
  {
    "name": "ACHIEVEMENT_FINISH_LEVEL_2_3",
    "defaultvalue": 0,
    "displayName": "Level 6 completed",
    "hidden": 0,
    "description": "Complete Island 2 - Part 3",
    "icon": "https://steamcdn-a.akamaihd.net/steamcommunity/public/images/apps/601110/52b89e5be2b64b86cf1189685f9baf72d1a17a0a.jpg",
    "icongray": "https://steamcdn-a.akamaihd.net/steamcommunity/public/images/apps/601110/27c912af213c20bc7fb9a932ebcbe00526689a62.jpg"
  },
  {
    "name": "ACHIEVEMENT_FINISH_LEVEL_3_1",
    "defaultvalue": 0,
    "displayName": "Level 7 completed",
    "hidden": 0,
    "description": "Complete Island 3 - Part 1",
    "icon": "https://steamcdn-a.akamaihd.net/steamcommunity/public/images/apps/601110/558d0af112ddeb85eff209b266ced4cd38e6e7e9.jpg",
    "icongray": "https://steamcdn-a.akamaihd.net/steamcommunity/public/images/apps/601110/e4368657a862e3a1351217451f1199a009832d4b.jpg"
  },
  {
    "name": "ACHIEVEMENT_FINISH_LEVEL_3_2",
    "defaultvalue": 0,
    "displayName": "Level 8 completed",
    "hidden": 0,
    "description": "Complete Island 3 - Part 2",
    "icon": "https://steamcdn-a.akamaihd.net/steamcommunity/public/images/apps/601110/f3642f0bacb8e8ed341dcc1a6b38135be9c04973.jpg",
    "icongray": "https://steamcdn-a.akamaihd.net/steamcommunity/public/images/apps/601110/d429b4508446264729a873f1ce466190f2648684.jpg"
  },
  {
    "name": "ACHIEVEMENT_FINISH_LEVEL_3_3",
    "defaultvalue": 0,
    "displayName": "Level 9 completed",
    "hidden": 0,
    "description": "Complete Island 3 - Part 3",
    "icon": "https://steamcdn-a.akamaihd.net/steamcommunity/public/images/apps/601110/d3006486c7ca94bf2d93c0de8cd0b49c792efa7a.jpg",
    "icongray": "https://steamcdn-a.akamaihd.net/steamcommunity/public/images/apps/601110/544a7c035acacc339e3207ec6a9952cfc87c27e2.jpg"
  },
  {
    "name": "ACHIEVEMENT_FINISH_LEVEL_4_1",
    "defaultvalue": 0,
    "displayName": "Level 10 completed",
    "hidden": 0,
    "description": "Complete Island 4 - Part 1",
    "icon": "https://steamcdn-a.akamaihd.net/steamcommunity/public/images/apps/601110/874a19f753bc81d3765b17b0f24c005602a3e2ff.jpg",
    "icongray": "https://steamcdn-a.akamaihd.net/steamcommunity/public/images/apps/601110/64b4feb90166fb5da947f7b265a6d5f1a8d61658.jpg"
  },
  {
    "name": "ACHIEVEMENT_FINISH_LEVEL_4_2",
    "defaultvalue": 0,
    "displayName": "Level 11 completed",
    "hidden": 0,
    "description": "Complete Island 4 - Part 2",
    "icon": "https://steamcdn-a.akamaihd.net/steamcommunity/public/images/apps/601110/69e17f917bb7cb1e374aba32fabd0640c9efabe1.jpg",
    "icongray": "https://steamcdn-a.akamaihd.net/steamcommunity/public/images/apps/601110/ab2e86cd0afdf6ca35096d81fe4472e4c4113597.jpg"
  },
  {
    "name": "ACHIEVEMENT_FINISH_LEVEL_4_3",
    "defaultvalue": 0,
    "displayName": "Level 12 completed",
    "hidden": 0,
    "description": "Complete Island 4 - Part 3",
    "icon": "https://steamcdn-a.akamaihd.net/steamcommunity/public/images/apps/601110/5300fab160a527fe667f353d85b3a977df135cc9.jpg",
    "icongray": "https://steamcdn-a.akamaihd.net/steamcommunity/public/images/apps/601110/e929e87e27cab39d46c5d01ee4eb908ee30d1617.jpg"
  },
  {
    "name": "ACHIEVEMENT_FINISH_LEVEL_5_1",
    "defaultvalue": 0,
    "displayName": "Level 13 completed",
    "hidden": 0,
    "description": "Complete Island 5 - Part 1",
    "icon": "https://steamcdn-a.akamaihd.net/steamcommunity/public/images/apps/601110/2bd05c69207c7a42b92439f742d2b7ad63707368.jpg",
    "icongray": "https://steamcdn-a.akamaihd.net/steamcommunity/public/images/apps/601110/9315fe6bc057e322e892ece8ad68da1b6d8f3f1f.jpg"
  },
  {
    "name": "ACHIEVEMENT_FINISH_LEVEL_5_2",
    "defaultvalue": 0,
    "displayName": "Level 14 completed",
    "hidden": 0,
    "description": "Complete Island 5 - Part 2",
    "icon": "https://steamcdn-a.akamaihd.net/steamcommunity/public/images/apps/601110/3cad13b6ffbf250545018026d1d7d85bbf6cf1c0.jpg",
    "icongray": "https://steamcdn-a.akamaihd.net/steamcommunity/public/images/apps/601110/beac2210b352811d5b50dbbcaad19319a55a60f3.jpg"
  },
  {
    "name": "ACHIEVEMENT_FINISH_LEVEL_5_3",
    "defaultvalue": 0,
    "displayName": "Level 15 completed",
    "hidden": 0,
    "description": "Complete Island 5 - Part 3",
    "icon": "https://steamcdn-a.akamaihd.net/steamcommunity/public/images/apps/601110/cd4b8f656032cf0ddf47fa458d1103f34cbd274e.jpg",
    "icongray": "https://steamcdn-a.akamaihd.net/steamcommunity/public/images/apps/601110/9427c448380e3d8f6ec3ec304bd38b0acd59861e.jpg"
  },
  {
    "name": "ACHIEVEMENT_FINISH_LEVEL_6_1",
    "defaultvalue": 0,
    "displayName": "Level 16 completed",
    "hidden": 0,
    "description": "Complete Island 6 - Part 1",
    "icon": "https://steamcdn-a.akamaihd.net/steamcommunity/public/images/apps/601110/d0f1e7c8d10609b0feb6aab7e3b4300416a4e954.jpg",
    "icongray": "https://steamcdn-a.akamaihd.net/steamcommunity/public/images/apps/601110/8ee2e3c2633d2e21f8bb51bdaa4f99d118c07db1.jpg"
  },
  {
    "name": "ACHIEVEMENT_FINISH_LEVEL_6_2",
    "defaultvalue": 0,
    "displayName": "Level 17 completed",
    "hidden": 0,
    "description": "Complete Island 6 - Part 2",
    "icon": "https://steamcdn-a.akamaihd.net/steamcommunity/public/images/apps/601110/95e516a50c447037698cbf37662b5cd65a630449.jpg",
    "icongray": "https://steamcdn-a.akamaihd.net/steamcommunity/public/images/apps/601110/309c31902c95cf60588685de00e1a3ff9249a61f.jpg"
  },
  {
    "name": "ACHIEVEMENT_FINISH_LEVEL_6_3",
    "defaultvalue": 0,
    "displayName": "Level 18 completed",
    "hidden": 0,
    "description": "Complete Island 6 - Part 3",
    "icon": "https://steamcdn-a.akamaihd.net/steamcommunity/public/images/apps/601110/1d91252d864d8c01ad57f3704b178967563678c1.jpg",
    "icongray": "https://steamcdn-a.akamaihd.net/steamcommunity/public/images/apps/601110/72c27f0bcfe7b748ffad6b13dbe51205d4d20e9a.jpg"
  },
  {
    "name": "ACHIEVEMENT_FINISH_LEVEL_7_1",
    "defaultvalue": 0,
    "displayName": "Level 19 completed",
    "hidden": 0,
    "description": "Complete Island 7 - Part 1",
    "icon": "https://steamcdn-a.akamaihd.net/steamcommunity/public/images/apps/601110/d51a22e6120cb16121ac1f0fdbf77094def836eb.jpg",
    "icongray": "https://steamcdn-a.akamaihd.net/steamcommunity/public/images/apps/601110/13f48f6961cc23ab636989422845628dfe335b69.jpg"
  },
  {
    "name": "ACHIEVEMENT_FINISH_LEVEL_7_2",
    "defaultvalue": 0,
    "displayName": "Level 20 completed",
    "hidden": 0,
    "description": "Complete Island 7 - Part 2",
    "icon": "https://steamcdn-a.akamaihd.net/steamcommunity/public/images/apps/601110/eb42cda0781533f648f2bad41ea4940957af2cea.jpg",
    "icongray": "https://steamcdn-a.akamaihd.net/steamcommunity/public/images/apps/601110/55b1682a4db0efc05ccd230f6f796a89cd973496.jpg"
  },
  {
    "name": "ACHIEVEMENT_FINISH_LEVEL_7_3",
    "defaultvalue": 0,
    "displayName": "Level 21 completed",
    "hidden": 0,
    "description": "Complete Island 7 - Part 3",
    "icon": "https://steamcdn-a.akamaihd.net/steamcommunity/public/images/apps/601110/2735271d8c3c41f70f297d1fcc0e12e897bc4f95.jpg",
    "icongray": "https://steamcdn-a.akamaihd.net/steamcommunity/public/images/apps/601110/dd4504c33d8c4963de4c0d2c00b1694d52799a37.jpg"
  },
  {
    "name": "ACHIEVEMENT_FINISH_LEVEL_8_1",
    "defaultvalue": 0,
    "displayName": "Level 22 completed",
    "hidden": 0,
    "description": "Complete Island 8 - Part 1",
    "icon": "https://steamcdn-a.akamaihd.net/steamcommunity/public/images/apps/601110/724b4434cdf5dfc97c85c459f3236fdfe25df85f.jpg",
    "icongray": "https://steamcdn-a.akamaihd.net/steamcommunity/public/images/apps/601110/580da7acd9925bc1c5995864ade67766529ff40a.jpg"
  },
  {
    "name": "ACHIEVEMENT_FINISH_LEVEL_8_2",
    "defaultvalue": 0,
    "displayName": "Level 23 completed",
    "hidden": 0,
    "description": "Complete Island 8 - Part 2",
    "icon": "https://steamcdn-a.akamaihd.net/steamcommunity/public/images/apps/601110/cbee4530071f670b9018260dad45fcee755f792a.jpg",
    "icongray": "https://steamcdn-a.akamaihd.net/steamcommunity/public/images/apps/601110/5ab4b8ddaa095f5463648ced9fa99c1d8433c6f0.jpg"
  },
  {
    "name": "ACHIEVEMENT_FINISH_LEVEL_8_3",
    "defaultvalue": 0,
    "displayName": "Level 24 completed",
    "hidden": 0,
    "description": "Complete Island 8 - Part 3",
    "icon": "https://steamcdn-a.akamaihd.net/steamcommunity/public/images/apps/601110/ddd4193000a8b32c78a3253163bf36912d6652ba.jpg",
    "icongray": "https://steamcdn-a.akamaihd.net/steamcommunity/public/images/apps/601110/b4a4da1b4deeb16b72c9e8e8b983f8cf132a8b87.jpg"
  },
  {
    "name": "ACHIEVEMENT_FINISH_LEVEL_9_1",
    "defaultvalue": 0,
    "displayName": "Level 25 completed",
    "hidden": 0,
    "description": "Complete Island 9 - Part 1",
    "icon": "https://steamcdn-a.akamaihd.net/steamcommunity/public/images/apps/601110/2c2d4e815f68884f6f1a8cd556316e7a7729d23d.jpg",
    "icongray": "https://steamcdn-a.akamaihd.net/steamcommunity/public/images/apps/601110/b7db95448eb7d4b33b962ce916a937a00c4a2ff2.jpg"
  },
  {
    "name": "ACHIEVEMENT_FINISH_LEVEL_9_2",
    "defaultvalue": 0,
    "displayName": "Level 26 completed",
    "hidden": 0,
    "description": "Complete Island 9 - Part 2",
    "icon": "https://steamcdn-a.akamaihd.net/steamcommunity/public/images/apps/601110/45d5c1ac0def4a6e0126561b296bcc7960a99086.jpg",
    "icongray": "https://steamcdn-a.akamaihd.net/steamcommunity/public/images/apps/601110/eda42686102aa3151b874b821ff3c9a0a416a46f.jpg"
  },
  {
    "name": "ACHIEVEMENT_FINISH_LEVEL_9_3",
    "defaultvalue": 0,
    "displayName": "Level 27 completed",
    "hidden": 0,
    "description": "Complete Island 9 - Part 3",
    "icon": "https://steamcdn-a.akamaihd.net/steamcommunity/public/images/apps/601110/1d4e39b008762777203a0c890b0c31b9f4305cbe.jpg",
    "icongray": "https://steamcdn-a.akamaihd.net/steamcommunity/public/images/apps/601110/d84d8190b503ec23ee17d9d8aa15d7e572c96f13.jpg"
  },
  {
    "name": "ACHIEVEMENT_FINISH_LEVEL_10_1",
    "defaultvalue": 0,
    "displayName": "First encounter",
    "hidden": 0,
    "description": "Complete Island 10 - Part 1",
    "icon": "https://steamcdn-a.akamaihd.net/steamcommunity/public/images/apps/601110/ac0b132a9165dd36948d53f7626afe61d764dd5b.jpg",
    "icongray": "https://steamcdn-a.akamaihd.net/steamcommunity/public/images/apps/601110/999d59ed835bc70f600900b5bcca6f1aafac4fa1.jpg"
  },
  {
    "name": "ACHIEVEMENT_FINISH_LEVEL_10_2",
    "defaultvalue": 0,
    "displayName": "Hide and seek",
    "hidden": 0,
    "description": "Complete Island 10 - Part 2",
    "icon": "https://steamcdn-a.akamaihd.net/steamcommunity/public/images/apps/601110/347e0dcaa9590595ef8ce8f025990a5d6c8d626c.jpg",
    "icongray": "https://steamcdn-a.akamaihd.net/steamcommunity/public/images/apps/601110/0c8afbf0795f308f4798d3e5633215e95f32d7d7.jpg"
  },
  {
    "name": "ACHIEVEMENT_FINISH_LEVEL_10_3",
    "defaultvalue": 0,
    "displayName": "Monster owned",
    "hidden": 0,
    "description": "Complete Island 10 - Part 3",
    "icon": "https://steamcdn-a.akamaihd.net/steamcommunity/public/images/apps/601110/569745a3c0c537ce3c9147e42d395e26a4796c94.jpg",
    "icongray": "https://steamcdn-a.akamaihd.net/steamcommunity/public/images/apps/601110/2b8b84528d2eb6e6658013bd69129d68b7fab597.jpg"
  },
  {
    "name": "ACHIEVEMENT_COMPLETE_WITHOUT_FALLING",
    "defaultvalue": 0,
    "displayName": "I didn't swim today",
    "hidden": 0,
    "description": "Complete a level without respawning",
    "icon": "https://steamcdn-a.akamaihd.net/steamcommunity/public/images/apps/601110/7c4dded000a150b5f94ab46809195d5a1ead5d06.jpg",
    "icongray": "https://steamcdn-a.akamaihd.net/steamcommunity/public/images/apps/601110/590e75a4b9323f914abeaf414d210a33db7d1d56.jpg"
  },
  {
    "name": "ACHIEVEMENT_COINS_LEVEL_1_1",
    "defaultvalue": 0,
    "displayName": "Learning and earning",
    "hidden": 0,
    "description": "Collect all coins from Part 1 of Island 1",
    "icon": "https://steamcdn-a.akamaihd.net/steamcommunity/public/images/apps/601110/eb129dc327c0993885b28547419d9093ffaa099e.jpg",
    "icongray": "https://steamcdn-a.akamaihd.net/steamcommunity/public/images/apps/601110/7a10b651396fb449be6b746065ef5ec706304375.jpg"
  },
  {
    "name": "ACHIEVEMENT_COINS_LEVEL_1_2",
    "defaultvalue": 0,
    "displayName": "Coins vs time",
    "hidden": 0,
    "description": "Collect all coins from Part 2 of Island 1",
    "icon": "https://steamcdn-a.akamaihd.net/steamcommunity/public/images/apps/601110/77b4602a413102e05fb9faa74e0cc673e42cbb99.jpg",
    "icongray": "https://steamcdn-a.akamaihd.net/steamcommunity/public/images/apps/601110/83662c9b75ae386f82945cb0ca2d2ff02d0e1786.jpg"
  },
  {
    "name": "ACHIEVEMENT_COINS_LEVEL_1_3",
    "defaultvalue": 0,
    "displayName": "I want them all!",
    "hidden": 0,
    "description": "Collect all coins from Part 3 of Island 1",
    "icon": "https://steamcdn-a.akamaihd.net/steamcommunity/public/images/apps/601110/f79586c059609f3172c3b433368ccc4456d6dc63.jpg",
    "icongray": "https://steamcdn-a.akamaihd.net/steamcommunity/public/images/apps/601110/f7d53b4c1ad43616ea0316fbed78c9a8193f55c5.jpg"
  },
  {
    "name": "ACHIEVEMENT_COINS_LEVEL_2_1",
    "defaultvalue": 0,
    "displayName": "Coin Specialist 1",
    "hidden": 0,
    "description": "Collect all coins from Part 1 of Island 2",
    "icon": "https://steamcdn-a.akamaihd.net/steamcommunity/public/images/apps/601110/4ba92fd0216e6d86b4792772e49f8f334f96086f.jpg",
    "icongray": "https://steamcdn-a.akamaihd.net/steamcommunity/public/images/apps/601110/47bf1bb46c1b52b1d9a0b0de2cebda3dae94ed98.jpg"
  },
  {
    "name": "ACHIEVEMENT_COINS_LEVEL_2_2",
    "defaultvalue": 0,
    "displayName": "Coin Specialist 2",
    "hidden": 0,
    "description": "Collect all coins from Part 2 of Island 2",
    "icon": "https://steamcdn-a.akamaihd.net/steamcommunity/public/images/apps/601110/d5e45f088c84af0f49d1b816759a85886c3274cb.jpg",
    "icongray": "https://steamcdn-a.akamaihd.net/steamcommunity/public/images/apps/601110/623591fd467964df48fa1bd2f9b2034c961d7e82.jpg"
  },
  {
    "name": "ACHIEVEMENT_COINS_LEVEL_2_3",
    "defaultvalue": 0,
    "displayName": "Coin Specialist 3",
    "hidden": 0,
    "description": "Collect all coins from Part 3 of Island 2",
    "icon": "https://steamcdn-a.akamaihd.net/steamcommunity/public/images/apps/601110/4567d6ab7dc99a74e971b3cc19468717981a89b1.jpg",
    "icongray": "https://steamcdn-a.akamaihd.net/steamcommunity/public/images/apps/601110/cc76d94e10eee0d7a423a41b88b5e3f40b372e66.jpg"
  },
  {
    "name": "ACHIEVEMENT_COINS_LEVEL_3_1",
    "defaultvalue": 0,
    "displayName": "Coin Specialist 4",
    "hidden": 0,
    "description": "Collect all coins from Part 1 of Island 3",
    "icon": "https://steamcdn-a.akamaihd.net/steamcommunity/public/images/apps/601110/58375ecd81b379be98bfc0d09c04fafd209b75fd.jpg",
    "icongray": "https://steamcdn-a.akamaihd.net/steamcommunity/public/images/apps/601110/b521782f3c22a258b565ae834320c4b6ce47b848.jpg"
  },
  {
    "name": "ACHIEVEMENT_COINS_LEVEL_3_2",
    "defaultvalue": 0,
    "displayName": "Coin Specialist 5",
    "hidden": 0,
    "description": "Collect all coins from Part 2 of Island 3",
    "icon": "https://steamcdn-a.akamaihd.net/steamcommunity/public/images/apps/601110/956e5ff7725d32af49dda0edbfa91a85bdcd9aa2.jpg",
    "icongray": "https://steamcdn-a.akamaihd.net/steamcommunity/public/images/apps/601110/12cac2766004d34d85444f309186317c1e583c72.jpg"
  },
  {
    "name": "ACHIEVEMENT_COINS_LEVEL_3_3",
    "defaultvalue": 0,
    "displayName": "Coin Specialist 6",
    "hidden": 0,
    "description": "Collect all coins from Part 3 of Island 3",
    "icon": "https://steamcdn-a.akamaihd.net/steamcommunity/public/images/apps/601110/c27dde67c01f7006df3dfad9bf517c23129d7ead.jpg",
    "icongray": "https://steamcdn-a.akamaihd.net/steamcommunity/public/images/apps/601110/6ab0832574872d5b911bfc73d95771ad35bd32e1.jpg"
  },
  {
    "name": "ACHIEVEMENT_COINS_LEVEL_4_1",
    "defaultvalue": 0,
    "displayName": "Coin Specialist 7",
    "hidden": 0,
    "description": "Collect all coins from Part 1 of Island 4",
    "icon": "https://steamcdn-a.akamaihd.net/steamcommunity/public/images/apps/601110/e18675df2a3a55a9a1ede76476a5d7e660124a71.jpg",
    "icongray": "https://steamcdn-a.akamaihd.net/steamcommunity/public/images/apps/601110/ccc4c004eefbf9308dede23eb728567dfffefca3.jpg"
  },
  {
    "name": "ACHIEVEMENT_COINS_LEVEL_4_2",
    "defaultvalue": 0,
    "displayName": "Coin Specialist 8",
    "hidden": 0,
    "description": "Collect all coins from Part 2of Island 4",
    "icon": "https://steamcdn-a.akamaihd.net/steamcommunity/public/images/apps/601110/ef4a954d4922901d4d476988a546f1c850656f8d.jpg",
    "icongray": "https://steamcdn-a.akamaihd.net/steamcommunity/public/images/apps/601110/b9732deb407ab781289e4ec0dce47f79de036c40.jpg"
  },
  {
    "name": "ACHIEVEMENT_COINS_LEVEL_4_3",
    "defaultvalue": 0,
    "displayName": "Coin Specialist 9",
    "hidden": 0,
    "description": "Collect all coins from Part 3 of Island 4",
    "icon": "https://steamcdn-a.akamaihd.net/steamcommunity/public/images/apps/601110/e794447e1dfa43d8bd9be90e1fd13ac2238f470c.jpg",
    "icongray": "https://steamcdn-a.akamaihd.net/steamcommunity/public/images/apps/601110/0c10a9b83c83af9b83c9ca9e836a9cc0de421d6b.jpg"
  },
  {
    "name": "ACHIEVEMENT_COINS_LEVEL_5_1",
    "defaultvalue": 0,
    "displayName": "Coin Specialist 10",
    "hidden": 0,
    "description": "Collect all coins from Part 1 of Island 5",
    "icon": "https://steamcdn-a.akamaihd.net/steamcommunity/public/images/apps/601110/befc45ecb8ed5c8e837c16b2f1ccb0d1fdf60f79.jpg",
    "icongray": "https://steamcdn-a.akamaihd.net/steamcommunity/public/images/apps/601110/e6a991eba9227b3c88aae0bf23c1a3bdddb17ee7.jpg"
  },
  {
    "name": "ACHIEVEMENT_COINS_LEVEL_5_2",
    "defaultvalue": 0,
    "displayName": "Coin Specialist 11",
    "hidden": 0,
    "description": "Collect all coins from Part 2 of Island 5",
    "icon": "https://steamcdn-a.akamaihd.net/steamcommunity/public/images/apps/601110/f6c22183b4dafbac493a2c8d0eae11ad44e09cf5.jpg",
    "icongray": "https://steamcdn-a.akamaihd.net/steamcommunity/public/images/apps/601110/f99fe7c192928b069c88088c01a27d38c0ce33a9.jpg"
  },
  {
    "name": "ACHIEVEMENT_COINS_LEVEL_5_3",
    "defaultvalue": 0,
    "displayName": "Coin Specialist 12",
    "hidden": 0,
    "description": "Collect all coins from Part 3 of Island 5",
    "icon": "https://steamcdn-a.akamaihd.net/steamcommunity/public/images/apps/601110/7f0ebe9a3157c4245aa669464c1b094a39c1ffd5.jpg",
    "icongray": "https://steamcdn-a.akamaihd.net/steamcommunity/public/images/apps/601110/f273cc3b6c0196003f5ea60bb30e92c49ea7f8f2.jpg"
  },
  {
    "name": "ACHIEVEMENT_COINS_LEVEL_6_1",
    "defaultvalue": 0,
    "displayName": "Coin Specialist 13",
    "hidden": 0,
    "description": "Collect all coins from Part 1 of Island 6",
    "icon": "https://steamcdn-a.akamaihd.net/steamcommunity/public/images/apps/601110/3b486ec8f0c0491a5aeff0a5dacea385471c042f.jpg",
    "icongray": "https://steamcdn-a.akamaihd.net/steamcommunity/public/images/apps/601110/047a3786bf2b1023578aca851bd775259deddf6c.jpg"
  },
  {
    "name": "ACHIEVEMENT_COINS_LEVEL_6_2",
    "defaultvalue": 0,
    "displayName": "Coin Specialist 14",
    "hidden": 0,
    "description": "Collect all coins from Part 2 of Island 6",
    "icon": "https://steamcdn-a.akamaihd.net/steamcommunity/public/images/apps/601110/4cc74739e54a1d5fbb3ca00de65fd566d14dc400.jpg",
    "icongray": "https://steamcdn-a.akamaihd.net/steamcommunity/public/images/apps/601110/e6d1ad246fb6a73db57980476c9ac40b369da7d6.jpg"
  },
  {
    "name": "ACHIEVEMENT_COINS_LEVEL_6_3",
    "defaultvalue": 0,
    "displayName": "Coin Specialist 15",
    "hidden": 0,
    "description": "Collect all coins from Part 3 of Island 6",
    "icon": "https://steamcdn-a.akamaihd.net/steamcommunity/public/images/apps/601110/2f989caf27ce640aa0b965129f813e005f392a7e.jpg",
    "icongray": "https://steamcdn-a.akamaihd.net/steamcommunity/public/images/apps/601110/2c89239a1ef5d1d97dc44bfeb3ee6eddcfecb4ed.jpg"
  },
  {
    "name": "ACHIEVEMENT_COINS_LEVEL_7_1",
    "defaultvalue": 0,
    "displayName": "Coin Specialist 16",
    "hidden": 0,
    "description": "Collect all coins from Part 1 of Island 7",
    "icon": "https://steamcdn-a.akamaihd.net/steamcommunity/public/images/apps/601110/30f2245c784c1ce9e7fef7278e25c1337671d344.jpg",
    "icongray": "https://steamcdn-a.akamaihd.net/steamcommunity/public/images/apps/601110/e804c834574d151be3bccd9ffd0f641581cbe2bd.jpg"
  },
  {
    "name": "ACHIEVEMENT_COINS_LEVEL_7_2",
    "defaultvalue": 0,
    "displayName": "Coin Specialist 17",
    "hidden": 0,
    "description": "Collect all coins from Part 2 of Island 7",
    "icon": "https://steamcdn-a.akamaihd.net/steamcommunity/public/images/apps/601110/c3bfe513be0ee9af03881aab4181924c0b7d1bb0.jpg",
    "icongray": "https://steamcdn-a.akamaihd.net/steamcommunity/public/images/apps/601110/5683acf14c0772a9b0042828f44875ded959f1dd.jpg"
  },
  {
    "name": "ACHIEVEMENT_COINS_LEVEL_7_3",
    "defaultvalue": 0,
    "displayName": "Coin Specialist 18",
    "hidden": 0,
    "description": "Collect all coins from Part 3 of Island 7",
    "icon": "https://steamcdn-a.akamaihd.net/steamcommunity/public/images/apps/601110/7e6e7bc0d10dbc409d41a8ae0627fdb5a2fa6a77.jpg",
    "icongray": "https://steamcdn-a.akamaihd.net/steamcommunity/public/images/apps/601110/8bb00d3263c2d77c309be6b25b2eed36643548ac.jpg"
  },
  {
    "name": "ACHIEVEMENT_COINS_LEVEL_8_1",
    "defaultvalue": 0,
    "displayName": "Coin Specialist 19",
    "hidden": 0,
    "description": "Collect all coins from Part 1 of Island 8",
    "icon": "https://steamcdn-a.akamaihd.net/steamcommunity/public/images/apps/601110/0670899adcc6c43c0d865041fc26b613e6352df3.jpg",
    "icongray": "https://steamcdn-a.akamaihd.net/steamcommunity/public/images/apps/601110/2564368023e7f35843e0363c6d63d43146cad7fd.jpg"
  },
  {
    "name": "ACHIEVEMENT_COINS_LEVEL_8_2",
    "defaultvalue": 0,
    "displayName": "Coin Specialist 20",
    "hidden": 0,
    "description": "Collect all coins from Part 2 of Island 8",
    "icon": "https://steamcdn-a.akamaihd.net/steamcommunity/public/images/apps/601110/8f0cfa2923c32663aa5aedddf3bf238934b85cc2.jpg",
    "icongray": "https://steamcdn-a.akamaihd.net/steamcommunity/public/images/apps/601110/c1e6775f9331e0c29c811116a63ec57776ef508b.jpg"
  },
  {
    "name": "ACHIEVEMENT_COINS_LEVEL_8_3",
    "defaultvalue": 0,
    "displayName": "Coin Specialist 21",
    "hidden": 0,
    "description": "Collect all coins from Part 3 of Island 8",
    "icon": "https://steamcdn-a.akamaihd.net/steamcommunity/public/images/apps/601110/39d4f3e5989da8d3f3ccc68c3b98d657aa476a2f.jpg",
    "icongray": "https://steamcdn-a.akamaihd.net/steamcommunity/public/images/apps/601110/59eeca166f69dbe183ca2e02065fab6a775f2118.jpg"
  },
  {
    "name": "ACHIEVEMENT_COINS_LEVEL_9_1",
    "defaultvalue": 0,
    "displayName": "Coin Specialist 22",
    "hidden": 0,
    "description": "Collect all coins from Part 1 of Island 9",
    "icon": "https://steamcdn-a.akamaihd.net/steamcommunity/public/images/apps/601110/8c8966ad2819caafa2c435d9db3239e134bfb1a4.jpg",
    "icongray": "https://steamcdn-a.akamaihd.net/steamcommunity/public/images/apps/601110/08bba658ae892a10d3acd6b030ee9baee7ea402b.jpg"
  },
  {
    "name": "ACHIEVEMENT_COINS_LEVEL_9_2",
    "defaultvalue": 0,
    "displayName": "Coin Specialist 23",
    "hidden": 0,
    "description": "Collect all coins from Part 2 of Island 9",
    "icon": "https://steamcdn-a.akamaihd.net/steamcommunity/public/images/apps/601110/27a4bd6a8bc6893bbf35706d9367df6cda69b161.jpg",
    "icongray": "https://steamcdn-a.akamaihd.net/steamcommunity/public/images/apps/601110/1daae21af43fff7fb78715dab9389db59e041804.jpg"
  },
  {
    "name": "ACHIEVEMENT_COINS_LEVEL_9_3",
    "defaultvalue": 0,
    "displayName": "Coin Specialist 24",
    "hidden": 0,
    "description": "Collect all coins from Part 3 of Island 9",
    "icon": "https://steamcdn-a.akamaihd.net/steamcommunity/public/images/apps/601110/b1f3f61e84868f8b96d480c43b68510589354d2d.jpg",
    "icongray": "https://steamcdn-a.akamaihd.net/steamcommunity/public/images/apps/601110/c88153e226906b38f11c3a2ea9fca6cab2ab03bd.jpg"
  },
  {
    "name": "ACHIEVEMENT_COINS_LEVEL_10_1",
    "defaultvalue": 0,
    "displayName": "Superb collector",
    "hidden": 0,
    "description": "Collect all coins from Part 1 of Island 10",
    "icon": "https://steamcdn-a.akamaihd.net/steamcommunity/public/images/apps/601110/daedebd667a368c2dba2f69bfc138858bd9dc8ac.jpg",
    "icongray": "https://steamcdn-a.akamaihd.net/steamcommunity/public/images/apps/601110/8f3fe76f7c83243a8d0b4e97a575f024b9553f01.jpg"
  },
  {
    "name": "ACHIEVEMENT_COINS_LEVEL_10_2",
    "defaultvalue": 0,
    "displayName": "Master collector",
    "hidden": 0,
    "description": "Collect all coins from Part 2 of Island 10",
    "icon": "https://steamcdn-a.akamaihd.net/steamcommunity/public/images/apps/601110/731bae922fc6ed9793f350aa5af6b9f25e07dc66.jpg",
    "icongray": "https://steamcdn-a.akamaihd.net/steamcommunity/public/images/apps/601110/ab11ea0e25465387e9bf513b053f9ed80a9718ee.jpg"
  },
  {
    "name": "ACHIEVEMENT_COINS_LEVEL_10_3",
    "defaultvalue": 0,
    "displayName": "Godlike Collector",
    "hidden": 0,
    "description": "Collect all coins from Part 3 of Island 10",
    "icon": "https://steamcdn-a.akamaihd.net/steamcommunity/public/images/apps/601110/f9d6b77db16d63be334eda822687dd93ffafc948.jpg",
    "icongray": "https://steamcdn-a.akamaihd.net/steamcommunity/public/images/apps/601110/93b3ffad1fd985c790677b3990fcfd9229189dc8.jpg"
  },
  {
    "name": "ACHIEVEMENT_FINISH_ISLAND_1",
    "defaultvalue": 0,
    "displayName": "First steps",
    "hidden": 0,
    "description": "Complete Island 1",
    "icon": "https://steamcdn-a.akamaihd.net/steamcommunity/public/images/apps/601110/50f3ff6ae32aef161beb64808fe238bf47903bca.jpg",
    "icongray": "https://steamcdn-a.akamaihd.net/steamcommunity/public/images/apps/601110/4508a55967a220d8b334398dfafcaf2683d71390.jpg"
  },
  {
    "name": "ACHIEVEMENT_FINISH_ISLAND_2",
    "defaultvalue": 0,
    "displayName": "Adventuring",
    "hidden": 0,
    "description": "Complete Island 2",
    "icon": "https://steamcdn-a.akamaihd.net/steamcommunity/public/images/apps/601110/47807ed864065dcdcf2263bc76c057be85306dc2.jpg",
    "icongray": "https://steamcdn-a.akamaihd.net/steamcommunity/public/images/apps/601110/3304a56aa90c4a85171af57eeed89350f437a6f9.jpg"
  },
  {
    "name": "ACHIEVEMENT_FINISH_ISLAND_3",
    "defaultvalue": 0,
    "displayName": "Moving master",
    "hidden": 0,
    "description": "Complete Island 3",
    "icon": "https://steamcdn-a.akamaihd.net/steamcommunity/public/images/apps/601110/6fde7b47c8330667dd2567a8664c6769480be5a5.jpg",
    "icongray": "https://steamcdn-a.akamaihd.net/steamcommunity/public/images/apps/601110/5ba322b1af22e20b5000108c069600d252e0ec33.jpg"
  },
  {
    "name": "ACHIEVEMENT_FINISH_ISLAND_4",
    "defaultvalue": 0,
    "displayName": "Teleport champion",
    "hidden": 0,
    "description": "Complete Island 4",
    "icon": "https://steamcdn-a.akamaihd.net/steamcommunity/public/images/apps/601110/47f9309935143e5c3898aae10712b92a2740174c.jpg",
    "icongray": "https://steamcdn-a.akamaihd.net/steamcommunity/public/images/apps/601110/db739ab5cbdf7f3cc66620ef71dba534b6d6fb92.jpg"
  },
  {
    "name": "ACHIEVEMENT_FINISH_ISLAND_5",
    "defaultvalue": 0,
    "displayName": "Two at the same time",
    "hidden": 0,
    "description": "Complete Island 5",
    "icon": "https://steamcdn-a.akamaihd.net/steamcommunity/public/images/apps/601110/495b7a02ff54ed3aa20cf05183e1d2e8b0cb3f35.jpg",
    "icongray": "https://steamcdn-a.akamaihd.net/steamcommunity/public/images/apps/601110/c09f9a730d0b90e77bc98597655a4af36bd3c1c9.jpg"
  },
  {
    "name": "ACHIEVEMENT_FINISH_ISLAND_6",
    "defaultvalue": 0,
    "displayName": "Path predictor",
    "hidden": 0,
    "description": "Complete Island 6",
    "icon": "https://steamcdn-a.akamaihd.net/steamcommunity/public/images/apps/601110/db39a611359b2accec373909c4fa04f211f9ea36.jpg",
    "icongray": "https://steamcdn-a.akamaihd.net/steamcommunity/public/images/apps/601110/0aac00eefb1fb422960c49aecd1ff92242e2ca8d.jpg"
  },
  {
    "name": "ACHIEVEMENT_FINISH_ISLAND_7",
    "defaultvalue": 0,
    "displayName": "Cogs and Catapults",
    "hidden": 0,
    "description": "Complete Island 7",
    "icon": "https://steamcdn-a.akamaihd.net/steamcommunity/public/images/apps/601110/83a2bb622dc0fa13ce261530bd4dbd2c97ad8975.jpg",
    "icongray": "https://steamcdn-a.akamaihd.net/steamcommunity/public/images/apps/601110/150572f72accecdc988996fa92915d2b934e25ce.jpg"
  },
  {
    "name": "ACHIEVEMENT_FINISH_ISLAND_8",
    "defaultvalue": 0,
    "displayName": "Dual movement master",
    "hidden": 0,
    "description": "Complete Island 8",
    "icon": "https://steamcdn-a.akamaihd.net/steamcommunity/public/images/apps/601110/2260753a29f48eac28989a390fe38beea204a66d.jpg",
    "icongray": "https://steamcdn-a.akamaihd.net/steamcommunity/public/images/apps/601110/ae451d2216e1f5b566a5092445278a4ca60eebcb.jpg"
  },
  {
    "name": "ACHIEVEMENT_FINISH_ISLAND_9",
    "defaultvalue": 0,
    "displayName": "Complete hand control",
    "hidden": 0,
    "description": "Complete Island 9",
    "icon": "https://steamcdn-a.akamaihd.net/steamcommunity/public/images/apps/601110/3a15d482c28b798f109c1955518d19ac305a3e3b.jpg",
    "icongray": "https://steamcdn-a.akamaihd.net/steamcommunity/public/images/apps/601110/ec2f0c9ff159032f9368d811c580b4b90c76ccc6.jpg"
  },
  {
    "name": "ACHIEVEMENT_FINISH_THE_GAME",
    "defaultvalue": 0,
    "displayName": "Total devotion",
    "hidden": 0,
    "description": "Complete the game",
    "icon": "https://steamcdn-a.akamaihd.net/steamcommunity/public/images/apps/601110/628b352a83ba166018f1a7302ec49b71956984dc.jpg",
    "icongray": "https://steamcdn-a.akamaihd.net/steamcommunity/public/images/apps/601110/32159d189667f06b8d6f930d5c110c3d68c2875e.jpg"
  },
  {
    "name": "ACHIEVEMENT_FIRST_DEATH",
    "defaultvalue": 0,
    "displayName": "First Splash!",
    "hidden": 0,
    "description": "First Blood!",
    "icon": "https://steamcdn-a.akamaihd.net/steamcommunity/public/images/apps/601110/aa9e2779091c2f7a6a87739cbd14987d8c844d55.jpg",
    "icongray": "https://steamcdn-a.akamaihd.net/steamcommunity/public/images/apps/601110/69b99a087e09203ab6d026c151760506750f8751.jpg"
  },
  {
    "name": "ACHIEVEMENT_50_DEATHS",
    "defaultvalue": 0,
    "displayName": "Gravity lover",
    "hidden": 0,
    "description": "Respawn 50 times!",
    "icon": "https://steamcdn-a.akamaihd.net/steamcommunity/public/images/apps/601110/45ed753874bf326ec36e5e61fec0da1ace35a2f9.jpg",
    "icongray": "https://steamcdn-a.akamaihd.net/steamcommunity/public/images/apps/601110/b70daf937811f1705bf644abdc34419a9bc1c1fb.jpg"
  },
  {
    "name": "ACHIEVEMENT_DISCOVER_GEM",
    "defaultvalue": 0,
    "displayName": "Found a secret",
    "hidden": 0,
    "description": "Discover a Hidden Gem",
    "icon": "https://steamcdn-a.akamaihd.net/steamcommunity/public/images/apps/601110/d150eb8eb4d5a84c0a6f22fac2e6815d3fce7260.jpg",
    "icongray": "https://steamcdn-a.akamaihd.net/steamcommunity/public/images/apps/601110/9b743948173d8ef5e2af3a67d11802e3d29be2b3.jpg"
  },
  {
    "name": "ACHIEVEMENT_COLLECT_ALL_GEMS",
    "defaultvalue": 0,
    "displayName": "Indiena Jonas",
    "hidden": 0,
    "description": "Collect all Hidden Gems!",
    "icon": "https://steamcdn-a.akamaihd.net/steamcommunity/public/images/apps/601110/e9b5c00ff1a449f1ab2d780f12ed910710556344.jpg",
    "icongray": "https://steamcdn-a.akamaihd.net/steamcommunity/public/images/apps/601110/f8a61c6bcdc26a26f058ab165fc8b0171b4c270c.jpg"
  },
  {
    "name": "ACHIEVEMENT_PLATFORMS_15",
    "defaultvalue": 0,
    "displayName": "Drop 'em!",
    "hidden": 0,
    "description": "Drop 15 platforms",
    "icon": "https://steamcdn-a.akamaihd.net/steamcommunity/public/images/apps/601110/05330a2177823307a0294380e18f7f4823a8ffa8.jpg",
    "icongray": "https://steamcdn-a.akamaihd.net/steamcommunity/public/images/apps/601110/e111795f5eb110e8eb396f9babed94b96cb3e9ef.jpg"
  },
  {
    "name": "ACHIEVEMENT_PLATFORMS_25",
    "defaultvalue": 0,
    "displayName": "Yeah! Drop 'em!",
    "hidden": 0,
    "description": "Drop 25 platforms",
    "icon": "https://steamcdn-a.akamaihd.net/steamcommunity/public/images/apps/601110/e4b49dc50cb2bd703177258a02d97916a03dce34.jpg",
    "icongray": "https://steamcdn-a.akamaihd.net/steamcommunity/public/images/apps/601110/a8bbc235fe8c1ab71f0ed4c6436f158deebd758f.jpg"
  },
  {
    "name": "ACHIEVEMENT_PLATFORMS_50",
    "defaultvalue": 0,
    "displayName": "Look how they fall!",
    "hidden": 0,
    "description": "Drop 50 platforms",
    "icon": "https://steamcdn-a.akamaihd.net/steamcommunity/public/images/apps/601110/3c8821f0e61c7753fcb4bf6f6d1088175eb62069.jpg",
    "icongray": "https://steamcdn-a.akamaihd.net/steamcommunity/public/images/apps/601110/d2b0efdd23d54ee48acea3a35e254377ee7dfe78.jpg"
  },
  {
    "name": "ACHIEVEMENT_PLATFORMS_100",
    "defaultvalue": 0,
    "displayName": "Keep 'em falling!",
    "hidden": 0,
    "description": "Drop 100 platforms",
    "icon": "https://steamcdn-a.akamaihd.net/steamcommunity/public/images/apps/601110/8fa8df2b0e694aec66093ad7778217c31d4bb28e.jpg",
    "icongray": "https://steamcdn-a.akamaihd.net/steamcommunity/public/images/apps/601110/c5329a709c4eac09fdf44709c753cda9a50d7ff3.jpg"
  },
  {
    "name": "ACHIEVEMENT_PLATFORMS_500",
    "defaultvalue": 0,
    "displayName": "I love to see them falling",
    "hidden": 0,
    "description": "Drop 500 platforms",
    "icon": "https://steamcdn-a.akamaihd.net/steamcommunity/public/images/apps/601110/222de73d94547db85b6ecd9bbebcc80ceac5e716.jpg",
    "icongray": "https://steamcdn-a.akamaihd.net/steamcommunity/public/images/apps/601110/1d6e54fdba49368e08e90c67ec4577db40575a23.jpg"
  },
  {
    "name": "ACHIEVEMENT_PLATFORMS_1000",
    "defaultvalue": 0,
    "displayName": "I need to drop 'em",
    "hidden": 0,
    "description": "Drop 1000 platforms",
    "icon": "https://steamcdn-a.akamaihd.net/steamcommunity/public/images/apps/601110/5c11290b1f5ffe59c3a310bc7add1ceb38d29674.jpg",
    "icongray": "https://steamcdn-a.akamaihd.net/steamcommunity/public/images/apps/601110/6547e8751cf45aac33354ad6bb39a96dcb319cb3.jpg"
  },
  {
    "name": "ACHIEVEMENT_PLATFORMS_5000",
    "defaultvalue": 0,
    "displayName": "GOING DOWN!",
    "hidden": 0,
    "description": "Drop 5000 platforms",
    "icon": "https://steamcdn-a.akamaihd.net/steamcommunity/public/images/apps/601110/dd2c71db772ab751184f7fbed74348a0609c5f21.jpg",
    "icongray": "https://steamcdn-a.akamaihd.net/steamcommunity/public/images/apps/601110/9bbd86031585698da292578862ca9288d67793ef.jpg"
  },
  {
    "name": "ACHIEVEMENT_DISCOVER_CATAPULT",
    "defaultvalue": 0,
    "displayName": "Time to fly!",
    "hidden": 0,
    "description": "Discover a catapult!",
    "icon": "https://steamcdn-a.akamaihd.net/steamcommunity/public/images/apps/601110/1174243a51cc1dd5abd872006fa98681bbca9bc0.jpg",
    "icongray": "https://steamcdn-a.akamaihd.net/steamcommunity/public/images/apps/601110/1a017ff02e42cd8b3c78a5cd7e1075054a045c7e.jpg"
  },
  {
    "name": "ACHIEVEMENT_DISCOVER_TELEPORT",
    "defaultvalue": 0,
    "displayName": "Now you see me...",
    "hidden": 0,
    "description": "Discover a teleport!",
    "icon": "https://steamcdn-a.akamaihd.net/steamcommunity/public/images/apps/601110/d38a64c1b50709aafe7242361d64d40353735ec0.jpg",
    "icongray": "https://steamcdn-a.akamaihd.net/steamcommunity/public/images/apps/601110/37f02443032b685b0b3a795d547faab6b0f0e796.jpg"
  },
  {
    "name": "ACHIEVEMENT_DISCOVER_GEAR",
    "defaultvalue": 0,
    "displayName": "Learn to balance",
    "hidden": 0,
    "description": "Discover a Gear Platform",
    "icon": "https://steamcdn-a.akamaihd.net/steamcommunity/public/images/apps/601110/96cacbf1807a507899d9503e841c7088eb89705d.jpg",
    "icongray": "https://steamcdn-a.akamaihd.net/steamcommunity/public/images/apps/601110/0d7c6c24dacf3468d92940fd93f4c163055abae8.jpg"
  },
  {
    "name": "ACHIEVEMENT_DISCOVER_MOVING",
    "defaultvalue": 0,
    "displayName": "This moves!",
    "hidden": 0,
    "description": "Discover a Moving platform",
    "icon": "https://steamcdn-a.akamaihd.net/steamcommunity/public/images/apps/601110/c68337ea820d23a44eeff3c849ec233ee7cebf50.jpg",
    "icongray": "https://steamcdn-a.akamaihd.net/steamcommunity/public/images/apps/601110/d797684f01c35c16d0d3be7334c43d2731870172.jpg"
  },
  {
    "name": "ACHIEVEMENT_FULLY_UPGRADE",
    "defaultvalue": 0,
    "displayName": "Ready for everything",
    "hidden": 0,
    "description": "Fully upgrade a player",
    "icon": "https://steamcdn-a.akamaihd.net/steamcommunity/public/images/apps/601110/4a90a654f89361e90f61b64ee74f1aa02505e135.jpg",
    "icongray": "https://steamcdn-a.akamaihd.net/steamcommunity/public/images/apps/601110/c8aaa5b1fbd5532b60a48b0aa004c795223ad122.jpg"
  },
  {
    "name": "ACHIEVEMENT_UPGRADE_STAT",
    "defaultvalue": 0,
    "displayName": "Improving a little",
    "hidden": 0,
    "description": "Upgade a player stat",
    "icon": "https://steamcdn-a.akamaihd.net/steamcommunity/public/images/apps/601110/612f15d602200c1adf876dab85ac0f6d31c0a97f.jpg",
    "icongray": "https://steamcdn-a.akamaihd.net/steamcommunity/public/images/apps/601110/1e9811df22cee3c328806e845629a4fd1f1c17af.jpg"
  },
  {
    "name": "ACHIEVEMENT_FULLY_UPGRADE_STAT",
    "defaultvalue": 0,
    "displayName": "PhD on something",
    "hidden": 0,
    "description": "Fully upgrade a player stat",
    "icon": "https://steamcdn-a.akamaihd.net/steamcommunity/public/images/apps/601110/9302f1833b87d007d48e58f75e4cc87365b52982.jpg",
    "icongray": "https://steamcdn-a.akamaihd.net/steamcommunity/public/images/apps/601110/62f3d595095f548c316b89bac7c11723c50daf22.jpg"
  }
]