[
  {
    "name": "trophy_1",
    "defaultvalue": 0,
    "displayName": "Royal adventure!",
    "hidden": 0,
    "description": "For starting your first game",
    "icon": "https://steamcdn-a.akamaihd.net/steamcommunity/public/images/apps/1110280/644c8bbb77cd4b09d054cb860c53a4e0036e9d8d.jpg",
    "icongray": "https://steamcdn-a.akamaihd.net/steamcommunity/public/images/apps/1110280/3b7d9c4b17df28e05fc9290f2c497c4df227d03d.jpg"
  },
  {
    "name": "trophy_2",
    "defaultvalue": 0,
    "displayName": "Novice numismatist",
    "hidden": 0,
    "description": "Gathered 100 units of gold",
    "icon": "https://steamcdn-a.akamaihd.net/steamcommunity/public/images/apps/1110280/bed301c8d864d62e96bebfecfcc3849f90ca5bcc.jpg",
    "icongray": "https://steamcdn-a.akamaihd.net/steamcommunity/public/images/apps/1110280/87e71b9c8622b19487819aa5ac366568fe797740.jpg"
  },
  {
    "name": "trophy_3",
    "defaultvalue": 0,
    "displayName": "Started timber cutting",
    "hidden": 0,
    "description": "Gathered 100 units of wood",
    "icon": "https://steamcdn-a.akamaihd.net/steamcommunity/public/images/apps/1110280/e06a53b0c92ce878dbae7a9010b31f9a12422529.jpg",
    "icongray": "https://steamcdn-a.akamaihd.net/steamcommunity/public/images/apps/1110280/d9fa21dcd7e7881109ccef67ee1c41ba00c980b5.jpg"
  },
  {
    "name": "trophy_4",
    "defaultvalue": 0,
    "displayName": "Novice builder",
    "hidden": 0,
    "description": "Gathered 100 units of clay",
    "icon": "https://steamcdn-a.akamaihd.net/steamcommunity/public/images/apps/1110280/cb5afa85a622c532d1f22ca50e898a32d77977ef.jpg",
    "icongray": "https://steamcdn-a.akamaihd.net/steamcommunity/public/images/apps/1110280/8cf381ad7b97d2621f68b68b884d142cd86e764b.jpg"
  },
  {
    "name": "trophy_5",
    "defaultvalue": 0,
    "displayName": "Skillful numismatist",
    "hidden": 0,
    "description": "Gathered 1000 units of gold",
    "icon": "https://steamcdn-a.akamaihd.net/steamcommunity/public/images/apps/1110280/b4e006091634e26ed69e4519cbaffcc3cf1711ca.jpg",
    "icongray": "https://steamcdn-a.akamaihd.net/steamcommunity/public/images/apps/1110280/6a41b4f1fa3248ea2dcf4dd480493a685eadf288.jpg"
  },
  {
    "name": "trophy_6",
    "defaultvalue": 0,
    "displayName": "Completed timber cutting",
    "hidden": 0,
    "description": "Gathered 1000 units of wood",
    "icon": "https://steamcdn-a.akamaihd.net/steamcommunity/public/images/apps/1110280/380222b8675279fff05c78653f85da5d12d72039.jpg",
    "icongray": "https://steamcdn-a.akamaihd.net/steamcommunity/public/images/apps/1110280/0de16ae40610913d79f0aea97ff63e1e39d00a35.jpg"
  },
  {
    "name": "trophy_7",
    "defaultvalue": 0,
    "displayName": "Handy man",
    "hidden": 0,
    "description": "Gathered 1000 units of clay ",
    "icon": "https://steamcdn-a.akamaihd.net/steamcommunity/public/images/apps/1110280/ade529503ddfbbb3b9b38ed37b0c7e4742d3678e.jpg",
    "icongray": "https://steamcdn-a.akamaihd.net/steamcommunity/public/images/apps/1110280/e14968a7c2b66ffc6752b2ad8435f3646ec5be7c.jpg"
  },
  {
    "name": "trophy_8",
    "defaultvalue": 0,
    "displayName": "Like taking candy from a baby",
    "hidden": 0,
    "description": "For emptying your first warehouse",
    "icon": "https://steamcdn-a.akamaihd.net/steamcommunity/public/images/apps/1110280/565d68e7a8d611e44345a1ae1b7f80bf99345d07.jpg",
    "icongray": "https://steamcdn-a.akamaihd.net/steamcommunity/public/images/apps/1110280/631b1beadf1eda0e2aa492fde8fd469d263d94a1.jpg"
  },
  {
    "name": "trophy_9",
    "defaultvalue": 0,
    "displayName": "Cautious researcher",
    "hidden": 0,
    "description": "Used an active booster for the first time",
    "icon": "https://steamcdn-a.akamaihd.net/steamcommunity/public/images/apps/1110280/94a9af362c58af8930bc5fcdbf0201e25666317c.jpg",
    "icongray": "https://steamcdn-a.akamaihd.net/steamcommunity/public/images/apps/1110280/d43ca4cda88d5ad1decd04669d76d372a9d72e1d.jpg"
  },
  {
    "name": "trophy_10",
    "defaultvalue": 0,
    "displayName": "Practical boss",
    "hidden": 0,
    "description": "For hiring temporary assistant",
    "icon": "https://steamcdn-a.akamaihd.net/steamcommunity/public/images/apps/1110280/4f46cb168eefa78e52959f053f9975b2dd320e4c.jpg",
    "icongray": "https://steamcdn-a.akamaihd.net/steamcommunity/public/images/apps/1110280/d4c0ea5b0c3d916b0374ab23775be7b1700e902d.jpg"
  },
  {
    "name": "trophy_11",
    "defaultvalue": 0,
    "displayName": "Nimble foreman",
    "hidden": 0,
    "description": "Built three structures in one minute",
    "icon": "https://steamcdn-a.akamaihd.net/steamcommunity/public/images/apps/1110280/991eafc0a72666e8efe55b68e5bcccf05f28875e.jpg",
    "icongray": "https://steamcdn-a.akamaihd.net/steamcommunity/public/images/apps/1110280/9219fad3a903620611c4b6011d9ce697fd61abf1.jpg"
  },
  {
    "name": "trophy_12",
    "defaultvalue": 0,
    "displayName": "Excellent word warrior",
    "hidden": 0,
    "description": "Calmed a dissatisfied voter",
    "icon": "https://steamcdn-a.akamaihd.net/steamcommunity/public/images/apps/1110280/d4cf8c8f33e66651b09e5cc2f8e1e416b6185e13.jpg",
    "icongray": "https://steamcdn-a.akamaihd.net/steamcommunity/public/images/apps/1110280/1cfb8895226ae6e1597e90b800d9cb3eca382df1.jpg"
  },
  {
    "name": "trophy_13",
    "defaultvalue": 0,
    "displayName": "Honest governor",
    "hidden": 0,
    "description": "Caught a corrupt bureaucrat",
    "icon": "https://steamcdn-a.akamaihd.net/steamcommunity/public/images/apps/1110280/5cb9a15b192e4fb237711c70df9edcb1818a4346.jpg",
    "icongray": "https://steamcdn-a.akamaihd.net/steamcommunity/public/images/apps/1110280/2939a9c1768835da1aef65b8b1769f61d550c45b.jpg"
  },
  {
    "name": "trophy_14",
    "defaultvalue": 0,
    "displayName": "Successful governor",
    "hidden": 0,
    "description": "Caught all corrupt bureaucrats",
    "icon": "https://steamcdn-a.akamaihd.net/steamcommunity/public/images/apps/1110280/f523a6319de60b7a85d6c62e557b05b7e01acd8c.jpg",
    "icongray": "https://steamcdn-a.akamaihd.net/steamcommunity/public/images/apps/1110280/947c99bc1bb837fe8b619cb4d5b4253e0fab05e0.jpg"
  },
  {
    "name": "trophy_15",
    "defaultvalue": 0,
    "displayName": "Nothing is too good for me",
    "hidden": 0,
    "description": "For using boosters ten times while playing a level",
    "icon": "https://steamcdn-a.akamaihd.net/steamcommunity/public/images/apps/1110280/f330eb0f532e25d11f9c60b95901be382f306682.jpg",
    "icongray": "https://steamcdn-a.akamaihd.net/steamcommunity/public/images/apps/1110280/48c5b451f2a7e37436a5a035c3e78eefe96d223c.jpg"
  },
  {
    "name": "trophy_16",
    "defaultvalue": 0,
    "displayName": "Splendid gardener",
    "hidden": 0,
    "description": "Restored all flowerbeds",
    "icon": "https://steamcdn-a.akamaihd.net/steamcommunity/public/images/apps/1110280/04005be8ce808bdc880fae103027250a4580a09b.jpg",
    "icongray": "https://steamcdn-a.akamaihd.net/steamcommunity/public/images/apps/1110280/0370fa74fd8fabe0555ee3cc4e02b0bd6874609e.jpg"
  },
  {
    "name": "trophy_17",
    "defaultvalue": 0,
    "displayName": "Mindful ruler ",
    "hidden": 0,
    "description": "Fixed all residences",
    "icon": "https://steamcdn-a.akamaihd.net/steamcommunity/public/images/apps/1110280/2280476658eb01077fd0b209fb0f88a7bce77315.jpg",
    "icongray": "https://steamcdn-a.akamaihd.net/steamcommunity/public/images/apps/1110280/71e721d619e8910d0a9166dccd699cc1c2b431dc.jpg"
  },
  {
    "name": "trophy_18",
    "defaultvalue": 0,
    "displayName": "Long-awaited meeting",
    "hidden": 0,
    "description": "Met Cousin",
    "icon": "https://steamcdn-a.akamaihd.net/steamcommunity/public/images/apps/1110280/6ca2a788b5d367ceab1301fda8473acd9c6d6f8c.jpg",
    "icongray": "https://steamcdn-a.akamaihd.net/steamcommunity/public/images/apps/1110280/faa6c2d0258126399f95f6ac537999ab70ff18db.jpg"
  },
  {
    "name": "trophy_19",
    "defaultvalue": 0,
    "displayName": "Relaxation time!",
    "hidden": 0,
    "description": "For not clicking your mouse for 15 seconds",
    "icon": "https://steamcdn-a.akamaihd.net/steamcommunity/public/images/apps/1110280/1b3acf060e391986cfb62bdee5c254ba56c0f5ac.jpg",
    "icongray": "https://steamcdn-a.akamaihd.net/steamcommunity/public/images/apps/1110280/c1eb880ca46d77705e35353569d7ce134ca49bdd.jpg"
  },
  {
    "name": "trophy_20",
    "defaultvalue": 0,
    "displayName": "Master click",
    "hidden": 0,
    "description": "Made 30 consecutive quick clicks on one level",
    "icon": "https://steamcdn-a.akamaihd.net/steamcommunity/public/images/apps/1110280/e327e37d84e84c42a05a7aa7b0b0cf7abe77e709.jpg",
    "icongray": "https://steamcdn-a.akamaihd.net/steamcommunity/public/images/apps/1110280/01da8b404d8a1a0964276159c2be1c65e8ed16a9.jpg"
  },
  {
    "name": "trophy_21",
    "defaultvalue": 0,
    "displayName": "Time-out never hurt anyone",
    "hidden": 0,
    "description": "Paused a game",
    "icon": "https://steamcdn-a.akamaihd.net/steamcommunity/public/images/apps/1110280/ddbce4c0b654c1d16f6a52a31c71ea5c75f96b6c.jpg",
    "icongray": "https://steamcdn-a.akamaihd.net/steamcommunity/public/images/apps/1110280/8a5b87838aee25fd17c4e4d58e22f7f2c91064e0.jpg"
  },
  {
    "name": "trophy_22",
    "defaultvalue": 0,
    "displayName": "Invincible will",
    "hidden": 0,
    "description": "Passed hard-core mode",
    "icon": "https://steamcdn-a.akamaihd.net/steamcommunity/public/images/apps/1110280/12c607c7415a4c0d9e1af1095dce3dfe6ca34242.jpg",
    "icongray": "https://steamcdn-a.akamaihd.net/steamcommunity/public/images/apps/1110280/10e5f4ebd759dcb64e788169122a5aad85c7deff.jpg"
  },
  {
    "name": "trophy_23",
    "defaultvalue": 0,
    "displayName": "Renowned winner",
    "hidden": 0,
    "description": "Acquired every trophy",
    "icon": "https://steamcdn-a.akamaihd.net/steamcommunity/public/images/apps/1110280/080832319a824b30e0deb0af4cfb74284a1cfe82.jpg",
    "icongray": "https://steamcdn-a.akamaihd.net/steamcommunity/public/images/apps/1110280/9f3ad1205abac53e4717dfed55d9feacba695221.jpg"
  },
  {
    "name": "trophy_24",
    "defaultvalue": 0,
    "displayName": "Earned gold on every level",
    "hidden": 0,
    "description": "Gold medalist",
    "icon": "https://steamcdn-a.akamaihd.net/steamcommunity/public/images/apps/1110280/ab22123a80d86d3cd1b42b71cf6bac1212e73b0f.jpg",
    "icongray": "https://steamcdn-a.akamaihd.net/steamcommunity/public/images/apps/1110280/24297acb829cfc7768bf12e5ef1dcf6b1cdfd19e.jpg"
  }
]