﻿{
  "Dlcs": {},
  "Name": "QUAKE Mission Pack 1: Scourge of Armagon",
  "AppId": "9040",
  "ImageUrl": "https://steamcdn-a.akamaihd.net/steam/apps/9040/header.jpg?t=1543499340",
  "Languages": [
    "english"
  ],
  "Platforms": {
    "windows": true,
    "mac": false,
    "linux": false
  }
}