{
  "Dlcs": {},
  "Name": "Turn your Destiny",
  "AppId": "664080",
  "ImageUrl": "https://steamcdn-a.akamaihd.net/steam/apps/664080/header.jpg?t=1498718323",
  "Languages": [
    "english"
  ],
  "Platforms": {
    "windows": true,
    "mac": false,
    "linux": false
  }
}