{
  "Dlcs": {},
  "Name": "Dawn of Warriors",
  "AppId": "540650",
  "ImageUrl": "https://steamcdn-a.akamaihd.net/steam/apps/540650/header.jpg?t=1476924362",
  "Languages": [
    "english",
    "french",
    "german",
    "spanish",
    "japanese",
    "schinese",
    "tchinese",
    "portuguese",
    "korean"
  ],
  "Platforms": {
    "windows": true,
    "mac": false,
    "linux": false
  }
}