﻿{
  "Dlcs": {},
  "Name": "War Robots",
  "AppId": "767560",
  "ImageUrl": "https://steamcdn-a.akamaihd.net/steam/apps/767560/header.jpg?t=1594038871",
  "Languages": [
    "english",
    "french",
    "italian",
    "german",
    "spanish",
    "dutch",
    "japanese",
    "korean",
    "polish",
    "portuguese",
    "russian",
    "schinese",
    "thai",
    "tchinese",
    "turkish"
  ],
  "Platforms": {
    "windows": true,
    "mac": false,
    "linux": false
  }
}