[
  {
    "name": "STIERN_HOUSE",
    "defaultvalue": 0,
    "displayName": "The Stierngranat family's house",
    "hidden": 0,
    "description": "You've unlocked the Stierngranat Family's House.",
    "icon": "https://steamcdn-a.akamaihd.net/steamcommunity/public/images/apps/337130/821b2106722397b7c52345113eeaf0ec910c2fdc.jpg",
    "icongray": "https://steamcdn-a.akamaihd.net/steamcommunity/public/images/apps/337130/b11caf5877b1a3ad985db04b723293fd16440835.jpg"
  },
  {
    "name": "BLOOD_FALLS",
    "defaultvalue": 0,
    "displayName": "The Blood Falls",
    "hidden": 0,
    "description": "You've unlocked the Blood Falls.",
    "icon": "https://steamcdn-a.akamaihd.net/steamcommunity/public/images/apps/337130/8a6426b4a8a6b5176fe9279943c2d59314d1f420.jpg",
    "icongray": "https://steamcdn-a.akamaihd.net/steamcommunity/public/images/apps/337130/d3734a99511db5ffa8b9ed440534d5e8ca99141f.jpg"
  },
  {
    "name": "SCHOOL_MUSEUM",
    "defaultvalue": 0,
    "displayName": "The School Museum",
    "hidden": 0,
    "description": "You've unlocked the School Museum.",
    "icon": "https://steamcdn-a.akamaihd.net/steamcommunity/public/images/apps/337130/ae1cba7240e49559754c6ae2878189b5247057b6.jpg",
    "icongray": "https://steamcdn-a.akamaihd.net/steamcommunity/public/images/apps/337130/9245119b780dd9153081bce833775e5d6aea21ef.jpg"
  },
  {
    "name": "JOHANSSON_PEAK",
    "defaultvalue": 0,
    "displayName": "The Johansson Peak",
    "hidden": 0,
    "description": "You've unlocked Johansson Peak.",
    "icon": "https://steamcdn-a.akamaihd.net/steamcommunity/public/images/apps/337130/be62090f525513007ba9087fb09ecc503d0132af.jpg",
    "icongray": "https://steamcdn-a.akamaihd.net/steamcommunity/public/images/apps/337130/c4a24669ad98191aa84738d53b5b9e86489ed86b.jpg"
  },
  {
    "name": "SAINT_MARIA_CHURCH",
    "defaultvalue": 0,
    "displayName": "The Saint Maria Church",
    "hidden": 0,
    "description": "You've unlocked the Saint Maria Church.",
    "icon": "https://steamcdn-a.akamaihd.net/steamcommunity/public/images/apps/337130/338095b55c50ee5e34572783ccddaccc9ad4e51f.jpg",
    "icongray": "https://steamcdn-a.akamaihd.net/steamcommunity/public/images/apps/337130/0ff5887f3e36df25935d8ae1ca909f61dd6b60da.jpg"
  },
  {
    "name": "EMHART_ZURICH",
    "defaultvalue": 0,
    "displayName": "Emhart Zurich",
    "hidden": 0,
    "description": "You've found Emhart Zurich.",
    "icon": "https://steamcdn-a.akamaihd.net/steamcommunity/public/images/apps/337130/f81d76be7f127ef1cf87e631a7a28ef5f0e6130f.jpg",
    "icongray": "https://steamcdn-a.akamaihd.net/steamcommunity/public/images/apps/337130/d95bc2b6084dd941e2ca561eacbfb8168628d912.jpg"
  },
  {
    "name": "MALTE_MUSEUM",
    "defaultvalue": 0,
    "displayName": "The Malte Stierngranat Museum",
    "hidden": 0,
    "description": "You've unlocked the Malte Stierngranat Museum.",
    "icon": "https://steamcdn-a.akamaihd.net/steamcommunity/public/images/apps/337130/4689a5a6e539b6317cedc105f581a02556c236a9.jpg",
    "icongray": "https://steamcdn-a.akamaihd.net/steamcommunity/public/images/apps/337130/e7cfcb0697f1b5c4c3716a6ac9e8957ef77c5edb.jpg"
  },
  {
    "name": "PYRAMID",
    "defaultvalue": 0,
    "displayName": "The Pyramid",
    "hidden": 0,
    "description": "You've unlocked the Pyramid.",
    "icon": "https://steamcdn-a.akamaihd.net/steamcommunity/public/images/apps/337130/c99a12e73f24e6a3fb3d692efbeb5a92a56bd42d.jpg",
    "icongray": "https://steamcdn-a.akamaihd.net/steamcommunity/public/images/apps/337130/e06107d699d2c90c338c61d7e529eaf1139cf5b0.jpg"
  },
  {
    "name": "BARN",
    "defaultvalue": 0,
    "displayName": "The Barn",
    "hidden": 0,
    "description": "You've unlocked the Barn.",
    "icon": "https://steamcdn-a.akamaihd.net/steamcommunity/public/images/apps/337130/d5d08da831b51f8ced93dc74c2f5ab04bc8baaa5.jpg",
    "icongray": "https://steamcdn-a.akamaihd.net/steamcommunity/public/images/apps/337130/88e114b73aa9acefe537b65ec2fd4cc761faf8c2.jpg"
  },
  {
    "name": "SONIC_FORGE",
    "defaultvalue": 0,
    "displayName": "The Sonic Forge",
    "hidden": 0,
    "description": "You've unlocked the Sonic Forge.",
    "icon": "https://steamcdn-a.akamaihd.net/steamcommunity/public/images/apps/337130/38a95781156fa41112007edceccfea791f79a2e6.jpg",
    "icongray": "https://steamcdn-a.akamaihd.net/steamcommunity/public/images/apps/337130/8ff8c51ef6cc397990e3809adc54071ca5b3cf33.jpg"
  },
  {
    "name": "CAR_GRAVEYARD",
    "defaultvalue": 0,
    "displayName": "The car graveyard",
    "hidden": 0,
    "description": "You've unlocked the Car Graveyard.",
    "icon": "https://steamcdn-a.akamaihd.net/steamcommunity/public/images/apps/337130/b41d266b1fbd65210a3b63e9f126e5126dfce6be.jpg",
    "icongray": "https://steamcdn-a.akamaihd.net/steamcommunity/public/images/apps/337130/e18d340b115d63b10295db03336e74f65c8d4dfb.jpg"
  },
  {
    "name": "MALTES_TRAIN",
    "defaultvalue": 0,
    "displayName": "Malte’s Train Wagon",
    "hidden": 0,
    "description": "You've unlocked Malte's Train Wagon.",
    "icon": "https://steamcdn-a.akamaihd.net/steamcommunity/public/images/apps/337130/40978344cc8a0948468845ddc094f8e8d0425808.jpg",
    "icongray": "https://steamcdn-a.akamaihd.net/steamcommunity/public/images/apps/337130/c30b0e2ae1e9a2495fd9d8dd569ac04002661fed.jpg"
  },
  {
    "name": "SKIING_HOUSE",
    "defaultvalue": 0,
    "displayName": "The Skiing House",
    "hidden": 0,
    "description": "You've unlocked the Skiing House.",
    "icon": "https://steamcdn-a.akamaihd.net/steamcommunity/public/images/apps/337130/006dc9adce2e974bc41e02768bd095d3c43c016e.jpg",
    "icongray": "https://steamcdn-a.akamaihd.net/steamcommunity/public/images/apps/337130/a158336d32f1924e0e0741d2467985dfe03fb6b9.jpg"
  }
]