{
  "Dlcs": {
    "534930": {
      "Name": "",
      "ImageUrl": ""
    },
    "534931": {
      "Name": "The Eyes of Ara Castle Maps",
      "ImageUrl": "https://steamcdn-a.akamaihd.net/steam/apps/534931/header.jpg?t=1508282897"
    },
    "695580": {
      "Name": "The Art and Design of The Eyes of Ara",
      "ImageUrl": "https://steamcdn-a.akamaihd.net/steam/apps/695580/header.jpg?t=1508281350"
    }
  },
  "Name": "The Eyes of Ara",
  "AppId": "454250",
  "ImageUrl": "https://steamcdn-a.akamaihd.net/steam/apps/454250/header.jpg?t=1601282353",
  "Languages": [
    "english",
    "german",
    "russian",
    "french",
    "italian",
    "spanish",
    "japanese",
    "korean",
    "portuguese",
    "schinese"
  ],
  "Platforms": {
    "windows": true,
    "mac": true,
    "linux": false
  }
}