[
  {
    "name": "bonked_animals",
    "defaultvalue": 0,
    "displayName": "Bonks"
  },
  {
    "name": "exploded_animals",
    "defaultvalue": 0,
    "displayName": "Exploded animals"
  },
  {
    "name": "tracks_placed",
    "defaultvalue": 0,
    "displayName": "Placed tracks"
  },
  {
    "name": "destroyed_tracks",
    "defaultvalue": 0,
    "displayName": "Destroyed tracks"
  },
  {
    "name": "turns",
    "defaultvalue": 0,
    "displayName": "Turns"
  },
  {
    "name": "delays",
    "defaultvalue": 0,
    "displayName": "Delays"
  }
]