{
  "Dlcs": {},
  "Name": "Pumpkin Dog Xtreme",
  "AppId": "1381630",
  "ImageUrl": "https://steamcdn-a.akamaihd.net/steam/apps/1381630/header.jpg?t=1599077342",
  "Languages": [
    "english"
  ],
  "Platforms": {
    "windows": true,
    "mac": false,
    "linux": false
  }
}