{
  "Dlcs": {
    "1031300": {
      "Name": "Rebel Forces - Skins",
      "ImageUrl": "https://steamcdn-a.akamaihd.net/steam/apps/1031300/header.jpg?t=1592975945"
    }
  },
  "Name": "Rebel Forces",
  "AppId": "979080",
  "ImageUrl": "https://steamcdn-a.akamaihd.net/steam/apps/979080/header.jpg?t=1592975943",
  "Languages": [
    "english"
  ],
  "Platforms": {
    "windows": true,
    "mac": false,
    "linux": false
  }
}