{
  "Dlcs": {},
  "Name": "Homo Flimsy - The Ragdoll Goalkeeping Simulator",
  "AppId": "876270",
  "ImageUrl": "https://steamcdn-a.akamaihd.net/steam/apps/876270/header.jpg?t=1592597212",
  "Languages": [
    "english"
  ],
  "Platforms": {
    "windows": true,
    "mac": false,
    "linux": false
  }
}