{
  "Dlcs": {},
  "Name": "Crazy Flies",
  "AppId": "532740",
  "ImageUrl": "https://steamcdn-a.akamaihd.net/steam/apps/532740/header.jpg?t=1477458562",
  "Languages": [
    "english",
    "schinese"
  ],
  "Platforms": {
    "windows": true,
    "mac": false,
    "linux": false
  }
}