{
  "Dlcs": {},
  "Name": "Robot Arena III",
  "AppId": "363530",
  "ImageUrl": "https://steamcdn-a.akamaihd.net/steam/apps/363530/header.jpg?t=1466449255",
  "Languages": [
    "english"
  ],
  "Platforms": {
    "windows": true,
    "mac": false,
    "linux": false
  }
}