[
  {
    "name": "ACH_TutorialFinished",
    "defaultvalue": 0,
    "displayName": "Baby-BOOMER",
    "hidden": 0,
    "description": "Finish the Tutorial",
    "icon": "https://steamcdn-a.akamaihd.net/steamcommunity/public/images/apps/1099470/643361ff2c879072afcef3ea07acc0f89ee45871.jpg",
    "icongray": "https://steamcdn-a.akamaihd.net/steamcommunity/public/images/apps/1099470/2f3524407ed76f58dd328f4a21dd65dfd1ed41c9.jpg"
  },
  {
    "name": "ACH_SurvivalUnlocked",
    "defaultvalue": 0,
    "displayName": "Unlock Survival Mode",
    "hidden": 0,
    "description": "Play 3 Quick Games to unlock the Survival Mode",
    "icon": "https://steamcdn-a.akamaihd.net/steamcommunity/public/images/apps/1099470/1a55f35379828f1a3100641ae2789bbbdd3a048d.jpg",
    "icongray": "https://steamcdn-a.akamaihd.net/steamcommunity/public/images/apps/1099470/fcb485adb4bb45111389df1f597374b07033c80f.jpg"
  },
  {
    "name": "ACH_QuickVictory",
    "defaultvalue": 0,
    "displayName": "BOOM to Win",
    "hidden": 0,
    "description": "Win a Quick Game",
    "icon": "https://steamcdn-a.akamaihd.net/steamcommunity/public/images/apps/1099470/db8cdc3e12b9f10c8bb4ac1fb94faead62c94095.jpg",
    "icongray": "https://steamcdn-a.akamaihd.net/steamcommunity/public/images/apps/1099470/11f4c35d2294361403b319054f895a19eadb541a.jpg"
  },
  {
    "name": "ACH_QuickHit",
    "defaultvalue": 0,
    "displayName": "Quick Hit",
    "hidden": 0,
    "description": "Hit another player in a Quick Game",
    "icon": "https://steamcdn-a.akamaihd.net/steamcommunity/public/images/apps/1099470/dee776a638c9d8a75ae635e094fba801f9f159db.jpg",
    "icongray": "https://steamcdn-a.akamaihd.net/steamcommunity/public/images/apps/1099470/035cdd15cecdf27d79fe7b9cfa0e592687950c70.jpg"
  },
  {
    "name": "ACH_QuickDouble",
    "defaultvalue": 0,
    "displayName": "Quick Double Combo",
    "hidden": 0,
    "description": "Hit two players at once in a Quick Game",
    "icon": "https://steamcdn-a.akamaihd.net/steamcommunity/public/images/apps/1099470/56b509499f333973c74a539a1ff84ff029614f58.jpg",
    "icongray": "https://steamcdn-a.akamaihd.net/steamcommunity/public/images/apps/1099470/54e1fd161deed68902da825e2b905c2b38d1ca71.jpg"
  },
  {
    "name": "ACH_QuickTriple",
    "defaultvalue": 0,
    "displayName": "Quick Triple Combo",
    "hidden": 0,
    "description": "Hit three or more players at once in a Quick Game",
    "icon": "https://steamcdn-a.akamaihd.net/steamcommunity/public/images/apps/1099470/f6256b8117989f098cb51987eae75786981a498e.jpg",
    "icongray": "https://steamcdn-a.akamaihd.net/steamcommunity/public/images/apps/1099470/e9f856bb84cceb395085abfdf3f94e7e698b0539.jpg"
  },
  {
    "name": "ACH_SurvivalTriple",
    "defaultvalue": 0,
    "displayName": "Survival Triple Combo",
    "hidden": 0,
    "description": "Hit three or more bots at once in Survival Mode",
    "icon": "https://steamcdn-a.akamaihd.net/steamcommunity/public/images/apps/1099470/d2e8f9fbceff6702d778c9ade0e756990786bb94.jpg",
    "icongray": "https://steamcdn-a.akamaihd.net/steamcommunity/public/images/apps/1099470/6763053333b6b523a928c5309042127ad8c2396d.jpg"
  },
  {
    "name": "ACH_AllPowerups",
    "defaultvalue": 0,
    "displayName": "Maximum Power",
    "hidden": 0,
    "description": "Collect the maximum number of all Powerups",
    "icon": "https://steamcdn-a.akamaihd.net/steamcommunity/public/images/apps/1099470/912912e0a66d048e4f8773762dbffecdccd470d4.jpg",
    "icongray": "https://steamcdn-a.akamaihd.net/steamcommunity/public/images/apps/1099470/916c836be10dbd4d38d3ffbe6cd3979b684cd481.jpg"
  },
  {
    "name": "ACH_SurvivalWinEasy",
    "defaultvalue": 0,
    "displayName": "Survival - Easy",
    "hidden": 0,
    "description": "Win a Survival Mode game with bots set to easy difficulty",
    "icon": "https://steamcdn-a.akamaihd.net/steamcommunity/public/images/apps/1099470/7eca916d8131b0297621ccade9442f3f180c33c8.jpg",
    "icongray": "https://steamcdn-a.akamaihd.net/steamcommunity/public/images/apps/1099470/0f7199b379b9da2708be0f7974ac44860fc3118b.jpg"
  },
  {
    "name": "ACH_SurvivalWinNormal",
    "defaultvalue": 0,
    "displayName": "Survival - Normal",
    "hidden": 0,
    "description": "Win a Survival Mode game with bots set to normal difficulty",
    "icon": "https://steamcdn-a.akamaihd.net/steamcommunity/public/images/apps/1099470/6786470d8c04b2b1941064f5bc41a62cdd26f451.jpg",
    "icongray": "https://steamcdn-a.akamaihd.net/steamcommunity/public/images/apps/1099470/b09c471345bb879789309b78b21b39e74f7ea7ff.jpg"
  },
  {
    "name": "ACH_SurvivalWinHard",
    "defaultvalue": 0,
    "displayName": "Survival - Hard",
    "hidden": 0,
    "description": "Win a Survival Mode game with bots set to hard difficulty",
    "icon": "https://steamcdn-a.akamaihd.net/steamcommunity/public/images/apps/1099470/3ff8da8d941d2604fa9756ebec094a4da5e2610b.jpg",
    "icongray": "https://steamcdn-a.akamaihd.net/steamcommunity/public/images/apps/1099470/45edd8bba94ca1b5652c54aefe91825ec621aa9a.jpg"
  },
  {
    "name": "ACH_SurvivalWinInsane",
    "defaultvalue": 0,
    "displayName": "Survival - Insane",
    "hidden": 0,
    "description": "Survive insane difficulty - this is really really hard",
    "icon": "https://steamcdn-a.akamaihd.net/steamcommunity/public/images/apps/1099470/c4e0c125a53684f6c7a1f7f6caf1629022408b55.jpg",
    "icongray": "https://steamcdn-a.akamaihd.net/steamcommunity/public/images/apps/1099470/6843a372a86df4812ab2bb8e96911a0dce63df34.jpg"
  },
  {
    "name": "ACH_QuickVictoriesLow",
    "defaultvalue": 0,
    "displayName": "Golden BOOM",
    "hidden": 0,
    "description": "Win 10 Quick Games",
    "icon": "https://steamcdn-a.akamaihd.net/steamcommunity/public/images/apps/1099470/82dd89432f8ad6dd1ef619b5771b0451b5c00da7.jpg",
    "icongray": "https://steamcdn-a.akamaihd.net/steamcommunity/public/images/apps/1099470/4dee7b25b99b35ef85b6fcb4de492ca335e3199e.jpg"
  },
  {
    "name": "ACH_QuickVictoriesHigh",
    "defaultvalue": 0,
    "displayName": "Hyper BOOM",
    "hidden": 0,
    "description": "Win 50 Quick Games",
    "icon": "https://steamcdn-a.akamaihd.net/steamcommunity/public/images/apps/1099470/74c2983298456ca1100d252807622f080a8caf2a.jpg",
    "icongray": "https://steamcdn-a.akamaihd.net/steamcommunity/public/images/apps/1099470/3c029f608fd78824132ebfd34383621e1ff95641.jpg"
  },
  {
    "name": "ACH_QuickBombsPlacedLow",
    "defaultvalue": 0,
    "displayName": "Bee BOOMer",
    "hidden": 0,
    "description": "Place 1,000 Bombs in Quick Games",
    "icon": "https://steamcdn-a.akamaihd.net/steamcommunity/public/images/apps/1099470/5120ed5bb887753ac78d7aa0d2aa050b19db9621.jpg",
    "icongray": "https://steamcdn-a.akamaihd.net/steamcommunity/public/images/apps/1099470/30731ffada3ffb75823776c90dfb169c2fd1d525.jpg"
  },
  {
    "name": "ACH_QuickBombsPlacedHigh",
    "defaultvalue": 0,
    "displayName": "BOOMoholic",
    "hidden": 0,
    "description": "Place 10,000 Bombs in Quick Games",
    "icon": "https://steamcdn-a.akamaihd.net/steamcommunity/public/images/apps/1099470/f724e2a98428ff019da44d7db7a5ac956a859f46.jpg",
    "icongray": "https://steamcdn-a.akamaihd.net/steamcommunity/public/images/apps/1099470/7b62e594f1ae0e16649154e456d576f9e0a968ed.jpg"
  }
]