{
  "Dlcs": {},
  "Name": "My University 我的大学",
  "AppId": "1070950",
  "ImageUrl": "https://steamcdn-a.akamaihd.net/steam/apps/1070950/header.jpg?t=1560685367",
  "Languages": [
    "schinese"
  ],
  "Platforms": {
    "windows": true,
    "mac": false,
    "linux": false
  }
}