﻿[
  {
    "name": "BOSS_TUTARA",
    "defaultvalue": 0,
    "displayName": "Lizard Breaker",
    "hidden": 1,
    "icon": "https://steamcdn-a.akamaihd.net/steamcommunity/public/images/apps/200710/9b6e899a2275e32d6597dcdaadc065b1b038a0d3.jpg",
    "icongray": "https://steamcdn-a.akamaihd.net/steamcommunity/public/images/apps/200710/ca8d8cbc23728f806086f182d096aaf5b9fdb3e4.jpg"
  },
  {
    "name": "BOSS_ARTIFICER",
    "defaultvalue": 0,
    "displayName": "Revolt Against Artifice",
    "hidden": 1,
    "icon": "https://steamcdn-a.akamaihd.net/steamcommunity/public/images/apps/200710/d69f111c2f7f747e879abb69c415f366e6d5800f.jpg",
    "icongray": "https://steamcdn-a.akamaihd.net/steamcommunity/public/images/apps/200710/8d386d6b7e720b172442fedfff68dd18016d7a7d.jpg"
  },
  {
    "name": "BOSS_BLOATFANG",
    "defaultvalue": 0,
    "displayName": "Flyswatter",
    "hidden": 1,
    "icon": "https://steamcdn-a.akamaihd.net/steamcommunity/public/images/apps/200710/5c0c450ad05bb2d6902c62936325129750ce18d9.jpg",
    "icongray": "https://steamcdn-a.akamaihd.net/steamcommunity/public/images/apps/200710/a43765e0a913e6b26f90ee018e651d4057305c1d.jpg"
  },
  {
    "name": "BOSS_CACKLESPIT",
    "defaultvalue": 0,
    "displayName": "Ding Dong",
    "hidden": 1,
    "icon": "https://steamcdn-a.akamaihd.net/steamcommunity/public/images/apps/200710/4296099026a66560cdc4afe9aaf8e918ee9b71a9.jpg",
    "icongray": "https://steamcdn-a.akamaihd.net/steamcommunity/public/images/apps/200710/c3affcf9eebf8212ed40097fc1ea2943532de439.jpg"
  },
  {
    "name": "BOSS_CHILLHOOF",
    "defaultvalue": 0,
    "displayName": "The Big Chillhoof",
    "hidden": 1,
    "icon": "https://steamcdn-a.akamaihd.net/steamcommunity/public/images/apps/200710/3c6f521bec0e3bd22b519fc075f7eb66828dbe26.jpg",
    "icongray": "https://steamcdn-a.akamaihd.net/steamcommunity/public/images/apps/200710/09f746f2e631feb5c66c2eb5029f3f2b6c8a4daa.jpg"
  },
  {
    "name": "BOSS_DARKALCHEMIST",
    "defaultvalue": 0,
    "displayName": "Mission Accomplished",
    "hidden": 1,
    "icon": "https://steamcdn-a.akamaihd.net/steamcommunity/public/images/apps/200710/644c70fd4415bc0103daf68d0fb9d0df621f4742.jpg",
    "icongray": "https://steamcdn-a.akamaihd.net/steamcommunity/public/images/apps/200710/83eda6601037a1d9b3acd56c3ac71cd6d38407ed.jpg"
  },
  {
    "name": "BOSS_NETHERKING_ALLCLASSES",
    "defaultvalue": 0,
    "displayName": "Classist",
    "hidden": 1,
    "icon": "https://steamcdn-a.akamaihd.net/steamcommunity/public/images/apps/200710/1595bfd12cf2c46ef0306e63a7e66b23226a5afc.jpg",
    "icongray": "https://steamcdn-a.akamaihd.net/steamcommunity/public/images/apps/200710/49ff12e504835477f63ce1594247ff7539681eee.jpg"
  },
  {
    "name": "BOSS_NETHERKING_BERSERKER",
    "defaultvalue": 0,
    "displayName": "True Berserker",
    "hidden": 1,
    "icon": "https://steamcdn-a.akamaihd.net/steamcommunity/public/images/apps/200710/3d017ad243ebba9c83af84cbe53f9565bdfec8c8.jpg",
    "icongray": "https://steamcdn-a.akamaihd.net/steamcommunity/public/images/apps/200710/436e6ff67c09f9aeebc5f34f805e62ddea68e4fc.jpg"
  },
  {
    "name": "BOSS_NETHERKING_DIF_CASUAL",
    "defaultvalue": 0,
    "displayName": "Casuality",
    "hidden": 1,
    "icon": "https://steamcdn-a.akamaihd.net/steamcommunity/public/images/apps/200710/5d9a3194ef397a6b71c31bedef237c5ff2151d1e.jpg",
    "icongray": "https://steamcdn-a.akamaihd.net/steamcommunity/public/images/apps/200710/1ae27d10102f8de4bf54821ff05fbd999660b92c.jpg"
  },
  {
    "name": "BOSS_NETHERKING_DIF_ELITE",
    "defaultvalue": 0,
    "displayName": "Elitist",
    "hidden": 1,
    "icon": "https://steamcdn-a.akamaihd.net/steamcommunity/public/images/apps/200710/4cbebcca7e95ea858413c3976575605a9cdae216.jpg",
    "icongray": "https://steamcdn-a.akamaihd.net/steamcommunity/public/images/apps/200710/fd6830cbe2388da39e621ac8e7a97a7730699895.jpg"
  },
  {
    "name": "BOSS_NETHERKING_DIF_NORMAL",
    "defaultvalue": 0,
    "displayName": "Normalized",
    "hidden": 1,
    "icon": "https://steamcdn-a.akamaihd.net/steamcommunity/public/images/apps/200710/9bef043fd70f3d40321d457a86e7a5a7fdcf8225.jpg",
    "icongray": "https://steamcdn-a.akamaihd.net/steamcommunity/public/images/apps/200710/2aa30c458d441ca5028c8e5c567bac622fdda40f.jpg"
  },
  {
    "name": "BOSS_NETHERKING_DIF_VETERAN",
    "defaultvalue": 0,
    "displayName": "Veterenated",
    "hidden": 1,
    "icon": "https://steamcdn-a.akamaihd.net/steamcommunity/public/images/apps/200710/0247bd5a67f6d16d8ff47a3cb311c003fd407571.jpg",
    "icongray": "https://steamcdn-a.akamaihd.net/steamcommunity/public/images/apps/200710/3cd673293427078a79cde34136bc98cde2d17783.jpg"
  },
  {
    "name": "BOSS_NETHERKING_EMBERMAGE",
    "defaultvalue": 0,
    "displayName": "True Embermage",
    "hidden": 1,
    "icon": "https://steamcdn-a.akamaihd.net/steamcommunity/public/images/apps/200710/3b279292f124ede2959204c87ce6115213de0c17.jpg",
    "icongray": "https://steamcdn-a.akamaihd.net/steamcommunity/public/images/apps/200710/436e6ff67c09f9aeebc5f34f805e62ddea68e4fc.jpg"
  },
  {
    "name": "BOSS_NETHERKING_ENGINEER",
    "defaultvalue": 0,
    "displayName": "True Engineer",
    "hidden": 1,
    "icon": "https://steamcdn-a.akamaihd.net/steamcommunity/public/images/apps/200710/961689958ef1a036d20c1849e7e7cbc2322b02a8.jpg",
    "icongray": "https://steamcdn-a.akamaihd.net/steamcommunity/public/images/apps/200710/6bbc9667cf1cd08f8444c80222074a38694b8f79.jpg"
  },
  {
    "name": "BOSS_NETHERKING_HC_CASUAL",
    "defaultvalue": 0,
    "displayName": "Casually Hardcore",
    "hidden": 1,
    "icon": "https://steamcdn-a.akamaihd.net/steamcommunity/public/images/apps/200710/ce0b23c86d3ffcd27ad06a40c132c155b4a0d57f.jpg",
    "icongray": "https://steamcdn-a.akamaihd.net/steamcommunity/public/images/apps/200710/1524a62cac914e1a94971f3b79bf52c35a0d6e55.jpg"
  },
  {
    "name": "BOSS_NETHERKING_HC_ELITE",
    "defaultvalue": 0,
    "displayName": "Unstoppable",
    "hidden": 1,
    "icon": "https://steamcdn-a.akamaihd.net/steamcommunity/public/images/apps/200710/8fa49ea5e22684a3f63137109960dc6352c91118.jpg",
    "icongray": "https://steamcdn-a.akamaihd.net/steamcommunity/public/images/apps/200710/8b897c86030cb83983386deb0b988374b288dedb.jpg"
  },
  {
    "name": "BOSS_NETHERKING_HC_NORMAL",
    "defaultvalue": 0,
    "displayName": "Normally Hardcore",
    "hidden": 1,
    "icon": "https://steamcdn-a.akamaihd.net/steamcommunity/public/images/apps/200710/36201999c9b4f6abf744f267d186a845f44a4205.jpg",
    "icongray": "https://steamcdn-a.akamaihd.net/steamcommunity/public/images/apps/200710/01fd313bac8af35f65b1c8193aa41b0abbccaf0a.jpg"
  },
  {
    "name": "BOSS_NETHERKING_HC_VETERAN",
    "defaultvalue": 0,
    "displayName": "Hardcore Veteran",
    "hidden": 1,
    "icon": "https://steamcdn-a.akamaihd.net/steamcommunity/public/images/apps/200710/99d68cc5387661d3460458bbd2c113211a7fa8c3.jpg",
    "icongray": "https://steamcdn-a.akamaihd.net/steamcommunity/public/images/apps/200710/0d9819ff09dbaaba9082d49e8d49f4fafe84cf3d.jpg"
  },
  {
    "name": "BOSS_NETHERKING_OUTLANDER",
    "defaultvalue": 0,
    "displayName": "True Outlander",
    "hidden": 1,
    "icon": "https://steamcdn-a.akamaihd.net/steamcommunity/public/images/apps/200710/c096652284d81273c746d1c5f8071ae713f73c8a.jpg",
    "icongray": "https://steamcdn-a.akamaihd.net/steamcommunity/public/images/apps/200710/0af6304889d42ca61b0fb94a45362e493ed223b7.jpg"
  },
  {
    "name": "BOSS_DRAGON",
    "defaultvalue": 0,
    "displayName": "Dragon Slayer",
    "hidden": 1,
    "icon": "https://steamcdn-a.akamaihd.net/steamcommunity/public/images/apps/200710/7c2dce06816e6c896df284155d5f62ac965d8eff.jpg",
    "icongray": "https://steamcdn-a.akamaihd.net/steamcommunity/public/images/apps/200710/a348a4e5426a72c060ea67300c4a7c74d145e7a3.jpg"
  },
  {
    "name": "BOSS_EZREKKHAN",
    "defaultvalue": 0,
    "displayName": "Ezrek Gone",
    "hidden": 1,
    "icon": "https://steamcdn-a.akamaihd.net/steamcommunity/public/images/apps/200710/a1884ef19ff14b034ffad515d5071dadc780f88e.jpg",
    "icongray": "https://steamcdn-a.akamaihd.net/steamcommunity/public/images/apps/200710/4b214d1506c1f4895fff83974c04b24a698b9576.jpg"
  },
  {
    "name": "BOSS_FALLENGUARDIAN",
    "defaultvalue": 0,
    "displayName": "The Felled Guardian",
    "hidden": 1,
    "icon": "https://steamcdn-a.akamaihd.net/steamcommunity/public/images/apps/200710/7b4bc13e0a24929b8552a7717521f2c41dfa8967.jpg",
    "icongray": "https://steamcdn-a.akamaihd.net/steamcommunity/public/images/apps/200710/a613e599ee57eacdc1bdb162c740067e99ab8566.jpg"
  },
  {
    "name": "BOSS_GRANDREGENT",
    "defaultvalue": 0,
    "displayName": "Grand Regicide",
    "hidden": 1,
    "icon": "https://steamcdn-a.akamaihd.net/steamcommunity/public/images/apps/200710/b2f7e5896d70cf782e9096bdd28fda08f0adac36.jpg",
    "icongray": "https://steamcdn-a.akamaihd.net/steamcommunity/public/images/apps/200710/a340d86c339c775fce88bc5397d95d87c4d90307.jpg"
  },
  {
    "name": "BOSS_GRELL",
    "defaultvalue": 0,
    "displayName": "When Grell Fell",
    "hidden": 1,
    "icon": "https://steamcdn-a.akamaihd.net/steamcommunity/public/images/apps/200710/f6f50393a9fbf5cd699fbb65d754bbc568f1f2f9.jpg",
    "icongray": "https://steamcdn-a.akamaihd.net/steamcommunity/public/images/apps/200710/c95623ee0b84c54894626eb056c06a4d442c389b.jpg"
  },
  {
    "name": "BOSS_GRIZZLEDALPHA",
    "defaultvalue": 0,
    "displayName": "The Fall of the Wild",
    "hidden": 1,
    "icon": "https://steamcdn-a.akamaihd.net/steamcommunity/public/images/apps/200710/35fdbf33900c98f7f5b76b51e9165d74c1e34ea0.jpg",
    "icongray": "https://steamcdn-a.akamaihd.net/steamcommunity/public/images/apps/200710/8d08d6b152ed98c487a8e244059c99d4b6aa09d2.jpg"
  },
  {
    "name": "BOSS_KIDRIK",
    "defaultvalue": 0,
    "displayName": "Emancipator",
    "hidden": 1,
    "icon": "https://steamcdn-a.akamaihd.net/steamcommunity/public/images/apps/200710/ef8e68b10ee239a85e0b578002fa396769cd5069.jpg",
    "icongray": "https://steamcdn-a.akamaihd.net/steamcommunity/public/images/apps/200710/9486a1de027a0f46837719d9bbe5b6bee439bc36.jpg"
  },
  {
    "name": "BOSS_KILLBOT",
    "defaultvalue": 0,
    "displayName": "Killbot… Killed",
    "hidden": 1,
    "icon": "https://steamcdn-a.akamaihd.net/steamcommunity/public/images/apps/200710/1138e66d1d84e8c3014b16883191e2fb9674ca22.jpg",
    "icongray": "https://steamcdn-a.akamaihd.net/steamcommunity/public/images/apps/200710/0b01686980997b6a94077bd6ff68bb698ab5ba7b.jpg"
  },
  {
    "name": "BOSS_MANTICORE",
    "defaultvalue": 0,
    "displayName": "Manticore",
    "hidden": 1,
    "icon": "https://steamcdn-a.akamaihd.net/steamcommunity/public/images/apps/200710/ffe2d4845f6ffce313cf9af114cf6e3c963f15e1.jpg",
    "icongray": "https://steamcdn-a.akamaihd.net/steamcommunity/public/images/apps/200710/c28f18c57ee712b27276922b78c29b292bda0edd.jpg"
  },
  {
    "name": "BOSS_MANTICOREMATE",
    "defaultvalue": 0,
    "displayName": "Who's Your Friend",
    "hidden": 1,
    "icon": "https://steamcdn-a.akamaihd.net/steamcommunity/public/images/apps/200710/48adee10ea638cb0743c3b28c580594c2fe44744.jpg",
    "icongray": "https://steamcdn-a.akamaihd.net/steamcommunity/public/images/apps/200710/5032f301cddedbb8f66d857d63c920d9314c4ee7.jpg"
  },
  {
    "name": "BOSS_MORDROX",
    "defaultvalue": 0,
    "displayName": "From The Pit",
    "hidden": 1,
    "icon": "https://steamcdn-a.akamaihd.net/steamcommunity/public/images/apps/200710/9c4af4e4ea1c68a109bee5989beeeecb5b1a0626.jpg",
    "icongray": "https://steamcdn-a.akamaihd.net/steamcommunity/public/images/apps/200710/445a4a8ad1674e02a6e2cd3aad8768c5a5fa119a.jpg"
  },
  {
    "name": "BOSS_NETHERKING",
    "defaultvalue": 0,
    "displayName": "The King is Dead",
    "hidden": 1,
    "icon": "https://steamcdn-a.akamaihd.net/steamcommunity/public/images/apps/200710/45eb5aa70fd783409db67f6c4ebe798d6dba741c.jpg",
    "icongray": "https://steamcdn-a.akamaihd.net/steamcommunity/public/images/apps/200710/3ba1beb80ac1f5ed294ca2dbd1b6be92033ae112.jpg"
  },
  {
    "name": "BOSS_ONEEYEDWILLY",
    "defaultvalue": 0,
    "displayName": "DEAD THINGS!",
    "hidden": 1,
    "icon": "https://steamcdn-a.akamaihd.net/steamcommunity/public/images/apps/200710/dda5859025d629cdf66a58c61630b74746af810a.jpg",
    "icongray": "https://steamcdn-a.akamaihd.net/steamcommunity/public/images/apps/200710/1e5d99205eb799b13454e8d09ae5507b0bfd0163.jpg"
  },
  {
    "name": "BOSS_POGG",
    "defaultvalue": 0,
    "displayName": "Pogg Slammed",
    "hidden": 1,
    "icon": "https://steamcdn-a.akamaihd.net/steamcommunity/public/images/apps/200710/3aa03c64e3ae4a916b715e3747eea347a38f4c56.jpg",
    "icongray": "https://steamcdn-a.akamaihd.net/steamcommunity/public/images/apps/200710/d72b348436e809a20977b5328d8c350e2de6cc1b.jpg"
  },
  {
    "name": "BOSS_SIEGEGUARDIAN",
    "defaultvalue": 0,
    "displayName": "Siege Breaker",
    "hidden": 1,
    "icon": "https://steamcdn-a.akamaihd.net/steamcommunity/public/images/apps/200710/9dda39162edfc7cc642b262bf77a4b8d9b314124.jpg",
    "icongray": "https://steamcdn-a.akamaihd.net/steamcommunity/public/images/apps/200710/70829dfe3d176587da5b540c71a1cf5be3d6e4ce.jpg"
  },
  {
    "name": "BOSS_WINTERWIDOW",
    "defaultvalue": 0,
    "displayName": "Arachnothanatology",
    "hidden": 1,
    "icon": "https://steamcdn-a.akamaihd.net/steamcommunity/public/images/apps/200710/5cd29d174f2dbfb79bce9b81da589c55a7d3e57e.jpg",
    "icongray": "https://steamcdn-a.akamaihd.net/steamcommunity/public/images/apps/200710/736500b0d0045f66cdfd986162cf184b29839d4d.jpg"
  },
  {
    "name": "BOSS_WRAITHLORD",
    "defaultvalue": 0,
    "displayName": "Pinned to the Mist",
    "hidden": 1,
    "icon": "https://steamcdn-a.akamaihd.net/steamcommunity/public/images/apps/200710/9060dbb38614ab630635e53cddccb1c778e7f7b0.jpg",
    "icongray": "https://steamcdn-a.akamaihd.net/steamcommunity/public/images/apps/200710/bc2664be9ee1d47684a52d820f0c3d833d68307b.jpg"
  },
  {
    "name": "BREAKOBJECTS_0",
    "defaultvalue": 0,
    "displayName": "Breaker",
    "hidden": 0,
    "description": "Break 100 breakables",
    "icon": "https://steamcdn-a.akamaihd.net/steamcommunity/public/images/apps/200710/fe29427fbecc49cf4de5c4c103990278ed0d2a95.jpg",
    "icongray": "https://steamcdn-a.akamaihd.net/steamcommunity/public/images/apps/200710/939d925fad8f4609d9c26adb148267896145b885.jpg"
  },
  {
    "name": "BREAKOBJECTS_1",
    "defaultvalue": 0,
    "displayName": "Destructor",
    "hidden": 0,
    "description": "Break 1,000 breakables",
    "icon": "https://steamcdn-a.akamaihd.net/steamcommunity/public/images/apps/200710/a0eccc1e97b66fd2d27af70a68c276edfac57431.jpg",
    "icongray": "https://steamcdn-a.akamaihd.net/steamcommunity/public/images/apps/200710/9a41208b9ee54d1ca18929d42d818117c8f26638.jpg"
  },
  {
    "name": "BREAKOBJECTS_2",
    "defaultvalue": 0,
    "displayName": "Bull In A China Shop",
    "hidden": 0,
    "description": "Break 10,000 breakables",
    "icon": "https://steamcdn-a.akamaihd.net/steamcommunity/public/images/apps/200710/b7c127cafa4ccf4c6a8fbe8eee6ee50e0e22e3f8.jpg",
    "icongray": "https://steamcdn-a.akamaihd.net/steamcommunity/public/images/apps/200710/96b370b9b33c30ee844f34ce9cd3619484f33d08.jpg"
  },
  {
    "name": "CRITCOUNT_0",
    "defaultvalue": 0,
    "displayName": "Thinking Critically",
    "hidden": 0,
    "description": "Deal 1,000 critical strikes",
    "icon": "https://steamcdn-a.akamaihd.net/steamcommunity/public/images/apps/200710/8c92c4284b05c1204b32e6b35971c186b5e00499.jpg",
    "icongray": "https://steamcdn-a.akamaihd.net/steamcommunity/public/images/apps/200710/63a5be46a739b09e9df990ddb00b6f31ae24c85b.jpg"
  },
  {
    "name": "CRITCOUNT_1",
    "defaultvalue": 0,
    "displayName": "Massive Crits",
    "hidden": 0,
    "description": "Deal 10,000 critical strikes",
    "icon": "https://steamcdn-a.akamaihd.net/steamcommunity/public/images/apps/200710/287ec572d8b477b0a56528e3ed1a99ce1c492cb9.jpg",
    "icongray": "https://steamcdn-a.akamaihd.net/steamcommunity/public/images/apps/200710/b2dec72779e6452097e9fa2de0932afccbc5ef4e.jpg"
  },
  {
    "name": "CRITCOUNT_2",
    "defaultvalue": 0,
    "displayName": "Hypercritical",
    "hidden": 0,
    "description": "Deal 100,000 critical strikes",
    "icon": "https://steamcdn-a.akamaihd.net/steamcommunity/public/images/apps/200710/1e3fbcf35c5963ca0d55f887058f62c5415ac7b0.jpg",
    "icongray": "https://steamcdn-a.akamaihd.net/steamcommunity/public/images/apps/200710/dc5488e2eb2ebb1e9383114f7167414a906057a4.jpg"
  },
  {
    "name": "DYNAMITEFISHING",
    "defaultvalue": 0,
    "displayName": "Having A Blast",
    "hidden": 0,
    "description": "Fish using dynamite",
    "icon": "https://steamcdn-a.akamaihd.net/steamcommunity/public/images/apps/200710/420209171ad1e03cc32bd9c17f48bbcd08aaf949.jpg",
    "icongray": "https://steamcdn-a.akamaihd.net/steamcommunity/public/images/apps/200710/79a9dde1ddb596e801d8d2289bf732d15be48349.jpg"
  },
  {
    "name": "ENCHANTING_0",
    "defaultvalue": 0,
    "displayName": "Enchanted",
    "hidden": 0,
    "description": "Use an enchanter 10 times",
    "icon": "https://steamcdn-a.akamaihd.net/steamcommunity/public/images/apps/200710/347be0538dc31196af1d2c44600d91daab87f671.jpg",
    "icongray": "https://steamcdn-a.akamaihd.net/steamcommunity/public/images/apps/200710/1477b4322419bb4f3533a50318873b4f2b7e6345.jpg"
  },
  {
    "name": "ENCHANTING_1",
    "defaultvalue": 0,
    "displayName": "Self Improvement",
    "hidden": 0,
    "description": "Use an enchanter 50 times",
    "icon": "https://steamcdn-a.akamaihd.net/steamcommunity/public/images/apps/200710/a0458fc6746fe019b4b18e5055f50448b2ac4585.jpg",
    "icongray": "https://steamcdn-a.akamaihd.net/steamcommunity/public/images/apps/200710/eb59081b673251faadcce028020cd9d4e708e453.jpg"
  },
  {
    "name": "ENCHANTING_2",
    "defaultvalue": 0,
    "displayName": "Performance Enhancer",
    "hidden": 0,
    "description": "Use an enchanter 500 times",
    "icon": "https://steamcdn-a.akamaihd.net/steamcommunity/public/images/apps/200710/68681421d1808764420fbefa12cb47fb40e84461.jpg",
    "icongray": "https://steamcdn-a.akamaihd.net/steamcommunity/public/images/apps/200710/d85a9e6389e32bdbad13b62df74c1d6c3cdc196a.jpg"
  },
  {
    "name": "EXPLODEENEMIES_0",
    "defaultvalue": 0,
    "displayName": "Gibster",
    "hidden": 0,
    "description": "Explode 100 enemies",
    "icon": "https://steamcdn-a.akamaihd.net/steamcommunity/public/images/apps/200710/cb95ab06b461edcd4349251e8a7b0630730257d1.jpg",
    "icongray": "https://steamcdn-a.akamaihd.net/steamcommunity/public/images/apps/200710/0b55b078daa5dbc2a8c07590f536f27acbbbc737.jpg"
  },
  {
    "name": "EXPLODEENEMIES_1",
    "defaultvalue": 0,
    "displayName": "Gib Aficionado",
    "hidden": 0,
    "description": "Explode 1,000 enemies",
    "icon": "https://steamcdn-a.akamaihd.net/steamcommunity/public/images/apps/200710/b55a90a324c07bbb6a05474d32a37b10d5529971.jpg",
    "icongray": "https://steamcdn-a.akamaihd.net/steamcommunity/public/images/apps/200710/ff3c0316296d1eab523a545383df795299fabf1b.jpg"
  },
  {
    "name": "EXPLODEENEMIES_2",
    "defaultvalue": 0,
    "displayName": "Gib Tycoon",
    "hidden": 0,
    "description": "Explode 10,000 enemies",
    "icon": "https://steamcdn-a.akamaihd.net/steamcommunity/public/images/apps/200710/4bbef7dacdea33a14185b360486affd5692f06c5.jpg",
    "icongray": "https://steamcdn-a.akamaihd.net/steamcommunity/public/images/apps/200710/296bcd87b0370c9558541ceba4690fb38bfda028.jpg"
  },
  {
    "name": "FISHING_0",
    "defaultvalue": 0,
    "displayName": "Apprentice Baiter",
    "hidden": 0,
    "description": "Fish 10 times",
    "icon": "https://steamcdn-a.akamaihd.net/steamcommunity/public/images/apps/200710/c843875223c56ab9022be015cdd9cc97dafeb89f.jpg",
    "icongray": "https://steamcdn-a.akamaihd.net/steamcommunity/public/images/apps/200710/291d7bcc359adaab4e7af1b26af75f3a7b54f4d7.jpg"
  },
  {
    "name": "FISHING_1",
    "defaultvalue": 0,
    "displayName": "Journeyman Fisher",
    "hidden": 0,
    "description": "Fish 100 times",
    "icon": "https://steamcdn-a.akamaihd.net/steamcommunity/public/images/apps/200710/32889294f7e1c64bbf06810bf636e0b599d49a69.jpg",
    "icongray": "https://steamcdn-a.akamaihd.net/steamcommunity/public/images/apps/200710/709b04675e333bc7630fa8fbbf9bbcef09803729.jpg"
  },
  {
    "name": "FISHING_2",
    "defaultvalue": 0,
    "displayName": "Master Angler",
    "hidden": 0,
    "description": "Fish 1,000 times",
    "icon": "https://steamcdn-a.akamaihd.net/steamcommunity/public/images/apps/200710/98a235f81b6c0412e93740064459038134a474a2.jpg",
    "icongray": "https://steamcdn-a.akamaihd.net/steamcommunity/public/images/apps/200710/dafc4de9616c5f026578bf301bb0863f2ff54d4b.jpg"
  },
  {
    "name": "FRIENDSLIST_0",
    "defaultvalue": 0,
    "displayName": "Friendly",
    "hidden": 0,
    "description": "Add a friend",
    "icon": "https://steamcdn-a.akamaihd.net/steamcommunity/public/images/apps/200710/ce78e64eac4a59fb94b551dfaf284a03df083898.jpg",
    "icongray": "https://steamcdn-a.akamaihd.net/steamcommunity/public/images/apps/200710/42b034555a922ba33ec4b1452f3892b165806d3e.jpg"
  },
  {
    "name": "FRIENDSLIST_1",
    "defaultvalue": 0,
    "displayName": "Socializer",
    "hidden": 0,
    "description": "Have 10 friends",
    "icon": "https://steamcdn-a.akamaihd.net/steamcommunity/public/images/apps/200710/f12e1873a969083e0ff939eb9f15bb4e47c2904d.jpg",
    "icongray": "https://steamcdn-a.akamaihd.net/steamcommunity/public/images/apps/200710/328bf581bcf0d21f9ef7cea7fda3627b0232d0d0.jpg"
  },
  {
    "name": "FRIENDSLIST_2",
    "defaultvalue": 0,
    "displayName": "Butterfly",
    "hidden": 0,
    "description": "Have 50 friends",
    "icon": "https://steamcdn-a.akamaihd.net/steamcommunity/public/images/apps/200710/90d9c4e7abc9ebcda7bb1fe5989c6c3044b3356b.jpg",
    "icongray": "https://steamcdn-a.akamaihd.net/steamcommunity/public/images/apps/200710/d6ac474e16e2e6744a41952782baf213cfdd637b.jpg"
  },
  {
    "name": "GAMBLING_0",
    "defaultvalue": 0,
    "displayName": "Gambling Enthusiast",
    "hidden": 0,
    "description": "Purchase 20 items from the gambler",
    "icon": "https://steamcdn-a.akamaihd.net/steamcommunity/public/images/apps/200710/93abe770c2dbd7af5823343b21839987992b1831.jpg",
    "icongray": "https://steamcdn-a.akamaihd.net/steamcommunity/public/images/apps/200710/dc3d6688e8165098d5584f18d7c2a109a4fc408d.jpg"
  },
  {
    "name": "GAMBLING_1",
    "defaultvalue": 0,
    "displayName": "Gambling Professional",
    "hidden": 0,
    "description": "Purchase 50 items from the gambler",
    "icon": "https://steamcdn-a.akamaihd.net/steamcommunity/public/images/apps/200710/b061eb33d6e4b8e2224600d311ddd5c722a03e87.jpg",
    "icongray": "https://steamcdn-a.akamaihd.net/steamcommunity/public/images/apps/200710/4649a7d2d16aa2c96ebcc26fb837d76ca8ed9cb2.jpg"
  },
  {
    "name": "GAMBLING_2",
    "defaultvalue": 0,
    "displayName": "Gambling Fiend",
    "hidden": 0,
    "description": "Purchase 100 items from the gambler",
    "icon": "https://steamcdn-a.akamaihd.net/steamcommunity/public/images/apps/200710/3b3e6da24f18d117798a0e9f7532497bf90d9fed.jpg",
    "icongray": "https://steamcdn-a.akamaihd.net/steamcommunity/public/images/apps/200710/3ae51f3468d43a6700c618bb078f6eca07fa01d4.jpg"
  },
  {
    "name": "HARDCOREDEATH_0",
    "defaultvalue": 0,
    "displayName": "Goodbye Cruel World",
    "hidden": 0,
    "description": "Die with a hardcore character",
    "icon": "https://steamcdn-a.akamaihd.net/steamcommunity/public/images/apps/200710/5cfac5e5c8ea1d03ca07d59da2f1d212a658c5b8.jpg",
    "icongray": "https://steamcdn-a.akamaihd.net/steamcommunity/public/images/apps/200710/9b3109a3cfebfec498febcb8e4bc0b7c8f43b403.jpg"
  },
  {
    "name": "HARDCOREPLAYER_CREATE",
    "defaultvalue": 0,
    "displayName": "Hardcore",
    "hidden": 0,
    "description": "Start a hardcore character",
    "icon": "https://steamcdn-a.akamaihd.net/steamcommunity/public/images/apps/200710/b33a9f1022cf2cd0a1898b5efed78ed1d4425c3a.jpg",
    "icongray": "https://steamcdn-a.akamaihd.net/steamcommunity/public/images/apps/200710/8b0ac66b9ba1b293248cc658c45ef8f48b84afbe.jpg"
  },
  {
    "name": "INVENTORYGOLD_0",
    "defaultvalue": 0,
    "displayName": "For A Rainy Day",
    "hidden": 0,
    "description": "Have 100,000 gold",
    "icon": "https://steamcdn-a.akamaihd.net/steamcommunity/public/images/apps/200710/31bdf94506e16aa9ba763661011376a0756c5e13.jpg",
    "icongray": "https://steamcdn-a.akamaihd.net/steamcommunity/public/images/apps/200710/2106813553ea33b9cf8d9dd8622af8c2f2e1ed63.jpg"
  },
  {
    "name": "INVENTORYGOLD_1",
    "defaultvalue": 0,
    "displayName": "Nest Egg",
    "hidden": 0,
    "description": "Have 1,000,000 gold",
    "icon": "https://steamcdn-a.akamaihd.net/steamcommunity/public/images/apps/200710/caea35c15c241ed167da172afc8ac3c961b827cf.jpg",
    "icongray": "https://steamcdn-a.akamaihd.net/steamcommunity/public/images/apps/200710/0054f966948950332152ab7b7e69f8ba216ebaa1.jpg"
  },
  {
    "name": "INVENTORYGOLD_2",
    "defaultvalue": 0,
    "displayName": "The One Percent",
    "hidden": 0,
    "description": "Have 10,000,000 gold",
    "icon": "https://steamcdn-a.akamaihd.net/steamcommunity/public/images/apps/200710/7e54ea5a717f711ab48a468383731705ef5e8f40.jpg",
    "icongray": "https://steamcdn-a.akamaihd.net/steamcommunity/public/images/apps/200710/7c63bef246ab8a097b176059b55bef98e6c13cc7.jpg"
  },
  {
    "name": "KILLCHAMPS_0",
    "defaultvalue": 0,
    "displayName": "Champ Battler",
    "hidden": 0,
    "description": "Defeat 25 champions",
    "icon": "https://steamcdn-a.akamaihd.net/steamcommunity/public/images/apps/200710/7c81104d716b82ba856954df367aa5a2bf3a2d42.jpg",
    "icongray": "https://steamcdn-a.akamaihd.net/steamcommunity/public/images/apps/200710/d76f028b69f17fa47d1b6b6d42ad7a79ee39cd08.jpg"
  },
  {
    "name": "KILLCHAMPS_1",
    "defaultvalue": 0,
    "displayName": "Champ Master",
    "hidden": 0,
    "description": "Defeat 100 champions",
    "icon": "https://steamcdn-a.akamaihd.net/steamcommunity/public/images/apps/200710/0b5f499bd26d86703a17a9ebfea4952551b4742b.jpg",
    "icongray": "https://steamcdn-a.akamaihd.net/steamcommunity/public/images/apps/200710/8029712cb2a95263b2542e7b8ea13497c9ed53ba.jpg"
  },
  {
    "name": "KILLCHAMPS_2",
    "defaultvalue": 0,
    "displayName": "Champ Overlord",
    "hidden": 0,
    "description": "Defeat 500 champions",
    "icon": "https://steamcdn-a.akamaihd.net/steamcommunity/public/images/apps/200710/9bcade9ef12729d083674e79f8b4103d0d3c0267.jpg",
    "icongray": "https://steamcdn-a.akamaihd.net/steamcommunity/public/images/apps/200710/54da21190a6bb6bf8106b02d5232ffee175e7fff.jpg"
  },
  {
    "name": "MAXDAMAGE",
    "defaultvalue": 0,
    "displayName": "Overpower",
    "hidden": 1,
    "icon": "https://steamcdn-a.akamaihd.net/steamcommunity/public/images/apps/200710/9e45841a714932b97f6e7e9691b7c015db43840c.jpg",
    "icongray": "https://steamcdn-a.akamaihd.net/steamcommunity/public/images/apps/200710/eddce1b2de66f53544b1c75398d69e85bd6b18d9.jpg"
  },
  {
    "name": "MULTIPLAYER_CREATE",
    "defaultvalue": 0,
    "displayName": "Get This Party Started",
    "hidden": 0,
    "description": "Start a multiplayer game",
    "icon": "https://steamcdn-a.akamaihd.net/steamcommunity/public/images/apps/200710/b8abf1e183d89a6381afed5cad9ed193d3d95a84.jpg",
    "icongray": "https://steamcdn-a.akamaihd.net/steamcommunity/public/images/apps/200710/0bddf6f5437e85c6b324f6ba54cc137681ea1b6b.jpg"
  },
  {
    "name": "MULTIPLAYER_JOIN",
    "defaultvalue": 0,
    "displayName": "In Your World",
    "hidden": 0,
    "description": "Join a multiplayer game",
    "icon": "https://steamcdn-a.akamaihd.net/steamcommunity/public/images/apps/200710/c0681b2289765d47ca1016961ba03374b853a30f.jpg",
    "icongray": "https://steamcdn-a.akamaihd.net/steamcommunity/public/images/apps/200710/08a8cce55057ac1921f1e87fd5c1a19633ac4315.jpg"
  },
  {
    "name": "NEWGAMEPLUS",
    "defaultvalue": 0,
    "displayName": "From The Top",
    "hidden": 0,
    "description": "Begin new game plus",
    "icon": "https://steamcdn-a.akamaihd.net/steamcommunity/public/images/apps/200710/e923b35441ea7bf7250dd2ee24606a2d8dcae9cf.jpg",
    "icongray": "https://steamcdn-a.akamaihd.net/steamcommunity/public/images/apps/200710/100967aaefc018693a29754b34eceee3f3b7ffaf.jpg"
  },
  {
    "name": "OPENCHESTS_0",
    "defaultvalue": 0,
    "displayName": "Treasure Hunter",
    "hidden": 0,
    "description": "Open 20 chests",
    "icon": "https://steamcdn-a.akamaihd.net/steamcommunity/public/images/apps/200710/e276926b7cc5110639e64ef5a2dcec01e87dab9d.jpg",
    "icongray": "https://steamcdn-a.akamaihd.net/steamcommunity/public/images/apps/200710/735ca25987eb18ac3012a58eb8c646d90b7da9dd.jpg"
  },
  {
    "name": "OPENCHESTS_1",
    "defaultvalue": 0,
    "displayName": "Plunderer",
    "hidden": 0,
    "description": "Open 100 chests",
    "icon": "https://steamcdn-a.akamaihd.net/steamcommunity/public/images/apps/200710/3033c7164b7cfd70442ade85414c55458413ffbc.jpg",
    "icongray": "https://steamcdn-a.akamaihd.net/steamcommunity/public/images/apps/200710/1bd69ea5c10863cbad87afe2a0df59b120aaebad.jpg"
  },
  {
    "name": "OPENCHESTS_2",
    "defaultvalue": 0,
    "displayName": "Chest Nut",
    "hidden": 0,
    "description": "Open 500 chests",
    "icon": "https://steamcdn-a.akamaihd.net/steamcommunity/public/images/apps/200710/f36ece52cd76858be4a96399044eed876a40deef.jpg",
    "icongray": "https://steamcdn-a.akamaihd.net/steamcommunity/public/images/apps/200710/3d1743442bc2085a26add0c00147105de3e3198c.jpg"
  },
  {
    "name": "PLAYERSTEPS_0",
    "defaultvalue": 0,
    "displayName": "Stepping Out",
    "hidden": 0,
    "description": "Take 10,000 steps",
    "icon": "https://steamcdn-a.akamaihd.net/steamcommunity/public/images/apps/200710/b23ce7c9961efe5549676b7147ad56c2088ac0a4.jpg",
    "icongray": "https://steamcdn-a.akamaihd.net/steamcommunity/public/images/apps/200710/6eb75e9c332dd2008d307199ef73ccda94306670.jpg"
  },
  {
    "name": "PLAYERSTEPS_1",
    "defaultvalue": 0,
    "displayName": "Wanderer",
    "hidden": 0,
    "description": "Take 50,000 steps",
    "icon": "https://steamcdn-a.akamaihd.net/steamcommunity/public/images/apps/200710/8903a28b6fe765c9db7bfc44c42ddb0064f140f0.jpg",
    "icongray": "https://steamcdn-a.akamaihd.net/steamcommunity/public/images/apps/200710/346c9d4862559766fe486aeba05bce5201244fa7.jpg"
  },
  {
    "name": "PLAYERSTEPS_2",
    "defaultvalue": 0,
    "displayName": "Globe-trotter",
    "hidden": 0,
    "description": "Take 100,000 steps",
    "icon": "https://steamcdn-a.akamaihd.net/steamcommunity/public/images/apps/200710/6e5a981d21fc8ebbdf6fa66d9dbceac8a4b97638.jpg",
    "icongray": "https://steamcdn-a.akamaihd.net/steamcommunity/public/images/apps/200710/ae307d491b3862282a50e53a7d2ec1beade16a68.jpg"
  },
  {
    "name": "RECOVERGEM_0",
    "defaultvalue": 0,
    "displayName": "Gem Recovery",
    "hidden": 0,
    "description": "Recover a gem from an item",
    "icon": "https://steamcdn-a.akamaihd.net/steamcommunity/public/images/apps/200710/a83be031209d8b12333f50f15a32a6fcbaf66d5e.jpg",
    "icongray": "https://steamcdn-a.akamaihd.net/steamcommunity/public/images/apps/200710/ff20678c60dbfc7ca5a73e0b9cca6dad74e48057.jpg"
  },
  {
    "name": "RECOVERGEM_1",
    "defaultvalue": 0,
    "displayName": "Gem Preservation",
    "hidden": 0,
    "description": "Recover 10 gems from items",
    "icon": "https://steamcdn-a.akamaihd.net/steamcommunity/public/images/apps/200710/f363435639ea9cda979a4b288813f59484dde7f8.jpg",
    "icongray": "https://steamcdn-a.akamaihd.net/steamcommunity/public/images/apps/200710/8433c7415191a713a6647899d843be5b77b8525b.jpg"
  },
  {
    "name": "RECOVERGEM_2",
    "defaultvalue": 0,
    "displayName": "Gem Hoarding",
    "hidden": 0,
    "description": "Recover 100 gems from items",
    "icon": "https://steamcdn-a.akamaihd.net/steamcommunity/public/images/apps/200710/12eaee0ca49876533a471276bd12eb907ec3fb32.jpg",
    "icongray": "https://steamcdn-a.akamaihd.net/steamcommunity/public/images/apps/200710/63ba6cd46ff0c7fa3bbdff8481d5bbe11ed77abf.jpg"
  },
  {
    "name": "RECOVERITEM_0",
    "defaultvalue": 0,
    "displayName": "Stone Smasher",
    "hidden": 0,
    "description": "Destroy a socketed gem",
    "icon": "https://steamcdn-a.akamaihd.net/steamcommunity/public/images/apps/200710/78cd5034a3d4653e19d59a10dc02f02b26c7b91c.jpg",
    "icongray": "https://steamcdn-a.akamaihd.net/steamcommunity/public/images/apps/200710/cffedbbcf3788d08c83ff276754be6a6adedc583.jpg"
  },
  {
    "name": "RECOVERITEM_1",
    "defaultvalue": 0,
    "displayName": "Rock Crusher",
    "hidden": 0,
    "description": "Destroy 10 socketed gems",
    "icon": "https://steamcdn-a.akamaihd.net/steamcommunity/public/images/apps/200710/37fbea0a64d25cc5ad1f75cdf3edfc1f382ef465.jpg",
    "icongray": "https://steamcdn-a.akamaihd.net/steamcommunity/public/images/apps/200710/400d96c263fe7f4b09bcc68bf24868eda9f147dc.jpg"
  },
  {
    "name": "RECOVERITEM_2",
    "defaultvalue": 0,
    "displayName": "Ice Breaker",
    "hidden": 0,
    "description": "Destroy 100 socketed gems",
    "icon": "https://steamcdn-a.akamaihd.net/steamcommunity/public/images/apps/200710/2f2891e3b8d4b37db6e36e45d01e1de00a492d6d.jpg",
    "icongray": "https://steamcdn-a.akamaihd.net/steamcommunity/public/images/apps/200710/f2e26bfcef8dcf8fceb84565c9471e35aeab717d.jpg"
  },
  {
    "name": "SECRETROOMS_0",
    "defaultvalue": 0,
    "displayName": "I Know a Secret",
    "hidden": 0,
    "description": "Find a secret room",
    "icon": "https://steamcdn-a.akamaihd.net/steamcommunity/public/images/apps/200710/83f0b4b4e12073c90516ec8c92c9f69cf221795d.jpg",
    "icongray": "https://steamcdn-a.akamaihd.net/steamcommunity/public/images/apps/200710/f8b1441f6eabcaa8bfe1905fbcf0cfb586df2c27.jpg"
  },
  {
    "name": "SECRETROOMS_1",
    "defaultvalue": 0,
    "displayName": "In Service of Secrets",
    "hidden": 0,
    "description": "Find 10 secret rooms",
    "icon": "https://steamcdn-a.akamaihd.net/steamcommunity/public/images/apps/200710/a48441f6eace097f4835c6eedb25315ea2c3b329.jpg",
    "icongray": "https://steamcdn-a.akamaihd.net/steamcommunity/public/images/apps/200710/3d995634c7b8f41c86e6eae22d73d186c4112e28.jpg"
  },
  {
    "name": "SECRETROOMS_2",
    "defaultvalue": 0,
    "displayName": "No More Secrets",
    "hidden": 0,
    "description": "Find 100 secret rooms",
    "icon": "https://steamcdn-a.akamaihd.net/steamcommunity/public/images/apps/200710/fa8702c718f904b4bd1d58a35ca1aed1286c1d48.jpg",
    "icongray": "https://steamcdn-a.akamaihd.net/steamcommunity/public/images/apps/200710/dd67dc9844f50435948307299580a829d9627ab4.jpg"
  },
  {
    "name": "SELLITEMS_0",
    "defaultvalue": 0,
    "displayName": "Peddler",
    "hidden": 0,
    "description": "Sell 500 items",
    "icon": "https://steamcdn-a.akamaihd.net/steamcommunity/public/images/apps/200710/edf3540bfd673f6c0a78c666ad854cb7f3e76263.jpg",
    "icongray": "https://steamcdn-a.akamaihd.net/steamcommunity/public/images/apps/200710/9e0651692a35627f7cbe8fa05909af06b83e6193.jpg"
  },
  {
    "name": "SELLITEMS_1",
    "defaultvalue": 0,
    "displayName": "Vendor",
    "hidden": 0,
    "description": "Sell 5,000 items",
    "icon": "https://steamcdn-a.akamaihd.net/steamcommunity/public/images/apps/200710/3cf4f96c41a50efe282e9cdd803c1aae34cf21ce.jpg",
    "icongray": "https://steamcdn-a.akamaihd.net/steamcommunity/public/images/apps/200710/0c3d86b1aba180a37783f1149e17a5a434f065ef.jpg"
  },
  {
    "name": "SELLITEMS_2",
    "defaultvalue": 0,
    "displayName": "Trash Magnate",
    "hidden": 0,
    "description": "Sell 50,000 items",
    "icon": "https://steamcdn-a.akamaihd.net/steamcommunity/public/images/apps/200710/9d40f2c84bb40ac36ab13b97d7a2ce851d571442.jpg",
    "icongray": "https://steamcdn-a.akamaihd.net/steamcommunity/public/images/apps/200710/a01b8f8e675a238f7a41b9bca7e55b1730535841.jpg"
  },
  {
    "name": "SENDPETTOTOWN",
    "defaultvalue": 0,
    "displayName": "Fetch A Fair Price",
    "hidden": 0,
    "description": "Send your pet to town",
    "icon": "https://steamcdn-a.akamaihd.net/steamcommunity/public/images/apps/200710/c2d3738f0e458db4d98e83a68a322d264d8b42a1.jpg",
    "icongray": "https://steamcdn-a.akamaihd.net/steamcommunity/public/images/apps/200710/dc4bfa87321a4a6cf6105bf186755180f8655ee2.jpg"
  },
  {
    "name": "SKILLTIERS_0",
    "defaultvalue": 0,
    "displayName": "Skill Enthusiast",
    "hidden": 0,
    "description": "Obtain a tier 1 skill bonus",
    "icon": "https://steamcdn-a.akamaihd.net/steamcommunity/public/images/apps/200710/134787e8d936ba852d282e52835d19e1fdb37266.jpg",
    "icongray": "https://steamcdn-a.akamaihd.net/steamcommunity/public/images/apps/200710/195113e7a6e6c3973fccbffc75089b4b1b2cc38b.jpg"
  },
  {
    "name": "SKILLTIERS_1",
    "defaultvalue": 0,
    "displayName": "Skill Devotee",
    "hidden": 0,
    "description": "Obtain a tier 2 skill bonus",
    "icon": "https://steamcdn-a.akamaihd.net/steamcommunity/public/images/apps/200710/123161e70c7833c51317ff83ff5414c0e3180943.jpg",
    "icongray": "https://steamcdn-a.akamaihd.net/steamcommunity/public/images/apps/200710/2bbf572c8dac1d2697a4ce20e08e80f4bb5d56df.jpg"
  },
  {
    "name": "SKILLTIERS_2",
    "defaultvalue": 0,
    "displayName": "Skill Master",
    "hidden": 0,
    "description": "Obtain a tier 3 skill bonus",
    "icon": "https://steamcdn-a.akamaihd.net/steamcommunity/public/images/apps/200710/22682bdacada270de0bdd56d5992f6b522056a0d.jpg",
    "icongray": "https://steamcdn-a.akamaihd.net/steamcommunity/public/images/apps/200710/e92362711da8a7d953287eec5f723b5404f7b501.jpg"
  },
  {
    "name": "SOCKETING_0",
    "defaultvalue": 0,
    "displayName": "Socketeer",
    "hidden": 0,
    "description": "Socket a gem into an item",
    "icon": "https://steamcdn-a.akamaihd.net/steamcommunity/public/images/apps/200710/c3031dfc31755f7cf340ddcad09da86329b7ac40.jpg",
    "icongray": "https://steamcdn-a.akamaihd.net/steamcommunity/public/images/apps/200710/e59a96d72b29ad6e6ba4e2b59b83ddd831e300fe.jpg"
  },
  {
    "name": "SOCKETING_1",
    "defaultvalue": 0,
    "displayName": "Twinkle Twinkle Bobba",
    "hidden": 0,
    "description": "Socket 50 gems into items",
    "icon": "https://steamcdn-a.akamaihd.net/steamcommunity/public/images/apps/200710/8f28c122f0e08db562e28d44b62a00468299969e.jpg",
    "icongray": "https://steamcdn-a.akamaihd.net/steamcommunity/public/images/apps/200710/0ded0c24bbdfefdeea377f4a747777179f8bd053.jpg"
  },
  {
    "name": "SOCKETING_2",
    "defaultvalue": 0,
    "displayName": "The Blingbearer",
    "hidden": 0,
    "description": "Socket 500 gems into items",
    "icon": "https://steamcdn-a.akamaihd.net/steamcommunity/public/images/apps/200710/b2c5325409e87723b26b6e2aa74e3b7e7374aaf2.jpg",
    "icongray": "https://steamcdn-a.akamaihd.net/steamcommunity/public/images/apps/200710/71ec82b7a24b2c89daf5b3375bb203d8422d42d9.jpg"
  },
  {
    "name": "SPELLS_PET_0",
    "defaultvalue": 0,
    "displayName": "A New Trick",
    "hidden": 0,
    "description": "Teach a pet a spell",
    "icon": "https://steamcdn-a.akamaihd.net/steamcommunity/public/images/apps/200710/a1c029c154cffbfef348cdd4c276f2749124dd63.jpg",
    "icongray": "https://steamcdn-a.akamaihd.net/steamcommunity/public/images/apps/200710/88fd2c8398a2de5e1ae659f5243d45bbd8e8723e.jpg"
  },
  {
    "name": "SPELLS_PET_1",
    "defaultvalue": 0,
    "displayName": "Pet Savant",
    "hidden": 0,
    "description": "Teach a pet 4 spells",
    "icon": "https://steamcdn-a.akamaihd.net/steamcommunity/public/images/apps/200710/8e3800a9819a103b06db39f3ed34a0f77a27725d.jpg",
    "icongray": "https://steamcdn-a.akamaihd.net/steamcommunity/public/images/apps/200710/4ee4fa5439433a3797c52cf320698c4af8b10ef8.jpg"
  },
  {
    "name": "SPELLS_PLAYER_0",
    "defaultvalue": 0,
    "displayName": "Spellcaster",
    "hidden": 0,
    "description": "Learn a spell",
    "icon": "https://steamcdn-a.akamaihd.net/steamcommunity/public/images/apps/200710/ad7a21f512d5b116004ed9d46125bdf5a92be4d1.jpg",
    "icongray": "https://steamcdn-a.akamaihd.net/steamcommunity/public/images/apps/200710/e58adda1fe4a9b70caa5010ddcc9cd49e6236375.jpg"
  },
  {
    "name": "SPELLS_PLAYER_1",
    "defaultvalue": 0,
    "displayName": "Continuing Education",
    "hidden": 0,
    "description": "Learn 4 spells",
    "icon": "https://steamcdn-a.akamaihd.net/steamcommunity/public/images/apps/200710/26838d32901b3a6ebe06201408c7f42b58336b9b.jpg",
    "icongray": "https://steamcdn-a.akamaihd.net/steamcommunity/public/images/apps/200710/8ffeb16ebe1185c97705779ebbf1ebb70ba30794.jpg"
  },
  {
    "name": "TRADEITEM",
    "defaultvalue": 0,
    "displayName": "Trader",
    "hidden": 0,
    "description": "Trade an item with another player",
    "icon": "https://steamcdn-a.akamaihd.net/steamcommunity/public/images/apps/200710/6f8f3d8697327b4cd838bf654c87ce417bcc5190.jpg",
    "icongray": "https://steamcdn-a.akamaihd.net/steamcommunity/public/images/apps/200710/5d5d2b49cfcb8e94094d02af8d5c95bdf44a5ca9.jpg"
  },
  {
    "name": "USEMAPS_0",
    "defaultvalue": 0,
    "displayName": "X Marks The Spot",
    "hidden": 0,
    "description": "Use a map",
    "icon": "https://steamcdn-a.akamaihd.net/steamcommunity/public/images/apps/200710/5410e83d1d8a67f32593d8a0116bd369b4feed61.jpg",
    "icongray": "https://steamcdn-a.akamaihd.net/steamcommunity/public/images/apps/200710/766107ff543575bf160773fe1a6aa95f35b965e2.jpg"
  },
  {
    "name": "USEMAPS_1",
    "defaultvalue": 0,
    "displayName": "Map Enthusiast",
    "hidden": 0,
    "description": "Use 10 maps",
    "icon": "https://steamcdn-a.akamaihd.net/steamcommunity/public/images/apps/200710/b3ffc35ab67c979d61e2bfd78d804ccba7871c08.jpg",
    "icongray": "https://steamcdn-a.akamaihd.net/steamcommunity/public/images/apps/200710/35a56e781a98b167d439e8472148504542ee3353.jpg"
  },
  {
    "name": "USEMAPS_2",
    "defaultvalue": 0,
    "displayName": "Cartophile",
    "hidden": 0,
    "description": "Use 100 maps",
    "icon": "https://steamcdn-a.akamaihd.net/steamcommunity/public/images/apps/200710/a6c25a02b4509ca9df693536f809ff703c4b1c51.jpg",
    "icongray": "https://steamcdn-a.akamaihd.net/steamcommunity/public/images/apps/200710/7a36d4599cd0534f6ca19d8b66ca40435a2aea40.jpg"
  },
  {
    "name": "USEPOTIONS_0",
    "defaultvalue": 0,
    "displayName": "Quaffer",
    "hidden": 0,
    "description": "Use 50 potions",
    "icon": "https://steamcdn-a.akamaihd.net/steamcommunity/public/images/apps/200710/3e0c1aaae12e156fb361fa0c2cedc5dc2f48382d.jpg",
    "icongray": "https://steamcdn-a.akamaihd.net/steamcommunity/public/images/apps/200710/b93c5d682777ae063a0c3e438a0adde43efaf67d.jpg"
  },
  {
    "name": "USEPOTIONS_1",
    "defaultvalue": 0,
    "displayName": "Tippler",
    "hidden": 0,
    "description": "Use 500 potions",
    "icon": "https://steamcdn-a.akamaihd.net/steamcommunity/public/images/apps/200710/be2d745d016f7f4c4d6a0cd04eedb3ca0b59d798.jpg",
    "icongray": "https://steamcdn-a.akamaihd.net/steamcommunity/public/images/apps/200710/f84ed1608ad1b2e0d72b4dacaf65dc4b550299a6.jpg"
  },
  {
    "name": "USEPOTIONS_2",
    "defaultvalue": 0,
    "displayName": "Guzzler",
    "hidden": 0,
    "description": "Use 5,000 potions",
    "icon": "https://steamcdn-a.akamaihd.net/steamcommunity/public/images/apps/200710/60af3654b989c36d5abf1360eba7425be7ec6348.jpg",
    "icongray": "https://steamcdn-a.akamaihd.net/steamcommunity/public/images/apps/200710/96b20cd3932e4f03bcaabbc9fcf1acc3582db965.jpg"
  },
  {
    "name": "TRILLBOTASSEMBLED",
    "defaultvalue": 0,
    "displayName": "The Band Played On",
    "hidden": 1,
    "icon": "https://steamcdn-a.akamaihd.net/steamcommunity/public/images/apps/200710/cd47b86309f59442bf11d5ab991b21f10fbd7c9c.jpg",
    "icongray": "https://steamcdn-a.akamaihd.net/steamcommunity/public/images/apps/200710/13e3437ba489a12b90c2f2b271f7d110c2fb549c.jpg"
  },
  {
    "name": "BOSS_DRAGON_SPIRIT",
    "defaultvalue": 0,
    "displayName": "Ghost Buster",
    "hidden": 1,
    "icon": "https://steamcdn-a.akamaihd.net/steamcommunity/public/images/apps/200710/3905054e2f4d1456d8ca1fd78eb04353ade848a2.jpg",
    "icongray": "https://steamcdn-a.akamaihd.net/steamcommunity/public/images/apps/200710/8a4885bffc3bfc0f5ca8112426e6f0d22eaf98de.jpg"
  },
  {
    "name": "BOSS_KINGINMASKS",
    "defaultvalue": 0,
    "displayName": "Unmasked",
    "hidden": 1,
    "icon": "https://steamcdn-a.akamaihd.net/steamcommunity/public/images/apps/200710/2046a841a3d23a9643157f3242452dc4b3dc73d4.jpg",
    "icongray": "https://steamcdn-a.akamaihd.net/steamcommunity/public/images/apps/200710/6f8230b4d4989aa95b7fd5ae17008f92a8039a54.jpg"
  },
  {
    "name": "BOSS_THREESISTERS_ALEERA",
    "defaultvalue": 0,
    "displayName": "De-Aleera-ious",
    "hidden": 1,
    "icon": "https://steamcdn-a.akamaihd.net/steamcommunity/public/images/apps/200710/c862200b5a6acee7d21fe97d3cef267bd608f224.jpg",
    "icongray": "https://steamcdn-a.akamaihd.net/steamcommunity/public/images/apps/200710/4cfa1786ee752fd4e188d77dd316df0abff52ea4.jpg"
  },
  {
    "name": "BOSS_BOLETUSREX",
    "defaultvalue": 0,
    "displayName": "Mushroom Picking",
    "hidden": 1,
    "icon": "https://steamcdn-a.akamaihd.net/steamcommunity/public/images/apps/200710/1b0c665d758d7e887524d2bddf4497aff27d3b03.jpg",
    "icongray": "https://steamcdn-a.akamaihd.net/steamcommunity/public/images/apps/200710/281d86d6e69edddac3df188e3a5ae925aaa706a7.jpg"
  },
  {
    "name": "FULLARMORSET",
    "defaultvalue": 0,
    "displayName": "Well Dressed",
    "hidden": 0,
    "description": "Wear a completed armor set",
    "icon": "https://steamcdn-a.akamaihd.net/steamcommunity/public/images/apps/200710/5c5ef95ed1b0dc6e9fd6c34dac65f6ad70f203b7.jpg",
    "icongray": "https://steamcdn-a.akamaihd.net/steamcommunity/public/images/apps/200710/6bd32669d149bfa28d535d7110b206ea3ab2ea1d.jpg"
  },
  {
    "name": "SQUISH_0",
    "defaultvalue": 0,
    "displayName": "Gooey Soles",
    "hidden": 0,
    "description": "Squish 100 critters",
    "icon": "https://steamcdn-a.akamaihd.net/steamcommunity/public/images/apps/200710/75360aa6b517a62de03dcd026ff65ed3937e7ff8.jpg",
    "icongray": "https://steamcdn-a.akamaihd.net/steamcommunity/public/images/apps/200710/543271e25323ec047e3988ae9e328cf7dba1f14d.jpg"
  },
  {
    "name": "SQUISH_1",
    "defaultvalue": 0,
    "displayName": "Squish Gallop",
    "hidden": 0,
    "description": "Squish 500 critters",
    "icon": "https://steamcdn-a.akamaihd.net/steamcommunity/public/images/apps/200710/013b9074e400e91220d53cc271bf6c7b6a38befd.jpg",
    "icongray": "https://steamcdn-a.akamaihd.net/steamcommunity/public/images/apps/200710/3e40107fbcabaea4f1c15917ac1e0bfd99c81260.jpg"
  },
  {
    "name": "SQUISH_2",
    "defaultvalue": 0,
    "displayName": "Critter Crusher",
    "hidden": 0,
    "description": "Squish 1000 critters",
    "icon": "https://steamcdn-a.akamaihd.net/steamcommunity/public/images/apps/200710/37258d12c667d6c8d540c7a83d490dfb12797dd6.jpg",
    "icongray": "https://steamcdn-a.akamaihd.net/steamcommunity/public/images/apps/200710/db86208b750bd238e33a1e9fc9465162485fce67.jpg"
  },
  {
    "name": "BOSS_THREESISTERS_MARISHKA",
    "defaultvalue": 0,
    "displayName": "Marishkabob",
    "hidden": 1,
    "icon": "https://steamcdn-a.akamaihd.net/steamcommunity/public/images/apps/200710/df363ed461cb88c326afa5d73a5485af95dbc4e2.jpg",
    "icongray": "https://steamcdn-a.akamaihd.net/steamcommunity/public/images/apps/200710/b6073f12c5d6e1a4708190676860bae942631a8d.jpg"
  },
  {
    "name": "BOSS_THREESISTERS_VERONA",
    "defaultvalue": 0,
    "displayName": "Fair Verona",
    "hidden": 1,
    "icon": "https://steamcdn-a.akamaihd.net/steamcommunity/public/images/apps/200710/b86714c1ff9871d18b4262ea24a505456bccd82e.jpg",
    "icongray": "https://steamcdn-a.akamaihd.net/steamcommunity/public/images/apps/200710/8eb79f54a9a64ea4783bb9e0bb728cba53cab146.jpg"
  },
  {
    "name": "FINDLEGENDARYITEM",
    "defaultvalue": 0,
    "displayName": "Spectacular Find",
    "hidden": 0,
    "description": "Find a legendary item",
    "icon": "https://steamcdn-a.akamaihd.net/steamcommunity/public/images/apps/200710/cdc18aec8bfe8c37a32c841e3ad3b869bf2040a4.jpg",
    "icongray": "https://steamcdn-a.akamaihd.net/steamcommunity/public/images/apps/200710/64421d16ca273fa6341fda966e9e1c9ef567344a.jpg"
  },
  {
    "name": "LEVELCAP",
    "defaultvalue": 0,
    "displayName": "Century Mark",
    "hidden": 0,
    "description": "Reach level 100",
    "icon": "https://steamcdn-a.akamaihd.net/steamcommunity/public/images/apps/200710/08b3a2a60ee296dfb3a6e0d618c5ed3de47556b4.jpg",
    "icongray": "https://steamcdn-a.akamaihd.net/steamcommunity/public/images/apps/200710/53b1ee041ec74789448472ac41b2cd3583b341e8.jpg"
  }
]