{
  "Dlcs": {},
  "Name": "The World Of Xian",
  "AppId": "1251400",
  "ImageUrl": "https://steamcdn-a.akamaihd.net/steam/apps/1251400/header.jpg?t=1594792239",
  "Languages": [
    "schinese"
  ],
  "Platforms": {
    "windows": true,
    "mac": false,
    "linux": false
  }
}