{
  "Dlcs": {
    "875290": {
      "Name": "Roof Rage - Soundtrack",
      "ImageUrl": "https://steamcdn-a.akamaihd.net/steam/apps/875290/header.jpg?t=1528499315"
    }
  },
  "Name": "Roof Rage",
  "AppId": "724300",
  "ImageUrl": "https://steamcdn-a.akamaihd.net/steam/apps/724300/header_alt_assets_4.jpg?t=1571246388",
  "Languages": [
    "english",
    "french",
    "spanish",
    "japanese",
    "korean",
    "schinese",
    "italian",
    "german",
    "tchinese",
    "russian",
    "portuguese"
  ],
  "Platforms": {
    "windows": true,
    "mac": false,
    "linux": false
  }
}