{
  "Dlcs": {
    "353050": {
      "Name": "Dead Rising 2 - Ninja Skills Pack",
      "ImageUrl": "https://steamcdn-a.akamaihd.net/steam/apps/353050/header.jpg?t=1447369903"
    },
    "353051": {
      "Name": "Dead Rising 2 - Psychopath Skills Pack",
      "ImageUrl": "https://steamcdn-a.akamaihd.net/steam/apps/353051/header.jpg?t=1447369905"
    },
    "353052": {
      "Name": "Dead Rising 2 - Soldier of Fortune Pack",
      "ImageUrl": "https://steamcdn-a.akamaihd.net/steam/apps/353052/header.jpg?t=1447369908"
    },
    "353053": {
      "Name": "Dead Rising 2 - Sports Fan Skills Pack",
      "ImageUrl": "https://steamcdn-a.akamaihd.net/steam/apps/353053/header.jpg?t=1447369909"
    }
  },
  "Name": "Dead Rising® 2",
  "AppId": "45740",
  "ImageUrl": "https://steamcdn-a.akamaihd.net/steam/apps/45740/header.jpg?t=1582596241",
  "Languages": [
    "english",
    "french",
    "italian",
    "spanish",
    "japanese",
    "korean"
  ],
  "Platforms": {
    "windows": true,
    "mac": false,
    "linux": false
  }
}