[
  {
    "name": "ACH_HANDSOME_01",
    "defaultvalue": 0,
    "displayName": "Somewhat Handsome",
    "hidden": 0,
    "description": "Collect your first hat",
    "icon": "https://steamcdn-a.akamaihd.net/steamcommunity/public/images/apps/508990/6b62da2f2dd22c89618e19e41e908d8281abb12b.jpg",
    "icongray": "https://steamcdn-a.akamaihd.net/steamcommunity/public/images/apps/508990/9a23becb9b5fbc1bcd1a7249831e6306181cfd09.jpg"
  },
  {
    "name": "ACH_HANDSOME_02",
    "defaultvalue": 0,
    "displayName": "Quite Handsome",
    "hidden": 0,
    "description": "Collect 10 hats",
    "icon": "https://steamcdn-a.akamaihd.net/steamcommunity/public/images/apps/508990/4803048cee21d54203c3ea4174cfe06c02fd19c8.jpg",
    "icongray": "https://steamcdn-a.akamaihd.net/steamcommunity/public/images/apps/508990/43051cd5e11998a5bac56bf028b5a800e7fecf32.jpg"
  },
  {
    "name": "ACH_HANDSOME_03",
    "defaultvalue": 0,
    "displayName": "SO VERY HANDSOME",
    "hidden": 0,
    "description": "Collect 50 hats",
    "icon": "https://steamcdn-a.akamaihd.net/steamcommunity/public/images/apps/508990/cb40c087591eac5b6be2e6346e24ee133794f953.jpg",
    "icongray": "https://steamcdn-a.akamaihd.net/steamcommunity/public/images/apps/508990/90ff76f93e91c3a3ea4241e4dce465216cb0da7f.jpg"
  },
  {
    "name": "ACH_BEAT_SWAMP",
    "defaultvalue": 0,
    "displayName": "Home Field Advantage",
    "hidden": 0,
    "description": "Clear the Swamp World",
    "icon": "https://steamcdn-a.akamaihd.net/steamcommunity/public/images/apps/508990/aaf0562b8505e46898b3ef05bc30cd90fa1cfebc.jpg",
    "icongray": "https://steamcdn-a.akamaihd.net/steamcommunity/public/images/apps/508990/cee82127760c2a7f847ad1c49bc4bc911e2a6d2e.jpg"
  },
  {
    "name": "ACH_BEAT_ICE",
    "defaultvalue": 0,
    "displayName": "Don't Slip Up",
    "hidden": 0,
    "description": "Clear the Ice World",
    "icon": "https://steamcdn-a.akamaihd.net/steamcommunity/public/images/apps/508990/28edd85e77135c3b80d6cd477e597c737bfa935c.jpg",
    "icongray": "https://steamcdn-a.akamaihd.net/steamcommunity/public/images/apps/508990/9f13a7907ea4db75b1c6e6dc91e9cfa34661489f.jpg"
  },
  {
    "name": "ACH_BEAT_CONSTRUCTION",
    "defaultvalue": 0,
    "displayName": "Workin' Like A Frog",
    "hidden": 0,
    "description": "Clear the Construction World",
    "icon": "https://steamcdn-a.akamaihd.net/steamcommunity/public/images/apps/508990/01f86946dd00301465451a91597e1b4ba25e22b9.jpg",
    "icongray": "https://steamcdn-a.akamaihd.net/steamcommunity/public/images/apps/508990/9a1200be946b98a85cb9fbeee6d56ad0ac99137b.jpg"
  },
  {
    "name": "ACH_BEAT_SPOOKY",
    "defaultvalue": 0,
    "displayName": "You Didn't Croak!",
    "hidden": 0,
    "description": "Clear the Spooky World and loop!",
    "icon": "https://steamcdn-a.akamaihd.net/steamcommunity/public/images/apps/508990/dc86cda6c5b0bfe5ccfa969ef58dae98a5287a56.jpg",
    "icongray": "https://steamcdn-a.akamaihd.net/steamcommunity/public/images/apps/508990/1331121bb61125af4494d3e9e6e4bbb8987a7679.jpg"
  },
  {
    "name": "ACH_CHILIS",
    "defaultvalue": 0,
    "displayName": "Handsome Señor Frog",
    "hidden": 0,
    "description": "Eat 50 Chili Peppers",
    "icon": "https://steamcdn-a.akamaihd.net/steamcommunity/public/images/apps/508990/f92cf1832ee3770dec6f35b68559099b6b151a8a.jpg",
    "icongray": "https://steamcdn-a.akamaihd.net/steamcommunity/public/images/apps/508990/32776210b241e782aef90d22d642fe9dfec3b113.jpg"
  },
  {
    "name": "ACH_50k",
    "defaultvalue": 0,
    "displayName": "Notorious Mr. Frog",
    "hidden": 0,
    "description": "Break 50,000 points",
    "icon": "https://steamcdn-a.akamaihd.net/steamcommunity/public/images/apps/508990/023c03bdb7b260bc92d42cd6c9cef2051b85b569.jpg",
    "icongray": "https://steamcdn-a.akamaihd.net/steamcommunity/public/images/apps/508990/67fa9ac61e197329993c750985c3a642ab8f14b1.jpg"
  },
  {
    "name": "ACH_100k",
    "defaultvalue": 0,
    "displayName": "FAMOUS Mr. Frog",
    "hidden": 0,
    "description": "Break 100,000 points",
    "icon": "https://steamcdn-a.akamaihd.net/steamcommunity/public/images/apps/508990/e23a597c6ee3f977cab5acf93d3541a266f16bdf.jpg",
    "icongray": "https://steamcdn-a.akamaihd.net/steamcommunity/public/images/apps/508990/8b59550d91e981efb1a86adecf7dc90298939de5.jpg"
  },
  {
    "name": "ACH_250k",
    "defaultvalue": 0,
    "displayName": "Handsome Mr. God",
    "hidden": 1,
    "icon": "https://steamcdn-a.akamaihd.net/steamcommunity/public/images/apps/508990/384acf412c6b915cdc0cbcc98262732e59572eb3.jpg",
    "icongray": "https://steamcdn-a.akamaihd.net/steamcommunity/public/images/apps/508990/a222544cd8c17c84a1a0a7f8353802b884d6104d.jpg"
  }
]