{
  "Dlcs": {},
  "Name": "Fantasy Monarch",
  "AppId": "949680",
  "ImageUrl": "https://steamcdn-a.akamaihd.net/steam/apps/949680/header.jpg?t=1574800578",
  "Languages": [
    "english"
  ],
  "Platforms": {
    "windows": true,
    "mac": false,
    "linux": false
  }
}