{
  "Dlcs": {},
  "Name": "Kingdom of Blades",
  "AppId": "769580",
  "ImageUrl": "https://steamcdn-a.akamaihd.net/steam/apps/769580/header.jpg?t=1529547810",
  "Languages": [
    "english",
    "schinese"
  ],
  "Platforms": {
    "windows": true,
    "mac": false,
    "linux": false
  }
}