{
  "Dlcs": {},
  "Name": "Project RIP",
  "AppId": "1131400",
  "ImageUrl": "https://steamcdn-a.akamaihd.net/steam/apps/1131400/header.jpg?t=1586023829",
  "Languages": [
    "english",
    "schinese",
    "french",
    "italian",
    "german",
    "spanish",
    "japanese",
    "korean",
    "russian",
    "greek",
    "portuguese",
    "turkish"
  ],
  "Platforms": {
    "windows": true,
    "mac": true,
    "linux": true
  }
}