{
  "Dlcs": {},
  "Name": "Imperialism: The Dark Continent",
  "AppId": "845530",
  "ImageUrl": "https://steamcdn-a.akamaihd.net/steam/apps/845530/header.jpg?t=1539064789",
  "Languages": [
    "english",
    "russian",
    "german",
    "schinese",
    "portuguese"
  ],
  "Platforms": {
    "windows": true,
    "mac": true,
    "linux": false
  }
}