{
  "Dlcs": {},
  "Name": "Airline Director 2 - Tycoon Game",
  "AppId": "462830",
  "ImageUrl": "https://steamcdn-a.akamaihd.net/steam/apps/462830/header.jpg?t=1461869147",
  "Languages": [
    "english"
  ],
  "Platforms": {
    "windows": true,
    "mac": false,
    "linux": false
  }
}