{
  "Dlcs": {},
  "Name": "Candera: The Forgotten Realm",
  "AppId": "1204480",
  "ImageUrl": "https://steamcdn-a.akamaihd.net/steam/apps/1204480/header.jpg?t=1578072178",
  "Languages": [
    "english"
  ],
  "Platforms": {
    "windows": true,
    "mac": false,
    "linux": false
  }
}