{
  "Dlcs": {},
  "Name": "Treasure of a Blizzard",
  "AppId": "508260",
  "ImageUrl": "https://steamcdn-a.akamaihd.net/steam/apps/508260/header.jpg?t=1561801517",
  "Languages": [
    "english"
  ],
  "Platforms": {
    "windows": true,
    "mac": true,
    "linux": true
  }
}