[
  {
    "name": "NEW_ACHIEVEMENT_1_0",
    "defaultvalue": 0,
    "displayName": "Awesome!",
    "hidden": 0,
    "description": " ",
    "icon": "https://steamcdn-a.akamaihd.net/steamcommunity/public/images/apps/801900/8397f582d78b5af3882c8a030a880e6938f3b124.jpg",
    "icongray": "https://steamcdn-a.akamaihd.net/steamcommunity/public/images/apps/801900/f997c936fa4938effedb5bbcd60d5473a8128f34.jpg"
  },
  {
    "name": "NEW_ACHIEVEMENT_1_1",
    "defaultvalue": 0,
    "displayName": "You did it!",
    "hidden": 0,
    "description": " ",
    "icon": "https://steamcdn-a.akamaihd.net/steamcommunity/public/images/apps/801900/c77b0bc7e4ed0661564316d60e84458fa77c3164.jpg",
    "icongray": "https://steamcdn-a.akamaihd.net/steamcommunity/public/images/apps/801900/f997c936fa4938effedb5bbcd60d5473a8128f34.jpg"
  },
  {
    "name": "NEW_ACHIEVEMENT_1_2",
    "defaultvalue": 0,
    "displayName": "Perfect!",
    "hidden": 0,
    "description": " ",
    "icon": "https://steamcdn-a.akamaihd.net/steamcommunity/public/images/apps/801900/4cb8939feb8a674a741a0a007a1625482f722f3f.jpg",
    "icongray": "https://steamcdn-a.akamaihd.net/steamcommunity/public/images/apps/801900/f997c936fa4938effedb5bbcd60d5473a8128f34.jpg"
  },
  {
    "name": "NEW_ACHIEVEMENT_1_3",
    "defaultvalue": 0,
    "displayName": "You are the Best!",
    "hidden": 0,
    "description": " ",
    "icon": "https://steamcdn-a.akamaihd.net/steamcommunity/public/images/apps/801900/030b7eb7f75384971490c6dce8947dc1f6447dca.jpg",
    "icongray": "https://steamcdn-a.akamaihd.net/steamcommunity/public/images/apps/801900/f997c936fa4938effedb5bbcd60d5473a8128f34.jpg"
  },
  {
    "name": "NEW_ACHIEVEMENT_1_4",
    "defaultvalue": 0,
    "displayName": "First one for free!",
    "hidden": 0,
    "description": " Wasn't so hard isn't it?",
    "icon": "https://steamcdn-a.akamaihd.net/steamcommunity/public/images/apps/801900/f2e2fa3d0ff891bb6a2a57ce78e5813995d5b21c.jpg",
    "icongray": "https://steamcdn-a.akamaihd.net/steamcommunity/public/images/apps/801900/f997c936fa4938effedb5bbcd60d5473a8128f34.jpg"
  }
]