[
  {
    "name": "rings_all",
    "defaultvalue": 0,
    "displayName": "All White Rings",
    "hidden": 0,
    "description": "Clear all white rings in a single stage",
    "icon": "https://steamcdn-a.akamaihd.net/steamcommunity/public/images/apps/1085280/2391fe7ed8c9373d87fd43bad31cf876f13e429e.jpg",
    "icongray": "https://steamcdn-a.akamaihd.net/steamcommunity/public/images/apps/1085280/660ecf8f40590f2f161c05dad3919024788c400c.jpg"
  },
  {
    "name": "gelly_1",
    "defaultvalue": 0,
    "displayName": "Kill a Gelly",
    "hidden": 0,
    "description": "Kill one Gellyfish",
    "icon": "https://steamcdn-a.akamaihd.net/steamcommunity/public/images/apps/1085280/4c49b6638b9e8b81196c998046b5b30adae81081.jpg",
    "icongray": "https://steamcdn-a.akamaihd.net/steamcommunity/public/images/apps/1085280/720aee0c201e5c96db081bceb921aa9ace0a0be4.jpg"
  },
  {
    "name": "gelly_2",
    "defaultvalue": 0,
    "displayName": "2 Gelly Dive",
    "hidden": 0,
    "description": "Kill chain 2 Gellys in one dive",
    "icon": "https://steamcdn-a.akamaihd.net/steamcommunity/public/images/apps/1085280/4c49b6638b9e8b81196c998046b5b30adae81081.jpg",
    "icongray": "https://steamcdn-a.akamaihd.net/steamcommunity/public/images/apps/1085280/720aee0c201e5c96db081bceb921aa9ace0a0be4.jpg"
  },
  {
    "name": "gelly_5",
    "defaultvalue": 0,
    "displayName": "5 Gelly Dive",
    "hidden": 0,
    "description": "Kill chain 5 Gellys in one dive",
    "icon": "https://steamcdn-a.akamaihd.net/steamcommunity/public/images/apps/1085280/4c49b6638b9e8b81196c998046b5b30adae81081.jpg",
    "icongray": "https://steamcdn-a.akamaihd.net/steamcommunity/public/images/apps/1085280/720aee0c201e5c96db081bceb921aa9ace0a0be4.jpg"
  },
  {
    "name": "gelly_10",
    "defaultvalue": 0,
    "displayName": "10 Gellys",
    "hidden": 0,
    "description": "Kill 10 Gellys in a single stage",
    "icon": "https://steamcdn-a.akamaihd.net/steamcommunity/public/images/apps/1085280/4c49b6638b9e8b81196c998046b5b30adae81081.jpg",
    "icongray": "https://steamcdn-a.akamaihd.net/steamcommunity/public/images/apps/1085280/720aee0c201e5c96db081bceb921aa9ace0a0be4.jpg"
  },
  {
    "name": "krayt_1",
    "defaultvalue": 0,
    "displayName": "Kill a Krayt",
    "hidden": 0,
    "description": "Kill one Krayt",
    "icon": "https://steamcdn-a.akamaihd.net/steamcommunity/public/images/apps/1085280/cfefced0d086e9d1a2f0ddf7969622ceb29c9a4b.jpg",
    "icongray": "https://steamcdn-a.akamaihd.net/steamcommunity/public/images/apps/1085280/f64407c1537eecfe0a6d78d9c4c4030da2f4d80d.jpg"
  },
  {
    "name": "krayt_all",
    "defaultvalue": 0,
    "displayName": "Kill all Krayts",
    "hidden": 0,
    "description": "Kill all Krayts in a single stage",
    "icon": "https://steamcdn-a.akamaihd.net/steamcommunity/public/images/apps/1085280/cfefced0d086e9d1a2f0ddf7969622ceb29c9a4b.jpg",
    "icongray": "https://steamcdn-a.akamaihd.net/steamcommunity/public/images/apps/1085280/f64407c1537eecfe0a6d78d9c4c4030da2f4d80d.jpg"
  },
  {
    "name": "floyta_1",
    "defaultvalue": 0,
    "displayName": "Kill a Floyta",
    "hidden": 0,
    "description": "Kill one Floyta",
    "icon": "https://steamcdn-a.akamaihd.net/steamcommunity/public/images/apps/1085280/792b202dac1b2ac06dcd2bc01fa20fb005b9e17f.jpg",
    "icongray": "https://steamcdn-a.akamaihd.net/steamcommunity/public/images/apps/1085280/ff4cbbe1c1a54b368665afeaf0ddbe995c17a984.jpg"
  },
  {
    "name": "floyta_2",
    "defaultvalue": 0,
    "displayName": "2 Floyta Chain",
    "hidden": 0,
    "description": "Kill chain 2 Floytas",
    "icon": "https://steamcdn-a.akamaihd.net/steamcommunity/public/images/apps/1085280/792b202dac1b2ac06dcd2bc01fa20fb005b9e17f.jpg",
    "icongray": "https://steamcdn-a.akamaihd.net/steamcommunity/public/images/apps/1085280/ff4cbbe1c1a54b368665afeaf0ddbe995c17a984.jpg"
  },
  {
    "name": "floyta_5",
    "defaultvalue": 0,
    "displayName": "5 Floyta Chain",
    "hidden": 0,
    "description": "Kill chain 5 Floytas",
    "icon": "https://steamcdn-a.akamaihd.net/steamcommunity/public/images/apps/1085280/792b202dac1b2ac06dcd2bc01fa20fb005b9e17f.jpg",
    "icongray": "https://steamcdn-a.akamaihd.net/steamcommunity/public/images/apps/1085280/ff4cbbe1c1a54b368665afeaf0ddbe995c17a984.jpg"
  },
  {
    "name": "floyta_all",
    "defaultvalue": 0,
    "displayName": "Kill All Floytas",
    "hidden": 0,
    "description": "Kill all Floytas in a single stage",
    "icon": "https://steamcdn-a.akamaihd.net/steamcommunity/public/images/apps/1085280/792b202dac1b2ac06dcd2bc01fa20fb005b9e17f.jpg",
    "icongray": "https://steamcdn-a.akamaihd.net/steamcommunity/public/images/apps/1085280/ff4cbbe1c1a54b368665afeaf0ddbe995c17a984.jpg"
  },
  {
    "name": "byrd_1",
    "defaultvalue": 0,
    "displayName": "Kill a Byrd",
    "hidden": 0,
    "description": "Kill one Byrd",
    "icon": "https://steamcdn-a.akamaihd.net/steamcommunity/public/images/apps/1085280/1ab8ee2952e57e8c4581eecb7b3d2ce59e4a9789.jpg",
    "icongray": "https://steamcdn-a.akamaihd.net/steamcommunity/public/images/apps/1085280/6b925bef87f1cee3f6ed501c687e9543a7237e4d.jpg"
  },
  {
    "name": "byrd_2",
    "defaultvalue": 0,
    "displayName": "2 Byrd Chain",
    "hidden": 0,
    "description": "Kill chain 2 Byrds",
    "icon": "https://steamcdn-a.akamaihd.net/steamcommunity/public/images/apps/1085280/1ab8ee2952e57e8c4581eecb7b3d2ce59e4a9789.jpg",
    "icongray": "https://steamcdn-a.akamaihd.net/steamcommunity/public/images/apps/1085280/6b925bef87f1cee3f6ed501c687e9543a7237e4d.jpg"
  },
  {
    "name": "byrd_10",
    "defaultvalue": 0,
    "displayName": "10 Byrds",
    "hidden": 0,
    "description": "Kill 10 Byrds in a single stage",
    "icon": "https://steamcdn-a.akamaihd.net/steamcommunity/public/images/apps/1085280/1ab8ee2952e57e8c4581eecb7b3d2ce59e4a9789.jpg",
    "icongray": "https://steamcdn-a.akamaihd.net/steamcommunity/public/images/apps/1085280/6b925bef87f1cee3f6ed501c687e9543a7237e4d.jpg"
  },
  {
    "name": "score_100",
    "defaultvalue": 0,
    "displayName": "Score 100",
    "hidden": 0,
    "description": "Collect 100 rings",
    "icon": "https://steamcdn-a.akamaihd.net/steamcommunity/public/images/apps/1085280/4007ec9fc430f22b287e4990a5f9393fc2b0dd12.jpg",
    "icongray": "https://steamcdn-a.akamaihd.net/steamcommunity/public/images/apps/1085280/18ffd3a4d30bd9ee0150178eac9543f073d7fd71.jpg"
  },
  {
    "name": "score_250",
    "defaultvalue": 0,
    "displayName": "Score 250",
    "hidden": 0,
    "description": "Collect 250 rings",
    "icon": "https://steamcdn-a.akamaihd.net/steamcommunity/public/images/apps/1085280/4007ec9fc430f22b287e4990a5f9393fc2b0dd12.jpg",
    "icongray": "https://steamcdn-a.akamaihd.net/steamcommunity/public/images/apps/1085280/18ffd3a4d30bd9ee0150178eac9543f073d7fd71.jpg"
  },
  {
    "name": "score_500",
    "defaultvalue": 0,
    "displayName": "Score 500",
    "hidden": 0,
    "description": "Collect 500 rings",
    "icon": "https://steamcdn-a.akamaihd.net/steamcommunity/public/images/apps/1085280/4007ec9fc430f22b287e4990a5f9393fc2b0dd12.jpg",
    "icongray": "https://steamcdn-a.akamaihd.net/steamcommunity/public/images/apps/1085280/18ffd3a4d30bd9ee0150178eac9543f073d7fd71.jpg"
  },
  {
    "name": "score_750",
    "defaultvalue": 0,
    "displayName": "Score 750",
    "hidden": 0,
    "description": "Collect 750 rings",
    "icon": "https://steamcdn-a.akamaihd.net/steamcommunity/public/images/apps/1085280/4007ec9fc430f22b287e4990a5f9393fc2b0dd12.jpg",
    "icongray": "https://steamcdn-a.akamaihd.net/steamcommunity/public/images/apps/1085280/18ffd3a4d30bd9ee0150178eac9543f073d7fd71.jpg"
  },
  {
    "name": "score_1000",
    "defaultvalue": 0,
    "displayName": "Score 1000",
    "hidden": 0,
    "description": "Collect 1000 rings",
    "icon": "https://steamcdn-a.akamaihd.net/steamcommunity/public/images/apps/1085280/4007ec9fc430f22b287e4990a5f9393fc2b0dd12.jpg",
    "icongray": "https://steamcdn-a.akamaihd.net/steamcommunity/public/images/apps/1085280/18ffd3a4d30bd9ee0150178eac9543f073d7fd71.jpg"
  },
  {
    "name": "score_1500",
    "defaultvalue": 0,
    "displayName": "Score 1500",
    "hidden": 0,
    "description": "Collect 1500 rings",
    "icon": "https://steamcdn-a.akamaihd.net/steamcommunity/public/images/apps/1085280/4007ec9fc430f22b287e4990a5f9393fc2b0dd12.jpg",
    "icongray": "https://steamcdn-a.akamaihd.net/steamcommunity/public/images/apps/1085280/18ffd3a4d30bd9ee0150178eac9543f073d7fd71.jpg"
  },
  {
    "name": "stage_5",
    "defaultvalue": 0,
    "displayName": "Stage 5",
    "hidden": 0,
    "description": "Complete stage 5",
    "icon": "https://steamcdn-a.akamaihd.net/steamcommunity/public/images/apps/1085280/f1ef00e56912e75d95a7ed7829349c85ccda8942.jpg",
    "icongray": "https://steamcdn-a.akamaihd.net/steamcommunity/public/images/apps/1085280/59c8ab7a09861b6586f77531a7c20e3d66a1f522.jpg"
  },
  {
    "name": "stage_10",
    "defaultvalue": 0,
    "displayName": "Stage 10",
    "hidden": 0,
    "description": "Complete stage 10",
    "icon": "https://steamcdn-a.akamaihd.net/steamcommunity/public/images/apps/1085280/f1ef00e56912e75d95a7ed7829349c85ccda8942.jpg",
    "icongray": "https://steamcdn-a.akamaihd.net/steamcommunity/public/images/apps/1085280/59c8ab7a09861b6586f77531a7c20e3d66a1f522.jpg"
  },
  {
    "name": "stage_25",
    "defaultvalue": 0,
    "displayName": "Stage 25",
    "hidden": 0,
    "description": "Complete stage 25",
    "icon": "https://steamcdn-a.akamaihd.net/steamcommunity/public/images/apps/1085280/f1ef00e56912e75d95a7ed7829349c85ccda8942.jpg",
    "icongray": "https://steamcdn-a.akamaihd.net/steamcommunity/public/images/apps/1085280/a0a90cd6cda3de18f5f7a8ff2a62213455989150.jpg"
  },
  {
    "name": "stage_50",
    "defaultvalue": 0,
    "displayName": "Stage 50",
    "hidden": 0,
    "description": "Complete stage 50",
    "icon": "https://steamcdn-a.akamaihd.net/steamcommunity/public/images/apps/1085280/f1ef00e56912e75d95a7ed7829349c85ccda8942.jpg",
    "icongray": "https://steamcdn-a.akamaihd.net/steamcommunity/public/images/apps/1085280/59c8ab7a09861b6586f77531a7c20e3d66a1f522.jpg"
  },
  {
    "name": "chain_25",
    "defaultvalue": 0,
    "displayName": "Chain 25",
    "hidden": 0,
    "description": "Chain 25 rings",
    "icon": "https://steamcdn-a.akamaihd.net/steamcommunity/public/images/apps/1085280/5eba0200929f47e93bd0c7435cd3c714f84f1fee.jpg",
    "icongray": "https://steamcdn-a.akamaihd.net/steamcommunity/public/images/apps/1085280/69910b7469be10aa79f892ccfa831caeb6085cac.jpg"
  },
  {
    "name": "chain_50",
    "defaultvalue": 0,
    "displayName": "Chain 50",
    "hidden": 0,
    "description": "Chain 50 rings",
    "icon": "https://steamcdn-a.akamaihd.net/steamcommunity/public/images/apps/1085280/5eba0200929f47e93bd0c7435cd3c714f84f1fee.jpg",
    "icongray": "https://steamcdn-a.akamaihd.net/steamcommunity/public/images/apps/1085280/69910b7469be10aa79f892ccfa831caeb6085cac.jpg"
  },
  {
    "name": "chain_75",
    "defaultvalue": 0,
    "displayName": "Chain 75",
    "hidden": 0,
    "description": "Chain 75 rings",
    "icon": "https://steamcdn-a.akamaihd.net/steamcommunity/public/images/apps/1085280/5eba0200929f47e93bd0c7435cd3c714f84f1fee.jpg",
    "icongray": "https://steamcdn-a.akamaihd.net/steamcommunity/public/images/apps/1085280/69910b7469be10aa79f892ccfa831caeb6085cac.jpg"
  },
  {
    "name": "chain_100",
    "defaultvalue": 0,
    "displayName": "Chain 100",
    "hidden": 0,
    "description": "Chain 100 rings",
    "icon": "https://steamcdn-a.akamaihd.net/steamcommunity/public/images/apps/1085280/5eba0200929f47e93bd0c7435cd3c714f84f1fee.jpg",
    "icongray": "https://steamcdn-a.akamaihd.net/steamcommunity/public/images/apps/1085280/69910b7469be10aa79f892ccfa831caeb6085cac.jpg"
  }
]