[
  {
    "name": "max_ship_life_upgrade",
    "defaultvalue": 0,
    "displayName": "Max Ship Speed",
    "hidden": 0,
    "description": "update the ship's speed to the maximum.",
    "icon": "https://steamcdn-a.akamaihd.net/steamcommunity/public/images/apps/779870/030d7e4a3565cb8d0b8d77426390bc056a0f165f.jpg",
    "icongray": "https://steamcdn-a.akamaihd.net/steamcommunity/public/images/apps/779870/61427e307dba0c99de61a2e659cddd28af7dbe95.jpg"
  },
  {
    "name": "max_ship_damage_upgrade",
    "defaultvalue": 0,
    "displayName": "Max Ship Damage",
    "hidden": 0,
    "description": "update the ship's damage to the maximum.",
    "icon": "https://steamcdn-a.akamaihd.net/steamcommunity/public/images/apps/779870/d96b8e09b29326de2d2f7a0eae0ce07abc1dc166.jpg",
    "icongray": "https://steamcdn-a.akamaihd.net/steamcommunity/public/images/apps/779870/0ddc4025e6430009f5c0232955e5e14e29f0a81c.jpg"
  },
  {
    "name": "max_ship_speed_upgrade",
    "defaultvalue": 0,
    "displayName": "Max Ship Speed",
    "hidden": 0,
    "description": "update the ship's speed to the maximum.",
    "icon": "https://steamcdn-a.akamaihd.net/steamcommunity/public/images/apps/779870/e2ffe41033a1083d1d7c871a71b7853ec9c51d12.jpg",
    "icongray": "https://steamcdn-a.akamaihd.net/steamcommunity/public/images/apps/779870/6d3f550f8f1167ffa9c9fd50aa122b2282ee9648.jpg"
  },
  {
    "name": "max_ship_repair_speed_upgrade",
    "defaultvalue": 0,
    "displayName": "Max Ship Repair Speed",
    "hidden": 0,
    "description": "update the ships repair speed to the maximum.",
    "icon": "https://steamcdn-a.akamaihd.net/steamcommunity/public/images/apps/779870/721556889bf2ea1ad76de9f913d1b69ae3680dd7.jpg",
    "icongray": "https://steamcdn-a.akamaihd.net/steamcommunity/public/images/apps/779870/be3ed209da3a2c581e6be284096ad9bb6d7ccd1f.jpg"
  },
  {
    "name": "max_ship_firerate_upgrade",
    "defaultvalue": 0,
    "displayName": "Max Ship Firerate",
    "hidden": 0,
    "description": "update the ships firerate to the maximum.",
    "icon": "https://steamcdn-a.akamaihd.net/steamcommunity/public/images/apps/779870/1d1685f8f11cd369d46c382ef0c689b2372d5e03.jpg",
    "icongray": "https://steamcdn-a.akamaihd.net/steamcommunity/public/images/apps/779870/6d289df9c27629789de21f59b96a416ba93c9d98.jpg"
  },
  {
    "name": "max_captain_life_upgrade",
    "defaultvalue": 0,
    "displayName": "Max Captain Life",
    "hidden": 0,
    "description": "update the captain life to the maximum.",
    "icon": "https://steamcdn-a.akamaihd.net/steamcommunity/public/images/apps/779870/1dca7cd81f9f2a3efa0411136272a1273eaaefd6.jpg",
    "icongray": "https://steamcdn-a.akamaihd.net/steamcommunity/public/images/apps/779870/c4e24ff4dd7247657cadb3054e9d3e24f485d87b.jpg"
  },
  {
    "name": "max_captain_damage_upgrade",
    "defaultvalue": 0,
    "displayName": "Max Captain Damage",
    "hidden": 0,
    "description": "update the captain damage to the maximum.",
    "icon": "https://steamcdn-a.akamaihd.net/steamcommunity/public/images/apps/779870/04f7c1fafd9a2b0e5b43cc00bb4cb694de682e4a.jpg",
    "icongray": "https://steamcdn-a.akamaihd.net/steamcommunity/public/images/apps/779870/4b9aa9ce20b38ab62d8f112ffa00d311b23af370.jpg"
  },
  {
    "name": "max_captain_ammo_upgrade",
    "defaultvalue": 0,
    "displayName": "Max Captain Ammo",
    "hidden": 0,
    "description": "update the captain ammo capacity to the maximum.",
    "icon": "https://steamcdn-a.akamaihd.net/steamcommunity/public/images/apps/779870/1db01ce371aabc9f01a33a0ff3d75be8a8f0ac62.jpg",
    "icongray": "https://steamcdn-a.akamaihd.net/steamcommunity/public/images/apps/779870/10a24acb12a6aac840c9ff5de3e575dd3b3ef428.jpg"
  },
  {
    "name": "max_captain_firerate_upgrade",
    "defaultvalue": 0,
    "displayName": "Max Captain Firerate",
    "hidden": 0,
    "description": "update the captain firerate to the maximum.",
    "icon": "https://steamcdn-a.akamaihd.net/steamcommunity/public/images/apps/779870/1e294072f26f8023c0f1c5289704d22c63c09e54.jpg",
    "icongray": "https://steamcdn-a.akamaihd.net/steamcommunity/public/images/apps/779870/3a4c32a049d5f1d53bc52b6d563126047d6511b5.jpg"
  },
  {
    "name": "unlock_ship_skill_1",
    "defaultvalue": 0,
    "displayName": "Unlock Explosive Barrel",
    "hidden": 0,
    "description": "unlock the skill Explosive Barrel.",
    "icon": "https://steamcdn-a.akamaihd.net/steamcommunity/public/images/apps/779870/44052425d204c80deeaad1e53462766e224e0d72.jpg",
    "icongray": "https://steamcdn-a.akamaihd.net/steamcommunity/public/images/apps/779870/e77c25f45fc1d6f97841ed68e7c4c077d6a09683.jpg"
  },
  {
    "name": "unlock_ship_skill_2",
    "defaultvalue": 0,
    "displayName": "Unlock Incendiary Barrel",
    "hidden": 0,
    "description": "unlock the skill Incendiary Barrel.",
    "icon": "https://steamcdn-a.akamaihd.net/steamcommunity/public/images/apps/779870/9da9db6234d17bab394f795432cae40c119c0e6c.jpg",
    "icongray": "https://steamcdn-a.akamaihd.net/steamcommunity/public/images/apps/779870/fa9eb38dd0878c151b32a5edf4593188c3a0b4cf.jpg"
  },
  {
    "name": "unlock_ship_skill_3",
    "defaultvalue": 0,
    "displayName": "Unlock Explosive Mines",
    "hidden": 0,
    "description": "unlock the skill explosive mines.",
    "icon": "https://steamcdn-a.akamaihd.net/steamcommunity/public/images/apps/779870/611a02d1fd1bcf3b2dd0e93689a8e80223a52c01.jpg",
    "icongray": "https://steamcdn-a.akamaihd.net/steamcommunity/public/images/apps/779870/7313b4585d366a56b94a572042093bcf18a68675.jpg"
  },
  {
    "name": "unlock_ship_skill_4",
    "defaultvalue": 0,
    "displayName": "Unlock Hurricane",
    "hidden": 0,
    "description": "unlock the skill hurricane.",
    "icon": "https://steamcdn-a.akamaihd.net/steamcommunity/public/images/apps/779870/04ed39d7afd0b0632c4729b5b002a023a795e935.jpg",
    "icongray": "https://steamcdn-a.akamaihd.net/steamcommunity/public/images/apps/779870/fec78833042faf0b35a9b86de9892b8a75bcd0df.jpg"
  },
  {
    "name": "unlock_ship_skill_5",
    "defaultvalue": 0,
    "displayName": "Unlock Charge",
    "hidden": 0,
    "description": "unlock the skill charge.",
    "icon": "https://steamcdn-a.akamaihd.net/steamcommunity/public/images/apps/779870/d948d6add9a06717d36ba87fa1448493f8c638af.jpg",
    "icongray": "https://steamcdn-a.akamaihd.net/steamcommunity/public/images/apps/779870/1de1f5c7a1bd495201ad805ad09c294c06fb017d.jpg"
  },
  {
    "name": "unlock_ship_skill_6",
    "defaultvalue": 0,
    "displayName": "Unlock Deadly Flurry",
    "hidden": 0,
    "description": "unlock the skill deadly flurry.",
    "icon": "https://steamcdn-a.akamaihd.net/steamcommunity/public/images/apps/779870/996df0ddba1f72ef4d6ad008260444ef7a1ebda2.jpg",
    "icongray": "https://steamcdn-a.akamaihd.net/steamcommunity/public/images/apps/779870/f50bfe3b3cf99fc9d2e0a209b03ace19b6a27527.jpg"
  },
  {
    "name": "unlock_captain_skill_1",
    "defaultvalue": 0,
    "displayName": "Unlock Flurry",
    "hidden": 0,
    "description": "unlock the skill flurry.",
    "icon": "https://steamcdn-a.akamaihd.net/steamcommunity/public/images/apps/779870/9e01ee6b45498acdd2850cda136c18f7a4aaab96.jpg",
    "icongray": "https://steamcdn-a.akamaihd.net/steamcommunity/public/images/apps/779870/4eaa6bbdc4b2fdc65ec146e68c70a2d8d2f020da.jpg"
  },
  {
    "name": "unlock_captain_skill_2",
    "defaultvalue": 0,
    "displayName": "Unlock Multishot",
    "hidden": 0,
    "description": "unlock the skill multishot.",
    "icon": "https://steamcdn-a.akamaihd.net/steamcommunity/public/images/apps/779870/1eab15ce109b171ee006d6441a5a4c7ef9582db9.jpg",
    "icongray": "https://steamcdn-a.akamaihd.net/steamcommunity/public/images/apps/779870/7bf26cf90406f7304ee505a712a3f48c7af50ba2.jpg"
  },
  {
    "name": "unlock_captain_skill_3",
    "defaultvalue": 0,
    "displayName": "Unlock Explosive Bullets",
    "hidden": 0,
    "description": "unlock the skill explosive bullets.",
    "icon": "https://steamcdn-a.akamaihd.net/steamcommunity/public/images/apps/779870/60bda64e8be789f934b1dca8753c512835a6fd56.jpg",
    "icongray": "https://steamcdn-a.akamaihd.net/steamcommunity/public/images/apps/779870/6bed15ad88b9ee939b2a21a1ce7b8c7b79afac15.jpg"
  },
  {
    "name": "unlock_captain_skill_4",
    "defaultvalue": 0,
    "displayName": "Unlock Explosive Trap",
    "hidden": 0,
    "description": "unlock the skill explosive trap.",
    "icon": "https://steamcdn-a.akamaihd.net/steamcommunity/public/images/apps/779870/4e08471fb1ddb8eabc552205c912ec4c68be9539.jpg",
    "icongray": "https://steamcdn-a.akamaihd.net/steamcommunity/public/images/apps/779870/d4e8ef8240bdd6fb227eb31c1aead057c11751bb.jpg"
  },
  {
    "name": "unlock_captain_skill_5",
    "defaultvalue": 0,
    "displayName": "Unlock Tiger Pet",
    "hidden": 0,
    "description": "unlock the skill tiger pet.",
    "icon": "https://steamcdn-a.akamaihd.net/steamcommunity/public/images/apps/779870/dda1a14c1fff46d222a6bd86cdff2de73f3c9b1c.jpg",
    "icongray": "https://steamcdn-a.akamaihd.net/steamcommunity/public/images/apps/779870/0ac4a682346d93f46a13a0445d18c9f7578192e5.jpg"
  },
  {
    "name": "conquer_bullmar",
    "defaultvalue": 0,
    "displayName": "Conquer Bullmar",
    "hidden": 0,
    "description": "conquer bullmar.",
    "icon": "https://steamcdn-a.akamaihd.net/steamcommunity/public/images/apps/779870/983f8dd77cbc72b260a1a5043ed7300a542cbaac.jpg",
    "icongray": "https://steamcdn-a.akamaihd.net/steamcommunity/public/images/apps/779870/b0a32fbc9b92c0d42fffef67e47f9743b8bb320b.jpg"
  },
  {
    "name": "conquer_windrip",
    "defaultvalue": 0,
    "displayName": "Conquer Windrip",
    "hidden": 0,
    "description": "conquer windrip.",
    "icon": "https://steamcdn-a.akamaihd.net/steamcommunity/public/images/apps/779870/71a92d5460a64ccf9d2fee2efe310351151ebf31.jpg",
    "icongray": "https://steamcdn-a.akamaihd.net/steamcommunity/public/images/apps/779870/27ab2a420ed208b2aee94ac0f0b0b453b3355d0e.jpg"
  },
  {
    "name": "conquer_ascot",
    "defaultvalue": 0,
    "displayName": "Conquer Ascot",
    "hidden": 0,
    "description": "conquer ascot.",
    "icon": "https://steamcdn-a.akamaihd.net/steamcommunity/public/images/apps/779870/42eb83f78bf2f88d525f2c15e9f4e542c56c2afe.jpg",
    "icongray": "https://steamcdn-a.akamaihd.net/steamcommunity/public/images/apps/779870/faa6ccbaa3e3fcea61693f3ea5ac03bba829ebdf.jpg"
  },
  {
    "name": "conquer_lakeshore",
    "defaultvalue": 0,
    "displayName": "Conquer Lakeshore",
    "hidden": 0,
    "description": "conquer lakeshore.",
    "icon": "https://steamcdn-a.akamaihd.net/steamcommunity/public/images/apps/779870/56b6871eca316eb49a9accdc4b3145781f652724.jpg",
    "icongray": "https://steamcdn-a.akamaihd.net/steamcommunity/public/images/apps/779870/359c83f1c27da0c857c1688aba31b01c44c71c82.jpg"
  },
  {
    "name": "conquer_norwitch",
    "defaultvalue": 0,
    "displayName": "Conquer Norwitch",
    "hidden": 0,
    "description": "conquer norwitch.",
    "icon": "https://steamcdn-a.akamaihd.net/steamcommunity/public/images/apps/779870/196182c06a58fb1b976f97673a08fc91f3ec6458.jpg",
    "icongray": "https://steamcdn-a.akamaihd.net/steamcommunity/public/images/apps/779870/8f19e6c5f0ff2120944f019aa21e8f2f92b26614.jpg"
  },
  {
    "name": "conquer_balmoral",
    "defaultvalue": 0,
    "displayName": "Conquer Balmoral",
    "hidden": 0,
    "description": "conquer balmoral.",
    "icon": "https://steamcdn-a.akamaihd.net/steamcommunity/public/images/apps/779870/b7cae974320b5ba90622a305abaf8a1e9bd4ba6a.jpg",
    "icongray": "https://steamcdn-a.akamaihd.net/steamcommunity/public/images/apps/779870/02bb0cc551ba8585d654c3c8bf9d250225772355.jpg"
  },
  {
    "name": "conquer_coniston",
    "defaultvalue": 0,
    "displayName": "Conquer Coniston",
    "hidden": 0,
    "description": "conquer coniston.",
    "icon": "https://steamcdn-a.akamaihd.net/steamcommunity/public/images/apps/779870/5c19cbe026890d353591338f6deb403c18d2522d.jpg",
    "icongray": "https://steamcdn-a.akamaihd.net/steamcommunity/public/images/apps/779870/bfa506b5576d70c6db8bb8db8b5ee6822db7a1e7.jpg"
  },
  {
    "name": "conquer_veritas_waterfalls",
    "defaultvalue": 0,
    "displayName": "Conquer Veritas Waterfalls",
    "hidden": 0,
    "description": "conquer veritas waterfalls.",
    "icon": "https://steamcdn-a.akamaihd.net/steamcommunity/public/images/apps/779870/157ea0e0cd355972c9a8056a930aca36a3229e56.jpg",
    "icongray": "https://steamcdn-a.akamaihd.net/steamcommunity/public/images/apps/779870/f37cbeffde54cab87c678ddff767661e7c4df4d2.jpg"
  },
  {
    "name": "conquer_stamford",
    "defaultvalue": 0,
    "displayName": "Conquer Stamford",
    "hidden": 0,
    "description": "conquer stamford.",
    "icon": "https://steamcdn-a.akamaihd.net/steamcommunity/public/images/apps/779870/9b0422766e8f9e1bb8a267166c6c47925f5fa806.jpg",
    "icongray": "https://steamcdn-a.akamaihd.net/steamcommunity/public/images/apps/779870/8ed55a3edb5f78231629632df0b120af9649eb81.jpg"
  },
  {
    "name": "conquer_erith_s_longpass",
    "defaultvalue": 0,
    "displayName": "Conquer Erith's Longpass",
    "hidden": 0,
    "description": "conquer erith's longpass.",
    "icon": "https://steamcdn-a.akamaihd.net/steamcommunity/public/images/apps/779870/3e119102c8bdd8e13bc453f24a491ff84a3ce349.jpg",
    "icongray": "https://steamcdn-a.akamaihd.net/steamcommunity/public/images/apps/779870/fc6f601ebd8622212f50a84441984d1446a5cd98.jpg"
  },
  {
    "name": "destroy_10_ships",
    "defaultvalue": 0,
    "displayName": "Destroy 10 Ships",
    "hidden": 0,
    "description": "destroy 10 enemy ships.",
    "icon": "https://steamcdn-a.akamaihd.net/steamcommunity/public/images/apps/779870/9383c9b4208d0ab1eee238eab115c720e916b7c6.jpg",
    "icongray": "https://steamcdn-a.akamaihd.net/steamcommunity/public/images/apps/779870/44ca4dc009a6c1d221284b97a86fcf4f0ec0750f.jpg"
  },
  {
    "name": "destroy_20_ships",
    "defaultvalue": 0,
    "displayName": "Destroy 20 Ships",
    "hidden": 0,
    "description": "destroy 20 enemy ships.",
    "icon": "https://steamcdn-a.akamaihd.net/steamcommunity/public/images/apps/779870/5fbd5aab60162328b52b9c18c50de2d9d8de0ff5.jpg",
    "icongray": "https://steamcdn-a.akamaihd.net/steamcommunity/public/images/apps/779870/54e71cd2dcef5d87c94d35181153e5be785e431e.jpg"
  },
  {
    "name": "destroy_30_ships",
    "defaultvalue": 0,
    "displayName": "Destroy 30 Ships",
    "hidden": 0,
    "description": "destroy 30 enemy ships.",
    "icon": "https://steamcdn-a.akamaihd.net/steamcommunity/public/images/apps/779870/984a2cae074224caba0cf425a0191f0844554cd6.jpg",
    "icongray": "https://steamcdn-a.akamaihd.net/steamcommunity/public/images/apps/779870/52804febde3b42f759f859f0a4ccdef7900251dc.jpg"
  },
  {
    "name": "destroy_40_ships",
    "defaultvalue": 0,
    "displayName": "Destroy 40 Ships",
    "hidden": 0,
    "description": "destroy 40 enemy ships.",
    "icon": "https://steamcdn-a.akamaihd.net/steamcommunity/public/images/apps/779870/5c7b04a348c35738b60f3e46697be66c057dc760.jpg",
    "icongray": "https://steamcdn-a.akamaihd.net/steamcommunity/public/images/apps/779870/4e076f85844340bf7ca79d8f0fd756cae5de1f87.jpg"
  },
  {
    "name": "destroy_50_ships",
    "defaultvalue": 0,
    "displayName": "Destroy 50 Ships",
    "hidden": 0,
    "description": "destroy 50 enemy ships.",
    "icon": "https://steamcdn-a.akamaihd.net/steamcommunity/public/images/apps/779870/577665afb7e519ae8f81d3140c2f405640810470.jpg",
    "icongray": "https://steamcdn-a.akamaihd.net/steamcommunity/public/images/apps/779870/73c63433a4bf419b61a251ddbf03b5b239a69cc0.jpg"
  },
  {
    "name": "kill_100_enemies",
    "defaultvalue": 0,
    "displayName": "Kill 100 Enemies",
    "hidden": 0,
    "description": "kill 100 enemies.",
    "icon": "https://steamcdn-a.akamaihd.net/steamcommunity/public/images/apps/779870/899aa209c62debe1e2dd9a5dd2a536ed8eca996a.jpg",
    "icongray": "https://steamcdn-a.akamaihd.net/steamcommunity/public/images/apps/779870/3704d9e4bd556911596a1b440be8b661cead0fcb.jpg"
  },
  {
    "name": "kill_200_enemies",
    "defaultvalue": 0,
    "displayName": "Kill 200 Enemies",
    "hidden": 0,
    "description": "kill 200 enemies.",
    "icon": "https://steamcdn-a.akamaihd.net/steamcommunity/public/images/apps/779870/034325661803fc525c77ea2d10706e0a3d04424a.jpg",
    "icongray": "https://steamcdn-a.akamaihd.net/steamcommunity/public/images/apps/779870/bf63180c7b56c5718661ca015436b113f7b2521d.jpg"
  },
  {
    "name": "kill_300_enemies",
    "defaultvalue": 0,
    "displayName": "Kill 300 Enemies",
    "hidden": 0,
    "description": "kill 300 enemies.",
    "icon": "https://steamcdn-a.akamaihd.net/steamcommunity/public/images/apps/779870/126004a51359be4d6c2f21f900ff130ef6f40e3f.jpg",
    "icongray": "https://steamcdn-a.akamaihd.net/steamcommunity/public/images/apps/779870/d23bda45188d6eae4c9b63c7cb2bc3a8572939e7.jpg"
  },
  {
    "name": "kill_400_enemies",
    "defaultvalue": 0,
    "displayName": "Kill 400 Enemies",
    "hidden": 0,
    "description": "kill 400 enemies.",
    "icon": "https://steamcdn-a.akamaihd.net/steamcommunity/public/images/apps/779870/abd729b73b7c707ec51e86214ba2c98265455e08.jpg",
    "icongray": "https://steamcdn-a.akamaihd.net/steamcommunity/public/images/apps/779870/4a4f377c4da99494051d8d4c7735d4e3b702e9d2.jpg"
  },
  {
    "name": "kill_500_enemies",
    "defaultvalue": 0,
    "displayName": "Kill 500 Enemies",
    "hidden": 0,
    "description": "kill 500 enemies.",
    "icon": "https://steamcdn-a.akamaihd.net/steamcommunity/public/images/apps/779870/9ef25638f7dfccf556dd4e20b132e9e05df897ce.jpg",
    "icongray": "https://steamcdn-a.akamaihd.net/steamcommunity/public/images/apps/779870/4da59ea4813edbaeaaafa5a9d5eb8a0ae9688650.jpg"
  }
]