{
  "Dlcs": {},
  "Name": "Underground Miner",
  "AppId": "1220070",
  "ImageUrl": "https://steamcdn-a.akamaihd.net/steam/apps/1220070/header.jpg?t=1587742135",
  "Languages": [
    "english"
  ],
  "Platforms": {
    "windows": true,
    "mac": false,
    "linux": false
  }
}