{
  "Dlcs": {},
  "Name": "Pirate Commander",
  "AppId": "1359270",
  "ImageUrl": "https://steamcdn-a.akamaihd.net/steam/apps/1359270/header.jpg?t=1600615360",
  "Languages": [
    "english",
    "french",
    "german",
    "italian",
    "japanese",
    "polish",
    "portuguese",
    "portuguese",
    "russian",
    "schinese",
    "turkish"
  ],
  "Platforms": {
    "windows": true,
    "mac": false,
    "linux": false
  }
}