{
  "Dlcs": {},
  "Name": "Silverworld",
  "AppId": "839940",
  "ImageUrl": "https://steamcdn-a.akamaihd.net/steam/apps/839940/header.jpg?t=1538610924",
  "Languages": [
    "english"
  ],
  "Platforms": {
    "windows": true,
    "mac": true,
    "linux": true
  }
}