{
  "Dlcs": {},
  "Name": "Wurst Defender Coop Edition",
  "AppId": "740990",
  "ImageUrl": "https://steamcdn-a.akamaihd.net/steam/apps/740990/header.jpg?t=1576783359",
  "Languages": [
    "english",
    "german"
  ],
  "Platforms": {
    "windows": true,
    "mac": false,
    "linux": false
  }
}