{
  "Dlcs": {},
  "Name": "Lavapools - Arcade Frenzy",
  "AppId": "401510",
  "ImageUrl": "https://steamcdn-a.akamaihd.net/steam/apps/401510/header.jpg?t=1571137762",
  "Languages": [
    "english",
    "french"
  ],
  "Platforms": {
    "windows": true,
    "mac": true,
    "linux": true
  }
}