[
  {
    "name": "Stat_MunitionsCapacity",
    "defaultvalue": 0,
    "displayName": "Munitions Capacity"
  },
  {
    "name": "Stat_StableCapacity",
    "defaultvalue": 0,
    "displayName": "Stable Capacity "
  },
  {
    "name": "Stat_MissionsCompleted",
    "defaultvalue": 0,
    "displayName": "Missions Completed"
  },
  {
    "name": "Stat_ConfederateDeaths",
    "defaultvalue": 0,
    "displayName": "Confederate Deaths "
  },
  {
    "name": "Stat_MunitionsCaptured",
    "defaultvalue": 0,
    "displayName": "Munitions Captured"
  },
  {
    "name": "Stat_UnionDeaths",
    "defaultvalue": 0,
    "displayName": "Union Deaths"
  },
  {
    "name": "Stat_UnionDeserters",
    "defaultvalue": 0,
    "displayName": "Union Deserters"
  },
  {
    "name": "Stat_HorsesCaptured",
    "defaultvalue": 0,
    "displayName": "Horses Captured"
  },
  {
    "name": "Stat_MaxedHospitals",
    "defaultvalue": 0,
    "displayName": "Maxed Hospitals"
  },
  {
    "name": "Stat_MaxedWeapons",
    "defaultvalue": 0,
    "displayName": "Maxed Weapons"
  }
]