{
  "Dlcs": {},
  "Name": "Hero Of The Forest",
  "AppId": "1156650",
  "ImageUrl": "https://steamcdn-a.akamaihd.net/steam/apps/1156650/header.jpg?t=1570099712",
  "Languages": [
    "english"
  ],
  "Platforms": {
    "windows": true,
    "mac": false,
    "linux": false
  }
}