{
  "Dlcs": {},
  "Name": "Totally Reliable Delivery Service",
  "AppId": "1011670",
  "ImageUrl": "https://steamcdn-a.akamaihd.net/steam/apps/1011670/header.jpg?t=1588626067",
  "Languages": [
    "english"
  ],
  "Platforms": {
    "windows": true,
    "mac": true,
    "linux": false
  }
}