﻿[
  {
    "name": "ACHIEVEMENT_KILL_50_GRUNTS",
    "defaultvalue": 0,
    "displayName": "Are they slow-moving, Chief?",
    "hidden": 0,
    "description": "Kill 500 enemy grunts",
    "icon": "https://steamcdn-a.akamaihd.net/steamcommunity/public/images/apps/247910/7440ac073c81f70338cb4d98954b7762bb2d272d.jpg",
    "icongray": "https://steamcdn-a.akamaihd.net/steamcommunity/public/images/apps/247910/a87b3c5c153cfecb2ec2f2877676060cd364c9e8.jpg"
  },
  {
    "name": "ACHIEVEMENT_200_KILLS",
    "defaultvalue": 0,
    "displayName": "Our war has just begun",
    "hidden": 0,
    "description": "Kill 1000 enemies",
    "icon": "https://steamcdn-a.akamaihd.net/steamcommunity/public/images/apps/247910/509998b97082acf2f8bc2e5d1ed24f67f91b6700.jpg",
    "icongray": "https://steamcdn-a.akamaihd.net/steamcommunity/public/images/apps/247910/ef6584863962304cd8d054a9b4f287c8f405c562.jpg"
  },
  {
    "name": "ACHIEVEMENT_500_KILLS",
    "defaultvalue": 0,
    "displayName": "Don't get all stingy with your bullets",
    "hidden": 0,
    "description": "Kill 5000 enemies",
    "icon": "https://steamcdn-a.akamaihd.net/steamcommunity/public/images/apps/247910/02403c8237e856b68bbab5e1e92b1a98b4fa688b.jpg",
    "icongray": "https://steamcdn-a.akamaihd.net/steamcommunity/public/images/apps/247910/aa0e69d5b2032468118b3f55321b788281048121.jpg"
  },
  {
    "name": "ACHIEVEMENT_100_SHOTGUN_KILLS",
    "defaultvalue": 0,
    "displayName": "I'll teach ya how to shoot!",
    "hidden": 0,
    "description": "Kill any 100 enemy with the shotgun",
    "icon": "https://steamcdn-a.akamaihd.net/steamcommunity/public/images/apps/247910/52abcf0d65ad11896695b45c2e08929a85f6b110.jpg",
    "icongray": "https://steamcdn-a.akamaihd.net/steamcommunity/public/images/apps/247910/e40b53077f96c7c117d4fc51c95bbcfc2369b7e8.jpg"
  },
  {
    "name": "ACHIEVEMENT_20_MID_RESURRECT_KILLS",
    "defaultvalue": 0,
    "displayName": "You've got...the bite!",
    "hidden": 0,
    "description": "Kill 20 enemies as they revive",
    "icon": "https://steamcdn-a.akamaihd.net/steamcommunity/public/images/apps/247910/b020d21daaed243b6b0d66f4e7001ee8383026af.jpg",
    "icongray": "https://steamcdn-a.akamaihd.net/steamcommunity/public/images/apps/247910/2c2da824e3bfff030cced2aeb9f0c5296da85c27.jpg"
  },
  {
    "name": "ACHIEVEMENT_SUICIDE_GRENADE_KILL",
    "defaultvalue": 0,
    "displayName": "Got you, didn't I, you little sucker!",
    "hidden": 0,
    "description": "Kill a suicide grunt by hitting his grenade",
    "icon": "https://steamcdn-a.akamaihd.net/steamcommunity/public/images/apps/247910/79b40921eabb629463a21a16c490da3683f0adce.jpg",
    "icongray": "https://steamcdn-a.akamaihd.net/steamcommunity/public/images/apps/247910/f0792867dd4b75603a0ea5f51085d2f775ad8809.jpg"
  },
  {
    "name": "ACHIEVEMENT_100_SKELETON_EXPLOSIVE_KILLS",
    "defaultvalue": 0,
    "displayName": "Keep your damn filthy bones out of my mouth!",
    "hidden": 0,
    "description": "Kill 100 skeletons with explosives",
    "icon": "https://steamcdn-a.akamaihd.net/steamcommunity/public/images/apps/247910/4b41baf6b4143c33ba4d10be3813551c5ae6a0ed.jpg",
    "icongray": "https://steamcdn-a.akamaihd.net/steamcommunity/public/images/apps/247910/1fbe2228f082b822e298451111fcd3c1e02f0110.jpg"
  },
  {
    "name": "ACHIEVEMENT_KILL_OCCULT_GENERAL",
    "defaultvalue": 0,
    "displayName": "You want me to salute that pile of walking pus? Salute my ass",
    "hidden": 0,
    "description": "Defeat the Final Boss",
    "icon": "https://steamcdn-a.akamaihd.net/steamcommunity/public/images/apps/247910/c25ee5846cf0354483b9ed688fd8dd1786e4d903.jpg",
    "icongray": "https://steamcdn-a.akamaihd.net/steamcommunity/public/images/apps/247910/66b5ad01b8a0b90ddc6204f07c9ec06dbfc2222f.jpg"
  },
  {
    "name": "ACHIEVEMENT_PICKUP_SHOTGUN",
    "defaultvalue": 0,
    "displayName": "I have to get that gun!",
    "hidden": 0,
    "description": "Pick up a shotgun",
    "icon": "https://steamcdn-a.akamaihd.net/steamcommunity/public/images/apps/247910/6151e8d03c6c2c7cdb4ad319680855c0c50354c3.jpg",
    "icongray": "https://steamcdn-a.akamaihd.net/steamcommunity/public/images/apps/247910/af00c9425d46c3760564e835b6bb6c06bc86832f.jpg"
  },
  {
    "name": "ACHIEVEMENT_PICKUP_PREACHER",
    "defaultvalue": 0,
    "displayName": "I kick arse for the Lord!",
    "hidden": 0,
    "description": "Pick up the Preacher",
    "icon": "https://steamcdn-a.akamaihd.net/steamcommunity/public/images/apps/247910/c58fa35c914b443b7e778b7c8b716242c34b8bc7.jpg",
    "icongray": "https://steamcdn-a.akamaihd.net/steamcommunity/public/images/apps/247910/e903bdf56fd4d036a230d18b323971e640d0af11.jpg"
  },
  {
    "name": "ACHIEVEMENT_CH1_4_PLAYERS",
    "defaultvalue": 0,
    "displayName": "If there is such a thing as hell on earth, that's it",
    "hidden": 0,
    "description": "Successfully complete Chapter 1 with 4 players",
    "icon": "https://steamcdn-a.akamaihd.net/steamcommunity/public/images/apps/247910/131625dcf0e0d5bfa44ff6103bf67a952c9bdf40.jpg",
    "icongray": "https://steamcdn-a.akamaihd.net/steamcommunity/public/images/apps/247910/48f692c71fa06934e6e1074f4bebb4f8788973e4.jpg"
  },
  {
    "name": "ACHIEVEMENT_CH2_4_PLAYERS",
    "defaultvalue": 0,
    "displayName": "Into the fire",
    "hidden": 0,
    "description": "Successfully complete Chapter 2 with 4 players",
    "icon": "https://steamcdn-a.akamaihd.net/steamcommunity/public/images/apps/247910/2387f6f2a54927a6cbe1f991701cad924bf468f8.jpg",
    "icongray": "https://steamcdn-a.akamaihd.net/steamcommunity/public/images/apps/247910/2cc5161da252246922405b3e8927f5ba2c38eb8d.jpg"
  },
  {
    "name": "ACHIEVEMENT_CH3_4_PLAYERS",
    "defaultvalue": 0,
    "displayName": "Descent into hell",
    "hidden": 0,
    "description": "Successfully complete Chapter 3 with 4 players",
    "icon": "https://steamcdn-a.akamaihd.net/steamcommunity/public/images/apps/247910/eee97410ed8703f7b0c1286d92c90b10d76cce79.jpg",
    "icongray": "https://steamcdn-a.akamaihd.net/steamcommunity/public/images/apps/247910/967a1c8026ceda4c106c40555c04fcc627cadc74.jpg"
  },
  {
    "name": "ACHIEVEMENT_CH4_4_PLAYERS",
    "defaultvalue": 0,
    "displayName": "This is going to be a bumpy ride",
    "hidden": 0,
    "description": "Successfully complete Chapter 4 with 4 players",
    "icon": "https://steamcdn-a.akamaihd.net/steamcommunity/public/images/apps/247910/cb7c6d59fa87afa4e666d83812a9805c4d3d681e.jpg",
    "icongray": "https://steamcdn-a.akamaihd.net/steamcommunity/public/images/apps/247910/c39a268698eb2b836b702336af1a0234f63d5c33.jpg"
  },
  {
    "name": "ACHIEVEMENT_CH5_4_PLAYERS",
    "defaultvalue": 0,
    "displayName": "Code Red",
    "hidden": 0,
    "description": "Successfully complete Chapter 5 with 4 players",
    "icon": "https://steamcdn-a.akamaihd.net/steamcommunity/public/images/apps/247910/5afa9677466505882394004562ff9deb753b5f84.jpg",
    "icongray": "https://steamcdn-a.akamaihd.net/steamcommunity/public/images/apps/247910/e7ac8e42a4e435a44ec5bffb09d80d0057895e46.jpg"
  },
  {
    "name": "ACHIEVEMENT_ALL_CHAPTERS_ELITE_4_PLAYERS",
    "defaultvalue": 0,
    "displayName": "This calls for divine intervention!",
    "hidden": 0,
    "description": "Successfully complete All Chapters 4 players on Elite Difficulty",
    "icon": "https://steamcdn-a.akamaihd.net/steamcommunity/public/images/apps/247910/aeaab8522aa1299b0a78a422444fb35efaaee0af.jpg",
    "icongray": "https://steamcdn-a.akamaihd.net/steamcommunity/public/images/apps/247910/c01305250a691ff8b659fe37d887be1b89ab73a1.jpg"
  },
  {
    "name": "ACHIEVEMENT_10X_EXPLOSIVE_KILL",
    "defaultvalue": 0,
    "displayName": "Somebody's got to survive!",
    "hidden": 0,
    "description": "Get at least 10 for 1 explosive kill in 4 player co-op",
    "icon": "https://steamcdn-a.akamaihd.net/steamcommunity/public/images/apps/247910/67139a3f1927890cc2941262220c1cf30084c248.jpg",
    "icongray": "https://steamcdn-a.akamaihd.net/steamcommunity/public/images/apps/247910/6cd9a12d17767678063b044d23328ab8faf8aea2.jpg"
  },
  {
    "name": "ACHIEVEMENT_15X_EXPLOSIVE_KILL",
    "defaultvalue": 0,
    "displayName": "I'm gonna eat your brains and gain your knowledge",
    "hidden": 0,
    "description": "Get at least 15 for 1 explosive kill in 4 player co-op",
    "icon": "https://steamcdn-a.akamaihd.net/steamcommunity/public/images/apps/247910/1f7c27ca732978c94f5ad46d5d94f8f1ec0d2665.jpg",
    "icongray": "https://steamcdn-a.akamaihd.net/steamcommunity/public/images/apps/247910/1656e1493e472191ada86bc7235d2d95ed42335c.jpg"
  },
  {
    "name": "ACHIEVEMENT_20X_EXPLOSIVE_KILL",
    "defaultvalue": 0,
    "displayName": "Come and get it! It's a running buffet!",
    "hidden": 0,
    "description": "Get at least 20 for 1 explosive kill in 4 player co-op",
    "icon": "https://steamcdn-a.akamaihd.net/steamcommunity/public/images/apps/247910/0e07cea0436efed2d511fcc55467f7f0047745f2.jpg",
    "icongray": "https://steamcdn-a.akamaihd.net/steamcommunity/public/images/apps/247910/8e67558c60cc69fe08c9fd5794ac342203456b62.jpg"
  },
  {
    "name": "ACHIEVEMENT_50_KICK_DOWNS",
    "defaultvalue": 0,
    "displayName": "They just keep going...going.",
    "hidden": 0,
    "description": "Kick 50 enemies down in co-op",
    "icon": "https://steamcdn-a.akamaihd.net/steamcommunity/public/images/apps/247910/0400792009a99784b7572a51e2fdc7e26e87decb.jpg",
    "icongray": "https://steamcdn-a.akamaihd.net/steamcommunity/public/images/apps/247910/46a05ccca1f7ccf3804ba66304141837e4c07668.jpg"
  },
  {
    "name": "ACHIEVEMENT_KILL_20_SNIPERS",
    "defaultvalue": 0,
    "displayName": "I'm running this monkey farm now",
    "hidden": 0,
    "description": "Kill 20 Snipers in co-op",
    "icon": "https://steamcdn-a.akamaihd.net/steamcommunity/public/images/apps/247910/f65d3465aa063e04a4af19add5c67d3f3d1844ec.jpg",
    "icongray": "https://steamcdn-a.akamaihd.net/steamcommunity/public/images/apps/247910/e1227234ed6b335a5b0378f064a61c90b9e30a5b.jpg"
  },
  {
    "name": "ACHIEVEMENT_KILL_100_GRUNTS",
    "defaultvalue": 0,
    "displayName": "There's too many of them!",
    "hidden": 0,
    "description": "Kill 2000 enemy grunts in co-op",
    "icon": "https://steamcdn-a.akamaihd.net/steamcommunity/public/images/apps/247910/397419edca249aa93cade060f7a3b8bb50dee7d1.jpg",
    "icongray": "https://steamcdn-a.akamaihd.net/steamcommunity/public/images/apps/247910/6fb6cd16a7cb88e549e8ddd0ad9f5a5492276c7f.jpg"
  },
  {
    "name": "ACHIEVEMENT_KILL_20_ELITES",
    "defaultvalue": 0,
    "displayName": "Zombie Kill of the Week",
    "hidden": 0,
    "description": "Kill 20 Elites in co-op",
    "icon": "https://steamcdn-a.akamaihd.net/steamcommunity/public/images/apps/247910/8becc3bba4ba71210bd19a662de38d2433179003.jpg",
    "icongray": "https://steamcdn-a.akamaihd.net/steamcommunity/public/images/apps/247910/facb898c081c31f1ff860b031d6e73eb45ee6701.jpg"
  },
  {
    "name": "ACHIEVEMENT_ALL_GOLD_BARS",
    "defaultvalue": 0,
    "displayName": "Just in case we make it",
    "hidden": 0,
    "description": "Collect all Gold Bars",
    "icon": "https://steamcdn-a.akamaihd.net/steamcommunity/public/images/apps/247910/8a78612c11c43705d265dbfd1efcd86060aa525c.jpg",
    "icongray": "https://steamcdn-a.akamaihd.net/steamcommunity/public/images/apps/247910/72b1dd087cd38dd13b8989feeb15f09c48ab3a53.jpg"
  },
  {
    "name": "ACHIEVEMENT_ALL_BOTTLES",
    "defaultvalue": 0,
    "displayName": "They must be destroyed on sight!",
    "hidden": 0,
    "description": "Find and shoot all the bottles of blood",
    "icon": "https://steamcdn-a.akamaihd.net/steamcommunity/public/images/apps/247910/eaad263f113a9fa126b9ab02fa632bea92d57716.jpg",
    "icongray": "https://steamcdn-a.akamaihd.net/steamcommunity/public/images/apps/247910/0e3272ca05700ef959c8cab74910fe77f508eb78.jpg"
  },
  {
    "name": "ACHIEVEMENT_KILL_FIRE_DEMON",
    "defaultvalue": 0,
    "displayName": "Fire extinguisher",
    "hidden": 0,
    "description": "Defeat a Fire Demon",
    "icon": "https://steamcdn-a.akamaihd.net/steamcommunity/public/images/apps/247910/7c81232fe7370329004402c452b857a6114a88dc.jpg",
    "icongray": "https://steamcdn-a.akamaihd.net/steamcommunity/public/images/apps/247910/22127db3b6d0a387f17939115b1aaa31789dd0f5.jpg"
  },
  {
    "name": "ACHIEVEMENT_KILL_FIRE_ZOMBIES",
    "defaultvalue": 0,
    "displayName": "Snuff them out",
    "hidden": 0,
    "description": "Defeat 100 ignited zombies",
    "icon": "https://steamcdn-a.akamaihd.net/steamcommunity/public/images/apps/247910/00b537d6cee7cc6bef5d544630f1f8bc1cbdf7b3.jpg",
    "icongray": "https://steamcdn-a.akamaihd.net/steamcommunity/public/images/apps/247910/cde0e043bab2f9a437d7c51dcb4b23d793ba5039.jpg"
  },
  {
    "name": "ACHIEVEMENT_KILL_SUMMONERS",
    "defaultvalue": 0,
    "displayName": "Psychic silencer",
    "hidden": 0,
    "description": "Defeat 20 Summoners",
    "icon": "https://steamcdn-a.akamaihd.net/steamcommunity/public/images/apps/247910/346d7864c130deb1da28f50a7eaa5f7a9107e3cc.jpg",
    "icongray": "https://steamcdn-a.akamaihd.net/steamcommunity/public/images/apps/247910/89a4553b0358f44702260996f13d0c01f6ccd303.jpg"
  },
  {
    "name": "ACHIEVEMENT_KILL_FIRE_DEMONS",
    "defaultvalue": 0,
    "displayName": "Fire engine",
    "hidden": 0,
    "description": "Defeat 10 Fire Demons",
    "icon": "https://steamcdn-a.akamaihd.net/steamcommunity/public/images/apps/247910/53584965d956f4e9f66c8ed717cd825781ce186f.jpg",
    "icongray": "https://steamcdn-a.akamaihd.net/steamcommunity/public/images/apps/247910/f4e242df8e230b34c29c3d4e6fca11f428ec6877.jpg"
  },
  {
    "name": "ACHIEVEMENT_SEARCH_ELITE",
    "defaultvalue": 0,
    "displayName": "Elite pickpocket",
    "hidden": 0,
    "description": "Loot an Elite's corpse",
    "icon": "https://steamcdn-a.akamaihd.net/steamcommunity/public/images/apps/247910/5f8c0920707c1391829a9f1cd516a3df96514083.jpg",
    "icongray": "https://steamcdn-a.akamaihd.net/steamcommunity/public/images/apps/247910/12d1bcb1ff0074f8fc7132051a34d43bb9a29f24.jpg"
  },
  {
    "name": "ACHIEVEMENT_POSSESSED",
    "defaultvalue": 0,
    "displayName": "Nine tenths of the law",
    "hidden": 0,
    "description": "Become possessed",
    "icon": "https://steamcdn-a.akamaihd.net/steamcommunity/public/images/apps/247910/f346599380f43ab18c7277abc36cc17e532dbe0c.jpg",
    "icongray": "https://steamcdn-a.akamaihd.net/steamcommunity/public/images/apps/247910/860e591a395b1f9f3ed86179ed388fb98ffb3322.jpg"
  },
  {
    "name": "ACHIEVEMENT_PHONE",
    "defaultvalue": 0,
    "displayName": "Answer the Devil's call",
    "hidden": 0,
    "description": "Pick up a phone",
    "icon": "https://steamcdn-a.akamaihd.net/steamcommunity/public/images/apps/247910/f6c42aa166f3b652ae6d4b62183ceceaf66522e2.jpg",
    "icongray": "https://steamcdn-a.akamaihd.net/steamcommunity/public/images/apps/247910/6426c272a6f5da5d4b4f9a8b090bd18f216cd461.jpg"
  },
  {
    "name": "ACHIEVEMENT_KILL_TRAPPED_ELITE",
    "defaultvalue": 0,
    "displayName": "Look, he's a twitcher",
    "hidden": 0,
    "description": "Kill the trapped Elite",
    "icon": "https://steamcdn-a.akamaihd.net/steamcommunity/public/images/apps/247910/82a4df1d9c0b274def3d16ab1fa6e98f5faaa96b.jpg",
    "icongray": "https://steamcdn-a.akamaihd.net/steamcommunity/public/images/apps/247910/542c3469b357858de5215ef2ee04864ba2badebd.jpg"
  },
  {
    "name": "ACHIEVEMENT_HEADSHOTS",
    "defaultvalue": 0,
    "displayName": "Right in the face",
    "hidden": 0,
    "description": "Defeat 500 enemies with headshots",
    "icon": "https://steamcdn-a.akamaihd.net/steamcommunity/public/images/apps/247910/7a4efab40014de818e540f64e39c12761dd22351.jpg",
    "icongray": "https://steamcdn-a.akamaihd.net/steamcommunity/public/images/apps/247910/bc29ca4f987a75b8facc6e2ad6e51f3c7283deeb.jpg"
  },
  {
    "name": "ACHIEVEMENT_MULTI_SNIPE",
    "defaultvalue": 0,
    "displayName": "Every bullet counts",
    "hidden": 0,
    "description": "Get a 5-for-1 kill with any sniper rifle",
    "icon": "https://steamcdn-a.akamaihd.net/steamcommunity/public/images/apps/247910/2dda1655cfd34947acdc244d798f8160b0e11c46.jpg",
    "icongray": "https://steamcdn-a.akamaihd.net/steamcommunity/public/images/apps/247910/b652dcf2ae04af3d422f7a8dae41302da7e68b9d.jpg"
  },
  {
    "name": "ACHIEVEMENT_OWNS_TWO",
    "defaultvalue": 0,
    "displayName": "Have you come in contact with...the infected?",
    "hidden": 0,
    "description": "Own 2 Nazi Zombie Army games",
    "icon": "https://steamcdn-a.akamaihd.net/steamcommunity/public/images/apps/247910/ab157596e8ec11dced8947844b538393decd1773.jpg",
    "icongray": "https://steamcdn-a.akamaihd.net/steamcommunity/public/images/apps/247910/2727d701e56bab753a143579d6b74ae9bc2ad213.jpg"
  }
]