{
  "Dlcs": {},
  "Name": "War Yards",
  "AppId": "965630",
  "ImageUrl": "https://steamcdn-a.akamaihd.net/steam/apps/965630/header.jpg?t=1600661438",
  "Languages": [
    "english"
  ],
  "Platforms": {
    "windows": true,
    "mac": false,
    "linux": false
  }
}