[
  {
    "name": "OPENING",
    "defaultvalue": 0,
    "displayName": "A Pruning in the Park ",
    "hidden": 0,
    "description": "Completed the first dungeon.",
    "icon": "https://steamcdn-a.akamaihd.net/steamcommunity/public/images/apps/1328910/45c6d050d2a5b35c64a8a2a2134f50b71f2de40a.jpg",
    "icongray": "https://steamcdn-a.akamaihd.net/steamcommunity/public/images/apps/1328910/9d4d1c90aebcb7221cd2e408dcd46db4110f1d5e.jpg"
  },
  {
    "name": "ENDING",
    "defaultvalue": 0,
    "displayName": "Ending Her Pain",
    "hidden": 0,
    "description": "Beat the game.",
    "icon": "https://steamcdn-a.akamaihd.net/steamcommunity/public/images/apps/1328910/45c6d050d2a5b35c64a8a2a2134f50b71f2de40a.jpg",
    "icongray": "https://steamcdn-a.akamaihd.net/steamcommunity/public/images/apps/1328910/a3f50aec856834eafd7164fa00f306e1d64b1673.jpg"
  },
  {
    "name": "ENEMIES_1",
    "defaultvalue": 0,
    "displayName": "Rookie Exorcist",
    "hidden": 0,
    "description": "Defeated 30 enemies.",
    "icon": "https://steamcdn-a.akamaihd.net/steamcommunity/public/images/apps/1328910/cdfa754e307ee4b391bb67d91d3ac45d3b14ac46.jpg",
    "icongray": "https://steamcdn-a.akamaihd.net/steamcommunity/public/images/apps/1328910/9d4d1c90aebcb7221cd2e408dcd46db4110f1d5e.jpg"
  },
  {
    "name": "ENEMIES_2",
    "defaultvalue": 0,
    "displayName": "Skilled Exorcist",
    "hidden": 0,
    "description": "Defeated 60 enemies.",
    "icon": "https://steamcdn-a.akamaihd.net/steamcommunity/public/images/apps/1328910/45c6d050d2a5b35c64a8a2a2134f50b71f2de40a.jpg",
    "icongray": "https://steamcdn-a.akamaihd.net/steamcommunity/public/images/apps/1328910/a3f50aec856834eafd7164fa00f306e1d64b1673.jpg"
  },
  {
    "name": "ENEMIES_3",
    "defaultvalue": 0,
    "displayName": "Veteran Exorcist",
    "hidden": 0,
    "description": "Defeated 90 enemies.",
    "icon": "https://steamcdn-a.akamaihd.net/steamcommunity/public/images/apps/1328910/cdfa754e307ee4b391bb67d91d3ac45d3b14ac46.jpg",
    "icongray": "https://steamcdn-a.akamaihd.net/steamcommunity/public/images/apps/1328910/9d4d1c90aebcb7221cd2e408dcd46db4110f1d5e.jpg"
  },
  {
    "name": "ENEMIES_4",
    "defaultvalue": 0,
    "displayName": "Ace Exorcist",
    "hidden": 0,
    "description": "Defeated 120 enemies.",
    "icon": "https://steamcdn-a.akamaihd.net/steamcommunity/public/images/apps/1328910/cdfa754e307ee4b391bb67d91d3ac45d3b14ac46.jpg",
    "icongray": "https://steamcdn-a.akamaihd.net/steamcommunity/public/images/apps/1328910/a3f50aec856834eafd7164fa00f306e1d64b1673.jpg"
  },
  {
    "name": "ENEMIES_5",
    "defaultvalue": 0,
    "displayName": "Exorcist of Voracites' Bane",
    "hidden": 0,
    "description": "Defeated 150 enemies.",
    "icon": "https://steamcdn-a.akamaihd.net/steamcommunity/public/images/apps/1328910/45c6d050d2a5b35c64a8a2a2134f50b71f2de40a.jpg",
    "icongray": "https://steamcdn-a.akamaihd.net/steamcommunity/public/images/apps/1328910/9d4d1c90aebcb7221cd2e408dcd46db4110f1d5e.jpg"
  },
  {
    "name": "BOSS_1",
    "defaultvalue": 0,
    "displayName": "Weeding Out Evil",
    "hidden": 0,
    "description": "Defeated the Park Nest Boss.",
    "icon": "https://steamcdn-a.akamaihd.net/steamcommunity/public/images/apps/1328910/cdfa754e307ee4b391bb67d91d3ac45d3b14ac46.jpg",
    "icongray": "https://steamcdn-a.akamaihd.net/steamcommunity/public/images/apps/1328910/9d4d1c90aebcb7221cd2e408dcd46db4110f1d5e.jpg"
  },
  {
    "name": "BOSS_2",
    "defaultvalue": 0,
    "displayName": "Hyp-No-More",
    "hidden": 0,
    "description": "Defeated the City Library Boss.",
    "icon": "https://steamcdn-a.akamaihd.net/steamcommunity/public/images/apps/1328910/cdfa754e307ee4b391bb67d91d3ac45d3b14ac46.jpg",
    "icongray": "https://steamcdn-a.akamaihd.net/steamcommunity/public/images/apps/1328910/a3f50aec856834eafd7164fa00f306e1d64b1673.jpg"
  },
  {
    "name": "BOSS_3",
    "defaultvalue": 0,
    "displayName": "Strawberry Jelly Panic",
    "hidden": 0,
    "description": "Defeated the Beach Nest Boss.",
    "icon": "https://steamcdn-a.akamaihd.net/steamcommunity/public/images/apps/1328910/45c6d050d2a5b35c64a8a2a2134f50b71f2de40a.jpg",
    "icongray": "https://steamcdn-a.akamaihd.net/steamcommunity/public/images/apps/1328910/9d4d1c90aebcb7221cd2e408dcd46db4110f1d5e.jpg"
  },
  {
    "name": "BOSS_4",
    "defaultvalue": 0,
    "displayName": "A Different Goblin Slayer",
    "hidden": 0,
    "description": "Defeated the Abandoned Building Nest Boss.",
    "icon": "https://steamcdn-a.akamaihd.net/steamcommunity/public/images/apps/1328910/cdfa754e307ee4b391bb67d91d3ac45d3b14ac46.jpg",
    "icongray": "https://steamcdn-a.akamaihd.net/steamcommunity/public/images/apps/1328910/9d4d1c90aebcb7221cd2e408dcd46db4110f1d5e.jpg"
  },
  {
    "name": "BOSS_5",
    "defaultvalue": 0,
    "displayName": "Sister Gonna Steal My Kill",
    "hidden": 0,
    "description": "Saw the Apartments Nest Boss being defeated.",
    "icon": "https://steamcdn-a.akamaihd.net/steamcommunity/public/images/apps/1328910/45c6d050d2a5b35c64a8a2a2134f50b71f2de40a.jpg",
    "icongray": "https://steamcdn-a.akamaihd.net/steamcommunity/public/images/apps/1328910/9d4d1c90aebcb7221cd2e408dcd46db4110f1d5e.jpg"
  },
  {
    "name": "BOSS_6",
    "defaultvalue": 0,
    "displayName": "Voracite Vengeance",
    "hidden": 0,
    "description": "Defeated the Takemaru Laboratory Nest Boss.",
    "icon": "https://steamcdn-a.akamaihd.net/steamcommunity/public/images/apps/1328910/cdfa754e307ee4b391bb67d91d3ac45d3b14ac46.jpg",
    "icongray": "https://steamcdn-a.akamaihd.net/steamcommunity/public/images/apps/1328910/a3f50aec856834eafd7164fa00f306e1d64b1673.jpg"
  },
  {
    "name": "BOSS_7",
    "defaultvalue": 0,
    "displayName": "A Peaceful Place",
    "hidden": 0,
    "description": "Defeated the Kureha Mountain Nest Boss.",
    "icon": "https://steamcdn-a.akamaihd.net/steamcommunity/public/images/apps/1328910/45c6d050d2a5b35c64a8a2a2134f50b71f2de40a.jpg",
    "icongray": "https://steamcdn-a.akamaihd.net/steamcommunity/public/images/apps/1328910/9d4d1c90aebcb7221cd2e408dcd46db4110f1d5e.jpg"
  },
  {
    "name": "BOSS_8",
    "defaultvalue": 0,
    "displayName": "Three Eyes, Zero Brains",
    "hidden": 0,
    "description": "Defeated the Himori Mine Boss.",
    "icon": "https://steamcdn-a.akamaihd.net/steamcommunity/public/images/apps/1328910/45c6d050d2a5b35c64a8a2a2134f50b71f2de40a.jpg",
    "icongray": "https://steamcdn-a.akamaihd.net/steamcommunity/public/images/apps/1328910/a3f50aec856834eafd7164fa00f306e1d64b1673.jpg"
  },
  {
    "name": "BOSS_9",
    "defaultvalue": 0,
    "displayName": "Every Rose Has Its Thorn",
    "hidden": 0,
    "description": "Defeated Youma Roselia.",
    "icon": "https://steamcdn-a.akamaihd.net/steamcommunity/public/images/apps/1328910/cdfa754e307ee4b391bb67d91d3ac45d3b14ac46.jpg",
    "icongray": "https://steamcdn-a.akamaihd.net/steamcommunity/public/images/apps/1328910/a3f50aec856834eafd7164fa00f306e1d64b1673.jpg"
  },
  {
    "name": "BOSS_10",
    "defaultvalue": 0,
    "displayName": "Experimenting With Exorcism",
    "hidden": 0,
    "description": "Defeated the Cultists in the Sacrificial Room.",
    "icon": "https://steamcdn-a.akamaihd.net/steamcommunity/public/images/apps/1328910/45c6d050d2a5b35c64a8a2a2134f50b71f2de40a.jpg",
    "icongray": "https://steamcdn-a.akamaihd.net/steamcommunity/public/images/apps/1328910/9d4d1c90aebcb7221cd2e408dcd46db4110f1d5e.jpg"
  },
  {
    "name": "BOSS_11",
    "defaultvalue": 0,
    "displayName": "Kitty With a Litter of...",
    "hidden": 0,
    "description": "Defeated the Trash Mountain Boss.",
    "icon": "https://steamcdn-a.akamaihd.net/steamcommunity/public/images/apps/1328910/45c6d050d2a5b35c64a8a2a2134f50b71f2de40a.jpg",
    "icongray": "https://steamcdn-a.akamaihd.net/steamcommunity/public/images/apps/1328910/a3f50aec856834eafd7164fa00f306e1d64b1673.jpg"
  },
  {
    "name": "BOSS_12",
    "defaultvalue": 0,
    "displayName": "Purple Amanitas",
    "hidden": 0,
    "description": "Defeated the Mushroom Mountain Boss.",
    "icon": "https://steamcdn-a.akamaihd.net/steamcommunity/public/images/apps/1328910/45c6d050d2a5b35c64a8a2a2134f50b71f2de40a.jpg",
    "icongray": "https://steamcdn-a.akamaihd.net/steamcommunity/public/images/apps/1328910/9d4d1c90aebcb7221cd2e408dcd46db4110f1d5e.jpg"
  },
  {
    "name": "BOSS_13",
    "defaultvalue": 0,
    "displayName": "Let's Pound Some Beef!",
    "hidden": 0,
    "description": "Defeated the Takemaru Building Boss.",
    "icon": "https://steamcdn-a.akamaihd.net/steamcommunity/public/images/apps/1328910/45c6d050d2a5b35c64a8a2a2134f50b71f2de40a.jpg",
    "icongray": "https://steamcdn-a.akamaihd.net/steamcommunity/public/images/apps/1328910/9d4d1c90aebcb7221cd2e408dcd46db4110f1d5e.jpg"
  },
  {
    "name": "BOSS_14",
    "defaultvalue": 0,
    "displayName": "For the World and You!",
    "hidden": 0,
    "description": "Defeated the final boss.",
    "icon": "https://steamcdn-a.akamaihd.net/steamcommunity/public/images/apps/1328910/45c6d050d2a5b35c64a8a2a2134f50b71f2de40a.jpg",
    "icongray": "https://steamcdn-a.akamaihd.net/steamcommunity/public/images/apps/1328910/9d4d1c90aebcb7221cd2e408dcd46db4110f1d5e.jpg"
  },
  {
    "name": "OTOME_1",
    "defaultvalue": 0,
    "displayName": "Will This Pain Go Away...?",
    "hidden": 0,
    "description": "Relaxed in the shower after a long day.",
    "icon": "https://steamcdn-a.akamaihd.net/steamcommunity/public/images/apps/1328910/cdfa754e307ee4b391bb67d91d3ac45d3b14ac46.jpg",
    "icongray": "https://steamcdn-a.akamaihd.net/steamcommunity/public/images/apps/1328910/9d4d1c90aebcb7221cd2e408dcd46db4110f1d5e.jpg"
  },
  {
    "name": "OTOME_2",
    "defaultvalue": 0,
    "displayName": "Is This a Bakery?",
    "hidden": 0,
    "description": "Provided some hot buns to someone who needed them.",
    "icon": "https://steamcdn-a.akamaihd.net/steamcommunity/public/images/apps/1328910/45c6d050d2a5b35c64a8a2a2134f50b71f2de40a.jpg",
    "icongray": "https://steamcdn-a.akamaihd.net/steamcommunity/public/images/apps/1328910/9d4d1c90aebcb7221cd2e408dcd46db4110f1d5e.jpg"
  },
  {
    "name": "OTOME_3",
    "defaultvalue": 0,
    "displayName": "Performing My Duty",
    "hidden": 0,
    "description": "Did what was expected of you.",
    "icon": "https://steamcdn-a.akamaihd.net/steamcommunity/public/images/apps/1328910/cdfa754e307ee4b391bb67d91d3ac45d3b14ac46.jpg",
    "icongray": "https://steamcdn-a.akamaihd.net/steamcommunity/public/images/apps/1328910/9d4d1c90aebcb7221cd2e408dcd46db4110f1d5e.jpg"
  },
  {
    "name": "OTOME_4",
    "defaultvalue": 0,
    "displayName": "Water Strike",
    "hidden": 0,
    "description": "Visited the beach and met an acquaintance.",
    "icon": "https://steamcdn-a.akamaihd.net/steamcommunity/public/images/apps/1328910/cdfa754e307ee4b391bb67d91d3ac45d3b14ac46.jpg",
    "icongray": "https://steamcdn-a.akamaihd.net/steamcommunity/public/images/apps/1328910/a3f50aec856834eafd7164fa00f306e1d64b1673.jpg"
  },
  {
    "name": "OTOME_5",
    "defaultvalue": 0,
    "displayName": "A Beautiful View",
    "hidden": 0,
    "description": "Thought about what has happened while on the roof.",
    "icon": "https://steamcdn-a.akamaihd.net/steamcommunity/public/images/apps/1328910/45c6d050d2a5b35c64a8a2a2134f50b71f2de40a.jpg",
    "icongray": "https://steamcdn-a.akamaihd.net/steamcommunity/public/images/apps/1328910/9d4d1c90aebcb7221cd2e408dcd46db4110f1d5e.jpg"
  },
  {
    "name": "MEI_1",
    "defaultvalue": 0,
    "displayName": "The Park Is a Great Place",
    "hidden": 0,
    "description": "Saw Mei having fun at the park.",
    "icon": "https://steamcdn-a.akamaihd.net/steamcommunity/public/images/apps/1328910/45c6d050d2a5b35c64a8a2a2134f50b71f2de40a.jpg",
    "icongray": "https://steamcdn-a.akamaihd.net/steamcommunity/public/images/apps/1328910/a3f50aec856834eafd7164fa00f306e1d64b1673.jpg"
  },
  {
    "name": "MEI_2",
    "defaultvalue": 0,
    "displayName": "They Mei Have Made a Mistake",
    "hidden": 0,
    "description": "Saw Mei killing time.",
    "icon": "https://steamcdn-a.akamaihd.net/steamcommunity/public/images/apps/1328910/cdfa754e307ee4b391bb67d91d3ac45d3b14ac46.jpg",
    "icongray": "https://steamcdn-a.akamaihd.net/steamcommunity/public/images/apps/1328910/a3f50aec856834eafd7164fa00f306e1d64b1673.jpg"
  },
  {
    "name": "NANAKO_1",
    "defaultvalue": 0,
    "displayName": "Energized Once Again",
    "hidden": 0,
    "description": "Saw Nanako gain Animus.",
    "icon": "https://steamcdn-a.akamaihd.net/steamcommunity/public/images/apps/1328910/45c6d050d2a5b35c64a8a2a2134f50b71f2de40a.jpg",
    "icongray": "https://steamcdn-a.akamaihd.net/steamcommunity/public/images/apps/1328910/9d4d1c90aebcb7221cd2e408dcd46db4110f1d5e.jpg"
  },
  {
    "name": "CAPS_1",
    "defaultvalue": 0,
    "displayName": "Just Like My Anime",
    "hidden": 0,
    "description": "Saw Caps's manager preaching to her.",
    "icon": "https://steamcdn-a.akamaihd.net/steamcommunity/public/images/apps/1328910/45c6d050d2a5b35c64a8a2a2134f50b71f2de40a.jpg",
    "icongray": "https://steamcdn-a.akamaihd.net/steamcommunity/public/images/apps/1328910/a3f50aec856834eafd7164fa00f306e1d64b1673.jpg"
  },
  {
    "name": "LEONE_1",
    "defaultvalue": 0,
    "displayName": "True Ramen-Lover",
    "hidden": 0,
    "description": "Saw how much Leone loves her ramen.",
    "icon": "https://steamcdn-a.akamaihd.net/steamcommunity/public/images/apps/1328910/45c6d050d2a5b35c64a8a2a2134f50b71f2de40a.jpg",
    "icongray": "https://steamcdn-a.akamaihd.net/steamcommunity/public/images/apps/1328910/9d4d1c90aebcb7221cd2e408dcd46db4110f1d5e.jpg"
  }
]