{
  "Dlcs": {},
  "Name": "Gunspell - Steam Edition",
  "AppId": "328100",
  "ImageUrl": "https://steamcdn-a.akamaihd.net/steam/apps/328100/header.jpg?t=1579181807",
  "Languages": [
    "english",
    "french",
    "german",
    "spanish",
    "russian"
  ],
  "Platforms": {
    "windows": true,
    "mac": true,
    "linux": true
  }
}