﻿[
  {
    "name": "GIM_NEW_WEAP",
    "defaultvalue": 0,
    "displayName": "Instrument",
    "hidden": 0,
    "description": "Equip a new weapon",
    "icon": "https://steamcdn-a.akamaihd.net/steamcommunity/public/images/apps/207750/00013b0da9de52df0e61ef245221242cb1261d83.jpg",
    "icongray": "https://steamcdn-a.akamaihd.net/steamcommunity/public/images/apps/207750/2ff384c84af8b33c905fdb9e95bc5f2aaccc437b.jpg"
  },
  {
    "name": "GIM_REACH_SC_TAR",
    "defaultvalue": 0,
    "displayName": "Audition",
    "hidden": 0,
    "description": "Reach a score target",
    "icon": "https://steamcdn-a.akamaihd.net/steamcommunity/public/images/apps/207750/c36c2ec5a3a84b008d92fc66237fe0e4bc40b04c.jpg",
    "icongray": "https://steamcdn-a.akamaihd.net/steamcommunity/public/images/apps/207750/5116ca9cca57723c2267669229b2ee4081dd56ad.jpg"
  },
  {
    "name": "GIM_DEF_FIR_BOSS",
    "defaultvalue": 0,
    "displayName": "Solo",
    "hidden": 0,
    "description": "Defeat the first boss",
    "icon": "https://steamcdn-a.akamaihd.net/steamcommunity/public/images/apps/207750/f87da5f8106011957eee9f3d78b218ea7b2f8e25.jpg",
    "icongray": "https://steamcdn-a.akamaihd.net/steamcommunity/public/images/apps/207750/bb0c95c242a0ab526f39057c5d6e7b508aca925c.jpg"
  },
  {
    "name": "REG_5X_CHAIN",
    "defaultvalue": 0,
    "displayName": "Quintet",
    "hidden": 0,
    "description": "\"A group containing five members\" - Perform a 5X chain",
    "icon": "https://steamcdn-a.akamaihd.net/steamcommunity/public/images/apps/207750/391367beb6cf29ad5581d3f75542ab850d7af617.jpg",
    "icongray": "https://steamcdn-a.akamaihd.net/steamcommunity/public/images/apps/207750/9c7d7fe37e0403450cb8c3205fd1de3ae493f323.jpg"
  },
  {
    "name": "REG_10X_CHAIN",
    "defaultvalue": 0,
    "displayName": "Ensemble",
    "hidden": 0,
    "description": "\"A group of people who perform instrumental or vocal music\" - Perform a 10X chain",
    "icon": "https://steamcdn-a.akamaihd.net/steamcommunity/public/images/apps/207750/f2304d512077ae31d905ba2abe5cb2b3b0a88964.jpg",
    "icongray": "https://steamcdn-a.akamaihd.net/steamcommunity/public/images/apps/207750/da2a4c1d59510a875e39b78fc4a6f8ac73bcdba4.jpg"
  },
  {
    "name": "REG_UN_MP_DIFF",
    "defaultvalue": 0,
    "displayName": " Niccolò Paganini: 24 Caprices for Solo Violin",
    "hidden": 0,
    "description": "Unlock Mezzo-piano difficulty",
    "icon": "https://steamcdn-a.akamaihd.net/steamcommunity/public/images/apps/207750/d367ae8895a2813bad10fa60da54ca9af03da320.jpg",
    "icongray": "https://steamcdn-a.akamaihd.net/steamcommunity/public/images/apps/207750/9e410664230d928b0fc8000ccf550ac61238e60a.jpg"
  },
  {
    "name": "REG_UN_MF_DIFF",
    "defaultvalue": 0,
    "displayName": "Beethoven: Sonata Op 106 \"Hammerklavier\"",
    "hidden": 0,
    "description": "Unlock Mezzo-forte difficulty",
    "icon": "https://steamcdn-a.akamaihd.net/steamcommunity/public/images/apps/207750/f60375e6683b677a94c747df963060581579c76b.jpg",
    "icongray": "https://steamcdn-a.akamaihd.net/steamcommunity/public/images/apps/207750/b14931f002cddc4fc89254e22d137aa0902ca140.jpg"
  },
  {
    "name": "REG_UN_F_DIFF",
    "defaultvalue": 0,
    "displayName": "Samuel Barber: Cello Concerto in A minor (Op. 22)",
    "hidden": 0,
    "description": "Unlock Forte difficulty",
    "icon": "https://steamcdn-a.akamaihd.net/steamcommunity/public/images/apps/207750/805376c8942840c0bfe5b0b7dfa0c46cd7ca174b.jpg",
    "icongray": "https://steamcdn-a.akamaihd.net/steamcommunity/public/images/apps/207750/36fe16379e218a6f4541d79028dbe668fdc11cfb.jpg"
  },
  {
    "name": "REG_UN_FF_DIFF",
    "defaultvalue": 0,
    "displayName": "György Ligeti: Étude Nr. 1 \"Désordre\"",
    "hidden": 0,
    "description": "Unlock Fortissimo difficulty",
    "icon": "https://steamcdn-a.akamaihd.net/steamcommunity/public/images/apps/207750/213c7446ea9e9ac733e9a97fa837e013e61b4463.jpg",
    "icongray": "https://steamcdn-a.akamaihd.net/steamcommunity/public/images/apps/207750/2b838d7a602c681b6275ccd4e2339c4132d821d9.jpg"
  },
  {
    "name": "REG_4BRON_10",
    "defaultvalue": 0,
    "displayName": "Concertmaster",
    "hidden": 0,
    "description": "\"Leader of the first violin section\" - Reach the 4-bronze star rating on 10 songs",
    "icon": "https://steamcdn-a.akamaihd.net/steamcommunity/public/images/apps/207750/205c117c24f7cfc659d78b6a4630699abd219cbf.jpg",
    "icongray": "https://steamcdn-a.akamaihd.net/steamcommunity/public/images/apps/207750/ba167c3d79eca87473a3645dca018e1a59701d50.jpg"
  },
  {
    "name": "REG_4SILV_10",
    "defaultvalue": 0,
    "displayName": "Conductor",
    "hidden": 0,
    "description": "\"Leads a musical ensemble by way of visible gestures\" - Reach the 4-Silver star rating on 10 songs",
    "icon": "https://steamcdn-a.akamaihd.net/steamcommunity/public/images/apps/207750/35e025d0037f8a02c3e1c0a1ef2715223ffd9add.jpg",
    "icongray": "https://steamcdn-a.akamaihd.net/steamcommunity/public/images/apps/207750/1ab8d4e091e67bed1772308dcdd25e46af07bf7b.jpg"
  },
  {
    "name": "REG_4GOLD_10",
    "defaultvalue": 0,
    "displayName": "Maestro",
    "hidden": 0,
    "description": "\"A title of extreme respect given to a master musician\" - Reach the 4-gold star rating on 10 songs",
    "icon": "https://steamcdn-a.akamaihd.net/steamcommunity/public/images/apps/207750/5767e61f9cc2166055e0f37ab049e2b1cdfbee82.jpg",
    "icongray": "https://steamcdn-a.akamaihd.net/steamcommunity/public/images/apps/207750/a0d2e2471283ab4720c834ace369c00801694ae8.jpg"
  },
  {
    "name": "REG_FINISH_GAME",
    "defaultvalue": 0,
    "displayName": "Opus I",
    "hidden": 0,
    "description": "\"work\" or \"labour\"; a number generally assigned by composers to an individual composition or set of compositions on publication, to help identify their works - Finish the game",
    "icon": "https://steamcdn-a.akamaihd.net/steamcommunity/public/images/apps/207750/1cdc916663ff14c071a2e45a08859a2c9cfd6abd.jpg",
    "icongray": "https://steamcdn-a.akamaihd.net/steamcommunity/public/images/apps/207750/8c82a739af9d3d8cf37ca1a3617dfe342548b88a.jpg"
  },
  {
    "name": "REG_EQ_4_DIFF_W",
    "defaultvalue": 0,
    "displayName": "Orchestra",
    "hidden": 0,
    "description": "\"A large instrumental ensemble that contains sections of string, brass, woodwind, and percussion instruments\" - Equip 4 different weapons simultaneously",
    "icon": "https://steamcdn-a.akamaihd.net/steamcommunity/public/images/apps/207750/9cd00e39089ccc19af540348db24d4bcc71ae7bf.jpg",
    "icongray": "https://steamcdn-a.akamaihd.net/steamcommunity/public/images/apps/207750/f14f93c0f6c68c21baf43a48dfc6e8bc53b6d015.jpg"
  },
  {
    "name": "REG_UP_WEAP_LV5",
    "defaultvalue": 0,
    "displayName": "Made it to Carnegie Hall",
    "hidden": 0,
    "description": "Upgrade a weapon to level 5",
    "icon": "https://steamcdn-a.akamaihd.net/steamcommunity/public/images/apps/207750/4d061683d16b54af05623602ec18b3769eba64bd.jpg",
    "icongray": "https://steamcdn-a.akamaihd.net/steamcommunity/public/images/apps/207750/df2884b2e5c04d78c9925dc65c02d92388b6b6f2.jpg"
  },
  {
    "name": "REG_EQUIP_RARE_SONIC",
    "defaultvalue": 0,
    "displayName": "Staccato",
    "hidden": 0,
    "description": "\"A note of shortened duration separated from the note that may follow by silence\" - Find and equip the rare Sonic weapon",
    "icon": "https://steamcdn-a.akamaihd.net/steamcommunity/public/images/apps/207750/cac1da9f90d11de4d632b5a7bb820fce2357b199.jpg",
    "icongray": "https://steamcdn-a.akamaihd.net/steamcommunity/public/images/apps/207750/d414b2f3648f549d0672cdd86382a08295386235.jpg"
  },
  {
    "name": "REG_EQUIP_RARE_CHARGE",
    "defaultvalue": 0,
    "displayName": "Crescendo",
    "hidden": 0,
    "description": "\"A gradual increase in volume of a musical passage\" - Find and equip the rare Charging weapon",
    "icon": "https://steamcdn-a.akamaihd.net/steamcommunity/public/images/apps/207750/4d6319c6e6d8df46d00ad5acdf87a04ba5c85cc3.jpg",
    "icongray": "https://steamcdn-a.akamaihd.net/steamcommunity/public/images/apps/207750/bb8e7f679929c391e51be832d3a8adbaaba404cb.jpg"
  },
  {
    "name": "HARD_P_100_GT_30K",
    "defaultvalue": 0,
    "displayName": "Con Brio",
    "hidden": 0,
    "description": "\"With spirit / vigor\" - Get 100% completion and over 30,000 points at the Piano difficulty",
    "icon": "https://steamcdn-a.akamaihd.net/steamcommunity/public/images/apps/207750/dcad0240e0124df125081e5dafd211958e57503b.jpg",
    "icongray": "https://steamcdn-a.akamaihd.net/steamcommunity/public/images/apps/207750/b3c8f977a855c50e93344ec674164392125abd29.jpg"
  },
  {
    "name": "HARD_MF_100_GT_30K",
    "defaultvalue": 0,
    "displayName": "Bellicoso",
    "hidden": 0,
    "description": "\"Warlike, bellicose, belligerent or combative\" - Get 100% completion and over 30,000 points at the Mezzo-forte difficulty ",
    "icon": "https://steamcdn-a.akamaihd.net/steamcommunity/public/images/apps/207750/dd29abb75f7c61c4b872dc28e806d7adc7eceeb1.jpg",
    "icongray": "https://steamcdn-a.akamaihd.net/steamcommunity/public/images/apps/207750/976c3f536bd6a45b57bd7065f3c381224beb8e44.jpg"
  },
  {
    "name": "HARD_FF_100_GT_30K",
    "defaultvalue": 0,
    "displayName": "Col Pugno",
    "hidden": 0,
    "description": "\"Bang the piano with the fist\" - Get 100% completion and over 30,000 points at the Fortissimo difficulty",
    "icon": "https://steamcdn-a.akamaihd.net/steamcommunity/public/images/apps/207750/1bd85a2ac674c68f2555ca66f089e8d07b4f157d.jpg",
    "icongray": "https://steamcdn-a.akamaihd.net/steamcommunity/public/images/apps/207750/1d8f2e52aae0053b0bc4b23d3b8cf1470ca96fb1.jpg"
  },
  {
    "name": "HARD_P_NO_DEATH_30K",
    "defaultvalue": 0,
    "displayName": "Sostenuto",
    "hidden": 0,
    "description": "\"Sustained, lengthened\" - Reach 30,000 points and finish without dying at the Piano difficulty",
    "icon": "https://steamcdn-a.akamaihd.net/steamcommunity/public/images/apps/207750/438bc37ba67a35c2b7cc631cda4fab8e63d30c71.jpg",
    "icongray": "https://steamcdn-a.akamaihd.net/steamcommunity/public/images/apps/207750/5e848e86ca253ac1078b58e675cc3a95925cdecc.jpg"
  },
  {
    "name": "HARD_MF_NO_DEATH_30K",
    "defaultvalue": 0,
    "displayName": "Ostinato",
    "hidden": 0,
    "description": "\"Obstinate, persistent; a short musical pattern that is repeated throughout an entire composition\" - Reach 30,000 points and finish without dying at the Mezzo-forte difficulty",
    "icon": "https://steamcdn-a.akamaihd.net/steamcommunity/public/images/apps/207750/efe27db458759cc13f903a10ebc3f67fc33f8b5b.jpg",
    "icongray": "https://steamcdn-a.akamaihd.net/steamcommunity/public/images/apps/207750/98767977831c0e30c71301e892fcb9855ad96db4.jpg"
  },
  {
    "name": "HARD_FF_NO_DEATH_30K",
    "defaultvalue": 0,
    "displayName": "Sempre",
    "hidden": 0,
    "description": "\"Always\" - Reach 30,000 points and finish without dying at the Fortissimo difficulty",
    "icon": "https://steamcdn-a.akamaihd.net/steamcommunity/public/images/apps/207750/cc80786c5907f9e557b59e41988ac753fa017363.jpg",
    "icongray": "https://steamcdn-a.akamaihd.net/steamcommunity/public/images/apps/207750/a17875e17c63023871aa1ce3eaa065e3665dd17d.jpg"
  },
  {
    "name": "HARD_P_100_NO_DEATH_30K",
    "defaultvalue": 0,
    "displayName": "Acceso",
    "hidden": 0,
    "description": "\"Ignited / on fire\" - Perfect game (100% + no death) and over 30,000 points at the Piano difficulty",
    "icon": "https://steamcdn-a.akamaihd.net/steamcommunity/public/images/apps/207750/c31a822b5abe32b1c675948e20417b621605f479.jpg",
    "icongray": "https://steamcdn-a.akamaihd.net/steamcommunity/public/images/apps/207750/6898966e5cbde67970c470dc1e3dd5d312c9eba3.jpg"
  },
  {
    "name": "HARD_MF_100_NO_DEATH_30K",
    "defaultvalue": 0,
    "displayName": "Con Fuoco",
    "hidden": 0,
    "description": "\"With fire / in a fiery manner\" - Perfect game (100% + no death) and over 30,000 points at the Mezzo-forte difficulty",
    "icon": "https://steamcdn-a.akamaihd.net/steamcommunity/public/images/apps/207750/19380615cd12d1a13ca578b7727255827be9eacf.jpg",
    "icongray": "https://steamcdn-a.akamaihd.net/steamcommunity/public/images/apps/207750/e89b03841cacbe740c469d3818ca61b025acfaf2.jpg"
  },
  {
    "name": "HARD_FF_100_NO_DEATH_30K",
    "defaultvalue": 0,
    "displayName": "Virtuoso",
    "hidden": 0,
    "description": "\"Performing with exceptional ability, technique, or artistry\" - Perfect game (100% + no death) and over 30,000 points at the Fortissimo difficulty",
    "icon": "https://steamcdn-a.akamaihd.net/steamcommunity/public/images/apps/207750/0af3bc6c529376fda1ffdf0aaae6f7b48f78ae4f.jpg",
    "icongray": "https://steamcdn-a.akamaihd.net/steamcommunity/public/images/apps/207750/cc4cae1ab01e58857b398f9eddea434b10b84b32.jpg"
  },
  {
    "name": "EXP_840_PLAY_TIME",
    "defaultvalue": 0,
    "displayName": "Vexations",
    "hidden": 0,
    "description": "Play 840 minutes",
    "icon": "https://steamcdn-a.akamaihd.net/steamcommunity/public/images/apps/207750/a5851a49a003bad8afd56fe2e18f9b747f2e1d6c.jpg",
    "icongray": "https://steamcdn-a.akamaihd.net/steamcommunity/public/images/apps/207750/11c7b61fb8570bbab7ef43eb31dc4db67f80a587.jpg"
  },
  {
    "name": "EXP_0_COMPLETION",
    "defaultvalue": 0,
    "displayName": "Tacet",
    "hidden": 0,
    "description": "\"Silent; do not play\" - Get 0% completion",
    "icon": "https://steamcdn-a.akamaihd.net/steamcommunity/public/images/apps/207750/a31fabf64ff01230cad79e08b7cc471568df15a9.jpg",
    "icongray": "https://steamcdn-a.akamaihd.net/steamcommunity/public/images/apps/207750/d93627c2c22603fbbf46cf0bb7632a8a0266ab66.jpg"
  },
  {
    "name": "EXP_67_ID_ITEMS",
    "defaultvalue": 0,
    "displayName": "Beethoven",
    "hidden": 0,
    "description": "Symphony No. 5 in C minor, Op. 67 (hint: 67 is the key)",
    "icon": "https://steamcdn-a.akamaihd.net/steamcommunity/public/images/apps/207750/9e51ec7baf8b651e4573461dbc0efc46f5b089a5.jpg",
    "icongray": "https://steamcdn-a.akamaihd.net/steamcommunity/public/images/apps/207750/b14931f002cddc4fc89254e22d137aa0902ca140.jpg"
  },
  {
    "name": "EXP_104_ID_ITEMS",
    "defaultvalue": 0,
    "displayName": "Haydn",
    "hidden": 1,
    "icon": "https://steamcdn-a.akamaihd.net/steamcommunity/public/images/apps/207750/1efb8c75aabe093f37840d32e197af56b490be68.jpg",
    "icongray": "https://steamcdn-a.akamaihd.net/steamcommunity/public/images/apps/207750/1d761fc906b9f3cd6892fdbca6d2223a0debae2d.jpg"
  },
  {
    "name": "EXP_244_ID_ITEMS",
    "defaultvalue": 0,
    "displayName": "J.S. Bach",
    "hidden": 1,
    "icon": "https://steamcdn-a.akamaihd.net/steamcommunity/public/images/apps/207750/3881d669c9dd02f9f7bcdb04f5af49e1cf587dd0.jpg",
    "icongray": "https://steamcdn-a.akamaihd.net/steamcommunity/public/images/apps/207750/e2e8962c130e61166ad15aca89965c67357875e4.jpg"
  }
]