{
  "Dlcs": {},
  "Name": "Velocidevorium",
  "AppId": "512720",
  "ImageUrl": "https://steamcdn-a.akamaihd.net/steam/apps/512720/header.jpg?t=1522379454",
  "Languages": [
    "english"
  ],
  "Platforms": {
    "windows": true,
    "mac": false,
    "linux": true
  }
}