{
  "Dlcs": {},
  "Name": "Bohnanza The Duel",
  "AppId": "716100",
  "ImageUrl": "https://steamcdn-a.akamaihd.net/steam/apps/716100/header.jpg?t=1578936052",
  "Languages": [
    "english",
    "french",
    "german",
    "spanish",
    "schinese",
    "japanese",
    "korean",
    "russian"
  ],
  "Platforms": {
    "windows": true,
    "mac": true,
    "linux": true
  }
}