{
  "Dlcs": {},
  "Name": "Redline",
  "AppId": "328460",
  "ImageUrl": "https://steamcdn-a.akamaihd.net/steam/apps/328460/header.jpg?t=1468248580",
  "Languages": [
    "english"
  ],
  "Platforms": {
    "windows": true,
    "mac": false,
    "linux": false
  }
}