﻿{
  "Dlcs": {},
  "Name": "Hardspace: Shipbreaker",
  "AppId": "1161580",
  "ImageUrl": "https://steamcdn-a.akamaihd.net/steam/apps/1161580/header.jpg?t=1599757776",
  "Languages": [
    "english",
    "french",
    "german",
    "schinese",
    "russian",
    "italian",
    "spanish",
    "portuguese",
    "tchinese"
  ],
  "Platforms": {
    "windows": true,
    "mac": false,
    "linux": false
  }
}