﻿{
  "Dlcs": {},
  "Name": "Global Ops: Commando Libya",
  "AppId": "200020",
  "ImageUrl": "https://steamcdn-a.akamaihd.net/steam/apps/200020/header.jpg?t=1454920229",
  "Languages": [
    "english",
    "german",
    "french",
    "italian",
    "spanish",
    "polish"
  ],
  "Platforms": {
    "windows": true,
    "mac": false,
    "linux": false
  }
}