{
  "Dlcs": {},
  "Name": "Heavens Tournament",
  "AppId": "1182060",
  "ImageUrl": "https://steamcdn-a.akamaihd.net/steam/apps/1182060/header.jpg?t=1590514589",
  "Languages": [
    "english",
    "italian",
    "german",
    "spanish",
    "dutch",
    "finnish",
    "japanese",
    "korean",
    "norwegian",
    "portuguese",
    "schinese",
    "french",
    "russian",
    "swedish"
  ],
  "Platforms": {
    "windows": true,
    "mac": false,
    "linux": false
  }
}