﻿[
  {
    "name": "POST_SCENE_WALLPAPER",
    "defaultvalue": 0,
    "displayName": "High aspirations",
    "hidden": 0,
    "description": "Post a scene wallpaper to workshop",
    "icon": "https://steamcdn-a.akamaihd.net/steamcommunity/public/images/apps/431960/7aaf59fd3b8eaecdaea8077b57fbabc07bbec1fe.jpg",
    "icongray": "https://steamcdn-a.akamaihd.net/steamcommunity/public/images/apps/431960/51a1d954a69f4401a45842971d8daa5dbee3e631.jpg"
  },
  {
    "name": "POST_VIDEO_WALLPAPER",
    "defaultvalue": 0,
    "displayName": "Video makers",
    "hidden": 0,
    "description": "Post a video wallpaper to workshop",
    "icon": "https://steamcdn-a.akamaihd.net/steamcommunity/public/images/apps/431960/8dcf7978482f1f876e10df9eea85cc6065157118.jpg",
    "icongray": "https://steamcdn-a.akamaihd.net/steamcommunity/public/images/apps/431960/db104329cb8404c97fc7873fa642a4b7be2b33bd.jpg"
  },
  {
    "name": "POST_WEB_WALLPAPER",
    "defaultvalue": 0,
    "displayName": "The internet on a disk",
    "hidden": 0,
    "description": "Post a web wallpaper to workshop",
    "icon": "https://steamcdn-a.akamaihd.net/steamcommunity/public/images/apps/431960/d59c9b544a728f228d5df90908af2f655d9acc67.jpg",
    "icongray": "https://steamcdn-a.akamaihd.net/steamcommunity/public/images/apps/431960/4164f86e88f0b1ff16598d07317fb7c030a7fe62.jpg"
  },
  {
    "name": "POST_APP_WALLPAPER",
    "defaultvalue": 0,
    "displayName": "Press any key",
    "hidden": 0,
    "description": "Post an app wallpaper to workshop",
    "icon": "https://steamcdn-a.akamaihd.net/steamcommunity/public/images/apps/431960/72d89124d705f27fb7c4dca0cc7e534f1cc6396c.jpg",
    "icongray": "https://steamcdn-a.akamaihd.net/steamcommunity/public/images/apps/431960/a22f92a198829e7803d4fe1216ee9a174d81fa10.jpg"
  },
  {
    "name": "USE_TEMPLATE_2D",
    "defaultvalue": 0,
    "displayName": "Creativity according to instructions",
    "hidden": 0,
    "description": "Use a 2D scene template",
    "icon": "https://steamcdn-a.akamaihd.net/steamcommunity/public/images/apps/431960/67fa04833f1c94ee1a1d967cec39c67a9b0f4cee.jpg",
    "icongray": "https://steamcdn-a.akamaihd.net/steamcommunity/public/images/apps/431960/da64b28daccef85627a8d62989d769b7367f72a4.jpg"
  },
  {
    "name": "USE_TEMPLATE_3D",
    "defaultvalue": 0,
    "displayName": "Working with 3D models",
    "hidden": 0,
    "description": "Use a 3D scene template",
    "icon": "https://steamcdn-a.akamaihd.net/steamcommunity/public/images/apps/431960/e26fc45fc1f5959bdf1cd91e386881b6eb3b8009.jpg",
    "icongray": "https://steamcdn-a.akamaihd.net/steamcommunity/public/images/apps/431960/22f96b108185ba8d8c831ca851c3696bbf48009b.jpg"
  },
  {
    "name": "SCREENSHOT_WITH_WORKSHOP_WALLPAPER",
    "defaultvalue": 0,
    "displayName": "Sharing is caring",
    "hidden": 0,
    "description": "Post a Steam screenshot with a workshop wallpaper open",
    "icon": "https://steamcdn-a.akamaihd.net/steamcommunity/public/images/apps/431960/96e1eabf52d8b57aa6276ccaed8d23ab97bff45b.jpg",
    "icongray": "https://steamcdn-a.akamaihd.net/steamcommunity/public/images/apps/431960/8005860193ffb8c50f98c7762f4e6188c2ec1d95.jpg"
  },
  {
    "name": "SUBSCRIBE_10_WALLPAPERS",
    "defaultvalue": 0,
    "displayName": "Trying something new",
    "hidden": 0,
    "description": "Use 10 different wallpapers from Workshop",
    "icon": "https://steamcdn-a.akamaihd.net/steamcommunity/public/images/apps/431960/1c2250cab3953159e542b9ff4bd5be9ec75c9f61.jpg",
    "icongray": "https://steamcdn-a.akamaihd.net/steamcommunity/public/images/apps/431960/fe22ac219153d4d40f1e68a0b505bafcdce967ee.jpg"
  },
  {
    "name": "FAVORITE_10_WALLPAPERS",
    "defaultvalue": 0,
    "displayName": "Keeping an eye on this one",
    "hidden": 0,
    "description": "Favorite 10 different wallpapers from Workshop",
    "icon": "https://steamcdn-a.akamaihd.net/steamcommunity/public/images/apps/431960/dafacb580ba40cf8ef509ff9861f3ade9057397f.jpg",
    "icongray": "https://steamcdn-a.akamaihd.net/steamcommunity/public/images/apps/431960/b92fe6e839dc9c94a25845558f009ef5e804412a.jpg"
  },
  {
    "name": "PEST",
    "defaultvalue": 0,
    "displayName": "Pest",
    "hidden": 0,
    "description": "Cause 1 fatal error OR trigger 128 warnings in the editor",
    "icon": "https://steamcdn-a.akamaihd.net/steamcommunity/public/images/apps/431960/1f519ad16689ebdd4860d548f0979ada9e739ef5.jpg",
    "icongray": "https://steamcdn-a.akamaihd.net/steamcommunity/public/images/apps/431960/9d3197d3807c6714fe5c7d3ecc5ae45a779ec6d4.jpg"
  },
  {
    "name": "KON_CODE",
    "defaultvalue": 0,
    "displayName": "k0n4m1",
    "hidden": 0,
    "description": "30 lives",
    "icon": "https://steamcdn-a.akamaihd.net/steamcommunity/public/images/apps/431960/f9aa5e3dd5e28e9e1275369ecfea3961f449f53c.jpg",
    "icongray": "https://steamcdn-a.akamaihd.net/steamcommunity/public/images/apps/431960/3c89c4575a841ad3d8156d66c13e30e6e7beb18d.jpg"
  },
  {
    "name": "SUBSCRIBE_25_WALLPAPERS",
    "defaultvalue": 0,
    "displayName": "Getting the hang of it",
    "hidden": 0,
    "description": "Use 25 different wallpapers from Workshop",
    "icon": "https://steamcdn-a.akamaihd.net/steamcommunity/public/images/apps/431960/4f48b4262e14e6b25f09d7df1e00392b8c65d0f2.jpg",
    "icongray": "https://steamcdn-a.akamaihd.net/steamcommunity/public/images/apps/431960/54f4eea940cd7bf3fdf89b219d72067322c1306c.jpg"
  },
  {
    "name": "SUBSCRIBE_50_WALLPAPERS",
    "defaultvalue": 0,
    "displayName": "Hard to pick just one",
    "hidden": 0,
    "description": "Use 50 different wallpapers from Workshop",
    "icon": "https://steamcdn-a.akamaihd.net/steamcommunity/public/images/apps/431960/09f51531c6243518225293fcdc81c8894ba7def6.jpg",
    "icongray": "https://steamcdn-a.akamaihd.net/steamcommunity/public/images/apps/431960/9649e1a766570230f9bee944bce6f2eb4df50969.jpg"
  },
  {
    "name": "SUBSCRIBE_100_WALLPAPERS",
    "defaultvalue": 0,
    "displayName": "Out of disk space",
    "hidden": 0,
    "description": "Use 100 different wallpapers from Workshop",
    "icon": "https://steamcdn-a.akamaihd.net/steamcommunity/public/images/apps/431960/53c2189431308f46ef77d0c5eb1ecac697d703a6.jpg",
    "icongray": "https://steamcdn-a.akamaihd.net/steamcommunity/public/images/apps/431960/6c857181c311c81ee498c0281dbdf5837e9f03d0.jpg"
  },
  {
    "name": "FAVORITE_25_WALLPAPERS",
    "defaultvalue": 0,
    "displayName": "Found some good ones",
    "hidden": 0,
    "description": "Favorite 20 different wallpapers from Workshop",
    "icon": "https://steamcdn-a.akamaihd.net/steamcommunity/public/images/apps/431960/b94c0f896de24c4bb8fc3a040f5e62a6df69d8d0.jpg",
    "icongray": "https://steamcdn-a.akamaihd.net/steamcommunity/public/images/apps/431960/c5fe16c3e1d52e5c0423d4f1332fdea401c894b1.jpg"
  },
  {
    "name": "FAVORITE_50_WALLPAPERS",
    "defaultvalue": 0,
    "displayName": "Fair collection",
    "hidden": 0,
    "description": "Favorite 30 different wallpapers from Workshop",
    "icon": "https://steamcdn-a.akamaihd.net/steamcommunity/public/images/apps/431960/893e157fe5efed6fb37e012e80079b2b07e902ef.jpg",
    "icongray": "https://steamcdn-a.akamaihd.net/steamcommunity/public/images/apps/431960/4655d1976efb1595e403a970b48f7f0948a63916.jpg"
  },
  {
    "name": "FAVORITE_100_WALLPAPERS",
    "defaultvalue": 0,
    "displayName": "Wallpaper Connoisseur",
    "hidden": 0,
    "description": "Favorite 50 different wallpapers from Workshop",
    "icon": "https://steamcdn-a.akamaihd.net/steamcommunity/public/images/apps/431960/8e56c301216c03a675b4441942fa143ced7c9ee8.jpg",
    "icongray": "https://steamcdn-a.akamaihd.net/steamcommunity/public/images/apps/431960/8a2f3d123328935a8c155e08765c9d91881a1fb2.jpg"
  }
]