{
  "Dlcs": {},
  "Name": "SpacePig",
  "AppId": "748910",
  "ImageUrl": "https://steamcdn-a.akamaihd.net/steam/apps/748910/header.jpg?t=1511273570",
  "Languages": [
    "english",
    "french",
    "italian",
    "german",
    "spanish",
    "arabic",
    "japanese",
    "korean",
    "portuguese",
    "russian",
    "schinese"
  ],
  "Platforms": {
    "windows": true,
    "mac": true,
    "linux": true
  }
}