{
  "Dlcs": {},
  "Name": "ABC Paint",
  "AppId": "907520",
  "ImageUrl": "https://steamcdn-a.akamaihd.net/steam/apps/907520/header.jpg?t=1555671562",
  "Languages": [
    "english"
  ],
  "Platforms": {
    "windows": true,
    "mac": false,
    "linux": false
  }
}