{
  "Dlcs": {},
  "Name": "Relax Walk VR",
  "AppId": "645340",
  "ImageUrl": "https://steamcdn-a.akamaihd.net/steam/apps/645340/header.jpg?t=1518975659",
  "Languages": [
    "english"
  ],
  "Platforms": {
    "windows": true,
    "mac": false,
    "linux": false
  }
}