﻿[
  {
    "name": "MINERAL_JUNKIE_STAT",
    "defaultvalue": 0,
    "displayName": "Minerals Gathered"
  },
  {
    "name": "TREASURE_HUNTER_STAT",
    "defaultvalue": 0,
    "displayName": "Treasures Found"
  },
  {
    "name": "TUTORIAL_STAT",
    "defaultvalue": 0,
    "displayName": "Trained Achieved"
  },
  {
    "name": "CLEANER_STAT",
    "defaultvalue": 0,
    "displayName": "Cleaner Achieved"
  },
  {
    "name": "BOSS_SLAYER_STAT",
    "defaultvalue": 0,
    "displayName": "Boss Slayer Achieved"
  },
  {
    "name": "NARCISSIST_STAT",
    "defaultvalue": 0,
    "displayName": "Non-narcissist Achieved"
  },
  {
    "name": "MINER_STAT",
    "defaultvalue": 0,
    "displayName": "Miner Achieved"
  },
  {
    "name": "VACATIONER_STAT",
    "defaultvalue": 0,
    "displayName": "Vacationer Achieved"
  },
  {
    "name": "MASTER_STAT",
    "defaultvalue": 0,
    "displayName": "Master Achieved"
  },
  {
    "name": "NINJA_STAT",
    "defaultvalue": 0,
    "displayName": "Ninja Achieved"
  }
]