{
  "Dlcs": {},
  "Name": "The Secret Of Retropolis",
  "AppId": "1288420",
  "ImageUrl": "https://steamcdn-a.akamaihd.net/steam/apps/1288420/header.jpg?t=1593346951",
  "Languages": [
    "english"
  ],
  "Platforms": {
    "windows": true,
    "mac": false,
    "linux": false
  }
}