{
  "Name": "DR1 Racing presents the DHL Champions Series fueled by Mountain Dew: Champions Series Finals: Isle Of Man",
  "ImageUrl": "https://steamcdn-a.akamaihd.net/steam/apps/769505/header.jpg?t=1554933441",
  "Type": "episode"
}