[
  {
    "name": "kills_1",
    "defaultvalue": 0,
    "displayName": "First Blood",
    "hidden": 0,
    "description": "Destroy an enemy ship.",
    "icon": "https://steamcdn-a.akamaihd.net/steamcommunity/public/images/apps/376880/b5964d55a75c251ec13339a4f19d179919b06b80.jpg",
    "icongray": "https://steamcdn-a.akamaihd.net/steamcommunity/public/images/apps/376880/55833e0f3d1b799214aa0e65293f7764ddf624d1.jpg"
  },
  {
    "name": "kills_10",
    "defaultvalue": 0,
    "displayName": "Wet Feet",
    "hidden": 0,
    "description": "Accumulate 10 kills.",
    "icon": "https://steamcdn-a.akamaihd.net/steamcommunity/public/images/apps/376880/fff4466ca7254990ae8afeac96b3c30e61d7527e.jpg",
    "icongray": "https://steamcdn-a.akamaihd.net/steamcommunity/public/images/apps/376880/24b757c38c4707aa138bff988aab51528d455939.jpg"
  },
  {
    "name": "murders_1",
    "defaultvalue": 0,
    "displayName": "Questionable Morals",
    "hidden": 0,
    "description": "Kill an ejected pilot.",
    "icon": "https://steamcdn-a.akamaihd.net/steamcommunity/public/images/apps/376880/90afd8ad11c887222592c25ababc4015e2c0642d.jpg",
    "icongray": "https://steamcdn-a.akamaihd.net/steamcommunity/public/images/apps/376880/b8833defc466293f1a2948426da148f00c3a0039.jpg"
  },
  {
    "name": "murders_10",
    "defaultvalue": 0,
    "displayName": "No Mercy",
    "hidden": 0,
    "description": "Kill 10 unarmed pilots.",
    "icon": "https://steamcdn-a.akamaihd.net/steamcommunity/public/images/apps/376880/b29e6510485ba424e94cf0669222ec82b99f5f5e.jpg",
    "icongray": "https://steamcdn-a.akamaihd.net/steamcommunity/public/images/apps/376880/958bd6cd41465590fb42d73a4c8e124e1886c568.jpg"
  },
  {
    "name": "murders_20",
    "defaultvalue": 0,
    "displayName": "Ruthless Aviator",
    "hidden": 0,
    "description": "Kill 20 hapless pilots.",
    "icon": "https://steamcdn-a.akamaihd.net/steamcommunity/public/images/apps/376880/f9e8247a497e453bb22952fab089558c7c97a7bf.jpg",
    "icongray": "https://steamcdn-a.akamaihd.net/steamcommunity/public/images/apps/376880/4e7994363f96cb5c6ecc2f70f303b2879da9baec.jpg"
  },
  {
    "name": "murders_100",
    "defaultvalue": 0,
    "displayName": "Gratuitous Violence",
    "hidden": 0,
    "description": "Kill 100 loved and respected pilots.",
    "icon": "https://steamcdn-a.akamaihd.net/steamcommunity/public/images/apps/376880/4bf3dd071b35a39bee3d1f965e0ef6f8f0d85fed.jpg",
    "icongray": "https://steamcdn-a.akamaihd.net/steamcommunity/public/images/apps/376880/fa58c3c34d8b5729c2feade053f26ce95f688236.jpg"
  },
  {
    "name": "kills_20",
    "defaultvalue": 0,
    "displayName": "Acclimated",
    "hidden": 0,
    "description": "Accumulate 20 kills.",
    "icon": "https://steamcdn-a.akamaihd.net/steamcommunity/public/images/apps/376880/fede9158b73cc357f4c100b6576414238766f29a.jpg",
    "icongray": "https://steamcdn-a.akamaihd.net/steamcommunity/public/images/apps/376880/461046b42bc6116701d2b396a0e4f35624d18a82.jpg"
  },
  {
    "name": "kills_100",
    "defaultvalue": 0,
    "displayName": "Unstoppable",
    "hidden": 0,
    "description": "Accumulate 100 kills.",
    "icon": "https://steamcdn-a.akamaihd.net/steamcommunity/public/images/apps/376880/ced50017cef8f01a4c50d7813058297b6cc6bc9c.jpg",
    "icongray": "https://steamcdn-a.akamaihd.net/steamcommunity/public/images/apps/376880/c4d67cc9b54c1709079c2e9c9aef0a62f406c935.jpg"
  },
  {
    "name": "flawless_1",
    "defaultvalue": 0,
    "displayName": "Beginner's Luck",
    "hidden": 0,
    "description": "Complete 1 secondary objective.",
    "icon": "https://steamcdn-a.akamaihd.net/steamcommunity/public/images/apps/376880/96cdedcc458139a8bd78e7b7f5b3b3b7f5e13bf7.jpg",
    "icongray": "https://steamcdn-a.akamaihd.net/steamcommunity/public/images/apps/376880/e7053efd1ccfe3c19e886e71c7ec019ee5cc1082.jpg"
  },
  {
    "name": "flawless_20",
    "defaultvalue": 0,
    "displayName": "Overachiever",
    "hidden": 0,
    "description": "Complete 20 secondary objectives.",
    "icon": "https://steamcdn-a.akamaihd.net/steamcommunity/public/images/apps/376880/c6656d5b19cb29ba1829f04ed0a9708df213eb64.jpg",
    "icongray": "https://steamcdn-a.akamaihd.net/steamcommunity/public/images/apps/376880/04652682def8703e2115d92565046b91041e0855.jpg"
  },
  {
    "name": "kills_40",
    "defaultvalue": 0,
    "displayName": "Menace",
    "hidden": 0,
    "description": "Accumulate 40 kills.",
    "icon": "https://steamcdn-a.akamaihd.net/steamcommunity/public/images/apps/376880/d62384abcbc0f06e2c08885f828d930293d2d7b9.jpg",
    "icongray": "https://steamcdn-a.akamaihd.net/steamcommunity/public/images/apps/376880/adb31c37621b6a97da0c62fa6b55bcee6ee671a2.jpg"
  },
  {
    "name": "flawless_10",
    "defaultvalue": 0,
    "displayName": "Greed",
    "hidden": 0,
    "description": "Complete 10 secondary objectives.",
    "icon": "https://steamcdn-a.akamaihd.net/steamcommunity/public/images/apps/376880/cd7cc067093846da23a24702da84a8ef2a5667c0.jpg",
    "icongray": "https://steamcdn-a.akamaihd.net/steamcommunity/public/images/apps/376880/a93cde6c098c8367f8a75c456748c194e675caec.jpg"
  },
  {
    "name": "flawless_100",
    "defaultvalue": 0,
    "displayName": "Infallible",
    "hidden": 0,
    "description": "Complete 100 secondary objectives.",
    "icon": "https://steamcdn-a.akamaihd.net/steamcommunity/public/images/apps/376880/65b1e3e54b0237cf1076873dcd96c90a2317b97b.jpg",
    "icongray": "https://steamcdn-a.akamaihd.net/steamcommunity/public/images/apps/376880/b79da254f04f0bc7cdef83262e72d0edf1f4bbd4.jpg"
  },
  {
    "name": "colonizer_1",
    "defaultvalue": 0,
    "displayName": "Colonizer",
    "hidden": 0,
    "description": "Complete the Colonists mission.",
    "icon": "https://steamcdn-a.akamaihd.net/steamcommunity/public/images/apps/376880/3f9813bc7f12f82b0bdef78689fb19fbd6338349.jpg",
    "icongray": "https://steamcdn-a.akamaihd.net/steamcommunity/public/images/apps/376880/08d3ed7ac7990cfbe4380d974f0d72ee3a4f6acc.jpg"
  },
  {
    "name": "firefighter_1",
    "defaultvalue": 0,
    "displayName": "Firefighter",
    "hidden": 0,
    "description": "Complete the Firefight mission.",
    "icon": "https://steamcdn-a.akamaihd.net/steamcommunity/public/images/apps/376880/9949d57d73eca27a80d0fc1dcae82e15bbe16792.jpg",
    "icongray": "https://steamcdn-a.akamaihd.net/steamcommunity/public/images/apps/376880/9ccc9be0834b8413ebae6bb74e73a4b58f97c5e8.jpg"
  }
]