[
  {
    "name": "PUPPETMASTER",
    "defaultvalue": 0,
    "displayName": "Puppetmaster",
    "hidden": 0,
    "description": "Achieve 100% Trust",
    "icon": "https://steamcdn-a.akamaihd.net/steamcommunity/public/images/apps/530110/3306da946321aefd6ae9dad6351d2b583b0ac723.jpg",
    "icongray": "https://steamcdn-a.akamaihd.net/steamcommunity/public/images/apps/530110/3306da946321aefd6ae9dad6351d2b583b0ac723.jpg"
  },
  {
    "name": "SPYMASTER",
    "defaultvalue": 0,
    "displayName": "Spymaster",
    "hidden": 0,
    "description": "Complete the campaign with a faction",
    "icon": "https://steamcdn-a.akamaihd.net/steamcommunity/public/images/apps/530110/af7cb0d359f4f840d7b64ca61463215fdf6c6fb7.jpg",
    "icongray": "https://steamcdn-a.akamaihd.net/steamcommunity/public/images/apps/530110/af7cb0d359f4f840d7b64ca61463215fdf6c6fb7.jpg"
  },
  {
    "name": "TRUE_SPYMASTER",
    "defaultvalue": 0,
    "displayName": "True Spymaster",
    "hidden": 0,
    "description": "Complete the campaign with all factions",
    "icon": "https://steamcdn-a.akamaihd.net/steamcommunity/public/images/apps/530110/a668fcb23ac80c76a6dd228118db482706476699.jpg",
    "icongray": "https://steamcdn-a.akamaihd.net/steamcommunity/public/images/apps/530110/a668fcb23ac80c76a6dd228118db482706476699.jpg"
  },
  {
    "name": "TRAINEE_SPYMASTER",
    "defaultvalue": 0,
    "displayName": "Trainee Spymaster",
    "hidden": 0,
    "description": "Complete the tutorial",
    "icon": "https://steamcdn-a.akamaihd.net/steamcommunity/public/images/apps/530110/aeee581a88ba3da12463360bf8b7556d4d4ee391.jpg",
    "icongray": "https://steamcdn-a.akamaihd.net/steamcommunity/public/images/apps/530110/aeee581a88ba3da12463360bf8b7556d4d4ee391.jpg"
  },
  {
    "name": "TRAITOR",
    "defaultvalue": 0,
    "displayName": "Traitor",
    "hidden": 0,
    "description": "Find a traitor in your court",
    "icon": "https://steamcdn-a.akamaihd.net/steamcommunity/public/images/apps/530110/b974b722b3a9cd63a9dc3a621ac19767b8d9581b.jpg",
    "icongray": "https://steamcdn-a.akamaihd.net/steamcommunity/public/images/apps/530110/b974b722b3a9cd63a9dc3a621ac19767b8d9581b.jpg"
  },
  {
    "name": "SECRET",
    "defaultvalue": 0,
    "displayName": "SECRET",
    "hidden": 0,
    "description": "Find a court members secret",
    "icon": "https://steamcdn-a.akamaihd.net/steamcommunity/public/images/apps/530110/fe0a85f9d59886e98a9b52143752a2ee878396df.jpg",
    "icongray": "https://steamcdn-a.akamaihd.net/steamcommunity/public/images/apps/530110/fe0a85f9d59886e98a9b52143752a2ee878396df.jpg"
  },
  {
    "name": "BLACKMAIL",
    "defaultvalue": 0,
    "displayName": "Blackmail",
    "hidden": 0,
    "description": "Blackmail a court member",
    "icon": "https://steamcdn-a.akamaihd.net/steamcommunity/public/images/apps/530110/03221297faf9b0b5159ffb561f38def96e1963e1.jpg",
    "icongray": "https://steamcdn-a.akamaihd.net/steamcommunity/public/images/apps/530110/03221297faf9b0b5159ffb561f38def96e1963e1.jpg"
  },
  {
    "name": "ASSASSINATION",
    "defaultvalue": 0,
    "displayName": "Assassination",
    "hidden": 0,
    "description": "Assassinate a court member",
    "icon": "https://steamcdn-a.akamaihd.net/steamcommunity/public/images/apps/530110/9628439f3dcdf2af883b3ad5f192fce6db35a3f5.jpg",
    "icongray": "https://steamcdn-a.akamaihd.net/steamcommunity/public/images/apps/530110/ec5281b9a6ad2b249f319c5f226de31501883738.jpg"
  },
  {
    "name": "POISON",
    "defaultvalue": 0,
    "displayName": "Poison",
    "hidden": 0,
    "description": "Release a poison at a location",
    "icon": "https://steamcdn-a.akamaihd.net/steamcommunity/public/images/apps/530110/5ae0aa577878c5a9f0131a70ae6f49e63f61e6a2.jpg",
    "icongray": "https://steamcdn-a.akamaihd.net/steamcommunity/public/images/apps/530110/5ae0aa577878c5a9f0131a70ae6f49e63f61e6a2.jpg"
  },
  {
    "name": "PLAGUE",
    "defaultvalue": 0,
    "displayName": "Plague",
    "hidden": 0,
    "description": "Release a plague at a location",
    "icon": "https://steamcdn-a.akamaihd.net/steamcommunity/public/images/apps/530110/778ad7a39dd2c0943b09074718d6e5066cc0a591.jpg",
    "icongray": "https://steamcdn-a.akamaihd.net/steamcommunity/public/images/apps/530110/778ad7a39dd2c0943b09074718d6e5066cc0a591.jpg"
  },
  {
    "name": "CONQUEROR",
    "defaultvalue": 0,
    "displayName": "Conqueror ",
    "hidden": 0,
    "description": "Advise attack that captures an enemy capital ",
    "icon": "https://steamcdn-a.akamaihd.net/steamcommunity/public/images/apps/530110/2327f0ee45fe3eeb43e3346fd7ffb7ce86f1bfb6.jpg",
    "icongray": "https://steamcdn-a.akamaihd.net/steamcommunity/public/images/apps/530110/2327f0ee45fe3eeb43e3346fd7ffb7ce86f1bfb6.jpg"
  },
  {
    "name": "HISTORIAN",
    "defaultvalue": 0,
    "displayName": "Historian",
    "hidden": 0,
    "description": "Uncover a family secret",
    "icon": "https://steamcdn-a.akamaihd.net/steamcommunity/public/images/apps/530110/d2e1700d829044b6246253b7f4ca2c59882b3fb9.jpg",
    "icongray": "https://steamcdn-a.akamaihd.net/steamcommunity/public/images/apps/530110/d2e1700d829044b6246253b7f4ca2c59882b3fb9.jpg"
  },
  {
    "name": "PLANNING_AHEAD",
    "defaultvalue": 0,
    "displayName": "Planning Ahead",
    "hidden": 0,
    "description": "Have a revenge fund trigger",
    "icon": "https://steamcdn-a.akamaihd.net/steamcommunity/public/images/apps/530110/c5c7b3c5ff70bcef4c32cee41ba027fcaca30473.jpg",
    "icongray": "https://steamcdn-a.akamaihd.net/steamcommunity/public/images/apps/530110/11125807f5a5e45b56d53d75b0e82ed7e5eae83c.jpg"
  },
  {
    "name": "LUCKY",
    "defaultvalue": 0,
    "displayName": "Lucky",
    "hidden": 0,
    "description": "Suffer no loses to a volcanic eruption",
    "icon": "https://steamcdn-a.akamaihd.net/steamcommunity/public/images/apps/530110/382920adc73b85f8c79ca1f6535770464b861deb.jpg",
    "icongray": "https://steamcdn-a.akamaihd.net/steamcommunity/public/images/apps/530110/382920adc73b85f8c79ca1f6535770464b861deb.jpg"
  },
  {
    "name": "SUSPICIOUS",
    "defaultvalue": 0,
    "displayName": "SUSPICIOUS",
    "hidden": 0,
    "description": "Investigate every member of court",
    "icon": "https://steamcdn-a.akamaihd.net/steamcommunity/public/images/apps/530110/eeb044f765123294ae8cf2fe86a47fdc4b5439c8.jpg",
    "icongray": "https://steamcdn-a.akamaihd.net/steamcommunity/public/images/apps/530110/eeb044f765123294ae8cf2fe86a47fdc4b5439c8.jpg"
  },
  {
    "name": "ECONOMIST",
    "defaultvalue": 0,
    "displayName": "Economist",
    "hidden": 0,
    "description": "Earn more than 5000 gold in a given turn",
    "icon": "https://steamcdn-a.akamaihd.net/steamcommunity/public/images/apps/530110/a6fa3a3c866284e5b2d533efa76dcf3ec274377c.jpg",
    "icongray": "https://steamcdn-a.akamaihd.net/steamcommunity/public/images/apps/530110/a6fa3a3c866284e5b2d533efa76dcf3ec274377c.jpg"
  },
  {
    "name": "DEVELOPER",
    "defaultvalue": 0,
    "displayName": "Developer",
    "hidden": 0,
    "description": "Construct all buildings in a location",
    "icon": "https://steamcdn-a.akamaihd.net/steamcommunity/public/images/apps/530110/04abe819b754ef6c1c4522412fbec47211a0399d.jpg",
    "icongray": "https://steamcdn-a.akamaihd.net/steamcommunity/public/images/apps/530110/04abe819b754ef6c1c4522412fbec47211a0399d.jpg"
  },
  {
    "name": "PROTECTOR",
    "defaultvalue": 0,
    "displayName": "Protector",
    "hidden": 0,
    "description": "Protect a family event from attackers",
    "icon": "https://steamcdn-a.akamaihd.net/steamcommunity/public/images/apps/530110/26bb7781728a96d61cfc5319893958c053d2db41.jpg",
    "icongray": "https://steamcdn-a.akamaihd.net/steamcommunity/public/images/apps/530110/f1b4b2e769460d6ff35e4020858f8363cd180972.jpg"
  },
  {
    "name": "PEACE",
    "defaultvalue": 0,
    "displayName": "Peace Maker",
    "hidden": 0,
    "description": "Succeed in encouraging peace",
    "icon": "https://steamcdn-a.akamaihd.net/steamcommunity/public/images/apps/530110/f1de68a4718fbd777bd77c96bab9d937b490ebd5.jpg",
    "icongray": "https://steamcdn-a.akamaihd.net/steamcommunity/public/images/apps/530110/f1de68a4718fbd777bd77c96bab9d937b490ebd5.jpg"
  },
  {
    "name": "WAR",
    "defaultvalue": 0,
    "displayName": "War Monger",
    "hidden": 0,
    "description": "Succeed in encouraging war",
    "icon": "https://steamcdn-a.akamaihd.net/steamcommunity/public/images/apps/530110/bd3526a06a9ba86a867f24d7c31044abcfd7a006.jpg",
    "icongray": "https://steamcdn-a.akamaihd.net/steamcommunity/public/images/apps/530110/7db3b2d5f755b4ad7adaae961142cba624d615e8.jpg"
  },
  {
    "name": "NOBLE_TARGET",
    "defaultvalue": 0,
    "displayName": "Noble Target",
    "hidden": 0,
    "description": "Claim a noble life with your plot",
    "icon": "https://steamcdn-a.akamaihd.net/steamcommunity/public/images/apps/530110/566075aec922d13d69bf942d3f6b67663c1f19d2.jpg",
    "icongray": "https://steamcdn-a.akamaihd.net/steamcommunity/public/images/apps/530110/566075aec922d13d69bf942d3f6b67663c1f19d2.jpg"
  },
  {
    "name": "ROYAL_TARGET",
    "defaultvalue": 0,
    "displayName": "Royal Target",
    "hidden": 0,
    "description": "Claim a royal life with your plot",
    "icon": "https://steamcdn-a.akamaihd.net/steamcommunity/public/images/apps/530110/f14c629e362fe6be1a56ae5986389c956d3c1c74.jpg",
    "icongray": "https://steamcdn-a.akamaihd.net/steamcommunity/public/images/apps/530110/f14c629e362fe6be1a56ae5986389c956d3c1c74.jpg"
  },
  {
    "name": "THE_BIG_FISH",
    "defaultvalue": 0,
    "displayName": "The Big Fish",
    "hidden": 0,
    "description": "Claim the life of a faction leader with your plot",
    "icon": "https://steamcdn-a.akamaihd.net/steamcommunity/public/images/apps/530110/975ff23d218cfd84c494ce7d4611149382637588.jpg",
    "icongray": "https://steamcdn-a.akamaihd.net/steamcommunity/public/images/apps/530110/975ff23d218cfd84c494ce7d4611149382637588.jpg"
  }
]