[
  {
    "name": "CASE_1",
    "defaultvalue": 0,
    "displayName": "GIVEAWAY",
    "hidden": 0,
    "description": "Take a case \"giveaway\"",
    "icon": "https://steamcdn-a.akamaihd.net/steamcommunity/public/images/apps/1010150/97c5a322d5ef720f29af8efa21a5a9ae0df43a5c.jpg",
    "icongray": "https://steamcdn-a.akamaihd.net/steamcommunity/public/images/apps/1010150/daf88c4be25248f4d7ceb02ea8f60526fa1da128.jpg"
  },
  {
    "name": "CASE_2",
    "defaultvalue": 0,
    "displayName": "INSIDE",
    "hidden": 0,
    "description": "Take a case \"inside\"",
    "icon": "https://steamcdn-a.akamaihd.net/steamcommunity/public/images/apps/1010150/b7f300e112907af43e43bd1e3715977fca618166.jpg",
    "icongray": "https://steamcdn-a.akamaihd.net/steamcommunity/public/images/apps/1010150/daf88c4be25248f4d7ceb02ea8f60526fa1da128.jpg"
  },
  {
    "name": "CASE_3",
    "defaultvalue": 0,
    "displayName": "SCHEME",
    "hidden": 0,
    "description": "Take a case \"scheme\"",
    "icon": "https://steamcdn-a.akamaihd.net/steamcommunity/public/images/apps/1010150/446c632d06d437d44d72452d488b6f2927d4426b.jpg",
    "icongray": "https://steamcdn-a.akamaihd.net/steamcommunity/public/images/apps/1010150/daf88c4be25248f4d7ceb02ea8f60526fa1da128.jpg"
  },
  {
    "name": "CASE_4_1",
    "defaultvalue": 0,
    "displayName": "FAKE",
    "hidden": 0,
    "description": "Take a case \"fake\"",
    "icon": "https://steamcdn-a.akamaihd.net/steamcommunity/public/images/apps/1010150/df1bccb492c136c304c377abec0b7c68a59ab6e2.jpg",
    "icongray": "https://steamcdn-a.akamaihd.net/steamcommunity/public/images/apps/1010150/daf88c4be25248f4d7ceb02ea8f60526fa1da128.jpg"
  },
  {
    "name": "CASE_5",
    "defaultvalue": 0,
    "displayName": "REF",
    "hidden": 0,
    "description": "Take a case \"ref\"",
    "icon": "https://steamcdn-a.akamaihd.net/steamcommunity/public/images/apps/1010150/a0e713cdd5cc48a73b470ad0737eac8007c465f8.jpg",
    "icongray": "https://steamcdn-a.akamaihd.net/steamcommunity/public/images/apps/1010150/daf88c4be25248f4d7ceb02ea8f60526fa1da128.jpg"
  },
  {
    "name": "BOMB_1",
    "defaultvalue": 0,
    "displayName": "BOMB",
    "hidden": 0,
    "description": "Take the bomb",
    "icon": "https://steamcdn-a.akamaihd.net/steamcommunity/public/images/apps/1010150/929d655a19757e23651956aca7950b2a41a9a3bd.jpg",
    "icongray": "https://steamcdn-a.akamaihd.net/steamcommunity/public/images/apps/1010150/daf88c4be25248f4d7ceb02ea8f60526fa1da128.jpg"
  },
  {
    "name": "START_1",
    "defaultvalue": 0,
    "displayName": "EnjoyMaloy",
    "hidden": 0,
    "description": "Start the game",
    "icon": "https://steamcdn-a.akamaihd.net/steamcommunity/public/images/apps/1010150/75406ed226e051944ff98c53c374378c87d65ad1.jpg",
    "icongray": "https://steamcdn-a.akamaihd.net/steamcommunity/public/images/apps/1010150/daf88c4be25248f4d7ceb02ea8f60526fa1da128.jpg"
  },
  {
    "name": "START_2",
    "defaultvalue": 0,
    "displayName": "HAMSTER SMILE",
    "hidden": 0,
    "description": "Start the game",
    "icon": "https://steamcdn-a.akamaihd.net/steamcommunity/public/images/apps/1010150/42d4a52794c795aa98f4fca7be0e7856422dee25.jpg",
    "icongray": "https://steamcdn-a.akamaihd.net/steamcommunity/public/images/apps/1010150/daf88c4be25248f4d7ceb02ea8f60526fa1da128.jpg"
  },
  {
    "name": "D_1",
    "defaultvalue": 0,
    "displayName": "$1",
    "hidden": 0,
    "description": "Get $1",
    "icon": "https://steamcdn-a.akamaihd.net/steamcommunity/public/images/apps/1010150/7ce25f0b9f08d8360d3349c6cd785e400c989323.jpg",
    "icongray": "https://steamcdn-a.akamaihd.net/steamcommunity/public/images/apps/1010150/daf88c4be25248f4d7ceb02ea8f60526fa1da128.jpg"
  },
  {
    "name": "D_2",
    "defaultvalue": 0,
    "displayName": "$322",
    "hidden": 0,
    "description": "Get $322",
    "icon": "https://steamcdn-a.akamaihd.net/steamcommunity/public/images/apps/1010150/ac2f3bc0359fd96ec114f5b9d20cb5c1fe14803d.jpg",
    "icongray": "https://steamcdn-a.akamaihd.net/steamcommunity/public/images/apps/1010150/daf88c4be25248f4d7ceb02ea8f60526fa1da128.jpg"
  },
  {
    "name": "D_3",
    "defaultvalue": 0,
    "displayName": "$1k",
    "hidden": 0,
    "description": "Get $1k",
    "icon": "https://steamcdn-a.akamaihd.net/steamcommunity/public/images/apps/1010150/24a2985b6f2bc8748e07072c63c3aeacd54aef48.jpg",
    "icongray": "https://steamcdn-a.akamaihd.net/steamcommunity/public/images/apps/1010150/daf88c4be25248f4d7ceb02ea8f60526fa1da128.jpg"
  },
  {
    "name": "D_4",
    "defaultvalue": 0,
    "displayName": "TRON",
    "hidden": 0,
    "description": "Get $2k",
    "icon": "https://steamcdn-a.akamaihd.net/steamcommunity/public/images/apps/1010150/6b9b07ed7a0ab9e27be11b50b3a3c92096c2da53.jpg",
    "icongray": "https://steamcdn-a.akamaihd.net/steamcommunity/public/images/apps/1010150/daf88c4be25248f4d7ceb02ea8f60526fa1da128.jpg"
  },
  {
    "name": "D_5",
    "defaultvalue": 0,
    "displayName": "$10k",
    "hidden": 0,
    "description": "Get $10k",
    "icon": "https://steamcdn-a.akamaihd.net/steamcommunity/public/images/apps/1010150/8c35e0bc2140cc65602e328edf045fc6968850a1.jpg",
    "icongray": "https://steamcdn-a.akamaihd.net/steamcommunity/public/images/apps/1010150/daf88c4be25248f4d7ceb02ea8f60526fa1da128.jpg"
  },
  {
    "name": "D_6",
    "defaultvalue": 0,
    "displayName": "$100k",
    "hidden": 0,
    "description": "Get $100k",
    "icon": "https://steamcdn-a.akamaihd.net/steamcommunity/public/images/apps/1010150/38fba90a2689e71c11551e9b23fa28e2e18467d1.jpg",
    "icongray": "https://steamcdn-a.akamaihd.net/steamcommunity/public/images/apps/1010150/daf88c4be25248f4d7ceb02ea8f60526fa1da128.jpg"
  },
  {
    "name": "D_7",
    "defaultvalue": 0,
    "displayName": "$200k",
    "hidden": 0,
    "description": "Get $200k",
    "icon": "https://steamcdn-a.akamaihd.net/steamcommunity/public/images/apps/1010150/e4f7fecf7d4a5f6fd1c0627040028b59830ee9d8.jpg",
    "icongray": "https://steamcdn-a.akamaihd.net/steamcommunity/public/images/apps/1010150/daf88c4be25248f4d7ceb02ea8f60526fa1da128.jpg"
  },
  {
    "name": "D_8",
    "defaultvalue": 0,
    "displayName": "$500k",
    "hidden": 0,
    "description": "Get $500k",
    "icon": "https://steamcdn-a.akamaihd.net/steamcommunity/public/images/apps/1010150/e2506e3ce28882c21dc5be18cb6c74b5a039321c.jpg",
    "icongray": "https://steamcdn-a.akamaihd.net/steamcommunity/public/images/apps/1010150/daf88c4be25248f4d7ceb02ea8f60526fa1da128.jpg"
  },
  {
    "name": "D_9",
    "defaultvalue": 0,
    "displayName": "$750k",
    "hidden": 0,
    "description": "Get $750k",
    "icon": "https://steamcdn-a.akamaihd.net/steamcommunity/public/images/apps/1010150/01f81f3aee1c4c79b470317e8f49115b73c1c3e3.jpg",
    "icongray": "https://steamcdn-a.akamaihd.net/steamcommunity/public/images/apps/1010150/daf88c4be25248f4d7ceb02ea8f60526fa1da128.jpg"
  },
  {
    "name": "D_10",
    "defaultvalue": 0,
    "displayName": "$1kk",
    "hidden": 0,
    "description": "Get $1kk",
    "icon": "https://steamcdn-a.akamaihd.net/steamcommunity/public/images/apps/1010150/1c5cc04b31a11f5d7adcf3b345ac12d662309b6a.jpg",
    "icongray": "https://steamcdn-a.akamaihd.net/steamcommunity/public/images/apps/1010150/daf88c4be25248f4d7ceb02ea8f60526fa1da128.jpg"
  },
  {
    "name": "BOMB_2",
    "defaultvalue": 0,
    "displayName": "Take profits",
    "hidden": 0,
    "description": "Take the bomb",
    "icon": "https://steamcdn-a.akamaihd.net/steamcommunity/public/images/apps/1010150/f82183c6237b59d6e90189e9c359eff10b32f04f.jpg",
    "icongray": "https://steamcdn-a.akamaihd.net/steamcommunity/public/images/apps/1010150/daf88c4be25248f4d7ceb02ea8f60526fa1da128.jpg"
  },
  {
    "name": "CASE_4_2",
    "defaultvalue": 0,
    "displayName": "SELL",
    "hidden": 0,
    "description": "Take a case \"fake\"",
    "icon": "https://steamcdn-a.akamaihd.net/steamcommunity/public/images/apps/1010150/36cde254081a492da1e535d6cb38366273df9a13.jpg",
    "icongray": "https://steamcdn-a.akamaihd.net/steamcommunity/public/images/apps/1010150/a3dde7ed4d8fefd1e56edeac355ce5757698479d.jpg"
  },
  {
    "name": "D_11",
    "defaultvalue": 0,
    "displayName": "BUY",
    "hidden": 0,
    "description": "Get $300k",
    "icon": "https://steamcdn-a.akamaihd.net/steamcommunity/public/images/apps/1010150/ad5fca413701a5be4e3c49c7393c281e4002a17b.jpg",
    "icongray": "https://steamcdn-a.akamaihd.net/steamcommunity/public/images/apps/1010150/daf88c4be25248f4d7ceb02ea8f60526fa1da128.jpg"
  },
  {
    "name": "D_12",
    "defaultvalue": 0,
    "displayName": "HAMSTER",
    "hidden": 0,
    "description": "Get $400k",
    "icon": "https://steamcdn-a.akamaihd.net/steamcommunity/public/images/apps/1010150/2864dc8c6327eb2e8eb2f4fcf39095b645627da3.jpg",
    "icongray": "https://steamcdn-a.akamaihd.net/steamcommunity/public/images/apps/1010150/daf88c4be25248f4d7ceb02ea8f60526fa1da128.jpg"
  },
  {
    "name": "D_13",
    "defaultvalue": 0,
    "displayName": "Nickname 1",
    "hidden": 0,
    "description": "Get $600k",
    "icon": "https://steamcdn-a.akamaihd.net/steamcommunity/public/images/apps/1010150/e048397f132c7ae1d7235182c4b0fc46841dd23b.jpg",
    "icongray": "https://steamcdn-a.akamaihd.net/steamcommunity/public/images/apps/1010150/daf88c4be25248f4d7ceb02ea8f60526fa1da128.jpg"
  },
  {
    "name": "D_14",
    "defaultvalue": 0,
    "displayName": "Nickname 2",
    "hidden": 0,
    "description": "Get $700k",
    "icon": "https://steamcdn-a.akamaihd.net/steamcommunity/public/images/apps/1010150/ccb99f3a9753af43104339a24fe0c86a8a16519c.jpg",
    "icongray": "https://steamcdn-a.akamaihd.net/steamcommunity/public/images/apps/1010150/daf88c4be25248f4d7ceb02ea8f60526fa1da128.jpg"
  },
  {
    "name": "D_15",
    "defaultvalue": 0,
    "displayName": "Nickname 3",
    "hidden": 0,
    "description": "Get $800k",
    "icon": "https://steamcdn-a.akamaihd.net/steamcommunity/public/images/apps/1010150/942f7474e7c3542fefc886c7bb49ac40a4f8d492.jpg",
    "icongray": "https://steamcdn-a.akamaihd.net/steamcommunity/public/images/apps/1010150/a3dde7ed4d8fefd1e56edeac355ce5757698479d.jpg"
  },
  {
    "name": "D_16",
    "defaultvalue": 0,
    "displayName": "Nickname 4",
    "hidden": 0,
    "description": "Get $900k",
    "icon": "https://steamcdn-a.akamaihd.net/steamcommunity/public/images/apps/1010150/52773c7e87dfc34b12fe033b608dbfc5661c9525.jpg",
    "icongray": "https://steamcdn-a.akamaihd.net/steamcommunity/public/images/apps/1010150/daf88c4be25248f4d7ceb02ea8f60526fa1da128.jpg"
  },
  {
    "name": "END",
    "defaultvalue": 0,
    "displayName": "Nickname 5",
    "hidden": 0,
    "description": "Get $1kk",
    "icon": "https://steamcdn-a.akamaihd.net/steamcommunity/public/images/apps/1010150/826d11b5413fa824582722edd358a4bd401f9a23.jpg",
    "icongray": "https://steamcdn-a.akamaihd.net/steamcommunity/public/images/apps/1010150/daf88c4be25248f4d7ceb02ea8f60526fa1da128.jpg"
  },
  {
    "name": "BONUS_1",
    "defaultvalue": 0,
    "displayName": "Fever",
    "hidden": 0,
    "description": "Take bonus",
    "icon": "https://steamcdn-a.akamaihd.net/steamcommunity/public/images/apps/1010150/0546b58e69083629005a0032e5b106fb6733f89c.jpg",
    "icongray": "https://steamcdn-a.akamaihd.net/steamcommunity/public/images/apps/1010150/daf88c4be25248f4d7ceb02ea8f60526fa1da128.jpg"
  },
  {
    "name": "BONUS_2",
    "defaultvalue": 0,
    "displayName": "Forever",
    "hidden": 0,
    "description": "Take bonus",
    "icon": "https://steamcdn-a.akamaihd.net/steamcommunity/public/images/apps/1010150/f65ded6c02849e1cc25d3c35ca10e626484c887e.jpg",
    "icongray": "https://steamcdn-a.akamaihd.net/steamcommunity/public/images/apps/1010150/daf88c4be25248f4d7ceb02ea8f60526fa1da128.jpg"
  }
]