[
  {
    "name": "ach_1",
    "defaultvalue": 0,
    "displayName": "Persistent Brats",
    "hidden": 0,
    "description": "Beat the final boss and rescue Sachiro!",
    "icon": "https://steamcdn-a.akamaihd.net/steamcommunity/public/images/apps/643880/7313336f2a9864b10c2113c9345ca2ec00f8974c.jpg",
    "icongray": "https://steamcdn-a.akamaihd.net/steamcommunity/public/images/apps/643880/c7a20293d13c39c75bce4da020c2b2ae88fd2831.jpg"
  },
  {
    "name": "ach_2",
    "defaultvalue": 0,
    "displayName": "True Scouts",
    "hidden": 0,
    "description": "Uncover all the map!",
    "icon": "https://steamcdn-a.akamaihd.net/steamcommunity/public/images/apps/643880/02121552021c22497a6f9ec1f4862b7987a36bd1.jpg",
    "icongray": "https://steamcdn-a.akamaihd.net/steamcommunity/public/images/apps/643880/b9c3369558177a04ba4b3ca2f80360a4e6c377de.jpg"
  },
  {
    "name": "ach_3",
    "defaultvalue": 0,
    "displayName": "Block Rampage",
    "hidden": 0,
    "description": "Beat all stages in the game!",
    "icon": "https://steamcdn-a.akamaihd.net/steamcommunity/public/images/apps/643880/b93aa2b78e4383209f5fd8edfd26e50db7f6a624.jpg",
    "icongray": "https://steamcdn-a.akamaihd.net/steamcommunity/public/images/apps/643880/19fbba78e0f59a4aeb8c1d78571ac48f45919e8c.jpg"
  },
  {
    "name": "ach_4",
    "defaultvalue": 0,
    "displayName": "Lovely Gals",
    "hidden": 0,
    "description": "Beat any stage with 3 life hearts!",
    "icon": "https://steamcdn-a.akamaihd.net/steamcommunity/public/images/apps/643880/2e3133ecfcaa71a936e836c5140aca0337a9b8d8.jpg",
    "icongray": "https://steamcdn-a.akamaihd.net/steamcommunity/public/images/apps/643880/5159591a7c2700284c7c2f29a06594c6cd108f16.jpg"
  },
  {
    "name": "ach_5",
    "defaultvalue": 0,
    "displayName": "Full Booty",
    "hidden": 0,
    "description": "Get 100% coins in some stage!",
    "icon": "https://steamcdn-a.akamaihd.net/steamcommunity/public/images/apps/643880/1047a63e85eeb74d412abf4e51eb407ec79059ce.jpg",
    "icongray": "https://steamcdn-a.akamaihd.net/steamcommunity/public/images/apps/643880/0f15607b4004f9d3435ef60f1bbc6e7339db6ccd.jpg"
  },
  {
    "name": "ach_6",
    "defaultvalue": 0,
    "displayName": "Little Loan Sharks",
    "hidden": 0,
    "description": "Get 100% green gems!",
    "icon": "https://steamcdn-a.akamaihd.net/steamcommunity/public/images/apps/643880/e52741b39a37a8750504ab292681f45174aba54b.jpg",
    "icongray": "https://steamcdn-a.akamaihd.net/steamcommunity/public/images/apps/643880/58776053740ac68957eda2a29039b3af7717d2d9.jpg"
  },
  {
    "name": "ach_7",
    "defaultvalue": 0,
    "displayName": "Like A Boss",
    "hidden": 0,
    "description": "Defeat all bosses!",
    "icon": "https://steamcdn-a.akamaihd.net/steamcommunity/public/images/apps/643880/ecd1101d7343f82dc29d35e117c2582417646928.jpg",
    "icongray": "https://steamcdn-a.akamaihd.net/steamcommunity/public/images/apps/643880/d42f507a1ccd20fe0245c9eae08d28f27ff4685a.jpg"
  },
  {
    "name": "ach_8",
    "defaultvalue": 0,
    "displayName": "Huntresses & Players",
    "hidden": 0,
    "description": "Catch all monsters and complete the bestiary!",
    "icon": "https://steamcdn-a.akamaihd.net/steamcommunity/public/images/apps/643880/6b017048c93c86d3024ed598f9aabe21cbf3c133.jpg",
    "icongray": "https://steamcdn-a.akamaihd.net/steamcommunity/public/images/apps/643880/d5859e8f0c360e45f904d457ed1328ca53f68feb.jpg"
  },
  {
    "name": "ach_9",
    "defaultvalue": 0,
    "displayName": "Hard Workers",
    "hidden": 0,
    "description": "Beat all extra levels!",
    "icon": "https://steamcdn-a.akamaihd.net/steamcommunity/public/images/apps/643880/9b85da44847072be4875dc6d785e2ab5df6280a9.jpg",
    "icongray": "https://steamcdn-a.akamaihd.net/steamcommunity/public/images/apps/643880/f360522ae39d51273650c2a29a081471598c18f2.jpg"
  },
  {
    "name": "ach_10",
    "defaultvalue": 0,
    "displayName": "All Stars",
    "hidden": 0,
    "description": "Get all Stars in extra levels!",
    "icon": "https://steamcdn-a.akamaihd.net/steamcommunity/public/images/apps/643880/bc34eebd3c78de26301e7d786ef2e7d81959b2a6.jpg",
    "icongray": "https://steamcdn-a.akamaihd.net/steamcommunity/public/images/apps/643880/ad891092d57c4883ac8510abc68ea4961281f096.jpg"
  }
]