{
  "Dlcs": {},
  "Name": "Supaplex THINK!",
  "AppId": "913660",
  "ImageUrl": "https://steamcdn-a.akamaihd.net/steam/apps/913660/header.jpg?t=1575525310",
  "Languages": [
    "english"
  ],
  "Platforms": {
    "windows": true,
    "mac": true,
    "linux": false
  }
}