[
  {
    "name": "Chapter1",
    "defaultvalue": 0,
    "displayName": "Chapter1",
    "hidden": 0,
    "description": "Pass \"Chapter1\".",
    "icon": "https://steamcdn-a.akamaihd.net/steamcommunity/public/images/apps/732520/c3e8f840b8445ad6b5fc2b2eb2db0151b02a0dde.jpg",
    "icongray": "https://steamcdn-a.akamaihd.net/steamcommunity/public/images/apps/732520/c7738197a58913e39e9a446eb5cd9683248f5fab.jpg"
  },
  {
    "name": "Chapter2",
    "defaultvalue": 0,
    "displayName": "Chapter2",
    "hidden": 0,
    "description": "Pass \"Chapter2\"",
    "icon": "https://steamcdn-a.akamaihd.net/steamcommunity/public/images/apps/732520/33e35b7a2d4aa227b7b7f3250e848d9ed1359f72.jpg",
    "icongray": "https://steamcdn-a.akamaihd.net/steamcommunity/public/images/apps/732520/c7738197a58913e39e9a446eb5cd9683248f5fab.jpg"
  },
  {
    "name": "Chapter3",
    "defaultvalue": 0,
    "displayName": "Chapter3",
    "hidden": 0,
    "description": "Pass \"Chapter3\"",
    "icon": "https://steamcdn-a.akamaihd.net/steamcommunity/public/images/apps/732520/60e24bdbc47a51e2cc5a84b9e2354378f1d3b3e1.jpg",
    "icongray": "https://steamcdn-a.akamaihd.net/steamcommunity/public/images/apps/732520/c7738197a58913e39e9a446eb5cd9683248f5fab.jpg"
  },
  {
    "name": "Chapter4",
    "defaultvalue": 0,
    "displayName": "Chapter4",
    "hidden": 0,
    "description": "Pass \"Chapter4\"",
    "icon": "https://steamcdn-a.akamaihd.net/steamcommunity/public/images/apps/732520/4c8000f7fa58d52ca93b30c963afcc0d945a80f4.jpg",
    "icongray": "https://steamcdn-a.akamaihd.net/steamcommunity/public/images/apps/732520/c7738197a58913e39e9a446eb5cd9683248f5fab.jpg"
  },
  {
    "name": "Chapter5",
    "defaultvalue": 0,
    "displayName": "Chapter5",
    "hidden": 0,
    "description": "Pass \"Chapter5\"",
    "icon": "https://steamcdn-a.akamaihd.net/steamcommunity/public/images/apps/732520/e35c82a709055081777a3bcabe43b621791ecb9e.jpg",
    "icongray": "https://steamcdn-a.akamaihd.net/steamcommunity/public/images/apps/732520/c7738197a58913e39e9a446eb5cd9683248f5fab.jpg"
  },
  {
    "name": "Chapter6",
    "defaultvalue": 0,
    "displayName": "Chapter6",
    "hidden": 0,
    "description": "Pass \"Chapter6\".",
    "icon": "https://steamcdn-a.akamaihd.net/steamcommunity/public/images/apps/732520/b05091a28271a173ce619e939eb4fe5a6dc7f888.jpg",
    "icongray": "https://steamcdn-a.akamaihd.net/steamcommunity/public/images/apps/732520/c7738197a58913e39e9a446eb5cd9683248f5fab.jpg"
  },
  {
    "name": "Chapter7",
    "defaultvalue": 0,
    "displayName": "Chapter7",
    "hidden": 0,
    "description": "Pass \"Chapter7\".",
    "icon": "https://steamcdn-a.akamaihd.net/steamcommunity/public/images/apps/732520/27f69e926f32f972180be5084bdd5d05888d9e66.jpg",
    "icongray": "https://steamcdn-a.akamaihd.net/steamcommunity/public/images/apps/732520/c7738197a58913e39e9a446eb5cd9683248f5fab.jpg"
  },
  {
    "name": "Chapter8",
    "defaultvalue": 0,
    "displayName": "Chapter8",
    "hidden": 0,
    "description": "Pass \"Chapter8\".",
    "icon": "https://steamcdn-a.akamaihd.net/steamcommunity/public/images/apps/732520/d44a1ee16ffdbf6c66e1a69ff06ac9f2a67ec3a1.jpg",
    "icongray": "https://steamcdn-a.akamaihd.net/steamcommunity/public/images/apps/732520/c7738197a58913e39e9a446eb5cd9683248f5fab.jpg"
  },
  {
    "name": "Chapter9",
    "defaultvalue": 0,
    "displayName": "Chapter9",
    "hidden": 0,
    "description": "Pass \"Chapter9\".",
    "icon": "https://steamcdn-a.akamaihd.net/steamcommunity/public/images/apps/732520/bcddc5615138113395d774b05d6386669f9a334b.jpg",
    "icongray": "https://steamcdn-a.akamaihd.net/steamcommunity/public/images/apps/732520/c7738197a58913e39e9a446eb5cd9683248f5fab.jpg"
  },
  {
    "name": "WarOver",
    "defaultvalue": 0,
    "displayName": "WarOver",
    "hidden": 0,
    "description": "Finish the entire campaign.",
    "icon": "https://steamcdn-a.akamaihd.net/steamcommunity/public/images/apps/732520/e5fe23bdab43f4eedf6b56b638a04c5613178366.jpg",
    "icongray": "https://steamcdn-a.akamaihd.net/steamcommunity/public/images/apps/732520/c7738197a58913e39e9a446eb5cd9683248f5fab.jpg"
  },
  {
    "name": "Credits",
    "defaultvalue": 0,
    "displayName": "Thank you!",
    "hidden": 0,
    "description": "Have a quick look at the credits.",
    "icon": "https://steamcdn-a.akamaihd.net/steamcommunity/public/images/apps/732520/4222566437e3f6da28c3ffd7afd2cd092974bf13.jpg",
    "icongray": "https://steamcdn-a.akamaihd.net/steamcommunity/public/images/apps/732520/c7738197a58913e39e9a446eb5cd9683248f5fab.jpg"
  },
  {
    "name": "Zombie5",
    "defaultvalue": 0,
    "displayName": "Zombie5",
    "hidden": 0,
    "description": "Reach wave 5 while playing the zombie mode.",
    "icon": "https://steamcdn-a.akamaihd.net/steamcommunity/public/images/apps/732520/4d484b4c20c54d126f5c2bd76688f80640b3c807.jpg",
    "icongray": "https://steamcdn-a.akamaihd.net/steamcommunity/public/images/apps/732520/c7738197a58913e39e9a446eb5cd9683248f5fab.jpg"
  },
  {
    "name": "Zombie20",
    "defaultvalue": 0,
    "displayName": "Zombie20",
    "hidden": 0,
    "description": "Reach wave 20 while playing the zombie mode.",
    "icon": "https://steamcdn-a.akamaihd.net/steamcommunity/public/images/apps/732520/e84e4b1efab7c11ba879baf003620a6a316a225e.jpg",
    "icongray": "https://steamcdn-a.akamaihd.net/steamcommunity/public/images/apps/732520/c7738197a58913e39e9a446eb5cd9683248f5fab.jpg"
  },
  {
    "name": "Ready",
    "defaultvalue": 0,
    "displayName": "Getting ready!",
    "hidden": 0,
    "description": "Be ready to join the battle and start a new game.",
    "icon": "https://steamcdn-a.akamaihd.net/steamcommunity/public/images/apps/732520/226266b9887b90f7d97b99191d82c41a6a5bdd8a.jpg",
    "icongray": "https://steamcdn-a.akamaihd.net/steamcommunity/public/images/apps/732520/c7738197a58913e39e9a446eb5cd9683248f5fab.jpg"
  }
]