{
  "Dlcs": {},
  "Name": "Space Station Manager",
  "AppId": "1250100",
  "ImageUrl": "https://steamcdn-a.akamaihd.net/steam/apps/1250100/header.jpg?t=1592831981",
  "Languages": [
    "english"
  ],
  "Platforms": {
    "windows": true,
    "mac": false,
    "linux": false
  }
}