{
  "Dlcs": {
    "909730": {
      "Name": "Black Paradox - Soundtrack",
      "ImageUrl": "https://steamcdn-a.akamaihd.net/steam/apps/909730/header.jpg?t=1593025376"
    }
  },
  "Name": "Black Paradox",
  "AppId": "858680",
  "ImageUrl": "https://steamcdn-a.akamaihd.net/steam/apps/858680/header.jpg?t=1593025256",
  "Languages": [
    "english",
    "french",
    "italian",
    "german",
    "spanish",
    "schinese",
    "russian"
  ],
  "Platforms": {
    "windows": true,
    "mac": true,
    "linux": false
  }
}