{
  "Dlcs": {},
  "Name": "Stones of Rome",
  "AppId": "685760",
  "ImageUrl": "https://steamcdn-a.akamaihd.net/steam/apps/685760/header.jpg?t=1587054781",
  "Languages": [
    "english",
    "french",
    "german",
    "italian",
    "spanish",
    "dutch",
    "portuguese",
    "swedish",
    "portuguese"
  ],
  "Platforms": {
    "windows": true,
    "mac": false,
    "linux": false
  }
}