{
  "Dlcs": {},
  "Name": "Bubble Rush",
  "AppId": "717910",
  "ImageUrl": "https://steamcdn-a.akamaihd.net/steam/apps/717910/header.jpg?t=1506802098",
  "Languages": [
    "english"
  ],
  "Platforms": {
    "windows": true,
    "mac": false,
    "linux": false
  }
}