{
  "Dlcs": {},
  "Name": "瓶中精灵 - Fairy in a Jar",
  "AppId": "997700",
  "ImageUrl": "https://steamcdn-a.akamaihd.net/steam/apps/997700/header.jpg?t=1558254690",
  "Languages": [
    "schinese",
    "english"
  ],
  "Platforms": {
    "windows": true,
    "mac": false,
    "linux": false
  }
}