﻿{
  "NightsSurvived": {
    "description": "Nights Survived",
    "value": 0
  },
  "AccumulativeDamageTake": {
    "description": "Accumulative Damage Take",
    "value": 0
  },
  "DontMoveSurviveNights": {
    "description": "Dont Move And Survive",
    "value": 0
  },
  "NoBuildingsSurvival": {
    "description": "Survive Without Buildings",
    "value": 0
  },
  "SkeletonsKilled": {
    "description": "Skeletons Killed",
    "value": 0
  },
  "TotalEnemiesKilled": {
    "description": "Total Enemies Killed",
    "value": 0
  },
  "GhoulsKilled": {
    "description": "Ghouls Killed",
    "value": 0
  },
  "NecromancersKilled": {
    "description": "Necromancers Killed",
    "value": 0
  },
  "PistolKills": {
    "description": "Pistol Kills",
    "value": 0
  },
  "Ak47Kills": {
    "description": "AK47 Kills",
    "value": 0
  },
  "M16Kills": {
    "description": "M16 Kills",
    "value": 0
  },
  "Mp5Kills": {
    "description": "MP5 Kills",
    "value": 0
  },
  "UziKills": {
    "description": "Uzi Kills",
    "value": 0
  },
  "ShotgunKills": {
    "description": "Shotgun Kills",
    "value": 0
  },
  "RocketLauncherKills": {
    "description": "Rocket Launcher Kills",
    "value": 0
  },
  "RunningTotal": {
    "description": "Running Total",
    "value": 0
  },
  "SurvivePistolNights": {
    "description": "Survive Pistol Only Night",
    "value": 0
  },
  "SurviveAk47Nights": {
    "description": "Survive Ak47 Only Night",
    "value": 0
  },
  "SurviveM16Nights": {
    "description": "Survive M16 Only Night",
    "value": 0
  },
  "SurviveMp5Nights": {
    "description": "Survive Mp5 Only Night",
    "value": 0
  },
  "SurviveRocketLauncherNights": {
    "description": "Survive Rocket Launcher Only Nights",
    "value": 0
  },
  "SurviveShotgunNights": {
    "description": "Survive Shotgun Only Nights",
    "value": 0
  },
  "SurviveUziNights": {
    "description": "Survive Uzi Only Nights",
    "value": 0
  },
  "SurviveNightsNoGunChange": {
    "description": "Survive nights without changing weapon",
    "value": 0
  },
  "SurviveNightNoDamage": {
    "description": "Survive Night 0 Damage",
    "value": 0
  },
  "InstantKillCount": {
    "description": "Kill As Many Enemies With Instant Kill",
    "value": 0
  },
  "PowerupEnvy": {
    "description": "Powerup Collector",
    "value": 0
  }
}