﻿{
  "Dlcs": {},
  "Name": "Way Out",
  "AppId": "791380",
  "ImageUrl": "https://steamcdn-a.akamaihd.net/steam/apps/791380/header.jpg?t=1520302019",
  "Languages": [
    "english",
    "schinese"
  ],
  "Platforms": {
    "windows": true,
    "mac": false,
    "linux": false
  }
}