[
  {
    "name": "CgkI353TuMACEAIQAQ",
    "defaultvalue": 0,
    "displayName": "Warm up",
    "hidden": 0,
    "description": "Kill 100 enemies",
    "icon": "https://steamcdn-a.akamaihd.net/steamcommunity/public/images/apps/1197530/94613ebf58101c6bcd03dd8415d6ade5218b0acf.jpg",
    "icongray": "https://steamcdn-a.akamaihd.net/steamcommunity/public/images/apps/1197530/cebdc0eaa606430b15f980495a9c49184622e01a.jpg"
  },
  {
    "name": "CgkI353TuMACEAIQAg",
    "defaultvalue": 0,
    "displayName": "Mercenary",
    "hidden": 0,
    "description": "Kill 1000 enemies",
    "icon": "https://steamcdn-a.akamaihd.net/steamcommunity/public/images/apps/1197530/516482bdf09ad429ef9be1d83018526cbe5c9d09.jpg",
    "icongray": "https://steamcdn-a.akamaihd.net/steamcommunity/public/images/apps/1197530/c823749e5781f59e1b4fc036b7122d8857a122f8.jpg"
  },
  {
    "name": "CgkI353TuMACEAIQAw",
    "defaultvalue": 0,
    "displayName": "Experienced",
    "hidden": 0,
    "description": "Kill 1000 enemies",
    "icon": "https://steamcdn-a.akamaihd.net/steamcommunity/public/images/apps/1197530/e3db95963ba37bf615fc74cf39b754def1fa8ef4.jpg",
    "icongray": "https://steamcdn-a.akamaihd.net/steamcommunity/public/images/apps/1197530/d46a1b8824061d61d3b886383b2b5b8839e23646.jpg"
  },
  {
    "name": "CgkI353TuMACEAIQBA",
    "defaultvalue": 0,
    "displayName": "Feud",
    "hidden": 0,
    "description": "Complete the human planet",
    "icon": "https://steamcdn-a.akamaihd.net/steamcommunity/public/images/apps/1197530/aa8bf158ca55b6f6c8adbb145f651ad9341c11ad.jpg",
    "icongray": "https://steamcdn-a.akamaihd.net/steamcommunity/public/images/apps/1197530/f2d498a352a04b94f3ff645f942a0669b998cbb0.jpg"
  },
  {
    "name": "CgkI353TuMACEAIQBQ",
    "defaultvalue": 0,
    "displayName": "It was ugly",
    "hidden": 0,
    "description": "Complete the insectoids planet",
    "icon": "https://steamcdn-a.akamaihd.net/steamcommunity/public/images/apps/1197530/2c20b5304ba2b037f348dea8a6067aeaa0850d1c.jpg",
    "icongray": "https://steamcdn-a.akamaihd.net/steamcommunity/public/images/apps/1197530/3f3dacc888cc23f2bc043254c35cf3a693827f35.jpg"
  },
  {
    "name": "CgkI353TuMACEAIQBg",
    "defaultvalue": 0,
    "displayName": "Lord of the universe",
    "hidden": 0,
    "description": "Complete the fargos planet",
    "icon": "https://steamcdn-a.akamaihd.net/steamcommunity/public/images/apps/1197530/b68e7af15b21b499d876ddd268ccbd35f88e93b1.jpg",
    "icongray": "https://steamcdn-a.akamaihd.net/steamcommunity/public/images/apps/1197530/4ae34f633e1e03974fdd1d04e92d68fc7aa95aa4.jpg"
  },
  {
    "name": "CgkI353TuMACEAIQBw",
    "defaultvalue": 0,
    "displayName": "Craft",
    "hidden": 1,
    "icon": "https://steamcdn-a.akamaihd.net/steamcommunity/public/images/apps/1197530/9f383a7c0d81630756d3b357cf8b1d4ce447fde4.jpg",
    "icongray": "https://steamcdn-a.akamaihd.net/steamcommunity/public/images/apps/1197530/6ee581332a331c9dc248a1155a419bbab68cd0e0.jpg"
  },
  {
    "name": "CgkI353TuMACEAIQCA",
    "defaultvalue": 0,
    "displayName": "Reroll",
    "hidden": 1,
    "icon": "https://steamcdn-a.akamaihd.net/steamcommunity/public/images/apps/1197530/582ab3865d5ac9fc10eca47ddf7494af2c942a1b.jpg",
    "icongray": "https://steamcdn-a.akamaihd.net/steamcommunity/public/images/apps/1197530/54378d29a421f1b91d4fa458d88fcb583a2ad647.jpg"
  },
  {
    "name": "CgkI353TuMACEAIQCg",
    "defaultvalue": 0,
    "displayName": "Collector",
    "hidden": 0,
    "description": "Unlock all modules",
    "icon": "https://steamcdn-a.akamaihd.net/steamcommunity/public/images/apps/1197530/82be2e470b716b32ff559982813bdd407ad3ead0.jpg",
    "icongray": "https://steamcdn-a.akamaihd.net/steamcommunity/public/images/apps/1197530/05d1d9710bd1cd99e482b30ee12be3be2b5a22c9.jpg"
  },
  {
    "name": "CgkI353TuMACEAIQCw",
    "defaultvalue": 0,
    "displayName": "Investigator",
    "hidden": 0,
    "description": "Discover all combinations",
    "icon": "https://steamcdn-a.akamaihd.net/steamcommunity/public/images/apps/1197530/8ed3d61843887848e4fb036d36a623fe332dc92a.jpg",
    "icongray": "https://steamcdn-a.akamaihd.net/steamcommunity/public/images/apps/1197530/2c84322892f956c9315b900716ca7f0e2cbd3f41.jpg"
  },
  {
    "name": "CgkI353TuMACEAIQDA",
    "defaultvalue": 0,
    "displayName": "I need help!",
    "hidden": 0,
    "description": "Upgrade destabilized tower 5 times",
    "icon": "https://steamcdn-a.akamaihd.net/steamcommunity/public/images/apps/1197530/3cc9e80b4aafe9f6fd50f07d7cb53ec7a16ee144.jpg",
    "icongray": "https://steamcdn-a.akamaihd.net/steamcommunity/public/images/apps/1197530/cb6d5906743012ba191d96edb9e2cc0b11f7a86a.jpg"
  },
  {
    "name": "CgkI353TuMACEAIQDg",
    "defaultvalue": 0,
    "displayName": "Aimer",
    "hidden": 0,
    "description": "Build 20 orbital towers (any type)",
    "icon": "https://steamcdn-a.akamaihd.net/steamcommunity/public/images/apps/1197530/4ced951cbe988069112456e2bcae547f1e5c172f.jpg",
    "icongray": "https://steamcdn-a.akamaihd.net/steamcommunity/public/images/apps/1197530/0ba99ec5e7ce2342b56b773169e9470ef899d481.jpg"
  },
  {
    "name": "CgkI353TuMACEAIQDw",
    "defaultvalue": 0,
    "displayName": "Manager",
    "hidden": 0,
    "description": "Build 20 drones towers (any type)",
    "icon": "https://steamcdn-a.akamaihd.net/steamcommunity/public/images/apps/1197530/33ef20a4bb852019e0c5faf6e33d073d003d34b9.jpg",
    "icongray": "https://steamcdn-a.akamaihd.net/steamcommunity/public/images/apps/1197530/4532fe65ed1b70a5f00b38595b179fd9e0314964.jpg"
  },
  {
    "name": "CgkI353TuMACEAIQHg",
    "defaultvalue": 0,
    "displayName": "How it works?",
    "hidden": 0,
    "description": "Make the combo",
    "icon": "https://steamcdn-a.akamaihd.net/steamcommunity/public/images/apps/1197530/b5e514817513b868863e251d08021702328c8030.jpg",
    "icongray": "https://steamcdn-a.akamaihd.net/steamcommunity/public/images/apps/1197530/0e001b61eca0cf657256226989431b3a84537939.jpg"
  },
  {
    "name": "CgkI353TuMACEAIQEA",
    "defaultvalue": 0,
    "displayName": "Master of light",
    "hidden": 0,
    "description": "Build 20 laser towers (any type)",
    "icon": "https://steamcdn-a.akamaihd.net/steamcommunity/public/images/apps/1197530/f9a215ece61c40251b8dd994e20cc046e5fcc078.jpg",
    "icongray": "https://steamcdn-a.akamaihd.net/steamcommunity/public/images/apps/1197530/982a69ce4f07f2a883049b086c98b7ce43dd0908.jpg"
  },
  {
    "name": "CgkI353TuMACEAIQEQ",
    "defaultvalue": 0,
    "displayName": "Pyromaniac",
    "hidden": 0,
    "description": "Kill 100 enemies by flamethrower",
    "icon": "https://steamcdn-a.akamaihd.net/steamcommunity/public/images/apps/1197530/3f1d876af252677fb23a04ac05c6f19a18df8bce.jpg",
    "icongray": "https://steamcdn-a.akamaihd.net/steamcommunity/public/images/apps/1197530/cb3d48b2397a197017301835a62c13b35713e7ff.jpg"
  },
  {
    "name": "CgkI353TuMACEAIQEg",
    "defaultvalue": 0,
    "displayName": "Inventor",
    "hidden": 0,
    "description": "Upgrade the tower",
    "icon": "https://steamcdn-a.akamaihd.net/steamcommunity/public/images/apps/1197530/2d8f50d1d2846b19b3bdee8e09d082deb0d5cb41.jpg",
    "icongray": "https://steamcdn-a.akamaihd.net/steamcommunity/public/images/apps/1197530/19026d024f5221910322bc636daf60f24d63a148.jpg"
  },
  {
    "name": "CgkI353TuMACEAIQEw",
    "defaultvalue": 0,
    "displayName": "Theoretics",
    "hidden": 0,
    "description": "Read the encyclopedia",
    "icon": "https://steamcdn-a.akamaihd.net/steamcommunity/public/images/apps/1197530/329fcf5d0145177ae65581123f2de63c205d88f9.jpg",
    "icongray": "https://steamcdn-a.akamaihd.net/steamcommunity/public/images/apps/1197530/aec66f8994a91f68eb53f6588d4434cc9049629f.jpg"
  },
  {
    "name": "CgkI353TuMACEAIQFA",
    "defaultvalue": 0,
    "displayName": "Nikola Tesla disciple",
    "hidden": 0,
    "description": "Build \"Tesla 2.0\" tower",
    "icon": "https://steamcdn-a.akamaihd.net/steamcommunity/public/images/apps/1197530/9e469b91abb37400fbf4c6fa6004a217790da6f5.jpg",
    "icongray": "https://steamcdn-a.akamaihd.net/steamcommunity/public/images/apps/1197530/6271826a59cbde7b2e5c28117a2f3864483668b9.jpg"
  },
  {
    "name": "CgkI353TuMACEAIQFQ",
    "defaultvalue": 0,
    "displayName": "Purposeful",
    "hidden": 0,
    "description": "Use the power amplifier",
    "icon": "https://steamcdn-a.akamaihd.net/steamcommunity/public/images/apps/1197530/7e18677ddced6468c11a99dd06100fac250ef3c3.jpg",
    "icongray": "https://steamcdn-a.akamaihd.net/steamcommunity/public/images/apps/1197530/250af3bc6de2fbcbcbaa7f8dc167c85e55b45b48.jpg"
  },
  {
    "name": "CgkI353TuMACEAIQFg",
    "defaultvalue": 0,
    "displayName": "Magician",
    "hidden": 0,
    "description": "Use 10 skills",
    "icon": "https://steamcdn-a.akamaihd.net/steamcommunity/public/images/apps/1197530/469a8331a5cfea9f33a5b7cd8930fda0cd9f54af.jpg",
    "icongray": "https://steamcdn-a.akamaihd.net/steamcommunity/public/images/apps/1197530/86f0bcc06bc069cf0081132e319bb32ecb453c77.jpg"
  },
  {
    "name": "CgkI353TuMACEAIQFw",
    "defaultvalue": 0,
    "displayName": "Impossibru!",
    "hidden": 1,
    "icon": "https://steamcdn-a.akamaihd.net/steamcommunity/public/images/apps/1197530/9316435a65d61dbdac3854fda726d314904fd842.jpg",
    "icongray": "https://steamcdn-a.akamaihd.net/steamcommunity/public/images/apps/1197530/5ff59167d69d05bc056f28601c2828611a481e16.jpg"
  },
  {
    "name": "CgkI353TuMACEAIQGA",
    "defaultvalue": 0,
    "displayName": "Atomizer",
    "hidden": 0,
    "description": "Atomize 10 modules",
    "icon": "https://steamcdn-a.akamaihd.net/steamcommunity/public/images/apps/1197530/9c9fda639c58633e49dc8f00e57f0a4d06d46aeb.jpg",
    "icongray": "https://steamcdn-a.akamaihd.net/steamcommunity/public/images/apps/1197530/6d031d9ef5fcf31f83d92d829d601751cccbc4ff.jpg"
  },
  {
    "name": "CgkI353TuMACEAIQGQ",
    "defaultvalue": 0,
    "displayName": "Strategist",
    "hidden": 0,
    "description": "Complete level without souls lost",
    "icon": "https://steamcdn-a.akamaihd.net/steamcommunity/public/images/apps/1197530/292804ff44ca29dfe2e6960998138dd88d90be4c.jpg",
    "icongray": "https://steamcdn-a.akamaihd.net/steamcommunity/public/images/apps/1197530/0faf3e225e1f65377dc743676ef24e93d9610079.jpg"
  },
  {
    "name": "CgkI353TuMACEAIQGg",
    "defaultvalue": 0,
    "displayName": "Investor",
    "hidden": 0,
    "description": "Get 1000 energy from \"economy\" modules",
    "icon": "https://steamcdn-a.akamaihd.net/steamcommunity/public/images/apps/1197530/98a13874d057a31a420500f4b658a77d75379fb3.jpg",
    "icongray": "https://steamcdn-a.akamaihd.net/steamcommunity/public/images/apps/1197530/82a1dfe11f848efdcbc525995bfc4bfea89c607b.jpg"
  },
  {
    "name": "CgkI353TuMACEAIQGw",
    "defaultvalue": 0,
    "displayName": "Conservative",
    "hidden": 0,
    "description": "Stabilize the module",
    "icon": "https://steamcdn-a.akamaihd.net/steamcommunity/public/images/apps/1197530/47b7d9a06577b29af76cf19c6ac25c31ce03cbad.jpg",
    "icongray": "https://steamcdn-a.akamaihd.net/steamcommunity/public/images/apps/1197530/7a12418b4d3808256e6881568c2cd3b15781c7d8.jpg"
  },
  {
    "name": "CgkI353TuMACEAIQHA",
    "defaultvalue": 0,
    "displayName": "Economist",
    "hidden": 0,
    "description": "Win the level with left 1000 energy",
    "icon": "https://steamcdn-a.akamaihd.net/steamcommunity/public/images/apps/1197530/d76ac47ebd73ca69af8e118df4871b7e57875deb.jpg",
    "icongray": "https://steamcdn-a.akamaihd.net/steamcommunity/public/images/apps/1197530/5a3f73a8f4ab88580b56219e60145ea7710342b1.jpg"
  },
  {
    "name": "CgkI353TuMACEAIQHQ",
    "defaultvalue": 0,
    "displayName": "Fanatic",
    "hidden": 0,
    "description": "Unlock all achievements",
    "icon": "https://steamcdn-a.akamaihd.net/steamcommunity/public/images/apps/1197530/f951402f9ba5831d999af0b03463b5f44f8be034.jpg",
    "icongray": "https://steamcdn-a.akamaihd.net/steamcommunity/public/images/apps/1197530/e48386c717adbf0dc71b1434be36fa28c220cc33.jpg"
  }
]