﻿{
  "GamePlayed": {
    "description": "Game Played",
    "value": 0
  },
  "Users": {
    "description": "Number of users",
    "value": 0
  },
  "TablesPlayed": {
    "description": "Tables Played",
    "value": 0
  },
  "TablesTrialPlayed": {
    "description": "Trial tables played",
    "value": 0
  },
  "TablesHotseatPlayed": {
    "description": "Hotseat played",
    "value": 0
  },
  "TrialPlayedHours": {
    "description": "Trial play time (hours)",
    "value": 0
  },
  "SinglePlayedHours": {
    "description": "Single play time (hours)",
    "value": 0
  },
  "HotseatPlayedHours": {
    "description": "Hotseat play time (hours)",
    "value": 0
  },
  "Tables_VeryEasy_Played": {
    "description": "Very easy",
    "value": 0
  },
  "Tables_Easy_Played": {
    "description": "Easy",
    "value": 0
  },
  "Tables_Normal_Played": {
    "description": "Normal",
    "value": 0
  },
  "Tables_Hard_Played": {
    "description": "Hard",
    "value": 0
  },
  "Tables_VeryHard_Played": {
    "description": "Very Hard",
    "value": 0
  },
  "TablesCustomControlPlayed": {
    "description": "Custom controls",
    "value": 0
  },
  "TablesCustomAudioPlayed": {
    "description": "Custom audio",
    "value": 0
  },
  "TablesAudioOffPlayed": {
    "description": "No audio",
    "value": 0
  },
  "TablesPortraitPlayed": {
    "description": "Portrait mode",
    "value": 0
  },
  "TablesCustomSettingsPlayed": {
    "description": "Custom table settings",
    "value": 0
  },
  "TablesSaved": {
    "description": "Tables saved",
    "value": 0
  },
  "TablesLoaded": {
    "description": "Tables loaded",
    "value": 0
  },
  "UpsellShown": {
    "description": "Upsell screen shown",
    "value": 0
  },
  "UpsellAccepted": {
    "description": "Upsell accepted",
    "value": 0
  },
  "Languafe_English": {
    "description": "English",
    "value": 0
  },
  "Language_French": {
    "description": "French",
    "value": 0
  },
  "Language_German": {
    "description": "German",
    "value": 0
  },
  "Language_italian": {
    "description": "Italian",
    "value": 0
  },
  "Language_Spanish": {
    "description": "Spanish",
    "value": 0
  },
  "Language_Japanese": {
    "description": "Japanese",
    "value": 0
  },
  "HowToPlay_Shown": {
    "description": "How to Play",
    "value": 0
  },
  "Controls_Shown": {
    "description": "Controls",
    "value": 0
  },
  "Settings_Shown": {
    "description": "Settings",
    "value": 0
  },
  "Credits_Shown": {
    "description": "Credits",
    "value": 0
  },
  "About_Shown": {
    "description": "About",
    "value": 0
  },
  "TableGuide_Shown": {
    "description": "Table guide",
    "value": 0
  },
  "Statistics_Shown": {
    "description": "Statistics",
    "value": 0
  },
  "OperatorsMenu_Shown": {
    "description": "Operators menu",
    "value": 0
  },
  "CabinetLicense": {
    "description": "Cabinet license",
    "value": 0
  }
}