﻿[
  {
    "name": "FINISH_TUTORIAL",
    "defaultvalue": 0,
    "displayName": "Grand Master In Training",
    "hidden": 0,
    "description": "Complete the tutorial",
    "icon": "https://steamcdn-a.akamaihd.net/steamcommunity/public/images/apps/987230/c05cc67a03afcd630f61b9ae68fc479166705cc0.jpg",
    "icongray": "https://steamcdn-a.akamaihd.net/steamcommunity/public/images/apps/987230/2e3f419a3ee403b2c182c1c8886d5e0bf06bb6db.jpg"
  },
  {
    "name": "COLLECT_FIRST_RUNE",
    "defaultvalue": 0,
    "displayName": "Collector",
    "hidden": 0,
    "description": "Collect a Rune of Power",
    "icon": "https://steamcdn-a.akamaihd.net/steamcommunity/public/images/apps/987230/1bfd06c932c07bae25e3047f622972e3f19886cd.jpg",
    "icongray": "https://steamcdn-a.akamaihd.net/steamcommunity/public/images/apps/987230/c0d6e22a2fcdfaee2d172255e01baf7488f18955.jpg"
  },
  {
    "name": "ARMOURY_OPTIONAL_OBJECTIVES",
    "defaultvalue": 0,
    "displayName": "Samson's Helper",
    "hidden": 0,
    "description": "Complete all optional objectives in the Sky Keep Armory",
    "icon": "https://steamcdn-a.akamaihd.net/steamcommunity/public/images/apps/987230/664647ec8a49a36deddb7762f835c1f1ed36738d.jpg",
    "icongray": "https://steamcdn-a.akamaihd.net/steamcommunity/public/images/apps/987230/b74c0bf60e10b56332377c4a4fbaeada4284b48d.jpg"
  },
  {
    "name": "COURTYARD_OPTIONAL_OBJECTIVES",
    "defaultvalue": 0,
    "displayName": "Courtyard Explorer",
    "hidden": 0,
    "description": "Complete all optional objectives in the Sky Keep Courtyard",
    "icon": "https://steamcdn-a.akamaihd.net/steamcommunity/public/images/apps/987230/33e0e9b3f4c45b8ffab0e737e6ae87206ea14b8e.jpg",
    "icongray": "https://steamcdn-a.akamaihd.net/steamcommunity/public/images/apps/987230/28f352a1d079a1977947b9d1e49a405b749bec66.jpg"
  },
  {
    "name": "BARTER_WITH_MERCHANT",
    "defaultvalue": 0,
    "displayName": "Expert Negotiator",
    "hidden": 0,
    "description": "Barter with a merchant for a better deal",
    "icon": "https://steamcdn-a.akamaihd.net/steamcommunity/public/images/apps/987230/e826cf286ed1a72de712b78c10cb6d42804ebc1b.jpg",
    "icongray": "https://steamcdn-a.akamaihd.net/steamcommunity/public/images/apps/987230/359b6a321dbf3ddc718a0cef828de252efad0807.jpg"
  },
  {
    "name": "WAR_ROOM_OPTIONAL_OBJECTIVES",
    "defaultvalue": 0,
    "displayName": "Father Gagnon's Assistant",
    "hidden": 0,
    "description": "Complete all optional objectives in the Sky Keep War Room",
    "icon": "https://steamcdn-a.akamaihd.net/steamcommunity/public/images/apps/987230/128277a22883a265cc214dff9e1b92864cdda890.jpg",
    "icongray": "https://steamcdn-a.akamaihd.net/steamcommunity/public/images/apps/987230/45ec58c6d4060336db849f3e5a97aad6ebbb68f7.jpg"
  },
  {
    "name": "KILL_SOUL_SUCKERS",
    "defaultvalue": 0,
    "displayName": "Undead Knight Slayer",
    "hidden": 0,
    "description": "Kill all Undead Knights invading the Sky Keep",
    "icon": "https://steamcdn-a.akamaihd.net/steamcommunity/public/images/apps/987230/18d75020aa4a0ed4cece59205183f20946013cd2.jpg",
    "icongray": "https://steamcdn-a.akamaihd.net/steamcommunity/public/images/apps/987230/20909cc29d8d2e602f5fedec9079e9fa5fd2714e.jpg"
  },
  {
    "name": "SPEND_FIRST_SOUL",
    "defaultvalue": 0,
    "displayName": "Soul Savior",
    "hidden": 0,
    "description": "Save a soul of the living by adding it to one of Evelyn's braziers",
    "icon": "https://steamcdn-a.akamaihd.net/steamcommunity/public/images/apps/987230/f50355e67c5c818067e36a36fd8d81bd748d6769.jpg",
    "icongray": "https://steamcdn-a.akamaihd.net/steamcommunity/public/images/apps/987230/c489fd3494a3d48794bee8335b621d0034c964dc.jpg"
  },
  {
    "name": "HIT_MUMMY_WITH_BOMB",
    "defaultvalue": 0,
    "displayName": "Return To Sender",
    "hidden": 0,
    "description": "Throw a bomb back at a Mummy",
    "icon": "https://steamcdn-a.akamaihd.net/steamcommunity/public/images/apps/987230/2bed41a7f24185bda9d81ba2f90111b8b8e7f7f4.jpg",
    "icongray": "https://steamcdn-a.akamaihd.net/steamcommunity/public/images/apps/987230/b7a3c7bf76ee572aac2f3bffaab55dcb0538757c.jpg"
  },
  {
    "name": "SHOOT_FLYING_BIRD",
    "defaultvalue": 0,
    "displayName": "Deadeye",
    "hidden": 0,
    "description": "Shoot a flying bird",
    "icon": "https://steamcdn-a.akamaihd.net/steamcommunity/public/images/apps/987230/503f3c550490df5d8be2e64a44be1a1447915de5.jpg",
    "icongray": "https://steamcdn-a.akamaihd.net/steamcommunity/public/images/apps/987230/12dae91d02e54adff3ee86e7230e6bb2e74ffd32.jpg"
  },
  {
    "name": "CEMETERY_OPTIONAL_OBJECTIVES",
    "defaultvalue": 0,
    "displayName": "Grave Digger",
    "hidden": 0,
    "description": "Complete all optional objectives in the Undead Cemetery",
    "icon": "https://steamcdn-a.akamaihd.net/steamcommunity/public/images/apps/987230/f6114035708e4ecf6b7d1940e9b2c7b388c2896c.jpg",
    "icongray": "https://steamcdn-a.akamaihd.net/steamcommunity/public/images/apps/987230/a0d708988ffb999d7b81dd31cdd6150969e5ed97.jpg"
  },
  {
    "name": "CEMETERY_TARIUS_OPTIONAL_OBJECTIVES",
    "defaultvalue": 0,
    "displayName": "Sanctuary In The Shadows",
    "hidden": 0,
    "description": "Complete all optional objectives in Tarius's Sancutary",
    "icon": "https://steamcdn-a.akamaihd.net/steamcommunity/public/images/apps/987230/ce19be49e3c492b23bc3dd1c45d5059c65660191.jpg",
    "icongray": "https://steamcdn-a.akamaihd.net/steamcommunity/public/images/apps/987230/c1d64dfb36e0ad4203bb48a1b6e4034bda743bc1.jpg"
  },
  {
    "name": "COLLECT_HALF_RUNES",
    "defaultvalue": 0,
    "displayName": "Master Collector",
    "hidden": 0,
    "description": "Collect over 50% of the Runes of Power",
    "icon": "https://steamcdn-a.akamaihd.net/steamcommunity/public/images/apps/987230/5958f9b4459563253ee2fdd1409900584035d87e.jpg",
    "icongray": "https://steamcdn-a.akamaihd.net/steamcommunity/public/images/apps/987230/f12a6f04e5b55fa400d8dd8376736219333bcff9.jpg"
  },
  {
    "name": "CHAPEL_OPTIONAL_OBJECTIVES",
    "defaultvalue": 0,
    "displayName": "Disciple",
    "hidden": 0,
    "description": "Complete all optional objectives in the Ruined Chapel",
    "icon": "https://steamcdn-a.akamaihd.net/steamcommunity/public/images/apps/987230/da6ba25d894043c8262d7c266b51ccd9307766c9.jpg",
    "icongray": "https://steamcdn-a.akamaihd.net/steamcommunity/public/images/apps/987230/ae240480ca6f85890d6b65ee95ca908952e5244b.jpg"
  },
  {
    "name": "OWN_ALL_WEAPONS",
    "defaultvalue": 0,
    "displayName": "Hoarder",
    "hidden": 0,
    "description": "Own all weapons",
    "icon": "https://steamcdn-a.akamaihd.net/steamcommunity/public/images/apps/987230/aaa2421c484ad97afe34863b82ee79fbc3aac4b3.jpg",
    "icongray": "https://steamcdn-a.akamaihd.net/steamcommunity/public/images/apps/987230/c5ce14de3a37598631428378f504cd4e9ffcbd6a.jpg"
  },
  {
    "name": "DUNGEON_TARIUS_OPTIONAL_OBJECTIVES",
    "defaultvalue": 0,
    "displayName": "Dungeon Crawler",
    "hidden": 0,
    "description": "Complete all optional objectives in the Chapel Dungeons",
    "icon": "https://steamcdn-a.akamaihd.net/steamcommunity/public/images/apps/987230/47768a2575364e4b0707822773391fe7e2044eff.jpg",
    "icongray": "https://steamcdn-a.akamaihd.net/steamcommunity/public/images/apps/987230/0b9a95136cb5097e66812640a0cda622d8c01b59.jpg"
  },
  {
    "name": "KILL_GARGOYLE",
    "defaultvalue": 0,
    "displayName": "Cathedral Champion",
    "hidden": 0,
    "description": "Defeat the Cathedral Guardian",
    "icon": "https://steamcdn-a.akamaihd.net/steamcommunity/public/images/apps/987230/14c385a93a5e7699ac81d5445f89f41d3750a87e.jpg",
    "icongray": "https://steamcdn-a.akamaihd.net/steamcommunity/public/images/apps/987230/b079a2e8f089cb407f1c9ec1aa367cbb0271a7e3.jpg"
  },
  {
    "name": "SPEND_ALL_SOULS",
    "defaultvalue": 0,
    "displayName": "Grand Master Soul Savior",
    "hidden": 0,
    "description": "Save all of the souls",
    "icon": "https://steamcdn-a.akamaihd.net/steamcommunity/public/images/apps/987230/a03003f6b8624a268f041e7054c386e837f461eb.jpg",
    "icongray": "https://steamcdn-a.akamaihd.net/steamcommunity/public/images/apps/987230/6a9569a937dde1c5097aa07e9d8ff758dd37837a.jpg"
  },
  {
    "name": "DARK_COURTYARD_OPTIONAL_OBJECTIVES",
    "defaultvalue": 0,
    "displayName": "A Light In The Darkness",
    "hidden": 0,
    "description": "Complete all optional objectives in the Edge Of Darkness",
    "icon": "https://steamcdn-a.akamaihd.net/steamcommunity/public/images/apps/987230/618246102e60882557cc1a95642adbeaec1c1e99.jpg",
    "icongray": "https://steamcdn-a.akamaihd.net/steamcommunity/public/images/apps/987230/a2ff8456a3ab2101383af822e726b2a7e1e3e89d.jpg"
  },
  {
    "name": "KILL_ADAROTH",
    "defaultvalue": 0,
    "displayName": "Lord Adaroth's Downfall",
    "hidden": 0,
    "description": "Defeat Lord Adaroth",
    "icon": "https://steamcdn-a.akamaihd.net/steamcommunity/public/images/apps/987230/3346f2d76e737cc6327c08218b5207c28076870d.jpg",
    "icongray": "https://steamcdn-a.akamaihd.net/steamcommunity/public/images/apps/987230/fbd04786575d79896830c7faa253b4a6367033c0.jpg"
  },
  {
    "name": "SAVE_OR_KILL_GODDESS",
    "defaultvalue": 0,
    "displayName": "Anarian Hero",
    "hidden": 0,
    "description": "Save the Anarian Realm",
    "icon": "https://steamcdn-a.akamaihd.net/steamcommunity/public/images/apps/987230/03ccba6ef2b016d662a1fa174c4accdedc43829f.jpg",
    "icongray": "https://steamcdn-a.akamaihd.net/steamcommunity/public/images/apps/987230/bcbe24ced5d1deb6838825ee698ada309340c78a.jpg"
  },
  {
    "name": "READ_ALL_BOOKS",
    "defaultvalue": 0,
    "displayName": "Lore Master",
    "hidden": 0,
    "description": "Read all books",
    "icon": "https://steamcdn-a.akamaihd.net/steamcommunity/public/images/apps/987230/c1d63d9a7974cc6ae753721ed4cd4cba013eb294.jpg",
    "icongray": "https://steamcdn-a.akamaihd.net/steamcommunity/public/images/apps/987230/d6d810c27dd3c766cc7a713c67e8ae271cefb00b.jpg"
  },
  {
    "name": "COLLECT_ALL_RUNES",
    "defaultvalue": 0,
    "displayName": "Grand Master Collector",
    "hidden": 0,
    "description": "Collect all of the Runes of Power",
    "icon": "https://steamcdn-a.akamaihd.net/steamcommunity/public/images/apps/987230/8e78a9365eb18c85f91c76d458fd4c606e7738d5.jpg",
    "icongray": "https://steamcdn-a.akamaihd.net/steamcommunity/public/images/apps/987230/73f1de085506be932eb260c1f3c687f94a8a0ee2.jpg"
  },
  {
    "name": "GREENLANDS_OPTIONAL_OBJECTIVES",
    "defaultvalue": 0,
    "displayName": "The Journey's End",
    "hidden": 0,
    "description": "Complete all optional objectives in the Sky Keep Wood",
    "icon": "https://steamcdn-a.akamaihd.net/steamcommunity/public/images/apps/987230/6858e48f95203357562215dccf78890d1a9f7088.jpg",
    "icongray": "https://steamcdn-a.akamaihd.net/steamcommunity/public/images/apps/987230/7c72ae8d4aeb32dee312e53e2fbebffe49cd2598.jpg"
  }
]