{
  "Dlcs": {},
  "Name": "Tiger Tank 59 Ⅰ Break The Fog",
  "AppId": "1033630",
  "ImageUrl": "https://steamcdn-a.akamaihd.net/steam/apps/1033630/header.jpg?t=1572156318",
  "Languages": [
    "english"
  ],
  "Platforms": {
    "windows": true,
    "mac": false,
    "linux": false
  }
}