{
  "Dlcs": {},
  "Name": "Maximum Momentum",
  "AppId": "1186680",
  "ImageUrl": "https://steamcdn-a.akamaihd.net/steam/apps/1186680/header.jpg?t=1576001731",
  "Languages": [
    "english"
  ],
  "Platforms": {
    "windows": true,
    "mac": false,
    "linux": false
  }
}