[
  {
    "name": "Armory_FirstGun",
    "defaultvalue": 0,
    "displayName": "Stocking Up",
    "hidden": 0,
    "description": "Buy your first weapon in the SALT Base",
    "icon": "https://steamcdn-a.akamaihd.net/steamcommunity/public/images/apps/559280/15128a82066b8952278c9dbf41e5a6e54e3ee3e2.jpg",
    "icongray": "https://steamcdn-a.akamaihd.net/steamcommunity/public/images/apps/559280/b35462dfbc6cc11b575d315aad5cb455468a0d52.jpg"
  },
  {
    "name": "Armory_AllGuns",
    "defaultvalue": 0,
    "displayName": "Fully Loaded",
    "hidden": 0,
    "description": "Buy all available weapons",
    "icon": "https://steamcdn-a.akamaihd.net/steamcommunity/public/images/apps/559280/447aa6dda08f8d51d6beacdc230c7800f657cfea.jpg",
    "icongray": "https://steamcdn-a.akamaihd.net/steamcommunity/public/images/apps/559280/b35462dfbc6cc11b575d315aad5cb455468a0d52.jpg"
  },
  {
    "name": "Armory_FirstTower",
    "defaultvalue": 0,
    "displayName": "Getting Help",
    "hidden": 0,
    "description": "Buy your first tower in the SALT Base",
    "icon": "https://steamcdn-a.akamaihd.net/steamcommunity/public/images/apps/559280/89b080df56f6cba5ab656272659a2d1144b0b96b.jpg",
    "icongray": "https://steamcdn-a.akamaihd.net/steamcommunity/public/images/apps/559280/95bb18ca77f620011047ba1e6d52a852c1d06b6d.jpg"
  },
  {
    "name": "Armory_AllTowers",
    "defaultvalue": 0,
    "displayName": "Fortress, Online",
    "hidden": 0,
    "description": "Buy all available Towers",
    "icon": "https://steamcdn-a.akamaihd.net/steamcommunity/public/images/apps/559280/6066c5315ad17be7e8933fe5a3944dccfebba7ce.jpg",
    "icongray": "https://steamcdn-a.akamaihd.net/steamcommunity/public/images/apps/559280/95bb18ca77f620011047ba1e6d52a852c1d06b6d.jpg"
  },
  {
    "name": "Combat_FirstKill",
    "defaultvalue": 0,
    "displayName": "Splat",
    "hidden": 0,
    "description": "Destroy your first Snailien",
    "icon": "https://steamcdn-a.akamaihd.net/steamcommunity/public/images/apps/559280/fa0147d2e2c1130eb51a09fe7504050f6edd7320.jpg",
    "icongray": "https://steamcdn-a.akamaihd.net/steamcommunity/public/images/apps/559280/01a2a8aaf39e58d382b639a8e8f013971533e7b7.jpg"
  },
  {
    "name": "Combat_FirstPickup",
    "defaultvalue": 0,
    "displayName": "At your Fingertips",
    "hidden": 0,
    "description": "Pickup your first Power Up",
    "icon": "https://steamcdn-a.akamaihd.net/steamcommunity/public/images/apps/559280/fc98ce4711654471b40af64a732abb8a1f42a548.jpg",
    "icongray": "https://steamcdn-a.akamaihd.net/steamcommunity/public/images/apps/559280/7d54a414b551e56ad9a03f4bbbbc4f942dc31e19.jpg"
  },
  {
    "name": "Combat_FirstKrab",
    "defaultvalue": 0,
    "displayName": "Bombs Away",
    "hidden": 0,
    "description": "Throw your first Krabber",
    "icon": "https://steamcdn-a.akamaihd.net/steamcommunity/public/images/apps/559280/a38db56f6adbe15baf8ce84a21c1a9e1a0b1d4e3.jpg",
    "icongray": "https://steamcdn-a.akamaihd.net/steamcommunity/public/images/apps/559280/bd1284c86309edd21266c053b1f55bffb9316e16.jpg"
  },
  {
    "name": "Combat_FirstTower",
    "defaultvalue": 0,
    "displayName": "Like a Friend... but Gunnier",
    "hidden": 0,
    "description": "Build your first Tower",
    "icon": "https://steamcdn-a.akamaihd.net/steamcommunity/public/images/apps/559280/f600715809902f056f7dc3adb2d964f919e681d6.jpg",
    "icongray": "https://steamcdn-a.akamaihd.net/steamcommunity/public/images/apps/559280/dd70cf3fdff1fbbd3588812d096816869d98a85c.jpg"
  },
  {
    "name": "Prog_Complete_01",
    "defaultvalue": 0,
    "displayName": "There Goes the Neighborhood",
    "hidden": 0,
    "description": "Defend your farm from the Snailiens",
    "icon": "https://steamcdn-a.akamaihd.net/steamcommunity/public/images/apps/559280/6e1979be71b2d9b93399ac924a1e0cc7b80b9b26.jpg",
    "icongray": "https://steamcdn-a.akamaihd.net/steamcommunity/public/images/apps/559280/7bce1f5c98312eb20fc3d7d71028666df1efe217.jpg"
  },
  {
    "name": "Prog_Complete_Moon",
    "defaultvalue": 0,
    "displayName": "Snailers on the Moon",
    "hidden": 0,
    "description": "Arrive at SALT HQ",
    "icon": "https://steamcdn-a.akamaihd.net/steamcommunity/public/images/apps/559280/e90a3a6490296e92378b599da9ac151a9c675022.jpg",
    "icongray": "https://steamcdn-a.akamaihd.net/steamcommunity/public/images/apps/559280/359dd6ba8ec0d58c9a1683c5cb8e7b79641579b8.jpg"
  },
  {
    "name": "Prog_Complete_04",
    "defaultvalue": 0,
    "displayName": "Cabbagefest",
    "hidden": 0,
    "description": "Defend Main Street",
    "icon": "https://steamcdn-a.akamaihd.net/steamcommunity/public/images/apps/559280/5d58d9192214b98b2426409d6ce7277164f3cdf6.jpg",
    "icongray": "https://steamcdn-a.akamaihd.net/steamcommunity/public/images/apps/559280/129e6b06fbfa2697865222d1598dc3a746539a30.jpg"
  },
  {
    "name": "Prog_Complete_05",
    "defaultvalue": 0,
    "displayName": "Fair is Fair",
    "hidden": 0,
    "description": "Defend the Courtyard of the State Fair",
    "icon": "https://steamcdn-a.akamaihd.net/steamcommunity/public/images/apps/559280/67f4f21b29bc1507f00796b08c2e71e0ae1acee1.jpg",
    "icongray": "https://steamcdn-a.akamaihd.net/steamcommunity/public/images/apps/559280/f235dd19a656cbbd3d15dea6fb85e66d6d6f1a70.jpg"
  },
  {
    "name": "Prog_Complete_06",
    "defaultvalue": 0,
    "displayName": "Prized Produce",
    "hidden": 0,
    "description": "Save the State Fair",
    "icon": "https://steamcdn-a.akamaihd.net/steamcommunity/public/images/apps/559280/67b9759a56c807a29b4b4abbee74291b05619bd0.jpg",
    "icongray": "https://steamcdn-a.akamaihd.net/steamcommunity/public/images/apps/559280/5bcfe727f9740c9bbe0f95eb96d22d782e8fbeec.jpg"
  },
  {
    "name": "Prog_Complete_07",
    "defaultvalue": 0,
    "displayName": "Got 'em Going in Circles",
    "hidden": 0,
    "description": "Defend the Corn Maze",
    "icon": "https://steamcdn-a.akamaihd.net/steamcommunity/public/images/apps/559280/afc9d722e420cc610ca567e43adb2de24578f9e3.jpg",
    "icongray": "https://steamcdn-a.akamaihd.net/steamcommunity/public/images/apps/559280/e60b9406dfe04b8c6b35f9b0761f600db4873cc1.jpg"
  },
  {
    "name": "Prog_Complete_08",
    "defaultvalue": 0,
    "displayName": "Defending Democracy",
    "hidden": 0,
    "description": "Protect Town Hall from the Snailiens",
    "icon": "https://steamcdn-a.akamaihd.net/steamcommunity/public/images/apps/559280/fb70843867556ac34d8d519454f3dbfba6b12351.jpg",
    "icongray": "https://steamcdn-a.akamaihd.net/steamcommunity/public/images/apps/559280/6e9fd7cbe432639e76d4d089f22418a3ece510f1.jpg"
  },
  {
    "name": "Prog_Complete_09",
    "defaultvalue": 0,
    "displayName": "It really was Aliens!",
    "hidden": 0,
    "description": "Defend the Crop Circle",
    "icon": "https://steamcdn-a.akamaihd.net/steamcommunity/public/images/apps/559280/61b20df22276922a9e54b20350542c91b1c80b46.jpg",
    "icongray": "https://steamcdn-a.akamaihd.net/steamcommunity/public/images/apps/559280/b25e06303332e01fb716aabfcd89adceb3432048.jpg"
  },
  {
    "name": "Prog_Complete_10",
    "defaultvalue": 0,
    "displayName": "No Going Back...",
    "hidden": 0,
    "description": "Revisited your Farm",
    "icon": "https://steamcdn-a.akamaihd.net/steamcommunity/public/images/apps/559280/7a37335c42386b0532b86ee5e7d5260f2f248410.jpg",
    "icongray": "https://steamcdn-a.akamaihd.net/steamcommunity/public/images/apps/559280/8aa7622554cc0262ae10d4291229073fa7f5805e.jpg"
  },
  {
    "name": "Prog_Complete_11",
    "defaultvalue": 0,
    "displayName": "Payload Push",
    "hidden": 0,
    "description": "Started Walking the Payload to the Temple",
    "icon": "https://steamcdn-a.akamaihd.net/steamcommunity/public/images/apps/559280/32bb4046b439e2e93963f84692402a94dc703e48.jpg",
    "icongray": "https://steamcdn-a.akamaihd.net/steamcommunity/public/images/apps/559280/7d357a0bcb9ef15eced03c2b9d22be0894e2ed05.jpg"
  },
  {
    "name": "Prog_Complete_12",
    "defaultvalue": 0,
    "displayName": "Across Town",
    "hidden": 0,
    "description": "Bring the Payload to its Destination",
    "icon": "https://steamcdn-a.akamaihd.net/steamcommunity/public/images/apps/559280/f45432e32b704d6acd49d9b82e39a66eef64dd39.jpg",
    "icongray": "https://steamcdn-a.akamaihd.net/steamcommunity/public/images/apps/559280/6912feabfdf1cd108bc6e4aa0dca28a4cbf53c32.jpg"
  },
  {
    "name": "Prog_Complete_13",
    "defaultvalue": 0,
    "displayName": "Held the Temple",
    "hidden": 0,
    "description": "Held back the Army of General Klang",
    "icon": "https://steamcdn-a.akamaihd.net/steamcommunity/public/images/apps/559280/563d8ca6c872e69d254ad042696033891de5fc83.jpg",
    "icongray": "https://steamcdn-a.akamaihd.net/steamcommunity/public/images/apps/559280/c87851a127dda17c14063d2c1d7eb7aa83a43a44.jpg"
  },
  {
    "name": "Prog_Complete_14",
    "defaultvalue": 0,
    "displayName": "Breaking and Entering",
    "hidden": 0,
    "description": "Defended the Courtyard of the Temple",
    "icon": "https://steamcdn-a.akamaihd.net/steamcommunity/public/images/apps/559280/1dac139a068c52196d39c7a999abd7b96e738348.jpg",
    "icongray": "https://steamcdn-a.akamaihd.net/steamcommunity/public/images/apps/559280/628a4668617b63206cae25ed206da04bf24ebfc4.jpg"
  },
  {
    "name": "Prog_Complete_All",
    "defaultvalue": 0,
    "displayName": "Leafy Protector",
    "hidden": 0,
    "description": "Completed All Current Levels",
    "icon": "https://steamcdn-a.akamaihd.net/steamcommunity/public/images/apps/559280/73eebffd7811b9b52133348c87ca26213379f534.jpg",
    "icongray": "https://steamcdn-a.akamaihd.net/steamcommunity/public/images/apps/559280/d7cebabd1d9b79e12dcc176417748fb2087bd356.jpg"
  },
  {
    "name": "Prog_Complete_Perfect",
    "defaultvalue": 0,
    "displayName": "Cabbage Vanguard",
    "hidden": 0,
    "description": "Recieved a Perfect Score on Every Level",
    "icon": "https://steamcdn-a.akamaihd.net/steamcommunity/public/images/apps/559280/48a98cd3e374a26cb341aad41a3bc7ef7f42ad62.jpg",
    "icongray": "https://steamcdn-a.akamaihd.net/steamcommunity/public/images/apps/559280/1d4946ab282f95325e16580f5c9d0167d360ea41.jpg"
  },
  {
    "name": "Secret_Room",
    "defaultvalue": 0,
    "displayName": "Found Will's Dev Room",
    "hidden": 1,
    "icon": "https://steamcdn-a.akamaihd.net/steamcommunity/public/images/apps/559280/977870923c2cbed64b98e2277295c1800913a836.jpg",
    "icongray": "https://steamcdn-a.akamaihd.net/steamcommunity/public/images/apps/559280/f99d129e23ab1a6b2c9215436bfef58647545f66.jpg"
  }
]