[
  {
    "name": "W1",
    "defaultvalue": 0,
    "displayName": "World 1 Completed",
    "hidden": 0,
    "description": "World 1 Completed",
    "icon": "https://steamcdn-a.akamaihd.net/steamcommunity/public/images/apps/648660/9b995b079415d8a2f76ba07475837eedfc542709.jpg",
    "icongray": "https://steamcdn-a.akamaihd.net/steamcommunity/public/images/apps/648660/c137642407e944917ffa79baa2619b364f6d4e62.jpg"
  },
  {
    "name": "W2",
    "defaultvalue": 0,
    "displayName": "World 2 Completed",
    "hidden": 1,
    "icon": "https://steamcdn-a.akamaihd.net/steamcommunity/public/images/apps/648660/5999f484bfc16d831b00d5b282eb9e4c5fa89c83.jpg",
    "icongray": "https://steamcdn-a.akamaihd.net/steamcommunity/public/images/apps/648660/c137642407e944917ffa79baa2619b364f6d4e62.jpg"
  },
  {
    "name": "W3",
    "defaultvalue": 0,
    "displayName": "World 3 Completed",
    "hidden": 1,
    "icon": "https://steamcdn-a.akamaihd.net/steamcommunity/public/images/apps/648660/aecdf0786fdc024f0098dc1c8b1b1af37e67c837.jpg",
    "icongray": "https://steamcdn-a.akamaihd.net/steamcommunity/public/images/apps/648660/c137642407e944917ffa79baa2619b364f6d4e62.jpg"
  },
  {
    "name": "Eut1",
    "defaultvalue": 0,
    "displayName": "Meet Eutrope",
    "hidden": 1,
    "icon": "https://steamcdn-a.akamaihd.net/steamcommunity/public/images/apps/648660/92fe5b518f2f1ea0ce79aefe4d7c06f519e0bb3b.jpg",
    "icongray": "https://steamcdn-a.akamaihd.net/steamcommunity/public/images/apps/648660/c137642407e944917ffa79baa2619b364f6d4e62.jpg"
  },
  {
    "name": "Eut2",
    "defaultvalue": 0,
    "displayName": "Eutrope in Full",
    "hidden": 1,
    "icon": "https://steamcdn-a.akamaihd.net/steamcommunity/public/images/apps/648660/c4c29b9e98618affeada203b363882aead447503.jpg",
    "icongray": "https://steamcdn-a.akamaihd.net/steamcommunity/public/images/apps/648660/c137642407e944917ffa79baa2619b364f6d4e62.jpg"
  },
  {
    "name": "VacL",
    "defaultvalue": 0,
    "displayName": "Vacations with Laura",
    "hidden": 1,
    "icon": "https://steamcdn-a.akamaihd.net/steamcommunity/public/images/apps/648660/2b6a4828f4b3abdbd5db1a51861d5b0a48fdad1e.jpg",
    "icongray": "https://steamcdn-a.akamaihd.net/steamcommunity/public/images/apps/648660/c137642407e944917ffa79baa2619b364f6d4e62.jpg"
  },
  {
    "name": "VacC",
    "defaultvalue": 0,
    "displayName": "Vacations with Cindy",
    "hidden": 1,
    "icon": "https://steamcdn-a.akamaihd.net/steamcommunity/public/images/apps/648660/08033c1cf38e7559311fc819f0752ded636a058e.jpg",
    "icongray": "https://steamcdn-a.akamaihd.net/steamcommunity/public/images/apps/648660/c137642407e944917ffa79baa2619b364f6d4e62.jpg"
  },
  {
    "name": "VacK",
    "defaultvalue": 0,
    "displayName": "Vacations with Karine",
    "hidden": 1,
    "icon": "https://steamcdn-a.akamaihd.net/steamcommunity/public/images/apps/648660/b51dff7fafb1ba83db1c812b6585aded3681f57f.jpg",
    "icongray": "https://steamcdn-a.akamaihd.net/steamcommunity/public/images/apps/648660/c137642407e944917ffa79baa2619b364f6d4e62.jpg"
  },
  {
    "name": "WOM",
    "defaultvalue": 0,
    "displayName": "Womanizer",
    "hidden": 0,
    "description": "Get 100 Womanizer points minimum",
    "icon": "https://steamcdn-a.akamaihd.net/steamcommunity/public/images/apps/648660/dd36765731f64bdb1fa8646d22b862909895092b.jpg",
    "icongray": "https://steamcdn-a.akamaihd.net/steamcommunity/public/images/apps/648660/c137642407e944917ffa79baa2619b364f6d4e62.jpg"
  },
  {
    "name": "TL",
    "defaultvalue": 0,
    "displayName": "Tame Laura",
    "hidden": 1,
    "icon": "https://steamcdn-a.akamaihd.net/steamcommunity/public/images/apps/648660/b2c3c65ffb53d06aeea495ed01343e20298efd59.jpg",
    "icongray": "https://steamcdn-a.akamaihd.net/steamcommunity/public/images/apps/648660/c137642407e944917ffa79baa2619b364f6d4e62.jpg"
  },
  {
    "name": "TC",
    "defaultvalue": 0,
    "displayName": "Tame Cindy",
    "hidden": 1,
    "icon": "https://steamcdn-a.akamaihd.net/steamcommunity/public/images/apps/648660/770f9bfe6e606a2d2c1bf7c71ca2b4498e63e6a3.jpg",
    "icongray": "https://steamcdn-a.akamaihd.net/steamcommunity/public/images/apps/648660/8ca7c535dc7c815e9365e4f412d5f9da3f9bc232.jpg"
  },
  {
    "name": "TK",
    "defaultvalue": 0,
    "displayName": "Tame Karine",
    "hidden": 1,
    "icon": "https://steamcdn-a.akamaihd.net/steamcommunity/public/images/apps/648660/c8a671c530a22464a020b66a00cc88cbe5e7572d.jpg",
    "icongray": "https://steamcdn-a.akamaihd.net/steamcommunity/public/images/apps/648660/c137642407e944917ffa79baa2619b364f6d4e62.jpg"
  }
]