[
  {
    "name": "level1",
    "defaultvalue": 0,
    "displayName": "Level 1 Completed",
    "hidden": 0,
    "description": "Level 1 Completed",
    "icon": "https://steamcdn-a.akamaihd.net/steamcommunity/public/images/apps/1331070/04be2f6e561e0078c98e2ca5a531175c6de4d520.jpg",
    "icongray": "https://steamcdn-a.akamaihd.net/steamcommunity/public/images/apps/1331070/b2ffaeeb0daf91415de64d76dde99a6a965300fe.jpg"
  },
  {
    "name": "level2",
    "defaultvalue": 0,
    "displayName": "Level 2 Completed",
    "hidden": 0,
    "description": "Level 2 Completed",
    "icon": "https://steamcdn-a.akamaihd.net/steamcommunity/public/images/apps/1331070/04be2f6e561e0078c98e2ca5a531175c6de4d520.jpg",
    "icongray": "https://steamcdn-a.akamaihd.net/steamcommunity/public/images/apps/1331070/b2ffaeeb0daf91415de64d76dde99a6a965300fe.jpg"
  },
  {
    "name": "level3",
    "defaultvalue": 0,
    "displayName": "Level 3 Completed",
    "hidden": 0,
    "description": "Level 3 Completed",
    "icon": "https://steamcdn-a.akamaihd.net/steamcommunity/public/images/apps/1331070/04be2f6e561e0078c98e2ca5a531175c6de4d520.jpg",
    "icongray": "https://steamcdn-a.akamaihd.net/steamcommunity/public/images/apps/1331070/b2ffaeeb0daf91415de64d76dde99a6a965300fe.jpg"
  },
  {
    "name": "level4",
    "defaultvalue": 0,
    "displayName": "Level 4 Completed",
    "hidden": 0,
    "description": "Level 4 Completed",
    "icon": "https://steamcdn-a.akamaihd.net/steamcommunity/public/images/apps/1331070/04be2f6e561e0078c98e2ca5a531175c6de4d520.jpg",
    "icongray": "https://steamcdn-a.akamaihd.net/steamcommunity/public/images/apps/1331070/b2ffaeeb0daf91415de64d76dde99a6a965300fe.jpg"
  },
  {
    "name": "level5",
    "defaultvalue": 0,
    "displayName": "Level 5 Completed",
    "hidden": 0,
    "description": "Level 5 Completed",
    "icon": "https://steamcdn-a.akamaihd.net/steamcommunity/public/images/apps/1331070/04be2f6e561e0078c98e2ca5a531175c6de4d520.jpg",
    "icongray": "https://steamcdn-a.akamaihd.net/steamcommunity/public/images/apps/1331070/b2ffaeeb0daf91415de64d76dde99a6a965300fe.jpg"
  },
  {
    "name": "level6",
    "defaultvalue": 0,
    "displayName": "Level 6 Completed",
    "hidden": 0,
    "description": "Level 6 Completed",
    "icon": "https://steamcdn-a.akamaihd.net/steamcommunity/public/images/apps/1331070/04be2f6e561e0078c98e2ca5a531175c6de4d520.jpg",
    "icongray": "https://steamcdn-a.akamaihd.net/steamcommunity/public/images/apps/1331070/b2ffaeeb0daf91415de64d76dde99a6a965300fe.jpg"
  },
  {
    "name": "level7",
    "defaultvalue": 0,
    "displayName": "Level 7 Completed",
    "hidden": 0,
    "description": "Level 7 Completed",
    "icon": "https://steamcdn-a.akamaihd.net/steamcommunity/public/images/apps/1331070/04be2f6e561e0078c98e2ca5a531175c6de4d520.jpg",
    "icongray": "https://steamcdn-a.akamaihd.net/steamcommunity/public/images/apps/1331070/b2ffaeeb0daf91415de64d76dde99a6a965300fe.jpg"
  },
  {
    "name": "level8",
    "defaultvalue": 0,
    "displayName": "Level 8 Completed",
    "hidden": 0,
    "description": "Level 8 Completed",
    "icon": "https://steamcdn-a.akamaihd.net/steamcommunity/public/images/apps/1331070/04be2f6e561e0078c98e2ca5a531175c6de4d520.jpg",
    "icongray": "https://steamcdn-a.akamaihd.net/steamcommunity/public/images/apps/1331070/b2ffaeeb0daf91415de64d76dde99a6a965300fe.jpg"
  },
  {
    "name": "level9",
    "defaultvalue": 0,
    "displayName": "Level 9 Completed",
    "hidden": 0,
    "description": "Level 9 Completed",
    "icon": "https://steamcdn-a.akamaihd.net/steamcommunity/public/images/apps/1331070/04be2f6e561e0078c98e2ca5a531175c6de4d520.jpg",
    "icongray": "https://steamcdn-a.akamaihd.net/steamcommunity/public/images/apps/1331070/b2ffaeeb0daf91415de64d76dde99a6a965300fe.jpg"
  },
  {
    "name": "hg_power_max",
    "defaultvalue": 0,
    "displayName": "Pistol Damage Max",
    "hidden": 0,
    "description": "Damage upgraded to max level on pistol",
    "icon": "https://steamcdn-a.akamaihd.net/steamcommunity/public/images/apps/1331070/47fcc2d4003b0d38f3e34fae54b6e324ed8d504a.jpg",
    "icongray": "https://steamcdn-a.akamaihd.net/steamcommunity/public/images/apps/1331070/83fe92361d34340256e2b17d8eb616fbdc5071e6.jpg"
  },
  {
    "name": "hg_ammo_max",
    "defaultvalue": 0,
    "displayName": "Pistol Capacity Max",
    "hidden": 0,
    "description": "Capacity upgraded to max level on pistol",
    "icon": "https://steamcdn-a.akamaihd.net/steamcommunity/public/images/apps/1331070/89639aa994f04222588a6d49a6d19aa013e6f2e7.jpg",
    "icongray": "https://steamcdn-a.akamaihd.net/steamcommunity/public/images/apps/1331070/01bb54fbb1a9c453ef2322afe68fa10897680214.jpg"
  },
  {
    "name": "mg_power_max",
    "defaultvalue": 0,
    "displayName": "Automatic Rifle Damage Max",
    "hidden": 0,
    "description": "Damage upgraded to max level on automatic rifle",
    "icon": "https://steamcdn-a.akamaihd.net/steamcommunity/public/images/apps/1331070/2c8bc4bc51c7758191900e553d4dc44ab3ee4b3d.jpg",
    "icongray": "https://steamcdn-a.akamaihd.net/steamcommunity/public/images/apps/1331070/7af7c36fd27513afa397792adcaaac2160984e8b.jpg"
  },
  {
    "name": "mg_ammo_max",
    "defaultvalue": 0,
    "displayName": "Automatic Rifle Capacity Max",
    "hidden": 0,
    "description": "Capacity upgraded to max level on automatic rifle",
    "icon": "https://steamcdn-a.akamaihd.net/steamcommunity/public/images/apps/1331070/cb4fa9d787694431f6e73837320a701c34a26310.jpg",
    "icongray": "https://steamcdn-a.akamaihd.net/steamcommunity/public/images/apps/1331070/4b78953f14bc4bde3b10396cf1d232533930355d.jpg"
  },
  {
    "name": "mg_sp_max",
    "defaultvalue": 0,
    "displayName": "Automatic Rifle Special Max",
    "hidden": 0,
    "description": "Special upgraded to max level on automatic rifle",
    "icon": "https://steamcdn-a.akamaihd.net/steamcommunity/public/images/apps/1331070/9a000adbd4c7c63ff1d31886c290336fea1b57e1.jpg",
    "icongray": "https://steamcdn-a.akamaihd.net/steamcommunity/public/images/apps/1331070/7e95f867c6583a91750ad4a577b01147ed616d18.jpg"
  },
  {
    "name": "sg_power_max",
    "defaultvalue": 0,
    "displayName": "Shotgun Damage Max",
    "hidden": 0,
    "description": "Damage upgraded to max level on shotgun",
    "icon": "https://steamcdn-a.akamaihd.net/steamcommunity/public/images/apps/1331070/23e59878fee7861e37a6d47188d29f426dd9f75f.jpg",
    "icongray": "https://steamcdn-a.akamaihd.net/steamcommunity/public/images/apps/1331070/cfc651d6e25bbb4879bb2c26d009bbcf3d4c1ca6.jpg"
  },
  {
    "name": "sg_ammo_max",
    "defaultvalue": 0,
    "displayName": "Shotgun Capacity Max",
    "hidden": 0,
    "description": "Capacity upgraded to max level on shotgun",
    "icon": "https://steamcdn-a.akamaihd.net/steamcommunity/public/images/apps/1331070/330500d7dba19a7350f048aea3b1d2aaa84c1f91.jpg",
    "icongray": "https://steamcdn-a.akamaihd.net/steamcommunity/public/images/apps/1331070/1e112bc535ce39fb7750f2f584e781bc70e836c0.jpg"
  },
  {
    "name": "sg_sp_max",
    "defaultvalue": 0,
    "displayName": "Shotgun Special Max",
    "hidden": 0,
    "description": "Special upgraded to max level on shotgun",
    "icon": "https://steamcdn-a.akamaihd.net/steamcommunity/public/images/apps/1331070/522072778c82e02c92bdded39035e4b8877f1a10.jpg",
    "icongray": "https://steamcdn-a.akamaihd.net/steamcommunity/public/images/apps/1331070/887c70d08d8c079d9f5b9be6da00d9c75563365c.jpg"
  },
  {
    "name": "spg_power_max",
    "defaultvalue": 0,
    "displayName": "High Power Rifle Damage Max",
    "hidden": 0,
    "description": "Damage upgraded to max level on high power Rifle",
    "icon": "https://steamcdn-a.akamaihd.net/steamcommunity/public/images/apps/1331070/ed1e9142cb2508ddf0ed325fbe2d2f3f4776edf2.jpg",
    "icongray": "https://steamcdn-a.akamaihd.net/steamcommunity/public/images/apps/1331070/02dfcda1c43139f1e4529907ccdc85a47dd000f7.jpg"
  },
  {
    "name": "spg_ammo_max",
    "defaultvalue": 0,
    "displayName": "High Power Rifle Capacity Max",
    "hidden": 0,
    "description": "Capacity upgraded to max level on high power Rifle",
    "icon": "https://steamcdn-a.akamaihd.net/steamcommunity/public/images/apps/1331070/91021a503a032045861263da52cf94e4f2143386.jpg",
    "icongray": "https://steamcdn-a.akamaihd.net/steamcommunity/public/images/apps/1331070/e8da4d1415f89a27959dd9ab8578eafd36eaf509.jpg"
  },
  {
    "name": "spg_sp_max",
    "defaultvalue": 0,
    "displayName": "High Power Rifle Special Max",
    "hidden": 0,
    "description": "Special upgraded to max level on high power Rifle",
    "icon": "https://steamcdn-a.akamaihd.net/steamcommunity/public/images/apps/1331070/63123fb7ff11833a94b3242c98d6273748758b0b.jpg",
    "icongray": "https://steamcdn-a.akamaihd.net/steamcommunity/public/images/apps/1331070/b4fb3d32409d879dabf7f767e020979938e5b14d.jpg"
  },
  {
    "name": "gg_power_max",
    "defaultvalue": 0,
    "displayName": "Hand Cannon Damage Max",
    "hidden": 0,
    "description": "Damage upgraded to max level on hand cannon",
    "icon": "https://steamcdn-a.akamaihd.net/steamcommunity/public/images/apps/1331070/f9dd2588e02b990c62f0148b02dd6f3d8fc572a2.jpg",
    "icongray": "https://steamcdn-a.akamaihd.net/steamcommunity/public/images/apps/1331070/89bc0924ccd703709ef3cc9affc662542a2ac397.jpg"
  },
  {
    "name": "gg_ammo_max",
    "defaultvalue": 0,
    "displayName": "Hand Cannon Capacity Max",
    "hidden": 0,
    "description": "Capacity upgraded to max level on hand cannon",
    "icon": "https://steamcdn-a.akamaihd.net/steamcommunity/public/images/apps/1331070/f8bdfcd3918dca104a6ab3549c9284a11efc11db.jpg",
    "icongray": "https://steamcdn-a.akamaihd.net/steamcommunity/public/images/apps/1331070/152b1e6e71fa078de29c17310933b79f624e4420.jpg"
  },
  {
    "name": "gg_sp_max",
    "defaultvalue": 0,
    "displayName": "Hand Cannon Special Max",
    "hidden": 0,
    "description": "Special upgraded to max level on hand cannon",
    "icon": "https://steamcdn-a.akamaihd.net/steamcommunity/public/images/apps/1331070/821ebaf1f64cce8a891f46914d77cfb468d9e75b.jpg",
    "icongray": "https://steamcdn-a.akamaihd.net/steamcommunity/public/images/apps/1331070/7d014dc902c6f2a922f7114d0f903ff5c2d4ae81.jpg"
  },
  {
    "name": "survival",
    "defaultvalue": 0,
    "displayName": "Welcome to the End",
    "hidden": 0,
    "description": "Try survival mode the first time",
    "icon": "https://steamcdn-a.akamaihd.net/steamcommunity/public/images/apps/1331070/340deac093c030f0d2e0234c5599a102855629b1.jpg",
    "icongray": "https://steamcdn-a.akamaihd.net/steamcommunity/public/images/apps/1331070/62b65055bde0c160ce6ca57d5de95a92efa5eee9.jpg"
  },
  {
    "name": "co_op_com",
    "defaultvalue": 0,
    "displayName": "Teamwork",
    "hidden": 0,
    "description": "Complete the coop mode",
    "icon": "https://steamcdn-a.akamaihd.net/steamcommunity/public/images/apps/1331070/503a91618a96e592767e95abc920d0025d4ee0b5.jpg",
    "icongray": "https://steamcdn-a.akamaihd.net/steamcommunity/public/images/apps/1331070/d5da945e2b166ba7d651a84ccfbff250adabe2d3.jpg"
  }
]