{
  "Dlcs": {},
  "Name": "Mini Transport",
  "AppId": "1089760",
  "ImageUrl": "https://steamcdn-a.akamaihd.net/steam/apps/1089760/header.jpg?t=1582270161",
  "Languages": [
    "english",
    "schinese",
    "tchinese"
  ],
  "Platforms": {
    "windows": true,
    "mac": true,
    "linux": false
  }
}