{
  "Dlcs": {},
  "Name": "Gensokyo Night Festival",
  "AppId": "1122050",
  "ImageUrl": "https://steamcdn-a.akamaihd.net/steam/apps/1122050/header.jpg?t=1598950928",
  "Languages": [
    "english",
    "japanese",
    "schinese"
  ],
  "Platforms": {
    "windows": true,
    "mac": false,
    "linux": false
  }
}