{
  "Dlcs": {},
  "Name": "Voxel Blast",
  "AppId": "395300",
  "ImageUrl": "https://steamcdn-a.akamaihd.net/steam/apps/395300/header.jpg?t=1568757548",
  "Languages": [
    "english",
    "spanish"
  ],
  "Platforms": {
    "windows": true,
    "mac": true,
    "linux": true
  }
}