{
  "Dlcs": {},
  "Name": "MHRD",
  "AppId": "576030",
  "ImageUrl": "https://steamcdn-a.akamaihd.net/steam/apps/576030/header.jpg?t=1572445776",
  "Languages": [
    "english"
  ],
  "Platforms": {
    "windows": true,
    "mac": true,
    "linux": true
  }
}