{
  "Dlcs": {
    "628260": {
      "Name": "Endless Winter - Map Editor",
      "ImageUrl": "https://steamcdn-a.akamaihd.net/steam/apps/628260/header.jpg?t=1531795638"
    }
  },
  "Name": "Endless Winter",
  "AppId": "617690",
  "ImageUrl": "https://steamcdn-a.akamaihd.net/steam/apps/617690/header.jpg?t=1575011143",
  "Languages": [
    "schinese",
    "english",
    "tchinese"
  ],
  "Platforms": {
    "windows": true,
    "mac": false,
    "linux": false
  }
}