{
  "Dlcs": {},
  "Name": "Distant castle",
  "AppId": "843400",
  "ImageUrl": "https://steamcdn-a.akamaihd.net/steam/apps/843400/header.jpg?t=1527227655",
  "Languages": [
    "english"
  ],
  "Platforms": {
    "windows": true,
    "mac": false,
    "linux": false
  }
}