﻿[
  {
    "name": "ach_combatant_stat",
    "defaultvalue": 0,
    "displayName": ""
  },
  {
    "name": "ach_einherjer_stat",
    "defaultvalue": 0,
    "displayName": ""
  },
  {
    "name": "ach_knight_stat",
    "defaultvalue": 0,
    "displayName": ""
  },
  {
    "name": "ach_living_shadow_stat",
    "defaultvalue": 0,
    "displayName": ""
  },
  {
    "name": "ach_crone_stat",
    "defaultvalue": 0,
    "displayName": ""
  },
  {
    "name": "ach_debutant_stat",
    "defaultvalue": 0,
    "displayName": ""
  },
  {
    "name": "ach_angry_again_stat",
    "defaultvalue": 0,
    "displayName": ""
  },
  {
    "name": "ach_like_a_stone_stat",
    "defaultvalue": 0,
    "displayName": ""
  },
  {
    "name": "ach_now_you_see_me_stat",
    "defaultvalue": 0,
    "displayName": ""
  },
  {
    "name": "ach_dont_mind_me_stat",
    "defaultvalue": 0,
    "displayName": ""
  },
  {
    "name": "ach_brute_stat",
    "defaultvalue": 0,
    "displayName": ""
  }
]