{
  "Dlcs": {},
  "Name": "Hell of Men : Blood Brothers",
  "AppId": "1123500",
  "ImageUrl": "https://steamcdn-a.akamaihd.net/steam/apps/1123500/header.jpg?t=1600156643",
  "Languages": [
    "english",
    "french"
  ],
  "Platforms": {
    "windows": true,
    "mac": false,
    "linux": false
  }
}