[
  {
    "name": "STAGE_1",
    "defaultvalue": 0,
    "displayName": "Peace",
    "hidden": 0,
    "description": "Enter the cherry blossom island",
    "icon": "https://steamcdn-a.akamaihd.net/steamcommunity/public/images/apps/887340/63ad0a83be70458db1e5f866b65bc7d98faedb57.jpg",
    "icongray": "https://steamcdn-a.akamaihd.net/steamcommunity/public/images/apps/887340/44f5c1b7a521560023c5d95ff7dc879226b7cdb3.jpg"
  },
  {
    "name": "STAGE_2",
    "defaultvalue": 0,
    "displayName": "Spirits",
    "hidden": 0,
    "description": "Enter the dying desert",
    "icon": "https://steamcdn-a.akamaihd.net/steamcommunity/public/images/apps/887340/42582d6571d1375f6deacacd49bfa669def259d8.jpg",
    "icongray": "https://steamcdn-a.akamaihd.net/steamcommunity/public/images/apps/887340/f233fcd7e1ed6eb5e5705c2cc0e915e88acc6a10.jpg"
  },
  {
    "name": "STAGE_3",
    "defaultvalue": 0,
    "displayName": "Ancient",
    "hidden": 0,
    "description": "Enter the massive forest",
    "icon": "https://steamcdn-a.akamaihd.net/steamcommunity/public/images/apps/887340/625829546bacceae839639e2b5c68b6480d58aac.jpg",
    "icongray": "https://steamcdn-a.akamaihd.net/steamcommunity/public/images/apps/887340/ac34f304dbcef552821f472ae79c55446148fa03.jpg"
  },
  {
    "name": "WIN",
    "defaultvalue": 0,
    "displayName": "Rest",
    "hidden": 0,
    "description": "Repel the darkness",
    "icon": "https://steamcdn-a.akamaihd.net/steamcommunity/public/images/apps/887340/cbcc1124c6f7a52320b76ed869c1aa781977dde3.jpg",
    "icongray": "https://steamcdn-a.akamaihd.net/steamcommunity/public/images/apps/887340/3d72f4b1ffea9f3dba9e536d8b0ce0e84099799f.jpg"
  }
]