{
  "Dlcs": {},
  "Name": "7 days with Death",
  "AppId": "617820",
  "ImageUrl": "https://steamcdn-a.akamaihd.net/steam/apps/617820/header.jpg?t=1571067828",
  "Languages": [
    "tchinese"
  ],
  "Platforms": {
    "windows": true,
    "mac": false,
    "linux": false
  }
}