{
  "Dlcs": {},
  "Name": "Drunkn Bar Fight",
  "AppId": "528550",
  "ImageUrl": "https://steamcdn-a.akamaihd.net/steam/apps/528550/header.jpg?t=1552680142",
  "Languages": [
    "english",
    "schinese"
  ],
  "Platforms": {
    "windows": true,
    "mac": false,
    "linux": false
  }
}