{
  "Dlcs": {},
  "Name": "Darkheart: Flight of the Harpies",
  "AppId": "985070",
  "ImageUrl": "https://steamcdn-a.akamaihd.net/steam/apps/985070/header.jpg?t=1544861928",
  "Languages": [
    "english",
    "french",
    "italian",
    "german",
    "spanish",
    "dutch",
    "portuguese",
    "russian"
  ],
  "Platforms": {
    "windows": true,
    "mac": false,
    "linux": false
  }
}