﻿{
  "Dlcs": {},
  "Name": "GTFO",
  "AppId": "493520",
  "ImageUrl": "https://steamcdn-a.akamaihd.net/steam/apps/493520/header.jpg?t=1591970606",
  "Languages": [
    "english"
  ],
  "Platforms": {
    "windows": true,
    "mac": false,
    "linux": false
  }
}