[
  {
    "name": "ACH_AFRAID_OF_THE_DARK",
    "defaultvalue": 0,
    "displayName": "Afraid of the dark",
    "hidden": 0,
    "description": "Turn on the first lever",
    "icon": "https://steamcdn-a.akamaihd.net/steamcommunity/public/images/apps/316480/5b96430214f774732b373570e7eaaae189dadbf6.jpg",
    "icongray": "https://steamcdn-a.akamaihd.net/steamcommunity/public/images/apps/316480/c8ea7663906e47ffff61f2d1e5a6078fadfefc5a.jpg"
  },
  {
    "name": "ACH_LEAVING_HOME",
    "defaultvalue": 0,
    "displayName": "Leaving home",
    "hidden": 0,
    "description": "Unlock the second part of the level map",
    "icon": "https://steamcdn-a.akamaihd.net/steamcommunity/public/images/apps/316480/f36869bad8b2f00f2f1e9327c6b1f5d705e2e44e.jpg",
    "icongray": "https://steamcdn-a.akamaihd.net/steamcommunity/public/images/apps/316480/aef7a62cf0dc5e26f05e0d79a5c92e2ffd2cf1e9.jpg"
  },
  {
    "name": "ACH_GONE_FISHING",
    "defaultvalue": 0,
    "displayName": "Gone fishing",
    "hidden": 0,
    "description": "Unlock the third part of the level map",
    "icon": "https://steamcdn-a.akamaihd.net/steamcommunity/public/images/apps/316480/9549920637dd90c2e4878c589946237074b881c6.jpg",
    "icongray": "https://steamcdn-a.akamaihd.net/steamcommunity/public/images/apps/316480/501203da476b9e2c12572d8a1fef2c5cb91be2eb.jpg"
  },
  {
    "name": "ACH_ALLEGORY_OF_THE_CAVE",
    "defaultvalue": 0,
    "displayName": "Allegory of the cave",
    "hidden": 0,
    "description": "Unlock the fourth part of the level map",
    "icon": "https://steamcdn-a.akamaihd.net/steamcommunity/public/images/apps/316480/623d9d3c00c9eacdaa8f18f916cc2958dce8044b.jpg",
    "icongray": "https://steamcdn-a.akamaihd.net/steamcommunity/public/images/apps/316480/c5fc6090cbc5f4ee498ca4b8fa95c7231024e390.jpg"
  },
  {
    "name": "ACH_INDUSTRIAL_REVOLUTION",
    "defaultvalue": 0,
    "displayName": "Industrial revolution",
    "hidden": 0,
    "description": "Complete SLINKING CHIMNEY",
    "icon": "https://steamcdn-a.akamaihd.net/steamcommunity/public/images/apps/316480/d5da59e67b33d560f051f44c67731731d6f3c9d0.jpg",
    "icongray": "https://steamcdn-a.akamaihd.net/steamcommunity/public/images/apps/316480/4fed9cbc1140c3f6ec02e7f8f1b07f7886fa9c91.jpg"
  },
  {
    "name": "ACH_SHADOW_PUPPETEER",
    "defaultvalue": 0,
    "displayName": "Shadow puppeteer",
    "hidden": 0,
    "description": "Complete the game",
    "icon": "https://steamcdn-a.akamaihd.net/steamcommunity/public/images/apps/316480/31eaf69a5c4eb537cb0db320d693b3edd87b0ec1.jpg",
    "icongray": "https://steamcdn-a.akamaihd.net/steamcommunity/public/images/apps/316480/4dbe19578a3c788e4b3004748faef6d42b0644ba.jpg"
  }
]