{
  "Dlcs": {
    "1397150": {
      "Name": "Guilty Hell: Gunslinger Costume",
      "ImageUrl": "https://steamcdn-a.akamaihd.net/steam/apps/1397150/header.jpg?t=1601479906"
    }
  },
  "Name": "Guilty Hell: White Goddess and the City of Zombies",
  "AppId": "1322310",
  "ImageUrl": "https://steamcdn-a.akamaihd.net/steam/apps/1322310/header.jpg?t=1599616500",
  "Languages": [
    "english",
    "schinese",
    "tchinese",
    "japanese"
  ],
  "Platforms": {
    "windows": true,
    "mac": false,
    "linux": false
  }
}