{
  "Dlcs": {},
  "Name": "Under a Porcelain Sun",
  "AppId": "532230",
  "ImageUrl": "https://steamcdn-a.akamaihd.net/steam/apps/532230/header.jpg?t=1600692566",
  "Languages": [
    "english",
    "schinese"
  ],
  "Platforms": {
    "windows": true,
    "mac": true,
    "linux": true
  }
}