﻿[
  {
    "name": "ENTER_LASVEGUM",
    "defaultvalue": 0,
    "displayName": "Las Vegum, here we come!",
    "hidden": 0,
    "description": "Enter Las Vegum",
    "icon": "https://steamcdn-a.akamaihd.net/steamcommunity/public/images/apps/887060/0c4f993c2913935bf12093a3dda78e7f9c5a3bd2.jpg",
    "icongray": "https://steamcdn-a.akamaihd.net/steamcommunity/public/images/apps/887060/c65fdd9b8873b2c195c492e7a1e572b8be1ac088.jpg"
  },
  {
    "name": "ENTER_VENICE",
    "defaultvalue": 0,
    "displayName": "These Venetians are crazy!",
    "hidden": 1,
    "icon": "https://steamcdn-a.akamaihd.net/steamcommunity/public/images/apps/887060/a8be09f4aa45f89dd9d790e287fd39828c6c8ccc.jpg",
    "icongray": "https://steamcdn-a.akamaihd.net/steamcommunity/public/images/apps/887060/766a42262dee8760cabeb866f79f8657ad170ff1.jpg"
  },
  {
    "name": "ENTER_LOUXOR",
    "defaultvalue": 0,
    "displayName": "These Egyptians are crazy!",
    "hidden": 1,
    "icon": "https://steamcdn-a.akamaihd.net/steamcommunity/public/images/apps/887060/d11f4b0aee303fa9051d9b18967aa333aebae284.jpg",
    "icongray": "https://steamcdn-a.akamaihd.net/steamcommunity/public/images/apps/887060/bee1c490bd20b20cad6f0054263071fbdb250759.jpg"
  },
  {
    "name": "ENTER_FAKE_VILLAGE",
    "defaultvalue": 0,
    "displayName": "A Gaulish village",
    "hidden": 1,
    "icon": "https://steamcdn-a.akamaihd.net/steamcommunity/public/images/apps/887060/78433a12690cc74a807dd9115a5cb76df8b6b23d.jpg",
    "icongray": "https://steamcdn-a.akamaihd.net/steamcommunity/public/images/apps/887060/02a47e890f4a98138e3d3a5355407131f4613de8.jpg"
  },
  {
    "name": "WHO_IS_PANO",
    "defaultvalue": 0,
    "displayName": "Unmasked",
    "hidden": 1,
    "icon": "https://steamcdn-a.akamaihd.net/steamcommunity/public/images/apps/887060/74ea0a258320619aeffafaa60471a587b7066b17.jpg",
    "icongray": "https://steamcdn-a.akamaihd.net/steamcommunity/public/images/apps/887060/141c062d132b3130bd20a9a5f441bf121b3d3e74.jpg"
  },
  {
    "name": "ENTER_PIRATE",
    "defaultvalue": 0,
    "displayName": "These pirates are crazy!",
    "hidden": 1,
    "icon": "https://steamcdn-a.akamaihd.net/steamcommunity/public/images/apps/887060/11038f08210f005299e4faa1f9a5b0129291505d.jpg",
    "icongray": "https://steamcdn-a.akamaihd.net/steamcommunity/public/images/apps/887060/984952a5938366fcd0cd170afee51db742427585.jpg"
  },
  {
    "name": "RELEASE_KEROSEN",
    "defaultvalue": 0,
    "displayName": "A grand discussion",
    "hidden": 1,
    "icon": "https://steamcdn-a.akamaihd.net/steamcommunity/public/images/apps/887060/8a679386c46f453997dab1da4e1548c7081ff7c5.jpg",
    "icongray": "https://steamcdn-a.akamaihd.net/steamcommunity/public/images/apps/887060/e1f91b3f5439cefbb03eb255bc94e5aeb2c25c11.jpg"
  },
  {
    "name": "RELEASE_GARMONPARNAS",
    "defaultvalue": 0,
    "displayName": "Off to Caesar's Palace",
    "hidden": 1,
    "icon": "https://steamcdn-a.akamaihd.net/steamcommunity/public/images/apps/887060/89f8ef177bbc99246220fc7073848f0849bcc6a9.jpg",
    "icongray": "https://steamcdn-a.akamaihd.net/steamcommunity/public/images/apps/887060/c7acf4e24b52587eecacfc6f9b843ba988cdd9db.jpg"
  },
  {
    "name": "BEAT_CAESARS",
    "defaultvalue": 0,
    "displayName": "Against all odds",
    "hidden": 1,
    "icon": "https://steamcdn-a.akamaihd.net/steamcommunity/public/images/apps/887060/a5dba81cbbc49150f0f984f485173a8851433e11.jpg",
    "icongray": "https://steamcdn-a.akamaihd.net/steamcommunity/public/images/apps/887060/2eaa598191bf4080cac6cac85e6066fcb2c48e12.jpg"
  },
  {
    "name": "FINISH_GAME",
    "defaultvalue": 0,
    "displayName": "You're all washed up, Caesar",
    "hidden": 1,
    "icon": "https://steamcdn-a.akamaihd.net/steamcommunity/public/images/apps/887060/2c8642b0eff126fe7d33f5c04fef8e06cb5c203d.jpg",
    "icongray": "https://steamcdn-a.akamaihd.net/steamcommunity/public/images/apps/887060/2ff53d89647a75f9eee0f3378a8474033d06a585.jpg"
  },
  {
    "name": "RELEASE_SEPTANTESIX",
    "defaultvalue": 0,
    "displayName": "I do thank you!",
    "hidden": 1,
    "icon": "https://steamcdn-a.akamaihd.net/steamcommunity/public/images/apps/887060/d7d979afe2aacbfd008284bd1c57ddcfe7dd9b75.jpg",
    "icongray": "https://steamcdn-a.akamaihd.net/steamcommunity/public/images/apps/887060/bbf6bdc1ab7588d22ef9988b4c1850729141a451.jpg"
  },
  {
    "name": "BUY_UPGRADE",
    "defaultvalue": 0,
    "displayName": "Let the games begin",
    "hidden": 0,
    "description": "Buy an upgrade",
    "icon": "https://steamcdn-a.akamaihd.net/steamcommunity/public/images/apps/887060/0ec6fe46d928ca1359557f6335389aa0b8590bef.jpg",
    "icongray": "https://steamcdn-a.akamaihd.net/steamcommunity/public/images/apps/887060/9965ac0350a86a328e9fa49acb3630b2aff19100.jpg"
  },
  {
    "name": "ONE_GOLD_CHALLENGE",
    "defaultvalue": 0,
    "displayName": "Brave Gaulish warrior",
    "hidden": 0,
    "description": "Finish a challenge at Gold rank",
    "icon": "https://steamcdn-a.akamaihd.net/steamcommunity/public/images/apps/887060/4015b97a9e3f84582c31698d3bfcd92822c61e5a.jpg",
    "icongray": "https://steamcdn-a.akamaihd.net/steamcommunity/public/images/apps/887060/3d60e63c94028b99190a56a7e9d95b4c99091f93.jpg"
  },
  {
    "name": "ALL_GOLD_CHALLENGE",
    "defaultvalue": 0,
    "displayName": "Legendary Gaulish warrior",
    "hidden": 0,
    "description": "Finish all challenges at Gold rank",
    "icon": "https://steamcdn-a.akamaihd.net/steamcommunity/public/images/apps/887060/24bb5f525f3f5a933bfb228f12cb2cc1000e875b.jpg",
    "icongray": "https://steamcdn-a.akamaihd.net/steamcommunity/public/images/apps/887060/1d4e53f7cd3bcb4c818e1f086b6fea3249a4c6f6.jpg"
  },
  {
    "name": "ALL_POSTCARDS",
    "defaultvalue": 0,
    "displayName": "Who needs Postaldistrix?",
    "hidden": 0,
    "description": "Find all the postcards",
    "icon": "https://steamcdn-a.akamaihd.net/steamcommunity/public/images/apps/887060/510ae534cd4fd6325cf490827d3925269d3f04dc.jpg",
    "icongray": "https://steamcdn-a.akamaihd.net/steamcommunity/public/images/apps/887060/f83c8c5a631b00b122657cee3cd0bac45f81adc8.jpg"
  },
  {
    "name": "ALL_HELMETS",
    "defaultvalue": 0,
    "displayName": "Unhealthix would be proud",
    "hidden": 0,
    "description": "Find all the diamond helmets",
    "icon": "https://steamcdn-a.akamaihd.net/steamcommunity/public/images/apps/887060/9eeb6766867b7f6622398b40dfae79d31eaf08af.jpg",
    "icongray": "https://steamcdn-a.akamaihd.net/steamcommunity/public/images/apps/887060/e46697e763c6475c6a9adf5f26511aeeeccdc2e6.jpg"
  },
  {
    "name": "ALL_HELMETS_ONE_LEVEL",
    "defaultvalue": 0,
    "displayName": "Fulliautomatix' treasure",
    "hidden": 0,
    "description": "Find all the diamond helmets on a level",
    "icon": "https://steamcdn-a.akamaihd.net/steamcommunity/public/images/apps/887060/7ac5c1f88e8577135ffff3eb934ccb1965b0df83.jpg",
    "icongray": "https://steamcdn-a.akamaihd.net/steamcommunity/public/images/apps/887060/55c5437dc7341dd7390a65bbee72e501efe40c9a.jpg"
  },
  {
    "name": "ONE_FIGURINE",
    "defaultvalue": 0,
    "displayName": "A gift for Panacea",
    "hidden": 0,
    "description": "Buy a figurine",
    "icon": "https://steamcdn-a.akamaihd.net/steamcommunity/public/images/apps/887060/b8f29d8648ee27e306c268e9dcad26fb4e2da1b9.jpg",
    "icongray": "https://steamcdn-a.akamaihd.net/steamcommunity/public/images/apps/887060/fdaaebb77b524ead90712cf4d29a16e352875da9.jpg"
  },
  {
    "name": "ALL_FIGURINES",
    "defaultvalue": 0,
    "displayName": "Panacea's heart",
    "hidden": 0,
    "description": "Buy all the figurines",
    "icon": "https://steamcdn-a.akamaihd.net/steamcommunity/public/images/apps/887060/4ab89c71c219c82aaab58140da997b4721e94ee1.jpg",
    "icongray": "https://steamcdn-a.akamaihd.net/steamcommunity/public/images/apps/887060/ab0062155ed7ff2e22d767f53d10d19aa6121cf2.jpg"
  },
  {
    "name": "BEAT_ROMANS",
    "defaultvalue": 0,
    "displayName": "These Romans are crazy!",
    "hidden": 0,
    "description": "Beat 2500 Romans",
    "icon": "https://steamcdn-a.akamaihd.net/steamcommunity/public/images/apps/887060/20434d82dec8eae26f8f81ca93b370e33aece976.jpg",
    "icongray": "https://steamcdn-a.akamaihd.net/steamcommunity/public/images/apps/887060/18b4f2efcc951c6d23220a060eaee3b46928c828.jpg"
  },
  {
    "name": "THROW_ROMANS",
    "defaultvalue": 0,
    "displayName": "Bullseye!",
    "hidden": 0,
    "description": "Throw 100 Romans at Roman targets",
    "icon": "https://steamcdn-a.akamaihd.net/steamcommunity/public/images/apps/887060/2ef674f8da712d734cc21067101c9e63c97adf8b.jpg",
    "icongray": "https://steamcdn-a.akamaihd.net/steamcommunity/public/images/apps/887060/9ce1079a9dc2f9260ab6f10833f855037e041fcb.jpg"
  },
  {
    "name": "BEAT_ROMANS_POTION",
    "defaultvalue": 0,
    "displayName": "By Toutatis!",
    "hidden": 0,
    "description": "Beat 100 Romans under the effect of a magic potion",
    "icon": "https://steamcdn-a.akamaihd.net/steamcommunity/public/images/apps/887060/8decc75df6ecfccea5b190e4eb2e38ab5325ce84.jpg",
    "icongray": "https://steamcdn-a.akamaihd.net/steamcommunity/public/images/apps/887060/2e59ccdde648bb5abaa0ed0458fdb8da8831a5c4.jpg"
  },
  {
    "name": "BEAT_EACH_ROMAN",
    "defaultvalue": 0,
    "displayName": "I'll take one of each",
    "hidden": 0,
    "description": "Beat every type of Roman",
    "icon": "https://steamcdn-a.akamaihd.net/steamcommunity/public/images/apps/887060/34146e0ec97edb91ea4e18a890fa7b40c71cd297.jpg",
    "icongray": "https://steamcdn-a.akamaihd.net/steamcommunity/public/images/apps/887060/486ba45a739cf9accde25cf29c1481629dde7f10.jpg"
  },
  {
    "name": "STUN_MASTER",
    "defaultvalue": 0,
    "displayName": "Starry-eyed soldiers",
    "hidden": 0,
    "description": "Stun 10 Romans at once",
    "icon": "https://steamcdn-a.akamaihd.net/steamcommunity/public/images/apps/887060/36f84dba32eb9c44b2e956728dd00374659dba32.jpg",
    "icongray": "https://steamcdn-a.akamaihd.net/steamcommunity/public/images/apps/887060/5ad73c5c06e45e32a8eae1ca7297f7c5ed5b2306.jpg"
  },
  {
    "name": "MAMA_MIA",
    "defaultvalue": 0,
    "displayName": "Mamma mia!",
    "hidden": 1,
    "icon": "https://steamcdn-a.akamaihd.net/steamcommunity/public/images/apps/887060/17b7d0cd7d1d57afe05c5d26afb1ebf2f8dd924d.jpg",
    "icongray": "https://steamcdn-a.akamaihd.net/steamcommunity/public/images/apps/887060/472f10a6f3da64c33c14da79afd5cbfdc2f8b212.jpg"
  },
  {
    "name": "RICH",
    "defaultvalue": 0,
    "displayName": "Holy headgear!",
    "hidden": 0,
    "description": "Collect 9999 helmets",
    "icon": "https://steamcdn-a.akamaihd.net/steamcommunity/public/images/apps/887060/1a23ea8d37cd0283302d5d119459fb1f98f75fee.jpg",
    "icongray": "https://steamcdn-a.akamaihd.net/steamcommunity/public/images/apps/887060/42471275d4e6acf7286e8eb7ce634c9af6b4d44f.jpg"
  },
  {
    "name": "BUY_ALL_UPGRADE",
    "defaultvalue": 0,
    "displayName": "Training complete!",
    "hidden": 0,
    "description": "Acquire all available upgrades",
    "icon": "https://steamcdn-a.akamaihd.net/steamcommunity/public/images/apps/887060/bea237d2cb90495f34203c3f91db13ba45246c35.jpg",
    "icongray": "https://steamcdn-a.akamaihd.net/steamcommunity/public/images/apps/887060/c83c7995bf78ab8890eba5317e62b1bde973e8d1.jpg"
  },
  {
    "name": "UNSTOPPABLE_FURY",
    "defaultvalue": 0,
    "displayName": "Unstoppable",
    "hidden": 0,
    "description": "Beat 30 Romans in Fury mode",
    "icon": "https://steamcdn-a.akamaihd.net/steamcommunity/public/images/apps/887060/12d85ae545ec9d98e6697fc16a946b4a29d3d038.jpg",
    "icongray": "https://steamcdn-a.akamaihd.net/steamcommunity/public/images/apps/887060/8131fe59d1f986e87c3c4a826cf4eef00bd85cdb.jpg"
  },
  {
    "name": "TOTAL_COMPLETION",
    "defaultvalue": 0,
    "displayName": "Indomitable player",
    "hidden": 0,
    "description": "Reach 100% completion",
    "icon": "https://steamcdn-a.akamaihd.net/steamcommunity/public/images/apps/887060/5b99c373d4f44a16d435b61dc34075c47609b4ad.jpg",
    "icongray": "https://steamcdn-a.akamaihd.net/steamcommunity/public/images/apps/887060/340d138887c8afd4551d16bf37e3ff894192f41a.jpg"
  },
  {
    "name": "MAXI_MULTI",
    "defaultvalue": 0,
    "displayName": "Multiplicatus Maximus",
    "hidden": 0,
    "description": "Earn a 6x multiplier",
    "icon": "https://steamcdn-a.akamaihd.net/steamcommunity/public/images/apps/887060/cf401384e930e21747efbdfab48eb158a6967fcf.jpg",
    "icongray": "https://steamcdn-a.akamaihd.net/steamcommunity/public/images/apps/887060/3ebd2c08d99351d47857c03bbbfc49bc76ae02f1.jpg"
  }
]