[
  {
    "name": "ACHE_1",
    "defaultvalue": 0,
    "displayName": "莫名失忆",
    "hidden": 0,
    "description": "达成be1",
    "icon": "https://steamcdn-a.akamaihd.net/steamcommunity/public/images/apps/828380/b5435631765c50105fe429f1dc023325d0100f51.jpg",
    "icongray": "https://steamcdn-a.akamaihd.net/steamcommunity/public/images/apps/828380/8b9007697b68e54d3f3b27d594b182b13e9e05c5.jpg"
  },
  {
    "name": "ACHE_2",
    "defaultvalue": 0,
    "displayName": "守法公民",
    "hidden": 0,
    "description": "达成be2",
    "icon": "https://steamcdn-a.akamaihd.net/steamcommunity/public/images/apps/828380/ffe5bcc01907b3cd3898ca6fcbd6da4a042d134a.jpg",
    "icongray": "https://steamcdn-a.akamaihd.net/steamcommunity/public/images/apps/828380/690d54b596a0454332b211a5ad0828c4cdcfd889.jpg"
  },
  {
    "name": "ACHE_3",
    "defaultvalue": 0,
    "displayName": "天网恢恢",
    "hidden": 0,
    "description": "通关一次游戏",
    "icon": "https://steamcdn-a.akamaihd.net/steamcommunity/public/images/apps/828380/3594d706faed7ba0c12d525efc738854f93486a2.jpg",
    "icongray": "https://steamcdn-a.akamaihd.net/steamcommunity/public/images/apps/828380/d8417754ed59424a1fc5f11acfbc6e5d03b6ba9d.jpg"
  },
  {
    "name": "ACHE_4",
    "defaultvalue": 0,
    "displayName": "好奇宝宝",
    "hidden": 0,
    "description": "美术鉴赏全部解锁",
    "icon": "https://steamcdn-a.akamaihd.net/steamcommunity/public/images/apps/828380/a2ff133279b12e9abe47905d862d5356423d9f20.jpg",
    "icongray": "https://steamcdn-a.akamaihd.net/steamcommunity/public/images/apps/828380/5e1eb0ebdbd0b40e9229a5971bf4bcba6fd28423.jpg"
  },
  {
    "name": "ACHE_5",
    "defaultvalue": 0,
    "displayName": "福尔摩斯",
    "hidden": 0,
    "description": "通关后姬智点值为11",
    "icon": "https://steamcdn-a.akamaihd.net/steamcommunity/public/images/apps/828380/de264fb54596b16147aa1d0db37c158f23390afa.jpg",
    "icongray": "https://steamcdn-a.akamaihd.net/steamcommunity/public/images/apps/828380/f0e53ddb9b2f6a19549d5c24b2d548c3fc7b4605.jpg"
  }
]