[
  {
    "name": "NumGames",
    "defaultvalue": 0,
    "displayName": ""
  },
  {
    "name": "FeetTraveled",
    "defaultvalue": 0,
    "displayName": ""
  },
  {
    "name": "ScorePoints",
    "defaultvalue": 0,
    "displayName": ""
  },
  {
    "name": "ELORatings",
    "defaultvalue": 0,
    "displayName": ""
  },
  {
    "name": "LevelCompleted",
    "defaultvalue": 0,
    "displayName": ""
  }
]