{
  "Dlcs": {
    "1002940": {
      "Name": "Princess of Holy Light - animation pack",
      "ImageUrl": "https://steamcdn-a.akamaihd.net/steam/apps/1002940/header.jpg?t=1555442512"
    },
    "1064500": {
      "Name": "Princess of Holy Light - IMG pack",
      "ImageUrl": "https://steamcdn-a.akamaihd.net/steam/apps/1064500/header.jpg?t=1556099127"
    },
    "1072360": {
      "Name": "Princess of Holy Light - Adult Gallery",
      "ImageUrl": "https://steamcdn-a.akamaihd.net/steam/apps/1072360/header.jpg?t=1556297533"
    }
  },
  "Name": "Tactics & Strategy Master 2:Princess of Holy Light（圣光战姬）",
  "AppId": "950370",
  "ImageUrl": "https://steamcdn-a.akamaihd.net/steam/apps/950370/header.jpg?t=1599619368",
  "Languages": [
    "english",
    "tchinese",
    "schinese"
  ],
  "Platforms": {
    "windows": true,
    "mac": false,
    "linux": false
  }
}