﻿[
  {
    "name": "Achievements_001",
    "defaultvalue": 0,
    "displayName": "The Adventure Begins!",
    "hidden": 0,
    "description": "Start the game for the first time.",
    "icon": "https://steamcdn-a.akamaihd.net/steamcommunity/public/images/apps/500320/94f7bd4888ad748110983041430285a2f9290253.jpg",
    "icongray": "https://steamcdn-a.akamaihd.net/steamcommunity/public/images/apps/500320/50076df5dbdb124d2c99e32201e20437bd2f2521.jpg"
  },
  {
    "name": "Achievements_002",
    "defaultvalue": 0,
    "displayName": "End of Act I",
    "hidden": 0,
    "description": "Complete the Act I.",
    "icon": "https://steamcdn-a.akamaihd.net/steamcommunity/public/images/apps/500320/6768385f85edcbd6a1fa07f9cb36ce6e9ec0ee0b.jpg",
    "icongray": "https://steamcdn-a.akamaihd.net/steamcommunity/public/images/apps/500320/e00f8822a1e3147552afde5d0fca41cae8441625.jpg"
  },
  {
    "name": "Achievements_003",
    "defaultvalue": 0,
    "displayName": "The Easy Way",
    "hidden": 0,
    "description": "Consult the Walkthrough for the first time.",
    "icon": "https://steamcdn-a.akamaihd.net/steamcommunity/public/images/apps/500320/4292a316ed56228effeb3f237c376d12fd4fb211.jpg",
    "icongray": "https://steamcdn-a.akamaihd.net/steamcommunity/public/images/apps/500320/0e85675a4b6128d381722819d7ed8d6726693673.jpg"
  },
  {
    "name": "Achievements_004",
    "defaultvalue": 0,
    "displayName": "The Easier Way",
    "hidden": 0,
    "description": "Consult the Walkthrough five times in a game run.",
    "icon": "https://steamcdn-a.akamaihd.net/steamcommunity/public/images/apps/500320/88e002b0a9a49cdf72af5ee96d3f3b7ac8509976.jpg",
    "icongray": "https://steamcdn-a.akamaihd.net/steamcommunity/public/images/apps/500320/e52fc9038700f2e0d72dbef678190d3a1bdc9610.jpg"
  },
  {
    "name": "Achievements_005",
    "defaultvalue": 0,
    "displayName": "The Easiest Way",
    "hidden": 0,
    "description": "Consult the Walkthrough ten times in a game run.",
    "icon": "https://steamcdn-a.akamaihd.net/steamcommunity/public/images/apps/500320/054f5e87b39a34aed87a31fce315d9145c760395.jpg",
    "icongray": "https://steamcdn-a.akamaihd.net/steamcommunity/public/images/apps/500320/0e85675a4b6128d381722819d7ed8d6726693673.jpg"
  },
  {
    "name": "Achievements_006",
    "defaultvalue": 0,
    "displayName": "The Right Thing to Do",
    "hidden": 0,
    "description": "Return the hammer to Korzov without asking anything in return.",
    "icon": "https://steamcdn-a.akamaihd.net/steamcommunity/public/images/apps/500320/d9cf98f333f703de9d195f2cc5889e7456a3b33e.jpg",
    "icongray": "https://steamcdn-a.akamaihd.net/steamcommunity/public/images/apps/500320/cd2bac2808503eac1d8f27165fedb9116d85c306.jpg"
  },
  {
    "name": "Achievements_007",
    "defaultvalue": 0,
    "displayName": "Backstory, Please!",
    "hidden": 0,
    "description": "Listen to all the dialogues in the first scene.",
    "icon": "https://steamcdn-a.akamaihd.net/steamcommunity/public/images/apps/500320/78b81e620be6af6b42b52e67283264e71d470f16.jpg",
    "icongray": "https://steamcdn-a.akamaihd.net/steamcommunity/public/images/apps/500320/0f91e7058c61c104c23761e8219516fe9f58de1b.jpg"
  },
  {
    "name": "Achievements_008",
    "defaultvalue": 0,
    "displayName": "Mission Briefing!",
    "hidden": 0,
    "description": "Ask all the questions to McMaster befor starting the quest.",
    "icon": "https://steamcdn-a.akamaihd.net/steamcommunity/public/images/apps/500320/d968922608589e439c87036625820f057c334584.jpg",
    "icongray": "https://steamcdn-a.akamaihd.net/steamcommunity/public/images/apps/500320/77df68cec22337cba31f3823a9f7d024a3fab9b7.jpg"
  },
  {
    "name": "Achievements_009",
    "defaultvalue": 0,
    "displayName": "Did You See My Devices? Did You?",
    "hidden": 0,
    "description": "Show all the Terry's inventions to McMaster.",
    "icon": "https://steamcdn-a.akamaihd.net/steamcommunity/public/images/apps/500320/bd55db246d851a7d06ec3a56524cd4d5e6e3be2e.jpg",
    "icongray": "https://steamcdn-a.akamaihd.net/steamcommunity/public/images/apps/500320/262c05cf1f07e159badd2b3e691673507f5f0553.jpg"
  },
  {
    "name": "Achievements_010",
    "defaultvalue": 0,
    "displayName": "Knowledge is Power!",
    "hidden": 0,
    "description": "Ask for lore to all the characters.",
    "icon": "https://steamcdn-a.akamaihd.net/steamcommunity/public/images/apps/500320/cc1a0936daee898a912a0407ebb44d6c8dc140ae.jpg",
    "icongray": "https://steamcdn-a.akamaihd.net/steamcommunity/public/images/apps/500320/c4d5a242e7024af624392468c03925180d60e2dc.jpg"
  },
  {
    "name": "Achievements_011",
    "defaultvalue": 0,
    "displayName": "We're Not in Kansas Anymore",
    "hidden": 0,
    "description": "Find the secret path.",
    "icon": "https://steamcdn-a.akamaihd.net/steamcommunity/public/images/apps/500320/cf4ff223881f3fc5b30dbe8f8cd674e413b4e4bb.jpg",
    "icongray": "https://steamcdn-a.akamaihd.net/steamcommunity/public/images/apps/500320/c066069af8bc4fd66c4d49075cbb9705e9d8efc8.jpg"
  },
  {
    "name": "Achievements_012",
    "defaultvalue": 0,
    "displayName": "Meet the Jwillox",
    "hidden": 1,
    "icon": "https://steamcdn-a.akamaihd.net/steamcommunity/public/images/apps/500320/5c1e00323e9a39f2d4a75fd93f7e03461c7c68b9.jpg",
    "icongray": "https://steamcdn-a.akamaihd.net/steamcommunity/public/images/apps/500320/d8723933fa3dff2fe2623bf7ea5aa17389ff811a.jpg"
  },
  {
    "name": "Achievements_013",
    "defaultvalue": 0,
    "displayName": "Finding Strange Secrets",
    "hidden": 0,
    "description": "Ask to Geneveuve for interesting lore.",
    "icon": "https://steamcdn-a.akamaihd.net/steamcommunity/public/images/apps/500320/4a2bdcd02c988def299b6d585ff6b4178eaa3493.jpg",
    "icongray": "https://steamcdn-a.akamaihd.net/steamcommunity/public/images/apps/500320/e65ddd711dbd32fcb0a044be377b1e9d721653b4.jpg"
  },
  {
    "name": "Achievements_014",
    "defaultvalue": 0,
    "displayName": "The Words of Power!",
    "hidden": 0,
    "description": "Solve the Jwillox enigma.",
    "icon": "https://steamcdn-a.akamaihd.net/steamcommunity/public/images/apps/500320/e18ad65fc046fddba5d981ba90f0e14fbad404fe.jpg",
    "icongray": "https://steamcdn-a.akamaihd.net/steamcommunity/public/images/apps/500320/8f95dbe496ca6dfc2e586440a9d7bf2fa6137c7c.jpg"
  },
  {
    "name": "Achievements_015",
    "defaultvalue": 0,
    "displayName": "Violence is NOT the Answer!",
    "hidden": 0,
    "description": "Ask Terry to fight Burrborrg.",
    "icon": "https://steamcdn-a.akamaihd.net/steamcommunity/public/images/apps/500320/69759676e3a643122c780ad115cead3151bc18ce.jpg",
    "icongray": "https://steamcdn-a.akamaihd.net/steamcommunity/public/images/apps/500320/6e9ff6ba330d969573366d2c14fe23590384d10c.jpg"
  },
  {
    "name": "Achievements_016",
    "defaultvalue": 0,
    "displayName": "Friendly Advices",
    "hidden": 0,
    "description": "Ask to Hemilich all of his thoughts.",
    "icon": "https://steamcdn-a.akamaihd.net/steamcommunity/public/images/apps/500320/578e5de5ae74c7c57a1b5b67a37929d2d9614a8d.jpg",
    "icongray": "https://steamcdn-a.akamaihd.net/steamcommunity/public/images/apps/500320/8695772547039905880bf88807248b17ef31f613.jpg"
  },
  {
    "name": "Achievements_017",
    "defaultvalue": 0,
    "displayName": "Alchemist Apprentice",
    "hidden": 0,
    "description": "Solve the alchemic minigame once without skipping it.",
    "icon": "https://steamcdn-a.akamaihd.net/steamcommunity/public/images/apps/500320/0725d602b6bc6238549452bb7d8eb83ee877fbe1.jpg",
    "icongray": "https://steamcdn-a.akamaihd.net/steamcommunity/public/images/apps/500320/b09b068d818bcbb61a28b624bb99a582438eb537.jpg"
  },
  {
    "name": "Achievements_018",
    "defaultvalue": 0,
    "displayName": "Homunculus Award!",
    "hidden": 0,
    "description": "Solve all the alchemic minigames without skipping them.",
    "icon": "https://steamcdn-a.akamaihd.net/steamcommunity/public/images/apps/500320/5f4e9b761c879a2b71a25ea903e0002c8363d4c0.jpg",
    "icongray": "https://steamcdn-a.akamaihd.net/steamcommunity/public/images/apps/500320/98a48c3d5a02bed9e927ca191b81c000312caee8.jpg"
  },
  {
    "name": "Achievements_019",
    "defaultvalue": 0,
    "displayName": "Trust Me: I am an Engineer!",
    "hidden": 0,
    "description": "Solve the multitool minigame once.",
    "icon": "https://steamcdn-a.akamaihd.net/steamcommunity/public/images/apps/500320/62e6a65b501d9fbc02c4b5c96b01861d872e890a.jpg",
    "icongray": "https://steamcdn-a.akamaihd.net/steamcommunity/public/images/apps/500320/0af3b9f2f02e00ab7669b41b637e3d2511147902.jpg"
  },
  {
    "name": "Achievements_020",
    "defaultvalue": 0,
    "displayName": "Power to the Environment!",
    "hidden": 0,
    "description": "Solve the eco-engine minigame once.",
    "icon": "https://steamcdn-a.akamaihd.net/steamcommunity/public/images/apps/500320/a891bf53cdc63ea0aae5fcdeb962a40393108d33.jpg",
    "icongray": "https://steamcdn-a.akamaihd.net/steamcommunity/public/images/apps/500320/f0f6e4d7cce09adbc6b0a22e6dd833c1cb67928e.jpg"
  },
  {
    "name": "Achievements_021",
    "defaultvalue": 0,
    "displayName": "Fear the Swarm!",
    "hidden": 0,
    "description": "Force Burrborrg out of the tavern.",
    "icon": "https://steamcdn-a.akamaihd.net/steamcommunity/public/images/apps/500320/6d4003bf76ab4e6e00cf6fd72ba77b7f7cf35d69.jpg",
    "icongray": "https://steamcdn-a.akamaihd.net/steamcommunity/public/images/apps/500320/4bd2dc3b6166edd357501690b2b9603bb80bea87.jpg"
  },
  {
    "name": "Achievements_022",
    "defaultvalue": 0,
    "displayName": "I CAN'T HEAR YOU NO MORE!",
    "hidden": 0,
    "description": "Get rid of the Bog Marauder.",
    "icon": "https://steamcdn-a.akamaihd.net/steamcommunity/public/images/apps/500320/ded52ef6edaa686e6f8d74d0a4f135ed315dc018.jpg",
    "icongray": "https://steamcdn-a.akamaihd.net/steamcommunity/public/images/apps/500320/7ff3420595376c2228c9a7ad5d5e20b62ba997be.jpg"
  },
  {
    "name": "Achievements_023",
    "defaultvalue": 0,
    "displayName": "Bug-Remover",
    "hidden": 0,
    "description": "Get rid of the Scolodiabolus.",
    "icon": "https://steamcdn-a.akamaihd.net/steamcommunity/public/images/apps/500320/bbb85bec91d7d994564576d6ce21af847af68c1c.jpg",
    "icongray": "https://steamcdn-a.akamaihd.net/steamcommunity/public/images/apps/500320/5a3e62f1a55ab59b9b9b8e212a6c0f04f5885a34.jpg"
  },
  {
    "name": "Achievements_024",
    "defaultvalue": 0,
    "displayName": "Party Pooper!",
    "hidden": 0,
    "description": "Deflate the rascal's ball.",
    "icon": "https://steamcdn-a.akamaihd.net/steamcommunity/public/images/apps/500320/1a8159df66b17bc602f47de834c42ae736d715e5.jpg",
    "icongray": "https://steamcdn-a.akamaihd.net/steamcommunity/public/images/apps/500320/1c4a3bb3bfe675e30bba998db7f28da62ff4c605.jpg"
  },
  {
    "name": "Achievements_025",
    "defaultvalue": 0,
    "displayName": "A Terrible Ordeal!",
    "hidden": 0,
    "description": "Become adept of the Pavarilla's cult.",
    "icon": "https://steamcdn-a.akamaihd.net/steamcommunity/public/images/apps/500320/1e4a34ce07c019430af12565fa96c6a313b1b09f.jpg",
    "icongray": "https://steamcdn-a.akamaihd.net/steamcommunity/public/images/apps/500320/8f4635ab912a1db59f5cd448a27caa0fd9d3c151.jpg"
  },
  {
    "name": "Achievements_026",
    "defaultvalue": 0,
    "displayName": "Holy Smoke",
    "hidden": 0,
    "description": "Take the spices box.",
    "icon": "https://steamcdn-a.akamaihd.net/steamcommunity/public/images/apps/500320/39e5cb8446aa10cb51f2819aa42ae33df56376a1.jpg",
    "icongray": "https://steamcdn-a.akamaihd.net/steamcommunity/public/images/apps/500320/ad03e77c70cc0951ca605ee76bbc880bde6478b5.jpg"
  },
  {
    "name": "Achievement_01_First_Dialogue",
    "defaultvalue": 0,
    "displayName": "Chatterbox",
    "hidden": 0,
    "description": "Have a nice chat with your friends.",
    "icon": "https://steamcdn-a.akamaihd.net/steamcommunity/public/images/apps/500320/2ce956995651799059dea3f86809e11135a08390.jpg",
    "icongray": "https://steamcdn-a.akamaihd.net/steamcommunity/public/images/apps/500320/c88884d76fd2072570af2100bd4fca14e6881095.jpg"
  },
  {
    "name": "Achievement_02_Are_We_There",
    "defaultvalue": 0,
    "displayName": "Are we there yet?",
    "hidden": 0,
    "description": "What about now?",
    "icon": "https://steamcdn-a.akamaihd.net/steamcommunity/public/images/apps/500320/461e0701985e4f5388cddef7abbdec2a9cd18c2f.jpg",
    "icongray": "https://steamcdn-a.akamaihd.net/steamcommunity/public/images/apps/500320/dd3706d3de272d910cb14f16b374b69078e53339.jpg"
  },
  {
    "name": "Achievement_03_Winter",
    "defaultvalue": 0,
    "displayName": "Winter is coming!",
    "hidden": 0,
    "description": "Get rid of the autumnelementals.",
    "icon": "https://steamcdn-a.akamaihd.net/steamcommunity/public/images/apps/500320/7942e25b65fa41785f3dabe2dda1e31e123c3a82.jpg",
    "icongray": "https://steamcdn-a.akamaihd.net/steamcommunity/public/images/apps/500320/7740986b9c05c055670070700ef55ebe381e44a3.jpg"
  },
  {
    "name": "Achievement_04_Fly",
    "defaultvalue": 0,
    "displayName": "I can see my home, from up here!",
    "hidden": 0,
    "description": "Free the Grey Boobarooga.",
    "icon": "https://steamcdn-a.akamaihd.net/steamcommunity/public/images/apps/500320/39947e11ba854103eacc7ad07dea7b630351ffdd.jpg",
    "icongray": "https://steamcdn-a.akamaihd.net/steamcommunity/public/images/apps/500320/a3c1117d8aa1b25159d5d50640c566f0ce295d3b.jpg"
  },
  {
    "name": "Achievement_05_Snack",
    "defaultvalue": 0,
    "displayName": "Snack time!",
    "hidden": 0,
    "description": "Get rid of the sea monsters.",
    "icon": "https://steamcdn-a.akamaihd.net/steamcommunity/public/images/apps/500320/cd5cd6a275071cf6af9ee58e2a21ab41112ae394.jpg",
    "icongray": "https://steamcdn-a.akamaihd.net/steamcommunity/public/images/apps/500320/60cb575545e15dfcbb387381590dff2ea905a144.jpg"
  },
  {
    "name": "Achievement_06_MiniTerry",
    "defaultvalue": 0,
    "displayName": "Mini-Terry!",
    "hidden": 0,
    "description": "Get inside the LOBOSS base.",
    "icon": "https://steamcdn-a.akamaihd.net/steamcommunity/public/images/apps/500320/eec6aea4c4d37db16edba8a68f019490de9e2b5b.jpg",
    "icongray": "https://steamcdn-a.akamaihd.net/steamcommunity/public/images/apps/500320/ec9b598721e975b08073242dfbee71008390ac65.jpg"
  },
  {
    "name": "Achievement_07_Escape",
    "defaultvalue": 0,
    "displayName": "Escape artist",
    "hidden": 0,
    "description": "Recover the map.",
    "icon": "https://steamcdn-a.akamaihd.net/steamcommunity/public/images/apps/500320/224d81cb4e3e86e86828a5a02a891b051229942d.jpg",
    "icongray": "https://steamcdn-a.akamaihd.net/steamcommunity/public/images/apps/500320/2a34ae64b0b50c0e4c46828e74a1b07e5a98a0c2.jpg"
  },
  {
    "name": "Achievement_08_Jwillox",
    "defaultvalue": 0,
    "displayName": "We are eternity",
    "hidden": 1,
    "icon": "https://steamcdn-a.akamaihd.net/steamcommunity/public/images/apps/500320/e8695c9f56253fbcbd2a966d940c4872f62df1b3.jpg",
    "icongray": "https://steamcdn-a.akamaihd.net/steamcommunity/public/images/apps/500320/be7154e9e9d1dacc089f0cef556f91f7e4217e74.jpg"
  },
  {
    "name": "Achievement_09_Win",
    "defaultvalue": 0,
    "displayName": "End of Act II",
    "hidden": 0,
    "description": "Return victorious to McMaster.",
    "icon": "https://steamcdn-a.akamaihd.net/steamcommunity/public/images/apps/500320/2f86539dbe682d1e6068dce882e713892b3e53cd.jpg",
    "icongray": "https://steamcdn-a.akamaihd.net/steamcommunity/public/images/apps/500320/5130683e2144191c840d73fbab38ccc87181d08d.jpg"
  },
  {
    "name": "Achievement_10_Books",
    "defaultvalue": 0,
    "displayName": "Bookworm",
    "hidden": 0,
    "description": "Find your love for literature",
    "icon": "https://steamcdn-a.akamaihd.net/steamcommunity/public/images/apps/500320/dce5f77f27680c8436478eb417b6a8630cbba836.jpg",
    "icongray": "https://steamcdn-a.akamaihd.net/steamcommunity/public/images/apps/500320/18efd2c98e160880283e16568db5c3fc4e58980f.jpg"
  },
  {
    "name": "Achievement_11_Shark",
    "defaultvalue": 0,
    "displayName": "Friendly fangs",
    "hidden": 1,
    "icon": "https://steamcdn-a.akamaihd.net/steamcommunity/public/images/apps/500320/91bd8536946650778f17b8227070173e54866a05.jpg",
    "icongray": "https://steamcdn-a.akamaihd.net/steamcommunity/public/images/apps/500320/3200f4af6ad31786ec487d3ea4f8f9f919ab511f.jpg"
  },
  {
    "name": "Achievement_12_Curiosity",
    "defaultvalue": 0,
    "displayName": "Snooper",
    "hidden": 0,
    "description": "Everybody has something to tell.",
    "icon": "https://steamcdn-a.akamaihd.net/steamcommunity/public/images/apps/500320/09c636e410255e7e901eca0995b8856166b261bd.jpg",
    "icongray": "https://steamcdn-a.akamaihd.net/steamcommunity/public/images/apps/500320/3d0ec705626cb7f38a25156e676a8e19b921b492.jpg"
  },
  {
    "name": "Achievement_13_Traveller",
    "defaultvalue": 0,
    "displayName": "Traveller's diary",
    "hidden": 0,
    "description": "Once you have had many adventures, it's great to tell them to someone.",
    "icon": "https://steamcdn-a.akamaihd.net/steamcommunity/public/images/apps/500320/0a6eea644a742708addc60d7a82845a085ec03ac.jpg",
    "icongray": "https://steamcdn-a.akamaihd.net/steamcommunity/public/images/apps/500320/d14da181319174e2d0c404d3210658e55d0d1a25.jpg"
  },
  {
    "name": "Achievement01_LastAct",
    "defaultvalue": 0,
    "displayName": "The Last Act begins",
    "hidden": 0,
    "description": "A step closer to the end.",
    "icon": "https://steamcdn-a.akamaihd.net/steamcommunity/public/images/apps/500320/cd046b23e6acf1614e24542594e928cddb21577b.jpg",
    "icongray": "https://steamcdn-a.akamaihd.net/steamcommunity/public/images/apps/500320/61802eb0b1ee4f97ab19b8d9062da3f08867037b.jpg"
  },
  {
    "name": "Achievement02_EndOverture",
    "defaultvalue": 0,
    "displayName": "End of the Overture",
    "hidden": 0,
    "description": "A great adventure ends, a new one begins!",
    "icon": "https://steamcdn-a.akamaihd.net/steamcommunity/public/images/apps/500320/13d67e134a4467a041dd654edbc04cf0f3f9cc4b.jpg",
    "icongray": "https://steamcdn-a.akamaihd.net/steamcommunity/public/images/apps/500320/4b42807bbe588ac101c4666355a1062aa4df3791.jpg"
  },
  {
    "name": "Achievement03_Jwillox",
    "defaultvalue": 0,
    "displayName": "Time to die",
    "hidden": 1,
    "icon": "https://steamcdn-a.akamaihd.net/steamcommunity/public/images/apps/500320/4d6cb072369afdf3eae3c132b262b5f7069d0bc7.jpg",
    "icongray": "https://steamcdn-a.akamaihd.net/steamcommunity/public/images/apps/500320/f257550a7209c79b6744a814deb298a966785313.jpg"
  },
  {
    "name": "Achievement04_SecretRoom",
    "defaultvalue": 0,
    "displayName": "Thanks for playing",
    "hidden": 0,
    "description": "And don't forget to tell your friends about us!",
    "icon": "https://steamcdn-a.akamaihd.net/steamcommunity/public/images/apps/500320/7fc4e241b82a7a0cb1f9a8a0a638d263cae7b3ec.jpg",
    "icongray": "https://steamcdn-a.akamaihd.net/steamcommunity/public/images/apps/500320/739f59137d79ca80e673eb62cb58a86574fe22d5.jpg"
  }
]