{
  "Dlcs": {},
  "Name": "ODIA",
  "AppId": "1312250",
  "ImageUrl": "https://steamcdn-a.akamaihd.net/steam/apps/1312250/header.jpg?t=1598794488",
  "Languages": [
    "english"
  ],
  "Platforms": {
    "windows": true,
    "mac": false,
    "linux": false
  }
}