[
  {
    "name": "COLLECT_KEYS",
    "defaultvalue": 0,
    "displayName": "APERTUM",
    "hidden": 0,
    "description": "Collect all Wraithkeys",
    "icon": "https://steamcdn-a.akamaihd.net/steamcommunity/public/images/apps/1312250/d1b0b41f3120c12db828fb3ba87cbeb85fd90595.jpg",
    "icongray": "https://steamcdn-a.akamaihd.net/steamcommunity/public/images/apps/1312250/468880da953aa49c570e926a12d34ff352ac7da7.jpg"
  },
  {
    "name": "COLLECT_RUNES",
    "defaultvalue": 0,
    "displayName": "ADMORDEO",
    "hidden": 0,
    "description": "Collect all Blood Runes",
    "icon": "https://steamcdn-a.akamaihd.net/steamcommunity/public/images/apps/1312250/211258952ddf1f6e7770a18c20a6b8af6a1136a1.jpg",
    "icongray": "https://steamcdn-a.akamaihd.net/steamcommunity/public/images/apps/1312250/5588a4d892713bb5061e581b7b4328c26a3776b7.jpg"
  },
  {
    "name": "KILL_TANKS",
    "defaultvalue": 0,
    "displayName": "EXCINDO",
    "hidden": 0,
    "description": "Destroy all Guardian Walkers",
    "icon": "https://steamcdn-a.akamaihd.net/steamcommunity/public/images/apps/1312250/5d1c3ebbc2158776e8637144bf85da741c96fd83.jpg",
    "icongray": "https://steamcdn-a.akamaihd.net/steamcommunity/public/images/apps/1312250/43dbd2affa86d6344f5b46f152f6e2a8f827bced.jpg"
  },
  {
    "name": "FINISH_GAME",
    "defaultvalue": 0,
    "displayName": "MARTYRIS",
    "hidden": 0,
    "description": "Sacrifice yourself for the invasion",
    "icon": "https://steamcdn-a.akamaihd.net/steamcommunity/public/images/apps/1312250/1b85ae85fc0ee81f3ddba1cdf1ca5c0ffceb2bb4.jpg",
    "icongray": "https://steamcdn-a.akamaihd.net/steamcommunity/public/images/apps/1312250/3d2cdcd39bb84db2e1e164b09cdcf789886868f1.jpg"
  },
  {
    "name": "DISCOVER_CHURCHEGG",
    "defaultvalue": 0,
    "displayName": "VERITAS",
    "hidden": 1,
    "icon": "https://steamcdn-a.akamaihd.net/steamcommunity/public/images/apps/1312250/bbd8097e6b510f7c88e36b33d9e6bf0a79d2f41b.jpg",
    "icongray": "https://steamcdn-a.akamaihd.net/steamcommunity/public/images/apps/1312250/2b370c8db68183a1a6be4658b98eb3d28126366c.jpg"
  },
  {
    "name": "DISCOVER_SEWEREGG",
    "defaultvalue": 0,
    "displayName": "LATENS",
    "hidden": 1,
    "icon": "https://steamcdn-a.akamaihd.net/steamcommunity/public/images/apps/1312250/97517cbc1c8b682b4800924aae0db86286f2b245.jpg",
    "icongray": "https://steamcdn-a.akamaihd.net/steamcommunity/public/images/apps/1312250/2b370c8db68183a1a6be4658b98eb3d28126366c.jpg"
  },
  {
    "name": "DISCOVER_CITYEGG",
    "defaultvalue": 0,
    "displayName": "FELIS",
    "hidden": 1,
    "icon": "https://steamcdn-a.akamaihd.net/steamcommunity/public/images/apps/1312250/45b192b20f5682f83296a9b7f577a6e0272990a6.jpg",
    "icongray": "https://steamcdn-a.akamaihd.net/steamcommunity/public/images/apps/1312250/2b370c8db68183a1a6be4658b98eb3d28126366c.jpg"
  }
]