{
  "Dlcs": {},
  "Name": "Aristocunts",
  "AppId": "1314630",
  "ImageUrl": "https://steamcdn-a.akamaihd.net/steam/apps/1314630/header.jpg?t=1596902632",
  "Languages": [
    "english",
    "spanish",
    "schinese",
    "latam"
  ],
  "Platforms": {
    "windows": true,
    "mac": true,
    "linux": true
  }
}