[
  {
    "name": "ach_seat_pilot",
    "defaultvalue": 0,
    "displayName": "Pilot Seat",
    "hidden": 0,
    "description": "Seat on the pilot station",
    "icon": "https://steamcdn-a.akamaihd.net/steamcommunity/public/images/apps/769520/",
    "icongray": "https://steamcdn-a.akamaihd.net/steamcommunity/public/images/apps/769520/"
  },
  {
    "name": "ach_seat_sonar",
    "defaultvalue": 0,
    "displayName": "Sonar Seat",
    "hidden": 0,
    "description": "Seat on the sonar station",
    "icon": "https://steamcdn-a.akamaihd.net/steamcommunity/public/images/apps/769520/",
    "icongray": "https://steamcdn-a.akamaihd.net/steamcommunity/public/images/apps/769520/"
  },
  {
    "name": "ach_seat_gunner",
    "defaultvalue": 0,
    "displayName": "Gunner Seat",
    "hidden": 0,
    "description": "Seat on the gunner station",
    "icon": "https://steamcdn-a.akamaihd.net/steamcommunity/public/images/apps/769520/",
    "icongray": "https://steamcdn-a.akamaihd.net/steamcommunity/public/images/apps/769520/"
  },
  {
    "name": "ach_seat_engineer",
    "defaultvalue": 0,
    "displayName": "Engineer Seat",
    "hidden": 0,
    "description": "Seat on the engineer station",
    "icon": "https://steamcdn-a.akamaihd.net/steamcommunity/public/images/apps/769520/",
    "icongray": "https://steamcdn-a.akamaihd.net/steamcommunity/public/images/apps/769520/"
  },
  {
    "name": "ach_seat_abyssmaster",
    "defaultvalue": 0,
    "displayName": "Abyss Master",
    "hidden": 0,
    "description": "Play as Abyss Master",
    "icon": "https://steamcdn-a.akamaihd.net/steamcommunity/public/images/apps/769520/",
    "icongray": "https://steamcdn-a.akamaihd.net/steamcommunity/public/images/apps/769520/"
  },
  {
    "name": "ach_level_tutorial",
    "defaultvalue": 0,
    "displayName": "Tutorial",
    "hidden": 0,
    "description": "Finish the tutorial map",
    "icon": "https://steamcdn-a.akamaihd.net/steamcommunity/public/images/apps/769520/",
    "icongray": "https://steamcdn-a.akamaihd.net/steamcommunity/public/images/apps/769520/"
  },
  {
    "name": "ach_level_bunker",
    "defaultvalue": 0,
    "displayName": "Bunker",
    "hidden": 0,
    "description": "Finish the bunker map",
    "icon": "https://steamcdn-a.akamaihd.net/steamcommunity/public/images/apps/769520/",
    "icongray": "https://steamcdn-a.akamaihd.net/steamcommunity/public/images/apps/769520/"
  },
  {
    "name": "ach_level_aronnax",
    "defaultvalue": 0,
    "displayName": "Level Aronnax",
    "hidden": 0,
    "description": "Finish the Aronnax map",
    "icon": "https://steamcdn-a.akamaihd.net/steamcommunity/public/images/apps/769520/",
    "icongray": "https://steamcdn-a.akamaihd.net/steamcommunity/public/images/apps/769520/"
  },
  {
    "name": "ach_action_torpedoes_10",
    "defaultvalue": 0,
    "displayName": "Warrior",
    "hidden": 0,
    "description": "Send 10 torpedoes",
    "icon": "https://steamcdn-a.akamaihd.net/steamcommunity/public/images/apps/769520/",
    "icongray": "https://steamcdn-a.akamaihd.net/steamcommunity/public/images/apps/769520/"
  },
  {
    "name": "ach_action_analyze_10",
    "defaultvalue": 0,
    "displayName": "Observer",
    "hidden": 0,
    "description": "Fully scan 10 objects",
    "icon": "https://steamcdn-a.akamaihd.net/steamcommunity/public/images/apps/769520/",
    "icongray": "https://steamcdn-a.akamaihd.net/steamcommunity/public/images/apps/769520/"
  },
  {
    "name": "ach_action_acceleration_4",
    "defaultvalue": 0,
    "displayName": "Helmsman",
    "hidden": 0,
    "description": "Accelerate at Max Speed",
    "icon": "https://steamcdn-a.akamaihd.net/steamcommunity/public/images/apps/769520/",
    "icongray": "https://steamcdn-a.akamaihd.net/steamcommunity/public/images/apps/769520/"
  },
  {
    "name": "ach_action_repair_3",
    "defaultvalue": 0,
    "displayName": "Mechanics",
    "hidden": 0,
    "description": "Repair 3 modules",
    "icon": "https://steamcdn-a.akamaihd.net/steamcommunity/public/images/apps/769520/",
    "icongray": "https://steamcdn-a.akamaihd.net/steamcommunity/public/images/apps/769520/"
  }
]