[
  {
    "name": "EARLY_ACCESS_GAME_COMPLETED",
    "defaultvalue": 0,
    "displayName": "Completed Game",
    "hidden": 0,
    "description": "Completed the game with any character.",
    "icon": "https://steamcdn-a.akamaihd.net/steamcommunity/public/images/apps/511540/ca0934c86bffbbe6cf1854f08cd7eb336955bd96.jpg",
    "icongray": "https://steamcdn-a.akamaihd.net/steamcommunity/public/images/apps/511540/1872f84b5553eb79c574a3885776cdb6611a5670.jpg"
  },
  {
    "name": "UNLOCK_MOOMMAN",
    "defaultvalue": 0,
    "displayName": "Unlock Moomman",
    "hidden": 0,
    "description": "Complete the game with Moonman.",
    "icon": "https://steamcdn-a.akamaihd.net/steamcommunity/public/images/apps/511540/ea531a69dde72a6aae38fcd591754dff3a857708.jpg",
    "icongray": "https://steamcdn-a.akamaihd.net/steamcommunity/public/images/apps/511540/335597ba790f5458416d1da483166774967fd9c7.jpg"
  },
  {
    "name": "UNLOCK_CRUSADER",
    "defaultvalue": 0,
    "displayName": "Unlock Crusader",
    "hidden": 0,
    "description": "Recover the lost totem.",
    "icon": "https://steamcdn-a.akamaihd.net/steamcommunity/public/images/apps/511540/6a99af4cf2a1152620775be44006b02e3d60e04e.jpg",
    "icongray": "https://steamcdn-a.akamaihd.net/steamcommunity/public/images/apps/511540/a279e87b783d0fde18dcf75ddc95d7ca8c076653.jpg"
  },
  {
    "name": "UNLOCK_CARL",
    "defaultvalue": 0,
    "displayName": "Unlock Carl",
    "hidden": 0,
    "description": "Deploy the beacon.",
    "icon": "https://steamcdn-a.akamaihd.net/steamcommunity/public/images/apps/511540/6c13c8d82a3755cee32a88864a6c3ae78926b0be.jpg",
    "icongray": "https://steamcdn-a.akamaihd.net/steamcommunity/public/images/apps/511540/c88cafe94522aaf5a5c61f275fc5e67dd815ac36.jpg"
  },
  {
    "name": "UNLOCK_ELEMENTAL",
    "defaultvalue": 0,
    "displayName": "Unlock Elemental",
    "hidden": 0,
    "description": "Rescue the halcyon heart.",
    "icon": "https://steamcdn-a.akamaihd.net/steamcommunity/public/images/apps/511540/4d3f8147e793624d9f283b7803988119765bac7d.jpg",
    "icongray": "https://steamcdn-a.akamaihd.net/steamcommunity/public/images/apps/511540/1ca0ccf7c742e8a99a79379bad2bf69b7dfe78e8.jpg"
  },
  {
    "name": "UNLOCK_GAMDELF",
    "defaultvalue": 0,
    "displayName": "Unlock Gamdelf",
    "hidden": 0,
    "description": "Use a staff.",
    "icon": "https://steamcdn-a.akamaihd.net/steamcommunity/public/images/apps/511540/6963d14fcb5a49d85c61ffdb4377513446fb84b7.jpg",
    "icongray": "https://steamcdn-a.akamaihd.net/steamcommunity/public/images/apps/511540/8f862aba4dd62bc9ea24913933a830d4a4868851.jpg"
  },
  {
    "name": "COMPLETE_NUCLEAR_OPTION",
    "defaultvalue": 0,
    "displayName": "Nuclear Option",
    "hidden": 0,
    "description": "Complete the game with Moomman.",
    "icon": "https://steamcdn-a.akamaihd.net/steamcommunity/public/images/apps/511540/ea531a69dde72a6aae38fcd591754dff3a857708.jpg",
    "icongray": "https://steamcdn-a.akamaihd.net/steamcommunity/public/images/apps/511540/335597ba790f5458416d1da483166774967fd9c7.jpg"
  },
  {
    "name": "KILL_GROT_MILK",
    "defaultvalue": 0,
    "displayName": "Grot milk?",
    "hidden": 0,
    "description": "Kill a grot with a grot leg.",
    "icon": "https://steamcdn-a.akamaihd.net/steamcommunity/public/images/apps/511540/66dc5b447ad5b3f022c45186717b4da6435a6c24.jpg",
    "icongray": "https://steamcdn-a.akamaihd.net/steamcommunity/public/images/apps/511540/70c2b1ad35e33b665fad7ea86f714b254a6b5799.jpg"
  },
  {
    "name": "KILL_SNOW_MENACE_WITH_ARROW",
    "defaultvalue": 0,
    "displayName": "Sharpshooter",
    "hidden": 0,
    "description": "Kill a snow menace with a projectile.",
    "icon": "https://steamcdn-a.akamaihd.net/steamcommunity/public/images/apps/511540/00e86242dc773960e7c778839f94ccf92e143746.jpg",
    "icongray": "https://steamcdn-a.akamaihd.net/steamcommunity/public/images/apps/511540/49f02969370c95c02c2fd2d28ab35d432242d9c0.jpg"
  },
  {
    "name": "KILL_WHILE_BLIND",
    "defaultvalue": 0,
    "displayName": "Blindsided",
    "hidden": 0,
    "description": "Kill a human while blind.",
    "icon": "https://steamcdn-a.akamaihd.net/steamcommunity/public/images/apps/511540/08f888a941999fa7115757864d3848c0f466369d.jpg",
    "icongray": "https://steamcdn-a.akamaihd.net/steamcommunity/public/images/apps/511540/2420e75df3c654872b2aef2de87ceffcfe0d4922.jpg"
  },
  {
    "name": "KILL_KING",
    "defaultvalue": 0,
    "displayName": "Kingslayer",
    "hidden": 0,
    "description": "Kill a king.",
    "icon": "https://steamcdn-a.akamaihd.net/steamcommunity/public/images/apps/511540/4149d9e39a1387c18c1bbe596ed9f6de3802bc4e.jpg",
    "icongray": "https://steamcdn-a.akamaihd.net/steamcommunity/public/images/apps/511540/ac49668f5e75872db5da0eff019e85601e6d9e57.jpg"
  },
  {
    "name": "KILL_SPIDER_QUEEN",
    "defaultvalue": 0,
    "displayName": "Once Bitten",
    "hidden": 0,
    "description": "Kill a spider queen.",
    "icon": "https://steamcdn-a.akamaihd.net/steamcommunity/public/images/apps/511540/4a98e0761ccfec5886178a569394b46a9358ec37.jpg",
    "icongray": "https://steamcdn-a.akamaihd.net/steamcommunity/public/images/apps/511540/ddf0a40f487f97e165e05e1e74f8e12c7b60a34d.jpg"
  },
  {
    "name": "CRAFTING_MEAD",
    "defaultvalue": 0,
    "displayName": "Brewer",
    "hidden": 0,
    "description": "Craft mead.",
    "icon": "https://steamcdn-a.akamaihd.net/steamcommunity/public/images/apps/511540/17c52f293308fde3d9c04802b1532f6e1fc04f9e.jpg",
    "icongray": "https://steamcdn-a.akamaihd.net/steamcommunity/public/images/apps/511540/42ef27f3e4004e6655189af894efed2955e0f1c8.jpg"
  },
  {
    "name": "WIELD_GIANT_WEAPON",
    "defaultvalue": 0,
    "displayName": "That's Heavy",
    "hidden": 0,
    "description": "Wield a giant weapon.",
    "icon": "https://steamcdn-a.akamaihd.net/steamcommunity/public/images/apps/511540/6affefb0d170bcacc125370f5d13f70c37e87c57.jpg",
    "icongray": "https://steamcdn-a.akamaihd.net/steamcommunity/public/images/apps/511540/fa01333ede73859a2feea99dab0041dc186a5d6d.jpg"
  },
  {
    "name": "WEAR_BATMAN",
    "defaultvalue": 0,
    "displayName": "I'm Batman",
    "hidden": 0,
    "description": "Wear batsuit and owl mask.",
    "icon": "https://steamcdn-a.akamaihd.net/steamcommunity/public/images/apps/511540/048582f2c222e2d6355f2c7c25553ca9fcc09616.jpg",
    "icongray": "https://steamcdn-a.akamaihd.net/steamcommunity/public/images/apps/511540/d244837aed07935d831cbfa11e7b4d93a41d2b1e.jpg"
  },
  {
    "name": "OTHER_SNAIL_CATCHER",
    "defaultvalue": 0,
    "displayName": "Snailcatcher",
    "hidden": 0,
    "description": "Net a snail.",
    "icon": "https://steamcdn-a.akamaihd.net/steamcommunity/public/images/apps/511540/6ce62744481db293d885e80a948c6adcd38bac9e.jpg",
    "icongray": "https://steamcdn-a.akamaihd.net/steamcommunity/public/images/apps/511540/c3381a64d0b6d76d23eb744ba50188851e58c8c0.jpg"
  },
  {
    "name": "OTHER_MOTH_CATCHER",
    "defaultvalue": 0,
    "displayName": "Mothcatcher",
    "hidden": 0,
    "description": "Net a moth.",
    "icon": "https://steamcdn-a.akamaihd.net/steamcommunity/public/images/apps/511540/b75dc6776b6a43cff35496e031e8023fd73cc005.jpg",
    "icongray": "https://steamcdn-a.akamaihd.net/steamcommunity/public/images/apps/511540/33de75584af25dd8df17545e8a7fa42def4afd40.jpg"
  },
  {
    "name": "OTHER_FOUND_MOONSTONE",
    "defaultvalue": 0,
    "displayName": "Moonstoned",
    "hidden": 0,
    "description": "Find a moonstone.",
    "icon": "https://steamcdn-a.akamaihd.net/steamcommunity/public/images/apps/511540/ab3dad1bb8ec3448a9593f4d3f477b234d4a5107.jpg",
    "icongray": "https://steamcdn-a.akamaihd.net/steamcommunity/public/images/apps/511540/fb1b4a494a1f27a9d92e7298617d040b6ce36bdf.jpg"
  },
  {
    "name": "UNLOCK_OUTLAW",
    "defaultvalue": 0,
    "displayName": "Unlock Outlaw",
    "hidden": 0,
    "description": "Kill a ruler.",
    "icon": "https://steamcdn-a.akamaihd.net/steamcommunity/public/images/apps/511540/bc9a0423c90cddce38bfe672e75aff3089a72f78.jpg",
    "icongray": "https://steamcdn-a.akamaihd.net/steamcommunity/public/images/apps/511540/223a472a1117a01e2f4f3cb6b201535d7d569de5.jpg"
  },
  {
    "name": "UNLOCK_HUNTER",
    "defaultvalue": 0,
    "displayName": "Unlock Hunter",
    "hidden": 0,
    "description": "Kill the villagers.",
    "icon": "https://steamcdn-a.akamaihd.net/steamcommunity/public/images/apps/511540/e109eec35f92ebf95070c4f7c8b4e863af679d88.jpg",
    "icongray": "https://steamcdn-a.akamaihd.net/steamcommunity/public/images/apps/511540/1f907992e0ffd4c540326a9b8c17a2fdaf12c4a7.jpg"
  },
  {
    "name": "UNLOCK_METEOR",
    "defaultvalue": 0,
    "displayName": "Unlock Meteor",
    "hidden": 0,
    "description": "Touch the igniting moonstone.",
    "icon": "https://steamcdn-a.akamaihd.net/steamcommunity/public/images/apps/511540/72aad9a15fe5b6fdcad9c2ca365bb852ec7bcfb7.jpg",
    "icongray": "https://steamcdn-a.akamaihd.net/steamcommunity/public/images/apps/511540/6274f7e1a9fc6f1e72bc3b59341662f66a9a148f.jpg"
  },
  {
    "name": "UNLOCK_JEAN",
    "defaultvalue": 0,
    "displayName": "Unlock Jean",
    "hidden": 0,
    "description": "Complete a game with Carl.",
    "icon": "https://steamcdn-a.akamaihd.net/steamcommunity/public/images/apps/511540/9bb4c6fff1aa902c19bdbfe5cccfae6bc1f2305e.jpg",
    "icongray": "https://steamcdn-a.akamaihd.net/steamcommunity/public/images/apps/511540/86d687334f33a20ce25bc527c2a2b55415946aad.jpg"
  }
]