{
  "Dlcs": {},
  "Name": "Son of Aral",
  "AppId": "1357890",
  "ImageUrl": "https://steamcdn-a.akamaihd.net/steam/apps/1357890/header.jpg?t=1595475180",
  "Languages": [
    "english",
    "schinese"
  ],
  "Platforms": {
    "windows": true,
    "mac": true,
    "linux": false
  }
}