[
  {
    "name": "ACH_1",
    "defaultvalue": 0,
    "displayName": "That's all you can?",
    "hidden": 0,
    "description": "Kill 10 zombies",
    "icon": "https://steamcdn-a.akamaihd.net/steamcommunity/public/images/apps/794530/4679d887a699756e391dc004266661b792241454.jpg",
    "icongray": "https://steamcdn-a.akamaihd.net/steamcommunity/public/images/apps/794530/d41508fb68abee67747af29d8f336adb6b304271.jpg"
  },
  {
    "name": "ACH_2",
    "defaultvalue": 0,
    "displayName": "Impressive",
    "hidden": 0,
    "description": "Kill 100 zombies",
    "icon": "https://steamcdn-a.akamaihd.net/steamcommunity/public/images/apps/794530/705fe534819cafca15e98e94c64ffd4fa7d63b88.jpg",
    "icongray": "https://steamcdn-a.akamaihd.net/steamcommunity/public/images/apps/794530/afa5cccb27c68322ca183d0daf3e500c10bc77b3.jpg"
  },
  {
    "name": "ACH_3",
    "defaultvalue": 0,
    "displayName": "Zombies anihilator",
    "hidden": 0,
    "description": "Kill 500 zombies!",
    "icon": "https://steamcdn-a.akamaihd.net/steamcommunity/public/images/apps/794530/a1ad25c83aa58024837fb72ec3b97178466c10ce.jpg",
    "icongray": "https://steamcdn-a.akamaihd.net/steamcommunity/public/images/apps/794530/304e36dd00df8796a9c015233a5ffbaa122e2a97.jpg"
  },
  {
    "name": "ACH_4",
    "defaultvalue": 0,
    "displayName": "Mad Killer",
    "hidden": 0,
    "description": "Kill 1000 zombies",
    "icon": "https://steamcdn-a.akamaihd.net/steamcommunity/public/images/apps/794530/88bfe3e7eb685c118f9d36e08afb3c3ccfe1ead0.jpg",
    "icongray": "https://steamcdn-a.akamaihd.net/steamcommunity/public/images/apps/794530/53aa571b8daaa993656330c452673c93649af7ac.jpg"
  },
  {
    "name": "ACH_5",
    "defaultvalue": 0,
    "displayName": "Newbie",
    "hidden": 0,
    "description": "Reach 5 level",
    "icon": "https://steamcdn-a.akamaihd.net/steamcommunity/public/images/apps/794530/69848ddb5f48b2900a8e1eb425610e6123a625e0.jpg",
    "icongray": "https://steamcdn-a.akamaihd.net/steamcommunity/public/images/apps/794530/69b5793cc6313feadcac76b1d6405560f18b49d3.jpg"
  },
  {
    "name": "ACH_6",
    "defaultvalue": 0,
    "displayName": "Amateur",
    "hidden": 0,
    "description": "Reach 10 level",
    "icon": "https://steamcdn-a.akamaihd.net/steamcommunity/public/images/apps/794530/3254161ed65f1cbd96a6ffd66029bedd5c6d2c47.jpg",
    "icongray": "https://steamcdn-a.akamaihd.net/steamcommunity/public/images/apps/794530/cf3d2c274d918030071834c735ba0046ecf49524.jpg"
  },
  {
    "name": "ACH_7",
    "defaultvalue": 0,
    "displayName": "Expert",
    "hidden": 0,
    "description": "Reach 20 level",
    "icon": "https://steamcdn-a.akamaihd.net/steamcommunity/public/images/apps/794530/c16f92f4d1dcb3a9df23aed418a92b04f1c545ae.jpg",
    "icongray": "https://steamcdn-a.akamaihd.net/steamcommunity/public/images/apps/794530/dc7773ad296984f06ba24d9d48b96de5cb027ced.jpg"
  },
  {
    "name": "ACH_8",
    "defaultvalue": 0,
    "displayName": "Fanatic",
    "hidden": 0,
    "description": "Reach 45 level",
    "icon": "https://steamcdn-a.akamaihd.net/steamcommunity/public/images/apps/794530/c7d6825e1111a44819867c495b00983eb5bb45af.jpg",
    "icongray": "https://steamcdn-a.akamaihd.net/steamcommunity/public/images/apps/794530/e756021d065495974b017520741fd6feb250045c.jpg"
  },
  {
    "name": "ACH_9",
    "defaultvalue": 0,
    "displayName": "Immortal",
    "hidden": 0,
    "description": "Reach 75 level",
    "icon": "https://steamcdn-a.akamaihd.net/steamcommunity/public/images/apps/794530/16d7a656117f0dcc7c5fed6e969828af0eebd846.jpg",
    "icongray": "https://steamcdn-a.akamaihd.net/steamcommunity/public/images/apps/794530/ed37feef6c5d4ba508605ec4121cecb3e17a7179.jpg"
  },
  {
    "name": "ACH_10",
    "defaultvalue": 0,
    "displayName": "Cheater",
    "hidden": 0,
    "description": "Kill zombie by wall",
    "icon": "https://steamcdn-a.akamaihd.net/steamcommunity/public/images/apps/794530/7371b20cad0f97d48c4037c65086a9749306bb96.jpg",
    "icongray": "https://steamcdn-a.akamaihd.net/steamcommunity/public/images/apps/794530/b4c6b98f086875d5d4837b7589054f34000fdc4f.jpg"
  },
  {
    "name": "ACH_11",
    "defaultvalue": 0,
    "displayName": "Sniper",
    "hidden": 0,
    "description": "Kill more than 2 enemies at a time",
    "icon": "https://steamcdn-a.akamaihd.net/steamcommunity/public/images/apps/794530/8180b9b667f671bb99247331a6f40ae2b30791a1.jpg",
    "icongray": "https://steamcdn-a.akamaihd.net/steamcommunity/public/images/apps/794530/5b55c6a0ab455f1377d52ee8fc310eff1ee2f920.jpg"
  }
]