﻿[
  {
    "name": "Achievement000",
    "defaultvalue": 0,
    "displayName": "Leap of Fail",
    "hidden": 0,
    "description": "Complete \"Mansion\"",
    "icon": "https://steamcdn-a.akamaihd.net/steamcommunity/public/images/apps/477160/be2ca7728b348b6e3b8e7b6ef138b2ad17ab3f98.jpg",
    "icongray": "https://steamcdn-a.akamaihd.net/steamcommunity/public/images/apps/477160/a6dfb451cd38a18ed832867b0aefd93587746aa7.jpg"
  },
  {
    "name": "Achievement001",
    "defaultvalue": 0,
    "displayName": "Choo Choo!",
    "hidden": 0,
    "description": "Complete \"Train\"",
    "icon": "https://steamcdn-a.akamaihd.net/steamcommunity/public/images/apps/477160/ff963655efb5b8000cea2bf314e141d82334ffce.jpg",
    "icongray": "https://steamcdn-a.akamaihd.net/steamcommunity/public/images/apps/477160/99112683e02e067fb92f5cc73fdfd31f866cf64c.jpg"
  },
  {
    "name": "Achievement002",
    "defaultvalue": 0,
    "displayName": "Don't Get a Splinter!",
    "hidden": 0,
    "description": "Complete \"Carry\"",
    "icon": "https://steamcdn-a.akamaihd.net/steamcommunity/public/images/apps/477160/4d56eab4c42e270945e88e5d183d78186f843eac.jpg",
    "icongray": "https://steamcdn-a.akamaihd.net/steamcommunity/public/images/apps/477160/70d933085430f19e1dd1730e33f284761252cb34.jpg"
  },
  {
    "name": "Achievement003",
    "defaultvalue": 0,
    "displayName": "What Goes Up",
    "hidden": 0,
    "description": "Complete \"Mountain\"",
    "icon": "https://steamcdn-a.akamaihd.net/steamcommunity/public/images/apps/477160/666538e0b81ddfa87b7a0aff7b3ecf43afe6a485.jpg",
    "icongray": "https://steamcdn-a.akamaihd.net/steamcommunity/public/images/apps/477160/2103e0814008a9c335845338298af2031eaf87f6.jpg"
  },
  {
    "name": "Achievement004",
    "defaultvalue": 0,
    "displayName": "Brute Force",
    "hidden": 0,
    "description": "Complete \"Demolition\"",
    "icon": "https://steamcdn-a.akamaihd.net/steamcommunity/public/images/apps/477160/c372d5468856b6ea830e886de68247cd3d6b8eb5.jpg",
    "icongray": "https://steamcdn-a.akamaihd.net/steamcommunity/public/images/apps/477160/5167774a19971b9bd12243b152b6c9127fdf88e5.jpg"
  },
  {
    "name": "Achievement005",
    "defaultvalue": 0,
    "displayName": "Storm the Gate!",
    "hidden": 0,
    "description": "Complete \"Castle\"",
    "icon": "https://steamcdn-a.akamaihd.net/steamcommunity/public/images/apps/477160/0951829565b4129746b0ceee20f3a3f20d33ccd4.jpg",
    "icongray": "https://steamcdn-a.akamaihd.net/steamcommunity/public/images/apps/477160/afc1dc1d3f59490f6524c12e15f5dd3c6a810b32.jpg"
  },
  {
    "name": "Achievement006",
    "defaultvalue": 0,
    "displayName": "Feet First",
    "hidden": 0,
    "description": "Complete \"Water\" diving feet-first",
    "icon": "https://steamcdn-a.akamaihd.net/steamcommunity/public/images/apps/477160/09ac323d713ae6c85ac82150b5b3b0ac6e74cd0d.jpg",
    "icongray": "https://steamcdn-a.akamaihd.net/steamcommunity/public/images/apps/477160/0288d2f32fb6f5f66a33a1a4fed4e82c30efe6ac.jpg"
  },
  {
    "name": "Achievement007",
    "defaultvalue": 0,
    "displayName": "Head First",
    "hidden": 0,
    "description": "Complete \"Water\" diving head-first",
    "icon": "https://steamcdn-a.akamaihd.net/steamcommunity/public/images/apps/477160/5b72990149cc53e20f7f69cb1af027ab9a5f0ccb.jpg",
    "icongray": "https://steamcdn-a.akamaihd.net/steamcommunity/public/images/apps/477160/677c53eaf1f57142d4b90a47caace19aac5cec4c.jpg"
  },
  {
    "name": "Achievement008",
    "defaultvalue": 0,
    "displayName": "The End?",
    "hidden": 0,
    "description": "Complete \"Power Plant\"",
    "icon": "https://steamcdn-a.akamaihd.net/steamcommunity/public/images/apps/477160/2e6709365917cd09b327a98c6a9707de3935f07c.jpg",
    "icongray": "https://steamcdn-a.akamaihd.net/steamcommunity/public/images/apps/477160/5c506348b8ff6b7b5f3c3f7c50d9cc5d82cc92a6.jpg"
  },
  {
    "name": "Achievement009",
    "defaultvalue": 0,
    "displayName": "Speedrun ",
    "hidden": 0,
    "description": "Complete the game start-to-end in one run",
    "icon": "https://steamcdn-a.akamaihd.net/steamcommunity/public/images/apps/477160/43dc138f818fce0bbc98e1957029f83c78294a4b.jpg",
    "icongray": "https://steamcdn-a.akamaihd.net/steamcommunity/public/images/apps/477160/c3bc8f811796fdafe26eba3d979c2d3ff78aa070.jpg"
  },
  {
    "name": "Achievement010",
    "defaultvalue": 0,
    "displayName": "No escape",
    "hidden": 0,
    "description": "Fall and respawn once",
    "icon": "https://steamcdn-a.akamaihd.net/steamcommunity/public/images/apps/477160/41f97336c04175dca346f753b71af224bf365529.jpg",
    "icongray": "https://steamcdn-a.akamaihd.net/steamcommunity/public/images/apps/477160/2696084977f955e632ac85beac042027d92e92a0.jpg"
  },
  {
    "name": "Achievement011",
    "defaultvalue": 0,
    "displayName": "Pigeon Simulator",
    "hidden": 0,
    "description": "Stand on the head of the statue in the intro",
    "icon": "https://steamcdn-a.akamaihd.net/steamcommunity/public/images/apps/477160/fd86c1a9e2487ab8b07a6e2df33e8d8b6aeac1c6.jpg",
    "icongray": "https://steamcdn-a.akamaihd.net/steamcommunity/public/images/apps/477160/e33313ec2eda15a812121e0b2d87610957c0e176.jpg"
  },
  {
    "name": "Achievement012",
    "defaultvalue": 0,
    "displayName": "Mind the gap!",
    "hidden": 0,
    "description": "Take a big shortcut in the level \"Mansion\"",
    "icon": "https://steamcdn-a.akamaihd.net/steamcommunity/public/images/apps/477160/531c3214dcd6dce107b4a410fb20f6b3c678311f.jpg",
    "icongray": "https://steamcdn-a.akamaihd.net/steamcommunity/public/images/apps/477160/7328f8b5cfcad2d48795cead8ded64d37ea8e5d2.jpg"
  },
  {
    "name": "Achievement013",
    "defaultvalue": 0,
    "displayName": "Public service",
    "hidden": 0,
    "description": "Place 5 pieces of debris in a dumpster",
    "icon": "https://steamcdn-a.akamaihd.net/steamcommunity/public/images/apps/477160/c2a1ab1c9240e3448ad01ee4809ce77189e456bf.jpg",
    "icongray": "https://steamcdn-a.akamaihd.net/steamcommunity/public/images/apps/477160/55dfff76f1722e26d9e7c9321769b6c231596df2.jpg"
  },
  {
    "name": "Achievement014",
    "defaultvalue": 0,
    "displayName": "Perfectionist",
    "hidden": 0,
    "description": "Align a flipped bench with a wall",
    "icon": "https://steamcdn-a.akamaihd.net/steamcommunity/public/images/apps/477160/2e5b595c457b457f8bd8b4095d0a3ddb41a5df09.jpg",
    "icongray": "https://steamcdn-a.akamaihd.net/steamcommunity/public/images/apps/477160/623e6bb3a91918fefe8b00bc49ce28b11a4a0a1c.jpg"
  },
  {
    "name": "Achievement015",
    "defaultvalue": 0,
    "displayName": "It's stuck",
    "hidden": 0,
    "description": "Jam a door and go through it in \"Carry\"",
    "icon": "https://steamcdn-a.akamaihd.net/steamcommunity/public/images/apps/477160/22000f86fb4bdf87f2068fcd799942df91a2cb79.jpg",
    "icongray": "https://steamcdn-a.akamaihd.net/steamcommunity/public/images/apps/477160/422f2d2784a948268bf1a79e7f979296abdfbb05.jpg"
  },
  {
    "name": "Achievement016",
    "defaultvalue": 0,
    "displayName": "Tower",
    "hidden": 0,
    "description": "Stack all 4 boxes in the level \"Carry\"",
    "icon": "https://steamcdn-a.akamaihd.net/steamcommunity/public/images/apps/477160/5781717188685084c75e12ad948e74a51dcb93ed.jpg",
    "icongray": "https://steamcdn-a.akamaihd.net/steamcommunity/public/images/apps/477160/1b9af784a8852906bf1d649e2791cc4571537b69.jpg"
  },
  {
    "name": "Achievement017",
    "defaultvalue": 0,
    "displayName": "AH, EO, EO, EO, EO, OOOOO!",
    "hidden": 0,
    "description": "Use the rope to go above the abyss in the level \"Mountain\"",
    "icon": "https://steamcdn-a.akamaihd.net/steamcommunity/public/images/apps/477160/2c5e178a6477d3e796e960ba47469bedcd5b0df3.jpg",
    "icongray": "https://steamcdn-a.akamaihd.net/steamcommunity/public/images/apps/477160/5b191992c3b38ff03afdb628cd08977a6dad1c62.jpg"
  },
  {
    "name": "Achievement018",
    "defaultvalue": 0,
    "displayName": "Silent hours (Noisy neighbours)",
    "hidden": 0,
    "description": "Get rid of the speaker set in \"Mountain\"",
    "icon": "https://steamcdn-a.akamaihd.net/steamcommunity/public/images/apps/477160/832b10fa0d382288fced1301698eccaed050a9f7.jpg",
    "icongray": "https://steamcdn-a.akamaihd.net/steamcommunity/public/images/apps/477160/ce070ad8c1bddfc44afa534a29831632c91b9b78.jpg"
  },
  {
    "name": "Achievement019",
    "defaultvalue": 0,
    "displayName": "My treasure",
    "hidden": 0,
    "description": "Collect all gems into a pile in \"Mountain\"",
    "icon": "https://steamcdn-a.akamaihd.net/steamcommunity/public/images/apps/477160/e3b2dd3ea1a23b5ef3c5635a1741e3a4db407007.jpg",
    "icongray": "https://steamcdn-a.akamaihd.net/steamcommunity/public/images/apps/477160/50bd2eb58b41cea9fd63828b6b056515581b7b38.jpg"
  },
  {
    "name": "Achievement020",
    "defaultvalue": 0,
    "displayName": "Wrong direction",
    "hidden": 0,
    "description": "Use the window on your left instead of smashing the wall in \"Demolition\"",
    "icon": "https://steamcdn-a.akamaihd.net/steamcommunity/public/images/apps/477160/dc264f45d561b2c2e2c8e8130b3a53f678ef6ea2.jpg",
    "icongray": "https://steamcdn-a.akamaihd.net/steamcommunity/public/images/apps/477160/8580b997a094a941c0705b53e80fac32ad738d5f.jpg"
  },
  {
    "name": "Achievement021",
    "defaultvalue": 0,
    "displayName": "Surprise! (Avalanche!)",
    "hidden": 0,
    "description": "Unleash the boulder gate in \"Demolition\"",
    "icon": "https://steamcdn-a.akamaihd.net/steamcommunity/public/images/apps/477160/f0b0fcd1f809669c5031f2a84107e8b1970eb641.jpg",
    "icongray": "https://steamcdn-a.akamaihd.net/steamcommunity/public/images/apps/477160/6edd39833a64f4a006c162180b97aec2e924bed1.jpg"
  },
  {
    "name": "Achievement022",
    "defaultvalue": 0,
    "displayName": "Primal",
    "hidden": 0,
    "description": "Break 4 walls without using any gadgets in \"Demolition\"",
    "icon": "https://steamcdn-a.akamaihd.net/steamcommunity/public/images/apps/477160/74e6a7f5bd801e223f68c058aae1bec103cb56ff.jpg",
    "icongray": "https://steamcdn-a.akamaihd.net/steamcommunity/public/images/apps/477160/7df234865bb415ae8b7d881edaee92dd93c12130.jpg"
  },
  {
    "name": "Achievement023",
    "defaultvalue": 0,
    "displayName": "Improvised Ammo",
    "hidden": 0,
    "description": "Launch yourself with the catapult in \"Castle\"",
    "icon": "https://steamcdn-a.akamaihd.net/steamcommunity/public/images/apps/477160/dac11214fcfa9c9c60bc23a29bd08220d2753f3e.jpg",
    "icongray": "https://steamcdn-a.akamaihd.net/steamcommunity/public/images/apps/477160/ffc96228837c42b52b2e11bf87c797816fec7a17.jpg"
  },
  {
    "name": "Achievement024",
    "defaultvalue": 0,
    "displayName": "For whom the bell tolls",
    "hidden": 0,
    "description": "Ring the castle bell in \"Castle\"",
    "icon": "https://steamcdn-a.akamaihd.net/steamcommunity/public/images/apps/477160/f795a247b93b22e0d392b65db100cc2ade789cd5.jpg",
    "icongray": "https://steamcdn-a.akamaihd.net/steamcommunity/public/images/apps/477160/d5c722dfbc0a4dd6204057f2977e8051b8097864.jpg"
  },
  {
    "name": "Achievement025",
    "defaultvalue": 0,
    "displayName": "Zipline",
    "hidden": 0,
    "description": "Zipline from the church tower in \"Castle\"",
    "icon": "https://steamcdn-a.akamaihd.net/steamcommunity/public/images/apps/477160/0d0b422c810b6d459e7214692cabee31f7ff3360.jpg",
    "icongray": "https://steamcdn-a.akamaihd.net/steamcommunity/public/images/apps/477160/d1460625b8e696a17b1ed1db22e93c21e912ccef.jpg"
  },
  {
    "name": "Achievement026",
    "defaultvalue": 0,
    "displayName": "Smooth moves",
    "hidden": 0,
    "description": "Parkour fluidly from the alley to the blacksmith in \"Castle\" without touching the ground.",
    "icon": "https://steamcdn-a.akamaihd.net/steamcommunity/public/images/apps/477160/1f2db619660a8e40d3c3b97eb1cbceb9bfe37e4a.jpg",
    "icongray": "https://steamcdn-a.akamaihd.net/steamcommunity/public/images/apps/477160/220c62307919928001e4b5a96bffc0a328e8c8e3.jpg"
  },
  {
    "name": "Achievement027",
    "defaultvalue": 0,
    "displayName": "Row, row, row your boat",
    "hidden": 0,
    "description": "Use the row boat to get to the cargo ship in \"Water\"",
    "icon": "https://steamcdn-a.akamaihd.net/steamcommunity/public/images/apps/477160/9c8e87cfd8b72effbaeb967d1265907a398a27e3.jpg",
    "icongray": "https://steamcdn-a.akamaihd.net/steamcommunity/public/images/apps/477160/55d6206b4246ac11e6f35fe5f7af771f5ecc86a9.jpg"
  },
  {
    "name": "Achievement028",
    "defaultvalue": 0,
    "displayName": "Reverse gear",
    "hidden": 0,
    "description": "Enter the dock with the ship backwards in \"Water\"",
    "icon": "https://steamcdn-a.akamaihd.net/steamcommunity/public/images/apps/477160/4f847b1f07a587375cfcb198c94fe8791def78f3.jpg",
    "icongray": "https://steamcdn-a.akamaihd.net/steamcommunity/public/images/apps/477160/16731047aaa6fb92d7bc03c689718646adad59ab.jpg"
  },
  {
    "name": "Achievement029",
    "defaultvalue": 0,
    "displayName": "Beacon",
    "hidden": 0,
    "description": "Light up the lighthouse in \"Water\"",
    "icon": "https://steamcdn-a.akamaihd.net/steamcommunity/public/images/apps/477160/d242336329c9ee04617259cdb6cf9e5a07d93d80.jpg",
    "icongray": "https://steamcdn-a.akamaihd.net/steamcommunity/public/images/apps/477160/ee2e311aafe325a031804d94f9e889d3a0e4c36f.jpg"
  },
  {
    "name": "Achievement030",
    "defaultvalue": 0,
    "displayName": "Breathing exercise",
    "hidden": 0,
    "description": "In \"Water\", get out of the water in 100ms to avoid drowning",
    "icon": "https://steamcdn-a.akamaihd.net/steamcommunity/public/images/apps/477160/ede65412193b0ace68f2fd41b5ed95488e539424.jpg",
    "icongray": "https://steamcdn-a.akamaihd.net/steamcommunity/public/images/apps/477160/ea4bba96fc73a8c8b25f419ebd5cbd00861df0de.jpg"
  },
  {
    "name": "Achievement031",
    "defaultvalue": 0,
    "displayName": "Surfer",
    "hidden": 0,
    "description": "Don't get wet while surfing down the mountain in \"Water\"",
    "icon": "https://steamcdn-a.akamaihd.net/steamcommunity/public/images/apps/477160/a736af95b7c032d8fe226af11d36907a2fa326b2.jpg",
    "icongray": "https://steamcdn-a.akamaihd.net/steamcommunity/public/images/apps/477160/b7cb9a738d11cfd784dd6dfbcd599e7ce73caa3f.jpg"
  },
  {
    "name": "Achievement032",
    "defaultvalue": 0,
    "displayName": "Electricity 101",
    "hidden": 0,
    "description": "Short-circuit the wires in \"Power Plant\"",
    "icon": "https://steamcdn-a.akamaihd.net/steamcommunity/public/images/apps/477160/e510ce945d7740abfe04972353994b0779ebd184.jpg",
    "icongray": "https://steamcdn-a.akamaihd.net/steamcommunity/public/images/apps/477160/a7a3b6877196d87281879cde10edfc8a6babfc0f.jpg"
  },
  {
    "name": "Achievement033",
    "defaultvalue": 0,
    "displayName": "Will it fry?",
    "hidden": 0,
    "description": "Feed an appliance with power from 3 batteries in \"Power Plant\"",
    "icon": "https://steamcdn-a.akamaihd.net/steamcommunity/public/images/apps/477160/85ad61aea5b7c011543ccb20ae43602325a116fa.jpg",
    "icongray": "https://steamcdn-a.akamaihd.net/steamcommunity/public/images/apps/477160/8d5d0eb96d8f631aadb8ae458f45dddc9c944fde.jpg"
  },
  {
    "name": "Achievement034",
    "defaultvalue": 0,
    "displayName": "Delivery boy",
    "hidden": 0,
    "description": "Deliver 10 pieces of coal to the main island in \"Power Plant\"",
    "icon": "https://steamcdn-a.akamaihd.net/steamcommunity/public/images/apps/477160/2abef9d88abc5839b7d21a523060b8426bfcc113.jpg",
    "icongray": "https://steamcdn-a.akamaihd.net/steamcommunity/public/images/apps/477160/6cf0d7ea78f9f2a043bbd22377473e3437c7df4f.jpg"
  },
  {
    "name": "Achievement035",
    "defaultvalue": 0,
    "displayName": "Thief",
    "hidden": 0,
    "description": "Steal the battery from the statue in \"Power Plant\"",
    "icon": "https://steamcdn-a.akamaihd.net/steamcommunity/public/images/apps/477160/2f487e974b4c81f6dd0257893d2d7d4bfb353bf3.jpg",
    "icongray": "https://steamcdn-a.akamaihd.net/steamcommunity/public/images/apps/477160/33fc8bf7fac17bddf38f9c08d2d0d7caf84a2081.jpg"
  },
  {
    "name": "IncAchievement000",
    "defaultvalue": 0,
    "displayName": "Tourist",
    "hidden": 0,
    "description": "Travel 1km",
    "icon": "https://steamcdn-a.akamaihd.net/steamcommunity/public/images/apps/477160/c5256fc3c8d743d8c99e55f98a76a545ff9f3e3f.jpg",
    "icongray": "https://steamcdn-a.akamaihd.net/steamcommunity/public/images/apps/477160/e5b53ade95fb324ba6e1b209d73732d79bb309a0.jpg"
  },
  {
    "name": "IncAchievement001",
    "defaultvalue": 0,
    "displayName": "Traveler",
    "hidden": 0,
    "description": "Travel 10km",
    "icon": "https://steamcdn-a.akamaihd.net/steamcommunity/public/images/apps/477160/35376cbf4e82e5ca54f1fe82a2e6aeb38dbe0f63.jpg",
    "icongray": "https://steamcdn-a.akamaihd.net/steamcommunity/public/images/apps/477160/449efed0ece8b504f33f9029ee7f23eac698329b.jpg"
  },
  {
    "name": "IncAchievement002",
    "defaultvalue": 0,
    "displayName": "Adventurer",
    "hidden": 0,
    "description": "Travel 25km",
    "icon": "https://steamcdn-a.akamaihd.net/steamcommunity/public/images/apps/477160/96b2bb79c77f05fe528d5051266bafc76b95df0f.jpg",
    "icongray": "https://steamcdn-a.akamaihd.net/steamcommunity/public/images/apps/477160/3dd44d541eaa4d24127e92d0c42f2bbac1a58f64.jpg"
  },
  {
    "name": "IncAchievement003",
    "defaultvalue": 0,
    "displayName": "Let it rain",
    "hidden": 0,
    "description": "Respawn 100 times",
    "icon": "https://steamcdn-a.akamaihd.net/steamcommunity/public/images/apps/477160/38260dc21d5cc82e60a35379720f6e99e56f78ca.jpg",
    "icongray": "https://steamcdn-a.akamaihd.net/steamcommunity/public/images/apps/477160/4e4f86b143da17538f63b007182e0950da3562bf.jpg"
  },
  {
    "name": "IncAchievement004",
    "defaultvalue": 0,
    "displayName": "Trampoline",
    "hidden": 0,
    "description": "Jump 1000 times",
    "icon": "https://steamcdn-a.akamaihd.net/steamcommunity/public/images/apps/477160/3bdb40f9799cdc69c8ce5c0c698f128139dae602.jpg",
    "icongray": "https://steamcdn-a.akamaihd.net/steamcommunity/public/images/apps/477160/9eb95b6fd02d4ca3a2027da922d6f142cc33626c.jpg"
  },
  {
    "name": "IncAchievement005",
    "defaultvalue": 0,
    "displayName": "Climber",
    "hidden": 0,
    "description": "Climb 100m",
    "icon": "https://steamcdn-a.akamaihd.net/steamcommunity/public/images/apps/477160/960a1d4d39f3b4c6abecad1ac0f21dc783570b48.jpg",
    "icongray": "https://steamcdn-a.akamaihd.net/steamcommunity/public/images/apps/477160/b6cee6a0bdbdb5c41e1012ebdb2e9be0837dd1c0.jpg"
  },
  {
    "name": "IncAchievement006",
    "defaultvalue": 0,
    "displayName": "Heavy lifting",
    "hidden": 0,
    "description": "Carry objects for a total of 1000m",
    "icon": "https://steamcdn-a.akamaihd.net/steamcommunity/public/images/apps/477160/57efe2db3f7597e04c6bce1da8dee1a0a669e154.jpg",
    "icongray": "https://steamcdn-a.akamaihd.net/steamcommunity/public/images/apps/477160/25c45a2541eae0cd93840ca8d85f4d84e8e3fad8.jpg"
  },
  {
    "name": "IncAchievement007",
    "defaultvalue": 0,
    "displayName": "Learn to swim",
    "hidden": 0,
    "description": "Drown 10 times",
    "icon": "https://steamcdn-a.akamaihd.net/steamcommunity/public/images/apps/477160/e8a28ef30a67ed324a4be620c0895de3c7a22a41.jpg",
    "icongray": "https://steamcdn-a.akamaihd.net/steamcommunity/public/images/apps/477160/9a8e583eaed844d3f56ae8dac0ce367b2e959091.jpg"
  },
  {
    "name": "IncAchievement008",
    "defaultvalue": 0,
    "displayName": "Sail away!",
    "hidden": 0,
    "description": "Use any of the boats to travel 1km",
    "icon": "https://steamcdn-a.akamaihd.net/steamcommunity/public/images/apps/477160/18a689ac397d16f9552faf9204b305a2e0ca656c.jpg",
    "icongray": "https://steamcdn-a.akamaihd.net/steamcommunity/public/images/apps/477160/4ba562a12e54f20c4b9d5bf866eea80103aa1a39.jpg"
  },
  {
    "name": "IncAchievement009",
    "defaultvalue": 0,
    "displayName": "Petrolhead",
    "hidden": 0,
    "description": "Use any of the ground vehicles to travel 1km",
    "icon": "https://steamcdn-a.akamaihd.net/steamcommunity/public/images/apps/477160/2e1bd187e99d26847f0958e65c58b56c88dd395c.jpg",
    "icongray": "https://steamcdn-a.akamaihd.net/steamcommunity/public/images/apps/477160/1f996946d7628b591b84c3816571d04748a72078.jpg"
  },
  {
    "name": "IncAchievement010",
    "defaultvalue": 0,
    "displayName": "Convertible ride",
    "hidden": 0,
    "description": "Ride 50m in a dumpster",
    "icon": "https://steamcdn-a.akamaihd.net/steamcommunity/public/images/apps/477160/6995c26e13e29d0cedc5dbf5c9e80d3e6d9627b5.jpg",
    "icongray": "https://steamcdn-a.akamaihd.net/steamcommunity/public/images/apps/477160/9f4c48ebab75c5da5ea2cdac477a6dc01e28c7b3.jpg"
  },
  {
    "name": "Achievement1008",
    "defaultvalue": 0,
    "displayName": "The End",
    "hidden": 0,
    "description": "Complete \"Aztec\"",
    "icon": "https://steamcdn-a.akamaihd.net/steamcommunity/public/images/apps/477160/c277797f590eca16811f242b89471b377dfc3a66.jpg",
    "icongray": "https://steamcdn-a.akamaihd.net/steamcommunity/public/images/apps/477160/34f897a991243be9fd94dfc64a8c13413ade0afc.jpg"
  },
  {
    "name": "Achievement1111",
    "defaultvalue": 0,
    "displayName": "Bird's eye view",
    "hidden": 0,
    "description": "Climb to the top of the tree with the birds nest in “Aztec”",
    "icon": "https://steamcdn-a.akamaihd.net/steamcommunity/public/images/apps/477160/bf15f7112ec968018bb049de14301632d9318da1.jpg",
    "icongray": "https://steamcdn-a.akamaihd.net/steamcommunity/public/images/apps/477160/e6dddaa727b6076fd56bbe7cad2933bf060ff0c3.jpg"
  },
  {
    "name": "Achievement1112",
    "defaultvalue": 0,
    "displayName": "Rollin'",
    "hidden": 0,
    "description": "Walk on the rolling ball to bypass a puzzle in “Aztec”",
    "icon": "https://steamcdn-a.akamaihd.net/steamcommunity/public/images/apps/477160/bab4a13e5ef989388c4b6a2d380345f41695e7ea.jpg",
    "icongray": "https://steamcdn-a.akamaihd.net/steamcommunity/public/images/apps/477160/13487216ac07739c172e0f83792b95a2d95213a4.jpg"
  },
  {
    "name": "Achievement1113",
    "defaultvalue": 0,
    "displayName": "Clockwork",
    "hidden": 0,
    "description": "Pass the pendulum obstacle course in 60 seconds in “Aztec”",
    "icon": "https://steamcdn-a.akamaihd.net/steamcommunity/public/images/apps/477160/ac188782cca332d67afff67dcd4a65cbaca1c87e.jpg",
    "icongray": "https://steamcdn-a.akamaihd.net/steamcommunity/public/images/apps/477160/7063d095ef895d21a90de7870c6cf1610d0cff4e.jpg"
  },
  {
    "name": "Achievement1009",
    "defaultvalue": 0,
    "displayName": "It's Alive!",
    "hidden": 0,
    "description": "Complete \"Dark\"",
    "icon": "https://steamcdn-a.akamaihd.net/steamcommunity/public/images/apps/477160/9c23007555357b3867674adf3958d8405e105641.jpg",
    "icongray": "https://steamcdn-a.akamaihd.net/steamcommunity/public/images/apps/477160/a4900e9476097e14ece4792b14257b03b50789d5.jpg"
  },
  {
    "name": "Achievement1121",
    "defaultvalue": 0,
    "displayName": "Tick Tock",
    "hidden": 0,
    "description": "Climb the Clock Tower in 40 seconds in \"Dark\"",
    "icon": "https://steamcdn-a.akamaihd.net/steamcommunity/public/images/apps/477160/220594f673e39e8a233bf16e06c0a3e0b71c66ec.jpg",
    "icongray": "https://steamcdn-a.akamaihd.net/steamcommunity/public/images/apps/477160/d3c69670cdc6a8a6b50b765eba7f1240a9bb8394.jpg"
  },
  {
    "name": "Achievement1123",
    "defaultvalue": 0,
    "displayName": "Planks? No Thanks!",
    "hidden": 0,
    "description": "Complete \"Dark\" without moving any planks that are barring doors",
    "icon": "https://steamcdn-a.akamaihd.net/steamcommunity/public/images/apps/477160/15470d52dac201255f0e5432a5757d1073c90512.jpg",
    "icongray": "https://steamcdn-a.akamaihd.net/steamcommunity/public/images/apps/477160/08bbbc5a30499e4f606d0cb64843db434441d35c.jpg"
  },
  {
    "name": "Achievement1122",
    "defaultvalue": 0,
    "displayName": "Fry Me to the Moon",
    "hidden": 0,
    "description": "Hold on to the EXIT lid after you flick the switch in \"Dark\"",
    "icon": "https://steamcdn-a.akamaihd.net/steamcommunity/public/images/apps/477160/e4ffe0b6e0baa071f5386544fd9d05d2926734ad.jpg",
    "icongray": "https://steamcdn-a.akamaihd.net/steamcommunity/public/images/apps/477160/69b72ddec19cfec5a998853964e644e20b56a637.jpg"
  },
  {
    "name": "Achievement1010",
    "defaultvalue": 0,
    "displayName": "Under Pressure",
    "hidden": 0,
    "description": "Complete \"Steam\"",
    "icon": "https://steamcdn-a.akamaihd.net/steamcommunity/public/images/apps/477160/2f1bd1c30ab4c6d92665892b15e6e11c1e4e04f3.jpg",
    "icongray": "https://steamcdn-a.akamaihd.net/steamcommunity/public/images/apps/477160/9fa2dd4089c6f555b0ff4aee9ae2238d881365cb.jpg"
  },
  {
    "name": "Achievement1132",
    "defaultvalue": 0,
    "displayName": "Walk the Plank",
    "hidden": 0,
    "description": "Reach the big wheel in \"Steam\" without using the crane controls",
    "icon": "https://steamcdn-a.akamaihd.net/steamcommunity/public/images/apps/477160/1f856187dd602483c9583f056b7ff34430bc9658.jpg",
    "icongray": "https://steamcdn-a.akamaihd.net/steamcommunity/public/images/apps/477160/813b25cf6d20d380f292c473d9f493fb70fd5c4d.jpg"
  },
  {
    "name": "Achievement1133",
    "defaultvalue": 0,
    "displayName": "Get Dizzy",
    "hidden": 0,
    "description": "Ride 3 complete revolutions of the big wheel in \"Steam\"",
    "icon": "https://steamcdn-a.akamaihd.net/steamcommunity/public/images/apps/477160/d621a3009368fdd76a1489f517bfa0e4ab7d43fb.jpg",
    "icongray": "https://steamcdn-a.akamaihd.net/steamcommunity/public/images/apps/477160/13cf9efdf3a4c00c0ba0f191948480995906b07b.jpg"
  },
  {
    "name": "Achievement1134",
    "defaultvalue": 0,
    "displayName": "Whoops!",
    "hidden": 1,
    "icon": "https://steamcdn-a.akamaihd.net/steamcommunity/public/images/apps/477160/19727978d6b02c26ea9e8bee9677a438f8d2fa01.jpg",
    "icongray": "https://steamcdn-a.akamaihd.net/steamcommunity/public/images/apps/477160/6c5a4bf733f6b4f8b9a62bd5e22a20aa51a725ae.jpg"
  },
  {
    "name": "Achievement1011",
    "defaultvalue": 0,
    "displayName": "Avalanche",
    "hidden": 0,
    "description": "Complete \"Ice\"",
    "icon": "https://steamcdn-a.akamaihd.net/steamcommunity/public/images/apps/477160/b13e2bbf196345c7923651c97ad445d65b233294.jpg",
    "icongray": "https://steamcdn-a.akamaihd.net/steamcommunity/public/images/apps/477160/5aec69645b612ade8dbed090517e9f96bf7d5375.jpg"
  },
  {
    "name": "Achievement1142",
    "defaultvalue": 0,
    "displayName": "Tricky",
    "hidden": 0,
    "description": "Complete the slope jump in \"Ice\" with 2 snowboards strapped to your feet",
    "icon": "https://steamcdn-a.akamaihd.net/steamcommunity/public/images/apps/477160/93aef7f6d605da32f6bc09cdc039056af7b52db5.jpg",
    "icongray": "https://steamcdn-a.akamaihd.net/steamcommunity/public/images/apps/477160/86bf6e261990df14a262fe1ad85cdbdb2d0ae04c.jpg"
  },
  {
    "name": "Achievement1143",
    "defaultvalue": 0,
    "displayName": "No Ice Ice Baby",
    "hidden": 0,
    "description": "Complete the seesaw puzzle in \"Ice\" without using an ice cube",
    "icon": "https://steamcdn-a.akamaihd.net/steamcommunity/public/images/apps/477160/317224b7e99398a6f5dcf261f6947c8ad9cad212.jpg",
    "icongray": "https://steamcdn-a.akamaihd.net/steamcommunity/public/images/apps/477160/692040615c1371d59d3470787aeb73b25d3ead43.jpg"
  },
  {
    "name": "Achievement1144",
    "defaultvalue": 0,
    "displayName": "Taking the Piste",
    "hidden": 1,
    "icon": "https://steamcdn-a.akamaihd.net/steamcommunity/public/images/apps/477160/23adcbc47c6a31561efa5c28c6470924f4e624b4.jpg",
    "icongray": "https://steamcdn-a.akamaihd.net/steamcommunity/public/images/apps/477160/329e2ca6947cebbd03783db21b7fa3c1ade3141d.jpg"
  },
  {
    "name": "Achievement1145",
    "defaultvalue": 0,
    "displayName": "Candy Rush",
    "hidden": 0,
    "description": "Zip line down from the mountain in \"Christmas\" using a candy cane",
    "icon": "https://steamcdn-a.akamaihd.net/steamcommunity/public/images/apps/477160/f48efb72948cd286ca81a78af93072520d9a6af2.jpg",
    "icongray": "https://steamcdn-a.akamaihd.net/steamcommunity/public/images/apps/477160/0302401941c1cad237a294e7f54e75b3b581cb3d.jpg"
  },
  {
    "name": "Achievement1146",
    "defaultvalue": 0,
    "displayName": "Deck the Halls",
    "hidden": 0,
    "description": "Land in the snow fort in \"Christmas\" on a snowboard",
    "icon": "https://steamcdn-a.akamaihd.net/steamcommunity/public/images/apps/477160/0462d0d99c3a33fa8fd7f79f66be4d6613103463.jpg",
    "icongray": "https://steamcdn-a.akamaihd.net/steamcommunity/public/images/apps/477160/f3d57ee2dfc85ce104a4c19d664a446ca205fd81.jpg"
  },
  {
    "name": "Achievement1147",
    "defaultvalue": 0,
    "displayName": "Bah, Humbug!",
    "hidden": 0,
    "description": "Shoot the Christmas angel off the tree top in \"Christmas\"",
    "icon": "https://steamcdn-a.akamaihd.net/steamcommunity/public/images/apps/477160/ded27b48f2c2abe7d05a0fec532970b0df396e1c.jpg",
    "icongray": "https://steamcdn-a.akamaihd.net/steamcommunity/public/images/apps/477160/38a72daa59fd40cf483522831ec7dcbdcb22d438.jpg"
  },
  {
    "name": "Achievement1148",
    "defaultvalue": 0,
    "displayName": "Top the Hat",
    "hidden": 0,
    "description": "Stand atop the large snowman's hat in \"Christmas\"",
    "icon": "https://steamcdn-a.akamaihd.net/steamcommunity/public/images/apps/477160/6576d9af30082505f4d55a1b2c2a3cea93e3ec2f.jpg",
    "icongray": "https://steamcdn-a.akamaihd.net/steamcommunity/public/images/apps/477160/339b5683dda0e159201ded0321c930352b1d9acb.jpg"
  },
  {
    "name": "Achievement1149",
    "defaultvalue": 0,
    "displayName": "Wrapped Up",
    "hidden": 0,
    "description": "Complete \"Thermal\"",
    "icon": "https://steamcdn-a.akamaihd.net/steamcommunity/public/images/apps/477160/7255f3b2066f46f7a1451d88285081a241ba6c8e.jpg",
    "icongray": "https://steamcdn-a.akamaihd.net/steamcommunity/public/images/apps/477160/f94a508e6f2c29d99908a71b49d574de16aa66f5.jpg"
  },
  {
    "name": "Achievement1150",
    "defaultvalue": 0,
    "displayName": "Pay Day",
    "hidden": 0,
    "description": "Complete \"Thermal\" while holding a gold bar",
    "icon": "https://steamcdn-a.akamaihd.net/steamcommunity/public/images/apps/477160/c419d50a3997b2b33e58ea72c003d3450732170b.jpg",
    "icongray": "https://steamcdn-a.akamaihd.net/steamcommunity/public/images/apps/477160/a5e3c18b34bb61328404a6f9dc3a0041d0172803.jpg"
  },
  {
    "name": "Achievement1151",
    "defaultvalue": 0,
    "displayName": "Hook, Line and Jumper",
    "hidden": 0,
    "description": "Enter the compound in \"Thermal\" without passing through the main gate",
    "icon": "https://steamcdn-a.akamaihd.net/steamcommunity/public/images/apps/477160/fd2a6dbff3bce53ba45841f8c2d5c30f2f0bf3a9.jpg",
    "icongray": "https://steamcdn-a.akamaihd.net/steamcommunity/public/images/apps/477160/2cd5fec472fc1501ce8bb7eeee9b3d3da1b3e50d.jpg"
  },
  {
    "name": "Achievement1152",
    "defaultvalue": 0,
    "displayName": "Amped!",
    "hidden": 0,
    "description": "Attach all electrical cables in 35 seconds or less in \"Thermal\"",
    "icon": "https://steamcdn-a.akamaihd.net/steamcommunity/public/images/apps/477160/5f63e52a6a51babe5ba79380e70599b5aa7f32c4.jpg",
    "icongray": "https://steamcdn-a.akamaihd.net/steamcommunity/public/images/apps/477160/468e010c513f16a9c2605771eeb8c608b2b0ba48.jpg"
  },
  {
    "name": "Achievement1153",
    "defaultvalue": 0,
    "displayName": "The Foreman",
    "hidden": 0,
    "description": "Complete \"Factory\"",
    "icon": "https://steamcdn-a.akamaihd.net/steamcommunity/public/images/apps/477160/d56aa96ac8cc2c3b6d6b39afddf0b78238330a24.jpg",
    "icongray": "https://steamcdn-a.akamaihd.net/steamcommunity/public/images/apps/477160/b5654d770ea597837df970910e5b6d9d5a81f51b.jpg"
  },
  {
    "name": "Achievement1154",
    "defaultvalue": 0,
    "displayName": "Radio Silence",
    "hidden": 0,
    "description": "Throw all four radios off the level in “Factory”",
    "icon": "https://steamcdn-a.akamaihd.net/steamcommunity/public/images/apps/477160/37df58da989bddbbcbcbd429be2bbda642a537a7.jpg",
    "icongray": "https://steamcdn-a.akamaihd.net/steamcommunity/public/images/apps/477160/5ce315a3f6f0c7300a2ed5f63ed14a84553820fa.jpg"
  },
  {
    "name": "Achievement1155",
    "defaultvalue": 0,
    "displayName": "After Hours",
    "hidden": 0,
    "description": "Complete the first half of “Factory” without turning any lights on",
    "icon": "https://steamcdn-a.akamaihd.net/steamcommunity/public/images/apps/477160/4f76811938943ebd9bfc8156602b91c67e74bc62.jpg",
    "icongray": "https://steamcdn-a.akamaihd.net/steamcommunity/public/images/apps/477160/58a4ce0237842a7069437aeef5d35f90e23c77c4.jpg"
  },
  {
    "name": "Achievement1156",
    "defaultvalue": 0,
    "displayName": "How to get Fired!",
    "hidden": 0,
    "description": "Throw one of each item in the final room into the fire in “Factory”",
    "icon": "https://steamcdn-a.akamaihd.net/steamcommunity/public/images/apps/477160/ea337db0cbe77bad2935611fb3cea3228f8a6197.jpg",
    "icongray": "https://steamcdn-a.akamaihd.net/steamcommunity/public/images/apps/477160/6c51d1e083cec0a542ff0d78d362a62e973a1774.jpg"
  },
  {
    "name": "Achievement1157",
    "defaultvalue": 0,
    "displayName": "Hole in One",
    "hidden": 0,
    "description": "Complete \"Golf\"",
    "icon": "https://steamcdn-a.akamaihd.net/steamcommunity/public/images/apps/477160/ccfc9a8e5266861d0be60d2d225eca7204ebb334.jpg",
    "icongray": "https://steamcdn-a.akamaihd.net/steamcommunity/public/images/apps/477160/dc63cf9ed274dbf06b51fc59720e7c29e68b0f04.jpg"
  },
  {
    "name": "Achievement1158",
    "defaultvalue": 0,
    "displayName": "Birdie",
    "hidden": 0,
    "description": "Using ONLY the golf club, putt the ball in 3 strokes or less",
    "icon": "https://steamcdn-a.akamaihd.net/steamcommunity/public/images/apps/477160/fbae0b7f3eefb0b1e3d8d04c50ce7a8312bab8e6.jpg",
    "icongray": "https://steamcdn-a.akamaihd.net/steamcommunity/public/images/apps/477160/2951bc5bc424d93e9420a832f5873ba88efdad89.jpg"
  },
  {
    "name": "Achievement1159",
    "defaultvalue": 0,
    "displayName": "Bogey (1 Over Par)",
    "hidden": 0,
    "description": "Take the alternate route above the cave",
    "icon": "https://steamcdn-a.akamaihd.net/steamcommunity/public/images/apps/477160/184d8265ba4a289e7d5b1a3e0d00a06b6508b62d.jpg",
    "icongray": "https://steamcdn-a.akamaihd.net/steamcommunity/public/images/apps/477160/d2ad28072b3043935d162ee31f2a9a0109a65913.jpg"
  },
  {
    "name": "Achievement1160",
    "defaultvalue": 0,
    "displayName": "Mulligan",
    "hidden": 0,
    "description": "Drive the golf cart off the edge of the level",
    "icon": "https://steamcdn-a.akamaihd.net/steamcommunity/public/images/apps/477160/6c56506570fc712c36c4b2e8d0b92db88b1ecd35.jpg",
    "icongray": "https://steamcdn-a.akamaihd.net/steamcommunity/public/images/apps/477160/4076adbd972d3a66a029cae063718127498a8cc1.jpg"
  }
]