﻿{
  "Dlcs": {},
  "Name": "Wizrogue - Labyrinth of Wizardry",
  "AppId": "494320",
  "ImageUrl": "https://steamcdn-a.akamaihd.net/steam/apps/494320/header.jpg?t=1568808029",
  "Languages": [
    "english"
  ],
  "Platforms": {
    "windows": true,
    "mac": true,
    "linux": true
  }
}