{
  "Dlcs": {},
  "Name": "Peg Solitaire Adventure",
  "AppId": "1238620",
  "ImageUrl": "https://steamcdn-a.akamaihd.net/steam/apps/1238620/header.jpg?t=1581934211",
  "Languages": [
    "english"
  ],
  "Platforms": {
    "windows": true,
    "mac": false,
    "linux": false
  }
}