[
  {
    "name": "OnlineAttributes/version",
    "defaultvalue": 0,
    "displayName": "Version"
  },
  {
    "name": "TestInt1",
    "defaultvalue": 0,
    "displayName": "CryENGINE TestInt1"
  },
  {
    "name": "TestInt2",
    "defaultvalue": 0,
    "displayName": "CryENGINE TestInt2"
  },
  {
    "name": "TestInt3",
    "defaultvalue": 0,
    "displayName": "CryENGINE TestInt3"
  },
  {
    "name": "TestFloat1",
    "defaultvalue": 0,
    "displayName": "CryENGINE TestFloat1"
  },
  {
    "name": "TestFloat2",
    "defaultvalue": 0,
    "displayName": "CryENGINE TestFloat2"
  },
  {
    "name": "TestFloat3",
    "defaultvalue": 0,
    "displayName": "CryENGINE TestFloat3"
  },
  {
    "name": "checksum0",
    "defaultvalue": 0,
    "displayName": "checksum0"
  },
  {
    "name": "checksum1",
    "defaultvalue": 0,
    "displayName": "checksum1"
  }
]