{
  "Dlcs": {
    "1213320": {
      "Name": "",
      "ImageUrl": ""
    }
  },
  "Name": "In Her Eyes",
  "AppId": "1213000",
  "ImageUrl": "https://steamcdn-a.akamaihd.net/steam/apps/1213000/header.jpg?t=1588924719",
  "Languages": [
    "english",
    "japanese",
    "schinese",
    "tchinese"
  ],
  "Platforms": {
    "windows": true,
    "mac": true,
    "linux": false
  }
}