[
  {
    "name": "ACH_SEVENDAYS",
    "defaultvalue": 0,
    "displayName": "Seven Days",
    "hidden": 0,
    "description": "Completed all achievements in the game.",
    "icon": "https://steamcdn-a.akamaihd.net/steamcommunity/public/images/apps/931560/851fee9972bfbd912a0016449a076226f929e58f.jpg",
    "icongray": "https://steamcdn-a.akamaihd.net/steamcommunity/public/images/apps/931560/05c0fdc7342002888301176976e1b6fd17b4b613.jpg"
  },
  {
    "name": "ACH_BLURAY",
    "defaultvalue": 0,
    "displayName": "Not the Video I Wanted",
    "hidden": 0,
    "description": "Killed by an annoyed spirit.",
    "icon": "https://steamcdn-a.akamaihd.net/steamcommunity/public/images/apps/931560/fd719c5a5eba798e31469ffe414e72eb21d8277a.jpg",
    "icongray": "https://steamcdn-a.akamaihd.net/steamcommunity/public/images/apps/931560/e0913fb30836887be3b5e2aa9a2a39560b4a73a1.jpg"
  },
  {
    "name": "ACH_GHOST",
    "defaultvalue": 0,
    "displayName": "Grudge",
    "hidden": 0,
    "description": "Killed by a vengeful spirit.",
    "icon": "https://steamcdn-a.akamaihd.net/steamcommunity/public/images/apps/931560/fca4a2575228767f77fa72cb2af49d36fc311a13.jpg",
    "icongray": "https://steamcdn-a.akamaihd.net/steamcommunity/public/images/apps/931560/05c0fdc7342002888301176976e1b6fd17b4b613.jpg"
  },
  {
    "name": "ACH_REALITY",
    "defaultvalue": 0,
    "displayName": "Am I Dreaming?",
    "hidden": 0,
    "description": "Chose the most logical way to ascertain reality.",
    "icon": "https://steamcdn-a.akamaihd.net/steamcommunity/public/images/apps/931560/56662459bcc4d2071d55c26bbe7411c01d033858.jpg",
    "icongray": "https://steamcdn-a.akamaihd.net/steamcommunity/public/images/apps/931560/e0913fb30836887be3b5e2aa9a2a39560b4a73a1.jpg"
  },
  {
    "name": "ACH_SOFT",
    "defaultvalue": 0,
    "displayName": "An Accident, I Swear",
    "hidden": 0,
    "description": "Confirmed the soft feeling.",
    "icon": "https://steamcdn-a.akamaihd.net/steamcommunity/public/images/apps/931560/e19032f03319c13bc2a4d05cdf8957063c1039ba.jpg",
    "icongray": "https://steamcdn-a.akamaihd.net/steamcommunity/public/images/apps/931560/05c0fdc7342002888301176976e1b6fd17b4b613.jpg"
  },
  {
    "name": "ACH_APPETITE",
    "defaultvalue": 0,
    "displayName": "Ghost Devour",
    "hidden": 0,
    "description": "This ghost has a real appetite.",
    "icon": "https://steamcdn-a.akamaihd.net/steamcommunity/public/images/apps/931560/257a056ddd0dd79a8b8a141d9b97379022e0a881.jpg",
    "icongray": "https://steamcdn-a.akamaihd.net/steamcommunity/public/images/apps/931560/e0913fb30836887be3b5e2aa9a2a39560b4a73a1.jpg"
  },
  {
    "name": "ACH_CHAPTER1",
    "defaultvalue": 0,
    "displayName": "Sakura",
    "hidden": 0,
    "description": "Finished Chapter 1.",
    "icon": "https://steamcdn-a.akamaihd.net/steamcommunity/public/images/apps/931560/4a683c4ffd1ea950033d38ddc8ed8b176e44ce02.jpg",
    "icongray": "https://steamcdn-a.akamaihd.net/steamcommunity/public/images/apps/931560/05c0fdc7342002888301176976e1b6fd17b4b613.jpg"
  },
  {
    "name": "ACH_CHAPTER2",
    "defaultvalue": 0,
    "displayName": "Kotoha",
    "hidden": 0,
    "description": "Finished Chapter 2.",
    "icon": "https://steamcdn-a.akamaihd.net/steamcommunity/public/images/apps/931560/c349401977bb294eaf5e2b99d6ca09f0807cf4d2.jpg",
    "icongray": "https://steamcdn-a.akamaihd.net/steamcommunity/public/images/apps/931560/05c0fdc7342002888301176976e1b6fd17b4b613.jpg"
  },
  {
    "name": "ACH_CHAPTER3",
    "defaultvalue": 0,
    "displayName": "Mari",
    "hidden": 0,
    "description": "Finished Chapter 3.",
    "icon": "https://steamcdn-a.akamaihd.net/steamcommunity/public/images/apps/931560/762fcb3fb6a235c7d4e7f80066e72ab89c6e44fc.jpg",
    "icongray": "https://steamcdn-a.akamaihd.net/steamcommunity/public/images/apps/931560/05c0fdc7342002888301176976e1b6fd17b4b613.jpg"
  },
  {
    "name": "ACH_CHAPTER4",
    "defaultvalue": 0,
    "displayName": "Ichiru",
    "hidden": 0,
    "description": "Finished Chapter 4.",
    "icon": "https://steamcdn-a.akamaihd.net/steamcommunity/public/images/apps/931560/b0940428374b455a39a62adb0299b7770b8fd98d.jpg",
    "icongray": "https://steamcdn-a.akamaihd.net/steamcommunity/public/images/apps/931560/05c0fdc7342002888301176976e1b6fd17b4b613.jpg"
  },
  {
    "name": "ACH_CHAPTER5",
    "defaultvalue": 0,
    "displayName": "Shizuku",
    "hidden": 0,
    "description": "Finished Chapter 5.",
    "icon": "https://steamcdn-a.akamaihd.net/steamcommunity/public/images/apps/931560/0bb6d70d851d71928b6520ecbdfb4f8cc39d0635.jpg",
    "icongray": "https://steamcdn-a.akamaihd.net/steamcommunity/public/images/apps/931560/05c0fdc7342002888301176976e1b6fd17b4b613.jpg"
  },
  {
    "name": "ACH_CHAPTER6",
    "defaultvalue": 0,
    "displayName": "Nene",
    "hidden": 0,
    "description": "Finished Chapter 6.",
    "icon": "https://steamcdn-a.akamaihd.net/steamcommunity/public/images/apps/931560/2487e18e09949eb4d753a37c564197b898495c22.jpg",
    "icongray": "https://steamcdn-a.akamaihd.net/steamcommunity/public/images/apps/931560/05c0fdc7342002888301176976e1b6fd17b4b613.jpg"
  },
  {
    "name": "ACH_CHAPTER7",
    "defaultvalue": 0,
    "displayName": "Chiyako",
    "hidden": 0,
    "description": "Finished Chapter 7.",
    "icon": "https://steamcdn-a.akamaihd.net/steamcommunity/public/images/apps/931560/f1dac89234611ca93c455403c53b515259518b52.jpg",
    "icongray": "https://steamcdn-a.akamaihd.net/steamcommunity/public/images/apps/931560/05c0fdc7342002888301176976e1b6fd17b4b613.jpg"
  },
  {
    "name": "ACH_CHAPTERZERO",
    "defaultvalue": 0,
    "displayName": "Zero",
    "hidden": 1,
    "icon": "https://steamcdn-a.akamaihd.net/steamcommunity/public/images/apps/931560/3cda41a6a39189e634b29b03ef84df971b4a76b9.jpg",
    "icongray": "https://steamcdn-a.akamaihd.net/steamcommunity/public/images/apps/931560/e0913fb30836887be3b5e2aa9a2a39560b4a73a1.jpg"
  },
  {
    "name": "ACH_DEMONLORD",
    "defaultvalue": 0,
    "displayName": "Demon Lord",
    "hidden": 0,
    "description": "Defeated the Demon Lord without skipping battles.",
    "icon": "https://steamcdn-a.akamaihd.net/steamcommunity/public/images/apps/931560/98779650206bc4c871f7d8b10fc5f4d064f07486.jpg",
    "icongray": "https://steamcdn-a.akamaihd.net/steamcommunity/public/images/apps/931560/05c0fdc7342002888301176976e1b6fd17b4b613.jpg"
  },
  {
    "name": "ACH_KITTY",
    "defaultvalue": 0,
    "displayName": "Bad Kitty",
    "hidden": 0,
    "description": "Dodged the feline assault every time.",
    "icon": "https://steamcdn-a.akamaihd.net/steamcommunity/public/images/apps/931560/2fe68eca31f9f3e0dbb03bd23e4991e46ff9af29.jpg",
    "icongray": "https://steamcdn-a.akamaihd.net/steamcommunity/public/images/apps/931560/e0913fb30836887be3b5e2aa9a2a39560b4a73a1.jpg"
  },
  {
    "name": "ACH_HOBBIES",
    "defaultvalue": 0,
    "displayName": "Questionable Tastes",
    "hidden": 0,
    "description": "Requested the greatest of rewards.",
    "icon": "https://steamcdn-a.akamaihd.net/steamcommunity/public/images/apps/931560/08d9425169ffddc6e54a6a146378d0864ca7929d.jpg",
    "icongray": "https://steamcdn-a.akamaihd.net/steamcommunity/public/images/apps/931560/05c0fdc7342002888301176976e1b6fd17b4b613.jpg"
  },
  {
    "name": "ACH_CURSE",
    "defaultvalue": 0,
    "displayName": "Enter the Curse",
    "hidden": 0,
    "description": "Braved the darkness.",
    "icon": "https://steamcdn-a.akamaihd.net/steamcommunity/public/images/apps/931560/033419def47668beacc6f4b2d5b639b021e68254.jpg",
    "icongray": "https://steamcdn-a.akamaihd.net/steamcommunity/public/images/apps/931560/05c0fdc7342002888301176976e1b6fd17b4b613.jpg"
  }
]