{
  "Dlcs": {},
  "Name": "Worldy Cup",
  "AppId": "510080",
  "ImageUrl": "https://steamcdn-a.akamaihd.net/steam/apps/510080/header.jpg?t=1504323719",
  "Languages": [
    "english"
  ],
  "Platforms": {
    "windows": true,
    "mac": false,
    "linux": false
  }
}