﻿{
  "Dlcs": {},
  "Name": "Throw It",
  "AppId": "1353670",
  "ImageUrl": "https://steamcdn-a.akamaihd.net/steam/apps/1353670/header.jpg?t=1600341765",
  "Languages": [
    "english"
  ],
  "Platforms": {
    "windows": true,
    "mac": false,
    "linux": false
  }
}