{
  "Dlcs": {},
  "Name": "BattleCakes",
  "AppId": "1062860",
  "ImageUrl": "https://steamcdn-a.akamaihd.net/steam/apps/1062860/header.jpg?t=1592330293",
  "Languages": [
    "english"
  ],
  "Platforms": {
    "windows": true,
    "mac": true,
    "linux": false
  }
}