{
  "Dlcs": {},
  "Name": "Theme Park Studio",
  "AppId": "254590",
  "ImageUrl": "https://steamcdn-a.akamaihd.net/steam/apps/254590/header.jpg?t=1480965981",
  "Languages": [
    "english",
    "french",
    "italian",
    "german",
    "spanish",
    "polish"
  ],
  "Platforms": {
    "windows": true,
    "mac": false,
    "linux": false
  }
}