{
  "Dlcs": {},
  "Name": "Epics of Distant Realm: Remastered Edition",
  "AppId": "999350",
  "ImageUrl": "https://steamcdn-a.akamaihd.net/steam/apps/999350/header.jpg?t=1587064989",
  "Languages": [
    "english",
    "turkish"
  ],
  "Platforms": {
    "windows": true,
    "mac": false,
    "linux": false
  }
}