{
  "Dlcs": {},
  "Name": "Raptor: Call of The Shadows - 2015 Edition",
  "AppId": "336060",
  "ImageUrl": "https://steamcdn-a.akamaihd.net/steam/apps/336060/header.jpg?t=1581350486",
  "Languages": [
    "english"
  ],
  "Platforms": {
    "windows": true,
    "mac": false,
    "linux": false
  }
}