{
  "Dlcs": {},
  "Name": "Zen Universe",
  "AppId": "1281600",
  "ImageUrl": "https://steamcdn-a.akamaihd.net/steam/apps/1281600/header.jpg?t=1589455219",
  "Languages": [
    "english"
  ],
  "Platforms": {
    "windows": true,
    "mac": false,
    "linux": false
  }
}