{
  "Dlcs": {},
  "Name": "Slice&Dice",
  "AppId": "682340",
  "ImageUrl": "https://steamcdn-a.akamaihd.net/steam/apps/682340/header.jpg?t=1502064875",
  "Languages": [
    "english",
    "french",
    "italian",
    "german",
    "japanese",
    "korean",
    "schinese"
  ],
  "Platforms": {
    "windows": true,
    "mac": false,
    "linux": false
  }
}