﻿{
  "Dlcs": {},
  "Name": "Frozen Flame",
  "AppId": "715400",
  "ImageUrl": "https://steamcdn-a.akamaihd.net/steam/apps/715400/header.jpg?t=1589015082",
  "Languages": [
    "english",
    "russian",
    "french",
    "italian",
    "german",
    "spanish",
    "polish",
    "portuguese",
    "schinese",
    "latam",
    "japanese"
  ],
  "Platforms": {
    "windows": true,
    "mac": false,
    "linux": false
  }
}