{
  "Dlcs": {},
  "Name": "Gravity Light",
  "AppId": "706240",
  "ImageUrl": "https://steamcdn-a.akamaihd.net/steam/apps/706240/header.jpg?t=1547817743",
  "Languages": [
    "english"
  ],
  "Platforms": {
    "windows": true,
    "mac": true,
    "linux": false
  }
}