[
  {
    "name": "Acheive_1",
    "defaultvalue": 0,
    "displayName": "Encounter a Bee",
    "hidden": 0,
    "description": "Complete Bee Interaction Scene",
    "icon": "https://steamcdn-a.akamaihd.net/steamcommunity/public/images/apps/761760/72b097929c1f141533717e737bbedab8d2f3a0e1.jpg",
    "icongray": "https://steamcdn-a.akamaihd.net/steamcommunity/public/images/apps/761760/3370ba95685fc7b91bf8f0de5d785921153906a5.jpg"
  },
  {
    "name": "Acheive_2",
    "defaultvalue": 0,
    "displayName": "Encounter a Vulture",
    "hidden": 0,
    "description": "Complete Vulture interaction Scene",
    "icon": "https://steamcdn-a.akamaihd.net/steamcommunity/public/images/apps/761760/dbaa4093a88a4608ef016f003e2c7e191337e9a0.jpg",
    "icongray": "https://steamcdn-a.akamaihd.net/steamcommunity/public/images/apps/761760/4fde47e462c5eef322f678363a2c7682b15ddb83.jpg"
  },
  {
    "name": "Acheive_3",
    "defaultvalue": 0,
    "displayName": "Experience storm",
    "hidden": 0,
    "description": "Pass storm sccene",
    "icon": "https://steamcdn-a.akamaihd.net/steamcommunity/public/images/apps/761760/f9f8597a567c17a7059f99d65360472c9e6ea398.jpg",
    "icongray": "https://steamcdn-a.akamaihd.net/steamcommunity/public/images/apps/761760/b5b85619d05aaffc44a2bc9c8feb2db9e1bb5a5a.jpg"
  },
  {
    "name": "Acheive_4",
    "defaultvalue": 0,
    "displayName": "Encounter Rain ",
    "hidden": 0,
    "description": "Complete Rain Scene",
    "icon": "https://steamcdn-a.akamaihd.net/steamcommunity/public/images/apps/761760/241a7f1d6ee84b3ef8ed01c2dcab18bec889293c.jpg",
    "icongray": "https://steamcdn-a.akamaihd.net/steamcommunity/public/images/apps/761760/07716c9736e5949cf0b2b11b80642ed8e6535500.jpg"
  },
  {
    "name": "Acheive_5",
    "defaultvalue": 0,
    "displayName": "Take a final Decision",
    "hidden": 0,
    "description": "Complete The Game",
    "icon": "https://steamcdn-a.akamaihd.net/steamcommunity/public/images/apps/761760/d10d52824f12432a88a5264b3abd46881729324a.jpg",
    "icongray": "https://steamcdn-a.akamaihd.net/steamcommunity/public/images/apps/761760/e200f0bca5b14478a6c35af90348565ed82d5fa9.jpg"
  },
  {
    "name": "Acheive_6",
    "defaultvalue": 0,
    "displayName": "Live the Breakfast Memory",
    "hidden": 0,
    "description": "Complete Breakfast Memory",
    "icon": "https://steamcdn-a.akamaihd.net/steamcommunity/public/images/apps/761760/ee3d4253e279f78c7a1ff00eaa4c341188b40c0b.jpg",
    "icongray": "https://steamcdn-a.akamaihd.net/steamcommunity/public/images/apps/761760/c6556c7cde62c0a50873dd235fa34c73d780d045.jpg"
  },
  {
    "name": "Acheive_7",
    "defaultvalue": 0,
    "displayName": "Live the Story Telling Memory",
    "hidden": 0,
    "description": "Complete Story Telling Memory",
    "icon": "https://steamcdn-a.akamaihd.net/steamcommunity/public/images/apps/761760/46c2b993ea48c8ab08298d4b405d24d2266d061e.jpg",
    "icongray": "https://steamcdn-a.akamaihd.net/steamcommunity/public/images/apps/761760/05ed6c244d35261b56bc2c2fbfa7558663e11b4a.jpg"
  },
  {
    "name": "Acheive_8",
    "defaultvalue": 0,
    "displayName": "Live the Park Memory",
    "hidden": 0,
    "description": "Complete Park Memory",
    "icon": "https://steamcdn-a.akamaihd.net/steamcommunity/public/images/apps/761760/93c986e6c8aa5c581785d59d5b0c1c68896ceb6f.jpg",
    "icongray": "https://steamcdn-a.akamaihd.net/steamcommunity/public/images/apps/761760/245441700fc5f1e7ce31f5b0299396194c34bb02.jpg"
  }
]