{
  "Dlcs": {},
  "Name": "Claybook",
  "AppId": "661920",
  "ImageUrl": "https://steamcdn-a.akamaihd.net/steam/apps/661920/header.jpg?t=1589364629",
  "Languages": [
    "english",
    "french",
    "italian",
    "german",
    "spanish",
    "portuguese",
    "portuguese"
  ],
  "Platforms": {
    "windows": true,
    "mac": false,
    "linux": false
  }
}