{
  "Dlcs": {},
  "Name": "INTRUDER - WAR AREAS",
  "AppId": "556680",
  "ImageUrl": "https://steamcdn-a.akamaihd.net/steam/apps/556680/header.jpg?t=1500759703",
  "Languages": [
    "english"
  ],
  "Platforms": {
    "windows": true,
    "mac": false,
    "linux": false
  }
}