{
  "Dlcs": {},
  "Name": "Spermination",
  "AppId": "363460",
  "ImageUrl": "https://steamcdn-a.akamaihd.net/steam/apps/363460/header.jpg?t=1451573651",
  "Languages": [
    "english",
    "italian"
  ],
  "Platforms": {
    "windows": true,
    "mac": true,
    "linux": true
  }
}