[
  {
    "name": "NEW_ACHIEVEMENT_2_0",
    "defaultvalue": 0,
    "displayName": "The road begins",
    "hidden": 0,
    "description": "Win once",
    "icon": "https://steamcdn-a.akamaihd.net/steamcommunity/public/images/apps/1221600/5bc9a97c7a8102d2079f059957091d8f8dc3c6e1.jpg",
    "icongray": "https://steamcdn-a.akamaihd.net/steamcommunity/public/images/apps/1221600/aaefac231938e460b2339e31098c14dc8c8cd139.jpg"
  },
  {
    "name": "NEW_ACHIEVEMENT_2_1",
    "defaultvalue": 0,
    "displayName": "EZ clap",
    "hidden": 0,
    "description": "Reach level 5",
    "icon": "https://steamcdn-a.akamaihd.net/steamcommunity/public/images/apps/1221600/e35919cbfd9393a19acc4d5ce9ab44685e4b85cd.jpg",
    "icongray": "https://steamcdn-a.akamaihd.net/steamcommunity/public/images/apps/1221600/fb8db3d293f63aa9fd50a70eb28b081ef8f627dd.jpg"
  },
  {
    "name": "NEW_ACHIEVEMENT_2_2",
    "defaultvalue": 0,
    "displayName": "I knew you can do that!",
    "hidden": 0,
    "description": "Reach level 15",
    "icon": "https://steamcdn-a.akamaihd.net/steamcommunity/public/images/apps/1221600/5727e8d888d97807f3bc4796b24cc5d036ebc747.jpg",
    "icongray": "https://steamcdn-a.akamaihd.net/steamcommunity/public/images/apps/1221600/9b8a0c9952b06c557d5590b6e118b4e4560347db.jpg"
  },
  {
    "name": "NEW_ACHIEVEMENT_2_3",
    "defaultvalue": 0,
    "displayName": "It's almost half of way!",
    "hidden": 0,
    "description": "Reach level 30",
    "icon": "https://steamcdn-a.akamaihd.net/steamcommunity/public/images/apps/1221600/2d03c28e0c8767db9984533130020414ed46448a.jpg",
    "icongray": "https://steamcdn-a.akamaihd.net/steamcommunity/public/images/apps/1221600/0a8adf3ce95aec38a55962e7067f9eef022bbd0b.jpg"
  },
  {
    "name": "NEW_ACHIEVEMENT_2_4",
    "defaultvalue": 0,
    "displayName": "15 more? EZ",
    "hidden": 0,
    "description": "Reach level 45",
    "icon": "https://steamcdn-a.akamaihd.net/steamcommunity/public/images/apps/1221600/f34e9b89d3865f8700f598d052d03fe598f28bc5.jpg",
    "icongray": "https://steamcdn-a.akamaihd.net/steamcommunity/public/images/apps/1221600/f86187f2ad1a1c700e57f212d1898d1947a58d40.jpg"
  },
  {
    "name": "NEW_ACHIEVEMENT_2_5",
    "defaultvalue": 0,
    "displayName": "Golden 50",
    "hidden": 0,
    "description": "Reach level 50",
    "icon": "https://steamcdn-a.akamaihd.net/steamcommunity/public/images/apps/1221600/ac7298648e33d6c3f3229734fdd83064020c2b82.jpg",
    "icongray": "https://steamcdn-a.akamaihd.net/steamcommunity/public/images/apps/1221600/a1d763bc7669f08b99bc9b9403b2cb628ca71de0.jpg"
  },
  {
    "name": "NEW_ACHIEVEMENT_2_6",
    "defaultvalue": 0,
    "displayName": "Master of Puzzle",
    "hidden": 0,
    "description": "Finish 63 levels",
    "icon": "https://steamcdn-a.akamaihd.net/steamcommunity/public/images/apps/1221600/c5dc2ae3c0292c3e657df89f08dafe61f84c5cd8.jpg",
    "icongray": "https://steamcdn-a.akamaihd.net/steamcommunity/public/images/apps/1221600/4d57b3081e72cfc4f74aa2529b3a8344010bdea7.jpg"
  },
  {
    "name": "NEW_ACHIEVEMENT_2_10",
    "defaultvalue": 0,
    "displayName": "Start a business",
    "hidden": 0,
    "description": "Collect 1000 gold",
    "icon": "https://steamcdn-a.akamaihd.net/steamcommunity/public/images/apps/1221600/8ab9fac8429fa56a196874bd4ef9e0c418f8b21e.jpg",
    "icongray": "https://steamcdn-a.akamaihd.net/steamcommunity/public/images/apps/1221600/281f284974c5f70caae8c8b61a99a8ed9d0d812e.jpg"
  },
  {
    "name": "NEW_ACHIEVEMENT_2_11",
    "defaultvalue": 0,
    "displayName": "Gold Rush",
    "hidden": 0,
    "description": "Collect 10000 gold",
    "icon": "https://steamcdn-a.akamaihd.net/steamcommunity/public/images/apps/1221600/ad7b9f068c2506933e1910222532dd9454e8047f.jpg",
    "icongray": "https://steamcdn-a.akamaihd.net/steamcommunity/public/images/apps/1221600/3699a3168eb64c1671d5c8569877c0dc2c4f15c4.jpg"
  },
  {
    "name": "NEW_ACHIEVEMENT_2_12",
    "defaultvalue": 0,
    "displayName": "What you gonna do with that?",
    "hidden": 0,
    "description": "Collect 20000 gold",
    "icon": "https://steamcdn-a.akamaihd.net/steamcommunity/public/images/apps/1221600/81ca863e7c553a6a9606c52fa580abd4f18329eb.jpg",
    "icongray": "https://steamcdn-a.akamaihd.net/steamcommunity/public/images/apps/1221600/0bc404e3e0580e9d183f497642e5f2621f0332dc.jpg"
  },
  {
    "name": "NEW_ACHIEVEMENT_2_13",
    "defaultvalue": 0,
    "displayName": "Winners are not judged!!!",
    "hidden": 0,
    "description": "Collect 50000 gold",
    "icon": "https://steamcdn-a.akamaihd.net/steamcommunity/public/images/apps/1221600/1f5fb27a0f7a567c151c1ff4058c86da1922825f.jpg",
    "icongray": "https://steamcdn-a.akamaihd.net/steamcommunity/public/images/apps/1221600/9848a935ec9ee6488acba46978fdf685a90787d5.jpg"
  }
]