[
  {
    "name": "ACH_TUTORIAL_COMPLETE",
    "defaultvalue": 0,
    "displayName": "First Steps",
    "hidden": 0,
    "description": "Completed the tutorial",
    "icon": "https://steamcdn-a.akamaihd.net/steamcommunity/public/images/apps/837780/b0b9b6deffa6e8c1bdcbbafdd156dca4ef6e3ca2.jpg",
    "icongray": "https://steamcdn-a.akamaihd.net/steamcommunity/public/images/apps/837780/8a5cab0a17f85149aa68aa9bc121557f2662b38a.jpg"
  },
  {
    "name": "ACH_HIRE_WORKER",
    "defaultvalue": 0,
    "displayName": "Fresh from the sewers",
    "hidden": 0,
    "description": "Hired a worker",
    "icon": "https://steamcdn-a.akamaihd.net/steamcommunity/public/images/apps/837780/7186591eb5bdc313a61593e5155e9eb06f61dab3.jpg",
    "icongray": "https://steamcdn-a.akamaihd.net/steamcommunity/public/images/apps/837780/df2c4efee3084821e42ebc325ef10c6145e0320c.jpg"
  },
  {
    "name": "ACH_HIRE_10_WORKERS",
    "defaultvalue": 0,
    "displayName": "A Bale of Turtles",
    "hidden": 0,
    "description": "Hired 10 workers",
    "icon": "https://steamcdn-a.akamaihd.net/steamcommunity/public/images/apps/837780/613d6af5eebc9875aa9d98b9ebb1f7663813f04e.jpg",
    "icongray": "https://steamcdn-a.akamaihd.net/steamcommunity/public/images/apps/837780/6c41a48208ae33a56a7531cd50b9722b3c8db019.jpg"
  },
  {
    "name": "ACH_HIRE_JANITOR",
    "defaultvalue": 0,
    "displayName": "No Added Salt",
    "hidden": 0,
    "description": "Hired a janitor",
    "icon": "https://steamcdn-a.akamaihd.net/steamcommunity/public/images/apps/837780/48b38c6ad85ef269a601c079561651c8a7b26edc.jpg",
    "icongray": "https://steamcdn-a.akamaihd.net/steamcommunity/public/images/apps/837780/e090e40d4db42a27762191cfba282c22244815ab.jpg"
  },
  {
    "name": "ACH_HIRE_10_JANITORS",
    "defaultvalue": 0,
    "displayName": "A Cornucopia of Slugs",
    "hidden": 0,
    "description": "Hired 10 janitors",
    "icon": "https://steamcdn-a.akamaihd.net/steamcommunity/public/images/apps/837780/4a4f4d648ddf9fd5c622aa5f3b24de4dd723d494.jpg",
    "icongray": "https://steamcdn-a.akamaihd.net/steamcommunity/public/images/apps/837780/0a0fd82f8f3b8d391861c3635b3d2b008ad0ca5a.jpg"
  },
  {
    "name": "ACH_HIRE_CHEF",
    "defaultvalue": 0,
    "displayName": "Calamari Special",
    "hidden": 0,
    "description": "Hired a chef",
    "icon": "https://steamcdn-a.akamaihd.net/steamcommunity/public/images/apps/837780/3da5dfa1090d9349fabd6a66e347bfad6cf2ab56.jpg",
    "icongray": "https://steamcdn-a.akamaihd.net/steamcommunity/public/images/apps/837780/44578ba060910bf8083ff254327e377efe3c7ba3.jpg"
  },
  {
    "name": "ACH_HIRE_10_CHEFS",
    "defaultvalue": 0,
    "displayName": "A Hyrda of Octopi",
    "hidden": 0,
    "description": "Hired 10 chefs",
    "icon": "https://steamcdn-a.akamaihd.net/steamcommunity/public/images/apps/837780/f29c4e9dcc7be81c978df4a89814212b1f0e9042.jpg",
    "icongray": "https://steamcdn-a.akamaihd.net/steamcommunity/public/images/apps/837780/f610a6bb565b095ee1523e652623eff054372574.jpg"
  },
  {
    "name": "ACH_HIRE_TECHY",
    "defaultvalue": 0,
    "displayName": "Where are his glasses?",
    "hidden": 0,
    "description": "Hired a techy",
    "icon": "https://steamcdn-a.akamaihd.net/steamcommunity/public/images/apps/837780/4e25fcf548553be35ebb5e7646df211787ee735d.jpg",
    "icongray": "https://steamcdn-a.akamaihd.net/steamcommunity/public/images/apps/837780/8369422ec0aee63462d6e9188209673e56c5d629.jpg"
  },
  {
    "name": "ACH_HIRE_10_TECHIES",
    "defaultvalue": 0,
    "displayName": "A Labour of Moles",
    "hidden": 0,
    "description": "Hired 10 workers",
    "icon": "https://steamcdn-a.akamaihd.net/steamcommunity/public/images/apps/837780/95f7e959d120b9525fb95d562bf260d5e61cb62f.jpg",
    "icongray": "https://steamcdn-a.akamaihd.net/steamcommunity/public/images/apps/837780/9b650ad679e096c034b63bec03881b7b3e8ca7c8.jpg"
  },
  {
    "name": "ACH_BUY_ARCADE_MACHINE",
    "defaultvalue": 0,
    "displayName": "Arcade Noob",
    "hidden": 0,
    "description": "Bought an arcade machine",
    "icon": "https://steamcdn-a.akamaihd.net/steamcommunity/public/images/apps/837780/210275135a65513f98d12ab389eceafca4423abe.jpg",
    "icongray": "https://steamcdn-a.akamaihd.net/steamcommunity/public/images/apps/837780/2bad45ae98aecfb0677f6bfa8e76d10ab2d6d717.jpg"
  },
  {
    "name": "ACH_BUY_100_ARCADE_MACHINES",
    "defaultvalue": 0,
    "displayName": "Arcade Enthusiast",
    "hidden": 0,
    "description": "Bought 100 arcade machines",
    "icon": "https://steamcdn-a.akamaihd.net/steamcommunity/public/images/apps/837780/4b9c40fde0afaecee0439553846c7e6b3147ac64.jpg",
    "icongray": "https://steamcdn-a.akamaihd.net/steamcommunity/public/images/apps/837780/1ef28eb3a60ff2a32ae80c0af94a491763076188.jpg"
  },
  {
    "name": "ACH_BUY_1000_ARCADE_MACHINES",
    "defaultvalue": 0,
    "displayName": "Arcade Connoisseur",
    "hidden": 0,
    "description": "Bought 1000 arcade machines",
    "icon": "https://steamcdn-a.akamaihd.net/steamcommunity/public/images/apps/837780/c06577833c2cd9f9c967a69a4131a61ed071954b.jpg",
    "icongray": "https://steamcdn-a.akamaihd.net/steamcommunity/public/images/apps/837780/0a724c5b8a8e1ade8f6379a12f120dcc8f56c450.jpg"
  },
  {
    "name": "ACH_BUY_2000_ARCADE_MACHINES",
    "defaultvalue": 0,
    "displayName": "Arcade Master",
    "hidden": 0,
    "description": "Bought 2000 arcade machines",
    "icon": "https://steamcdn-a.akamaihd.net/steamcommunity/public/images/apps/837780/e65d5b917bb677727675e5c469466b46b8515d2a.jpg",
    "icongray": "https://steamcdn-a.akamaihd.net/steamcommunity/public/images/apps/837780/81e3fbbf19dac82560c45d3e6ec31b117a7fc418.jpg"
  },
  {
    "name": "ACH_100_CUSTOMER_VISIT",
    "defaultvalue": 0,
    "displayName": "A Camouflage of Chameleons",
    "hidden": 0,
    "description": "Have 100 customers visit your arcade",
    "icon": "https://steamcdn-a.akamaihd.net/steamcommunity/public/images/apps/837780/102da4f2fcff908c168918b34cad96046324480c.jpg",
    "icongray": "https://steamcdn-a.akamaihd.net/steamcommunity/public/images/apps/837780/c62ca5ef0804a138a40a0aa5cc374058369e2f33.jpg"
  },
  {
    "name": "ACH_1000_CUSTOMER_VISIT",
    "defaultvalue": 0,
    "displayName": "A Siege of Cranes",
    "hidden": 0,
    "description": "Have 1000 customers visit your arcade",
    "icon": "https://steamcdn-a.akamaihd.net/steamcommunity/public/images/apps/837780/53b258cb2a3688dd30f9d5a8e1b761d495cd73e0.jpg",
    "icongray": "https://steamcdn-a.akamaihd.net/steamcommunity/public/images/apps/837780/fc9503dd90170010bb7a3359c8f3b3ea5366cee4.jpg"
  },
  {
    "name": "ACH_10000_CUSTOMER_VISIT",
    "defaultvalue": 0,
    "displayName": "A Parliament of Owls",
    "hidden": 0,
    "description": "Have 10,000 customers visit your arcade",
    "icon": "https://steamcdn-a.akamaihd.net/steamcommunity/public/images/apps/837780/81f917d3eb4571ae736566a9bbf0c673b8b7dc8d.jpg",
    "icongray": "https://steamcdn-a.akamaihd.net/steamcommunity/public/images/apps/837780/2b0b292196d282bae6e1bd126b46c73955f92631.jpg"
  },
  {
    "name": "ACH_EARN_HUNDRED",
    "defaultvalue": 0,
    "displayName": "Fledgling Enterprise",
    "hidden": 0,
    "description": "Earn a total of $100 across all your arcades",
    "icon": "https://steamcdn-a.akamaihd.net/steamcommunity/public/images/apps/837780/a9d3a56c15a8c7927719d5a7f70345176e3262a3.jpg",
    "icongray": "https://steamcdn-a.akamaihd.net/steamcommunity/public/images/apps/837780/fecaba5b68006ab0f78b1d86471bfd9d2e216086.jpg"
  },
  {
    "name": "ACH_EARN_TEN_THOUSAND",
    "defaultvalue": 0,
    "displayName": "Small Business Owner",
    "hidden": 0,
    "description": "Earn a total of $10,000 across all your arcades",
    "icon": "https://steamcdn-a.akamaihd.net/steamcommunity/public/images/apps/837780/932099025994961fd270bca080dcc311b05d614c.jpg",
    "icongray": "https://steamcdn-a.akamaihd.net/steamcommunity/public/images/apps/837780/85fbf72b70fbd7e0c25b7e20bf7c0e902fba5730.jpg"
  },
  {
    "name": "ACH_EARN_MILLION",
    "defaultvalue": 0,
    "displayName": "Corporate King of the Roost",
    "hidden": 0,
    "description": "Earn a total of $1,000,000 across all your arcades",
    "icon": "https://steamcdn-a.akamaihd.net/steamcommunity/public/images/apps/837780/2b771dde693d5e46ecc1644b216749935ce2a673.jpg",
    "icongray": "https://steamcdn-a.akamaihd.net/steamcommunity/public/images/apps/837780/a2211f6e8c5925f38dbae3c575592d576e00aa22.jpg"
  },
  {
    "name": "ACH_EARN_BILLION",
    "defaultvalue": 0,
    "displayName": "Arcade Tycoon",
    "hidden": 0,
    "description": "Earn a total of $1,000,000,000 across all your arcades",
    "icon": "https://steamcdn-a.akamaihd.net/steamcommunity/public/images/apps/837780/c55183215bce5a9bb1b1369128f3b244cf9b00bc.jpg",
    "icongray": "https://steamcdn-a.akamaihd.net/steamcommunity/public/images/apps/837780/7b4ee5bf98fadb0289b2a218063f0c2e192dd41b.jpg"
  },
  {
    "name": "ACH_DOGGOS",
    "defaultvalue": 0,
    "displayName": "Let Sleeping Doggos Lie",
    "hidden": 1,
    "icon": "https://steamcdn-a.akamaihd.net/steamcommunity/public/images/apps/837780/fad6a2aa99d933f0ca6499c7c1aad97f07438356.jpg",
    "icongray": "https://steamcdn-a.akamaihd.net/steamcommunity/public/images/apps/837780/c4bd97bb6c74f41df47a631560c68a42eebafc6f.jpg"
  }
]