﻿[
  {
    "name": "STAT_TOTALTURNS",
    "defaultvalue": 0,
    "displayName": "Total Turns Taken"
  },
  {
    "name": "STAT_TOTALDEATHS",
    "defaultvalue": 0,
    "displayName": "Total Player Deaths"
  },
  {
    "name": "STAT_TOTALKILLS",
    "defaultvalue": 0,
    "displayName": "Total Enemy Kills"
  },
  {
    "name": "STAT_TOTALQUESTS",
    "defaultvalue": 0,
    "displayName": "Successful Quests"
  },
  {
    "name": "STAT_TROPHYMELEE",
    "defaultvalue": 0,
    "displayName": ""
  },
  {
    "name": "STAT_TROPHYRANGED",
    "defaultvalue": 0,
    "displayName": ""
  },
  {
    "name": "STAT_TROPHYMAGIC",
    "defaultvalue": 0,
    "displayName": ""
  },
  {
    "name": "STAT_TROPHYARMOUR",
    "defaultvalue": 0,
    "displayName": ""
  },
  {
    "name": "STAT_TROPHYHEALTH",
    "defaultvalue": 0,
    "displayName": ""
  },
  {
    "name": "STAT_TROPHYDAMAGE",
    "defaultvalue": 0,
    "displayName": ""
  },
  {
    "name": "STAT_TROPHYDIST",
    "defaultvalue": 0,
    "displayName": ""
  },
  {
    "name": "STAT_TROPHYDMGTAKEN",
    "defaultvalue": 0,
    "displayName": ""
  },
  {
    "name": "STAT_TROPHYFRIENDS",
    "defaultvalue": 0,
    "displayName": ""
  },
  {
    "name": "STAT_TROPHYBETRAYAL",
    "defaultvalue": 0,
    "displayName": ""
  },
  {
    "name": "STAT_TROPHYMISSES",
    "defaultvalue": 0,
    "displayName": ""
  },
  {
    "name": "STAT_TROPHYWOOD",
    "defaultvalue": 20,
    "displayName": ""
  },
  {
    "name": "STAT_TROPHYIRONMAN",
    "defaultvalue": 0,
    "displayName": ""
  },
  {
    "name": "STAT_TROPHYPACIFIST",
    "defaultvalue": 0,
    "displayName": ""
  },
  {
    "name": "STAT_ULTMELEE",
    "defaultvalue": 0,
    "displayName": ""
  },
  {
    "name": "STAT_ULTRANGED",
    "defaultvalue": 0,
    "displayName": ""
  },
  {
    "name": "STAT_ULTMAGIC",
    "defaultvalue": 0,
    "displayName": ""
  },
  {
    "name": "STAT_ULTARMOUR",
    "defaultvalue": 0,
    "displayName": ""
  },
  {
    "name": "STAT_ULTHEALTH",
    "defaultvalue": 0,
    "displayName": ""
  },
  {
    "name": "STAT_TROPHYCHARCTERS",
    "defaultvalue": 0,
    "displayName": ""
  },
  {
    "name": "STAT_TROPHYARTIFACTS",
    "defaultvalue": 0,
    "displayName": ""
  }
]