{
  "Dlcs": {
    "1010940": {
      "Name": "Zeliria Sanctuary - OST + ARTBOOK",
      "ImageUrl": "https://steamcdn-a.akamaihd.net/steam/apps/1010940/header.jpg?t=1569359697"
    },
    "1011540": {
      "Name": "Zeliria Sanctuary - extension pack",
      "ImageUrl": "https://steamcdn-a.akamaihd.net/steam/apps/1011540/header.jpg?t=1569359770"
    },
    "1095960": {
      "Name": "Zeliria Sanctuary - Rise of Pumpkins",
      "ImageUrl": "https://steamcdn-a.akamaihd.net/steam/apps/1095960/header.jpg?t=1569359764"
    },
    "1181230": {
      "Name": "Zeliria Sanctuary - Isle's Memories",
      "ImageUrl": "https://steamcdn-a.akamaihd.net/steam/apps/1181230/header.jpg?t=1572474644"
    }
  },
  "Name": "Zeliria Sanctuary",
  "AppId": "855630",
  "ImageUrl": "https://steamcdn-a.akamaihd.net/steam/apps/855630/header.jpg?t=1584997331",
  "Languages": [
    "english",
    "russian"
  ],
  "Platforms": {
    "windows": true,
    "mac": true,
    "linux": true
  }
}