﻿[
  {
    "name": "BACK_IN_THE_SADDLE",
    "defaultvalue": 0,
    "displayName": "Back in the Saddle",
    "hidden": 0,
    "description": "Help train the local militia.",
    "icon": "https://steamcdn-a.akamaihd.net/steamcommunity/public/images/apps/10180/8050b2c6dbe70cebc7ad530e805eac047723bfd5.jpg",
    "icongray": "https://steamcdn-a.akamaihd.net/steamcommunity/public/images/apps/10180/4262d019bb8c9f76b7d4468699d4d6486b9e402b.jpg"
  },
  {
    "name": "DANGER_CLOSE",
    "defaultvalue": 0,
    "displayName": "Danger Close",
    "hidden": 0,
    "description": "Get hand picked for Shepherd's elite squad.",
    "icon": "https://steamcdn-a.akamaihd.net/steamcommunity/public/images/apps/10180/b31b6272b445e7b22277f002cef0748d395535ff.jpg",
    "icongray": "https://steamcdn-a.akamaihd.net/steamcommunity/public/images/apps/10180/4262d019bb8c9f76b7d4468699d4d6486b9e402b.jpg"
  },
  {
    "name": "COLD_SHOULDER",
    "defaultvalue": 0,
    "displayName": "Cold Shoulder",
    "hidden": 0,
    "description": "Infiltrate the snowy mountain side base.",
    "icon": "https://steamcdn-a.akamaihd.net/steamcommunity/public/images/apps/10180/99f5b516242cd658ef4e294976a8e93553a401d5.jpg",
    "icongray": "https://steamcdn-a.akamaihd.net/steamcommunity/public/images/apps/10180/4262d019bb8c9f76b7d4468699d4d6486b9e402b.jpg"
  },
  {
    "name": "TAGEM_AND_BAGEM",
    "defaultvalue": 0,
    "displayName": "Tag 'em and bag 'em",
    "hidden": 0,
    "description": "Find Rojas in the Favelas.",
    "icon": "https://steamcdn-a.akamaihd.net/steamcommunity/public/images/apps/10180/aa923952f89ec6bf3bb6a4964f209f67845d3ac5.jpg",
    "icongray": "https://steamcdn-a.akamaihd.net/steamcommunity/public/images/apps/10180/4262d019bb8c9f76b7d4468699d4d6486b9e402b.jpg"
  },
  {
    "name": "ROYAL_WITH_CHEESE",
    "defaultvalue": 0,
    "displayName": "Royale with Cheese",
    "hidden": 0,
    "description": "Defend Burger Town.",
    "icon": "https://steamcdn-a.akamaihd.net/steamcommunity/public/images/apps/10180/2ad0a4c45ffc235d7f0b24c5a504c4d755c9fbd4.jpg",
    "icongray": "https://steamcdn-a.akamaihd.net/steamcommunity/public/images/apps/10180/4262d019bb8c9f76b7d4468699d4d6486b9e402b.jpg"
  },
  {
    "name": "SOAP_ON_A_ROPE",
    "defaultvalue": 0,
    "displayName": "Soap on a Rope",
    "hidden": 0,
    "description": "Storm the gulag.",
    "icon": "https://steamcdn-a.akamaihd.net/steamcommunity/public/images/apps/10180/77cb0ce98aa34e57e01de85336e5d9b1504e266e.jpg",
    "icongray": "https://steamcdn-a.akamaihd.net/steamcommunity/public/images/apps/10180/4262d019bb8c9f76b7d4468699d4d6486b9e402b.jpg"
  },
  {
    "name": "DESPERATE_TIMES",
    "defaultvalue": 0,
    "displayName": "Desperate Times",
    "hidden": 0,
    "description": "Execute the plan to help the Americans.",
    "icon": "https://steamcdn-a.akamaihd.net/steamcommunity/public/images/apps/10180/4cf8a9315945635723c2f1d901a2efefc1624a87.jpg",
    "icongray": "https://steamcdn-a.akamaihd.net/steamcommunity/public/images/apps/10180/4262d019bb8c9f76b7d4468699d4d6486b9e402b.jpg"
  },
  {
    "name": "HOUSTON_WE_HAVE_A_PROBLEM",
    "defaultvalue": 0,
    "displayName": "Whiskey Hotel",
    "hidden": 0,
    "description": "Take back Whiskey Hotel.",
    "icon": "https://steamcdn-a.akamaihd.net/steamcommunity/public/images/apps/10180/a7158824c024221e9f3ff8bfd7dc8e23e6f693e5.jpg",
    "icongray": "https://steamcdn-a.akamaihd.net/steamcommunity/public/images/apps/10180/4262d019bb8c9f76b7d4468699d4d6486b9e402b.jpg"
  },
  {
    "name": "THE_PAWN",
    "defaultvalue": 0,
    "displayName": "The Pawn",
    "hidden": 0,
    "description": "Assault Makarov's safe house.",
    "icon": "https://steamcdn-a.akamaihd.net/steamcommunity/public/images/apps/10180/91482d413f149c7c33ba1340e99abb046634026b.jpg",
    "icongray": "https://steamcdn-a.akamaihd.net/steamcommunity/public/images/apps/10180/4262d019bb8c9f76b7d4468699d4d6486b9e402b.jpg"
  },
  {
    "name": "OUT_OF_THE_FRYING_PAN",
    "defaultvalue": 0,
    "displayName": "Out of the Frying Pan…",
    "hidden": 0,
    "description": "Complete the mission in the airplane graveyard.",
    "icon": "https://steamcdn-a.akamaihd.net/steamcommunity/public/images/apps/10180/5b28d26e67db8062412c789afcc81da141c95f6a.jpg",
    "icongray": "https://steamcdn-a.akamaihd.net/steamcommunity/public/images/apps/10180/4262d019bb8c9f76b7d4468699d4d6486b9e402b.jpg"
  },
  {
    "name": "FOR_THE_RECORD",
    "defaultvalue": 0,
    "displayName": "For the Record",
    "hidden": 0,
    "description": "Complete the Single Player campaign on any difficulty.",
    "icon": "https://steamcdn-a.akamaihd.net/steamcommunity/public/images/apps/10180/7ce477afa830b07620ed513cc0549e11944174b0.jpg",
    "icongray": "https://steamcdn-a.akamaihd.net/steamcommunity/public/images/apps/10180/4262d019bb8c9f76b7d4468699d4d6486b9e402b.jpg"
  },
  {
    "name": "THE_PRICE_OF_WAR",
    "defaultvalue": 0,
    "displayName": "The Price of War",
    "hidden": 0,
    "description": "Complete the single player campaign on Hardened or Veteran Difficulty.",
    "icon": "https://steamcdn-a.akamaihd.net/steamcommunity/public/images/apps/10180/0edb82f1a75600b64e945ad6f3dbb4e64f0d9de1.jpg",
    "icongray": "https://steamcdn-a.akamaihd.net/steamcommunity/public/images/apps/10180/4262d019bb8c9f76b7d4468699d4d6486b9e402b.jpg"
  },
  {
    "name": "FIRST_DAY_OF_SCHOOL",
    "defaultvalue": 0,
    "displayName": "First Day of School",
    "hidden": 0,
    "description": "Complete 'S.S.D.D.' and 'Team Player' on Veteran Difficulty.",
    "icon": "https://steamcdn-a.akamaihd.net/steamcommunity/public/images/apps/10180/00358acc4ce4a3efc986c2f29fe976a4ee810ba0.jpg",
    "icongray": "https://steamcdn-a.akamaihd.net/steamcommunity/public/images/apps/10180/4262d019bb8c9f76b7d4468699d4d6486b9e402b.jpg"
  },
  {
    "name": "BLACK_DIAMOND",
    "defaultvalue": 0,
    "displayName": "Black Diamond",
    "hidden": 0,
    "description": "Complete 'Cliffhanger' on Veteran Difficulty.",
    "icon": "https://steamcdn-a.akamaihd.net/steamcommunity/public/images/apps/10180/2b262d371d326d8fff38988a0309cf2a33eb3bda.jpg",
    "icongray": "https://steamcdn-a.akamaihd.net/steamcommunity/public/images/apps/10180/4262d019bb8c9f76b7d4468699d4d6486b9e402b.jpg"
  },
  {
    "name": "TURISTAS",
    "defaultvalue": 0,
    "displayName": "Turistas",
    "hidden": 0,
    "description": "Complete 'Takedown' and 'The Hornet's Nest' on Veteran Difficulty.",
    "icon": "https://steamcdn-a.akamaihd.net/steamcommunity/public/images/apps/10180/ac04b989469ec1d527ff5e7ec32105d3bfb69343.jpg",
    "icongray": "https://steamcdn-a.akamaihd.net/steamcommunity/public/images/apps/10180/4262d019bb8c9f76b7d4468699d4d6486b9e402b.jpg"
  },
  {
    "name": "RED_DAWN",
    "defaultvalue": 0,
    "displayName": "Red Dawn",
    "hidden": 0,
    "description": "Complete 'Wolverines!' and 'Exodus' on Veteran Difficulty.",
    "icon": "https://steamcdn-a.akamaihd.net/steamcommunity/public/images/apps/10180/1e6f2ab58ead66688a7a83de95c1c4e3d7738f0f.jpg",
    "icongray": "https://steamcdn-a.akamaihd.net/steamcommunity/public/images/apps/10180/4262d019bb8c9f76b7d4468699d4d6486b9e402b.jpg"
  },
  {
    "name": "PRISONER_627",
    "defaultvalue": 0,
    "displayName": "Prisoner #627",
    "hidden": 0,
    "description": "Complete 'The Only Easy Day... Was Yesterday' and 'The Gulag' on Veteran Difficulty.",
    "icon": "https://steamcdn-a.akamaihd.net/steamcommunity/public/images/apps/10180/77d7006cc21dd4b88ac77d350aab843e67385e2c.jpg",
    "icongray": "https://steamcdn-a.akamaihd.net/steamcommunity/public/images/apps/10180/4262d019bb8c9f76b7d4468699d4d6486b9e402b.jpg"
  },
  {
    "name": "ENDS_JUSTIFY_THE_MEANS",
    "defaultvalue": 0,
    "displayName": "Ends Justify the Means",
    "hidden": 0,
    "description": "Complete 'Contingency' on Veteran Difficulty.",
    "icon": "https://steamcdn-a.akamaihd.net/steamcommunity/public/images/apps/10180/cc6ded84f74fd3e53592eef1312e8a2383960445.jpg",
    "icongray": "https://steamcdn-a.akamaihd.net/steamcommunity/public/images/apps/10180/4262d019bb8c9f76b7d4468699d4d6486b9e402b.jpg"
  },
  {
    "name": "HOME_COMING",
    "defaultvalue": 0,
    "displayName": "Homecoming",
    "hidden": 0,
    "description": "Complete 'Of Their Own Accord', 'Second Sun', and 'Whiskey Hotel' on Veteran Difficulty.",
    "icon": "https://steamcdn-a.akamaihd.net/steamcommunity/public/images/apps/10180/c53ee84b24006b9ee3401c0ad5cf54bb58e35104.jpg",
    "icongray": "https://steamcdn-a.akamaihd.net/steamcommunity/public/images/apps/10180/4262d019bb8c9f76b7d4468699d4d6486b9e402b.jpg"
  },
  {
    "name": "QUEEN_TAKES_ROOK",
    "defaultvalue": 0,
    "displayName": "Queen takes Rook",
    "hidden": 0,
    "description": "Complete 'Loose Ends' and 'The Enemy of My Enemy' on Veteran Difficulty.",
    "icon": "https://steamcdn-a.akamaihd.net/steamcommunity/public/images/apps/10180/b9483cd26483a4bbdcf2a6c2dd5ca874227f9de3.jpg",
    "icongray": "https://steamcdn-a.akamaihd.net/steamcommunity/public/images/apps/10180/4262d019bb8c9f76b7d4468699d4d6486b9e402b.jpg"
  },
  {
    "name": "OFF_THE_GRID",
    "defaultvalue": 0,
    "displayName": "Off the Grid",
    "hidden": 0,
    "description": "Complete 'Just Like Old Times' and 'Endgame' on Veteran Difficulty.",
    "icon": "https://steamcdn-a.akamaihd.net/steamcommunity/public/images/apps/10180/38707f00accbcd1c6d449f76319395442aa57216.jpg",
    "icongray": "https://steamcdn-a.akamaihd.net/steamcommunity/public/images/apps/10180/4262d019bb8c9f76b7d4468699d4d6486b9e402b.jpg"
  },
  {
    "name": "PIT_BOSS",
    "defaultvalue": 0,
    "displayName": "Pit Boss",
    "hidden": 0,
    "description": "Run The Pit in 'S.S.D.D.' and finish with a final time under 30 seconds.",
    "icon": "https://steamcdn-a.akamaihd.net/steamcommunity/public/images/apps/10180/6a731e9054c7c45762edba8f2f903b652463db84.jpg",
    "icongray": "https://steamcdn-a.akamaihd.net/steamcommunity/public/images/apps/10180/4262d019bb8c9f76b7d4468699d4d6486b9e402b.jpg"
  },
  {
    "name": "GHOST",
    "defaultvalue": 0,
    "displayName": "Ghost",
    "hidden": 0,
    "description": "Plant the C4 in 'Cliffhanger' without alerting or injuring anyone in the blizzard.",
    "icon": "https://steamcdn-a.akamaihd.net/steamcommunity/public/images/apps/10180/1934538d6a52a433393e362b378f39980a1bc2d7.jpg",
    "icongray": "https://steamcdn-a.akamaihd.net/steamcommunity/public/images/apps/10180/4262d019bb8c9f76b7d4468699d4d6486b9e402b.jpg"
  },
  {
    "name": "COLONEL_SANDERSON",
    "defaultvalue": 0,
    "displayName": "Colonel Sanderson",
    "hidden": 0,
    "description": "Kill 7 chickens in under 10 seconds in 'The Hornet's Nest'.",
    "icon": "https://steamcdn-a.akamaihd.net/steamcommunity/public/images/apps/10180/56dae0ce3f1a9dd53cb047aacc62f2859c0e6b6c.jpg",
    "icongray": "https://steamcdn-a.akamaihd.net/steamcommunity/public/images/apps/10180/4262d019bb8c9f76b7d4468699d4d6486b9e402b.jpg"
  },
  {
    "name": "GOLD_STAR",
    "defaultvalue": 0,
    "displayName": "Gold Star",
    "hidden": 0,
    "description": "Earn 1 star in Special Ops.",
    "icon": "https://steamcdn-a.akamaihd.net/steamcommunity/public/images/apps/10180/1efbfdcc9789b2da5f8c899eef0459ff6a1e009e.jpg",
    "icongray": "https://steamcdn-a.akamaihd.net/steamcommunity/public/images/apps/10180/4262d019bb8c9f76b7d4468699d4d6486b9e402b.jpg"
  },
  {
    "name": "HOTEL_BRAVO",
    "defaultvalue": 0,
    "displayName": "Hotel Bravo",
    "hidden": 0,
    "description": "Earn 4 stars in Special Ops.",
    "icon": "https://steamcdn-a.akamaihd.net/steamcommunity/public/images/apps/10180/fb0211d708d342199197cd0ad01a6eafc4142e1d.jpg",
    "icongray": "https://steamcdn-a.akamaihd.net/steamcommunity/public/images/apps/10180/4262d019bb8c9f76b7d4468699d4d6486b9e402b.jpg"
  },
  {
    "name": "CHARLIE_ON_OUR_SIX",
    "defaultvalue": 0,
    "displayName": "Charlie On Our Six",
    "hidden": 0,
    "description": "Earn 8 stars in Special Ops.",
    "icon": "https://steamcdn-a.akamaihd.net/steamcommunity/public/images/apps/10180/f6bfea2d2a2399b3aeef6efe36d24505fdf24517.jpg",
    "icongray": "https://steamcdn-a.akamaihd.net/steamcommunity/public/images/apps/10180/4262d019bb8c9f76b7d4468699d4d6486b9e402b.jpg"
  },
  {
    "name": "IT_GOES_TO_ELEVEN",
    "defaultvalue": 0,
    "displayName": "It Goes to Eleven",
    "hidden": 0,
    "description": "Earn at least 1 star in 11 different Special Op missions.",
    "icon": "https://steamcdn-a.akamaihd.net/steamcommunity/public/images/apps/10180/66f266fa2fa6dfe18dea623233e53ec38cfba73f.jpg",
    "icongray": "https://steamcdn-a.akamaihd.net/steamcommunity/public/images/apps/10180/4262d019bb8c9f76b7d4468699d4d6486b9e402b.jpg"
  },
  {
    "name": "OPERATIONAL_ASSET",
    "defaultvalue": 0,
    "displayName": "Operational Asset",
    "hidden": 0,
    "description": "Earn all 3 stars in at least 5 different Special Op missions.",
    "icon": "https://steamcdn-a.akamaihd.net/steamcommunity/public/images/apps/10180/04f571ec7b71ae433fec31531f25f4d0e0b4b9c1.jpg",
    "icongray": "https://steamcdn-a.akamaihd.net/steamcommunity/public/images/apps/10180/4262d019bb8c9f76b7d4468699d4d6486b9e402b.jpg"
  },
  {
    "name": "BLACKJACK",
    "defaultvalue": 0,
    "displayName": "Blackjack",
    "hidden": 0,
    "description": "Earn 21 stars in Special Ops.",
    "icon": "https://steamcdn-a.akamaihd.net/steamcommunity/public/images/apps/10180/26367465871da2dc8dbf1a1bbfccf356a7395200.jpg",
    "icongray": "https://steamcdn-a.akamaihd.net/steamcommunity/public/images/apps/10180/4262d019bb8c9f76b7d4468699d4d6486b9e402b.jpg"
  },
  {
    "name": "HONOR_ROLL",
    "defaultvalue": 0,
    "displayName": "Honor Roll",
    "hidden": 0,
    "description": "Earn at least 1 star in each Special Op mission.",
    "icon": "https://steamcdn-a.akamaihd.net/steamcommunity/public/images/apps/10180/8dbfa337c11e484992a3edba91f43ad33f518ba1.jpg",
    "icongray": "https://steamcdn-a.akamaihd.net/steamcommunity/public/images/apps/10180/4262d019bb8c9f76b7d4468699d4d6486b9e402b.jpg"
  },
  {
    "name": "OPERATIVE",
    "defaultvalue": 0,
    "displayName": "Operative",
    "hidden": 0,
    "description": "Earn all 3 stars in at least 10 different Special Op missions.",
    "icon": "https://steamcdn-a.akamaihd.net/steamcommunity/public/images/apps/10180/f2459b92359095a51d3b2ee606b14e51c1ad1551.jpg",
    "icongray": "https://steamcdn-a.akamaihd.net/steamcommunity/public/images/apps/10180/4262d019bb8c9f76b7d4468699d4d6486b9e402b.jpg"
  },
  {
    "name": "SPECIALIST",
    "defaultvalue": 0,
    "displayName": "Specialist",
    "hidden": 0,
    "description": "Earn 30 stars in Special Ops.",
    "icon": "https://steamcdn-a.akamaihd.net/steamcommunity/public/images/apps/10180/d145e65abff322fff0e5d11f3a552480667ff41d.jpg",
    "icongray": "https://steamcdn-a.akamaihd.net/steamcommunity/public/images/apps/10180/4262d019bb8c9f76b7d4468699d4d6486b9e402b.jpg"
  },
  {
    "name": "PROFESSIONAL",
    "defaultvalue": 0,
    "displayName": "Professional",
    "hidden": 0,
    "description": "Earn all 3 stars in at least 15 different Special Op missions.",
    "icon": "https://steamcdn-a.akamaihd.net/steamcommunity/public/images/apps/10180/787df3fe7b78148b61f9f63128cd15a9eefb51de.jpg",
    "icongray": "https://steamcdn-a.akamaihd.net/steamcommunity/public/images/apps/10180/4262d019bb8c9f76b7d4468699d4d6486b9e402b.jpg"
  },
  {
    "name": "STAR_69",
    "defaultvalue": 0,
    "displayName": "Star 69",
    "hidden": 0,
    "description": "Earn 69 stars in Special Ops.",
    "icon": "https://steamcdn-a.akamaihd.net/steamcommunity/public/images/apps/10180/ce282cc9a421792f39489eebb3bc1a80236a0146.jpg",
    "icongray": "https://steamcdn-a.akamaihd.net/steamcommunity/public/images/apps/10180/4262d019bb8c9f76b7d4468699d4d6486b9e402b.jpg"
  },
  {
    "name": "DOWNED_BUT_NOT_OUT",
    "defaultvalue": 0,
    "displayName": "Downed but Not Out",
    "hidden": 0,
    "description": "Kill 4 enemies in a row while downed in Special Ops.",
    "icon": "https://steamcdn-a.akamaihd.net/steamcommunity/public/images/apps/10180/d9647d5a6a92bfb4cd4eb69b0508ded0c996c27b.jpg",
    "icongray": "https://steamcdn-a.akamaihd.net/steamcommunity/public/images/apps/10180/4262d019bb8c9f76b7d4468699d4d6486b9e402b.jpg"
  },
  {
    "name": "IM_THE_JUGGERNAUT",
    "defaultvalue": 0,
    "displayName": "I'm the Juggernaut…",
    "hidden": 0,
    "description": "Kill a Juggernaut in Special Ops.",
    "icon": "https://steamcdn-a.akamaihd.net/steamcommunity/public/images/apps/10180/ae4620743674363dbc51eeb3fd9a3f705583d06e.jpg",
    "icongray": "https://steamcdn-a.akamaihd.net/steamcommunity/public/images/apps/10180/4262d019bb8c9f76b7d4468699d4d6486b9e402b.jpg"
  },
  {
    "name": "TEN_PLUS_FOOT_MOBILES",
    "defaultvalue": 0,
    "displayName": "Ten plus foot-mobiles",
    "hidden": 0,
    "description": "Kill at least 10 enemies with one Predator missile in Single Player or Special Ops.",
    "icon": "https://steamcdn-a.akamaihd.net/steamcommunity/public/images/apps/10180/3777af973c5dc1ebe22b0df441964f1bb3b5a7c2.jpg",
    "icongray": "https://steamcdn-a.akamaihd.net/steamcommunity/public/images/apps/10180/4262d019bb8c9f76b7d4468699d4d6486b9e402b.jpg"
  },
  {
    "name": "UNNECESSARY_ROUGHNESS",
    "defaultvalue": 0,
    "displayName": "Unnecessary Roughness",
    "hidden": 0,
    "description": "Use a riot shield to beat down an enemy in Single Player or Special Ops.",
    "icon": "https://steamcdn-a.akamaihd.net/steamcommunity/public/images/apps/10180/c993738ef973daaf140fd4d9299393d1a1f959a3.jpg",
    "icongray": "https://steamcdn-a.akamaihd.net/steamcommunity/public/images/apps/10180/4262d019bb8c9f76b7d4468699d4d6486b9e402b.jpg"
  },
  {
    "name": "KNOCK_KNOCK",
    "defaultvalue": 0,
    "displayName": "Knock-knock",
    "hidden": 0,
    "description": "Kill 4 enemies with 4 shots during a slow-mo breach in Single Player or Special Ops.",
    "icon": "https://steamcdn-a.akamaihd.net/steamcommunity/public/images/apps/10180/5c1ac5b7f14832aadc7fa9b3bee5f930e6bf0df1.jpg",
    "icongray": "https://steamcdn-a.akamaihd.net/steamcommunity/public/images/apps/10180/4262d019bb8c9f76b7d4468699d4d6486b9e402b.jpg"
  },
  {
    "name": "SOME_LIKE_IT_HOT",
    "defaultvalue": 0,
    "displayName": "Some Like it Hot",
    "hidden": 0,
    "description": "Kill 6 enemies in a row using a thermal weapon in Single Player or Special Ops.",
    "icon": "https://steamcdn-a.akamaihd.net/steamcommunity/public/images/apps/10180/da8e3d58268a917750e8520cb886edc031a704f1.jpg",
    "icongray": "https://steamcdn-a.akamaihd.net/steamcommunity/public/images/apps/10180/4262d019bb8c9f76b7d4468699d4d6486b9e402b.jpg"
  },
  {
    "name": "TWO_BIRDS_WITH_ONE_STONE",
    "defaultvalue": 0,
    "displayName": "Two Birds with One Stone",
    "hidden": 0,
    "description": "Kill 2 enemies with a single bullet in Single Player or Special Ops.",
    "icon": "https://steamcdn-a.akamaihd.net/steamcommunity/public/images/apps/10180/6fb0c841e4a9c329ff3a7802814d27488b3e0499.jpg",
    "icongray": "https://steamcdn-a.akamaihd.net/steamcommunity/public/images/apps/10180/4262d019bb8c9f76b7d4468699d4d6486b9e402b.jpg"
  },
  {
    "name": "THE_ROAD_LESS_TRAVELED",
    "defaultvalue": 0,
    "displayName": "The Road Less Traveled",
    "hidden": 0,
    "description": "Collect 22 enemy intel items.",
    "icon": "https://steamcdn-a.akamaihd.net/steamcommunity/public/images/apps/10180/980ca0993bfb3c992361e5e4515cff537b5143a5.jpg",
    "icongray": "https://steamcdn-a.akamaihd.net/steamcommunity/public/images/apps/10180/4262d019bb8c9f76b7d4468699d4d6486b9e402b.jpg"
  },
  {
    "name": "LEAVE_NO_STONE_UNTURNED",
    "defaultvalue": 0,
    "displayName": "Leave No Stone Unturned",
    "hidden": 0,
    "description": "Collect 45 enemy intel items.",
    "icon": "https://steamcdn-a.akamaihd.net/steamcommunity/public/images/apps/10180/19595a3c194417f281e0df965d61240c348229f0.jpg",
    "icongray": "https://steamcdn-a.akamaihd.net/steamcommunity/public/images/apps/10180/4262d019bb8c9f76b7d4468699d4d6486b9e402b.jpg"
  },
  {
    "name": "DRIVE_BY",
    "defaultvalue": 0,
    "displayName": "Drive By",
    "hidden": 0,
    "description": "Kill 20 enemies in a row while driving a vehicle in Single Player or Special Ops.",
    "icon": "https://steamcdn-a.akamaihd.net/steamcommunity/public/images/apps/10180/88de4544d186c1c408af4a95b47e6646fde4bd3f.jpg",
    "icongray": "https://steamcdn-a.akamaihd.net/steamcommunity/public/images/apps/10180/4262d019bb8c9f76b7d4468699d4d6486b9e402b.jpg"
  },
  {
    "name": "THE_HARDER_THEY_FALL",
    "defaultvalue": 0,
    "displayName": "The Harder They Fall",
    "hidden": 0,
    "description": "Kill 2 rappelling enemies in a row before they land on their feet in Single Player or Special Ops.",
    "icon": "https://steamcdn-a.akamaihd.net/steamcommunity/public/images/apps/10180/d18802d107753148580e6ccb2dde0bdca4c7c00d.jpg",
    "icongray": "https://steamcdn-a.akamaihd.net/steamcommunity/public/images/apps/10180/4262d019bb8c9f76b7d4468699d4d6486b9e402b.jpg"
  },
  {
    "name": "ONE_MAN_ARMY",
    "defaultvalue": 0,
    "displayName": "Desperado",
    "hidden": 0,
    "description": "Kill 5 enemies in a row using 5 different weapons or attachments in Single Player or Special Ops.",
    "icon": "https://steamcdn-a.akamaihd.net/steamcommunity/public/images/apps/10180/0101711c1178d653f93c5d9ddea9242ace532d12.jpg",
    "icongray": "https://steamcdn-a.akamaihd.net/steamcommunity/public/images/apps/10180/4262d019bb8c9f76b7d4468699d4d6486b9e402b.jpg"
  },
  {
    "name": "LOOK_MA_TWO_HANDS",
    "defaultvalue": 0,
    "displayName": "Look Ma Two Hands",
    "hidden": 0,
    "description": "Kill 10 enemies in a row using akimbo weapons in Single Player or Special Ops.",
    "icon": "https://steamcdn-a.akamaihd.net/steamcommunity/public/images/apps/10180/f4d09f4a50a139694e378bba52700abaf2a972a2.jpg",
    "icongray": "https://steamcdn-a.akamaihd.net/steamcommunity/public/images/apps/10180/4262d019bb8c9f76b7d4468699d4d6486b9e402b.jpg"
  },
  {
    "name": "NO_REST_FOR_THE_WARY",
    "defaultvalue": 0,
    "displayName": "No Rest For the Wary",
    "hidden": 0,
    "description": "Knife an enemy without him ever knowing you were there in Single Player or Special Ops.",
    "icon": "https://steamcdn-a.akamaihd.net/steamcommunity/public/images/apps/10180/6b4bf31dd5643383ce6d3ff4ad56debd704436d4.jpg",
    "icongray": "https://steamcdn-a.akamaihd.net/steamcommunity/public/images/apps/10180/4262d019bb8c9f76b7d4468699d4d6486b9e402b.jpg"
  },
  {
    "name": "THREESOME",
    "defaultvalue": 0,
    "displayName": "Three-some",
    "hidden": 0,
    "description": "Kill at least 3 enemies with a single shot from a grenade launcher in Single Player or Special Ops.",
    "icon": "https://steamcdn-a.akamaihd.net/steamcommunity/public/images/apps/10180/5fb34d044db38c9e299c4b8f662f2babb29e9422.jpg",
    "icongray": "https://steamcdn-a.akamaihd.net/steamcommunity/public/images/apps/10180/4262d019bb8c9f76b7d4468699d4d6486b9e402b.jpg"
  }
]