{
  "Dlcs": {},
  "Name": "Gachi Heroes 2: Flexboll",
  "AppId": "1179560",
  "ImageUrl": "https://steamcdn-a.akamaihd.net/steam/apps/1179560/header.jpg?t=1576743854",
  "Languages": [
    "english",
    "russian",
    "french",
    "german",
    "spanish",
    "portuguese",
    "korean",
    "ukrainian",
    "japanese",
    "schinese"
  ],
  "Platforms": {
    "windows": true,
    "mac": false,
    "linux": false
  }
}