{
  "Dlcs": {},
  "Name": "Coloring Game: Girls",
  "AppId": "1290880",
  "ImageUrl": "https://steamcdn-a.akamaihd.net/steam/apps/1290880/header.jpg?t=1600936465",
  "Languages": [
    "english"
  ],
  "Platforms": {
    "windows": true,
    "mac": false,
    "linux": false
  }
}