﻿{
  "Dlcs": {},
  "Name": "Dread X Collection 2",
  "AppId": "1380390",
  "ImageUrl": "https://steamcdn-a.akamaihd.net/steam/apps/1380390/header.jpg?t=1598028231",
  "Languages": [
    "english"
  ],
  "Platforms": {
    "windows": true,
    "mac": false,
    "linux": false
  }
}