{
  "Dlcs": {},
  "Name": "Evil Cogs",
  "AppId": "818650",
  "ImageUrl": "https://steamcdn-a.akamaihd.net/steam/apps/818650/header.jpg?t=1522313962",
  "Languages": [
    "english",
    "french",
    "italian",
    "german",
    "spanish",
    "arabic",
    "portuguese",
    "hungarian",
    "greek",
    "tchinese",
    "schinese",
    "korean",
    "polish",
    "portuguese",
    "romanian",
    "russian",
    "thai",
    "turkish",
    "ukrainian",
    "czech",
    "swedish",
    "japanese"
  ],
  "Platforms": {
    "windows": true,
    "mac": false,
    "linux": false
  }
}