{
  "Dlcs": {},
  "Name": "Space Ghost Pirate Zombie Slayer",
  "AppId": "553350",
  "ImageUrl": "https://steamcdn-a.akamaihd.net/steam/apps/553350/header.jpg?t=1480698988",
  "Languages": [
    "english"
  ],
  "Platforms": {
    "windows": true,
    "mac": false,
    "linux": false
  }
}