﻿[
  {
    "name": "Thanks",
    "defaultvalue": 0,
    "displayName": "Only the truth",
    "hidden": 0,
    "description": "And nothing else but the truth?",
    "icon": "https://steamcdn-a.akamaihd.net/steamcommunity/public/images/apps/463390/c58f06cc28a32d33353a65dbe41192ce48b7997a.jpg",
    "icongray": "https://steamcdn-a.akamaihd.net/steamcommunity/public/images/apps/463390/aa19fedd671489b5802bb4da395b004e2b3d3b65.jpg"
  }
]