{
  "Dlcs": {},
  "Name": "Martha Is Dead",
  "AppId": "515960",
  "ImageUrl": "https://steamcdn-a.akamaihd.net/steam/apps/515960/header.jpg?t=1599557485",
  "Languages": [
    "english",
    "italian",
    "german",
    "japanese"
  ],
  "Platforms": {
    "windows": true,
    "mac": false,
    "linux": false
  }
}