[
  {
    "name": "AC_BOSS_1",
    "defaultvalue": 0,
    "displayName": "StoneMan",
    "hidden": 0,
    "description": "Beat the StoneMan.",
    "icon": "https://steamcdn-a.akamaihd.net/steamcommunity/public/images/apps/911010/883ad354043e57e73aa27012b763ef18885f5eab.jpg",
    "icongray": "https://steamcdn-a.akamaihd.net/steamcommunity/public/images/apps/911010/5ec7f2556c1a795a56ed65deb83e592546026c1d.jpg"
  },
  {
    "name": "AC_BOSS_2",
    "defaultvalue": 0,
    "displayName": "Evil Mage",
    "hidden": 0,
    "description": "Beat the Evil Mage.",
    "icon": "https://steamcdn-a.akamaihd.net/steamcommunity/public/images/apps/911010/633607579ce877efec6240559195a11edf67ee38.jpg",
    "icongray": "https://steamcdn-a.akamaihd.net/steamcommunity/public/images/apps/911010/a3749e02c029ff5f8497a0688772ede912cd45a2.jpg"
  },
  {
    "name": "AC_BOSS_3",
    "defaultvalue": 0,
    "displayName": "Frosty witch",
    "hidden": 0,
    "description": "Beat the Frosty witch.",
    "icon": "https://steamcdn-a.akamaihd.net/steamcommunity/public/images/apps/911010/cc9428bfa885099a79f7f58d5bd9822b8f913fc6.jpg",
    "icongray": "https://steamcdn-a.akamaihd.net/steamcommunity/public/images/apps/911010/1fa18792fcdceadb68c038f048fa3887758781c7.jpg"
  }
]