[
  {
    "name": "NEW_ACHIEVEMENT_1_0",
    "defaultvalue": 0,
    "displayName": "Logos, is that you?",
    "hidden": 0,
    "description": "You wrote a word.",
    "icon": "https://steamcdn-a.akamaihd.net/steamcommunity/public/images/apps/1378010/4fd1b82c5d2b7dac291993e48667224eb1837b49.jpg",
    "icongray": "https://steamcdn-a.akamaihd.net/steamcommunity/public/images/apps/1378010/b24e430c516ad59df915c8ab40984928229503e9.jpg"
  },
  {
    "name": "NEW_ACHIEVEMENT_1_1",
    "defaultvalue": 0,
    "displayName": "God is Dead.",
    "hidden": 1,
    "icon": "https://steamcdn-a.akamaihd.net/steamcommunity/public/images/apps/1378010/2d6aa00054fcc62645b783c09fca90a4b178c67e.jpg",
    "icongray": "https://steamcdn-a.akamaihd.net/steamcommunity/public/images/apps/1378010/b24e430c516ad59df915c8ab40984928229503e9.jpg"
  },
  {
    "name": "NEW_ACHIEVEMENT_1_2",
    "defaultvalue": 0,
    "displayName": "The Burden",
    "hidden": 1,
    "icon": "https://steamcdn-a.akamaihd.net/steamcommunity/public/images/apps/1378010/2d6aa00054fcc62645b783c09fca90a4b178c67e.jpg",
    "icongray": "https://steamcdn-a.akamaihd.net/steamcommunity/public/images/apps/1378010/b24e430c516ad59df915c8ab40984928229503e9.jpg"
  },
  {
    "name": "NEW_ACHIEVEMENT_1_3",
    "defaultvalue": 0,
    "displayName": "The Will",
    "hidden": 1,
    "icon": "https://steamcdn-a.akamaihd.net/steamcommunity/public/images/apps/1378010/2d6aa00054fcc62645b783c09fca90a4b178c67e.jpg",
    "icongray": "https://steamcdn-a.akamaihd.net/steamcommunity/public/images/apps/1378010/b24e430c516ad59df915c8ab40984928229503e9.jpg"
  },
  {
    "name": "NEW_ACHIEVEMENT_1_4",
    "defaultvalue": 0,
    "displayName": "Easy way out",
    "hidden": 1,
    "icon": "https://steamcdn-a.akamaihd.net/steamcommunity/public/images/apps/1378010/4fd1b82c5d2b7dac291993e48667224eb1837b49.jpg",
    "icongray": "https://steamcdn-a.akamaihd.net/steamcommunity/public/images/apps/1378010/b24e430c516ad59df915c8ab40984928229503e9.jpg"
  },
  {
    "name": "NEW_ACHIEVEMENT_1_5",
    "defaultvalue": 0,
    "displayName": "Samsara",
    "hidden": 1,
    "icon": "https://steamcdn-a.akamaihd.net/steamcommunity/public/images/apps/1378010/2d6aa00054fcc62645b783c09fca90a4b178c67e.jpg",
    "icongray": "https://steamcdn-a.akamaihd.net/steamcommunity/public/images/apps/1378010/b24e430c516ad59df915c8ab40984928229503e9.jpg"
  },
  {
    "name": "NEW_ACHIEVEMENT_1_6",
    "defaultvalue": 0,
    "displayName": "Hope",
    "hidden": 1,
    "icon": "https://steamcdn-a.akamaihd.net/steamcommunity/public/images/apps/1378010/4fd1b82c5d2b7dac291993e48667224eb1837b49.jpg",
    "icongray": "https://steamcdn-a.akamaihd.net/steamcommunity/public/images/apps/1378010/c98f49077e8957a1d909ef1e3e65f139e26bd0e0.jpg"
  }
]