[
  {
    "name": "1",
    "defaultvalue": 0,
    "displayName": "Almost Human",
    "hidden": 1,
    "icon": "https://steamcdn-a.akamaihd.net/steamcommunity/public/images/apps/1034890/dfa55ca8158b790e60147f4e997c077215bd52a8.jpg",
    "icongray": "https://steamcdn-a.akamaihd.net/steamcommunity/public/images/apps/1034890/ed99570fef67ff9e759fde31e5b65120ecb498fb.jpg"
  },
  {
    "name": "2",
    "defaultvalue": 0,
    "displayName": "Deep Cleaning",
    "hidden": 1,
    "icon": "https://steamcdn-a.akamaihd.net/steamcommunity/public/images/apps/1034890/544ca673e258a347acffbd59094fa4e09159e796.jpg",
    "icongray": "https://steamcdn-a.akamaihd.net/steamcommunity/public/images/apps/1034890/d816d0600d03705cb384c64812afe135e036842a.jpg"
  },
  {
    "name": "3",
    "defaultvalue": 0,
    "displayName": "Twisted Sisters",
    "hidden": 1,
    "icon": "https://steamcdn-a.akamaihd.net/steamcommunity/public/images/apps/1034890/517da0c43ef52b38840e8c25ffa128c985538e18.jpg",
    "icongray": "https://steamcdn-a.akamaihd.net/steamcommunity/public/images/apps/1034890/779c73a5fb66d24ecf1a39b0f4f6874697137171.jpg"
  },
  {
    "name": "4",
    "defaultvalue": 0,
    "displayName": "Night of the Hunter",
    "hidden": 1,
    "icon": "https://steamcdn-a.akamaihd.net/steamcommunity/public/images/apps/1034890/85bdfe48feb0365bc83b3a4a5aaa124bd61274bc.jpg",
    "icongray": "https://steamcdn-a.akamaihd.net/steamcommunity/public/images/apps/1034890/042f1cd7ef72b71295e7b58c6241b0c39da22fa4.jpg"
  },
  {
    "name": "5",
    "defaultvalue": 0,
    "displayName": "Purify This",
    "hidden": 1,
    "icon": "https://steamcdn-a.akamaihd.net/steamcommunity/public/images/apps/1034890/a0ab300f3bd160b29f10088b8835eb6b87b30268.jpg",
    "icongray": "https://steamcdn-a.akamaihd.net/steamcommunity/public/images/apps/1034890/c8d0b3b3df1129a11e1b73248c9cb16bde453bb5.jpg"
  },
  {
    "name": "6",
    "defaultvalue": 0,
    "displayName": "Echoes",
    "hidden": 1,
    "icon": "https://steamcdn-a.akamaihd.net/steamcommunity/public/images/apps/1034890/255c57861e82c5381c057e0fed2d041714934c54.jpg",
    "icongray": "https://steamcdn-a.akamaihd.net/steamcommunity/public/images/apps/1034890/cb9f31043c6b15c8c6ca1702db7997fb78aad742.jpg"
  },
  {
    "name": "7",
    "defaultvalue": 0,
    "displayName": "Shut the Hell Up",
    "hidden": 1,
    "icon": "https://steamcdn-a.akamaihd.net/steamcommunity/public/images/apps/1034890/3fba7ec08e22db1acecb860ee720cf5185df3be9.jpg",
    "icongray": "https://steamcdn-a.akamaihd.net/steamcommunity/public/images/apps/1034890/15ee794ef8d2c33e861371ff47827cd63b51ef68.jpg"
  },
  {
    "name": "8",
    "defaultvalue": 0,
    "displayName": "Revolution",
    "hidden": 1,
    "icon": "https://steamcdn-a.akamaihd.net/steamcommunity/public/images/apps/1034890/284c305033c731d915789b56a2423a69df1be75a.jpg",
    "icongray": "https://steamcdn-a.akamaihd.net/steamcommunity/public/images/apps/1034890/d8b1d18841543979dc722b3da51d2f154caf2b4a.jpg"
  },
  {
    "name": "9",
    "defaultvalue": 0,
    "displayName": "Angel's Punishment",
    "hidden": 1,
    "icon": "https://steamcdn-a.akamaihd.net/steamcommunity/public/images/apps/1034890/86aab5e02f68f5271bd34c1213658ff5d060a109.jpg",
    "icongray": "https://steamcdn-a.akamaihd.net/steamcommunity/public/images/apps/1034890/6639bf067231a7b5f8b73c27801db3cea691daff.jpg"
  },
  {
    "name": "10",
    "defaultvalue": 0,
    "displayName": "I Need A Shower ",
    "hidden": 1,
    "icon": "https://steamcdn-a.akamaihd.net/steamcommunity/public/images/apps/1034890/33ec07ae1a3e7a56bb55163497264fd1fdb9bcfa.jpg",
    "icongray": "https://steamcdn-a.akamaihd.net/steamcommunity/public/images/apps/1034890/9ad795c14eb66805bea30af5205a6f13180e9987.jpg"
  },
  {
    "name": "11",
    "defaultvalue": 0,
    "displayName": "Black Friday",
    "hidden": 1,
    "icon": "https://steamcdn-a.akamaihd.net/steamcommunity/public/images/apps/1034890/36ac187e17b501afb335f90a114fec7e879a069f.jpg",
    "icongray": "https://steamcdn-a.akamaihd.net/steamcommunity/public/images/apps/1034890/c52592462ff68462599a165401cc82bdb315308e.jpg"
  },
  {
    "name": "12",
    "defaultvalue": 0,
    "displayName": "Tomb Raiding",
    "hidden": 1,
    "icon": "https://steamcdn-a.akamaihd.net/steamcommunity/public/images/apps/1034890/27ff26a64abc93195baaa68e681c89936aebe31c.jpg",
    "icongray": "https://steamcdn-a.akamaihd.net/steamcommunity/public/images/apps/1034890/b7260b4039598c62266d21ee5bf887e61a976981.jpg"
  },
  {
    "name": "13",
    "defaultvalue": 0,
    "displayName": "Corporate Cutthroat",
    "hidden": 1,
    "icon": "https://steamcdn-a.akamaihd.net/steamcommunity/public/images/apps/1034890/ece5207bdd5a33eb4c7511f59ce58304068dc2ca.jpg",
    "icongray": "https://steamcdn-a.akamaihd.net/steamcommunity/public/images/apps/1034890/9c079f2b7f495cfc266a3692b0847f2c70d18ffa.jpg"
  },
  {
    "name": "14",
    "defaultvalue": 0,
    "displayName": "Metamorphosis",
    "hidden": 1,
    "icon": "https://steamcdn-a.akamaihd.net/steamcommunity/public/images/apps/1034890/88fa778ce63c659e2cb644cbf783dcad96e3c947.jpg",
    "icongray": "https://steamcdn-a.akamaihd.net/steamcommunity/public/images/apps/1034890/533a7998a03e5b2a1abe65c01a0dd70042180938.jpg"
  },
  {
    "name": "15",
    "defaultvalue": 0,
    "displayName": "One-Demon Army",
    "hidden": 1,
    "icon": "https://steamcdn-a.akamaihd.net/steamcommunity/public/images/apps/1034890/605b39096e8c01d582035caba8277de9271ecb95.jpg",
    "icongray": "https://steamcdn-a.akamaihd.net/steamcommunity/public/images/apps/1034890/3c2e9b77e6b6aa4fd01091659b47da5e4d41f856.jpg"
  },
  {
    "name": "16",
    "defaultvalue": 0,
    "displayName": "Complete Me",
    "hidden": 0,
    "description": "Finish the Game with 100% Completion",
    "icon": "https://steamcdn-a.akamaihd.net/steamcommunity/public/images/apps/1034890/2a213434795a260607459a6974dc866e7eeacfc0.jpg",
    "icongray": "https://steamcdn-a.akamaihd.net/steamcommunity/public/images/apps/1034890/f765810ab5eb7e0a3a7d2147863da6d17987265b.jpg"
  },
  {
    "name": "17",
    "defaultvalue": 0,
    "displayName": "Number of the Beast",
    "hidden": 0,
    "description": "Stay Fused for 666 Seconds",
    "icon": "https://steamcdn-a.akamaihd.net/steamcommunity/public/images/apps/1034890/fac15a468fd7ca4ce6baa7b0e49721939a0166da.jpg",
    "icongray": "https://steamcdn-a.akamaihd.net/steamcommunity/public/images/apps/1034890/83cc76e59ac33e468321f93a63d6c1b0657610cb.jpg"
  },
  {
    "name": "18",
    "defaultvalue": 0,
    "displayName": "Exterminator",
    "hidden": 0,
    "description": "Defeat 1,000 Enemy Units",
    "icon": "https://steamcdn-a.akamaihd.net/steamcommunity/public/images/apps/1034890/c91bb95d095f1b4ebbc2f2365903ceb7a41d78ad.jpg",
    "icongray": "https://steamcdn-a.akamaihd.net/steamcommunity/public/images/apps/1034890/6ff46f5c9c2a18d5bdeac519dd047d42f7969390.jpg"
  },
  {
    "name": "19",
    "defaultvalue": 0,
    "displayName": "Sewer Surfing",
    "hidden": 0,
    "description": "Locate all cute graffiti in Chapter 7",
    "icon": "https://steamcdn-a.akamaihd.net/steamcommunity/public/images/apps/1034890/8b939739e967c3e5dc6d8a021f9a3da886090dcc.jpg",
    "icongray": "https://steamcdn-a.akamaihd.net/steamcommunity/public/images/apps/1034890/9042808b7e4fa29448d10539eed9d33b612a5c40.jpg"
  },
  {
    "name": "20",
    "defaultvalue": 0,
    "displayName": "Radio Heads",
    "hidden": 0,
    "description": "Destroy all the Ancient Radios",
    "icon": "https://steamcdn-a.akamaihd.net/steamcommunity/public/images/apps/1034890/20af8cadb58a3da0ac3e67b99e66791eff10403c.jpg",
    "icongray": "https://steamcdn-a.akamaihd.net/steamcommunity/public/images/apps/1034890/aed4fe822379057d97f51b2bf1e7f05fb9d3ef45.jpg"
  },
  {
    "name": "21",
    "defaultvalue": 0,
    "displayName": "Trigger Happy",
    "hidden": 0,
    "description": "Trigger 1,000 Charged Enemies",
    "icon": "https://steamcdn-a.akamaihd.net/steamcommunity/public/images/apps/1034890/ee0bcea68857211575cd24a8e2c3906d570e375d.jpg",
    "icongray": "https://steamcdn-a.akamaihd.net/steamcommunity/public/images/apps/1034890/e883d8efda842e6597da3375815c9d4b9c036535.jpg"
  },
  {
    "name": "22",
    "defaultvalue": 0,
    "displayName": "Starstruck",
    "hidden": 0,
    "description": "Get an SS Rank on any Encounter",
    "icon": "https://steamcdn-a.akamaihd.net/steamcommunity/public/images/apps/1034890/73b73690feea149c8fd608fe78f0e577bc1166a6.jpg",
    "icongray": "https://steamcdn-a.akamaihd.net/steamcommunity/public/images/apps/1034890/3009ddb129f74da804900370404886e604dba561.jpg"
  },
  {
    "name": "23",
    "defaultvalue": 0,
    "displayName": "Get Smart",
    "hidden": 0,
    "description": "Find one of Crowley's Notes",
    "icon": "https://steamcdn-a.akamaihd.net/steamcommunity/public/images/apps/1034890/931b977a3ed1dae1027fd3eafaed964e2dc2bab3.jpg",
    "icongray": "https://steamcdn-a.akamaihd.net/steamcommunity/public/images/apps/1034890/d6dfe609ec13bb0677e700cf11900fe9a35f5532.jpg"
  },
  {
    "name": "24",
    "defaultvalue": 0,
    "displayName": "Walking Library",
    "hidden": 0,
    "description": "Find all of Crowley's Notes",
    "icon": "https://steamcdn-a.akamaihd.net/steamcommunity/public/images/apps/1034890/5490590b6647ea2341702c65b216adb1dbab37d7.jpg",
    "icongray": "https://steamcdn-a.akamaihd.net/steamcommunity/public/images/apps/1034890/410d5ff5c3d051b9a735b0450230fa3b43ffb863.jpg"
  },
  {
    "name": "25",
    "defaultvalue": 0,
    "displayName": "A Shard a Day...",
    "hidden": 0,
    "description": "Complete a Purified Astral Crystal",
    "icon": "https://steamcdn-a.akamaihd.net/steamcommunity/public/images/apps/1034890/1fc523a91bf9be5056982bdc457185056d2a54f6.jpg",
    "icongray": "https://steamcdn-a.akamaihd.net/steamcommunity/public/images/apps/1034890/3a75c4afa8847f60e9718689a014b3df27ce7911.jpg"
  },
  {
    "name": "26",
    "defaultvalue": 0,
    "displayName": "...Keeps the Doctor Away",
    "hidden": 0,
    "description": "Collect all Purified Astral Shards",
    "icon": "https://steamcdn-a.akamaihd.net/steamcommunity/public/images/apps/1034890/2718a105e1180915f179cd8455a637a87bb22add.jpg",
    "icongray": "https://steamcdn-a.akamaihd.net/steamcommunity/public/images/apps/1034890/f598feb7a7ca43636dbf5dee5575df23f56e0f78.jpg"
  },
  {
    "name": "27",
    "defaultvalue": 0,
    "displayName": "Soulmonger",
    "hidden": 0,
    "description": "Collect 300,000 Souls",
    "icon": "https://steamcdn-a.akamaihd.net/steamcommunity/public/images/apps/1034890/40f2f2a5a271e2c45fbd52c9c8dadd491acd180a.jpg",
    "icongray": "https://steamcdn-a.akamaihd.net/steamcommunity/public/images/apps/1034890/57b9c5c6d4cd6d4bf0a6eb466f20b03a2e1de297.jpg"
  },
  {
    "name": "28",
    "defaultvalue": 0,
    "displayName": "Rebel Yell",
    "hidden": 0,
    "description": "Defeat Chapter 2's boss without taking any damage",
    "icon": "https://steamcdn-a.akamaihd.net/steamcommunity/public/images/apps/1034890/9fb7e9de46988363fe26fc3ced11ed9ab363d541.jpg",
    "icongray": "https://steamcdn-a.akamaihd.net/steamcommunity/public/images/apps/1034890/ffa10359bf8cf94ac32d5850e72390a4ff2cb53b.jpg"
  },
  {
    "name": "29",
    "defaultvalue": 0,
    "displayName": "Denied!",
    "hidden": 0,
    "description": "Defeat Chapter 3's boss without allowing it to heal",
    "icon": "https://steamcdn-a.akamaihd.net/steamcommunity/public/images/apps/1034890/5aa6543f9875b7999f94b6ecd77f1244202054ff.jpg",
    "icongray": "https://steamcdn-a.akamaihd.net/steamcommunity/public/images/apps/1034890/ac29582453f55367840ea913cd04887f2a9f8314.jpg"
  },
  {
    "name": "30",
    "defaultvalue": 0,
    "displayName": "Speed Dating",
    "hidden": 0,
    "description": "Defeat Chapter 6's first boss in less than 100 seconds",
    "icon": "https://steamcdn-a.akamaihd.net/steamcommunity/public/images/apps/1034890/a0ab2bcecdec28f18540dca00aeaaaf8e229ed02.jpg",
    "icongray": "https://steamcdn-a.akamaihd.net/steamcommunity/public/images/apps/1034890/482f6469c7cdd5e386285e2df32d95f0422ee700.jpg"
  },
  {
    "name": "31",
    "defaultvalue": 0,
    "displayName": "My Dog!",
    "hidden": 0,
    "description": "Defeat Chapter 6's second boss without allowing him to transform",
    "icon": "https://steamcdn-a.akamaihd.net/steamcommunity/public/images/apps/1034890/170f3bd6f7c8a1ea4514f6341877cf3753bd6154.jpg",
    "icongray": "https://steamcdn-a.akamaihd.net/steamcommunity/public/images/apps/1034890/a1e4663e68e8bf3ca4b18109ac3ab8209f518bf2.jpg"
  },
  {
    "name": "32",
    "defaultvalue": 0,
    "displayName": "Cleansing Protocol",
    "hidden": 0,
    "description": "Defeat Chapter 8's boss without allowing it to use its tornado attack more than two times",
    "icon": "https://steamcdn-a.akamaihd.net/steamcommunity/public/images/apps/1034890/be5311193963a9508546c5ec8a654d3124278f6a.jpg",
    "icongray": "https://steamcdn-a.akamaihd.net/steamcommunity/public/images/apps/1034890/08dba36104c3ce94531ae85cfd33bbc8e8800ff9.jpg"
  },
  {
    "name": "33",
    "defaultvalue": 0,
    "displayName": "This is Almost Too Much!",
    "hidden": 0,
    "description": "Defeat Chapter 9's boss without losing more than 20% of Vanessa's health",
    "icon": "https://steamcdn-a.akamaihd.net/steamcommunity/public/images/apps/1034890/4621306484d7c404191f2dacb5687a81c810dcf9.jpg",
    "icongray": "https://steamcdn-a.akamaihd.net/steamcommunity/public/images/apps/1034890/5afba90cbb9e0a728b38e9db39d9768c143e87ae.jpg"
  },
  {
    "name": "34",
    "defaultvalue": 0,
    "displayName": "Eat-your-own-jutsu",
    "hidden": 0,
    "description": "Defeat Chapter 11's boss after making her clones attack her at least once",
    "icon": "https://steamcdn-a.akamaihd.net/steamcommunity/public/images/apps/1034890/2e7abec4b74ba363ce75c04731a79061d0f32a4b.jpg",
    "icongray": "https://steamcdn-a.akamaihd.net/steamcommunity/public/images/apps/1034890/64e61f92822ab566b6272a60cebcbc3d7aa2ebce.jpg"
  },
  {
    "name": "35",
    "defaultvalue": 0,
    "displayName": "Can't Touch This",
    "hidden": 0,
    "description": "Defeat Chapter 12's first boss without being hit by orb attacks more than three times",
    "icon": "https://steamcdn-a.akamaihd.net/steamcommunity/public/images/apps/1034890/160cb9118f58e0036c2187a03d4c320bbdb70e61.jpg",
    "icongray": "https://steamcdn-a.akamaihd.net/steamcommunity/public/images/apps/1034890/2fb6de8cd0738fa9ad521e57d590d242780002f7.jpg"
  },
  {
    "name": "36",
    "defaultvalue": 0,
    "displayName": "Triggered",
    "hidden": 0,
    "description": "Defeat Chapter 12's second boss after triggering him at full charge three or more times",
    "icon": "https://steamcdn-a.akamaihd.net/steamcommunity/public/images/apps/1034890/d47f7fc960c6000f410a3dc6bb71c06f4ced66f5.jpg",
    "icongray": "https://steamcdn-a.akamaihd.net/steamcommunity/public/images/apps/1034890/73831178c91393fcf4f6ab847ae5770fd68eed7f.jpg"
  },
  {
    "name": "37",
    "defaultvalue": 0,
    "displayName": "Locked 'n Loaded",
    "hidden": 0,
    "description": "Fully upgrade a weapon",
    "icon": "https://steamcdn-a.akamaihd.net/steamcommunity/public/images/apps/1034890/bf74a09c739516c2fa2b938fe549dad6bbde9a0f.jpg",
    "icongray": "https://steamcdn-a.akamaihd.net/steamcommunity/public/images/apps/1034890/b4870456f6bfe65dc3d7fd4b1d115f6c26f1a00a.jpg"
  },
  {
    "name": "38",
    "defaultvalue": 0,
    "displayName": "Walking Arsenal",
    "hidden": 1,
    "icon": "https://steamcdn-a.akamaihd.net/steamcommunity/public/images/apps/1034890/c0b5465c7a100720d2e16b0546927f0fa9f239b8.jpg",
    "icongray": "https://steamcdn-a.akamaihd.net/steamcommunity/public/images/apps/1034890/3d7864d0078e6d502589c7052bf51648cf0f567f.jpg"
  },
  {
    "name": "39",
    "defaultvalue": 0,
    "displayName": "Trainer",
    "hidden": 0,
    "description": "Fully upgrade a dog form",
    "icon": "https://steamcdn-a.akamaihd.net/steamcommunity/public/images/apps/1034890/7e1cf029d2bc3be3c6a8c0124dc7605aa7c389e0.jpg",
    "icongray": "https://steamcdn-a.akamaihd.net/steamcommunity/public/images/apps/1034890/ce5590108bfca9fb54670f19ae89a6f4922c1c22.jpg"
  },
  {
    "name": "40",
    "defaultvalue": 0,
    "displayName": "Master Trainer",
    "hidden": 1,
    "icon": "https://steamcdn-a.akamaihd.net/steamcommunity/public/images/apps/1034890/55a8afc7c58e622f33435cafe258402891c6a37a.jpg",
    "icongray": "https://steamcdn-a.akamaihd.net/steamcommunity/public/images/apps/1034890/bb7bfa46b5777cdefd0bd139f9c691e1dc2c9e68.jpg"
  },
  {
    "name": "41",
    "defaultvalue": 0,
    "displayName": "Perfection",
    "hidden": 0,
    "description": "Achieve a SS rating on any chapter",
    "icon": "https://steamcdn-a.akamaihd.net/steamcommunity/public/images/apps/1034890/3d3e85d473a07a3912d59cff85dc8ce501f84547.jpg",
    "icongray": "https://steamcdn-a.akamaihd.net/steamcommunity/public/images/apps/1034890/5b94e17a2eece63386f1fb4ed2278c24c21f9587.jpg"
  },
  {
    "name": "42",
    "defaultvalue": 0,
    "displayName": "Garbage Cleaning",
    "hidden": 0,
    "description": "Defeat the bosses of Chapters 2 and 3 on Hard Mode",
    "icon": "https://steamcdn-a.akamaihd.net/steamcommunity/public/images/apps/1034890/745b1be93e1b4ab3eb0d088c3f300a236d4dcbe8.jpg",
    "icongray": "https://steamcdn-a.akamaihd.net/steamcommunity/public/images/apps/1034890/20ccdec61859a073d8b4fed0a92c5712136ee48d.jpg"
  },
  {
    "name": "43",
    "defaultvalue": 0,
    "displayName": "Nothing Personal",
    "hidden": 0,
    "description": "Defeat the bosses of Chapter 6 on Hard Mode",
    "icon": "https://steamcdn-a.akamaihd.net/steamcommunity/public/images/apps/1034890/a1e531ebb5292e888d732cb1f9e01dd2827da02b.jpg",
    "icongray": "https://steamcdn-a.akamaihd.net/steamcommunity/public/images/apps/1034890/0a4b3c9c698e03ef79a44597dc6720da10d0eb98.jpg"
  },
  {
    "name": "44",
    "defaultvalue": 0,
    "displayName": "Holy Affairs",
    "hidden": 0,
    "description": "Defeat the bosses of Chapters 8 and 9 on Hard Mode",
    "icon": "https://steamcdn-a.akamaihd.net/steamcommunity/public/images/apps/1034890/0f64cd62f05ac235324cb5b97f62578287e70121.jpg",
    "icongray": "https://steamcdn-a.akamaihd.net/steamcommunity/public/images/apps/1034890/758baef29adf7f4e188bcdead519a6d8ac452dd7.jpg"
  },
  {
    "name": "45",
    "defaultvalue": 0,
    "displayName": "Totally Personal",
    "hidden": 0,
    "description": "Defeat the bosses of Chapters 11 and 12 on Hard Mode",
    "icon": "https://steamcdn-a.akamaihd.net/steamcommunity/public/images/apps/1034890/c58f72f73c09f9cb8070d00839316c5b23ac6825.jpg",
    "icongray": "https://steamcdn-a.akamaihd.net/steamcommunity/public/images/apps/1034890/104600d98a52e279709faf90b7fae03ea0b8eebd.jpg"
  },
  {
    "name": "46",
    "defaultvalue": 0,
    "displayName": "Infernal Legend",
    "hidden": 0,
    "description": "Clear all chapters with S rank or higher",
    "icon": "https://steamcdn-a.akamaihd.net/steamcommunity/public/images/apps/1034890/9235fc487e6f7d7c484c4f190125531607ce950e.jpg",
    "icongray": "https://steamcdn-a.akamaihd.net/steamcommunity/public/images/apps/1034890/282c526588d2dbbadb897ef4d096acfa32430099.jpg"
  }
]