[
  {
    "name": "RISE_AGAIN",
    "defaultvalue": 0,
    "displayName": "Rise Again!",
    "hidden": 0,
    "description": "Die in battle",
    "icon": "https://steamcdn-a.akamaihd.net/steamcommunity/public/images/apps/429430/46843b1e11b1fdab1760ea0ded6f1ace89c64190.jpg",
    "icongray": "https://steamcdn-a.akamaihd.net/steamcommunity/public/images/apps/429430/48e6c705b02180e24b457ea3ee74f52d5178771e.jpg"
  },
  {
    "name": "MIMIR_SLAYER",
    "defaultvalue": 0,
    "displayName": "Mimir Vanquisher",
    "hidden": 0,
    "description": "Kill Mimir",
    "icon": "https://steamcdn-a.akamaihd.net/steamcommunity/public/images/apps/429430/f83887eeea9e84211e95a6fd86d31fd581b84f4e.jpg",
    "icongray": "https://steamcdn-a.akamaihd.net/steamcommunity/public/images/apps/429430/7595012c54f2eb30ebf3d9c6ac1f3c54a121bba8.jpg"
  },
  {
    "name": "EVNEY_SLAYER",
    "defaultvalue": 0,
    "displayName": "Pest Control",
    "hidden": 0,
    "description": "Kill Evney",
    "icon": "https://steamcdn-a.akamaihd.net/steamcommunity/public/images/apps/429430/1df3104b1a4c0ac80dfa5cc6e4bbcba0f764f7ac.jpg",
    "icongray": "https://steamcdn-a.akamaihd.net/steamcommunity/public/images/apps/429430/7595012c54f2eb30ebf3d9c6ac1f3c54a121bba8.jpg"
  },
  {
    "name": "SKOLL_SLAYER",
    "defaultvalue": 0,
    "displayName": "Good boy ",
    "hidden": 0,
    "description": "Kill Skoll",
    "icon": "https://steamcdn-a.akamaihd.net/steamcommunity/public/images/apps/429430/99cd9a56c26f4764a6049e4937b4f59cf3d13f06.jpg",
    "icongray": "https://steamcdn-a.akamaihd.net/steamcommunity/public/images/apps/429430/7595012c54f2eb30ebf3d9c6ac1f3c54a121bba8.jpg"
  },
  {
    "name": "HELA_SLAYER",
    "defaultvalue": 0,
    "displayName": "God Slayer",
    "hidden": 0,
    "description": "Kill Hela",
    "icon": "https://steamcdn-a.akamaihd.net/steamcommunity/public/images/apps/429430/67caa31b4bcd0a67a029dbeb86c37195d48f8ce5.jpg",
    "icongray": "https://steamcdn-a.akamaihd.net/steamcommunity/public/images/apps/429430/7595012c54f2eb30ebf3d9c6ac1f3c54a121bba8.jpg"
  },
  {
    "name": "KILL50",
    "defaultvalue": 0,
    "displayName": "Killing Machine",
    "hidden": 0,
    "description": "kill 50 enemies in 1 run",
    "icon": "https://steamcdn-a.akamaihd.net/steamcommunity/public/images/apps/429430/dac3ee7f1b51adb2cca398959a4cbf4128cbfc34.jpg",
    "icongray": "https://steamcdn-a.akamaihd.net/steamcommunity/public/images/apps/429430/7595012c54f2eb30ebf3d9c6ac1f3c54a121bba8.jpg"
  },
  {
    "name": "SECRET_HUNTER_HEL",
    "defaultvalue": 0,
    "displayName": "Space Viking: Helheim",
    "hidden": 0,
    "description": "Explore and Find all off Helheim's Secrets",
    "icon": "https://steamcdn-a.akamaihd.net/steamcommunity/public/images/apps/429430/3fd0c1182e02c578849be011d3c61758815a9116.jpg",
    "icongray": "https://steamcdn-a.akamaihd.net/steamcommunity/public/images/apps/429430/7595012c54f2eb30ebf3d9c6ac1f3c54a121bba8.jpg"
  },
  {
    "name": "RETURN_FAVOUR",
    "defaultvalue": 0,
    "displayName": "Return The Favour",
    "hidden": 0,
    "description": "Use a Quick Counter to Kill an Enemy",
    "icon": "https://steamcdn-a.akamaihd.net/steamcommunity/public/images/apps/429430/d357adf11e2b400d9b3328b3ea20dd7c9b4cf9b2.jpg",
    "icongray": "https://steamcdn-a.akamaihd.net/steamcommunity/public/images/apps/429430/7595012c54f2eb30ebf3d9c6ac1f3c54a121bba8.jpg"
  },
  {
    "name": "CORPSE_SLAYER",
    "defaultvalue": 0,
    "displayName": "Killer Weed Killer",
    "hidden": 0,
    "description": "Kill The Corpse Plant",
    "icon": "https://steamcdn-a.akamaihd.net/steamcommunity/public/images/apps/429430/f223b6b72919b37077c0f49fea1b9817d4e40c44.jpg",
    "icongray": "https://steamcdn-a.akamaihd.net/steamcommunity/public/images/apps/429430/7595012c54f2eb30ebf3d9c6ac1f3c54a121bba8.jpg"
  },
  {
    "name": "WAR_MACHINE",
    "defaultvalue": 0,
    "displayName": "Berserker Level 1",
    "hidden": 0,
    "description": "Kill 100 enemies in 1 run",
    "icon": "https://steamcdn-a.akamaihd.net/steamcommunity/public/images/apps/429430/99632c9d1c67820be90a35f9da49fcbc6e3ebdf1.jpg",
    "icongray": "https://steamcdn-a.akamaihd.net/steamcommunity/public/images/apps/429430/7595012c54f2eb30ebf3d9c6ac1f3c54a121bba8.jpg"
  },
  {
    "name": "HELHEIM_PERFECT",
    "defaultvalue": 0,
    "displayName": "Helheim: Dominated",
    "hidden": 0,
    "description": "Score an A on Helheim Cycle",
    "icon": "https://steamcdn-a.akamaihd.net/steamcommunity/public/images/apps/429430/77db95e8c8c612b663fc4145ac756a04c67aad4f.jpg",
    "icongray": "https://steamcdn-a.akamaihd.net/steamcommunity/public/images/apps/429430/7595012c54f2eb30ebf3d9c6ac1f3c54a121bba8.jpg"
  }
]