{
  "Dlcs": {},
  "Name": "The Legends of Class one 嗨哥一班大冒险",
  "AppId": "1063160",
  "ImageUrl": "https://steamcdn-a.akamaihd.net/steam/apps/1063160/header.jpg?t=1561610160",
  "Languages": [
    "schinese"
  ],
  "Platforms": {
    "windows": true,
    "mac": false,
    "linux": false
  }
}