{
  "Dlcs": {},
  "Name": "Asher",
  "AppId": "445950",
  "ImageUrl": "https://steamcdn-a.akamaihd.net/steam/apps/445950/header.jpg?t=1520890991",
  "Languages": [
    "english"
  ],
  "Platforms": {
    "windows": true,
    "mac": false,
    "linux": false
  }
}