{
  "Dlcs": {},
  "Name": "HACK the FBI",
  "AppId": "582450",
  "ImageUrl": "https://steamcdn-a.akamaihd.net/steam/apps/582450/header.jpg?t=1596731162",
  "Languages": [
    "english"
  ],
  "Platforms": {
    "windows": true,
    "mac": false,
    "linux": false
  }
}