﻿{
  "stat_headshots": {
    "description": "Headshots",
    "value": 0
  },
  "Stat_TankKills": {
    "description": "Tank Kills",
    "value": 0
  },
  "Stat_VehicleKills": {
    "description": "Vehicle kills",
    "value": 0
  },
  "Stat_WarScore": {
    "description": "Warscore",
    "value": 0
  },
  "Stat_RequisitionEarned": {
    "description": "Total requisition accumulated",
    "value": 0
  },
  "Stat_PlayerKills": {
    "description": "Players killed",
    "value": 0
  }
}