[
  {
    "name": "ACH_GOLD_DIGGER_1",
    "defaultvalue": 0,
    "displayName": "Gold Digger I",
    "hidden": 0,
    "description": "Collect 1,000 gold",
    "icon": "https://steamcdn-a.akamaihd.net/steamcommunity/public/images/apps/548370/c8f6232040119e07e5ceb12f96e61086b1dbec2e.jpg",
    "icongray": "https://steamcdn-a.akamaihd.net/steamcommunity/public/images/apps/548370/b94b23ba91f8375c7ef8cf63e9f9fed965f35b9f.jpg"
  },
  {
    "name": "ACH_GOLD_DIGGER_2",
    "defaultvalue": 0,
    "displayName": "Gold Digger II",
    "hidden": 0,
    "description": "Collect 5,000 gold",
    "icon": "https://steamcdn-a.akamaihd.net/steamcommunity/public/images/apps/548370/31c8c52cd0be2bd9e1f75b153952113c6478d15d.jpg",
    "icongray": "https://steamcdn-a.akamaihd.net/steamcommunity/public/images/apps/548370/40918528449f95df7e4edfe2ccf5dc8688b9365e.jpg"
  },
  {
    "name": "ACH_GOLD_DIGGER_3",
    "defaultvalue": 0,
    "displayName": "Gold Digger III",
    "hidden": 0,
    "description": "Collect 10,000 gold",
    "icon": "https://steamcdn-a.akamaihd.net/steamcommunity/public/images/apps/548370/cda33c52baf43b55aa724a7d779ad565b61ecf4f.jpg",
    "icongray": "https://steamcdn-a.akamaihd.net/steamcommunity/public/images/apps/548370/fa5f5399954d385a8687c317d11b9cece9ed168f.jpg"
  },
  {
    "name": "ACH_GOLD_DIGGER_4",
    "defaultvalue": 0,
    "displayName": "Gold Digger IV",
    "hidden": 0,
    "description": "Collect 25,000 gold",
    "icon": "https://steamcdn-a.akamaihd.net/steamcommunity/public/images/apps/548370/139ef9798ad48aaf737b34428629ac0d219b49a9.jpg",
    "icongray": "https://steamcdn-a.akamaihd.net/steamcommunity/public/images/apps/548370/2f9c5d0d55fb97ab72a2bd4273abcf05efb7a7de.jpg"
  },
  {
    "name": "ACH_GOLD_DIGGER_5",
    "defaultvalue": 0,
    "displayName": "Gold Digger V",
    "hidden": 0,
    "description": "Collect 50,000 gold",
    "icon": "https://steamcdn-a.akamaihd.net/steamcommunity/public/images/apps/548370/9471994ad66db767abee9306a2ae4574ab6e0202.jpg",
    "icongray": "https://steamcdn-a.akamaihd.net/steamcommunity/public/images/apps/548370/d18bf2c527e6dec4e94ce0cfc99cddddaba46b55.jpg"
  },
  {
    "name": "ACH_GOLD_DIGGER_6",
    "defaultvalue": 0,
    "displayName": "Gold Digger VI",
    "hidden": 0,
    "description": "Collect 100,000 gold",
    "icon": "https://steamcdn-a.akamaihd.net/steamcommunity/public/images/apps/548370/dd1ae387ce19a83326879e7eec4ccfd4189103cb.jpg",
    "icongray": "https://steamcdn-a.akamaihd.net/steamcommunity/public/images/apps/548370/7d95fbd6c9bbd13e8e579d922852a1d6a4b8259b.jpg"
  },
  {
    "name": "ACH_GOLD_DIGGER_7",
    "defaultvalue": 0,
    "displayName": "Gold Digger VII",
    "hidden": 0,
    "description": "Collect 250,000 gold",
    "icon": "https://steamcdn-a.akamaihd.net/steamcommunity/public/images/apps/548370/22c453b626a056af23f3e6c0b118412660ca1c82.jpg",
    "icongray": "https://steamcdn-a.akamaihd.net/steamcommunity/public/images/apps/548370/adf94f5c6d90b06d78614beefff83fe79684410f.jpg"
  },
  {
    "name": "ACH_GOLD_DIGGER_8",
    "defaultvalue": 0,
    "displayName": "Gold Digger VIII",
    "hidden": 0,
    "description": "Collect 500,000 gold",
    "icon": "https://steamcdn-a.akamaihd.net/steamcommunity/public/images/apps/548370/07804e314ca4822d41eb05fbe733d31f8048a93d.jpg",
    "icongray": "https://steamcdn-a.akamaihd.net/steamcommunity/public/images/apps/548370/7bdd3b9aefc6f85a24e877d1009086162650ac14.jpg"
  },
  {
    "name": "ACH_GOLD_DIGGER_9",
    "defaultvalue": 0,
    "displayName": "Gold Digger IX",
    "hidden": 0,
    "description": "Collect 1,000,000 gold",
    "icon": "https://steamcdn-a.akamaihd.net/steamcommunity/public/images/apps/548370/29d76edc8130b450bd1016bac0c5bb91fbbcc44a.jpg",
    "icongray": "https://steamcdn-a.akamaihd.net/steamcommunity/public/images/apps/548370/005fc35221925d12a63a273143df9d85f1b823d1.jpg"
  },
  {
    "name": "ACH_LUCKY",
    "defaultvalue": 0,
    "displayName": "Lucky!",
    "hidden": 0,
    "description": "Loot a legendary item",
    "icon": "https://steamcdn-a.akamaihd.net/steamcommunity/public/images/apps/548370/bf1856970cdae8433252db66378a8fc2e78b6cbd.jpg",
    "icongray": "https://steamcdn-a.akamaihd.net/steamcommunity/public/images/apps/548370/7f6fd5afc4b295b4febbef529753a2f0be1f562c.jpg"
  },
  {
    "name": "ACH_EPIC",
    "defaultvalue": 0,
    "displayName": "Epic!",
    "hidden": 0,
    "description": "Equip epic items in all equipment slots",
    "icon": "https://steamcdn-a.akamaihd.net/steamcommunity/public/images/apps/548370/14356ff4a1605881bbb26d0dcb44dc8fdab0ea30.jpg",
    "icongray": "https://steamcdn-a.akamaihd.net/steamcommunity/public/images/apps/548370/3408edf060ff5d674713c78b28c7d5b60c26e667.jpg"
  },
  {
    "name": "ACH_LEGENDARY",
    "defaultvalue": 0,
    "displayName": "Legendary!",
    "hidden": 0,
    "description": "Equip legendary items in all equipment slots",
    "icon": "https://steamcdn-a.akamaihd.net/steamcommunity/public/images/apps/548370/86499c81b009c179b24b8bb8654a4b447b36b9bb.jpg",
    "icongray": "https://steamcdn-a.akamaihd.net/steamcommunity/public/images/apps/548370/b4101d17fc6412a8b4bb1b4af1cf96a341a0bea8.jpg"
  },
  {
    "name": "ACH_THIRSTY_1",
    "defaultvalue": 0,
    "displayName": "Thirsty I",
    "hidden": 0,
    "description": "Drink 10 potions",
    "icon": "https://steamcdn-a.akamaihd.net/steamcommunity/public/images/apps/548370/ba79b106282b661c75c8c5c10e146b15e1bfbc04.jpg",
    "icongray": "https://steamcdn-a.akamaihd.net/steamcommunity/public/images/apps/548370/4fb1de12d86b3ecbb1bd83e36f091d322010c1de.jpg"
  },
  {
    "name": "ACH_THIRSTY_2",
    "defaultvalue": 0,
    "displayName": "Thirsty II",
    "hidden": 0,
    "description": "Drink 25 potions",
    "icon": "https://steamcdn-a.akamaihd.net/steamcommunity/public/images/apps/548370/97fa07924b845a3a1552dd1996f54606712d21f1.jpg",
    "icongray": "https://steamcdn-a.akamaihd.net/steamcommunity/public/images/apps/548370/1f3175293a72495fbe405268fd305d68b48eba51.jpg"
  },
  {
    "name": "ACH_THIRSTY_3",
    "defaultvalue": 0,
    "displayName": "Thirsty III",
    "hidden": 0,
    "description": "Drink 50 potions",
    "icon": "https://steamcdn-a.akamaihd.net/steamcommunity/public/images/apps/548370/8cc7e8d0c493aa318b41464f21a451a66cb54f1a.jpg",
    "icongray": "https://steamcdn-a.akamaihd.net/steamcommunity/public/images/apps/548370/43ebe3f8148c884218ea15ec03722b385e869068.jpg"
  },
  {
    "name": "ACH_THIRSTY_4",
    "defaultvalue": 0,
    "displayName": "Thirsty IV",
    "hidden": 0,
    "description": "Drink 100 potions",
    "icon": "https://steamcdn-a.akamaihd.net/steamcommunity/public/images/apps/548370/e2f5f13fd2ba76fd3c9c63dcfe7cadd0816cbddb.jpg",
    "icongray": "https://steamcdn-a.akamaihd.net/steamcommunity/public/images/apps/548370/b11b7611c6ed2bd2aff7d9a70b94acfcddaa6daf.jpg"
  },
  {
    "name": "ACH_THIRSTY_5",
    "defaultvalue": 0,
    "displayName": "Thirsty V",
    "hidden": 0,
    "description": "Drink 250 potions",
    "icon": "https://steamcdn-a.akamaihd.net/steamcommunity/public/images/apps/548370/819d2d130d9c69a09d1ab2f74a32d0a5e2b7924e.jpg",
    "icongray": "https://steamcdn-a.akamaihd.net/steamcommunity/public/images/apps/548370/3fc425233dd8b5e4339cd2d7fbda8ab5187a5117.jpg"
  },
  {
    "name": "ACH_THIRSTY_6",
    "defaultvalue": 0,
    "displayName": "Thirsty VI",
    "hidden": 0,
    "description": "Drink 500 potions",
    "icon": "https://steamcdn-a.akamaihd.net/steamcommunity/public/images/apps/548370/fca77316c53f1aeaf4b46fe6e63d4801600a871c.jpg",
    "icongray": "https://steamcdn-a.akamaihd.net/steamcommunity/public/images/apps/548370/3d6618c4d68c082ee958d040cfdd96a1d7c71815.jpg"
  },
  {
    "name": "ACH_THIRSTY_7",
    "defaultvalue": 0,
    "displayName": "Thirsty VII",
    "hidden": 0,
    "description": "Drink 1,000 potions",
    "icon": "https://steamcdn-a.akamaihd.net/steamcommunity/public/images/apps/548370/1fc4f6a3c3480aa4cd83a174d4f6e0c9dc1ae4f5.jpg",
    "icongray": "https://steamcdn-a.akamaihd.net/steamcommunity/public/images/apps/548370/ce11fd31c2d52310965cc294372bb8631bc8f18f.jpg"
  },
  {
    "name": "ACH_GLAMOROUS_1",
    "defaultvalue": 0,
    "displayName": "Glamorous I",
    "hidden": 0,
    "description": "Collect 10 gems",
    "icon": "https://steamcdn-a.akamaihd.net/steamcommunity/public/images/apps/548370/7352218256b032b864210e900129e0e9043438b0.jpg",
    "icongray": "https://steamcdn-a.akamaihd.net/steamcommunity/public/images/apps/548370/3ed74ef6e90f921c91963ce8ce150542bd42da1c.jpg"
  },
  {
    "name": "ACH_GLAMOROUS_2",
    "defaultvalue": 0,
    "displayName": "Glamorous II",
    "hidden": 0,
    "description": "Collect 25 gems",
    "icon": "https://steamcdn-a.akamaihd.net/steamcommunity/public/images/apps/548370/168d37550ff1c45a023bdc1d6b94ad9370c195db.jpg",
    "icongray": "https://steamcdn-a.akamaihd.net/steamcommunity/public/images/apps/548370/cb23d949828220ab3fd9868596bf37f32338c095.jpg"
  },
  {
    "name": "ACH_GLAMOROUS_3",
    "defaultvalue": 0,
    "displayName": "Glamorous III",
    "hidden": 0,
    "description": "Collect 50 gems",
    "icon": "https://steamcdn-a.akamaihd.net/steamcommunity/public/images/apps/548370/be57a42469631653737d25a5dcddc1aeb6c8c3cf.jpg",
    "icongray": "https://steamcdn-a.akamaihd.net/steamcommunity/public/images/apps/548370/816a37edfbf62179aea8cd6b16f6b26a6188749d.jpg"
  },
  {
    "name": "ACH_GLAMOROUS_4",
    "defaultvalue": 0,
    "displayName": "Glamorous IV",
    "hidden": 0,
    "description": "Collect 100 gems",
    "icon": "https://steamcdn-a.akamaihd.net/steamcommunity/public/images/apps/548370/49ed5d5efb2d4b1a5f487b8ee98dca430e946a2b.jpg",
    "icongray": "https://steamcdn-a.akamaihd.net/steamcommunity/public/images/apps/548370/9d51010c454012fea66195e5d5bbf91ef3df3cd5.jpg"
  },
  {
    "name": "ACH_GLAMOROUS_5",
    "defaultvalue": 0,
    "displayName": "Glamorous V",
    "hidden": 0,
    "description": "Collect 250 gems",
    "icon": "https://steamcdn-a.akamaihd.net/steamcommunity/public/images/apps/548370/c2ee8c84ae7ad4d337948816fec5f823c19705b1.jpg",
    "icongray": "https://steamcdn-a.akamaihd.net/steamcommunity/public/images/apps/548370/bee59e3cf69a82f36b81a4247834f991221d44af.jpg"
  },
  {
    "name": "ACH_GLAMOROUS_6",
    "defaultvalue": 0,
    "displayName": "Glamorous VI",
    "hidden": 0,
    "description": "Collect 500 gems",
    "icon": "https://steamcdn-a.akamaihd.net/steamcommunity/public/images/apps/548370/8eafb8ef53b67c48a09cbe0e5188800763209513.jpg",
    "icongray": "https://steamcdn-a.akamaihd.net/steamcommunity/public/images/apps/548370/c7fe884deb7a5234914cb24599f434a5350b94cf.jpg"
  },
  {
    "name": "ACH_GLAMOROUS_7",
    "defaultvalue": 0,
    "displayName": "Glamorous VII",
    "hidden": 0,
    "description": "Collect 1,000 gems",
    "icon": "https://steamcdn-a.akamaihd.net/steamcommunity/public/images/apps/548370/aabe26c2fdfa3ead7c7afa349103bee4afc1a5cf.jpg",
    "icongray": "https://steamcdn-a.akamaihd.net/steamcommunity/public/images/apps/548370/5867e2d89b8cb234f64ed59a951bfbf671d92189.jpg"
  },
  {
    "name": "ACH_GLAMOROUS_8",
    "defaultvalue": 0,
    "displayName": "Glamorous VIII",
    "hidden": 0,
    "description": "Collect 2,500 gems",
    "icon": "https://steamcdn-a.akamaihd.net/steamcommunity/public/images/apps/548370/fe60a8dc79629d73aea095eddf2eae5567747d3e.jpg",
    "icongray": "https://steamcdn-a.akamaihd.net/steamcommunity/public/images/apps/548370/1f813fed39fd74f241da8e6ea55a046b172e1e20.jpg"
  },
  {
    "name": "ACH_GLAMOROUS_9",
    "defaultvalue": 0,
    "displayName": "Glamorous IX",
    "hidden": 0,
    "description": "Collect 5,000 gems",
    "icon": "https://steamcdn-a.akamaihd.net/steamcommunity/public/images/apps/548370/490db9520c58fe63b94e805e672960ba6b50280d.jpg",
    "icongray": "https://steamcdn-a.akamaihd.net/steamcommunity/public/images/apps/548370/d31d381a8d0b582b9279535fcf97fc57c8a5bbde.jpg"
  },
  {
    "name": "ACH_GLAMOROUS_10",
    "defaultvalue": 0,
    "displayName": "Glamorous X",
    "hidden": 0,
    "description": "Collect 10,000 gems",
    "icon": "https://steamcdn-a.akamaihd.net/steamcommunity/public/images/apps/548370/d4ccfe9546759702d007ade2f1d9ed91ae57b807.jpg",
    "icongray": "https://steamcdn-a.akamaihd.net/steamcommunity/public/images/apps/548370/b52a00760f9b2d8ea8e4bd76dbe27eb31984ea3c.jpg"
  },
  {
    "name": "ACH_TREASURE_HUNTER_1",
    "defaultvalue": 0,
    "displayName": "Treasure Hunter I",
    "hidden": 0,
    "description": "Open 10 chests",
    "icon": "https://steamcdn-a.akamaihd.net/steamcommunity/public/images/apps/548370/2badb7ef403bc7d0cc4883172ce37f3e2de0bc67.jpg",
    "icongray": "https://steamcdn-a.akamaihd.net/steamcommunity/public/images/apps/548370/1a3e684584fc45ca70767aced4b4c9b05188017f.jpg"
  },
  {
    "name": "ACH_TREASURE_HUNTER_2",
    "defaultvalue": 0,
    "displayName": "Treasure Hunter II",
    "hidden": 0,
    "description": "Open 25 chests",
    "icon": "https://steamcdn-a.akamaihd.net/steamcommunity/public/images/apps/548370/79a7b30ee8d279d3af3b5b5c14f234bff81e2ca1.jpg",
    "icongray": "https://steamcdn-a.akamaihd.net/steamcommunity/public/images/apps/548370/063bc5fd9f0c5066141bebfd731e82facc80370c.jpg"
  },
  {
    "name": "ACH_TREASURE_HUNTER_3",
    "defaultvalue": 0,
    "displayName": "Treasure Hunter III",
    "hidden": 0,
    "description": "Open 50 chests",
    "icon": "https://steamcdn-a.akamaihd.net/steamcommunity/public/images/apps/548370/2b560ff519a4b5c1c98da7830b1ee0258c2ed0ac.jpg",
    "icongray": "https://steamcdn-a.akamaihd.net/steamcommunity/public/images/apps/548370/db5eb07062f361f4b39fd26235a0cb545d78b540.jpg"
  },
  {
    "name": "ACH_TREASURE_HUNTER_4",
    "defaultvalue": 0,
    "displayName": "Treasure Hunter IV",
    "hidden": 0,
    "description": "Open 100 chests",
    "icon": "https://steamcdn-a.akamaihd.net/steamcommunity/public/images/apps/548370/fe251dab62748262e7eb23d8adaadd8f197232d0.jpg",
    "icongray": "https://steamcdn-a.akamaihd.net/steamcommunity/public/images/apps/548370/702b6709ff427a2985345a703dbfb9d1e3fe289d.jpg"
  },
  {
    "name": "ACH_TREASURE_HUNTER_5",
    "defaultvalue": 0,
    "displayName": "Treasure Hunter V",
    "hidden": 0,
    "description": "Open 250 chests",
    "icon": "https://steamcdn-a.akamaihd.net/steamcommunity/public/images/apps/548370/b5ed44c7a0681ddc7d88ef694f9f4836f784c9b7.jpg",
    "icongray": "https://steamcdn-a.akamaihd.net/steamcommunity/public/images/apps/548370/721e1efe56d00e60257737d02c73862abc4cd408.jpg"
  },
  {
    "name": "ACH_TREASURE_HUNTER_6",
    "defaultvalue": 0,
    "displayName": "Treasure Hunter VI",
    "hidden": 0,
    "description": "Open 500 chests",
    "icon": "https://steamcdn-a.akamaihd.net/steamcommunity/public/images/apps/548370/dec47c17233147a1d0b70cd5624110f94b3fdf95.jpg",
    "icongray": "https://steamcdn-a.akamaihd.net/steamcommunity/public/images/apps/548370/13d4fc8e22fd86f43da9ce9a69addc51adfef071.jpg"
  },
  {
    "name": "ACH_EDUCATED",
    "defaultvalue": 0,
    "displayName": "Educated",
    "hidden": 0,
    "description": "Complete tutorial",
    "icon": "https://steamcdn-a.akamaihd.net/steamcommunity/public/images/apps/548370/5093e2952c5c6c413ef9863047fef02d30067066.jpg",
    "icongray": "https://steamcdn-a.akamaihd.net/steamcommunity/public/images/apps/548370/0e30e2d4e87dcd1ad12c91f1095b74fff54dddf3.jpg"
  },
  {
    "name": "ACH_EXPERIENCED_1",
    "defaultvalue": 0,
    "displayName": "Experienced I",
    "hidden": 0,
    "description": "Reach level 10 with any character",
    "icon": "https://steamcdn-a.akamaihd.net/steamcommunity/public/images/apps/548370/92dc43d816671bd2fd6c74166b9be01eb93afa42.jpg",
    "icongray": "https://steamcdn-a.akamaihd.net/steamcommunity/public/images/apps/548370/6cf825fa0496e904f37e5bb205184ba0211424e3.jpg"
  },
  {
    "name": "ACH_EXPERIENCED_2",
    "defaultvalue": 0,
    "displayName": "Experienced II",
    "hidden": 0,
    "description": "Reach level 20 with any character",
    "icon": "https://steamcdn-a.akamaihd.net/steamcommunity/public/images/apps/548370/b23e06befcdfad7ea7859c992d800c6ac5b11980.jpg",
    "icongray": "https://steamcdn-a.akamaihd.net/steamcommunity/public/images/apps/548370/152b071d711139c54285b3d260ed4057b2bbd88c.jpg"
  },
  {
    "name": "ACH_EXPERIENCED_3",
    "defaultvalue": 0,
    "displayName": "Experienced III",
    "hidden": 0,
    "description": "Reach level 30 with any character",
    "icon": "https://steamcdn-a.akamaihd.net/steamcommunity/public/images/apps/548370/37d4efed9ad562088203b7c9c81f9e4406e52e26.jpg",
    "icongray": "https://steamcdn-a.akamaihd.net/steamcommunity/public/images/apps/548370/4faf7dd7536e386c87ff401578b3c43af0b2d1b6.jpg"
  },
  {
    "name": "ACH_EXPERIENCED_4",
    "defaultvalue": 0,
    "displayName": "Experienced IV",
    "hidden": 0,
    "description": "Reach level 40 with any character",
    "icon": "https://steamcdn-a.akamaihd.net/steamcommunity/public/images/apps/548370/e88fb2cdd9a0a7305246ca28dcc3b203ceda8954.jpg",
    "icongray": "https://steamcdn-a.akamaihd.net/steamcommunity/public/images/apps/548370/f9030bafb2eef3b79da19755f43b17b8291aadb8.jpg"
  },
  {
    "name": "ACH_EXPERIENCED_5",
    "defaultvalue": 0,
    "displayName": "Experienced V",
    "hidden": 0,
    "description": "Reach level 50 with any character",
    "icon": "https://steamcdn-a.akamaihd.net/steamcommunity/public/images/apps/548370/f91021f72550eff6e91561d50d16dc02d70368ce.jpg",
    "icongray": "https://steamcdn-a.akamaihd.net/steamcommunity/public/images/apps/548370/6ff171beab89ec4d358402bfec51b370706ee8d3.jpg"
  },
  {
    "name": "ACH_EXPERIENCED_6",
    "defaultvalue": 0,
    "displayName": "Experienced VI",
    "hidden": 0,
    "description": "Reach level 60 with any character",
    "icon": "https://steamcdn-a.akamaihd.net/steamcommunity/public/images/apps/548370/6a21607965457649e68a7a9a02a22466f77e5a73.jpg",
    "icongray": "https://steamcdn-a.akamaihd.net/steamcommunity/public/images/apps/548370/10db20a541f28841b7ce00d8cc252aa6cd227900.jpg"
  },
  {
    "name": "ACH_EXPERIENCED_7",
    "defaultvalue": 0,
    "displayName": "Experienced VII",
    "hidden": 0,
    "description": "Reach level 70 with any character",
    "icon": "https://steamcdn-a.akamaihd.net/steamcommunity/public/images/apps/548370/7b0972e47c5f5b63beb684dcc0022c48335adaa3.jpg",
    "icongray": "https://steamcdn-a.akamaihd.net/steamcommunity/public/images/apps/548370/bdd204f07f72b5764e8a871f8bc2219bcb773706.jpg"
  },
  {
    "name": "ACH_EXPERIENCED_8",
    "defaultvalue": 0,
    "displayName": "Experienced VIII",
    "hidden": 0,
    "description": "Reach level 80 with any character",
    "icon": "https://steamcdn-a.akamaihd.net/steamcommunity/public/images/apps/548370/16bc78340fa8275cb14e0e0f50e30a3475e3b130.jpg",
    "icongray": "https://steamcdn-a.akamaihd.net/steamcommunity/public/images/apps/548370/2f9c44f1c509ca4d24b2b42c992a511b5be7064a.jpg"
  },
  {
    "name": "ACH_EXPERIENCED_9",
    "defaultvalue": 0,
    "displayName": "Experienced IX",
    "hidden": 0,
    "description": "Reach level 90 with any character",
    "icon": "https://steamcdn-a.akamaihd.net/steamcommunity/public/images/apps/548370/510d9d443e77671c5216ffd1f946c1db4ce38f24.jpg",
    "icongray": "https://steamcdn-a.akamaihd.net/steamcommunity/public/images/apps/548370/059ab8e96b7cd1f3e16a94a85266b746e89f744a.jpg"
  },
  {
    "name": "ACH_EXPERIENCED_10",
    "defaultvalue": 0,
    "displayName": "Experienced X",
    "hidden": 0,
    "description": "Reach level 100 with any character",
    "icon": "https://steamcdn-a.akamaihd.net/steamcommunity/public/images/apps/548370/bbd928dd92cefa9850610c97821740ef3452b352.jpg",
    "icongray": "https://steamcdn-a.akamaihd.net/steamcommunity/public/images/apps/548370/c306d6d00d86e4c8d1d1b8f6009cd04d06d75f17.jpg"
  },
  {
    "name": "ACH_LEGACY_1",
    "defaultvalue": 0,
    "displayName": "Legacy I",
    "hidden": 0,
    "description": "Forge 10 legacy stat points",
    "icon": "https://steamcdn-a.akamaihd.net/steamcommunity/public/images/apps/548370/789089e7cde812e1e43aaba7deb89f75ef0bf95f.jpg",
    "icongray": "https://steamcdn-a.akamaihd.net/steamcommunity/public/images/apps/548370/6dba18031fb00386f3b94c17a0433d67b500ab50.jpg"
  },
  {
    "name": "ACH_LEGACY_2",
    "defaultvalue": 0,
    "displayName": "Legacy II",
    "hidden": 0,
    "description": "Forge 25 legacy stat points",
    "icon": "https://steamcdn-a.akamaihd.net/steamcommunity/public/images/apps/548370/d727135ff39672a3518fa5dcd408db6a9bdd12f7.jpg",
    "icongray": "https://steamcdn-a.akamaihd.net/steamcommunity/public/images/apps/548370/91d1ca4a05ac8d8f1fee096811781ae10b6788ba.jpg"
  },
  {
    "name": "ACH_LEGACY_3",
    "defaultvalue": 0,
    "displayName": "Legacy III",
    "hidden": 0,
    "description": "Forge 50 legacy stat points",
    "icon": "https://steamcdn-a.akamaihd.net/steamcommunity/public/images/apps/548370/00321f6211009ea8c1dee4abb7ac0552bdb5d3b2.jpg",
    "icongray": "https://steamcdn-a.akamaihd.net/steamcommunity/public/images/apps/548370/8620f8484e5149f694d6bea94f965619bd6a5ddd.jpg"
  },
  {
    "name": "ACH_LEGACY_4",
    "defaultvalue": 0,
    "displayName": "Legacy IV",
    "hidden": 0,
    "description": "Forge 100 legacy stat points",
    "icon": "https://steamcdn-a.akamaihd.net/steamcommunity/public/images/apps/548370/5002c7684a65e19b7f2afab8fe1a05c820f5f7b8.jpg",
    "icongray": "https://steamcdn-a.akamaihd.net/steamcommunity/public/images/apps/548370/e583e71d18442e21bad4b852c7724c68ade2d576.jpg"
  },
  {
    "name": "ACH_LEGACY_5",
    "defaultvalue": 0,
    "displayName": "Legacy V",
    "hidden": 0,
    "description": "Forge 250 legacy stat points",
    "icon": "https://steamcdn-a.akamaihd.net/steamcommunity/public/images/apps/548370/52697a4b8acdaad1b451f483004d77123e4bc07a.jpg",
    "icongray": "https://steamcdn-a.akamaihd.net/steamcommunity/public/images/apps/548370/c4ae5daeafa613d31452daf43c82afcb8ab97bbe.jpg"
  },
  {
    "name": "ACH_LEGACY_6",
    "defaultvalue": 0,
    "displayName": "Legacy VI",
    "hidden": 0,
    "description": "Forge 500 legacy stat points",
    "icon": "https://steamcdn-a.akamaihd.net/steamcommunity/public/images/apps/548370/133bc3205bf214ccbf43a095046458ab125bef7c.jpg",
    "icongray": "https://steamcdn-a.akamaihd.net/steamcommunity/public/images/apps/548370/b4290b1eda63a93c1f8a5edc2f486345f5195363.jpg"
  },
  {
    "name": "ACH_EXPLORER_1",
    "defaultvalue": 0,
    "displayName": "Explorer I",
    "hidden": 0,
    "description": "Take 250 steps",
    "icon": "https://steamcdn-a.akamaihd.net/steamcommunity/public/images/apps/548370/abb38eabd09dd4ce01e241507bcef379d50203ee.jpg",
    "icongray": "https://steamcdn-a.akamaihd.net/steamcommunity/public/images/apps/548370/42f91bf7b856a52cf363a1981cf0a715b95bdcbb.jpg"
  },
  {
    "name": "ACH_EXPLORER_2",
    "defaultvalue": 0,
    "displayName": "Explorer II",
    "hidden": 0,
    "description": "Take 500 steps",
    "icon": "https://steamcdn-a.akamaihd.net/steamcommunity/public/images/apps/548370/f5aa10e0426e2d34852ffed38bf40c09a97d231a.jpg",
    "icongray": "https://steamcdn-a.akamaihd.net/steamcommunity/public/images/apps/548370/300d76cd8554b814473a91fcb060b968205a89e7.jpg"
  },
  {
    "name": "ACH_EXPLORER_3",
    "defaultvalue": 0,
    "displayName": "Explorer III",
    "hidden": 0,
    "description": "Take 1,000 steps",
    "icon": "https://steamcdn-a.akamaihd.net/steamcommunity/public/images/apps/548370/908d6f9f916fb5578e96fa045a669241aef4f932.jpg",
    "icongray": "https://steamcdn-a.akamaihd.net/steamcommunity/public/images/apps/548370/73cbda9f752694c99859f33077a4f96ce183baed.jpg"
  },
  {
    "name": "ACH_EXPLORER_4",
    "defaultvalue": 0,
    "displayName": "Explorer IV",
    "hidden": 0,
    "description": "Take 2,500 steps",
    "icon": "https://steamcdn-a.akamaihd.net/steamcommunity/public/images/apps/548370/55382b8e4537736ef970d5de19032f32e3999c46.jpg",
    "icongray": "https://steamcdn-a.akamaihd.net/steamcommunity/public/images/apps/548370/c3dba71ad94104e8af62a5fc42769ff281dce0c4.jpg"
  },
  {
    "name": "ACH_EXPLORER_5",
    "defaultvalue": 0,
    "displayName": "Explorer V",
    "hidden": 0,
    "description": "Take 5,000 steps",
    "icon": "https://steamcdn-a.akamaihd.net/steamcommunity/public/images/apps/548370/3cc0153ace0a7865486897776dcf203cd36fd897.jpg",
    "icongray": "https://steamcdn-a.akamaihd.net/steamcommunity/public/images/apps/548370/0d851224765b0c68280be27b45dd4b5481a48872.jpg"
  },
  {
    "name": "ACH_EXPLORER_6",
    "defaultvalue": 0,
    "displayName": "Explorer VI",
    "hidden": 0,
    "description": "Take 10,000 steps",
    "icon": "https://steamcdn-a.akamaihd.net/steamcommunity/public/images/apps/548370/2a09a290a6a485454252b7e9918cdc334691c35a.jpg",
    "icongray": "https://steamcdn-a.akamaihd.net/steamcommunity/public/images/apps/548370/eab50dda8553c15fc65e65e2d6be72807ca24445.jpg"
  },
  {
    "name": "ACH_EXPLORER_7",
    "defaultvalue": 0,
    "displayName": "Explorer VII",
    "hidden": 0,
    "description": "Take 25,000 steps",
    "icon": "https://steamcdn-a.akamaihd.net/steamcommunity/public/images/apps/548370/e73c1787a4b8f3bae1fe3d194bd8a48812a0cc7d.jpg",
    "icongray": "https://steamcdn-a.akamaihd.net/steamcommunity/public/images/apps/548370/27a334085cffc70183f05426adc2e33fd8eee421.jpg"
  },
  {
    "name": "ACH_EXPLORER_8",
    "defaultvalue": 0,
    "displayName": "Explorer VIII",
    "hidden": 0,
    "description": "Take 50,000 steps",
    "icon": "https://steamcdn-a.akamaihd.net/steamcommunity/public/images/apps/548370/68bd29b6536fa264f6f685112d29ce7332ef9242.jpg",
    "icongray": "https://steamcdn-a.akamaihd.net/steamcommunity/public/images/apps/548370/21a066cf00126f8fdbe6f6c3eea09dbd85d48fa6.jpg"
  },
  {
    "name": "ACH_EXPLORER_9",
    "defaultvalue": 0,
    "displayName": "Explorer IX",
    "hidden": 0,
    "description": "Take 100,000 steps",
    "icon": "https://steamcdn-a.akamaihd.net/steamcommunity/public/images/apps/548370/38a0d1da2f14d05f6391fde085e74b61a1c5cc05.jpg",
    "icongray": "https://steamcdn-a.akamaihd.net/steamcommunity/public/images/apps/548370/dc45b71e82bf5b6f897dc5bc84a725b65960b354.jpg"
  },
  {
    "name": "ACH_DEFEAT_WEREWOLF",
    "defaultvalue": 0,
    "displayName": "Defeat Werewolf",
    "hidden": 1,
    "icon": "https://steamcdn-a.akamaihd.net/steamcommunity/public/images/apps/548370/d7fc539d0297f5bf9b974f0dc4c244792b2df808.jpg",
    "icongray": "https://steamcdn-a.akamaihd.net/steamcommunity/public/images/apps/548370/65cf87e525693c394dec044c77cc70b851734a12.jpg"
  },
  {
    "name": "ACH_DEFEAT_ICE_GIANT",
    "defaultvalue": 0,
    "displayName": "Defeat Ice Giant",
    "hidden": 1,
    "icon": "https://steamcdn-a.akamaihd.net/steamcommunity/public/images/apps/548370/57bcb7c3e302e57de9dea0c84b6dbd99e3124a32.jpg",
    "icongray": "https://steamcdn-a.akamaihd.net/steamcommunity/public/images/apps/548370/b96a5a8938863a05e1367c90eae7a9a7328982c2.jpg"
  },
  {
    "name": "ACH_DEFEAT_FIRE_DRAGON",
    "defaultvalue": 0,
    "displayName": "Defeat Fire Dragon",
    "hidden": 1,
    "icon": "https://steamcdn-a.akamaihd.net/steamcommunity/public/images/apps/548370/a4323208c5ebdddc145ee71fae58330aeff88036.jpg",
    "icongray": "https://steamcdn-a.akamaihd.net/steamcommunity/public/images/apps/548370/87728a540ab8dcb1873453b0523faaa018d0a4e4.jpg"
  },
  {
    "name": "ACH_DEFEAT_GIANT_MAULER",
    "defaultvalue": 0,
    "displayName": "Defeat Giant Mauler",
    "hidden": 1,
    "icon": "https://steamcdn-a.akamaihd.net/steamcommunity/public/images/apps/548370/8f56a289ffa030c1874eb6639043b37169260c05.jpg",
    "icongray": "https://steamcdn-a.akamaihd.net/steamcommunity/public/images/apps/548370/981f4990da7286a10b71662f0e540608aec61afa.jpg"
  },
  {
    "name": "ACH_DEFEAT_KEEPER_OF_ENTS",
    "defaultvalue": 0,
    "displayName": "Defeat Keeper of Ents",
    "hidden": 1,
    "icon": "https://steamcdn-a.akamaihd.net/steamcommunity/public/images/apps/548370/511adecee2486090f70558c99ff54acda4778e4e.jpg",
    "icongray": "https://steamcdn-a.akamaihd.net/steamcommunity/public/images/apps/548370/1e25e75737572ca68d1a59716449964b6fb060d3.jpg"
  },
  {
    "name": "ACH_DEFEAT_FROG_KING",
    "defaultvalue": 0,
    "displayName": "Defeat Frog King",
    "hidden": 1,
    "icon": "https://steamcdn-a.akamaihd.net/steamcommunity/public/images/apps/548370/bca4170a2e2ff1b3b73980f5fa8262c1a9eeddfc.jpg",
    "icongray": "https://steamcdn-a.akamaihd.net/steamcommunity/public/images/apps/548370/352d829d03c623af6890c1be284a07ebc29ab2a1.jpg"
  },
  {
    "name": "ACH_DEFEAT_CRAZED_MINER",
    "defaultvalue": 0,
    "displayName": "Defeat Crazed Miner",
    "hidden": 1,
    "icon": "https://steamcdn-a.akamaihd.net/steamcommunity/public/images/apps/548370/eb5b464fc77878b8de368bbbedd252d502ceae91.jpg",
    "icongray": "https://steamcdn-a.akamaihd.net/steamcommunity/public/images/apps/548370/2f0f348423d4b3030a7b6e0c3d4e6f725c4447b0.jpg"
  },
  {
    "name": "ACH_DEFEAT_ELDER_TROLL_SHAMAN",
    "defaultvalue": 0,
    "displayName": "Defeat Elder Troll Shaman",
    "hidden": 1,
    "icon": "https://steamcdn-a.akamaihd.net/steamcommunity/public/images/apps/548370/191fe2be2c9adf1f3c55c093f8597a495706dc30.jpg",
    "icongray": "https://steamcdn-a.akamaihd.net/steamcommunity/public/images/apps/548370/7ec112df9171a104a83b2ca26edc0efc4d34db98.jpg"
  },
  {
    "name": "ACH_DEFEAT_MAGICAL_HORROR",
    "defaultvalue": 0,
    "displayName": "Defeat Magical Horror",
    "hidden": 1,
    "icon": "https://steamcdn-a.akamaihd.net/steamcommunity/public/images/apps/548370/77728a662a3c22d575a9a23e4b0c738e66d97b05.jpg",
    "icongray": "https://steamcdn-a.akamaihd.net/steamcommunity/public/images/apps/548370/15435048f1e238d6dbea1b3f62c3dea57da0fd6c.jpg"
  },
  {
    "name": "ACH_DEFEAT_WIZARD_OF_GEMS",
    "defaultvalue": 0,
    "displayName": "Defeat Wizard of Gems",
    "hidden": 1,
    "icon": "https://steamcdn-a.akamaihd.net/steamcommunity/public/images/apps/548370/71b931c1e78a5dd2c4b63c7a952a9d51ceaf07d0.jpg",
    "icongray": "https://steamcdn-a.akamaihd.net/steamcommunity/public/images/apps/548370/7cc5a693f968341b732363ec35b765d93d87519b.jpg"
  },
  {
    "name": "ACH_IMPRISONED_1",
    "defaultvalue": 0,
    "displayName": "Imprisoned I",
    "hidden": 0,
    "description": "Get any of your characters captured",
    "icon": "https://steamcdn-a.akamaihd.net/steamcommunity/public/images/apps/548370/9e77c9f97332c4cd3f6ed4c8454d50930c021121.jpg",
    "icongray": "https://steamcdn-a.akamaihd.net/steamcommunity/public/images/apps/548370/b7ef40a60f16ed1421ada787771f3926368843d2.jpg"
  },
  {
    "name": "ACH_IMPRISONED_2",
    "defaultvalue": 0,
    "displayName": "Imprisoned II",
    "hidden": 0,
    "description": "Get any of your characters captured 5 times",
    "icon": "https://steamcdn-a.akamaihd.net/steamcommunity/public/images/apps/548370/d011ae22557cadf4752ba1fed2d99c7d49a38bd0.jpg",
    "icongray": "https://steamcdn-a.akamaihd.net/steamcommunity/public/images/apps/548370/d630423622b767f6ebeaca900a0df03c6175894f.jpg"
  },
  {
    "name": "ACH_IMPRISONED_3",
    "defaultvalue": 0,
    "displayName": "Imprisoned III",
    "hidden": 0,
    "description": "Get any of your characters captured 10 times",
    "icon": "https://steamcdn-a.akamaihd.net/steamcommunity/public/images/apps/548370/dfaadb77fa011b1bb6dcda7ede4e5a61f38532ae.jpg",
    "icongray": "https://steamcdn-a.akamaihd.net/steamcommunity/public/images/apps/548370/d2462e4849398149bd1e33148b0d2abdf02298f7.jpg"
  },
  {
    "name": "ACH_IMPRISONED_4",
    "defaultvalue": 0,
    "displayName": "Imprisoned IV",
    "hidden": 0,
    "description": "Get any of your characters captured 25 times",
    "icon": "https://steamcdn-a.akamaihd.net/steamcommunity/public/images/apps/548370/f2a246b3fd9716ee8c75d0e99ce64219ebb875e0.jpg",
    "icongray": "https://steamcdn-a.akamaihd.net/steamcommunity/public/images/apps/548370/d05df8b121a6512337b86fed9d13967f346cef0a.jpg"
  },
  {
    "name": "ACH_IMPRISONED_5",
    "defaultvalue": 0,
    "displayName": "Imprisoned V",
    "hidden": 0,
    "description": "Get any of your characters captured 50 times",
    "icon": "https://steamcdn-a.akamaihd.net/steamcommunity/public/images/apps/548370/ec9536b9dc0d03bb449aea8940317bc78480738c.jpg",
    "icongray": "https://steamcdn-a.akamaihd.net/steamcommunity/public/images/apps/548370/49b658cc0a997d83ff62f173e471c5167817d298.jpg"
  },
  {
    "name": "ACH_IMPRISONED_6",
    "defaultvalue": 0,
    "displayName": "Imprisoned VI",
    "hidden": 0,
    "description": "Get any of your characters captured 100 times",
    "icon": "https://steamcdn-a.akamaihd.net/steamcommunity/public/images/apps/548370/4e734c4d46cf614a1fbbcd036198c97411b7fefe.jpg",
    "icongray": "https://steamcdn-a.akamaihd.net/steamcommunity/public/images/apps/548370/7508831ff47006ba6216857a4710df27e17d3d4e.jpg"
  },
  {
    "name": "ACH_WIPED",
    "defaultvalue": 0,
    "displayName": "Wiped!",
    "hidden": 0,
    "description": "Start a new party",
    "icon": "https://steamcdn-a.akamaihd.net/steamcommunity/public/images/apps/548370/ef87f98a5835ed35a214cdacf72916a3977c50f3.jpg",
    "icongray": "https://steamcdn-a.akamaihd.net/steamcommunity/public/images/apps/548370/df72cf450af6b312fd7a2b045b2d5e0939c2be14.jpg"
  },
  {
    "name": "ACH_TRAPPED",
    "defaultvalue": 0,
    "displayName": "Trapped",
    "hidden": 0,
    "description": "Die from stepping on a trap",
    "icon": "https://steamcdn-a.akamaihd.net/steamcommunity/public/images/apps/548370/763de4936a01aef80c8d049c38a90264bcd0c369.jpg",
    "icongray": "https://steamcdn-a.akamaihd.net/steamcommunity/public/images/apps/548370/9fe41353363b889cc14414d1789ddfc07f592b8f.jpg"
  },
  {
    "name": "ACH_DEFLECTED",
    "defaultvalue": 0,
    "displayName": "Deflected",
    "hidden": 0,
    "description": "Defeat enemy by reflecting it's spell",
    "icon": "https://steamcdn-a.akamaihd.net/steamcommunity/public/images/apps/548370/7f02f283cd0e927127796b4d6659c5730acd04c0.jpg",
    "icongray": "https://steamcdn-a.akamaihd.net/steamcommunity/public/images/apps/548370/102000b942b16c39c2d10e875044fe07c74f5b72.jpg"
  },
  {
    "name": "ACH_MASTER_OF_PUPPETS_1",
    "defaultvalue": 0,
    "displayName": "Master of Puppets I",
    "hidden": 0,
    "description": "Get 25 kills with your minion",
    "icon": "https://steamcdn-a.akamaihd.net/steamcommunity/public/images/apps/548370/edb7e5f591559ef566745618c36d047a10252978.jpg",
    "icongray": "https://steamcdn-a.akamaihd.net/steamcommunity/public/images/apps/548370/659ca72b5eb101ede27902e237d1f2aaed8172a3.jpg"
  },
  {
    "name": "ACH_MASTER_OF_PUPPETS_2",
    "defaultvalue": 0,
    "displayName": "Master of Puppets II",
    "hidden": 0,
    "description": "Get 50 kills with your minion",
    "icon": "https://steamcdn-a.akamaihd.net/steamcommunity/public/images/apps/548370/88f9ed9e8926906b9de7616bde39d1e9dcf3e34a.jpg",
    "icongray": "https://steamcdn-a.akamaihd.net/steamcommunity/public/images/apps/548370/ce46f4a7d7888f25fbb686c3a2ce16d91b96cb11.jpg"
  },
  {
    "name": "ACH_MASTER_OF_PUPPETS_3",
    "defaultvalue": 0,
    "displayName": "Master of Puppets III",
    "hidden": 0,
    "description": "Get 100 kills with your minion",
    "icon": "https://steamcdn-a.akamaihd.net/steamcommunity/public/images/apps/548370/c7420399c558d12335ab2cceda16fbbaa984ea62.jpg",
    "icongray": "https://steamcdn-a.akamaihd.net/steamcommunity/public/images/apps/548370/d1d9bc6a08ee9f77f55dd8e734eb695ab4bb24fc.jpg"
  },
  {
    "name": "ACH_MASTER_OF_PUPPETS_4",
    "defaultvalue": 0,
    "displayName": "Master of Puppets IV",
    "hidden": 0,
    "description": "Get 250 kills with your minion",
    "icon": "https://steamcdn-a.akamaihd.net/steamcommunity/public/images/apps/548370/a957f90d68d6623df7182ec8637afef634499c69.jpg",
    "icongray": "https://steamcdn-a.akamaihd.net/steamcommunity/public/images/apps/548370/8f8b253a78b12994c40b50ca6d7449d4037d7424.jpg"
  },
  {
    "name": "ACH_MASTER_OF_PUPPETS_5",
    "defaultvalue": 0,
    "displayName": "Master of Puppets V",
    "hidden": 0,
    "description": "Get 500 kills with your minion",
    "icon": "https://steamcdn-a.akamaihd.net/steamcommunity/public/images/apps/548370/dc7bfb96faf77a37504d041ba3707dbf6fbb1365.jpg",
    "icongray": "https://steamcdn-a.akamaihd.net/steamcommunity/public/images/apps/548370/35037c0161d1efa86f779f19ca3ba93fcddd02b9.jpg"
  },
  {
    "name": "ACH_MASTER_OF_PUPPETS_6",
    "defaultvalue": 0,
    "displayName": "Master of Puppets VI",
    "hidden": 0,
    "description": "Get 1,000 kills with your minion",
    "icon": "https://steamcdn-a.akamaihd.net/steamcommunity/public/images/apps/548370/69039c75ef468513131b6a3f5fdfd60a5db04720.jpg",
    "icongray": "https://steamcdn-a.akamaihd.net/steamcommunity/public/images/apps/548370/e4c3a2bc5c896387f9affc9b0875d1425807fd52.jpg"
  },
  {
    "name": "ACH_NARROW_ESCAPE",
    "defaultvalue": 0,
    "displayName": "Narrow Escape",
    "hidden": 0,
    "description": "Win a fight with 1 HP left",
    "icon": "https://steamcdn-a.akamaihd.net/steamcommunity/public/images/apps/548370/ebdec3ff393f47ed301a82ca5698345b537a8c96.jpg",
    "icongray": "https://steamcdn-a.akamaihd.net/steamcommunity/public/images/apps/548370/3c9c82cdbfe7bccf98e1e9bfaf8a7ac64f9d4e69.jpg"
  },
  {
    "name": "ACH_INVINCIBLE",
    "defaultvalue": 0,
    "displayName": "Invincible",
    "hidden": 0,
    "description": "Defeat an opponent without taking damage",
    "icon": "https://steamcdn-a.akamaihd.net/steamcommunity/public/images/apps/548370/785834fa7bdcc1c2fcfc8631f7a6df54cf9a9e0e.jpg",
    "icongray": "https://steamcdn-a.akamaihd.net/steamcommunity/public/images/apps/548370/d62f32f6f2e0ca149ec0bb33d066fca8ba4589e7.jpg"
  },
  {
    "name": "ACH_MASTER_OF_CAUTION",
    "defaultvalue": 0,
    "displayName": "Master of Caution",
    "hidden": 0,
    "description": "Complete a dungeon without taking any damage",
    "icon": "https://steamcdn-a.akamaihd.net/steamcommunity/public/images/apps/548370/aea8f7cd4cb25f94079dd232e9bcd3dc0f414408.jpg",
    "icongray": "https://steamcdn-a.akamaihd.net/steamcommunity/public/images/apps/548370/f238cd58bb5c43646e1f46244021021efece565c.jpg"
  },
  {
    "name": "ACH_ADEPT_OF_FIRE_DAMAGE_1",
    "defaultvalue": 0,
    "displayName": "Adept of Fire Damage I",
    "hidden": 0,
    "description": "Defeat 25 enemies with fire damage",
    "icon": "https://steamcdn-a.akamaihd.net/steamcommunity/public/images/apps/548370/a0d3a8af68a9668f15fdda3a50020c0ea9f4109d.jpg",
    "icongray": "https://steamcdn-a.akamaihd.net/steamcommunity/public/images/apps/548370/b9e22efbe7d71aaaa4bb47ce3ad7853b422f82d2.jpg"
  },
  {
    "name": "ACH_ADEPT_OF_FIRE_DAMAGE_2",
    "defaultvalue": 0,
    "displayName": "Adept of Fire Damage II",
    "hidden": 0,
    "description": "Defeat 50 enemies with fire damage",
    "icon": "https://steamcdn-a.akamaihd.net/steamcommunity/public/images/apps/548370/58dbff665bf1c92cd71a269d5e7d04f8dfca83cc.jpg",
    "icongray": "https://steamcdn-a.akamaihd.net/steamcommunity/public/images/apps/548370/82b4a1a20b278f51d05c10cb49b63899824e0729.jpg"
  },
  {
    "name": "ACH_ADEPT_OF_FIRE_DAMAGE_3",
    "defaultvalue": 0,
    "displayName": "Adept of Fire Damage III",
    "hidden": 0,
    "description": "Defeat 100 enemies with fire damage",
    "icon": "https://steamcdn-a.akamaihd.net/steamcommunity/public/images/apps/548370/0b87ab2821bdf298153bf7787e53c1508a55a262.jpg",
    "icongray": "https://steamcdn-a.akamaihd.net/steamcommunity/public/images/apps/548370/ceb5b9f56a6f324515adeb1b60f7823e11dccd52.jpg"
  },
  {
    "name": "ACH_ADEPT_OF_FIRE_DAMAGE_4",
    "defaultvalue": 0,
    "displayName": "Adept of Fire Damage IV",
    "hidden": 0,
    "description": "Defeat 250 enemies with fire damage",
    "icon": "https://steamcdn-a.akamaihd.net/steamcommunity/public/images/apps/548370/e0350063aae8d859c93781b53b1bfb915bbe9959.jpg",
    "icongray": "https://steamcdn-a.akamaihd.net/steamcommunity/public/images/apps/548370/da3a8bb96d12d37679ff47fdc924def85d24bce8.jpg"
  },
  {
    "name": "ACH_ADEPT_OF_FIRE_DAMAGE_5",
    "defaultvalue": 0,
    "displayName": "Adept of Fire Damage V",
    "hidden": 0,
    "description": "Defeat 500 enemies with fire damage",
    "icon": "https://steamcdn-a.akamaihd.net/steamcommunity/public/images/apps/548370/beedd0547d0a53180e48414203f41ccf8df0a17d.jpg",
    "icongray": "https://steamcdn-a.akamaihd.net/steamcommunity/public/images/apps/548370/06950cce5a7ffd6be8d7d6dfdfdfccf6053de26c.jpg"
  },
  {
    "name": "ACH_ADEPT_OF_FIRE_DAMAGE_6",
    "defaultvalue": 0,
    "displayName": "Adept of Fire Damage VI",
    "hidden": 0,
    "description": "Defeat 1,000 enemies with fire damage",
    "icon": "https://steamcdn-a.akamaihd.net/steamcommunity/public/images/apps/548370/a8ae9acac8792a325dcbb9909f7904cac3a52f2b.jpg",
    "icongray": "https://steamcdn-a.akamaihd.net/steamcommunity/public/images/apps/548370/ac3ca63ef141a420bb5c56c2de4c3a9e1b54bc2e.jpg"
  },
  {
    "name": "ACH_ADEPT_OF_WATER_DAMAGE_1",
    "defaultvalue": 0,
    "displayName": "Adept of Water Damage I",
    "hidden": 0,
    "description": "Defeat 25 enemies with water damage",
    "icon": "https://steamcdn-a.akamaihd.net/steamcommunity/public/images/apps/548370/eaa9e8d53c159caa6c734864905db197155e4814.jpg",
    "icongray": "https://steamcdn-a.akamaihd.net/steamcommunity/public/images/apps/548370/6a1a05f7967b8ec3e805ccaa52da40befc42111d.jpg"
  },
  {
    "name": "ACH_ADEPT_OF_WATER_DAMAGE_2",
    "defaultvalue": 0,
    "displayName": "Adept of Water Damage II",
    "hidden": 0,
    "description": "Defeat 50 enemies with water damage",
    "icon": "https://steamcdn-a.akamaihd.net/steamcommunity/public/images/apps/548370/62f508095ed60ea6a2964087b5f93c9e82b4c9a5.jpg",
    "icongray": "https://steamcdn-a.akamaihd.net/steamcommunity/public/images/apps/548370/ed5bd9f4ab0942ee944ae6cbd58d5efc78863365.jpg"
  },
  {
    "name": "ACH_ADEPT_OF_WATER_DAMAGE_3",
    "defaultvalue": 0,
    "displayName": "Adept of Water Damage III",
    "hidden": 0,
    "description": "Defeat 100 enemies with water damage",
    "icon": "https://steamcdn-a.akamaihd.net/steamcommunity/public/images/apps/548370/23938f755af5945f425f92bc9dd68ab7d966acf8.jpg",
    "icongray": "https://steamcdn-a.akamaihd.net/steamcommunity/public/images/apps/548370/3acf7392d0951c4a991cf2a9e840d7e9a9a0a22d.jpg"
  },
  {
    "name": "ACH_ADEPT_OF_WATER_DAMAGE_4",
    "defaultvalue": 0,
    "displayName": "Adept of Water Damage IV",
    "hidden": 0,
    "description": "Defeat 250 enemies with water damage",
    "icon": "https://steamcdn-a.akamaihd.net/steamcommunity/public/images/apps/548370/f726203f3293aab51a32f6b38df469805d921096.jpg",
    "icongray": "https://steamcdn-a.akamaihd.net/steamcommunity/public/images/apps/548370/4cf699a033d9fe5c2cb06caf27e0160362cf390a.jpg"
  },
  {
    "name": "ACH_ADEPT_OF_WATER_DAMAGE_5",
    "defaultvalue": 0,
    "displayName": "Adept of Water Damage V",
    "hidden": 0,
    "description": "Defeat 500 enemies with water damage",
    "icon": "https://steamcdn-a.akamaihd.net/steamcommunity/public/images/apps/548370/c09991f216d368085580855016cb882db7d57dd3.jpg",
    "icongray": "https://steamcdn-a.akamaihd.net/steamcommunity/public/images/apps/548370/d008b0ea8b831f7e6bae1169f26670cb13890f8a.jpg"
  },
  {
    "name": "ACH_ADEPT_OF_WATER_DAMAGE_6",
    "defaultvalue": 0,
    "displayName": "Adept of Water Damage VI",
    "hidden": 0,
    "description": "Defeat 1,000 enemies with water damage",
    "icon": "https://steamcdn-a.akamaihd.net/steamcommunity/public/images/apps/548370/d02132f5426f2ef405ab551d104e69cb9470dd68.jpg",
    "icongray": "https://steamcdn-a.akamaihd.net/steamcommunity/public/images/apps/548370/a3aabcc70ba9edb93e78fb6c10c594deaecee8fc.jpg"
  },
  {
    "name": "ACH_ADEPT_OF_AIR_DAMAGE_1",
    "defaultvalue": 0,
    "displayName": "Adept of Air Damage I",
    "hidden": 0,
    "description": "Defeat 25 enemies with air damage",
    "icon": "https://steamcdn-a.akamaihd.net/steamcommunity/public/images/apps/548370/0fa5ae30d87aa2c8040e2b2c40c3a2cc8f8133a2.jpg",
    "icongray": "https://steamcdn-a.akamaihd.net/steamcommunity/public/images/apps/548370/947e626b9a44557563fd056d2f97d0aa4e2a8e77.jpg"
  },
  {
    "name": "ACH_ADEPT_OF_AIR_DAMAGE_2",
    "defaultvalue": 0,
    "displayName": "Adept of Air Damage II",
    "hidden": 0,
    "description": "Defeat 50 enemies with air damage",
    "icon": "https://steamcdn-a.akamaihd.net/steamcommunity/public/images/apps/548370/429a946209a1648f3124b9694a7a9a928f33e98d.jpg",
    "icongray": "https://steamcdn-a.akamaihd.net/steamcommunity/public/images/apps/548370/605322cae9c76f93c4dfbb130037e333b442f27d.jpg"
  },
  {
    "name": "ACH_ADEPT_OF_AIR_DAMAGE_3",
    "defaultvalue": 0,
    "displayName": "Adept of Air Damage III",
    "hidden": 0,
    "description": "Defeat 100 enemies with air damage",
    "icon": "https://steamcdn-a.akamaihd.net/steamcommunity/public/images/apps/548370/d1ae9ebac52c7f16347827480423c7c40c0792ac.jpg",
    "icongray": "https://steamcdn-a.akamaihd.net/steamcommunity/public/images/apps/548370/10eb354aab57b6b4202332bd640315271abc2c8a.jpg"
  },
  {
    "name": "ACH_ADEPT_OF_AIR_DAMAGE_4",
    "defaultvalue": 0,
    "displayName": "Adept of Air Damage IV",
    "hidden": 0,
    "description": "Defeat 250 enemies with air damage",
    "icon": "https://steamcdn-a.akamaihd.net/steamcommunity/public/images/apps/548370/80d94d5db75e5a0047f4e3cc0ae74ae49e710ca3.jpg",
    "icongray": "https://steamcdn-a.akamaihd.net/steamcommunity/public/images/apps/548370/4c156317f70bfe529c016e0154424492aff40409.jpg"
  },
  {
    "name": "ACH_ADEPT_OF_AIR_DAMAGE_5",
    "defaultvalue": 0,
    "displayName": "Adept of Air Damage V",
    "hidden": 0,
    "description": "Defeat 500 enemies with air damage",
    "icon": "https://steamcdn-a.akamaihd.net/steamcommunity/public/images/apps/548370/be989d1dd732bccdbbe6f22feb94bc6dcd2dd865.jpg",
    "icongray": "https://steamcdn-a.akamaihd.net/steamcommunity/public/images/apps/548370/217700fd30d144bb885a565f9919c534d991028b.jpg"
  },
  {
    "name": "ACH_ADEPT_OF_AIR_DAMAGE_6",
    "defaultvalue": 0,
    "displayName": "Adept of Air Damage VI",
    "hidden": 0,
    "description": "Defeat 1,000 enemies with air damage",
    "icon": "https://steamcdn-a.akamaihd.net/steamcommunity/public/images/apps/548370/ed4458e54b7a258b29793d1f5fa2c76cf8400ded.jpg",
    "icongray": "https://steamcdn-a.akamaihd.net/steamcommunity/public/images/apps/548370/4d3c37e39036121757f608ba42028201a7f5f3ec.jpg"
  },
  {
    "name": "ACH_ADEPT_OF_VOID_DAMAGE_1",
    "defaultvalue": 0,
    "displayName": "Adept of Void Damage I",
    "hidden": 0,
    "description": "Defeat 25 enemies with void damage",
    "icon": "https://steamcdn-a.akamaihd.net/steamcommunity/public/images/apps/548370/8c8c1867e0149f591d3975f5c225dcaf90073546.jpg",
    "icongray": "https://steamcdn-a.akamaihd.net/steamcommunity/public/images/apps/548370/72c905b8de0fa63eb894e643f34447daa05397b0.jpg"
  },
  {
    "name": "ACH_ADEPT_OF_VOID_DAMAGE_2",
    "defaultvalue": 0,
    "displayName": "Adept of Void Damage II",
    "hidden": 0,
    "description": "Defeat 50 enemies with void damage",
    "icon": "https://steamcdn-a.akamaihd.net/steamcommunity/public/images/apps/548370/f2c1ebececda7090d45933a9c1f6690e37432f11.jpg",
    "icongray": "https://steamcdn-a.akamaihd.net/steamcommunity/public/images/apps/548370/e41726d62ae1b5702d562613be8b74204b2e0da3.jpg"
  },
  {
    "name": "ACH_ADEPT_OF_VOID_DAMAGE_3",
    "defaultvalue": 0,
    "displayName": "Adept of Void Damage III",
    "hidden": 0,
    "description": "Defeat 100 enemies with void damage",
    "icon": "https://steamcdn-a.akamaihd.net/steamcommunity/public/images/apps/548370/e89855b09539a2dd05c4db48e61f9b2cda241705.jpg",
    "icongray": "https://steamcdn-a.akamaihd.net/steamcommunity/public/images/apps/548370/5a4937ed22767703452f743ff288e4172f1d3822.jpg"
  },
  {
    "name": "ACH_ADEPT_OF_VOID_DAMAGE_4",
    "defaultvalue": 0,
    "displayName": "Adept of Void Damage IV",
    "hidden": 0,
    "description": "Defeat 250 enemies with void damage",
    "icon": "https://steamcdn-a.akamaihd.net/steamcommunity/public/images/apps/548370/1ee5153166436468cf27d76e065f4cc05261120e.jpg",
    "icongray": "https://steamcdn-a.akamaihd.net/steamcommunity/public/images/apps/548370/b680844fbd7897b45a98f2c689ec8c43f8fa06bc.jpg"
  },
  {
    "name": "ACH_ADEPT_OF_VOID_DAMAGE_5",
    "defaultvalue": 0,
    "displayName": "Adept of Void Damage V",
    "hidden": 0,
    "description": "Defeat 500 enemies with void damage",
    "icon": "https://steamcdn-a.akamaihd.net/steamcommunity/public/images/apps/548370/7242024ec5a0023456da4ee5ce0625bf478e9b3a.jpg",
    "icongray": "https://steamcdn-a.akamaihd.net/steamcommunity/public/images/apps/548370/e4ce5efd7ff88dbbc7872bc27786716bdbb56491.jpg"
  },
  {
    "name": "ACH_ADEPT_OF_VOID_DAMAGE_6",
    "defaultvalue": 0,
    "displayName": "Adept of Void Damage VI",
    "hidden": 0,
    "description": "Defeat 1,000 enemies with void damage",
    "icon": "https://steamcdn-a.akamaihd.net/steamcommunity/public/images/apps/548370/e5c5a8cf666f9be149123893d0fe9a6ced016dee.jpg",
    "icongray": "https://steamcdn-a.akamaihd.net/steamcommunity/public/images/apps/548370/2d8116d1372bd0bbab5a52b670349e8343abae34.jpg"
  },
  {
    "name": "ACH_ADEPT_OF_PHYSICAL_DAMAGE_1",
    "defaultvalue": 0,
    "displayName": "Adept of Physical Damage I",
    "hidden": 0,
    "description": "Defeat 25 enemies with physical damage",
    "icon": "https://steamcdn-a.akamaihd.net/steamcommunity/public/images/apps/548370/c03ebee69d4e7f7a450e55de5f40a8399b48a46d.jpg",
    "icongray": "https://steamcdn-a.akamaihd.net/steamcommunity/public/images/apps/548370/204406f67872b0acede11eb1beccc76a9b56e4ad.jpg"
  },
  {
    "name": "ACH_ADEPT_OF_PHYSICAL_DAMAGE_2",
    "defaultvalue": 0,
    "displayName": "Adept of Physical Damage II",
    "hidden": 0,
    "description": "Defeat 50 enemies with physical damage",
    "icon": "https://steamcdn-a.akamaihd.net/steamcommunity/public/images/apps/548370/070e0d96a0ca76cc270b19472db5b7170e0b5c65.jpg",
    "icongray": "https://steamcdn-a.akamaihd.net/steamcommunity/public/images/apps/548370/6d1e5e41bc2ffcd80a654ae9b52873b3f40b63d7.jpg"
  },
  {
    "name": "ACH_ADEPT_OF_PHYSICAL_DAMAGE_3",
    "defaultvalue": 0,
    "displayName": "Adept of Physical Damage III",
    "hidden": 0,
    "description": "Defeat 100 enemies with physical damage",
    "icon": "https://steamcdn-a.akamaihd.net/steamcommunity/public/images/apps/548370/f13184028ccf6f086f60cc43401d170478cf0210.jpg",
    "icongray": "https://steamcdn-a.akamaihd.net/steamcommunity/public/images/apps/548370/bc689bea4dab817e111333b123700db20756937c.jpg"
  },
  {
    "name": "ACH_ADEPT_OF_PHYSICAL_DAMAGE_4",
    "defaultvalue": 0,
    "displayName": "Adept of Physical Damage IV",
    "hidden": 0,
    "description": "Defeat 250 enemies with physical damage",
    "icon": "https://steamcdn-a.akamaihd.net/steamcommunity/public/images/apps/548370/11e88e895b7419fdcfed7b94c1e10545b70142ee.jpg",
    "icongray": "https://steamcdn-a.akamaihd.net/steamcommunity/public/images/apps/548370/3cd630c508e3a505e55d8d96f4a1ef28f0e35d85.jpg"
  },
  {
    "name": "ACH_ADEPT_OF_PHYSICAL_DAMAGE_5",
    "defaultvalue": 0,
    "displayName": "Adept of Physical Damage V",
    "hidden": 0,
    "description": "Defeat 500 enemies with physical damage",
    "icon": "https://steamcdn-a.akamaihd.net/steamcommunity/public/images/apps/548370/aedbece9e29de4b96898b13b9ac0d7e05c0ac931.jpg",
    "icongray": "https://steamcdn-a.akamaihd.net/steamcommunity/public/images/apps/548370/f2b005887e17f261808f710b59020e638986dee8.jpg"
  },
  {
    "name": "ACH_ADEPT_OF_PHYSICAL_DAMAGE_6",
    "defaultvalue": 0,
    "displayName": "Adept of Physical Damage VI",
    "hidden": 0,
    "description": "Defeat 1,000 enemies with physical damage",
    "icon": "https://steamcdn-a.akamaihd.net/steamcommunity/public/images/apps/548370/861218c79b2fd1fc9a7f6f850a81774e23a7da64.jpg",
    "icongray": "https://steamcdn-a.akamaihd.net/steamcommunity/public/images/apps/548370/6dfc523419a9bdf28c04e0e9ff149609cf0b9e1e.jpg"
  },
  {
    "name": "ACH_ADEPT_OF_EARTH_DAMAGE_1",
    "defaultvalue": 0,
    "displayName": "Adept of Earth Damage I",
    "hidden": 0,
    "description": "Defeat 25 enemies with earth damage",
    "icon": "https://steamcdn-a.akamaihd.net/steamcommunity/public/images/apps/548370/33577bbd5fd8491dcddd7c1e40229ff2fa9f9c1a.jpg",
    "icongray": "https://steamcdn-a.akamaihd.net/steamcommunity/public/images/apps/548370/0fed03763d2f58571dfceb9f5bdf4a010e4dbbc1.jpg"
  },
  {
    "name": "ACH_ADEPT_OF_EARTH_DAMAGE_2",
    "defaultvalue": 0,
    "displayName": "Adept of Earth Damage II",
    "hidden": 0,
    "description": "Defeat 50 enemies with earth damage",
    "icon": "https://steamcdn-a.akamaihd.net/steamcommunity/public/images/apps/548370/2be3096206abb627217b7a060cb5305d3b97c480.jpg",
    "icongray": "https://steamcdn-a.akamaihd.net/steamcommunity/public/images/apps/548370/6d84a405046289aa34e2fe86e1320f6b4e09b259.jpg"
  },
  {
    "name": "ACH_ADEPT_OF_EARTH_DAMAGE_3",
    "defaultvalue": 0,
    "displayName": "Adept of Earth Damage III",
    "hidden": 0,
    "description": "Defeat 100 enemies with earth damage",
    "icon": "https://steamcdn-a.akamaihd.net/steamcommunity/public/images/apps/548370/3edaf33dc5c39e9f272f0883daa9fcaf308def8f.jpg",
    "icongray": "https://steamcdn-a.akamaihd.net/steamcommunity/public/images/apps/548370/8d32aa854ca32bc398d7f254c5205e146db6e8b6.jpg"
  },
  {
    "name": "ACH_ADEPT_OF_EARTH_DAMAGE_4",
    "defaultvalue": 0,
    "displayName": "Adept of Earth Damage IV",
    "hidden": 0,
    "description": "Defeat 250 enemies with earth damage",
    "icon": "https://steamcdn-a.akamaihd.net/steamcommunity/public/images/apps/548370/073f3514438bf073749c7dde4fcf72a300d1f855.jpg",
    "icongray": "https://steamcdn-a.akamaihd.net/steamcommunity/public/images/apps/548370/12e3ca8197d9093f0efc707bfdc3cd8abe626e40.jpg"
  },
  {
    "name": "ACH_ADEPT_OF_EARTH_DAMAGE_5",
    "defaultvalue": 0,
    "displayName": "Adept of Earth Damage V",
    "hidden": 0,
    "description": "Defeat 500 enemies with earth damage",
    "icon": "https://steamcdn-a.akamaihd.net/steamcommunity/public/images/apps/548370/d8d7866a6d19448016e22edb6850766360790bc3.jpg",
    "icongray": "https://steamcdn-a.akamaihd.net/steamcommunity/public/images/apps/548370/e7ba4c9e410c45f3f82f043c2e85087f3145ddf0.jpg"
  },
  {
    "name": "ACH_ADEPT_OF_EARTH_DAMAGE_6",
    "defaultvalue": 0,
    "displayName": "Adept of Earth Damage VI",
    "hidden": 0,
    "description": "Defeat 1,000 enemies with earth damage",
    "icon": "https://steamcdn-a.akamaihd.net/steamcommunity/public/images/apps/548370/4b313148074f9c50ea3daccedf54ea81110245ec.jpg",
    "icongray": "https://steamcdn-a.akamaihd.net/steamcommunity/public/images/apps/548370/810c54b583960486b767c866696b4d9786e6bfae.jpg"
  },
  {
    "name": "ACH_WATER_GEM_ENTHUSIAST_1",
    "defaultvalue": 0,
    "displayName": "Water Gem Enthusiast I",
    "hidden": 0,
    "description": "Use 5 water gems to level up skills",
    "icon": "https://steamcdn-a.akamaihd.net/steamcommunity/public/images/apps/548370/853feb8a605865bf7d6feae73d5899b6bfe8e3d7.jpg",
    "icongray": "https://steamcdn-a.akamaihd.net/steamcommunity/public/images/apps/548370/b1818d17601cc576568a727d7a91ebccabf3582a.jpg"
  },
  {
    "name": "ACH_WATER_GEM_ENTHUSIAST_2",
    "defaultvalue": 0,
    "displayName": "Water Gem Enthusiast II",
    "hidden": 0,
    "description": "Use 10 water gems to level up skills",
    "icon": "https://steamcdn-a.akamaihd.net/steamcommunity/public/images/apps/548370/09de5cc5c0e83481a1494e566890ad64e7c22ee3.jpg",
    "icongray": "https://steamcdn-a.akamaihd.net/steamcommunity/public/images/apps/548370/e867a0d89c6ef6630f62d75bb74b880e87ab39ac.jpg"
  },
  {
    "name": "ACH_WATER_GEM_ENTHUSIAST_3",
    "defaultvalue": 0,
    "displayName": "Water Gem Enthusiast III",
    "hidden": 0,
    "description": "Use 25 water gems to level up skills",
    "icon": "https://steamcdn-a.akamaihd.net/steamcommunity/public/images/apps/548370/21cfc9186362efff7da5964028bde4a7dc182d85.jpg",
    "icongray": "https://steamcdn-a.akamaihd.net/steamcommunity/public/images/apps/548370/b9f0b40675ee73089d3ab459ababa859d3dbcefb.jpg"
  },
  {
    "name": "ACH_WATER_GEM_ENTHUSIAST_4",
    "defaultvalue": 0,
    "displayName": "Water Gem Enthusiast IV",
    "hidden": 0,
    "description": "Use 50 water gems to level up skills",
    "icon": "https://steamcdn-a.akamaihd.net/steamcommunity/public/images/apps/548370/ce5838b1bd0f35797d8f24528ab4f56f655fedab.jpg",
    "icongray": "https://steamcdn-a.akamaihd.net/steamcommunity/public/images/apps/548370/b9f0b40675ee73089d3ab459ababa859d3dbcefb.jpg"
  },
  {
    "name": "ACH_WATER_GEM_ENTHUSIAST_5",
    "defaultvalue": 0,
    "displayName": "Water Gem Enthusiast V",
    "hidden": 0,
    "description": "Use 100 water gems to level up skills.",
    "icon": "https://steamcdn-a.akamaihd.net/steamcommunity/public/images/apps/548370/b0a618a9a3d23a0a07bab5aade7e149920890889.jpg",
    "icongray": "https://steamcdn-a.akamaihd.net/steamcommunity/public/images/apps/548370/f7a1341d831476c61e040bf549969a4fc9daa268.jpg"
  },
  {
    "name": "ACH_WATER_GEM_ENTHUSIAST_6",
    "defaultvalue": 0,
    "displayName": "Water Gem Enthusiast VI",
    "hidden": 0,
    "description": "Use 250 water gems to level up skills",
    "icon": "https://steamcdn-a.akamaihd.net/steamcommunity/public/images/apps/548370/edba91d828b98946e7097863c7e4d2e975cb9354.jpg",
    "icongray": "https://steamcdn-a.akamaihd.net/steamcommunity/public/images/apps/548370/63439a152998dfe93e23eed89c6dd7d9060beced.jpg"
  },
  {
    "name": "ACH_WATER_GEM_ENTHUSIAST_7",
    "defaultvalue": 0,
    "displayName": "Water Gem Enthusiast VII",
    "hidden": 0,
    "description": "Use 500 water gems to level up skills",
    "icon": "https://steamcdn-a.akamaihd.net/steamcommunity/public/images/apps/548370/a64b3506e81e41855698bf61070db792f175fb5a.jpg",
    "icongray": "https://steamcdn-a.akamaihd.net/steamcommunity/public/images/apps/548370/4edb48c66be600bfab83ea97b1ab4b024344bcac.jpg"
  },
  {
    "name": "ACH_WATER_GEM_ENTHUSIAST_8",
    "defaultvalue": 0,
    "displayName": "Water Gem Enthusiast VIII",
    "hidden": 0,
    "description": "Use 1,000 water gems to level up skills",
    "icon": "https://steamcdn-a.akamaihd.net/steamcommunity/public/images/apps/548370/17e3265e8d61ce925e7310c855772e350ca4a92d.jpg",
    "icongray": "https://steamcdn-a.akamaihd.net/steamcommunity/public/images/apps/548370/b8768497227f18f0b8dbd2bbf28d1680cccb6c8f.jpg"
  },
  {
    "name": "ACH_FIRE_GEM_ENTHUSIAST_1",
    "defaultvalue": 0,
    "displayName": "Fire Gem Enthusiast I",
    "hidden": 0,
    "description": "Use 5 fire gems to level up skills",
    "icon": "https://steamcdn-a.akamaihd.net/steamcommunity/public/images/apps/548370/cd641d8100fe9ba7e6fc6cca4d0d11232f812ba3.jpg",
    "icongray": "https://steamcdn-a.akamaihd.net/steamcommunity/public/images/apps/548370/c8b3690b41ee2acd23fda12d15b392c164a3de66.jpg"
  },
  {
    "name": "ACH_FIRE_GEM_ENTHUSIAST_2",
    "defaultvalue": 0,
    "displayName": "Fire Gem Enthusiast II",
    "hidden": 0,
    "description": "Use 10 fire gems to level up skills",
    "icon": "https://steamcdn-a.akamaihd.net/steamcommunity/public/images/apps/548370/9005fbebe623bf7d09da8a4b0960392661590a2f.jpg",
    "icongray": "https://steamcdn-a.akamaihd.net/steamcommunity/public/images/apps/548370/e4db2762274cc90d996f4833e5f3dbe45350c64c.jpg"
  },
  {
    "name": "ACH_FIRE_GEM_ENTHUSIAST_3",
    "defaultvalue": 0,
    "displayName": "Fire Gem Enthusiast III",
    "hidden": 0,
    "description": "Use 25 fire gems to level up skills",
    "icon": "https://steamcdn-a.akamaihd.net/steamcommunity/public/images/apps/548370/07f08711fb059dfcf227da5f36d408bcf8c79780.jpg",
    "icongray": "https://steamcdn-a.akamaihd.net/steamcommunity/public/images/apps/548370/d524adc5a6976efedbd6b6f6f8febafcaa539b82.jpg"
  },
  {
    "name": "ACH_FIRE_GEM_ENTHUSIAST_4",
    "defaultvalue": 0,
    "displayName": "Fire Gem Enthusiast IV",
    "hidden": 0,
    "description": "Use 50 fire gems to level up skills",
    "icon": "https://steamcdn-a.akamaihd.net/steamcommunity/public/images/apps/548370/c984d95e18f070f638b8aa8178037caefe680b31.jpg",
    "icongray": "https://steamcdn-a.akamaihd.net/steamcommunity/public/images/apps/548370/7afa906626c472b3e0286deb624a93dfb67c5241.jpg"
  },
  {
    "name": "ACH_FIRE_GEM_ENTHUSIAST_5",
    "defaultvalue": 0,
    "displayName": "Fire Gem Enthusiast V",
    "hidden": 0,
    "description": "Use 100 fire gems to level up skills",
    "icon": "https://steamcdn-a.akamaihd.net/steamcommunity/public/images/apps/548370/e58c176f3d656b48697764c91e9f97d8db59d46a.jpg",
    "icongray": "https://steamcdn-a.akamaihd.net/steamcommunity/public/images/apps/548370/e8d5d1850643c3574e613a4bda885efb06262988.jpg"
  },
  {
    "name": "ACH_FIRE_GEM_ENTHUSIAST_6",
    "defaultvalue": 0,
    "displayName": "Fire Gem Enthusiast VI",
    "hidden": 0,
    "description": "Use 250 fire gems to level up skills",
    "icon": "https://steamcdn-a.akamaihd.net/steamcommunity/public/images/apps/548370/280770479800b254412e1f892f6e0a32a99efea5.jpg",
    "icongray": "https://steamcdn-a.akamaihd.net/steamcommunity/public/images/apps/548370/690af5e03b6fab9c1be013d8eea8db1dd6024d00.jpg"
  },
  {
    "name": "ACH_FIRE_GEM_ENTHUSIAST_7",
    "defaultvalue": 0,
    "displayName": "Fire Gem Enthusiast VII",
    "hidden": 0,
    "description": "Use 500 fire gems to level up skills",
    "icon": "https://steamcdn-a.akamaihd.net/steamcommunity/public/images/apps/548370/fa941c98713d38b4cbd607c7196b4314639e5dd3.jpg",
    "icongray": "https://steamcdn-a.akamaihd.net/steamcommunity/public/images/apps/548370/b756f8fcceed0b165d8c2ff469ac427c448cd1b1.jpg"
  },
  {
    "name": "ACH_FIRE_GEM_ENTHUSIAST_8",
    "defaultvalue": 0,
    "displayName": "Fire Gem Enthusiast VIII",
    "hidden": 0,
    "description": "Use 1,000 fire gems to level up skills",
    "icon": "https://steamcdn-a.akamaihd.net/steamcommunity/public/images/apps/548370/65579be412a006f696d0a76b403f4a6029edabb8.jpg",
    "icongray": "https://steamcdn-a.akamaihd.net/steamcommunity/public/images/apps/548370/e5f88e8e13051186a1cf000e45c8e21d8bb2dcce.jpg"
  },
  {
    "name": "ACH_AIR_GEM_ENTHUSIAST_1",
    "defaultvalue": 0,
    "displayName": "Air Gem Enthusiast I",
    "hidden": 0,
    "description": "Use 5 air gems to level up skills",
    "icon": "https://steamcdn-a.akamaihd.net/steamcommunity/public/images/apps/548370/9d60df1fd3e4a2d35d5eec15d170ee620a62b019.jpg",
    "icongray": "https://steamcdn-a.akamaihd.net/steamcommunity/public/images/apps/548370/0d15aae50649dfaa08701e70cbb81d5bf32f2c22.jpg"
  },
  {
    "name": "ACH_AIR_GEM_ENTHUSIAST_2",
    "defaultvalue": 0,
    "displayName": "Air Gem Enthusiast II",
    "hidden": 0,
    "description": "Use 10 air gems to level up skills",
    "icon": "https://steamcdn-a.akamaihd.net/steamcommunity/public/images/apps/548370/ddd0df28f0ca212574800f4ab2885a938f11b8c3.jpg",
    "icongray": "https://steamcdn-a.akamaihd.net/steamcommunity/public/images/apps/548370/401592628f821d0ba4d62dc92fe17f164eed99e6.jpg"
  },
  {
    "name": "ACH_AIR_GEM_ENTHUSIAST_3",
    "defaultvalue": 0,
    "displayName": "Air Gem Enthusiast III",
    "hidden": 0,
    "description": "Use 25 air gems to level up skills",
    "icon": "https://steamcdn-a.akamaihd.net/steamcommunity/public/images/apps/548370/1ed275cca067a771afb203d2f70f0ae66229d254.jpg",
    "icongray": "https://steamcdn-a.akamaihd.net/steamcommunity/public/images/apps/548370/9d5517ebac861910aa39c156900eec4eb57b86da.jpg"
  },
  {
    "name": "ACH_AIR_GEM_ENTHUSIAST_4",
    "defaultvalue": 0,
    "displayName": "Air Gem Enthusiast IV",
    "hidden": 0,
    "description": "Use 50 air gems to level up skills",
    "icon": "https://steamcdn-a.akamaihd.net/steamcommunity/public/images/apps/548370/a1ae751a27a42dcef2345fdeb71e56628961e33a.jpg",
    "icongray": "https://steamcdn-a.akamaihd.net/steamcommunity/public/images/apps/548370/1fce955be370af77c4f893e8112e19a7a9988276.jpg"
  },
  {
    "name": "ACH_AIR_GEM_ENTHUSIAST_5",
    "defaultvalue": 0,
    "displayName": "Air Gem Enthusiast V",
    "hidden": 0,
    "description": "Use 100 air gems to level up skills",
    "icon": "https://steamcdn-a.akamaihd.net/steamcommunity/public/images/apps/548370/a5ab82b74300cec18af389f3b9eb169d9b888d84.jpg",
    "icongray": "https://steamcdn-a.akamaihd.net/steamcommunity/public/images/apps/548370/99afc1b19dde48565fc48de6937395cc6dac5775.jpg"
  },
  {
    "name": "ACH_AIR_GEM_ENTHUSIAST_6",
    "defaultvalue": 0,
    "displayName": "Air Gem Enthusiast VI",
    "hidden": 0,
    "description": "Use 250 air gems to level up skills",
    "icon": "https://steamcdn-a.akamaihd.net/steamcommunity/public/images/apps/548370/d3e519775fc9426bfe189862b74029c6bbd7c1e5.jpg",
    "icongray": "https://steamcdn-a.akamaihd.net/steamcommunity/public/images/apps/548370/a5126cadb01c09eef790e80cee0a969afab11569.jpg"
  },
  {
    "name": "ACH_AIR_GEM_ENTHUSIAST_7",
    "defaultvalue": 0,
    "displayName": "Air Gem Enthusiast VII",
    "hidden": 0,
    "description": "Use 500 air gems to level up skills",
    "icon": "https://steamcdn-a.akamaihd.net/steamcommunity/public/images/apps/548370/57ea6453e18b25238de6146746228d030eb7e102.jpg",
    "icongray": "https://steamcdn-a.akamaihd.net/steamcommunity/public/images/apps/548370/13da923647b1e42ac20dedf529fb75b75fb8ce6d.jpg"
  },
  {
    "name": "ACH_AIR_GEM_ENTHUSIAST_8",
    "defaultvalue": 0,
    "displayName": "Air Gem Enthusiast VIII",
    "hidden": 0,
    "description": "Use 1,000 air gems to level up skills",
    "icon": "https://steamcdn-a.akamaihd.net/steamcommunity/public/images/apps/548370/21821de99e6239d5e2a676804d9a24f3639e9f58.jpg",
    "icongray": "https://steamcdn-a.akamaihd.net/steamcommunity/public/images/apps/548370/748daac84f1d198da65c423ec0018727109502b1.jpg"
  },
  {
    "name": "ACH_EARTH_GEM_ENTHUSIAST_1",
    "defaultvalue": 0,
    "displayName": "Earth Gem Enthusiast I",
    "hidden": 0,
    "description": "Use 5 earth gems to level up skills",
    "icon": "https://steamcdn-a.akamaihd.net/steamcommunity/public/images/apps/548370/ab4e05a1cf048e0daee6ed877a837f42a358ae48.jpg",
    "icongray": "https://steamcdn-a.akamaihd.net/steamcommunity/public/images/apps/548370/f2f2d24c92234c85f308fd55d8fe9c0aa1027c2c.jpg"
  },
  {
    "name": "ACH_EARTH_GEM_ENTHUSIAST_2",
    "defaultvalue": 0,
    "displayName": "Earth Gem Enthusiast II",
    "hidden": 0,
    "description": "Use 10 earth gems to level up skills",
    "icon": "https://steamcdn-a.akamaihd.net/steamcommunity/public/images/apps/548370/8e553867d4a695eab9390601ec58b7687a5f2060.jpg",
    "icongray": "https://steamcdn-a.akamaihd.net/steamcommunity/public/images/apps/548370/3d3a6979ecf4af97fcfb9b1d17f98af2f914c5d7.jpg"
  },
  {
    "name": "ACH_EARTH_GEM_ENTHUSIAST_3",
    "defaultvalue": 0,
    "displayName": "Earth Gem Enthusiast III",
    "hidden": 0,
    "description": "Use 25 earth gems to level up skills",
    "icon": "https://steamcdn-a.akamaihd.net/steamcommunity/public/images/apps/548370/e0343ced8e1243aa96c977e7ad896d67a66169a1.jpg",
    "icongray": "https://steamcdn-a.akamaihd.net/steamcommunity/public/images/apps/548370/66d3db7b39f4cf478d09382ccd197060924db545.jpg"
  },
  {
    "name": "ACH_EARTH_GEM_ENTHUSIAST_4",
    "defaultvalue": 0,
    "displayName": "Earth Gem Enthusiast IV",
    "hidden": 0,
    "description": "Use 50 earth gems to level up skills",
    "icon": "https://steamcdn-a.akamaihd.net/steamcommunity/public/images/apps/548370/36903139389733c83cdb354f08b2851a0a8a1065.jpg",
    "icongray": "https://steamcdn-a.akamaihd.net/steamcommunity/public/images/apps/548370/1e15f8617f0e379652993830f70b2f465c053594.jpg"
  },
  {
    "name": "ACH_EARTH_GEM_ENTHUSIAST_5",
    "defaultvalue": 0,
    "displayName": "Earth Gem Enthusiast V",
    "hidden": 0,
    "description": "Use 100 earth gems to level up skills",
    "icon": "https://steamcdn-a.akamaihd.net/steamcommunity/public/images/apps/548370/1d139bf24158bc922dd33f5d3961485dee0f693c.jpg",
    "icongray": "https://steamcdn-a.akamaihd.net/steamcommunity/public/images/apps/548370/c4f60dba7ed3dcc3ebda061f7d17548ad62e9b3e.jpg"
  },
  {
    "name": "ACH_EARTH_GEM_ENTHUSIAST_6",
    "defaultvalue": 0,
    "displayName": "Earth Gem Enthusiast VI",
    "hidden": 0,
    "description": "Use 250 earth gems to level up skills",
    "icon": "https://steamcdn-a.akamaihd.net/steamcommunity/public/images/apps/548370/7801408ad29271daeef6b7ef7a930897e806cd08.jpg",
    "icongray": "https://steamcdn-a.akamaihd.net/steamcommunity/public/images/apps/548370/6a8f9af1799e6b7b01ebfb6f75ce5bf2719023f6.jpg"
  },
  {
    "name": "ACH_EARTH_GEM_ENTHUSIAST_7",
    "defaultvalue": 0,
    "displayName": "Earth Gem Enthusiast VII",
    "hidden": 0,
    "description": "Use 500 earth gems to level up skills",
    "icon": "https://steamcdn-a.akamaihd.net/steamcommunity/public/images/apps/548370/bb9db77dbfdb3587bdb5d2e85baa69194222ff8c.jpg",
    "icongray": "https://steamcdn-a.akamaihd.net/steamcommunity/public/images/apps/548370/d37a09cb2795496d3f4ce59e2775fafdaa896b9d.jpg"
  },
  {
    "name": "ACH_EARTH_GEM_ENTHUSIAST_8",
    "defaultvalue": 0,
    "displayName": "Earth Gem Enthusiast VIII",
    "hidden": 0,
    "description": "Use 1,000 earth gems to level up skills",
    "icon": "https://steamcdn-a.akamaihd.net/steamcommunity/public/images/apps/548370/2330c30e12f957384b9211e2d2ce274ac5e26c4f.jpg",
    "icongray": "https://steamcdn-a.akamaihd.net/steamcommunity/public/images/apps/548370/fea196e71d1427f888fdfbdfb0f5a37d514a1241.jpg"
  },
  {
    "name": "ACH_VOID_GEM_ENTHUSIAST_1",
    "defaultvalue": 0,
    "displayName": "Void Gem Enthusiast I",
    "hidden": 0,
    "description": "Use 5 void gems to level up skills",
    "icon": "https://steamcdn-a.akamaihd.net/steamcommunity/public/images/apps/548370/12a38aabd3a3e8acef074e050e95edc6460cfabb.jpg",
    "icongray": "https://steamcdn-a.akamaihd.net/steamcommunity/public/images/apps/548370/08745c2399f6b0fa902cfb6e1ddba394b4a27a5d.jpg"
  },
  {
    "name": "ACH_VOID_GEM_ENTHUSIAST_2",
    "defaultvalue": 0,
    "displayName": "Void Gem Enthusiast II",
    "hidden": 0,
    "description": "Use 10 void gems to level up skills",
    "icon": "https://steamcdn-a.akamaihd.net/steamcommunity/public/images/apps/548370/2052c15522b4974dbc060aa0e88287b4b986101b.jpg",
    "icongray": "https://steamcdn-a.akamaihd.net/steamcommunity/public/images/apps/548370/e9a33505c7236b485b146fe17c7d62a3666c4f73.jpg"
  },
  {
    "name": "ACH_VOID_GEM_ENTHUSIAST_3",
    "defaultvalue": 0,
    "displayName": "Void Gem Enthusiast III",
    "hidden": 0,
    "description": "Use 25 void gems to level up skills",
    "icon": "https://steamcdn-a.akamaihd.net/steamcommunity/public/images/apps/548370/56e48a35308e47620f6ce25446f54707344ea5f7.jpg",
    "icongray": "https://steamcdn-a.akamaihd.net/steamcommunity/public/images/apps/548370/afb991cfa3bba86233fd95afcd9d84b3fbafdd8f.jpg"
  },
  {
    "name": "ACH_VOID_GEM_ENTHUSIAST_4",
    "defaultvalue": 0,
    "displayName": "Void Gem Enthusiast IV",
    "hidden": 0,
    "description": "Use 50 void gems to level up skills",
    "icon": "https://steamcdn-a.akamaihd.net/steamcommunity/public/images/apps/548370/da64d9fd4ae7ae04030bb2456b4afa0697ea61d5.jpg",
    "icongray": "https://steamcdn-a.akamaihd.net/steamcommunity/public/images/apps/548370/b6f02fd37b492e2dd73eaf41d0efdbee827ffd6a.jpg"
  },
  {
    "name": "ACH_VOID_GEM_ENTHUSIAST_5",
    "defaultvalue": 0,
    "displayName": "Void Gem Enthusiast V",
    "hidden": 0,
    "description": "Use 100 void gems to level up skills",
    "icon": "https://steamcdn-a.akamaihd.net/steamcommunity/public/images/apps/548370/f62b234f5292f24db6b4f0d3b89a8a437811173b.jpg",
    "icongray": "https://steamcdn-a.akamaihd.net/steamcommunity/public/images/apps/548370/fab59734abcb8daf4215b2c3aff7c3fce683cb96.jpg"
  },
  {
    "name": "ACH_VOID_GEM_ENTHUSIAST_6",
    "defaultvalue": 0,
    "displayName": "Void Gem Enthusiast VI",
    "hidden": 0,
    "description": "Use 250 void gems to level up skills",
    "icon": "https://steamcdn-a.akamaihd.net/steamcommunity/public/images/apps/548370/491fec10010ab117584b1e5663a21aafb18ee299.jpg",
    "icongray": "https://steamcdn-a.akamaihd.net/steamcommunity/public/images/apps/548370/3059179f5e22623e3b747fa6294a50d6c8708303.jpg"
  },
  {
    "name": "ACH_VOID_GEM_ENTHUSIAST_7",
    "defaultvalue": 0,
    "displayName": "Void Gem Enthusiast VII",
    "hidden": 0,
    "description": "Use 500 void gems to level up skills",
    "icon": "https://steamcdn-a.akamaihd.net/steamcommunity/public/images/apps/548370/023e299b5e77134b6b6ef890c46cf13a0b8858eb.jpg",
    "icongray": "https://steamcdn-a.akamaihd.net/steamcommunity/public/images/apps/548370/7a6a6c81b79c765eda2dcce93737dab29f914c82.jpg"
  },
  {
    "name": "ACH_VOID_GEM_ENTHUSIAST_8",
    "defaultvalue": 0,
    "displayName": "Void Gem Enthusiast VIII",
    "hidden": 0,
    "description": "Use 1,000 void gems to level up skills",
    "icon": "https://steamcdn-a.akamaihd.net/steamcommunity/public/images/apps/548370/daf7873bd36bb75df1052b4d3dc17ddc58da6317.jpg",
    "icongray": "https://steamcdn-a.akamaihd.net/steamcommunity/public/images/apps/548370/ac38f5a7edf9ec7b9c9adfd17010fb5103d6e21a.jpg"
  },
  {
    "name": "ACH_PHYSICAL_GEM_ENTHUSIAST_1",
    "defaultvalue": 0,
    "displayName": "Physical Gem Enthusiast I",
    "hidden": 0,
    "description": "Use 5 physical gems to level up skills",
    "icon": "https://steamcdn-a.akamaihd.net/steamcommunity/public/images/apps/548370/7eb51d0320f805b6d1716f1d34bf39314676e46e.jpg",
    "icongray": "https://steamcdn-a.akamaihd.net/steamcommunity/public/images/apps/548370/f9b6a4171ee15cbdda5196fa1b1e8438bdf97e1f.jpg"
  },
  {
    "name": "ACH_PHYSICAL_GEM_ENTHUSIAST_2",
    "defaultvalue": 0,
    "displayName": "Physical Gem Enthusiast II",
    "hidden": 0,
    "description": "Use 10 physical gems to level up skills",
    "icon": "https://steamcdn-a.akamaihd.net/steamcommunity/public/images/apps/548370/8c58e63b4761db03dae314c3773b89b069e4c2cd.jpg",
    "icongray": "https://steamcdn-a.akamaihd.net/steamcommunity/public/images/apps/548370/f0100a50fd66dcc6f57ab73a09abd7d2fed8781a.jpg"
  },
  {
    "name": "ACH_PHYSICAL_GEM_ENTHUSIAST_3",
    "defaultvalue": 0,
    "displayName": "Physical Gem Enthusiast III",
    "hidden": 0,
    "description": "Use 25 physical gems to level up skills",
    "icon": "https://steamcdn-a.akamaihd.net/steamcommunity/public/images/apps/548370/7464906f376f1afc1ca44d825a6d45906d570bea.jpg",
    "icongray": "https://steamcdn-a.akamaihd.net/steamcommunity/public/images/apps/548370/06cfe3aa40ae79f376d67c8b09304eef9cbe52a9.jpg"
  },
  {
    "name": "ACH_PHYSICAL_GEM_ENTHUSIAST_4",
    "defaultvalue": 0,
    "displayName": "Physical Gem Enthusiast IV",
    "hidden": 0,
    "description": "Use 50 physical gems to level up skills",
    "icon": "https://steamcdn-a.akamaihd.net/steamcommunity/public/images/apps/548370/4c2bf04cc4e6153c11df607fb3002efea8110df3.jpg",
    "icongray": "https://steamcdn-a.akamaihd.net/steamcommunity/public/images/apps/548370/be1232d9e4333863e0fa0787fd9f721a293b0195.jpg"
  },
  {
    "name": "ACH_PHYSICAL_GEM_ENTHUSIAST_5",
    "defaultvalue": 0,
    "displayName": "Physical Gem Enthusiast V",
    "hidden": 0,
    "description": "Use 100 physical gems to level up skills",
    "icon": "https://steamcdn-a.akamaihd.net/steamcommunity/public/images/apps/548370/97c55b6a0573363c31abf82ed4fc72e2cc1f014f.jpg",
    "icongray": "https://steamcdn-a.akamaihd.net/steamcommunity/public/images/apps/548370/24d475cb9a7a2db0ad471ba25557463908182187.jpg"
  },
  {
    "name": "ACH_PHYSICAL_GEM_ENTHUSIAST_6",
    "defaultvalue": 0,
    "displayName": "Physical Gem Enthusiast VI",
    "hidden": 0,
    "description": "Use 250 physical gems to level up skills",
    "icon": "https://steamcdn-a.akamaihd.net/steamcommunity/public/images/apps/548370/83a15239365d42d26ad9c3c1d00f1ec21e6b1d94.jpg",
    "icongray": "https://steamcdn-a.akamaihd.net/steamcommunity/public/images/apps/548370/f906566dda054d71b48e59b624368fab7a2b23e7.jpg"
  },
  {
    "name": "ACH_PHYSICAL_GEM_ENTHUSIAST_7",
    "defaultvalue": 0,
    "displayName": "Physical Gem Enthusiast VII",
    "hidden": 0,
    "description": "Use 500 physical gems to level up skills",
    "icon": "https://steamcdn-a.akamaihd.net/steamcommunity/public/images/apps/548370/c64dc82949f127183bd7627cb6d6864f4b7797b2.jpg",
    "icongray": "https://steamcdn-a.akamaihd.net/steamcommunity/public/images/apps/548370/99cb683f81480ac7158afef3ed82b1531027754c.jpg"
  },
  {
    "name": "ACH_PHYSICAL_GEM_ENTHUSIAST_8",
    "defaultvalue": 0,
    "displayName": "Physical Gem Enthusiast VIII",
    "hidden": 0,
    "description": "Use 1,000 physical gems to level up skills",
    "icon": "https://steamcdn-a.akamaihd.net/steamcommunity/public/images/apps/548370/13cd292d173026280c03659ad174853cc7d6cd80.jpg",
    "icongray": "https://steamcdn-a.akamaihd.net/steamcommunity/public/images/apps/548370/6f617e9efcf91203732a32fec66f4927d5573115.jpg"
  },
  {
    "name": "ACH_SKILLED_1",
    "defaultvalue": 0,
    "displayName": "Skilled I",
    "hidden": 0,
    "description": "Upgrade one skill",
    "icon": "https://steamcdn-a.akamaihd.net/steamcommunity/public/images/apps/548370/5a4421d97ea10400e120866d7d3ee61b6d4c0178.jpg",
    "icongray": "https://steamcdn-a.akamaihd.net/steamcommunity/public/images/apps/548370/0754621eda4dde9c7ba47ac504f4444499db1293.jpg"
  },
  {
    "name": "ACH_SKILLED_2",
    "defaultvalue": 0,
    "displayName": "Skilled II",
    "hidden": 0,
    "description": "Upgrade 1 skill to level 5",
    "icon": "https://steamcdn-a.akamaihd.net/steamcommunity/public/images/apps/548370/de6c4bdb97b1af96e7103f9bfbf3336671465874.jpg",
    "icongray": "https://steamcdn-a.akamaihd.net/steamcommunity/public/images/apps/548370/ce9a13fb62800ad7a630813d1b3764d17b711d22.jpg"
  },
  {
    "name": "ACH_SKILLED_3",
    "defaultvalue": 0,
    "displayName": "Skilled III",
    "hidden": 0,
    "description": "Upgrade 5 skills to level 5",
    "icon": "https://steamcdn-a.akamaihd.net/steamcommunity/public/images/apps/548370/3724a92588c66b23f4f5582597a9fb41e5c8b459.jpg",
    "icongray": "https://steamcdn-a.akamaihd.net/steamcommunity/public/images/apps/548370/9b52e2153e6d666f63d986e8c389eb74bd7bb467.jpg"
  },
  {
    "name": "ACH_SKILLED_4",
    "defaultvalue": 0,
    "displayName": "Skilled IV",
    "hidden": 0,
    "description": "Upgrade 10 skills to level 5",
    "icon": "https://steamcdn-a.akamaihd.net/steamcommunity/public/images/apps/548370/fe164082136a2128d23a17d5b81b1869b05559d1.jpg",
    "icongray": "https://steamcdn-a.akamaihd.net/steamcommunity/public/images/apps/548370/911b54bd197c0f99799ada771bf6a2eaae7975c4.jpg"
  },
  {
    "name": "ACH_SKILLED_5",
    "defaultvalue": 0,
    "displayName": "Skilled V",
    "hidden": 0,
    "description": "Upgrade 1 skill to level 10",
    "icon": "https://steamcdn-a.akamaihd.net/steamcommunity/public/images/apps/548370/001f19c7be497fa79355aa3a6770f00efbea07d4.jpg",
    "icongray": "https://steamcdn-a.akamaihd.net/steamcommunity/public/images/apps/548370/68170d579c0f8f5bbd1c6b6c50469689831b38c8.jpg"
  },
  {
    "name": "ACH_SKILLED_6",
    "defaultvalue": 0,
    "displayName": "Skilled VI",
    "hidden": 0,
    "description": "Upgrade 5 skills to level 10",
    "icon": "https://steamcdn-a.akamaihd.net/steamcommunity/public/images/apps/548370/950d45f492948f6f84e35ff390c19e56b37911ea.jpg",
    "icongray": "https://steamcdn-a.akamaihd.net/steamcommunity/public/images/apps/548370/515dd9a1838f10f56fbe03a9c3b3ce83fa3e0065.jpg"
  },
  {
    "name": "ACH_SKILLED_7",
    "defaultvalue": 0,
    "displayName": "Skilled VII",
    "hidden": 0,
    "description": "Upgrade 10 skills to level 10",
    "icon": "https://steamcdn-a.akamaihd.net/steamcommunity/public/images/apps/548370/efc8a85bb5d1de0df87cb9b6cd93ab677eb5d187.jpg",
    "icongray": "https://steamcdn-a.akamaihd.net/steamcommunity/public/images/apps/548370/0cd983af43f9b2ea9848e0fa4810b1a80b8fa448.jpg"
  },
  {
    "name": "ACH_SKILLED_8",
    "defaultvalue": 0,
    "displayName": "Skilled VIII",
    "hidden": 0,
    "description": "Upgrade all skills to level 10",
    "icon": "https://steamcdn-a.akamaihd.net/steamcommunity/public/images/apps/548370/3cbd09e658f4782880648f75b3e51dea808634ce.jpg",
    "icongray": "https://steamcdn-a.akamaihd.net/steamcommunity/public/images/apps/548370/f355f39b876b6e0dc82ed330b0bb6edb192e6871.jpg"
  },
  {
    "name": "ACH_COMPLETIST_1",
    "defaultvalue": 0,
    "displayName": "Completist I",
    "hidden": 0,
    "description": "Complete 5 dungeon objectives",
    "icon": "https://steamcdn-a.akamaihd.net/steamcommunity/public/images/apps/548370/808ce601f9aaff24c641ae1eb229376b27a8cacb.jpg",
    "icongray": "https://steamcdn-a.akamaihd.net/steamcommunity/public/images/apps/548370/c4356f59e80067a47cd9d71657e7dda934d5b707.jpg"
  },
  {
    "name": "ACH_COMPLETIST_2",
    "defaultvalue": 0,
    "displayName": "Completist II",
    "hidden": 0,
    "description": "Complete 10 dungeon objectives",
    "icon": "https://steamcdn-a.akamaihd.net/steamcommunity/public/images/apps/548370/1f1f7c49e1ec55caedc21cda4603f6c3277ccb53.jpg",
    "icongray": "https://steamcdn-a.akamaihd.net/steamcommunity/public/images/apps/548370/1779af99d498ae9b45e050d172e107023e6cd6e2.jpg"
  },
  {
    "name": "ACH_COMPLETIST_3",
    "defaultvalue": 0,
    "displayName": "Completist III",
    "hidden": 0,
    "description": "Complete 25 dungeon objectives",
    "icon": "https://steamcdn-a.akamaihd.net/steamcommunity/public/images/apps/548370/6c3d65de20d039c48a90a31783f80936071f169d.jpg",
    "icongray": "https://steamcdn-a.akamaihd.net/steamcommunity/public/images/apps/548370/d0d248b29ebbd6521176ce134ce287168c2dfac7.jpg"
  },
  {
    "name": "ACH_COMPLETIST_4",
    "defaultvalue": 0,
    "displayName": "Completist IV",
    "hidden": 0,
    "description": "Complete 50 dungeon objectives",
    "icon": "https://steamcdn-a.akamaihd.net/steamcommunity/public/images/apps/548370/fdea1a01a0a094b9eaf5c331ca5e82ab09e5b2eb.jpg",
    "icongray": "https://steamcdn-a.akamaihd.net/steamcommunity/public/images/apps/548370/975bbd4e2d88c00ad5424d3b19d038984a8f1171.jpg"
  },
  {
    "name": "ACH_COMPLETIST_5",
    "defaultvalue": 0,
    "displayName": "Completist V",
    "hidden": 0,
    "description": "Complete 100 dungeon objectives",
    "icon": "https://steamcdn-a.akamaihd.net/steamcommunity/public/images/apps/548370/af8cbc9e01644e541eb7dee437ff204c96e30b68.jpg",
    "icongray": "https://steamcdn-a.akamaihd.net/steamcommunity/public/images/apps/548370/b5b7b4c56348426484d6db9ae673a1f40e6e2018.jpg"
  },
  {
    "name": "ACH_COMPLETIST_6",
    "defaultvalue": 0,
    "displayName": "Completist VI",
    "hidden": 0,
    "description": "Complete 250 dungeon objectives",
    "icon": "https://steamcdn-a.akamaihd.net/steamcommunity/public/images/apps/548370/529f2d812d6a121ae78bb123c5d0fa2c6d27322e.jpg",
    "icongray": "https://steamcdn-a.akamaihd.net/steamcommunity/public/images/apps/548370/c3e78ef1cc4198af86d65d29ec66697ce9d866e8.jpg"
  },
  {
    "name": "ACH_GOLD_RUSH_1",
    "defaultvalue": 0,
    "displayName": "Gold Rush I",
    "hidden": 0,
    "description": "Collect 1,000 gold from completing dungeon objectives",
    "icon": "https://steamcdn-a.akamaihd.net/steamcommunity/public/images/apps/548370/ea0061aafc39166018dae5921b089955b472353f.jpg",
    "icongray": "https://steamcdn-a.akamaihd.net/steamcommunity/public/images/apps/548370/376fb14a64916ceb34fcc897a72abacca3b94cd3.jpg"
  },
  {
    "name": "ACH_GOLD_RUSH_2",
    "defaultvalue": 0,
    "displayName": "Gold Rush II",
    "hidden": 0,
    "description": "Collect 5,000 gold from completing dungeon objectives",
    "icon": "https://steamcdn-a.akamaihd.net/steamcommunity/public/images/apps/548370/c8269fcd16bcdf700b8e1c527e9cc9f04f27c0ea.jpg",
    "icongray": "https://steamcdn-a.akamaihd.net/steamcommunity/public/images/apps/548370/bb51a320541051db32d842533d3dd5eaadcaf4ae.jpg"
  },
  {
    "name": "ACH_GOLD_RUSH_3",
    "defaultvalue": 0,
    "displayName": "Gold Rush III",
    "hidden": 0,
    "description": "Collect 10,000 gold from completing dungeon objectives",
    "icon": "https://steamcdn-a.akamaihd.net/steamcommunity/public/images/apps/548370/cc7423a91009a1d8319da8f452ba421b9ee19908.jpg",
    "icongray": "https://steamcdn-a.akamaihd.net/steamcommunity/public/images/apps/548370/6e5e60c32221954c929f09c32ffe9ce6e2a7883f.jpg"
  },
  {
    "name": "ACH_GOLD_RUSH_4",
    "defaultvalue": 0,
    "displayName": "Gold Rush IV",
    "hidden": 0,
    "description": "Collect 25,000 gold from completing dungeon objectives",
    "icon": "https://steamcdn-a.akamaihd.net/steamcommunity/public/images/apps/548370/60ff6a05ca8ca6f134eb943e5223a8c04e14ba5e.jpg",
    "icongray": "https://steamcdn-a.akamaihd.net/steamcommunity/public/images/apps/548370/1acf7776a0c646af5a3cf633dcb9ef7dbafa60be.jpg"
  },
  {
    "name": "ACH_GOLD_RUSH_5",
    "defaultvalue": 0,
    "displayName": "Gold Rush V",
    "hidden": 0,
    "description": "Collect 50,000 gold from completing dungeon objectives",
    "icon": "https://steamcdn-a.akamaihd.net/steamcommunity/public/images/apps/548370/bee66404c0bafc782511298ed25044556313a7a2.jpg",
    "icongray": "https://steamcdn-a.akamaihd.net/steamcommunity/public/images/apps/548370/5c6d6a92d381ba367919a1ed08bf184edba7a5aa.jpg"
  },
  {
    "name": "ACH_GOLD_RUSH_6",
    "defaultvalue": 0,
    "displayName": "Gold Rush VI",
    "hidden": 0,
    "description": "Collect 100,000 gold from completing dungeon objectives",
    "icon": "https://steamcdn-a.akamaihd.net/steamcommunity/public/images/apps/548370/a857ad55d8e0dd758c64a69d347ae0c1b39e17e8.jpg",
    "icongray": "https://steamcdn-a.akamaihd.net/steamcommunity/public/images/apps/548370/00bbc2e8a5841447a1ffc5e5b435c0b237a6c26d.jpg"
  },
  {
    "name": "ACH_GOLD_RUSH_7",
    "defaultvalue": 0,
    "displayName": "Gold Rush VII",
    "hidden": 0,
    "description": "Collect 250,000 gold from completing dungeon objectives",
    "icon": "https://steamcdn-a.akamaihd.net/steamcommunity/public/images/apps/548370/b55f67409be1629b914b18e01dd31268c0043738.jpg",
    "icongray": "https://steamcdn-a.akamaihd.net/steamcommunity/public/images/apps/548370/1c39cf195d86c61e8f0a8a317cef21b7f1b63616.jpg"
  },
  {
    "name": "ACH_GOLD_RUSH_8",
    "defaultvalue": 0,
    "displayName": "Gold Rush VIII",
    "hidden": 0,
    "description": "Collect 500,000 gold from completing dungeon objectives",
    "icon": "https://steamcdn-a.akamaihd.net/steamcommunity/public/images/apps/548370/7cf0584777bdc5860559fb59591a44cf8ef8bf48.jpg",
    "icongray": "https://steamcdn-a.akamaihd.net/steamcommunity/public/images/apps/548370/4f44f2b661483c2355e1596f618e1c477cae4b97.jpg"
  },
  {
    "name": "ACH_GOLD_RUSH_9",
    "defaultvalue": 0,
    "displayName": "Gold Rush IX",
    "hidden": 0,
    "description": "Collect 1,000,000 gold from completing dungeon objectives",
    "icon": "https://steamcdn-a.akamaihd.net/steamcommunity/public/images/apps/548370/980853b18e046ecefc0457fda47c5c56bbd94022.jpg",
    "icongray": "https://steamcdn-a.akamaihd.net/steamcommunity/public/images/apps/548370/6fb0b9a9f3bb065b1ed10ebef8f02bf198e91151.jpg"
  },
  {
    "name": "ACH_SAVANT_1",
    "defaultvalue": 0,
    "displayName": "Savant I",
    "hidden": 0,
    "description": "Earn 100 experience from completing dungeon objectives",
    "icon": "https://steamcdn-a.akamaihd.net/steamcommunity/public/images/apps/548370/ba3591e56d980128e797754cdb594b3628c63c4b.jpg",
    "icongray": "https://steamcdn-a.akamaihd.net/steamcommunity/public/images/apps/548370/18c5e92c9828f1489e2ae6b19111c58b57ec4055.jpg"
  },
  {
    "name": "ACH_SAVANT_2",
    "defaultvalue": 0,
    "displayName": "Savant II",
    "hidden": 0,
    "description": "Earn 250 experience from completing dungeon objectives",
    "icon": "https://steamcdn-a.akamaihd.net/steamcommunity/public/images/apps/548370/2e0722bf9492e50b5674f128656e2bba41a42fd2.jpg",
    "icongray": "https://steamcdn-a.akamaihd.net/steamcommunity/public/images/apps/548370/162a260504e1b1d9f91e816e4d1cba2acf3d2ee6.jpg"
  },
  {
    "name": "ACH_SAVANT_3",
    "defaultvalue": 0,
    "displayName": "Savant III",
    "hidden": 0,
    "description": "Earn 500 experience from completing dungeon objectives",
    "icon": "https://steamcdn-a.akamaihd.net/steamcommunity/public/images/apps/548370/2aff3e93441713298683ea7e7cda2d41a4ad7e20.jpg",
    "icongray": "https://steamcdn-a.akamaihd.net/steamcommunity/public/images/apps/548370/6695255915e3c116d91b953d12366221f0f72d32.jpg"
  },
  {
    "name": "ACH_SAVANT_4",
    "defaultvalue": 0,
    "displayName": "Savant IV",
    "hidden": 0,
    "description": "Earn 1,000 experience from completing dungeon objectives",
    "icon": "https://steamcdn-a.akamaihd.net/steamcommunity/public/images/apps/548370/38c1c2ac84bb9e1e5cebcb599eafb0b0a3c505d1.jpg",
    "icongray": "https://steamcdn-a.akamaihd.net/steamcommunity/public/images/apps/548370/5d24fb8123026b8cafea9cd25e0f70dc2bc59e12.jpg"
  },
  {
    "name": "ACH_SAVANT_5",
    "defaultvalue": 0,
    "displayName": "Savant V",
    "hidden": 0,
    "description": "Earn 5,000 experience from completing dungeon objectives",
    "icon": "https://steamcdn-a.akamaihd.net/steamcommunity/public/images/apps/548370/01a8790938bfc7abf35003f3334e9894684686f4.jpg",
    "icongray": "https://steamcdn-a.akamaihd.net/steamcommunity/public/images/apps/548370/33320d7816b6794a15e9f997cf08bb7a1674d9bb.jpg"
  },
  {
    "name": "ACH_SAVANT_6",
    "defaultvalue": 0,
    "displayName": "Savant VI",
    "hidden": 0,
    "description": "Earn 10,000 experience from completing dungeon objectives",
    "icon": "https://steamcdn-a.akamaihd.net/steamcommunity/public/images/apps/548370/ef7f3de3585aca6340418b45505f364b03ac901a.jpg",
    "icongray": "https://steamcdn-a.akamaihd.net/steamcommunity/public/images/apps/548370/bb37a9162479ad1359239525e4178b6967cadf1e.jpg"
  },
  {
    "name": "ACH_SAVANT_7",
    "defaultvalue": 0,
    "displayName": "Savant VII",
    "hidden": 0,
    "description": "Earn 25,000 experience from completing dungeon objectives",
    "icon": "https://steamcdn-a.akamaihd.net/steamcommunity/public/images/apps/548370/0cdb603f8225dbc0e94d1a5006ab4397e274d295.jpg",
    "icongray": "https://steamcdn-a.akamaihd.net/steamcommunity/public/images/apps/548370/da4c27d7de0b781b7a10b827e89496f53a445d69.jpg"
  },
  {
    "name": "ACH_SAVANT_8",
    "defaultvalue": 0,
    "displayName": "Savant VIII",
    "hidden": 0,
    "description": "Earn 50,000 experience from completing dungeon objectives",
    "icon": "https://steamcdn-a.akamaihd.net/steamcommunity/public/images/apps/548370/587965f55b5f340b529b06e63ced46cba4d80917.jpg",
    "icongray": "https://steamcdn-a.akamaihd.net/steamcommunity/public/images/apps/548370/9b3375ef93d7d8dba127b5eec90e3f0398a9ccb1.jpg"
  },
  {
    "name": "ACH_EPIC_REWARD",
    "defaultvalue": 0,
    "displayName": "Epic Reward",
    "hidden": 0,
    "description": "Get an epic item when choosing your reward after completing dungeon objective",
    "icon": "https://steamcdn-a.akamaihd.net/steamcommunity/public/images/apps/548370/8aa8bb5a955a45c945880692bacb415ffa13f47a.jpg",
    "icongray": "https://steamcdn-a.akamaihd.net/steamcommunity/public/images/apps/548370/e93083800f97211395b80c99ff22955c859df4b6.jpg"
  },
  {
    "name": "ACH_LEGENDARY_REWARD",
    "defaultvalue": 0,
    "displayName": "Legendary Reward",
    "hidden": 0,
    "description": "Get a legendary item when choosing your reward after completing dungeon objective",
    "icon": "https://steamcdn-a.akamaihd.net/steamcommunity/public/images/apps/548370/73a6929d3e4982c10a45a3caa58bbbf07cd688a5.jpg",
    "icongray": "https://steamcdn-a.akamaihd.net/steamcommunity/public/images/apps/548370/a12c22ef3e11cae50106e52967cdb7eb66e32b60.jpg"
  }
]