{
  "Dlcs": {},
  "Name": "Linda & Joan",
  "AppId": "1270760",
  "ImageUrl": "https://steamcdn-a.akamaihd.net/steam/apps/1270760/header.jpg?t=1594749383",
  "Languages": [
    "english"
  ],
  "Platforms": {
    "windows": true,
    "mac": true,
    "linux": false
  }
}