{
  "Dlcs": {},
  "Name": "Hidden Expedition: Amazon",
  "AppId": "50920",
  "ImageUrl": "https://steamcdn-a.akamaihd.net/steam/apps/50920/header.jpg?t=1531501873",
  "Languages": [
    "english"
  ],
  "Platforms": {
    "windows": true,
    "mac": false,
    "linux": false
  }
}