﻿{
  "played_games": {
    "description": "Games Played",
    "value": 0
  },
  "perfect_rounds": {
    "description": "Perfect Rounds this Game",
    "value": 0
  },
  "high_score": {
    "description": "Highscore",
    "value": 0
  },
  "hero_killed": {
    "description": "Heroes Killed Total",
    "value": 0
  },
  "all_hero_total": {
    "description": "All Heroes Killed Total",
    "value": 0
  },
  "same_hero_total": {
    "description": "Same Hero Killed Total",
    "value": 0
  },
  "enemy_kill": {
    "description": "Enemies Killed Total",
    "value": 0
  },
  "enemy_game_kill": {
    "description": "Enemies Killed this Game",
    "value": 0
  },
  "most_heroes_remaining": {
    "description": "Most Heroes Remaining",
    "value": 0
  },
  "quickest_completion_time": {
    "description": "Quickest Completion Time",
    "value": 0
  },
  "coins_collected": {
    "description": "Coins Collected",
    "value": 0
  },
  "small_coins_collected": {
    "description": "Small Coins Collected",
    "value": 0
  },
  "large_coins_collected": {
    "description": "Large Coins Collected",
    "value": 0
  },
  "blocks_destroyed": {
    "description": "Blocks Destroyed this Game",
    "value": 0
  },
  "game_progress": {
    "description": "Game Progress",
    "value": 0
  }
}