{
  "Dlcs": {},
  "Name": "Crumbling World",
  "AppId": "1003560",
  "ImageUrl": "https://steamcdn-a.akamaihd.net/steam/apps/1003560/header.jpg?t=1596616937",
  "Languages": [
    "english"
  ],
  "Platforms": {
    "windows": true,
    "mac": true,
    "linux": true
  }
}