[
  {
    "name": "NUM_WAVES_COMPLETED",
    "defaultvalue": 0,
    "displayName": "Num Waves Completed"
  },
  {
    "name": "DAMAGE_DEALT",
    "defaultvalue": 0,
    "displayName": "Damage Dealt"
  },
  {
    "name": "CRITICAL_HITS",
    "defaultvalue": 0,
    "displayName": "Critical Hits"
  },
  {
    "name": "COMBOS_GAINED",
    "defaultvalue": 0,
    "displayName": "Combos Gained"
  },
  {
    "name": "HEALTH_HEALED",
    "defaultvalue": 0,
    "displayName": "Health Healed"
  },
  {
    "name": "NUM_RESURRECTIONS",
    "defaultvalue": 0,
    "displayName": "Num Resurrections"
  },
  {
    "name": "MINIONS_UNLOCKED",
    "defaultvalue": 0,
    "displayName": "Minions Unlocked"
  }
]