﻿{
  "Dlcs": {},
  "Name": "Microsoft Maquette",
  "AppId": "967490",
  "ImageUrl": "https://steamcdn-a.akamaihd.net/steam/apps/967490/header.jpg?t=1574797726",
  "Languages": [
    "english",
    "german"
  ],
  "Platforms": {
    "windows": true,
    "mac": false,
    "linux": false
  }
}