[
  {
    "name": "GRUMLING",
    "defaultvalue": 0,
    "displayName": "Helpful Individual",
    "hidden": 0,
    "description": "Return the lost item to the Grumling.",
    "icon": "https://steamcdn-a.akamaihd.net/steamcommunity/public/images/apps/1378860/1af7ef7f1572b6f8cdfa2a48fc39463e134453c7.jpg",
    "icongray": "https://steamcdn-a.akamaihd.net/steamcommunity/public/images/apps/1378860/13e52054e63a3fe40747291b7360aaa0654e44ce.jpg"
  },
  {
    "name": "WIN_1",
    "defaultvalue": 0,
    "displayName": "Payment 1: Complete",
    "hidden": 0,
    "description": "Complete your first rent payment!",
    "icon": "https://steamcdn-a.akamaihd.net/steamcommunity/public/images/apps/1378860/2056db2a0340f12d8575c06f74d31be22f2a1b47.jpg",
    "icongray": "https://steamcdn-a.akamaihd.net/steamcommunity/public/images/apps/1378860/13e52054e63a3fe40747291b7360aaa0654e44ce.jpg"
  },
  {
    "name": "WIN_2",
    "defaultvalue": 0,
    "displayName": "Payment 2: Complete",
    "hidden": 0,
    "description": "Complete your second rent payment!",
    "icon": "https://steamcdn-a.akamaihd.net/steamcommunity/public/images/apps/1378860/893ceb8b4042b73a3d1c7bf204cb4cdbea0cdbec.jpg",
    "icongray": "https://steamcdn-a.akamaihd.net/steamcommunity/public/images/apps/1378860/30ce339d032c027d45aa53a2323eec1f3b02490e.jpg"
  },
  {
    "name": "WIN_3",
    "defaultvalue": 0,
    "displayName": "Payment 3: Complete",
    "hidden": 0,
    "description": "Complete your third rent payment!",
    "icon": "https://steamcdn-a.akamaihd.net/steamcommunity/public/images/apps/1378860/cd146148f3c0201f9e50ad9c3b67167bdee759d9.jpg",
    "icongray": "https://steamcdn-a.akamaihd.net/steamcommunity/public/images/apps/1378860/13e52054e63a3fe40747291b7360aaa0654e44ce.jpg"
  },
  {
    "name": "WIN_4",
    "defaultvalue": 0,
    "displayName": "Payment 4: Complete",
    "hidden": 0,
    "description": "Complete your fourth rent payment!",
    "icon": "https://steamcdn-a.akamaihd.net/steamcommunity/public/images/apps/1378860/c287c7b0716cdc1065e819be2b6a815b4bf99c62.jpg",
    "icongray": "https://steamcdn-a.akamaihd.net/steamcommunity/public/images/apps/1378860/30ce339d032c027d45aa53a2323eec1f3b02490e.jpg"
  },
  {
    "name": "WIN_5",
    "defaultvalue": 0,
    "displayName": "Payment 5: Complete",
    "hidden": 0,
    "description": "Complete your final rent payment!",
    "icon": "https://steamcdn-a.akamaihd.net/steamcommunity/public/images/apps/1378860/f460120085154de1f3663f13b63d3a12dfc5c5f3.jpg",
    "icongray": "https://steamcdn-a.akamaihd.net/steamcommunity/public/images/apps/1378860/13e52054e63a3fe40747291b7360aaa0654e44ce.jpg"
  },
  {
    "name": "LOSS",
    "defaultvalue": 0,
    "displayName": "A Lesson in Capitalism",
    "hidden": 0,
    "description": "Fail to meet rent and collapse your business.",
    "icon": "https://steamcdn-a.akamaihd.net/steamcommunity/public/images/apps/1378860/4db2247e37f7eac1f6fda429f2601c8a1f36cf65.jpg",
    "icongray": "https://steamcdn-a.akamaihd.net/steamcommunity/public/images/apps/1378860/13e52054e63a3fe40747291b7360aaa0654e44ce.jpg"
  },
  {
    "name": "DICE_GOLD",
    "defaultvalue": 0,
    "displayName": "Gilded Power",
    "hidden": 0,
    "description": "Acquire a Golden Die",
    "icon": "https://steamcdn-a.akamaihd.net/steamcommunity/public/images/apps/1378860/883db937039314880cb6a6a24d7ef78c9149e6fd.jpg",
    "icongray": "https://steamcdn-a.akamaihd.net/steamcommunity/public/images/apps/1378860/13e52054e63a3fe40747291b7360aaa0654e44ce.jpg"
  },
  {
    "name": "DICE_ALIEN",
    "defaultvalue": 0,
    "displayName": "Mysterious Power",
    "hidden": 1,
    "icon": "https://steamcdn-a.akamaihd.net/steamcommunity/public/images/apps/1378860/567c7a6a7d07ef7343a311889d2d5f970a78205a.jpg",
    "icongray": "https://steamcdn-a.akamaihd.net/steamcommunity/public/images/apps/1378860/13e52054e63a3fe40747291b7360aaa0654e44ce.jpg"
  },
  {
    "name": "BLESSING_ONE",
    "defaultvalue": 0,
    "displayName": "One Man's Blessing",
    "hidden": 0,
    "description": "Acquire both One Man's Trash and One Man's Treasure in the same run.",
    "icon": "https://steamcdn-a.akamaihd.net/steamcommunity/public/images/apps/1378860/3d2dbfaaa20664364a93676d6bbe68d0df957379.jpg",
    "icongray": "https://steamcdn-a.akamaihd.net/steamcommunity/public/images/apps/1378860/13e52054e63a3fe40747291b7360aaa0654e44ce.jpg"
  },
  {
    "name": "BLESSING_GRIFTER",
    "defaultvalue": 0,
    "displayName": "Grifter's Blessing",
    "hidden": 0,
    "description": "Acquire both Grifter's Stanzo and Grifter's Watch in the same run.",
    "icon": "https://steamcdn-a.akamaihd.net/steamcommunity/public/images/apps/1378860/76f0b40f5ad27eeddd88d8902a7e006e92c2be65.jpg",
    "icongray": "https://steamcdn-a.akamaihd.net/steamcommunity/public/images/apps/1378860/13e52054e63a3fe40747291b7360aaa0654e44ce.jpg"
  },
  {
    "name": "CHARACTER_SCRAP",
    "defaultvalue": 0,
    "displayName": "Scrap Artist: Unlocked!",
    "hidden": 1,
    "icon": "https://steamcdn-a.akamaihd.net/steamcommunity/public/images/apps/1378860/96c11a13de7d7ff986b7e8128e58f61501c1d60f.jpg",
    "icongray": "https://steamcdn-a.akamaihd.net/steamcommunity/public/images/apps/1378860/13e52054e63a3fe40747291b7360aaa0654e44ce.jpg"
  },
  {
    "name": "CHARACTER_AMATEUR",
    "defaultvalue": 0,
    "displayName": "The Amateur: Unlocked!",
    "hidden": 1,
    "icon": "https://steamcdn-a.akamaihd.net/steamcommunity/public/images/apps/1378860/d71063e28b5157a5cfe7e3a925b65c3fb05bc79b.jpg",
    "icongray": "https://steamcdn-a.akamaihd.net/steamcommunity/public/images/apps/1378860/13e52054e63a3fe40747291b7360aaa0654e44ce.jpg"
  },
  {
    "name": "SWINDLER_W",
    "defaultvalue": 0,
    "displayName": "Swindler: Completed!",
    "hidden": 0,
    "description": "Beat the game as the Swindler.",
    "icon": "https://steamcdn-a.akamaihd.net/steamcommunity/public/images/apps/1378860/fccb227daafe159019c27b3ef439e3b72482503a.jpg",
    "icongray": "https://steamcdn-a.akamaihd.net/steamcommunity/public/images/apps/1378860/13e52054e63a3fe40747291b7360aaa0654e44ce.jpg"
  },
  {
    "name": "SCRAP_W",
    "defaultvalue": 0,
    "displayName": "Scrap Artist: Completed!",
    "hidden": 1,
    "icon": "https://steamcdn-a.akamaihd.net/steamcommunity/public/images/apps/1378860/e31b8e5781f1e8ff079ccef1635d4ff97034eacd.jpg",
    "icongray": "https://steamcdn-a.akamaihd.net/steamcommunity/public/images/apps/1378860/13e52054e63a3fe40747291b7360aaa0654e44ce.jpg"
  },
  {
    "name": "AMATEUR_W",
    "defaultvalue": 0,
    "displayName": "The Amateur: Completed!",
    "hidden": 1,
    "icon": "https://steamcdn-a.akamaihd.net/steamcommunity/public/images/apps/1378860/bf71fdbd106fd4e5348ca47373a7ff72717f3fc4.jpg",
    "icongray": "https://steamcdn-a.akamaihd.net/steamcommunity/public/images/apps/1378860/13e52054e63a3fe40747291b7360aaa0654e44ce.jpg"
  },
  {
    "name": "SCRAP_1",
    "defaultvalue": 0,
    "displayName": "Getting Crafty",
    "hidden": 1,
    "icon": "https://steamcdn-a.akamaihd.net/steamcommunity/public/images/apps/1378860/3b2eeb3a62ee130bae7be75abc70da3216704744.jpg",
    "icongray": "https://steamcdn-a.akamaihd.net/steamcommunity/public/images/apps/1378860/13e52054e63a3fe40747291b7360aaa0654e44ce.jpg"
  },
  {
    "name": "AMATEUR_1",
    "defaultvalue": 0,
    "displayName": "Daemon's Gift",
    "hidden": 1,
    "icon": "https://steamcdn-a.akamaihd.net/steamcommunity/public/images/apps/1378860/ebc93e947f08db265d4fc5ac4f3051f75b708c7d.jpg",
    "icongray": "https://steamcdn-a.akamaihd.net/steamcommunity/public/images/apps/1378860/13e52054e63a3fe40747291b7360aaa0654e44ce.jpg"
  },
  {
    "name": "EVENT_1",
    "defaultvalue": 0,
    "displayName": "Casualties of War",
    "hidden": 0,
    "description": "Lose a dice to an explosion.",
    "icon": "https://steamcdn-a.akamaihd.net/steamcommunity/public/images/apps/1378860/94359b8cba69746702971bc1497ee63ec9cdea71.jpg",
    "icongray": "https://steamcdn-a.akamaihd.net/steamcommunity/public/images/apps/1378860/13e52054e63a3fe40747291b7360aaa0654e44ce.jpg"
  },
  {
    "name": "EVENT_2",
    "defaultvalue": 0,
    "displayName": "Keep Clicking and Nothing Explodes!",
    "hidden": 0,
    "description": "Lose a dice to a heat-sink malfunction.",
    "icon": "https://steamcdn-a.akamaihd.net/steamcommunity/public/images/apps/1378860/3a53d49f456bea44b99f71f75e5b87c2204ba974.jpg",
    "icongray": "https://steamcdn-a.akamaihd.net/steamcommunity/public/images/apps/1378860/13e52054e63a3fe40747291b7360aaa0654e44ce.jpg"
  },
  {
    "name": "SWINDLER_1",
    "defaultvalue": 0,
    "displayName": "Never Lucky",
    "hidden": 0,
    "description": "As the Swindler, reroll three times on one customer.",
    "icon": "https://steamcdn-a.akamaihd.net/steamcommunity/public/images/apps/1378860/1707d04452135f04da9b48ba92806f3e1530e690.jpg",
    "icongray": "https://steamcdn-a.akamaihd.net/steamcommunity/public/images/apps/1378860/13e52054e63a3fe40747291b7360aaa0654e44ce.jpg"
  },
  {
    "name": "ITEM_1",
    "defaultvalue": 0,
    "displayName": "Outside of the Law",
    "hidden": 1,
    "icon": "https://steamcdn-a.akamaihd.net/steamcommunity/public/images/apps/1378860/b1b1f9e5a7001fcf08912dbed6d40616ac37ad9e.jpg",
    "icongray": "https://steamcdn-a.akamaihd.net/steamcommunity/public/images/apps/1378860/30ce339d032c027d45aa53a2323eec1f3b02490e.jpg"
  },
  {
    "name": "ITEM_2",
    "defaultvalue": 0,
    "displayName": "C-C-C-COMBO!",
    "hidden": 0,
    "description": "Reach a 5-customer combo with the Combo Meter item.",
    "icon": "https://steamcdn-a.akamaihd.net/steamcommunity/public/images/apps/1378860/1cd537ab01f8acbb55028a5fdc8dbb37965a2b85.jpg",
    "icongray": "https://steamcdn-a.akamaihd.net/steamcommunity/public/images/apps/1378860/30ce339d032c027d45aa53a2323eec1f3b02490e.jpg"
  },
  {
    "name": "ITEM_3",
    "defaultvalue": 0,
    "displayName": "Is This Legal?",
    "hidden": 0,
    "description": "Start the day with 8 or more dice.",
    "icon": "https://steamcdn-a.akamaihd.net/steamcommunity/public/images/apps/1378860/77101f8b6e97cc877bf45a9b4b2a6876dd631fe3.jpg",
    "icongray": "https://steamcdn-a.akamaihd.net/steamcommunity/public/images/apps/1378860/13e52054e63a3fe40747291b7360aaa0654e44ce.jpg"
  },
  {
    "name": "TIMER_W",
    "defaultvalue": 0,
    "displayName": "Get Rich Quick Scheme",
    "hidden": 0,
    "description": "Finish the game in under 15 minutes.",
    "icon": "https://steamcdn-a.akamaihd.net/steamcommunity/public/images/apps/1378860/fc97504f336e3539adb3068f732b6a47e4f045ec.jpg",
    "icongray": "https://steamcdn-a.akamaihd.net/steamcommunity/public/images/apps/1378860/13e52054e63a3fe40747291b7360aaa0654e44ce.jpg"
  },
  {
    "name": "HIGH_W",
    "defaultvalue": 0,
    "displayName": "High Roller",
    "hidden": 0,
    "description": "Beat the game with a score of at least $10000",
    "icon": "https://steamcdn-a.akamaihd.net/steamcommunity/public/images/apps/1378860/7ec8ae68731b6d5496078249b59f198f55d50b09.jpg",
    "icongray": "https://steamcdn-a.akamaihd.net/steamcommunity/public/images/apps/1378860/13e52054e63a3fe40747291b7360aaa0654e44ce.jpg"
  },
  {
    "name": "LOW_W",
    "defaultvalue": 0,
    "displayName": "Low Roller",
    "hidden": 0,
    "description": "Beat the game with a score of under $1000",
    "icon": "https://steamcdn-a.akamaihd.net/steamcommunity/public/images/apps/1378860/af60fe8bbf966ae51d00ac0961fc98d21584fd11.jpg",
    "icongray": "https://steamcdn-a.akamaihd.net/steamcommunity/public/images/apps/1378860/13e52054e63a3fe40747291b7360aaa0654e44ce.jpg"
  },
  {
    "name": "ITEM_4",
    "defaultvalue": 0,
    "displayName": "The 4th Mucci",
    "hidden": 1,
    "icon": "https://steamcdn-a.akamaihd.net/steamcommunity/public/images/apps/1378860/f82be3eb91582b96b08a5f66c173a4b7e6705efb.jpg",
    "icongray": "https://steamcdn-a.akamaihd.net/steamcommunity/public/images/apps/1378860/13e52054e63a3fe40747291b7360aaa0654e44ce.jpg"
  },
  {
    "name": "CIVIL_SERVANT",
    "defaultvalue": 0,
    "displayName": "Civil Servant",
    "hidden": 0,
    "description": "Obtain the maximum amount of coupons from a DiceCorp email.",
    "icon": "https://steamcdn-a.akamaihd.net/steamcommunity/public/images/apps/1378860/2071c2c344bc87dd50d3b1d732b0303dfc8c200c.jpg",
    "icongray": "https://steamcdn-a.akamaihd.net/steamcommunity/public/images/apps/1378860/13e52054e63a3fe40747291b7360aaa0654e44ce.jpg"
  }
]