[
  {
    "name": "T1",
    "defaultvalue": 0,
    "displayName": "忆……",
    "hidden": 0,
    "description": "脑海中的‘少女’现在到底在哪呢？",
    "icon": "https://steamcdn-a.akamaihd.net/steamcommunity/public/images/apps/883870/1c338ed2446a754c7b9410a8c64975812469302b.jpg",
    "icongray": "https://steamcdn-a.akamaihd.net/steamcommunity/public/images/apps/883870/050ecaa57c56428cd8ae99056890a495fd74b520.jpg"
  },
  {
    "name": "T2",
    "defaultvalue": 0,
    "displayName": "烟花凋零，将散落的何处。",
    "hidden": 0,
    "description": "烟花散落的尘埃，会被吹向何方，种下何处。",
    "icon": "https://steamcdn-a.akamaihd.net/steamcommunity/public/images/apps/883870/9c2cd7a34ac34f94661f6e97ed74550bcd635de0.jpg",
    "icongray": "https://steamcdn-a.akamaihd.net/steamcommunity/public/images/apps/883870/beeb75acf1aedfb83c3373e811cfadfe5d5a3aa8.jpg"
  },
  {
    "name": "T3",
    "defaultvalue": 0,
    "displayName": "‘重设’ ",
    "hidden": 0,
    "description": " 将世界上的一切都打碎，然后再次创造吧。",
    "icon": "https://steamcdn-a.akamaihd.net/steamcommunity/public/images/apps/883870/fe34a306885ff8f3514d0369553a7deac5c8b8f5.jpg",
    "icongray": "https://steamcdn-a.akamaihd.net/steamcommunity/public/images/apps/883870/281f305e7b22361afc352282dc51179354610bbd.jpg"
  },
  {
    "name": "T4",
    "defaultvalue": 0,
    "displayName": "今天就吃烤肉吧",
    "hidden": 0,
    "description": "不想死的话就吃下这‘铊’肉吧。",
    "icon": "https://steamcdn-a.akamaihd.net/steamcommunity/public/images/apps/883870/c4aec69a4c867b2fb6eb324543ef7c6d42018faf.jpg",
    "icongray": "https://steamcdn-a.akamaihd.net/steamcommunity/public/images/apps/883870/4ecf29f3d99f54743cab3f547d3adb5bc4c1ed53.jpg"
  },
  {
    "name": "T5",
    "defaultvalue": 0,
    "displayName": "无法改写的过去",
    "hidden": 0,
    "description": " 不要再怀念美好的过去了，这样只会让现在更加痛苦。",
    "icon": "https://steamcdn-a.akamaihd.net/steamcommunity/public/images/apps/883870/5e6d81e7008045e70047eafddf0a2729140d40a1.jpg",
    "icongray": "https://steamcdn-a.akamaihd.net/steamcommunity/public/images/apps/883870/ccb619716bd183639b248fa1ece26ae1add589b1.jpg"
  },
  {
    "name": "T6",
    "defaultvalue": 0,
    "displayName": "瑞树",
    "hidden": 0,
    "description": "穿上去再说话.",
    "icon": "https://steamcdn-a.akamaihd.net/steamcommunity/public/images/apps/883870/38148ae4ec77c874e39c40289773bd8e985ec435.jpg",
    "icongray": "https://steamcdn-a.akamaihd.net/steamcommunity/public/images/apps/883870/d42a849684505f64f7fa9d05e309dd96ce70d73a.jpg"
  },
  {
    "name": "T7",
    "defaultvalue": 0,
    "displayName": "（终于吃上烤肉了）",
    "hidden": 0,
    "description": "郊游最重要的就是烤肉。",
    "icon": "https://steamcdn-a.akamaihd.net/steamcommunity/public/images/apps/883870/ccdbd66e9a04a7b7131a0fd73f83ebc1a3a72181.jpg",
    "icongray": "https://steamcdn-a.akamaihd.net/steamcommunity/public/images/apps/883870/fad415f0104139b072899ae6c9d4ca372b784c0c.jpg"
  },
  {
    "name": "T8",
    "defaultvalue": 0,
    "displayName": "逆时之流",
    "hidden": 0,
    "description": "让一切都回到起点上吧。",
    "icon": "https://steamcdn-a.akamaihd.net/steamcommunity/public/images/apps/883870/5f78a0a3dee51da2575a06d3fb36a56748bb8566.jpg",
    "icongray": "https://steamcdn-a.akamaihd.net/steamcommunity/public/images/apps/883870/f3887709b07defbf0c444530d98dd8a1c296a992.jpg"
  },
  {
    "name": "T9",
    "defaultvalue": 0,
    "displayName": "我所要知哓的，到底是何物",
    "hidden": 0,
    "description": "一个人的世界原来是这样子的",
    "icon": "https://steamcdn-a.akamaihd.net/steamcommunity/public/images/apps/883870/be1b71a0033d7f15e942ff59243609a475bd3ad6.jpg",
    "icongray": "https://steamcdn-a.akamaihd.net/steamcommunity/public/images/apps/883870/1a7fdf56db7aff90bf50b38647d04a503be0adf1.jpg"
  },
  {
    "name": "T10",
    "defaultvalue": 0,
    "displayName": "定约在这片晴荫之下",
    "hidden": 0,
    "description": "重要的是这片晴空下的未来。",
    "icon": "https://steamcdn-a.akamaihd.net/steamcommunity/public/images/apps/883870/98429df14b4c2adca748969f7c30b225c1b46f5f.jpg",
    "icongray": "https://steamcdn-a.akamaihd.net/steamcommunity/public/images/apps/883870/1524a6de7b0ec3a25df31575645166ad780fb549.jpg"
  },
  {
    "name": "T11",
    "defaultvalue": 0,
    "displayName": "多彩的明天，定能延续下去",
    "hidden": 0,
    "description": "这样的世界会一直延续下去的。",
    "icon": "https://steamcdn-a.akamaihd.net/steamcommunity/public/images/apps/883870/124a978dbfb40ce6b9a4020e0ffd3fc35119ad58.jpg",
    "icongray": "https://steamcdn-a.akamaihd.net/steamcommunity/public/images/apps/883870/fd5b29adcfeb12a8e58fd35e355533fb08d741ab.jpg"
  },
  {
    "name": "T12",
    "defaultvalue": 0,
    "displayName": "初次相互重合的心",
    "hidden": 0,
    "description": "两颗心 俩个人的感情相互触碰时，得到的答案只有一个。",
    "icon": "https://steamcdn-a.akamaihd.net/steamcommunity/public/images/apps/883870/a117e22f23a94ddeeaaac3fce1f2da1f39ec99f4.jpg",
    "icongray": "https://steamcdn-a.akamaihd.net/steamcommunity/public/images/apps/883870/d2c9e0974f2a1493eb55317fbb6a302e2a0423b2.jpg"
  },
  {
    "name": "T13",
    "defaultvalue": 0,
    "displayName": "与屡次的怦然心动",
    "hidden": 0,
    "description": " 就算脑袋不灵光，但这心跳加速的感觉，我们都知哓。",
    "icon": "https://steamcdn-a.akamaihd.net/steamcommunity/public/images/apps/883870/43d6c578585ecbb7935a0ce4bfcab68a46a4fa3a.jpg",
    "icongray": "https://steamcdn-a.akamaihd.net/steamcommunity/public/images/apps/883870/51a6e5b6c7bf47718db672e297da8c6041a21238.jpg"
  },
  {
    "name": "T14",
    "defaultvalue": 0,
    "displayName": "终将使我知哓",
    "hidden": 0,
    "description": "　",
    "icon": "https://steamcdn-a.akamaihd.net/steamcommunity/public/images/apps/883870/704a03ae9c2532de27f8b8c975c18edf42a88e3f.jpg",
    "icongray": "https://steamcdn-a.akamaihd.net/steamcommunity/public/images/apps/883870/834cd5f90b6a304a15deae5b18205ab4b9aef4ba.jpg"
  },
  {
    "name": "T15",
    "defaultvalue": 0,
    "displayName": "何为晴荫。",
    "hidden": 1,
    "icon": "https://steamcdn-a.akamaihd.net/steamcommunity/public/images/apps/883870/91016a40fd622f0decbcfb6619cf053b9d6ed12b.jpg",
    "icongray": "https://steamcdn-a.akamaihd.net/steamcommunity/public/images/apps/883870/5eb74660355a458a933cdab290d0d008c0682ea2.jpg"
  }
]