{
  "Dlcs": {
    "874431": {
      "Name": "Bit-Boom - OST",
      "ImageUrl": "https://steamcdn-a.akamaihd.net/steam/apps/874431/header.jpg?t=1578145472"
    },
    "874430": {
      "Name": "Bit-Boom - Artworks",
      "ImageUrl": "https://steamcdn-a.akamaihd.net/steam/apps/874430/header.jpg?t=1578145367"
    }
  },
  "Name": "Bit-Boom",
  "AppId": "796480",
  "ImageUrl": "https://steamcdn-a.akamaihd.net/steam/apps/796480/header.jpg?t=1592025101",
  "Languages": [
    "english"
  ],
  "Platforms": {
    "windows": true,
    "mac": false,
    "linux": false
  }
}