﻿{
  "Dlcs": {},
  "Name": "Detective Kobayashi - A Visual Novel",
  "AppId": "1070220",
  "ImageUrl": "https://steamcdn-a.akamaihd.net/steam/apps/1070220/header.jpg?t=1583502621",
  "Languages": [
    "english",
    "german"
  ],
  "Platforms": {
    "windows": true,
    "mac": false,
    "linux": false
  }
}