{
  "Dlcs": {
    "1165120": {
      "Name": "Antarctic Girl 南極娘 - Patch",
      "ImageUrl": "https://steamcdn-a.akamaihd.net/steam/apps/1165120/header.jpg?t=1580449282"
    }
  },
  "Name": "Antarctic Girl 南極娘",
  "AppId": "1160900",
  "ImageUrl": "https://steamcdn-a.akamaihd.net/steam/apps/1160900/header.jpg?t=1580449082",
  "Languages": [
    "english",
    "tchinese"
  ],
  "Platforms": {
    "windows": true,
    "mac": false,
    "linux": false
  }
}