[
  {
    "name": "ACH_WIN_ONE_GAME",
    "defaultvalue": 0,
    "displayName": "Winner",
    "hidden": 0,
    "description": "Win one Game",
    "icon": "https://steamcdn-a.akamaihd.net/steamcommunity/public/images/apps/1273720/d832a6f90d240a8ae9e928bf3a8cc841013c21bc.jpg",
    "icongray": "https://steamcdn-a.akamaihd.net/steamcommunity/public/images/apps/1273720/d832a6f90d240a8ae9e928bf3a8cc841013c21bc.jpg"
  },
  {
    "name": "ACH_DISCORD",
    "defaultvalue": 0,
    "displayName": "Discord",
    "hidden": 0,
    "description": "Join us for rewards and giveaways",
    "icon": "https://steamcdn-a.akamaihd.net/steamcommunity/public/images/apps/1273720/e2386c638e1699e6fe1167ce236d463dda8f2eec.jpg",
    "icongray": "https://steamcdn-a.akamaihd.net/steamcommunity/public/images/apps/1273720/e2386c638e1699e6fe1167ce236d463dda8f2eec.jpg"
  }
]