{
  "Dlcs": {},
  "Name": "Grapple Tournament",
  "AppId": "1384320",
  "ImageUrl": "https://steamcdn-a.akamaihd.net/steam/apps/1384320/header.jpg?t=1598546662",
  "Languages": [
    "english"
  ],
  "Platforms": {
    "windows": true,
    "mac": false,
    "linux": false
  }
}