{
  "Dlcs": {},
  "Name": "Knife Only",
  "AppId": "1053720",
  "ImageUrl": "https://steamcdn-a.akamaihd.net/steam/apps/1053720/header.jpg?t=1571260593",
  "Languages": [
    "english"
  ],
  "Platforms": {
    "windows": true,
    "mac": true,
    "linux": true
  }
}