{
  "Dlcs": {
    "1347100": {
      "Name": "Item Collector - Barbarian",
      "ImageUrl": "https://steamcdn-a.akamaihd.net/steam/apps/1347100/header.jpg?t=1594373097"
    },
    "1347980": {
      "Name": "Item Collector - Prehistoric Age",
      "ImageUrl": "https://steamcdn-a.akamaihd.net/steam/apps/1347980/header.jpg?t=1594373094"
    },
    "1349350": {
      "Name": "Item Collector - Witch Craft",
      "ImageUrl": "https://steamcdn-a.akamaihd.net/steam/apps/1349350/header.jpg?t=1594373090"
    },
    "1350400": {
      "Name": "Item Collector - Necromancer",
      "ImageUrl": "https://steamcdn-a.akamaihd.net/steam/apps/1350400/header.jpg?t=1594373085"
    },
    "1351320": {
      "Name": "Item Collector - Trophy",
      "ImageUrl": "https://steamcdn-a.akamaihd.net/steam/apps/1351320/header.jpg?t=1594373083"
    },
    "1352320": {
      "Name": "Item Collector - Loot",
      "ImageUrl": "https://steamcdn-a.akamaihd.net/steam/apps/1352320/header.jpg?t=1594373079"
    }
  },
  "Name": "Item Collector - Pirates",
  "AppId": "1345300",
  "ImageUrl": "https://steamcdn-a.akamaihd.net/steam/apps/1345300/header.jpg?t=1594373217",
  "Languages": [
    "english"
  ],
  "Platforms": {
    "windows": true,
    "mac": false,
    "linux": false
  }
}