{
  "Dlcs": {},
  "Name": "City Eye",
  "AppId": "759080",
  "ImageUrl": "https://steamcdn-a.akamaihd.net/steam/apps/759080/header.jpg?t=1591006198",
  "Languages": [
    "english",
    "polish"
  ],
  "Platforms": {
    "windows": true,
    "mac": false,
    "linux": false
  }
}