﻿[
  {
    "name": "babCount",
    "defaultvalue": 0,
    "displayName": ""
  },
  {
    "name": "momCount",
    "defaultvalue": 0,
    "displayName": ""
  },
  {
    "name": "dadCount",
    "defaultvalue": 0,
    "displayName": ""
  },
  {
    "name": "goCount",
    "defaultvalue": 0,
    "displayName": ""
  },
  {
    "name": "killCount",
    "defaultvalue": 0,
    "displayName": ""
  }
]