{
  "Dlcs": {},
  "Name": "Welcome Above",
  "AppId": "912660",
  "ImageUrl": "https://steamcdn-a.akamaihd.net/steam/apps/912660/header.jpg?t=1544799280",
  "Languages": [
    "english"
  ],
  "Platforms": {
    "windows": true,
    "mac": false,
    "linux": false
  }
}