﻿[
  {
    "name": "MEDAL_ALLCLEARED",
    "defaultvalue": 0,
    "displayName": "True Contra Warrior",
    "hidden": 0,
    "description": "Complete all games",
    "icon": "https://steamcdn-a.akamaihd.net/steamcommunity/public/images/apps/1018020/716356c682d6993c79849eb48da40da3c0a02aa0.jpg",
    "icongray": "https://steamcdn-a.akamaihd.net/steamcommunity/public/images/apps/1018020/3244f5c50bace96c19ffedd3d172e03adf9c941f.jpg"
  },
  {
    "name": "MEDAL_ALLPLAYED",
    "defaultvalue": 0,
    "displayName": "Run N' Gun Specialist",
    "hidden": 0,
    "description": "Play each game",
    "icon": "https://steamcdn-a.akamaihd.net/steamcommunity/public/images/apps/1018020/b488f3e1959a87d8fc991578abebfdf19ab314cb.jpg",
    "icongray": "https://steamcdn-a.akamaihd.net/steamcommunity/public/images/apps/1018020/fcf4573f7e3bf752d0d00f61823ec8a3b499c00a.jpg"
  },
  {
    "name": "MEDAL_AC_C_CLEAR",
    "defaultvalue": 0,
    "displayName": "Irresistible Force",
    "hidden": 0,
    "description": "Complete Contra (Arcade)",
    "icon": "https://steamcdn-a.akamaihd.net/steamcommunity/public/images/apps/1018020/05ece984be33e1637089f5a09effe0aaf2830779.jpg",
    "icongray": "https://steamcdn-a.akamaihd.net/steamcommunity/public/images/apps/1018020/da10278918b217b3e8370b53ca7b660a8fc9f0ed.jpg"
  },
  {
    "name": "MEDAL_AC_SC_CLEAR",
    "defaultvalue": 0,
    "displayName": "The Quest for Freedom Continues!",
    "hidden": 0,
    "description": "Complete Super Contra",
    "icon": "https://steamcdn-a.akamaihd.net/steamcommunity/public/images/apps/1018020/8c687c227ee8942c586b3a90e771c28733403442.jpg",
    "icongray": "https://steamcdn-a.akamaihd.net/steamcommunity/public/images/apps/1018020/c931ac892d52247d34d4cc3c63a0a7031b4aff5a.jpg"
  },
  {
    "name": "MEDAL_FC_C_CLEAR",
    "defaultvalue": 0,
    "displayName": "First Flag on the Chopper",
    "hidden": 0,
    "description": "Complete Contra (JP)",
    "icon": "https://steamcdn-a.akamaihd.net/steamcommunity/public/images/apps/1018020/e983490db2ca7e18e8f29a771ac32ed41e359824.jpg",
    "icongray": "https://steamcdn-a.akamaihd.net/steamcommunity/public/images/apps/1018020/abaf6e22d2e63763fb3c8366d620988cb664575d.jpg"
  },
  {
    "name": "MEDAL_NES_C_CLEAR",
    "defaultvalue": 0,
    "displayName": "Is this 1987?",
    "hidden": 0,
    "description": "Complete Contra (NA)",
    "icon": "https://steamcdn-a.akamaihd.net/steamcommunity/public/images/apps/1018020/5241c491e2a06b103551c763eb0f52d97baf66d9.jpg",
    "icongray": "https://steamcdn-a.akamaihd.net/steamcommunity/public/images/apps/1018020/f302ed78a9ab07232b48ef419411e148ac599443.jpg"
  },
  {
    "name": "MEDAL_FC_SC_CLEAR",
    "defaultvalue": 0,
    "displayName": "Still Sharp After One Year",
    "hidden": 0,
    "description": "Complete Super C",
    "icon": "https://steamcdn-a.akamaihd.net/steamcommunity/public/images/apps/1018020/443326a56975f360521c9563abffcc0194ddf451.jpg",
    "icongray": "https://steamcdn-a.akamaihd.net/steamcommunity/public/images/apps/1018020/5a5d88e811a56fc158be6613b015164042c6b8db.jpg"
  },
  {
    "name": "MEDAL_SFC_CLEAR",
    "defaultvalue": 0,
    "displayName": "Your Efforts Will Not be Forgotten",
    "hidden": 0,
    "description": "Complete Contra III: The Alien Wars",
    "icon": "https://steamcdn-a.akamaihd.net/steamcommunity/public/images/apps/1018020/d6c2ea335649cb29b8d55609b65a6368df2ca353.jpg",
    "icongray": "https://steamcdn-a.akamaihd.net/steamcommunity/public/images/apps/1018020/5c2a8fc0a3b263c487a1ae97e459664a26c303c8.jpg"
  },
  {
    "name": "MEDAL_GB_CLEAR",
    "defaultvalue": 0,
    "displayName": "Best Island Vacation Ever",
    "hidden": 0,
    "description": "Complete Operation C",
    "icon": "https://steamcdn-a.akamaihd.net/steamcommunity/public/images/apps/1018020/360ca77b4f6a5fa431bc1b3824b268cc446c6153.jpg",
    "icongray": "https://steamcdn-a.akamaihd.net/steamcommunity/public/images/apps/1018020/8bb0a12b2f8b0043f90c3b9295c1b3034c275062.jpg"
  },
  {
    "name": "MEDAL_MD_A_CLEAR",
    "defaultvalue": 0,
    "displayName": "Victory Lap",
    "hidden": 0,
    "description": "Clear Route A in Contra: Hard Corps",
    "icon": "https://steamcdn-a.akamaihd.net/steamcommunity/public/images/apps/1018020/749fa75ee9184a3850749128d066dbd82354a83a.jpg",
    "icongray": "https://steamcdn-a.akamaihd.net/steamcommunity/public/images/apps/1018020/1350fe62672803c55de470740afe4478cc4bf7b6.jpg"
  },
  {
    "name": "MEDAL_MD_B_CLEAR",
    "defaultvalue": 0,
    "displayName": "Good Job!",
    "hidden": 0,
    "description": "Clear Route B in Contra: Hard Corps",
    "icon": "https://steamcdn-a.akamaihd.net/steamcommunity/public/images/apps/1018020/0dde832bfdac2776e174eb0c4e3a0922d2044187.jpg",
    "icongray": "https://steamcdn-a.akamaihd.net/steamcommunity/public/images/apps/1018020/bdf65cb643d79e3bace10e6a28e4906a5e2ae577.jpg"
  },
  {
    "name": "MEDAL_MD_C_CLEAR",
    "defaultvalue": 0,
    "displayName": "Better Luck Next Time",
    "hidden": 0,
    "description": "Clear Route C in Contra: Hard Corps",
    "icon": "https://steamcdn-a.akamaihd.net/steamcommunity/public/images/apps/1018020/a89cb84d40ed80147a8dff6e8d08ba700bd64301.jpg",
    "icongray": "https://steamcdn-a.akamaihd.net/steamcommunity/public/images/apps/1018020/bc69e7bd8b98b1c977281c1dc3cfa9b1264c1fad.jpg"
  },
  {
    "name": "MEDAL_MD_D_CLEAR",
    "defaultvalue": 0,
    "displayName": "A Step Away From Becoming God",
    "hidden": 0,
    "description": "Clear Route D in Contra: Hard Corps",
    "icon": "https://steamcdn-a.akamaihd.net/steamcommunity/public/images/apps/1018020/a5cc12a1c73d282d41564ed74e5abc4575bd4062.jpg",
    "icongray": "https://steamcdn-a.akamaihd.net/steamcommunity/public/images/apps/1018020/49d9abfb38d9431c8c10599499bac5560ce94b30.jpg"
  },
  {
    "name": "MEDAL_MD_S_CLEAR",
    "defaultvalue": 0,
    "displayName": "Monkey Business",
    "hidden": 0,
    "description": "Clear Route E in Contra: Hard Corps",
    "icon": "https://steamcdn-a.akamaihd.net/steamcommunity/public/images/apps/1018020/06290276fdbe3981b47464e5eac6890cef13f7a1.jpg",
    "icongray": "https://steamcdn-a.akamaihd.net/steamcommunity/public/images/apps/1018020/06722f824b5cda60eeba98417ff8c7e590af4726.jpg"
  },
  {
    "name": "MEDAL_SFC_EU_CLEAR",
    "defaultvalue": 0,
    "displayName": "A Peaceful Time Will Come!",
    "hidden": 0,
    "description": "Complete Super Probotector: Alien Rebels",
    "icon": "https://steamcdn-a.akamaihd.net/steamcommunity/public/images/apps/1018020/d6a2444a83fed6667f3c89ac357969cb959e8e11.jpg",
    "icongray": "https://steamcdn-a.akamaihd.net/steamcommunity/public/images/apps/1018020/0aa8c336c4e46e92f3431ac5a448289599ddb9ae.jpg"
  },
  {
    "name": "MEDAL_MD_EU_CLEAR",
    "defaultvalue": 0,
    "displayName": "See You Next Mission!",
    "hidden": 0,
    "description": "Complete Probotector",
    "icon": "https://steamcdn-a.akamaihd.net/steamcommunity/public/images/apps/1018020/1dcb23d9a402b275f920b48aa58425a35866ec5e.jpg",
    "icongray": "https://steamcdn-a.akamaihd.net/steamcommunity/public/images/apps/1018020/2bf06bc97bdd3a1abda4d44a4b6420c76f702836.jpg"
  }
]