[
  {
    "name": "NEW_ACHIEVEMENT_1_1",
    "defaultvalue": 0,
    "displayName": "Welcome back, Boss!",
    "hidden": 0,
    "description": "Finish the tutorial",
    "icon": "https://steamcdn-a.akamaihd.net/steamcommunity/public/images/apps/987630/e517b1b8843055b86acfa9204280fa861d6198ed.jpg",
    "icongray": "https://steamcdn-a.akamaihd.net/steamcommunity/public/images/apps/987630/b7d93ca7145c6d64e60a9122800b6757961294e9.jpg"
  },
  {
    "name": "NEW_ACHIEVEMENT_1_2",
    "defaultvalue": 0,
    "displayName": "Labour detachments",
    "hidden": 0,
    "description": "Hire 25 workers",
    "icon": "https://steamcdn-a.akamaihd.net/steamcommunity/public/images/apps/987630/fd732116f1775eefc98c7b42d87edc9f34d30a8e.jpg",
    "icongray": "https://steamcdn-a.akamaihd.net/steamcommunity/public/images/apps/987630/cca380360401979c315af5a4548d97c4a5604a60.jpg"
  },
  {
    "name": "NEW_ACHIEVEMENT_1_3",
    "defaultvalue": 0,
    "displayName": "Minecraft",
    "hidden": 0,
    "description": "Dig 100 cells",
    "icon": "https://steamcdn-a.akamaihd.net/steamcommunity/public/images/apps/987630/84d3acbea9b1e9a5f64adf2004dc828c1ed5b8fe.jpg",
    "icongray": "https://steamcdn-a.akamaihd.net/steamcommunity/public/images/apps/987630/cfa84069ea57b003af2ed28a1c013ea52eb6f506.jpg"
  },
  {
    "name": "NEW_ACHIEVEMENT_1_4",
    "defaultvalue": 0,
    "displayName": "It's all over!",
    "hidden": 0,
    "description": "Get over the market downfall",
    "icon": "https://steamcdn-a.akamaihd.net/steamcommunity/public/images/apps/987630/e61eadcc0d46f88f2f55a5c2639f7387b59bc81e.jpg",
    "icongray": "https://steamcdn-a.akamaihd.net/steamcommunity/public/images/apps/987630/caa06286baa6b1ba92e828392a206b6aafc6a4ab.jpg"
  },
  {
    "name": "NEW_ACHIEVEMENT_1_5",
    "defaultvalue": 0,
    "displayName": "We're rich!",
    "hidden": 0,
    "description": "Find oil",
    "icon": "https://steamcdn-a.akamaihd.net/steamcommunity/public/images/apps/987630/cc6f5a619776a099a4db6fe1ad6eb254acf3f362.jpg",
    "icongray": "https://steamcdn-a.akamaihd.net/steamcommunity/public/images/apps/987630/27c488bf6b089d01f7a6ec96103deaa467fc40e6.jpg"
  },
  {
    "name": "NEW_ACHIEVEMENT_1_6",
    "defaultvalue": 0,
    "displayName": "Progress in technology",
    "hidden": 0,
    "description": "Make one upgrade",
    "icon": "https://steamcdn-a.akamaihd.net/steamcommunity/public/images/apps/987630/8700feef4f7f635aba357830404e8004ab8c5ed7.jpg",
    "icongray": "https://steamcdn-a.akamaihd.net/steamcommunity/public/images/apps/987630/afa86ee2294b26f1f606a732367739c83e99eba2.jpg"
  },
  {
    "name": "NEW_ACHIEVEMENT_1_7",
    "defaultvalue": 0,
    "displayName": "We need a bigger garage",
    "hidden": 0,
    "description": "Create 25 units of machinery",
    "icon": "https://steamcdn-a.akamaihd.net/steamcommunity/public/images/apps/987630/6ddc80198a7be1d3151a424f97dc51734aad8d71.jpg",
    "icongray": "https://steamcdn-a.akamaihd.net/steamcommunity/public/images/apps/987630/115824333b0d1674c72e9a9e503fe5047e96b6bd.jpg"
  },
  {
    "name": "NEW_ACHIEVEMENT_1_8",
    "defaultvalue": 0,
    "displayName": "We need more minerals",
    "hidden": 0,
    "description": "Gather 100 units of each resource",
    "icon": "https://steamcdn-a.akamaihd.net/steamcommunity/public/images/apps/987630/36fce47e3af8e952452ab9d8c7f9d0f24576bc46.jpg",
    "icongray": "https://steamcdn-a.akamaihd.net/steamcommunity/public/images/apps/987630/713223ca4178127ecb428a1d56e79697eec5f552.jpg"
  },
  {
    "name": "NEW_ACHIEVEMENT_1_9",
    "defaultvalue": 0,
    "displayName": "Death from the depth",
    "hidden": 0,
    "description": "Dig the ancient virus",
    "icon": "https://steamcdn-a.akamaihd.net/steamcommunity/public/images/apps/987630/fe1068d48bada65c48633e7805b005be680e6698.jpg",
    "icongray": "https://steamcdn-a.akamaihd.net/steamcommunity/public/images/apps/987630/a7c5d8743932f460ae42cd4db796550b6a2d295d.jpg"
  },
  {
    "name": "NEW_ACHIEVEMENT_1_10",
    "defaultvalue": 0,
    "displayName": "New workforce",
    "hidden": 0,
    "description": "Get students at your disposal",
    "icon": "https://steamcdn-a.akamaihd.net/steamcommunity/public/images/apps/987630/4cd559618965b93a024b1195385d671839b9b471.jpg",
    "icongray": "https://steamcdn-a.akamaihd.net/steamcommunity/public/images/apps/987630/20fd9d0be617483919a6b30dbd53ae7d3b65c9f1.jpg"
  },
  {
    "name": "NEW_ACHIEVEMENT_1_11",
    "defaultvalue": 0,
    "displayName": "World's resources market",
    "hidden": 0,
    "description": "Finish all levels",
    "icon": "https://steamcdn-a.akamaihd.net/steamcommunity/public/images/apps/987630/73aaf03e93c4156c92df52a26b4035565efd86af.jpg",
    "icongray": "https://steamcdn-a.akamaihd.net/steamcommunity/public/images/apps/987630/80692fcc5016fe9828f8c4cde88f2f4dc1433cf7.jpg"
  },
  {
    "name": "NEW_ACHIEVEMENT_1_12",
    "defaultvalue": 0,
    "displayName": "Industrial revolution",
    "hidden": 0,
    "description": "Buy all the upgrades",
    "icon": "https://steamcdn-a.akamaihd.net/steamcommunity/public/images/apps/987630/c9b6b16293902995fc4a8682bb946f8a2c2e09dc.jpg",
    "icongray": "https://steamcdn-a.akamaihd.net/steamcommunity/public/images/apps/987630/f389821668ea49ce95aa3f74e7831bc2762060b7.jpg"
  },
  {
    "name": "NEW_ACHIEVEMENT_1_13",
    "defaultvalue": 0,
    "displayName": "First aid",
    "hidden": 0,
    "description": "Repair 10 units of machinery",
    "icon": "https://steamcdn-a.akamaihd.net/steamcommunity/public/images/apps/987630/ceba343738fa8660e85d109c0835898a148efb3b.jpg",
    "icongray": "https://steamcdn-a.akamaihd.net/steamcommunity/public/images/apps/987630/b047129e48d364ebd2e4a20ef5797e53c8c133a2.jpg"
  },
  {
    "name": "NEW_ACHIEVEMENT_1_14",
    "defaultvalue": 0,
    "displayName": "Minecraft 2",
    "hidden": 0,
    "description": "Dig 1000 cells",
    "icon": "https://steamcdn-a.akamaihd.net/steamcommunity/public/images/apps/987630/33e2ccd7a4ce43c75b9614e27369e35b69dae566.jpg",
    "icongray": "https://steamcdn-a.akamaihd.net/steamcommunity/public/images/apps/987630/9173ebc27f4f5cd6de7c9d98b33ad93497073194.jpg"
  },
  {
    "name": "NEW_ACHIEVEMENT_1_15",
    "defaultvalue": 0,
    "displayName": "Rapid labour market",
    "hidden": 0,
    "description": "Hire 100 workers",
    "icon": "https://steamcdn-a.akamaihd.net/steamcommunity/public/images/apps/987630/c54589a6ef6ddc0d3c02e1fb79265b4edd26cac1.jpg",
    "icongray": "https://steamcdn-a.akamaihd.net/steamcommunity/public/images/apps/987630/19a15b23337d2e4814003f2570ffea59876d3d28.jpg"
  },
  {
    "name": "NEW_ACHIEVEMENT_1_16",
    "defaultvalue": 0,
    "displayName": "Where is my excavator?",
    "hidden": 0,
    "description": "Create 100 units of machinery",
    "icon": "https://steamcdn-a.akamaihd.net/steamcommunity/public/images/apps/987630/12bd34158dbd310cae2b3d3c026908cf56313fcc.jpg",
    "icongray": "https://steamcdn-a.akamaihd.net/steamcommunity/public/images/apps/987630/eefd8ccafab609ae873accbd2c756fac9ef8061a.jpg"
  }
]