{
  "Dlcs": {
    "1103240": {
      "Name": "",
      "ImageUrl": ""
    }
  },
  "Name": "Elf Enchanter: Arousing Anima",
  "AppId": "1031170",
  "ImageUrl": "https://steamcdn-a.akamaihd.net/steam/apps/1031170/header.jpg?t=1598113749",
  "Languages": [
    "english"
  ],
  "Platforms": {
    "windows": true,
    "mac": true,
    "linux": true
  }
}