{
  "Dlcs": {},
  "Name": "Gigantosaurus The Game",
  "AppId": "1177020",
  "ImageUrl": "https://steamcdn-a.akamaihd.net/steam/apps/1177020/header.jpg?t=1585298863",
  "Languages": [
    "english",
    "french",
    "italian",
    "german",
    "spanish",
    "arabic",
    "dutch",
    "japanese",
    "polish",
    "portuguese",
    "schinese",
    "latam",
    "korean"
  ],
  "Platforms": {
    "windows": true,
    "mac": false,
    "linux": false
  }
}