{
  "Dlcs": {},
  "Name": "Fireworks Mania - An Explosive Simulator",
  "AppId": "1079260",
  "ImageUrl": "https://steamcdn-a.akamaihd.net/steam/apps/1079260/header.jpg?t=1601371185",
  "Languages": [
    "english"
  ],
  "Platforms": {
    "windows": true,
    "mac": false,
    "linux": false
  }
}