{
  "Dlcs": {},
  "Name": "Neon Boost",
  "AppId": "1057850",
  "ImageUrl": "https://steamcdn-a.akamaihd.net/steam/apps/1057850/header.jpg?t=1577210539",
  "Languages": [
    "english",
    "spanish",
    "french",
    "german",
    "portuguese",
    "russian"
  ],
  "Platforms": {
    "windows": true,
    "mac": false,
    "linux": false
  }
}