﻿[
  {
    "name": "CIPHER_SOLVED",
    "defaultvalue": 0,
    "displayName": "Ciphers Solved"
  },
  {
    "name": "INCOME",
    "defaultvalue": 0,
    "displayName": "Credits Earned"
  },
  {
    "name": "ITEM_CRAFTED",
    "defaultvalue": 0,
    "displayName": "Items Crafted"
  },
  {
    "name": "REVIVE_BUDDY",
    "defaultvalue": 0,
    "displayName": "Allies Revived"
  },
  {
    "name": "SELL_ITEM",
    "defaultvalue": 0,
    "displayName": "Sold in Market"
  },
  {
    "name": "UPGRADE_RECEIVED",
    "defaultvalue": 0,
    "displayName": "Mods Collected"
  },
  {
    "name": "PLAY_TIME",
    "defaultvalue": 0,
    "displayName": "Mission Time"
  }
]