{
  "Dlcs": {
    "22630": {
      "Name": "Worms Reloaded: The \"Pre-order Forts and Hats\" DLC Pack",
      "ImageUrl": "https://steamcdn-a.akamaihd.net/steam/apps/22630/header.jpg?t=1448452129"
    },
    "22631": {
      "Name": "Worms Reloaded: Puzzle Pack",
      "ImageUrl": "https://steamcdn-a.akamaihd.net/steam/apps/22631/header.jpg?t=1448452202"
    },
    "22632": {
      "Name": "Worms Reloaded: Forts Pack",
      "ImageUrl": "https://steamcdn-a.akamaihd.net/steam/apps/22632/header.jpg?t=1448452081"
    },
    "22633": {
      "Name": "Worms Reloaded: Time Attack Pack",
      "ImageUrl": "https://steamcdn-a.akamaihd.net/steam/apps/22633/header.jpg?t=1448452297"
    },
    "22634": {
      "Name": "Worms Reloaded: Retro Pack",
      "ImageUrl": "https://steamcdn-a.akamaihd.net/steam/apps/22634/header.jpg?t=1448452243"
    }
  },
  "Name": "Worms Reloaded",
  "AppId": "22600",
  "ImageUrl": "https://steamcdn-a.akamaihd.net/steam/apps/22600/header.jpg?t=1596807362",
  "Languages": [
    "english",
    "french",
    "german",
    "italian",
    "spanish"
  ],
  "Platforms": {
    "windows": true,
    "mac": true,
    "linux": true
  }
}