{
  "Dlcs": {},
  "Name": "Rocking Legend",
  "AppId": "1260800",
  "ImageUrl": "https://steamcdn-a.akamaihd.net/steam/apps/1260800/header.jpg?t=1599604331",
  "Languages": [
    "english"
  ],
  "Platforms": {
    "windows": true,
    "mac": false,
    "linux": false
  }
}