{
  "Dlcs": {},
  "Name": "Escape from Fortress Lugohm",
  "AppId": "1015750",
  "ImageUrl": "https://steamcdn-a.akamaihd.net/steam/apps/1015750/header.jpg?t=1600321006",
  "Languages": [
    "english",
    "schinese"
  ],
  "Platforms": {
    "windows": true,
    "mac": false,
    "linux": false
  }
}