﻿[
  {
    "name": "ACH_GENESIS",
    "defaultvalue": 0,
    "displayName": "GENESIS",
    "hidden": 0,
    "description": "Over 10 million points in the first level.",
    "icon": "https://steamcdn-a.akamaihd.net/steamcommunity/public/images/apps/61100/252cf389e22e611eb7ddf6ab141bc4229990e361.jpg",
    "icongray": "https://steamcdn-a.akamaihd.net/steamcommunity/public/images/apps/61100/18dc82ba87b5b089b8100a094528a9a17cdcc54c.jpg"
  },
  {
    "name": "ACH_PICNIC_ON_THE_MOON",
    "defaultvalue": 0,
    "displayName": "PICNIC_ON_THE_MOON",
    "hidden": 0,
    "description": "Task-Combo of 14 or over.",
    "icon": "https://steamcdn-a.akamaihd.net/steamcommunity/public/images/apps/61100/0be32f691b5147780b3912b90d33354806ec3595.jpg",
    "icongray": "https://steamcdn-a.akamaihd.net/steamcommunity/public/images/apps/61100/b6ab8a2d712f85044495ddd9bf46b8c1662c12a9.jpg"
  },
  {
    "name": "ACH_LUCID_EARTH",
    "defaultvalue": 0,
    "displayName": "LUCID_EARTH",
    "hidden": 0,
    "description": "Clear 5 levels.",
    "icon": "https://steamcdn-a.akamaihd.net/steamcommunity/public/images/apps/61100/dd1d7ce010d80c635235e96d5136ad679dd329e0.jpg",
    "icongray": "https://steamcdn-a.akamaihd.net/steamcommunity/public/images/apps/61100/8ef4a7e783a605a0641bb7f2e94328b9f99f5a8d.jpg"
  },
  {
    "name": "ACH_RED_SUPERGIANT",
    "defaultvalue": 0,
    "displayName": "RED_SUPERGIANT",
    "hidden": 0,
    "description": "Clear 24 RED blocks in consequent moves.",
    "icon": "https://steamcdn-a.akamaihd.net/steamcommunity/public/images/apps/61100/a2ca6c1ac5ae1f3c1211a8fa918c2b7c51b13db3.jpg",
    "icongray": "https://steamcdn-a.akamaihd.net/steamcommunity/public/images/apps/61100/0689d2d5c13f5849bd6b68f7199ef38a87b2a42b.jpg"
  },
  {
    "name": "ACH_GREEN_SUN",
    "defaultvalue": 0,
    "displayName": "GREEN_SUN",
    "hidden": 0,
    "description": "Clear 6 GREEN areas in a row.",
    "icon": "https://steamcdn-a.akamaihd.net/steamcommunity/public/images/apps/61100/8734d03d84c9c534c6798a7751fa56cfc5c70b94.jpg",
    "icongray": "https://steamcdn-a.akamaihd.net/steamcommunity/public/images/apps/61100/36be160a2bd82ea2cdb98e0ff6c12c0bd158c19b.jpg"
  },
  {
    "name": "ACH_BLUE_SKIES",
    "defaultvalue": 0,
    "displayName": "BLUE_SKIES",
    "hidden": 0,
    "description": "Clear 18 BLUE blocks in consequent moves.",
    "icon": "https://steamcdn-a.akamaihd.net/steamcommunity/public/images/apps/61100/ea157359656087cc1116068242dc71ebcb600676.jpg",
    "icongray": "https://steamcdn-a.akamaihd.net/steamcommunity/public/images/apps/61100/19201074b13f28fac47f469b39d7e6095de8d301.jpg"
  },
  {
    "name": "ACH_YELLOW_STAR",
    "defaultvalue": 0,
    "displayName": "YELLOW_STAR",
    "hidden": 0,
    "description": "Clear 60 YELLOW blocks in one level.",
    "icon": "https://steamcdn-a.akamaihd.net/steamcommunity/public/images/apps/61100/af4ef9cda4be46412f7d63b1287e16fa8e655fb2.jpg",
    "icongray": "https://steamcdn-a.akamaihd.net/steamcommunity/public/images/apps/61100/b442cfccbf929da2df70936ac76566e2fc1ff840.jpg"
  },
  {
    "name": "ACH_SOMEWHERE_OVER_THE_RAINBOW",
    "defaultvalue": 0,
    "displayName": "SOMEWHERE_OVER_THE_RAINBOW",
    "hidden": 0,
    "description": "Have 8 Lucid-Blocks on the screen at the same time.",
    "icon": "https://steamcdn-a.akamaihd.net/steamcommunity/public/images/apps/61100/83fa2c77f8594e41af17826623dd7952b7724e5d.jpg",
    "icongray": "https://steamcdn-a.akamaihd.net/steamcommunity/public/images/apps/61100/1282025a34164afecab9a23b937ab0cdbaa17231.jpg"
  },
  {
    "name": "ACH_DARK_SIDE_OF_THE_MOON",
    "defaultvalue": 0,
    "displayName": "DARK_SIDE_OF_THE_MOON",
    "hidden": 0,
    "description": "Clear 35 levels.",
    "icon": "https://steamcdn-a.akamaihd.net/steamcommunity/public/images/apps/61100/8aeffe6096bfeac2c1678df4dac208ac91a9b618.jpg",
    "icongray": "https://steamcdn-a.akamaihd.net/steamcommunity/public/images/apps/61100/d5c02d06f1a827350f7039647dc2834acad2ae19.jpg"
  },
  {
    "name": "ACH_COSMIC_SUPERSTRINGS",
    "defaultvalue": 0,
    "displayName": "COSMIC_SUPERSTRINGS",
    "hidden": 0,
    "description": "Get 400,000 or more points in one move.",
    "icon": "https://steamcdn-a.akamaihd.net/steamcommunity/public/images/apps/61100/0542cb5a4559e002021738c72892034f2336d3e2.jpg",
    "icongray": "https://steamcdn-a.akamaihd.net/steamcommunity/public/images/apps/61100/d402d6dbd3ea974f44ca094a9e3ec9fc9823e94c.jpg"
  },
  {
    "name": "ACH_BIG_BANG",
    "defaultvalue": 0,
    "displayName": "BIG_BANG",
    "hidden": 0,
    "description": "Clear the last level (55th).",
    "icon": "https://steamcdn-a.akamaihd.net/steamcommunity/public/images/apps/61100/11fa089c43c6cc51353586ecd2a33adaa078f2bb.jpg",
    "icongray": "https://steamcdn-a.akamaihd.net/steamcommunity/public/images/apps/61100/0c21f40d75c2a2dfab288a27d4af907b967dfbc0.jpg"
  }
]