[
  {
    "name": "10_dots",
    "defaultvalue": 0,
    "displayName": "Connect 10 Dots",
    "hidden": 0,
    "description": "Connect 10 Dots",
    "icon": "https://steamcdn-a.akamaihd.net/steamcommunity/public/images/apps/879250/67385377831ce23e5071be2bc22176e2d465fa9e.jpg",
    "icongray": "https://steamcdn-a.akamaihd.net/steamcommunity/public/images/apps/879250/dc7f5585abddb5c0cd59e3bb930905b5cba88ec4.jpg"
  },
  {
    "name": "100_dots",
    "defaultvalue": 0,
    "displayName": "Connect 100 Dots",
    "hidden": 0,
    "description": "Connect 100 Dots",
    "icon": "https://steamcdn-a.akamaihd.net/steamcommunity/public/images/apps/879250/b45c4458c2104cc8211ca42aec84adbafc293da0.jpg",
    "icongray": "https://steamcdn-a.akamaihd.net/steamcommunity/public/images/apps/879250/f4621bd00745f9c8d48c247194506c14f6e3c4cd.jpg"
  },
  {
    "name": "500_dots",
    "defaultvalue": 0,
    "displayName": "500 dots connected",
    "hidden": 0,
    "description": "500 dots connected",
    "icon": "https://steamcdn-a.akamaihd.net/steamcommunity/public/images/apps/879250/ecd372aee6f28a8b55e589148e2c990d5034fd2f.jpg",
    "icongray": "https://steamcdn-a.akamaihd.net/steamcommunity/public/images/apps/879250/0c14e8eb92e059c806473f85722bfda7918e2937.jpg"
  },
  {
    "name": "1000_dots",
    "defaultvalue": 0,
    "displayName": "1,000 dots connected",
    "hidden": 0,
    "description": "1,000 dots connected",
    "icon": "https://steamcdn-a.akamaihd.net/steamcommunity/public/images/apps/879250/5f9801914385de5b9207138676596e804600f25a.jpg",
    "icongray": "https://steamcdn-a.akamaihd.net/steamcommunity/public/images/apps/879250/031e835cbcf5954c50609867504292539e363401.jpg"
  },
  {
    "name": "finish_and_color",
    "defaultvalue": 0,
    "displayName": "Finish and Color",
    "hidden": 0,
    "description": "Finish and Color",
    "icon": "https://steamcdn-a.akamaihd.net/steamcommunity/public/images/apps/879250/5b1591d7f216c55a52408d1a7159b7e985aaee32.jpg",
    "icongray": "https://steamcdn-a.akamaihd.net/steamcommunity/public/images/apps/879250/c6731a97e2692d60245562876b32237b2880679e.jpg"
  },
  {
    "name": "2500_dots",
    "defaultvalue": 0,
    "displayName": "2,500 dots connected",
    "hidden": 0,
    "description": "2,500 dots connected",
    "icon": "https://steamcdn-a.akamaihd.net/steamcommunity/public/images/apps/879250/9eda7c6fb74a1f969e2f97ec4ad2b89d17e810c5.jpg",
    "icongray": "https://steamcdn-a.akamaihd.net/steamcommunity/public/images/apps/879250/723191e2251dccf06c8bb9084e96d17f876ff6be.jpg"
  },
  {
    "name": "5000_dots",
    "defaultvalue": 0,
    "displayName": "5,000 dots connecte",
    "hidden": 0,
    "description": "5,000 dots connected",
    "icon": "https://steamcdn-a.akamaihd.net/steamcommunity/public/images/apps/879250/a0629327628a104f7b837c793d1574c61e950509.jpg",
    "icongray": "https://steamcdn-a.akamaihd.net/steamcommunity/public/images/apps/879250/62c605b4e18613507e8510daea645988151296e0.jpg"
  },
  {
    "name": "10000_dots",
    "defaultvalue": 0,
    "displayName": "10,000 dots connected",
    "hidden": 0,
    "description": "10,000 dots connected",
    "icon": "https://steamcdn-a.akamaihd.net/steamcommunity/public/images/apps/879250/12dcfdac4a32cceab90117fa630310399254dc59.jpg",
    "icongray": "https://steamcdn-a.akamaihd.net/steamcommunity/public/images/apps/879250/960876a8007af83b0cab935c718fa31f8952bbc9.jpg"
  },
  {
    "name": "20000_dots",
    "defaultvalue": 0,
    "displayName": "20,000 dots connected",
    "hidden": 0,
    "description": "20,000 dots connected",
    "icon": "https://steamcdn-a.akamaihd.net/steamcommunity/public/images/apps/879250/9eb7333ad68679844fa7032c60deee22a9f0f7ae.jpg",
    "icongray": "https://steamcdn-a.akamaihd.net/steamcommunity/public/images/apps/879250/9efdfbec53dd3a206fcd5ce47c7ef0f557db7cfe.jpg"
  },
  {
    "name": "unlock_star_picture",
    "defaultvalue": 0,
    "displayName": "Unlock Star Picture",
    "hidden": 0,
    "description": "Unlock Star Picture",
    "icon": "https://steamcdn-a.akamaihd.net/steamcommunity/public/images/apps/879250/d13b96ec57d43b5258cc9d9dfdaf1df7893f16d1.jpg",
    "icongray": "https://steamcdn-a.akamaihd.net/steamcommunity/public/images/apps/879250/e87e3934342fcad89d692466d700f135d65ea084.jpg"
  },
  {
    "name": "40000_dots",
    "defaultvalue": 0,
    "displayName": "40,000 dots connected",
    "hidden": 0,
    "description": "40,000 dots connected",
    "icon": "https://steamcdn-a.akamaihd.net/steamcommunity/public/images/apps/879250/ae4c67bc5e224b83209897e66b00d06ffde15878.jpg",
    "icongray": "https://steamcdn-a.akamaihd.net/steamcommunity/public/images/apps/879250/9aa1d2d9dcbe3e5802e4069fb2dae5aae4df57e4.jpg"
  },
  {
    "name": "75000_dots",
    "defaultvalue": 0,
    "displayName": "75,000 dots connected",
    "hidden": 0,
    "description": "75,000 dots connected",
    "icon": "https://steamcdn-a.akamaihd.net/steamcommunity/public/images/apps/879250/715edc5a104737caebed4a5400f03af8aea0c4cf.jpg",
    "icongray": "https://steamcdn-a.akamaihd.net/steamcommunity/public/images/apps/879250/e4b707dd86c6c4a83b5e60b04412bad080f394d9.jpg"
  },
  {
    "name": "125000_dots",
    "defaultvalue": 0,
    "displayName": "125,000 dots connected",
    "hidden": 0,
    "description": "125,000 dots connected",
    "icon": "https://steamcdn-a.akamaihd.net/steamcommunity/public/images/apps/879250/251d7ffc4586f60c588a19f603e7a7eeba60d6b1.jpg",
    "icongray": "https://steamcdn-a.akamaihd.net/steamcommunity/public/images/apps/879250/ff4426483674c057a79e0bf060db8e3541596ffd.jpg"
  },
  {
    "name": "200000_dots",
    "defaultvalue": 0,
    "displayName": "200,000 dots connected",
    "hidden": 0,
    "description": "200,000 dots connected",
    "icon": "https://steamcdn-a.akamaihd.net/steamcommunity/public/images/apps/879250/780d0d0b5776ac8921402e9626e99c3aee4a1bcf.jpg",
    "icongray": "https://steamcdn-a.akamaihd.net/steamcommunity/public/images/apps/879250/36a5a31bb92d131e9c75690ee10a9a358abe3960.jpg"
  },
  {
    "name": "300000_dots",
    "defaultvalue": 0,
    "displayName": "300,000 dots connected",
    "hidden": 0,
    "description": "300,000 dots connected",
    "icon": "https://steamcdn-a.akamaihd.net/steamcommunity/public/images/apps/879250/da19237bd6a2e69289b44a8e38257110464f2755.jpg",
    "icongray": "https://steamcdn-a.akamaihd.net/steamcommunity/public/images/apps/879250/92bcaaa01b8d2394fa295ace68312dbc11d54a7d.jpg"
  },
  {
    "name": "finish_2_pic",
    "defaultvalue": 0,
    "displayName": "Finish 2 pictures",
    "hidden": 0,
    "description": "Finish 2 pictures",
    "icon": "https://steamcdn-a.akamaihd.net/steamcommunity/public/images/apps/879250/2caf1495620c72d1ae4cc274485e501692a31bc8.jpg",
    "icongray": "https://steamcdn-a.akamaihd.net/steamcommunity/public/images/apps/879250/783a0cd7b58eb581ba26a4488c24d421e34a0faa.jpg"
  },
  {
    "name": "finish_5_pic",
    "defaultvalue": 0,
    "displayName": "Finish 5 pictures",
    "hidden": 0,
    "description": "Finish 5 pictures",
    "icon": "https://steamcdn-a.akamaihd.net/steamcommunity/public/images/apps/879250/6cfbc24b0e359cbb919d50268bd7e0cf8c13df79.jpg",
    "icongray": "https://steamcdn-a.akamaihd.net/steamcommunity/public/images/apps/879250/7f66c0448c045dcc32e977a4e68d167787a410e8.jpg"
  },
  {
    "name": "finish_10_pic",
    "defaultvalue": 0,
    "displayName": "Finish 10 pictures",
    "hidden": 0,
    "description": "Finish 10 pictures",
    "icon": "https://steamcdn-a.akamaihd.net/steamcommunity/public/images/apps/879250/a5859a67a3165ec95c4db4a76e6eeaa2f449ebad.jpg",
    "icongray": "https://steamcdn-a.akamaihd.net/steamcommunity/public/images/apps/879250/ee4e9d5417846565a517899019ce246f87ac7a09.jpg"
  },
  {
    "name": "finish_25_pic",
    "defaultvalue": 0,
    "displayName": "Finish 25 pictures",
    "hidden": 0,
    "description": "Finish 25 pictures",
    "icon": "https://steamcdn-a.akamaihd.net/steamcommunity/public/images/apps/879250/1459eb1d585b317383e397895daeb1d3147f4be0.jpg",
    "icongray": "https://steamcdn-a.akamaihd.net/steamcommunity/public/images/apps/879250/5dc14a9552cdba80c6d9592cc271c44903644f4a.jpg"
  },
  {
    "name": "finish_50_pic",
    "defaultvalue": 0,
    "displayName": "Finish 50 pictures",
    "hidden": 0,
    "description": "Finish 50 pictures",
    "icon": "https://steamcdn-a.akamaihd.net/steamcommunity/public/images/apps/879250/2fbbd7020e6c7e3e60c5613ca2f820aa96626606.jpg",
    "icongray": "https://steamcdn-a.akamaihd.net/steamcommunity/public/images/apps/879250/681dbc779601065c4556bdbf018b0d332647e6ba.jpg"
  },
  {
    "name": "finish_100_pic",
    "defaultvalue": 0,
    "displayName": "Finish 100 pictures",
    "hidden": 0,
    "description": "Finish 100 pictures",
    "icon": "https://steamcdn-a.akamaihd.net/steamcommunity/public/images/apps/879250/7e9b7a1441581872ea08518a233bfbb8f73ad98b.jpg",
    "icongray": "https://steamcdn-a.akamaihd.net/steamcommunity/public/images/apps/879250/810b93bb883fa1612804d016961f60bb8d349790.jpg"
  },
  {
    "name": "finish_150_pic",
    "defaultvalue": 0,
    "displayName": "Finish 150 pictures",
    "hidden": 0,
    "description": "Finish 150 pictures",
    "icon": "https://steamcdn-a.akamaihd.net/steamcommunity/public/images/apps/879250/f81e80f4b7b33672d3b47d96d1059e05a00049b3.jpg",
    "icongray": "https://steamcdn-a.akamaihd.net/steamcommunity/public/images/apps/879250/dd62f8c120072203f39b370aadf4c628f937efeb.jpg"
  },
  {
    "name": "finish_200_pic",
    "defaultvalue": 0,
    "displayName": "Finish 200 pictures",
    "hidden": 0,
    "description": "Finish 200 pictures",
    "icon": "https://steamcdn-a.akamaihd.net/steamcommunity/public/images/apps/879250/4e5da8d530484344522cf65668c155175bee385b.jpg",
    "icongray": "https://steamcdn-a.akamaihd.net/steamcommunity/public/images/apps/879250/33e2b73f0bd3d86ae3f354139c411fb6863b66f0.jpg"
  },
  {
    "name": "finish_250_pic",
    "defaultvalue": 0,
    "displayName": "Finish 250 pictures",
    "hidden": 0,
    "description": "Finish 250 pictures",
    "icon": "https://steamcdn-a.akamaihd.net/steamcommunity/public/images/apps/879250/ec3dd1d293df9492b9cbce83906cba472234f158.jpg",
    "icongray": "https://steamcdn-a.akamaihd.net/steamcommunity/public/images/apps/879250/b6ac5693c8504b94b30013de355131ae37c0f3d2.jpg"
  },
  {
    "name": "finish_300_pic",
    "defaultvalue": 0,
    "displayName": "Finish 300 pictures",
    "hidden": 0,
    "description": "Finish 300 pictures",
    "icon": "https://steamcdn-a.akamaihd.net/steamcommunity/public/images/apps/879250/c89265c89eb17eb0645d09039819de83e8d67ee8.jpg",
    "icongray": "https://steamcdn-a.akamaihd.net/steamcommunity/public/images/apps/879250/a9ccd349d4c4a14e863588773717d7f86ba1897b.jpg"
  },
  {
    "name": "greater_than_3000",
    "defaultvalue": 0,
    "displayName": "Pic greater than 3000",
    "hidden": 0,
    "description": "Pic greater than 3000",
    "icon": "https://steamcdn-a.akamaihd.net/steamcommunity/public/images/apps/879250/54ab0e7b66a627e2b682d04858a9d87bcdd5ba1f.jpg",
    "icongray": "https://steamcdn-a.akamaihd.net/steamcommunity/public/images/apps/879250/c986fe9c09ec6f4e7b77ace9bf8dbb94e1de1807.jpg"
  },
  {
    "name": "greater_than_4000",
    "defaultvalue": 0,
    "displayName": "Pic greater than 4000",
    "hidden": 0,
    "description": "Pic greater than 4000",
    "icon": "https://steamcdn-a.akamaihd.net/steamcommunity/public/images/apps/879250/420117932287959d7f870345cea22e83aa5fdf8a.jpg",
    "icongray": "https://steamcdn-a.akamaihd.net/steamcommunity/public/images/apps/879250/dbe0ddc68762c4d18f010e89a9118d188bbe0064.jpg"
  },
  {
    "name": "greater_than_5000",
    "defaultvalue": 0,
    "displayName": "Pic greater than 5000",
    "hidden": 0,
    "description": "Pic greater than 5000",
    "icon": "https://steamcdn-a.akamaihd.net/steamcommunity/public/images/apps/879250/e76dcf3610962e1e85ce1ef6e58401a358f28354.jpg",
    "icongray": "https://steamcdn-a.akamaihd.net/steamcommunity/public/images/apps/879250/05e14c7c6254388bb735e1e73665e1cf77d61f50.jpg"
  },
  {
    "name": "greater_than_6000",
    "defaultvalue": 0,
    "displayName": "Pic greater than 6000",
    "hidden": 0,
    "description": "Pic greater than 6000",
    "icon": "https://steamcdn-a.akamaihd.net/steamcommunity/public/images/apps/879250/331f7adb27321436dd318e71cab62b0b6e4affd1.jpg",
    "icongray": "https://steamcdn-a.akamaihd.net/steamcommunity/public/images/apps/879250/dbd8c4e69b6626cc4bb15faeea636108ada9082a.jpg"
  },
  {
    "name": "greater_than_500",
    "defaultvalue": 0,
    "displayName": "Pic greater than 500",
    "hidden": 0,
    "description": "Pic greater than 500",
    "icon": "https://steamcdn-a.akamaihd.net/steamcommunity/public/images/apps/879250/fc419271704b748bcdacef6bd043c1671017279a.jpg",
    "icongray": "https://steamcdn-a.akamaihd.net/steamcommunity/public/images/apps/879250/5fc84532a0b546886f4435022ef6e1c52d69638f.jpg"
  },
  {
    "name": "greater_than_1000",
    "defaultvalue": 0,
    "displayName": "Pic greater than 1000",
    "hidden": 0,
    "description": "Pic greater than 1000",
    "icon": "https://steamcdn-a.akamaihd.net/steamcommunity/public/images/apps/879250/2ffc0fe1984b12e8394f75778453ffdd99abada7.jpg",
    "icongray": "https://steamcdn-a.akamaihd.net/steamcommunity/public/images/apps/879250/80d1a773cd68083be66783731f60ca8fd8286c7a.jpg"
  },
  {
    "name": "greater_than_2000",
    "defaultvalue": 0,
    "displayName": "Pic greater than 2000",
    "hidden": 0,
    "description": "Pic greater than 2000",
    "icon": "https://steamcdn-a.akamaihd.net/steamcommunity/public/images/apps/879250/33be2e535fa0f7c6ccbca2e21cab54e35d50051c.jpg",
    "icongray": "https://steamcdn-a.akamaihd.net/steamcommunity/public/images/apps/879250/85f6cc49894e8b772acde6eb58b00187f05fab48.jpg"
  },
  {
    "name": "greater_than_7000",
    "defaultvalue": 0,
    "displayName": "Pic greater than 7000",
    "hidden": 0,
    "description": "Pic greater than 7000",
    "icon": "https://steamcdn-a.akamaihd.net/steamcommunity/public/images/apps/879250/4c7469dab2e849bc5f5ec257a248e512fa5c1386.jpg",
    "icongray": "https://steamcdn-a.akamaihd.net/steamcommunity/public/images/apps/879250/cd51f1b312cc766786cb84f6092c25b06368c28d.jpg"
  }
]