[
  {
    "name": "WelcomeToNekour",
    "defaultvalue": 0,
    "displayName": "Welcome To Nekour",
    "hidden": 0,
    "description": "Step foot on the island of Nekour",
    "icon": "https://steamcdn-a.akamaihd.net/steamcommunity/public/images/apps/1112150/378d04f414e719cdacf46f135860dc6b6a110ae9.jpg",
    "icongray": "https://steamcdn-a.akamaihd.net/steamcommunity/public/images/apps/1112150/842b5d052e24d89fe16b6b503d0193dcb522e566.jpg"
  },
  {
    "name": "RaiseTheBridge",
    "defaultvalue": 0,
    "displayName": "Raise The Bridge",
    "hidden": 0,
    "description": "Successfully raise the bridge to the giant cat shrine",
    "icon": "https://steamcdn-a.akamaihd.net/steamcommunity/public/images/apps/1112150/378d04f414e719cdacf46f135860dc6b6a110ae9.jpg",
    "icongray": "https://steamcdn-a.akamaihd.net/steamcommunity/public/images/apps/1112150/367ef5a334214eece6f38f61eff45b8388eba4d2.jpg"
  },
  {
    "name": "CollectGems",
    "defaultvalue": 0,
    "displayName": "Collect The Gems",
    "hidden": 0,
    "description": "Collect all 200 gems on the island",
    "icon": "https://steamcdn-a.akamaihd.net/steamcommunity/public/images/apps/1112150/378d04f414e719cdacf46f135860dc6b6a110ae9.jpg",
    "icongray": "https://steamcdn-a.akamaihd.net/steamcommunity/public/images/apps/1112150/367ef5a334214eece6f38f61eff45b8388eba4d2.jpg"
  },
  {
    "name": "MeetTheBigCat",
    "defaultvalue": 0,
    "displayName": "Meet The Sky Kitty",
    "hidden": 0,
    "description": "Journey to the sky realm and meet with the giant cat god",
    "icon": "https://steamcdn-a.akamaihd.net/steamcommunity/public/images/apps/1112150/378d04f414e719cdacf46f135860dc6b6a110ae9.jpg",
    "icongray": "https://steamcdn-a.akamaihd.net/steamcommunity/public/images/apps/1112150/367ef5a334214eece6f38f61eff45b8388eba4d2.jpg"
  },
  {
    "name": "CollectKeys",
    "defaultvalue": 0,
    "displayName": "Collect The Keys",
    "hidden": 0,
    "description": "Find the four keys hidden on the island",
    "icon": "https://steamcdn-a.akamaihd.net/steamcommunity/public/images/apps/1112150/378d04f414e719cdacf46f135860dc6b6a110ae9.jpg",
    "icongray": "https://steamcdn-a.akamaihd.net/steamcommunity/public/images/apps/1112150/367ef5a334214eece6f38f61eff45b8388eba4d2.jpg"
  }
]