[
  {
    "name": "FE_STATS_NUMBER_OF_JUMPS",
    "defaultvalue": 0,
    "displayName": "Number of jumps"
  },
  {
    "name": "FE_STATS_NUMBER_OF_WALL_JUMPS",
    "defaultvalue": 0,
    "displayName": "Number of wall jumps"
  },
  {
    "name": "FE_STATS_DEATHS",
    "defaultvalue": 0,
    "displayName": "Deaths"
  },
  {
    "name": "FE_STATS_DISTANCE_TRAVELLED",
    "defaultvalue": 0,
    "displayName": "Distance travelled (km)"
  },
  {
    "name": "FE_STATS_COINS_COLLECTED",
    "defaultvalue": 0,
    "displayName": "Coins Collected"
  },
  {
    "name": "FE_STATS_BADGES_EARNED",
    "defaultvalue": 0,
    "displayName": "Badges Earned"
  },
  {
    "name": "FE_STATS_CHARMS_COLLECTED",
    "defaultvalue": 0,
    "displayName": "Charms Collected"
  },
  {
    "name": "FE_STATS_STAGES_COMPLETED",
    "defaultvalue": 0,
    "displayName": "Stages Completed"
  }
]