﻿[
  {
    "name": "ACH_TALKATIVE",
    "defaultvalue": 0,
    "displayName": "Talkative",
    "hidden": 0,
    "description": "Talk 50 times",
    "icon": "https://steamcdn-a.akamaihd.net/steamcommunity/public/images/apps/488660/68baead5630830a582c82b1d14a12e6977142562.jpg",
    "icongray": "https://steamcdn-a.akamaihd.net/steamcommunity/public/images/apps/488660/d62c85a0274332c81d8d71f8b835bb49d80505dd.jpg"
  },
  {
    "name": "ACH_CHATTERBOX",
    "defaultvalue": 0,
    "displayName": "Chatterbox",
    "hidden": 0,
    "description": "Talk 300 times",
    "icon": "https://steamcdn-a.akamaihd.net/steamcommunity/public/images/apps/488660/2f837524361059950e416ca90cd47bac7109f5ca.jpg",
    "icongray": "https://steamcdn-a.akamaihd.net/steamcommunity/public/images/apps/488660/5ee57b1cd70d0f82620f1f2ff8e289d2afb78f30.jpg"
  },
  {
    "name": "ACH_INSENSITIVE",
    "defaultvalue": 0,
    "displayName": "Insensitive",
    "hidden": 0,
    "description": "Give 10 disliked items to 1 heroine in 1 game",
    "icon": "https://steamcdn-a.akamaihd.net/steamcommunity/public/images/apps/488660/61551fd742279d41c49db64072588a35cdc8e8b8.jpg",
    "icongray": "https://steamcdn-a.akamaihd.net/steamcommunity/public/images/apps/488660/d4239eb9425e784ccf4540bdaeaa16e669934460.jpg"
  },
  {
    "name": "ACH_RIP_COMMON_SENSE",
    "defaultvalue": 0,
    "displayName": "RIP Common Sense",
    "hidden": 0,
    "description": "Give 20 disliked items to 1 heroine in 1 game",
    "icon": "https://steamcdn-a.akamaihd.net/steamcommunity/public/images/apps/488660/da0a6badcd556d1a6953974a83cc91d238d1742a.jpg",
    "icongray": "https://steamcdn-a.akamaihd.net/steamcommunity/public/images/apps/488660/779bee7b0ecd9fa6018850b18d3272f938ad18e0.jpg"
  },
  {
    "name": "ACH_LOVER",
    "defaultvalue": 0,
    "displayName": "Lover",
    "hidden": 0,
    "description": "Achieve \"Love\" relationship with all heroines in 1 game",
    "icon": "https://steamcdn-a.akamaihd.net/steamcommunity/public/images/apps/488660/a57ea469552b37f0567f553d984f027f58c984ff.jpg",
    "icongray": "https://steamcdn-a.akamaihd.net/steamcommunity/public/images/apps/488660/2840b40c33faf073ec6009f93efcba143f25609b.jpg"
  },
  {
    "name": "ACH_CONQUEROR",
    "defaultvalue": 0,
    "displayName": "Conqueror",
    "hidden": 0,
    "description": "Achieve \"Infatuated\" relationship with all heroines in 1 game",
    "icon": "https://steamcdn-a.akamaihd.net/steamcommunity/public/images/apps/488660/c864e36f129ab3dcc956944c078f63f710844018.jpg",
    "icongray": "https://steamcdn-a.akamaihd.net/steamcommunity/public/images/apps/488660/c35c0e7a74c3cc8cb0dbe9fd4138d8c9decc9164.jpg"
  },
  {
    "name": "ACH_DATABASE",
    "defaultvalue": 0,
    "displayName": "Database",
    "hidden": 0,
    "description": "Reveal all character’s talk lines",
    "icon": "https://steamcdn-a.akamaihd.net/steamcommunity/public/images/apps/488660/d502d5b2af587355002dae2eb7ffe731eac9d376.jpg",
    "icongray": "https://steamcdn-a.akamaihd.net/steamcommunity/public/images/apps/488660/ff020ddd569501772673adbfd0a6ba5de164e20f.jpg"
  },
  {
    "name": "ACH_EQUILIBRIUM",
    "defaultvalue": 0,
    "displayName": "Equilibrium",
    "hidden": 0,
    "description": "Kill 30 aliens with hand gun in 1 game",
    "icon": "https://steamcdn-a.akamaihd.net/steamcommunity/public/images/apps/488660/09b8d616573349035202841cb31e55a1d0877dbf.jpg",
    "icongray": "https://steamcdn-a.akamaihd.net/steamcommunity/public/images/apps/488660/a09e9447155c4379067aa2a733792b05e40edb5d.jpg"
  },
  {
    "name": "ACH_THE_SAVIOR",
    "defaultvalue": 0,
    "displayName": "The Savior",
    "hidden": 0,
    "description": "Defeat 50 aliens in 1 game",
    "icon": "https://steamcdn-a.akamaihd.net/steamcommunity/public/images/apps/488660/ac1081cf13152ab4f1d543d009f89be7d3a299e6.jpg",
    "icongray": "https://steamcdn-a.akamaihd.net/steamcommunity/public/images/apps/488660/24bdd0ef4500a9ac28e9a409c000fbf50a833749.jpg"
  },
  {
    "name": "ACH_THE_SECOND_CHILD",
    "defaultvalue": 0,
    "displayName": "The Second Child",
    "hidden": 0,
    "description": "Defeat 150 aliens in 1 game",
    "icon": "https://steamcdn-a.akamaihd.net/steamcommunity/public/images/apps/488660/ff1a90b79de4fe3aa608e5333aac05934c580352.jpg",
    "icongray": "https://steamcdn-a.akamaihd.net/steamcommunity/public/images/apps/488660/0773912602d5c3afa79752909012e0f7f44455ed.jpg"
  },
  {
    "name": "ACH_DARWIN_AWARD",
    "defaultvalue": 0,
    "displayName": "Darwin Award",
    "hidden": 0,
    "description": "Die before day 2",
    "icon": "https://steamcdn-a.akamaihd.net/steamcommunity/public/images/apps/488660/641ed6dc8e37d9147a8ba8ef634de74a86929d8f.jpg",
    "icongray": "https://steamcdn-a.akamaihd.net/steamcommunity/public/images/apps/488660/233ae420e37e6246795369b630492e5ed73e27f8.jpg"
  },
  {
    "name": "ACH_SPEAR_FALL",
    "defaultvalue": 0,
    "displayName": "Spear Fall",
    "hidden": 0,
    "description": "Use Cornelia's Spear Fall support in a battle",
    "icon": "https://steamcdn-a.akamaihd.net/steamcommunity/public/images/apps/488660/281418697279df24a11fc5227b9482e79f0303d9.jpg",
    "icongray": "https://steamcdn-a.akamaihd.net/steamcommunity/public/images/apps/488660/94f2bac01fd35da319f335331d97b28f6265c1e7.jpg"
  },
  {
    "name": "ACH_PLANET_DESTROYER",
    "defaultvalue": 0,
    "displayName": "Planet Destroyer",
    "hidden": 0,
    "description": "Use Cornelia's Spear Fall support 4 times in 1 game",
    "icon": "https://steamcdn-a.akamaihd.net/steamcommunity/public/images/apps/488660/b112e97b2c2663a5a9808ef38984e6c857f0bd52.jpg",
    "icongray": "https://steamcdn-a.akamaihd.net/steamcommunity/public/images/apps/488660/82c9bc12c67dd994edd02eed631d5601cf3a2a56.jpg"
  },
  {
    "name": "ACH_TACTICAL_RETREAT",
    "defaultvalue": 0,
    "displayName": "Tactical Retreat",
    "hidden": 0,
    "description": "Run from battle 30 times in 1 game",
    "icon": "https://steamcdn-a.akamaihd.net/steamcommunity/public/images/apps/488660/7f6dd6e8fcb8ec0cbb5bf7334f694c48f9e8dc3a.jpg",
    "icongray": "https://steamcdn-a.akamaihd.net/steamcommunity/public/images/apps/488660/6af74681d6d8528daab5851560700b199241d344.jpg"
  },
  {
    "name": "ACH_HABBATUSSAUDA",
    "defaultvalue": 0,
    "displayName": "Habbatussauda",
    "hidden": 0,
    "description": "Use medicine 25 times in 1 game",
    "icon": "https://steamcdn-a.akamaihd.net/steamcommunity/public/images/apps/488660/c947ffdac0c6b4ac8ea095dc97a39f5042099248.jpg",
    "icongray": "https://steamcdn-a.akamaihd.net/steamcommunity/public/images/apps/488660/fedded990d82bbee2547b2de579c2d3966b841a7.jpg"
  },
  {
    "name": "ACH_BLITZKRIEG",
    "defaultvalue": 0,
    "displayName": "Blitzkrieg",
    "hidden": 0,
    "description": "Win 5 battles each in less than 4 turns in 1 game",
    "icon": "https://steamcdn-a.akamaihd.net/steamcommunity/public/images/apps/488660/3d626cb036c0c85cf98575fa0147ba5fa940dd07.jpg",
    "icongray": "https://steamcdn-a.akamaihd.net/steamcommunity/public/images/apps/488660/7aebbcb8eb0e949b42a2adc17234901451a063c2.jpg"
  },
  {
    "name": "ACH_ONE_PUNCH_MAN",
    "defaultvalue": 0,
    "displayName": "One-Punch Man",
    "hidden": 0,
    "description": "Win in 1 turn, 5 times in 1 game",
    "icon": "https://steamcdn-a.akamaihd.net/steamcommunity/public/images/apps/488660/b86cb10d7a81ca5a5427dba47f7f6a465f44539b.jpg",
    "icongray": "https://steamcdn-a.akamaihd.net/steamcommunity/public/images/apps/488660/bf6608325ecc2e6afb5cde5590add11a21551fb6.jpg"
  },
  {
    "name": "ACH_INSTANT_NOODLE_AMBASSADOR",
    "defaultvalue": 0,
    "displayName": "Instant Noodle Ambassador",
    "hidden": 0,
    "description": "Give 30 packs of instant noodle",
    "icon": "https://steamcdn-a.akamaihd.net/steamcommunity/public/images/apps/488660/3e8ca8194fcd0eb7b0f7711660320afe5a05874d.jpg",
    "icongray": "https://steamcdn-a.akamaihd.net/steamcommunity/public/images/apps/488660/c0b28a19892fbbc78a3c5b66d4c0374db5841705.jpg"
  },
  {
    "name": "ACH_PERVERT",
    "defaultvalue": 0,
    "displayName": "Pervert",
    "hidden": 0,
    "description": "Give 30 erotic items",
    "icon": "https://steamcdn-a.akamaihd.net/steamcommunity/public/images/apps/488660/ec9605071b7862e85522fec5d3f100ad50cfc9be.jpg",
    "icongray": "https://steamcdn-a.akamaihd.net/steamcommunity/public/images/apps/488660/6edf0f898efcbe1aeb30cc2475f7fc0013e1885b.jpg"
  },
  {
    "name": "ACH_SHOPPING_SPREE",
    "defaultvalue": 0,
    "displayName": "Shopping Spree",
    "hidden": 0,
    "description": "Buy 100 items",
    "icon": "https://steamcdn-a.akamaihd.net/steamcommunity/public/images/apps/488660/e1eb51d2e9a6ad89c09488f36901e2a714879b28.jpg",
    "icongray": "https://steamcdn-a.akamaihd.net/steamcommunity/public/images/apps/488660/0aad0b87ba1cc94a3b32413aa3010e8a121d54f1.jpg"
  },
  {
    "name": "ACH_MINERAL_WATER_ENTHUSIAST",
    "defaultvalue": 0,
    "displayName": "Mineral Water Enthusiast",
    "hidden": 0,
    "description": "Buy 30 bottles of mineral water in 1 game",
    "icon": "https://steamcdn-a.akamaihd.net/steamcommunity/public/images/apps/488660/0f3fcb549beea201258b37c2ccb27d3fa9edc5f4.jpg",
    "icongray": "https://steamcdn-a.akamaihd.net/steamcommunity/public/images/apps/488660/c98073d2960e5dc1c8ec7f760049d3992d42206b.jpg"
  },
  {
    "name": "ACH_PEDO_BEAR",
    "defaultvalue": 0,
    "displayName": "Pedo-Bear",
    "hidden": 0,
    "description": "Buy 25 teddy bears or 25 polar bears in 1 game",
    "icon": "https://steamcdn-a.akamaihd.net/steamcommunity/public/images/apps/488660/a89e69c7f3e6cafd0ef1ba622715c0cb8dd5702c.jpg",
    "icongray": "https://steamcdn-a.akamaihd.net/steamcommunity/public/images/apps/488660/343fbc482d3fcc0a1b671b57271cafa16de88633.jpg"
  },
  {
    "name": "ACH_WHERE_DID_YOU_GET_THAT",
    "defaultvalue": 0,
    "displayName": "Where Did You Get That?",
    "hidden": 0,
    "description": "Get a Lucky Pendant",
    "icon": "https://steamcdn-a.akamaihd.net/steamcommunity/public/images/apps/488660/0f1e5effa21411322f983759f67e32f6d28fc9e6.jpg",
    "icongray": "https://steamcdn-a.akamaihd.net/steamcommunity/public/images/apps/488660/3ff3dad82baa2c5c957a243b8629ddd3d830e9a7.jpg"
  },
  {
    "name": "ACH_I_JUST_GOT_PAID",
    "defaultvalue": 0,
    "displayName": "I Just Got Paid!",
    "hidden": 0,
    "description": "Get money for the first time",
    "icon": "https://steamcdn-a.akamaihd.net/steamcommunity/public/images/apps/488660/bf6aca2047afa4f62e427a80cb44ed23d9ceaf90.jpg",
    "icongray": "https://steamcdn-a.akamaihd.net/steamcommunity/public/images/apps/488660/dc0f08ca155b3b6f51f1a5beeb47d9a48e272e38.jpg"
  },
  {
    "name": "ACH_VENTURE_CAPITALIST",
    "defaultvalue": 0,
    "displayName": "Venture Capitalist",
    "hidden": 0,
    "description": "Reach 1,000,000 Bz cash",
    "icon": "https://steamcdn-a.akamaihd.net/steamcommunity/public/images/apps/488660/c84b0da2ae309600194ec7bf3bca5a58642eb94a.jpg",
    "icongray": "https://steamcdn-a.akamaihd.net/steamcommunity/public/images/apps/488660/c9601f785d85a717b9aff4778de055fb77894fd8.jpg"
  },
  {
    "name": "ACH_SULTAN",
    "defaultvalue": 0,
    "displayName": "Sultan",
    "hidden": 0,
    "description": "Reach 5,000,000 million Bz cash",
    "icon": "https://steamcdn-a.akamaihd.net/steamcommunity/public/images/apps/488660/e3514e0183f5c3f1d3b563fdf22f90ed86ac9f20.jpg",
    "icongray": "https://steamcdn-a.akamaihd.net/steamcommunity/public/images/apps/488660/63adbd0ce976cdf70c930d9c33127ddf0bc78f70.jpg"
  },
  {
    "name": "ACH_DEAD_BROKE",
    "defaultvalue": 0,
    "displayName": "Dead Broke",
    "hidden": 0,
    "description": "Has 0 Bz money",
    "icon": "https://steamcdn-a.akamaihd.net/steamcommunity/public/images/apps/488660/f93dfe7e4c862b0fbe1e88c26fac8c9876d8537a.jpg",
    "icongray": "https://steamcdn-a.akamaihd.net/steamcommunity/public/images/apps/488660/007a4f0db2a37b1df3e16fd15a530d003b4d3fee.jpg"
  },
  {
    "name": "ACH_EARLY_SLEEPER",
    "defaultvalue": 0,
    "displayName": "Early Sleeper",
    "hidden": 0,
    "description": "Sleep before night for 5 days in 1 game",
    "icon": "https://steamcdn-a.akamaihd.net/steamcommunity/public/images/apps/488660/b96380d6fd310fb3b474a196a73827b93c4b1fe0.jpg",
    "icongray": "https://steamcdn-a.akamaihd.net/steamcommunity/public/images/apps/488660/c0595f6c62e56589e57cc334067d7cfe77372fc0.jpg"
  },
  {
    "name": "ACH_CRYOGENIC_SLEEP",
    "defaultvalue": 0,
    "displayName": "Cryogenic Sleep",
    "hidden": 0,
    "description": "Sleep in the morning for 10 days in 1 game",
    "icon": "https://steamcdn-a.akamaihd.net/steamcommunity/public/images/apps/488660/80648ece14b323a9465e0196891b5b5b3e728fbe.jpg",
    "icongray": "https://steamcdn-a.akamaihd.net/steamcommunity/public/images/apps/488660/a13b7654bede81de92c503c0c886a9bea693b835.jpg"
  },
  {
    "name": "ACH_TIME_TRAVELLER",
    "defaultvalue": 0,
    "displayName": "Time Traveller",
    "hidden": 0,
    "description": "Sleep in the morning for 20 days in 1 game",
    "icon": "https://steamcdn-a.akamaihd.net/steamcommunity/public/images/apps/488660/8b7d06a87d4ba76f3708025f1a87970c51439768.jpg",
    "icongray": "https://steamcdn-a.akamaihd.net/steamcommunity/public/images/apps/488660/f5af3c14c2a57d41244fadf1ec3e0570310b6847.jpg"
  },
  {
    "name": "ACH_BIG_EATER",
    "defaultvalue": 0,
    "displayName": "Big Eater",
    "hidden": 0,
    "description": "Have a meal 30 times in 1 game",
    "icon": "https://steamcdn-a.akamaihd.net/steamcommunity/public/images/apps/488660/cef601cb9f6a53402fc8873a129ebbf465481ee1.jpg",
    "icongray": "https://steamcdn-a.akamaihd.net/steamcommunity/public/images/apps/488660/a540749024de812a20359b06cdb65731b5d5e0c4.jpg"
  },
  {
    "name": "ACH_DO_YOU_EVEN_LIFT",
    "defaultvalue": 0,
    "displayName": "Do You Even Lift?",
    "hidden": 0,
    "description": "Workout 30 times in 1 game",
    "icon": "https://steamcdn-a.akamaihd.net/steamcommunity/public/images/apps/488660/5206381a975d2c4985c4f6926135e1f3b69a12c5.jpg",
    "icongray": "https://steamcdn-a.akamaihd.net/steamcommunity/public/images/apps/488660/73e132fd6df0ef895ea0c50f0b1b06c72362c3ce.jpg"
  },
  {
    "name": "ACH_SHARP_SHOOTER",
    "defaultvalue": 0,
    "displayName": "Sharp Shooter",
    "hidden": 0,
    "description": "Shooting Practice 30 times in 1 game",
    "icon": "https://steamcdn-a.akamaihd.net/steamcommunity/public/images/apps/488660/33bc6b3e645ab6d13b3251af62b92f7e6aa395cf.jpg",
    "icongray": "https://steamcdn-a.akamaihd.net/steamcommunity/public/images/apps/488660/7d9a271806927dd29c594b20219128a13680d853.jpg"
  },
  {
    "name": "ACH_SWIMMER",
    "defaultvalue": 0,
    "displayName": "Swimmer",
    "hidden": 0,
    "description": "Swimming 30 times in 1 game",
    "icon": "https://steamcdn-a.akamaihd.net/steamcommunity/public/images/apps/488660/a5ec8cbb399d33946ac2649378d7e19caa55f93e.jpg",
    "icongray": "https://steamcdn-a.akamaihd.net/steamcommunity/public/images/apps/488660/14724e215adc447c67880767b537938c47c7ef5e.jpg"
  },
  {
    "name": "ACH_ALIEN_SEEKER",
    "defaultvalue": 0,
    "displayName": "Alien Seeker",
    "hidden": 0,
    "description": "Complete 40 Patrol Works in 1 game",
    "icon": "https://steamcdn-a.akamaihd.net/steamcommunity/public/images/apps/488660/2a86c2830ab92cbbf67c6030aa0bdca11877fecb.jpg",
    "icongray": "https://steamcdn-a.akamaihd.net/steamcommunity/public/images/apps/488660/fd3238d777313edd256d82b2eacee78f979dd4c6.jpg"
  },
  {
    "name": "ACH_QUEST_MASTER",
    "defaultvalue": 0,
    "displayName": "Quest Master",
    "hidden": 0,
    "description": "Complete 30 Quests in 1 game",
    "icon": "https://steamcdn-a.akamaihd.net/steamcommunity/public/images/apps/488660/d707f44030c239b2c23284747b100d5bbe4e8c47.jpg",
    "icongray": "https://steamcdn-a.akamaihd.net/steamcommunity/public/images/apps/488660/be95c122ee91193aeb190d84237e659332b244e1.jpg"
  },
  {
    "name": "ACH_LIEUTENANT",
    "defaultvalue": 0,
    "displayName": "Lieutenant",
    "hidden": 0,
    "description": "Complete 1 game (1 route)",
    "icon": "https://steamcdn-a.akamaihd.net/steamcommunity/public/images/apps/488660/139addd273a3649e46ab67ae273e8a6328c53197.jpg",
    "icongray": "https://steamcdn-a.akamaihd.net/steamcommunity/public/images/apps/488660/1be9a410dab334a0273c56a246dc2ae20a412116.jpg"
  },
  {
    "name": "ACH_JUST_DESERTS",
    "defaultvalue": 0,
    "displayName": "Just Deserts",
    "hidden": 0,
    "description": "Complete all game routes",
    "icon": "https://steamcdn-a.akamaihd.net/steamcommunity/public/images/apps/488660/20dbeb9c25524d8972109e281948eba3e287f5c7.jpg",
    "icongray": "https://steamcdn-a.akamaihd.net/steamcommunity/public/images/apps/488660/06891a056bdd4ddc4cdfa9b90d3e31738018228f.jpg"
  },
  {
    "name": "ACH_BLACKOUT_ENTHUSIAST",
    "defaultvalue": 0,
    "displayName": "Black Out Enthusiast",
    "hidden": 0,
    "description": "Passed out 10 times in 1 game",
    "icon": "https://steamcdn-a.akamaihd.net/steamcommunity/public/images/apps/488660/80207224ac14b4122b3904f98bf3054e16752952.jpg",
    "icongray": "https://steamcdn-a.akamaihd.net/steamcommunity/public/images/apps/488660/6c55de97670eed32365d806ba56d12284794990b.jpg"
  },
  {
    "name": "ACH_SAND_CASTLE",
    "defaultvalue": 0,
    "displayName": "Sand Castle",
    "hidden": 0,
    "description": "Achieve \"Single\" End",
    "icon": "https://steamcdn-a.akamaihd.net/steamcommunity/public/images/apps/488660/d28cdc4c8541a11a87570beb87da0b273e772612.jpg",
    "icongray": "https://steamcdn-a.akamaihd.net/steamcommunity/public/images/apps/488660/78dd9d369d3e6b54bc3a9983f09400993efdce17.jpg"
  },
  {
    "name": "ACH_ALADEEN",
    "defaultvalue": 0,
    "displayName": "Aladeen",
    "hidden": 0,
    "description": "Achieve “Harem” End",
    "icon": "https://steamcdn-a.akamaihd.net/steamcommunity/public/images/apps/488660/01c12ff41795486750e8ccff7ba6cac3f4b8fe3e.jpg",
    "icongray": "https://steamcdn-a.akamaihd.net/steamcommunity/public/images/apps/488660/e77187351c6289ffe77c1c585d78533014a5ab97.jpg"
  },
  {
    "name": "ACH_COMPLETE",
    "defaultvalue": 0,
    "displayName": "Complete",
    "hidden": 0,
    "description": "Reveal all CG",
    "icon": "https://steamcdn-a.akamaihd.net/steamcommunity/public/images/apps/488660/2a21cd945f7fbd64e2140bf70823f825542ef139.jpg",
    "icongray": "https://steamcdn-a.akamaihd.net/steamcommunity/public/images/apps/488660/5f1dd7fdee294ae72027ac672432672d79b0490c.jpg"
  },
  {
    "name": "ACH_HUNDRED_PERCENT",
    "defaultvalue": 0,
    "displayName": "100%",
    "hidden": 0,
    "description": "Reveal all story",
    "icon": "https://steamcdn-a.akamaihd.net/steamcommunity/public/images/apps/488660/d6440944917256745cbacb77aaceac6fe02c5805.jpg",
    "icongray": "https://steamcdn-a.akamaihd.net/steamcommunity/public/images/apps/488660/1f7ddebe561638e1cd6554bc7a394b3a341bc7bd.jpg"
  },
  {
    "name": "ACH_EVE",
    "defaultvalue": 0,
    "displayName": "Eve",
    "hidden": 0,
    "description": "Complete Eve route",
    "icon": "https://steamcdn-a.akamaihd.net/steamcommunity/public/images/apps/488660/59681f54cbb22be3acb5c6ad848542f360b6a7c2.jpg",
    "icongray": "https://steamcdn-a.akamaihd.net/steamcommunity/public/images/apps/488660/153abd89c82cf2ccd15d925180d6494518c42a96.jpg"
  },
  {
    "name": "ACH_CORNELIA",
    "defaultvalue": 0,
    "displayName": "Cornelia",
    "hidden": 0,
    "description": "Complete Cornelia route",
    "icon": "https://steamcdn-a.akamaihd.net/steamcommunity/public/images/apps/488660/e6540069c43a6a9f9ba00a5057d5c1825d0fb25b.jpg",
    "icongray": "https://steamcdn-a.akamaihd.net/steamcommunity/public/images/apps/488660/30f6a06e81d2dbe624db0f9388e96b845c67c432.jpg"
  },
  {
    "name": "ACH_JENNIFER",
    "defaultvalue": 0,
    "displayName": "Jennifer",
    "hidden": 0,
    "description": "Complete Jennifer route",
    "icon": "https://steamcdn-a.akamaihd.net/steamcommunity/public/images/apps/488660/ff45e4b7e4e03143a9a770be0082e01ce8141af6.jpg",
    "icongray": "https://steamcdn-a.akamaihd.net/steamcommunity/public/images/apps/488660/3980b9f8230b366aea3085c3e8ea631897fd2544.jpg"
  },
  {
    "name": "ACH_YUMI",
    "defaultvalue": 0,
    "displayName": "Yumi",
    "hidden": 0,
    "description": "Complete Yumi route",
    "icon": "https://steamcdn-a.akamaihd.net/steamcommunity/public/images/apps/488660/ea40c24146073b13e8468bf444d11a74c0615343.jpg",
    "icongray": "https://steamcdn-a.akamaihd.net/steamcommunity/public/images/apps/488660/b994491499311381dbf96b2fa5d9a0c884e8d0e7.jpg"
  },
  {
    "name": "ACH_CECILE",
    "defaultvalue": 0,
    "displayName": "Cecile",
    "hidden": 0,
    "description": "Complete Cecile route",
    "icon": "https://steamcdn-a.akamaihd.net/steamcommunity/public/images/apps/488660/9b1332d6af953ee68cd9696795af4ef73277f597.jpg",
    "icongray": "https://steamcdn-a.akamaihd.net/steamcommunity/public/images/apps/488660/aafb61c8f25c5862154863796fa405275824ac26.jpg"
  }
]