﻿{
  "Dlcs": {},
  "Name": "Amigo Fishing",
  "AppId": "801610",
  "ImageUrl": "https://steamcdn-a.akamaihd.net/steam/apps/801610/header.jpg?t=1532082776",
  "Languages": [
    "english",
    "french",
    "italian",
    "german",
    "spanish",
    "russian",
    "japanese",
    "schinese",
    "portuguese"
  ],
  "Platforms": {
    "windows": true,
    "mac": false,
    "linux": false
  }
}