{
  "Dlcs": {
    "1153600": {
      "Name": "Armored Brigade Nation Pack: France - Belgium",
      "ImageUrl": "https://steamcdn-a.akamaihd.net/steam/apps/1153600/header.jpg?t=1572532502"
    },
    "1101590": {
      "Name": "Armored Brigade Nation Pack: Italy - Yugoslavia",
      "ImageUrl": "https://steamcdn-a.akamaihd.net/steam/apps/1101590/header.jpg?t=1572532088"
    }
  },
  "Name": "Armored Brigade",
  "AppId": "1089840",
  "ImageUrl": "https://steamcdn-a.akamaihd.net/steam/apps/1089840/header.jpg?t=1582285668",
  "Languages": [
    "english"
  ],
  "Platforms": {
    "windows": true,
    "mac": false,
    "linux": false
  }
}