{
  "Dlcs": {},
  "Name": "Shattered Soul",
  "AppId": "1331290",
  "ImageUrl": "https://steamcdn-a.akamaihd.net/steam/apps/1331290/header.jpg?t=1591988636",
  "Languages": [
    "english"
  ],
  "Platforms": {
    "windows": true,
    "mac": false,
    "linux": false
  }
}