﻿[
  {
    "name": "01_THE_GREAT_ESCAPE",
    "defaultvalue": 0,
    "displayName": "The Great Escape",
    "hidden": 0,
    "description": "Escape from Castle Vahkmaar",
    "icon": "https://steamcdn-a.akamaihd.net/steamcommunity/public/images/apps/7520/86a7f71a6abb0bd9f312c0723cb6374c78a4c38e.jpg",
    "icongray": "https://steamcdn-a.akamaihd.net/steamcommunity/public/images/apps/7520/2b8280aba0e28f3b399828b207ee665b9f15c3de.jpg"
  },
  {
    "name": "02_ORCS_AND_HUMANS",
    "defaultvalue": 0,
    "displayName": "Into The Fire",
    "hidden": 0,
    "description": "Complete Alsorna Introduction",
    "icon": "https://steamcdn-a.akamaihd.net/steamcommunity/public/images/apps/7520/8f159b4b9a805abb3c96ea1ee97bdd9a5bcf629d.jpg",
    "icongray": "https://steamcdn-a.akamaihd.net/steamcommunity/public/images/apps/7520/08312ed8834ec60fd41e240e073b6a5e89b62603.jpg"
  },
  {
    "name": "03_DEAR_DIARY",
    "defaultvalue": 0,
    "displayName": "Old Wounds",
    "hidden": 0,
    "description": "Complete Chapter I in the Single Player Campaign",
    "icon": "https://steamcdn-a.akamaihd.net/steamcommunity/public/images/apps/7520/2ff771ec94c32a7d21e9e5584d2e069d69c60973.jpg",
    "icongray": "https://steamcdn-a.akamaihd.net/steamcommunity/public/images/apps/7520/91dcfeebd459941fd1054f9598afc56b6433bb96.jpg"
  },
  {
    "name": "04_MIGHTY_HEART",
    "defaultvalue": 0,
    "displayName": "The Road Less Traveled...",
    "hidden": 0,
    "description": "Complete Chapter II in the Single Player Campaign",
    "icon": "https://steamcdn-a.akamaihd.net/steamcommunity/public/images/apps/7520/08b28bf086048d358ec3b1194f856cb900850d68.jpg",
    "icongray": "https://steamcdn-a.akamaihd.net/steamcommunity/public/images/apps/7520/59e9ff9b84c07caffe171024b1b6e424a7f4554d.jpg"
  },
  {
    "name": "05_EVIL_DEAD",
    "defaultvalue": 0,
    "displayName": "Last Stand",
    "hidden": 0,
    "description": "Complete Chapter III in the Single Player Campaign",
    "icon": "https://steamcdn-a.akamaihd.net/steamcommunity/public/images/apps/7520/917185d83661cac61c9d86a9c20f3da80735508f.jpg",
    "icongray": "https://steamcdn-a.akamaihd.net/steamcommunity/public/images/apps/7520/199303a2815769f84798f1ca2755c5dda693f7e4.jpg"
  },
  {
    "name": "06_END_OF_DAYS",
    "defaultvalue": 0,
    "displayName": "Liberation",
    "hidden": 0,
    "description": "Completed the Single Player Campaign",
    "icon": "https://steamcdn-a.akamaihd.net/steamcommunity/public/images/apps/7520/9f66bca7a227ccdede56af6614e5e1fd955b292c.jpg",
    "icongray": "https://steamcdn-a.akamaihd.net/steamcommunity/public/images/apps/7520/5113c3a9571e6287692f5547b0325167be5854f0.jpg"
  },
  {
    "name": "07_POTION_THE_STORY_OF_AN_ALCHEMIST",
    "defaultvalue": 0,
    "displayName": "Alchemist",
    "hidden": 0,
    "description": "Create a potion (Single Player Campaign)",
    "icon": "https://steamcdn-a.akamaihd.net/steamcommunity/public/images/apps/7520/6139963cd69f5aad7641b9aaf9beef8bb95224e5.jpg",
    "icongray": "https://steamcdn-a.akamaihd.net/steamcommunity/public/images/apps/7520/1abe6feaf24066fc53f98e7a4334d542ca23a6d2.jpg"
  },
  {
    "name": "08_CORRECT_SPELLING",
    "defaultvalue": 0,
    "displayName": "Grey Wizard",
    "hidden": 0,
    "description": "Create a spell (Single Player Campaign)",
    "icon": "https://steamcdn-a.akamaihd.net/steamcommunity/public/images/apps/7520/0eb46dafc395b0559919b418fd13581524f60b46.jpg",
    "icongray": "https://steamcdn-a.akamaihd.net/steamcommunity/public/images/apps/7520/e285687d9ab6126f207cf96cd6014ff118ad802f.jpg"
  },
  {
    "name": "09_HAMMER_TIME",
    "defaultvalue": 0,
    "displayName": "Hammer Time!",
    "hidden": 0,
    "description": "Upgrade a weapon or piece of armor (Single Player Campaign)",
    "icon": "https://steamcdn-a.akamaihd.net/steamcommunity/public/images/apps/7520/531dd945b84ef02a38c8383c3aa3ecacbd96c3d2.jpg",
    "icongray": "https://steamcdn-a.akamaihd.net/steamcommunity/public/images/apps/7520/6d57723fd37e35ba7d873e5725e6188c98f066e6.jpg"
  },
  {
    "name": "10_BIG_BROTHER",
    "defaultvalue": 0,
    "displayName": "Clairvoyant",
    "hidden": 0,
    "description": "Use the Oculus (Single Player Campaign)",
    "icon": "https://steamcdn-a.akamaihd.net/steamcommunity/public/images/apps/7520/14fe60c5096c9729aae81de1f876e04f8dddd498.jpg",
    "icongray": "https://steamcdn-a.akamaihd.net/steamcommunity/public/images/apps/7520/fdeb81e0d2477effa88e18f1d9b8802f37c601a7.jpg"
  },
  {
    "name": "11_BARD_HERO",
    "defaultvalue": 0,
    "displayName": "Minstrel Hero",
    "hidden": 0,
    "description": "Perform a song, hitting 100% of the notes (Single Player Campaign)",
    "icon": "https://steamcdn-a.akamaihd.net/steamcommunity/public/images/apps/7520/f973d8941f6e0c92be6aac3e93121dc173ab1de8.jpg",
    "icongray": "https://steamcdn-a.akamaihd.net/steamcommunity/public/images/apps/7520/e9b65c560060e4f10f87d3d17b35205a8f3c8430.jpg"
  },
  {
    "name": "12_ANTALOORIAN_JOB",
    "defaultvalue": 0,
    "displayName": "The Antaloorian Job",
    "hidden": 0,
    "description": "Lockpick 50 locks (Single Player Campaign)",
    "icon": "https://steamcdn-a.akamaihd.net/steamcommunity/public/images/apps/7520/f48236b45ce22c408c9828e7247e38db2686792c.jpg",
    "icongray": "https://steamcdn-a.akamaihd.net/steamcommunity/public/images/apps/7520/8c027b67146dd19f175143e2b037066e1ea8e92c.jpg"
  },
  {
    "name": "13_THIEF",
    "defaultvalue": 0,
    "displayName": "Slight of Hand",
    "hidden": 0,
    "description": "Steal from 25 people (Single Player Campaign)",
    "icon": "https://steamcdn-a.akamaihd.net/steamcommunity/public/images/apps/7520/94c35ea92ca4b64269118a26d70af125433aaab0.jpg",
    "icongray": "https://steamcdn-a.akamaihd.net/steamcommunity/public/images/apps/7520/cb57d340ef130e356a5cb61a7aea5ba8acc4d106.jpg"
  },
  {
    "name": "14_CHUCK",
    "defaultvalue": 0,
    "displayName": "Sweep the Leg",
    "hidden": 0,
    "description": "Effectively use Knockdown 30 times (Single Player Campaign)",
    "icon": "https://steamcdn-a.akamaihd.net/steamcommunity/public/images/apps/7520/7ba3f0a1f6a96cb324ae8af7a13215e519bee1e0.jpg",
    "icongray": "https://steamcdn-a.akamaihd.net/steamcommunity/public/images/apps/7520/cef9f659eafb19b4447a769469c48424e84e31a5.jpg"
  },
  {
    "name": "15_MENTALIST",
    "defaultvalue": 0,
    "displayName": "El mentalista",
    "hidden": 0,
    "description": "Effectively use Battle Cry 75 times (Single Player Campaign)",
    "icon": "https://steamcdn-a.akamaihd.net/steamcommunity/public/images/apps/7520/193788ed0c31f9aa196ec8b57e6b7eac388ee4d3.jpg",
    "icongray": "https://steamcdn-a.akamaihd.net/steamcommunity/public/images/apps/7520/4693916af964dbeff513b6adf3c87483865eb658.jpg"
  },
  {
    "name": "16_MAN_IN_TIGHTS",
    "defaultvalue": 0,
    "displayName": "Man in Tights",
    "hidden": 0,
    "description": "Kill 50 enemies using Multi Arrows (Single Player Campaign)",
    "icon": "https://steamcdn-a.akamaihd.net/steamcommunity/public/images/apps/7520/dbd8d56b08025097555b3cd6bcc42e3687d82a0e.jpg",
    "icongray": "https://steamcdn-a.akamaihd.net/steamcommunity/public/images/apps/7520/085d264c44c18ea271f30e3621be451f182e1fa6.jpg"
  },
  {
    "name": "17_ROBIN",
    "defaultvalue": 0,
    "displayName": "Crazy like a Lox",
    "hidden": 0,
    "description": "Kill 30 enemies using Fire Arrow (Single Player Campaign)",
    "icon": "https://steamcdn-a.akamaihd.net/steamcommunity/public/images/apps/7520/79b04cf1ca3248d60f6bf57dcfd65a237a6554ec.jpg",
    "icongray": "https://steamcdn-a.akamaihd.net/steamcommunity/public/images/apps/7520/1b4bf9a84e94da299c1079ccd587ed7c34858c74.jpg"
  },
  {
    "name": "18_GRAY_WIZARD",
    "defaultvalue": 0,
    "displayName": "White Wizard",
    "hidden": 0,
    "description": "Kill 50 enemies with magic (Single Player Campaign)",
    "icon": "https://steamcdn-a.akamaihd.net/steamcommunity/public/images/apps/7520/1be1005de3479b95adab30287eefcac7bf205091.jpg",
    "icongray": "https://steamcdn-a.akamaihd.net/steamcommunity/public/images/apps/7520/ae0feeca2b2aeb66e9d4da05fe07f9c9b8959810.jpg"
  },
  {
    "name": "19_WHITE_WIZARD",
    "defaultvalue": 0,
    "displayName": "Beastmaster",
    "hidden": 0,
    "description": "Summon 50 monsters (Single Player Campaign)",
    "icon": "https://steamcdn-a.akamaihd.net/steamcommunity/public/images/apps/7520/485a7224130f870793b4e55d13e438e36b706579.jpg",
    "icongray": "https://steamcdn-a.akamaihd.net/steamcommunity/public/images/apps/7520/d758383fadb348f3434bd019dffd049bf16017dd.jpg"
  },
  {
    "name": "20_DEMOLITION_MAN",
    "defaultvalue": 0,
    "displayName": "It's A Trap!",
    "hidden": 0,
    "description": "Set 40 traps or bombs (Single Player Campaign)",
    "icon": "https://steamcdn-a.akamaihd.net/steamcommunity/public/images/apps/7520/8ebb79246b842a88eabf0ffbe9f50ce36ab08e86.jpg",
    "icongray": "https://steamcdn-a.akamaihd.net/steamcommunity/public/images/apps/7520/9667bfc030930f08eda290f8bc120bdd5fd913db.jpg"
  },
  {
    "name": "21_NEVER_KNOW_WHAT_HITEM",
    "defaultvalue": 0,
    "displayName": "Who's Next?",
    "hidden": 0,
    "description": "Kill 20 enemies using Death Strike (Single Player Campaign)",
    "icon": "https://steamcdn-a.akamaihd.net/steamcommunity/public/images/apps/7520/950aabe3035167d24b31703755bc8af045dfb6b2.jpg",
    "icongray": "https://steamcdn-a.akamaihd.net/steamcommunity/public/images/apps/7520/fcf7db2b03af1625857c78ca1776bdf46eb5f81c.jpg"
  },
  {
    "name": "22_HITMAN",
    "defaultvalue": 0,
    "displayName": "Hero For Hire",
    "hidden": 0,
    "description": "Complete 10 Bulletin Board Quests",
    "icon": "https://steamcdn-a.akamaihd.net/steamcommunity/public/images/apps/7520/c30b131735b99d721f790a709e157a698ab0a809.jpg",
    "icongray": "https://steamcdn-a.akamaihd.net/steamcommunity/public/images/apps/7520/c8f13c56efe1e4b2b5ab88ee893804d04c0dd7b6.jpg"
  },
  {
    "name": "23_I_AM_SPARTACUS",
    "defaultvalue": 0,
    "displayName": "I Am Spartacus!",
    "hidden": 0,
    "description": "Survive the Arena",
    "icon": "https://steamcdn-a.akamaihd.net/steamcommunity/public/images/apps/7520/19f6b2cea69696295ece612305efc1a417323fac.jpg",
    "icongray": "https://steamcdn-a.akamaihd.net/steamcommunity/public/images/apps/7520/146f6c0c088ece80515a157ec7b2dc88b61f6cba.jpg"
  },
  {
    "name": "24_FIRST_KNIGHT",
    "defaultvalue": 0,
    "displayName": "Last Man Standing",
    "hidden": 0,
    "description": "Complete the Brotherhood Questline",
    "icon": "https://steamcdn-a.akamaihd.net/steamcommunity/public/images/apps/7520/e7e5dc6435be36e366c8c855654d3dd07882d43f.jpg",
    "icongray": "https://steamcdn-a.akamaihd.net/steamcommunity/public/images/apps/7520/e9f4d62e21f2499f53fb802b18871a691c6243f9.jpg"
  },
  {
    "name": "25_MERLIN",
    "defaultvalue": 0,
    "displayName": "Dances With Mops",
    "hidden": 0,
    "description": "Complete the Mage's Guild Questline",
    "icon": "https://steamcdn-a.akamaihd.net/steamcommunity/public/images/apps/7520/b929810774f041a99561f05ca4e079fc5c8922be.jpg",
    "icongray": "https://steamcdn-a.akamaihd.net/steamcommunity/public/images/apps/7520/3941065ef34e3361abafc8508c7f6d28a7802a5b.jpg"
  },
  {
    "name": "26_PRINCE_OF_THIEVES",
    "defaultvalue": 0,
    "displayName": "Prince of Thieves",
    "hidden": 0,
    "description": "Complete The Thieve's Guild Questline",
    "icon": "https://steamcdn-a.akamaihd.net/steamcommunity/public/images/apps/7520/eaf050079900ecfb778e9e1e1acd646471ac42c5.jpg",
    "icongray": "https://steamcdn-a.akamaihd.net/steamcommunity/public/images/apps/7520/e0fdcba6f97862ebd6c17da373a7822656f28151.jpg"
  },
  {
    "name": "27_THE_MERCHANT_OF_ANTALOOR",
    "defaultvalue": 0,
    "displayName": "The Merchant of Antaloor",
    "hidden": 0,
    "description": "Complete the Merchant's Guild Questline",
    "icon": "https://steamcdn-a.akamaihd.net/steamcommunity/public/images/apps/7520/626a92fd67c85c3c649c594fdbd18b2bc621363f.jpg",
    "icongray": "https://steamcdn-a.akamaihd.net/steamcommunity/public/images/apps/7520/c3d7515d3cc8346ee33118cc2b25fa2640243745.jpg"
  },
  {
    "name": "28_HERO",
    "defaultvalue": 0,
    "displayName": "Hero",
    "hidden": 0,
    "description": "Reach Level 20 (Single Player Campaign)",
    "icon": "https://steamcdn-a.akamaihd.net/steamcommunity/public/images/apps/7520/3b5c7239695997eac4c9a19c3a198cddd86f5d53.jpg",
    "icongray": "https://steamcdn-a.akamaihd.net/steamcommunity/public/images/apps/7520/4ba34c6a8f81c0c6988f838090019ca2eaefdcbc.jpg"
  },
  {
    "name": "29_LEGEND",
    "defaultvalue": 0,
    "displayName": "Legend",
    "hidden": 0,
    "description": "Reach Level 40 (Single Player Campaign)",
    "icon": "https://steamcdn-a.akamaihd.net/steamcommunity/public/images/apps/7520/66db8ab76f209cf8ade83064c21ea6d01a5f3a04.jpg",
    "icongray": "https://steamcdn-a.akamaihd.net/steamcommunity/public/images/apps/7520/812db6b078f30452649cd88dd62857c8edc59572.jpg"
  },
  {
    "name": "30_DUNGEON_SEEKER",
    "defaultvalue": 0,
    "displayName": "Fortune & Glory",
    "hidden": 0,
    "description": "Explore 25 dungeons (Single Player Campaign)",
    "icon": "https://steamcdn-a.akamaihd.net/steamcommunity/public/images/apps/7520/6e4374d1907bcd69b42f9f428bbb800980fa598f.jpg",
    "icongray": "https://steamcdn-a.akamaihd.net/steamcommunity/public/images/apps/7520/b74a6f172a1f6e2dc7ae904277019f5c273ed7bd.jpg"
  },
  {
    "name": "31_LOST",
    "defaultvalue": 0,
    "displayName": "Lost",
    "hidden": 0,
    "description": "Collect all 4 Lost Runes: Human, Elven, Dwarven and Orcish (Single Player Campaign)",
    "icon": "https://steamcdn-a.akamaihd.net/steamcommunity/public/images/apps/7520/2bfbbddc9212aed2f215b012f5039705c84bb463.jpg",
    "icongray": "https://steamcdn-a.akamaihd.net/steamcommunity/public/images/apps/7520/6f48116e0daa60d0eddc637376ff9c1c3ffa81b9.jpg"
  },
  {
    "name": "32_ADVENTURE_PART_I",
    "defaultvalue": 0,
    "displayName": "Adventure Part I",
    "hidden": 0,
    "description": "Complete Chapter I in the Multiplayer Campaign",
    "icon": "https://steamcdn-a.akamaihd.net/steamcommunity/public/images/apps/7520/a5c22ee4f8ff81d04131904c26eb1c2ea552a649.jpg",
    "icongray": "https://steamcdn-a.akamaihd.net/steamcommunity/public/images/apps/7520/58a93086230e1904e3152ebbd4f36df435e7a34d.jpg"
  },
  {
    "name": "33_ADVENTURE_PART_II",
    "defaultvalue": 0,
    "displayName": "Adventure Part II",
    "hidden": 0,
    "description": "Complete Chapter II in the Multiplayer Campaign",
    "icon": "https://steamcdn-a.akamaihd.net/steamcommunity/public/images/apps/7520/e2587d303c170f74fbb6b66cd8411acbff2e28cf.jpg",
    "icongray": "https://steamcdn-a.akamaihd.net/steamcommunity/public/images/apps/7520/3b41a1639f91cf6a407520fd761e068eb997f000.jpg"
  },
  {
    "name": "34_ADVENTURE_PART_III",
    "defaultvalue": 0,
    "displayName": "Adventure Part III",
    "hidden": 0,
    "description": "Complete Chapter III in the Multiplayer Campaign",
    "icon": "https://steamcdn-a.akamaihd.net/steamcommunity/public/images/apps/7520/98b649e1687c3fba19ac343f47d6b9c53f9662eb.jpg",
    "icongray": "https://steamcdn-a.akamaihd.net/steamcommunity/public/images/apps/7520/dd782f04022fd816b3d335289754cdb911a6cd70.jpg"
  },
  {
    "name": "35_ADVENTURE_PART_IV",
    "defaultvalue": 0,
    "displayName": "Adventure Part IV",
    "hidden": 0,
    "description": "Complete Chapter IV in the Multiplayer Campaign",
    "icon": "https://steamcdn-a.akamaihd.net/steamcommunity/public/images/apps/7520/e54d5ac93955b9269d49d0263039396f27cd4f4b.jpg",
    "icongray": "https://steamcdn-a.akamaihd.net/steamcommunity/public/images/apps/7520/f8f528591c1c09139d743699ebe23fb9f74db830.jpg"
  },
  {
    "name": "36_ADVENTURE_PART_V",
    "defaultvalue": 0,
    "displayName": "Adventure Part V",
    "hidden": 0,
    "description": "Complete Chapter V in the Multiplayer Campaign",
    "icon": "https://steamcdn-a.akamaihd.net/steamcommunity/public/images/apps/7520/9dd6c3846124687a6fe135ee5e70ac9b197145d2.jpg",
    "icongray": "https://steamcdn-a.akamaihd.net/steamcommunity/public/images/apps/7520/00e30a916e789a9c14a76861af9c68947f309597.jpg"
  },
  {
    "name": "37_ADVENTURE_PART_VI",
    "defaultvalue": 0,
    "displayName": "Adventure Part VI",
    "hidden": 0,
    "description": "Complete Chapter VI in the Multiplayer Campaign",
    "icon": "https://steamcdn-a.akamaihd.net/steamcommunity/public/images/apps/7520/95a131085c13f4eef48bfd110459e9bbe524d4e0.jpg",
    "icongray": "https://steamcdn-a.akamaihd.net/steamcommunity/public/images/apps/7520/4e09a09dd2304192cc285fe7916a332d48efed1b.jpg"
  },
  {
    "name": "38_ADVENTURE_PART_VII",
    "defaultvalue": 0,
    "displayName": "Adventure Part VII",
    "hidden": 0,
    "description": "Complete Chapter VII in the Multiplayer Campaign",
    "icon": "https://steamcdn-a.akamaihd.net/steamcommunity/public/images/apps/7520/5108a6a044377bcab28de858bb4a64fa91a78426.jpg",
    "icongray": "https://steamcdn-a.akamaihd.net/steamcommunity/public/images/apps/7520/1faf6d23d230fc5709eab28ad6175df6dd09dcb5.jpg"
  },
  {
    "name": "39_YOU_HAVE_TO_FIGHT",
    "defaultvalue": 0,
    "displayName": "Ruthless",
    "hidden": 0,
    "description": "Win 5 Deathmatches",
    "icon": "https://steamcdn-a.akamaihd.net/steamcommunity/public/images/apps/7520/ad6b069e98aec3da05a5b54265ae7d1eafbea97f.jpg",
    "icongray": "https://steamcdn-a.akamaihd.net/steamcommunity/public/images/apps/7520/c8c4baeefd2fd0f74e5dbccf5b9ab28f09a9b786.jpg"
  },
  {
    "name": "40_DUEL",
    "defaultvalue": 0,
    "displayName": "Duelist",
    "hidden": 0,
    "description": "Win 5 Duels",
    "icon": "https://steamcdn-a.akamaihd.net/steamcommunity/public/images/apps/7520/e99159043ab2de672c5722a790e79c0c63fe0133.jpg",
    "icongray": "https://steamcdn-a.akamaihd.net/steamcommunity/public/images/apps/7520/c42cdebfc19faa94ecdc9125607107cc9b22cc52.jpg"
  },
  {
    "name": "41_COLLECTOR",
    "defaultvalue": 0,
    "displayName": "Gemologist",
    "hidden": 0,
    "description": "Win 5 Crystal Capture matches",
    "icon": "https://steamcdn-a.akamaihd.net/steamcommunity/public/images/apps/7520/59826685e3f53bb55f78255cad38e593deba2b77.jpg",
    "icongray": "https://steamcdn-a.akamaihd.net/steamcommunity/public/images/apps/7520/db0548e90f2acbc7d2591559f9aa9621061c1b44.jpg"
  },
  {
    "name": "42_SETTLER",
    "defaultvalue": 0,
    "displayName": "Settler",
    "hidden": 0,
    "description": "Build 5 buildings in Village Mode",
    "icon": "https://steamcdn-a.akamaihd.net/steamcommunity/public/images/apps/7520/eea0ffa5254e6c9900fbad2075c16103df5e9717.jpg",
    "icongray": "https://steamcdn-a.akamaihd.net/steamcommunity/public/images/apps/7520/dbb48007ff7da8e5e9400dbacb4df6b8e0b7fc71.jpg"
  },
  {
    "name": "43_VILLAGE_PEOPLE",
    "defaultvalue": 0,
    "displayName": "Contractor",
    "hidden": 0,
    "description": "Build 15 buildings in Village Mode",
    "icon": "https://steamcdn-a.akamaihd.net/steamcommunity/public/images/apps/7520/901fa8003dbce051fc618e9fe53bce0af82cee3d.jpg",
    "icongray": "https://steamcdn-a.akamaihd.net/steamcommunity/public/images/apps/7520/1bb4b8f7c1f316ff9c705970f092577caac6ead5.jpg"
  },
  {
    "name": "44_SOZE",
    "defaultvalue": 0,
    "displayName": "Desert Rose",
    "hidden": 0,
    "description": "Confront Mirage",
    "icon": "https://steamcdn-a.akamaihd.net/steamcommunity/public/images/apps/7520/6b1d750457ccbf63eb4cc264709548fe00d30f4a.jpg",
    "icongray": "https://steamcdn-a.akamaihd.net/steamcommunity/public/images/apps/7520/d0a42a0cc8adddf9bc45063a79815804e8a23732.jpg"
  },
  {
    "name": "45_ITS_ALIVE",
    "defaultvalue": 0,
    "displayName": "It's Alive!",
    "hidden": 0,
    "description": "Wake the Army of Golems",
    "icon": "https://steamcdn-a.akamaihd.net/steamcommunity/public/images/apps/7520/746467e1a2d61dc488e85d821b0fcd378e3e7310.jpg",
    "icongray": "https://steamcdn-a.akamaihd.net/steamcommunity/public/images/apps/7520/85f5ed479baa455611877d6bdfc3392d14890779.jpg"
  },
  {
    "name": "46_I_SEE_DEAD_PEOPLE",
    "defaultvalue": 0,
    "displayName": "I See Dead People...",
    "hidden": 0,
    "description": "Receive the gift of the Scavengers",
    "icon": "https://steamcdn-a.akamaihd.net/steamcommunity/public/images/apps/7520/b053c4484064c4f5ccf87252e773535a55b25bd2.jpg",
    "icongray": "https://steamcdn-a.akamaihd.net/steamcommunity/public/images/apps/7520/c737a9c837a53c8ab888dfdf937c33ff6d500f16.jpg"
  },
  {
    "name": "47_DLC1_GRIM_REAPER",
    "defaultvalue": 0,
    "displayName": "Grim Reaper",
    "hidden": 0,
    "description": "Slay the Bailiff and his minions",
    "icon": "https://steamcdn-a.akamaihd.net/steamcommunity/public/images/apps/7520/357f53fca7219390c5f07ce9ed428c459c1fedda.jpg",
    "icongray": "https://steamcdn-a.akamaihd.net/steamcommunity/public/images/apps/7520/ccd59c10d99629a684ea9e1c7650808607d2f442.jpg"
  },
  {
    "name": "48_DLC1_BLIND_FURY",
    "defaultvalue": 0,
    "displayName": "Blind Fury",
    "hidden": 0,
    "description": "Kill the Basilisk",
    "icon": "https://steamcdn-a.akamaihd.net/steamcommunity/public/images/apps/7520/0e93856249bccc77a09378b25aef967ece577475.jpg",
    "icongray": "https://steamcdn-a.akamaihd.net/steamcommunity/public/images/apps/7520/ef864c9419e4b2e17f5fa847af003e1d5a183208.jpg"
  },
  {
    "name": "49_DLC1_LOVERS_CONSP",
    "defaultvalue": 0,
    "displayName": "Lovers' Conspiracy",
    "hidden": 0,
    "description": "Finish the Lovers' Conspiracy storyline",
    "icon": "https://steamcdn-a.akamaihd.net/steamcommunity/public/images/apps/7520/de8d8329c26efa27ffde8926cee5033a51759be1.jpg",
    "icongray": "https://steamcdn-a.akamaihd.net/steamcommunity/public/images/apps/7520/9e87f4e61c52b7e55b3ac3328d02cb7f2c4d4d1d.jpg"
  },
  {
    "name": "50_DLC1_SLEEPING_BEAUTY",
    "defaultvalue": 0,
    "displayName": "Who Watches the Watchman?",
    "hidden": 0,
    "description": "Defeat Corr Amarok",
    "icon": "https://steamcdn-a.akamaihd.net/steamcommunity/public/images/apps/7520/f9486855f19103a0d14c0b4b8a6a7ac4ec082489.jpg",
    "icongray": "https://steamcdn-a.akamaihd.net/steamcommunity/public/images/apps/7520/992ea975e0e9a4b40e56b6537c07e5b0ed536202.jpg"
  },
  {
    "name": "51_DLC1_PRIMAL_FEARS",
    "defaultvalue": 0,
    "displayName": "Primal Fears",
    "hidden": 0,
    "description": "Annihilate the Phobias",
    "icon": "https://steamcdn-a.akamaihd.net/steamcommunity/public/images/apps/7520/04f9459614622084743c5035e707e12f8920b59b.jpg",
    "icongray": "https://steamcdn-a.akamaihd.net/steamcommunity/public/images/apps/7520/6cc4c71925b11426d0a042b3ffcafeca4fcfab11.jpg"
  },
  {
    "name": "52_DLC1_COMPLETE_POTFF",
    "defaultvalue": 0,
    "displayName": "Pirates of the Flying Fortress",
    "hidden": 0,
    "description": "Complete Pirates of the Flying Fortress",
    "icon": "https://steamcdn-a.akamaihd.net/steamcommunity/public/images/apps/7520/e24a0fec6416043c051a5b2be7bf0829fef1c859.jpg",
    "icongray": "https://steamcdn-a.akamaihd.net/steamcommunity/public/images/apps/7520/28cf7a3759c4e92f47ef2c302e49316ed9512b14.jpg"
  },
  {
    "name": "53_DLC1_PURSUIT_OF_HAPPY",
    "defaultvalue": 0,
    "displayName": "The Pursuit of Happiness",
    "hidden": 0,
    "description": "Find your Treasure",
    "icon": "https://steamcdn-a.akamaihd.net/steamcommunity/public/images/apps/7520/a98b1b5b43c7a93c84e12794901d88b9ae5c6a27.jpg",
    "icongray": "https://steamcdn-a.akamaihd.net/steamcommunity/public/images/apps/7520/980b32da5b4c62630dab4cb1e55f48c357df3b2f.jpg"
  },
  {
    "name": "54_DLC1_TELL_WILLY_I_GOT",
    "defaultvalue": 0,
    "displayName": "Tell Willy I Got 'Em",
    "hidden": 0,
    "description": "Kill 100 enemies with crossbow (Single player campaign)",
    "icon": "https://steamcdn-a.akamaihd.net/steamcommunity/public/images/apps/7520/3949d7edcbf7e29fca2c0428150311de77b8d9a4.jpg",
    "icongray": "https://steamcdn-a.akamaihd.net/steamcommunity/public/images/apps/7520/729b7ad1be721c360b8304c5b1d29bec12c1f4da.jpg"
  },
  {
    "name": "55_DLC1_A_PIRATE_LIFE",
    "defaultvalue": 0,
    "displayName": "Yo-ho, Yo-ho!",
    "hidden": 0,
    "description": "Reach 100 points of reputation amongst the pirates",
    "icon": "https://steamcdn-a.akamaihd.net/steamcommunity/public/images/apps/7520/c7ec076727672ad05907f74ea472839b28ba4575.jpg",
    "icongray": "https://steamcdn-a.akamaihd.net/steamcommunity/public/images/apps/7520/00976d70909e4cf80d6af45fa629a68014f467fa.jpg"
  },
  {
    "name": "56_DLC1_RETURN_OF_FELLOW",
    "defaultvalue": 0,
    "displayName": "Return of the Fellowship",
    "hidden": 0,
    "description": "Complete 4 new multiplayer adventure maps",
    "icon": "https://steamcdn-a.akamaihd.net/steamcommunity/public/images/apps/7520/dd3f4280fe9e4a038c59f16dbc6aa390e22553dc.jpg",
    "icongray": "https://steamcdn-a.akamaihd.net/steamcommunity/public/images/apps/7520/d0b0cebc7614574445bf63fa0c419327f246defa.jpg"
  },
  {
    "name": "DLC2_THE_GREAT_DETECTIVE",
    "defaultvalue": 0,
    "displayName": "The Great Detective",
    "hidden": 0,
    "description": "Solve Leeta's Mystery",
    "icon": "https://steamcdn-a.akamaihd.net/steamcommunity/public/images/apps/7520/ae27c25ed0f4697c913b52cf3b8caa5c83f15ec2.jpg",
    "icongray": "https://steamcdn-a.akamaihd.net/steamcommunity/public/images/apps/7520/4e54b8dc5de79daba8fb3942a72b4aefcc562b3c.jpg"
  },
  {
    "name": "DLC2_WILD_WEST_EAST",
    "defaultvalue": 0,
    "displayName": "Wild West East",
    "hidden": 0,
    "description": "Find Spot the Cow",
    "icon": "https://steamcdn-a.akamaihd.net/steamcommunity/public/images/apps/7520/3d50fc52cfba07a9875c577a7c9e8490e41f6df4.jpg",
    "icongray": "https://steamcdn-a.akamaihd.net/steamcommunity/public/images/apps/7520/5d9c40d9d9478012ddd507eeb0109ffe98df72c6.jpg"
  },
  {
    "name": "DLC2_AND_WITH_STRANGE_AEONS",
    "defaultvalue": 0,
    "displayName": "...And With Strange Aeons...",
    "hidden": 0,
    "description": "Complete Call of the Tenebrae",
    "icon": "https://steamcdn-a.akamaihd.net/steamcommunity/public/images/apps/7520/65e4666fb22a4c00016a0d0d6b66c144658fbea4.jpg",
    "icongray": "https://steamcdn-a.akamaihd.net/steamcommunity/public/images/apps/7520/b7a5083ac7bc29636397eca8237ab14a80796517.jpg"
  },
  {
    "name": "153_DLC2_THE_WEDDING_GUEST",
    "defaultvalue": 0,
    "displayName": "The Wedding Guest",
    "hidden": 0,
    "description": "Complete both storylines of the Wedding Reception quests.",
    "icon": "https://steamcdn-a.akamaihd.net/steamcommunity/public/images/apps/7520/78c7080e56b790387311ccf3f56f760fdab57c45.jpg",
    "icongray": "https://steamcdn-a.akamaihd.net/steamcommunity/public/images/apps/7520/7979c2cc72f834bc2382a7f3b1c276c38a313051.jpg"
  },
  {
    "name": "154_DLC2_IRENITE_PEACEMAKER",
    "defaultvalue": 0,
    "displayName": "Irenite Peacemaker",
    "hidden": 0,
    "description": "Help both Gillscar and Vanderbilt to win the struggle.",
    "icon": "https://steamcdn-a.akamaihd.net/steamcommunity/public/images/apps/7520/79b4e2ccf9b43c1d3f37e25e4bcce142e7f0c81c.jpg",
    "icongray": "https://steamcdn-a.akamaihd.net/steamcommunity/public/images/apps/7520/bfbdcc9e7e5e27d8a7e7d6893247043b2da5e1db.jpg"
  },
  {
    "name": "155_DLC3_RAGNAROK",
    "defaultvalue": 0,
    "displayName": "Ragnarok",
    "hidden": 0,
    "description": "Defeat Fenrir",
    "icon": "https://steamcdn-a.akamaihd.net/steamcommunity/public/images/apps/7520/9e5550a550675755ab9bd98a925768a130884ee1.jpg",
    "icongray": "https://steamcdn-a.akamaihd.net/steamcommunity/public/images/apps/7520/b775de21b38596e2123f287a2502720507a790e1.jpg"
  },
  {
    "name": "156_DLC3_PLANEWALKER",
    "defaultvalue": 0,
    "displayName": "The Planewalker",
    "hidden": 0,
    "description": "Visit all three dimensions",
    "icon": "https://steamcdn-a.akamaihd.net/steamcommunity/public/images/apps/7520/d87a527bc595c5d2e33448a19aedf9ab7b6756f6.jpg",
    "icongray": "https://steamcdn-a.akamaihd.net/steamcommunity/public/images/apps/7520/b5e298c303eccc8afd6f1d43bb16b97b14141b62.jpg"
  },
  {
    "name": "157_DLC3_TRUE_ELF_FRIEND",
    "defaultvalue": 0,
    "displayName": "The True Elf-friend",
    "hidden": 0,
    "description": "Complete \"Shattered Embrace\"",
    "icon": "https://steamcdn-a.akamaihd.net/steamcommunity/public/images/apps/7520/d98e832458046e01967c267643eb0f99eb4c2a61.jpg",
    "icongray": "https://steamcdn-a.akamaihd.net/steamcommunity/public/images/apps/7520/e94ffde1f9cf3723caad2b03ad1dfe76ac6f4b9a.jpg"
  },
  {
    "name": "158_DLC3_A_HERO_OF_TWO_CITIES",
    "defaultvalue": 0,
    "displayName": "A Hero of Two Cities",
    "hidden": 0,
    "description": "Complete expert side adventures in both Shadinar and Freehaven",
    "icon": "https://steamcdn-a.akamaihd.net/steamcommunity/public/images/apps/7520/ce725ba47c8eff5c10bcba10ff265ce28711f503.jpg",
    "icongray": "https://steamcdn-a.akamaihd.net/steamcommunity/public/images/apps/7520/20abf868b03775dee6d69b9a54da3b38e3d87280.jpg"
  },
  {
    "name": "159_DLC3_ELVEN_GILDED_AGE",
    "defaultvalue": 0,
    "displayName": "The Gilded Age",
    "hidden": 0,
    "description": "Complete all side adventures given by Bernard and Abe",
    "icon": "https://steamcdn-a.akamaihd.net/steamcommunity/public/images/apps/7520/bed84000bc9bae7ed0558d5d01bc2f1b024a749d.jpg",
    "icongray": "https://steamcdn-a.akamaihd.net/steamcommunity/public/images/apps/7520/37e15cd3a12aaaa589d8a9a06cdff7de20aa7a93.jpg"
  }
]