﻿[
  {
    "name": "FinishPrologue",
    "defaultvalue": 0,
    "displayName": "All sails set!",
    "hidden": 1,
    "icon": "https://steamcdn-a.akamaihd.net/steamcommunity/public/images/apps/606880/468cf89a8f694c2ce920fba1bf2e54cc870e2099.jpg",
    "icongray": "https://steamcdn-a.akamaihd.net/steamcommunity/public/images/apps/606880/afd57cc144411b53ae371ead780844d024094861.jpg"
  },
  {
    "name": "FinishMQ05",
    "defaultvalue": 0,
    "displayName": "The Prince's secrets",
    "hidden": 1,
    "icon": "https://steamcdn-a.akamaihd.net/steamcommunity/public/images/apps/606880/c3b2dbd7029f7fb853901bb82c7d61f8038020d4.jpg",
    "icongray": "https://steamcdn-a.akamaihd.net/steamcommunity/public/images/apps/606880/afd57cc144411b53ae371ead780844d024094861.jpg"
  },
  {
    "name": "FinishMQ11A",
    "defaultvalue": 0,
    "displayName": "Missed coup",
    "hidden": 1,
    "icon": "https://steamcdn-a.akamaihd.net/steamcommunity/public/images/apps/606880/dd1b3780239f412fe05565d7b2271fc62d54ee9a.jpg",
    "icongray": "https://steamcdn-a.akamaihd.net/steamcommunity/public/images/apps/606880/afd57cc144411b53ae371ead780844d024094861.jpg"
  },
  {
    "name": "FinishMQ11B",
    "defaultvalue": 0,
    "displayName": "Betrayal in blood",
    "hidden": 1,
    "icon": "https://steamcdn-a.akamaihd.net/steamcommunity/public/images/apps/606880/8985898e820f10e6f6b1c3c3412cd7b7293388f1.jpg",
    "icongray": "https://steamcdn-a.akamaihd.net/steamcommunity/public/images/apps/606880/afd57cc144411b53ae371ead780844d024094861.jpg"
  },
  {
    "name": "FinishMQ12A",
    "defaultvalue": 0,
    "displayName": "In the name of the Enlightened",
    "hidden": 1,
    "icon": "https://steamcdn-a.akamaihd.net/steamcommunity/public/images/apps/606880/32720d9b75c2bf9b9030642f4d0d4d9cbed387c7.jpg",
    "icongray": "https://steamcdn-a.akamaihd.net/steamcommunity/public/images/apps/606880/afd57cc144411b53ae371ead780844d024094861.jpg"
  },
  {
    "name": "FinishMQ12B",
    "defaultvalue": 0,
    "displayName": "A preserved Alliance",
    "hidden": 1,
    "icon": "https://steamcdn-a.akamaihd.net/steamcommunity/public/images/apps/606880/16796db703c227904bcb2050773bca05af1653ce.jpg",
    "icongray": "https://steamcdn-a.akamaihd.net/steamcommunity/public/images/apps/606880/afd57cc144411b53ae371ead780844d024094861.jpg"
  },
  {
    "name": "FinishMQ14",
    "defaultvalue": 0,
    "displayName": "Waterproof",
    "hidden": 1,
    "icon": "https://steamcdn-a.akamaihd.net/steamcommunity/public/images/apps/606880/24dec5a4f476660508c07a49aca1edc04eb1aaa1.jpg",
    "icongray": "https://steamcdn-a.akamaihd.net/steamcommunity/public/images/apps/606880/afd57cc144411b53ae371ead780844d024094861.jpg"
  },
  {
    "name": "FinishMQ19",
    "defaultvalue": 0,
    "displayName": "Outside the stone prison",
    "hidden": 1,
    "icon": "https://steamcdn-a.akamaihd.net/steamcommunity/public/images/apps/606880/2389a573d1eca49cf4a295d0cb85ec8873f1537a.jpg",
    "icongray": "https://steamcdn-a.akamaihd.net/steamcommunity/public/images/apps/606880/afd57cc144411b53ae371ead780844d024094861.jpg"
  },
  {
    "name": "FinishMQ21",
    "defaultvalue": 0,
    "displayName": "Influence game",
    "hidden": 1,
    "icon": "https://steamcdn-a.akamaihd.net/steamcommunity/public/images/apps/606880/f6a5c9b70ebb10be95713d5681d31870ad02bcc9.jpg",
    "icongray": "https://steamcdn-a.akamaihd.net/steamcommunity/public/images/apps/606880/afd57cc144411b53ae371ead780844d024094861.jpg"
  },
  {
    "name": "FinishMQ22",
    "defaultvalue": 0,
    "displayName": "En on míl frichtimen",
    "hidden": 1,
    "icon": "https://steamcdn-a.akamaihd.net/steamcommunity/public/images/apps/606880/908f62df9d34edb3e8ebfd86a5cb6abfb6aff2ca.jpg",
    "icongray": "https://steamcdn-a.akamaihd.net/steamcommunity/public/images/apps/606880/afd57cc144411b53ae371ead780844d024094861.jpg"
  },
  {
    "name": "FinishMQ25",
    "defaultvalue": 0,
    "displayName": "Something is rotten",
    "hidden": 1,
    "icon": "https://steamcdn-a.akamaihd.net/steamcommunity/public/images/apps/606880/f6a29f398c7c77f76347be224c378cdc4f001dde.jpg",
    "icongray": "https://steamcdn-a.akamaihd.net/steamcommunity/public/images/apps/606880/afd57cc144411b53ae371ead780844d024094861.jpg"
  },
  {
    "name": "FullAllianceMQ27",
    "defaultvalue": 0,
    "displayName": "All for one, one for all!",
    "hidden": 1,
    "icon": "https://steamcdn-a.akamaihd.net/steamcommunity/public/images/apps/606880/ef6d7d1cf20e925c41085fbf13b5a67426dc3df4.jpg",
    "icongray": "https://steamcdn-a.akamaihd.net/steamcommunity/public/images/apps/606880/afd57cc144411b53ae371ead780844d024094861.jpg"
  },
  {
    "name": "EndingPositive",
    "defaultvalue": 0,
    "displayName": "A better world",
    "hidden": 1,
    "icon": "https://steamcdn-a.akamaihd.net/steamcommunity/public/images/apps/606880/0a4f3f3c6d8086065db4229fe48ff635878a78da.jpg",
    "icongray": "https://steamcdn-a.akamaihd.net/steamcommunity/public/images/apps/606880/afd57cc144411b53ae371ead780844d024094861.jpg"
  },
  {
    "name": "EndingNegativeOldLand",
    "defaultvalue": 0,
    "displayName": "Back to the roots",
    "hidden": 1,
    "icon": "https://steamcdn-a.akamaihd.net/steamcommunity/public/images/apps/606880/c32cead3a121590272f17d88b4caf977f87c5683.jpg",
    "icongray": "https://steamcdn-a.akamaihd.net/steamcommunity/public/images/apps/606880/afd57cc144411b53ae371ead780844d024094861.jpg"
  },
  {
    "name": "EndingNeutral",
    "defaultvalue": 0,
    "displayName": "A big step towards peace",
    "hidden": 1,
    "icon": "https://steamcdn-a.akamaihd.net/steamcommunity/public/images/apps/606880/c7c1ccb3cffeb2862ee306fffc69b429991ad119.jpg",
    "icongray": "https://steamcdn-a.akamaihd.net/steamcommunity/public/images/apps/606880/afd57cc144411b53ae371ead780844d024094861.jpg"
  },
  {
    "name": "EndingNegative",
    "defaultvalue": 0,
    "displayName": "Island for sale",
    "hidden": 1,
    "icon": "https://steamcdn-a.akamaihd.net/steamcommunity/public/images/apps/606880/e15f561738d37d8b4c2e48931ce3bcb985ed5f79.jpg",
    "icongray": "https://steamcdn-a.akamaihd.net/steamcommunity/public/images/apps/606880/afd57cc144411b53ae371ead780844d024094861.jpg"
  },
  {
    "name": "EndingChaos",
    "defaultvalue": 0,
    "displayName": "New gods",
    "hidden": 1,
    "icon": "https://steamcdn-a.akamaihd.net/steamcommunity/public/images/apps/606880/65919daee2f22be42baf7266fd2f84017d18f286.jpg",
    "icongray": "https://steamcdn-a.akamaihd.net/steamcommunity/public/images/apps/606880/afd57cc144411b53ae371ead780844d024094861.jpg"
  },
  {
    "name": "FinishExtreme",
    "defaultvalue": 0,
    "displayName": "A passion for extreme",
    "hidden": 0,
    "description": "Complete the game in extreme mode",
    "icon": "https://steamcdn-a.akamaihd.net/steamcommunity/public/images/apps/606880/9c2e8470a319272ccef5772ecb98a8f288e66ed6.jpg",
    "icongray": "https://steamcdn-a.akamaihd.net/steamcommunity/public/images/apps/606880/afd57cc144411b53ae371ead780844d024094861.jpg"
  },
  {
    "name": "FinishSideQuests",
    "defaultvalue": 0,
    "displayName": "Serve to convince",
    "hidden": 0,
    "description": "Complete 20 secondary quests",
    "icon": "https://steamcdn-a.akamaihd.net/steamcommunity/public/images/apps/606880/8bffb0eda3e6f5c3b5eb2aff851dcdd0326962c0.jpg",
    "icongray": "https://steamcdn-a.akamaihd.net/steamcommunity/public/images/apps/606880/afd57cc144411b53ae371ead780844d024094861.jpg"
  },
  {
    "name": "FinishCompQuests",
    "defaultvalue": 0,
    "displayName": "Friendship above all",
    "hidden": 0,
    "description": "Finish all companion quests",
    "icon": "https://steamcdn-a.akamaihd.net/steamcommunity/public/images/apps/606880/05dec4d815f74d08b233c5fd056073d350b2e20c.jpg",
    "icongray": "https://steamcdn-a.akamaihd.net/steamcommunity/public/images/apps/606880/afd57cc144411b53ae371ead780844d024094861.jpg"
  },
  {
    "name": "RomanceKurt",
    "defaultvalue": 0,
    "displayName": "Guardian of love",
    "hidden": 0,
    "description": "Be in a relationship with Kurt",
    "icon": "https://steamcdn-a.akamaihd.net/steamcommunity/public/images/apps/606880/c6ce1d1fdbe66a8b0c6d806a8cd4d1379d51473a.jpg",
    "icongray": "https://steamcdn-a.akamaihd.net/steamcommunity/public/images/apps/606880/afd57cc144411b53ae371ead780844d024094861.jpg"
  },
  {
    "name": "RomanceSiora",
    "defaultvalue": 0,
    "displayName": "Minundhanem",
    "hidden": 0,
    "description": "Be in a relationship with Siora",
    "icon": "https://steamcdn-a.akamaihd.net/steamcommunity/public/images/apps/606880/cb68eaf35bc466c5c16457f9f4e0216998706fb5.jpg",
    "icongray": "https://steamcdn-a.akamaihd.net/steamcommunity/public/images/apps/606880/afd57cc144411b53ae371ead780844d024094861.jpg"
  },
  {
    "name": "RomanceAphra",
    "defaultvalue": 0,
    "displayName": "Love and botany",
    "hidden": 0,
    "description": "Be in a relationship with Aphra",
    "icon": "https://steamcdn-a.akamaihd.net/steamcommunity/public/images/apps/606880/49f67b9cf45a2fd8b9b6f94323ce57fa1f168d95.jpg",
    "icongray": "https://steamcdn-a.akamaihd.net/steamcommunity/public/images/apps/606880/afd57cc144411b53ae371ead780844d024094861.jpg"
  },
  {
    "name": "RomanceVasco",
    "defaultvalue": 0,
    "displayName": "Love and the sea",
    "hidden": 0,
    "description": "Be in a relationship with Vasco",
    "icon": "https://steamcdn-a.akamaihd.net/steamcommunity/public/images/apps/606880/b5aa0dc41bfe281ae096dbd8a0d6b5e002bfae1f.jpg",
    "icongray": "https://steamcdn-a.akamaihd.net/steamcommunity/public/images/apps/606880/afd57cc144411b53ae371ead780844d024094861.jpg"
  },
  {
    "name": "FinishArena",
    "defaultvalue": 0,
    "displayName": "Arena Excellence",
    "hidden": 0,
    "description": "Succeed in all the challenges of the arena",
    "icon": "https://steamcdn-a.akamaihd.net/steamcommunity/public/images/apps/606880/3975d04f92114262760422200cc3045cc43368cd.jpg",
    "icongray": "https://steamcdn-a.akamaihd.net/steamcommunity/public/images/apps/606880/afd57cc144411b53ae371ead780844d024094861.jpg"
  },
  {
    "name": "NativeReputationFull",
    "defaultvalue": 0,
    "displayName": "Carants",
    "hidden": 0,
    "description": "Have a good reputation with the natives",
    "icon": "https://steamcdn-a.akamaihd.net/steamcommunity/public/images/apps/606880/7f1122d46b88c9836adab692141a38672ddf55ab.jpg",
    "icongray": "https://steamcdn-a.akamaihd.net/steamcommunity/public/images/apps/606880/afd57cc144411b53ae371ead780844d024094861.jpg"
  },
  {
    "name": "ThelemeReputationFull",
    "defaultvalue": 0,
    "displayName": "Thélème's chosen",
    "hidden": 0,
    "description": "Have a good reputation with Thélème",
    "icon": "https://steamcdn-a.akamaihd.net/steamcommunity/public/images/apps/606880/e5fd1eb7ea59930d10718561e6334e0033bd94ed.jpg",
    "icongray": "https://steamcdn-a.akamaihd.net/steamcommunity/public/images/apps/606880/afd57cc144411b53ae371ead780844d024094861.jpg"
  },
  {
    "name": "BridgeReputationFull",
    "defaultvalue": 0,
    "displayName": "Favoured with the Bridge Alliance",
    "hidden": 0,
    "description": "Have a good reputation with the Bridge Alliance",
    "icon": "https://steamcdn-a.akamaihd.net/steamcommunity/public/images/apps/606880/31625e5f099ec885f6495cbe793a497ce92903d5.jpg",
    "icongray": "https://steamcdn-a.akamaihd.net/steamcommunity/public/images/apps/606880/afd57cc144411b53ae371ead780844d024094861.jpg"
  },
  {
    "name": "UnlockAllCamps",
    "defaultvalue": 0,
    "displayName": "Explorer",
    "hidden": 0,
    "description": "Find and set all camp fires",
    "icon": "https://steamcdn-a.akamaihd.net/steamcommunity/public/images/apps/606880/d1aecc08820eaa6871536b58aaac0388b09c0647.jpg",
    "icongray": "https://steamcdn-a.akamaihd.net/steamcommunity/public/images/apps/606880/afd57cc144411b53ae371ead780844d024094861.jpg"
  },
  {
    "name": "HitMelee",
    "defaultvalue": 0,
    "displayName": "Melee virtuoso",
    "hidden": 0,
    "description": "Do damage 500 times with a melee weapon",
    "icon": "https://steamcdn-a.akamaihd.net/steamcommunity/public/images/apps/606880/ec07c22980fc572e64fd517b0eba5e7e8a88f17e.jpg",
    "icongray": "https://steamcdn-a.akamaihd.net/steamcommunity/public/images/apps/606880/afd57cc144411b53ae371ead780844d024094861.jpg"
  },
  {
    "name": "HitMagicOffensive",
    "defaultvalue": 0,
    "displayName": "War mage",
    "hidden": 0,
    "description": "Do damage 500 times with an offensive spell",
    "icon": "https://steamcdn-a.akamaihd.net/steamcommunity/public/images/apps/606880/cd416ea1109ae6505867f2a0b36ce6d4291df616.jpg",
    "icongray": "https://steamcdn-a.akamaihd.net/steamcommunity/public/images/apps/606880/afd57cc144411b53ae371ead780844d024094861.jpg"
  },
  {
    "name": "HitShoot",
    "defaultvalue": 0,
    "displayName": "Musketeer",
    "hidden": 0,
    "description": "Do damage 300 times with shots",
    "icon": "https://steamcdn-a.akamaihd.net/steamcommunity/public/images/apps/606880/483ebbf196ac3cfcd15e333c5cc3aeed47dce050.jpg",
    "icongray": "https://steamcdn-a.akamaihd.net/steamcommunity/public/images/apps/606880/afd57cc144411b53ae371ead780844d024094861.jpg"
  },
  {
    "name": "HitTraps",
    "defaultvalue": 0,
    "displayName": "Deceitful",
    "hidden": 0,
    "description": "Do damage 200 times with traps",
    "icon": "https://steamcdn-a.akamaihd.net/steamcommunity/public/images/apps/606880/7854201e216529622a34b47d480a5bc54137bd80.jpg",
    "icongray": "https://steamcdn-a.akamaihd.net/steamcommunity/public/images/apps/606880/afd57cc144411b53ae371ead780844d024094861.jpg"
  },
  {
    "name": "HitPoison",
    "defaultvalue": 0,
    "displayName": "Poisoning artist",
    "hidden": 0,
    "description": "Poison enemies 100 times",
    "icon": "https://steamcdn-a.akamaihd.net/steamcommunity/public/images/apps/606880/ee33c87186fc4b35526017a8c01209045e1f6ce6.jpg",
    "icongray": "https://steamcdn-a.akamaihd.net/steamcommunity/public/images/apps/606880/afd57cc144411b53ae371ead780844d024094861.jpg"
  },
  {
    "name": "PotionUse",
    "defaultvalue": 0,
    "displayName": "Another sip?",
    "hidden": 0,
    "description": "Use 50 potions",
    "icon": "https://steamcdn-a.akamaihd.net/steamcommunity/public/images/apps/606880/91b666ec248fde9faa55356558f676da4134747c.jpg",
    "icongray": "https://steamcdn-a.akamaihd.net/steamcommunity/public/images/apps/606880/afd57cc144411b53ae371ead780844d024094861.jpg"
  },
  {
    "name": "Assassinate",
    "defaultvalue": 0,
    "displayName": "Shadow blade",
    "hidden": 0,
    "description": "Use your assassination skills 30 times",
    "icon": "https://steamcdn-a.akamaihd.net/steamcommunity/public/images/apps/606880/a530640d5cbd052a86b705915caec5ef29e8dbf9.jpg",
    "icongray": "https://steamcdn-a.akamaihd.net/steamcommunity/public/images/apps/606880/afd57cc144411b53ae371ead780844d024094861.jpg"
  },
  {
    "name": "KillGuardian1",
    "defaultvalue": 0,
    "displayName": "Master of the woods",
    "hidden": 1,
    "icon": "https://steamcdn-a.akamaihd.net/steamcommunity/public/images/apps/606880/5ea57039b3e80892a36edaf7a37a01a126989a44.jpg",
    "icongray": "https://steamcdn-a.akamaihd.net/steamcommunity/public/images/apps/606880/afd57cc144411b53ae371ead780844d024094861.jpg"
  },
  {
    "name": "KillGuardian2",
    "defaultvalue": 0,
    "displayName": "King of the peaks",
    "hidden": 1,
    "icon": "https://steamcdn-a.akamaihd.net/steamcommunity/public/images/apps/606880/17efb5a33720c4ef6e4931534dc40bf10c725f3d.jpg",
    "icongray": "https://steamcdn-a.akamaihd.net/steamcommunity/public/images/apps/606880/afd57cc144411b53ae371ead780844d024094861.jpg"
  },
  {
    "name": "KillGuardian3",
    "defaultvalue": 0,
    "displayName": "Swamp creature",
    "hidden": 1,
    "icon": "https://steamcdn-a.akamaihd.net/steamcommunity/public/images/apps/606880/15c45bb2639719c4ce07fd23cd0fbe33b89d6179.jpg",
    "icongray": "https://steamcdn-a.akamaihd.net/steamcommunity/public/images/apps/606880/afd57cc144411b53ae371ead780844d024094861.jpg"
  },
  {
    "name": "KillGuardian4",
    "defaultvalue": 0,
    "displayName": "The wrecker",
    "hidden": 1,
    "icon": "https://steamcdn-a.akamaihd.net/steamcommunity/public/images/apps/606880/bf4e22e0a3bf46d64751289877630456fd51eb6b.jpg",
    "icongray": "https://steamcdn-a.akamaihd.net/steamcommunity/public/images/apps/606880/afd57cc144411b53ae371ead780844d024094861.jpg"
  },
  {
    "name": "KillGuardian5",
    "defaultvalue": 0,
    "displayName": "The legend of the plains",
    "hidden": 1,
    "icon": "https://steamcdn-a.akamaihd.net/steamcommunity/public/images/apps/606880/4c63d9d9b00546905419ce7e21c3d31573501ff4.jpg",
    "icongray": "https://steamcdn-a.akamaihd.net/steamcommunity/public/images/apps/606880/afd57cc144411b53ae371ead780844d024094861.jpg"
  },
  {
    "name": "KillAnimals",
    "defaultvalue": 0,
    "displayName": "Hunting with hounds",
    "hidden": 0,
    "description": "Hunt 20 animals",
    "icon": "https://steamcdn-a.akamaihd.net/steamcommunity/public/images/apps/606880/a336fdbb89389179588350496b1784f62f9fde88.jpg",
    "icongray": "https://steamcdn-a.akamaihd.net/steamcommunity/public/images/apps/606880/afd57cc144411b53ae371ead780844d024094861.jpg"
  },
  {
    "name": "KillMonsters",
    "defaultvalue": 0,
    "displayName": "The monsters' nightmare",
    "hidden": 0,
    "description": "Kill 600 monsters",
    "icon": "https://steamcdn-a.akamaihd.net/steamcommunity/public/images/apps/606880/3c4422b44e7eeb44141e06b0b866f6a7d1e461da.jpg",
    "icongray": "https://steamcdn-a.akamaihd.net/steamcommunity/public/images/apps/606880/afd57cc144411b53ae371ead780844d024094861.jpg"
  },
  {
    "name": "KillHumans",
    "defaultvalue": 0,
    "displayName": "Coercive diplomacy",
    "hidden": 0,
    "description": "Kill 300 humans",
    "icon": "https://steamcdn-a.akamaihd.net/steamcommunity/public/images/apps/606880/4f1ff3318a355f01e4c41787690985195c8d3132.jpg",
    "icongray": "https://steamcdn-a.akamaihd.net/steamcommunity/public/images/apps/606880/afd57cc144411b53ae371ead780844d024094861.jpg"
  },
  {
    "name": "LootChests",
    "defaultvalue": 0,
    "displayName": "Full pockets",
    "hidden": 0,
    "description": "Empty 100 containers",
    "icon": "https://steamcdn-a.akamaihd.net/steamcommunity/public/images/apps/606880/9a57ec18677d4465917819dd6df5d98dc451eea1.jpg",
    "icongray": "https://steamcdn-a.akamaihd.net/steamcommunity/public/images/apps/606880/afd57cc144411b53ae371ead780844d024094861.jpg"
  },
  {
    "name": "CollectRessources",
    "defaultvalue": 0,
    "displayName": "Curiosity cabinet",
    "hidden": 0,
    "description": "Collect ingredients 200 times",
    "icon": "https://steamcdn-a.akamaihd.net/steamcommunity/public/images/apps/606880/0882f06a9d1c4eeb151b4b1cd13a59475fff0764.jpg",
    "icongray": "https://steamcdn-a.akamaihd.net/steamcommunity/public/images/apps/606880/afd57cc144411b53ae371ead780844d024094861.jpg"
  },
  {
    "name": "FirstLegendary",
    "defaultvalue": 0,
    "displayName": "Worthy of legends",
    "hidden": 0,
    "description": "Acquire a legendary item",
    "icon": "https://steamcdn-a.akamaihd.net/steamcommunity/public/images/apps/606880/54abeed7e9833a1cb390c7ca894b966d4f5fe18f.jpg",
    "icongray": "https://steamcdn-a.akamaihd.net/steamcommunity/public/images/apps/606880/afd57cc144411b53ae371ead780844d024094861.jpg"
  },
  {
    "name": "FirstSkill",
    "defaultvalue": 0,
    "displayName": "In the footsteps of the masters",
    "hidden": 0,
    "description": "Unlock a new skill",
    "icon": "https://steamcdn-a.akamaihd.net/steamcommunity/public/images/apps/606880/84d14f4a6125667ebd5450f44eae26cf0af14f34.jpg",
    "icongray": "https://steamcdn-a.akamaihd.net/steamcommunity/public/images/apps/606880/afd57cc144411b53ae371ead780844d024094861.jpg"
  },
  {
    "name": "WarriorSkillFull",
    "defaultvalue": 0,
    "displayName": "The art of war",
    "hidden": 0,
    "description": "Unlock all the warrior skills",
    "icon": "https://steamcdn-a.akamaihd.net/steamcommunity/public/images/apps/606880/b806f21b141c9443b9e512a2479ee03f1e356e46.jpg",
    "icongray": "https://steamcdn-a.akamaihd.net/steamcommunity/public/images/apps/606880/afd57cc144411b53ae371ead780844d024094861.jpg"
  },
  {
    "name": "TechniqueSkillFull",
    "defaultvalue": 0,
    "displayName": "Incomparable technique",
    "hidden": 0,
    "description": "Unlock all Technical skills",
    "icon": "https://steamcdn-a.akamaihd.net/steamcommunity/public/images/apps/606880/d9de264a3e017237299109ff898fbf9c5f35a60a.jpg",
    "icongray": "https://steamcdn-a.akamaihd.net/steamcommunity/public/images/apps/606880/afd57cc144411b53ae371ead780844d024094861.jpg"
  },
  {
    "name": "MagicSkillFull",
    "defaultvalue": 0,
    "displayName": "Magical perfection",
    "hidden": 0,
    "description": "Unlock all Magic skills",
    "icon": "https://steamcdn-a.akamaihd.net/steamcommunity/public/images/apps/606880/161f008d8a6806fb5f7732d99d2b431a35af8d8a.jpg",
    "icongray": "https://steamcdn-a.akamaihd.net/steamcommunity/public/images/apps/606880/afd57cc144411b53ae371ead780844d024094861.jpg"
  },
  {
    "name": "FirstTalent",
    "defaultvalue": 0,
    "displayName": "Full of talent",
    "hidden": 0,
    "description": "Allocate a new talent point",
    "icon": "https://steamcdn-a.akamaihd.net/steamcommunity/public/images/apps/606880/a34614b78548b43d6a499003d13a80a2c5dc416e.jpg",
    "icongray": "https://steamcdn-a.akamaihd.net/steamcommunity/public/images/apps/606880/afd57cc144411b53ae371ead780844d024094861.jpg"
  },
  {
    "name": "FullTalentUnlocked",
    "defaultvalue": 0,
    "displayName": "Expertise",
    "hidden": 0,
    "description": "Unlock the 3 levels of a talent",
    "icon": "https://steamcdn-a.akamaihd.net/steamcommunity/public/images/apps/606880/00c74e04c117794b4c1b0da79eaf9994f25564eb.jpg",
    "icongray": "https://steamcdn-a.akamaihd.net/steamcommunity/public/images/apps/606880/afd57cc144411b53ae371ead780844d024094861.jpg"
  },
  {
    "name": "UnlockThings",
    "defaultvalue": 0,
    "displayName": "Cat burglar",
    "hidden": 0,
    "description": "Pick 20 locks",
    "icon": "https://steamcdn-a.akamaihd.net/steamcommunity/public/images/apps/606880/49041e11a09b8e397087095452e3598f39385c1e.jpg",
    "icongray": "https://steamcdn-a.akamaihd.net/steamcommunity/public/images/apps/606880/afd57cc144411b53ae371ead780844d024094861.jpg"
  },
  {
    "name": "CraftEquipements",
    "defaultvalue": 0,
    "displayName": "Artisan",
    "hidden": 0,
    "description": "Craft 10 equipment improvements",
    "icon": "https://steamcdn-a.akamaihd.net/steamcommunity/public/images/apps/606880/32fba361b21480005e0103e8aa33d9e0d5030f83.jpg",
    "icongray": "https://steamcdn-a.akamaihd.net/steamcommunity/public/images/apps/606880/afd57cc144411b53ae371ead780844d024094861.jpg"
  },
  {
    "name": "CraftAlchemy",
    "defaultvalue": 0,
    "displayName": "Alchemist",
    "hidden": 0,
    "description": "Craft 10 alchemical elements",
    "icon": "https://steamcdn-a.akamaihd.net/steamcommunity/public/images/apps/606880/7518d3b04e8fd1183f4d7b107a0c512f4da91a2d.jpg",
    "icongray": "https://steamcdn-a.akamaihd.net/steamcommunity/public/images/apps/606880/afd57cc144411b53ae371ead780844d024094861.jpg"
  },
  {
    "name": "FirstAttribute",
    "defaultvalue": 0,
    "displayName": "On the path to power",
    "hidden": 0,
    "description": "Allocate a new attribute point",
    "icon": "https://steamcdn-a.akamaihd.net/steamcommunity/public/images/apps/606880/8740d7ff6dd0b925515e0d9adf5c68f5ad5252a2.jpg",
    "icongray": "https://steamcdn-a.akamaihd.net/steamcommunity/public/images/apps/606880/afd57cc144411b53ae371ead780844d024094861.jpg"
  },
  {
    "name": "FullAttributeUnlocked",
    "defaultvalue": 0,
    "displayName": "In search of perfection",
    "hidden": 0,
    "description": "Unlock the 5 levels of an attribute",
    "icon": "https://steamcdn-a.akamaihd.net/steamcommunity/public/images/apps/606880/3c7cc6a91dc69254a74f46bcafaf611266f01b0a.jpg",
    "icongray": "https://steamcdn-a.akamaihd.net/steamcommunity/public/images/apps/606880/afd57cc144411b53ae371ead780844d024094861.jpg"
  }
]