{
  "Dlcs": {},
  "Name": "脚本塔防 Massacre  Tower",
  "AppId": "989460",
  "ImageUrl": "https://steamcdn-a.akamaihd.net/steam/apps/989460/header.jpg?t=1592926182",
  "Languages": [
    "schinese",
    "english"
  ],
  "Platforms": {
    "windows": true,
    "mac": false,
    "linux": false
  }
}