{
  "Dlcs": {},
  "Name": "Planetoid Pioneers Online",
  "AppId": "1013040",
  "ImageUrl": "https://steamcdn-a.akamaihd.net/steam/apps/1013040/header.jpg?t=1571638937",
  "Languages": [
    "english"
  ],
  "Platforms": {
    "windows": true,
    "mac": false,
    "linux": false
  }
}