[
  {
    "name": "ACH_0001_TRAIN",
    "defaultvalue": 0,
    "displayName": "Arrival",
    "hidden": 0,
    "description": "Start your journey.",
    "icon": "https://steamcdn-a.akamaihd.net/steamcommunity/public/images/apps/441680/e8126283a2eb62206c0063db5ce08d1e6bfcdfde.jpg",
    "icongray": "https://steamcdn-a.akamaihd.net/steamcommunity/public/images/apps/441680/878ceb5a72177a9147fe019456cc8f076688cafa.jpg"
  },
  {
    "name": "ACH_0002_WELL",
    "defaultvalue": 0,
    "displayName": "Enter the property",
    "hidden": 0,
    "description": "Enter the property of uncle Arthur.",
    "icon": "https://steamcdn-a.akamaihd.net/steamcommunity/public/images/apps/441680/4f6f071196840aadf69182e6fd61c553b48fc845.jpg",
    "icongray": "https://steamcdn-a.akamaihd.net/steamcommunity/public/images/apps/441680/9aba4360232134de892749ba692ce0bfdb1593d0.jpg"
  },
  {
    "name": "ACH_0003_CHAIR",
    "defaultvalue": 0,
    "displayName": "Inside",
    "hidden": 0,
    "description": "Solve the first quest.",
    "icon": "https://steamcdn-a.akamaihd.net/steamcommunity/public/images/apps/441680/f8469c1858bb3f9c410c3b0e3820357c97748806.jpg",
    "icongray": "https://steamcdn-a.akamaihd.net/steamcommunity/public/images/apps/441680/5f1155dad08499b0364da0a07c1da942cd8a460e.jpg"
  },
  {
    "name": "ACH_0004_VASE",
    "defaultvalue": 0,
    "displayName": "Chaos",
    "hidden": 0,
    "description": "Find out what´s wrong in here.",
    "icon": "https://steamcdn-a.akamaihd.net/steamcommunity/public/images/apps/441680/4745c8b89abd9fb59673dc491f7c061d8467b5d7.jpg",
    "icongray": "https://steamcdn-a.akamaihd.net/steamcommunity/public/images/apps/441680/3a997545675587c19a9047e510fc347548ac36f3.jpg"
  },
  {
    "name": "ACH_0005_EAGLE",
    "defaultvalue": 0,
    "displayName": "Bodyswitch",
    "hidden": 0,
    "description": "Feels like the wrong body.",
    "icon": "https://steamcdn-a.akamaihd.net/steamcommunity/public/images/apps/441680/68ed3e8c4ebc66e44ca8d44ec08a680ae78a2e39.jpg",
    "icongray": "https://steamcdn-a.akamaihd.net/steamcommunity/public/images/apps/441680/a6c12f14a8ed8d7d87056eb72b4403c29430266d.jpg"
  },
  {
    "name": "ACH_0006_BOOKS",
    "defaultvalue": 0,
    "displayName": "Bookworm",
    "hidden": 0,
    "description": "No time to read.",
    "icon": "https://steamcdn-a.akamaihd.net/steamcommunity/public/images/apps/441680/0103d1e75bc588c16951b035e281eb2fc0b52da7.jpg",
    "icongray": "https://steamcdn-a.akamaihd.net/steamcommunity/public/images/apps/441680/671641a21c02f5e4260205092a099eca132ae25d.jpg"
  },
  {
    "name": "ACH_0007_MASK",
    "defaultvalue": 0,
    "displayName": "Mess.",
    "hidden": 0,
    "description": "Clean up the mess.",
    "icon": "https://steamcdn-a.akamaihd.net/steamcommunity/public/images/apps/441680/26e69a3a51e24dbed4f29224e7ab9b5144b119de.jpg",
    "icongray": "https://steamcdn-a.akamaihd.net/steamcommunity/public/images/apps/441680/765debc56262b627f021a3fb3a166bef6188432b.jpg"
  },
  {
    "name": "ACH_0008_CRYSTAL",
    "defaultvalue": 0,
    "displayName": "Enlightenment",
    "hidden": 0,
    "description": "Let there be light.",
    "icon": "https://steamcdn-a.akamaihd.net/steamcommunity/public/images/apps/441680/dd91884ec50287886b3457a438bca0222fbdd996.jpg",
    "icongray": "https://steamcdn-a.akamaihd.net/steamcommunity/public/images/apps/441680/c8c7b54d50837a98dedb735d78d9fdde233dbc11.jpg"
  },
  {
    "name": "ACH_0009_LION",
    "defaultvalue": 0,
    "displayName": "In the jungle",
    "hidden": 0,
    "description": "Find a way out of the jungle.",
    "icon": "https://steamcdn-a.akamaihd.net/steamcommunity/public/images/apps/441680/72004505b66fe4de20eb384f881520591551cdca.jpg",
    "icongray": "https://steamcdn-a.akamaihd.net/steamcommunity/public/images/apps/441680/d6efc34fbbfbd52c76f60338bf92713ce55aae69.jpg"
  },
  {
    "name": "ACH_0010_HAND",
    "defaultvalue": 0,
    "displayName": "Claw",
    "hidden": 0,
    "description": "Be carefull with claws.",
    "icon": "https://steamcdn-a.akamaihd.net/steamcommunity/public/images/apps/441680/114ed091d7822c9b87067ca0490ae2af340d7611.jpg",
    "icongray": "https://steamcdn-a.akamaihd.net/steamcommunity/public/images/apps/441680/17adadcab44b26a9db1d19fae2580ca2d2d60e7f.jpg"
  },
  {
    "name": "ACH_0011_CEMETRY",
    "defaultvalue": 0,
    "displayName": "Cemetry",
    "hidden": 0,
    "description": "Pass the cemetry.",
    "icon": "https://steamcdn-a.akamaihd.net/steamcommunity/public/images/apps/441680/af0700b937b03f057b3eb4f8a885c28fa04f91bf.jpg",
    "icongray": "https://steamcdn-a.akamaihd.net/steamcommunity/public/images/apps/441680/e8bd9eafdc243bd4d77551869614150ea8cf03ff.jpg"
  },
  {
    "name": "ACH_0012_POWER",
    "defaultvalue": 0,
    "displayName": "No Power",
    "hidden": 0,
    "description": "Get the power back.",
    "icon": "https://steamcdn-a.akamaihd.net/steamcommunity/public/images/apps/441680/9b73b22bc0d88cb46613229dd08ca9ec0b989596.jpg",
    "icongray": "https://steamcdn-a.akamaihd.net/steamcommunity/public/images/apps/441680/e650546bca9456c9f4ea67d52441c1ca98338b63.jpg"
  },
  {
    "name": "ACH_0013_COASTER",
    "defaultvalue": 0,
    "displayName": "Thrillride",
    "hidden": 0,
    "description": "Survive the nightmare ride.",
    "icon": "https://steamcdn-a.akamaihd.net/steamcommunity/public/images/apps/441680/08d35e16066f5e0c0263a5ef0d94e3f758d09455.jpg",
    "icongray": "https://steamcdn-a.akamaihd.net/steamcommunity/public/images/apps/441680/2648d838c48f0de00d27b9615b546cc2141e729f.jpg"
  },
  {
    "name": "ACH_0014_CLOWN",
    "defaultvalue": 0,
    "displayName": "Funtime",
    "hidden": 0,
    "description": "No fun in the house.",
    "icon": "https://steamcdn-a.akamaihd.net/steamcommunity/public/images/apps/441680/30ff539f07c57fa1193b092974cd18c9c60301e6.jpg",
    "icongray": "https://steamcdn-a.akamaihd.net/steamcommunity/public/images/apps/441680/fdbb0549c8c34893ea3249fa32bef481a9d55ed6.jpg"
  },
  {
    "name": "ACH_0015_DOLL",
    "defaultvalue": 0,
    "displayName": "Dolls in the house.",
    "hidden": 0,
    "description": "Don´t get stalked.",
    "icon": "https://steamcdn-a.akamaihd.net/steamcommunity/public/images/apps/441680/8b8716d3625ce525abfb28425bdfdbf1c0adb1e8.jpg",
    "icongray": "https://steamcdn-a.akamaihd.net/steamcommunity/public/images/apps/441680/6dd5c152ef085b6a8281eab6a10d188aefffe9fb.jpg"
  },
  {
    "name": "ACH_0016_GEAR",
    "defaultvalue": 0,
    "displayName": "Get back.",
    "hidden": 0,
    "description": "Get back to reality.",
    "icon": "https://steamcdn-a.akamaihd.net/steamcommunity/public/images/apps/441680/2d7ad5bb538f71511cf29bce8d93a64ec138969e.jpg",
    "icongray": "https://steamcdn-a.akamaihd.net/steamcommunity/public/images/apps/441680/ca77be670bc7a136b0e214bebb36a237e8ec03a8.jpg"
  },
  {
    "name": "ACH_0017_DEER",
    "defaultvalue": 0,
    "displayName": "Coursing",
    "hidden": 0,
    "description": "Run for your life!",
    "icon": "https://steamcdn-a.akamaihd.net/steamcommunity/public/images/apps/441680/78518a5ac4dd3a61c0d1603ea26a30c0bcc0e4ab.jpg",
    "icongray": "https://steamcdn-a.akamaihd.net/steamcommunity/public/images/apps/441680/81bd04288512af51d8af4623c933feeb4cd0648a.jpg"
  },
  {
    "name": "ACH_0018_SWORDS",
    "defaultvalue": 0,
    "displayName": "Trapped",
    "hidden": 0,
    "description": "Stop it!",
    "icon": "https://steamcdn-a.akamaihd.net/steamcommunity/public/images/apps/441680/91953b3e3e4668dac67aec2c47d27400d80dd4ad.jpg",
    "icongray": "https://steamcdn-a.akamaihd.net/steamcommunity/public/images/apps/441680/d0990d2a8ff69b6554dd17fc125b1824ae876602.jpg"
  },
  {
    "name": "ACH_0019_TRANSITION",
    "defaultvalue": 0,
    "displayName": "Transition",
    "hidden": 0,
    "description": "Close the transition.",
    "icon": "https://steamcdn-a.akamaihd.net/steamcommunity/public/images/apps/441680/748e283c86e2664cb83ee1d925b4b9284dcccea6.jpg",
    "icongray": "https://steamcdn-a.akamaihd.net/steamcommunity/public/images/apps/441680/9e2e14e8bf0cdeefcc79fb46728252a44a1d3641.jpg"
  },
  {
    "name": "ACH_0020_GIRL",
    "defaultvalue": 0,
    "displayName": "Awakening",
    "hidden": 0,
    "description": "Survive your nightmares.",
    "icon": "https://steamcdn-a.akamaihd.net/steamcommunity/public/images/apps/441680/7252fb48e3acdf28096a5fcdce2c90f94c72bdec.jpg",
    "icongray": "https://steamcdn-a.akamaihd.net/steamcommunity/public/images/apps/441680/261468681e80e5cd477061a06650954cdccd8ca5.jpg"
  }
]