{
  "Dlcs": {
    "1423243": {
      "Name": "My Neighborhood Arcade: Speed Box  Unit",
      "ImageUrl": "https://steamcdn-a.akamaihd.net/steam/apps/1423243/header.jpg?t=1601202400"
    },
    "1423249": {
      "Name": "My Neighborhood Arcade: Wheels of Fortunes Unit",
      "ImageUrl": "https://steamcdn-a.akamaihd.net/steam/apps/1423249/header.jpg?t=1601160186"
    },
    "1423246": {
      "Name": "My Neighborhood Arcade: Rolling Ball 3D Unit",
      "ImageUrl": "https://steamcdn-a.akamaihd.net/steam/apps/1423246/header.jpg?t=1601160196"
    },
    "1423247": {
      "Name": "My Neighborhood Arcade: Picture Puzzle Unit",
      "ImageUrl": "https://steamcdn-a.akamaihd.net/steam/apps/1423247/header.jpg?t=1601160193"
    },
    "1423250": {
      "Name": "My Neighborhood Arcade: Infinity Jukebox Unit",
      "ImageUrl": "https://steamcdn-a.akamaihd.net/steam/apps/1423250/header.jpg?t=1601148236"
    },
    "1423241": {
      "Name": "My Neighborhood Arcade: Tower Stacker Unit",
      "ImageUrl": "https://steamcdn-a.akamaihd.net/steam/apps/1423241/header.jpg?t=1601160213"
    },
    "1423248": {
      "Name": "My Neighborhood Arcade: RC Targets - Dronez Unit",
      "ImageUrl": "https://steamcdn-a.akamaihd.net/steam/apps/1423248/header.jpg?t=1601160189"
    },
    "1423245": {
      "Name": "My Neighborhood Arcade: Hot Market Unit",
      "ImageUrl": "https://steamcdn-a.akamaihd.net/steam/apps/1423245/header.jpg?t=1601160203"
    },
    "1423251": {
      "Name": "My Neighborhood Arcade: Claw Machine Pro Unit",
      "ImageUrl": "https://steamcdn-a.akamaihd.net/steam/apps/1423251/header.jpg?t=1601160182"
    },
    "1423242": {
      "Name": "My Neighborhood Arcade: InfiniMath Unit",
      "ImageUrl": "https://steamcdn-a.akamaihd.net/steam/apps/1423242/header.jpg?t=1601159842"
    },
    "1423240": {
      "Name": "My Neighborhood Arcade: Bit Converger Unit",
      "ImageUrl": "https://steamcdn-a.akamaihd.net/steam/apps/1423240/header.jpg?t=1601160218"
    },
    "1427850": {
      "Name": "My Neighborhood Arcade: Free Credits Wheel Unit",
      "ImageUrl": "https://steamcdn-a.akamaihd.net/steam/apps/1427850/header.jpg?t=1601148112"
    },
    "1423244": {
      "Name": "My Neighborhood Arcade: Block Puzzle Unit",
      "ImageUrl": "https://steamcdn-a.akamaihd.net/steam/apps/1423244/header.jpg?t=1601160209"
    }
  },
  "Name": "My Neighborhood Arcade",
  "AppId": "1400980",
  "ImageUrl": "https://steamcdn-a.akamaihd.net/steam/apps/1400980/header.jpg?t=1600550503",
  "Languages": [
    "english"
  ],
  "Platforms": {
    "windows": true,
    "mac": false,
    "linux": false
  }
}