{
  "Dlcs": {},
  "Name": "Laruaville 7",
  "AppId": "1035790",
  "ImageUrl": "https://steamcdn-a.akamaihd.net/steam/apps/1035790/header.jpg?t=1556208564",
  "Languages": [
    "english"
  ],
  "Platforms": {
    "windows": true,
    "mac": false,
    "linux": false
  }
}