[
  {
    "name": "Kill25Enemies",
    "defaultvalue": 0,
    "displayName": "Just getting started!",
    "hidden": 0,
    "description": "Kill 25 enemies.",
    "icon": "https://steamcdn-a.akamaihd.net/steamcommunity/public/images/apps/843360/77b6f375c650325c41db06536ec76f3036c0893c.jpg",
    "icongray": "https://steamcdn-a.akamaihd.net/steamcommunity/public/images/apps/843360/eb9949e4e069b0cb85044cd8b898ad9b127b7271.jpg"
  },
  {
    "name": "Kill50Enemies",
    "defaultvalue": 0,
    "displayName": "Getting the hang of it.",
    "hidden": 0,
    "description": "Kill 50 enemies.",
    "icon": "https://steamcdn-a.akamaihd.net/steamcommunity/public/images/apps/843360/c5c2fa8e8f5b9610481bed28bc12ab76091f5f98.jpg",
    "icongray": "https://steamcdn-a.akamaihd.net/steamcommunity/public/images/apps/843360/0f6238210a21284bb1bf5efa16172f2b57da63ef.jpg"
  },
  {
    "name": "Kill100Enemies",
    "defaultvalue": 0,
    "displayName": "Massacre!",
    "hidden": 0,
    "description": "Kill 100 enemies.",
    "icon": "https://steamcdn-a.akamaihd.net/steamcommunity/public/images/apps/843360/802cedad4f37141ce882a1ad656fa61c831dd595.jpg",
    "icongray": "https://steamcdn-a.akamaihd.net/steamcommunity/public/images/apps/843360/4d34cc6dc6fa960f016169b1d5d365bc16ecb116.jpg"
  },
  {
    "name": "Kill500Enemies",
    "defaultvalue": 0,
    "displayName": "Unstoppable!",
    "hidden": 0,
    "description": "Kill 500 enemies.",
    "icon": "https://steamcdn-a.akamaihd.net/steamcommunity/public/images/apps/843360/7f9bfab7c4ee56cf97e864462e6b96654309bef7.jpg",
    "icongray": "https://steamcdn-a.akamaihd.net/steamcommunity/public/images/apps/843360/48dfe6cc506a246fd8054999bb358d53534311e5.jpg"
  },
  {
    "name": "Kill1000Enemies",
    "defaultvalue": 0,
    "displayName": "Godlike",
    "hidden": 0,
    "description": "Kill 1000 enemies.",
    "icon": "https://steamcdn-a.akamaihd.net/steamcommunity/public/images/apps/843360/34b8f755e8c9daa000ded66d5e48e69c8fb275e1.jpg",
    "icongray": "https://steamcdn-a.akamaihd.net/steamcommunity/public/images/apps/843360/76448a57aa99c15b453cb82077773ef39f78c6fe.jpg"
  },
  {
    "name": "Gather1000Gold",
    "defaultvalue": 0,
    "displayName": "Just getting by..",
    "hidden": 0,
    "description": "Gather 1000 gold.",
    "icon": "https://steamcdn-a.akamaihd.net/steamcommunity/public/images/apps/843360/40656da2367fcca65ea5aef620f5442bc970da82.jpg",
    "icongray": "https://steamcdn-a.akamaihd.net/steamcommunity/public/images/apps/843360/f174aeb5948568fda20506071d5955b5859e0fb4.jpg"
  },
  {
    "name": "Gather10000Gold",
    "defaultvalue": 0,
    "displayName": "Got My Mind On My Money!",
    "hidden": 0,
    "description": "Gather 10000 gold.",
    "icon": "https://steamcdn-a.akamaihd.net/steamcommunity/public/images/apps/843360/09202c76b6d24b257e8c54f734fd9e497059e983.jpg",
    "icongray": "https://steamcdn-a.akamaihd.net/steamcommunity/public/images/apps/843360/5d13794bd9e0ba6ac7d87b6197ce6929113e2f03.jpg"
  },
  {
    "name": "Gather50000Gold",
    "defaultvalue": 0,
    "displayName": "Leprechaun",
    "hidden": 0,
    "description": "Gather 50000 gold.",
    "icon": "https://steamcdn-a.akamaihd.net/steamcommunity/public/images/apps/843360/34bfa69def2617a84d6bf5446cd3e65e04e93490.jpg",
    "icongray": "https://steamcdn-a.akamaihd.net/steamcommunity/public/images/apps/843360/a342725c27a17c1fe1e04319eae2e84976475a31.jpg"
  },
  {
    "name": "Gather10Collectibles",
    "defaultvalue": 0,
    "displayName": "Bookworm",
    "hidden": 0,
    "description": "Gather 10 collectibles.",
    "icon": "https://steamcdn-a.akamaihd.net/steamcommunity/public/images/apps/843360/8d72cf6a5adcb4b9b4ea28f0cf546475d278c869.jpg",
    "icongray": "https://steamcdn-a.akamaihd.net/steamcommunity/public/images/apps/843360/81e77b5c6283dfc7122b58b21d0fc51fe40b752b.jpg"
  },
  {
    "name": "Gather25Collectibles",
    "defaultvalue": 0,
    "displayName": "Collector",
    "hidden": 0,
    "description": "Gather 25 collectibles.",
    "icon": "https://steamcdn-a.akamaihd.net/steamcommunity/public/images/apps/843360/231b30c3a9ba97a25c7bf680081d8ba27b082f68.jpg",
    "icongray": "https://steamcdn-a.akamaihd.net/steamcommunity/public/images/apps/843360/576595e021f54e136d7b662469d19413804ef5cf.jpg"
  },
  {
    "name": "Gather100Collectibles",
    "defaultvalue": 0,
    "displayName": "Librarian",
    "hidden": 0,
    "description": "Gather 100 collectibles.",
    "icon": "https://steamcdn-a.akamaihd.net/steamcommunity/public/images/apps/843360/aa66fed800e831b40790cdf28b1cea70ad07aa3a.jpg",
    "icongray": "https://steamcdn-a.akamaihd.net/steamcommunity/public/images/apps/843360/c26a35843dd250a7c27915c1901b25d19bb74cf0.jpg"
  },
  {
    "name": "KillValerienne",
    "defaultvalue": 0,
    "displayName": "Eliminated",
    "hidden": 1,
    "icon": "https://steamcdn-a.akamaihd.net/steamcommunity/public/images/apps/843360/18ddd598b5300db2bc827a92fb4e61c790ea1e8b.jpg",
    "icongray": "https://steamcdn-a.akamaihd.net/steamcommunity/public/images/apps/843360/416a873f9c441c7af11d0d83516a3a991ac537aa.jpg"
  },
  {
    "name": "KillCastemore",
    "defaultvalue": 0,
    "displayName": "No room for betrayers.",
    "hidden": 1,
    "icon": "https://steamcdn-a.akamaihd.net/steamcommunity/public/images/apps/843360/765b7e282c99353d8cb14175f258a8e8e66ac977.jpg",
    "icongray": "https://steamcdn-a.akamaihd.net/steamcommunity/public/images/apps/843360/49663a6ee2cb69e12eb60762212cbab6b4d7a8d8.jpg"
  },
  {
    "name": "KillXal'Sheth",
    "defaultvalue": 0,
    "displayName": "Godslayer",
    "hidden": 1,
    "icon": "https://steamcdn-a.akamaihd.net/steamcommunity/public/images/apps/843360/f195c474e658662858b161e18bee2ceacefc8a0e.jpg",
    "icongray": "https://steamcdn-a.akamaihd.net/steamcommunity/public/images/apps/843360/9dfc3d27cd15d0d6f6928011d8c25aff2d71538c.jpg"
  },
  {
    "name": "ReachLevel10",
    "defaultvalue": 0,
    "displayName": "Getting Warmed Up",
    "hidden": 0,
    "description": "Reach stage 10.",
    "icon": "https://steamcdn-a.akamaihd.net/steamcommunity/public/images/apps/843360/02bd7eaed7d5d21f523818935a31531fa0d922c0.jpg",
    "icongray": "https://steamcdn-a.akamaihd.net/steamcommunity/public/images/apps/843360/9a661ee20def43c50d6658471a43c62beaf2327b.jpg"
  },
  {
    "name": "ReachLevel20",
    "defaultvalue": 0,
    "displayName": "Stressed Out",
    "hidden": 0,
    "description": "Reach stage 20.",
    "icon": "https://steamcdn-a.akamaihd.net/steamcommunity/public/images/apps/843360/47ed424a02186c3374d8f0e55e20fc3cb00aa603.jpg",
    "icongray": "https://steamcdn-a.akamaihd.net/steamcommunity/public/images/apps/843360/d66ca1a0393c567550ad8450f510d6f9601564fd.jpg"
  },
  {
    "name": "ReachLevel30",
    "defaultvalue": 0,
    "displayName": "Insane",
    "hidden": 0,
    "description": "Reach stage 30.",
    "icon": "https://steamcdn-a.akamaihd.net/steamcommunity/public/images/apps/843360/a2f4b660ba7ebe33a09f86dcbf04d24da0b9c02c.jpg",
    "icongray": "https://steamcdn-a.akamaihd.net/steamcommunity/public/images/apps/843360/d86316313ac0d651079e9928e5d8d17f9b5c0d74.jpg"
  },
  {
    "name": "ReachLevel50",
    "defaultvalue": 0,
    "displayName": "Maniac",
    "hidden": 0,
    "description": "Reach stage 50.",
    "icon": "https://steamcdn-a.akamaihd.net/steamcommunity/public/images/apps/843360/4b3cafcd8a5121fd9b909a328042011d1015166b.jpg",
    "icongray": "https://steamcdn-a.akamaihd.net/steamcommunity/public/images/apps/843360/4fda748bb21f11270c88d4a77de7f824365fb34a.jpg"
  },
  {
    "name": "DieFirst",
    "defaultvalue": 0,
    "displayName": "Oops..",
    "hidden": 0,
    "description": "Get killed for the first time.",
    "icon": "https://steamcdn-a.akamaihd.net/steamcommunity/public/images/apps/843360/f0bb52e76ab74e12403bddb622acf31b800c1735.jpg",
    "icongray": "https://steamcdn-a.akamaihd.net/steamcommunity/public/images/apps/843360/073face565548db4b128d215aeddcb30bcf49136.jpg"
  },
  {
    "name": "DieFive",
    "defaultvalue": 0,
    "displayName": "Getting used to it...",
    "hidden": 0,
    "description": "Get killed for five times.",
    "icon": "https://steamcdn-a.akamaihd.net/steamcommunity/public/images/apps/843360/9ccab344b985bd4d1e147fbf2c3c61eb7898ef87.jpg",
    "icongray": "https://steamcdn-a.akamaihd.net/steamcommunity/public/images/apps/843360/149c1d369abe3d760482d2b24f0d79a451ad8599.jpg"
  },
  {
    "name": "DieTwenty",
    "defaultvalue": 0,
    "displayName": "I promise... This was the last one!",
    "hidden": 0,
    "description": "Get killed for 20 times.",
    "icon": "https://steamcdn-a.akamaihd.net/steamcommunity/public/images/apps/843360/1e32a1ff62b9959f574958e41845e93c9c46fad1.jpg",
    "icongray": "https://steamcdn-a.akamaihd.net/steamcommunity/public/images/apps/843360/1a3d29f402cf714e3c6d783af0aaeea041a5ff8e.jpg"
  },
  {
    "name": "KillFirst",
    "defaultvalue": 0,
    "displayName": "Well, that wasn't so hard.",
    "hidden": 0,
    "description": "Kill your first enemy.",
    "icon": "https://steamcdn-a.akamaihd.net/steamcommunity/public/images/apps/843360/60fadf5531a2b78ea21829a1cf6c43a849efe8bb.jpg",
    "icongray": "https://steamcdn-a.akamaihd.net/steamcommunity/public/images/apps/843360/3f9fc584230121fcb130b8fef129f8f4a967afd2.jpg"
  },
  {
    "name": "Loot1Item",
    "defaultvalue": 0,
    "displayName": "Shiny!",
    "hidden": 0,
    "description": "Loot one item.",
    "icon": "https://steamcdn-a.akamaihd.net/steamcommunity/public/images/apps/843360/a9d50f57612680c96141844ac92520553bd76114.jpg",
    "icongray": "https://steamcdn-a.akamaihd.net/steamcommunity/public/images/apps/843360/50de22454f1b71bf994c9b1cc7fcba20b3de8261.jpg"
  },
  {
    "name": "Loot10Item",
    "defaultvalue": 0,
    "displayName": "Greed!",
    "hidden": 0,
    "description": "Loot ten items.",
    "icon": "https://steamcdn-a.akamaihd.net/steamcommunity/public/images/apps/843360/134161c96a9041c09c9b08bed099155547cbc521.jpg",
    "icongray": "https://steamcdn-a.akamaihd.net/steamcommunity/public/images/apps/843360/d1262735ff9c84c1888da5bab86896d4a5153606.jpg"
  },
  {
    "name": "Loot50Item",
    "defaultvalue": 0,
    "displayName": "Loot Hoarder",
    "hidden": 0,
    "description": "Loot 50 items.",
    "icon": "https://steamcdn-a.akamaihd.net/steamcommunity/public/images/apps/843360/c62ae72290e8557ff5ff0510a63f2f299ba4e503.jpg",
    "icongray": "https://steamcdn-a.akamaihd.net/steamcommunity/public/images/apps/843360/a81882b209ce41384a949af4a890f43a7bf12dda.jpg"
  },
  {
    "name": "Finish100Sec",
    "defaultvalue": 0,
    "displayName": "Just wanna go fast!",
    "hidden": 0,
    "description": "Finish a dungeon under 100 seconds.",
    "icon": "https://steamcdn-a.akamaihd.net/steamcommunity/public/images/apps/843360/67434508fbb61a8f38c88a21ecd3e5f497f0324b.jpg",
    "icongray": "https://steamcdn-a.akamaihd.net/steamcommunity/public/images/apps/843360/e0f4547bc44d48a7bebd72c43b2e425a5b3ab36d.jpg"
  },
  {
    "name": "Spend1000Gold",
    "defaultvalue": 0,
    "displayName": "Consumer",
    "hidden": 0,
    "description": "Spend 1000 gold on vendors.",
    "icon": "https://steamcdn-a.akamaihd.net/steamcommunity/public/images/apps/843360/a8061efb9cb26fa8a3a04ffc160628aeca8d34df.jpg",
    "icongray": "https://steamcdn-a.akamaihd.net/steamcommunity/public/images/apps/843360/451b794a27872364ed1a916678a4559f54055db5.jpg"
  },
  {
    "name": "Spend10000Gold",
    "defaultvalue": 0,
    "displayName": "Compulsive Shopper",
    "hidden": 0,
    "description": "Spend 10000 gold on vendors.",
    "icon": "https://steamcdn-a.akamaihd.net/steamcommunity/public/images/apps/843360/a8061efb9cb26fa8a3a04ffc160628aeca8d34df.jpg",
    "icongray": "https://steamcdn-a.akamaihd.net/steamcommunity/public/images/apps/843360/3d2553a21b5d18b39740a7023eec9dbbd3d02e64.jpg"
  },
  {
    "name": "Spend50000Gold",
    "defaultvalue": 0,
    "displayName": "Extravagant!",
    "hidden": 0,
    "description": "Spend 50000 gold on vendors.",
    "icon": "https://steamcdn-a.akamaihd.net/steamcommunity/public/images/apps/843360/f75d120aa9ce4505a8f19409e8e4dc331e66ac8b.jpg",
    "icongray": "https://steamcdn-a.akamaihd.net/steamcommunity/public/images/apps/843360/96fb5aa6524fa027f438b32fbcee254c8b891900.jpg"
  },
  {
    "name": "FinishDGnohit",
    "defaultvalue": 0,
    "displayName": "Smooth run.",
    "hidden": 0,
    "description": "Finish a dungeon without getting hit.",
    "icon": "https://steamcdn-a.akamaihd.net/steamcommunity/public/images/apps/843360/e5c96d102ba2aec699b95f704099e7e46ffbeee1.jpg",
    "icongray": "https://steamcdn-a.akamaihd.net/steamcommunity/public/images/apps/843360/d406779ed4b7990af8ba8862b6ec6ef61023e944.jpg"
  },
  {
    "name": "GodslayerSword",
    "defaultvalue": 0,
    "displayName": "Now, I'm ready!",
    "hidden": 0,
    "description": "Equip the legendary Godslayer sword.",
    "icon": "https://steamcdn-a.akamaihd.net/steamcommunity/public/images/apps/843360/7bcba2481b342d4a71e07df726702d295ae9d40a.jpg",
    "icongray": "https://steamcdn-a.akamaihd.net/steamcommunity/public/images/apps/843360/629b3c976aa60e519b835dc2274260e6dc2422fa.jpg"
  },
  {
    "name": "SkullCrusherTeber",
    "defaultvalue": 0,
    "displayName": "Destruction awaits..",
    "hidden": 0,
    "description": "Equip the legendary halberd, Skullcrusher.",
    "icon": "https://steamcdn-a.akamaihd.net/steamcommunity/public/images/apps/843360/80f32149981aff484b492d6b72c04a7eec52a1c6.jpg",
    "icongray": "https://steamcdn-a.akamaihd.net/steamcommunity/public/images/apps/843360/ca28aed309ed44d39550c018fb53fca057863f8f.jpg"
  },
  {
    "name": "KeeperCall",
    "defaultvalue": 0,
    "displayName": "Feel the power!",
    "hidden": 0,
    "description": "Equip the legendary Scroll of the Keeper's Call.",
    "icon": "https://steamcdn-a.akamaihd.net/steamcommunity/public/images/apps/843360/5b5e09f2fd0a6828c9a608a0d448f59588aaa19d.jpg",
    "icongray": "https://steamcdn-a.akamaihd.net/steamcommunity/public/images/apps/843360/55a9ad6f09af365bf7c2025e54f97919679375ec.jpg"
  },
  {
    "name": "KeeperCrossbow",
    "defaultvalue": 0,
    "displayName": "Bullseye",
    "hidden": 0,
    "description": "Equip the legendary Keeper's Crossbow.",
    "icon": "https://steamcdn-a.akamaihd.net/steamcommunity/public/images/apps/843360/064af10f0368c93d437881438ffff548311e50a2.jpg",
    "icongray": "https://steamcdn-a.akamaihd.net/steamcommunity/public/images/apps/843360/23b3d7bfe7c3bcc376e0c4b4c68ad74eb854003b.jpg"
  },
  {
    "name": "legendarySpell",
    "defaultvalue": 0,
    "displayName": "The Archmage",
    "hidden": 0,
    "description": "Equip a legendary spell rune.",
    "icon": "https://steamcdn-a.akamaihd.net/steamcommunity/public/images/apps/843360/c1c58332b18ad8a03a835a516e74b9310e5a24e3.jpg",
    "icongray": "https://steamcdn-a.akamaihd.net/steamcommunity/public/images/apps/843360/74736c84ee13c6becc4f5a540e48cdc047550a7b.jpg"
  },
  {
    "name": "Consume50TraitShrine",
    "defaultvalue": 0,
    "displayName": "Growing up!",
    "hidden": 0,
    "description": "Harness power from 50 different shrines.",
    "icon": "https://steamcdn-a.akamaihd.net/steamcommunity/public/images/apps/843360/c931a29f73e3022811830bf44b24cbda4131bcc5.jpg",
    "icongray": "https://steamcdn-a.akamaihd.net/steamcommunity/public/images/apps/843360/b1d06670e79f2afae5316a0ce2367f52e7629b2b.jpg"
  },
  {
    "name": "Consume50HealShrine",
    "defaultvalue": 0,
    "displayName": "Mother Keeper",
    "hidden": 0,
    "description": "Pray to the Mother Keeper 50 times.",
    "icon": "https://steamcdn-a.akamaihd.net/steamcommunity/public/images/apps/843360/affddfe0300de60b4dd21ecaa72f7d0f0315de34.jpg",
    "icongray": "https://steamcdn-a.akamaihd.net/steamcommunity/public/images/apps/843360/02473de1c0742901ed97d31c20382c605294fd6b.jpg"
  }
]