﻿{
  "Dlcs": {
    "829550": {
      "Name": "FURIDASHI - ULTIMATE 200%",
      "ImageUrl": "https://steamcdn-a.akamaihd.net/steam/apps/829550/header.jpg?t=1523532786"
    },
    "820820": {
      "Name": "FURIDASHI - PREMIUM CARS PACK#1",
      "ImageUrl": "https://steamcdn-a.akamaihd.net/steam/apps/820820/header.jpg?t=1550646943"
    },
    "820821": {
      "Name": "FURIDASHI - PREMIUM CARS PACK#2",
      "ImageUrl": "https://steamcdn-a.akamaihd.net/steam/apps/820821/header.jpg?t=1550646682"
    },
    "731010": {
      "Name": "FURIDASHI - PREMIUM CAR: 1999 TN15",
      "ImageUrl": "https://steamcdn-a.akamaihd.net/steam/apps/731010/header.jpg?t=1550649188"
    },
    "731030": {
      "Name": "FURIDASHI - PREMIUM CAR: 2016 PRETENDER",
      "ImageUrl": "https://steamcdn-a.akamaihd.net/steam/apps/731030/header.jpg?t=1550649083"
    },
    "731090": {
      "Name": "FURIDASHI - PREMIUM CAR: 1980 V 2105",
      "ImageUrl": "https://steamcdn-a.akamaihd.net/steam/apps/731090/header.jpg?t=1550649027"
    },
    "731110": {
      "Name": "FURIDASHI - PREMIUM CAR: 2013 SR4 COUPE",
      "ImageUrl": "https://steamcdn-a.akamaihd.net/steam/apps/731110/header.jpg?t=1550648945"
    },
    "731210": {
      "Name": "FURIDASHI - PREMIUM CAR: 1999 TWX-7",
      "ImageUrl": "https://steamcdn-a.akamaihd.net/steam/apps/731210/header.jpg?t=1550648826"
    },
    "733700": {
      "Name": "FURIDASHI - PREMIUM CAR: 1995 TN14",
      "ImageUrl": "https://steamcdn-a.akamaihd.net/steam/apps/733700/header.jpg?t=1550648711"
    },
    "755180": {
      "Name": "FURIDASHI - PREMIUM CAR: 2002 GODZ-34",
      "ImageUrl": "https://steamcdn-a.akamaihd.net/steam/apps/755180/header.jpg?t=1550648609"
    },
    "755190": {
      "Name": "FURIDASHI - PREMIUM CAR: 1989 SR3 COUPE",
      "ImageUrl": "https://steamcdn-a.akamaihd.net/steam/apps/755190/header.jpg?t=1550648515"
    },
    "756720": {
      "Name": "FURIDASHI - PREMIUM CAR: 2015 STRONGER",
      "ImageUrl": "https://steamcdn-a.akamaihd.net/steam/apps/756720/header.jpg?t=1550648395"
    },
    "756721": {
      "Name": "FURIDASHI - PREMIUM CAR: 1995 MRM II",
      "ImageUrl": "https://steamcdn-a.akamaihd.net/steam/apps/756721/header.jpg?t=1550648339"
    },
    "756722": {
      "Name": "FURIDASHI - PREMIUM CAR: 2013 GODZ-35",
      "ImageUrl": "https://steamcdn-a.akamaihd.net/steam/apps/756722/header.jpg?t=1550648241"
    },
    "756723": {
      "Name": "FURIDASHI - PREMIUM CAR: 1970 G-2424",
      "ImageUrl": "https://steamcdn-a.akamaihd.net/steam/apps/756723/header.jpg?t=1550648139"
    },
    "756724": {
      "Name": "FURIDASHI - PREMIUM CAR: 2010 SR3 COUPE",
      "ImageUrl": "https://steamcdn-a.akamaihd.net/steam/apps/756724/header.jpg?t=1550648046"
    },
    "756725": {
      "Name": "FURIDASHI - PREMIUM CAR: 1986 TWX-7",
      "ImageUrl": "https://steamcdn-a.akamaihd.net/steam/apps/756725/header.jpg?t=1550647920"
    },
    "756726": {
      "Name": "FURIDASHI - PREMIUM CAR: 1969 STRONGER",
      "ImageUrl": "https://steamcdn-a.akamaihd.net/steam/apps/756726/header.jpg?t=1550647799"
    },
    "756727": {
      "Name": "FURIDASHI - PREMIUM CAR: 1970 V2101",
      "ImageUrl": "https://steamcdn-a.akamaihd.net/steam/apps/756727/header.jpg?t=1550647726"
    },
    "756728": {
      "Name": "FURIDASHI - PREMIUM CAR: 2008 TWX-8",
      "ImageUrl": "https://steamcdn-a.akamaihd.net/steam/apps/756728/header.jpg?t=1550647658"
    },
    "756729": {
      "Name": "FURIDASHI - PREMIUM CAR: 1986 SA-86",
      "ImageUrl": "https://steamcdn-a.akamaihd.net/steam/apps/756729/header.jpg?t=1550647530"
    },
    "756730": {
      "Name": "FURIDASHI - PREMIUM CAR: 2013 SA-86",
      "ImageUrl": "https://steamcdn-a.akamaihd.net/steam/apps/756730/header.jpg?t=1550647349"
    },
    "756731": {
      "Name": "FURIDASHI - PREMIUM CAR: 1988 TN13",
      "ImageUrl": "https://steamcdn-a.akamaihd.net/steam/apps/756731/header.jpg?t=1550647218"
    }
  },
  "Name": "FURIDASHI: Drift Cyber Sport",
  "AppId": "658570",
  "ImageUrl": "https://steamcdn-a.akamaihd.net/steam/apps/658570/header.jpg?t=1550649953",
  "Languages": [
    "english",
    "russian"
  ],
  "Platforms": {
    "windows": true,
    "mac": false,
    "linux": false
  }
}