[
  {
    "name": "parsec1",
    "defaultvalue": 0,
    "displayName": "Clear Parsec 1",
    "hidden": 0,
    "description": "Parsec 1 Conquered",
    "icon": "https://steamcdn-a.akamaihd.net/steamcommunity/public/images/apps/323020/afb3e12cd3b97e2824adf12169fd8811aa7cc9cd.jpg",
    "icongray": "https://steamcdn-a.akamaihd.net/steamcommunity/public/images/apps/323020/e387f7ebf2cc83554a168c7ae118e606da19363a.jpg"
  },
  {
    "name": "parsec2",
    "defaultvalue": 0,
    "displayName": "Clear Parsec 2",
    "hidden": 0,
    "description": "Parsec 2 Conquered",
    "icon": "https://steamcdn-a.akamaihd.net/steamcommunity/public/images/apps/323020/d796840e901d35b0d747ee679d7cfd179ea4e642.jpg",
    "icongray": "https://steamcdn-a.akamaihd.net/steamcommunity/public/images/apps/323020/1a971e0c63dae91ca820aa104333d03514e92b01.jpg"
  },
  {
    "name": "parsec3",
    "defaultvalue": 0,
    "displayName": "Clear Parsec 3",
    "hidden": 0,
    "description": "Parsec 3 Conquered",
    "icon": "https://steamcdn-a.akamaihd.net/steamcommunity/public/images/apps/323020/d205b7365cc7f4dc4111f285ed450751a6134f08.jpg",
    "icongray": "https://steamcdn-a.akamaihd.net/steamcommunity/public/images/apps/323020/bfe5dd6a08e32337c656d5e55f4799b3a1872247.jpg"
  },
  {
    "name": "mine",
    "defaultvalue": 0,
    "displayName": "It's MINE!",
    "hidden": 0,
    "description": "Unlock the Neutron Mine Item",
    "icon": "https://steamcdn-a.akamaihd.net/steamcommunity/public/images/apps/323020/2be55634f3706e27143b221a6a351ffce435c3d8.jpg",
    "icongray": "https://steamcdn-a.akamaihd.net/steamcommunity/public/images/apps/323020/bc630fc4fee117017a086763a8c21c965b160bd2.jpg"
  },
  {
    "name": "triangle",
    "defaultvalue": 0,
    "displayName": "Triangle Man",
    "hidden": 0,
    "description": "Unlock the Plasma Triangle Item",
    "icon": "https://steamcdn-a.akamaihd.net/steamcommunity/public/images/apps/323020/905e039b458324b2af980a05a4d9dc98fcfe5a5a.jpg",
    "icongray": "https://steamcdn-a.akamaihd.net/steamcommunity/public/images/apps/323020/ac45b640c72285fade0fa2af2d4eadc387319be0.jpg"
  },
  {
    "name": "spike",
    "defaultvalue": 0,
    "displayName": "Round and Round She Goes",
    "hidden": 0,
    "description": "Unlock the Orbiting Spike Item",
    "icon": "https://steamcdn-a.akamaihd.net/steamcommunity/public/images/apps/323020/170297f77336b4f50bff15521c5c6c129d6b4a84.jpg",
    "icongray": "https://steamcdn-a.akamaihd.net/steamcommunity/public/images/apps/323020/f61398d765f03d9a0ae17fb294354be1f27250be.jpg"
  },
  {
    "name": "stroganoff",
    "defaultvalue": 0,
    "displayName": "Stroganoff",
    "hidden": 1,
    "icon": "https://steamcdn-a.akamaihd.net/steamcommunity/public/images/apps/323020/d77795518ae0c480dd92323d7e18499803cf3a81.jpg",
    "icongray": "https://steamcdn-a.akamaihd.net/steamcommunity/public/images/apps/323020/16107ff1067979bd0c36ae1164b5eb9ded6366a5.jpg"
  },
  {
    "name": "perfect",
    "defaultvalue": 0,
    "displayName": "Ultimate Galactic Destroyer",
    "hidden": 0,
    "description": "Perfectamundo! Cleared all levels with 1 detonation.",
    "icon": "https://steamcdn-a.akamaihd.net/steamcommunity/public/images/apps/323020/aa71a2ea86af7e679dca25630d9e87b19c58bbea.jpg",
    "icongray": "https://steamcdn-a.akamaihd.net/steamcommunity/public/images/apps/323020/d0cead42ed6eaa727558e7093be98ccd019ecbe9.jpg"
  },
  {
    "name": "belch",
    "defaultvalue": 0,
    "displayName": "In space, everyone can hear Alex belch.",
    "hidden": 1,
    "icon": "https://steamcdn-a.akamaihd.net/steamcommunity/public/images/apps/323020/a51e810aaf5e329f1424dc9e18a557d1d7747c88.jpg",
    "icongray": "https://steamcdn-a.akamaihd.net/steamcommunity/public/images/apps/323020/2f88c8a3fa0ff9bb5374080a279c3b4664be9e63.jpg"
  },
  {
    "name": "cadet",
    "defaultvalue": 0,
    "displayName": "Space Cadet",
    "hidden": 0,
    "description": "You perfected 10 levels. Nice, but don't be too proud of yourself just yet.",
    "icon": "https://steamcdn-a.akamaihd.net/steamcommunity/public/images/apps/323020/428b3364f8415709326466bca8d4bc908db8d413.jpg",
    "icongray": "https://steamcdn-a.akamaihd.net/steamcommunity/public/images/apps/323020/b14ae07ab9247332ababbc906dff43165830899d.jpg"
  },
  {
    "name": "model",
    "defaultvalue": 0,
    "displayName": "The Model Recruit",
    "hidden": 0,
    "description": "You perfected 50 levels. Well done, recruit!",
    "icon": "https://steamcdn-a.akamaihd.net/steamcommunity/public/images/apps/323020/c4accad5075bfa2786b445d69edfa542909e5af9.jpg",
    "icongray": "https://steamcdn-a.akamaihd.net/steamcommunity/public/images/apps/323020/8f9283d35547523b00a6b23d7347d0ab688440be.jpg"
  },
  {
    "name": "gems",
    "defaultvalue": 0,
    "displayName": "The 500 Club",
    "hidden": 0,
    "description": "You swept up 500 gems on single stage! We may not have to execute you after all!",
    "icon": "https://steamcdn-a.akamaihd.net/steamcommunity/public/images/apps/323020/ddc04b93ba3426090ba5f1a7963fc85fa2e804ec.jpg",
    "icongray": "https://steamcdn-a.akamaihd.net/steamcommunity/public/images/apps/323020/6e470b4ed6b8195cb0c1b984e83d55c58ccac204.jpg"
  },
  {
    "name": "fired",
    "defaultvalue": 0,
    "displayName": "You're Fired.",
    "hidden": 1,
    "icon": "https://steamcdn-a.akamaihd.net/steamcommunity/public/images/apps/323020/0b0946d0147e65c3c49f46c123541321a289c038.jpg",
    "icongray": "https://steamcdn-a.akamaihd.net/steamcommunity/public/images/apps/323020/7fd47140226cb566d35d6c29879dc5d1c0e6f2a1.jpg"
  }
]