{
  "Dlcs": {},
  "Name": "佣兵战歌",
  "AppId": "1196620",
  "ImageUrl": "https://steamcdn-a.akamaihd.net/steam/apps/1196620/header.jpg?t=1580276013",
  "Languages": [
    "schinese"
  ],
  "Platforms": {
    "windows": true,
    "mac": false,
    "linux": false
  }
}