{
  "Dlcs": {},
  "Name": "Help Will Come Tomorrow",
  "AppId": "1119600",
  "ImageUrl": "https://steamcdn-a.akamaihd.net/steam/apps/1119600/header.jpg?t=1593025271",
  "Languages": [
    "english",
    "polish",
    "russian"
  ],
  "Platforms": {
    "windows": true,
    "mac": false,
    "linux": true
  }
}