{
  "Dlcs": {
    "618280": {
      "Name": "Call of the Starseed Original Soundtrack",
      "ImageUrl": "https://steamcdn-a.akamaihd.net/steam/apps/618280/header.jpg?t=1528410244"
    }
  },
  "Name": "The Gallery - Episode 1: Call of the Starseed",
  "AppId": "270130",
  "ImageUrl": "https://steamcdn-a.akamaihd.net/steam/apps/270130/header.jpg?t=1568743716",
  "Languages": [
    "english"
  ],
  "Platforms": {
    "windows": true,
    "mac": false,
    "linux": false
  }
}