﻿{
  "Dlcs": {},
  "Name": "VRocker",
  "AppId": "1143750",
  "ImageUrl": "https://steamcdn-a.akamaihd.net/steam/apps/1143750/header.jpg?t=1592864325",
  "Languages": [
    "english"
  ],
  "Platforms": {
    "windows": true,
    "mac": false,
    "linux": false
  }
}