[
  {
    "name": "NEW_ACHIEVEMENT_1_0",
    "defaultvalue": 0,
    "displayName": "Start the game.",
    "hidden": 0,
    "description": "Start the game.",
    "icon": "https://steamcdn-a.akamaihd.net/steamcommunity/public/images/apps/859610/e2727630190fb9f648b29dcea14f40c67a8169f8.jpg",
    "icongray": "https://steamcdn-a.akamaihd.net/steamcommunity/public/images/apps/859610/e2727630190fb9f648b29dcea14f40c67a8169f8.jpg"
  },
  {
    "name": "NEW_ACHIEVEMENT_1_1",
    "defaultvalue": 0,
    "displayName": "Collect 30 points.",
    "hidden": 0,
    "description": "Collect 30 points.",
    "icon": "https://steamcdn-a.akamaihd.net/steamcommunity/public/images/apps/859610/d0e9246e7340bd09577d11a7a27768e4fcd65613.jpg",
    "icongray": "https://steamcdn-a.akamaihd.net/steamcommunity/public/images/apps/859610/d0e9246e7340bd09577d11a7a27768e4fcd65613.jpg"
  },
  {
    "name": "NEW_ACHIEVEMENT_1_2",
    "defaultvalue": 0,
    "displayName": "Collect 70 points.",
    "hidden": 0,
    "description": "Collect 70 points.",
    "icon": "https://steamcdn-a.akamaihd.net/steamcommunity/public/images/apps/859610/a69d3ef4f40382749bdd344a5f7ff127ca672140.jpg",
    "icongray": "https://steamcdn-a.akamaihd.net/steamcommunity/public/images/apps/859610/0a9b67f4526d013c4bd14830b4f641e1f95f115d.jpg"
  },
  {
    "name": "NEW_ACHIEVEMENT_1_3",
    "defaultvalue": 0,
    "displayName": "Collect 170 points.",
    "hidden": 0,
    "description": "Collect 170 points.",
    "icon": "https://steamcdn-a.akamaihd.net/steamcommunity/public/images/apps/859610/ac01168314eeb05c0fc14be783294ad60678a8cd.jpg",
    "icongray": "https://steamcdn-a.akamaihd.net/steamcommunity/public/images/apps/859610/ac01168314eeb05c0fc14be783294ad60678a8cd.jpg"
  },
  {
    "name": "NEW_ACHIEVEMENT_1_4",
    "defaultvalue": 0,
    "displayName": "Collect 200 points.",
    "hidden": 0,
    "description": "Collect 200 points.",
    "icon": "https://steamcdn-a.akamaihd.net/steamcommunity/public/images/apps/859610/47307c826a2945d7cef1cfd59336a6e637cae127.jpg",
    "icongray": "https://steamcdn-a.akamaihd.net/steamcommunity/public/images/apps/859610/47307c826a2945d7cef1cfd59336a6e637cae127.jpg"
  }
]