{
  "Dlcs": {
    "852200": {
      "Name": "Snail Trek 2 - Funny Hat Donation DLC",
      "ImageUrl": "https://steamcdn-a.akamaihd.net/steam/apps/852200/header.jpg?t=1524595146"
    }
  },
  "Name": "Snail Trek - Chapter 2: A Snail Of Two Worlds",
  "AppId": "756320",
  "ImageUrl": "https://steamcdn-a.akamaihd.net/steam/apps/756320/header.jpg?t=1547349736",
  "Languages": [
    "english"
  ],
  "Platforms": {
    "windows": true,
    "mac": true,
    "linux": true
  }
}