{
  "Dlcs": {},
  "Name": "Tengutana",
  "AppId": "630070",
  "ImageUrl": "https://steamcdn-a.akamaihd.net/steam/apps/630070/header.jpg?t=1518412982",
  "Languages": [
    "english"
  ],
  "Platforms": {
    "windows": true,
    "mac": false,
    "linux": false
  }
}