[
  {
    "name": "Less_than_a_minute",
    "defaultvalue": 0,
    "displayName": "Less than a minute",
    "hidden": 0,
    "description": "Completed a mini-game in less than one minute",
    "icon": "https://steamcdn-a.akamaihd.net/steamcommunity/public/images/apps/560730/646dbbbaafd8fd977b19a3e648932913fe1d0aa1.jpg",
    "icongray": "https://steamcdn-a.akamaihd.net/steamcommunity/public/images/apps/560730/43f8f88bf062ad9334b61369ae3c2790cef3591b.jpg"
  },
  {
    "name": "Everything_is_possible",
    "defaultvalue": 0,
    "displayName": "Everything is possible",
    "hidden": 0,
    "description": "Completed the game without using a single hint",
    "icon": "https://steamcdn-a.akamaihd.net/steamcommunity/public/images/apps/560730/e1b5aff2ceffede6f4db96d3783b44faa7f613ef.jpg",
    "icongray": "https://steamcdn-a.akamaihd.net/steamcommunity/public/images/apps/560730/5b6c3f3b829f680633c989eb8afec296d44e4d81.jpg"
  },
  {
    "name": "As_easy_as_pie",
    "defaultvalue": 0,
    "displayName": "As easy as pie",
    "hidden": 0,
    "description": "Completed every mini-game without skipping any of them",
    "icon": "https://steamcdn-a.akamaihd.net/steamcommunity/public/images/apps/560730/f222e082086d2140d035578b5727d1881d42195f.jpg",
    "icongray": "https://steamcdn-a.akamaihd.net/steamcommunity/public/images/apps/560730/5d8cf4dd0ac29b573a4f3963f867ef52b2324627.jpg"
  },
  {
    "name": "Elementary_dear_Watson",
    "defaultvalue": 0,
    "displayName": "Elementary, dear Watson!",
    "hidden": 0,
    "description": "Found every item in a hidden object puzzle without using a hint",
    "icon": "https://steamcdn-a.akamaihd.net/steamcommunity/public/images/apps/560730/3eaeaccefd47045a615e0be8d3caaf5d21f31ae1.jpg",
    "icongray": "https://steamcdn-a.akamaihd.net/steamcommunity/public/images/apps/560730/770b8d10b35c2edc93ad17464547cf416b5ee8f5.jpg"
  },
  {
    "name": "Look_ma_No_hints",
    "defaultvalue": 0,
    "displayName": "Look, ma! No hints!",
    "hidden": 0,
    "description": "Found every item in every hidden object puzzle without using a hint",
    "icon": "https://steamcdn-a.akamaihd.net/steamcommunity/public/images/apps/560730/be235a1c2be858b8b953814d41add051b069d43b.jpg",
    "icongray": "https://steamcdn-a.akamaihd.net/steamcommunity/public/images/apps/560730/5cdedbb625f44f31870872460a8b10b66797852d.jpg"
  },
  {
    "name": "Glued_to_my_chair",
    "defaultvalue": 0,
    "displayName": "Glued to my chair!",
    "hidden": 0,
    "description": "Played the game for more than one hour straight",
    "icon": "https://steamcdn-a.akamaihd.net/steamcommunity/public/images/apps/560730/61526560ef01b0a5c3977df610859b62503a71d0.jpg",
    "icongray": "https://steamcdn-a.akamaihd.net/steamcommunity/public/images/apps/560730/8584e4d28b81baa47603f93a54eb0404364dbe19.jpg"
  },
  {
    "name": "Film_critic",
    "defaultvalue": 0,
    "displayName": "Film critic",
    "hidden": 0,
    "description": "Watched every video",
    "icon": "https://steamcdn-a.akamaihd.net/steamcommunity/public/images/apps/560730/342bc1fb70591191eb5f556634c223d53e648c21.jpg",
    "icongray": "https://steamcdn-a.akamaihd.net/steamcommunity/public/images/apps/560730/8142b9016626e99a88ec421c40e64aa37074dbc8.jpg"
  },
  {
    "name": "Esoterica",
    "defaultvalue": 0,
    "displayName": "Esoterica",
    "hidden": 0,
    "description": "Complete \"The Esoterica: Hollow Earth\"",
    "icon": "https://steamcdn-a.akamaihd.net/steamcommunity/public/images/apps/560730/a632397ec11dac62fb0133eabba96c7c3be61e89.jpg",
    "icongray": "https://steamcdn-a.akamaihd.net/steamcommunity/public/images/apps/560730/5931021574dd91e4a140ae6a27f19b222533e82f.jpg"
  }
]