[
  {
    "name": "ACH_1_LEV",
    "defaultvalue": 0,
    "displayName": "Level 1",
    "hidden": 0,
    "description": "Beat the first level",
    "icon": "https://steamcdn-a.akamaihd.net/steamcommunity/public/images/apps/1073620/5dffad9e64d06d284a8b72ec5571e6bb89b2c606.jpg",
    "icongray": "https://steamcdn-a.akamaihd.net/steamcommunity/public/images/apps/1073620/8c2517ff9ae7e5d5dd5803f4cf8f930a525dd36a.jpg"
  },
  {
    "name": "ACH_2_LEV",
    "defaultvalue": 0,
    "displayName": "Level 2",
    "hidden": 0,
    "description": "Beat the second level",
    "icon": "https://steamcdn-a.akamaihd.net/steamcommunity/public/images/apps/1073620/3d4432c6d39f23b47b028fe49b149fa586f43fe7.jpg",
    "icongray": "https://steamcdn-a.akamaihd.net/steamcommunity/public/images/apps/1073620/5ee9e05f0e7f92ad9beff68bb57d63db9ef24837.jpg"
  },
  {
    "name": "ACH_3_LEV",
    "defaultvalue": 0,
    "displayName": "Level 3",
    "hidden": 0,
    "description": "Beat the third level",
    "icon": "https://steamcdn-a.akamaihd.net/steamcommunity/public/images/apps/1073620/6c437015304372e85b649e27a2fc07ff14ca97c8.jpg",
    "icongray": "https://steamcdn-a.akamaihd.net/steamcommunity/public/images/apps/1073620/55d9fa15b0547e1903d67218b99722563634b158.jpg"
  },
  {
    "name": "ACH_4_LEV",
    "defaultvalue": 0,
    "displayName": "Level 4",
    "hidden": 0,
    "description": "Beat the fourth level",
    "icon": "https://steamcdn-a.akamaihd.net/steamcommunity/public/images/apps/1073620/c4efeb5d2afec507b99cfcc91ae21ae4f01b36b1.jpg",
    "icongray": "https://steamcdn-a.akamaihd.net/steamcommunity/public/images/apps/1073620/446d7800e3fbc6285e674881f8bdd2ce3c32c045.jpg"
  },
  {
    "name": "ACH_100",
    "defaultvalue": 0,
    "displayName": "100%",
    "hidden": 0,
    "description": "Beat all the additional survival modes",
    "icon": "https://steamcdn-a.akamaihd.net/steamcommunity/public/images/apps/1073620/86aaa81572c1610a11294e53e44a047e52b2d7e6.jpg",
    "icongray": "https://steamcdn-a.akamaihd.net/steamcommunity/public/images/apps/1073620/92762b5f63573ba2ae23f50e6bb564e2668ae42e.jpg"
  },
  {
    "name": "ACH_COIN_1",
    "defaultvalue": 0,
    "displayName": "I like coins",
    "hidden": 0,
    "description": "Collect 1000 coins",
    "icon": "https://steamcdn-a.akamaihd.net/steamcommunity/public/images/apps/1073620/67d1de4fcb9ed48bbebcf20f5d83ec92377359ea.jpg",
    "icongray": "https://steamcdn-a.akamaihd.net/steamcommunity/public/images/apps/1073620/673eb4c75b69c6fadfc0d14a6b5c468ef6f70926.jpg"
  },
  {
    "name": "ACH_COIN_2",
    "defaultvalue": 0,
    "displayName": "I like coins too much",
    "hidden": 0,
    "description": "Collect 10000 coins",
    "icon": "https://steamcdn-a.akamaihd.net/steamcommunity/public/images/apps/1073620/42a032a7d59bec121abb0b6b44d8e10bba8ca25d.jpg",
    "icongray": "https://steamcdn-a.akamaihd.net/steamcommunity/public/images/apps/1073620/0e40a9e2d90a5cc7f0a08584f561e977e1f90fc0.jpg"
  },
  {
    "name": "ACH_NO_HITS",
    "defaultvalue": 0,
    "displayName": "Perfect",
    "hidden": 0,
    "description": "Beat survival mode with no hits",
    "icon": "https://steamcdn-a.akamaihd.net/steamcommunity/public/images/apps/1073620/15399a68622d4090f8d636611c7b934d8032c676.jpg",
    "icongray": "https://steamcdn-a.akamaihd.net/steamcommunity/public/images/apps/1073620/70b2052839cbc14f03c3bd2321eea7163bd010c5.jpg"
  },
  {
    "name": "ACH_JUMP_1",
    "defaultvalue": 0,
    "displayName": "I played a lot",
    "hidden": 0,
    "description": "Jump 10000 times",
    "icon": "https://steamcdn-a.akamaihd.net/steamcommunity/public/images/apps/1073620/258cc42a65c1f0e375a5a11dd75d13d8256569ed.jpg",
    "icongray": "https://steamcdn-a.akamaihd.net/steamcommunity/public/images/apps/1073620/16ad7510fd7525e3cbd6e58ca9865069dc66d9e1.jpg"
  },
  {
    "name": "ACH_JUMP_2",
    "defaultvalue": 0,
    "displayName": "I played too much",
    "hidden": 0,
    "description": "Jump 100000 times",
    "icon": "https://steamcdn-a.akamaihd.net/steamcommunity/public/images/apps/1073620/66be666ff1f612404edf6eec168bc1703bf76f4a.jpg",
    "icongray": "https://steamcdn-a.akamaihd.net/steamcommunity/public/images/apps/1073620/f5d1665ca16f19f8c4ee094b02ed96511200a5bc.jpg"
  },
  {
    "name": "ACH_BOX_1",
    "defaultvalue": 0,
    "displayName": "I hate boxes",
    "hidden": 0,
    "description": "Break 1000 boxes",
    "icon": "https://steamcdn-a.akamaihd.net/steamcommunity/public/images/apps/1073620/07d450ba656998809205407aeaa6f68ad285085a.jpg",
    "icongray": "https://steamcdn-a.akamaihd.net/steamcommunity/public/images/apps/1073620/148f6041661de2c6e1f92a2c5c7cfc2282f4bd95.jpg"
  },
  {
    "name": "ACH_BOX_2",
    "defaultvalue": 0,
    "displayName": "I hate boxes too much",
    "hidden": 0,
    "description": "Break 10000 boxes",
    "icon": "https://steamcdn-a.akamaihd.net/steamcommunity/public/images/apps/1073620/4fe6e3263c9a66a21a8b2bf07786629ac71e3f3a.jpg",
    "icongray": "https://steamcdn-a.akamaihd.net/steamcommunity/public/images/apps/1073620/d44009b28120cca31393fc1d675857c71161bc22.jpg"
  },
  {
    "name": "ACH_SECRET_1",
    "defaultvalue": 0,
    "displayName": "What?",
    "hidden": 1,
    "icon": "https://steamcdn-a.akamaihd.net/steamcommunity/public/images/apps/1073620/fd7f02fd4052dcd48a3478b8ffa4073b64779896.jpg",
    "icongray": "https://steamcdn-a.akamaihd.net/steamcommunity/public/images/apps/1073620/535c2b9adb664fae849013075ca7ff0ec575c9ea.jpg"
  },
  {
    "name": "ACH_SECRET_2",
    "defaultvalue": 0,
    "displayName": "Why?",
    "hidden": 1,
    "icon": "https://steamcdn-a.akamaihd.net/steamcommunity/public/images/apps/1073620/2bd9dead236c7c6946375f47a76f04a280372bd1.jpg",
    "icongray": "https://steamcdn-a.akamaihd.net/steamcommunity/public/images/apps/1073620/6bf9a8be505013786d0fa114176152ebdf491bbb.jpg"
  },
  {
    "name": "ACH_SECRET_3",
    "defaultvalue": 0,
    "displayName": "How?",
    "hidden": 1,
    "icon": "https://steamcdn-a.akamaihd.net/steamcommunity/public/images/apps/1073620/6ec1a9ff61d0fb43d60a7fb33ee8eb3a9f8b05e8.jpg",
    "icongray": "https://steamcdn-a.akamaihd.net/steamcommunity/public/images/apps/1073620/693ab8b88d589f15b37b9e4701a1aea9a317aabe.jpg"
  },
  {
    "name": "ACH_SECRET_4",
    "defaultvalue": 0,
    "displayName": "Now I see",
    "hidden": 1,
    "icon": "https://steamcdn-a.akamaihd.net/steamcommunity/public/images/apps/1073620/bf389eb10c4f1f90de62567769addbf6c608320a.jpg",
    "icongray": "https://steamcdn-a.akamaihd.net/steamcommunity/public/images/apps/1073620/1052354a4f933987e21407d2734e6aa3827e89c0.jpg"
  }
]