{
  "Dlcs": {},
  "Name": "Toro",
  "AppId": "416720",
  "ImageUrl": "https://steamcdn-a.akamaihd.net/steam/apps/416720/header.jpg?t=1478075961",
  "Languages": [
    "english",
    "spanish"
  ],
  "Platforms": {
    "windows": true,
    "mac": false,
    "linux": false
  }
}