{
  "Dlcs": {},
  "Name": "Wrestlers Without Boundaries",
  "AppId": "860580",
  "ImageUrl": "https://steamcdn-a.akamaihd.net/steam/apps/860580/header.jpg?t=1539080441",
  "Languages": [
    "english",
    "german",
    "portuguese",
    "russian",
    "schinese"
  ],
  "Platforms": {
    "windows": true,
    "mac": true,
    "linux": false
  }
}