[
  {
    "name": "ENDLESS_ACHIEVEMENT_01",
    "defaultvalue": 0,
    "displayName": "Bit Master",
    "hidden": 0,
    "description": "Survive 10 minutes in endless mode with Bit",
    "icon": "https://steamcdn-a.akamaihd.net/steamcommunity/public/images/apps/462000/aa3e49bb903b8a7dc4a1e69a1b0a314e64d4920b.jpg",
    "icongray": "https://steamcdn-a.akamaihd.net/steamcommunity/public/images/apps/462000/47f817fadfe2704090ecf5c7879103b1caf0ded6.jpg"
  },
  {
    "name": "ENDLESS_ACHIEVEMENT_02",
    "defaultvalue": 0,
    "displayName": "Proxy Master",
    "hidden": 0,
    "description": "Survive 10 minutes in endless mode with Proxy",
    "icon": "https://steamcdn-a.akamaihd.net/steamcommunity/public/images/apps/462000/9f58612e61bb3b47401bc126037e5a943b52fcbf.jpg",
    "icongray": "https://steamcdn-a.akamaihd.net/steamcommunity/public/images/apps/462000/3085097f1262f7c9bc7dcc27904991d8ec39ffba.jpg"
  },
  {
    "name": "ENDLESS_ACHIEVEMENT_03",
    "defaultvalue": 0,
    "displayName": "Max Master",
    "hidden": 0,
    "description": "Survive 10 minutes in endless mode with Max",
    "icon": "https://steamcdn-a.akamaihd.net/steamcommunity/public/images/apps/462000/df6bae9a78535814fb9c8bbab9ee0d88e596cecd.jpg",
    "icongray": "https://steamcdn-a.akamaihd.net/steamcommunity/public/images/apps/462000/08a58765c7dd60ad7dac75615e4424b6b328d4ab.jpg"
  },
  {
    "name": "ENDLESS_ACHIEVEMENT_04",
    "defaultvalue": 0,
    "displayName": "Cyberna Master",
    "hidden": 0,
    "description": "Survive 10 minutes in endless mode with Cyberna",
    "icon": "https://steamcdn-a.akamaihd.net/steamcommunity/public/images/apps/462000/42329af936e09654ccd09a5c03bd44106f826eb7.jpg",
    "icongray": "https://steamcdn-a.akamaihd.net/steamcommunity/public/images/apps/462000/69e7c4f5f720b5a145a52a1d9a4e690800a97d2b.jpg"
  },
  {
    "name": "ENDLESS_ACHIEVEMENT_05",
    "defaultvalue": 0,
    "displayName": "I Have The Power!",
    "hidden": 0,
    "description": "Collect 50 orbs in a single game",
    "icon": "https://steamcdn-a.akamaihd.net/steamcommunity/public/images/apps/462000/f32ab66f5f7e45845550a30186d668c291adc7fb.jpg",
    "icongray": "https://steamcdn-a.akamaihd.net/steamcommunity/public/images/apps/462000/695cedacedb2018933dea22a18ff8ec9432d30b2.jpg"
  },
  {
    "name": "ENDLESS_ACHIEVEMENT_06",
    "defaultvalue": 0,
    "displayName": "Demolition Crew",
    "hidden": 0,
    "description": "Destroy 40 blocks at once",
    "icon": "https://steamcdn-a.akamaihd.net/steamcommunity/public/images/apps/462000/95ac593cecfe301c441fd3148176769cc3fc51f0.jpg",
    "icongray": "https://steamcdn-a.akamaihd.net/steamcommunity/public/images/apps/462000/9ac18d186009ee80423af63c98f49df0a8cc6b38.jpg"
  },
  {
    "name": "ENDLESS_ACHIEVEMENT_07",
    "defaultvalue": 0,
    "displayName": "Orb Juggler",
    "hidden": 0,
    "description": "Have 10 orbs in play at once",
    "icon": "https://steamcdn-a.akamaihd.net/steamcommunity/public/images/apps/462000/96f6fe8cab5cfee69172cba3132d526b2a867d58.jpg",
    "icongray": "https://steamcdn-a.akamaihd.net/steamcommunity/public/images/apps/462000/7733d78e82da90e44c0818b8b1d899a3e9f4ccfe.jpg"
  },
  {
    "name": "ENDLESS_ACHIEVEMENT_08",
    "defaultvalue": 0,
    "displayName": "Purist",
    "hidden": 0,
    "description": "Survive over 5 minutes without powerups",
    "icon": "https://steamcdn-a.akamaihd.net/steamcommunity/public/images/apps/462000/95e0047046380c8adf0031d62ee74f76a674cb9b.jpg",
    "icongray": "https://steamcdn-a.akamaihd.net/steamcommunity/public/images/apps/462000/2df587e5ce4104c645c479d352402723fb4c1ba3.jpg"
  },
  {
    "name": "ENDLESS_ACHIEVEMENT_09",
    "defaultvalue": 0,
    "displayName": "Cyberpong Master",
    "hidden": 0,
    "description": "Survive 10 minutes in endless mode with all characters",
    "icon": "https://steamcdn-a.akamaihd.net/steamcommunity/public/images/apps/462000/eed5319bc621d74504ea1bb45b635f5b6827d086.jpg",
    "icongray": "https://steamcdn-a.akamaihd.net/steamcommunity/public/images/apps/462000/14f1eecde8d71da50a492af8bd4d3d2b718f9b60.jpg"
  },
  {
    "name": "MULTI_ACHIEVEMENT_01",
    "defaultvalue": 0,
    "displayName": "Worthy Opponent",
    "hidden": 0,
    "description": "Achieve a 10 hit volley with another player",
    "icon": "https://steamcdn-a.akamaihd.net/steamcommunity/public/images/apps/462000/b8426a0385fe3edbe1c682fc209795d8c166314d.jpg",
    "icongray": "https://steamcdn-a.akamaihd.net/steamcommunity/public/images/apps/462000/e56d0d142970ad91af301b51f7c140930c404d47.jpg"
  },
  {
    "name": "MULTI_ACHIEVEMENT_02",
    "defaultvalue": 0,
    "displayName": "Shutout",
    "hidden": 0,
    "description": "Win a match without your opponent scoring any points",
    "icon": "https://steamcdn-a.akamaihd.net/steamcommunity/public/images/apps/462000/49e1609a750631235e78b48b3a098e87c0bfd549.jpg",
    "icongray": "https://steamcdn-a.akamaihd.net/steamcommunity/public/images/apps/462000/7a6532ff24d0b1819177c4c96ad33558dec89507.jpg"
  }
]