{
  "Dlcs": {},
  "Name": "Metanoia",
  "AppId": "856750",
  "ImageUrl": "https://steamcdn-a.akamaihd.net/steam/apps/856750/header.jpg?t=1527940603",
  "Languages": [
    "english"
  ],
  "Platforms": {
    "windows": true,
    "mac": true,
    "linux": true
  }
}