﻿[
  {
    "name": "FLOOR_CLEAR",
    "defaultvalue": 0,
    "displayName": "Exterminator",
    "hidden": 0,
    "description": "Kill all enemies on one floor of a dungeon.",
    "icon": "https://steamcdn-a.akamaihd.net/steamcommunity/public/images/apps/469720/b9e886b4f1e25a550863f9a927c2769687258c32.jpg",
    "icongray": "https://steamcdn-a.akamaihd.net/steamcommunity/public/images/apps/469720/8dafea4aefd20ed70902ae6e5a141a6e8a1ced83.jpg"
  },
  {
    "name": "FLOOR_EXPLORE",
    "defaultvalue": 0,
    "displayName": "Dungeon Mapper",
    "hidden": 0,
    "description": "Completely explore one floor of a dungeon.",
    "icon": "https://steamcdn-a.akamaihd.net/steamcommunity/public/images/apps/469720/c24cc5179b9ab039c27ceb24cfb8475d037eea86.jpg",
    "icongray": "https://steamcdn-a.akamaihd.net/steamcommunity/public/images/apps/469720/cb1938fafe3f62db9bc3d43369e845cbe61b8cf8.jpg"
  },
  {
    "name": "SHRINE_SPECIAL",
    "defaultvalue": 0,
    "displayName": "Pilgrim",
    "hidden": 0,
    "description": "Use a Mysterious Shrine.",
    "icon": "https://steamcdn-a.akamaihd.net/steamcommunity/public/images/apps/469720/5f965e4afb0eeb08558396aedcdba3e30dd75c96.jpg",
    "icongray": "https://steamcdn-a.akamaihd.net/steamcommunity/public/images/apps/469720/bae2dd0449f7788696ba43490f7f6d7a9cb0e21e.jpg"
  },
  {
    "name": "PUZZLE_CHEST",
    "defaultvalue": 0,
    "displayName": "Master of Unlocking",
    "hidden": 0,
    "description": "Unlock a puzzle chest.",
    "icon": "https://steamcdn-a.akamaihd.net/steamcommunity/public/images/apps/469720/5d572fd6abd3cab47b619f2daff86fb8646fe408.jpg",
    "icongray": "https://steamcdn-a.akamaihd.net/steamcommunity/public/images/apps/469720/464489983d33ecc15fb62c9864fa00116e53d31f.jpg"
  },
  {
    "name": "ONE_HIT_KILL",
    "defaultvalue": 0,
    "displayName": "Mighty Blow",
    "hidden": 0,
    "description": "Kill a full-health enemy with a single attack.",
    "icon": "https://steamcdn-a.akamaihd.net/steamcommunity/public/images/apps/469720/d2b41875f459d4439830b72ba3f295fbfef62f3d.jpg",
    "icongray": "https://steamcdn-a.akamaihd.net/steamcommunity/public/images/apps/469720/71843b7f2b71e7c2ab7dd17054fc468b236a7950.jpg"
  },
  {
    "name": "TWO_FOR_ONE",
    "defaultvalue": 0,
    "displayName": "Two For One",
    "hidden": 0,
    "description": "Finish two enemies with a single attack.",
    "icon": "https://steamcdn-a.akamaihd.net/steamcommunity/public/images/apps/469720/69845cba1acc2d1df01824e8f4144d14a31b29ef.jpg",
    "icongray": "https://steamcdn-a.akamaihd.net/steamcommunity/public/images/apps/469720/a00319e5eaf7e6738f055fe0dbeccc169af7f56f.jpg"
  },
  {
    "name": "SOMETHING_FOR_NOTHING",
    "defaultvalue": 0,
    "displayName": "Something For Nothing",
    "hidden": 0,
    "description": "Kill an enemy with a 'Free Skill' activation.",
    "icon": "https://steamcdn-a.akamaihd.net/steamcommunity/public/images/apps/469720/e090461c918383090ba816cb58b427ccbeb82c9b.jpg",
    "icongray": "https://steamcdn-a.akamaihd.net/steamcommunity/public/images/apps/469720/06f2fd949f4ef74f3fb86ff02270dae9eacbd75e.jpg"
  },
  {
    "name": "FLAWLESS_VICTORY",
    "defaultvalue": 0,
    "displayName": "Flawless Victory",
    "hidden": 0,
    "description": "Win a battle against three or more enemies without taking damage.",
    "icon": "https://steamcdn-a.akamaihd.net/steamcommunity/public/images/apps/469720/4cacd6370818c2d062981c8c9638232e209a21da.jpg",
    "icongray": "https://steamcdn-a.akamaihd.net/steamcommunity/public/images/apps/469720/369375e0b7d0c5780000535bbdd11b113cf372bb.jpg"
  },
  {
    "name": "UNLOCK_BAG",
    "defaultvalue": 0,
    "displayName": "Pack Rat",
    "hidden": 0,
    "description": "Unlock an additional inventory bag.",
    "icon": "https://steamcdn-a.akamaihd.net/steamcommunity/public/images/apps/469720/cc4ab862c8b5301b750a3053634188db0b7d2dda.jpg",
    "icongray": "https://steamcdn-a.akamaihd.net/steamcommunity/public/images/apps/469720/b1bb0c59471c0133d21e0eb3eaa228f916b5e079.jpg"
  },
  {
    "name": "UNLOCK_ALL_BAGS",
    "defaultvalue": 0,
    "displayName": "Hoarder",
    "hidden": 0,
    "description": "Unlock all inventory bags.",
    "icon": "https://steamcdn-a.akamaihd.net/steamcommunity/public/images/apps/469720/e11d4df61c109ea37d8e01aa4d695b659de3db46.jpg",
    "icongray": "https://steamcdn-a.akamaihd.net/steamcommunity/public/images/apps/469720/56ac8a0938ef9524d598bbe8f51a6d7abbd23172.jpg"
  },
  {
    "name": "KEEP_UPGRADES_ONE",
    "defaultvalue": 0,
    "displayName": "Renovator",
    "hidden": 0,
    "description": "Construct an upgrade for the Keep.",
    "icon": "https://steamcdn-a.akamaihd.net/steamcommunity/public/images/apps/469720/4c31f4f1e3e89af0b9b8585b7f739ef55bba6c0a.jpg",
    "icongray": "https://steamcdn-a.akamaihd.net/steamcommunity/public/images/apps/469720/d0e454c9a426480fef97a44aa8f949a3024eaaa9.jpg"
  },
  {
    "name": "KEEP_UPGRADES_ALL",
    "defaultvalue": 0,
    "displayName": "Master Builder",
    "hidden": 0,
    "description": "Construct every upgrade for the Keep.",
    "icon": "https://steamcdn-a.akamaihd.net/steamcommunity/public/images/apps/469720/912119d8e4a01f991285ca4a6a30cdd2d1471b3c.jpg",
    "icongray": "https://steamcdn-a.akamaihd.net/steamcommunity/public/images/apps/469720/689b55e224a960d568f2d7512dc82c83d434d6b7.jpg"
  },
  {
    "name": "EXPAND_TEAMS_ONE",
    "defaultvalue": 0,
    "displayName": "Writ of Expansion",
    "hidden": 0,
    "description": "Add an additional party slot to the company roster.",
    "icon": "https://steamcdn-a.akamaihd.net/steamcommunity/public/images/apps/469720/064eb27764ea896f30037cd860c43e88a0ad5364.jpg",
    "icongray": "https://steamcdn-a.akamaihd.net/steamcommunity/public/images/apps/469720/c1bf24e272095a9543e399acca2670c0d91a49c2.jpg"
  },
  {
    "name": "EXPAND_TEAMS_ALL",
    "defaultvalue": 0,
    "displayName": "Fully Staffed",
    "hidden": 0,
    "description": "Add all additional party slots to the company roster.",
    "icon": "https://steamcdn-a.akamaihd.net/steamcommunity/public/images/apps/469720/40ffad41e2a92211a147cbaaee053e7441b5f631.jpg",
    "icongray": "https://steamcdn-a.akamaihd.net/steamcommunity/public/images/apps/469720/fdf5dff8e2101fb265941d1120b16b408bc54c6d.jpg"
  },
  {
    "name": "CHOOSE_SUBCLASS",
    "defaultvalue": 0,
    "displayName": "Specialist",
    "hidden": 0,
    "description": "Adopt a subclass.",
    "icon": "https://steamcdn-a.akamaihd.net/steamcommunity/public/images/apps/469720/0e7aa87bcce29e0ca938870995965db36f48a4fe.jpg",
    "icongray": "https://steamcdn-a.akamaihd.net/steamcommunity/public/images/apps/469720/9dccec762e0dddf8f8223abb16b839c2a205f6d8.jpg"
  },
  {
    "name": "BOUNTIES_ONE",
    "defaultvalue": 0,
    "displayName": "Bounty Hunter",
    "hidden": 0,
    "description": "Complete a bounty.",
    "icon": "https://steamcdn-a.akamaihd.net/steamcommunity/public/images/apps/469720/f46913f3f7081b451480d8885f96dbec68f0cbc4.jpg",
    "icongray": "https://steamcdn-a.akamaihd.net/steamcommunity/public/images/apps/469720/94aa4a043b9335a29668626625e3f6bd7845403c.jpg"
  },
  {
    "name": "BOUNTIES_TEN",
    "defaultvalue": 0,
    "displayName": "Bounty Expert",
    "hidden": 0,
    "description": "Complete ten bounties.",
    "icon": "https://steamcdn-a.akamaihd.net/steamcommunity/public/images/apps/469720/2eb8031470816c2679101ad3bffd604b1b27b81a.jpg",
    "icongray": "https://steamcdn-a.akamaihd.net/steamcommunity/public/images/apps/469720/e8f059544364cc79d4a43db6a01ac344febd8ee3.jpg"
  },
  {
    "name": "WEAR_ITEM_SET",
    "defaultvalue": 0,
    "displayName": "Fashion Conscious",
    "hidden": 0,
    "description": "Equip any item set on a character.",
    "icon": "https://steamcdn-a.akamaihd.net/steamcommunity/public/images/apps/469720/60389b6548c53943d07b324a86fc653fc23a3856.jpg",
    "icongray": "https://steamcdn-a.akamaihd.net/steamcommunity/public/images/apps/469720/f4eb8ff6bfada6782dc3c4962332fc844b14486c.jpg"
  },
  {
    "name": "WEAR_ITEM_SET_EPIC",
    "defaultvalue": 0,
    "displayName": "Best Dressed",
    "hidden": 0,
    "description": "Equip an epic (purple) item set on a character.",
    "icon": "https://steamcdn-a.akamaihd.net/steamcommunity/public/images/apps/469720/63ba1d1ec74091e611640dfe8a3080452afcf310.jpg",
    "icongray": "https://steamcdn-a.akamaihd.net/steamcommunity/public/images/apps/469720/43eaa03540856eb2959018dd77b1df3d1d311e12.jpg"
  },
  {
    "name": "ENCHANT_ITEM",
    "defaultvalue": 0,
    "displayName": "Enchanter",
    "hidden": 0,
    "description": "Use an enhancement item.",
    "icon": "https://steamcdn-a.akamaihd.net/steamcommunity/public/images/apps/469720/f77646e7d9d0b68d027657ab9c53ca5fe678af24.jpg",
    "icongray": "https://steamcdn-a.akamaihd.net/steamcommunity/public/images/apps/469720/59f38f71af3a8433fc39fb326a114a3149972789.jpg"
  },
  {
    "name": "LEGENDARY_ENCHANTMENT",
    "defaultvalue": 0,
    "displayName": "Bright Spark",
    "hidden": 0,
    "description": "Enchant an item with a Spark of Legend.",
    "icon": "https://steamcdn-a.akamaihd.net/steamcommunity/public/images/apps/469720/6e9de4987f4dd83d443044d40898bc8a2b4b805a.jpg",
    "icongray": "https://steamcdn-a.akamaihd.net/steamcommunity/public/images/apps/469720/9949aaa68fc5e34e1b7ed7fdbbc158f8e2fe6329.jpg"
  },
  {
    "name": "LEGENDARY_DEFEATED",
    "defaultvalue": 0,
    "displayName": "Monster Hunter ",
    "hidden": 0,
    "description": "Defeat a legendary creature.",
    "icon": "https://steamcdn-a.akamaihd.net/steamcommunity/public/images/apps/469720/495174a0ac7db4ee7551d1157a1b3120931e5739.jpg",
    "icongray": "https://steamcdn-a.akamaihd.net/steamcommunity/public/images/apps/469720/169497c69693ec0044135ca16f0e8091ee745ff2.jpg"
  },
  {
    "name": "ARTIFACT_RECOVERED",
    "defaultvalue": 0,
    "displayName": "Artifact Hunter ",
    "hidden": 0,
    "description": "Research and recover an artifact.",
    "icon": "https://steamcdn-a.akamaihd.net/steamcommunity/public/images/apps/469720/d8ba9a66835a17db218a3afa15fe92074d5274dd.jpg",
    "icongray": "https://steamcdn-a.akamaihd.net/steamcommunity/public/images/apps/469720/f3e73ad42b66b34ba10a20a6be97383ca5e5555c.jpg"
  },
  {
    "name": "DOCKS_MISSION_COMPLETED",
    "defaultvalue": 0,
    "displayName": "Moonlighting ",
    "hidden": 0,
    "description": "Complete a mission from the Savantir Docks.",
    "icon": "https://steamcdn-a.akamaihd.net/steamcommunity/public/images/apps/469720/a90711517b8638cdc7f2336590dc33a4d63af772.jpg",
    "icongray": "https://steamcdn-a.akamaihd.net/steamcommunity/public/images/apps/469720/edca7e7507a76a831c0882d1b83980ac901c6906.jpg"
  },
  {
    "name": "MISSION_ANNIVERSARY",
    "defaultvalue": 0,
    "displayName": "Historian",
    "hidden": 0,
    "description": "Complete an Anniversary mission. (Den of Corruption or Den of Terror)",
    "icon": "https://steamcdn-a.akamaihd.net/steamcommunity/public/images/apps/469720/83beab2a18f3128ebfd51b6d936a1dc7a7f973e1.jpg",
    "icongray": "https://steamcdn-a.akamaihd.net/steamcommunity/public/images/apps/469720/0de5737118cd03134220695f7c2182157a7315c8.jpg"
  },
  {
    "name": "MISSION_TIER_1",
    "defaultvalue": 0,
    "displayName": "Tier One Mission ",
    "hidden": 0,
    "description": "Complete a tier one side mission.",
    "icon": "https://steamcdn-a.akamaihd.net/steamcommunity/public/images/apps/469720/b68e2c8e41fb524db2c77f636535bc799c880daf.jpg",
    "icongray": "https://steamcdn-a.akamaihd.net/steamcommunity/public/images/apps/469720/c02affa37009b9fb45421fc3a3cff2ff970574a3.jpg"
  },
  {
    "name": "MISSION_TIER_2",
    "defaultvalue": 0,
    "displayName": "Tier Two Mission ",
    "hidden": 0,
    "description": "Complete a tier two side mission.",
    "icon": "https://steamcdn-a.akamaihd.net/steamcommunity/public/images/apps/469720/1640afc4783b87920c163a5782ab1c9e3b10b909.jpg",
    "icongray": "https://steamcdn-a.akamaihd.net/steamcommunity/public/images/apps/469720/f75d4c958c342041af518a25acbf9116b827a930.jpg"
  },
  {
    "name": "MISSION_TIER_3",
    "defaultvalue": 0,
    "displayName": "Tier Three Mission ",
    "hidden": 0,
    "description": "Complete a tier three side mission.",
    "icon": "https://steamcdn-a.akamaihd.net/steamcommunity/public/images/apps/469720/50a43085e412ea8f37ae5d7c1b3fb6d78d1281fd.jpg",
    "icongray": "https://steamcdn-a.akamaihd.net/steamcommunity/public/images/apps/469720/e3e4c30e52334c68194433d46d059961bd7b2ee6.jpg"
  },
  {
    "name": "MISSION_TIER_4",
    "defaultvalue": 0,
    "displayName": "Tier Four Mission ",
    "hidden": 0,
    "description": "Complete a tier four side mission.",
    "icon": "https://steamcdn-a.akamaihd.net/steamcommunity/public/images/apps/469720/9a5acd8126d8a0955da2363485095884cfabb217.jpg",
    "icongray": "https://steamcdn-a.akamaihd.net/steamcommunity/public/images/apps/469720/63a4eab50ae633020464bfd7c7a6e9cab127501d.jpg"
  },
  {
    "name": "MISSION_TIER_5",
    "defaultvalue": 0,
    "displayName": "Tier Five Mission ",
    "hidden": 0,
    "description": "Complete a tier five side mission.",
    "icon": "https://steamcdn-a.akamaihd.net/steamcommunity/public/images/apps/469720/b99a8551c7b76d460e0f5aae1587a2f645d4ff2d.jpg",
    "icongray": "https://steamcdn-a.akamaihd.net/steamcommunity/public/images/apps/469720/02d0c1d749f56fd122f08b3214a82de795a03996.jpg"
  },
  {
    "name": "MISSION_TIER_6",
    "defaultvalue": 0,
    "displayName": "Special Mission ",
    "hidden": 0,
    "description": "Complete a tier six (special) side mission.",
    "icon": "https://steamcdn-a.akamaihd.net/steamcommunity/public/images/apps/469720/5a1d332484d8076ab4d8488cd3a2f4d99512ad24.jpg",
    "icongray": "https://steamcdn-a.akamaihd.net/steamcommunity/public/images/apps/469720/1fd329832311945706c63d46ddff7248a85d9823.jpg"
  },
  {
    "name": "MISSION_TIER_7",
    "defaultvalue": 0,
    "displayName": "Elite Mission ",
    "hidden": 0,
    "description": "Complete a tier seven (elite) side mission.",
    "icon": "https://steamcdn-a.akamaihd.net/steamcommunity/public/images/apps/469720/d35e2cdc70b60cde7434048435b1929cf7a0989c.jpg",
    "icongray": "https://steamcdn-a.akamaihd.net/steamcommunity/public/images/apps/469720/d8d1cab75d7ab6b99d36ef6a0c50b49f46f1add4.jpg"
  },
  {
    "name": "WORLD_DUNGEON_PIT",
    "defaultvalue": 0,
    "displayName": "The Pit",
    "hidden": 1,
    "icon": "https://steamcdn-a.akamaihd.net/steamcommunity/public/images/apps/469720/117d7b449cb4e6f55f1d1f336a0f9fdcaa42083d.jpg",
    "icongray": "https://steamcdn-a.akamaihd.net/steamcommunity/public/images/apps/469720/276cac55aa122e0ddcc5ec2dc03a6015a5f87e0d.jpg"
  },
  {
    "name": "WORLD_DUNGEON_RIFTSTORM",
    "defaultvalue": 0,
    "displayName": "Riftstorm Keep ",
    "hidden": 1,
    "icon": "https://steamcdn-a.akamaihd.net/steamcommunity/public/images/apps/469720/00ccfbf26550510657fccbdb92b465615a28a015.jpg",
    "icongray": "https://steamcdn-a.akamaihd.net/steamcommunity/public/images/apps/469720/51018bac5f80e80aac947d4f73fff9d68f25e309.jpg"
  },
  {
    "name": "WORLD_DUNGEON_BELGRIMS",
    "defaultvalue": 0,
    "displayName": "Belgrim's Halls ",
    "hidden": 1,
    "icon": "https://steamcdn-a.akamaihd.net/steamcommunity/public/images/apps/469720/8e522eb64b44644a4c38a119642f1f2139982116.jpg",
    "icongray": "https://steamcdn-a.akamaihd.net/steamcommunity/public/images/apps/469720/5a1099627383346476320a63689a605662b281b7.jpg"
  },
  {
    "name": "WORLD_DUNGEON_INFESTATION",
    "defaultvalue": 0,
    "displayName": "Infestation Alpha ",
    "hidden": 1,
    "icon": "https://steamcdn-a.akamaihd.net/steamcommunity/public/images/apps/469720/4cad152a4814c217e78da3e224446d0d3355f76d.jpg",
    "icongray": "https://steamcdn-a.akamaihd.net/steamcommunity/public/images/apps/469720/4f622c9d63c3188f0990f86ce5bc14de9dd38dc3.jpg"
  },
  {
    "name": "WORLD_DUNGEON_CRYPT",
    "defaultvalue": 0,
    "displayName": "The Black Crypt ",
    "hidden": 1,
    "icon": "https://steamcdn-a.akamaihd.net/steamcommunity/public/images/apps/469720/3611c6cceb35dfd847024e2f3f7a22601f6ec951.jpg",
    "icongray": "https://steamcdn-a.akamaihd.net/steamcommunity/public/images/apps/469720/d8e86bfb63de56cf4981ebac57d949000287ef09.jpg"
  },
  {
    "name": "WORLD_DUNGEON_SHATTERED",
    "defaultvalue": 0,
    "displayName": "The Shattered Stair ",
    "hidden": 1,
    "icon": "https://steamcdn-a.akamaihd.net/steamcommunity/public/images/apps/469720/095321dcc94ee6250af822d08e3c7033de11ea20.jpg",
    "icongray": "https://steamcdn-a.akamaihd.net/steamcommunity/public/images/apps/469720/2f50936f594339761f164f5e63c94fe911d33e82.jpg"
  },
  {
    "name": "PLOT_FIRST_STEPS",
    "defaultvalue": 0,
    "displayName": "First Steps ",
    "hidden": 1,
    "icon": "https://steamcdn-a.akamaihd.net/steamcommunity/public/images/apps/469720/b65866d4cb6cb5df3c33fa647d21da4405871325.jpg",
    "icongray": "https://steamcdn-a.akamaihd.net/steamcommunity/public/images/apps/469720/f91aba8bd9246462e88411882a818d7c3c0981ec.jpg"
  },
  {
    "name": "PLOT_STANDING_STONES",
    "defaultvalue": 0,
    "displayName": "Rite of Passage ",
    "hidden": 1,
    "icon": "https://steamcdn-a.akamaihd.net/steamcommunity/public/images/apps/469720/2ecdf2c02562ffa1aa8d4d1c1c0fc69be689e308.jpg",
    "icongray": "https://steamcdn-a.akamaihd.net/steamcommunity/public/images/apps/469720/e792f2e56392b30691b9c2c8328b09c00e6cf46b.jpg"
  },
  {
    "name": "PLOT_ENCOUNTER_EIDOLON",
    "defaultvalue": 0,
    "displayName": "First Contact ",
    "hidden": 1,
    "icon": "https://steamcdn-a.akamaihd.net/steamcommunity/public/images/apps/469720/bcce737d61a9788dc41206c2b0092a0fc32c88d5.jpg",
    "icongray": "https://steamcdn-a.akamaihd.net/steamcommunity/public/images/apps/469720/3e26f645d38da7caa6a2d92b7afe3656fe61e273.jpg"
  },
  {
    "name": "PLOT_ELSPETHS_IDENTITY",
    "defaultvalue": 0,
    "displayName": "Before the Fall ",
    "hidden": 1,
    "icon": "https://steamcdn-a.akamaihd.net/steamcommunity/public/images/apps/469720/9f145973d31ae4662f59f755b7ea338574fc4b60.jpg",
    "icongray": "https://steamcdn-a.akamaihd.net/steamcommunity/public/images/apps/469720/b1c8c0cbc0f0a27b4314ff6dccaed3628b774377.jpg"
  },
  {
    "name": "PLOT_INTERROGATION",
    "defaultvalue": 0,
    "displayName": "Old Wounds ",
    "hidden": 1,
    "icon": "https://steamcdn-a.akamaihd.net/steamcommunity/public/images/apps/469720/b4d642865291ea5060626b3c121affaae27ece1c.jpg",
    "icongray": "https://steamcdn-a.akamaihd.net/steamcommunity/public/images/apps/469720/6fb74b8f4eae477d36b6a92aa499f7e3a94ba93a.jpg"
  },
  {
    "name": "PLOT_DEMONFONT",
    "defaultvalue": 0,
    "displayName": "None Shall Pass ",
    "hidden": 1,
    "icon": "https://steamcdn-a.akamaihd.net/steamcommunity/public/images/apps/469720/8aa2a0188db5dcb50b72b15e45eef6160b885f4b.jpg",
    "icongray": "https://steamcdn-a.akamaihd.net/steamcommunity/public/images/apps/469720/fab6d297a3574eec1d984b9cc609ef214905003a.jpg"
  },
  {
    "name": "PLOT_PATH_TO_HEAVEN",
    "defaultvalue": 0,
    "displayName": "The Path To Heaven",
    "hidden": 1,
    "icon": "https://steamcdn-a.akamaihd.net/steamcommunity/public/images/apps/469720/5d51ea70eef658c7cf9f61e1cd5e46e7bd889770.jpg",
    "icongray": "https://steamcdn-a.akamaihd.net/steamcommunity/public/images/apps/469720/a6e7f2866de25a2db5d85fd830815e18edc24ce5.jpg"
  },
  {
    "name": "PLOT_BUILD_NEXUS",
    "defaultvalue": 0,
    "displayName": "Secret Project ",
    "hidden": 1,
    "icon": "https://steamcdn-a.akamaihd.net/steamcommunity/public/images/apps/469720/d6b889252cf67a48000f7c867df410f97dabf8a1.jpg",
    "icongray": "https://steamcdn-a.akamaihd.net/steamcommunity/public/images/apps/469720/93d2b2ad8f433608771ccef7cabbc4fb73a99116.jpg"
  },
  {
    "name": "PLOT_CONFRONTATION",
    "defaultvalue": 0,
    "displayName": "The Argent Orb ",
    "hidden": 1,
    "icon": "https://steamcdn-a.akamaihd.net/steamcommunity/public/images/apps/469720/081a8fb389002e16377411d41bb8ebdb4a94468a.jpg",
    "icongray": "https://steamcdn-a.akamaihd.net/steamcommunity/public/images/apps/469720/83a80b14cbd6e2e9db6fe889aa9f1a48b35c7d69.jpg"
  },
  {
    "name": "PLOT_DEFEAT_EXECUTOR",
    "defaultvalue": 0,
    "displayName": "The Gods Avenged",
    "hidden": 1,
    "icon": "https://steamcdn-a.akamaihd.net/steamcommunity/public/images/apps/469720/97db122c189ebeac1be3b2dc1f5b72ca35602564.jpg",
    "icongray": "https://steamcdn-a.akamaihd.net/steamcommunity/public/images/apps/469720/f888848d1a8644532597948ff6c889e62cf024e6.jpg"
  },
  {
    "name": "UNLOCK_CLASS_UNDERBOSS",
    "defaultvalue": 0,
    "displayName": "Underboss ",
    "hidden": 0,
    "description": "Unlock the Underboss class.",
    "icon": "https://steamcdn-a.akamaihd.net/steamcommunity/public/images/apps/469720/2d72b87e7e23d5688e3b98a376644eb96fb23fe5.jpg",
    "icongray": "https://steamcdn-a.akamaihd.net/steamcommunity/public/images/apps/469720/8533137c00649da2319acf81d25c5863cdaa491d.jpg"
  },
  {
    "name": "UNLOCK_CLASS_BLADEMASTER",
    "defaultvalue": 0,
    "displayName": "Blademaster ",
    "hidden": 0,
    "description": "Unlock the Blademaster class.",
    "icon": "https://steamcdn-a.akamaihd.net/steamcommunity/public/images/apps/469720/34765f186c4e746fe7199469dffbd09f275d733f.jpg",
    "icongray": "https://steamcdn-a.akamaihd.net/steamcommunity/public/images/apps/469720/852cfa3a7896162df531299a3756790e7bbee0b5.jpg"
  },
  {
    "name": "UNLOCK_CLASS_HERMIT",
    "defaultvalue": 0,
    "displayName": "Hermit ",
    "hidden": 0,
    "description": "Unlock the Hermit class.",
    "icon": "https://steamcdn-a.akamaihd.net/steamcommunity/public/images/apps/469720/4c246ff775aadb9f4569fb5738997b323365e242.jpg",
    "icongray": "https://steamcdn-a.akamaihd.net/steamcommunity/public/images/apps/469720/12f442ec04d6cafddef6e7d5dd0aae6a91612aa6.jpg"
  },
  {
    "name": "UNLOCK_CLASS_SCOUT",
    "defaultvalue": 0,
    "displayName": "Scout",
    "hidden": 0,
    "description": "Unlock the Scout class.",
    "icon": "https://steamcdn-a.akamaihd.net/steamcommunity/public/images/apps/469720/68fbe509e57ad398c2b3642342cc43ea182c681c.jpg",
    "icongray": "https://steamcdn-a.akamaihd.net/steamcommunity/public/images/apps/469720/3dfafb48d2126a1f6a44b78038ba0e0dc5134659.jpg"
  },
  {
    "name": "UNLOCK_CLASS_MAGE_LORD",
    "defaultvalue": 0,
    "displayName": "Mage Lord ",
    "hidden": 0,
    "description": "Unlock the Mage Lord class.",
    "icon": "https://steamcdn-a.akamaihd.net/steamcommunity/public/images/apps/469720/c22289366511c2e21c47b9f4d9cb73ecd0e68994.jpg",
    "icongray": "https://steamcdn-a.akamaihd.net/steamcommunity/public/images/apps/469720/51710235d895179079c4515a33c4655f81fe5c1d.jpg"
  },
  {
    "name": "UNLOCK_CLASS_ENFORCER",
    "defaultvalue": 0,
    "displayName": "Enforcer ",
    "hidden": 0,
    "description": "Unlock the Enforcer class.",
    "icon": "https://steamcdn-a.akamaihd.net/steamcommunity/public/images/apps/469720/673a16d5f9c14a2d32a7408a57abb80ef2ed22ca.jpg",
    "icongray": "https://steamcdn-a.akamaihd.net/steamcommunity/public/images/apps/469720/26bb194b5ce0de764d8170a5700952fd0eb59e5e.jpg"
  },
  {
    "name": "UNLOCK_CLASS_ASCETIC",
    "defaultvalue": 0,
    "displayName": "Ascetic ",
    "hidden": 0,
    "description": "Unlock the Ascetic class.",
    "icon": "https://steamcdn-a.akamaihd.net/steamcommunity/public/images/apps/469720/fbe6d46bad5c13a3db391a05aeb971b2299ffa1f.jpg",
    "icongray": "https://steamcdn-a.akamaihd.net/steamcommunity/public/images/apps/469720/e4676aa51baeebbed8cf53466d4cf67278f74603.jpg"
  },
  {
    "name": "UNLOCK_CLASS_NEMESIS",
    "defaultvalue": 0,
    "displayName": "Nemesis",
    "hidden": 0,
    "description": "Unlock the Nemesis class.",
    "icon": "https://steamcdn-a.akamaihd.net/steamcommunity/public/images/apps/469720/cdd94578111d27c137a74462d5ed0ce04f91a72e.jpg",
    "icongray": "https://steamcdn-a.akamaihd.net/steamcommunity/public/images/apps/469720/5fc17cb89d0a873e654d835e3291985d5aaf0051.jpg"
  },
  {
    "name": "UNLOCK_CLASS_SPELLWARDEN",
    "defaultvalue": 0,
    "displayName": "Spellwarden ",
    "hidden": 0,
    "description": "Unlock the Spellwarden class.",
    "icon": "https://steamcdn-a.akamaihd.net/steamcommunity/public/images/apps/469720/6648b73b77f2766b665cc0dbc8444c22dc722162.jpg",
    "icongray": "https://steamcdn-a.akamaihd.net/steamcommunity/public/images/apps/469720/61645a57f125e8718894912793640da6a3426ace.jpg"
  },
  {
    "name": "UNLOCK_CLASS_TRACKER",
    "defaultvalue": 0,
    "displayName": "Tracker ",
    "hidden": 0,
    "description": "Unlock the Tracker class.",
    "icon": "https://steamcdn-a.akamaihd.net/steamcommunity/public/images/apps/469720/fe68f7c0b56d5235668217b3f774dfac00c99f55.jpg",
    "icongray": "https://steamcdn-a.akamaihd.net/steamcommunity/public/images/apps/469720/0b1f1393ab692bd7155efc338b76d2f26abccfa3.jpg"
  },
  {
    "name": "MAX_REPUTATION",
    "defaultvalue": 0,
    "displayName": "Silver Tongue ",
    "hidden": 0,
    "description": "Reach maximum reputation with any faction.",
    "icon": "https://steamcdn-a.akamaihd.net/steamcommunity/public/images/apps/469720/6d11e8a1844468bc7611674e4694f5b261050e34.jpg",
    "icongray": "https://steamcdn-a.akamaihd.net/steamcommunity/public/images/apps/469720/992fa63b5e021a5cd3248de83b162351a7f43aaa.jpg"
  },
  {
    "name": "COMPANY_LEVEL_MAX",
    "defaultvalue": 0,
    "displayName": "Legendary Company ",
    "hidden": 0,
    "description": "Reach the maximum Company Level.",
    "icon": "https://steamcdn-a.akamaihd.net/steamcommunity/public/images/apps/469720/c4dcb0794e79aa3e5fec54eabf96e04cf072986b.jpg",
    "icongray": "https://steamcdn-a.akamaihd.net/steamcommunity/public/images/apps/469720/576d1359a0c951e95f0ec166f1d9e79696d95f87.jpg"
  },
  {
    "name": "IRON_MAN_CAMPAIGN",
    "defaultvalue": 0,
    "displayName": "Made Of Iron",
    "hidden": 0,
    "description": "Complete the campaign on Veteran or higher difficulty with the 'Ironman' rules enabled. (No custom difficulty allowed)",
    "icon": "https://steamcdn-a.akamaihd.net/steamcommunity/public/images/apps/469720/8f3e4570e516e4a9603790172b149926c8e4d13e.jpg",
    "icongray": "https://steamcdn-a.akamaihd.net/steamcommunity/public/images/apps/469720/9f19acbe461d210ae31441e888fb565bdf491987.jpg"
  },
  {
    "name": "ADVENTURE_WEEKLY_COMPLETED",
    "defaultvalue": 0,
    "displayName": "Swift Adventurer",
    "hidden": 0,
    "description": "Complete a Weekly Challenge in Adventure mode.",
    "icon": "https://steamcdn-a.akamaihd.net/steamcommunity/public/images/apps/469720/a368e89021ca6badc89659e2f9fa8995a50123f4.jpg",
    "icongray": "https://steamcdn-a.akamaihd.net/steamcommunity/public/images/apps/469720/b4b0733b26e29e41fd7b18f6d3ce0efe64a92e8f.jpg"
  },
  {
    "name": "ADVENTURE_HISTORICAL_COMPLETED",
    "defaultvalue": 0,
    "displayName": "Curious Adventurer",
    "hidden": 0,
    "description": "Complete a Historical Challenge in Adventure mode.",
    "icon": "https://steamcdn-a.akamaihd.net/steamcommunity/public/images/apps/469720/2b2ead6912fef0be153db167ff76ff193beb72b6.jpg",
    "icongray": "https://steamcdn-a.akamaihd.net/steamcommunity/public/images/apps/469720/74a25cae9efd544ccf2de550eb47b468f2a145cb.jpg"
  },
  {
    "name": "ADVENTURE_CUSTOM_COMPLETED",
    "defaultvalue": 0,
    "displayName": "Selective Adventurer",
    "hidden": 0,
    "description": "Complete a Custom adventure in Adventure mode.",
    "icon": "https://steamcdn-a.akamaihd.net/steamcommunity/public/images/apps/469720/a1238c9627ab7dddeb64a608e6ed1df76ab176a2.jpg",
    "icongray": "https://steamcdn-a.akamaihd.net/steamcommunity/public/images/apps/469720/7ade228135d196be278290fb2fad452252bcd043.jpg"
  },
  {
    "name": "ADVENTURE_MANY_MODIFIERS",
    "defaultvalue": 0,
    "displayName": "Multi-faceted Adventurer",
    "hidden": 0,
    "description": "Complete a Custom adventure with 7 or more adventure modifiers.",
    "icon": "https://steamcdn-a.akamaihd.net/steamcommunity/public/images/apps/469720/8d998fb00015f9f1548e5730a43d01bb9a9544bf.jpg",
    "icongray": "https://steamcdn-a.akamaihd.net/steamcommunity/public/images/apps/469720/94a9b48c7efa1baa3777b1836be765e70082f08c.jpg"
  },
  {
    "name": "ADVENTURE_THROWBACK_COMPLETED",
    "defaultvalue": 0,
    "displayName": "Nostalgic Adventurer",
    "hidden": 0,
    "description": "Complete a Custom adventure with the following settings: Defeat the Dreadfather, Classic Book of Dread factions, Classic length, No adventure modifiers",
    "icon": "https://steamcdn-a.akamaihd.net/steamcommunity/public/images/apps/469720/4d6e50cb3b912988db88d1a1cbc55aad08334a4c.jpg",
    "icongray": "https://steamcdn-a.akamaihd.net/steamcommunity/public/images/apps/469720/834db7c7b2e5c93691557a5458cdb2ba7f43cd58.jpg"
  }
]