﻿[
  {
    "name": "CgkIwvWZme0bEAIQBg",
    "defaultvalue": 0,
    "displayName": "Great, you made first steps!",
    "hidden": 0,
    "description": "Turn left once",
    "icon": "https://steamcdn-a.akamaihd.net/steamcommunity/public/images/apps/484830/8f82b2818c2fe1ca342d499df7bbcdd28904d4a4.jpg",
    "icongray": "https://steamcdn-a.akamaihd.net/steamcommunity/public/images/apps/484830/88e377434c8ec6b257c67d10100355de7907e4c6.jpg"
  },
  {
    "name": "CgkIwvWZme0bEAIQBA",
    "defaultvalue": 0,
    "displayName": "Catch 'em all",
    "hidden": 0,
    "description": "Collect all balls",
    "icon": "https://steamcdn-a.akamaihd.net/steamcommunity/public/images/apps/484830/03f10d8c0f9f075553a72a76ddf89c36ac478b66.jpg",
    "icongray": "https://steamcdn-a.akamaihd.net/steamcommunity/public/images/apps/484830/f6151121718bb76c83d59c4155d38fe914a8b5a5.jpg"
  },
  {
    "name": "CgkIwvWZme0bEAIQBQ",
    "defaultvalue": 0,
    "displayName": "Easy, isn't it?",
    "hidden": 0,
    "description": "Finish your first level",
    "icon": "https://steamcdn-a.akamaihd.net/steamcommunity/public/images/apps/484830/5752b2163a650b2d2e1eba615a59b127796e0058.jpg",
    "icongray": "https://steamcdn-a.akamaihd.net/steamcommunity/public/images/apps/484830/898c4201272cc4a72a443f0587318f8fb9c8bdaa.jpg"
  },
  {
    "name": "CgkIwvWZme0bEAIQBw",
    "defaultvalue": 0,
    "displayName": "Not so easy anymore",
    "hidden": 0,
    "description": "Die three times on same level",
    "icon": "https://steamcdn-a.akamaihd.net/steamcommunity/public/images/apps/484830/33c1961af3a20989088f3c3d86a9d8302a6790cc.jpg",
    "icongray": "https://steamcdn-a.akamaihd.net/steamcommunity/public/images/apps/484830/938dac3035dcdf3a9740a42b19402beafbf39686.jpg"
  },
  {
    "name": "CgkIwvWZme0bEAIQCA",
    "defaultvalue": 0,
    "displayName": "Oh, you are really into the story",
    "hidden": 0,
    "description": "Do not skip tutorial",
    "icon": "https://steamcdn-a.akamaihd.net/steamcommunity/public/images/apps/484830/66bf87d6e505fd70851fbb1c466818fd8e02e30a.jpg",
    "icongray": "https://steamcdn-a.akamaihd.net/steamcommunity/public/images/apps/484830/5d3012b8fb32c28da210a5227fa96273297e6a48.jpg"
  },
  {
    "name": "CgkIwvWZme0bEAIQCQ",
    "defaultvalue": 0,
    "displayName": "Yeah, launch me once more, baby",
    "hidden": 0,
    "description": "Launch the game more than 20 times",
    "icon": "https://steamcdn-a.akamaihd.net/steamcommunity/public/images/apps/484830/f1bf0243dccc4d1feaa9142a9d15fe002e7f5651.jpg",
    "icongray": "https://steamcdn-a.akamaihd.net/steamcommunity/public/images/apps/484830/69b2f2596feed953bc84929b503ed907c3da0c31.jpg"
  },
  {
    "name": "CgkIwvWZme0bEAIQCw",
    "defaultvalue": 0,
    "displayName": "That's kinda cheating, ya'know?",
    "hidden": 0,
    "description": "Use 5x energy boost on one level",
    "icon": "https://steamcdn-a.akamaihd.net/steamcommunity/public/images/apps/484830/f019e7e407577894e03e4493dfa374deaccef274.jpg",
    "icongray": "https://steamcdn-a.akamaihd.net/steamcommunity/public/images/apps/484830/1e4a19eeb61f96fe378b0fbb6e1d4bbaa0edf0b4.jpg"
  },
  {
    "name": "CgkIwvWZme0bEAIQDA",
    "defaultvalue": 0,
    "displayName": "Wait until you see the next level",
    "hidden": 0,
    "description": "Die 10 times in one level",
    "icon": "https://steamcdn-a.akamaihd.net/steamcommunity/public/images/apps/484830/d0b2a9686b71ccb957bb6341748ee61d8eaec90c.jpg",
    "icongray": "https://steamcdn-a.akamaihd.net/steamcommunity/public/images/apps/484830/2de29cb15532404b924a02eb2c6a40268c126c71.jpg"
  },
  {
    "name": "CgkIwvWZme0bEAIQDQ",
    "defaultvalue": 0,
    "displayName": "You are dead. Ha ha.",
    "hidden": 0,
    "description": "Die",
    "icon": "https://steamcdn-a.akamaihd.net/steamcommunity/public/images/apps/484830/33c1961af3a20989088f3c3d86a9d8302a6790cc.jpg",
    "icongray": "https://steamcdn-a.akamaihd.net/steamcommunity/public/images/apps/484830/938dac3035dcdf3a9740a42b19402beafbf39686.jpg"
  },
  {
    "name": "CgkIwvWZme0bEAIQDw",
    "defaultvalue": 0,
    "displayName": "Not an easy game anymore, is it?",
    "hidden": 0,
    "description": "Die 100 times",
    "icon": "https://steamcdn-a.akamaihd.net/steamcommunity/public/images/apps/484830/03e2eceed4f8bba71d201fef6cb1efad56270aa5.jpg",
    "icongray": "https://steamcdn-a.akamaihd.net/steamcommunity/public/images/apps/484830/e386d027384435cc57cc317fea4c89a008824898.jpg"
  },
  {
    "name": "CgkIwvWZme0bEAIQEA",
    "defaultvalue": 0,
    "displayName": "Deep into the space",
    "hidden": 0,
    "description": "Unlock everything in the first world",
    "icon": "https://steamcdn-a.akamaihd.net/steamcommunity/public/images/apps/484830/6a078b3e28b2f82f9dbc89ca8cb2149781973eb9.jpg",
    "icongray": "https://steamcdn-a.akamaihd.net/steamcommunity/public/images/apps/484830/ce83837cbd8b532089052f4403ae71e6581fa6a7.jpg"
  },
  {
    "name": "CgkIwvWZme0bEAIQEQ",
    "defaultvalue": 0,
    "displayName": "Deeper into the space",
    "hidden": 0,
    "description": "Unlock everything in second world",
    "icon": "https://steamcdn-a.akamaihd.net/steamcommunity/public/images/apps/484830/ef977b488d0c64fff9d0c4a674e091f8a5d6f595.jpg",
    "icongray": "https://steamcdn-a.akamaihd.net/steamcommunity/public/images/apps/484830/ce83837cbd8b532089052f4403ae71e6581fa6a7.jpg"
  },
  {
    "name": "CgkIwvWZme0bEAIQEg",
    "defaultvalue": 0,
    "displayName": "Even deeper into the space",
    "hidden": 0,
    "description": "Unlock everything in third world",
    "icon": "https://steamcdn-a.akamaihd.net/steamcommunity/public/images/apps/484830/a87bdb3e92a42062ac4b2611a96788f7bcd9e867.jpg",
    "icongray": "https://steamcdn-a.akamaihd.net/steamcommunity/public/images/apps/484830/3ddb5b69df250e253d10e8a213401f1802bad8fe.jpg"
  }
]