[
  {
    "name": "ACH_VICTORY_EASY",
    "defaultvalue": 0,
    "displayName": "Easy Victory!",
    "hidden": 0,
    "description": "Complete Bunker Punks on Easy Difficulty.",
    "icon": "https://steamcdn-a.akamaihd.net/steamcommunity/public/images/apps/446120/5e104da89c9593ea36d38b339239a10ab6ce89a0.jpg",
    "icongray": "https://steamcdn-a.akamaihd.net/steamcommunity/public/images/apps/446120/ffedfc1d924263e3929aa76d63c86ee00c6c5482.jpg"
  },
  {
    "name": "ACH_VICTORY_NORMAL",
    "defaultvalue": 0,
    "displayName": "Victory!",
    "hidden": 0,
    "description": "Complete Bunker Punks on Normal Difficulty.",
    "icon": "https://steamcdn-a.akamaihd.net/steamcommunity/public/images/apps/446120/c0f010a1a38dbff5ca6575ff579197c2a1d20779.jpg",
    "icongray": "https://steamcdn-a.akamaihd.net/steamcommunity/public/images/apps/446120/f803fcd36f9fb834ebd6b043946c2fdbb09430a8.jpg"
  },
  {
    "name": "ACH_VICTORY_EXPERT",
    "defaultvalue": 0,
    "displayName": "Expert Victory!",
    "hidden": 0,
    "description": "Complete Bunker Punks on Expert Difficulty.",
    "icon": "https://steamcdn-a.akamaihd.net/steamcommunity/public/images/apps/446120/1b68c5cac3506d84c398b4438f5e948a14bf0fd4.jpg",
    "icongray": "https://steamcdn-a.akamaihd.net/steamcommunity/public/images/apps/446120/2c4a9c74d3078f31e735d58b36401ab14f3e03f7.jpg"
  },
  {
    "name": "ACH_VICTORY_BRUTAL",
    "defaultvalue": 0,
    "displayName": "Brutal Victory!",
    "hidden": 0,
    "description": "Complete Bunker Punks on Brutal Difficulty.",
    "icon": "https://steamcdn-a.akamaihd.net/steamcommunity/public/images/apps/446120/6e68e444e8f1bd2239a1f9ebfa854ddd0521a9cc.jpg",
    "icongray": "https://steamcdn-a.akamaihd.net/steamcommunity/public/images/apps/446120/808a0e96eefa090e255d3b58f4148fe0a5fd14bc.jpg"
  },
  {
    "name": "ACH_GAMESPLAYED_1",
    "defaultvalue": 0,
    "displayName": "Rookie Punk",
    "hidden": 0,
    "description": "Play 5 Games of Bunker Punks.",
    "icon": "https://steamcdn-a.akamaihd.net/steamcommunity/public/images/apps/446120/266d1e98f83c892ab7cda001b58f2b2e0cdae29f.jpg",
    "icongray": "https://steamcdn-a.akamaihd.net/steamcommunity/public/images/apps/446120/51c33ba64b4cc9905889abc8625525cd8dd89559.jpg"
  },
  {
    "name": "ACH_GAMESPLAYED_2",
    "defaultvalue": 0,
    "displayName": "Just a Punk",
    "hidden": 0,
    "description": "Play 25 Games of Bunker Punks.",
    "icon": "https://steamcdn-a.akamaihd.net/steamcommunity/public/images/apps/446120/e39f9eee93ec6a89f544d7d933bba4db754abb47.jpg",
    "icongray": "https://steamcdn-a.akamaihd.net/steamcommunity/public/images/apps/446120/4863d1cc6058190a45d8c6fabe26cb46489f980a.jpg"
  },
  {
    "name": "ACH_GAMESPLAYED_3",
    "defaultvalue": 0,
    "displayName": "Master Punk",
    "hidden": 0,
    "description": "Play 100 Games of Bunker Punks.",
    "icon": "https://steamcdn-a.akamaihd.net/steamcommunity/public/images/apps/446120/daa86ef69b66d9b188748547d62ff878d66e16bd.jpg",
    "icongray": "https://steamcdn-a.akamaihd.net/steamcommunity/public/images/apps/446120/862606a9dab97847edc11e2521c56ded86681d71.jpg"
  },
  {
    "name": "ACH_COMBO_1",
    "defaultvalue": 0,
    "displayName": "Combo Rookie",
    "hidden": 0,
    "description": "5 Hit Combo!",
    "icon": "https://steamcdn-a.akamaihd.net/steamcommunity/public/images/apps/446120/424aec0d912c094d54ae330c8e7f55ad1cb13fcd.jpg",
    "icongray": "https://steamcdn-a.akamaihd.net/steamcommunity/public/images/apps/446120/ec1a78e344cd8a7eb1d0ed25355ae1bfe2a2f51c.jpg"
  },
  {
    "name": "ACH_COMBO_2",
    "defaultvalue": 0,
    "displayName": "Combo Master",
    "hidden": 0,
    "description": "8 Hit Combo!",
    "icon": "https://steamcdn-a.akamaihd.net/steamcommunity/public/images/apps/446120/afa6c169ec8b0cf81b38f01b455832d214d1a9ae.jpg",
    "icongray": "https://steamcdn-a.akamaihd.net/steamcommunity/public/images/apps/446120/6a957253ad356475b72d6d689cd19ed7c5f66357.jpg"
  },
  {
    "name": "ACH_COMBO_3",
    "defaultvalue": 0,
    "displayName": "Combo Monster",
    "hidden": 0,
    "description": "11 Hit Combo!!",
    "icon": "https://steamcdn-a.akamaihd.net/steamcommunity/public/images/apps/446120/f7e12e2927e00c6cdb3257afbd05e82300a23471.jpg",
    "icongray": "https://steamcdn-a.akamaihd.net/steamcommunity/public/images/apps/446120/e7843cd09c2270cbf61bf0295a2942a7810c87c4.jpg"
  },
  {
    "name": "ACH_PARTIME_BRONZE",
    "defaultvalue": 0,
    "displayName": "Speed Walker",
    "hidden": 0,
    "description": "Finish a level in Bronze Medal Time.",
    "icon": "https://steamcdn-a.akamaihd.net/steamcommunity/public/images/apps/446120/58e20c3c0a8f87ab7d372853255864a7283649b5.jpg",
    "icongray": "https://steamcdn-a.akamaihd.net/steamcommunity/public/images/apps/446120/15a57547d519378879ae7f3d85e3a96d4543919f.jpg"
  },
  {
    "name": "ACH_PARTIME_SILVER",
    "defaultvalue": 0,
    "displayName": "Spirited Jog",
    "hidden": 0,
    "description": "Finish a level in Silver Medal Time.",
    "icon": "https://steamcdn-a.akamaihd.net/steamcommunity/public/images/apps/446120/2eed180a6984c23210c20e46df31c7ea1e97bd2b.jpg",
    "icongray": "https://steamcdn-a.akamaihd.net/steamcommunity/public/images/apps/446120/309eae618d33f0f4aaef73c99f08f6774e1de4e9.jpg"
  },
  {
    "name": "ACH_PARTIME_GOLD",
    "defaultvalue": 0,
    "displayName": "Fast Feet",
    "hidden": 0,
    "description": "Finish a level in Gold Medal Time.",
    "icon": "https://steamcdn-a.akamaihd.net/steamcommunity/public/images/apps/446120/3a27a5ed5f86684d4b5f94cfc19d78fb6ba277a2.jpg",
    "icongray": "https://steamcdn-a.akamaihd.net/steamcommunity/public/images/apps/446120/0c2eb917d32550e5c88111028d845cfe806df583.jpg"
  },
  {
    "name": "ACH_ENEMIESKILLED_1",
    "defaultvalue": 0,
    "displayName": "Cleaning Crew",
    "hidden": 0,
    "description": "Kill 100 corporate drones.",
    "icon": "https://steamcdn-a.akamaihd.net/steamcommunity/public/images/apps/446120/c80b9b12c11539d73b85753e92e515965a0d5775.jpg",
    "icongray": "https://steamcdn-a.akamaihd.net/steamcommunity/public/images/apps/446120/9670963361881d61db54c30ea45c6e1adc4922c1.jpg"
  },
  {
    "name": "ACH_ENEMIESKILLED_2",
    "defaultvalue": 0,
    "displayName": "Mopping Up",
    "hidden": 0,
    "description": "Kill 1000 corporate drones.",
    "icon": "https://steamcdn-a.akamaihd.net/steamcommunity/public/images/apps/446120/ac196fc0235e8214eddc6a9219e4324b40fdbb1c.jpg",
    "icongray": "https://steamcdn-a.akamaihd.net/steamcommunity/public/images/apps/446120/3350cf4671560e7c432b082374b741efb88ca04e.jpg"
  },
  {
    "name": "ACH_ENEMIESKILLED_3",
    "defaultvalue": 0,
    "displayName": "Exterminator",
    "hidden": 0,
    "description": "Kill 5000 corporate drones.",
    "icon": "https://steamcdn-a.akamaihd.net/steamcommunity/public/images/apps/446120/f293ed11696950570c4364a7a82da5ed0051f214.jpg",
    "icongray": "https://steamcdn-a.akamaihd.net/steamcommunity/public/images/apps/446120/d365b81313257bb00a794ba5fab1e1c5010b286d.jpg"
  },
  {
    "name": "ACH_GAMESWON_1",
    "defaultvalue": 0,
    "displayName": "Bunker Funk",
    "hidden": 0,
    "description": "Win 5 games of Bunker Punks.",
    "icon": "https://steamcdn-a.akamaihd.net/steamcommunity/public/images/apps/446120/74a9fae5db4a5f47f3693e5ae92de493ae1c3d28.jpg",
    "icongray": "https://steamcdn-a.akamaihd.net/steamcommunity/public/images/apps/446120/3dbb1c561514db1a6c22fdb77992718f64671a63.jpg"
  },
  {
    "name": "ACH_GAMESWON_2",
    "defaultvalue": 0,
    "displayName": "Bunker Monk",
    "hidden": 0,
    "description": "Win 10 games of Bunker Punks.",
    "icon": "https://steamcdn-a.akamaihd.net/steamcommunity/public/images/apps/446120/c843a514c761f9a47cd4873a9088aeb9b03f28d3.jpg",
    "icongray": "https://steamcdn-a.akamaihd.net/steamcommunity/public/images/apps/446120/dc60fe5add75d09606d1b09334dbb7ffab9ff0be.jpg"
  },
  {
    "name": "ACH_GAMESWON_3",
    "defaultvalue": 0,
    "displayName": "Bunker Punk",
    "hidden": 0,
    "description": "Win 25 games of Bunker Punks.",
    "icon": "https://steamcdn-a.akamaihd.net/steamcommunity/public/images/apps/446120/0f6d54b58f94bfffc54419bc66cb49027f560f37.jpg",
    "icongray": "https://steamcdn-a.akamaihd.net/steamcommunity/public/images/apps/446120/aac773c2fe75cc132b7a2ccb8abdbaf5fa9433d4.jpg"
  },
  {
    "name": "ACH_GRADUATE",
    "defaultvalue": 0,
    "displayName": "Graduate",
    "hidden": 0,
    "description": "Tutorial posters and loading tips will no longer appear.",
    "icon": "https://steamcdn-a.akamaihd.net/steamcommunity/public/images/apps/446120/938e455ec8117c9b1c99e0cd8f1e486563ed5434.jpg",
    "icongray": "https://steamcdn-a.akamaihd.net/steamcommunity/public/images/apps/446120/1ba3bfea3857d75fa457119f5591c2dbf5f9d79c.jpg"
  },
  {
    "name": "ACH_SOLDOUT",
    "defaultvalue": 0,
    "displayName": "Sold Out!",
    "hidden": 0,
    "description": "Unlock every item from Joey Tech.",
    "icon": "https://steamcdn-a.akamaihd.net/steamcommunity/public/images/apps/446120/10f9557637598753b903a610898e298bac15693a.jpg",
    "icongray": "https://steamcdn-a.akamaihd.net/steamcommunity/public/images/apps/446120/d3e20e24c3a22260de98411afd69039842618386.jpg"
  },
  {
    "name": "ACH_FULLSET_ASSAULT",
    "defaultvalue": 0,
    "displayName": "Full Armor: Assault",
    "hidden": 0,
    "description": "Collect and wear a full set of Assault Armor.",
    "icon": "https://steamcdn-a.akamaihd.net/steamcommunity/public/images/apps/446120/48e956ddc039265839fda182b7cc915712de788b.jpg",
    "icongray": "https://steamcdn-a.akamaihd.net/steamcommunity/public/images/apps/446120/86f94ffb4c90e72599fb5825fa426e34fe92fdf3.jpg"
  },
  {
    "name": "ACH_FULLSET_BANKER",
    "defaultvalue": 0,
    "displayName": "Full Armor: Banker",
    "hidden": 0,
    "description": "Collect and wear a full set of Banker Armor.",
    "icon": "https://steamcdn-a.akamaihd.net/steamcommunity/public/images/apps/446120/b787aff75c2d8c59e3dec5426a504447cf71f311.jpg",
    "icongray": "https://steamcdn-a.akamaihd.net/steamcommunity/public/images/apps/446120/9ea1c6a20025c52b7a013cb1a0b402ac26768461.jpg"
  },
  {
    "name": "ACH_FULLSET_DEMOLITION",
    "defaultvalue": 0,
    "displayName": "Full Armor: Demolition",
    "hidden": 0,
    "description": "Collect and wear a full set of Demolition Armor.",
    "icon": "https://steamcdn-a.akamaihd.net/steamcommunity/public/images/apps/446120/9162d6fbbf8c1c83a806badeeaa0f1a31c9df5a3.jpg",
    "icongray": "https://steamcdn-a.akamaihd.net/steamcommunity/public/images/apps/446120/0f6e1295851b4534362421139b0b4f54805051ef.jpg"
  },
  {
    "name": "ACH_FULLSET_DOCTOR",
    "defaultvalue": 0,
    "displayName": "Full Armor: Doctor",
    "hidden": 0,
    "description": "Collect and wear a full set of Doctor Armor.",
    "icon": "https://steamcdn-a.akamaihd.net/steamcommunity/public/images/apps/446120/f5b232b8041cbcf953d71c2e2023ec12d9002678.jpg",
    "icongray": "https://steamcdn-a.akamaihd.net/steamcommunity/public/images/apps/446120/bb61a9595d61475c74a62ef4a286671c2cd3e73b.jpg"
  },
  {
    "name": "ACH_FULLSET_GUNSLINGER",
    "defaultvalue": 0,
    "displayName": "Full Armor: Gunslinger",
    "hidden": 0,
    "description": "Collect and wear a full set of Gunslinger Armor.",
    "icon": "https://steamcdn-a.akamaihd.net/steamcommunity/public/images/apps/446120/b7424bd5dd81a3ff217fc0099746556f96af3381.jpg",
    "icongray": "https://steamcdn-a.akamaihd.net/steamcommunity/public/images/apps/446120/b06161df6009253a3a9c5e5f63dcbf695173a83f.jpg"
  },
  {
    "name": "ACH_FULLSET_HUNTER",
    "defaultvalue": 0,
    "displayName": "Full Armor: Hunter",
    "hidden": 0,
    "description": "Collect and wear a full set of Hunter Armor.",
    "icon": "https://steamcdn-a.akamaihd.net/steamcommunity/public/images/apps/446120/4accdda48f250ceaf43b7c0453a8f01e465f73bf.jpg",
    "icongray": "https://steamcdn-a.akamaihd.net/steamcommunity/public/images/apps/446120/cf88841de764796958faec742d8e90f3fa423e7d.jpg"
  },
  {
    "name": "ACH_FULLSET_MOTO",
    "defaultvalue": 0,
    "displayName": "Full Armor: Moto",
    "hidden": 0,
    "description": "Collect and wear a full set of Moto Armor.",
    "icon": "https://steamcdn-a.akamaihd.net/steamcommunity/public/images/apps/446120/1f724614ea6ec62607cf40b938decea49d549b9b.jpg",
    "icongray": "https://steamcdn-a.akamaihd.net/steamcommunity/public/images/apps/446120/284a08e8d963f036a1327bd563c7e063edcb2925.jpg"
  },
  {
    "name": "ACH_FULLSET_RIOT",
    "defaultvalue": 0,
    "displayName": "Full Armor: Riot",
    "hidden": 0,
    "description": "Collect and wear a full set of Riot Armor.",
    "icon": "https://steamcdn-a.akamaihd.net/steamcommunity/public/images/apps/446120/4e4821d08a7c8cd9f619d448174057d2f302179d.jpg",
    "icongray": "https://steamcdn-a.akamaihd.net/steamcommunity/public/images/apps/446120/0ca48c298688f0cf1961c9693677e5c8b4742801.jpg"
  },
  {
    "name": "ACH_FULLSET_SKATE",
    "defaultvalue": 0,
    "displayName": "Full Armor: Skater",
    "hidden": 0,
    "description": "Collect and wear a full set of Skate Armor",
    "icon": "https://steamcdn-a.akamaihd.net/steamcommunity/public/images/apps/446120/a020381e3480c2f1a7887a58094f4fdc631d69ab.jpg",
    "icongray": "https://steamcdn-a.akamaihd.net/steamcommunity/public/images/apps/446120/e099bf0e380497f3d7a3f8a63cda137e1b970a17.jpg"
  },
  {
    "name": "ACH_FAN_MOLLYPOP",
    "defaultvalue": 0,
    "displayName": "Molly Pop Superfan",
    "hidden": 0,
    "description": "Finished 30 levels with Molly Pop.",
    "icon": "https://steamcdn-a.akamaihd.net/steamcommunity/public/images/apps/446120/a5f93db7c3fe45815d3df164551cbec8356e8725.jpg",
    "icongray": "https://steamcdn-a.akamaihd.net/steamcommunity/public/images/apps/446120/e422e971c2c6e5aff4a02e442851f6d8507badff.jpg"
  },
  {
    "name": "ACH_FAN_DALLASBEACH",
    "defaultvalue": 0,
    "displayName": "Dallas Beach Superfan",
    "hidden": 0,
    "description": "Finish 30 levels with Dallas Beach.",
    "icon": "https://steamcdn-a.akamaihd.net/steamcommunity/public/images/apps/446120/9137c48e32394abc8f858ebfdb0518c8f9c7cfc8.jpg",
    "icongray": "https://steamcdn-a.akamaihd.net/steamcommunity/public/images/apps/446120/535d1e3fd8f45a093bc9f58b6e232c3372acb39b.jpg"
  },
  {
    "name": "ACH_FAN_CLEOPATRAREX",
    "defaultvalue": 0,
    "displayName": "Cleopatra Rex Superfan",
    "hidden": 0,
    "description": "Finish 30 levels with Cleopatra Rex.",
    "icon": "https://steamcdn-a.akamaihd.net/steamcommunity/public/images/apps/446120/d293747014c342bd27b1498d8a3f682019d6862b.jpg",
    "icongray": "https://steamcdn-a.akamaihd.net/steamcommunity/public/images/apps/446120/1d9d0dc1a3de26cb7d499514ef493209e9735551.jpg"
  },
  {
    "name": "ACH_FAN_KASSIDEE",
    "defaultvalue": 0,
    "displayName": "Kassidee Superfan",
    "hidden": 0,
    "description": "Finish 30 levels with Kassidee.",
    "icon": "https://steamcdn-a.akamaihd.net/steamcommunity/public/images/apps/446120/5c4f0ec21d11d72519835087c98324d5e1f865eb.jpg",
    "icongray": "https://steamcdn-a.akamaihd.net/steamcommunity/public/images/apps/446120/f1e3a4612769841dcd0e1cd372a9d9a71d9e2310.jpg"
  },
  {
    "name": "ACH_FAN_ROYCEHALL",
    "defaultvalue": 0,
    "displayName": "Royce Hall Superfan",
    "hidden": 0,
    "description": "Finish 30 levels with Royce Hall.",
    "icon": "https://steamcdn-a.akamaihd.net/steamcommunity/public/images/apps/446120/28a5e44cf9284f055fade347db172a36c12dfcc7.jpg",
    "icongray": "https://steamcdn-a.akamaihd.net/steamcommunity/public/images/apps/446120/8b9f47674d0701d727f3bd61510af1047d5ef85c.jpg"
  },
  {
    "name": "ACH_FAN_NULLPOINT",
    "defaultvalue": 0,
    "displayName": "Null Point Superfan",
    "hidden": 0,
    "description": "Finish 30 levels with Null Point.",
    "icon": "https://steamcdn-a.akamaihd.net/steamcommunity/public/images/apps/446120/db8e3147547bc81540d12ed9582aea1e3f91debd.jpg",
    "icongray": "https://steamcdn-a.akamaihd.net/steamcommunity/public/images/apps/446120/9d831bc380f26f90bf6a84cc8b88422f2c27768b.jpg"
  }
]