{
  "Dlcs": {},
  "Name": "Hassle 1977",
  "AppId": "1218550",
  "ImageUrl": "https://steamcdn-a.akamaihd.net/steam/apps/1218550/header.jpg?t=1601490546",
  "Languages": [
    "english",
    "russian"
  ],
  "Platforms": {
    "windows": true,
    "mac": false,
    "linux": false
  }
}