{
  "Dlcs": {},
  "Name": "Tank Assault X",
  "AppId": "585970",
  "ImageUrl": "https://steamcdn-a.akamaihd.net/steam/apps/585970/header.jpg?t=1573078773",
  "Languages": [
    "english",
    "russian",
    "spanish",
    "portuguese",
    "czech"
  ],
  "Platforms": {
    "windows": true,
    "mac": true,
    "linux": true
  }
}