{
  "Dlcs": {},
  "Name": "ColdByte Server Composer",
  "AppId": "908290",
  "ImageUrl": "https://steamcdn-a.akamaihd.net/steam/apps/908290/header.jpg?t=1540578624",
  "Languages": [
    "english"
  ],
  "Platforms": {
    "windows": true,
    "mac": false,
    "linux": false
  }
}