[
  {
    "name": "kill5",
    "defaultvalue": 0,
    "displayName": "Kill 5",
    "hidden": 0,
    "description": "Kill 5 enemies",
    "icon": "https://steamcdn-a.akamaihd.net/steamcommunity/public/images/apps/1175510/e6deb3b59798d2573cb5993ca9693fa52bf07488.jpg",
    "icongray": "https://steamcdn-a.akamaihd.net/steamcommunity/public/images/apps/1175510/082dfefed689c4332ea625766ae6979ec98ad699.jpg"
  },
  {
    "name": "kill10",
    "defaultvalue": 0,
    "displayName": "Kill10",
    "hidden": 0,
    "description": "Kill 10 enemies",
    "icon": "https://steamcdn-a.akamaihd.net/steamcommunity/public/images/apps/1175510/a69933324163a5acfc0ad78fbca8a74fb4cabd56.jpg",
    "icongray": "https://steamcdn-a.akamaihd.net/steamcommunity/public/images/apps/1175510/84173f03abab8a7150b5a52b56fb288bb6df3b79.jpg"
  },
  {
    "name": "kill50",
    "defaultvalue": 0,
    "displayName": "Kill 50",
    "hidden": 0,
    "description": "Kill 50 enemies",
    "icon": "https://steamcdn-a.akamaihd.net/steamcommunity/public/images/apps/1175510/7a6029aac90f229da7ffb33df6d696be7fae234e.jpg",
    "icongray": "https://steamcdn-a.akamaihd.net/steamcommunity/public/images/apps/1175510/b6a44013b5f51408fb37b54f912461858d6c1258.jpg"
  },
  {
    "name": "kill100",
    "defaultvalue": 0,
    "displayName": "Kill 100",
    "hidden": 0,
    "description": "Kill 100 enemies",
    "icon": "https://steamcdn-a.akamaihd.net/steamcommunity/public/images/apps/1175510/63c1f12205de5a8feb731f076495be299e005b60.jpg",
    "icongray": "https://steamcdn-a.akamaihd.net/steamcommunity/public/images/apps/1175510/13770af264849912d2b5c654142b159295b8781e.jpg"
  },
  {
    "name": "kill500",
    "defaultvalue": 0,
    "displayName": "Kill 500",
    "hidden": 0,
    "description": "Kill 500 enemies",
    "icon": "https://steamcdn-a.akamaihd.net/steamcommunity/public/images/apps/1175510/e7ce9ef087fe1844061386433a29eeb367166e6b.jpg",
    "icongray": "https://steamcdn-a.akamaihd.net/steamcommunity/public/images/apps/1175510/22e08097f4b573e23dc35167386b5acca8e66f45.jpg"
  },
  {
    "name": "kill1000",
    "defaultvalue": 0,
    "displayName": "Kill thousand",
    "hidden": 0,
    "description": "Kill 1000 enemies",
    "icon": "https://steamcdn-a.akamaihd.net/steamcommunity/public/images/apps/1175510/6e52b73d140d9b7ce4897bd48e7fcd3fd0ee2d71.jpg",
    "icongray": "https://steamcdn-a.akamaihd.net/steamcommunity/public/images/apps/1175510/8b77430a637f698bed91ecbf1d41ae152a0b8da1.jpg"
  },
  {
    "name": "sputnik_1",
    "defaultvalue": 0,
    "displayName": "Legacy",
    "hidden": 0,
    "description": "Destroy Sputnik-1 satelite",
    "icon": "https://steamcdn-a.akamaihd.net/steamcommunity/public/images/apps/1175510/45e5ef156d50fa1c917212a20769ed37cbe2dc70.jpg",
    "icongray": "https://steamcdn-a.akamaihd.net/steamcommunity/public/images/apps/1175510/a3e6f5c0d83414c8526425319d7c50c5102999ff.jpg"
  },
  {
    "name": "friendlyend",
    "defaultvalue": 0,
    "displayName": "Discoverer",
    "hidden": 0,
    "description": "Contact allien civilization",
    "icon": "https://steamcdn-a.akamaihd.net/steamcommunity/public/images/apps/1175510/cb634c562af7a83c358b5265e860c140aa24ecc1.jpg",
    "icongray": "https://steamcdn-a.akamaihd.net/steamcommunity/public/images/apps/1175510/32f54a7336f86c198f0e92112f77a3f9dc03fe7a.jpg"
  },
  {
    "name": "notfriendlyend",
    "defaultvalue": 0,
    "displayName": "Destroyer",
    "hidden": 0,
    "description": "Destroy allien dreadnought",
    "icon": "https://steamcdn-a.akamaihd.net/steamcommunity/public/images/apps/1175510/1d9da5b5c57450e2d460610e32a8699d59f9ddf5.jpg",
    "icongray": "https://steamcdn-a.akamaihd.net/steamcommunity/public/images/apps/1175510/d908c911a4a3e71f1a9bca6914d66918b4621083.jpg"
  },
  {
    "name": "shot500",
    "defaultvalue": 0,
    "displayName": "500 shots? Not enough",
    "hidden": 0,
    "description": "Make 500 shots with light gun",
    "icon": "https://steamcdn-a.akamaihd.net/steamcommunity/public/images/apps/1175510/eecfa7468b9e446643304eefcbb1688606cc786d.jpg",
    "icongray": "https://steamcdn-a.akamaihd.net/steamcommunity/public/images/apps/1175510/9016ae4207fc1a27b987fe40b1a8f6ec35dbbc12.jpg"
  },
  {
    "name": "shot1000",
    "defaultvalue": 0,
    "displayName": "Thousand shots",
    "hidden": 0,
    "description": "Make 1000 shots with light gun",
    "icon": "https://steamcdn-a.akamaihd.net/steamcommunity/public/images/apps/1175510/7f74e5e4333adeb7dffcb9b8a6e7d0ecd8539db5.jpg",
    "icongray": "https://steamcdn-a.akamaihd.net/steamcommunity/public/images/apps/1175510/7c140e2f3b35f9562c704753f2db4621065b244c.jpg"
  },
  {
    "name": "shot5000",
    "defaultvalue": 0,
    "displayName": "Thousands shots",
    "hidden": 0,
    "description": "Make 5000 shots with light gun",
    "icon": "https://steamcdn-a.akamaihd.net/steamcommunity/public/images/apps/1175510/2ea6a35e93210f5908d16477645ab2e613b5a5de.jpg",
    "icongray": "https://steamcdn-a.akamaihd.net/steamcommunity/public/images/apps/1175510/92c48fd65ae92de7fe0c28bc67014a1a93dbbd0e.jpg"
  },
  {
    "name": "xp500",
    "defaultvalue": 0,
    "displayName": "Recruit",
    "hidden": 0,
    "description": "Earn 500 xp",
    "icon": "https://steamcdn-a.akamaihd.net/steamcommunity/public/images/apps/1175510/cf110ef34c7d2f573c7740aef07c344b26d3bbc6.jpg",
    "icongray": "https://steamcdn-a.akamaihd.net/steamcommunity/public/images/apps/1175510/b4cf527e1c058a87d391e9a46d39ea65018c7229.jpg"
  },
  {
    "name": "xp3000",
    "defaultvalue": 0,
    "displayName": "Leutenant",
    "hidden": 0,
    "description": "Earn 3000 xp",
    "icon": "https://steamcdn-a.akamaihd.net/steamcommunity/public/images/apps/1175510/37450eee5307851c943d33b801d5d3671b358dca.jpg",
    "icongray": "https://steamcdn-a.akamaihd.net/steamcommunity/public/images/apps/1175510/f322d22e9ee3a9c630267dc4e882477adb7e0229.jpg"
  },
  {
    "name": "xp10000",
    "defaultvalue": 0,
    "displayName": "Space admiral",
    "hidden": 0,
    "description": "Earn 10000 xp",
    "icon": "https://steamcdn-a.akamaihd.net/steamcommunity/public/images/apps/1175510/ff30311a7b273ea0de438df00677d7cd3aa0fe7f.jpg",
    "icongray": "https://steamcdn-a.akamaihd.net/steamcommunity/public/images/apps/1175510/dd3ea305a1167078768940e28f6670417af28c58.jpg"
  },
  {
    "name": "allships",
    "defaultvalue": 0,
    "displayName": " Collector",
    "hidden": 0,
    "description": "Make all 4 ships avaible at the same time",
    "icon": "https://steamcdn-a.akamaihd.net/steamcommunity/public/images/apps/1175510/08af0e045252b8ea4a5672c9a5baeb94c7e956b2.jpg",
    "icongray": "https://steamcdn-a.akamaihd.net/steamcommunity/public/images/apps/1175510/65d3712eb96f548e9b5614d4f49a54869e004866.jpg"
  },
  {
    "name": "noships",
    "defaultvalue": 0,
    "displayName": "Hope dies last",
    "hidden": 0,
    "description": "All 4 ships destroyed",
    "icon": "https://steamcdn-a.akamaihd.net/steamcommunity/public/images/apps/1175510/459d49e2a32e505b5b010e058fb896b92c986b93.jpg",
    "icongray": "https://steamcdn-a.akamaihd.net/steamcommunity/public/images/apps/1175510/8a21afd0dfa9ed7e47a22a0acd32b11a54d7dfc3.jpg"
  }
]