[
  {
    "name": "0-THE-FOOL",
    "defaultvalue": 0,
    "displayName": "The Fool",
    "hidden": 0,
    "description": "You've picked the wrong target.",
    "icon": "https://steamcdn-a.akamaihd.net/steamcommunity/public/images/apps/1254370/a6ae8a79e441f8eb6eebf88c78948700fe629fe5.jpg",
    "icongray": "https://steamcdn-a.akamaihd.net/steamcommunity/public/images/apps/1254370/c8e141fa825aa88579167e60a1fe788c2e059b8a.jpg"
  },
  {
    "name": "1-THE-MAGICIAN",
    "defaultvalue": 0,
    "displayName": "The Magician",
    "hidden": 0,
    "description": "You've followed the signs.",
    "icon": "https://steamcdn-a.akamaihd.net/steamcommunity/public/images/apps/1254370/a6ae8a79e441f8eb6eebf88c78948700fe629fe5.jpg",
    "icongray": "https://steamcdn-a.akamaihd.net/steamcommunity/public/images/apps/1254370/c8e141fa825aa88579167e60a1fe788c2e059b8a.jpg"
  },
  {
    "name": "2-THE-PRIESTESS",
    "defaultvalue": 0,
    "displayName": "The High Priestess",
    "hidden": 0,
    "description": "You've performed the ceremony.",
    "icon": "https://steamcdn-a.akamaihd.net/steamcommunity/public/images/apps/1254370/a6ae8a79e441f8eb6eebf88c78948700fe629fe5.jpg",
    "icongray": "https://steamcdn-a.akamaihd.net/steamcommunity/public/images/apps/1254370/c8e141fa825aa88579167e60a1fe788c2e059b8a.jpg"
  },
  {
    "name": "3-THE-EMPRESS",
    "defaultvalue": 0,
    "displayName": "The Empress",
    "hidden": 0,
    "description": "You've proved your courage.",
    "icon": "https://steamcdn-a.akamaihd.net/steamcommunity/public/images/apps/1254370/9f459d6f26f95440825724f8f937a1752c601a23.jpg",
    "icongray": "https://steamcdn-a.akamaihd.net/steamcommunity/public/images/apps/1254370/c8e141fa825aa88579167e60a1fe788c2e059b8a.jpg"
  },
  {
    "name": "4-THE-EMPEROR",
    "defaultvalue": 0,
    "displayName": "The Emperor",
    "hidden": 0,
    "description": "As it was said, you've kept it all clean.",
    "icon": "https://steamcdn-a.akamaihd.net/steamcommunity/public/images/apps/1254370/a6ae8a79e441f8eb6eebf88c78948700fe629fe5.jpg",
    "icongray": "https://steamcdn-a.akamaihd.net/steamcommunity/public/images/apps/1254370/c8e141fa825aa88579167e60a1fe788c2e059b8a.jpg"
  },
  {
    "name": "5-THE-HIEROPHANT",
    "defaultvalue": 0,
    "displayName": "The Hierophant",
    "hidden": 0,
    "description": "You knew that faith will guide and protect you.",
    "icon": "https://steamcdn-a.akamaihd.net/steamcommunity/public/images/apps/1254370/a6ae8a79e441f8eb6eebf88c78948700fe629fe5.jpg",
    "icongray": "https://steamcdn-a.akamaihd.net/steamcommunity/public/images/apps/1254370/c8e141fa825aa88579167e60a1fe788c2e059b8a.jpg"
  },
  {
    "name": "6-THE-LOVERS",
    "defaultvalue": 0,
    "displayName": "The Lovers",
    "hidden": 0,
    "description": "When it called for you, you've answered.",
    "icon": "https://steamcdn-a.akamaihd.net/steamcommunity/public/images/apps/1254370/a6ae8a79e441f8eb6eebf88c78948700fe629fe5.jpg",
    "icongray": "https://steamcdn-a.akamaihd.net/steamcommunity/public/images/apps/1254370/c8e141fa825aa88579167e60a1fe788c2e059b8a.jpg"
  },
  {
    "name": "7-THE-CHARIOT",
    "defaultvalue": 0,
    "displayName": "The Chariot",
    "hidden": 0,
    "description": "When it was required, you've reacted fast.",
    "icon": "https://steamcdn-a.akamaihd.net/steamcommunity/public/images/apps/1254370/a6ae8a79e441f8eb6eebf88c78948700fe629fe5.jpg",
    "icongray": "https://steamcdn-a.akamaihd.net/steamcommunity/public/images/apps/1254370/c8e141fa825aa88579167e60a1fe788c2e059b8a.jpg"
  },
  {
    "name": "8-THE-JUSTICE",
    "defaultvalue": 0,
    "displayName": "Justice",
    "hidden": 0,
    "description": "You've held the urge.",
    "icon": "https://steamcdn-a.akamaihd.net/steamcommunity/public/images/apps/1254370/a6ae8a79e441f8eb6eebf88c78948700fe629fe5.jpg",
    "icongray": "https://steamcdn-a.akamaihd.net/steamcommunity/public/images/apps/1254370/c8e141fa825aa88579167e60a1fe788c2e059b8a.jpg"
  },
  {
    "name": "9-THE-HERMIT",
    "defaultvalue": 0,
    "displayName": "The Hermit",
    "hidden": 0,
    "description": "You've found the shelter where no one could.",
    "icon": "https://steamcdn-a.akamaihd.net/steamcommunity/public/images/apps/1254370/a6ae8a79e441f8eb6eebf88c78948700fe629fe5.jpg",
    "icongray": "https://steamcdn-a.akamaihd.net/steamcommunity/public/images/apps/1254370/c8e141fa825aa88579167e60a1fe788c2e059b8a.jpg"
  },
  {
    "name": "10-THE-WHEEL",
    "defaultvalue": 0,
    "displayName": "Wheel of Fortune",
    "hidden": 0,
    "description": "You've entered the gate.",
    "icon": "https://steamcdn-a.akamaihd.net/steamcommunity/public/images/apps/1254370/a6ae8a79e441f8eb6eebf88c78948700fe629fe5.jpg",
    "icongray": "https://steamcdn-a.akamaihd.net/steamcommunity/public/images/apps/1254370/c8e141fa825aa88579167e60a1fe788c2e059b8a.jpg"
  },
  {
    "name": "11-STRENGTH",
    "defaultvalue": 0,
    "displayName": "Strength",
    "hidden": 0,
    "description": "You've listened to no warnings.",
    "icon": "https://steamcdn-a.akamaihd.net/steamcommunity/public/images/apps/1254370/a6ae8a79e441f8eb6eebf88c78948700fe629fe5.jpg",
    "icongray": "https://steamcdn-a.akamaihd.net/steamcommunity/public/images/apps/1254370/c8e141fa825aa88579167e60a1fe788c2e059b8a.jpg"
  },
  {
    "name": "12-THE-HANGED",
    "defaultvalue": 0,
    "displayName": "The Hanged Man",
    "hidden": 0,
    "description": "You've fulfilled your purpose.",
    "icon": "https://steamcdn-a.akamaihd.net/steamcommunity/public/images/apps/1254370/a6ae8a79e441f8eb6eebf88c78948700fe629fe5.jpg",
    "icongray": "https://steamcdn-a.akamaihd.net/steamcommunity/public/images/apps/1254370/c8e141fa825aa88579167e60a1fe788c2e059b8a.jpg"
  },
  {
    "name": "13-DEATH",
    "defaultvalue": 0,
    "displayName": "Death",
    "hidden": 0,
    "description": "Sometimes there's only one way to get away from the darkness.",
    "icon": "https://steamcdn-a.akamaihd.net/steamcommunity/public/images/apps/1254370/a6ae8a79e441f8eb6eebf88c78948700fe629fe5.jpg",
    "icongray": "https://steamcdn-a.akamaihd.net/steamcommunity/public/images/apps/1254370/c8e141fa825aa88579167e60a1fe788c2e059b8a.jpg"
  },
  {
    "name": "14-TEMPERANCE",
    "defaultvalue": 0,
    "displayName": "Temperance",
    "hidden": 0,
    "description": "You were patient to continue your search.",
    "icon": "https://steamcdn-a.akamaihd.net/steamcommunity/public/images/apps/1254370/a6ae8a79e441f8eb6eebf88c78948700fe629fe5.jpg",
    "icongray": "https://steamcdn-a.akamaihd.net/steamcommunity/public/images/apps/1254370/c8e141fa825aa88579167e60a1fe788c2e059b8a.jpg"
  },
  {
    "name": "15-THE-DEVIL",
    "defaultvalue": 0,
    "displayName": "The Devil",
    "hidden": 0,
    "description": "Once fallen, you would not allow another one to fall.",
    "icon": "https://steamcdn-a.akamaihd.net/steamcommunity/public/images/apps/1254370/a6ae8a79e441f8eb6eebf88c78948700fe629fe5.jpg",
    "icongray": "https://steamcdn-a.akamaihd.net/steamcommunity/public/images/apps/1254370/c8e141fa825aa88579167e60a1fe788c2e059b8a.jpg"
  },
  {
    "name": "16-THE-TOWER",
    "defaultvalue": 0,
    "displayName": "The Tower",
    "hidden": 0,
    "description": "From day to day, you've fought the silence in the tower.",
    "icon": "https://steamcdn-a.akamaihd.net/steamcommunity/public/images/apps/1254370/a6ae8a79e441f8eb6eebf88c78948700fe629fe5.jpg",
    "icongray": "https://steamcdn-a.akamaihd.net/steamcommunity/public/images/apps/1254370/c8e141fa825aa88579167e60a1fe788c2e059b8a.jpg"
  },
  {
    "name": "17-THE-STAR",
    "defaultvalue": 0,
    "displayName": "The Star",
    "hidden": 0,
    "description": "You doomed yourself since the very beginning.",
    "icon": "https://steamcdn-a.akamaihd.net/steamcommunity/public/images/apps/1254370/a6ae8a79e441f8eb6eebf88c78948700fe629fe5.jpg",
    "icongray": "https://steamcdn-a.akamaihd.net/steamcommunity/public/images/apps/1254370/3f58fb4cf8805d2e5ef5758004a0aed1803bee6f.jpg"
  },
  {
    "name": "18-THE-MOON",
    "defaultvalue": 0,
    "displayName": "The Moon",
    "hidden": 0,
    "description": "The thing that lured in the darkness couldn't reach you.",
    "icon": "https://steamcdn-a.akamaihd.net/steamcommunity/public/images/apps/1254370/a6ae8a79e441f8eb6eebf88c78948700fe629fe5.jpg",
    "icongray": "https://steamcdn-a.akamaihd.net/steamcommunity/public/images/apps/1254370/3f58fb4cf8805d2e5ef5758004a0aed1803bee6f.jpg"
  },
  {
    "name": "19-THE-SUN",
    "defaultvalue": 0,
    "displayName": "The Sun",
    "hidden": 0,
    "description": "Your inner light is enough.",
    "icon": "https://steamcdn-a.akamaihd.net/steamcommunity/public/images/apps/1254370/a6ae8a79e441f8eb6eebf88c78948700fe629fe5.jpg",
    "icongray": "https://steamcdn-a.akamaihd.net/steamcommunity/public/images/apps/1254370/c8e141fa825aa88579167e60a1fe788c2e059b8a.jpg"
  },
  {
    "name": "20-JUDGEMENT",
    "defaultvalue": 0,
    "displayName": "Judgement",
    "hidden": 0,
    "description": "You've broken the chains.",
    "icon": "https://steamcdn-a.akamaihd.net/steamcommunity/public/images/apps/1254370/9f459d6f26f95440825724f8f937a1752c601a23.jpg",
    "icongray": "https://steamcdn-a.akamaihd.net/steamcommunity/public/images/apps/1254370/3f58fb4cf8805d2e5ef5758004a0aed1803bee6f.jpg"
  },
  {
    "name": "21-THE-WORLD",
    "defaultvalue": 0,
    "displayName": "The World",
    "hidden": 0,
    "description": "After the long journey, you finally feel the earth under your feet.",
    "icon": "https://steamcdn-a.akamaihd.net/steamcommunity/public/images/apps/1254370/a6ae8a79e441f8eb6eebf88c78948700fe629fe5.jpg",
    "icongray": "https://steamcdn-a.akamaihd.net/steamcommunity/public/images/apps/1254370/c8e141fa825aa88579167e60a1fe788c2e059b8a.jpg"
  },
  {
    "name": "22-THE-MAJOR",
    "defaultvalue": 0,
    "displayName": "The Major Arcana",
    "hidden": 0,
    "description": "Now, you rest in peace.",
    "icon": "https://steamcdn-a.akamaihd.net/steamcommunity/public/images/apps/1254370/a6ae8a79e441f8eb6eebf88c78948700fe629fe5.jpg",
    "icongray": "https://steamcdn-a.akamaihd.net/steamcommunity/public/images/apps/1254370/c8e141fa825aa88579167e60a1fe788c2e059b8a.jpg"
  }
]