[
  {
    "name": "sword_found",
    "defaultvalue": 0,
    "displayName": "nb_sword"
  },
  {
    "name": "shield_found",
    "defaultvalue": 0,
    "displayName": "nb_shield"
  },
  {
    "name": "troll_killed",
    "defaultvalue": 0,
    "displayName": "nb_troll_killed"
  },
  {
    "name": "level_player",
    "defaultvalue": 1,
    "displayName": "level_player"
  }
]