[
  {
    "name": "ACH_PROGRESS_1",
    "defaultvalue": 0,
    "displayName": "雪原初探",
    "hidden": 0,
    "description": "通关T1",
    "icon": "https://steamcdn-a.akamaihd.net/steamcommunity/public/images/apps/512170/642bad48102440830428687137fe0cdf4be02047.jpg",
    "icongray": "https://steamcdn-a.akamaihd.net/steamcommunity/public/images/apps/512170/1dd57bb124a532c9610b24431d666fede383dad4.jpg"
  },
  {
    "name": "ACH_PROGRESS_2",
    "defaultvalue": 0,
    "displayName": "虫谷迷踪",
    "hidden": 0,
    "description": "通关T2",
    "icon": "https://steamcdn-a.akamaihd.net/steamcommunity/public/images/apps/512170/83f30c46ba28ba4f1e530be823ef6619115b3c46.jpg",
    "icongray": "https://steamcdn-a.akamaihd.net/steamcommunity/public/images/apps/512170/ef735056fc24746c6b0a4c9d8eb55fd05506d94d.jpg"
  },
  {
    "name": "ACH_PROGRESS_3",
    "defaultvalue": 0,
    "displayName": "古蜀惊奇",
    "hidden": 0,
    "description": "通关T3",
    "icon": "https://steamcdn-a.akamaihd.net/steamcommunity/public/images/apps/512170/99a89e8c6aba03e98a7e601a9792d13d59e499aa.jpg",
    "icongray": "https://steamcdn-a.akamaihd.net/steamcommunity/public/images/apps/512170/19d923611de6652920772f53b0916a2bdb42bf5a.jpg"
  },
  {
    "name": "ACH_PROGRESS_4",
    "defaultvalue": 0,
    "displayName": "大漠生还",
    "hidden": 0,
    "description": "通关T4",
    "icon": "https://steamcdn-a.akamaihd.net/steamcommunity/public/images/apps/512170/06ad7dab3acfbfb9217c4078db1184c1032d6cd7.jpg",
    "icongray": "https://steamcdn-a.akamaihd.net/steamcommunity/public/images/apps/512170/60329a03b6deec2c7d3c8cec129685290b30b200.jpg"
  },
  {
    "name": "ACH_MAKE_1",
    "defaultvalue": 0,
    "displayName": "改装初学者",
    "hidden": 0,
    "description": "改装5把枪械",
    "icon": "https://steamcdn-a.akamaihd.net/steamcommunity/public/images/apps/512170/391e1e18d1db2c05ce1f9d8ef40fe4489aa358e1.jpg",
    "icongray": "https://steamcdn-a.akamaihd.net/steamcommunity/public/images/apps/512170/0fa31bf5fea342bdfda5986c6a7679770e94db37.jpg"
  },
  {
    "name": "ACH_MAKE_2",
    "defaultvalue": 0,
    "displayName": "改装达人",
    "hidden": 0,
    "description": "改装10把枪械",
    "icon": "https://steamcdn-a.akamaihd.net/steamcommunity/public/images/apps/512170/61ed1d1fb5092e322576eb2708f71da49960de29.jpg",
    "icongray": "https://steamcdn-a.akamaihd.net/steamcommunity/public/images/apps/512170/767760145c423e3302b3eaf1a7a53d95ae979024.jpg"
  },
  {
    "name": "ACH_MAKE_3",
    "defaultvalue": 0,
    "displayName": "改装大师",
    "hidden": 0,
    "description": "改装20把枪械",
    "icon": "https://steamcdn-a.akamaihd.net/steamcommunity/public/images/apps/512170/76e328c35f5e9f1a497c1c595c5204fdbdfda78c.jpg",
    "icongray": "https://steamcdn-a.akamaihd.net/steamcommunity/public/images/apps/512170/a42f59f3d042328665632562f9f2993d111cf32a.jpg"
  },
  {
    "name": "ACH_MAKE_4",
    "defaultvalue": 0,
    "displayName": "改装宗师",
    "hidden": 0,
    "description": "改装30把枪械",
    "icon": "https://steamcdn-a.akamaihd.net/steamcommunity/public/images/apps/512170/2d5b61fbe9176f3ceae18aaac1f468c591bda013.jpg",
    "icongray": "https://steamcdn-a.akamaihd.net/steamcommunity/public/images/apps/512170/764eb720ab5b751254466dd15127e38cac4d2724.jpg"
  },
  {
    "name": "ACH_TOMB_1",
    "defaultvalue": 0,
    "displayName": "摸金初学者",
    "hidden": 0,
    "description": "墓穴探险5次",
    "icon": "https://steamcdn-a.akamaihd.net/steamcommunity/public/images/apps/512170/d2508ea153edeaf40be08cccb11fc57ec86c6344.jpg",
    "icongray": "https://steamcdn-a.akamaihd.net/steamcommunity/public/images/apps/512170/94f6d233b08b4f3aaa131c97567ca31974daf840.jpg"
  },
  {
    "name": "ACH_TOMB_2",
    "defaultvalue": 0,
    "displayName": "摸金达人",
    "hidden": 0,
    "description": "墓穴探险10次",
    "icon": "https://steamcdn-a.akamaihd.net/steamcommunity/public/images/apps/512170/82f8b366d40e68805fa27174bff4759efeb1e295.jpg",
    "icongray": "https://steamcdn-a.akamaihd.net/steamcommunity/public/images/apps/512170/3f00f98de97002645a998042426381a917b036e2.jpg"
  },
  {
    "name": "ACH_TOMB_3",
    "defaultvalue": 0,
    "displayName": "发丘中郎将",
    "hidden": 0,
    "description": "墓穴探险20次",
    "icon": "https://steamcdn-a.akamaihd.net/steamcommunity/public/images/apps/512170/bd4abafabcbf1726391691fb9be81cae18e2e134.jpg",
    "icongray": "https://steamcdn-a.akamaihd.net/steamcommunity/public/images/apps/512170/41545bc6cabae42667ea1f9c47cc646b5709cb63.jpg"
  },
  {
    "name": "ACH_TOMB_4",
    "defaultvalue": 0,
    "displayName": "摸金校尉",
    "hidden": 0,
    "description": "墓穴探险30次",
    "icon": "https://steamcdn-a.akamaihd.net/steamcommunity/public/images/apps/512170/3914461a9d91f23ce8070081171f5300d78ae1ca.jpg",
    "icongray": "https://steamcdn-a.akamaihd.net/steamcommunity/public/images/apps/512170/29cd6d784b1dd8c954a35f6b62f87875ab9f2faa.jpg"
  },
  {
    "name": "ACH_TOMB_5",
    "defaultvalue": 0,
    "displayName": "摸金宗师",
    "hidden": 0,
    "description": "墓穴探险40次",
    "icon": "https://steamcdn-a.akamaihd.net/steamcommunity/public/images/apps/512170/4fa40bbf19a758f66057fee5a0f1272f15470fc5.jpg",
    "icongray": "https://steamcdn-a.akamaihd.net/steamcommunity/public/images/apps/512170/f48eeb7071b9333d86089a9c26cc71a7d34828ae.jpg"
  }
]