{
  "Dlcs": {},
  "Name": "Super Toaster X: Learn Japanese RPG",
  "AppId": "530080",
  "ImageUrl": "https://steamcdn-a.akamaihd.net/steam/apps/530080/header.jpg?t=1485094942",
  "Languages": [
    "english"
  ],
  "Platforms": {
    "windows": true,
    "mac": false,
    "linux": false
  }
}