﻿{
  "Dlcs": {},
  "Name": "Zoo 2: Animal Park",
  "AppId": "1352330",
  "ImageUrl": "https://steamcdn-a.akamaihd.net/steam/apps/1352330/header.jpg?t=1598252491",
  "Languages": [
    "english",
    "french",
    "italian",
    "german",
    "spanish",
    "bulgarian",
    "danish",
    "greek",
    "dutch",
    "polish",
    "romanian",
    "russian",
    "swedish",
    "czech",
    "hungarian"
  ],
  "Platforms": {
    "windows": true,
    "mac": false,
    "linux": false
  }
}