{
  "Dlcs": {},
  "Name": "Zombie School Survival",
  "AppId": "1344870",
  "ImageUrl": "https://steamcdn-a.akamaihd.net/steam/apps/1344870/header.jpg?t=1594627037",
  "Languages": [
    "english"
  ],
  "Platforms": {
    "windows": true,
    "mac": false,
    "linux": false
  }
}