{
  "Dlcs": {},
  "Name": "Maestro: Dark Talent Collector's Edition",
  "AppId": "995930",
  "ImageUrl": "https://steamcdn-a.akamaihd.net/steam/apps/995930/header.jpg?t=1548437077",
  "Languages": [
    "english"
  ],
  "Platforms": {
    "windows": true,
    "mac": false,
    "linux": false
  }
}