{
  "Dlcs": {},
  "Name": "Truecolors",
  "AppId": "1013200",
  "ImageUrl": "https://steamcdn-a.akamaihd.net/steam/apps/1013200/header.jpg?t=1578998504",
  "Languages": [
    "korean"
  ],
  "Platforms": {
    "windows": true,
    "mac": false,
    "linux": false
  }
}