{
  "Dlcs": {},
  "Name": "Sokoban (Boxman) Classic",
  "AppId": "1406570",
  "ImageUrl": "https://steamcdn-a.akamaihd.net/steam/apps/1406570/header.jpg?t=1600268218",
  "Languages": [
    "english",
    "french",
    "italian",
    "spanish",
    "schinese",
    "tchinese",
    "portuguese"
  ],
  "Platforms": {
    "windows": true,
    "mac": false,
    "linux": false
  }
}