{
  "Dlcs": {},
  "Name": "Chocolat Rush",
  "AppId": "987670",
  "ImageUrl": "https://steamcdn-a.akamaihd.net/steam/apps/987670/header.jpg?t=1565919256",
  "Languages": [
    "english",
    "korean",
    "french",
    "italian",
    "german",
    "spanish",
    "japanese",
    "portuguese",
    "russian",
    "schinese",
    "tchinese"
  ],
  "Platforms": {
    "windows": true,
    "mac": false,
    "linux": false
  }
}