{
  "Dlcs": {
    "345050": {
      "Name": "Bundled 3 Month Premium Access",
      "ImageUrl": "https://steamcdn-a.akamaihd.net/steam/apps/345050/header.jpg?t=1447367830"
    },
    "391830": {
      "Name": "Ascent - The Space Game: Bowhead Support Ship",
      "ImageUrl": "https://steamcdn-a.akamaihd.net/steam/apps/391830/header.jpg?t=1447377379"
    },
    "391840": {
      "Name": "Ascent - The Space Game: Hawk Support Ship",
      "ImageUrl": "https://steamcdn-a.akamaihd.net/steam/apps/391840/header.jpg?t=1447377379"
    }
  },
  "Name": "Ascent - The Space Game",
  "AppId": "345010",
  "ImageUrl": "https://steamcdn-a.akamaihd.net/steam/apps/345010/header.jpg?t=1473598112",
  "Languages": [
    "english"
  ],
  "Platforms": {
    "windows": true,
    "mac": false,
    "linux": false
  }
}