{
  "Dlcs": {},
  "Name": "Shadows of Doubt",
  "AppId": "986130",
  "ImageUrl": "https://steamcdn-a.akamaihd.net/steam/apps/986130/header.jpg?t=1592147238",
  "Languages": [
    "english"
  ],
  "Platforms": {
    "windows": true,
    "mac": false,
    "linux": false
  }
}