{
  "Dlcs": {
    "1357880": {
      "Name": "阿尔法猫-桌面扩展",
      "ImageUrl": "https://steamcdn-a.akamaihd.net/steam/apps/1357880/header.jpg?t=1594888773"
    }
  },
  "Name": "人工智能 阿尔法猫-AI Alpha Cat",
  "AppId": "1107050",
  "ImageUrl": "https://steamcdn-a.akamaihd.net/steam/apps/1107050/header.jpg?t=1594888595",
  "Languages": [
    "schinese"
  ],
  "Platforms": {
    "windows": true,
    "mac": false,
    "linux": false
  }
}