[
  {
    "name": "smg_kills",
    "defaultvalue": 0,
    "displayName": "SMG Kills"
  },
  {
    "name": "sniper_kills",
    "defaultvalue": 0,
    "displayName": "Sniper Kills"
  },
  {
    "name": "shotty_kills",
    "defaultvalue": 0,
    "displayName": "Shotty Kills"
  },
  {
    "name": "bomber_kills",
    "defaultvalue": 0,
    "displayName": "Bomber Kills"
  },
  {
    "name": "spitfire_kills",
    "defaultvalue": 0,
    "displayName": "Spitfire Kills"
  },
  {
    "name": "tank_kills",
    "defaultvalue": 0,
    "displayName": "Tank Kills"
  },
  {
    "name": "grenade_kills",
    "defaultvalue": 0,
    "displayName": "Grenade Kills"
  }
]