{
  "Dlcs": {},
  "Name": "HIGHER GROUND",
  "AppId": "820680",
  "ImageUrl": "https://steamcdn-a.akamaihd.net/steam/apps/820680/header.jpg?t=1532552894",
  "Languages": [
    "english"
  ],
  "Platforms": {
    "windows": true,
    "mac": false,
    "linux": false
  }
}