{
  "Dlcs": {},
  "Name": "Dissection",
  "AppId": "1284050",
  "ImageUrl": "https://steamcdn-a.akamaihd.net/steam/apps/1284050/header.jpg?t=1587482619",
  "Languages": [
    "english"
  ],
  "Platforms": {
    "windows": true,
    "mac": false,
    "linux": false
  }
}