{
  "Dlcs": {},
  "Name": "Outrider Mako",
  "AppId": "1072400",
  "ImageUrl": "https://steamcdn-a.akamaihd.net/steam/apps/1072400/header.jpg?t=1592452547",
  "Languages": [
    "japanese",
    "english",
    "schinese"
  ],
  "Platforms": {
    "windows": true,
    "mac": false,
    "linux": false
  }
}