{
  "Dlcs": {
    "1167230": {
      "Name": "The Book Of Yorle: Save The Village",
      "ImageUrl": "https://steamcdn-a.akamaihd.net/steam/apps/1167230/header.jpg?t=1574881672"
    },
    "1167231": {
      "Name": "The Book Of Yorle: Save The Farmland",
      "ImageUrl": "https://steamcdn-a.akamaihd.net/steam/apps/1167231/header.jpg?t=1577374895"
    },
    "1167232": {
      "Name": "The Book Of Yorle: Save The Countryside",
      "ImageUrl": "https://steamcdn-a.akamaihd.net/steam/apps/1167232/header.jpg?t=1579798609"
    },
    "1167233": {
      "Name": "The Book Of Yorle: Save The Kingdom",
      "ImageUrl": "https://steamcdn-a.akamaihd.net/steam/apps/1167233/header.jpg?t=1571154536"
    }
  },
  "Name": "The Book Of Yorle: Save The Church",
  "AppId": "1164520",
  "ImageUrl": "https://steamcdn-a.akamaihd.net/steam/apps/1164520/header.jpg?t=1580334995",
  "Languages": [
    "english"
  ],
  "Platforms": {
    "windows": true,
    "mac": false,
    "linux": false
  }
}