{
  "Dlcs": {},
  "Name": "FRENZY PLANTS",
  "AppId": "1118930",
  "ImageUrl": "https://steamcdn-a.akamaihd.net/steam/apps/1118930/header.jpg?t=1569521863",
  "Languages": [
    "english"
  ],
  "Platforms": {
    "windows": true,
    "mac": false,
    "linux": false
  }
}