{
  "Dlcs": {},
  "Name": "Astra Exodus",
  "AppId": "880750",
  "ImageUrl": "https://steamcdn-a.akamaihd.net/steam/apps/880750/header.jpg?t=1600423041",
  "Languages": [
    "english",
    "spanish",
    "latam"
  ],
  "Platforms": {
    "windows": true,
    "mac": false,
    "linux": false
  }
}