[
  {
    "name": "NEW_ACHIEVEMENT_2_0",
    "defaultvalue": 0,
    "displayName": "cute chick",
    "hidden": 0,
    "description": "kill 500 chick",
    "icon": "https://steamcdn-a.akamaihd.net/steamcommunity/public/images/apps/881550/d1145ec4365fa0df106ef6d452d8a67c4a101e79.jpg",
    "icongray": "https://steamcdn-a.akamaihd.net/steamcommunity/public/images/apps/881550/bc07b979e721d9ba3eab5586a7f6035ea4e5ee93.jpg"
  },
  {
    "name": "NEW_ACHIEVEMENT_2_1",
    "defaultvalue": 0,
    "displayName": "snowman",
    "hidden": 0,
    "description": "kill 500 snowman",
    "icon": "https://steamcdn-a.akamaihd.net/steamcommunity/public/images/apps/881550/b0cff4e72cbaf6129046193ffba43c459187d8fa.jpg",
    "icongray": "https://steamcdn-a.akamaihd.net/steamcommunity/public/images/apps/881550/1806ccfb8f887c15107ddcb6fa82fd76319326dc.jpg"
  },
  {
    "name": "NEW_ACHIEVEMENT_2_2",
    "defaultvalue": 0,
    "displayName": "shoe",
    "hidden": 0,
    "description": "find the hiden shoe",
    "icon": "https://steamcdn-a.akamaihd.net/steamcommunity/public/images/apps/881550/6e897b85b034ae695cc65ac140987a7591706a60.jpg",
    "icongray": "https://steamcdn-a.akamaihd.net/steamcommunity/public/images/apps/881550/30b5d08d9b1e5e28be976a5e02ef07272903e35c.jpg"
  }
]