{
  "Dlcs": {
    "265140": {
      "Name": "Magic 2015 - Garruk's Revenge Expansion",
      "ImageUrl": "https://steamcdn-a.akamaihd.net/steam/apps/265140/header.jpg?t=1447359510"
    },
    "265141": {
      "Name": "Innistrad Card Collection",
      "ImageUrl": "https://steamcdn-a.akamaihd.net/steam/apps/265141/header.jpg?t=1447359511"
    },
    "265142": {
      "Name": "Theros Card Collection",
      "ImageUrl": "https://steamcdn-a.akamaihd.net/steam/apps/265142/header.jpg?t=1447359512"
    },
    "265143": {
      "Name": "Ravnica Card Collection",
      "ImageUrl": "https://steamcdn-a.akamaihd.net/steam/apps/265143/header.jpg?t=1447359512"
    },
    "265144": {
      "Name": "Shandalar Card Collection",
      "ImageUrl": "https://steamcdn-a.akamaihd.net/steam/apps/265144/header.jpg?t=1447359513"
    },
    "265145": {
      "Name": "Zendikar Card Collection",
      "ImageUrl": "https://steamcdn-a.akamaihd.net/steam/apps/265145/header.jpg?t=1447359513"
    },
    "265146": {
      "Name": "Collection Unlock — Alara",
      "ImageUrl": "https://steamcdn-a.akamaihd.net/steam/apps/265146/header.jpg?t=1447359514"
    },
    "326210": {
      "Name": "Collection Unlock—Battle Boosters",
      "ImageUrl": "https://steamcdn-a.akamaihd.net/steam/apps/326210/header.jpg?t=1447363956"
    }
  },
  "Name": "Magic 2015 - Duels of the Planeswalkers",
  "AppId": "255420",
  "ImageUrl": "https://steamcdn-a.akamaihd.net/steam/apps/255420/header.jpg?t=1475172892",
  "Languages": [
    "english",
    "french",
    "italian",
    "german",
    "spanish",
    "japanese",
    "korean",
    "portuguese",
    "russian",
    "schinese",
    "tchinese"
  ],
  "Platforms": {
    "windows": true,
    "mac": false,
    "linux": false
  }
}