﻿[
  {
    "name": "shoots",
    "defaultvalue": 0,
    "displayName": "Shooter",
    "hidden": 0,
    "description": "Shoot 100 times",
    "icon": "https://steamcdn-a.akamaihd.net/steamcommunity/public/images/apps/391140/35001590224d892eaffb1c163239786dcbc1b076.jpg",
    "icongray": "https://steamcdn-a.akamaihd.net/steamcommunity/public/images/apps/391140/77590ee1b238f3a2405503119f93d651aa9c703d.jpg"
  },
  {
    "name": "shoots5000",
    "defaultvalue": 0,
    "displayName": "BulletWaster",
    "hidden": 0,
    "description": "Waste 5000 bullets",
    "icon": "https://steamcdn-a.akamaihd.net/steamcommunity/public/images/apps/391140/2899e422f7a92885cbb79e1eb9c9b515e7905a01.jpg",
    "icongray": "https://steamcdn-a.akamaihd.net/steamcommunity/public/images/apps/391140/156bd8641a7290e73ad271f3d814acde1ba3da63.jpg"
  },
  {
    "name": "junior",
    "defaultvalue": 0,
    "displayName": "Junior",
    "hidden": 0,
    "description": "Achieve 5000 Experience",
    "icon": "https://steamcdn-a.akamaihd.net/steamcommunity/public/images/apps/391140/84acf94aac845040313964d45ac89cf20cffe2ae.jpg",
    "icongray": "https://steamcdn-a.akamaihd.net/steamcommunity/public/images/apps/391140/13b4ce7e51020e63d8b4495febdae3d5343779df.jpg"
  },
  {
    "name": "ragequit",
    "defaultvalue": 0,
    "displayName": "RageQuit",
    "hidden": 1,
    "icon": "https://steamcdn-a.akamaihd.net/steamcommunity/public/images/apps/391140/0c24a4578e1b31da503cb9983085b62c0213078e.jpg",
    "icongray": "https://steamcdn-a.akamaihd.net/steamcommunity/public/images/apps/391140/adef07afd0d80baf524e8edd203b71fbd0061e09.jpg"
  },
  {
    "name": "gimmeach",
    "defaultvalue": 0,
    "displayName": "Begged for it",
    "hidden": 0,
    "description": "Easy achievement.",
    "icon": "https://steamcdn-a.akamaihd.net/steamcommunity/public/images/apps/391140/e575f6db015d3c316ace6dae2fdbc6d89d8725eb.jpg",
    "icongray": "https://steamcdn-a.akamaihd.net/steamcommunity/public/images/apps/391140/04b58dcee6cc711b65d05486b4369e75d66e0a0f.jpg"
  },
  {
    "name": "refundit",
    "defaultvalue": 0,
    "displayName": "Want to refund?",
    "hidden": 1,
    "icon": "https://steamcdn-a.akamaihd.net/steamcommunity/public/images/apps/391140/fe7f0bde8b0e9c12e8b246c46935840e3059077f.jpg",
    "icongray": "https://steamcdn-a.akamaihd.net/steamcommunity/public/images/apps/391140/d89b1c03c0d9f8d8d0681e0b6aed1de20a22edc3.jpg"
  },
  {
    "name": "gamesplayed",
    "defaultvalue": 0,
    "displayName": "I Can Stop! I CAN!!!",
    "hidden": 0,
    "description": "Play 500 games",
    "icon": "https://steamcdn-a.akamaihd.net/steamcommunity/public/images/apps/391140/8cdfb3be3155b59049d4490f21115dcf78085b0d.jpg",
    "icongray": "https://steamcdn-a.akamaihd.net/steamcommunity/public/images/apps/391140/24436462da307b517f2d59c1ba8298d1ac26a1f0.jpg"
  },
  {
    "name": "takeallmymoney",
    "defaultvalue": 0,
    "displayName": "And now Take All My Money!",
    "hidden": 0,
    "description": "Skills. Unlock them all!",
    "icon": "https://steamcdn-a.akamaihd.net/steamcommunity/public/images/apps/391140/93f1fcce82ac5db9fc5f49c45d635f3570494460.jpg",
    "icongray": "https://steamcdn-a.akamaihd.net/steamcommunity/public/images/apps/391140/5c3d15c0ef1f7f9b97e958817e662071028a8e02.jpg"
  },
  {
    "name": "tutorial",
    "defaultvalue": 0,
    "displayName": "Hard to learn",
    "hidden": 0,
    "description": "Even harder to master. Nearly impossible to win.",
    "icon": "https://steamcdn-a.akamaihd.net/steamcommunity/public/images/apps/391140/55e0b0e54a0935a20c6ab1e26e96d18aa8208c61.jpg",
    "icongray": "https://steamcdn-a.akamaihd.net/steamcommunity/public/images/apps/391140/fdd03b9591df79f4d20f5a1beb7f404b5e45324d.jpg"
  },
  {
    "name": "junior2",
    "defaultvalue": 0,
    "displayName": "Sublime Junior",
    "hidden": 0,
    "description": "Achieve 5000 Sublime Experience",
    "icon": "https://steamcdn-a.akamaihd.net/steamcommunity/public/images/apps/391140/e44a18539359a94e5cc949f4f40fc8c9c0183566.jpg",
    "icongray": "https://steamcdn-a.akamaihd.net/steamcommunity/public/images/apps/391140/db95547ebf3b4f0f2e638ebb2878ccfc256d8caf.jpg"
  },
  {
    "name": "likeaboss",
    "defaultvalue": 0,
    "displayName": "Like a BOSS",
    "hidden": 0,
    "description": "Destroy this goddamned thing! For the first time...",
    "icon": "https://steamcdn-a.akamaihd.net/steamcommunity/public/images/apps/391140/091ba755788f1992b4a1b0a8a32eb46300e3d5d1.jpg",
    "icongray": "https://steamcdn-a.akamaihd.net/steamcommunity/public/images/apps/391140/0d98d74e71b5cbf637b22fd1a3df6e1241e28710.jpg"
  },
  {
    "name": "supercharged",
    "defaultvalue": 0,
    "displayName": "Supercharged",
    "hidden": 0,
    "description": "Charge yourself from rays of death more than 1000 seconds.",
    "icon": "https://steamcdn-a.akamaihd.net/steamcommunity/public/images/apps/391140/8d3007ed4abe49b394b5b5116abad5c56acfdf61.jpg",
    "icongray": "https://steamcdn-a.akamaihd.net/steamcommunity/public/images/apps/391140/12eaebb34562557df587375d74b77f5714cae6c2.jpg"
  },
  {
    "name": "takemymoney",
    "defaultvalue": 0,
    "displayName": "Shut Up and Take My Money!",
    "hidden": 0,
    "description": "Buy an upgrade",
    "icon": "https://steamcdn-a.akamaihd.net/steamcommunity/public/images/apps/391140/30dcdd872dcc95729e1bbdf58ead4b999c420811.jpg",
    "icongray": "https://steamcdn-a.akamaihd.net/steamcommunity/public/images/apps/391140/693f5c4faac68f0c257bdcf0289a93e0e61789b2.jpg"
  },
  {
    "name": "rocketjump",
    "defaultvalue": 0,
    "displayName": "Rocketjump",
    "hidden": 0,
    "description": "Rockets are capable for jumping too",
    "icon": "https://steamcdn-a.akamaihd.net/steamcommunity/public/images/apps/391140/03deb282809029f24dc483b2525428602f4cdd8b.jpg",
    "icongray": "https://steamcdn-a.akamaihd.net/steamcommunity/public/images/apps/391140/191f688902f880f45449c25b86f77d75093687c0.jpg"
  },
  {
    "name": "fasterthanlight",
    "defaultvalue": 0,
    "displayName": "Faster Than Light",
    "hidden": 0,
    "description": "Reach maximum speed. You can beat it if you want to.",
    "icon": "https://steamcdn-a.akamaihd.net/steamcommunity/public/images/apps/391140/6f0400e34306a05d0e0b109a3db9c1929951ef22.jpg",
    "icongray": "https://steamcdn-a.akamaihd.net/steamcommunity/public/images/apps/391140/60c2088ffbd564bb3e9779e5b0d4b825dc610daf.jpg"
  },
  {
    "name": "devastator",
    "defaultvalue": 0,
    "displayName": "Devastator",
    "hidden": 0,
    "description": "Become a devastator by devastating  with devastation skill 30 enemies at once",
    "icon": "https://steamcdn-a.akamaihd.net/steamcommunity/public/images/apps/391140/cbda69ded988287be0ab5413b30fa3d2753371cb.jpg",
    "icongray": "https://steamcdn-a.akamaihd.net/steamcommunity/public/images/apps/391140/80d6c622745183f0a157459103075caa6c2c28aa.jpg"
  }
]