[
  {
    "name": "TUTOR_NO_DEAD",
    "defaultvalue": 0,
    "displayName": "Good Cadet",
    "hidden": 0,
    "description": "Complete tutorial without dead allies",
    "icon": "https://steamcdn-a.akamaihd.net/steamcommunity/public/images/apps/820240/72091f15cd2a98fa1fd10c44f1c63691deb9e5e9.jpg",
    "icongray": "https://steamcdn-a.akamaihd.net/steamcommunity/public/images/apps/820240/1a4dd8c3d1ad0425a5f7dd46bead5d4efd763e4a.jpg"
  },
  {
    "name": "JUNGLE_NO_DEAD",
    "defaultvalue": 0,
    "displayName": "Successful Evacuation",
    "hidden": 0,
    "description": "Complete evacuation without dead or left behind allies",
    "icon": "https://steamcdn-a.akamaihd.net/steamcommunity/public/images/apps/820240/398730d9e7975754a79902947bf53b58afa5196a.jpg",
    "icongray": "https://steamcdn-a.akamaihd.net/steamcommunity/public/images/apps/820240/1a4dd8c3d1ad0425a5f7dd46bead5d4efd763e4a.jpg"
  },
  {
    "name": "COMPASSION",
    "defaultvalue": 0,
    "displayName": "Compassion",
    "hidden": 0,
    "description": "Save the enemy prisoner during the evacuation",
    "icon": "https://steamcdn-a.akamaihd.net/steamcommunity/public/images/apps/820240/aa9f9ec90008d0c30dfd32f40dc6775d151c47c3.jpg",
    "icongray": "https://steamcdn-a.akamaihd.net/steamcommunity/public/images/apps/820240/7e7bb0aab2c5b588666015768f912d7ca5b1e31c.jpg"
  },
  {
    "name": "COMPLETE_TUTORIAL",
    "defaultvalue": 0,
    "displayName": "In the Army Now",
    "hidden": 0,
    "description": "Survive training",
    "icon": "https://steamcdn-a.akamaihd.net/steamcommunity/public/images/apps/820240/1b16e8e39af5e8ebf5971c187ec1005e7d7fa1b0.jpg",
    "icongray": "https://steamcdn-a.akamaihd.net/steamcommunity/public/images/apps/820240/62f47e2ebf1536ddad421a0d542b14b783715a5c.jpg"
  },
  {
    "name": "COMPLETE_EVACUATION",
    "defaultvalue": 0,
    "displayName": "Evacuation Is Over",
    "hidden": 0,
    "description": "Survive evacuation",
    "icon": "https://steamcdn-a.akamaihd.net/steamcommunity/public/images/apps/820240/9aca72c83a8fd3ac1fcea329dbd5c98b8cdc278c.jpg",
    "icongray": "https://steamcdn-a.akamaihd.net/steamcommunity/public/images/apps/820240/f0e544472c2c445bba457925b743046b106d5d51.jpg"
  },
  {
    "name": "COMPLETE_DDAY",
    "defaultvalue": 0,
    "displayName": "Hell On The Earth",
    "hidden": 0,
    "description": "Survive landing",
    "icon": "https://steamcdn-a.akamaihd.net/steamcommunity/public/images/apps/820240/a1a3eef90ff692bb5af62e724c2487a7c8b17ff4.jpg",
    "icongray": "https://steamcdn-a.akamaihd.net/steamcommunity/public/images/apps/820240/7f243b7900f65a3539345f1e20262115e59ea6c2.jpg"
  },
  {
    "name": "COMPLETE_NIGHT",
    "defaultvalue": 0,
    "displayName": "Nocturnal Animals",
    "hidden": 0,
    "description": "Survive the night raid",
    "icon": "https://steamcdn-a.akamaihd.net/steamcommunity/public/images/apps/820240/468bc41ebf50a87aa3894ae0b1c781e7a7e9af07.jpg",
    "icongray": "https://steamcdn-a.akamaihd.net/steamcommunity/public/images/apps/820240/e6882cd4e75b96701018ed4d729ba2224e98f83b.jpg"
  },
  {
    "name": "COMPLETE_GRASS",
    "defaultvalue": 0,
    "displayName": "Run And Hold",
    "hidden": 0,
    "description": "Survive the chase",
    "icon": "https://steamcdn-a.akamaihd.net/steamcommunity/public/images/apps/820240/bbb01aebb5d35ced5b76769a21502e0e4989e230.jpg",
    "icongray": "https://steamcdn-a.akamaihd.net/steamcommunity/public/images/apps/820240/c499a6e829a74e29601bd9227c8840abc2dcd7e3.jpg"
  },
  {
    "name": "COMPLETE_CITY",
    "defaultvalue": 0,
    "displayName": "Ice And Fire",
    "hidden": 0,
    "description": "Survive in the frozen city",
    "icon": "https://steamcdn-a.akamaihd.net/steamcommunity/public/images/apps/820240/69149402717b05db17e894b84dd988a0c2c7bd06.jpg",
    "icongray": "https://steamcdn-a.akamaihd.net/steamcommunity/public/images/apps/820240/893d667c5704b18a764d18f689ae83cbc30a0416.jpg"
  },
  {
    "name": "COMPLETE_FINAL",
    "defaultvalue": 0,
    "displayName": "Survivor",
    "hidden": 0,
    "description": "Survive the War",
    "icon": "https://steamcdn-a.akamaihd.net/steamcommunity/public/images/apps/820240/164fff4b338fcf6d093acc7b1f2038f999105206.jpg",
    "icongray": "https://steamcdn-a.akamaihd.net/steamcommunity/public/images/apps/820240/12946a311209ccc7e840835698a3098f82962ed2.jpg"
  },
  {
    "name": "ICE_KING",
    "defaultvalue": 0,
    "displayName": "Ice King",
    "hidden": 0,
    "description": "Complete frozen city without dead and left behind allies",
    "icon": "https://steamcdn-a.akamaihd.net/steamcommunity/public/images/apps/820240/55c948ae5cac71fe80057dba5845d8b658fa49ec.jpg",
    "icongray": "https://steamcdn-a.akamaihd.net/steamcommunity/public/images/apps/820240/51ea2113edaf59933ee362fc99689be4be679eb8.jpg"
  },
  {
    "name": "AUTHORS",
    "defaultvalue": 0,
    "displayName": "Press F to Pay Respects",
    "hidden": 0,
    "description": "Pay respect to the authors",
    "icon": "https://steamcdn-a.akamaihd.net/steamcommunity/public/images/apps/820240/4a3c79ed8a6f13065d142ccb42b101d2eaecc742.jpg",
    "icongray": "https://steamcdn-a.akamaihd.net/steamcommunity/public/images/apps/820240/4dc328df47157b27cae164a066d1dc86b450cc40.jpg"
  }
]