{
  "Dlcs": {},
  "Name": "NetStars - VR Goalie Trainer",
  "AppId": "800670",
  "ImageUrl": "https://steamcdn-a.akamaihd.net/steam/apps/800670/header.jpg?t=1522417737",
  "Languages": [
    "english"
  ],
  "Platforms": {
    "windows": true,
    "mac": false,
    "linux": false
  }
}