{
  "Dlcs": {},
  "Name": "Arevoatl Seven Coins",
  "AppId": "861230",
  "ImageUrl": "https://steamcdn-a.akamaihd.net/steam/apps/861230/header.jpg?t=1572367586",
  "Languages": [
    "english",
    "portuguese"
  ],
  "Platforms": {
    "windows": true,
    "mac": false,
    "linux": false
  }
}