{
  "Dlcs": {},
  "Name": "Air Wars",
  "AppId": "1373120",
  "ImageUrl": "https://steamcdn-a.akamaihd.net/steam/apps/1373120/header.jpg?t=1596105972",
  "Languages": [
    "english"
  ],
  "Platforms": {
    "windows": true,
    "mac": false,
    "linux": false
  }
}