[
  {
    "name": "puzzle_counter",
    "defaultvalue": 0,
    "displayName": "puzzle_counter"
  },
  {
    "name": "balloon_counter",
    "defaultvalue": 0,
    "displayName": "balloon_counter"
  },
  {
    "name": "clown_counter",
    "defaultvalue": 0,
    "displayName": "clown_counter"
  },
  {
    "name": "seat_counter",
    "defaultvalue": 0,
    "displayName": "seat_count"
  },
  {
    "name": "multi_counter",
    "defaultvalue": 0,
    "displayName": "multi_count"
  },
  {
    "name": "unbreak_counter",
    "defaultvalue": 0,
    "displayName": "unbreak_count"
  },
  {
    "name": "blackhole_counter",
    "defaultvalue": 0,
    "displayName": "blackhole_counter"
  },
  {
    "name": "levels",
    "defaultvalue": 0,
    "displayName": "levels"
  },
  {
    "name": "gamemode",
    "defaultvalue": 0,
    "displayName": "gamemode"
  },
  {
    "name": "xmass",
    "defaultvalue": 0,
    "displayName": "xmass"
  }
]