[
  {
    "name": "Complete_R020",
    "defaultvalue": 0,
    "displayName": "Autophobia",
    "hidden": 0,
    "description": "Meet Ariadne",
    "icon": "https://steamcdn-a.akamaihd.net/steamcommunity/public/images/apps/677330/8ba02091b4ec66bfc762d7d9e1b023a5768036c6.jpg",
    "icongray": "https://steamcdn-a.akamaihd.net/steamcommunity/public/images/apps/677330/2cd5726eb50b7e01865a493ac19182e4f0b09d05.jpg"
  },
  {
    "name": "Complete_R030",
    "defaultvalue": 0,
    "displayName": "Arachnophobia",
    "hidden": 0,
    "description": "Survive the offspring of the Minotaur",
    "icon": "https://steamcdn-a.akamaihd.net/steamcommunity/public/images/apps/677330/26a20390e0337ebb010f5b074941e85833e26c92.jpg",
    "icongray": "https://steamcdn-a.akamaihd.net/steamcommunity/public/images/apps/677330/8f9105bbaae531f733ffb455c00bbd77beb62da5.jpg"
  },
  {
    "name": "Complete_R060",
    "defaultvalue": 0,
    "displayName": "Megalophobia",
    "hidden": 0,
    "description": "Survive the charge of the Minotaur",
    "icon": "https://steamcdn-a.akamaihd.net/steamcommunity/public/images/apps/677330/071f219666b3bc9609573abcd7fb3b67a07c0f4e.jpg",
    "icongray": "https://steamcdn-a.akamaihd.net/steamcommunity/public/images/apps/677330/b2ac5ff876b8feaa8b76160711153a763054b73a.jpg"
  },
  {
    "name": "Complete_R071",
    "defaultvalue": 0,
    "displayName": "Scopophobia",
    "hidden": 0,
    "description": "Elude the Minotaur on the balconies",
    "icon": "https://steamcdn-a.akamaihd.net/steamcommunity/public/images/apps/677330/7f7e073792ca1fcaf0a7b006014df79b22ad646c.jpg",
    "icongray": "https://steamcdn-a.akamaihd.net/steamcommunity/public/images/apps/677330/66c7f603d9f9f6417446cd594db464e2c0c7e9ce.jpg"
  },
  {
    "name": "Complete_R072",
    "defaultvalue": 0,
    "displayName": "Agoraphobia",
    "hidden": 0,
    "description": "Hit the Minotaur three times",
    "icon": "https://steamcdn-a.akamaihd.net/steamcommunity/public/images/apps/677330/72b9cb9befb34e41a0a07ad994ebe0bdda233310.jpg",
    "icongray": "https://steamcdn-a.akamaihd.net/steamcommunity/public/images/apps/677330/61ba7e78f5c750b2a6c4ca4e91b9508381573bc9.jpg"
  },
  {
    "name": "Complete_R080",
    "defaultvalue": 0,
    "displayName": "Selaphobia",
    "hidden": 0,
    "description": "Defeat the Minotaur",
    "icon": "https://steamcdn-a.akamaihd.net/steamcommunity/public/images/apps/677330/366be1f320b49f8b1fd1f63bf0bd03fed6224883.jpg",
    "icongray": "https://steamcdn-a.akamaihd.net/steamcommunity/public/images/apps/677330/c9db07d85adda5e5a4a2214b513e4706f1cf8788.jpg"
  },
  {
    "name": "See_Credits",
    "defaultvalue": 0,
    "displayName": "Athazagoraphobia",
    "hidden": 1,
    "icon": "https://steamcdn-a.akamaihd.net/steamcommunity/public/images/apps/677330/9f249e6b5fc7021927593adea3e7ee3aac64460b.jpg",
    "icongray": "https://steamcdn-a.akamaihd.net/steamcommunity/public/images/apps/677330/eb93edae81e8164aee5efc75b817a18f3a037e29.jpg"
  },
  {
    "name": "Kill_With_Fire",
    "defaultvalue": 0,
    "displayName": "Pyrophobia",
    "hidden": 1,
    "icon": "https://steamcdn-a.akamaihd.net/steamcommunity/public/images/apps/677330/59736e462f21217f807691cbaad0b9d56499561b.jpg",
    "icongray": "https://steamcdn-a.akamaihd.net/steamcommunity/public/images/apps/677330/cb36ecb8b60ef7b122244f2abac1dd0077b777f8.jpg"
  },
  {
    "name": "Disobey_Ariadne",
    "defaultvalue": 0,
    "displayName": "Hamartophobia",
    "hidden": 1,
    "icon": "https://steamcdn-a.akamaihd.net/steamcommunity/public/images/apps/677330/d83664f600ea8ace21c3c47917119c2db7650bc8.jpg",
    "icongray": "https://steamcdn-a.akamaihd.net/steamcommunity/public/images/apps/677330/9f1abb93526de8042964a60d16251267c8c127c5.jpg"
  },
  {
    "name": "Light_Braziers",
    "defaultvalue": 0,
    "displayName": "Photophobia",
    "hidden": 1,
    "icon": "https://steamcdn-a.akamaihd.net/steamcommunity/public/images/apps/677330/7812395e746e41b7203eb9c3a3ac90a8348b5177.jpg",
    "icongray": "https://steamcdn-a.akamaihd.net/steamcommunity/public/images/apps/677330/2dc4d04c29565cd6195e6dfff04f28e006ae1d18.jpg"
  },
  {
    "name": "Bad_Ending",
    "defaultvalue": 0,
    "displayName": "Apeirophobia",
    "hidden": 1,
    "icon": "https://steamcdn-a.akamaihd.net/steamcommunity/public/images/apps/677330/456c8f34ada5b41001d86af67f9f830573e48ab5.jpg",
    "icongray": "https://steamcdn-a.akamaihd.net/steamcommunity/public/images/apps/677330/a83d34d0132db5329f45fa1a0988a54d5fa16575.jpg"
  },
  {
    "name": "All_Corpses",
    "defaultvalue": 0,
    "displayName": "Necrophobia",
    "hidden": 1,
    "icon": "https://steamcdn-a.akamaihd.net/steamcommunity/public/images/apps/677330/817af8ba13694c259bae64e708401e39e20c466a.jpg",
    "icongray": "https://steamcdn-a.akamaihd.net/steamcommunity/public/images/apps/677330/c5d7ad30c8b250dc74a734d219e7da1acc85a5b8.jpg"
  },
  {
    "name": "Good_Ending",
    "defaultvalue": 0,
    "displayName": "Hormephobia",
    "hidden": 1,
    "icon": "https://steamcdn-a.akamaihd.net/steamcommunity/public/images/apps/677330/a64b4b7bfc1d9376b4b158e114a2496cdcbec0f1.jpg",
    "icongray": "https://steamcdn-a.akamaihd.net/steamcommunity/public/images/apps/677330/77a39dd99cbc161306a6cbdd981f09e22cea6aff.jpg"
  }
]