[
  {
    "name": "ACH_WIN",
    "defaultvalue": 0,
    "displayName": "Into Darkness",
    "hidden": 0,
    "description": "Finish the journey.",
    "icon": "https://steamcdn-a.akamaihd.net/steamcommunity/public/images/apps/1057720/965313b7fa81729bbf15bd0db085326638bc18c7.jpg",
    "icongray": "https://steamcdn-a.akamaihd.net/steamcommunity/public/images/apps/1057720/8c195367bf5fe307661914cb4cd3178a47ce5a20.jpg"
  },
  {
    "name": "ACH_LOOP",
    "defaultvalue": 0,
    "displayName": "Insanity",
    "hidden": 0,
    "description": "Do the same thing over and over, expecting different results.",
    "icon": "https://steamcdn-a.akamaihd.net/steamcommunity/public/images/apps/1057720/a2511ff97bb66ffaf8a10557b1cd0398057b548c.jpg",
    "icongray": "https://steamcdn-a.akamaihd.net/steamcommunity/public/images/apps/1057720/9dc397b4e38f707c8fe46399ccb6ba841b7e3081.jpg"
  },
  {
    "name": "ACH_CHARGE",
    "defaultvalue": 0,
    "displayName": "Overcharged",
    "hidden": 0,
    "description": "Recharge the flashlight 1000 times in a single playthrough.",
    "icon": "https://steamcdn-a.akamaihd.net/steamcommunity/public/images/apps/1057720/3b7f62f0f42a0b1feae04f21c7fcf253f623b28e.jpg",
    "icongray": "https://steamcdn-a.akamaihd.net/steamcommunity/public/images/apps/1057720/d4ecb08c55f15b439e81855b3cc2d1288201a177.jpg"
  },
  {
    "name": "ACH_EYE_SHINE",
    "defaultvalue": 0,
    "displayName": "Trigger Discipline",
    "hidden": 0,
    "description": "Stare down the barrel of your own gun.",
    "icon": "https://steamcdn-a.akamaihd.net/steamcommunity/public/images/apps/1057720/47948d5bad4435c425ef46660da1ee968f07aa02.jpg",
    "icongray": "https://steamcdn-a.akamaihd.net/steamcommunity/public/images/apps/1057720/f18ecf7539cbabd1677ad1703e6ac93f21df09c7.jpg"
  },
  {
    "name": "ACH_CLOSE",
    "defaultvalue": 0,
    "displayName": "Close Call",
    "hidden": 0,
    "description": "Escape at the last moment-- just like in the movies!",
    "icon": "https://steamcdn-a.akamaihd.net/steamcommunity/public/images/apps/1057720/92c42dd9e25e075e160d2468111bcf256f1d360a.jpg",
    "icongray": "https://steamcdn-a.akamaihd.net/steamcommunity/public/images/apps/1057720/5a3a59fcef09ef31ae38f862c978901629194a6e.jpg"
  },
  {
    "name": "ACH_SCARE",
    "defaultvalue": 0,
    "displayName": "Exposure",
    "hidden": 0,
    "description": "Endure all the scares.",
    "icon": "https://steamcdn-a.akamaihd.net/steamcommunity/public/images/apps/1057720/432bc1f66b2b8c08b9a60053e509fbb81c312482.jpg",
    "icongray": "https://steamcdn-a.akamaihd.net/steamcommunity/public/images/apps/1057720/419bcbaf57d3d15e016f313d92b7f5184aecd5bf.jpg"
  }
]