[
  {
    "name": "EJD11stLevelCombo",
    "defaultvalue": 0,
    "displayName": "COMBO KING!",
    "hidden": 0,
    "description": "Get a level Combo Star",
    "icon": "https://steamcdn-a.akamaihd.net/steamcommunity/public/images/apps/229890/d902eee4b810d0bab5d191b8ac28642b63e36c79.jpg",
    "icongray": "https://steamcdn-a.akamaihd.net/steamcommunity/public/images/apps/229890/588e76eaefe00bbdae87679a9d16afb8ecdf7f17.jpg"
  },
  {
    "name": "EJD11stTimeStar",
    "defaultvalue": 0,
    "displayName": "SPEED DEMON!",
    "hidden": 0,
    "description": "Get a Time Star",
    "icon": "https://steamcdn-a.akamaihd.net/steamcommunity/public/images/apps/229890/5c5980d7c818e0618b98304332c612a6c53994ab.jpg",
    "icongray": "https://steamcdn-a.akamaihd.net/steamcommunity/public/images/apps/229890/66262f1bf183b61c5a16d8089e2e1a81b50f6ba4.jpg"
  },
  {
    "name": "ETrophyHiddenStars",
    "defaultvalue": 0,
    "displayName": "DETECTIVE!",
    "hidden": 0,
    "description": "Find 3 Hidden Stars",
    "icon": "https://steamcdn-a.akamaihd.net/steamcommunity/public/images/apps/229890/25951947333a59d99a7d4ad3bc28d070e5a2a533.jpg",
    "icongray": "https://steamcdn-a.akamaihd.net/steamcommunity/public/images/apps/229890/d6cdcab49b3f439f1c0e21259ee8ee387605a668.jpg"
  },
  {
    "name": "EJD1TrophyCoinDashStars",
    "defaultvalue": 0,
    "displayName": "MONEY GRABBER!",
    "hidden": 0,
    "description": "Get 5 Coin Dash stars",
    "icon": "https://steamcdn-a.akamaihd.net/steamcommunity/public/images/apps/229890/86d45cc16d053f47842175091547634354d87dd6.jpg",
    "icongray": "https://steamcdn-a.akamaihd.net/steamcommunity/public/images/apps/229890/c50f146f4c76f2ca66bd6311f94602cd4681a1bb.jpg"
  },
  {
    "name": "EJD1TrophyTargetStars",
    "defaultvalue": 0,
    "displayName": "STAY ON TARGET!",
    "hidden": 0,
    "description": "Get 5 Target Stars",
    "icon": "https://steamcdn-a.akamaihd.net/steamcommunity/public/images/apps/229890/16520c48810ece931555e44d5735c697ae4fd335.jpg",
    "icongray": "https://steamcdn-a.akamaihd.net/steamcommunity/public/images/apps/229890/e34f692f34ae70d1da32fd79beec1904ba6ddef0.jpg"
  },
  {
    "name": "ETrophyMiniStars",
    "defaultvalue": 0,
    "displayName": "COLLECTOR",
    "hidden": 0,
    "description": "Collect all Pickups on 8 levels",
    "icon": "https://steamcdn-a.akamaihd.net/steamcommunity/public/images/apps/229890/476aa4dbf5ebf33d266f29dc91086ad82547a156.jpg",
    "icongray": "https://steamcdn-a.akamaihd.net/steamcommunity/public/images/apps/229890/a5fbe80d7c59f3eeccabc8cc490b8246fafa2403.jpg"
  },
  {
    "name": "ETrophySendLevels",
    "defaultvalue": 0,
    "displayName": "SHARE THE FUN!",
    "hidden": 0,
    "description": "Send 1 level to a friend",
    "icon": "https://steamcdn-a.akamaihd.net/steamcommunity/public/images/apps/229890/a6c1acf888f5578cc994637446ebe15723a7d1db.jpg",
    "icongray": "https://steamcdn-a.akamaihd.net/steamcommunity/public/images/apps/229890/5480efea0fb8a89c4abd612a7bbcb8c014ac268e.jpg"
  },
  {
    "name": "ETrophyReceiveLevels",
    "defaultvalue": 0,
    "displayName": "BEAT THEM AT THEIR OWN GAME!",
    "hidden": 0,
    "description": "Receive 1 level from a friend",
    "icon": "https://steamcdn-a.akamaihd.net/steamcommunity/public/images/apps/229890/a2e0095145addd2c1fa63ba0aaaedab5631f247c.jpg",
    "icongray": "https://steamcdn-a.akamaihd.net/steamcommunity/public/images/apps/229890/cccf450f3e00688bda44088a201fc785e2568a62.jpg"
  },
  {
    "name": "ETrophyTimeStars",
    "defaultvalue": 0,
    "displayName": "ALL THE TIME IN THE WORLD!",
    "hidden": 0,
    "description": "Get 15 Time Stars",
    "icon": "https://steamcdn-a.akamaihd.net/steamcommunity/public/images/apps/229890/30575dd8b1e7b0e855a2bb4c162aedc2203234cc.jpg",
    "icongray": "https://steamcdn-a.akamaihd.net/steamcommunity/public/images/apps/229890/9587d2c0ad23b0a23afbd089a525f4f05fbffe54.jpg"
  },
  {
    "name": "ETrophyComboStars",
    "defaultvalue": 0,
    "displayName": "TRICK MASTER!",
    "hidden": 0,
    "description": "Get 30 Combo Stars",
    "icon": "https://steamcdn-a.akamaihd.net/steamcommunity/public/images/apps/229890/b51774f60cf268b3294f231bb69c4885e2c1f7cc.jpg",
    "icongray": "https://steamcdn-a.akamaihd.net/steamcommunity/public/images/apps/229890/34cae63db50d8b0a42e6d16c78dbe3550e53d246.jpg"
  },
  {
    "name": "ETrophy100Combo",
    "defaultvalue": 0,
    "displayName": "MEGA COMBO!",
    "hidden": 0,
    "description": "Get a x40 combo",
    "icon": "https://steamcdn-a.akamaihd.net/steamcommunity/public/images/apps/229890/11914a7ba53cf0abe7ad90cf5edeee34effed955.jpg",
    "icongray": "https://steamcdn-a.akamaihd.net/steamcommunity/public/images/apps/229890/23b14c30587afee91e6ad62265fe1202cd5edb58.jpg"
  },
  {
    "name": "ETrophyNinjaStar",
    "defaultvalue": 0,
    "displayName": "NINJA STARS!",
    "hidden": 0,
    "description": "Get 4 stars in one run",
    "icon": "https://steamcdn-a.akamaihd.net/steamcommunity/public/images/apps/229890/9117e3dd23ecd800e9d9f09344a68d674548aeae.jpg",
    "icongray": "https://steamcdn-a.akamaihd.net/steamcommunity/public/images/apps/229890/bd341c318c73c4f8163243c177402d4017865dfd.jpg"
  },
  {
    "name": "EJD1TrophyFinishFirstTour",
    "defaultvalue": 0,
    "displayName": "BACK ON THE BIKE",
    "hidden": 0,
    "description": "Complete the first two levels",
    "icon": "https://steamcdn-a.akamaihd.net/steamcommunity/public/images/apps/229890/8bbdfad7c5c655d789e3db61462835376cc96738.jpg",
    "icongray": "https://steamcdn-a.akamaihd.net/steamcommunity/public/images/apps/229890/1bd57114a33b8ff69b4caae347548f610efbeb3c.jpg"
  },
  {
    "name": "EJD1TrophyFinishAllLevels",
    "defaultvalue": 0,
    "displayName": "AROUND THE WORLD!",
    "hidden": 0,
    "description": "Play until the credits roll!",
    "icon": "https://steamcdn-a.akamaihd.net/steamcommunity/public/images/apps/229890/71da405288e6d3c5f2376464f9236098e8cedc01.jpg",
    "icongray": "https://steamcdn-a.akamaihd.net/steamcommunity/public/images/apps/229890/a22b47142e293255a49df80e604713f7e0586d58.jpg"
  },
  {
    "name": "ETrophyAllStars",
    "defaultvalue": 0,
    "displayName": "DANGER IS MY MIDDLE NAME",
    "hidden": 0,
    "description": "So dangerous they named him twice! Collect all stars in career mode.",
    "icon": "https://steamcdn-a.akamaihd.net/steamcommunity/public/images/apps/229890/2b09f38ac326d9e48cf175fa75bcd4be57a0b1f9.jpg",
    "icongray": "https://steamcdn-a.akamaihd.net/steamcommunity/public/images/apps/229890/08ad8983479e9d3e5e9e1a5a02b6fa0c440f5125.jpg"
  },
  {
    "name": "EJD1TrophyLabTour1",
    "defaultvalue": 0,
    "displayName": "MAESTRO OF MADNESS!",
    "hidden": 0,
    "description": "Conquer the first challenges in the lab to become the Maestro of Madness!",
    "icon": "https://steamcdn-a.akamaihd.net/steamcommunity/public/images/apps/229890/b5eb148ddc92861ad61f33ebb84c36144efe6e70.jpg",
    "icongray": "https://steamcdn-a.akamaihd.net/steamcommunity/public/images/apps/229890/906f1c3934d90d66fd5fabab87bd8bbf0aadb0c1.jpg"
  },
  {
    "name": "EJD1TrophyLabTour2",
    "defaultvalue": 0,
    "displayName": "COMMANDER OF CATASTROPHE!",
    "hidden": 0,
    "description": "Crash through the second lab tour to become the Commander of Catastrophe!",
    "icon": "https://steamcdn-a.akamaihd.net/steamcommunity/public/images/apps/229890/05f0db9d08be45ce14737dfa21c5f2c30d0a2899.jpg",
    "icongray": "https://steamcdn-a.akamaihd.net/steamcommunity/public/images/apps/229890/62e446535a66aa2ea51b673e836693dc0481eb53.jpg"
  },
  {
    "name": "EJD1TrophyLabTour3",
    "defaultvalue": 0,
    "displayName": "DUKE OF DESTRUCTION!",
    "hidden": 0,
    "description": "Duck and dive through the third lab tour to become the Duke of Destruction!",
    "icon": "https://steamcdn-a.akamaihd.net/steamcommunity/public/images/apps/229890/3195a9334626633ec6f647e61f4624ccba036ff4.jpg",
    "icongray": "https://steamcdn-a.akamaihd.net/steamcommunity/public/images/apps/229890/7b861ec9e5dd9be61c6b766096cf2a931f2610a3.jpg"
  },
  {
    "name": "EJD1TrophyLabTour4",
    "defaultvalue": 0,
    "displayName": "KING OF CHAOS!",
    "hidden": 0,
    "description": "Conclude the fourth lab tour to be crowned the King of Chaos!",
    "icon": "https://steamcdn-a.akamaihd.net/steamcommunity/public/images/apps/229890/0390bc084b6c7c2a1197560397905d642dffba5f.jpg",
    "icongray": "https://steamcdn-a.akamaihd.net/steamcommunity/public/images/apps/229890/2ebc9943b2b28229ee7f5bb2ab48350178bab0e2.jpg"
  },
  {
    "name": "EJD1TrophyLabTour5",
    "defaultvalue": 0,
    "displayName": "MASTER OF DISASTER!",
    "hidden": 0,
    "description": "Attain the ultimate title of Master of Disaster!",
    "icon": "https://steamcdn-a.akamaihd.net/steamcommunity/public/images/apps/229890/24e7304d9016c18fd72921fcd84378ccb9de5d0a.jpg",
    "icongray": "https://steamcdn-a.akamaihd.net/steamcommunity/public/images/apps/229890/6b00249b474cc5de809fa0c3d901217120215a57.jpg"
  }
]