{
  "Dlcs": {},
  "Name": "The House in the Forest",
  "AppId": "1242910",
  "ImageUrl": "https://steamcdn-a.akamaihd.net/steam/apps/1242910/header.jpg?t=1582617008",
  "Languages": [
    "english",
    "japanese"
  ],
  "Platforms": {
    "windows": true,
    "mac": false,
    "linux": false
  }
}