﻿{
  "Dlcs": {},
  "Name": "Zamarian",
  "AppId": "429120",
  "ImageUrl": "https://steamcdn-a.akamaihd.net/steam/apps/429120/header.jpg?t=1485897888",
  "Languages": [
    "english"
  ],
  "Platforms": {
    "windows": true,
    "mac": true,
    "linux": true
  }
}