{
  "Dlcs": {},
  "Name": "Hard to be a King",
  "AppId": "1104690",
  "ImageUrl": "https://steamcdn-a.akamaihd.net/steam/apps/1104690/header.jpg?t=1594126695",
  "Languages": [
    "english",
    "schinese"
  ],
  "Platforms": {
    "windows": true,
    "mac": false,
    "linux": false
  }
}