{
  "Dlcs": {},
  "Name": "Santa's Big Sack",
  "AppId": "1197350",
  "ImageUrl": "https://steamcdn-a.akamaihd.net/steam/apps/1197350/header.jpg?t=1580158298",
  "Languages": [
    "english"
  ],
  "Platforms": {
    "windows": true,
    "mac": false,
    "linux": false
  }
}