{
  "Dlcs": {},
  "Name": "Jungle Juggle",
  "AppId": "844580",
  "ImageUrl": "https://steamcdn-a.akamaihd.net/steam/apps/844580/header.jpg?t=1527535247",
  "Languages": [
    "english"
  ],
  "Platforms": {
    "windows": true,
    "mac": false,
    "linux": false
  }
}