﻿[
  {
    "name": "Crate_Idea",
    "defaultvalue": 0,
    "displayName": "Crate Idea",
    "hidden": 0,
    "description": "Escape the MS Undeliverable",
    "icon": "https://steamcdn-a.akamaihd.net/steamcommunity/public/images/apps/317320/6feb92488fbb5f33e7835f397f21845b408e72f0.jpg",
    "icongray": "https://steamcdn-a.akamaihd.net/steamcommunity/public/images/apps/317320/99a36de1b8079ddcba5e866a04f4d529be32b811.jpg"
  },
  {
    "name": "Local_Colour",
    "defaultvalue": 0,
    "displayName": "Local Colour",
    "hidden": 0,
    "description": "Meet the denizens of the Toff Races",
    "icon": "https://steamcdn-a.akamaihd.net/steamcommunity/public/images/apps/317320/ff2d8e44e718fad4f10d56d74ec85d08455d73fa.jpg",
    "icongray": "https://steamcdn-a.akamaihd.net/steamcommunity/public/images/apps/317320/4cba865437e17476d1daf4bfac72497dcc59d0b0.jpg"
  },
  {
    "name": "Hedge_Your_Bets",
    "defaultvalue": 0,
    "displayName": "Hedge Your Bets",
    "hidden": 0,
    "description": "Make sure everyone's a winner",
    "icon": "https://steamcdn-a.akamaihd.net/steamcommunity/public/images/apps/317320/476ccda426e0524e22126048ab3fdc109b488a6c.jpg",
    "icongray": "https://steamcdn-a.akamaihd.net/steamcommunity/public/images/apps/317320/f6bc3ad01646ee7946d042b220fc3070cfd7daa8.jpg"
  },
  {
    "name": "Sell_Out",
    "defaultvalue": 0,
    "displayName": "Sell Out",
    "hidden": 0,
    "description": "Join the Merchant Navy",
    "icon": "https://steamcdn-a.akamaihd.net/steamcommunity/public/images/apps/317320/5e501187b96677d8a83447b91211e9439e50c69c.jpg",
    "icongray": "https://steamcdn-a.akamaihd.net/steamcommunity/public/images/apps/317320/d2f2f6e27284451283c3fe12a56ea569046834bb.jpg"
  },
  {
    "name": "Tug_of_War",
    "defaultvalue": 0,
    "displayName": "Tug of War",
    "hidden": 0,
    "description": "Make the lookout see a harmless tug boat",
    "icon": "https://steamcdn-a.akamaihd.net/steamcommunity/public/images/apps/317320/aecb6c6a8c20b86d30f6b2b7d849ee36fa82667b.jpg",
    "icongray": "https://steamcdn-a.akamaihd.net/steamcommunity/public/images/apps/317320/daf47aa6fcd5b82569ea399169fdb58d80e77c85.jpg"
  },
  {
    "name": "Folk_Hero",
    "defaultvalue": 0,
    "displayName": "Folk Hero",
    "hidden": 0,
    "description": "Wrap your ears around all of Spry's groove",
    "icon": "https://steamcdn-a.akamaihd.net/steamcommunity/public/images/apps/317320/2a02359091adac52cb7d1ea1e03e3c3620e751fc.jpg",
    "icongray": "https://steamcdn-a.akamaihd.net/steamcommunity/public/images/apps/317320/3b795e15aed7839ad902f20746335a7be146b66d.jpg"
  },
  {
    "name": "Hidden_Object",
    "defaultvalue": 0,
    "displayName": "Hidden Object",
    "hidden": 0,
    "description": "Catalogue all the stolen goods",
    "icon": "https://steamcdn-a.akamaihd.net/steamcommunity/public/images/apps/317320/ea1324310828acc44c067c6e2ac97ed41f4611ad.jpg",
    "icongray": "https://steamcdn-a.akamaihd.net/steamcommunity/public/images/apps/317320/c7dbb733ed6d0c3affe0069da483723db5244467.jpg"
  },
  {
    "name": "Great_Gamer_of_the_Sea",
    "defaultvalue": 0,
    "displayName": "Great Gamer of the Sea",
    "hidden": 0,
    "description": "Trounce Moses Melly first time around",
    "icon": "https://steamcdn-a.akamaihd.net/steamcommunity/public/images/apps/317320/a542b5243e1067cc917f3f7886e837f9ae1e9dfa.jpg",
    "icongray": "https://steamcdn-a.akamaihd.net/steamcommunity/public/images/apps/317320/8d2b8bd0060e091fc9e4b64fdd299e2ad59b77bb.jpg"
  },
  {
    "name": "Feedback_Loop",
    "defaultvalue": 0,
    "displayName": "Feedback Loop",
    "hidden": 0,
    "description": "When two seashells come together",
    "icon": "https://steamcdn-a.akamaihd.net/steamcommunity/public/images/apps/317320/2505f1a235a1498ecb7554de9ecb62ec5935e21d.jpg",
    "icongray": "https://steamcdn-a.akamaihd.net/steamcommunity/public/images/apps/317320/b99f90993932d6ab66eb3607f5568d8150ace879.jpg"
  },
  {
    "name": "Junk_Junkie",
    "defaultvalue": 0,
    "displayName": "Junk Junkie",
    "hidden": 0,
    "description": "Keep your eyes peeled in Chinatown",
    "icon": "https://steamcdn-a.akamaihd.net/steamcommunity/public/images/apps/317320/ada7c0daa9790cf042b21b13d9b14279cbb8eaac.jpg",
    "icongray": "https://steamcdn-a.akamaihd.net/steamcommunity/public/images/apps/317320/c022432a35a461117d79c73e77b65b61beba611c.jpg"
  },
  {
    "name": "Mood_Swings",
    "defaultvalue": 0,
    "displayName": "Mood Swings",
    "hidden": 0,
    "description": "Become an aromatic master manipulator",
    "icon": "https://steamcdn-a.akamaihd.net/steamcommunity/public/images/apps/317320/9ba27763dd97b899f6bc26abce1e575a7cab4110.jpg",
    "icongray": "https://steamcdn-a.akamaihd.net/steamcommunity/public/images/apps/317320/a2a867afdf08d133b91497db6557aa3ce3d142b8.jpg"
  },
  {
    "name": "Borrower",
    "defaultvalue": 0,
    "displayName": "Borrower",
    "hidden": 0,
    "description": "Don't forget to return what you borrow",
    "icon": "https://steamcdn-a.akamaihd.net/steamcommunity/public/images/apps/317320/a42e881e983104d186b6b314799d075e0a06e665.jpg",
    "icongray": "https://steamcdn-a.akamaihd.net/steamcommunity/public/images/apps/317320/ecd6054fa6558bca0d150c2ef25409c2b2be14e4.jpg"
  },
  {
    "name": "Take_Flight",
    "defaultvalue": 0,
    "displayName": "Take Flight",
    "hidden": 0,
    "description": "Track down Widebeard's Fowl Fleet",
    "icon": "https://steamcdn-a.akamaihd.net/steamcommunity/public/images/apps/317320/59aeb5eb62945519598ae54f229098ba3d8995c7.jpg",
    "icongray": "https://steamcdn-a.akamaihd.net/steamcommunity/public/images/apps/317320/0bbf42d1432bc1b8fc12a373d54d3cc2bf027bf6.jpg"
  },
  {
    "name": "Bang_Bang",
    "defaultvalue": 0,
    "displayName": "Bang! Bang!",
    "hidden": 0,
    "description": "Shoot down all the varmints on your first attempt",
    "icon": "https://steamcdn-a.akamaihd.net/steamcommunity/public/images/apps/317320/cac1c923b43680b393792b2ae119cdb6b0f63c75.jpg",
    "icongray": "https://steamcdn-a.akamaihd.net/steamcommunity/public/images/apps/317320/804eadce6dc1d8f103b75c7781c1a33aa24e3581.jpg"
  },
  {
    "name": "Man_Perch",
    "defaultvalue": 0,
    "displayName": "Man Perch",
    "hidden": 0,
    "description": "Interview the head Ptarmigan's supporter",
    "icon": "https://steamcdn-a.akamaihd.net/steamcommunity/public/images/apps/317320/954f8c432a0078bff3f59ee8e4e18e4fedd771dc.jpg",
    "icongray": "https://steamcdn-a.akamaihd.net/steamcommunity/public/images/apps/317320/498bd8da3e98391371349baf0a896d593a7f4cd8.jpg"
  },
  {
    "name": "Headstones",
    "defaultvalue": 0,
    "displayName": "Headstones",
    "hidden": 0,
    "description": "Take an interest in Gloomholm's deceased citizens",
    "icon": "https://steamcdn-a.akamaihd.net/steamcommunity/public/images/apps/317320/4ef84f235c3222953a28927889743e34dc3dfb87.jpg",
    "icongray": "https://steamcdn-a.akamaihd.net/steamcommunity/public/images/apps/317320/c9ab683313e3d58053c51be32d5644eab10e4502.jpg"
  },
  {
    "name": "Old_Geyser",
    "defaultvalue": 0,
    "displayName": "Old Geyser",
    "hidden": 0,
    "description": "Fulfil an ancient prophecy",
    "icon": "https://steamcdn-a.akamaihd.net/steamcommunity/public/images/apps/317320/5318407efc48861650c17c6c6fda88489a4a6341.jpg",
    "icongray": "https://steamcdn-a.akamaihd.net/steamcommunity/public/images/apps/317320/2a538686696519d7769393929034cbe61c93d05b.jpg"
  },
  {
    "name": "Conversationalist",
    "defaultvalue": 0,
    "displayName": "Conversationalist",
    "hidden": 0,
    "description": "Find out what Sebastian thinks about 20 characters",
    "icon": "https://steamcdn-a.akamaihd.net/steamcommunity/public/images/apps/317320/f933d4320944b641bd51d0c77f942bb5d0d1edf2.jpg",
    "icongray": "https://steamcdn-a.akamaihd.net/steamcommunity/public/images/apps/317320/29052d2aef0ed9f521ecce504fc070443b40498d.jpg"
  },
  {
    "name": "New_Navigator",
    "defaultvalue": 0,
    "displayName": "New Navigator",
    "hidden": 0,
    "description": "Recruit an unexpected crewmember",
    "icon": "https://steamcdn-a.akamaihd.net/steamcommunity/public/images/apps/317320/1afbc102ce34be650eceb44dcba1c37d83765e6c.jpg",
    "icongray": "https://steamcdn-a.akamaihd.net/steamcommunity/public/images/apps/317320/843cb845f6aecc48a352b4ee3444815a3ab26f36.jpg"
  },
  {
    "name": "Timewaster",
    "defaultvalue": 0,
    "displayName": "Timewaster",
    "hidden": 0,
    "description": "Unlock all achievements in Nelly Cootalot: The Fowl Fleet",
    "icon": "https://steamcdn-a.akamaihd.net/steamcommunity/public/images/apps/317320/ebfb85c24bab23c9c0d9bc8545645dee1399755a.jpg",
    "icongray": "https://steamcdn-a.akamaihd.net/steamcommunity/public/images/apps/317320/5be31ef3220890679257cb20f0f73d87b4666b22.jpg"
  }
]