{
  "Dlcs": {},
  "Name": "Premier Manager 08",
  "AppId": "1272000",
  "ImageUrl": "https://steamcdn-a.akamaihd.net/steam/apps/1272000/header.jpg?t=1593170904",
  "Languages": [
    "english",
    "french",
    "italian",
    "german"
  ],
  "Platforms": {
    "windows": true,
    "mac": false,
    "linux": false
  }
}