{
  "Dlcs": {},
  "Name": "HUMANKIND™ - OpenDev",
  "AppId": "1271140",
  "ImageUrl": "https://steamcdn-a.akamaihd.net/steam/apps/1271140/header.jpg?t=1596014427",
  "Languages": [
    "english"
  ],
  "Platforms": {
    "windows": true,
    "mac": false,
    "linux": false
  }
}