{
  "Dlcs": {},
  "Name": "Dark Strokes: The Legend of the Snow Kingdom Collector’s Edition",
  "AppId": "765690",
  "ImageUrl": "https://steamcdn-a.akamaihd.net/steam/apps/765690/header.jpg?t=1595331698",
  "Languages": [
    "english",
    "french",
    "german",
    "korean",
    "dutch",
    "polish",
    "russian",
    "japanese",
    "czech"
  ],
  "Platforms": {
    "windows": true,
    "mac": false,
    "linux": false
  }
}