{
  "Dlcs": {},
  "Name": "ORBITOR",
  "AppId": "336220",
  "ImageUrl": "https://steamcdn-a.akamaihd.net/steam/apps/336220/header.jpg?t=1502507280",
  "Languages": [
    "english"
  ],
  "Platforms": {
    "windows": true,
    "mac": false,
    "linux": false
  }
}