[
  {
    "name": "ACH_FIRST_QUEST",
    "defaultvalue": 0,
    "displayName": "First Quest",
    "hidden": 0,
    "description": "One Quest done",
    "icon": "https://steamcdn-a.akamaihd.net/steamcommunity/public/images/apps/286120/bbb494886634a67c18e1e585dd6a9f472fdefaed.jpg",
    "icongray": "https://steamcdn-a.akamaihd.net/steamcommunity/public/images/apps/286120/4b87436c44b436d95b296c01d5385ddfafbc00ab.jpg"
  },
  {
    "name": "ACH_FIRST_DUNGEON_DONE",
    "defaultvalue": 0,
    "displayName": "First Dungeon",
    "hidden": 0,
    "description": "One Dungeon done",
    "icon": "https://steamcdn-a.akamaihd.net/steamcommunity/public/images/apps/286120/8cac1fea7a85323ef60a93919e19dc152cc6d7c4.jpg",
    "icongray": "https://steamcdn-a.akamaihd.net/steamcommunity/public/images/apps/286120/36e0b63d3ba4541ecfbf214a1015e7dcde9fd284.jpg"
  },
  {
    "name": "ACH_LAST_DUNGEON_DONE",
    "defaultvalue": 0,
    "displayName": "Desert Dungeon",
    "hidden": 0,
    "description": "Desert Dungeon done",
    "icon": "https://steamcdn-a.akamaihd.net/steamcommunity/public/images/apps/286120/e4be08a1de6a34312555ef0bce1587ac721320cc.jpg",
    "icongray": "https://steamcdn-a.akamaihd.net/steamcommunity/public/images/apps/286120/443566b7bbd65301018cb32ba8d5b49d3825410f.jpg"
  },
  {
    "name": "PLAYED_ONE_HOUR",
    "defaultvalue": 0,
    "displayName": "First Hour",
    "hidden": 0,
    "description": "Played for one hour",
    "icon": "https://steamcdn-a.akamaihd.net/steamcommunity/public/images/apps/286120/dc3bfe5e929176acec0c92f099858c1ffc6bc9ff.jpg",
    "icongray": "https://steamcdn-a.akamaihd.net/steamcommunity/public/images/apps/286120/b82fe1b685a85d2ebca6dcf46cd004929ff59608.jpg"
  },
  {
    "name": "SPECIALS_100",
    "defaultvalue": 0,
    "displayName": "100 Specials",
    "hidden": 0,
    "description": "Used 100 Specials",
    "icon": "https://steamcdn-a.akamaihd.net/steamcommunity/public/images/apps/286120/379233a07b325b7c38a5caa98ac898b5e00d787e.jpg",
    "icongray": "https://steamcdn-a.akamaihd.net/steamcommunity/public/images/apps/286120/147279af4552d3d2f566235c709c7e9418961ba6.jpg"
  },
  {
    "name": "STANCE_ONE_HOUR",
    "defaultvalue": 0,
    "displayName": "An Hour in Stance",
    "hidden": 0,
    "description": "One hour spent with alternative stance",
    "icon": "https://steamcdn-a.akamaihd.net/steamcommunity/public/images/apps/286120/d8f46746871cc481276b92f1db244d385a700df6.jpg",
    "icongray": "https://steamcdn-a.akamaihd.net/steamcommunity/public/images/apps/286120/e98faaaae6b90daedca46bf653636215ea1e131b.jpg"
  },
  {
    "name": "ITEMS_100",
    "defaultvalue": 0,
    "displayName": "100 Items",
    "hidden": 0,
    "description": "100 Items used",
    "icon": "https://steamcdn-a.akamaihd.net/steamcommunity/public/images/apps/286120/0159b52a1506c3a0ec57d6224935bbdf415cf4be.jpg",
    "icongray": "https://steamcdn-a.akamaihd.net/steamcommunity/public/images/apps/286120/c519512bfe1e8e17fb9cabd159b4f773cf702333.jpg"
  },
  {
    "name": "MONSTERS_1000",
    "defaultvalue": 0,
    "displayName": "1000 Monsters",
    "hidden": 0,
    "description": "1000 Monsters Killed",
    "icon": "https://steamcdn-a.akamaihd.net/steamcommunity/public/images/apps/286120/deeaddac649514cfc24475c79cd64cb2a8ee0696.jpg",
    "icongray": "https://steamcdn-a.akamaihd.net/steamcommunity/public/images/apps/286120/b14a88be6f313934e5a607607d2de0b77ef0c6dd.jpg"
  },
  {
    "name": "WAVES_100",
    "defaultvalue": 0,
    "displayName": "100 Encounters",
    "hidden": 0,
    "description": "100 Waves of enemies beaten",
    "icon": "https://steamcdn-a.akamaihd.net/steamcommunity/public/images/apps/286120/94f7ae2047dc4eb6c5b2ffab28518ebb8c883e7a.jpg",
    "icongray": "https://steamcdn-a.akamaihd.net/steamcommunity/public/images/apps/286120/0b5ae886c4afeb980e4038ba34e66889aea96135.jpg"
  },
  {
    "name": "HP_10000",
    "defaultvalue": 0,
    "displayName": "10k HP",
    "hidden": 1,
    "icon": "https://steamcdn-a.akamaihd.net/steamcommunity/public/images/apps/286120/d9d081c66e59ad8a0b11498ade9b5bed2c793fd5.jpg",
    "icongray": "https://steamcdn-a.akamaihd.net/steamcommunity/public/images/apps/286120/ecc85a9adf1cbffd770114f295ee2037cf272157.jpg"
  },
  {
    "name": "LEVEL_30",
    "defaultvalue": 0,
    "displayName": "Level 30",
    "hidden": 0,
    "description": "Finish a Dungeon with a level 30 character",
    "icon": "https://steamcdn-a.akamaihd.net/steamcommunity/public/images/apps/286120/004f893a40a6d98575797e6e9930290d23e67bef.jpg",
    "icongray": "https://steamcdn-a.akamaihd.net/steamcommunity/public/images/apps/286120/88ea44e5ea16cf0729e5f2a090131e55807b55c5.jpg"
  },
  {
    "name": "MONSTERS_5000",
    "defaultvalue": 0,
    "displayName": "5k Monsters",
    "hidden": 0,
    "description": "Killed 5000 Monsters",
    "icon": "https://steamcdn-a.akamaihd.net/steamcommunity/public/images/apps/286120/b7faa05c81814c68ee30c22e6d21e14edc18d6f3.jpg",
    "icongray": "https://steamcdn-a.akamaihd.net/steamcommunity/public/images/apps/286120/e8ae6801414af56c4d59b1b9c9a095d7fd16e792.jpg"
  },
  {
    "name": "PLAYED_TEN_HOURS",
    "defaultvalue": 0,
    "displayName": "10 Hours !",
    "hidden": 0,
    "description": "Played for 10 hours ! ",
    "icon": "https://steamcdn-a.akamaihd.net/steamcommunity/public/images/apps/286120/d86776383abe293e57654b83145ff9da781b7d8b.jpg",
    "icongray": "https://steamcdn-a.akamaihd.net/steamcommunity/public/images/apps/286120/9d9b2d6c522cf950cf88edf8b2050a3831534ce4.jpg"
  }
]