﻿{
  "Dlcs": {},
  "Name": "UnderWater Adventure",
  "AppId": "473050",
  "ImageUrl": "https://steamcdn-a.akamaihd.net/steam/apps/473050/header.jpg?t=1535741770",
  "Languages": [
    "english"
  ],
  "Platforms": {
    "windows": true,
    "mac": false,
    "linux": false
  }
}