﻿[
  {
    "name": "ULTIMATE_WIZARD",
    "defaultvalue": 0,
    "displayName": "Ultimate Wizard",
    "hidden": 0,
    "description": "Complete trial #50 without losing a heart.",
    "icon": "https://steamcdn-a.akamaihd.net/steamcommunity/public/images/apps/437920/010deac4df1dcbd32ac79680fe0fc25cc56f7e4f.jpg",
    "icongray": "https://steamcdn-a.akamaihd.net/steamcommunity/public/images/apps/437920/517889b56e5b6334620beeccea452d83efea4b98.jpg"
  },
  {
    "name": "MASTER_WIZARD",
    "defaultvalue": 0,
    "displayName": "Master wizard",
    "hidden": 0,
    "description": "Complete all trials.",
    "icon": "https://steamcdn-a.akamaihd.net/steamcommunity/public/images/apps/437920/73893ef8a8812d09c9c5867c5b4258bc260c33ff.jpg",
    "icongray": "https://steamcdn-a.akamaihd.net/steamcommunity/public/images/apps/437920/4618d538f104bf13e8ca90a8680bba8cee4dbcba.jpg"
  },
  {
    "name": "PERFECT_START",
    "defaultvalue": 0,
    "displayName": "Perfect start",
    "hidden": 0,
    "description": "Build a tower with 99 bricks in endless survival challenge without losing any hearts.",
    "icon": "https://steamcdn-a.akamaihd.net/steamcommunity/public/images/apps/437920/3bca13c7da89a997f337dc5b753329fce3435899.jpg",
    "icongray": "https://steamcdn-a.akamaihd.net/steamcommunity/public/images/apps/437920/a02c6f3e10637e26a62b16f7a98f25c6a94f1dd3.jpg"
  },
  {
    "name": "BARE_BONES",
    "defaultvalue": 0,
    "displayName": "Bare bones",
    "hidden": 0,
    "description": "Complete trial #40 without using any magic.",
    "icon": "https://steamcdn-a.akamaihd.net/steamcommunity/public/images/apps/437920/c7c443f29d0636a1c8bbd5e786ebfe5fb49b6380.jpg",
    "icongray": "https://steamcdn-a.akamaihd.net/steamcommunity/public/images/apps/437920/ade1b81f403eeb481e8a0ab80f5e3918c0a6c0bc.jpg"
  },
  {
    "name": "SPEED_PRECISION",
    "defaultvalue": 0,
    "displayName": "Speed. Precision.",
    "hidden": 0,
    "description": "Win a normal race match within 80 seconds without dropping any bricks.",
    "icon": "https://steamcdn-a.akamaihd.net/steamcommunity/public/images/apps/437920/d4bf6f66c8378769d54d3250a0d0aa1181eab274.jpg",
    "icongray": "https://steamcdn-a.akamaihd.net/steamcommunity/public/images/apps/437920/32095ab7060c9e4e0b694583804214986eb71a0d.jpg"
  },
  {
    "name": "LIKE_A_GLOVE",
    "defaultvalue": 0,
    "displayName": "Like a glove…",
    "hidden": 0,
    "description": "Finish trial #6 with 3 hearts left without picking up a spell.",
    "icon": "https://steamcdn-a.akamaihd.net/steamcommunity/public/images/apps/437920/08767cd5f4695c8fa54c232a76c0257dc6532c15.jpg",
    "icongray": "https://steamcdn-a.akamaihd.net/steamcommunity/public/images/apps/437920/603291edd255e6bd23bd9108981c593cc22c2bf9.jpg"
  },
  {
    "name": "IN_THE_MOONLIGHT",
    "defaultvalue": 0,
    "displayName": "In the moonlight",
    "hidden": 0,
    "description": "Drop the moon.",
    "icon": "https://steamcdn-a.akamaihd.net/steamcommunity/public/images/apps/437920/eef84c4ae2a3ef85e47051277c009a115dd876e1.jpg",
    "icongray": "https://steamcdn-a.akamaihd.net/steamcommunity/public/images/apps/437920/e2db7d2dd14da591a1358f6646cff89a4569a8fa.jpg"
  },
  {
    "name": "SURVIVOR",
    "defaultvalue": 0,
    "displayName": "Survivor",
    "hidden": 0,
    "description": "Survive the 8th wave in survival special mode or in endless survival challenge.",
    "icon": "https://steamcdn-a.akamaihd.net/steamcommunity/public/images/apps/437920/81b785c02dd54ba26b04285d42043e2785542fd6.jpg",
    "icongray": "https://steamcdn-a.akamaihd.net/steamcommunity/public/images/apps/437920/76d018edd0728ab7f5b17dcdca2fcf1c73c7b4c2.jpg"
  },
  {
    "name": "THINK_FAST",
    "defaultvalue": 0,
    "displayName": "Think fast!",
    "hidden": 0,
    "description": "Finish trial #8 with at least 52 seconds left on the clock.",
    "icon": "https://steamcdn-a.akamaihd.net/steamcommunity/public/images/apps/437920/a11b02544e96f72da36bb246fdad40987e8aaa27.jpg",
    "icongray": "https://steamcdn-a.akamaihd.net/steamcommunity/public/images/apps/437920/33ac2038486b64ae44c968b8bcbedf868cc2c53c.jpg"
  },
  {
    "name": "NINETY_NINE_BRICKS",
    "defaultvalue": 0,
    "displayName": "99 Bricks!",
    "hidden": 0,
    "description": "Build a tower with 99 bricks in Endless Survival Challenge.",
    "icon": "https://steamcdn-a.akamaihd.net/steamcommunity/public/images/apps/437920/758b67fe90c34b3e815ea85499a726720d9b7678.jpg",
    "icongray": "https://steamcdn-a.akamaihd.net/steamcommunity/public/images/apps/437920/38ae96c994c2d2608b0db95d1baabc3a50e20632.jpg"
  },
  {
    "name": "NO_NEED_TO_ROTATE",
    "defaultvalue": 0,
    "displayName": "No need to rotate",
    "hidden": 0,
    "description": "Complete trial #30 without rotating a brick.",
    "icon": "https://steamcdn-a.akamaihd.net/steamcommunity/public/images/apps/437920/3c3eddc8b26a412d7a4e15a10c4ac7ae7c0e9d57.jpg",
    "icongray": "https://steamcdn-a.akamaihd.net/steamcommunity/public/images/apps/437920/557775f5cace37df52eeda6a9c82881935f6b8a3.jpg"
  },
  {
    "name": "GREEN_FINGERS",
    "defaultvalue": 0,
    "displayName": "Green fingers",
    "hidden": 0,
    "description": "Connect 7 bricks with 1 ivy spell.",
    "icon": "https://steamcdn-a.akamaihd.net/steamcommunity/public/images/apps/437920/e7913480368ccbfe2efcfcf7b7c59b35ec75bdfc.jpg",
    "icongray": "https://steamcdn-a.akamaihd.net/steamcommunity/public/images/apps/437920/8ae672387ea697b1cddac987b5927bf324470f83.jpg"
  },
  {
    "name": "MODE_MASTER",
    "defaultvalue": 0,
    "displayName": "Mode master",
    "hidden": 0,
    "description": "Win an online game of every mode in every difficulty at least once.",
    "icon": "https://steamcdn-a.akamaihd.net/steamcommunity/public/images/apps/437920/fecc1f2907d80bad288d7a96a92bb62dd5f25ff9.jpg",
    "icongray": "https://steamcdn-a.akamaihd.net/steamcommunity/public/images/apps/437920/603ba5a3e88a8e5f9e6b2b2e0368b978f65c9845.jpg"
  },
  {
    "name": "ALMOST_THERE",
    "defaultvalue": 0,
    "displayName": "Almost there",
    "hidden": 0,
    "description": "Unlock the master trials.",
    "icon": "https://steamcdn-a.akamaihd.net/steamcommunity/public/images/apps/437920/9208e8861faba8b66db839aebec752e056d4ef92.jpg",
    "icongray": "https://steamcdn-a.akamaihd.net/steamcommunity/public/images/apps/437920/2e628e7afb5b14187c5822d3cdf27867b3741d74.jpg"
  },
  {
    "name": "ON_THE_RIGHT_TRACK",
    "defaultvalue": 0,
    "displayName": "On the right track",
    "hidden": 0,
    "description": "Unlock the expert trials.",
    "icon": "https://steamcdn-a.akamaihd.net/steamcommunity/public/images/apps/437920/f561b67a470e9c4628ec1252b6cba0405c692c23.jpg",
    "icongray": "https://steamcdn-a.akamaihd.net/steamcommunity/public/images/apps/437920/2e628e7afb5b14187c5822d3cdf27867b3741d74.jpg"
  },
  {
    "name": "DOING_GOOD",
    "defaultvalue": 0,
    "displayName": "Doing good",
    "hidden": 0,
    "description": "Unlock the pro trials.",
    "icon": "https://steamcdn-a.akamaihd.net/steamcommunity/public/images/apps/437920/f561b67a470e9c4628ec1252b6cba0405c692c23.jpg",
    "icongray": "https://steamcdn-a.akamaihd.net/steamcommunity/public/images/apps/437920/2e628e7afb5b14187c5822d3cdf27867b3741d74.jpg"
  },
  {
    "name": "BABY_STEPS",
    "defaultvalue": 0,
    "displayName": "Baby steps",
    "hidden": 0,
    "description": "Unlock the apprentice trials.",
    "icon": "https://steamcdn-a.akamaihd.net/steamcommunity/public/images/apps/437920/f561b67a470e9c4628ec1252b6cba0405c692c23.jpg",
    "icongray": "https://steamcdn-a.akamaihd.net/steamcommunity/public/images/apps/437920/2e628e7afb5b14187c5822d3cdf27867b3741d74.jpg"
  },
  {
    "name": "MATCH_WINNER",
    "defaultvalue": 0,
    "displayName": "Match winner",
    "hidden": 0,
    "description": "Win an online match.",
    "icon": "https://steamcdn-a.akamaihd.net/steamcommunity/public/images/apps/437920/2c16b0fc6d95063d8d4680ef9697bc02d477215f.jpg",
    "icongray": "https://steamcdn-a.akamaihd.net/steamcommunity/public/images/apps/437920/1024731ff280a654316541e207a769b44b850e4b.jpg"
  },
  {
    "name": "BRICK_STACKER",
    "defaultvalue": 0,
    "displayName": "Brick stacker",
    "hidden": 0,
    "description": "Place 66 bricks in endless survival challenge.",
    "icon": "https://steamcdn-a.akamaihd.net/steamcommunity/public/images/apps/437920/7f76096369f2f3a95b0e012a725b8198924234d2.jpg",
    "icongray": "https://steamcdn-a.akamaihd.net/steamcommunity/public/images/apps/437920/820923ca19482b135208f10d7d9b4b15a45919c7.jpg"
  },
  {
    "name": "TRICKSTER",
    "defaultvalue": 0,
    "displayName": "Trickster",
    "hidden": 0,
    "description": "Do a 180 with the roof in race mode.",
    "icon": "https://steamcdn-a.akamaihd.net/steamcommunity/public/images/apps/437920/681fce7b4b63e2043cec89a5439959416bb1e242.jpg",
    "icongray": "https://steamcdn-a.akamaihd.net/steamcommunity/public/images/apps/437920/f057623815d7ff23d64666204628a671839323a1.jpg"
  },
  {
    "name": "ARCHITECT",
    "defaultvalue": 0,
    "displayName": "Architect",
    "hidden": 0,
    "description": "Get a brick count of 20 or higher in a puzzle match.",
    "icon": "https://steamcdn-a.akamaihd.net/steamcommunity/public/images/apps/437920/81b1f79d8d6ae0e8822010ea38f7f97cced298c2.jpg",
    "icongray": "https://steamcdn-a.akamaihd.net/steamcommunity/public/images/apps/437920/db9e775d1d97a3d0812710a598b40bd4fb38638d.jpg"
  },
  {
    "name": "SAVE_SOME_ROOM",
    "defaultvalue": 0,
    "displayName": "Save some room",
    "hidden": 0,
    "description": "Finish trial #20 one unit below the zapper.",
    "icon": "https://steamcdn-a.akamaihd.net/steamcommunity/public/images/apps/437920/369e68ada3057d1ca09a67d78a25942c7c822c59.jpg",
    "icongray": "https://steamcdn-a.akamaihd.net/steamcommunity/public/images/apps/437920/3b6363a9c41937b1059561cf9db7ef7f83611499.jpg"
  },
  {
    "name": "BIGGER_THAN_MAGIC",
    "defaultvalue": 0,
    "displayName": "Bigger than magic",
    "hidden": 0,
    "description": "Finish trial #21 without using any magic.",
    "icon": "https://steamcdn-a.akamaihd.net/steamcommunity/public/images/apps/437920/3b9f033338c2ef3889d172e7d97eb89cbac6e302.jpg",
    "icongray": "https://steamcdn-a.akamaihd.net/steamcommunity/public/images/apps/437920/60b635c2aede3357791d386d38b71dd1fb6d6df3.jpg"
  },
  {
    "name": "YOU_STAY_THERE",
    "defaultvalue": 0,
    "displayName": "You stay there!",
    "hidden": 0,
    "description": "Stomp on 5 bubbled bricks without dropping them in the water.",
    "icon": "https://steamcdn-a.akamaihd.net/steamcommunity/public/images/apps/437920/00d4b1a86aecde71c739d2ff9c864c4e2f904928.jpg",
    "icongray": "https://steamcdn-a.akamaihd.net/steamcommunity/public/images/apps/437920/acde1a7853db6a1e26c6c3ba3dd28a7807c7dc4a.jpg"
  },
  {
    "name": "ALLROUND_MAGICIAN",
    "defaultvalue": 0,
    "displayName": "All-round magician",
    "hidden": 0,
    "description": "Use all magic spells once.",
    "icon": "https://steamcdn-a.akamaihd.net/steamcommunity/public/images/apps/437920/ce1dba6cd9bcb38889f5700acf270809a2d492c4.jpg",
    "icongray": "https://steamcdn-a.akamaihd.net/steamcommunity/public/images/apps/437920/68e8c6ed2b3b758f0efc0db579ebbddd968610a3.jpg"
  },
  {
    "name": "CLOSE_CALL",
    "defaultvalue": 0,
    "displayName": "Close call",
    "hidden": 0,
    "description": "Win an online survival match with 1 heart left.",
    "icon": "https://steamcdn-a.akamaihd.net/steamcommunity/public/images/apps/437920/3218eea1d05b3d5dcbf880bee7f8494c0abf9cd1.jpg",
    "icongray": "https://steamcdn-a.akamaihd.net/steamcommunity/public/images/apps/437920/297e40372b9713a206c916c9e2bc06ba89fd7003.jpg"
  },
  {
    "name": "SHOW_OFF",
    "defaultvalue": 0,
    "displayName": "Show off",
    "hidden": 0,
    "description": "Win an online normal survival match without using any magic.",
    "icon": "https://steamcdn-a.akamaihd.net/steamcommunity/public/images/apps/437920/27e96bf9823e8f4d11f1033fe348e1f03a24f603.jpg",
    "icongray": "https://steamcdn-a.akamaihd.net/steamcommunity/public/images/apps/437920/62d4a215c3c10c30c2a11e62778582d090b01e53.jpg"
  },
  {
    "name": "NINETY_NINE_BRICKS_PUZZLEBRICKS",
    "defaultvalue": 0,
    "displayName": "Shadow stacker",
    "hidden": 0,
    "description": "Build a tower of 99 bricks in endless puzzle mode.",
    "icon": "https://steamcdn-a.akamaihd.net/steamcommunity/public/images/apps/437920/5c655bc2a3d9a8c2dd4036d25ce4da1ea39ef488.jpg",
    "icongray": "https://steamcdn-a.akamaihd.net/steamcommunity/public/images/apps/437920/84d48a36056cae385634745a87886f8ead85a906.jpg"
  },
  {
    "name": "CUP_WINNER",
    "defaultvalue": 0,
    "displayName": "Cup winner!",
    "hidden": 0,
    "description": "Win an online cup.",
    "icon": "https://steamcdn-a.akamaihd.net/steamcommunity/public/images/apps/437920/4c1ca23b70b4d116b79680f132b12e29b8eb8b43.jpg",
    "icongray": "https://steamcdn-a.akamaihd.net/steamcommunity/public/images/apps/437920/4a2099929742b03d44ff8a65407fd43c6021830a.jpg"
  }
]