{
  "Dlcs": {},
  "Name": "Pincremental",
  "AppId": "1369470",
  "ImageUrl": "https://steamcdn-a.akamaihd.net/steam/apps/1369470/header.jpg?t=1597081342",
  "Languages": [
    "english"
  ],
  "Platforms": {
    "windows": true,
    "mac": true,
    "linux": false
  }
}