{
  "Dlcs": {},
  "Name": "Outstation",
  "AppId": "1105990",
  "ImageUrl": "https://steamcdn-a.akamaihd.net/steam/apps/1105990/header.jpg?t=1572662309",
  "Languages": [
    "english"
  ],
  "Platforms": {
    "windows": true,
    "mac": false,
    "linux": false
  }
}