﻿[
  {
    "name": "ACH_NOTALONE_2_4",
    "defaultvalue": 0,
    "displayName": "Not Alone",
    "hidden": 1,
    "icon": "https://steamcdn-a.akamaihd.net/steamcommunity/public/images/apps/321330/d4cc9e8194be2bcf28b500f2a940926592e8687a.jpg",
    "icongray": "https://steamcdn-a.akamaihd.net/steamcommunity/public/images/apps/321330/b2a09ca7075495850e14f5368cb3b000a7230e91.jpg"
  },
  {
    "name": "ACH_PACIFIST_S00_2_6",
    "defaultvalue": 0,
    "displayName": "PACIFIST STAGE 0",
    "hidden": 0,
    "description": "Complete stage 0 without killing anything",
    "icon": "https://steamcdn-a.akamaihd.net/steamcommunity/public/images/apps/321330/d4cc9e8194be2bcf28b500f2a940926592e8687a.jpg",
    "icongray": "https://steamcdn-a.akamaihd.net/steamcommunity/public/images/apps/321330/b2a09ca7075495850e14f5368cb3b000a7230e91.jpg"
  },
  {
    "name": "ACH_PACIFIST_S01_2_7",
    "defaultvalue": 0,
    "displayName": "PACIFIST STAGE 01",
    "hidden": 0,
    "description": "Complete stage 1 without killing anything",
    "icon": "https://steamcdn-a.akamaihd.net/steamcommunity/public/images/apps/321330/d4cc9e8194be2bcf28b500f2a940926592e8687a.jpg",
    "icongray": "https://steamcdn-a.akamaihd.net/steamcommunity/public/images/apps/321330/b2a09ca7075495850e14f5368cb3b000a7230e91.jpg"
  },
  {
    "name": "ACH_PACIFIST_S02_2_8",
    "defaultvalue": 0,
    "displayName": "REASONABLE PACIFIST STAGE 02",
    "hidden": 0,
    "description": "Reach the boss fight in stage 2 without killing anything",
    "icon": "https://steamcdn-a.akamaihd.net/steamcommunity/public/images/apps/321330/d4cc9e8194be2bcf28b500f2a940926592e8687a.jpg",
    "icongray": "https://steamcdn-a.akamaihd.net/steamcommunity/public/images/apps/321330/b2a09ca7075495850e14f5368cb3b000a7230e91.jpg"
  },
  {
    "name": "ACH_PACIFIST_S03_2_9",
    "defaultvalue": 0,
    "displayName": "REASONABLE PACIFIST STAGE 03",
    "hidden": 0,
    "description": "Reach the boss fight in stage 3 without killing anything",
    "icon": "https://steamcdn-a.akamaihd.net/steamcommunity/public/images/apps/321330/d4cc9e8194be2bcf28b500f2a940926592e8687a.jpg",
    "icongray": "https://steamcdn-a.akamaihd.net/steamcommunity/public/images/apps/321330/b2a09ca7075495850e14f5368cb3b000a7230e91.jpg"
  },
  {
    "name": "ACH_ALLBALLS_2_10",
    "defaultvalue": 0,
    "displayName": "MASTER OF INFOBALLS",
    "hidden": 0,
    "description": "Find all 15 InfoBalls in one complete run!",
    "icon": "https://steamcdn-a.akamaihd.net/steamcommunity/public/images/apps/321330/d4cc9e8194be2bcf28b500f2a940926592e8687a.jpg",
    "icongray": "https://steamcdn-a.akamaihd.net/steamcommunity/public/images/apps/321330/b2a09ca7075495850e14f5368cb3b000a7230e91.jpg"
  },
  {
    "name": "ACH_STAGE00_NORM_2_11",
    "defaultvalue": 0,
    "displayName": "NORMAL STAGE 0",
    "hidden": 0,
    "description": "Complete stage 0 without dying",
    "icon": "https://steamcdn-a.akamaihd.net/steamcommunity/public/images/apps/321330/d4cc9e8194be2bcf28b500f2a940926592e8687a.jpg",
    "icongray": "https://steamcdn-a.akamaihd.net/steamcommunity/public/images/apps/321330/b2a09ca7075495850e14f5368cb3b000a7230e91.jpg"
  },
  {
    "name": "ACH_STAGE00_HARD_2_12",
    "defaultvalue": 0,
    "displayName": "HARD STAGE 0",
    "hidden": 0,
    "description": "Complete stage 0 without dying",
    "icon": "https://steamcdn-a.akamaihd.net/steamcommunity/public/images/apps/321330/d4cc9e8194be2bcf28b500f2a940926592e8687a.jpg",
    "icongray": "https://steamcdn-a.akamaihd.net/steamcommunity/public/images/apps/321330/b2a09ca7075495850e14f5368cb3b000a7230e91.jpg"
  },
  {
    "name": "ACH_STAGE01_NORM_2_13",
    "defaultvalue": 0,
    "displayName": "NORMAL STAGE 01",
    "hidden": 0,
    "description": "Complete stage 01 without dying",
    "icon": "https://steamcdn-a.akamaihd.net/steamcommunity/public/images/apps/321330/d4cc9e8194be2bcf28b500f2a940926592e8687a.jpg",
    "icongray": "https://steamcdn-a.akamaihd.net/steamcommunity/public/images/apps/321330/b2a09ca7075495850e14f5368cb3b000a7230e91.jpg"
  },
  {
    "name": "ACH_STAGE01_HARD_2_14",
    "defaultvalue": 0,
    "displayName": "HARD STAGE 01",
    "hidden": 0,
    "description": "Complete stages 0 and 1 in one session  without dying",
    "icon": "https://steamcdn-a.akamaihd.net/steamcommunity/public/images/apps/321330/d4cc9e8194be2bcf28b500f2a940926592e8687a.jpg",
    "icongray": "https://steamcdn-a.akamaihd.net/steamcommunity/public/images/apps/321330/b2a09ca7075495850e14f5368cb3b000a7230e91.jpg"
  },
  {
    "name": "ACH_STAGE02_NORM_2_15",
    "defaultvalue": 0,
    "displayName": "NORMAL STAGE 02",
    "hidden": 0,
    "description": "Complete stage 02 without dying",
    "icon": "https://steamcdn-a.akamaihd.net/steamcommunity/public/images/apps/321330/d4cc9e8194be2bcf28b500f2a940926592e8687a.jpg",
    "icongray": "https://steamcdn-a.akamaihd.net/steamcommunity/public/images/apps/321330/b2a09ca7075495850e14f5368cb3b000a7230e91.jpg"
  },
  {
    "name": "ACH_STAGE02_HARD_2_16",
    "defaultvalue": 0,
    "displayName": "HARD STAGE 02",
    "hidden": 0,
    "description": "Complete stages 0 to 2 in one session without dying",
    "icon": "https://steamcdn-a.akamaihd.net/steamcommunity/public/images/apps/321330/d4cc9e8194be2bcf28b500f2a940926592e8687a.jpg",
    "icongray": "https://steamcdn-a.akamaihd.net/steamcommunity/public/images/apps/321330/b2a09ca7075495850e14f5368cb3b000a7230e91.jpg"
  },
  {
    "name": "ACH_STAGE03_NORM_2_17",
    "defaultvalue": 0,
    "displayName": "NORMAL STAGE 03",
    "hidden": 0,
    "description": "Complete stage 03 without dying",
    "icon": "https://steamcdn-a.akamaihd.net/steamcommunity/public/images/apps/321330/d4cc9e8194be2bcf28b500f2a940926592e8687a.jpg",
    "icongray": "https://steamcdn-a.akamaihd.net/steamcommunity/public/images/apps/321330/b2a09ca7075495850e14f5368cb3b000a7230e91.jpg"
  },
  {
    "name": "ACH_STAGE03_HARD_2_18",
    "defaultvalue": 0,
    "displayName": "HARD STAGE 03",
    "hidden": 0,
    "description": "Complete stages 0 to 3 in one session without dying",
    "icon": "https://steamcdn-a.akamaihd.net/steamcommunity/public/images/apps/321330/d4cc9e8194be2bcf28b500f2a940926592e8687a.jpg",
    "icongray": "https://steamcdn-a.akamaihd.net/steamcommunity/public/images/apps/321330/b2a09ca7075495850e14f5368cb3b000a7230e91.jpg"
  }
]