{
  "Dlcs": {},
  "Name": "Find The Treasure",
  "AppId": "1166710",
  "ImageUrl": "https://steamcdn-a.akamaihd.net/steam/apps/1166710/header.jpg?t=1571417329",
  "Languages": [
    "english",
    "italian"
  ],
  "Platforms": {
    "windows": true,
    "mac": false,
    "linux": true
  }
}