{
  "Dlcs": {},
  "Name": "DEDstress",
  "AppId": "1139760",
  "ImageUrl": "https://steamcdn-a.akamaihd.net/steam/apps/1139760/header.jpg?t=1599439712",
  "Languages": [
    "english"
  ],
  "Platforms": {
    "windows": true,
    "mac": false,
    "linux": false
  }
}