[
  {
    "name": "ACH_COLLECT_FIRST_STAR",
    "defaultvalue": 0,
    "displayName": "First Star",
    "hidden": 0,
    "description": "Collect your 1st Star",
    "icon": "https://steamcdn-a.akamaihd.net/steamcommunity/public/images/apps/796780/723d585f96b9fed133f7081757c3dbcdf49809a8.jpg",
    "icongray": "https://steamcdn-a.akamaihd.net/steamcommunity/public/images/apps/796780/b3a82b019bb520d8b7d825dc92cc99cdfe076fa4.jpg"
  },
  {
    "name": "ACH_COLLECT_25_STARS",
    "defaultvalue": 0,
    "displayName": "Bronze Star",
    "hidden": 0,
    "description": "Collect 25 Stars",
    "icon": "https://steamcdn-a.akamaihd.net/steamcommunity/public/images/apps/796780/ab191f3f3abfbc5f3a7c373d8c2c36d38943e04c.jpg",
    "icongray": "https://steamcdn-a.akamaihd.net/steamcommunity/public/images/apps/796780/ca8e7a0c55ad84a40031864d5646e2a6a72cb809.jpg"
  },
  {
    "name": "ACH_COLLECT_100_STARS",
    "defaultvalue": 0,
    "displayName": "Silver Star",
    "hidden": 0,
    "description": "Collect 100 Stars",
    "icon": "https://steamcdn-a.akamaihd.net/steamcommunity/public/images/apps/796780/114bad08a9238828b5905fc643e25a0db999a682.jpg",
    "icongray": "https://steamcdn-a.akamaihd.net/steamcommunity/public/images/apps/796780/bd6b7e4b2dc4ff1679117324aef91ba09a96dc38.jpg"
  },
  {
    "name": "ACH_COLLECT_200_STARS",
    "defaultvalue": 0,
    "displayName": "Golden Star",
    "hidden": 0,
    "description": "Collect 200 Stars",
    "icon": "https://steamcdn-a.akamaihd.net/steamcommunity/public/images/apps/796780/b02c6e7328e7d0ef73249714a70321198e22bfef.jpg",
    "icongray": "https://steamcdn-a.akamaihd.net/steamcommunity/public/images/apps/796780/5c5cf65d60a41dca05a18ac678345eba7a58dfd5.jpg"
  },
  {
    "name": "ACH_ENTER_ISLAND_2",
    "defaultvalue": 0,
    "displayName": "Speedway Drifting",
    "hidden": 0,
    "description": "Discover the U.S.A. Speedway Track.",
    "icon": "https://steamcdn-a.akamaihd.net/steamcommunity/public/images/apps/796780/97d1622055fa46f5d050f0324d31a60976ef835c.jpg",
    "icongray": "https://steamcdn-a.akamaihd.net/steamcommunity/public/images/apps/796780/fef84cf613995ab05abf63239b17c696a8f95535.jpg"
  },
  {
    "name": "ACH_ENTER_ISLAND_3",
    "defaultvalue": 0,
    "displayName": "Around the Pyramids",
    "hidden": 0,
    "description": "Discover the Pyramids of Egypt Track.",
    "icon": "https://steamcdn-a.akamaihd.net/steamcommunity/public/images/apps/796780/73d8004d50b59e4fcc9329f276afe480631d0fde.jpg",
    "icongray": "https://steamcdn-a.akamaihd.net/steamcommunity/public/images/apps/796780/93a66a2d632fca0df6220bada3ebe0920aac6d56.jpg"
  },
  {
    "name": "ACH_ENTER_ISLAND_4",
    "defaultvalue": 0,
    "displayName": "Jungle Drifting",
    "hidden": 0,
    "description": "Discover the Amazonas Swamps Track.",
    "icon": "https://steamcdn-a.akamaihd.net/steamcommunity/public/images/apps/796780/460338b750537ed2714154840bc4bd0ec46c96dd.jpg",
    "icongray": "https://steamcdn-a.akamaihd.net/steamcommunity/public/images/apps/796780/05174cabbcd22347401dd2bc860b845acfb7641d.jpg"
  },
  {
    "name": "ACH_ENTER_ISLAND_5",
    "defaultvalue": 0,
    "displayName": "Snow Drifting",
    "hidden": 0,
    "description": "Discover the Norwegian Village Track.",
    "icon": "https://steamcdn-a.akamaihd.net/steamcommunity/public/images/apps/796780/975cae3257b2ab44b9e26705249eb6d347520352.jpg",
    "icongray": "https://steamcdn-a.akamaihd.net/steamcommunity/public/images/apps/796780/a4fd9c4e252fc8af5f16c355cfdab330f76a4982.jpg"
  },
  {
    "name": "ACH_ENTER_ISLAND_6",
    "defaultvalue": 0,
    "displayName": "Frozen Lake Drifting",
    "hidden": 0,
    "description": "Discover the Icelandic Lake Track.",
    "icon": "https://steamcdn-a.akamaihd.net/steamcommunity/public/images/apps/796780/1b867979742d685e6e9bf556551e1eb78cb7189b.jpg",
    "icongray": "https://steamcdn-a.akamaihd.net/steamcommunity/public/images/apps/796780/fed59144dca2755753282dec11fd97e7c4f054e2.jpg"
  },
  {
    "name": "ACH_POLICE_5_STARS",
    "defaultvalue": 0,
    "displayName": "Police Officer",
    "hidden": 0,
    "description": "Purchase the Police Car 'Chaser'.",
    "icon": "https://steamcdn-a.akamaihd.net/steamcommunity/public/images/apps/796780/8a2018180db072705e4ce09a860a96a0b5b43344.jpg",
    "icongray": "https://steamcdn-a.akamaihd.net/steamcommunity/public/images/apps/796780/afa002d316013ab3d6cbcae2fe3ad8c31362ea5c.jpg"
  },
  {
    "name": "ACH_DRIFT_5_STARS",
    "defaultvalue": 0,
    "displayName": "Golden Rims",
    "hidden": 0,
    "description": "Buy a Car with Golden Rims.",
    "icon": "https://steamcdn-a.akamaihd.net/steamcommunity/public/images/apps/796780/e3ddd367c9d8e8787d7ea7d6d86336f6767a39ba.jpg",
    "icongray": "https://steamcdn-a.akamaihd.net/steamcommunity/public/images/apps/796780/d6efd753c380ea09911ee96ea6957340460e053f.jpg"
  },
  {
    "name": "ACH_COLLECT_ALL_STARS",
    "defaultvalue": 0,
    "displayName": "Star Drift Master",
    "hidden": 0,
    "description": "Collect 300 Stars",
    "icon": "https://steamcdn-a.akamaihd.net/steamcommunity/public/images/apps/796780/a6c5fc0ade8c3b42bf1ee3b90780487152d80a20.jpg",
    "icongray": "https://steamcdn-a.akamaihd.net/steamcommunity/public/images/apps/796780/cf9460a0069c1f7ed8120ada88ec4567ef3b0107.jpg"
  },
  {
    "name": "ACH_ONLINE_SCORE_5",
    "defaultvalue": 0,
    "displayName": "Online Multiplayer Aspirant",
    "hidden": 0,
    "description": "Reach a score of 5 or higher in a single Online Grand Prix.",
    "icon": "https://steamcdn-a.akamaihd.net/steamcommunity/public/images/apps/796780/2c79f4f883d811b60e8937b7a8b7a0cd815323e4.jpg",
    "icongray": "https://steamcdn-a.akamaihd.net/steamcommunity/public/images/apps/796780/1fa24498e9f777a5898048be55c482e48be0a034.jpg"
  },
  {
    "name": "ACH_ONLINE_TOURNAMENTS_WON_1",
    "defaultvalue": 0,
    "displayName": "Grand Prix Winner",
    "hidden": 0,
    "description": "Win an Online Grand Prix.",
    "icon": "https://steamcdn-a.akamaihd.net/steamcommunity/public/images/apps/796780/e5ec827edb6cf5169b73368bf7d614eec5fb3a24.jpg",
    "icongray": "https://steamcdn-a.akamaihd.net/steamcommunity/public/images/apps/796780/ddcab1a62f8118140670a3beec0c94beee89a3b4.jpg"
  },
  {
    "name": "ACH_ONLINE_TOURNAMENTS_WON_10",
    "defaultvalue": 0,
    "displayName": "Grand Prix Champion",
    "hidden": 0,
    "description": "Collect a total of 50 Points in Online Grand Prix.",
    "icon": "https://steamcdn-a.akamaihd.net/steamcommunity/public/images/apps/796780/3a85e517c400bdd5814cd9f50c7b7b7a472b60f3.jpg",
    "icongray": "https://steamcdn-a.akamaihd.net/steamcommunity/public/images/apps/796780/64bc4d497aa745fc72b6e9037fefaa6cc53d7faf.jpg"
  },
  {
    "name": "ACH_ONLINE_TOURNAMENTS_WON_100",
    "defaultvalue": 0,
    "displayName": "Grand Prix Legend",
    "hidden": 0,
    "description": "Collect a total of 250 Points in Online Grand Prix.",
    "icon": "https://steamcdn-a.akamaihd.net/steamcommunity/public/images/apps/796780/06cc31bf6d77afab84654a3e066e9fd9c03d22a7.jpg",
    "icongray": "https://steamcdn-a.akamaihd.net/steamcommunity/public/images/apps/796780/b1f9f88d412ad982ca479b225c42781a3a64ad30.jpg"
  },
  {
    "name": "ACH_POLICE_STARS_NORMAL_45",
    "defaultvalue": 0,
    "displayName": "Police Champion",
    "hidden": 0,
    "description": "Win a Hardcore Race with the Police Car 'Chaser'.",
    "icon": "https://steamcdn-a.akamaihd.net/steamcommunity/public/images/apps/796780/0c8bbd3dbb62f58b420e6c5469834c2983e8bee6.jpg",
    "icongray": "https://steamcdn-a.akamaihd.net/steamcommunity/public/images/apps/796780/983b548263be3c1621d2bd566a36c3b7c44a8aea.jpg"
  },
  {
    "name": "ACH_NEVER_LET_GO",
    "defaultvalue": 0,
    "displayName": "Never Let Go",
    "hidden": 0,
    "description": "Win a race while never letting go of the gas but also not crashing.",
    "icon": "https://steamcdn-a.akamaihd.net/steamcommunity/public/images/apps/796780/20f8705cbfc0306248b1a9daa628c40d8afb12dd.jpg",
    "icongray": "https://steamcdn-a.akamaihd.net/steamcommunity/public/images/apps/796780/a5b5623306f75c9795d36fa9e889e437cc1d5c37.jpg"
  },
  {
    "name": "ACH_DRIVER_CRASH_DISTANCE_100",
    "defaultvalue": 0,
    "displayName": "Through the Windshield",
    "hidden": 0,
    "description": "Make your driver go through the windshield in a crash and make him travel 25 meters away from his car during a race. ",
    "icon": "https://steamcdn-a.akamaihd.net/steamcommunity/public/images/apps/796780/1d551626da55a2255c19a3b8439f6522ca7d8eec.jpg",
    "icongray": "https://steamcdn-a.akamaihd.net/steamcommunity/public/images/apps/796780/a1711963fc87371f29324a79267a8ec998e52aa5.jpg"
  },
  {
    "name": "ACH_BEAT_THE_CHAMP",
    "defaultvalue": 0,
    "displayName": "Beating 'The Champ'",
    "hidden": 0,
    "description": "Win a race against 'The Champ', a rarely appearing driver who is exceptionally talented.",
    "icon": "https://steamcdn-a.akamaihd.net/steamcommunity/public/images/apps/796780/3ab3466f6025a519f1570af6c8ee1603a56c7229.jpg",
    "icongray": "https://steamcdn-a.akamaihd.net/steamcommunity/public/images/apps/796780/f307f9e3e7f751d2f03c702775686e50f7580bf0.jpg"
  },
  {
    "name": "ACH_3_STARS_TRACK_0",
    "defaultvalue": 0,
    "displayName": "Dammam Airport Aspirant",
    "hidden": 0,
    "description": "Collect 4 Stars on the Dammam Airport Track.",
    "icon": "https://steamcdn-a.akamaihd.net/steamcommunity/public/images/apps/796780/f35500a5128d8749b373321f4a7e03cd98bddf4b.jpg",
    "icongray": "https://steamcdn-a.akamaihd.net/steamcommunity/public/images/apps/796780/9587709f8214244b302d59051b54ffeb8862be06.jpg"
  },
  {
    "name": "ACH_6_STARS_TRACK_0",
    "defaultvalue": 0,
    "displayName": "Dammam Airport Legend",
    "hidden": 0,
    "description": "Collect 7 Stars on the Dammam Airport Track.",
    "icon": "https://steamcdn-a.akamaihd.net/steamcommunity/public/images/apps/796780/9282a25336a483747a9e1bb3064c91d7d6fab7de.jpg",
    "icongray": "https://steamcdn-a.akamaihd.net/steamcommunity/public/images/apps/796780/9587709f8214244b302d59051b54ffeb8862be06.jpg"
  },
  {
    "name": "ACH_3_STARS_TRACK_1",
    "defaultvalue": 0,
    "displayName": "German Raceway Aspirant",
    "hidden": 0,
    "description": "Collect 4 Stars on the German Raceway.",
    "icon": "https://steamcdn-a.akamaihd.net/steamcommunity/public/images/apps/796780/6b3ed491ec2adda72a8e0e8f14d5029e2aa3ab23.jpg",
    "icongray": "https://steamcdn-a.akamaihd.net/steamcommunity/public/images/apps/796780/da74cca4329848ef3832953c8244ab81f29f1734.jpg"
  },
  {
    "name": "ACH_6_STARS_TRACK_1",
    "defaultvalue": 0,
    "displayName": "German Raceway Legend",
    "hidden": 0,
    "description": "Collect 7 Stars on the German Raceway.",
    "icon": "https://steamcdn-a.akamaihd.net/steamcommunity/public/images/apps/796780/e247dbb66fa8f74579ded9eb35717f6d06bdcc6c.jpg",
    "icongray": "https://steamcdn-a.akamaihd.net/steamcommunity/public/images/apps/796780/da74cca4329848ef3832953c8244ab81f29f1734.jpg"
  },
  {
    "name": "ACH_3_STARS_TRACK_2",
    "defaultvalue": 0,
    "displayName": "Dammam Hangar Aspirant",
    "hidden": 0,
    "description": "Collect 4 Stars on the Dammam Hangar Track.",
    "icon": "https://steamcdn-a.akamaihd.net/steamcommunity/public/images/apps/796780/66414119b57444e57ae3cadca702934af8a18c60.jpg",
    "icongray": "https://steamcdn-a.akamaihd.net/steamcommunity/public/images/apps/796780/9e62e35e650bd8ef883ba799476b6b60876803f6.jpg"
  },
  {
    "name": "ACH_6_STARS_TRACK_2",
    "defaultvalue": 0,
    "displayName": "Dammam Legend",
    "hidden": 0,
    "description": "Collect 7 Stars on the Dammam Hangar Track.",
    "icon": "https://steamcdn-a.akamaihd.net/steamcommunity/public/images/apps/796780/4057c40db7716fdae2e7220b33bef06f258296a3.jpg",
    "icongray": "https://steamcdn-a.akamaihd.net/steamcommunity/public/images/apps/796780/9e62e35e650bd8ef883ba799476b6b60876803f6.jpg"
  },
  {
    "name": "ACH_3_STARS_TRACK_3",
    "defaultvalue": 0,
    "displayName": "King Fahd Runway Aspirant",
    "hidden": 0,
    "description": "Collect 4 Stars on King Fahd Runway.",
    "icon": "https://steamcdn-a.akamaihd.net/steamcommunity/public/images/apps/796780/1b829d482cbb46854354f6d209ced0441409a0ff.jpg",
    "icongray": "https://steamcdn-a.akamaihd.net/steamcommunity/public/images/apps/796780/1e641d233646d4afd00755b0664ad6d2d077a9a5.jpg"
  },
  {
    "name": "ACH_6_STARS_TRACK_3",
    "defaultvalue": 0,
    "displayName": "King Fahd Runway Legend",
    "hidden": 0,
    "description": "Collect 7 Stars on King Fahd Runway.",
    "icon": "https://steamcdn-a.akamaihd.net/steamcommunity/public/images/apps/796780/a31c16dd76792a5dbffb5c564f932d026e0daded.jpg",
    "icongray": "https://steamcdn-a.akamaihd.net/steamcommunity/public/images/apps/796780/1e641d233646d4afd00755b0664ad6d2d077a9a5.jpg"
  },
  {
    "name": "ACH_3_STARS_TRACK_4",
    "defaultvalue": 0,
    "displayName": "Sierra Nevada Aspirant",
    "hidden": 0,
    "description": "Collect 4 Stars on Sierra Nevada.",
    "icon": "https://steamcdn-a.akamaihd.net/steamcommunity/public/images/apps/796780/9c2d9f0a6f67238b8b4f1ff73023434092d65190.jpg",
    "icongray": "https://steamcdn-a.akamaihd.net/steamcommunity/public/images/apps/796780/f9e913715be6e6caa010031987e63e415e264c3a.jpg"
  },
  {
    "name": "ACH_6_STARS_TRACK_4",
    "defaultvalue": 0,
    "displayName": "Sierra Nevada Legend",
    "hidden": 0,
    "description": "Collect 7 Stars on Sierra Nevada.",
    "icon": "https://steamcdn-a.akamaihd.net/steamcommunity/public/images/apps/796780/ebabe9141a99d26e18e14dcb8723f41494ded71e.jpg",
    "icongray": "https://steamcdn-a.akamaihd.net/steamcommunity/public/images/apps/796780/f9e913715be6e6caa010031987e63e415e264c3a.jpg"
  },
  {
    "name": "ACH_3_STARS_TRACK_5",
    "defaultvalue": 0,
    "displayName": "Car Park Aspirant",
    "hidden": 0,
    "description": "Collect 4 Stars on the Airport Car Park.",
    "icon": "https://steamcdn-a.akamaihd.net/steamcommunity/public/images/apps/796780/cd243f171910de82c973121193005b5eba124f79.jpg",
    "icongray": "https://steamcdn-a.akamaihd.net/steamcommunity/public/images/apps/796780/ab5457f24a06d013c922510cbd9ac22924078927.jpg"
  },
  {
    "name": "ACH_6_STARS_TRACK_5",
    "defaultvalue": 0,
    "displayName": "Car Park Legend",
    "hidden": 0,
    "description": "Collect 7 Stars on the Airport Car Park.",
    "icon": "https://steamcdn-a.akamaihd.net/steamcommunity/public/images/apps/796780/5b7bd7fe0e66e6c23a5ea9cb6cdedbf7c417e2e1.jpg",
    "icongray": "https://steamcdn-a.akamaihd.net/steamcommunity/public/images/apps/796780/ab5457f24a06d013c922510cbd9ac22924078927.jpg"
  },
  {
    "name": "ACH_3_STARS_TRACK_6",
    "defaultvalue": 0,
    "displayName": "Rainy River Roads Aspirant",
    "hidden": 0,
    "description": "Collect 4 Stars on the Thames River Road.",
    "icon": "https://steamcdn-a.akamaihd.net/steamcommunity/public/images/apps/796780/9f76ab3b5728413b4a246d5a7f4779c6aa9f01f3.jpg",
    "icongray": "https://steamcdn-a.akamaihd.net/steamcommunity/public/images/apps/796780/4ae23f9d29cd4a2dff0bec49accc0466643f3cdb.jpg"
  },
  {
    "name": "ACH_6_STARS_TRACK_6",
    "defaultvalue": 0,
    "displayName": "Rainy River Roads Legend",
    "hidden": 0,
    "description": "Collect 7 Stars on the Thames River Road.",
    "icon": "https://steamcdn-a.akamaihd.net/steamcommunity/public/images/apps/796780/8143738d008093a9158a7183383eb808a93f8d77.jpg",
    "icongray": "https://steamcdn-a.akamaihd.net/steamcommunity/public/images/apps/796780/4ae23f9d29cd4a2dff0bec49accc0466643f3cdb.jpg"
  },
  {
    "name": "ACH_3_STARS_TRACK_7",
    "defaultvalue": 0,
    "displayName": "Country Lane Aspirant",
    "hidden": 0,
    "description": "Collect 4 Stars on the American Countryside.",
    "icon": "https://steamcdn-a.akamaihd.net/steamcommunity/public/images/apps/796780/e4392e2826d3e3ba8824403beb31b41bdf62f043.jpg",
    "icongray": "https://steamcdn-a.akamaihd.net/steamcommunity/public/images/apps/796780/321c42f5598a2bb5d2fec294c91536cd22ae6e3a.jpg"
  },
  {
    "name": "ACH_6_STARS_TRACK_7",
    "defaultvalue": 0,
    "displayName": "Country Lane Legend",
    "hidden": 0,
    "description": "Collect 7 Stars on the American Countryside.",
    "icon": "https://steamcdn-a.akamaihd.net/steamcommunity/public/images/apps/796780/815b4688617261bfc0b627a51558ff15a4d6abcc.jpg",
    "icongray": "https://steamcdn-a.akamaihd.net/steamcommunity/public/images/apps/796780/321c42f5598a2bb5d2fec294c91536cd22ae6e3a.jpg"
  },
  {
    "name": "ACH_3_STARS_TRACK_8",
    "defaultvalue": 0,
    "displayName": "Nightfall Aspirant",
    "hidden": 0,
    "description": "Collect 4 Stars on the Rocky Mountains.",
    "icon": "https://steamcdn-a.akamaihd.net/steamcommunity/public/images/apps/796780/c25b8f128ac0f43cc80bd04a496de91db77defc0.jpg",
    "icongray": "https://steamcdn-a.akamaihd.net/steamcommunity/public/images/apps/796780/fdf753d5016cd5f48d06b9fba3e4b1a9b96ec1d9.jpg"
  },
  {
    "name": "ACH_6_STARS_TRACK_8",
    "defaultvalue": 0,
    "displayName": "Nightfall Legend",
    "hidden": 0,
    "description": "Collect 7 Stars on the Rocky Mountains.",
    "icon": "https://steamcdn-a.akamaihd.net/steamcommunity/public/images/apps/796780/1095d98ab9acc1002c0859a8b93da3686a25f80f.jpg",
    "icongray": "https://steamcdn-a.akamaihd.net/steamcommunity/public/images/apps/796780/fdf753d5016cd5f48d06b9fba3e4b1a9b96ec1d9.jpg"
  },
  {
    "name": "ACH_3_STARS_TRACK_9",
    "defaultvalue": 0,
    "displayName": "Ship Harbor Aspirant",
    "hidden": 0,
    "description": "Collect 4 Stars on the Shanghai Harbor.",
    "icon": "https://steamcdn-a.akamaihd.net/steamcommunity/public/images/apps/796780/3144026bfd65b7c872b9dbce27b122f4db99fc0e.jpg",
    "icongray": "https://steamcdn-a.akamaihd.net/steamcommunity/public/images/apps/796780/da8318d3d033a9d5d64bc2cd69727a8eb301c9f5.jpg"
  },
  {
    "name": "ACH_6_STARS_TRACK_9",
    "defaultvalue": 0,
    "displayName": "Ship Harbor Legend",
    "hidden": 0,
    "description": "Collect 7 Stars on  the Shanghai Harbor.",
    "icon": "https://steamcdn-a.akamaihd.net/steamcommunity/public/images/apps/796780/94d1966d6dd8e17227521cf658596185580cb703.jpg",
    "icongray": "https://steamcdn-a.akamaihd.net/steamcommunity/public/images/apps/796780/da8318d3d033a9d5d64bc2cd69727a8eb301c9f5.jpg"
  },
  {
    "name": "ACH_3_STARS_TRACK_10",
    "defaultvalue": 0,
    "displayName": "Skyfall Aspirant",
    "hidden": 0,
    "description": "Collect 4 Stars on Skyfall.",
    "icon": "https://steamcdn-a.akamaihd.net/steamcommunity/public/images/apps/796780/30d34480f5a65e7dcae52c7a69d1458746c820c7.jpg",
    "icongray": "https://steamcdn-a.akamaihd.net/steamcommunity/public/images/apps/796780/b534f0980e4f2c5805ab52744ce0fa9a34276580.jpg"
  },
  {
    "name": "ACH_6_STARS_TRACK_10",
    "defaultvalue": 0,
    "displayName": "Skyfall Legend",
    "hidden": 0,
    "description": "Collect 7 Stars on Skyfall.",
    "icon": "https://steamcdn-a.akamaihd.net/steamcommunity/public/images/apps/796780/3f1715c7b6af536cb63352b95cb40dd2bcf1aacc.jpg",
    "icongray": "https://steamcdn-a.akamaihd.net/steamcommunity/public/images/apps/796780/b534f0980e4f2c5805ab52744ce0fa9a34276580.jpg"
  },
  {
    "name": "ACH_3_STARS_TRACK_11",
    "defaultvalue": 0,
    "displayName": "Ancient Oasis Aspirant",
    "hidden": 0,
    "description": "Collect 4 Stars on the Pyramids of Egypt.",
    "icon": "https://steamcdn-a.akamaihd.net/steamcommunity/public/images/apps/796780/427557e458ca68080cd10569048fa4acab700ad6.jpg",
    "icongray": "https://steamcdn-a.akamaihd.net/steamcommunity/public/images/apps/796780/434133b519a80d3e64979b9cc46d96c8119241bd.jpg"
  },
  {
    "name": "ACH_6_STARS_TRACK_11",
    "defaultvalue": 0,
    "displayName": "Ancient Oasis Legend",
    "hidden": 0,
    "description": "Collect 7 Stars on Pyramids of Egypt.",
    "icon": "https://steamcdn-a.akamaihd.net/steamcommunity/public/images/apps/796780/1f248ca4b6c246d74d4009d243094c692c4299c9.jpg",
    "icongray": "https://steamcdn-a.akamaihd.net/steamcommunity/public/images/apps/796780/434133b519a80d3e64979b9cc46d96c8119241bd.jpg"
  },
  {
    "name": "ACH_3_STARS_TRACK_12",
    "defaultvalue": 0,
    "displayName": "Grand Canyon Aspirant",
    "hidden": 0,
    "description": "Collect 4 Stars on Grand Canyon.",
    "icon": "https://steamcdn-a.akamaihd.net/steamcommunity/public/images/apps/796780/38e79b0fd901ca592e9e7ebefeff59e89ea5eca3.jpg",
    "icongray": "https://steamcdn-a.akamaihd.net/steamcommunity/public/images/apps/796780/f7f24bd4bda80391b142cb6a32dc9664549575ec.jpg"
  },
  {
    "name": "ACH_6_STARS_TRACK_12",
    "defaultvalue": 0,
    "displayName": "Grand Canyon Legend",
    "hidden": 0,
    "description": "Collect 7 Stars on Grand Canyon.",
    "icon": "https://steamcdn-a.akamaihd.net/steamcommunity/public/images/apps/796780/a2490ae456e445349af67ff3b8281908e5958fd4.jpg",
    "icongray": "https://steamcdn-a.akamaihd.net/steamcommunity/public/images/apps/796780/f7f24bd4bda80391b142cb6a32dc9664549575ec.jpg"
  },
  {
    "name": "ACH_3_STARS_TRACK_13",
    "defaultvalue": 0,
    "displayName": "Outback Raceway Aspirant",
    "hidden": 0,
    "description": "Collect 4 Stars on the Outback Raceway Track.",
    "icon": "https://steamcdn-a.akamaihd.net/steamcommunity/public/images/apps/796780/ced0ac898528f4beb4e869051525a75d63ae625e.jpg",
    "icongray": "https://steamcdn-a.akamaihd.net/steamcommunity/public/images/apps/796780/8592c916676956b6efead699c9027e77ee331495.jpg"
  },
  {
    "name": "ACH_6_STARS_TRACK_13",
    "defaultvalue": 0,
    "displayName": "Outback Raceway Legend",
    "hidden": 0,
    "description": "Collect 7 Stars on the Outback Raceway Track.",
    "icon": "https://steamcdn-a.akamaihd.net/steamcommunity/public/images/apps/796780/b952c1e4b5a575ee1ef42dba89781c28fd3c82f8.jpg",
    "icongray": "https://steamcdn-a.akamaihd.net/steamcommunity/public/images/apps/796780/8592c916676956b6efead699c9027e77ee331495.jpg"
  },
  {
    "name": "ACH_3_STARS_TRACK_14",
    "defaultvalue": 0,
    "displayName": "Namib Desert Aspirant",
    "hidden": 0,
    "description": "Collect 4 Stars on Namib Desert.",
    "icon": "https://steamcdn-a.akamaihd.net/steamcommunity/public/images/apps/796780/652c95ebd0e5a19f3f3dcc7d7596d3248e918961.jpg",
    "icongray": "https://steamcdn-a.akamaihd.net/steamcommunity/public/images/apps/796780/fd7f70c5761784ba7d62a2572fe0981305a01e28.jpg"
  },
  {
    "name": "ACH_6_STARS_TRACK_14",
    "defaultvalue": 0,
    "displayName": "Namib Desert Legend",
    "hidden": 0,
    "description": "Collect 7 Stars on Namib Desert.",
    "icon": "https://steamcdn-a.akamaihd.net/steamcommunity/public/images/apps/796780/a394fd592f5aba790dd23e2e8afc763634f7b0aa.jpg",
    "icongray": "https://steamcdn-a.akamaihd.net/steamcommunity/public/images/apps/796780/fd7f70c5761784ba7d62a2572fe0981305a01e28.jpg"
  },
  {
    "name": "ACH_3_STARS_TRACK_15",
    "defaultvalue": 0,
    "displayName": "Sahara Aspirant",
    "hidden": 0,
    "description": "Collect 4 Stars on Sahara Desert.",
    "icon": "https://steamcdn-a.akamaihd.net/steamcommunity/public/images/apps/796780/e16d2f2d6516246f7da6ce6243ac0a4484b679c2.jpg",
    "icongray": "https://steamcdn-a.akamaihd.net/steamcommunity/public/images/apps/796780/15b45a0fcbad98d5d83f8a35374217217fa2080d.jpg"
  },
  {
    "name": "ACH_6_STARS_TRACK_15",
    "defaultvalue": 0,
    "displayName": "Sahara Legend",
    "hidden": 0,
    "description": "Collect 7 Stars on Sahara Desert.",
    "icon": "https://steamcdn-a.akamaihd.net/steamcommunity/public/images/apps/796780/488cbcce29ee1aa8e795d4aae7ee47790a9462b9.jpg",
    "icongray": "https://steamcdn-a.akamaihd.net/steamcommunity/public/images/apps/796780/83f3cc526fd4218d2d1759979032f4fd432f1236.jpg"
  },
  {
    "name": "ACH_3_STARS_TRACK_16",
    "defaultvalue": 0,
    "displayName": "Mud Aspirant",
    "hidden": 0,
    "description": "Collect 4 Stars on the Finnish Mud Raceway.",
    "icon": "https://steamcdn-a.akamaihd.net/steamcommunity/public/images/apps/796780/14d490bfd18a448838412e40879b08bc69e08f38.jpg",
    "icongray": "https://steamcdn-a.akamaihd.net/steamcommunity/public/images/apps/796780/d76c119ac7c11496dc82b837d228b21495ae612b.jpg"
  },
  {
    "name": "ACH_6_STARS_TRACK_16",
    "defaultvalue": 0,
    "displayName": "Mud Legend",
    "hidden": 0,
    "description": "Collect 7 Stars on Finnish Mud Raceway.",
    "icon": "https://steamcdn-a.akamaihd.net/steamcommunity/public/images/apps/796780/dbc2b5e03bddac8c53554ab52014ec3aed3a2b7e.jpg",
    "icongray": "https://steamcdn-a.akamaihd.net/steamcommunity/public/images/apps/796780/d76c119ac7c11496dc82b837d228b21495ae612b.jpg"
  },
  {
    "name": "ACH_3_STARS_TRACK_17",
    "defaultvalue": 0,
    "displayName": "Amazonas Aspirant",
    "hidden": 0,
    "description": "Collect 4 Stars on Amazonas Swamps.",
    "icon": "https://steamcdn-a.akamaihd.net/steamcommunity/public/images/apps/796780/f38f65ebfd264427fbb5e98b4202e0460bde146a.jpg",
    "icongray": "https://steamcdn-a.akamaihd.net/steamcommunity/public/images/apps/796780/5f99edde5974d58c79296dc8399c42d89c60801c.jpg"
  },
  {
    "name": "ACH_6_STARS_TRACK_17",
    "defaultvalue": 0,
    "displayName": "Amazonas Legend",
    "hidden": 0,
    "description": "Collect 7 Stars on Amazonas Swamps.",
    "icon": "https://steamcdn-a.akamaihd.net/steamcommunity/public/images/apps/796780/e8fd9ea50452c16d0d51fdcd42ff2a405b6cff94.jpg",
    "icongray": "https://steamcdn-a.akamaihd.net/steamcommunity/public/images/apps/796780/20f6c3439f422f7678163e6e411a1b7eaea76628.jpg"
  },
  {
    "name": "ACH_3_STARS_TRACK_18",
    "defaultvalue": 0,
    "displayName": "Yakutia Aspirant",
    "hidden": 0,
    "description": "Collect 4 Stars on the Woods of Yakutia.",
    "icon": "https://steamcdn-a.akamaihd.net/steamcommunity/public/images/apps/796780/fc15630c410c3a0276e9177c65c50302d959ff64.jpg",
    "icongray": "https://steamcdn-a.akamaihd.net/steamcommunity/public/images/apps/796780/2a53554c4c09c397a46058280445511f601e72ec.jpg"
  },
  {
    "name": "ACH_6_STARS_TRACK_18",
    "defaultvalue": 0,
    "displayName": "Yakutia  Legend",
    "hidden": 0,
    "description": "Collect 7 Stars on the Woods of Yakutia.",
    "icon": "https://steamcdn-a.akamaihd.net/steamcommunity/public/images/apps/796780/3939a857a9f0705ff3117ef835afc871c3482b1a.jpg",
    "icongray": "https://steamcdn-a.akamaihd.net/steamcommunity/public/images/apps/796780/2a53554c4c09c397a46058280445511f601e72ec.jpg"
  },
  {
    "name": "ACH_3_STARS_TRACK_19",
    "defaultvalue": 0,
    "displayName": "Siberian Aspirant",
    "hidden": 0,
    "description": "Collect 4 Stars on the Siberian Forest.",
    "icon": "https://steamcdn-a.akamaihd.net/steamcommunity/public/images/apps/796780/9417a6f969f810e6a00874780cbf82d520694ecd.jpg",
    "icongray": "https://steamcdn-a.akamaihd.net/steamcommunity/public/images/apps/796780/685ea2545e11bd9812e4108b0147a3b27b42d224.jpg"
  },
  {
    "name": "ACH_6_STARS_TRACK_19",
    "defaultvalue": 0,
    "displayName": "Siberian Legend",
    "hidden": 0,
    "description": "Collect 7 Stars on the Siberian Forest.",
    "icon": "https://steamcdn-a.akamaihd.net/steamcommunity/public/images/apps/796780/7337542663b171fe19fbb90f716d8a8414401b9e.jpg",
    "icongray": "https://steamcdn-a.akamaihd.net/steamcommunity/public/images/apps/796780/1cbc93ecc633426a9161aaea80fc421294f4be65.jpg"
  },
  {
    "name": "ACH_3_STARS_TRACK_20",
    "defaultvalue": 0,
    "displayName": "Pico da Neblina Aspirant",
    "hidden": 0,
    "description": "Collect 4 Stars on Pico da Neblina.",
    "icon": "https://steamcdn-a.akamaihd.net/steamcommunity/public/images/apps/796780/671a92ef21d12e53b11a106d4967b7324975b2e7.jpg",
    "icongray": "https://steamcdn-a.akamaihd.net/steamcommunity/public/images/apps/796780/2b38f44b1bcaba7970f662f92f2a799cb22b6120.jpg"
  },
  {
    "name": "ACH_6_STARS_TRACK_20",
    "defaultvalue": 0,
    "displayName": "Pico da Neblina Legend",
    "hidden": 0,
    "description": "Collect 7 Stars on Pico da Neblina.",
    "icon": "https://steamcdn-a.akamaihd.net/steamcommunity/public/images/apps/796780/68176d10e5dd0ddda174df553d246f16f4d67b5a.jpg",
    "icongray": "https://steamcdn-a.akamaihd.net/steamcommunity/public/images/apps/796780/2b38f44b1bcaba7970f662f92f2a799cb22b6120.jpg"
  },
  {
    "name": "ACH_3_STARS_TRACK_21",
    "defaultvalue": 0,
    "displayName": "Norwegian Village Aspirant",
    "hidden": 0,
    "description": "Collect 4 Stars on Norwegian Village.",
    "icon": "https://steamcdn-a.akamaihd.net/steamcommunity/public/images/apps/796780/f019f7d0d3756c99a8658238a680c3fd5bf88e28.jpg",
    "icongray": "https://steamcdn-a.akamaihd.net/steamcommunity/public/images/apps/796780/7b99e51880eceaf6617c2174bd3a38ff3b286a47.jpg"
  },
  {
    "name": "ACH_6_STARS_TRACK_21",
    "defaultvalue": 0,
    "displayName": "Norwegian Village Legend",
    "hidden": 0,
    "description": "Collect 7 Stars on Norwegian Village. \t",
    "icon": "https://steamcdn-a.akamaihd.net/steamcommunity/public/images/apps/796780/95ca69f20378890f54da345bd26997e86bbb11bc.jpg",
    "icongray": "https://steamcdn-a.akamaihd.net/steamcommunity/public/images/apps/796780/7b99e51880eceaf6617c2174bd3a38ff3b286a47.jpg"
  },
  {
    "name": "ACH_3_STARS_TRACK_22",
    "defaultvalue": 0,
    "displayName": "Alpine Pass Aspirant",
    "hidden": 0,
    "description": "Collect 4 Stars on Alpine Pass.",
    "icon": "https://steamcdn-a.akamaihd.net/steamcommunity/public/images/apps/796780/e24cc747fbfad1db39baaaebef2be8780ebfe972.jpg",
    "icongray": "https://steamcdn-a.akamaihd.net/steamcommunity/public/images/apps/796780/d6599ec1f782fb0e03e1ef3bffdca9e545d0b3dd.jpg"
  },
  {
    "name": "ACH_6_STARS_TRACK_22",
    "defaultvalue": 0,
    "displayName": "Alpine Pass Legend",
    "hidden": 0,
    "description": "Collect 7 Stars on Alpine Pass.",
    "icon": "https://steamcdn-a.akamaihd.net/steamcommunity/public/images/apps/796780/50c63684ebc650718e445ffc06a31e2154c2d8d5.jpg",
    "icongray": "https://steamcdn-a.akamaihd.net/steamcommunity/public/images/apps/796780/eb04e43302519352bbd968b7da74aa35b73bfccc.jpg"
  },
  {
    "name": "ACH_3_STARS_TRACK_23",
    "defaultvalue": 0,
    "displayName": "Russian Tundra Aspirant",
    "hidden": 0,
    "description": "Collect 4 Stars on Russian Tundra.",
    "icon": "https://steamcdn-a.akamaihd.net/steamcommunity/public/images/apps/796780/db54fe8b1813f03935a34b4245df4935799a4e45.jpg",
    "icongray": "https://steamcdn-a.akamaihd.net/steamcommunity/public/images/apps/796780/491fd9514b290edb843226be48d5952ea67dbddc.jpg"
  },
  {
    "name": "ACH_6_STARS_TRACK_23",
    "defaultvalue": 0,
    "displayName": "Russian Tundra Legend",
    "hidden": 0,
    "description": "Collect 7 Stars on Russian Tundra.",
    "icon": "https://steamcdn-a.akamaihd.net/steamcommunity/public/images/apps/796780/2be574be8b2ecbac455c664251175f2f7ae6d217.jpg",
    "icongray": "https://steamcdn-a.akamaihd.net/steamcommunity/public/images/apps/796780/ffcd8ad4042e874f9d44712fe4a34fdfe6d9517a.jpg"
  },
  {
    "name": "ACH_3_STARS_TRACK_24",
    "defaultvalue": 0,
    "displayName": "Himalaya Aspirant",
    "hidden": 0,
    "description": "Collect 4 Stars on Himalaya Ridge.",
    "icon": "https://steamcdn-a.akamaihd.net/steamcommunity/public/images/apps/796780/9d0e11b36b47eb80dc8651b9aafd2df55260da3a.jpg",
    "icongray": "https://steamcdn-a.akamaihd.net/steamcommunity/public/images/apps/796780/28de6835a8bd37a38a424557ddde62915aff49bd.jpg"
  },
  {
    "name": "ACH_6_STARS_TRACK_24",
    "defaultvalue": 0,
    "displayName": "Himalaya Legend",
    "hidden": 0,
    "description": "Collect 7 Stars on Himalaya Ridge.",
    "icon": "https://steamcdn-a.akamaihd.net/steamcommunity/public/images/apps/796780/a7bf0ebb7940758c8ab46e7dd54200542b7f8539.jpg",
    "icongray": "https://steamcdn-a.akamaihd.net/steamcommunity/public/images/apps/796780/28de6835a8bd37a38a424557ddde62915aff49bd.jpg"
  },
  {
    "name": "ACH_3_STARS_TRACK_25",
    "defaultvalue": 0,
    "displayName": "Greenland Airport Aspirant",
    "hidden": 0,
    "description": "Collect 4 Stars on Greenland Airport.",
    "icon": "https://steamcdn-a.akamaihd.net/steamcommunity/public/images/apps/796780/da3948f6abeed48d2545602b231efe3fedd722d0.jpg",
    "icongray": "https://steamcdn-a.akamaihd.net/steamcommunity/public/images/apps/796780/ccc445548ff2bfc916649cdf8e39e990de94e4ee.jpg"
  },
  {
    "name": "ACH_6_STARS_TRACK_25",
    "defaultvalue": 0,
    "displayName": "Greenland Airport Legend",
    "hidden": 0,
    "description": "Collect 7 Stars on Greenland Airport.",
    "icon": "https://steamcdn-a.akamaihd.net/steamcommunity/public/images/apps/796780/d866497edf1a1bbf9f3a4f8f26da5c5a95485005.jpg",
    "icongray": "https://steamcdn-a.akamaihd.net/steamcommunity/public/images/apps/796780/ccc445548ff2bfc916649cdf8e39e990de94e4ee.jpg"
  },
  {
    "name": "ACH_3_STARS_TRACK_26",
    "defaultvalue": 0,
    "displayName": "Icelandic Lake Aspirant",
    "hidden": 0,
    "description": "Collect 4 Stars on Icelandic Lake.",
    "icon": "https://steamcdn-a.akamaihd.net/steamcommunity/public/images/apps/796780/184bf32873d1cf58f423310271353e879e42f7f2.jpg",
    "icongray": "https://steamcdn-a.akamaihd.net/steamcommunity/public/images/apps/796780/c3c694710c17b39c4f35ae6dba60f83d32a77381.jpg"
  },
  {
    "name": "ACH_6_STARS_TRACK_26",
    "defaultvalue": 0,
    "displayName": "Icelandic Lake Legend",
    "hidden": 0,
    "description": "Collect 7 Stars on Icelandic Lake.",
    "icon": "https://steamcdn-a.akamaihd.net/steamcommunity/public/images/apps/796780/aa2b2929afb7c7bc051a5eb724fd3d4aff1a69bb.jpg",
    "icongray": "https://steamcdn-a.akamaihd.net/steamcommunity/public/images/apps/796780/c3c694710c17b39c4f35ae6dba60f83d32a77381.jpg"
  },
  {
    "name": "ACH_3_STARS_TRACK_27",
    "defaultvalue": 0,
    "displayName": "Canadian Lake Aspirant",
    "hidden": 0,
    "description": "Collect 4 Stars on Canadian Lake.",
    "icon": "https://steamcdn-a.akamaihd.net/steamcommunity/public/images/apps/796780/dcc56190db345198fc6386602edfbe6347a18a08.jpg",
    "icongray": "https://steamcdn-a.akamaihd.net/steamcommunity/public/images/apps/796780/70f7e61fac1f5b77545cb978fe0f2b5734d2e6fe.jpg"
  },
  {
    "name": "ACH_6_STARS_TRACK_27",
    "defaultvalue": 0,
    "displayName": "Canadian Lake Legend",
    "hidden": 0,
    "description": "Collect 7 Stars on Canadian Lake.",
    "icon": "https://steamcdn-a.akamaihd.net/steamcommunity/public/images/apps/796780/38c63da315dbc8a865d6d455f67920fc39a5b83c.jpg",
    "icongray": "https://steamcdn-a.akamaihd.net/steamcommunity/public/images/apps/796780/70f7e61fac1f5b77545cb978fe0f2b5734d2e6fe.jpg"
  },
  {
    "name": "ACH_3_STARS_TRACK_28",
    "defaultvalue": 0,
    "displayName": "South Pole Port Aspirant",
    "hidden": 0,
    "description": "Collect 4 Stars on South Pole Port.",
    "icon": "https://steamcdn-a.akamaihd.net/steamcommunity/public/images/apps/796780/2c4855ac5a8a35d80b5c042489f12824c7269568.jpg",
    "icongray": "https://steamcdn-a.akamaihd.net/steamcommunity/public/images/apps/796780/de137eb2704e7653419630cac5551a2eb8c8b4aa.jpg"
  },
  {
    "name": "ACH_6_STARS_TRACK_28",
    "defaultvalue": 0,
    "displayName": "South Pole Port Legend",
    "hidden": 0,
    "description": "Collect 7 Stars on South Pole Port.",
    "icon": "https://steamcdn-a.akamaihd.net/steamcommunity/public/images/apps/796780/b68c956d780b013377ca2875a0b6ab8da7e7272e.jpg",
    "icongray": "https://steamcdn-a.akamaihd.net/steamcommunity/public/images/apps/796780/65b3a342e58eb957539611881ff4c5ddb1398fd8.jpg"
  },
  {
    "name": "ACH_3_STARS_TRACK_29",
    "defaultvalue": 0,
    "displayName": "Alaskan  Canyon Aspirant",
    "hidden": 0,
    "description": "Collect 4 Stars on Alaskan Canyon.",
    "icon": "https://steamcdn-a.akamaihd.net/steamcommunity/public/images/apps/796780/836f5f7fdc095916078f26866e7ba51e1d89a364.jpg",
    "icongray": "https://steamcdn-a.akamaihd.net/steamcommunity/public/images/apps/796780/4db4913b09a5fe3ecef0cf333fe269303f883f22.jpg"
  },
  {
    "name": "ACH_6_STARS_TRACK_29",
    "defaultvalue": 0,
    "displayName": "Alaskan  Canyon Legend",
    "hidden": 0,
    "description": "Collect 7 Stars on Alaskan Canyon.",
    "icon": "https://steamcdn-a.akamaihd.net/steamcommunity/public/images/apps/796780/6a04f30eb8475b9975aa6f45faef722c6238a1fc.jpg",
    "icongray": "https://steamcdn-a.akamaihd.net/steamcommunity/public/images/apps/796780/4db4913b09a5fe3ecef0cf333fe269303f883f22.jpg"
  },
  {
    "name": "ACH_3_STARS_TRACK_30",
    "defaultvalue": 0,
    "displayName": "Mongolian Pass Aspirant",
    "hidden": 0,
    "description": "Collect 4 Stars on Mongolian Pass.",
    "icon": "https://steamcdn-a.akamaihd.net/steamcommunity/public/images/apps/796780/836e236f93ba17ff533b30585ee58b3bac356962.jpg",
    "icongray": "https://steamcdn-a.akamaihd.net/steamcommunity/public/images/apps/796780/ce9ea88ab30c21c4f54ab2d2fd2116d5b1781557.jpg"
  },
  {
    "name": "ACH_6_STARS_TRACK_30",
    "defaultvalue": 0,
    "displayName": "Mongolian Pass Legend",
    "hidden": 0,
    "description": "Collect 7 Stars on Mongolian Pass.",
    "icon": "https://steamcdn-a.akamaihd.net/steamcommunity/public/images/apps/796780/250525e4245b22e772b6db97d8e0fdb8c08c2438.jpg",
    "icongray": "https://steamcdn-a.akamaihd.net/steamcommunity/public/images/apps/796780/457a00e7685c7a58ec8923e6cc5d7e7a1038fbfc.jpg"
  },
  {
    "name": "ACH_3_STARS_TRACK_31",
    "defaultvalue": 0,
    "displayName": "Resort Island Aspirant",
    "hidden": 0,
    "description": "Collect 4 Stars on Resort Island.",
    "icon": "https://steamcdn-a.akamaihd.net/steamcommunity/public/images/apps/796780/6c81e2bdca1cd2cc9065c08410b4005ae3712791.jpg",
    "icongray": "https://steamcdn-a.akamaihd.net/steamcommunity/public/images/apps/796780/f563398e2abc9f2a54e9624fde31b1d40b0ba5ea.jpg"
  },
  {
    "name": "ACH_6_STARS_TRACK_31",
    "defaultvalue": 0,
    "displayName": "Resort Island Legend",
    "hidden": 0,
    "description": "Collect 7 Stars on Resort Island.",
    "icon": "https://steamcdn-a.akamaihd.net/steamcommunity/public/images/apps/796780/8e7072fe7b2b08bf4e3ca86843ded0093b0f6772.jpg",
    "icongray": "https://steamcdn-a.akamaihd.net/steamcommunity/public/images/apps/796780/7cde610777f4172add47b9132ab87d4d72005341.jpg"
  },
  {
    "name": "ACH_3_STARS_TRACK_32",
    "defaultvalue": 0,
    "displayName": "U.S.A Speedway Aspirant",
    "hidden": 0,
    "description": "Collect 4 Stars on U.S.A Speedway.",
    "icon": "https://steamcdn-a.akamaihd.net/steamcommunity/public/images/apps/796780/d1f8922ea3133939f31f04ecc32181eec018cb43.jpg",
    "icongray": "https://steamcdn-a.akamaihd.net/steamcommunity/public/images/apps/796780/bf2830c92761e2cfe3f9d11e2392e8ecb0807438.jpg"
  },
  {
    "name": "ACH_6_STARS_TRACK_32",
    "defaultvalue": 0,
    "displayName": "U.S.A Speedway Legend",
    "hidden": 0,
    "description": "Collect 7 Stars on  U.S.A Speedway.",
    "icon": "https://steamcdn-a.akamaihd.net/steamcommunity/public/images/apps/796780/5ca5332ab2a4c18fa8cb71bdb1b1b5535b5d302d.jpg",
    "icongray": "https://steamcdn-a.akamaihd.net/steamcommunity/public/images/apps/796780/bf2830c92761e2cfe3f9d11e2392e8ecb0807438.jpg"
  },
  {
    "name": "ACH_3_STARS_TRACK_33",
    "defaultvalue": 0,
    "displayName": "New Zealand Farm Aspirant",
    "hidden": 0,
    "description": "Collect 4 Stars on the New Zealand Farm Track.",
    "icon": "https://steamcdn-a.akamaihd.net/steamcommunity/public/images/apps/796780/13d2ae54dd056997a8c5cf6bd607c101a2ba7c91.jpg",
    "icongray": "https://steamcdn-a.akamaihd.net/steamcommunity/public/images/apps/796780/f07ee1e59d995b431378af32fde48ea77a570ba3.jpg"
  },
  {
    "name": "ACH_6_STARS_TRACK_33",
    "defaultvalue": 0,
    "displayName": "New Zealand Farm Legend",
    "hidden": 0,
    "description": "Collect 7 Stars on the New Zealand Farm Track.",
    "icon": "https://steamcdn-a.akamaihd.net/steamcommunity/public/images/apps/796780/ea23b51d27001e3081465172e600206788c48e57.jpg",
    "icongray": "https://steamcdn-a.akamaihd.net/steamcommunity/public/images/apps/796780/e3ed799b0d8c86099edc63984a870cd02e9266c0.jpg"
  },
  {
    "name": "ACH_3_STARS_TRACK_34",
    "defaultvalue": 0,
    "displayName": "U.S.A Dirt Arena Aspirant",
    "hidden": 0,
    "description": "Collect 4 Stars on U.S.A Dirt Arena.",
    "icon": "https://steamcdn-a.akamaihd.net/steamcommunity/public/images/apps/796780/deb631f7432e127ab400639f79ce9e419f4ec236.jpg",
    "icongray": "https://steamcdn-a.akamaihd.net/steamcommunity/public/images/apps/796780/e30a645fb89966f7a2df5e9fb0d4da78d7ce5ec2.jpg"
  },
  {
    "name": "ACH_6_STARS_TRACK_34",
    "defaultvalue": 0,
    "displayName": "U.S.A Dirt Arena Legend",
    "hidden": 0,
    "description": "Collect 7 Stars on U.S.A Dirt Arena.",
    "icon": "https://steamcdn-a.akamaihd.net/steamcommunity/public/images/apps/796780/493adcc07a497fb3b77c0e6048c464b5ddb59221.jpg",
    "icongray": "https://steamcdn-a.akamaihd.net/steamcommunity/public/images/apps/796780/e30a645fb89966f7a2df5e9fb0d4da78d7ce5ec2.jpg"
  },
  {
    "name": "ACH_3_STARS_TRACK_35",
    "defaultvalue": 0,
    "displayName": "Grazing Highlands Aspirant",
    "hidden": 0,
    "description": "Collect 4 Stars on GRAZING HIGHLANDS.",
    "icon": "https://steamcdn-a.akamaihd.net/steamcommunity/public/images/apps/796780/412867af711e2b53597004e2fb4278c2fd4e14fb.jpg",
    "icongray": "https://steamcdn-a.akamaihd.net/steamcommunity/public/images/apps/796780/535f0de70d5e35620c95c74db1ba24419337a2f3.jpg"
  },
  {
    "name": "ACH_6_STARS_TRACK_35",
    "defaultvalue": 0,
    "displayName": "Grazing Highlands Legend",
    "hidden": 0,
    "description": "Collect 7 Stars on GRAZING HIGHLANDS.",
    "icon": "https://steamcdn-a.akamaihd.net/steamcommunity/public/images/apps/796780/90497a1831c049e2af2cd95d276439d156636498.jpg",
    "icongray": "https://steamcdn-a.akamaihd.net/steamcommunity/public/images/apps/796780/a60e40f4e55ac38adc73129db0bc757925b144a9.jpg"
  },
  {
    "name": "ACH_3_STARS_TRACK_36",
    "defaultvalue": 0,
    "displayName": "Dammam Airport II Aspirant",
    "hidden": 0,
    "description": "Collect 4 Stars on Dammam Airport II.",
    "icon": "https://steamcdn-a.akamaihd.net/steamcommunity/public/images/apps/796780/1c92a77860fca5c6a2c4f3bbf6ba953a1e2dc160.jpg",
    "icongray": "https://steamcdn-a.akamaihd.net/steamcommunity/public/images/apps/796780/9587709f8214244b302d59051b54ffeb8862be06.jpg"
  },
  {
    "name": "ACH_6_STARS_TRACK_36",
    "defaultvalue": 0,
    "displayName": "Dammam Airport II Legend",
    "hidden": 0,
    "description": "Collect 7 Stars on Dammam Airport II.",
    "icon": "https://steamcdn-a.akamaihd.net/steamcommunity/public/images/apps/796780/9282a25336a483747a9e1bb3064c91d7d6fab7de.jpg",
    "icongray": "https://steamcdn-a.akamaihd.net/steamcommunity/public/images/apps/796780/af97f4fb13454c3254cbf156012fa2f94ed05809.jpg"
  },
  {
    "name": "ACH_3_STARS_TRACK_37",
    "defaultvalue": 0,
    "displayName": "German Raceway II Aspirant",
    "hidden": 0,
    "description": "Collect 4 Stars on German Raceway II.",
    "icon": "https://steamcdn-a.akamaihd.net/steamcommunity/public/images/apps/796780/6b3ed491ec2adda72a8e0e8f14d5029e2aa3ab23.jpg",
    "icongray": "https://steamcdn-a.akamaihd.net/steamcommunity/public/images/apps/796780/4b11678cea9a9717e1d1e695c313178b89738b75.jpg"
  },
  {
    "name": "ACH_6_STARS_TRACK_37",
    "defaultvalue": 0,
    "displayName": "German Raceway II Legend",
    "hidden": 0,
    "description": "Collect 7 Stars on German Raceway II.",
    "icon": "https://steamcdn-a.akamaihd.net/steamcommunity/public/images/apps/796780/e247dbb66fa8f74579ded9eb35717f6d06bdcc6c.jpg",
    "icongray": "https://steamcdn-a.akamaihd.net/steamcommunity/public/images/apps/796780/da74cca4329848ef3832953c8244ab81f29f1734.jpg"
  },
  {
    "name": "ACH_3_STARS_TRACK_38",
    "defaultvalue": 0,
    "displayName": "French River Valley II Aspirant",
    "hidden": 0,
    "description": "Collect 4 Stars on French River Valley II.",
    "icon": "https://steamcdn-a.akamaihd.net/steamcommunity/public/images/apps/796780/66414119b57444e57ae3cadca702934af8a18c60.jpg",
    "icongray": "https://steamcdn-a.akamaihd.net/steamcommunity/public/images/apps/796780/9e62e35e650bd8ef883ba799476b6b60876803f6.jpg"
  },
  {
    "name": "ACH_6_STARS_TRACK_38",
    "defaultvalue": 0,
    "displayName": "French River Valley II Legend",
    "hidden": 0,
    "description": "Collect 7 Stars on French River Valley II.",
    "icon": "https://steamcdn-a.akamaihd.net/steamcommunity/public/images/apps/796780/4057c40db7716fdae2e7220b33bef06f258296a3.jpg",
    "icongray": "https://steamcdn-a.akamaihd.net/steamcommunity/public/images/apps/796780/9e62e35e650bd8ef883ba799476b6b60876803f6.jpg"
  },
  {
    "name": "ACH_3_STARS_TRACK_39",
    "defaultvalue": 0,
    "displayName": "King Fahd Runway II Aspirant",
    "hidden": 0,
    "description": "Collect 4 Stars on King Fahd Runway II.",
    "icon": "https://steamcdn-a.akamaihd.net/steamcommunity/public/images/apps/796780/7db18943942c4bc6cf67d6d322b2045679680f42.jpg",
    "icongray": "https://steamcdn-a.akamaihd.net/steamcommunity/public/images/apps/796780/1e641d233646d4afd00755b0664ad6d2d077a9a5.jpg"
  },
  {
    "name": "ACH_6_STARS_TRACK_39",
    "defaultvalue": 0,
    "displayName": "King Fahd Runway II Legend",
    "hidden": 0,
    "description": "Collect 7 Stars on King Fahd Runway II.",
    "icon": "https://steamcdn-a.akamaihd.net/steamcommunity/public/images/apps/796780/c7688402b2b05cd28fde69932caf13495f185553.jpg",
    "icongray": "https://steamcdn-a.akamaihd.net/steamcommunity/public/images/apps/796780/1e641d233646d4afd00755b0664ad6d2d077a9a5.jpg"
  },
  {
    "name": "ACH_3_STARS_TRACK_40",
    "defaultvalue": 0,
    "displayName": "Serpentines II Aspirant",
    "hidden": 0,
    "description": "Collect 4 Stars on Sierra Nevada II.",
    "icon": "https://steamcdn-a.akamaihd.net/steamcommunity/public/images/apps/796780/9c2d9f0a6f67238b8b4f1ff73023434092d65190.jpg",
    "icongray": "https://steamcdn-a.akamaihd.net/steamcommunity/public/images/apps/796780/efc75d5f620dbe06f58ca5804c8aba188c3fc546.jpg"
  },
  {
    "name": "ACH_6_STARS_TRACK_40",
    "defaultvalue": 0,
    "displayName": "Serpentines II Legend",
    "hidden": 0,
    "description": "Collect 7 Stars on Sierra Nevada II.",
    "icon": "https://steamcdn-a.akamaihd.net/steamcommunity/public/images/apps/796780/29843418c9ae9e6f006a0ae922444f148bf97dea.jpg",
    "icongray": "https://steamcdn-a.akamaihd.net/steamcommunity/public/images/apps/796780/f9e913715be6e6caa010031987e63e415e264c3a.jpg"
  },
  {
    "name": "ACH_3_STARS_TRACK_41",
    "defaultvalue": 0,
    "displayName": "Car Park II Aspirant",
    "hidden": 0,
    "description": "Collect 4 Stars on Airport Car Park II.",
    "icon": "https://steamcdn-a.akamaihd.net/steamcommunity/public/images/apps/796780/cd243f171910de82c973121193005b5eba124f79.jpg",
    "icongray": "https://steamcdn-a.akamaihd.net/steamcommunity/public/images/apps/796780/ab5457f24a06d013c922510cbd9ac22924078927.jpg"
  },
  {
    "name": "ACH_6_STARS_TRACK_41",
    "defaultvalue": 0,
    "displayName": "Car Park II Legend",
    "hidden": 0,
    "description": "Collect 7 Stars on Airport Car Park II.",
    "icon": "https://steamcdn-a.akamaihd.net/steamcommunity/public/images/apps/796780/5b7bd7fe0e66e6c23a5ea9cb6cdedbf7c417e2e1.jpg",
    "icongray": "https://steamcdn-a.akamaihd.net/steamcommunity/public/images/apps/796780/ab5457f24a06d013c922510cbd9ac22924078927.jpg"
  },
  {
    "name": "ACH_BIG_PRIDE",
    "defaultvalue": 0,
    "displayName": "Big Pride",
    "hidden": 0,
    "description": "Collect a total of 600 Stars in Normal and Hardcore combined.",
    "icon": "https://steamcdn-a.akamaihd.net/steamcommunity/public/images/apps/796780/da1edd50f65ef629e9842af39c3d45108537ffad.jpg",
    "icongray": "https://steamcdn-a.akamaihd.net/steamcommunity/public/images/apps/796780/54414fffdc509ac4c0ca4880307fdef650034e49.jpg"
  },
  {
    "name": "ACH_ASPHALT_7_STARS",
    "defaultvalue": 0,
    "displayName": "Nitro God",
    "hidden": 0,
    "description": "Win a Race on Hardcore with the Nitro Car.",
    "icon": "https://steamcdn-a.akamaihd.net/steamcommunity/public/images/apps/796780/4599f3b24706ee255a6d67204b0028aed067d4ce.jpg",
    "icongray": "https://steamcdn-a.akamaihd.net/steamcommunity/public/images/apps/796780/7b100428441d8a96eedf19858c28ca7fab7cc6d8.jpg"
  },
  {
    "name": "ACH_WET_ASPHALT_7_STARS",
    "defaultvalue": 0,
    "displayName": "Hotspur II God",
    "hidden": 0,
    "description": "Win a Race on Hardcore with the Hotspur II Car.",
    "icon": "https://steamcdn-a.akamaihd.net/steamcommunity/public/images/apps/796780/b3f002f625b1a362ed1ca05ef419de8ac0c67dfc.jpg",
    "icongray": "https://steamcdn-a.akamaihd.net/steamcommunity/public/images/apps/796780/4365c27333c18f25da07253699f31c4d0bf89c0a.jpg"
  },
  {
    "name": "ACH_DIRT_7_STARS",
    "defaultvalue": 0,
    "displayName": "Sandworm God",
    "hidden": 0,
    "description": "Win a Race on Hardcore with the Sandworm Car.",
    "icon": "https://steamcdn-a.akamaihd.net/steamcommunity/public/images/apps/796780/211263799c53fc61f12e22e2f1c278e58ae2e9f6.jpg",
    "icongray": "https://steamcdn-a.akamaihd.net/steamcommunity/public/images/apps/796780/c9fbd68460afcd44afaae486b9b1b3e1193d6039.jpg"
  },
  {
    "name": "ACH_MUD_7_STARS",
    "defaultvalue": 0,
    "displayName": "Crusher God",
    "hidden": 0,
    "description": "Win a Race on Hardcore with the Crusher Car.",
    "icon": "https://steamcdn-a.akamaihd.net/steamcommunity/public/images/apps/796780/92b4df45da78d25a225772ed108db5dbdf2c0993.jpg",
    "icongray": "https://steamcdn-a.akamaihd.net/steamcommunity/public/images/apps/796780/85534ad2b5440fb6b45cd8a5f740cd68f8669dcf.jpg"
  },
  {
    "name": "ACH_SNOW_7_STARS",
    "defaultvalue": 0,
    "displayName": "Hotspur God",
    "hidden": 0,
    "description": "Win a Race on Hardcore with the Hotspur Car.",
    "icon": "https://steamcdn-a.akamaihd.net/steamcommunity/public/images/apps/796780/7dec2419ad7807ea98f121b7e39cdb6d8e4f95bd.jpg",
    "icongray": "https://steamcdn-a.akamaihd.net/steamcommunity/public/images/apps/796780/c675eaadcdd574ff0bebbaa73288d3f0800fdc19.jpg"
  },
  {
    "name": "ACH_ICE_7_STARS",
    "defaultvalue": 0,
    "displayName": "Shorty God",
    "hidden": 0,
    "description": "Win a Race on Hardcore with the Shorty Car.",
    "icon": "https://steamcdn-a.akamaihd.net/steamcommunity/public/images/apps/796780/ea0d990faf8bf66dfd661251a079e2505fb9f14b.jpg",
    "icongray": "https://steamcdn-a.akamaihd.net/steamcommunity/public/images/apps/796780/ef84a3d16dfbc177d173306f8c1f88ac569bad54.jpg"
  },
  {
    "name": "ACH_SUNNY_ISLAND_7_STARS",
    "defaultvalue": 0,
    "displayName": "Super God",
    "hidden": 0,
    "description": "Win a Race on Hardcore with the Super Car.",
    "icon": "https://steamcdn-a.akamaihd.net/steamcommunity/public/images/apps/796780/6081e07cf8032a343e2d069c8311c603f6398d00.jpg",
    "icongray": "https://steamcdn-a.akamaihd.net/steamcommunity/public/images/apps/796780/08ff2bcf5c849584ae7312108b2efb412654be39.jpg"
  }
]