{
  "Dlcs": {},
  "Name": "幻世情缘",
  "AppId": "869660",
  "ImageUrl": "https://steamcdn-a.akamaihd.net/steam/apps/869660/header.jpg?t=1567651060",
  "Languages": [
    "schinese"
  ],
  "Platforms": {
    "windows": true,
    "mac": false,
    "linux": false
  }
}