[
  {
    "name": "cheater",
    "defaultvalue": 0,
    "displayName": "Cheater",
    "hidden": 0,
    "description": "Cheaters never win. Winners never cheat.",
    "icon": "https://steamcdn-a.akamaihd.net/steamcommunity/public/images/apps/1097690/ea8e9f5bc2cdaf139ea01b415c7f48b7820dc2f5.jpg",
    "icongray": "https://steamcdn-a.akamaihd.net/steamcommunity/public/images/apps/1097690/c790e1a83bf9b27de6640fd2060f605b96610922.jpg"
  },
  {
    "name": "death",
    "defaultvalue": 0,
    "displayName": "Come back from the dead",
    "hidden": 0,
    "description": "Well, you died. But you're coming back again right? No? Please?",
    "icon": "https://steamcdn-a.akamaihd.net/steamcommunity/public/images/apps/1097690/ea8e9f5bc2cdaf139ea01b415c7f48b7820dc2f5.jpg",
    "icongray": "https://steamcdn-a.akamaihd.net/steamcommunity/public/images/apps/1097690/8554c4b5eb18e484a11a9ceadb04b5eb8403f9c5.jpg"
  },
  {
    "name": "survivor",
    "defaultvalue": 0,
    "displayName": "Survivor",
    "hidden": 0,
    "description": "Are you even human? How are you even still alive?",
    "icon": "https://steamcdn-a.akamaihd.net/steamcommunity/public/images/apps/1097690/c628c90fbed5a2227a85cecdf4e59a062310bfa4.jpg",
    "icongray": "https://steamcdn-a.akamaihd.net/steamcommunity/public/images/apps/1097690/8554c4b5eb18e484a11a9ceadb04b5eb8403f9c5.jpg"
  },
  {
    "name": "gullible",
    "defaultvalue": 0,
    "displayName": "Gullible",
    "hidden": 0,
    "description": "Not once, twice but three times you try!",
    "icon": "https://steamcdn-a.akamaihd.net/steamcommunity/public/images/apps/1097690/ea8e9f5bc2cdaf139ea01b415c7f48b7820dc2f5.jpg",
    "icongray": "https://steamcdn-a.akamaihd.net/steamcommunity/public/images/apps/1097690/8554c4b5eb18e484a11a9ceadb04b5eb8403f9c5.jpg"
  },
  {
    "name": "beatthracian",
    "defaultvalue": 0,
    "displayName": "Ship Champion",
    "hidden": 0,
    "description": "Champion of the slave ship.",
    "icon": "https://steamcdn-a.akamaihd.net/steamcommunity/public/images/apps/1097690/ea8e9f5bc2cdaf139ea01b415c7f48b7820dc2f5.jpg",
    "icongray": "https://steamcdn-a.akamaihd.net/steamcommunity/public/images/apps/1097690/8554c4b5eb18e484a11a9ceadb04b5eb8403f9c5.jpg"
  },
  {
    "name": "truefriend",
    "defaultvalue": 0,
    "displayName": "True Friend",
    "hidden": 0,
    "description": "You are a true friend.",
    "icon": "https://steamcdn-a.akamaihd.net/steamcommunity/public/images/apps/1097690/ea8e9f5bc2cdaf139ea01b415c7f48b7820dc2f5.jpg",
    "icongray": "https://steamcdn-a.akamaihd.net/steamcommunity/public/images/apps/1097690/8554c4b5eb18e484a11a9ceadb04b5eb8403f9c5.jpg"
  },
  {
    "name": "smoothtalker",
    "defaultvalue": 0,
    "displayName": "Smooth Talker",
    "hidden": 0,
    "description": "You belong in the Wolf of Wall Street, not ancient Rome!",
    "icon": "https://steamcdn-a.akamaihd.net/steamcommunity/public/images/apps/1097690/ea8e9f5bc2cdaf139ea01b415c7f48b7820dc2f5.jpg",
    "icongray": "https://steamcdn-a.akamaihd.net/steamcommunity/public/images/apps/1097690/8554c4b5eb18e484a11a9ceadb04b5eb8403f9c5.jpg"
  },
  {
    "name": "forgetful",
    "defaultvalue": 0,
    "displayName": "Forgetful",
    "hidden": 0,
    "description": "How could you forget? And now you pay the price.",
    "icon": "https://steamcdn-a.akamaihd.net/steamcommunity/public/images/apps/1097690/ea8e9f5bc2cdaf139ea01b415c7f48b7820dc2f5.jpg",
    "icongray": "https://steamcdn-a.akamaihd.net/steamcommunity/public/images/apps/1097690/c790e1a83bf9b27de6640fd2060f605b96610922.jpg"
  },
  {
    "name": "houseofcato",
    "defaultvalue": 0,
    "displayName": "House of Cato Champion",
    "hidden": 0,
    "description": "Champion of the House of Cato.",
    "icon": "https://steamcdn-a.akamaihd.net/steamcommunity/public/images/apps/1097690/57a5476c2c116e9153aa7eec78cd1fef65a55a8f.jpg",
    "icongray": "https://steamcdn-a.akamaihd.net/steamcommunity/public/images/apps/1097690/8554c4b5eb18e484a11a9ceadb04b5eb8403f9c5.jpg"
  },
  {
    "name": "houseofbrutus",
    "defaultvalue": 0,
    "displayName": "House of Brutus Champion",
    "hidden": 0,
    "description": "Champion of the House of Brutus.",
    "icon": "https://steamcdn-a.akamaihd.net/steamcommunity/public/images/apps/1097690/57a5476c2c116e9153aa7eec78cd1fef65a55a8f.jpg",
    "icongray": "https://steamcdn-a.akamaihd.net/steamcommunity/public/images/apps/1097690/8554c4b5eb18e484a11a9ceadb04b5eb8403f9c5.jpg"
  },
  {
    "name": "nohouse",
    "defaultvalue": 0,
    "displayName": "Who needs sponsors?",
    "hidden": 0,
    "description": "Who needs sponsors?",
    "icon": "https://steamcdn-a.akamaihd.net/steamcommunity/public/images/apps/1097690/57a5476c2c116e9153aa7eec78cd1fef65a55a8f.jpg",
    "icongray": "https://steamcdn-a.akamaihd.net/steamcommunity/public/images/apps/1097690/8554c4b5eb18e484a11a9ceadb04b5eb8403f9c5.jpg"
  },
  {
    "name": "first_kiss",
    "defaultvalue": 0,
    "displayName": "(;",
    "hidden": 0,
    "description": "(;",
    "icon": "https://steamcdn-a.akamaihd.net/steamcommunity/public/images/apps/1097690/ea8e9f5bc2cdaf139ea01b415c7f48b7820dc2f5.jpg",
    "icongray": "https://steamcdn-a.akamaihd.net/steamcommunity/public/images/apps/1097690/8554c4b5eb18e484a11a9ceadb04b5eb8403f9c5.jpg"
  },
  {
    "name": "clean_win",
    "defaultvalue": 0,
    "displayName": "Spotless",
    "hidden": 0,
    "description": "What a democratic purist!",
    "icon": "https://steamcdn-a.akamaihd.net/steamcommunity/public/images/apps/1097690/ea8e9f5bc2cdaf139ea01b415c7f48b7820dc2f5.jpg",
    "icongray": "https://steamcdn-a.akamaihd.net/steamcommunity/public/images/apps/1097690/8554c4b5eb18e484a11a9ceadb04b5eb8403f9c5.jpg"
  },
  {
    "name": "debut_no_damage",
    "defaultvalue": 0,
    "displayName": "Perfect Debut",
    "hidden": 0,
    "description": "Are you human? Or are you cheating???",
    "icon": "https://steamcdn-a.akamaihd.net/steamcommunity/public/images/apps/1097690/ea8e9f5bc2cdaf139ea01b415c7f48b7820dc2f5.jpg",
    "icongray": "https://steamcdn-a.akamaihd.net/steamcommunity/public/images/apps/1097690/8554c4b5eb18e484a11a9ceadb04b5eb8403f9c5.jpg"
  },
  {
    "name": "debut_winner",
    "defaultvalue": 0,
    "displayName": "Winner winner chicken dinner",
    "hidden": 0,
    "description": "Debuts can be nerve-wrecking, especially if your life is on the line.",
    "icon": "https://steamcdn-a.akamaihd.net/steamcommunity/public/images/apps/1097690/ea8e9f5bc2cdaf139ea01b415c7f48b7820dc2f5.jpg",
    "icongray": "https://steamcdn-a.akamaihd.net/steamcommunity/public/images/apps/1097690/8554c4b5eb18e484a11a9ceadb04b5eb8403f9c5.jpg"
  },
  {
    "name": "escaped",
    "defaultvalue": 0,
    "displayName": "Escape Artist",
    "hidden": 0,
    "description": "Ooh you sneaky bugger!",
    "icon": "https://steamcdn-a.akamaihd.net/steamcommunity/public/images/apps/1097690/ea8e9f5bc2cdaf139ea01b415c7f48b7820dc2f5.jpg",
    "icongray": "https://steamcdn-a.akamaihd.net/steamcommunity/public/images/apps/1097690/8554c4b5eb18e484a11a9ceadb04b5eb8403f9c5.jpg"
  },
  {
    "name": "going_solo",
    "defaultvalue": 0,
    "displayName": "Going Solo",
    "hidden": 0,
    "description": "Make it out of the Colosseum.",
    "icon": "https://steamcdn-a.akamaihd.net/steamcommunity/public/images/apps/1097690/639d976c7cdbdf684e8cd466ff2ac4360df2077c.jpg",
    "icongray": "https://steamcdn-a.akamaihd.net/steamcommunity/public/images/apps/1097690/8554c4b5eb18e484a11a9ceadb04b5eb8403f9c5.jpg"
  },
  {
    "name": "ultimate_sacrifice",
    "defaultvalue": 0,
    "displayName": "Ultimate Sacrifice",
    "hidden": 0,
    "description": "Sacrifices must be made…",
    "icon": "https://steamcdn-a.akamaihd.net/steamcommunity/public/images/apps/1097690/ea8e9f5bc2cdaf139ea01b415c7f48b7820dc2f5.jpg",
    "icongray": "https://steamcdn-a.akamaihd.net/steamcommunity/public/images/apps/1097690/c790e1a83bf9b27de6640fd2060f605b96610922.jpg"
  },
  {
    "name": "who_caesar",
    "defaultvalue": 0,
    "displayName": "Who's Caesar?",
    "hidden": 0,
    "description": "Maybe not the wisest choice…",
    "icon": "https://steamcdn-a.akamaihd.net/steamcommunity/public/images/apps/1097690/639d976c7cdbdf684e8cd466ff2ac4360df2077c.jpg",
    "icongray": "https://steamcdn-a.akamaihd.net/steamcommunity/public/images/apps/1097690/8554c4b5eb18e484a11a9ceadb04b5eb8403f9c5.jpg"
  },
  {
    "name": "lost_survive",
    "defaultvalue": 0,
    "displayName": "Thumbs Up",
    "hidden": 0,
    "description": "Thumbs up man!",
    "icon": "https://steamcdn-a.akamaihd.net/steamcommunity/public/images/apps/1097690/639d976c7cdbdf684e8cd466ff2ac4360df2077c.jpg",
    "icongray": "https://steamcdn-a.akamaihd.net/steamcommunity/public/images/apps/1097690/8554c4b5eb18e484a11a9ceadb04b5eb8403f9c5.jpg"
  },
  {
    "name": "fan_favourite",
    "defaultvalue": 0,
    "displayName": "Fan Favorite",
    "hidden": 0,
    "description": "Everybody loves you!",
    "icon": "https://steamcdn-a.akamaihd.net/steamcommunity/public/images/apps/1097690/ea8e9f5bc2cdaf139ea01b415c7f48b7820dc2f5.jpg",
    "icongray": "https://steamcdn-a.akamaihd.net/steamcommunity/public/images/apps/1097690/8554c4b5eb18e484a11a9ceadb04b5eb8403f9c5.jpg"
  },
  {
    "name": "champion",
    "defaultvalue": 0,
    "displayName": "Champion of the Colosseum",
    "hidden": 0,
    "description": "All hail the champion!",
    "icon": "https://steamcdn-a.akamaihd.net/steamcommunity/public/images/apps/1097690/c628c90fbed5a2227a85cecdf4e59a062310bfa4.jpg",
    "icongray": "https://steamcdn-a.akamaihd.net/steamcommunity/public/images/apps/1097690/8554c4b5eb18e484a11a9ceadb04b5eb8403f9c5.jpg"
  }
]