[
  {
    "name": "COLLEGEDAYS",
    "defaultvalue": 0,
    "displayName": "College Days",
    "hidden": 0,
    "description": "",
    "icon": "https://steamcdn-a.akamaihd.net/steamcommunity/public/images/apps/894460/f9629a242b2c500077ccf9211141cbaf0f3e0901.jpg",
    "icongray": "https://steamcdn-a.akamaihd.net/steamcommunity/public/images/apps/894460/dd6a5dbd0e78d54b79137e73e30f30bc383ff099.jpg"
  },
  {
    "name": "TRACKMURDER",
    "defaultvalue": 0,
    "displayName": "Protecting Him",
    "hidden": 0,
    "description": "Murder an innocent.",
    "icon": "https://steamcdn-a.akamaihd.net/steamcommunity/public/images/apps/894460/f4ef72ed5f8b56c07f51c179c0e27d91eced1ebc.jpg",
    "icongray": "https://steamcdn-a.akamaihd.net/steamcommunity/public/images/apps/894460/5530c58469ed418a4887d4250f5e9aa112a35316.jpg"
  },
  {
    "name": "CLASSMURDER",
    "defaultvalue": 0,
    "displayName": "Defending Him",
    "hidden": 0,
    "description": "Murder someone who got in the way.",
    "icon": "https://steamcdn-a.akamaihd.net/steamcommunity/public/images/apps/894460/da34da48528f4cca8f8ae75789916fd7fb1deee8.jpg",
    "icongray": "https://steamcdn-a.akamaihd.net/steamcommunity/public/images/apps/894460/6d8b0617c7249446debc17b53e8d22b200af4d29.jpg"
  },
  {
    "name": "SUPPORTIVE",
    "defaultvalue": 0,
    "displayName": "Supportive",
    "hidden": 0,
    "description": "Sacrifice mental health for John's sake.",
    "icon": "https://steamcdn-a.akamaihd.net/steamcommunity/public/images/apps/894460/8eec9422fbfaa347539779012fc42f5745d8dfc0.jpg",
    "icongray": "https://steamcdn-a.akamaihd.net/steamcommunity/public/images/apps/894460/6e9f90f379b96c977b299407f2fd5365cbafdcd9.jpg"
  },
  {
    "name": "SPEAKER",
    "defaultvalue": 0,
    "displayName": "Mrs. Kelsey",
    "hidden": 0,
    "description": "",
    "icon": "https://steamcdn-a.akamaihd.net/steamcommunity/public/images/apps/894460/7c6da378e0cbc3b672f68ce39c51c12df05a26c3.jpg",
    "icongray": "https://steamcdn-a.akamaihd.net/steamcommunity/public/images/apps/894460/9057794535ebc42f113a7c60588bc57d394e1888.jpg"
  },
  {
    "name": "GAMER",
    "defaultvalue": 0,
    "displayName": "Digital Murder",
    "hidden": 0,
    "description": "",
    "icon": "https://steamcdn-a.akamaihd.net/steamcommunity/public/images/apps/894460/752ab3f0ce71055821f556df618c475196830379.jpg",
    "icongray": "https://steamcdn-a.akamaihd.net/steamcommunity/public/images/apps/894460/666d89490b055f36a52dba8e6b67fefcaa7006cd.jpg"
  },
  {
    "name": "LIBRARYSEX",
    "defaultvalue": 0,
    "displayName": "Library Fun",
    "hidden": 0,
    "description": "Have fun with John in the libary.",
    "icon": "https://steamcdn-a.akamaihd.net/steamcommunity/public/images/apps/894460/2333631d3420f457054de378c066141545a7b141.jpg",
    "icongray": "https://steamcdn-a.akamaihd.net/steamcommunity/public/images/apps/894460/dcde52c7da14210cd72b2954c25cb5a059627d80.jpg"
  },
  {
    "name": "WEDDINGSEX",
    "defaultvalue": 0,
    "displayName": "Bachelorette Party",
    "hidden": 0,
    "description": "Break wedding traditions.",
    "icon": "https://steamcdn-a.akamaihd.net/steamcommunity/public/images/apps/894460/239bee99c74024078039822d7e353a3d1402376e.jpg",
    "icongray": "https://steamcdn-a.akamaihd.net/steamcommunity/public/images/apps/894460/67fb1ef9433115b04e52e14bcdc00298801c98ec.jpg"
  },
  {
    "name": "TRUEWEDDING",
    "defaultvalue": 0,
    "displayName": "True Wedding",
    "hidden": 0,
    "description": "Reach the canon ending.",
    "icon": "https://steamcdn-a.akamaihd.net/steamcommunity/public/images/apps/894460/16de0b502c270017bb16c4ca347385596c7b3682.jpg",
    "icongray": "https://steamcdn-a.akamaihd.net/steamcommunity/public/images/apps/894460/79503032f94f7a7ff7c99ce20e0e673b09392d5d.jpg"
  }
]