﻿[
  {
    "name": "BASS2_COMPLETE",
    "defaultvalue": 0,
    "displayName": "Completionist",
    "hidden": 0,
    "description": "Complete the game",
    "icon": "https://steamcdn-a.akamaihd.net/steamcommunity/public/images/apps/1146310/90ebce453454dcc4b155d153bddd316201561c8d.jpg",
    "icongray": "https://steamcdn-a.akamaihd.net/steamcommunity/public/images/apps/1146310/21e59e65382df9b8bcbc3e906dc00424ca3f90bc.jpg"
  },
  {
    "name": "LESSON_OVER",
    "defaultvalue": 0,
    "displayName": "Your Lessons Are Over",
    "hidden": 0,
    "description": "Complete all tutorials",
    "icon": "https://steamcdn-a.akamaihd.net/steamcommunity/public/images/apps/1146310/a047f642f5af28098417361780e982c3ab5fa6f6.jpg",
    "icongray": "https://steamcdn-a.akamaihd.net/steamcommunity/public/images/apps/1146310/a19b1e953e3cea52ba9c48267fea31320cf7f9a1.jpg"
  },
  {
    "name": "PLANET_BRAIN",
    "defaultvalue": 0,
    "displayName": "Brain The Size Of A Planet",
    "hidden": 0,
    "description": "Complete the game without using any hints",
    "icon": "https://steamcdn-a.akamaihd.net/steamcommunity/public/images/apps/1146310/b4132e8d4cc9ab1e4ee0d6dbabd94ca940f54939.jpg",
    "icongray": "https://steamcdn-a.akamaihd.net/steamcommunity/public/images/apps/1146310/7839f1d1b0ea79c5bd9bb7579acf92f1d2640dba.jpg"
  },
  {
    "name": "SCREAM_ZEN",
    "defaultvalue": 0,
    "displayName": "The Zen Of Screaming",
    "hidden": 0,
    "description": "Set the Kids' Exhibit to speak 'Aggressively'",
    "icon": "https://steamcdn-a.akamaihd.net/steamcommunity/public/images/apps/1146310/83946fd229a221363ef84891dadadcb750e0c6a9.jpg",
    "icongray": "https://steamcdn-a.akamaihd.net/steamcommunity/public/images/apps/1146310/c2c1f882e53d2b5adce637b7d44fe4614c274cc6.jpg"
  },
  {
    "name": "HUNGER_GAMES",
    "defaultvalue": 0,
    "displayName": "Hunger Games",
    "hidden": 0,
    "description": "Feed Voxel a stolen sandwich",
    "icon": "https://steamcdn-a.akamaihd.net/steamcommunity/public/images/apps/1146310/74ddadc50857c6b1a2d03678759dc3c97687658e.jpg",
    "icongray": "https://steamcdn-a.akamaihd.net/steamcommunity/public/images/apps/1146310/e0622df68ae1a7f30875553f0dd9c92e5d0d1bae.jpg"
  },
  {
    "name": "WASH_PINBOWL",
    "defaultvalue": 0,
    "displayName": "Wash Pin Bowling",
    "hidden": 0,
    "description": "Knock Chipworth over",
    "icon": "https://steamcdn-a.akamaihd.net/steamcommunity/public/images/apps/1146310/b21784618189def3ea8f4fc5165d17a852b6e20c.jpg",
    "icongray": "https://steamcdn-a.akamaihd.net/steamcommunity/public/images/apps/1146310/006a957ac30df1e18e53713eb80fa8971f103fa7.jpg"
  },
  {
    "name": "WATER_PLANTS",
    "defaultvalue": 0,
    "displayName": "Water The Plants",
    "hidden": 0,
    "description": "Turn the sprinklers on",
    "icon": "https://steamcdn-a.akamaihd.net/steamcommunity/public/images/apps/1146310/a1fd2cdfa3e98b890df385b967b54538ef7ffe85.jpg",
    "icongray": "https://steamcdn-a.akamaihd.net/steamcommunity/public/images/apps/1146310/44a79bcfea4be3a47174a49a5366c569324fb72c.jpg"
  },
  {
    "name": "HISTORY_OF_JOEY",
    "defaultvalue": 0,
    "displayName": "History Lesson",
    "hidden": 0,
    "description": "Learn the full story of Joey the Saviour",
    "icon": "https://steamcdn-a.akamaihd.net/steamcommunity/public/images/apps/1146310/289ab6e7eb2d4c99aa1d0724a7e3eff677750f25.jpg",
    "icongray": "https://steamcdn-a.akamaihd.net/steamcommunity/public/images/apps/1146310/0451593f7d70723ad8860aedd5b3eb4c4354fe11.jpg"
  },
  {
    "name": "FISHY_TAIL",
    "defaultvalue": 0,
    "displayName": "A Fishy Tail",
    "hidden": 0,
    "description": "Porpoisefully fail Jimmy's scary moment",
    "icon": "https://steamcdn-a.akamaihd.net/steamcommunity/public/images/apps/1146310/c3ac2229f7f045ba834d4e594f3121f91ff4c725.jpg",
    "icongray": "https://steamcdn-a.akamaihd.net/steamcommunity/public/images/apps/1146310/dc3410af4699eff8868037c239440b3c89b3b415.jpg"
  },
  {
    "name": "POETRY_SLAM",
    "defaultvalue": 0,
    "displayName": "Poetry Slam",
    "hidden": 0,
    "description": "Watch a full poetry recital",
    "icon": "https://steamcdn-a.akamaihd.net/steamcommunity/public/images/apps/1146310/bf6259d98dad3ce37d1256b5b084123f6a3afea6.jpg",
    "icongray": "https://steamcdn-a.akamaihd.net/steamcommunity/public/images/apps/1146310/a4ed5ff1946e8890d182707e3fc822f21b089c60.jpg"
  },
  {
    "name": "JOEYNESS",
    "defaultvalue": 0,
    "displayName": "Cleanliness Is Next To Joeyness",
    "hidden": 0,
    "description": "Clean everything up, ready for the party",
    "icon": "https://steamcdn-a.akamaihd.net/steamcommunity/public/images/apps/1146310/67360bf8801602418abc080090a0423d83b8886d.jpg",
    "icongray": "https://steamcdn-a.akamaihd.net/steamcommunity/public/images/apps/1146310/9ff21e9c14e612811e41e4fef434aeaf24772e94.jpg"
  },
  {
    "name": "CLASSIC_THREADS",
    "defaultvalue": 0,
    "displayName": "Classic Threads",
    "hidden": 0,
    "description": "Unlock Foster's classic coat",
    "icon": "https://steamcdn-a.akamaihd.net/steamcommunity/public/images/apps/1146310/3565c9793a6e22115ff03bdb3a447b75a597f117.jpg",
    "icongray": "https://steamcdn-a.akamaihd.net/steamcommunity/public/images/apps/1146310/66e76d65e9ca557991e4064c0cba47eff6fbb7c7.jpg"
  },
  {
    "name": "RATIONAL_CRAZY",
    "defaultvalue": 0,
    "displayName": "Rational Or Just Crazy?",
    "hidden": 0,
    "description": "Examine all of Graham's conspiracy posters",
    "icon": "https://steamcdn-a.akamaihd.net/steamcommunity/public/images/apps/1146310/63abe6513d50401aaf4b691420f569c059e94d87.jpg",
    "icongray": "https://steamcdn-a.akamaihd.net/steamcommunity/public/images/apps/1146310/700d1020369148098490452cfad53135d9025edf.jpg"
  },
  {
    "name": "TWO_FACED",
    "defaultvalue": 0,
    "displayName": "Two Faced",
    "hidden": 0,
    "description": "Witness both Songbird's endings",
    "icon": "https://steamcdn-a.akamaihd.net/steamcommunity/public/images/apps/1146310/4071d4c7977aad97f55322ed4edb622e52916792.jpg",
    "icongray": "https://steamcdn-a.akamaihd.net/steamcommunity/public/images/apps/1146310/e6a0d99b09ac3e4b340456bb9b8093153a754d76.jpg"
  },
  {
    "name": "ULTIMATE_COLLECTOR",
    "defaultvalue": 0,
    "displayName": "Ultimate Collector",
    "hidden": 1,
    "icon": "https://steamcdn-a.akamaihd.net/steamcommunity/public/images/apps/1146310/389cf12533f00e7ad4ee19dc2f75c51b24778471.jpg",
    "icongray": "https://steamcdn-a.akamaihd.net/steamcommunity/public/images/apps/1146310/22b8806bb3bec941d4cb1704d11a7bcfa791800f.jpg"
  },
  {
    "name": "MOVIE_BUFF",
    "defaultvalue": 0,
    "displayName": "Movie Buff",
    "hidden": 1,
    "icon": "https://steamcdn-a.akamaihd.net/steamcommunity/public/images/apps/1146310/0b2016e959368c5cbbb8901b3abb62851ede39ef.jpg",
    "icongray": "https://steamcdn-a.akamaihd.net/steamcommunity/public/images/apps/1146310/bee2cef1ae2de1b32388a9a26c3a15dfc0c184ee.jpg"
  },
  {
    "name": "INFILTRATOR",
    "defaultvalue": 0,
    "displayName": "Infiltrator",
    "hidden": 1,
    "icon": "https://steamcdn-a.akamaihd.net/steamcommunity/public/images/apps/1146310/e1af95014982ec4146c0e65a3c8b0d3b4134b5f9.jpg",
    "icongray": "https://steamcdn-a.akamaihd.net/steamcommunity/public/images/apps/1146310/7d07a4b59f0ce25f10956a8aaf84b3e5a9b0238b.jpg"
  },
  {
    "name": "INTERVIEW_WOES",
    "defaultvalue": 0,
    "displayName": "Interview Jeopardy",
    "hidden": 1,
    "icon": "https://steamcdn-a.akamaihd.net/steamcommunity/public/images/apps/1146310/bccd4b2d45f998e339f6ca494660cf99bdb9924a.jpg",
    "icongray": "https://steamcdn-a.akamaihd.net/steamcommunity/public/images/apps/1146310/4d5863e34c15b2c09f6cd79cb2dd4e0ce0d1f6bd.jpg"
  },
  {
    "name": "OLD_FRIEND",
    "defaultvalue": 0,
    "displayName": "Reunited With An Old Friend",
    "hidden": 1,
    "icon": "https://steamcdn-a.akamaihd.net/steamcommunity/public/images/apps/1146310/06d1e57167987461fec88c8cb493383eed681f5e.jpg",
    "icongray": "https://steamcdn-a.akamaihd.net/steamcommunity/public/images/apps/1146310/5f04f794ed76673c9d13e476f26dc52e97837596.jpg"
  },
  {
    "name": "LAX_SAFETY",
    "defaultvalue": 0,
    "displayName": "Lax Safety",
    "hidden": 1,
    "icon": "https://steamcdn-a.akamaihd.net/steamcommunity/public/images/apps/1146310/1f89bc680f1baacb9334f76dc137f3ba079e7d0f.jpg",
    "icongray": "https://steamcdn-a.akamaihd.net/steamcommunity/public/images/apps/1146310/424373c4b4dd8df0a594d667e28f93c42b9d5558.jpg"
  },
  {
    "name": "KNOCKOUT",
    "defaultvalue": 0,
    "displayName": "Knockout",
    "hidden": 1,
    "icon": "https://steamcdn-a.akamaihd.net/steamcommunity/public/images/apps/1146310/0cbb36248ab193a0ac57cd74bbbd56a88707a6ae.jpg",
    "icongray": "https://steamcdn-a.akamaihd.net/steamcommunity/public/images/apps/1146310/ef62c4a7d2602ea9aa5fbb4e5ac5979ed1179d40.jpg"
  },
  {
    "name": "IRON_FURNACE",
    "defaultvalue": 0,
    "displayName": "Tha Man Behind The Iron Furnace",
    "hidden": 1,
    "icon": "https://steamcdn-a.akamaihd.net/steamcommunity/public/images/apps/1146310/84430388814bec6aa0cb18e6f0d8cf0e0e0bf548.jpg",
    "icongray": "https://steamcdn-a.akamaihd.net/steamcommunity/public/images/apps/1146310/eaa72c207354b238e75b89ca5b91cd88d4d68500.jpg"
  },
  {
    "name": "8BIT_DAYS",
    "defaultvalue": 0,
    "displayName": "8bit Days",
    "hidden": 1,
    "icon": "https://steamcdn-a.akamaihd.net/steamcommunity/public/images/apps/1146310/4eb85c3a2a028e788b8fa22b422653fdda9a5e66.jpg",
    "icongray": "https://steamcdn-a.akamaihd.net/steamcommunity/public/images/apps/1146310/76b112aab211df8b4a28f1bb7664c84dfae5a781.jpg"
  },
  {
    "name": "CRYSTAL_CLEAR",
    "defaultvalue": 0,
    "displayName": "Crystal Clear",
    "hidden": 1,
    "icon": "https://steamcdn-a.akamaihd.net/steamcommunity/public/images/apps/1146310/3f4571d722ae2cac352343d287250a0e178fc7ee.jpg",
    "icongray": "https://steamcdn-a.akamaihd.net/steamcommunity/public/images/apps/1146310/d6b25279f7c586204eca4a06e75e44545dcb7644.jpg"
  },
  {
    "name": "PARTY_PARTY",
    "defaultvalue": 0,
    "displayName": "Party Party",
    "hidden": 1,
    "icon": "https://steamcdn-a.akamaihd.net/steamcommunity/public/images/apps/1146310/bfcd2165ac2c7de8afa353041719cafe79b38571.jpg",
    "icongray": "https://steamcdn-a.akamaihd.net/steamcommunity/public/images/apps/1146310/16bfc941b0df25dd3f22cfb4224eeda7d752fea5.jpg"
  },
  {
    "name": "HIDDEN_TROUBLE",
    "defaultvalue": 0,
    "displayName": "Hidden Trouble",
    "hidden": 1,
    "icon": "https://steamcdn-a.akamaihd.net/steamcommunity/public/images/apps/1146310/b73b38a3d9012173a9997c0dbd0f83bb8c0970e4.jpg",
    "icongray": "https://steamcdn-a.akamaihd.net/steamcommunity/public/images/apps/1146310/0396ee266d125bdf0fd2b5bd136480df95c87377.jpg"
  },
  {
    "name": "JOEYTIME",
    "defaultvalue": 0,
    "displayName": "Joey Time",
    "hidden": 1,
    "icon": "https://steamcdn-a.akamaihd.net/steamcommunity/public/images/apps/1146310/a49545d5fe18caeefb579d583dabb9096fccebd8.jpg",
    "icongray": "https://steamcdn-a.akamaihd.net/steamcommunity/public/images/apps/1146310/33f7751780d99b824729781d5895b4310af6c134.jpg"
  },
  {
    "name": "FREEDOM",
    "defaultvalue": 0,
    "displayName": "Freedom!",
    "hidden": 1,
    "icon": "https://steamcdn-a.akamaihd.net/steamcommunity/public/images/apps/1146310/ebc05b4d60dae030f766be84c7c03765f3bdbc05.jpg",
    "icongray": "https://steamcdn-a.akamaihd.net/steamcommunity/public/images/apps/1146310/71a8963517cc5737304f811f29a34da564e07962.jpg"
  },
  {
    "name": "EQUALITY_FOR_ALL",
    "defaultvalue": 0,
    "displayName": "Equality For All",
    "hidden": 1,
    "icon": "https://steamcdn-a.akamaihd.net/steamcommunity/public/images/apps/1146310/0bf62ce3f6b037edc30622ab09b4ee09e4b5bc9f.jpg",
    "icongray": "https://steamcdn-a.akamaihd.net/steamcommunity/public/images/apps/1146310/66a4bcdcb9da7d0b97a94b0e5033ba6e0a1d2757.jpg"
  },
  {
    "name": "GET_OUTTA_HERE",
    "defaultvalue": 0,
    "displayName": "Time To Get Outta Here",
    "hidden": 1,
    "icon": "https://steamcdn-a.akamaihd.net/steamcommunity/public/images/apps/1146310/5ce4786d842580238b73d693f904954412a57465.jpg",
    "icongray": "https://steamcdn-a.akamaihd.net/steamcommunity/public/images/apps/1146310/d276f07a808c1bf099be7994bfd1e7014771cefc.jpg"
  },
  {
    "name": "MEETING_MINDS",
    "defaultvalue": 0,
    "displayName": "A Meeting Of Minds",
    "hidden": 1,
    "icon": "https://steamcdn-a.akamaihd.net/steamcommunity/public/images/apps/1146310/0176ffd9806d1c862e4d5fc12521568386b4626c.jpg",
    "icongray": "https://steamcdn-a.akamaihd.net/steamcommunity/public/images/apps/1146310/07d93667b62921b138bff8f66de8d7a8ed2cb7c6.jpg"
  },
  {
    "name": "SNUFFING_LIGHT",
    "defaultvalue": 0,
    "displayName": "Snuffing Out The Light",
    "hidden": 1,
    "icon": "https://steamcdn-a.akamaihd.net/steamcommunity/public/images/apps/1146310/489c1656b38d11696dca9c7f91d53748e96b741c.jpg",
    "icongray": "https://steamcdn-a.akamaihd.net/steamcommunity/public/images/apps/1146310/abfe70a13e516a1160583680cc4fadad23cb05c4.jpg"
  }
]