[
  {
    "name": "Chapter1",
    "defaultvalue": 0,
    "displayName": "Finish Chapter 1!",
    "hidden": 0,
    "description": "Read through Chapter 1",
    "icon": "https://steamcdn-a.akamaihd.net/steamcommunity/public/images/apps/675240/ae9a7e29a19e1a3b0d614d4026ce926d19fd90c9.jpg",
    "icongray": "https://steamcdn-a.akamaihd.net/steamcommunity/public/images/apps/675240/6b76a448f6145bc79bc10d34b48ffa479a2ce0e9.jpg"
  },
  {
    "name": "Chapter2",
    "defaultvalue": 0,
    "displayName": "Finish Chapter 2!",
    "hidden": 0,
    "description": "Read through Chapter 2",
    "icon": "https://steamcdn-a.akamaihd.net/steamcommunity/public/images/apps/675240/7d7424bc20ddb479d81db5aaa9026e988b2f6309.jpg",
    "icongray": "https://steamcdn-a.akamaihd.net/steamcommunity/public/images/apps/675240/bbee4dbfcb1ccc50191ae2df6e9fdac6b3148237.jpg"
  },
  {
    "name": "Aki",
    "defaultvalue": 0,
    "displayName": "Complete Aki's Route!",
    "hidden": 0,
    "description": "Got Aki's Good Ending",
    "icon": "https://steamcdn-a.akamaihd.net/steamcommunity/public/images/apps/675240/fe4b8049d8a782f5b9f09bab352f2f3fe2b17a12.jpg",
    "icongray": "https://steamcdn-a.akamaihd.net/steamcommunity/public/images/apps/675240/a5be9f1a217c319663a2c3c4f771550fa7cf5658.jpg"
  },
  {
    "name": "Natsuki",
    "defaultvalue": 0,
    "displayName": "Complete Nattan's Route!",
    "hidden": 0,
    "description": "Got Nattan's Good Ending",
    "icon": "https://steamcdn-a.akamaihd.net/steamcommunity/public/images/apps/675240/3d52c2f762febcc48595f8d69ecf453a96162abe.jpg",
    "icongray": "https://steamcdn-a.akamaihd.net/steamcommunity/public/images/apps/675240/497d938dcc006f2475760eafeec81f54eac3e9f3.jpg"
  },
  {
    "name": "Mariya",
    "defaultvalue": 0,
    "displayName": "Complete Mariya's Route!",
    "hidden": 0,
    "description": "Got Mariya's Good Ending",
    "icon": "https://steamcdn-a.akamaihd.net/steamcommunity/public/images/apps/675240/613a103de24361a7182e845ee08ab42de6d4b698.jpg",
    "icongray": "https://steamcdn-a.akamaihd.net/steamcommunity/public/images/apps/675240/2a65cb568aa94091994e113e509f94ace82b19a2.jpg"
  },
  {
    "name": "Julie",
    "defaultvalue": 0,
    "displayName": "Complete Julie's Route!",
    "hidden": 0,
    "description": "Got Julie's Good Ending",
    "icon": "https://steamcdn-a.akamaihd.net/steamcommunity/public/images/apps/675240/fa6d8edcf5706bc4a7b6bb18550cd28c9b4ad5ae.jpg",
    "icongray": "https://steamcdn-a.akamaihd.net/steamcommunity/public/images/apps/675240/f78d017e69e3e64f7beafe2969d135e3241384b3.jpg"
  },
  {
    "name": "Nemu",
    "defaultvalue": 0,
    "displayName": "Complete Nemu's Route!",
    "hidden": 0,
    "description": "Got Nemu's Good Ending",
    "icon": "https://steamcdn-a.akamaihd.net/steamcommunity/public/images/apps/675240/d45e7fd126eb8a293388e7bac579eaea09037547.jpg",
    "icongray": "https://steamcdn-a.akamaihd.net/steamcommunity/public/images/apps/675240/d19211bd95c55b06a2021e97c51f4369fb411064.jpg"
  },
  {
    "name": "Mika",
    "defaultvalue": 0,
    "displayName": "Complete Mika's Route!",
    "hidden": 0,
    "description": "Got Mika's Good Ending",
    "icon": "https://steamcdn-a.akamaihd.net/steamcommunity/public/images/apps/675240/d3c258aee8d14cf5a0cb04017a4513b8e95dd457.jpg",
    "icongray": "https://steamcdn-a.akamaihd.net/steamcommunity/public/images/apps/675240/e35e1476e3dd4aa2e81add243e49a124bfbf5fd7.jpg"
  },
  {
    "name": "Sasami",
    "defaultvalue": 0,
    "displayName": "Complete Sasami's Route!",
    "hidden": 0,
    "description": "Got Sasami's Good Ending",
    "icon": "https://steamcdn-a.akamaihd.net/steamcommunity/public/images/apps/675240/94db250c9d093795cc21529ed62eab98cd35a829.jpg",
    "icongray": "https://steamcdn-a.akamaihd.net/steamcommunity/public/images/apps/675240/178165a548f0fe823c799669787f45edec9bfb2c.jpg"
  }
]