﻿[
  {
    "name": "ACHIEVEMENT1",
    "defaultvalue": 0,
    "displayName": "Welcome to St Mary's",
    "hidden": 1,
    "icon": "https://steamcdn-a.akamaihd.net/steamcommunity/public/images/apps/387070/43e293347e884e1da968155c47164d57bd26b4b9.jpg",
    "icongray": "https://steamcdn-a.akamaihd.net/steamcommunity/public/images/apps/387070/ef094d824ac547197fc681cd130177ee77011de1.jpg"
  },
  {
    "name": "ACHIEVEMENT2",
    "defaultvalue": 0,
    "displayName": "What smells?",
    "hidden": 0,
    "description": "Unlocked a Bathroom",
    "icon": "https://steamcdn-a.akamaihd.net/steamcommunity/public/images/apps/387070/3fcc28eac5be438859399711bd839bc44202910d.jpg",
    "icongray": "https://steamcdn-a.akamaihd.net/steamcommunity/public/images/apps/387070/f30ed76a296cfbc73e3495a431c8c6647d02d0a3.jpg"
  },
  {
    "name": "ACHIEVEMENT3",
    "defaultvalue": 0,
    "displayName": "Hey Mom!",
    "hidden": 1,
    "icon": "https://steamcdn-a.akamaihd.net/steamcommunity/public/images/apps/387070/41d8421542824e2b0bedcf7b596e1e18c23608c2.jpg",
    "icongray": "https://steamcdn-a.akamaihd.net/steamcommunity/public/images/apps/387070/948508f724d2b6828e8ff1ea45252e105d4599bd.jpg"
  },
  {
    "name": "ACHIEVEMENT4",
    "defaultvalue": 0,
    "displayName": "Is that a rat?",
    "hidden": 0,
    "description": "Entered a Basement",
    "icon": "https://steamcdn-a.akamaihd.net/steamcommunity/public/images/apps/387070/32d9417ad2ec6faff7158deee751f5044c243e31.jpg",
    "icongray": "https://steamcdn-a.akamaihd.net/steamcommunity/public/images/apps/387070/13b7269a17b72d0180545c9de53c8b8ca1076d1d.jpg"
  },
  {
    "name": "ACHIEVEMENT5",
    "defaultvalue": 0,
    "displayName": "Bed Time",
    "hidden": 1,
    "icon": "https://steamcdn-a.akamaihd.net/steamcommunity/public/images/apps/387070/f53ee0592af8c54db64145010dab56f5256d37c0.jpg",
    "icongray": "https://steamcdn-a.akamaihd.net/steamcommunity/public/images/apps/387070/a7106c7055e78d9130f30ed4edce9d96d4796e53.jpg"
  },
  {
    "name": "ACHIEVEMENT6",
    "defaultvalue": 0,
    "displayName": "Below Zero",
    "hidden": 0,
    "description": "Entered the Freezer",
    "icon": "https://steamcdn-a.akamaihd.net/steamcommunity/public/images/apps/387070/5bce327398734d3838c0c44f0639e4820cc033dc.jpg",
    "icongray": "https://steamcdn-a.akamaihd.net/steamcommunity/public/images/apps/387070/8c57ee9e329cd43956d33da3b4c55b47c31de8c5.jpg"
  },
  {
    "name": "ACHIEVEMENT7",
    "defaultvalue": 0,
    "displayName": "R.I.P",
    "hidden": 0,
    "description": "Reach The End of Episode 1",
    "icon": "https://steamcdn-a.akamaihd.net/steamcommunity/public/images/apps/387070/003712ff9f81e78e1b3fca405c14135f982c5db5.jpg",
    "icongray": "https://steamcdn-a.akamaihd.net/steamcommunity/public/images/apps/387070/9fe2f41d4cffb1f518149334b3cbccba14c4fbff.jpg"
  },
  {
    "name": "ACHIEVEMENT8",
    "defaultvalue": 0,
    "displayName": "First Encounter",
    "hidden": 0,
    "description": "Won't be The Last",
    "icon": "https://steamcdn-a.akamaihd.net/steamcommunity/public/images/apps/387070/41d4963e25c7a447de296e52c65bd058c8a92293.jpg",
    "icongray": "https://steamcdn-a.akamaihd.net/steamcommunity/public/images/apps/387070/a1540896ba91a4a31c9772d525a4f19ae064705d.jpg"
  }
]