[
  {
    "name": "Progress Stat - Fluro types created",
    "defaultvalue": 0,
    "displayName": "Types of fluros created"
  },
  {
    "name": "Progress Stat - fix all machines",
    "defaultvalue": 0,
    "displayName": "Total machines fixed"
  },
  {
    "name": "Progress Stat - fix all machines - factory",
    "defaultvalue": 0,
    "displayName": "Machines fixed: The Factory"
  },
  {
    "name": "Progress Stat - fix all machines - mines",
    "defaultvalue": 0,
    "displayName": "Machines fixed: The Mines"
  },
  {
    "name": "Progress Stat - fix all machines - tree",
    "defaultvalue": 0,
    "displayName": "Machines fixed: The Orchard"
  },
  {
    "name": "Progress Stat - Protoplasm Blobs Collected",
    "defaultvalue": 0,
    "displayName": "Total protoplasm blobs collected"
  },
  {
    "name": "Progress Stat - Protoplasm Blobs Collected - factory",
    "defaultvalue": 0,
    "displayName": "Protoplasm blobs collected: The Factory"
  },
  {
    "name": "Progress Stat - Protoplasm Blobs Collected - tree",
    "defaultvalue": 0,
    "displayName": "Protoplasm blobs collected: The Orchard"
  },
  {
    "name": "Progress Stat - Protoplasm Blobs Collected - mines",
    "defaultvalue": 0,
    "displayName": ""
  }
]