{
  "Dlcs": {},
  "Name": "Weather Lord: Royal Holidays Collector's Edition",
  "AppId": "572570",
  "ImageUrl": "https://steamcdn-a.akamaihd.net/steam/apps/572570/header.jpg?t=1585318950",
  "Languages": [
    "english",
    "german"
  ],
  "Platforms": {
    "windows": true,
    "mac": false,
    "linux": false
  }
}