﻿{
  "Dlcs": {},
  "Name": "Dangerous Golf",
  "AppId": "405500",
  "ImageUrl": "https://steamcdn-a.akamaihd.net/steam/apps/405500/header.jpg?t=1596809273",
  "Languages": [
    "english",
    "french",
    "italian",
    "german",
    "spanish"
  ],
  "Platforms": {
    "windows": true,
    "mac": false,
    "linux": false
  }
}