[
  {
    "name": "ACH_COMPLETE_M1",
    "defaultvalue": 0,
    "displayName": "Jack Of All Trades",
    "hidden": 0,
    "description": "Mission 1 completed",
    "icon": "https://steamcdn-a.akamaihd.net/steamcommunity/public/images/apps/410570/929e65d8c2bc1b9735762fe88ee0925b6955b06f.jpg",
    "icongray": "https://steamcdn-a.akamaihd.net/steamcommunity/public/images/apps/410570/193139c0aec575b2a6e931dee5cf148e26f3bae1.jpg"
  },
  {
    "name": "ACH_ROCKSTAR",
    "defaultvalue": 0,
    "displayName": "Rock Star",
    "hidden": 0,
    "description": "3 stars earned in both Bonus Missions",
    "icon": "https://steamcdn-a.akamaihd.net/steamcommunity/public/images/apps/410570/a230c2eabb491a7b1718838c8dbd6e6c125cc645.jpg",
    "icongray": "https://steamcdn-a.akamaihd.net/steamcommunity/public/images/apps/410570/8fcbdc0bb2f9bf6540c601e5dc5285a87264e89d.jpg"
  },
  {
    "name": "ACH_COMPLETE_M10",
    "defaultvalue": 0,
    "displayName": "Oh my god…",
    "hidden": 0,
    "description": "Mission 1-10 completed with at least a 2 star rating",
    "icon": "https://steamcdn-a.akamaihd.net/steamcommunity/public/images/apps/410570/39f4bf2c272a5bf01d7c5a05e6c74adc3687def5.jpg",
    "icongray": "https://steamcdn-a.akamaihd.net/steamcommunity/public/images/apps/410570/ab5fce7ed87b18c0097585e3555d5d16b582749c.jpg"
  },
  {
    "name": "ACH_PERFECT_KILLS",
    "defaultvalue": 0,
    "displayName": "Marksman",
    "hidden": 0,
    "description": "100% enemies killed in 3 missions",
    "icon": "https://steamcdn-a.akamaihd.net/steamcommunity/public/images/apps/410570/5a146452458cb67841bf65159214ba940ee56202.jpg",
    "icongray": "https://steamcdn-a.akamaihd.net/steamcommunity/public/images/apps/410570/56c8a1cfad058e2a1dabe5190122f87e25adcf99.jpg"
  },
  {
    "name": "ACH_MASTER_SCORE",
    "defaultvalue": 0,
    "displayName": "Master at Arms",
    "hidden": 0,
    "description": "‘Master’ score earned for one mission",
    "icon": "https://steamcdn-a.akamaihd.net/steamcommunity/public/images/apps/410570/84c9875045bbcf8bb9e5252f92fbd6fa290e2f46.jpg",
    "icongray": "https://steamcdn-a.akamaihd.net/steamcommunity/public/images/apps/410570/2f3485f8ceb2dd77f6d20960f63cf85a4934c034.jpg"
  },
  {
    "name": "ACH_OVERPOWERED",
    "defaultvalue": 0,
    "displayName": "Overpowered",
    "hidden": 0,
    "description": "100 Power ups used.",
    "icon": "https://steamcdn-a.akamaihd.net/steamcommunity/public/images/apps/410570/8276f270a018eb836ac2d5ae208fb893c62d3ccf.jpg",
    "icongray": "https://steamcdn-a.akamaihd.net/steamcommunity/public/images/apps/410570/585d198ecedf7939626037a80fb24340a0c0eaad.jpg"
  },
  {
    "name": "ACH_ASTEROID_RAGE",
    "defaultvalue": 0,
    "displayName": "Roid Rage",
    "hidden": 0,
    "description": "Destroy 1.000 asteroids in Bonus missions",
    "icon": "https://steamcdn-a.akamaihd.net/steamcommunity/public/images/apps/410570/4b522207e130ce1dbc2a1aec260e3087a18fa5fc.jpg",
    "icongray": "https://steamcdn-a.akamaihd.net/steamcommunity/public/images/apps/410570/d4bd956f91129072ba5e9c22e51dffc444bddf51.jpg"
  },
  {
    "name": "ACH_COMPLETE_M20",
    "defaultvalue": 0,
    "displayName": "You've got to be kidding me…",
    "hidden": 0,
    "description": "Missions 11- 20 completed with at least a 2 star",
    "icon": "https://steamcdn-a.akamaihd.net/steamcommunity/public/images/apps/410570/53e772988eb94c18789028d7766b233fb4710935.jpg",
    "icongray": "https://steamcdn-a.akamaihd.net/steamcommunity/public/images/apps/410570/83b04266fd023172021df3b99dbc495caf2c3c87.jpg"
  },
  {
    "name": "ACH_DESTROYER",
    "defaultvalue": 0,
    "displayName": "Destroyer",
    "hidden": 0,
    "description": "5000 Enemies killed",
    "icon": "https://steamcdn-a.akamaihd.net/steamcommunity/public/images/apps/410570/03dd43fa5a15d0be88d3a29e18fe523fc3c1cd84.jpg",
    "icongray": "https://steamcdn-a.akamaihd.net/steamcommunity/public/images/apps/410570/3f89d836e1bed49f557828028884a167f59cb3aa.jpg"
  },
  {
    "name": "ACH_STARS_ALIGN",
    "defaultvalue": 0,
    "displayName": "When The Stars Align",
    "hidden": 0,
    "description": "50 Stars earned",
    "icon": "https://steamcdn-a.akamaihd.net/steamcommunity/public/images/apps/410570/98911dca4bc9b8c09fc7d7df35b984110d84a05a.jpg",
    "icongray": "https://steamcdn-a.akamaihd.net/steamcommunity/public/images/apps/410570/2a4e606ea158e759eddc3f0cffb9d99b8be9c4cf.jpg"
  },
  {
    "name": "ACH_GUNJACK",
    "defaultvalue": 0,
    "displayName": "Gunjack!",
    "hidden": 0,
    "description": "Mission 20 completed with 3 stars",
    "icon": "https://steamcdn-a.akamaihd.net/steamcommunity/public/images/apps/410570/9a957a381ac6a9864c7f5f005d76f716a7e39de0.jpg",
    "icongray": "https://steamcdn-a.akamaihd.net/steamcommunity/public/images/apps/410570/fa73f959669081bfb80aa50dbe7b38f2b25a67e2.jpg"
  },
  {
    "name": "ACH_POETRY",
    "defaultvalue": 0,
    "displayName": "Poetry",
    "hidden": 0,
    "description": "“Master” score earned for all missions.",
    "icon": "https://steamcdn-a.akamaihd.net/steamcommunity/public/images/apps/410570/e52959ac44ac9891cbcd2850851bfde5018561ba.jpg",
    "icongray": "https://steamcdn-a.akamaihd.net/steamcommunity/public/images/apps/410570/6838c6ea4863c75dc849d1310d0f590ded2732c4.jpg"
  }
]