{
  "Dlcs": {},
  "Name": "REMOTE LIFE",
  "AppId": "1126420",
  "ImageUrl": "https://steamcdn-a.akamaihd.net/steam/apps/1126420/header.jpg?t=1596549514",
  "Languages": [
    "english"
  ],
  "Platforms": {
    "windows": true,
    "mac": false,
    "linux": false
  }
}