{
  "Dlcs": {},
  "Name": "Polynomial 2 - Universe of the Music",
  "AppId": "379420",
  "ImageUrl": "https://steamcdn-a.akamaihd.net/steam/apps/379420/header.jpg?t=1502457299",
  "Languages": [
    "english"
  ],
  "Platforms": {
    "windows": true,
    "mac": false,
    "linux": true
  }
}