{
  "Name": "NANBAKA: Happy New Year! The New Year's Tournament Is Where We Get Seriou",
  "ImageUrl": "https://steamcdn-a.akamaihd.net/steam/apps/600910/header.jpg?t=1553554835",
  "Type": "episode"
}