[
  {
    "name": "HenrysBack",
    "defaultvalue": 0,
    "displayName": "Henry's Back!",
    "hidden": 0,
    "description": "Beat your first level in the game.",
    "icon": "https://steamcdn-a.akamaihd.net/steamcommunity/public/images/apps/323700/88270edf13af61b1e412057668b5cee9b944296c.jpg",
    "icongray": "https://steamcdn-a.akamaihd.net/steamcommunity/public/images/apps/323700/306a5f23fa2f58eb86b706857dece1f2479f94cd.jpg"
  },
  {
    "name": "NotAFraud",
    "defaultvalue": 0,
    "displayName": "Not a fraud!",
    "hidden": 0,
    "description": "Beat all Larry Zucchini's levels",
    "icon": "https://steamcdn-a.akamaihd.net/steamcommunity/public/images/apps/323700/84f472beb7ede1eb97676ca60b746d233fcf9ecb.jpg",
    "icongray": "https://steamcdn-a.akamaihd.net/steamcommunity/public/images/apps/323700/4efda7ff33980b1404e3ce4fae61711dc238424d.jpg"
  },
  {
    "name": "WhoGonnaCallYouNow",
    "defaultvalue": 0,
    "displayName": "Who you gonna call now?",
    "hidden": 0,
    "description": "Beat all Nicole K.'s levels",
    "icon": "https://steamcdn-a.akamaihd.net/steamcommunity/public/images/apps/323700/646fa5559dfe2be552241b823f4fe3db31400ea5.jpg",
    "icongray": "https://steamcdn-a.akamaihd.net/steamcommunity/public/images/apps/323700/acdbed81d26b538db71655dd0b2dec8bda55b440.jpg"
  },
  {
    "name": "WelcomeToLimbo",
    "defaultvalue": 0,
    "displayName": "Welcome to limbo",
    "hidden": 0,
    "description": "Beat all Reverend Morris' levels",
    "icon": "https://steamcdn-a.akamaihd.net/steamcommunity/public/images/apps/323700/2bb291f42605f19845c2715df77111fb460ba7da.jpg",
    "icongray": "https://steamcdn-a.akamaihd.net/steamcommunity/public/images/apps/323700/1c2bcdfdb99ac4eac7abc90f7f2d1160b9d883c0.jpg"
  },
  {
    "name": "ImTheRealBoss",
    "defaultvalue": 0,
    "displayName": "I'm the real boss!",
    "hidden": 0,
    "description": "Beat all of The Boss' levels",
    "icon": "https://steamcdn-a.akamaihd.net/steamcommunity/public/images/apps/323700/e5b05a74e3881d1292017d584d7548ca29cacd8b.jpg",
    "icongray": "https://steamcdn-a.akamaihd.net/steamcommunity/public/images/apps/323700/2355fb1d2027b849d53b70ed327c2332d820d05a.jpg"
  },
  {
    "name": "BackToWork",
    "defaultvalue": 0,
    "displayName": "Back to work",
    "hidden": 0,
    "description": "Unlock the Office Era levels",
    "icon": "https://steamcdn-a.akamaihd.net/steamcommunity/public/images/apps/323700/67f803d74e1015fc4642fbcd227d281cd6b8f4b7.jpg",
    "icongray": "https://steamcdn-a.akamaihd.net/steamcommunity/public/images/apps/323700/47e7aa9be8440c5cbcd7ebd0b2514013ea09db0a.jpg"
  },
  {
    "name": "OldTimes",
    "defaultvalue": 0,
    "displayName": "Old times",
    "hidden": 0,
    "description": "Finish all the Classic Era levels",
    "icon": "https://steamcdn-a.akamaihd.net/steamcommunity/public/images/apps/323700/7948092cf45e03506ee4f6946ffeab276aa48aec.jpg",
    "icongray": "https://steamcdn-a.akamaihd.net/steamcommunity/public/images/apps/323700/0fc8d41a69adc620df66fd0a9cce3d73d1d78637.jpg"
  },
  {
    "name": "AllThatElectropop",
    "defaultvalue": 0,
    "displayName": "All that electropop",
    "hidden": 0,
    "description": "Finish all the Eighties Era levels",
    "icon": "https://steamcdn-a.akamaihd.net/steamcommunity/public/images/apps/323700/a8354177f37ecdf9e45076c17c7b27cba026301d.jpg",
    "icongray": "https://steamcdn-a.akamaihd.net/steamcommunity/public/images/apps/323700/ea2139d9011cd03b78d440d4230391f88e597199.jpg"
  },
  {
    "name": "AModernLook",
    "defaultvalue": 0,
    "displayName": "A modern look",
    "hidden": 0,
    "description": "Finish all the Modern Era levels",
    "icon": "https://steamcdn-a.akamaihd.net/steamcommunity/public/images/apps/323700/eb65c34ebeb311bffcca25d2509636d5aad4e3b6.jpg",
    "icongray": "https://steamcdn-a.akamaihd.net/steamcommunity/public/images/apps/323700/0da5d3a4dc1545eb5a2c1944948d00d94f5e328a.jpg"
  },
  {
    "name": "AllWorkAndNoPlay",
    "defaultvalue": 0,
    "displayName": "All work and no play...",
    "hidden": 0,
    "description": "Finish all the Office Era levels",
    "icon": "https://steamcdn-a.akamaihd.net/steamcommunity/public/images/apps/323700/0f755c74d70f05288a40b794f59f6fed831b98ac.jpg",
    "icongray": "https://steamcdn-a.akamaihd.net/steamcommunity/public/images/apps/323700/72c7d1cd518b87d6f1e0d451d27d84dee746074e.jpg"
  },
  {
    "name": "AGlitchWorld",
    "defaultvalue": 0,
    "displayName": "A Glitchy world",
    "hidden": 0,
    "description": "Activate the secret glitched objects",
    "icon": "https://steamcdn-a.akamaihd.net/steamcommunity/public/images/apps/323700/5300978b9b9a433fbbb2da5a2bc3c31662666408.jpg",
    "icongray": "https://steamcdn-a.akamaihd.net/steamcommunity/public/images/apps/323700/778859861477ccaaacb1fd70d8d56bab349284ee.jpg"
  },
  {
    "name": "ScaringOnSchedule",
    "defaultvalue": 0,
    "displayName": "Scaring on schedule",
    "hidden": 0,
    "description": "Finish the time trial mode in less than 90 minutes",
    "icon": "https://steamcdn-a.akamaihd.net/steamcommunity/public/images/apps/323700/c1165ce828e569cdb2674bd9e74b5cf8300ad131.jpg",
    "icongray": "https://steamcdn-a.akamaihd.net/steamcommunity/public/images/apps/323700/5d05b8365b03e8c8ed49eeff48638090c70ae940.jpg"
  }
]