{
  "Dlcs": {},
  "Name": "Dig Dog",
  "AppId": "655380",
  "ImageUrl": "https://steamcdn-a.akamaihd.net/steam/apps/655380/header.jpg?t=1585324814",
  "Languages": [
    "english",
    "french",
    "italian",
    "german",
    "spanish",
    "japanese",
    "portuguese",
    "russian",
    "schinese",
    "tchinese",
    "korean"
  ],
  "Platforms": {
    "windows": true,
    "mac": true,
    "linux": false
  }
}