[
  {
    "name": "BIGMAN",
    "defaultvalue": 0,
    "displayName": "Big Man With a Big Problem",
    "hidden": 0,
    "description": "Defeat Big Man",
    "icon": "https://steamcdn-a.akamaihd.net/steamcommunity/public/images/apps/758070/124fcdf93bd0f2b5f1bf9524b3bbbcce996cac87.jpg",
    "icongray": "https://steamcdn-a.akamaihd.net/steamcommunity/public/images/apps/758070/2c5351cabc441e9be72dc01c8bbc7882e1dda01d.jpg"
  },
  {
    "name": "MYSTIC",
    "defaultvalue": 0,
    "displayName": "I Know What You're Thinking",
    "hidden": 0,
    "description": "Defeat Medatsu the Mystic",
    "icon": "https://steamcdn-a.akamaihd.net/steamcommunity/public/images/apps/758070/fa232796eb170696e891d41ef1912134d7e5e704.jpg",
    "icongray": "https://steamcdn-a.akamaihd.net/steamcommunity/public/images/apps/758070/2c5351cabc441e9be72dc01c8bbc7882e1dda01d.jpg"
  },
  {
    "name": "ROLLERDERBY",
    "defaultvalue": 0,
    "displayName": "High Roller",
    "hidden": 0,
    "description": "Defeat Roller Derby",
    "icon": "https://steamcdn-a.akamaihd.net/steamcommunity/public/images/apps/758070/5fe0acf671c263aebf782f68710f583ce82ce47d.jpg",
    "icongray": "https://steamcdn-a.akamaihd.net/steamcommunity/public/images/apps/758070/2c5351cabc441e9be72dc01c8bbc7882e1dda01d.jpg"
  },
  {
    "name": "LIZARDMAN",
    "defaultvalue": 0,
    "displayName": "Reptile Brain",
    "hidden": 0,
    "description": "Defeat Varanus the Lizardman",
    "icon": "https://steamcdn-a.akamaihd.net/steamcommunity/public/images/apps/758070/078a4d50d039949e5a4d2d8cab079a68fa45b573.jpg",
    "icongray": "https://steamcdn-a.akamaihd.net/steamcommunity/public/images/apps/758070/2c5351cabc441e9be72dc01c8bbc7882e1dda01d.jpg"
  },
  {
    "name": "EXTREMITY",
    "defaultvalue": 0,
    "displayName": "EXTREME!!!",
    "hidden": 0,
    "description": "Defeat Extremity",
    "icon": "https://steamcdn-a.akamaihd.net/steamcommunity/public/images/apps/758070/d477acc5cb9d95413b057b912ead663c147c82c6.jpg",
    "icongray": "https://steamcdn-a.akamaihd.net/steamcommunity/public/images/apps/758070/14abca6e97a125f1a7d471cc9a280b6ac1bd92d7.jpg"
  },
  {
    "name": "BAZ",
    "defaultvalue": 0,
    "displayName": "Feel the Storm",
    "hidden": 1,
    "icon": "https://steamcdn-a.akamaihd.net/steamcommunity/public/images/apps/758070/026e771a2bc88dcc10d5cdc47c51414be7e96b78.jpg",
    "icongray": "https://steamcdn-a.akamaihd.net/steamcommunity/public/images/apps/758070/2c5351cabc441e9be72dc01c8bbc7882e1dda01d.jpg"
  },
  {
    "name": "BOMBERANG",
    "defaultvalue": 0,
    "displayName": "The Flip Side",
    "hidden": 1,
    "icon": "https://steamcdn-a.akamaihd.net/steamcommunity/public/images/apps/758070/38b1089cdcbc406819eb5fd0039dbe4da72f5a16.jpg",
    "icongray": "https://steamcdn-a.akamaihd.net/steamcommunity/public/images/apps/758070/2c5351cabc441e9be72dc01c8bbc7882e1dda01d.jpg"
  },
  {
    "name": "MONSTER",
    "defaultvalue": 0,
    "displayName": "Counter Destroyer",
    "hidden": 1,
    "icon": "https://steamcdn-a.akamaihd.net/steamcommunity/public/images/apps/758070/e49caa258026269126c43224d17a5091a8059660.jpg",
    "icongray": "https://steamcdn-a.akamaihd.net/steamcommunity/public/images/apps/758070/14abca6e97a125f1a7d471cc9a280b6ac1bd92d7.jpg"
  },
  {
    "name": "GRIMDARC",
    "defaultvalue": 0,
    "displayName": "The 90s Never Ended",
    "hidden": 1,
    "icon": "https://steamcdn-a.akamaihd.net/steamcommunity/public/images/apps/758070/092439334ecc4bd877f78827fb017a01501480f4.jpg",
    "icongray": "https://steamcdn-a.akamaihd.net/steamcommunity/public/images/apps/758070/14abca6e97a125f1a7d471cc9a280b6ac1bd92d7.jpg"
  },
  {
    "name": "VICTORY",
    "defaultvalue": 0,
    "displayName": "Kill the Superweapon",
    "hidden": 0,
    "description": "Beat the Game",
    "icon": "https://steamcdn-a.akamaihd.net/steamcommunity/public/images/apps/758070/48ce18345dd5d882994881bd4bd15aa844501d3d.jpg",
    "icongray": "https://steamcdn-a.akamaihd.net/steamcommunity/public/images/apps/758070/2c5351cabc441e9be72dc01c8bbc7882e1dda01d.jpg"
  }
]