{
  "Dlcs": {},
  "Name": "Pair-a-Site",
  "AppId": "1228430",
  "ImageUrl": "https://steamcdn-a.akamaihd.net/steam/apps/1228430/header.jpg?t=1581027701",
  "Languages": [
    "english"
  ],
  "Platforms": {
    "windows": true,
    "mac": false,
    "linux": false
  }
}