﻿{
  "Dlcs": {},
  "Name": "Deathbound",
  "AppId": "1277130",
  "ImageUrl": "https://steamcdn-a.akamaihd.net/steam/apps/1277130/header.jpg?t=1593717771",
  "Languages": [
    "english",
    "portuguese"
  ],
  "Platforms": {
    "windows": true,
    "mac": false,
    "linux": false
  }
}