﻿{
  "Dlcs": {},
  "Name": "Plastiland",
  "AppId": "421880",
  "ImageUrl": "https://steamcdn-a.akamaihd.net/steam/apps/421880/header.jpg?t=1452256931",
  "Languages": [
    "english"
  ],
  "Platforms": {
    "windows": true,
    "mac": false,
    "linux": false
  }
}