﻿{
  "Dlcs": {},
  "Name": "Ananias Roguelike",
  "AppId": "372080",
  "ImageUrl": "https://steamcdn-a.akamaihd.net/steam/apps/372080/header.jpg?t=1572377285",
  "Languages": [
    "english"
  ],
  "Platforms": {
    "windows": true,
    "mac": true,
    "linux": true
  }
}