[
  {
    "name": "TRIGGER_GUARD",
    "defaultvalue": 0,
    "displayName": "Iron Fortress",
    "hidden": 0,
    "description": "Perform 20 or more Trigger Guards (VS or Arcade)",
    "icon": "https://steamcdn-a.akamaihd.net/steamcommunity/public/images/apps/1287800/80cbe61eb127c613e999d8cb303f9478cbfe501a.jpg",
    "icongray": "https://steamcdn-a.akamaihd.net/steamcommunity/public/images/apps/1287800/b0fd73377c36fb11479145ca57d86e1ef63af0bd.jpg"
  },
  {
    "name": "TRIGGER_CANCEL",
    "defaultvalue": 0,
    "displayName": "Run to the Hills",
    "hidden": 0,
    "description": "Perform 20 or more Trigger Cancels (VS or Arcade)",
    "icon": "https://steamcdn-a.akamaihd.net/steamcommunity/public/images/apps/1287800/b3bc65591ebb94831f6dfc39e36515fd59fe16f1.jpg",
    "icongray": "https://steamcdn-a.akamaihd.net/steamcommunity/public/images/apps/1287800/fc64f6ae32b2c672e8d26b03621ac454639151c3.jpg"
  },
  {
    "name": "TRIGGER_COMBO",
    "defaultvalue": 0,
    "displayName": "Devil Trigger",
    "hidden": 0,
    "description": "Perform 20 or more Trigger Combos (VS or Arcade)",
    "icon": "https://steamcdn-a.akamaihd.net/steamcommunity/public/images/apps/1287800/93ead08eb61ce56c9731e3a7f478f29a53add789.jpg",
    "icongray": "https://steamcdn-a.akamaihd.net/steamcommunity/public/images/apps/1287800/a4ac6563cd7df42390a31081b2aab59c8b76f9fd.jpg"
  },
  {
    "name": "STORY_1",
    "defaultvalue": 0,
    "displayName": "14th April, 2064...",
    "hidden": 0,
    "description": "Clear the Prologue in Story mode",
    "icon": "https://steamcdn-a.akamaihd.net/steamcommunity/public/images/apps/1287800/b8561d3a075ac83a40f72874c045d9e806a43c7d.jpg",
    "icongray": "https://steamcdn-a.akamaihd.net/steamcommunity/public/images/apps/1287800/c7ccbd3268bd16dd11401f3afeb946186f074b43.jpg"
  },
  {
    "name": "STORY_2",
    "defaultvalue": 0,
    "displayName": "Schrödinger's Truth",
    "hidden": 0,
    "description": "Clear Arcade mode with all 16 main characters",
    "icon": "https://steamcdn-a.akamaihd.net/steamcommunity/public/images/apps/1287800/25a1fb23f174fe09f8bce8611acda2a9bcc4dc02.jpg",
    "icongray": "https://steamcdn-a.akamaihd.net/steamcommunity/public/images/apps/1287800/68ec396f1978b937280fd547694a9af0394c1ff5.jpg"
  },
  {
    "name": "STORY_3",
    "defaultvalue": 0,
    "displayName": "The End?",
    "hidden": 0,
    "description": "Clear the Epilogue in Story mode",
    "icon": "https://steamcdn-a.akamaihd.net/steamcommunity/public/images/apps/1287800/2c36ca67c7c8f648d94352dea85e6022d3bdaa2c.jpg",
    "icongray": "https://steamcdn-a.akamaihd.net/steamcommunity/public/images/apps/1287800/c60b27d4be5b209cc21c8bd9270bd8c3076d06d8.jpg"
  },
  {
    "name": "ARCADE_1",
    "defaultvalue": 0,
    "displayName": "Lightning Strike",
    "hidden": 0,
    "description": "Clear Arcade mode once",
    "icon": "https://steamcdn-a.akamaihd.net/steamcommunity/public/images/apps/1287800/08a806f86366ba89f35663af6d9f2f68ea023d7f.jpg",
    "icongray": "https://steamcdn-a.akamaihd.net/steamcommunity/public/images/apps/1287800/2a063d51801bcc8032614bd6d04d095e91c8c98d.jpg"
  },
  {
    "name": "ARCADE_2",
    "defaultvalue": 0,
    "displayName": "Survivor",
    "hidden": 0,
    "description": "Clear Survival mode once",
    "icon": "https://steamcdn-a.akamaihd.net/steamcommunity/public/images/apps/1287800/3f7c268961cfcede2949e2819610428395b57e77.jpg",
    "icongray": "https://steamcdn-a.akamaihd.net/steamcommunity/public/images/apps/1287800/d10719c5a0cbd7a9e66345e4b820503d073478a2.jpg"
  },
  {
    "name": "ARCADE_3",
    "defaultvalue": 0,
    "displayName": "Time Is Money",
    "hidden": 0,
    "description": "Clear Time Attack mode once",
    "icon": "https://steamcdn-a.akamaihd.net/steamcommunity/public/images/apps/1287800/713b2eef26cd7a166f582a846148e5e3b210e20e.jpg",
    "icongray": "https://steamcdn-a.akamaihd.net/steamcommunity/public/images/apps/1287800/52e094aaa5457706766f3f4eec0183fedfbcc3d0.jpg"
  },
  {
    "name": "500_BULLETS",
    "defaultvalue": 0,
    "displayName": "Bang Bang Bang!",
    "hidden": 0,
    "description": "Consume 500 or more bullet counters (VS or Arcade)",
    "icon": "https://steamcdn-a.akamaihd.net/steamcommunity/public/images/apps/1287800/28323d6bc6f78f06e51a20c325cc5a792e0553c3.jpg",
    "icongray": "https://steamcdn-a.akamaihd.net/steamcommunity/public/images/apps/1287800/599d799ee8dc9998bed2198c36b034f17f2bf3a1.jpg"
  },
  {
    "name": "DIAMOND_CRUSHER",
    "defaultvalue": 0,
    "displayName": "Supreme Diamond Crusher!",
    "hidden": 0,
    "description": "Perform a 1200+ damage combo (VS or Arcade)",
    "icon": "https://steamcdn-a.akamaihd.net/steamcommunity/public/images/apps/1287800/645353dc30ee6b89c5697e75f2d79b97b6ed1f50.jpg",
    "icongray": "https://steamcdn-a.akamaihd.net/steamcommunity/public/images/apps/1287800/b581f250e86637f0c4a7db3d106589148c0716a6.jpg"
  },
  {
    "name": "COMBO_MASTER",
    "defaultvalue": 0,
    "displayName": "ULTRA C-C-C-COMBO",
    "hidden": 0,
    "description": "Perform a 40+ hits combo (VS or Arcade)",
    "icon": "https://steamcdn-a.akamaihd.net/steamcommunity/public/images/apps/1287800/8e9a3ba0292cf1ca06bf92085604ba8bab5b961d.jpg",
    "icongray": "https://steamcdn-a.akamaihd.net/steamcommunity/public/images/apps/1287800/0279e3c035c72dea9b4ad3f18c93a20749f23bb6.jpg"
  },
  {
    "name": "DOUBLE_RINGOUT",
    "defaultvalue": 0,
    "displayName": "Seriously, HOW did you do that?",
    "hidden": 1,
    "icon": "https://steamcdn-a.akamaihd.net/steamcommunity/public/images/apps/1287800/8fe59b5b6f55ba1e2118f98e63c25f12c39cc94e.jpg",
    "icongray": "https://steamcdn-a.akamaihd.net/steamcommunity/public/images/apps/1287800/35e9f7b83282ee4e7a8d4768cae392d843fce26d.jpg"
  },
  {
    "name": "TUTORIAL",
    "defaultvalue": 0,
    "displayName": "Practice Makes Perfect",
    "hidden": 0,
    "description": "Clear Tutorial mode",
    "icon": "https://steamcdn-a.akamaihd.net/steamcommunity/public/images/apps/1287800/7ac7ea4f9010ba395b4c6aa715785de34b2450ae.jpg",
    "icongray": "https://steamcdn-a.akamaihd.net/steamcommunity/public/images/apps/1287800/5bc61df10ef3adfae8c4955f7db3c66c5b4530d4.jpg"
  },
  {
    "name": "TRIALS",
    "defaultvalue": 0,
    "displayName": "Knowledge Check",
    "hidden": 0,
    "description": "Clear all character Trials",
    "icon": "https://steamcdn-a.akamaihd.net/steamcommunity/public/images/apps/1287800/980b0fdead97de3505a71bdfa79b3d6d30d2ea87.jpg",
    "icongray": "https://steamcdn-a.akamaihd.net/steamcommunity/public/images/apps/1287800/f1584763d9871759ad3ba53aa373597861e1e8b2.jpg"
  },
  {
    "name": "ARKANA",
    "defaultvalue": 0,
    "displayName": "Evil Vanquished",
    "hidden": 1,
    "icon": "https://steamcdn-a.akamaihd.net/steamcommunity/public/images/apps/1287800/d20c3ddc50bee890bda5f80b21e3a61b720c2121.jpg",
    "icongray": "https://steamcdn-a.akamaihd.net/steamcommunity/public/images/apps/1287800/35e9f7b83282ee4e7a8d4768cae392d843fce26d.jpg"
  },
  {
    "name": "DOLL",
    "defaultvalue": 0,
    "displayName": "Thread Severed",
    "hidden": 1,
    "icon": "https://steamcdn-a.akamaihd.net/steamcommunity/public/images/apps/1287800/a2e7b9a1757c68bdab1050ad77b095490714635e.jpg",
    "icongray": "https://steamcdn-a.akamaihd.net/steamcommunity/public/images/apps/1287800/35e9f7b83282ee4e7a8d4768cae392d843fce26d.jpg"
  },
  {
    "name": "ENIGMA",
    "defaultvalue": 0,
    "displayName": "ENiGMA Crushed",
    "hidden": 1,
    "icon": "https://steamcdn-a.akamaihd.net/steamcommunity/public/images/apps/1287800/81ddb395ab7811c520b8b07ae0703634904de55f.jpg",
    "icongray": "https://steamcdn-a.akamaihd.net/steamcommunity/public/images/apps/1287800/35e9f7b83282ee4e7a8d4768cae392d843fce26d.jpg"
  }
]