{
  "Dlcs": {},
  "Name": "Down in Bermuda",
  "AppId": "1107300",
  "ImageUrl": "https://steamcdn-a.akamaihd.net/steam/apps/1107300/header.jpg?t=1596685881",
  "Languages": [
    "english",
    "french",
    "italian",
    "german",
    "spanish",
    "japanese",
    "korean",
    "portuguese",
    "russian",
    "schinese",
    "tchinese",
    "arabic",
    "dutch",
    "portuguese",
    "turkish"
  ],
  "Platforms": {
    "windows": true,
    "mac": true,
    "linux": false
  }
}