{
  "Dlcs": {},
  "Name": "HELI",
  "AppId": "743030",
  "ImageUrl": "https://steamcdn-a.akamaihd.net/steam/apps/743030/header.jpg?t=1523913231",
  "Languages": [
    "english"
  ],
  "Platforms": {
    "windows": true,
    "mac": false,
    "linux": false
  }
}