[
  {
    "name": "ACH_01",
    "defaultvalue": 0,
    "displayName": "The Story of Flatwood Peaks",
    "hidden": 0,
    "description": "Finish the game",
    "icon": "https://steamcdn-a.akamaihd.net/steamcommunity/public/images/apps/626660/7ddcd5a133977502d770aa1bb16676a9890561bb.jpg",
    "icongray": "https://steamcdn-a.akamaihd.net/steamcommunity/public/images/apps/626660/434de9b34c467af64acc79929335ff38082af3f6.jpg"
  },
  {
    "name": "ACH_02",
    "defaultvalue": 0,
    "displayName": "Timey-wimey interactive mystical memory visualization",
    "hidden": 0,
    "description": "Complete \"A Black Day for a Blacksmith\"",
    "icon": "https://steamcdn-a.akamaihd.net/steamcommunity/public/images/apps/626660/1a117421064373b95f910cd71f4c10670976387c.jpg",
    "icongray": "https://steamcdn-a.akamaihd.net/steamcommunity/public/images/apps/626660/64cafe0a08ff745e1f58da764bcba823766cdd41.jpg"
  },
  {
    "name": "ACH_03",
    "defaultvalue": 0,
    "displayName": "Didn't I just do this?",
    "hidden": 0,
    "description": "Complete \"Death of a Woodsman\"",
    "icon": "https://steamcdn-a.akamaihd.net/steamcommunity/public/images/apps/626660/24ab5f8524fa80de8c698ac95f83488c92670275.jpg",
    "icongray": "https://steamcdn-a.akamaihd.net/steamcommunity/public/images/apps/626660/a64ff04ac3bcbd315e1f512d4e9e3aabf65583a9.jpg"
  },
  {
    "name": "ACH_04",
    "defaultvalue": 0,
    "displayName": "Soon-to-be-Completionist",
    "hidden": 0,
    "description": "Complete all challenges in one chapter",
    "icon": "https://steamcdn-a.akamaihd.net/steamcommunity/public/images/apps/626660/7550811e7a1011966d68266bbe4a7286751830aa.jpg",
    "icongray": "https://steamcdn-a.akamaihd.net/steamcommunity/public/images/apps/626660/97ef0a03a77e6ff48fb6fe6cd2f7eb1420b1115b.jpg"
  },
  {
    "name": "ACH_05",
    "defaultvalue": 0,
    "displayName": "Gotta Catch 'Em All",
    "hidden": 0,
    "description": "Unlock all ghost cards",
    "icon": "https://steamcdn-a.akamaihd.net/steamcommunity/public/images/apps/626660/a3b9a947a1c47051b596ff340722f41b0f4dbd87.jpg",
    "icongray": "https://steamcdn-a.akamaihd.net/steamcommunity/public/images/apps/626660/a926951cc4cc1a673e236562b3106c8dd1e2338b.jpg"
  },
  {
    "name": "ACH_06",
    "defaultvalue": 0,
    "displayName": "Full house",
    "hidden": 0,
    "description": "Unlock every character in a chapter",
    "icon": "https://steamcdn-a.akamaihd.net/steamcommunity/public/images/apps/626660/d96dd6d5aa83e10a9f9c8a81a4774c3e86ccbbe1.jpg",
    "icongray": "https://steamcdn-a.akamaihd.net/steamcommunity/public/images/apps/626660/f0b4471a8a6b6585a110df41457cd9f82294a67f.jpg"
  },
  {
    "name": "ACH_07",
    "defaultvalue": 0,
    "displayName": "A reader of minds",
    "hidden": 0,
    "description": "Mindread 40 characters",
    "icon": "https://steamcdn-a.akamaihd.net/steamcommunity/public/images/apps/626660/7fafcd55e484816594d92a015f66e46fe9852bbe.jpg",
    "icongray": "https://steamcdn-a.akamaihd.net/steamcommunity/public/images/apps/626660/2aea6ba1bb8cfa455a896607c2955c4f806ff3c7.jpg"
  },
  {
    "name": "ACH_08",
    "defaultvalue": 0,
    "displayName": "Pursuit of Happiness",
    "hidden": 0,
    "description": "Make someone Happy within the first 60 seconds of a chapter",
    "icon": "https://steamcdn-a.akamaihd.net/steamcommunity/public/images/apps/626660/4cef041568ddb1e7e31100a614930cec6040757f.jpg",
    "icongray": "https://steamcdn-a.akamaihd.net/steamcommunity/public/images/apps/626660/dabe6655ddba21ed62624f9d6bdae1ab9d332328.jpg"
  },
  {
    "name": "ACH_09",
    "defaultvalue": 0,
    "displayName": "How does that make you feel?",
    "hidden": 0,
    "description": "Make a character feel all the emotions (Happy, Scared, Angry)",
    "icon": "https://steamcdn-a.akamaihd.net/steamcommunity/public/images/apps/626660/b53339060e703590ea82201f3d6c241795c0fc09.jpg",
    "icongray": "https://steamcdn-a.akamaihd.net/steamcommunity/public/images/apps/626660/a7a5058516b1513c069896698c5c965845361991.jpg"
  },
  {
    "name": "ACH_10",
    "defaultvalue": 0,
    "displayName": "Possible heart condition",
    "hidden": 0,
    "description": "Have a character stay scared for 20 seconds",
    "icon": "https://steamcdn-a.akamaihd.net/steamcommunity/public/images/apps/626660/4ef0bac2d785abc678869f53250ff3fe449d947f.jpg",
    "icongray": "https://steamcdn-a.akamaihd.net/steamcommunity/public/images/apps/626660/0d7aa3e27b9efa6ae20dbdc1bc1bbf5fb44f4fd6.jpg"
  },
  {
    "name": "ACH_11",
    "defaultvalue": 0,
    "displayName": "A hero and his villain",
    "hidden": 0,
    "description": "Help Captain Heropants catch Dr Laser",
    "icon": "https://steamcdn-a.akamaihd.net/steamcommunity/public/images/apps/626660/ce85ef9419cc52a99d5391b8d8b8378af50653b0.jpg",
    "icongray": "https://steamcdn-a.akamaihd.net/steamcommunity/public/images/apps/626660/15867b94a9efb7f9f21df73d4ed2bbfad33729e5.jpg"
  },
  {
    "name": "ACH_12",
    "defaultvalue": 0,
    "displayName": "Free falling",
    "hidden": 0,
    "description": "Fall down from the highest point of the town",
    "icon": "https://steamcdn-a.akamaihd.net/steamcommunity/public/images/apps/626660/d39b6ccb89352ab2eccbe425a0a5082ff5123e50.jpg",
    "icongray": "https://steamcdn-a.akamaihd.net/steamcommunity/public/images/apps/626660/503b7891e6d21fe5befe60b0ccd0e4c423cbcfb8.jpg"
  }
]