{
  "Dlcs": {
    "690300": {
      "Name": "PROJECT MAZE - Extra Mazes Pack",
      "ImageUrl": "https://steamcdn-a.akamaihd.net/steam/apps/690300/header.jpg?t=1558168221"
    }
  },
  "Name": "PROJECT MAZE",
  "AppId": "659220",
  "ImageUrl": "https://steamcdn-a.akamaihd.net/steam/apps/659220/header.jpg?t=1581706536",
  "Languages": [
    "english"
  ],
  "Platforms": {
    "windows": true,
    "mac": false,
    "linux": false
  }
}