{
  "Dlcs": {},
  "Name": "CROSSBOW: Bloodnight",
  "AppId": "1329540",
  "ImageUrl": "https://steamcdn-a.akamaihd.net/steam/apps/1329540/header.jpg?t=1600708585",
  "Languages": [
    "english",
    "polish"
  ],
  "Platforms": {
    "windows": true,
    "mac": false,
    "linux": false
  }
}