[
  {
    "name": "ACHIEVEMENT_000",
    "defaultvalue": 0,
    "displayName": "Quaid the Dragon knight",
    "hidden": 0,
    "description": "Watch the ending with Quaid",
    "icon": "https://steamcdn-a.akamaihd.net/steamcommunity/public/images/apps/1279420/9fbf7b35a3028919934cdfbd9cda66db5fa3a28c.jpg",
    "icongray": "https://steamcdn-a.akamaihd.net/steamcommunity/public/images/apps/1279420/4b8bd8381db25ca2bce4a8b917c7ad1f6645bbda.jpg"
  },
  {
    "name": "ACHIEVEMENT_001",
    "defaultvalue": 0,
    "displayName": "Sonia the Neptune daughter",
    "hidden": 0,
    "description": "Watch the ending with Sonia",
    "icon": "https://steamcdn-a.akamaihd.net/steamcommunity/public/images/apps/1279420/9fbf7b35a3028919934cdfbd9cda66db5fa3a28c.jpg",
    "icongray": "https://steamcdn-a.akamaihd.net/steamcommunity/public/images/apps/1279420/4b8bd8381db25ca2bce4a8b917c7ad1f6645bbda.jpg"
  },
  {
    "name": "ACHIEVEMENT_002",
    "defaultvalue": 0,
    "displayName": "Rob the Enigmatic dwarf",
    "hidden": 0,
    "description": "Watch the ending with Rob",
    "icon": "https://steamcdn-a.akamaihd.net/steamcommunity/public/images/apps/1279420/9fbf7b35a3028919934cdfbd9cda66db5fa3a28c.jpg",
    "icongray": "https://steamcdn-a.akamaihd.net/steamcommunity/public/images/apps/1279420/4b8bd8381db25ca2bce4a8b917c7ad1f6645bbda.jpg"
  },
  {
    "name": "ACHIEVEMENT_003",
    "defaultvalue": 0,
    "displayName": "Ian the Necromancer",
    "hidden": 0,
    "description": "Watch the ending with Ian",
    "icon": "https://steamcdn-a.akamaihd.net/steamcommunity/public/images/apps/1279420/9fbf7b35a3028919934cdfbd9cda66db5fa3a28c.jpg",
    "icongray": "https://steamcdn-a.akamaihd.net/steamcommunity/public/images/apps/1279420/4b8bd8381db25ca2bce4a8b917c7ad1f6645bbda.jpg"
  },
  {
    "name": "ACHIEVEMENT_004",
    "defaultvalue": 0,
    "displayName": "Dragon knight and Neptune daughter",
    "hidden": 0,
    "description": "Watch the ending with Quaid and Sonia",
    "icon": "https://steamcdn-a.akamaihd.net/steamcommunity/public/images/apps/1279420/9fbf7b35a3028919934cdfbd9cda66db5fa3a28c.jpg",
    "icongray": "https://steamcdn-a.akamaihd.net/steamcommunity/public/images/apps/1279420/4b8bd8381db25ca2bce4a8b917c7ad1f6645bbda.jpg"
  },
  {
    "name": "ACHIEVEMENT_005",
    "defaultvalue": 0,
    "displayName": "Dragon knight and Enigmatic dwarf",
    "hidden": 0,
    "description": "Watch the ending with Quaid and Rob",
    "icon": "https://steamcdn-a.akamaihd.net/steamcommunity/public/images/apps/1279420/9fbf7b35a3028919934cdfbd9cda66db5fa3a28c.jpg",
    "icongray": "https://steamcdn-a.akamaihd.net/steamcommunity/public/images/apps/1279420/4b8bd8381db25ca2bce4a8b917c7ad1f6645bbda.jpg"
  },
  {
    "name": "ACHIEVEMENT_006",
    "defaultvalue": 0,
    "displayName": "Dragon knight and Necromancer",
    "hidden": 0,
    "description": "Watch the ending with Quaid and Ian",
    "icon": "https://steamcdn-a.akamaihd.net/steamcommunity/public/images/apps/1279420/9fbf7b35a3028919934cdfbd9cda66db5fa3a28c.jpg",
    "icongray": "https://steamcdn-a.akamaihd.net/steamcommunity/public/images/apps/1279420/4b8bd8381db25ca2bce4a8b917c7ad1f6645bbda.jpg"
  },
  {
    "name": "ACHIEVEMENT_007",
    "defaultvalue": 0,
    "displayName": "Neptune daughter and Enigmatic dwarf",
    "hidden": 0,
    "description": "Watch the ending with Sonia and Ian",
    "icon": "https://steamcdn-a.akamaihd.net/steamcommunity/public/images/apps/1279420/9fbf7b35a3028919934cdfbd9cda66db5fa3a28c.jpg",
    "icongray": "https://steamcdn-a.akamaihd.net/steamcommunity/public/images/apps/1279420/4b8bd8381db25ca2bce4a8b917c7ad1f6645bbda.jpg"
  },
  {
    "name": "ACHIEVEMENT_008",
    "defaultvalue": 0,
    "displayName": "Neptune daughter and Necromancer",
    "hidden": 0,
    "description": "Watch the ending with Sonia and Rob",
    "icon": "https://steamcdn-a.akamaihd.net/steamcommunity/public/images/apps/1279420/9fbf7b35a3028919934cdfbd9cda66db5fa3a28c.jpg",
    "icongray": "https://steamcdn-a.akamaihd.net/steamcommunity/public/images/apps/1279420/4b8bd8381db25ca2bce4a8b917c7ad1f6645bbda.jpg"
  },
  {
    "name": "ACHIEVEMENT_009",
    "defaultvalue": 0,
    "displayName": "Enigmatic dwarf and Necromancer",
    "hidden": 0,
    "description": "Watch the ending with Rob and ian",
    "icon": "https://steamcdn-a.akamaihd.net/steamcommunity/public/images/apps/1279420/9fbf7b35a3028919934cdfbd9cda66db5fa3a28c.jpg",
    "icongray": "https://steamcdn-a.akamaihd.net/steamcommunity/public/images/apps/1279420/4b8bd8381db25ca2bce4a8b917c7ad1f6645bbda.jpg"
  },
  {
    "name": "ACHIEVEMENT_010",
    "defaultvalue": 0,
    "displayName": "First magic stone",
    "hidden": 0,
    "description": "Stage 1 clear",
    "icon": "https://steamcdn-a.akamaihd.net/steamcommunity/public/images/apps/1279420/9fbf7b35a3028919934cdfbd9cda66db5fa3a28c.jpg",
    "icongray": "https://steamcdn-a.akamaihd.net/steamcommunity/public/images/apps/1279420/4b8bd8381db25ca2bce4a8b917c7ad1f6645bbda.jpg"
  },
  {
    "name": "ACHIEVEMENT_011",
    "defaultvalue": 0,
    "displayName": "Second magic stone",
    "hidden": 0,
    "description": "Stage 2 clear",
    "icon": "https://steamcdn-a.akamaihd.net/steamcommunity/public/images/apps/1279420/9fbf7b35a3028919934cdfbd9cda66db5fa3a28c.jpg",
    "icongray": "https://steamcdn-a.akamaihd.net/steamcommunity/public/images/apps/1279420/1a998b9704c87d153107fcb49828d64b23dba7ac.jpg"
  },
  {
    "name": "ACHIEVEMENT_012",
    "defaultvalue": 0,
    "displayName": "Third magic stone",
    "hidden": 0,
    "description": "Stage 3 clear",
    "icon": "https://steamcdn-a.akamaihd.net/steamcommunity/public/images/apps/1279420/9fbf7b35a3028919934cdfbd9cda66db5fa3a28c.jpg",
    "icongray": "https://steamcdn-a.akamaihd.net/steamcommunity/public/images/apps/1279420/4b8bd8381db25ca2bce4a8b917c7ad1f6645bbda.jpg"
  },
  {
    "name": "ACHIEVEMENT_013",
    "defaultvalue": 0,
    "displayName": "Fourth magic stone",
    "hidden": 0,
    "description": "Stage 4 clear",
    "icon": "https://steamcdn-a.akamaihd.net/steamcommunity/public/images/apps/1279420/d1831e869bf802fedaffed6e6761ba672ad3adf9.jpg",
    "icongray": "https://steamcdn-a.akamaihd.net/steamcommunity/public/images/apps/1279420/3c47007220954297240ba4e426064891b78c1dd5.jpg"
  },
  {
    "name": "ACHIEVEMENT_014",
    "defaultvalue": 0,
    "displayName": "To the temple",
    "hidden": 0,
    "description": "Stage 5 clear",
    "icon": "https://steamcdn-a.akamaihd.net/steamcommunity/public/images/apps/1279420/d1831e869bf802fedaffed6e6761ba672ad3adf9.jpg",
    "icongray": "https://steamcdn-a.akamaihd.net/steamcommunity/public/images/apps/1279420/3c47007220954297240ba4e426064891b78c1dd5.jpg"
  },
  {
    "name": "ACHIEVEMENT_015",
    "defaultvalue": 0,
    "displayName": "To the demon king",
    "hidden": 0,
    "description": "Stage 6 clear",
    "icon": "https://steamcdn-a.akamaihd.net/steamcommunity/public/images/apps/1279420/04c62606b32fbf8b8af001c1266ecf5ff684002e.jpg",
    "icongray": "https://steamcdn-a.akamaihd.net/steamcommunity/public/images/apps/1279420/b2cac768e90fcf0d31d223f79df1cd2a2eac0e21.jpg"
  },
  {
    "name": "ACHIEVEMENT_016",
    "defaultvalue": 0,
    "displayName": "The curse has been lifted",
    "hidden": 0,
    "description": "Stage 7 clear",
    "icon": "https://steamcdn-a.akamaihd.net/steamcommunity/public/images/apps/1279420/04c62606b32fbf8b8af001c1266ecf5ff684002e.jpg",
    "icongray": "https://steamcdn-a.akamaihd.net/steamcommunity/public/images/apps/1279420/b2cac768e90fcf0d31d223f79df1cd2a2eac0e21.jpg"
  },
  {
    "name": "ACHIEVEMENT_017",
    "defaultvalue": 0,
    "displayName": "Dragon tamer",
    "hidden": 1,
    "icon": "https://steamcdn-a.akamaihd.net/steamcommunity/public/images/apps/1279420/9fbf7b35a3028919934cdfbd9cda66db5fa3a28c.jpg",
    "icongray": "https://steamcdn-a.akamaihd.net/steamcommunity/public/images/apps/1279420/4b8bd8381db25ca2bce4a8b917c7ad1f6645bbda.jpg"
  },
  {
    "name": "ACHIEVEMENT_018",
    "defaultvalue": 0,
    "displayName": "Dragon rider",
    "hidden": 1,
    "icon": "https://steamcdn-a.akamaihd.net/steamcommunity/public/images/apps/1279420/9fbf7b35a3028919934cdfbd9cda66db5fa3a28c.jpg",
    "icongray": "https://steamcdn-a.akamaihd.net/steamcommunity/public/images/apps/1279420/4b8bd8381db25ca2bce4a8b917c7ad1f6645bbda.jpg"
  },
  {
    "name": "ACHIEVEMENT_019",
    "defaultvalue": 0,
    "displayName": "Subordinate dragon knight",
    "hidden": 1,
    "icon": "https://steamcdn-a.akamaihd.net/steamcommunity/public/images/apps/1279420/d1831e869bf802fedaffed6e6761ba672ad3adf9.jpg",
    "icongray": "https://steamcdn-a.akamaihd.net/steamcommunity/public/images/apps/1279420/3c47007220954297240ba4e426064891b78c1dd5.jpg"
  },
  {
    "name": "ACHIEVEMENT_020",
    "defaultvalue": 0,
    "displayName": "Intermediate dragon knight",
    "hidden": 1,
    "icon": "https://steamcdn-a.akamaihd.net/steamcommunity/public/images/apps/1279420/d1831e869bf802fedaffed6e6761ba672ad3adf9.jpg",
    "icongray": "https://steamcdn-a.akamaihd.net/steamcommunity/public/images/apps/1279420/3c47007220954297240ba4e426064891b78c1dd5.jpg"
  },
  {
    "name": "ACHIEVEMENT_021",
    "defaultvalue": 0,
    "displayName": "Senior dragon knight",
    "hidden": 1,
    "icon": "https://steamcdn-a.akamaihd.net/steamcommunity/public/images/apps/1279420/e8f7c194264aa4bafd8b3797b5d69a21d62735c8.jpg",
    "icongray": "https://steamcdn-a.akamaihd.net/steamcommunity/public/images/apps/1279420/b2cac768e90fcf0d31d223f79df1cd2a2eac0e21.jpg"
  },
  {
    "name": "ACHIEVEMENT_022",
    "defaultvalue": 0,
    "displayName": "Dragon master",
    "hidden": 1,
    "icon": "https://steamcdn-a.akamaihd.net/steamcommunity/public/images/apps/1279420/04c62606b32fbf8b8af001c1266ecf5ff684002e.jpg",
    "icongray": "https://steamcdn-a.akamaihd.net/steamcommunity/public/images/apps/1279420/b2cac768e90fcf0d31d223f79df1cd2a2eac0e21.jpg"
  },
  {
    "name": "ACHIEVEMENT_023",
    "defaultvalue": 0,
    "displayName": "Dragon emperor",
    "hidden": 1,
    "icon": "https://steamcdn-a.akamaihd.net/steamcommunity/public/images/apps/1279420/04c62606b32fbf8b8af001c1266ecf5ff684002e.jpg",
    "icongray": "https://steamcdn-a.akamaihd.net/steamcommunity/public/images/apps/1279420/b2cac768e90fcf0d31d223f79df1cd2a2eac0e21.jpg"
  },
  {
    "name": "ACHIEVEMENT_024",
    "defaultvalue": 0,
    "displayName": "Load the magic bomb",
    "hidden": 0,
    "description": "Collect maximum quantity of magic bomb (default setting)",
    "icon": "https://steamcdn-a.akamaihd.net/steamcommunity/public/images/apps/1279420/9fbf7b35a3028919934cdfbd9cda66db5fa3a28c.jpg",
    "icongray": "https://steamcdn-a.akamaihd.net/steamcommunity/public/images/apps/1279420/4b8bd8381db25ca2bce4a8b917c7ad1f6645bbda.jpg"
  },
  {
    "name": "ACHIEVEMENT_025",
    "defaultvalue": 0,
    "displayName": "1UP",
    "hidden": 0,
    "description": "Increased life",
    "icon": "https://steamcdn-a.akamaihd.net/steamcommunity/public/images/apps/1279420/d1831e869bf802fedaffed6e6761ba672ad3adf9.jpg",
    "icongray": "https://steamcdn-a.akamaihd.net/steamcommunity/public/images/apps/1279420/3c47007220954297240ba4e426064891b78c1dd5.jpg"
  },
  {
    "name": "ACHIEVEMENT_026",
    "defaultvalue": 0,
    "displayName": "Great riches",
    "hidden": 0,
    "description": "Appear the bonus carry",
    "icon": "https://steamcdn-a.akamaihd.net/steamcommunity/public/images/apps/1279420/d1831e869bf802fedaffed6e6761ba672ad3adf9.jpg",
    "icongray": "https://steamcdn-a.akamaihd.net/steamcommunity/public/images/apps/1279420/3c47007220954297240ba4e426064891b78c1dd5.jpg"
  },
  {
    "name": "ACHIEVEMENT_027",
    "defaultvalue": 0,
    "displayName": "Magic enhancement",
    "hidden": 0,
    "description": "Upgrade the shot until maximum",
    "icon": "https://steamcdn-a.akamaihd.net/steamcommunity/public/images/apps/1279420/9fbf7b35a3028919934cdfbd9cda66db5fa3a28c.jpg",
    "icongray": "https://steamcdn-a.akamaihd.net/steamcommunity/public/images/apps/1279420/4b8bd8381db25ca2bce4a8b917c7ad1f6645bbda.jpg"
  },
  {
    "name": "ACHIEVEMENT_028",
    "defaultvalue": 0,
    "displayName": "Philanthropism",
    "hidden": 1,
    "icon": "https://steamcdn-a.akamaihd.net/steamcommunity/public/images/apps/1279420/04c62606b32fbf8b8af001c1266ecf5ff684002e.jpg",
    "icongray": "https://steamcdn-a.akamaihd.net/steamcommunity/public/images/apps/1279420/b2cac768e90fcf0d31d223f79df1cd2a2eac0e21.jpg"
  },
  {
    "name": "ACHIEVEMENT_029",
    "defaultvalue": 0,
    "displayName": "Maximize magic power",
    "hidden": 0,
    "description": "Upgrade the magic gauge until maximum",
    "icon": "https://steamcdn-a.akamaihd.net/steamcommunity/public/images/apps/1279420/9fbf7b35a3028919934cdfbd9cda66db5fa3a28c.jpg",
    "icongray": "https://steamcdn-a.akamaihd.net/steamcommunity/public/images/apps/1279420/4b8bd8381db25ca2bce4a8b917c7ad1f6645bbda.jpg"
  },
  {
    "name": "ACHIEVEMENT_030",
    "defaultvalue": 0,
    "displayName": "Technician",
    "hidden": 0,
    "description": "Get the technical bonus",
    "icon": "https://steamcdn-a.akamaihd.net/steamcommunity/public/images/apps/1279420/04c62606b32fbf8b8af001c1266ecf5ff684002e.jpg",
    "icongray": "https://steamcdn-a.akamaihd.net/steamcommunity/public/images/apps/1279420/b2cac768e90fcf0d31d223f79df1cd2a2eac0e21.jpg"
  },
  {
    "name": "ACHIEVEMENT_031",
    "defaultvalue": 0,
    "displayName": "Ultimate dragon master",
    "hidden": 0,
    "description": "Unlock all achievements",
    "icon": "https://steamcdn-a.akamaihd.net/steamcommunity/public/images/apps/1279420/40fee6f59a684ced1f44745eef595b16e6f83666.jpg",
    "icongray": "https://steamcdn-a.akamaihd.net/steamcommunity/public/images/apps/1279420/40fee6f59a684ced1f44745eef595b16e6f83666.jpg"
  }
]