{
  "Dlcs": {},
  "Name": "Death Fungeon",
  "AppId": "897630",
  "ImageUrl": "https://steamcdn-a.akamaihd.net/steam/apps/897630/header.jpg?t=1549556150",
  "Languages": [
    "english"
  ],
  "Platforms": {
    "windows": true,
    "mac": false,
    "linux": false
  }
}