{
  "Dlcs": {},
  "Name": "The Tower of Five Hearts",
  "AppId": "961640",
  "ImageUrl": "https://steamcdn-a.akamaihd.net/steam/apps/961640/header.jpg?t=1579149709",
  "Languages": [
    "english"
  ],
  "Platforms": {
    "windows": true,
    "mac": true,
    "linux": true
  }
}