[
  {
    "name": "first_night",
    "defaultvalue": 0,
    "displayName": "I can use a camcorder!",
    "hidden": 0,
    "description": "Survive the first night as you record.",
    "icon": "https://steamcdn-a.akamaihd.net/steamcommunity/public/images/apps/1254630/3ee4f03d051846db1075fa8f74006ffaf58fe085.jpg",
    "icongray": "https://steamcdn-a.akamaihd.net/steamcommunity/public/images/apps/1254630/fba2b1f5afd495e536a4e731de3647060007984e.jpg"
  },
  {
    "name": "blowTorch",
    "defaultvalue": 0,
    "displayName": "Playing with fire!",
    "hidden": 0,
    "description": "Burn down the wooden barricades.",
    "icon": "https://steamcdn-a.akamaihd.net/steamcommunity/public/images/apps/1254630/cc6b2c71e70d9243bda80f44c1d2045eb7319417.jpg",
    "icongray": "https://steamcdn-a.akamaihd.net/steamcommunity/public/images/apps/1254630/98d87bd1c4f2118f0ffde1ae403cd98c972042f0.jpg"
  },
  {
    "name": "burgers_ten",
    "defaultvalue": 0,
    "displayName": "I'll have two number nines, ...",
    "hidden": 0,
    "description": "Throw ten burgers.",
    "icon": "https://steamcdn-a.akamaihd.net/steamcommunity/public/images/apps/1254630/546fa6f7af74b94c3b3f2cf5b0baf9bdf9bab56a.jpg",
    "icongray": "https://steamcdn-a.akamaihd.net/steamcommunity/public/images/apps/1254630/0bf164f9497ce49e196f60fced5b21d5fe14bb47.jpg"
  },
  {
    "name": "burgers_hundred",
    "defaultvalue": 0,
    "displayName": "A number nine large, ...",
    "hidden": 0,
    "description": "Throw one hundred burgers.",
    "icon": "https://steamcdn-a.akamaihd.net/steamcommunity/public/images/apps/1254630/0ace1c74d210b6c8f64f581ef21e5dc121a2a577.jpg",
    "icongray": "https://steamcdn-a.akamaihd.net/steamcommunity/public/images/apps/1254630/7e14db2583b6c7bd8f9e38dbe0d493f868572c25.jpg"
  },
  {
    "name": "burgers_thousand",
    "defaultvalue": 0,
    "displayName": "A number 6 with extra dip, ...",
    "hidden": 0,
    "description": "Throw one thousand burgers.",
    "icon": "https://steamcdn-a.akamaihd.net/steamcommunity/public/images/apps/1254630/0b6ea461318fffb4efedc6d0b47fd10fa5706494.jpg",
    "icongray": "https://steamcdn-a.akamaihd.net/steamcommunity/public/images/apps/1254630/bb7d999765b3eba64e1f598247519c787f13b974.jpg"
  },
  {
    "name": "basement",
    "defaultvalue": 0,
    "displayName": "Going deeper...",
    "hidden": 0,
    "description": "Make your way into the basement.",
    "icon": "https://steamcdn-a.akamaihd.net/steamcommunity/public/images/apps/1254630/650fc50953d76b08d7a91cb9d49e156e063187f4.jpg",
    "icongray": "https://steamcdn-a.akamaihd.net/steamcommunity/public/images/apps/1254630/8be0e7f09bb6c3ddf2f8ef8705af0a80fbe0fea4.jpg"
  },
  {
    "name": "win",
    "defaultvalue": 0,
    "displayName": "~YOU'RE THE BEST!~",
    "hidden": 0,
    "description": "Beat the game.",
    "icon": "https://steamcdn-a.akamaihd.net/steamcommunity/public/images/apps/1254630/2e464b205105bf7a8abbd058525a4b9d0042cede.jpg",
    "icongray": "https://steamcdn-a.akamaihd.net/steamcommunity/public/images/apps/1254630/20217df933bc2e90e0db106a05a0185c45e66c6a.jpg"
  },
  {
    "name": "jumpscare_spacky",
    "defaultvalue": 0,
    "displayName": "Welcome to Spacky's!",
    "hidden": 1,
    "icon": "https://steamcdn-a.akamaihd.net/steamcommunity/public/images/apps/1254630/9b241489d63d0bc6f82b02276e3bee7315edf49b.jpg",
    "icongray": "https://steamcdn-a.akamaihd.net/steamcommunity/public/images/apps/1254630/7376f34373c743ee53e00530cebd74dc649df5af.jpg"
  },
  {
    "name": "jumpscare_fries",
    "defaultvalue": 0,
    "displayName": "You want fries with that?",
    "hidden": 1,
    "icon": "https://steamcdn-a.akamaihd.net/steamcommunity/public/images/apps/1254630/f4b75ee1632db591d5f79240ca78be9b3c7ed2a9.jpg",
    "icongray": "https://steamcdn-a.akamaihd.net/steamcommunity/public/images/apps/1254630/fd8cd971c134cd3323d44936956dbba3892e9687.jpg"
  },
  {
    "name": "jumpscare_soda",
    "defaultvalue": 0,
    "displayName": "Slurp slurp.",
    "hidden": 1,
    "icon": "https://steamcdn-a.akamaihd.net/steamcommunity/public/images/apps/1254630/ea51b374136f8dacbfd81a5813ab1f8237c8aed1.jpg",
    "icongray": "https://steamcdn-a.akamaihd.net/steamcommunity/public/images/apps/1254630/46e7335128ddc5082074305f60b562e668f2f24e.jpg"
  }
]