{
  "Dlcs": {},
  "Name": "Tiska Buska",
  "AppId": "929280",
  "ImageUrl": "https://steamcdn-a.akamaihd.net/steam/apps/929280/header.jpg?t=1556814477",
  "Languages": [
    "english"
  ],
  "Platforms": {
    "windows": true,
    "mac": false,
    "linux": false
  }
}