{
  "Dlcs": {},
  "Name": "The Lost Valley",
  "AppId": "360890",
  "ImageUrl": "https://steamcdn-a.akamaihd.net/steam/apps/360890/header.jpg?t=1484348719",
  "Languages": [
    "english",
    "french",
    "italian",
    "german",
    "spanish",
    "polish",
    "russian",
    "ukrainian"
  ],
  "Platforms": {
    "windows": true,
    "mac": false,
    "linux": false
  }
}