{
  "Dlcs": {},
  "Name": "Letter Quest: Grimm's Journey Remastered",
  "AppId": "373970",
  "ImageUrl": "https://steamcdn-a.akamaihd.net/steam/apps/373970/header.jpg?t=1593028925",
  "Languages": [
    "english"
  ],
  "Platforms": {
    "windows": true,
    "mac": true,
    "linux": true
  }
}