﻿{
  "Dlcs": {},
  "Name": "Dark Mystery",
  "AppId": "660900",
  "ImageUrl": "https://steamcdn-a.akamaihd.net/steam/apps/660900/header.jpg?t=1502741578",
  "Languages": [
    "english",
    "french",
    "italian",
    "german",
    "spanish",
    "arabic",
    "dutch",
    "japanese",
    "korean",
    "portuguese",
    "russian",
    "schinese"
  ],
  "Platforms": {
    "windows": true,
    "mac": false,
    "linux": false
  }
}