{
  "Dlcs": {},
  "Name": "Rocket Ghost Aidan",
  "AppId": "1210570",
  "ImageUrl": "https://steamcdn-a.akamaihd.net/steam/apps/1210570/header.jpg?t=1588262684",
  "Languages": [
    "english"
  ],
  "Platforms": {
    "windows": true,
    "mac": false,
    "linux": false
  }
}