[
  {
    "name": "QP_Registered",
    "defaultvalue": 0,
    "displayName": "Registered",
    "hidden": 0,
    "description": "Compete in your first Quickplay event.",
    "icon": "https://steamcdn-a.akamaihd.net/steamcommunity/public/images/apps/1167800/058d6e79d3839bc6f976e2a449976aaf19bb02a8.jpg",
    "icongray": "https://steamcdn-a.akamaihd.net/steamcommunity/public/images/apps/1167800/f002ea76a226d1dcb77020c4bc06df2bb8adac81.jpg"
  },
  {
    "name": "Rookie",
    "defaultvalue": 0,
    "displayName": "Rookie",
    "hidden": 1,
    "icon": "https://steamcdn-a.akamaihd.net/steamcommunity/public/images/apps/1167800/a18ef508c76b385469d0adf8ba16565a97110b5d.jpg",
    "icongray": "https://steamcdn-a.akamaihd.net/steamcommunity/public/images/apps/1167800/5d28e4ae67546b043fb4acf7af6486d82e0fa6f1.jpg"
  },
  {
    "name": "Mechanic",
    "defaultvalue": 0,
    "displayName": "Mechanic",
    "hidden": 1,
    "icon": "https://steamcdn-a.akamaihd.net/steamcommunity/public/images/apps/1167800/d387a6dedfb97f24fcebe0427f22118bd8f5d2d7.jpg",
    "icongray": "https://steamcdn-a.akamaihd.net/steamcommunity/public/images/apps/1167800/898b1a6dec65130ce51a351c391b6f42be8e06cf.jpg"
  },
  {
    "name": "Pimped",
    "defaultvalue": 0,
    "displayName": "Pimped",
    "hidden": 1,
    "icon": "https://steamcdn-a.akamaihd.net/steamcommunity/public/images/apps/1167800/e83f306d4f84b050262712ca569626b9d86066b7.jpg",
    "icongray": "https://steamcdn-a.akamaihd.net/steamcommunity/public/images/apps/1167800/faf754d2bb0cfacd0a74189afa9882dfeaeb3308.jpg"
  },
  {
    "name": "Legendary",
    "defaultvalue": 0,
    "displayName": "Legendary",
    "hidden": 1,
    "icon": "https://steamcdn-a.akamaihd.net/steamcommunity/public/images/apps/1167800/f7b28947b56b30ae441af5556e14d686e1183ad2.jpg",
    "icongray": "https://steamcdn-a.akamaihd.net/steamcommunity/public/images/apps/1167800/0559fd5fd54551d3323e880be6a9cf1ee0a06dd5.jpg"
  },
  {
    "name": "Collector",
    "defaultvalue": 0,
    "displayName": "Collector",
    "hidden": 1,
    "icon": "https://steamcdn-a.akamaihd.net/steamcommunity/public/images/apps/1167800/71c4192bbd4a5c6788e5720832d2dbe8c98ab5aa.jpg",
    "icongray": "https://steamcdn-a.akamaihd.net/steamcommunity/public/images/apps/1167800/7718fdd657530310df9f1e12b94f7d7be39774ad.jpg"
  },
  {
    "name": "Pro",
    "defaultvalue": 0,
    "displayName": "Pro",
    "hidden": 1,
    "icon": "https://steamcdn-a.akamaihd.net/steamcommunity/public/images/apps/1167800/0d79849b63b18fa1e2199affd3dbd9604a204960.jpg",
    "icongray": "https://steamcdn-a.akamaihd.net/steamcommunity/public/images/apps/1167800/d00cceb76c734e245897bb9b2d3d194fe75f6aab.jpg"
  }
]