{
  "Dlcs": {},
  "Name": "Kingdom Watcher",
  "AppId": "680970",
  "ImageUrl": "https://steamcdn-a.akamaihd.net/steam/apps/680970/header.jpg?t=1527501783",
  "Languages": [
    "english"
  ],
  "Platforms": {
    "windows": true,
    "mac": false,
    "linux": false
  }
}