{
  "Dlcs": {},
  "Name": "Magnet Fishing Simulator",
  "AppId": "1151980",
  "ImageUrl": "https://steamcdn-a.akamaihd.net/steam/apps/1151980/header.jpg?t=1578582265",
  "Languages": [
    "english",
    "french",
    "italian",
    "german",
    "spanish",
    "schinese",
    "japanese",
    "polish",
    "russian"
  ],
  "Platforms": {
    "windows": true,
    "mac": false,
    "linux": false
  }
}