﻿[
  {
    "name": "jewelThief",
    "defaultvalue": 0,
    "displayName": "Jewel Thief",
    "hidden": 0,
    "description": "100 Jewels Collected",
    "icon": "https://steamcdn-a.akamaihd.net/steamcommunity/public/images/apps/238530/2485ee97a3f91953e1530067c8ed7ff440e4453e.jpg",
    "icongray": "https://steamcdn-a.akamaihd.net/steamcommunity/public/images/apps/238530/ec92e5950d6035c8a1e062f4acc5af24beca8235.jpg"
  },
  {
    "name": "gimmeABreak",
    "defaultvalue": 0,
    "displayName": "Gimme A Break",
    "hidden": 0,
    "description": "Survive 10 minutes in a single life",
    "icon": "https://steamcdn-a.akamaihd.net/steamcommunity/public/images/apps/238530/0ff8e44a151ee320a19ed641b6608f14b63e55fe.jpg",
    "icongray": "https://steamcdn-a.akamaihd.net/steamcommunity/public/images/apps/238530/ec92e5950d6035c8a1e062f4acc5af24beca8235.jpg"
  },
  {
    "name": "ninjaUnlock",
    "defaultvalue": 0,
    "displayName": "Cut to the Chase",
    "hidden": 0,
    "description": "Unlock Ninja outfit (collected 100 block bits in a single life)",
    "icon": "https://steamcdn-a.akamaihd.net/steamcommunity/public/images/apps/238530/847e2dd5322b38596da537084879340f7a6e6be0.jpg",
    "icongray": "https://steamcdn-a.akamaihd.net/steamcommunity/public/images/apps/238530/ec92e5950d6035c8a1e062f4acc5af24beca8235.jpg"
  },
  {
    "name": "jetPackUnlock",
    "defaultvalue": 0,
    "displayName": "High as a Kite",
    "hidden": 0,
    "description": "Unlocked Jetpack (collected 3 jewels in a single life)",
    "icon": "https://steamcdn-a.akamaihd.net/steamcommunity/public/images/apps/238530/9de6bf450f0738dd44be3890e25ce2dd2873f13d.jpg",
    "icongray": "https://steamcdn-a.akamaihd.net/steamcommunity/public/images/apps/238530/ec92e5950d6035c8a1e062f4acc5af24beca8235.jpg"
  },
  {
    "name": "fighterUnlock",
    "defaultvalue": 0,
    "displayName": "A New Challenger",
    "hidden": 0,
    "description": "Unlocked Fighter outfit (Collected 3 stars in a single life)",
    "icon": "https://steamcdn-a.akamaihd.net/steamcommunity/public/images/apps/238530/c3537d8bbbd174b8877205211f55f73b8a185cf2.jpg",
    "icongray": "https://steamcdn-a.akamaihd.net/steamcommunity/public/images/apps/238530/ec92e5950d6035c8a1e062f4acc5af24beca8235.jpg"
  },
  {
    "name": "rocketeerUnlock",
    "defaultvalue": 0,
    "displayName": "Rockets Speak Louder than Words",
    "hidden": 0,
    "description": "Unlocked Rocket Launcher (Collected 500 block bits in a single life)",
    "icon": "https://steamcdn-a.akamaihd.net/steamcommunity/public/images/apps/238530/25152044163e0f102a43b923396e1713d9bb2738.jpg",
    "icongray": "https://steamcdn-a.akamaihd.net/steamcommunity/public/images/apps/238530/ec92e5950d6035c8a1e062f4acc5af24beca8235.jpg"
  },
  {
    "name": "duelWieldUnlock",
    "defaultvalue": 0,
    "displayName": "Two to Tango",
    "hidden": 0,
    "description": "Unlocked Duel Wield outfit (Collected 6 jewels  in a single life)",
    "icon": "https://steamcdn-a.akamaihd.net/steamcommunity/public/images/apps/238530/61da058bf5ece1784a3d440c051029eeff3c916f.jpg",
    "icongray": "https://steamcdn-a.akamaihd.net/steamcommunity/public/images/apps/238530/ec92e5950d6035c8a1e062f4acc5af24beca8235.jpg"
  },
  {
    "name": "cyborgUnlock",
    "defaultvalue": 0,
    "displayName": "Pedal to the Metal",
    "hidden": 0,
    "description": "Unlocked Cyborg outfit (Collected 10 stars in one life)",
    "icon": "https://steamcdn-a.akamaihd.net/steamcommunity/public/images/apps/238530/08c6a6e9e2b6ecf5976ec38ab817756e619194c7.jpg",
    "icongray": "https://steamcdn-a.akamaihd.net/steamcommunity/public/images/apps/238530/ec92e5950d6035c8a1e062f4acc5af24beca8235.jpg"
  },
  {
    "name": "skullUnlock",
    "defaultvalue": 0,
    "displayName": "Dark Horse",
    "hidden": 1,
    "icon": "https://steamcdn-a.akamaihd.net/steamcommunity/public/images/apps/238530/803c75e590a929fcf4e6de2e0a75df5e493beb17.jpg",
    "icongray": "https://steamcdn-a.akamaihd.net/steamcommunity/public/images/apps/238530/ec92e5950d6035c8a1e062f4acc5af24beca8235.jpg"
  },
  {
    "name": "spikeChallenge",
    "defaultvalue": 0,
    "displayName": "Lookin' Sharp",
    "hidden": 0,
    "description": "Completed the spikes challenge",
    "icon": "https://steamcdn-a.akamaihd.net/steamcommunity/public/images/apps/238530/74440059f8633d2d4a91835829f4f32d02b07864.jpg",
    "icongray": "https://steamcdn-a.akamaihd.net/steamcommunity/public/images/apps/238530/ec92e5950d6035c8a1e062f4acc5af24beca8235.jpg"
  },
  {
    "name": "canonChallenge",
    "defaultvalue": 0,
    "displayName": "Cannon Fodder",
    "hidden": 0,
    "description": "Completed the cannon challenge",
    "icon": "https://steamcdn-a.akamaihd.net/steamcommunity/public/images/apps/238530/04a8ae6f9434eeb75c02845c990ad59f54cfd67c.jpg",
    "icongray": "https://steamcdn-a.akamaihd.net/steamcommunity/public/images/apps/238530/ec92e5950d6035c8a1e062f4acc5af24beca8235.jpg"
  },
  {
    "name": "tntChallenge",
    "defaultvalue": 0,
    "displayName": "Loose Cannon",
    "hidden": 0,
    "description": "Completed the TNT challenge",
    "icon": "https://steamcdn-a.akamaihd.net/steamcommunity/public/images/apps/238530/66cb54eff37236fa35a7d091dd4439c5740554d8.jpg",
    "icongray": "https://steamcdn-a.akamaihd.net/steamcommunity/public/images/apps/238530/ec92e5950d6035c8a1e062f4acc5af24beca8235.jpg"
  },
  {
    "name": "drillsChallenge",
    "defaultvalue": 0,
    "displayName": "Senior Driller",
    "hidden": 0,
    "description": "Completed the drill challenge",
    "icon": "https://steamcdn-a.akamaihd.net/steamcommunity/public/images/apps/238530/848bd6d6753ba2ab193daf48d6e939bcfd17bf6e.jpg",
    "icongray": "https://steamcdn-a.akamaihd.net/steamcommunity/public/images/apps/238530/ec92e5950d6035c8a1e062f4acc5af24beca8235.jpg"
  },
  {
    "name": "chainsawsChallenge",
    "defaultvalue": 0,
    "displayName": "Cutting Edge",
    "hidden": 0,
    "description": "Completed the chainsaw challenge",
    "icon": "https://steamcdn-a.akamaihd.net/steamcommunity/public/images/apps/238530/966350fef02c2395710d9c193ebbe0e8088103bb.jpg",
    "icongray": "https://steamcdn-a.akamaihd.net/steamcommunity/public/images/apps/238530/ec92e5950d6035c8a1e062f4acc5af24beca8235.jpg"
  },
  {
    "name": "cannons2Challenge",
    "defaultvalue": 0,
    "displayName": "Cannon Farther",
    "hidden": 0,
    "description": "Completed the cannon II challenge",
    "icon": "https://steamcdn-a.akamaihd.net/steamcommunity/public/images/apps/238530/18440d0f6988ceb15ec8ceb87240f25ee7d578d8.jpg",
    "icongray": "https://steamcdn-a.akamaihd.net/steamcommunity/public/images/apps/238530/ec92e5950d6035c8a1e062f4acc5af24beca8235.jpg"
  },
  {
    "name": "tnt2Challenge",
    "defaultvalue": 0,
    "displayName": "Dyno Might",
    "hidden": 0,
    "description": "Completed the TNT II challenge",
    "icon": "https://steamcdn-a.akamaihd.net/steamcommunity/public/images/apps/238530/2d990af81eba19d2bead3f0a74d38704998cccf5.jpg",
    "icongray": "https://steamcdn-a.akamaihd.net/steamcommunity/public/images/apps/238530/ec92e5950d6035c8a1e062f4acc5af24beca8235.jpg"
  },
  {
    "name": "towerChallenge",
    "defaultvalue": 0,
    "displayName": "Gettin' Down",
    "hidden": 0,
    "description": "Completed the Tower Down challenge",
    "icon": "https://steamcdn-a.akamaihd.net/steamcommunity/public/images/apps/238530/65a5f068b26768dbb4a35967a0777a7e67d7820c.jpg",
    "icongray": "https://steamcdn-a.akamaihd.net/steamcommunity/public/images/apps/238530/ec92e5950d6035c8a1e062f4acc5af24beca8235.jpg"
  },
  {
    "name": "morningstarChallenge",
    "defaultvalue": 0,
    "displayName": "Say That to My Mace",
    "hidden": 0,
    "description": "Completed the flail challenge",
    "icon": "https://steamcdn-a.akamaihd.net/steamcommunity/public/images/apps/238530/45d3880ee022762ae8e8a3ce627da3bc7281137a.jpg",
    "icongray": "https://steamcdn-a.akamaihd.net/steamcommunity/public/images/apps/238530/ec92e5950d6035c8a1e062f4acc5af24beca8235.jpg"
  },
  {
    "name": "fireballsChallenge",
    "defaultvalue": 0,
    "displayName": "Ballin'",
    "hidden": 0,
    "description": "Completed the fireball challenge",
    "icon": "https://steamcdn-a.akamaihd.net/steamcommunity/public/images/apps/238530/a092dff321e6313a97707b8e56bd802108f03aaa.jpg",
    "icongray": "https://steamcdn-a.akamaihd.net/steamcommunity/public/images/apps/238530/ec92e5950d6035c8a1e062f4acc5af24beca8235.jpg"
  },
  {
    "name": "fireballs2Challenge",
    "defaultvalue": 0,
    "displayName": "Big Ballin'",
    "hidden": 0,
    "description": "Completed the fireball II challenge",
    "icon": "https://steamcdn-a.akamaihd.net/steamcommunity/public/images/apps/238530/eaeb3558c6b2f00d876910afc3e87505ae126d8a.jpg",
    "icongray": "https://steamcdn-a.akamaihd.net/steamcommunity/public/images/apps/238530/ec92e5950d6035c8a1e062f4acc5af24beca8235.jpg"
  },
  {
    "name": "fireSpinnersChallenge",
    "defaultvalue": 0,
    "displayName": "Spincredible",
    "hidden": 0,
    "description": "Completed the firespinner challenge",
    "icon": "https://steamcdn-a.akamaihd.net/steamcommunity/public/images/apps/238530/3de5ca979b725108f58c7d3a716eadf43195a6ec.jpg",
    "icongray": "https://steamcdn-a.akamaihd.net/steamcommunity/public/images/apps/238530/ec92e5950d6035c8a1e062f4acc5af24beca8235.jpg"
  },
  {
    "name": "iciclesChallenge",
    "defaultvalue": 0,
    "displayName": "Ice to See You",
    "hidden": 0,
    "description": "Completed the icicles challenge",
    "icon": "https://steamcdn-a.akamaihd.net/steamcommunity/public/images/apps/238530/816e37f1ea700043bc05e6ee206a25f4b4673cb9.jpg",
    "icongray": "https://steamcdn-a.akamaihd.net/steamcommunity/public/images/apps/238530/ec92e5950d6035c8a1e062f4acc5af24beca8235.jpg"
  },
  {
    "name": "towerUpChallenge",
    "defaultvalue": 0,
    "displayName": "Going Up",
    "hidden": 0,
    "description": "Completed the Tower Up challenge",
    "icon": "https://steamcdn-a.akamaihd.net/steamcommunity/public/images/apps/238530/d596319e1d057f3c07745283588c48560c3ebb26.jpg",
    "icongray": "https://steamcdn-a.akamaihd.net/steamcommunity/public/images/apps/238530/ec92e5950d6035c8a1e062f4acc5af24beca8235.jpg"
  },
  {
    "name": "homingMisslesChallenge",
    "defaultvalue": 0,
    "displayName": "Hit and Missile",
    "hidden": 0,
    "description": "Completed the homing missle challenge",
    "icon": "https://steamcdn-a.akamaihd.net/steamcommunity/public/images/apps/238530/9c2eec23f043f1003c004890c9002a9ba1b22f34.jpg",
    "icongray": "https://steamcdn-a.akamaihd.net/steamcommunity/public/images/apps/238530/ec92e5950d6035c8a1e062f4acc5af24beca8235.jpg"
  },
  {
    "name": "GlassBreakerChallenge",
    "defaultvalue": 0,
    "displayName": "Instant Glassic",
    "hidden": 0,
    "description": "Completed the Glass Splitters challenge",
    "icon": "https://steamcdn-a.akamaihd.net/steamcommunity/public/images/apps/238530/746f46790dadeceb103483c5dc52e0e2107dfe8d.jpg",
    "icongray": "https://steamcdn-a.akamaihd.net/steamcommunity/public/images/apps/238530/ec92e5950d6035c8a1e062f4acc5af24beca8235.jpg"
  },
  {
    "name": "MorningStar2Challenge",
    "defaultvalue": 0,
    "displayName": "Epic Flail",
    "hidden": 0,
    "description": "Completed the flail II challenge",
    "icon": "https://steamcdn-a.akamaihd.net/steamcommunity/public/images/apps/238530/b6fa1891edeac720f5db553d7b8d829c5699027c.jpg",
    "icongray": "https://steamcdn-a.akamaihd.net/steamcommunity/public/images/apps/238530/ec92e5950d6035c8a1e062f4acc5af24beca8235.jpg"
  },
  {
    "name": "BeezleBlockChallenge",
    "defaultvalue": 0,
    "displayName": "Dark Lord of All",
    "hidden": 1,
    "icon": "https://steamcdn-a.akamaihd.net/steamcommunity/public/images/apps/238530/430aeb3251b55dfa9106faf59dd64e695da93ef3.jpg",
    "icongray": "https://steamcdn-a.akamaihd.net/steamcommunity/public/images/apps/238530/ec92e5950d6035c8a1e062f4acc5af24beca8235.jpg"
  },
  {
    "name": "oneHundredPercent",
    "defaultvalue": 0,
    "displayName": "The End...?",
    "hidden": 0,
    "description": "100 percent complete",
    "icon": "https://steamcdn-a.akamaihd.net/steamcommunity/public/images/apps/238530/df0351b0cfcc16c84d7ce51511dfd6637857ad2b.jpg",
    "icongray": "https://steamcdn-a.akamaihd.net/steamcommunity/public/images/apps/238530/ec92e5950d6035c8a1e062f4acc5af24beca8235.jpg"
  },
  {
    "name": "techLevelComplete",
    "defaultvalue": 0,
    "displayName": "No Trouble",
    "hidden": 0,
    "description": "Got to power level 4 in Troublesome Tech",
    "icon": "https://steamcdn-a.akamaihd.net/steamcommunity/public/images/apps/238530/d629b7de0749c3efeacad52f79192d6d7c74b48e.jpg",
    "icongray": "https://steamcdn-a.akamaihd.net/steamcommunity/public/images/apps/238530/ec92e5950d6035c8a1e062f4acc5af24beca8235.jpg"
  },
  {
    "name": "forestLevelComplete",
    "defaultvalue": 0,
    "displayName": "Wood Warrior",
    "hidden": 0,
    "description": "Got to power level 4 in War of the Woods",
    "icon": "https://steamcdn-a.akamaihd.net/steamcommunity/public/images/apps/238530/c92f7bb1f59f8df9bd18fb930c3859995a6fa707.jpg",
    "icongray": "https://steamcdn-a.akamaihd.net/steamcommunity/public/images/apps/238530/ec92e5950d6035c8a1e062f4acc5af24beca8235.jpg"
  },
  {
    "name": "ruinsLevelComplete",
    "defaultvalue": 0,
    "displayName": "Retro Renegade",
    "hidden": 0,
    "description": "Got to power level 4 in Retro Relic",
    "icon": "https://steamcdn-a.akamaihd.net/steamcommunity/public/images/apps/238530/7f5d73d237b7c7eacb0b72da7feaf15d3e77aa8f.jpg",
    "icongray": "https://steamcdn-a.akamaihd.net/steamcommunity/public/images/apps/238530/ec92e5950d6035c8a1e062f4acc5af24beca8235.jpg"
  },
  {
    "name": "cavesLevelComplete",
    "defaultvalue": 0,
    "displayName": "Punk Spelunker",
    "hidden": 0,
    "description": "Got to power level 4 in Cookin' Caves",
    "icon": "https://steamcdn-a.akamaihd.net/steamcommunity/public/images/apps/238530/a4a0ca8f14ff507030622d43750bc2555dfff0fb.jpg",
    "icongray": "https://steamcdn-a.akamaihd.net/steamcommunity/public/images/apps/238530/ec92e5950d6035c8a1e062f4acc5af24beca8235.jpg"
  },
  {
    "name": "iceLevelComplete",
    "defaultvalue": 0,
    "displayName": "Ice Cold",
    "hidden": 0,
    "description": "Got to power level 4 in Icy Island",
    "icon": "https://steamcdn-a.akamaihd.net/steamcommunity/public/images/apps/238530/cd865c23e4059fe9c1f2373daee99e7f17e73c17.jpg",
    "icongray": "https://steamcdn-a.akamaihd.net/steamcommunity/public/images/apps/238530/ec92e5950d6035c8a1e062f4acc5af24beca8235.jpg"
  },
  {
    "name": "mansionLevelComplete",
    "defaultvalue": 0,
    "displayName": "Mansion Maniac",
    "hidden": 0,
    "description": "Got to power level 4 in Mansion Mania",
    "icon": "https://steamcdn-a.akamaihd.net/steamcommunity/public/images/apps/238530/fc5310c4181309f60533f430a35c18977d21173f.jpg",
    "icongray": "https://steamcdn-a.akamaihd.net/steamcommunity/public/images/apps/238530/ec92e5950d6035c8a1e062f4acc5af24beca8235.jpg"
  },
  {
    "name": "deathCounter",
    "defaultvalue": 0,
    "displayName": "Over My Dead Bodies",
    "hidden": 0,
    "description": "Die 1000 times",
    "icon": "https://steamcdn-a.akamaihd.net/steamcommunity/public/images/apps/238530/ce51c0daac0b320e40cc0ce0dd80cc92550d7009.jpg",
    "icongray": "https://steamcdn-a.akamaihd.net/steamcommunity/public/images/apps/238530/ec92e5950d6035c8a1e062f4acc5af24beca8235.jpg"
  },
  {
    "name": "oneTwentyPercent",
    "defaultvalue": 0,
    "displayName": "The End.",
    "hidden": 1,
    "icon": "https://steamcdn-a.akamaihd.net/steamcommunity/public/images/apps/238530/d9f024da6a7bb77f9706c40e171d2e241d5fd822.jpg",
    "icongray": "https://steamcdn-a.akamaihd.net/steamcommunity/public/images/apps/238530/8ea854e85b40a50a40c8be0c41fcd57caa50f3cf.jpg"
  },
  {
    "name": "castleSpecial",
    "defaultvalue": 0,
    "displayName": "Castle Hero",
    "hidden": 1,
    "icon": "https://steamcdn-a.akamaihd.net/steamcommunity/public/images/apps/238530/d659f746a295b474e0955f30f77500eca4aaec79.jpg",
    "icongray": "https://steamcdn-a.akamaihd.net/steamcommunity/public/images/apps/238530/8ea854e85b40a50a40c8be0c41fcd57caa50f3cf.jpg"
  },
  {
    "name": "factorySpecial",
    "defaultvalue": 0,
    "displayName": "Factory Hero",
    "hidden": 1,
    "icon": "https://steamcdn-a.akamaihd.net/steamcommunity/public/images/apps/238530/e5aed96d3732b3cbe8f6eb32eb4992660adfacd3.jpg",
    "icongray": "https://steamcdn-a.akamaihd.net/steamcommunity/public/images/apps/238530/8ea854e85b40a50a40c8be0c41fcd57caa50f3cf.jpg"
  },
  {
    "name": "forestSpecial",
    "defaultvalue": 0,
    "displayName": "Forest Hero",
    "hidden": 1,
    "icon": "https://steamcdn-a.akamaihd.net/steamcommunity/public/images/apps/238530/c7980991b769a2461dfb2e3f1ab15d30be618b01.jpg",
    "icongray": "https://steamcdn-a.akamaihd.net/steamcommunity/public/images/apps/238530/8ea854e85b40a50a40c8be0c41fcd57caa50f3cf.jpg"
  },
  {
    "name": "glitchSpecial",
    "defaultvalue": 0,
    "displayName": "Gltich Hero",
    "hidden": 1,
    "icon": "https://steamcdn-a.akamaihd.net/steamcommunity/public/images/apps/238530/87421504d6c9b2df7b675391220957110b262b91.jpg",
    "icongray": "https://steamcdn-a.akamaihd.net/steamcommunity/public/images/apps/238530/8ea854e85b40a50a40c8be0c41fcd57caa50f3cf.jpg"
  },
  {
    "name": "iceSpecial",
    "defaultvalue": 0,
    "displayName": "Ice Hero",
    "hidden": 1,
    "icon": "https://steamcdn-a.akamaihd.net/steamcommunity/public/images/apps/238530/bd12f3b84b1c0b7955947fa4707e4df1b1be7bee.jpg",
    "icongray": "https://steamcdn-a.akamaihd.net/steamcommunity/public/images/apps/238530/8ea854e85b40a50a40c8be0c41fcd57caa50f3cf.jpg"
  },
  {
    "name": "moonSpecial",
    "defaultvalue": 0,
    "displayName": "Moon Hero",
    "hidden": 1,
    "icon": "https://steamcdn-a.akamaihd.net/steamcommunity/public/images/apps/238530/3e6ab6baf1125d30665c0a3ef6df00209a1e1704.jpg",
    "icongray": "https://steamcdn-a.akamaihd.net/steamcommunity/public/images/apps/238530/8ea854e85b40a50a40c8be0c41fcd57caa50f3cf.jpg"
  },
  {
    "name": "rockSpecial",
    "defaultvalue": 0,
    "displayName": "Rock Hero",
    "hidden": 1,
    "icon": "https://steamcdn-a.akamaihd.net/steamcommunity/public/images/apps/238530/8ecbd7086694da3d2d6fb7ae12e64ed61ab20871.jpg",
    "icongray": "https://steamcdn-a.akamaihd.net/steamcommunity/public/images/apps/238530/8ea854e85b40a50a40c8be0c41fcd57caa50f3cf.jpg"
  },
  {
    "name": "ruinsSpecial",
    "defaultvalue": 0,
    "displayName": "Ruins Hero",
    "hidden": 1,
    "icon": "https://steamcdn-a.akamaihd.net/steamcommunity/public/images/apps/238530/5d222ec2cfe21659c949e44ec44c4daca8e9ff59.jpg",
    "icongray": "https://steamcdn-a.akamaihd.net/steamcommunity/public/images/apps/238530/8ea854e85b40a50a40c8be0c41fcd57caa50f3cf.jpg"
  }
]