{
  "Dlcs": {
    "728780": {
      "Name": "Mutiny!! - Grozdana Kakra - Bonus Route",
      "ImageUrl": "https://steamcdn-a.akamaihd.net/steam/apps/728780/header.jpg?t=1508543155"
    },
    "728781": {
      "Name": "Mutiny!! - Elizabeth Margaret - Bonus Route",
      "ImageUrl": "https://steamcdn-a.akamaihd.net/steam/apps/728781/header.jpg?t=1508543125"
    },
    "728810": {
      "Name": "The Mutiny!! Soundtrack",
      "ImageUrl": "https://steamcdn-a.akamaihd.net/steam/apps/728810/header.jpg?t=1508543159"
    }
  },
  "Name": "Mutiny!!",
  "AppId": "669050",
  "ImageUrl": "https://steamcdn-a.akamaihd.net/steam/apps/669050/header.jpg?t=1513925607",
  "Languages": [
    "english"
  ],
  "Platforms": {
    "windows": true,
    "mac": true,
    "linux": true
  }
}