{
  "Dlcs": {},
  "Name": "Inventioneers",
  "AppId": "395580",
  "ImageUrl": "https://steamcdn-a.akamaihd.net/steam/apps/395580/header.jpg?t=1478167252",
  "Languages": [
    "english",
    "french",
    "italian",
    "german",
    "spanish",
    "japanese",
    "korean",
    "portuguese",
    "russian",
    "schinese",
    "swedish"
  ],
  "Platforms": {
    "windows": true,
    "mac": true,
    "linux": true
  }
}