[
  {
    "name": "ACH_001",
    "defaultvalue": 0,
    "displayName": "Let's do this",
    "hidden": 0,
    "description": "Enter Research Deck after the tutorial",
    "icon": "https://steamcdn-a.akamaihd.net/steamcommunity/public/images/apps/1140100/90af84785d5a2f7dacbe11d2cf84280984300d00.jpg",
    "icongray": "https://steamcdn-a.akamaihd.net/steamcommunity/public/images/apps/1140100/90284df23c6f6e62c9bdca9e825fcd52fbb752a4.jpg"
  },
  {
    "name": "ACH_002",
    "defaultvalue": 0,
    "displayName": "Plot the jump vectors",
    "hidden": 0,
    "description": "Plot the jump vectors home on Research Deck",
    "icon": "https://steamcdn-a.akamaihd.net/steamcommunity/public/images/apps/1140100/05cce17ad20b03c8ab29ba2965819eb0037e99cf.jpg",
    "icongray": "https://steamcdn-a.akamaihd.net/steamcommunity/public/images/apps/1140100/90284df23c6f6e62c9bdca9e825fcd52fbb752a4.jpg"
  },
  {
    "name": "ACH_003",
    "defaultvalue": 0,
    "displayName": "Mutant Madness",
    "hidden": 0,
    "description": "Refuel the Stardrive",
    "icon": "https://steamcdn-a.akamaihd.net/steamcommunity/public/images/apps/1140100/cc8732ec3ea08dbb43ec033e10722df708f75fbe.jpg",
    "icongray": "https://steamcdn-a.akamaihd.net/steamcommunity/public/images/apps/1140100/90284df23c6f6e62c9bdca9e825fcd52fbb752a4.jpg"
  },
  {
    "name": "ACH_004",
    "defaultvalue": 0,
    "displayName": "Repair the Sensors",
    "hidden": 0,
    "description": "Repair the Sensors on Communications Deck",
    "icon": "https://steamcdn-a.akamaihd.net/steamcommunity/public/images/apps/1140100/301342223cf1ce821fafdfab152d7f76d63a812b.jpg",
    "icongray": "https://steamcdn-a.akamaihd.net/steamcommunity/public/images/apps/1140100/90284df23c6f6e62c9bdca9e825fcd52fbb752a4.jpg"
  },
  {
    "name": "ACH_005",
    "defaultvalue": 0,
    "displayName": "A fallen hero",
    "hidden": 0,
    "description": "Find the Captain's body on Engineering Deck",
    "icon": "https://steamcdn-a.akamaihd.net/steamcommunity/public/images/apps/1140100/db39260b3a651955b725a83b03f028bc7bbbba6f.jpg",
    "icongray": "https://steamcdn-a.akamaihd.net/steamcommunity/public/images/apps/1140100/90284df23c6f6e62c9bdca9e825fcd52fbb752a4.jpg"
  },
  {
    "name": "ACH_006",
    "defaultvalue": 0,
    "displayName": "Going home!",
    "hidden": 0,
    "description": "Complete the game on any difficulty",
    "icon": "https://steamcdn-a.akamaihd.net/steamcommunity/public/images/apps/1140100/1cc18d1d4742d0bc2b040e10b084249116b863a0.jpg",
    "icongray": "https://steamcdn-a.akamaihd.net/steamcommunity/public/images/apps/1140100/90284df23c6f6e62c9bdca9e825fcd52fbb752a4.jpg"
  },
  {
    "name": "ACH_007",
    "defaultvalue": 0,
    "displayName": "Super Happy Ending",
    "hidden": 1,
    "icon": "https://steamcdn-a.akamaihd.net/steamcommunity/public/images/apps/1140100/c84de34fee693f3a5c03d0fd976b8ff06de4fc6c.jpg",
    "icongray": "https://steamcdn-a.akamaihd.net/steamcommunity/public/images/apps/1140100/90284df23c6f6e62c9bdca9e825fcd52fbb752a4.jpg"
  },
  {
    "name": "ACH_008",
    "defaultvalue": 0,
    "displayName": "Treasure Hunter",
    "hidden": 0,
    "description": "Open 25 treasure chests",
    "icon": "https://steamcdn-a.akamaihd.net/steamcommunity/public/images/apps/1140100/52e5e3f5fb380d102ddfeed5ffba13faf102f100.jpg",
    "icongray": "https://steamcdn-a.akamaihd.net/steamcommunity/public/images/apps/1140100/90284df23c6f6e62c9bdca9e825fcd52fbb752a4.jpg"
  },
  {
    "name": "ACH_009",
    "defaultvalue": 0,
    "displayName": "First of many",
    "hidden": 0,
    "description": "Make any schematic",
    "icon": "https://steamcdn-a.akamaihd.net/steamcommunity/public/images/apps/1140100/5a0e00f849453c5c5d16702ebcffba5eb68cfd59.jpg",
    "icongray": "https://steamcdn-a.akamaihd.net/steamcommunity/public/images/apps/1140100/90284df23c6f6e62c9bdca9e825fcd52fbb752a4.jpg"
  },
  {
    "name": "ACH_010",
    "defaultvalue": 0,
    "displayName": "Epic!",
    "hidden": 0,
    "description": "Make an epic schematic",
    "icon": "https://steamcdn-a.akamaihd.net/steamcommunity/public/images/apps/1140100/f07e97e05432fa1c8bced2068465fbb5522d88d5.jpg",
    "icongray": "https://steamcdn-a.akamaihd.net/steamcommunity/public/images/apps/1140100/90284df23c6f6e62c9bdca9e825fcd52fbb752a4.jpg"
  },
  {
    "name": "ACH_011",
    "defaultvalue": 0,
    "displayName": "Everything is awesome!",
    "hidden": 0,
    "description": "Make an Epic of each suit, teleporter, shield, harvester and supersense",
    "icon": "https://steamcdn-a.akamaihd.net/steamcommunity/public/images/apps/1140100/bdb9b3e41c0e7dbf4f47098e20da776cc1ac249c.jpg",
    "icongray": "https://steamcdn-a.akamaihd.net/steamcommunity/public/images/apps/1140100/90284df23c6f6e62c9bdca9e825fcd52fbb752a4.jpg"
  },
  {
    "name": "ACH_012",
    "defaultvalue": 0,
    "displayName": "Payback time",
    "hidden": 0,
    "description": "Unlock a weapon",
    "icon": "https://steamcdn-a.akamaihd.net/steamcommunity/public/images/apps/1140100/ddcc0c02f4936810406f82acef214a39ba69e15f.jpg",
    "icongray": "https://steamcdn-a.akamaihd.net/steamcommunity/public/images/apps/1140100/90284df23c6f6e62c9bdca9e825fcd52fbb752a4.jpg"
  },
  {
    "name": "ACH_013",
    "defaultvalue": 0,
    "displayName": "Full Arsenal",
    "hidden": 0,
    "description": "Unlock all weapons",
    "icon": "https://steamcdn-a.akamaihd.net/steamcommunity/public/images/apps/1140100/aaadf06e4615b1dc88165d052d81c560152b21fe.jpg",
    "icongray": "https://steamcdn-a.akamaihd.net/steamcommunity/public/images/apps/1140100/90284df23c6f6e62c9bdca9e825fcd52fbb752a4.jpg"
  },
  {
    "name": "ACH_014",
    "defaultvalue": 0,
    "displayName": "Lock and Load",
    "hidden": 0,
    "description": "Upgrade a weapon",
    "icon": "https://steamcdn-a.akamaihd.net/steamcommunity/public/images/apps/1140100/f3b00d999691f4d50c25e3be1838e06fe3c83bd4.jpg",
    "icongray": "https://steamcdn-a.akamaihd.net/steamcommunity/public/images/apps/1140100/90284df23c6f6e62c9bdca9e825fcd52fbb752a4.jpg"
  },
  {
    "name": "ACH_015",
    "defaultvalue": 0,
    "displayName": "As good as it gets",
    "hidden": 0,
    "description": "Get any weapon to Max level",
    "icon": "https://steamcdn-a.akamaihd.net/steamcommunity/public/images/apps/1140100/554045408171262dab3438cdf2edb6f3ef740cb4.jpg",
    "icongray": "https://steamcdn-a.akamaihd.net/steamcommunity/public/images/apps/1140100/90284df23c6f6e62c9bdca9e825fcd52fbb752a4.jpg"
  },
  {
    "name": "ACH_016",
    "defaultvalue": 0,
    "displayName": "Feeling good",
    "hidden": 0,
    "description": "Upgrade any DNA stat",
    "icon": "https://steamcdn-a.akamaihd.net/steamcommunity/public/images/apps/1140100/fb45dbee1b6a93532c9dc6b71d9119155ee18a94.jpg",
    "icongray": "https://steamcdn-a.akamaihd.net/steamcommunity/public/images/apps/1140100/90284df23c6f6e62c9bdca9e825fcd52fbb752a4.jpg"
  },
  {
    "name": "ACH_017",
    "defaultvalue": 0,
    "displayName": "Feeling great",
    "hidden": 0,
    "description": "Upgrade each DNA stat at least once",
    "icon": "https://steamcdn-a.akamaihd.net/steamcommunity/public/images/apps/1140100/ee9f8f26a586450e6c335be4e274c15f0d1dd7fd.jpg",
    "icongray": "https://steamcdn-a.akamaihd.net/steamcommunity/public/images/apps/1140100/90284df23c6f6e62c9bdca9e825fcd52fbb752a4.jpg"
  },
  {
    "name": "ACH_018",
    "defaultvalue": 0,
    "displayName": "Feeling unstoppable",
    "hidden": 0,
    "description": "Get all DNA stats to max",
    "icon": "https://steamcdn-a.akamaihd.net/steamcommunity/public/images/apps/1140100/ae07fcf26d06ef00a3d8bf36dd9a53304b66c135.jpg",
    "icongray": "https://steamcdn-a.akamaihd.net/steamcommunity/public/images/apps/1140100/90284df23c6f6e62c9bdca9e825fcd52fbb752a4.jpg"
  },
  {
    "name": "ACH_019",
    "defaultvalue": 0,
    "displayName": "Samurai",
    "hidden": 0,
    "description": "Kill 100 enemies by harvesting their stemcells",
    "icon": "https://steamcdn-a.akamaihd.net/steamcommunity/public/images/apps/1140100/f509404ac8e7ee3a8dfe2b73b461522b81716cc7.jpg",
    "icongray": "https://steamcdn-a.akamaihd.net/steamcommunity/public/images/apps/1140100/90284df23c6f6e62c9bdca9e825fcd52fbb752a4.jpg"
  },
  {
    "name": "ACH_020",
    "defaultvalue": 0,
    "displayName": "Six Shooter",
    "hidden": 0,
    "description": "Shoot and kill 6 enemies in a row, with just 6 bullets",
    "icon": "https://steamcdn-a.akamaihd.net/steamcommunity/public/images/apps/1140100/f25dc05670b94f762039af96927ae37d2bc674ec.jpg",
    "icongray": "https://steamcdn-a.akamaihd.net/steamcommunity/public/images/apps/1140100/90284df23c6f6e62c9bdca9e825fcd52fbb752a4.jpg"
  },
  {
    "name": "ACH_021",
    "defaultvalue": 0,
    "displayName": "Sharp shooter",
    "hidden": 0,
    "description": "10 headshots in a row",
    "icon": "https://steamcdn-a.akamaihd.net/steamcommunity/public/images/apps/1140100/71532100a547454d1f3a0e3be2d66208c56c1503.jpg",
    "icongray": "https://steamcdn-a.akamaihd.net/steamcommunity/public/images/apps/1140100/90284df23c6f6e62c9bdca9e825fcd52fbb752a4.jpg"
  },
  {
    "name": "ACH_023",
    "defaultvalue": 0,
    "displayName": "Thanks guys!",
    "hidden": 0,
    "description": "Kill 5 enemeies with the same Swarm Droid",
    "icon": "https://steamcdn-a.akamaihd.net/steamcommunity/public/images/apps/1140100/bf75b2fa91c3ddf12ecef754f4c8e5c43f438485.jpg",
    "icongray": "https://steamcdn-a.akamaihd.net/steamcommunity/public/images/apps/1140100/90284df23c6f6e62c9bdca9e825fcd52fbb752a4.jpg"
  },
  {
    "name": "ACH_024",
    "defaultvalue": 0,
    "displayName": "That's gotta hurt",
    "hidden": 0,
    "description": "Smash an enemy to death with the Gravimetric Hook",
    "icon": "https://steamcdn-a.akamaihd.net/steamcommunity/public/images/apps/1140100/8f71801f3c6ea4fb73aac9adffb0532966e0f347.jpg",
    "icongray": "https://steamcdn-a.akamaihd.net/steamcommunity/public/images/apps/1140100/90284df23c6f6e62c9bdca9e825fcd52fbb752a4.jpg"
  },
  {
    "name": "ACH_025",
    "defaultvalue": 0,
    "displayName": "Abrakebabra!",
    "hidden": 0,
    "description": "Pin two enemies with the same Valkyrie bolt",
    "icon": "https://steamcdn-a.akamaihd.net/steamcommunity/public/images/apps/1140100/16f2485c4469cafb928329d80d728dc7483a6991.jpg",
    "icongray": "https://steamcdn-a.akamaihd.net/steamcommunity/public/images/apps/1140100/90284df23c6f6e62c9bdca9e825fcd52fbb752a4.jpg"
  },
  {
    "name": "ACH_026",
    "defaultvalue": 0,
    "displayName": "Stealth is for wimps",
    "hidden": 0,
    "description": "Melee kill a Berserker with the Stem Cell Harvester",
    "icon": "https://steamcdn-a.akamaihd.net/steamcommunity/public/images/apps/1140100/55d9c321b52536cb44fa8a8ef4a008fae21c9bd6.jpg",
    "icongray": "https://steamcdn-a.akamaihd.net/steamcommunity/public/images/apps/1140100/90284df23c6f6e62c9bdca9e825fcd52fbb752a4.jpg"
  },
  {
    "name": "ACH_027",
    "defaultvalue": 0,
    "displayName": "Who's a good boy!",
    "hidden": 0,
    "description": "Have a single Ivy Serum buddy kill 5 enemies",
    "icon": "https://steamcdn-a.akamaihd.net/steamcommunity/public/images/apps/1140100/2966813e18fa6a530b59bb8f108a0254886ec952.jpg",
    "icongray": "https://steamcdn-a.akamaihd.net/steamcommunity/public/images/apps/1140100/a53b3eda88676b3070008ff76a05e345ddb31cd8.jpg"
  },
  {
    "name": "ACH_028",
    "defaultvalue": 0,
    "displayName": "Shields up!",
    "hidden": 0,
    "description": "Power up any Debris Defence Shield machine",
    "icon": "https://steamcdn-a.akamaihd.net/steamcommunity/public/images/apps/1140100/b3f038598f3fa101f4894ae7f170a06cfc1a55f1.jpg",
    "icongray": "https://steamcdn-a.akamaihd.net/steamcommunity/public/images/apps/1140100/90284df23c6f6e62c9bdca9e825fcd52fbb752a4.jpg"
  },
  {
    "name": "ACH_029",
    "defaultvalue": 0,
    "displayName": "Shields at Maximum",
    "hidden": 0,
    "description": "Power up all the Debris Defence Shield machines",
    "icon": "https://steamcdn-a.akamaihd.net/steamcommunity/public/images/apps/1140100/3041e448cfafe19a49996b540be6f1355c2e1d04.jpg",
    "icongray": "https://steamcdn-a.akamaihd.net/steamcommunity/public/images/apps/1140100/90284df23c6f6e62c9bdca9e825fcd52fbb752a4.jpg"
  },
  {
    "name": "ACH_030",
    "defaultvalue": 0,
    "displayName": "Fully fortified",
    "hidden": 0,
    "description": "Use all 4 Debris Defence Shield machines on the same life",
    "icon": "https://steamcdn-a.akamaihd.net/steamcommunity/public/images/apps/1140100/34d1af61e798fe368b3dd81fd0164b60391d9df1.jpg",
    "icongray": "https://steamcdn-a.akamaihd.net/steamcommunity/public/images/apps/1140100/90284df23c6f6e62c9bdca9e825fcd52fbb752a4.jpg"
  },
  {
    "name": "ACH_031",
    "defaultvalue": 0,
    "displayName": "A lost friend",
    "hidden": 0,
    "description": "Find a crew member artefact",
    "icon": "https://steamcdn-a.akamaihd.net/steamcommunity/public/images/apps/1140100/9e5a6456e4394b74721d839e08ce8feeb96a05af.jpg",
    "icongray": "https://steamcdn-a.akamaihd.net/steamcommunity/public/images/apps/1140100/90284df23c6f6e62c9bdca9e825fcd52fbb752a4.jpg"
  },
  {
    "name": "ACH_032",
    "defaultvalue": 0,
    "displayName": "A lost family",
    "hidden": 0,
    "description": "Find all 6 crew member artefacts",
    "icon": "https://steamcdn-a.akamaihd.net/steamcommunity/public/images/apps/1140100/af8cf0ad36f36410bb70a9fa66244a16bf5b518f.jpg",
    "icongray": "https://steamcdn-a.akamaihd.net/steamcommunity/public/images/apps/1140100/90284df23c6f6e62c9bdca9e825fcd52fbb752a4.jpg"
  },
  {
    "name": "ACH_033",
    "defaultvalue": 0,
    "displayName": "Not feeling myself?",
    "hidden": 0,
    "description": "Print a clone of any other crew member",
    "icon": "https://steamcdn-a.akamaihd.net/steamcommunity/public/images/apps/1140100/18a860758fc4cd16a88cdfeeff41c324bbf575cf.jpg",
    "icongray": "https://steamcdn-a.akamaihd.net/steamcommunity/public/images/apps/1140100/90284df23c6f6e62c9bdca9e825fcd52fbb752a4.jpg"
  },
  {
    "name": "ACH_035",
    "defaultvalue": 0,
    "displayName": "Full house",
    "hidden": 0,
    "description": "Kill one of each type of enemy",
    "icon": "https://steamcdn-a.akamaihd.net/steamcommunity/public/images/apps/1140100/eb2f7c4245d5333f9855b29da28894b2b4c1e5e7.jpg",
    "icongray": "https://steamcdn-a.akamaihd.net/steamcommunity/public/images/apps/1140100/90284df23c6f6e62c9bdca9e825fcd52fbb752a4.jpg"
  },
  {
    "name": "ACH_036",
    "defaultvalue": 0,
    "displayName": "The ship is your friend",
    "hidden": 0,
    "description": "Use the environment to kill 10 enemies",
    "icon": "https://steamcdn-a.akamaihd.net/steamcommunity/public/images/apps/1140100/6f5e2985f27c26c9bd57204a80e784f5e7bbe835.jpg",
    "icongray": "https://steamcdn-a.akamaihd.net/steamcommunity/public/images/apps/1140100/90284df23c6f6e62c9bdca9e825fcd52fbb752a4.jpg"
  },
  {
    "name": "ACH_037",
    "defaultvalue": 0,
    "displayName": "Big bad buddy",
    "hidden": 0,
    "description": "Rage Berserkers to kill 10 enemies",
    "icon": "https://steamcdn-a.akamaihd.net/steamcommunity/public/images/apps/1140100/e5af51b93d0ab4918914e07e0715e941a84df45b.jpg",
    "icongray": "https://steamcdn-a.akamaihd.net/steamcommunity/public/images/apps/1140100/90284df23c6f6e62c9bdca9e825fcd52fbb752a4.jpg"
  },
  {
    "name": "ACH_038",
    "defaultvalue": 0,
    "displayName": "Thank you!",
    "hidden": 0,
    "description": "Get a weeper to kill another mutant (without using Ivy Serum)",
    "icon": "https://steamcdn-a.akamaihd.net/steamcommunity/public/images/apps/1140100/fc85f14ea71cc9529b9c8eac6b662314d86c5ae9.jpg",
    "icongray": "https://steamcdn-a.akamaihd.net/steamcommunity/public/images/apps/1140100/90284df23c6f6e62c9bdca9e825fcd52fbb752a4.jpg"
  },
  {
    "name": "ACH_039",
    "defaultvalue": 0,
    "displayName": "Wrong place, wrong time",
    "hidden": 0,
    "description": "Kill any enemy with a hidden Siren Grenade",
    "icon": "https://steamcdn-a.akamaihd.net/steamcommunity/public/images/apps/1140100/454368a12cb31d04a7da64b3f52752dd3c9af019.jpg",
    "icongray": "https://steamcdn-a.akamaihd.net/steamcommunity/public/images/apps/1140100/90284df23c6f6e62c9bdca9e825fcd52fbb752a4.jpg"
  },
  {
    "name": "ACH_040",
    "defaultvalue": 0,
    "displayName": "Keep your distance, buddy",
    "hidden": 0,
    "description": "Use your shield 10 times against the same enemy",
    "icon": "https://steamcdn-a.akamaihd.net/steamcommunity/public/images/apps/1140100/4df0f9f898cda6b54a7e6bf17d127d762d71d279.jpg",
    "icongray": "https://steamcdn-a.akamaihd.net/steamcommunity/public/images/apps/1140100/90284df23c6f6e62c9bdca9e825fcd52fbb752a4.jpg"
  },
  {
    "name": "ACH_041",
    "defaultvalue": 0,
    "displayName": "Boom!",
    "hidden": 0,
    "description": "Get fireballs to kill a total of 10 mutants",
    "icon": "https://steamcdn-a.akamaihd.net/steamcommunity/public/images/apps/1140100/0d31a01996a2bcc26304988de233bd254cbc5854.jpg",
    "icongray": "https://steamcdn-a.akamaihd.net/steamcommunity/public/images/apps/1140100/90284df23c6f6e62c9bdca9e825fcd52fbb752a4.jpg"
  },
  {
    "name": "ACH_042",
    "defaultvalue": 0,
    "displayName": "Teleport Technician",
    "hidden": 0,
    "description": "Get from the clone printer to the Stardrive Deck by only teleporting",
    "icon": "https://steamcdn-a.akamaihd.net/steamcommunity/public/images/apps/1140100/e4efac957247305e018dce233e2b8a4a9c810713.jpg",
    "icongray": "https://steamcdn-a.akamaihd.net/steamcommunity/public/images/apps/1140100/90284df23c6f6e62c9bdca9e825fcd52fbb752a4.jpg"
  },
  {
    "name": "ACH_022",
    "defaultvalue": 0,
    "displayName": "A bundle of limbs",
    "hidden": 0,
    "description": "Kill 3 enemies with the same gravity bomb",
    "icon": "https://steamcdn-a.akamaihd.net/steamcommunity/public/images/apps/1140100/0fd236c5850754855df0f9d45ebdf04a6c0c7579.jpg",
    "icongray": "https://steamcdn-a.akamaihd.net/steamcommunity/public/images/apps/1140100/90284df23c6f6e62c9bdca9e825fcd52fbb752a4.jpg"
  },
  {
    "name": "ACH_034",
    "defaultvalue": 0,
    "displayName": "All the crew",
    "hidden": 0,
    "description": "Print a clone of all 7 crew members",
    "icon": "https://steamcdn-a.akamaihd.net/steamcommunity/public/images/apps/1140100/f40a0fe373e8175f3a6d716cf504288e237914f5.jpg",
    "icongray": "https://steamcdn-a.akamaihd.net/steamcommunity/public/images/apps/1140100/90284df23c6f6e62c9bdca9e825fcd52fbb752a4.jpg"
  },
  {
    "name": "ACH_043",
    "defaultvalue": 0,
    "displayName": "Nah, I'm good.",
    "hidden": 0,
    "description": "Get to Communication Deck without collecting anything or making a weapon",
    "icon": "https://steamcdn-a.akamaihd.net/steamcommunity/public/images/apps/1140100/eba3d9a7c052c8cbfe89a4a3419af497dca38918.jpg",
    "icongray": "https://steamcdn-a.akamaihd.net/steamcommunity/public/images/apps/1140100/90284df23c6f6e62c9bdca9e825fcd52fbb752a4.jpg"
  }
]