﻿[
  {
    "name": "ACH_CAREER10K",
    "defaultvalue": 0,
    "displayName": "Rolling In It",
    "hidden": 0,
    "description": "Earn 10,000 dollars in a single career.",
    "icon": "https://steamcdn-a.akamaihd.net/steamcommunity/public/images/apps/505750/5d226bb752471a9b97a52e171d07a0f2337abeac.jpg",
    "icongray": "https://steamcdn-a.akamaihd.net/steamcommunity/public/images/apps/505750/22fd2beb812384a7ab1ed09b462c859f620ff25a.jpg"
  },
  {
    "name": "ACH_COMPLETIONIST",
    "defaultvalue": 0,
    "displayName": "Completionist",
    "hidden": 0,
    "description": "Place one of each decoration in a single career.",
    "icon": "https://steamcdn-a.akamaihd.net/steamcommunity/public/images/apps/505750/f01463415f70c6a9d744d683e4071bb70a8cd217.jpg",
    "icongray": "https://steamcdn-a.akamaihd.net/steamcommunity/public/images/apps/505750/afcf4e89fde13354faa5b397620e003c1c2096e1.jpg"
  },
  {
    "name": "ACH_RGB_MASTER",
    "defaultvalue": 0,
    "displayName": "RGB Master",
    "hidden": 0,
    "description": "Perfectly color a beard.",
    "icon": "https://steamcdn-a.akamaihd.net/steamcommunity/public/images/apps/505750/e7dd90623322863f295281e860398c5daa367e90.jpg",
    "icongray": "https://steamcdn-a.akamaihd.net/steamcommunity/public/images/apps/505750/14b712ceaff12ff091bc088e2195c255e8d32620.jpg"
  },
  {
    "name": "ACH_50BEARDS",
    "defaultvalue": 0,
    "displayName": "50 Shades of Beard",
    "hidden": 0,
    "description": "Shave 50 beards.",
    "icon": "https://steamcdn-a.akamaihd.net/steamcommunity/public/images/apps/505750/68ea86144cfa965340f63f109b60f34fb5351015.jpg",
    "icongray": "https://steamcdn-a.akamaihd.net/steamcommunity/public/images/apps/505750/daeb33a43e5389e4b2c10007984d720108fcbadc.jpg"
  },
  {
    "name": "ACH_100BEARDS",
    "defaultvalue": 0,
    "displayName": "Boiling Hot!",
    "hidden": 0,
    "description": "Shave 100 beards.",
    "icon": "https://steamcdn-a.akamaihd.net/steamcommunity/public/images/apps/505750/b1e77e106ff9f745ecce52e749b69734f87e7bd9.jpg",
    "icongray": "https://steamcdn-a.akamaihd.net/steamcommunity/public/images/apps/505750/a405508a6f67b8c6224a568f9b657ab6626673f6.jpg"
  },
  {
    "name": "ACH_200BEARDS",
    "defaultvalue": 0,
    "displayName": "Getting There",
    "hidden": 0,
    "description": "Shave 200 beards.",
    "icon": "https://steamcdn-a.akamaihd.net/steamcommunity/public/images/apps/505750/59f7a86e7565084a167f0f325011ff458d86af96.jpg",
    "icongray": "https://steamcdn-a.akamaihd.net/steamcommunity/public/images/apps/505750/a3a419585c9add156d5f7ba9f7dfd74d39f9f55e.jpg"
  },
  {
    "name": "ACH_500BEARDS",
    "defaultvalue": 0,
    "displayName": "Expert Shaver",
    "hidden": 0,
    "description": "Shave 500 beards.",
    "icon": "https://steamcdn-a.akamaihd.net/steamcommunity/public/images/apps/505750/1aaa4bfd51767c4f2fef2157b3ad4fc7a641d8a4.jpg",
    "icongray": "https://steamcdn-a.akamaihd.net/steamcommunity/public/images/apps/505750/4de926fcaeb5203f22778d628469536bfcf93de4.jpg"
  },
  {
    "name": "ACH_1000BEARDS",
    "defaultvalue": 0,
    "displayName": "Grand Trimmer",
    "hidden": 0,
    "description": "Shave 1000 beards.",
    "icon": "https://steamcdn-a.akamaihd.net/steamcommunity/public/images/apps/505750/c160ca57f994a5ad41ec26ae6c59edf878cb6873.jpg",
    "icongray": "https://steamcdn-a.akamaihd.net/steamcommunity/public/images/apps/505750/a087e5fe1f074066283b06d9cb904cc843e8e3ae.jpg"
  },
  {
    "name": "ACH_10000BEARDS",
    "defaultvalue": 0,
    "displayName": "Addicted",
    "hidden": 0,
    "description": "Shave 10,000 beards.",
    "icon": "https://steamcdn-a.akamaihd.net/steamcommunity/public/images/apps/505750/80401a2152ddeb4e89969a4342262bdf5c50431c.jpg",
    "icongray": "https://steamcdn-a.akamaihd.net/steamcommunity/public/images/apps/505750/21baf55a09b1877a696dc3ad6ebe1cf3492cc461.jpg"
  },
  {
    "name": "ACH_NOBUY_10K",
    "defaultvalue": 0,
    "displayName": "Miser",
    "hidden": 0,
    "description": "Earn 3,000 dollars without buying anything.",
    "icon": "https://steamcdn-a.akamaihd.net/steamcommunity/public/images/apps/505750/959543c9a906187c3684bcf72af788276128dac2.jpg",
    "icongray": "https://steamcdn-a.akamaihd.net/steamcommunity/public/images/apps/505750/9d8aeea4ff47377567312adc025d73bb3a4b465b.jpg"
  },
  {
    "name": "ACH_ONLY_SCISSORS",
    "defaultvalue": 0,
    "displayName": "Cutting Edge",
    "hidden": 0,
    "description": "Make a customer happy by using only scissors.",
    "icon": "https://steamcdn-a.akamaihd.net/steamcommunity/public/images/apps/505750/bbb834f7a6b974eb991b7880ebe455ec541a20a1.jpg",
    "icongray": "https://steamcdn-a.akamaihd.net/steamcommunity/public/images/apps/505750/e306f26710b40c1fc2aaa1d200b514e2db0c4339.jpg"
  },
  {
    "name": "ACH_NEW_STORE",
    "defaultvalue": 0,
    "displayName": "Time to Expand!",
    "hidden": 0,
    "description": "Buy a new store.",
    "icon": "https://steamcdn-a.akamaihd.net/steamcommunity/public/images/apps/505750/39bb8cd6ef8c934e4caa1064d62596c1c01a8032.jpg",
    "icongray": "https://steamcdn-a.akamaihd.net/steamcommunity/public/images/apps/505750/9ac952fa5f95c01fb442c855bb353a8ccfebd80a.jpg"
  },
  {
    "name": "ACH_100SCISSORS",
    "defaultvalue": 0,
    "displayName": "Scissorhands",
    "hidden": 0,
    "description": "Shave 100 beards only using scissors.",
    "icon": "https://steamcdn-a.akamaihd.net/steamcommunity/public/images/apps/505750/a5c4c791f7130d30e6e4b86dfa753006e5c3fc8c.jpg",
    "icongray": "https://steamcdn-a.akamaihd.net/steamcommunity/public/images/apps/505750/60a38dac697081cb6a2e36e3754169f2057dd297.jpg"
  },
  {
    "name": "ACH_CAREER100K",
    "defaultvalue": 0,
    "displayName": "Filthy Rich",
    "hidden": 0,
    "description": "Earn 100,000 dollars in a single career.",
    "icon": "https://steamcdn-a.akamaihd.net/steamcommunity/public/images/apps/505750/4631287a91ac83b4c8717937e64f9dd0fcae2bbc.jpg",
    "icongray": "https://steamcdn-a.akamaihd.net/steamcommunity/public/images/apps/505750/9644051294a44da2a9a072b3f2bc25d10d62ecf1.jpg"
  },
  {
    "name": "ACH_CAREER1000K",
    "defaultvalue": 0,
    "displayName": "Millionaire",
    "hidden": 0,
    "description": "Earn 1,000,000 dollars in a single career.",
    "icon": "https://steamcdn-a.akamaihd.net/steamcommunity/public/images/apps/505750/fca5ff1f5e04c3bd94644d515c51e5ddbef381c9.jpg",
    "icongray": "https://steamcdn-a.akamaihd.net/steamcommunity/public/images/apps/505750/d921ef65805b3da9e739fde366779c2c05dddb1e.jpg"
  },
  {
    "name": "ACH_TOTALM",
    "defaultvalue": 0,
    "displayName": "A Small Loan",
    "hidden": 0,
    "description": "Earn 1,000,000 dollars across all careers.",
    "icon": "https://steamcdn-a.akamaihd.net/steamcommunity/public/images/apps/505750/ea410af017a1bbbdcef2fe55d95577311bae8576.jpg",
    "icongray": "https://steamcdn-a.akamaihd.net/steamcommunity/public/images/apps/505750/7e44b1a2a62936ffdb60dca8f036f5db5344db72.jpg"
  },
  {
    "name": "ACH_TOTAL10M",
    "defaultvalue": 0,
    "displayName": "Multimillionaire",
    "hidden": 0,
    "description": "Earn 10,000,000 dollars across all careers.",
    "icon": "https://steamcdn-a.akamaihd.net/steamcommunity/public/images/apps/505750/bbb4a0eb4f0db3dc9b4174c12a907eadc3144116.jpg",
    "icongray": "https://steamcdn-a.akamaihd.net/steamcommunity/public/images/apps/505750/0c1ee0fa91163f9a97630f9037eb6ca9b7ed1a3d.jpg"
  },
  {
    "name": "ACH_TOTAL100M",
    "defaultvalue": 0,
    "displayName": "Scrooge McDuck",
    "hidden": 0,
    "description": "Earn 100,000,000 dollars across all careers.",
    "icon": "https://steamcdn-a.akamaihd.net/steamcommunity/public/images/apps/505750/ecc0bc0778e4efd110883c5711440a333c67250b.jpg",
    "icongray": "https://steamcdn-a.akamaihd.net/steamcommunity/public/images/apps/505750/63fed7afc6bace0086445466cb90afabb9a839aa.jpg"
  },
  {
    "name": "ACH_1BEARDS",
    "defaultvalue": 0,
    "displayName": "Amateur Shaver",
    "hidden": 0,
    "description": "Shave your first beard.",
    "icon": "https://steamcdn-a.akamaihd.net/steamcommunity/public/images/apps/505750/2b9ea33c0b0d5c5658e92cbca4ae904cb8bab6b8.jpg",
    "icongray": "https://steamcdn-a.akamaihd.net/steamcommunity/public/images/apps/505750/e4a6ed2aec0f1056940414866b8152fd8a89e299.jpg"
  },
  {
    "name": "ACH_TOTAL1EMPS",
    "defaultvalue": 0,
    "displayName": "Now Hiring!",
    "hidden": 0,
    "description": "Hire your first employee.",
    "icon": "https://steamcdn-a.akamaihd.net/steamcommunity/public/images/apps/505750/fc7f8b12e176402367f9c15ff6c7780f48ab903e.jpg",
    "icongray": "https://steamcdn-a.akamaihd.net/steamcommunity/public/images/apps/505750/32a67fd99d0449325c615ab48b1148cb625a4579.jpg"
  },
  {
    "name": "ACH_TOTAL100EMPS",
    "defaultvalue": 0,
    "displayName": "Big Business",
    "hidden": 0,
    "description": "Hire 100 employees across all careers.",
    "icon": "https://steamcdn-a.akamaihd.net/steamcommunity/public/images/apps/505750/e9f20428860abb31235929d2cbb9ecd7c848bf6e.jpg",
    "icongray": "https://steamcdn-a.akamaihd.net/steamcommunity/public/images/apps/505750/c6a7112efcd5bf29664892c27af538d888af1ddf.jpg"
  },
  {
    "name": "ACH_TOTAL1000EMPS",
    "defaultvalue": 0,
    "displayName": "Delegation Guru",
    "hidden": 0,
    "description": "Hire 1000 employees across all careers.",
    "icon": "https://steamcdn-a.akamaihd.net/steamcommunity/public/images/apps/505750/94ed80e4a5af532b0264007618f16ad2793da93a.jpg",
    "icongray": "https://steamcdn-a.akamaihd.net/steamcommunity/public/images/apps/505750/b365bf7be4c1fba30d8a97a476deeb909cd342f5.jpg"
  }
]