﻿{
  "Dlcs": {},
  "Name": "Button City",
  "AppId": "1273750",
  "ImageUrl": "https://steamcdn-a.akamaihd.net/steam/apps/1273750/header.jpg?t=1600050765",
  "Languages": [
    "english"
  ],
  "Platforms": {
    "windows": true,
    "mac": true,
    "linux": false
  }
}