[
  {
    "name": "AC_Won_1",
    "defaultvalue": 0,
    "displayName": "Has Won 1 Game",
    "hidden": 0,
    "description": "Has Won 1 Game",
    "icon": "https://steamcdn-a.akamaihd.net/steamcommunity/public/images/apps/380790/8f7ba089bc20d43aaa316204df1cb8b8b15e3905.jpg",
    "icongray": "https://steamcdn-a.akamaihd.net/steamcommunity/public/images/apps/380790/abe585476a7b4bc02556003abfbaeb2fd0a555f8.jpg"
  },
  {
    "name": "AC_Won_100",
    "defaultvalue": 0,
    "displayName": "Has Won 100 Games",
    "hidden": 0,
    "description": "Has Won 100 Games",
    "icon": "https://steamcdn-a.akamaihd.net/steamcommunity/public/images/apps/380790/bb4d6d2a55e2cac708e3c2e5df2eeff1aed4d0ab.jpg",
    "icongray": "https://steamcdn-a.akamaihd.net/steamcommunity/public/images/apps/380790/abe585476a7b4bc02556003abfbaeb2fd0a555f8.jpg"
  },
  {
    "name": "AC_Won_1000",
    "defaultvalue": 0,
    "displayName": "Has Won 1000 Games",
    "hidden": 0,
    "description": "Has Won 1000 Games",
    "icon": "https://steamcdn-a.akamaihd.net/steamcommunity/public/images/apps/380790/c0a8d2278265a673432b76e2302147914ed7355b.jpg",
    "icongray": "https://steamcdn-a.akamaihd.net/steamcommunity/public/images/apps/380790/abe585476a7b4bc02556003abfbaeb2fd0a555f8.jpg"
  },
  {
    "name": "AC_Loss_1",
    "defaultvalue": 0,
    "displayName": "Has Loss 1 Game",
    "hidden": 0,
    "description": "Has Loss 1 Game",
    "icon": "https://steamcdn-a.akamaihd.net/steamcommunity/public/images/apps/380790/a981d07c391779fbd2aaeb6d2d46a063d7c54f3a.jpg",
    "icongray": "https://steamcdn-a.akamaihd.net/steamcommunity/public/images/apps/380790/abe585476a7b4bc02556003abfbaeb2fd0a555f8.jpg"
  },
  {
    "name": "AC_Loss_100",
    "defaultvalue": 0,
    "displayName": "Has Loss 100 Games",
    "hidden": 0,
    "description": "Has Loss 100 Games",
    "icon": "https://steamcdn-a.akamaihd.net/steamcommunity/public/images/apps/380790/6f44fcc719e89687ef7c317d9fe9874d3924e04b.jpg",
    "icongray": "https://steamcdn-a.akamaihd.net/steamcommunity/public/images/apps/380790/abe585476a7b4bc02556003abfbaeb2fd0a555f8.jpg"
  },
  {
    "name": "AC_Loss_1000",
    "defaultvalue": 0,
    "displayName": "Has Loss 1000 Games",
    "hidden": 0,
    "description": "Has Loss 1000 Games",
    "icon": "https://steamcdn-a.akamaihd.net/steamcommunity/public/images/apps/380790/39e375acecf6c6b0cfd3660f9eec3f2f8fa71217.jpg",
    "icongray": "https://steamcdn-a.akamaihd.net/steamcommunity/public/images/apps/380790/abe585476a7b4bc02556003abfbaeb2fd0a555f8.jpg"
  },
  {
    "name": "AC_Kill_100",
    "defaultvalue": 0,
    "displayName": "Has Killed 100 Enemys",
    "hidden": 0,
    "description": "Has Killed 100 Enemys",
    "icon": "https://steamcdn-a.akamaihd.net/steamcommunity/public/images/apps/380790/208397d6fe778a140c3b34023bdcfdc05e142c1f.jpg",
    "icongray": "https://steamcdn-a.akamaihd.net/steamcommunity/public/images/apps/380790/abe585476a7b4bc02556003abfbaeb2fd0a555f8.jpg"
  },
  {
    "name": "AC_Kill_1000",
    "defaultvalue": 0,
    "displayName": "Has Killed 1000 Enemys",
    "hidden": 0,
    "description": "Has Killed 1000 Enemys",
    "icon": "https://steamcdn-a.akamaihd.net/steamcommunity/public/images/apps/380790/8d92e829c3b09777dfd10a947a68837a006fba61.jpg",
    "icongray": "https://steamcdn-a.akamaihd.net/steamcommunity/public/images/apps/380790/abe585476a7b4bc02556003abfbaeb2fd0a555f8.jpg"
  },
  {
    "name": "AC_Kill_1000000",
    "defaultvalue": 0,
    "displayName": "Has Killed 1000000 Enemys",
    "hidden": 0,
    "description": "Has Killed 1000000 Enemys",
    "icon": "https://steamcdn-a.akamaihd.net/steamcommunity/public/images/apps/380790/0a99dda165f5225f3f9a6b79c2c6b8306874bac0.jpg",
    "icongray": "https://steamcdn-a.akamaihd.net/steamcommunity/public/images/apps/380790/abe585476a7b4bc02556003abfbaeb2fd0a555f8.jpg"
  },
  {
    "name": "AC_3Cards",
    "defaultvalue": 0,
    "displayName": "Has Used 3 Cards in a Row",
    "hidden": 1,
    "icon": "https://steamcdn-a.akamaihd.net/steamcommunity/public/images/apps/380790/8faa9494b95856f7843cf4993b15c0e09db578ec.jpg",
    "icongray": "https://steamcdn-a.akamaihd.net/steamcommunity/public/images/apps/380790/abe585476a7b4bc02556003abfbaeb2fd0a555f8.jpg"
  },
  {
    "name": "AC_4Cards",
    "defaultvalue": 0,
    "displayName": "Has Used 4 Cards in a Row",
    "hidden": 1,
    "icon": "https://steamcdn-a.akamaihd.net/steamcommunity/public/images/apps/380790/c6233871bb313c2959d398d60ae597d2c607d9ef.jpg",
    "icongray": "https://steamcdn-a.akamaihd.net/steamcommunity/public/images/apps/380790/abe585476a7b4bc02556003abfbaeb2fd0a555f8.jpg"
  }
]