{
  "Dlcs": {
    "267650": {
      "Name": "Android Exporter for Clickteam Fusion 2.5",
      "ImageUrl": "https://steamcdn-a.akamaihd.net/steam/apps/267650/header.jpg?t=1594130422"
    },
    "267651": {
      "Name": "iOS Exporter for Clickteam Fusion 2.5",
      "ImageUrl": "https://steamcdn-a.akamaihd.net/steam/apps/267651/header.jpg?t=1523382115"
    },
    "267652": {
      "Name": "HTML5 Exporter for Clickteam Fusion 2.5",
      "ImageUrl": "https://steamcdn-a.akamaihd.net/steam/apps/267652/header.jpg?t=1523381885"
    },
    "267653": {
      "Name": "Flash Exporter for Clickteam Fusion 2.5",
      "ImageUrl": "https://steamcdn-a.akamaihd.net/steam/apps/267653/header.jpg?t=1523381828"
    },
    "267655": {
      "Name": "Firefly",
      "ImageUrl": "https://steamcdn-a.akamaihd.net/steam/apps/267655/header.jpg?t=1523381662"
    },
    "267810": {
      "Name": "Clickteam Fusion 2.5 Developer Upgrade",
      "ImageUrl": "https://steamcdn-a.akamaihd.net/steam/apps/267810/header.jpg?t=1523380523"
    },
    "574330": {
      "Name": "Mac Exporter",
      "ImageUrl": "https://steamcdn-a.akamaihd.net/steam/apps/574330/header.jpg?t=1523381956"
    },
    "267654": {
      "Name": "UWP Exporter for Clickteam Fusion 2.5",
      "ImageUrl": "https://steamcdn-a.akamaihd.net/steam/apps/267654/header.jpg?t=1549491320"
    },
    "1056780": {
      "Name": "Clickteam Fusion 2.5+ Addon",
      "ImageUrl": "https://steamcdn-a.akamaihd.net/steam/apps/1056780/header.jpg?t=1554183161"
    }
  },
  "Name": "Clickteam Fusion 2.5",
  "AppId": "248170",
  "ImageUrl": "https://steamcdn-a.akamaihd.net/steam/apps/248170/header.jpg?t=1530898712",
  "Languages": [
    "english",
    "french",
    "japanese"
  ],
  "Platforms": {
    "windows": true,
    "mac": false,
    "linux": false
  }
}