[
  {
    "name": "NORMAL_WORLD",
    "defaultvalue": 0,
    "displayName": "Welcome to the World!",
    "hidden": 0,
    "description": "Play the first level",
    "icon": "https://steamcdn-a.akamaihd.net/steamcommunity/public/images/apps/1118790/f9647138ee8d6187f514bfd626d2e5bdce1bb11d.jpg",
    "icongray": "https://steamcdn-a.akamaihd.net/steamcommunity/public/images/apps/1118790/cdacb9039e93c95606e0212682d7bbc6be5fc88c.jpg"
  },
  {
    "name": "ICE_WORLD",
    "defaultvalue": 0,
    "displayName": "Welcome to the Ice!",
    "hidden": 0,
    "description": "Throw an Ice level",
    "icon": "https://steamcdn-a.akamaihd.net/steamcommunity/public/images/apps/1118790/23c8545f12b1ccf4773975b37256b641344404b3.jpg",
    "icongray": "https://steamcdn-a.akamaihd.net/steamcommunity/public/images/apps/1118790/d7403fc22cabe76945fa8a5106509b8fec869999.jpg"
  },
  {
    "name": "NIGHT_WORLD",
    "defaultvalue": 0,
    "displayName": "Welcome to the Night!",
    "hidden": 0,
    "description": "Play a Night level",
    "icon": "https://steamcdn-a.akamaihd.net/steamcommunity/public/images/apps/1118790/59a7ca7cdcc89015dfcd351e9ef8335fde178d7f.jpg",
    "icongray": "https://steamcdn-a.akamaihd.net/steamcommunity/public/images/apps/1118790/4c9dde5637c54149e388745be5a86613f6676bec.jpg"
  },
  {
    "name": "DESERT_WORLD",
    "defaultvalue": 0,
    "displayName": "Welcome to the Desert!",
    "hidden": 0,
    "description": "Play a Desert level",
    "icon": "https://steamcdn-a.akamaihd.net/steamcommunity/public/images/apps/1118790/5d68216208116cf69c7e843d492fdff29bd4a86c.jpg",
    "icongray": "https://steamcdn-a.akamaihd.net/steamcommunity/public/images/apps/1118790/dd72f49dc431d4ae364db7043dc3fd2751d202b3.jpg"
  },
  {
    "name": "TEN_BLUE_SLIME",
    "defaultvalue": 0,
    "displayName": "10 Blue Slime",
    "hidden": 0,
    "description": "Get 10 Blue Slime",
    "icon": "https://steamcdn-a.akamaihd.net/steamcommunity/public/images/apps/1118790/93767c51e7a2ec9ed5816e30598e07b08d1e0d58.jpg",
    "icongray": "https://steamcdn-a.akamaihd.net/steamcommunity/public/images/apps/1118790/b0247fa84bae32c9f98c15d0da1c25b713edcb7d.jpg"
  },
  {
    "name": "TWENTYFIVE_BLUE_SLIME",
    "defaultvalue": 0,
    "displayName": "25 Blue Slime",
    "hidden": 0,
    "description": "Get 25 Blue Slime",
    "icon": "https://steamcdn-a.akamaihd.net/steamcommunity/public/images/apps/1118790/93767c51e7a2ec9ed5816e30598e07b08d1e0d58.jpg",
    "icongray": "https://steamcdn-a.akamaihd.net/steamcommunity/public/images/apps/1118790/b0247fa84bae32c9f98c15d0da1c25b713edcb7d.jpg"
  },
  {
    "name": "TEN_GREEN_SLIME",
    "defaultvalue": 0,
    "displayName": "10 Green Slime",
    "hidden": 0,
    "description": "Get 10 Green Slime",
    "icon": "https://steamcdn-a.akamaihd.net/steamcommunity/public/images/apps/1118790/42d66d83e25ba3495d49d19ecb3e830f3e08d161.jpg",
    "icongray": "https://steamcdn-a.akamaihd.net/steamcommunity/public/images/apps/1118790/c578bce232c208831553db3508f3433fb2a7d427.jpg"
  },
  {
    "name": "TWENTY_GREEN_SLIME",
    "defaultvalue": 0,
    "displayName": "20 Green Slime",
    "hidden": 0,
    "description": "Get 20 Green Slime",
    "icon": "https://steamcdn-a.akamaihd.net/steamcommunity/public/images/apps/1118790/42d66d83e25ba3495d49d19ecb3e830f3e08d161.jpg",
    "icongray": "https://steamcdn-a.akamaihd.net/steamcommunity/public/images/apps/1118790/c578bce232c208831553db3508f3433fb2a7d427.jpg"
  },
  {
    "name": "TEN_CAT_FEET",
    "defaultvalue": 0,
    "displayName": "10 Cat Feet",
    "hidden": 0,
    "description": "Get 10 Cat Feet",
    "icon": "https://steamcdn-a.akamaihd.net/steamcommunity/public/images/apps/1118790/71a7f04e6b9eb8bb89520638efbb1276c219da2b.jpg",
    "icongray": "https://steamcdn-a.akamaihd.net/steamcommunity/public/images/apps/1118790/66ba7f61bad379ee9f781216e3b24dc314277262.jpg"
  },
  {
    "name": "TWENTY_CAT_FEET",
    "defaultvalue": 0,
    "displayName": "20 Cat Feet",
    "hidden": 0,
    "description": "Get 20 Cat Feet",
    "icon": "https://steamcdn-a.akamaihd.net/steamcommunity/public/images/apps/1118790/71a7f04e6b9eb8bb89520638efbb1276c219da2b.jpg",
    "icongray": "https://steamcdn-a.akamaihd.net/steamcommunity/public/images/apps/1118790/66ba7f61bad379ee9f781216e3b24dc314277262.jpg"
  },
  {
    "name": "TEN_KNIFES",
    "defaultvalue": 0,
    "displayName": "10 Knifes",
    "hidden": 0,
    "description": "Get 10 Knifes",
    "icon": "https://steamcdn-a.akamaihd.net/steamcommunity/public/images/apps/1118790/24c55a9807ee98c3f32907b04623ad1984ca2098.jpg",
    "icongray": "https://steamcdn-a.akamaihd.net/steamcommunity/public/images/apps/1118790/ca9ab5fd35894605e486d75c5c88776d1ae78439.jpg"
  },
  {
    "name": "TWENTY_KNIFES",
    "defaultvalue": 0,
    "displayName": "20 Knifes",
    "hidden": 0,
    "description": "Get 20 Knifes",
    "icon": "https://steamcdn-a.akamaihd.net/steamcommunity/public/images/apps/1118790/24c55a9807ee98c3f32907b04623ad1984ca2098.jpg",
    "icongray": "https://steamcdn-a.akamaihd.net/steamcommunity/public/images/apps/1118790/ca9ab5fd35894605e486d75c5c88776d1ae78439.jpg"
  },
  {
    "name": "TEN_GUNS",
    "defaultvalue": 0,
    "displayName": "10 Guns",
    "hidden": 0,
    "description": "Get 10 Guns",
    "icon": "https://steamcdn-a.akamaihd.net/steamcommunity/public/images/apps/1118790/f51e6f8cfc63a8492e2e39465fdafce8ed8f7ad9.jpg",
    "icongray": "https://steamcdn-a.akamaihd.net/steamcommunity/public/images/apps/1118790/36b747cbf863354c129dac0f8fc19ec874cf86bd.jpg"
  },
  {
    "name": "ICE_CLOTHING",
    "defaultvalue": 0,
    "displayName": "Ice Clothing",
    "hidden": 0,
    "description": "Buy the Ice Clothing",
    "icon": "https://steamcdn-a.akamaihd.net/steamcommunity/public/images/apps/1118790/3e57e0ee6ad14b0f72a71ccc0d781607d5872bca.jpg",
    "icongray": "https://steamcdn-a.akamaihd.net/steamcommunity/public/images/apps/1118790/9152fbd5f9ce2f49ebbebba42b6ba12e0be0b605.jpg"
  },
  {
    "name": "TECHNOLOGICAL_CLOTHING",
    "defaultvalue": 0,
    "displayName": "Technological Clothing",
    "hidden": 0,
    "description": "Buy the Technological Clothing",
    "icon": "https://steamcdn-a.akamaihd.net/steamcommunity/public/images/apps/1118790/2a68da04bf02c2208475b896319f801ee0c19b19.jpg",
    "icongray": "https://steamcdn-a.akamaihd.net/steamcommunity/public/images/apps/1118790/1495ad5d46d1267144a34e0a58e4b855e4498d88.jpg"
  },
  {
    "name": "DESERT_CLOTHING",
    "defaultvalue": 0,
    "displayName": "Desert Clothing",
    "hidden": 0,
    "description": "Buy the Desert Clothing",
    "icon": "https://steamcdn-a.akamaihd.net/steamcommunity/public/images/apps/1118790/8c69ba77a9dd67fb87f116e026a311d0b4bfb148.jpg",
    "icongray": "https://steamcdn-a.akamaihd.net/steamcommunity/public/images/apps/1118790/5efee09841ded24336ac8a2e1f9465cd70b8b74f.jpg"
  },
  {
    "name": "TEN_DIAMONDS",
    "defaultvalue": 0,
    "displayName": "10 Diamonds",
    "hidden": 0,
    "description": "Get 10 Diamonds",
    "icon": "https://steamcdn-a.akamaihd.net/steamcommunity/public/images/apps/1118790/385626fbc174e89125561749e261c2e0952ef74a.jpg",
    "icongray": "https://steamcdn-a.akamaihd.net/steamcommunity/public/images/apps/1118790/43c68a662e3a79f26a9ba61875679d1a9dffc4cd.jpg"
  },
  {
    "name": "TWENTY_DIAMONDS",
    "defaultvalue": 0,
    "displayName": "20 Diamonds",
    "hidden": 0,
    "description": "Get 20 Diamonds",
    "icon": "https://steamcdn-a.akamaihd.net/steamcommunity/public/images/apps/1118790/d1c0862d48e8d2886e8793ae835606ef19eb2fc6.jpg",
    "icongray": "https://steamcdn-a.akamaihd.net/steamcommunity/public/images/apps/1118790/43c68a662e3a79f26a9ba61875679d1a9dffc4cd.jpg"
  },
  {
    "name": "THOUSAND_COINS",
    "defaultvalue": 0,
    "displayName": "1000 Coins",
    "hidden": 0,
    "description": "Get 1000 Coins",
    "icon": "https://steamcdn-a.akamaihd.net/steamcommunity/public/images/apps/1118790/ef47f97cdc317be3b039aef6d78402d9b3f25f58.jpg",
    "icongray": "https://steamcdn-a.akamaihd.net/steamcommunity/public/images/apps/1118790/d0913fac443f9ba3d609237d32dc0091b5be4161.jpg"
  },
  {
    "name": "TWOTHOUSAND_COINS",
    "defaultvalue": 0,
    "displayName": "2000 Coins",
    "hidden": 0,
    "description": "Get 2000 Coins",
    "icon": "https://steamcdn-a.akamaihd.net/steamcommunity/public/images/apps/1118790/ef47f97cdc317be3b039aef6d78402d9b3f25f58.jpg",
    "icongray": "https://steamcdn-a.akamaihd.net/steamcommunity/public/images/apps/1118790/d0913fac443f9ba3d609237d32dc0091b5be4161.jpg"
  },
  {
    "name": "THREETHOUSAND_COINS",
    "defaultvalue": 0,
    "displayName": "3000 Coins",
    "hidden": 0,
    "description": "Get 3000 Coins",
    "icon": "https://steamcdn-a.akamaihd.net/steamcommunity/public/images/apps/1118790/ef47f97cdc317be3b039aef6d78402d9b3f25f58.jpg",
    "icongray": "https://steamcdn-a.akamaihd.net/steamcommunity/public/images/apps/1118790/d0913fac443f9ba3d609237d32dc0091b5be4161.jpg"
  },
  {
    "name": "ALL_LEVELS",
    "defaultvalue": 0,
    "displayName": "Thanks for playing!",
    "hidden": 0,
    "description": "Finish all levels",
    "icon": "https://steamcdn-a.akamaihd.net/steamcommunity/public/images/apps/1118790/452f60da4ab7e76f632d3b3367a039b624b31516.jpg",
    "icongray": "https://steamcdn-a.akamaihd.net/steamcommunity/public/images/apps/1118790/201592bebedf0ef164382aeb5960e02e11de4ce2.jpg"
  }
]