﻿[
  {
    "name": "ACHIEVEMENT_00",
    "defaultvalue": 0,
    "displayName": "The Dark Soul",
    "hidden": 0,
    "description": "Earn all achievements",
    "icon": "https://steamcdn-a.akamaihd.net/steamcommunity/public/images/apps/236430/9679384a4ad573ec4c1ccb549a1528b1926d6040.jpg",
    "icongray": "https://steamcdn-a.akamaihd.net/steamcommunity/public/images/apps/236430/92c00dca5daa0006ae0f8e1ad6e089d6d05a8b85.jpg"
  },
  {
    "name": "ACHIEVEMENT_01",
    "defaultvalue": 0,
    "displayName": "Self Recollection",
    "hidden": 0,
    "description": "Reclaim flesh and set out as an Undead",
    "icon": "https://steamcdn-a.akamaihd.net/steamcommunity/public/images/apps/236430/a44b9e31b85cab826f76b3d13dd98981b380d9f7.jpg",
    "icongray": "https://steamcdn-a.akamaihd.net/steamcommunity/public/images/apps/236430/92c00dca5daa0006ae0f8e1ad6e089d6d05a8b85.jpg"
  },
  {
    "name": "ACHIEVEMENT_02",
    "defaultvalue": 0,
    "displayName": "King's Ring",
    "hidden": 1,
    "icon": "https://steamcdn-a.akamaihd.net/steamcommunity/public/images/apps/236430/5db726786191c4eb4721da684b2e86a19c527254.jpg",
    "icongray": "https://steamcdn-a.akamaihd.net/steamcommunity/public/images/apps/236430/92c00dca5daa0006ae0f8e1ad6e089d6d05a8b85.jpg"
  },
  {
    "name": "ACHIEVEMENT_03",
    "defaultvalue": 0,
    "displayName": "Ancient Dragon",
    "hidden": 1,
    "icon": "https://steamcdn-a.akamaihd.net/steamcommunity/public/images/apps/236430/2d24775f6fa06a41686546c378c5d7fce763e2e2.jpg",
    "icongray": "https://steamcdn-a.akamaihd.net/steamcommunity/public/images/apps/236430/92c00dca5daa0006ae0f8e1ad6e089d6d05a8b85.jpg"
  },
  {
    "name": "ACHIEVEMENT_04",
    "defaultvalue": 0,
    "displayName": "The Heir",
    "hidden": 1,
    "icon": "https://steamcdn-a.akamaihd.net/steamcommunity/public/images/apps/236430/bb494120f6a612f6d1abcf54c2c8d70bdc26a4d2.jpg",
    "icongray": "https://steamcdn-a.akamaihd.net/steamcommunity/public/images/apps/236430/92c00dca5daa0006ae0f8e1ad6e089d6d05a8b85.jpg"
  },
  {
    "name": "ACHIEVEMENT_05",
    "defaultvalue": 0,
    "displayName": "Last Giant",
    "hidden": 1,
    "icon": "https://steamcdn-a.akamaihd.net/steamcommunity/public/images/apps/236430/9f3129c23bab8afe74e931ab1c75e0d47b15cc68.jpg",
    "icongray": "https://steamcdn-a.akamaihd.net/steamcommunity/public/images/apps/236430/92c00dca5daa0006ae0f8e1ad6e089d6d05a8b85.jpg"
  },
  {
    "name": "ACHIEVEMENT_06",
    "defaultvalue": 0,
    "displayName": "Sinner's Bonfire",
    "hidden": 1,
    "icon": "https://steamcdn-a.akamaihd.net/steamcommunity/public/images/apps/236430/9fc6174d3c6fd5391642e8dd78898dcb259cac5b.jpg",
    "icongray": "https://steamcdn-a.akamaihd.net/steamcommunity/public/images/apps/236430/92c00dca5daa0006ae0f8e1ad6e089d6d05a8b85.jpg"
  },
  {
    "name": "ACHIEVEMENT_07",
    "defaultvalue": 0,
    "displayName": "Iron Keep Bonfire",
    "hidden": 1,
    "icon": "https://steamcdn-a.akamaihd.net/steamcommunity/public/images/apps/236430/b0ca04bab6cfd0e27f57042c3e680371e55e638a.jpg",
    "icongray": "https://steamcdn-a.akamaihd.net/steamcommunity/public/images/apps/236430/92c00dca5daa0006ae0f8e1ad6e089d6d05a8b85.jpg"
  },
  {
    "name": "ACHIEVEMENT_08",
    "defaultvalue": 0,
    "displayName": "Gulch Bonfire",
    "hidden": 1,
    "icon": "https://steamcdn-a.akamaihd.net/steamcommunity/public/images/apps/236430/797ad97096eda6136b04db431cf5cf122d0f6808.jpg",
    "icongray": "https://steamcdn-a.akamaihd.net/steamcommunity/public/images/apps/236430/92c00dca5daa0006ae0f8e1ad6e089d6d05a8b85.jpg"
  },
  {
    "name": "ACHIEVEMENT_09",
    "defaultvalue": 0,
    "displayName": "Brightstone Bonfire",
    "hidden": 1,
    "icon": "https://steamcdn-a.akamaihd.net/steamcommunity/public/images/apps/236430/fd714fa281dba96bb1d6fcc794189bbc2439939c.jpg",
    "icongray": "https://steamcdn-a.akamaihd.net/steamcommunity/public/images/apps/236430/92c00dca5daa0006ae0f8e1ad6e089d6d05a8b85.jpg"
  },
  {
    "name": "ACHIEVEMENT_10",
    "defaultvalue": 0,
    "displayName": "Looking Glass Knight",
    "hidden": 1,
    "icon": "https://steamcdn-a.akamaihd.net/steamcommunity/public/images/apps/236430/2997b177d68540210ba6ab494437fddb74e05ea1.jpg",
    "icongray": "https://steamcdn-a.akamaihd.net/steamcommunity/public/images/apps/236430/92c00dca5daa0006ae0f8e1ad6e089d6d05a8b85.jpg"
  },
  {
    "name": "ACHIEVEMENT_11",
    "defaultvalue": 0,
    "displayName": "Vendrick",
    "hidden": 1,
    "icon": "https://steamcdn-a.akamaihd.net/steamcommunity/public/images/apps/236430/4f0059c674b2003367626e2533f508c67ced2f6c.jpg",
    "icongray": "https://steamcdn-a.akamaihd.net/steamcommunity/public/images/apps/236430/92c00dca5daa0006ae0f8e1ad6e089d6d05a8b85.jpg"
  },
  {
    "name": "ACHIEVEMENT_12",
    "defaultvalue": 0,
    "displayName": "Supreme Weapon",
    "hidden": 0,
    "description": "Reinforce a weapon to its limit",
    "icon": "https://steamcdn-a.akamaihd.net/steamcommunity/public/images/apps/236430/cfaa9e2694cd9b4e5a073f4621897fa31bd3a11d.jpg",
    "icongray": "https://steamcdn-a.akamaihd.net/steamcommunity/public/images/apps/236430/92c00dca5daa0006ae0f8e1ad6e089d6d05a8b85.jpg"
  },
  {
    "name": "ACHIEVEMENT_13",
    "defaultvalue": 0,
    "displayName": "Gesture Maestro",
    "hidden": 0,
    "description": "Learn all gestures",
    "icon": "https://steamcdn-a.akamaihd.net/steamcommunity/public/images/apps/236430/997165ebef2ac99d04d874d88623de9d8f22d212.jpg",
    "icongray": "https://steamcdn-a.akamaihd.net/steamcommunity/public/images/apps/236430/92c00dca5daa0006ae0f8e1ad6e089d6d05a8b85.jpg"
  },
  {
    "name": "ACHIEVEMENT_14",
    "defaultvalue": 0,
    "displayName": "Master of Sorcery",
    "hidden": 0,
    "description": "Learn all sorceries",
    "icon": "https://steamcdn-a.akamaihd.net/steamcommunity/public/images/apps/236430/2acfd86908289710db8c07f7ce206d96aa775c47.jpg",
    "icongray": "https://steamcdn-a.akamaihd.net/steamcommunity/public/images/apps/236430/92c00dca5daa0006ae0f8e1ad6e089d6d05a8b85.jpg"
  },
  {
    "name": "ACHIEVEMENT_15",
    "defaultvalue": 0,
    "displayName": "Master of Miracles",
    "hidden": 0,
    "description": "Learn all miracles",
    "icon": "https://steamcdn-a.akamaihd.net/steamcommunity/public/images/apps/236430/b47e5faac0b54b0721ba459f671182f59210b6e8.jpg",
    "icongray": "https://steamcdn-a.akamaihd.net/steamcommunity/public/images/apps/236430/92c00dca5daa0006ae0f8e1ad6e089d6d05a8b85.jpg"
  },
  {
    "name": "ACHIEVEMENT_16",
    "defaultvalue": 0,
    "displayName": "Master of Pyromancy",
    "hidden": 0,
    "description": "Learn all pyromancies",
    "icon": "https://steamcdn-a.akamaihd.net/steamcommunity/public/images/apps/236430/2d3f2a01d6ce6fa2eccb6df69702b0b1576f1c83.jpg",
    "icongray": "https://steamcdn-a.akamaihd.net/steamcommunity/public/images/apps/236430/92c00dca5daa0006ae0f8e1ad6e089d6d05a8b85.jpg"
  },
  {
    "name": "ACHIEVEMENT_17",
    "defaultvalue": 0,
    "displayName": "Master of Hexes",
    "hidden": 0,
    "description": "Learn all hexes",
    "icon": "https://steamcdn-a.akamaihd.net/steamcommunity/public/images/apps/236430/c2320c11e3d5ca749daf0192b2b3cb9e130a71b6.jpg",
    "icongray": "https://steamcdn-a.akamaihd.net/steamcommunity/public/images/apps/236430/92c00dca5daa0006ae0f8e1ad6e089d6d05a8b85.jpg"
  },
  {
    "name": "ACHIEVEMENT_18",
    "defaultvalue": 0,
    "displayName": "Brilliant Covenant",
    "hidden": 1,
    "icon": "https://steamcdn-a.akamaihd.net/steamcommunity/public/images/apps/236430/e89a3854afd46ab03af41438c591dd87d29dd89d.jpg",
    "icongray": "https://steamcdn-a.akamaihd.net/steamcommunity/public/images/apps/236430/92c00dca5daa0006ae0f8e1ad6e089d6d05a8b85.jpg"
  },
  {
    "name": "ACHIEVEMENT_19",
    "defaultvalue": 0,
    "displayName": "Protector Covenant",
    "hidden": 1,
    "icon": "https://steamcdn-a.akamaihd.net/steamcommunity/public/images/apps/236430/71c242e0acb0efe0b05436e87d10b669a43ec63b.jpg",
    "icongray": "https://steamcdn-a.akamaihd.net/steamcommunity/public/images/apps/236430/92c00dca5daa0006ae0f8e1ad6e089d6d05a8b85.jpg"
  },
  {
    "name": "ACHIEVEMENT_20",
    "defaultvalue": 0,
    "displayName": "Sanguinary Covenant",
    "hidden": 1,
    "icon": "https://steamcdn-a.akamaihd.net/steamcommunity/public/images/apps/236430/ed1e32b38b12542482b355f06a69dc6477108770.jpg",
    "icongray": "https://steamcdn-a.akamaihd.net/steamcommunity/public/images/apps/236430/92c00dca5daa0006ae0f8e1ad6e089d6d05a8b85.jpg"
  },
  {
    "name": "ACHIEVEMENT_21",
    "defaultvalue": 0,
    "displayName": "Covenant of the Meek",
    "hidden": 1,
    "icon": "https://steamcdn-a.akamaihd.net/steamcommunity/public/images/apps/236430/e21d479398de04d3cef990ceafa3612944999023.jpg",
    "icongray": "https://steamcdn-a.akamaihd.net/steamcommunity/public/images/apps/236430/92c00dca5daa0006ae0f8e1ad6e089d6d05a8b85.jpg"
  },
  {
    "name": "ACHIEVEMENT_22",
    "defaultvalue": 0,
    "displayName": "Gnawing Covenant",
    "hidden": 1,
    "icon": "https://steamcdn-a.akamaihd.net/steamcommunity/public/images/apps/236430/965e9b33f80dbb51defe995a5a1f8e2338733a2d.jpg",
    "icongray": "https://steamcdn-a.akamaihd.net/steamcommunity/public/images/apps/236430/92c00dca5daa0006ae0f8e1ad6e089d6d05a8b85.jpg"
  },
  {
    "name": "ACHIEVEMENT_23",
    "defaultvalue": 0,
    "displayName": "Clangorous Covenant",
    "hidden": 1,
    "icon": "https://steamcdn-a.akamaihd.net/steamcommunity/public/images/apps/236430/63edb2abc0489d0e01dc94c6d984ecc53c79df73.jpg",
    "icongray": "https://steamcdn-a.akamaihd.net/steamcommunity/public/images/apps/236430/92c00dca5daa0006ae0f8e1ad6e089d6d05a8b85.jpg"
  },
  {
    "name": "ACHIEVEMENT_24",
    "defaultvalue": 0,
    "displayName": "Covenant of Ancients",
    "hidden": 1,
    "icon": "https://steamcdn-a.akamaihd.net/steamcommunity/public/images/apps/236430/b7de478fcae10a3236d112119955ec7f5e6374a4.jpg",
    "icongray": "https://steamcdn-a.akamaihd.net/steamcommunity/public/images/apps/236430/92c00dca5daa0006ae0f8e1ad6e089d6d05a8b85.jpg"
  },
  {
    "name": "ACHIEVEMENT_25",
    "defaultvalue": 0,
    "displayName": "Covenant of the Fittest",
    "hidden": 1,
    "icon": "https://steamcdn-a.akamaihd.net/steamcommunity/public/images/apps/236430/101abb3d0899210f31f6edf41a48c65931678d7f.jpg",
    "icongray": "https://steamcdn-a.akamaihd.net/steamcommunity/public/images/apps/236430/92c00dca5daa0006ae0f8e1ad6e089d6d05a8b85.jpg"
  },
  {
    "name": "ACHIEVEMENT_26",
    "defaultvalue": 0,
    "displayName": "Abysmal Covenant",
    "hidden": 1,
    "icon": "https://steamcdn-a.akamaihd.net/steamcommunity/public/images/apps/236430/9d2d953fe6a68343d91fdb2929718733083559be.jpg",
    "icongray": "https://steamcdn-a.akamaihd.net/steamcommunity/public/images/apps/236430/92c00dca5daa0006ae0f8e1ad6e089d6d05a8b85.jpg"
  },
  {
    "name": "ACHIEVEMENT_27",
    "defaultvalue": 0,
    "displayName": "Selfless Giver",
    "hidden": 0,
    "description": "Max-out devotion to covenant",
    "icon": "https://steamcdn-a.akamaihd.net/steamcommunity/public/images/apps/236430/1e4566fc3f7bdf97a14d58b74686011c239135aa.jpg",
    "icongray": "https://steamcdn-a.akamaihd.net/steamcommunity/public/images/apps/236430/92c00dca5daa0006ae0f8e1ad6e089d6d05a8b85.jpg"
  },
  {
    "name": "ACHIEVEMENT_28",
    "defaultvalue": 0,
    "displayName": "Curious Map",
    "hidden": 1,
    "icon": "https://steamcdn-a.akamaihd.net/steamcommunity/public/images/apps/236430/0d926f0cd8f6ccbc65d73dc36a28af4286e7047a.jpg",
    "icongray": "https://steamcdn-a.akamaihd.net/steamcommunity/public/images/apps/236430/92c00dca5daa0006ae0f8e1ad6e089d6d05a8b85.jpg"
  },
  {
    "name": "ACHIEVEMENT_29",
    "defaultvalue": 0,
    "displayName": "Change of Clothes",
    "hidden": 1,
    "icon": "https://steamcdn-a.akamaihd.net/steamcommunity/public/images/apps/236430/3202de4b27232626f84c5f148058ef08d82c30ce.jpg",
    "icongray": "https://steamcdn-a.akamaihd.net/steamcommunity/public/images/apps/236430/92c00dca5daa0006ae0f8e1ad6e089d6d05a8b85.jpg"
  },
  {
    "name": "ACHIEVEMENT_30",
    "defaultvalue": 0,
    "displayName": "Gathering of Exiles",
    "hidden": 1,
    "icon": "https://steamcdn-a.akamaihd.net/steamcommunity/public/images/apps/236430/50063a8a81459bfc3187ae1479874837ae3ceeb6.jpg",
    "icongray": "https://steamcdn-a.akamaihd.net/steamcommunity/public/images/apps/236430/92c00dca5daa0006ae0f8e1ad6e089d6d05a8b85.jpg"
  },
  {
    "name": "ACHIEVEMENT_31",
    "defaultvalue": 0,
    "displayName": "Moonlight Greatsword",
    "hidden": 1,
    "icon": "https://steamcdn-a.akamaihd.net/steamcommunity/public/images/apps/236430/fa75571056dede30bb61f8f730c2942857c765f5.jpg",
    "icongray": "https://steamcdn-a.akamaihd.net/steamcommunity/public/images/apps/236430/92c00dca5daa0006ae0f8e1ad6e089d6d05a8b85.jpg"
  },
  {
    "name": "ACHIEVEMENT_32",
    "defaultvalue": 0,
    "displayName": "Holder of the Fort",
    "hidden": 1,
    "icon": "https://steamcdn-a.akamaihd.net/steamcommunity/public/images/apps/236430/5f1d22a65b7ef25ab77bbd0451613915184b0628.jpg",
    "icongray": "https://steamcdn-a.akamaihd.net/steamcommunity/public/images/apps/236430/92c00dca5daa0006ae0f8e1ad6e089d6d05a8b85.jpg"
  },
  {
    "name": "ACHIEVEMENT_33",
    "defaultvalue": 0,
    "displayName": "Lucatiel",
    "hidden": 1,
    "icon": "https://steamcdn-a.akamaihd.net/steamcommunity/public/images/apps/236430/14268568dd81c8b25fb19313d726bfa5516be59d.jpg",
    "icongray": "https://steamcdn-a.akamaihd.net/steamcommunity/public/images/apps/236430/92c00dca5daa0006ae0f8e1ad6e089d6d05a8b85.jpg"
  },
  {
    "name": "ACHIEVEMENT_34",
    "defaultvalue": 0,
    "displayName": "Smith for Life",
    "hidden": 1,
    "icon": "https://steamcdn-a.akamaihd.net/steamcommunity/public/images/apps/236430/5cc0fe419a75794b573a6f7746144639f3c811d8.jpg",
    "icongray": "https://steamcdn-a.akamaihd.net/steamcommunity/public/images/apps/236430/92c00dca5daa0006ae0f8e1ad6e089d6d05a8b85.jpg"
  },
  {
    "name": "ACHIEVEMENT_35",
    "defaultvalue": 0,
    "displayName": "Garrulous Miser",
    "hidden": 1,
    "icon": "https://steamcdn-a.akamaihd.net/steamcommunity/public/images/apps/236430/96e62caab029db9b0dbbb091a398fee5db0cffe2.jpg",
    "icongray": "https://steamcdn-a.akamaihd.net/steamcommunity/public/images/apps/236430/92c00dca5daa0006ae0f8e1ad6e089d6d05a8b85.jpg"
  },
  {
    "name": "ACHIEVEMENT_36",
    "defaultvalue": 0,
    "displayName": "Reflections on Disembodiment",
    "hidden": 1,
    "icon": "https://steamcdn-a.akamaihd.net/steamcommunity/public/images/apps/236430/f40a7bed44a2de34cedbfb4edef7964ecdef334e.jpg",
    "icongray": "https://steamcdn-a.akamaihd.net/steamcommunity/public/images/apps/236430/92c00dca5daa0006ae0f8e1ad6e089d6d05a8b85.jpg"
  },
  {
    "name": "ACHIEVEMENT_37",
    "defaultvalue": 0,
    "displayName": "This is Dark Souls",
    "hidden": 0,
    "description": "Die for the first time",
    "icon": "https://steamcdn-a.akamaihd.net/steamcommunity/public/images/apps/236430/77c26da0afbbac96294a04b0dab9e2c19e7534be.jpg",
    "icongray": "https://steamcdn-a.akamaihd.net/steamcommunity/public/images/apps/236430/92c00dca5daa0006ae0f8e1ad6e089d6d05a8b85.jpg"
  }
]