[
  {
    "name": "MAX_MULTIPLIER",
    "defaultvalue": 0,
    "displayName": "Max Multiplier",
    "hidden": 0,
    "description": "Kill an enemy with the best ship spread.",
    "icon": "https://steamcdn-a.akamaihd.net/steamcommunity/public/images/apps/373610/c8a8517010cfd45acd77ccb36c31da8d73c26c04.jpg",
    "icongray": "https://steamcdn-a.akamaihd.net/steamcommunity/public/images/apps/373610/ea64416c7bdebeb4a01723d97658809989f3de65.jpg"
  },
  {
    "name": "NO_SHIPS_LOST",
    "defaultvalue": 0,
    "displayName": "Precious Ships",
    "hidden": 0,
    "description": "Beat a non-Trek level without losing a ship",
    "icon": "https://steamcdn-a.akamaihd.net/steamcommunity/public/images/apps/373610/a1cc1adcc9a8ed21f3e0413444fa36c1ce929133.jpg",
    "icongray": "https://steamcdn-a.akamaihd.net/steamcommunity/public/images/apps/373610/c52e698e904f7469c5bf13d01af69e0b716bac64.jpg"
  },
  {
    "name": "THIRTY_SHIPS",
    "defaultvalue": 0,
    "displayName": "Ship Hoarder",
    "hidden": 0,
    "description": "Get thirty ships in single player",
    "icon": "https://steamcdn-a.akamaihd.net/steamcommunity/public/images/apps/373610/e6b0bd2adc16be05a39b5a9728f6cb6c219a51b7.jpg",
    "icongray": "https://steamcdn-a.akamaihd.net/steamcommunity/public/images/apps/373610/961b26edb7b8cb8528d0a2cb0d7a0fb4d9a629c1.jpg"
  },
  {
    "name": "SIXTY_SHIPS",
    "defaultvalue": 0,
    "displayName": "Peer Pressure",
    "hidden": 0,
    "description": "Get sixty ships with two players",
    "icon": "https://steamcdn-a.akamaihd.net/steamcommunity/public/images/apps/373610/74df6641c92ad61dbcf5c1bde19007f51eb289b5.jpg",
    "icongray": "https://steamcdn-a.akamaihd.net/steamcommunity/public/images/apps/373610/471c354fd246af036d4996d9e12ecf4ca514ec99.jpg"
  },
  {
    "name": "MILLION_POINTS",
    "defaultvalue": 0,
    "displayName": "Score Fiend",
    "hidden": 0,
    "description": "Get 1,000,000 points in any game mode",
    "icon": "https://steamcdn-a.akamaihd.net/steamcommunity/public/images/apps/373610/e3477acfba2c6613c398eb107c6e8c4172077cac.jpg",
    "icongray": "https://steamcdn-a.akamaihd.net/steamcommunity/public/images/apps/373610/38ff08d54796f780967424b363ac039627282ca3.jpg"
  },
  {
    "name": "TEN_MILL_POINTS",
    "defaultvalue": 0,
    "displayName": "Score Monger",
    "hidden": 0,
    "description": "Get 10,000,000 points in any game mode",
    "icon": "https://steamcdn-a.akamaihd.net/steamcommunity/public/images/apps/373610/96da4775b8682a7fa3ab8bc40bd47eb00d3e9eda.jpg",
    "icongray": "https://steamcdn-a.akamaihd.net/steamcommunity/public/images/apps/373610/89bf4ac9c0016b125f2dba758f04432162bf460f.jpg"
  },
  {
    "name": "THIRTY_MILL_POINTS",
    "defaultvalue": 0,
    "displayName": "Scorehore",
    "hidden": 0,
    "description": "Get 30,000,000 points in any game mode",
    "icon": "https://steamcdn-a.akamaihd.net/steamcommunity/public/images/apps/373610/db09320ff8e71fe35d5369c4f7579135abf8955c.jpg",
    "icongray": "https://steamcdn-a.akamaihd.net/steamcommunity/public/images/apps/373610/fd358b812a38b60e2b2d17d30c6eeb36a1560200.jpg"
  },
  {
    "name": "MILL_POINTS_ENEMY",
    "defaultvalue": 0,
    "displayName": "Million Bucks",
    "hidden": 0,
    "description": "Get over a million points from a single enemy",
    "icon": "https://steamcdn-a.akamaihd.net/steamcommunity/public/images/apps/373610/ecddc87f4298728ddd2d1282829c10015cdd2de6.jpg",
    "icongray": "https://steamcdn-a.akamaihd.net/steamcommunity/public/images/apps/373610/7bae429a13acfff1ba0db07797dc9b09da852fe7.jpg"
  },
  {
    "name": "CHILLED_COMPLETE",
    "defaultvalue": 0,
    "displayName": "Take It Easy",
    "hidden": 0,
    "description": "Complete Chilled Campaign",
    "icon": "https://steamcdn-a.akamaihd.net/steamcommunity/public/images/apps/373610/08dfad9cc2f1478f9bfc5f7984d8923038a38e99.jpg",
    "icongray": "https://steamcdn-a.akamaihd.net/steamcommunity/public/images/apps/373610/6d52f4a9c913b32aa843f8ae22b3e097333f4eaf.jpg"
  },
  {
    "name": "NORMAL_COMPLETE",
    "defaultvalue": 0,
    "displayName": "Out of Retirement",
    "hidden": 0,
    "description": "Complete Normal Campaign",
    "icon": "https://steamcdn-a.akamaihd.net/steamcommunity/public/images/apps/373610/00d7b72eab78c3389a779b4250a36bba30dd4cf2.jpg",
    "icongray": "https://steamcdn-a.akamaihd.net/steamcommunity/public/images/apps/373610/bc289dd5c7f5dd41cfc592c6ee5fd1bc45e4aa5d.jpg"
  },
  {
    "name": "HARD_COMPLETE",
    "defaultvalue": 0,
    "displayName": "Love the Pain",
    "hidden": 0,
    "description": "Complete Serious Campaign",
    "icon": "https://steamcdn-a.akamaihd.net/steamcommunity/public/images/apps/373610/05ba869b185fe8e8c8a635e50aafecdbe52ec249.jpg",
    "icongray": "https://steamcdn-a.akamaihd.net/steamcommunity/public/images/apps/373610/e538df8e56d7070620f151748b87962b03e63688.jpg"
  },
  {
    "name": "SCORE_HORE_COMPLETE",
    "defaultvalue": 0,
    "displayName": "Round and Round",
    "hidden": 0,
    "description": "Complete loop 5 in Score Trek",
    "icon": "https://steamcdn-a.akamaihd.net/steamcommunity/public/images/apps/373610/28edbd01b3a20ea6be1845b6a04a39bc88e2d157.jpg",
    "icongray": "https://steamcdn-a.akamaihd.net/steamcommunity/public/images/apps/373610/97bbd80e4183516ed6f5ca163cd2c2746f896981.jpg"
  },
  {
    "name": "CONSERVATIVE_KILLER",
    "defaultvalue": 0,
    "displayName": "Conservative Killer",
    "hidden": 0,
    "description": "Form the max Plasma Auger with only two ships",
    "icon": "https://steamcdn-a.akamaihd.net/steamcommunity/public/images/apps/373610/7e0dbf70d9b808cc5c46267c21ddabf58acb5dbf.jpg",
    "icongray": "https://steamcdn-a.akamaihd.net/steamcommunity/public/images/apps/373610/48bb651ee9a46d6fbcb39efe76ecd7cddce1db35.jpg"
  },
  {
    "name": "ROBIN_EGG",
    "defaultvalue": 0,
    "displayName": "Robin's Egg",
    "hidden": 0,
    "description": "Beat a non-Trek campaign losing no ships",
    "icon": "https://steamcdn-a.akamaihd.net/steamcommunity/public/images/apps/373610/fd2e86c5cd04f73de3167dfe861f1944574a7f0c.jpg",
    "icongray": "https://steamcdn-a.akamaihd.net/steamcommunity/public/images/apps/373610/86739d9ab8fe3ff2694a93c7164708187ae5f371.jpg"
  },
  {
    "name": "TRICK_KILLER",
    "defaultvalue": 0,
    "displayName": "Trick Killer",
    "hidden": 0,
    "description": "50 kills in a single level using the shield",
    "icon": "https://steamcdn-a.akamaihd.net/steamcommunity/public/images/apps/373610/987bd386d03e872cbfccddd476a4bb3fd11a703a.jpg",
    "icongray": "https://steamcdn-a.akamaihd.net/steamcommunity/public/images/apps/373610/890f4e2251d2f5ff4a9dd3da83e36cee4cf6d0df.jpg"
  },
  {
    "name": "OPEN_SCORE_TREK",
    "defaultvalue": 0,
    "displayName": "Score Trek Unlocked",
    "hidden": 0,
    "description": "Finish level 4 to unlock Score Trek mode",
    "icon": "https://steamcdn-a.akamaihd.net/steamcommunity/public/images/apps/373610/119b5b1bc44c4ea82d204140881792d80057be38.jpg",
    "icongray": "https://steamcdn-a.akamaihd.net/steamcommunity/public/images/apps/373610/cf06348a00d6569b5d93410e5b74afaf5a632ad3.jpg"
  },
  {
    "name": "UNLOCK_OVOID",
    "defaultvalue": 0,
    "displayName": "Ovoid Unlocked",
    "hidden": 0,
    "description": "Eat 2 pies on a single playthrough",
    "icon": "https://steamcdn-a.akamaihd.net/steamcommunity/public/images/apps/373610/34fd246c224514c16955c9d986682fc31622f8d3.jpg",
    "icongray": "https://steamcdn-a.akamaihd.net/steamcommunity/public/images/apps/373610/23f43c5fd77c7e1a5ecbc80dd44487d9d7b2738e.jpg"
  }
]