{
  "Dlcs": {},
  "Name": "Puppet Story",
  "AppId": "1155260",
  "ImageUrl": "https://steamcdn-a.akamaihd.net/steam/apps/1155260/header.jpg?t=1600706513",
  "Languages": [
    "english",
    "schinese"
  ],
  "Platforms": {
    "windows": true,
    "mac": false,
    "linux": false
  }
}