{
  "Dlcs": {
    "571580": {
      "Name": "Akihabara - Feel the Rhythm - Soundtrack",
      "ImageUrl": "https://steamcdn-a.akamaihd.net/steam/apps/571580/header.jpg?t=1485436924"
    },
    "587980": {
      "Name": "Akihabara - Pure Beat",
      "ImageUrl": "https://steamcdn-a.akamaihd.net/steam/apps/587980/header.jpg?t=1492447903"
    }
  },
  "Name": "Akihabara - Feel the Rhythm",
  "AppId": "565660",
  "ImageUrl": "https://steamcdn-a.akamaihd.net/steam/apps/565660/header.jpg?t=1572989807",
  "Languages": [
    "english",
    "japanese"
  ],
  "Platforms": {
    "windows": true,
    "mac": false,
    "linux": false
  }
}