{
  "Dlcs": {},
  "Name": "Island Tribe 4",
  "AppId": "573700",
  "ImageUrl": "https://steamcdn-a.akamaihd.net/steam/apps/573700/header.jpg?t=1542718316",
  "Languages": [
    "english",
    "russian",
    "german"
  ],
  "Platforms": {
    "windows": true,
    "mac": false,
    "linux": false
  }
}