{
  "Releases": [
    "Windows"
  ],
  "Name": "Shadowrun Returns",
  "AppId": "dc29cb42f32e4a17af1d68c715fa459c",
  "Namespace": "a8400ce7530e4479b32dcaf0e92fce57",
  "ItemId": "3da91f07608342b383374304197c742d",
  "ImageUrl": "https://cdn1.epicgames.com/a8400ce7530e4479b32dcaf0e92fce57/item/EGS_ShadowrunReturns_HarebrainedSchemes_S1-2560x1440-f0d27c470f5a97f4304c7feac6317c5f.jpg",
  "Dlcs": {
    "1811a8bd25be4db5a3d92231e7b1239b": {
      "Name": "Shadowrun Returns Deluxe Edition Upgrade DLC",
      "ItemId": "54800d4059cd4ad8b32f2e20fb9ac797"
    }
  }
}