[
  {
    "name": "Stage_1_Conquer",
    "defaultvalue": 0,
    "displayName": "Stage 1 Conquer",
    "hidden": 0,
    "description": "Clear Stage 1 Hard Difficulty",
    "icon": "https://steamcdn-a.akamaihd.net/steamcommunity/public/images/apps/1147840/cbf57481d4036322b6cc35369a89a856616178c0.jpg",
    "icongray": "https://steamcdn-a.akamaihd.net/steamcommunity/public/images/apps/1147840/7a560dbb85d7b45b535ac601a061a5c70d069308.jpg"
  },
  {
    "name": "Stage_2_Conquer",
    "defaultvalue": 0,
    "displayName": "Stage 2 Conquer",
    "hidden": 0,
    "description": "Clear Stage 2 Hard Difficulty",
    "icon": "https://steamcdn-a.akamaihd.net/steamcommunity/public/images/apps/1147840/35eaa252ab33e10131a9c21bcd47a151cc8698ff.jpg",
    "icongray": "https://steamcdn-a.akamaihd.net/steamcommunity/public/images/apps/1147840/6484ba9e70078f920ecc45aec4837b3338846e88.jpg"
  },
  {
    "name": "Stage_3_Conquer",
    "defaultvalue": 0,
    "displayName": "Stage 3 Conquer",
    "hidden": 0,
    "description": "Clear Stage 3 Hard Difficulty",
    "icon": "https://steamcdn-a.akamaihd.net/steamcommunity/public/images/apps/1147840/61a8ef5e6c14559085410485182e56af5575ad88.jpg",
    "icongray": "https://steamcdn-a.akamaihd.net/steamcommunity/public/images/apps/1147840/9096137e5c17565ad63c04af8b6b1105b5ee5e8f.jpg"
  },
  {
    "name": "Stage_4_Conquer",
    "defaultvalue": 0,
    "displayName": "Stage 4 Conquer",
    "hidden": 0,
    "description": "Clear Stage 4 Hard Difficulty",
    "icon": "https://steamcdn-a.akamaihd.net/steamcommunity/public/images/apps/1147840/3a17cac104327137bd67da30dbf682218e5f592a.jpg",
    "icongray": "https://steamcdn-a.akamaihd.net/steamcommunity/public/images/apps/1147840/b64931e41dd0a3653aca4eebbbbb455163d392b6.jpg"
  },
  {
    "name": "Stage_5_Conquer",
    "defaultvalue": 0,
    "displayName": "Stage 5 Conquer",
    "hidden": 0,
    "description": "Clear Stage 5 Hard Difficulty",
    "icon": "https://steamcdn-a.akamaihd.net/steamcommunity/public/images/apps/1147840/ba3c30fb5ce2093494eb73710166e9204caeee70.jpg",
    "icongray": "https://steamcdn-a.akamaihd.net/steamcommunity/public/images/apps/1147840/18d31fd0ee1b61db46e2834cc1c84fbba546394b.jpg"
  },
  {
    "name": "Stage_6_Conquer",
    "defaultvalue": 0,
    "displayName": "Stage 6 Conquer",
    "hidden": 0,
    "description": "Clear Stage 6 Hard Difficulty",
    "icon": "https://steamcdn-a.akamaihd.net/steamcommunity/public/images/apps/1147840/7afb895c920898e7d67871f55b103769a92f2edc.jpg",
    "icongray": "https://steamcdn-a.akamaihd.net/steamcommunity/public/images/apps/1147840/f7cd9298ca94c4c4dfbc7523cfd3ebabe4e45112.jpg"
  },
  {
    "name": "Stage_7_Conquer",
    "defaultvalue": 0,
    "displayName": "Stage 7 Conquer",
    "hidden": 0,
    "description": "Clear Stage 7 Hard Difficulty",
    "icon": "https://steamcdn-a.akamaihd.net/steamcommunity/public/images/apps/1147840/69dc33e64529d2533f0a0df19e39d77c2c7b28a2.jpg",
    "icongray": "https://steamcdn-a.akamaihd.net/steamcommunity/public/images/apps/1147840/c4e545f7036855d7b7cf43abe20fe192280c73c3.jpg"
  },
  {
    "name": "Stage_8_Conquer",
    "defaultvalue": 0,
    "displayName": "Stage 8 Conquer",
    "hidden": 0,
    "description": "Clear Stage 8 Hard Difficulty",
    "icon": "https://steamcdn-a.akamaihd.net/steamcommunity/public/images/apps/1147840/776ca37c60839e161fee678a2078cf7b39c8e73a.jpg",
    "icongray": "https://steamcdn-a.akamaihd.net/steamcommunity/public/images/apps/1147840/19528a812056e3d3926790e7f42a362aa8673454.jpg"
  },
  {
    "name": "Stage_9_Conquer",
    "defaultvalue": 0,
    "displayName": "Stage 9 Conquer",
    "hidden": 0,
    "description": "Clear Stage 9 Hard Difficulty",
    "icon": "https://steamcdn-a.akamaihd.net/steamcommunity/public/images/apps/1147840/e17ecc3b6e234704812ea6447803c77b0d3b7dc2.jpg",
    "icongray": "https://steamcdn-a.akamaihd.net/steamcommunity/public/images/apps/1147840/a385fe8ad43c28a2eda42c2681c2c03ccd6eec8c.jpg"
  }
]