{
  "Dlcs": {},
  "Name": "The Raiders",
  "AppId": "599420",
  "ImageUrl": "https://steamcdn-a.akamaihd.net/steam/apps/599420/header.jpg?t=1488470880",
  "Languages": [
    "english"
  ],
  "Platforms": {
    "windows": true,
    "mac": false,
    "linux": false
  }
}