{
  "Dlcs": {},
  "Name": "Snowrifters VEX",
  "AppId": "1020420",
  "ImageUrl": "https://steamcdn-a.akamaihd.net/steam/apps/1020420/header.jpg?t=1598886496",
  "Languages": [
    "english"
  ],
  "Platforms": {
    "windows": true,
    "mac": false,
    "linux": false
  }
}