[
  {
    "name": "got_bored",
    "defaultvalue": 0,
    "displayName": "Got bored ?",
    "hidden": 0,
    "description": "Fire your pistol 50 times in the title screen.",
    "icon": "https://steamcdn-a.akamaihd.net/steamcommunity/public/images/apps/978800/6c0dbc8beb58fe55c8cbf72d4b856bf289f2e7ed.jpg",
    "icongray": "https://steamcdn-a.akamaihd.net/steamcommunity/public/images/apps/978800/6e5b13b1e57835ac163a29b841ba6a89e1e0fcc7.jpg"
  },
  {
    "name": "Super_agent",
    "defaultvalue": 0,
    "displayName": "Super Agent",
    "hidden": 0,
    "description": "Pass level 4.",
    "icon": "https://steamcdn-a.akamaihd.net/steamcommunity/public/images/apps/978800/ebcf6da3c1d197fee092069eaf72d8111e83bb8d.jpg",
    "icongray": "https://steamcdn-a.akamaihd.net/steamcommunity/public/images/apps/978800/b11a0f97079854ad76246adde368714fe026f44e.jpg"
  },
  {
    "name": "Flawless_start",
    "defaultvalue": 0,
    "displayName": "Flawless start",
    "hidden": 0,
    "description": "Pass level 1 without getting hit.",
    "icon": "https://steamcdn-a.akamaihd.net/steamcommunity/public/images/apps/978800/e3ee64299b09bc3f4590bfc2344872d07875d5a1.jpg",
    "icongray": "https://steamcdn-a.akamaihd.net/steamcommunity/public/images/apps/978800/6138675c0d7403bfc31f96906a95ccc28753b167.jpg"
  },
  {
    "name": "Risky_rain",
    "defaultvalue": 0,
    "displayName": "Risky rain",
    "hidden": 0,
    "description": "Let the drone fire 600 bullets in level two or adove.",
    "icon": "https://steamcdn-a.akamaihd.net/steamcommunity/public/images/apps/978800/d2835869503b64307a3a369ae008ebaabbe0db8f.jpg",
    "icongray": "https://steamcdn-a.akamaihd.net/steamcommunity/public/images/apps/978800/c479170864023187a53e5c01fd6f07054423f93f.jpg"
  },
  {
    "name": "Frustrating_achievement",
    "defaultvalue": 0,
    "displayName": "Frustrating achievement",
    "hidden": 0,
    "description": "Get 100,000 scores.",
    "icon": "https://steamcdn-a.akamaihd.net/steamcommunity/public/images/apps/978800/2197ec19231a6d929860aaf993f35040bf4151f6.jpg",
    "icongray": "https://steamcdn-a.akamaihd.net/steamcommunity/public/images/apps/978800/3dc1d44d90bca01a34caa9e496d69e7356f7941c.jpg"
  },
  {
    "name": "Blind_Blast",
    "defaultvalue": 0,
    "displayName": "Blind Blast",
    "hidden": 0,
    "description": "Make Bombers to kill 10 teammates.",
    "icon": "https://steamcdn-a.akamaihd.net/steamcommunity/public/images/apps/978800/95d1a8ac9cb67b4a29d034d79018f36a5a0550af.jpg",
    "icongray": "https://steamcdn-a.akamaihd.net/steamcommunity/public/images/apps/978800/5d28b43f7272a9cecb01613273e9ba3bf879f99a.jpg"
  }
]