[
  {
    "name": "kill_airstrikes",
    "defaultvalue": 0,
    "displayName": "Rain On Me",
    "hidden": 0,
    "description": "Kill 250 enemies using Air Strikes",
    "icon": "https://steamcdn-a.akamaihd.net/steamcommunity/public/images/apps/395940/ad85ed89a83c91709e07dbd4556e193fd1d47f45.jpg",
    "icongray": "https://steamcdn-a.akamaihd.net/steamcommunity/public/images/apps/395940/d4a2e87231f35f93931acb6afb630eafd5388b19.jpg"
  },
  {
    "name": "kill_gatling",
    "defaultvalue": 0,
    "displayName": "Gunslinger",
    "hidden": 0,
    "description": "KIll 200 enemies using Gatling gun",
    "icon": "https://steamcdn-a.akamaihd.net/steamcommunity/public/images/apps/395940/79026fc89acb73415ac0433ca27c1da34800ebfb.jpg",
    "icongray": "https://steamcdn-a.akamaihd.net/steamcommunity/public/images/apps/395940/d2fc0b2f963ffa8b54d6ae79d2d6855b1e1a492a.jpg"
  },
  {
    "name": "kill_missiles",
    "defaultvalue": 0,
    "displayName": "Missile Maniac",
    "hidden": 0,
    "description": "Kill 150 enemies using missiles",
    "icon": "https://steamcdn-a.akamaihd.net/steamcommunity/public/images/apps/395940/3a6d3921b1ba657cf91f0aa50b0818f4f79a416d.jpg",
    "icongray": "https://steamcdn-a.akamaihd.net/steamcommunity/public/images/apps/395940/9b011942d8512c69cc6c3d05c057a1bdd41788c5.jpg"
  },
  {
    "name": "emp_disable",
    "defaultvalue": 0,
    "displayName": "Shocker",
    "hidden": 0,
    "description": "Disable 300 tanks using EMP",
    "icon": "https://steamcdn-a.akamaihd.net/steamcommunity/public/images/apps/395940/ff444c77c34f223610aa129dd2862df4fbcb9042.jpg",
    "icongray": "https://steamcdn-a.akamaihd.net/steamcommunity/public/images/apps/395940/de58567069c9192a76e3facb46cff9c24fe6adce.jpg"
  },
  {
    "name": "shield_david",
    "defaultvalue": 0,
    "displayName": "My Best Friend",
    "hidden": 0,
    "description": "Use David to Shield 200 allies",
    "icon": "https://steamcdn-a.akamaihd.net/steamcommunity/public/images/apps/395940/7a4be9e3630a263b0d22a6422de560b87602ccea.jpg",
    "icongray": "https://steamcdn-a.akamaihd.net/steamcommunity/public/images/apps/395940/ce45216ca6c9f35b2a7fdf0bd15935f0ade9e557.jpg"
  },
  {
    "name": "kill_mines",
    "defaultvalue": 0,
    "displayName": "Sapper",
    "hidden": 0,
    "description": "Kill 50 enemies using MInes.",
    "icon": "https://steamcdn-a.akamaihd.net/steamcommunity/public/images/apps/395940/6ddb0fa45753e1b4c95d5d2ae04ce341c0295000.jpg",
    "icongray": "https://steamcdn-a.akamaihd.net/steamcommunity/public/images/apps/395940/77bc9f36cc1c6759a5688b7e60c6692600ff90f9.jpg"
  },
  {
    "name": "kill_minigun",
    "defaultvalue": 0,
    "displayName": "Shoot Em Up",
    "hidden": 0,
    "description": "Kill 50 enemies using the minigun",
    "icon": "https://steamcdn-a.akamaihd.net/steamcommunity/public/images/apps/395940/8b95a64e1421e9c785185948e0f3b22b0e155539.jpg",
    "icongray": "https://steamcdn-a.akamaihd.net/steamcommunity/public/images/apps/395940/2d4048298dcd4c3acff10cd8d81fa113401a910f.jpg"
  },
  {
    "name": "kill_shotgun",
    "defaultvalue": 0,
    "displayName": "Close And Personal",
    "hidden": 0,
    "description": "Kill 100 enemies using  shotgun",
    "icon": "https://steamcdn-a.akamaihd.net/steamcommunity/public/images/apps/395940/bba4020c17def444cecba84e008d33a66b79a8ea.jpg",
    "icongray": "https://steamcdn-a.akamaihd.net/steamcommunity/public/images/apps/395940/82786ec694e9f23c7be85e358331858389b43817.jpg"
  },
  {
    "name": "kill_boomstick",
    "defaultvalue": 0,
    "displayName": "Walk Slowly And Carry a Big Gun",
    "hidden": 0,
    "description": "Kill 50 enemies using boomstick",
    "icon": "https://steamcdn-a.akamaihd.net/steamcommunity/public/images/apps/395940/2524ce5e289fee5f925bcfe4ec38e15a98c929bb.jpg",
    "icongray": "https://steamcdn-a.akamaihd.net/steamcommunity/public/images/apps/395940/4dc9a6c5f4eab3b17cff0f8a40151000c6537870.jpg"
  },
  {
    "name": "kill_onematch",
    "defaultvalue": 0,
    "displayName": "Predator",
    "hidden": 0,
    "description": "Kill 30 or more enemies in a match",
    "icon": "https://steamcdn-a.akamaihd.net/steamcommunity/public/images/apps/395940/e2f0528482fee37ff53f32350260a6001322ca79.jpg",
    "icongray": "https://steamcdn-a.akamaihd.net/steamcommunity/public/images/apps/395940/95495db0e4e563dcdc22181835f4861392818137.jpg"
  },
  {
    "name": "winning_streak",
    "defaultvalue": 0,
    "displayName": "Winning Streak",
    "hidden": 0,
    "description": "Win 5 matches in a row",
    "icon": "https://steamcdn-a.akamaihd.net/steamcommunity/public/images/apps/395940/7b8e69396255415ecaf19512dee25ab13ded842a.jpg",
    "icongray": "https://steamcdn-a.akamaihd.net/steamcommunity/public/images/apps/395940/58cccef293b25bd0ec89b136ae6ea6b59aac90a2.jpg"
  },
  {
    "name": "win_matches",
    "defaultvalue": 0,
    "displayName": "Cloud Nine",
    "hidden": 0,
    "description": "Win 150 matches",
    "icon": "https://steamcdn-a.akamaihd.net/steamcommunity/public/images/apps/395940/138ec2989a1a358b48bbf7485c2b71048007622f.jpg",
    "icongray": "https://steamcdn-a.akamaihd.net/steamcommunity/public/images/apps/395940/d1b41a70b4e8cf62d4aa71b4d01fcec9e6b34888.jpg"
  },
  {
    "name": "medic_health",
    "defaultvalue": 0,
    "displayName": "Heal Me",
    "hidden": 0,
    "description": "Collect the Medic powerup to heal 1000 health",
    "icon": "https://steamcdn-a.akamaihd.net/steamcommunity/public/images/apps/395940/1bbe219c58500187dfd5f448ef6a38bf03ce05a4.jpg",
    "icongray": "https://steamcdn-a.akamaihd.net/steamcommunity/public/images/apps/395940/1f71871383e78e84ccf52e3d213e6ef935dbadfa.jpg"
  },
  {
    "name": "shield_absorb",
    "defaultvalue": 0,
    "displayName": "Shields Up",
    "hidden": 0,
    "description": "Using the Shield powerup absorb 2000 damage.",
    "icon": "https://steamcdn-a.akamaihd.net/steamcommunity/public/images/apps/395940/f9f205ebdfe9e39b1277654ae9c3b6252042fc21.jpg",
    "icongray": "https://steamcdn-a.akamaihd.net/steamcommunity/public/images/apps/395940/a5c6eeee6013d79dbc560f38b1639756e7035bb6.jpg"
  },
  {
    "name": "rust_kills",
    "defaultvalue": 0,
    "displayName": "Rusted No More",
    "hidden": 0,
    "description": "Kill 1000 enemies using Rust",
    "icon": "https://steamcdn-a.akamaihd.net/steamcommunity/public/images/apps/395940/652c4f5139c97c56ddd35263d5c61d01119564a7.jpg",
    "icongray": "https://steamcdn-a.akamaihd.net/steamcommunity/public/images/apps/395940/f7b96f1e34d7cebbee090e17c7d3e0ddeec61318.jpg"
  },
  {
    "name": "crate_breaker",
    "defaultvalue": 0,
    "displayName": "Break a Crate",
    "hidden": 0,
    "description": "Destroy 100 crates",
    "icon": "https://steamcdn-a.akamaihd.net/steamcommunity/public/images/apps/395940/3563caed09bae153d5241140c72fbf55f5db8754.jpg",
    "icongray": "https://steamcdn-a.akamaihd.net/steamcommunity/public/images/apps/395940/bf2a8b47589a96dede91bd6a219ffe7c93d808ec.jpg"
  },
  {
    "name": "tank_travel",
    "defaultvalue": 0,
    "displayName": "Cruiser",
    "hidden": 0,
    "description": "Travel 200 km in a tank",
    "icon": "https://steamcdn-a.akamaihd.net/steamcommunity/public/images/apps/395940/ccb37bc3a53093fa393bbd9f61f97cf22fbea946.jpg",
    "icongray": "https://steamcdn-a.akamaihd.net/steamcommunity/public/images/apps/395940/694595cdfb3e1995decc317601e4c9e72291f9c8.jpg"
  },
  {
    "name": "invisible_kill",
    "defaultvalue": 0,
    "displayName": "Peek a Boo",
    "hidden": 0,
    "description": "Kill 100 enemies while Invisible",
    "icon": "https://steamcdn-a.akamaihd.net/steamcommunity/public/images/apps/395940/2d1b69082e3bd3a41c7192689c16c8f83c485f7d.jpg",
    "icongray": "https://steamcdn-a.akamaihd.net/steamcommunity/public/images/apps/395940/03392a2e01d11294bf67d4807397e1827cf50932.jpg"
  },
  {
    "name": "see_invisible",
    "defaultvalue": 0,
    "displayName": "I See You",
    "hidden": 0,
    "description": "Kill 100 invisible enemies.",
    "icon": "https://steamcdn-a.akamaihd.net/steamcommunity/public/images/apps/395940/1331a50f823f727583984bac608aff46c4f06e7b.jpg",
    "icongray": "https://steamcdn-a.akamaihd.net/steamcommunity/public/images/apps/395940/eebaf458224f6941d907c0720bea42db1f58fe43.jpg"
  },
  {
    "name": "goliath_kills",
    "defaultvalue": 0,
    "displayName": "I Am Goliath",
    "hidden": 0,
    "description": "Kill 1000 enemies using Goliath",
    "icon": "https://steamcdn-a.akamaihd.net/steamcommunity/public/images/apps/395940/0fbf20739a81bfc64bcd9d8a305ae89d2d5a2ec6.jpg",
    "icongray": "https://steamcdn-a.akamaihd.net/steamcommunity/public/images/apps/395940/fe1d4785de68d782ad34422f2216be85ae200cd0.jpg"
  },
  {
    "name": "vent_deaths",
    "defaultvalue": 0,
    "displayName": "Vented Frustrations",
    "hidden": 0,
    "description": "Die 100 times to vents",
    "icon": "https://steamcdn-a.akamaihd.net/steamcommunity/public/images/apps/395940/6688873ca63d13be0766ef9f6a4ceafd656f7834.jpg",
    "icongray": "https://steamcdn-a.akamaihd.net/steamcommunity/public/images/apps/395940/5b2772daa42d9b774bcd7dc62821a910d821c368.jpg"
  },
  {
    "name": "speedy_kills",
    "defaultvalue": 0,
    "displayName": "Can't catch me",
    "hidden": 0,
    "description": "Kill 100 enemies while under the effects of Speed",
    "icon": "https://steamcdn-a.akamaihd.net/steamcommunity/public/images/apps/395940/8ec6a3ccddc2bf55ed07f0475a0f7c36aef4ea6e.jpg",
    "icongray": "https://steamcdn-a.akamaihd.net/steamcommunity/public/images/apps/395940/244abf193a1e67b2d33c963c0c77c101ffbee10f.jpg"
  },
  {
    "name": "kill_speed",
    "defaultvalue": 0,
    "displayName": "Speed Ticket",
    "hidden": 0,
    "description": "Kill 100 Speeding enemies",
    "icon": "https://steamcdn-a.akamaihd.net/steamcommunity/public/images/apps/395940/5b1d3d7e35e9bd85f61e28e5d1f58e0029a60eef.jpg",
    "icongray": "https://steamcdn-a.akamaihd.net/steamcommunity/public/images/apps/395940/adaeb4bf74b98cbdd58b24acfcf30ac5081afdf7.jpg"
  },
  {
    "name": "first_win",
    "defaultvalue": 0,
    "displayName": "Victorious",
    "hidden": 0,
    "description": "Win your first match",
    "icon": "https://steamcdn-a.akamaihd.net/steamcommunity/public/images/apps/395940/67538fd1c57625214076b3f1f653c18a21a3f325.jpg",
    "icongray": "https://steamcdn-a.akamaihd.net/steamcommunity/public/images/apps/395940/58cccef293b25bd0ec89b136ae6ea6b59aac90a2.jpg"
  },
  {
    "name": "first_kill",
    "defaultvalue": 0,
    "displayName": "First Blood",
    "hidden": 0,
    "description": "Always remember your first kill",
    "icon": "https://steamcdn-a.akamaihd.net/steamcommunity/public/images/apps/395940/08909287122e2ae413ce676cd0f187b5ed3bc4fc.jpg",
    "icongray": "https://steamcdn-a.akamaihd.net/steamcommunity/public/images/apps/395940/0abff76bf52e473551385eadb31b177ced3058f7.jpg"
  }
]