[
  {
    "name": "LEVEL01",
    "defaultvalue": 0,
    "displayName": "Level One",
    "hidden": 0,
    "description": "Complete Level One",
    "icon": "https://steamcdn-a.akamaihd.net/steamcommunity/public/images/apps/944300/f742308524cc6412128ed325c0d7b6a4f32573d6.jpg",
    "icongray": "https://steamcdn-a.akamaihd.net/steamcommunity/public/images/apps/944300/f57039db3b90ca1730736c3ed39b84712368db09.jpg"
  },
  {
    "name": "LEVEL02",
    "defaultvalue": 0,
    "displayName": "Level Two",
    "hidden": 0,
    "description": "Complete Level Two",
    "icon": "https://steamcdn-a.akamaihd.net/steamcommunity/public/images/apps/944300/9c17d652aaa0c240c430cdf029f3f03987141616.jpg",
    "icongray": "https://steamcdn-a.akamaihd.net/steamcommunity/public/images/apps/944300/5ad9a14d78b5265abda58d175d7649ea1f3abe97.jpg"
  },
  {
    "name": "LEVEL03",
    "defaultvalue": 0,
    "displayName": "Level Three",
    "hidden": 0,
    "description": "Complete Level Three",
    "icon": "https://steamcdn-a.akamaihd.net/steamcommunity/public/images/apps/944300/8649947de554ef6b7ce871fb7d4818fae7c860d7.jpg",
    "icongray": "https://steamcdn-a.akamaihd.net/steamcommunity/public/images/apps/944300/8a802ada7130e64ed7b663b739f776a5b0101daf.jpg"
  },
  {
    "name": "LEVEL04",
    "defaultvalue": 0,
    "displayName": "Level Four",
    "hidden": 0,
    "description": "Complete Level Four",
    "icon": "https://steamcdn-a.akamaihd.net/steamcommunity/public/images/apps/944300/b3d9d6b5f66503f55609f559d354355ea613cf45.jpg",
    "icongray": "https://steamcdn-a.akamaihd.net/steamcommunity/public/images/apps/944300/2daf6f7d3c2a736f419d41435a69b848eed8cf23.jpg"
  },
  {
    "name": "LEVEL05",
    "defaultvalue": 0,
    "displayName": "Level Five",
    "hidden": 0,
    "description": "Complete Level Five",
    "icon": "https://steamcdn-a.akamaihd.net/steamcommunity/public/images/apps/944300/987d018b19c8bf218ce4e8214eeac5295f7fee71.jpg",
    "icongray": "https://steamcdn-a.akamaihd.net/steamcommunity/public/images/apps/944300/b3b894312ea3f01cf81e149f120056410d0878df.jpg"
  }
]