{
  "Dlcs": {},
  "Name": "BLOK DROP NEO",
  "AppId": "722680",
  "ImageUrl": "https://steamcdn-a.akamaihd.net/steam/apps/722680/header.jpg?t=1517461700",
  "Languages": [
    "english"
  ],
  "Platforms": {
    "windows": true,
    "mac": false,
    "linux": false
  }
}