﻿{
  "Dlcs": {},
  "Name": "Guns'n'Stories: Preface VR",
  "AppId": "716260",
  "ImageUrl": "https://steamcdn-a.akamaihd.net/steam/apps/716260/header.jpg?t=1582817334",
  "Languages": [
    "english",
    "russian",
    "french",
    "italian",
    "german",
    "spanish",
    "tchinese",
    "japanese"
  ],
  "Platforms": {
    "windows": true,
    "mac": false,
    "linux": false
  }
}