{
  "Dlcs": {},
  "Name": "Championship Manager 2007",
  "AppId": "8040",
  "ImageUrl": "https://steamcdn-a.akamaihd.net/steam/apps/8040/header.jpg?t=1592490371",
  "Languages": [
    "english"
  ],
  "Platforms": {
    "windows": true,
    "mac": false,
    "linux": false
  }
}