{
  "Dlcs": {
    "942190": {
      "Name": "X4: Foundations Collector's Edition - Extra Content",
      "ImageUrl": "https://steamcdn-a.akamaihd.net/steam/apps/942190/header.jpg?t=1598361302"
    },
    "1133000": {
      "Name": "X4: Split Vendetta",
      "ImageUrl": "https://steamcdn-a.akamaihd.net/steam/apps/1133000/header.jpg?t=1598357470"
    },
    "1288460": {
      "Name": "X4: Cradle of Humanity",
      "ImageUrl": "https://steamcdn-a.akamaihd.net/steam/apps/1288460/header.jpg?t=1598693389"
    },
    "1239390": {
      "Name": "",
      "ImageUrl": ""
    },
    "1277600": {
      "Name": "",
      "ImageUrl": ""
    },
    "1288490": {
      "Name": "",
      "ImageUrl": ""
    }
  },
  "Name": "X4: Foundations",
  "AppId": "392160",
  "ImageUrl": "https://steamcdn-a.akamaihd.net/steam/apps/392160/header.jpg?t=1598625017",
  "Languages": [
    "english",
    "german",
    "french",
    "italian",
    "schinese",
    "portuguese",
    "spanish",
    "tchinese",
    "russian",
    "korean",
    "japanese"
  ],
  "Platforms": {
    "windows": true,
    "mac": false,
    "linux": true
  }
}